i recently tried to download over song from my music library from my to my phone using this,v10.1,2017-02-19,Saurabh Misra,3
many song did not copy and there wa no alert or error,v10.1,2017-02-19,Saurabh Misra,3
can the team fix this,v10.1,2017-02-19,Saurabh Misra,3
work a it issue is it forgets downloaded even the file please fix,v10.1,2017-01-17,Tarin Mahmood,4
sometimes is a and sometimes work flawlessly,v10.1,2017-01-08,Cactoos Belde,2
this work like a i switch on my laptop,v10.1,2016-09-12,Kantanu Kumar Mohapatra,5
work beautifully,v10.1,2016-09-09,Kelly Tall,5
you can download on to your device via the remote and all,v10.1,2016-09-09,Kelly Tall,5
to play my music from the computer to the phone with out downloading,v10.1,2016-08-31,Steve R,4
now it no longer work no matter what i do,v10.1,2016-07-22,Anthony Burton,1
on all my machine,v10.1,2016-07-22,Anthony Burton,1
great and work really the only addition i would appreciate is the ability to search a track and then play it immediately rather just adding it to the,v10.1,2016-07-14,Rachel Eaton,4
this here is the greatest you can get alongside controller,v10.1,2016-06-24,Καρλ Αντονέσκου,5
used to be 5 but this is now completely useless because the developer have removed the support for version of older 13,v10.1,2016-06-11,Matthew Hadfield,1
i have installed version 131 on my laptop and then installed this remote on my enabled network remote control i tried all the 3 address it wa showing me on the first screen in it is still not suggest what to do,v10.1,2016-06-03,shriyansh agrawal,1
lack of support for older version of ha made this completely useless to me,v10.1,2016-05-17,Ariez Vachha,1
doe it make sense to bring update button back to make it more intuitive,v10.1,2016-05-15,Robin Cherry,5
stopped working,v10.1,2016-05-06,Paulo Roberto Urio,1
i have this behavior on my and a well on raspberry i am directly connected to it,v10.1,2016-04-09,jp15sil24,5
you a song and another one will play,v10.1,2016-04-09,jp15sil24,5
5 star anyway cause the is crash and the connection over is very simple,v10.1,2016-04-09,jp15sil24,5
is this or the program running on raspberry still improved or can we expect new version,v10.1,2016-04-09,jp15sil24,5
work greatly,v10.1,2016-02-21,Andrea Grezzani,5
enable auto discovery and it a 5 star,v10.1,2016-02-05,Dins D,4
just installed it a few minute ago,v10.1,2016-01-28,Stephen McManus,5
had it up and running in second,v10.1,2016-01-28,Stephen McManus,5
a sleep timer and stop current song would be quite welcome,v10.1,2015-11-28,biebel okko,4
remote can automatically scan and find of with running,v10.1,2015-09-23,Alex Ushakov,5
developer do the same,v10.1,2015-09-23,Alex Ushakov,5
enter every time new is not comfortable,v10.1,2015-09-23,Alex Ushakov,5
i get frequent connection drop and freeze,v10.1,2015-08-07,Bogdan Serban,5
what am i missing,v10.1,2015-07-17,Rafe DiDomenico,5
i mainly use this outdoors,v10.1,2015-07-14,Matthew Lanahan,4
must give it a try,v10.1,2015-07-05,Võ Anh Hưng,5
crash downloading over,v10.1,2015-06-12,Akshay Ghate,4
i have submitted crash log through email,v10.1,2015-06-12,Akshay Ghate,4
this take care of everything else,v10.1,2015-06-06,Aman Roland,5
but in my nexus 5 i have to unlock the screen in order to use the maybe it is an operating system but it would be great something would be done about it,v10.1,2015-04-16,Anderson Brandao,5
the first which made me comment on play,v10.1,2015-04-15,ali reza mehrjardi,5
you should be able to play any saved even they are not opened in a tab of the and you should be able to play smart,v10.1,2015-03-24,Jonathan Fenske,4
this ability were i would rate this 5 star,v10.1,2015-03-24,Jonathan Fenske,4
no messy setting ups just install and use,v10.1,2015-02-20,A. Anand,5
122 remote and downloading correct no connection,v10.1,2015-01-27,Steve Fury,1
a future version could be added,v10.1,2015-01-13,Jimmy Tigert,5
one more thing in my opinion is the back button should actually disconnect and completely close the application instead of putting it to the background,v8.1,2013-12-05,Tihomir Kit,5
one it possible to download song to the card instead of internal memory,v8.1,2013-12-04,Karsten Anderson,5
i forced the update on just to try out the,v8.1,2013-12-04,Nathan Salapat,5
everything work and run quite i did notice some lag with the volume notification on the though it changed the volume right away on the computer,v8.1,2013-12-04,Nathan Salapat,5
connects seamlessly to my computer,v8.1,2013-12-04,Kevin Knebel,5
issue is connecting with varying address,v8.2,2013-12-09,Russell Faull,5
made the switch is no more and not regretting anything yet,v8.2,2013-12-07,Polaris Hui,5
wa crashing on start i first got it but i talked to the developer in some email and he fixed it and sent me a new build directly,v8.4,2013-12-20,Jon Bakes,5
amazes me how fast my computer responds to the control,v8.5,2014-12-10,Loren Stuck,5
it a fast a you were to do it on the computer,v8.5,2014-12-10,Loren Stuck,5
take too long to log in,v8.5,2014-12-09,Paul McEneaney,3
can download what is currently playing on direct to phone,v8.5,2014-12-09,Paul McEneaney,3
the lock screen panel sits of unlock pattern and freeze after,v8.5,2014-11-27,Vladimir Belomorski,2
keep telling me to upgrade to 121 12 is the last one on the site of and in 1404,v8.5,2014-11-20,Wilco Roos,4
work on shuffle,v8.5,2014-10-28,Benjamin Copeland,5
there are a couple missing are really noticeable,v8.5,2014-10-15,Seth Knox,4
there should be a way to clear a with one tap,v8.5,2014-10-15,Seth Knox,4
i have the newest version of both the player and the remote installed and the remote still asks for an upgrade,v8.5,2014-10-07,Goran Niksic,1
i am looking forward to trying this the fix is published,v8.5,2014-10-07,Goran Niksic,1
grab your a static and,v8.5,2014-09-27,Cody Volckmar,5
last is 12,v8.5,2014-09-19,Saso Dzuljo Petrovski,3
good idea implemented in a great way,v8.5,2014-08-28,Chandrakanth Cheturvedi,4
i can edit and fix cover of song effortlessly,v8.5,2014-08-27,Kevin Alex Francisco,5
i run and have had much trouble getting and the corresponding song onto my galaxy,v8.5,2014-08-09,Vinnie Vegas,5
this ha solved my problem,v8.5,2014-08-09,Vinnie Vegas,5
work beautifully,v8.5,2014-08-05,Jan N,5
no lag on the remote,v8.5,2014-08-05,Jan N,5
by etc,v8.5,2014-08-05,Jan N,5
this is just what i needed to control music from my phone,v8.5,2014-08-02,Diego Bello,4
is very customizable in it and this is just not on par with it yet,v8.5,2014-07-24,,2
i would like to disable album cover from my galaxy lock screen medium control i have a great family pix also the volume doe not appear to work from the lock screen,v8.5,2014-07-09,Al Haines,5
work perfectly in both window and,v8.5,2014-07-03,Tobias Asplund,5
running the version of and let me just say it development like this that are really helping me put the final nail in the coffin for window,v8.5,2014-06-10,Christopher Napoli,5
this is why open source is the greatest thing ever happened to software,v8.5,2014-06-05,Logan Saunders,5
hopefully this will change,v8.5,2014-05-11,Bruno Bunčić,5
edit playing around with firewall it started to work just and i just have to get a new phone with more memory to use it,v8.5,2014-05-11,Bruno Bunčić,5
i cannot sort by album i do on my computer,v8.5,2014-03-23,Adam Kowalski,4
having to constantly switch back and forth between screen is cumbersome,v8.5,2014-03-23,Keith Patton,4
even turned down the volume automatically my phone wa receiving a call,v8.5,2014-03-18,Robbie Avni,5
new launch the way,v8.5,2014-03-15,NAVNEET PATEL,5
messed around on searching for deb package on and resolving dependency,v8.5,2014-03-12,Stefan Mojsilovic,5
in the end i found the package on the site for just i for and after do aptitude install f to get the dependency,v8.5,2014-03-12,Stefan Mojsilovic,5
had to manually get some it resolve itself,v8.5,2014-03-12,Stefan Mojsilovic,5
and is actively developing,v8.5,2014-03-08,Richard Wonka,5
ability to download song to my phone is great,v8.5,2014-03-01,Devajyoti Barman,4
all i can ask for is the ability to stream audio to my phone from,v8.5,2014-03-01,Devajyoti Barman,4
it ha been running non stop for 3 day now,v8.5,2014-03-01,Devajyoti Barman,4
no crash,v8.5,2014-03-01,Devajyoti Barman,4
got installed on my home server with speaker,v8.5,2014-02-22,Kurtis Pullin,5
feature is the best thing ever but sadly it is still buggy,v8.5,2014-02-21,Karan Pratap Singh,5
kept getting storage not found error,v8.5,2014-02-21,Karan Pratap Singh,5
smart not no search structure for album of a specific artist,v8.5,2014-02-15,Wolfgang Post,2
but you gave me more able to downloads the song from my server to my on the fly is such an amazing feature,v8.5,2014-02-12,Evan Cardinal,5
all i ever wanted from this wa to not have to run back to my computer and put a rating in for every new song and now i have it,v8.5,2014-02-03,Alicia Wagner,5
work fine and fast,v8.5,2014-01-23,Cost Granda,5
a widget would be though,v8.5,2014-01-06,Cristian Ștefănescu,4
i search for a song on the browser but it just play first song of my library not the one i click please help,v8.5,2014-01-01,diego alba,3
