bump version,b,2014/11/26,,
add material icon,f,2014/11/26,,
set material theme on android 5,o,2014/11/25,,
update,b,2014/11/25,,
update android support library version,b,2014/11/25,,
reword string,o,2014/11/25,,
android studio file,o,2014/11/24,,
use instead of,b,2014/11/22,,
remove unused string,o,2014/11/22,,
add option to strip id from station name,f,2014/11/17,,
in station list,o,2014/11/17,,
provide up button in action bar for 14,f,2014/11/06,,
replace with copyright symbol,b,2014/11/05,,
update build tool to 140,b,2014/11/05,,
bump version,b,2014/10/31,,
show toast,o,2014/10/31,,
restore fragment state on screen rotation fix 7,b,2014/10/31,,
