migrate build to infrastructure,b,2015/9/27,,
update android support library version,b,2015/9/27,,
update build tool version,b,2015/9/27,,
refresh widget list a favorite station,f,2015/9/27,,
fix multiple activity launching from widget,b,2015/9/27,,
always refresh station list with latest data from database in,b,2015/9/27,,
automatically update widget new data is downloaded through application,b,2015/9/27,,
open application on click on widget title,o,2015/9/27,,
add translation instruction about string,f,2015/8/17,,
move all translation into one file,o,2015/8/17,,
precede apostrophe by in string,o,2015/8/17,,
fix wrongly closed string tag,b,2015/8/17,,
fix untranslated string,b,2015/8/17,,
remove widget preview image property,b,2015/6/23,,
rename private constant field,o,2015/6/23,,
add widget for favorite station,f,2015/6/23,,
fix 20,b,2015/6/23,,
added string,b,2015/6/06,,
added translation,b,2015/6/06,,
fixed problem on first start,b,2015/6/06,,
fix crash on first run,b,2015/6/05,,
update android support library version,b,2015/6/01,,
update dependency to 123,b,2015/6/01,,
automatically update station on resume data are more than 10 min old,b,2015/5/31,,
fix 18,b,2015/5/31,,
update contribute section,b,2015/5/30,,
android studio file,o,2015/5/10,,
bump version,b,2015/5/02,,
update android support library version,b,2015/5/02,,
fix crash in level 16,b,2015/5/02,,
fix 16,b,2015/5/02,,
