# deletions,date,commit message
4,2013/2/01,[maven-release-plugin] prepare for next development iteration
4,2013/2/01,[maven-release-plugin] prepare release agit-parent-1.36
18,2013/2/01,Update to AMP 3.5.0  https://groups.google.com/d/topic/maven-android-developers/w5H0oRWJN9I/discussion  Note that non-release builds are now debuggable by default...
1,2013/2/01,Update to current version of JGit
4,2013/2/01,[maven-release-plugin] prepare for next development iteration
4,2013/2/01,[maven-release-plugin] prepare release agit-parent-1.35
2,2013/2/01,Update to latest version of scala-maven-plugin - requires Maven 3.0.4
1,2013/2/01,Fix #88 - Old Robotium not working on Nexus 4  https://github.com/rtyley/agit/issues/88
