# deletions,date,commit message
14,2013/1/31,Fix quotes within German translation.  XML requires excaping single quotes.  Update copyright statement to 2013.  I disclaim copyright on these changes and thus put it in the public domain.
27,2013/1/11,[BUGFIX]: re-translation into german for the current version. old was very incomplete.
1,2012/11/17,Update sample repos list with current JGit repo url  Taken from http://git.eclipse.org/c/jgit/jgit.git
1,2012/10/25,update to roboguice-sherlock 1.5
1,2012/10/25,upgrade to AMP 3.4.0
4,2012/10/25,Upgrade to ABS 4.2.0  https://github.com/JakeWharton/ActionBarSherlock/issues/617
4,2012/8/14,[maven-release-plugin] prepare for next development iteration
4,2012/8/14,[maven-release-plugin] prepare release agit-parent-1.34
13,2012/8/14,fixup commit-navigation when going from a 'latest' commit  This got broken with the introduction of the fragment stuff- there's also a small improvement in that the branch name is now passed through to the commit viewer activity.
4,2012/8/14,Update to use official release of Chris Bane's pulltorefresh-library  https://github.com/chrisbanes/Android-PullToRefresh/issues/61
2,2012/8/13,Mildly improve error messages on OutOfMemoryError exceptions in Git ops  OutOfMemoryError is not an exception so onException() was not getting called. Also the OutOfMemoryErrors I'm seeing generally don't have a message so change to use the exception name as a message until I can think of something helpful to write about them...  Note that there is still more that can be done here - for one thing the sync adapter will keep on trying to hit the faulty repo and will consequently cause out of memory errors at will... need to store a flag somewhere saying 'last fetch NOT successful' - and leave that remote alone.
9,2012/8/13,Upgrade to JGit 2.0
2,2012/8/12,Update Credits
1,2012/8/12,Drop support for obsolete Android v2.1 (Eclair) and target Jelly Bean  context.getExternalCacheDir() came in with Froyo.  http://developer.android.com/reference/android/content/Context.html#getExternalCacheDir()  Eclair is now on only a very small fraction of devices... terrifyingly phone operators are _still_ selling Froyo.
1,2012/8/12,Fix file filtering on pre-Gingerbread devices  file:///home/roberto/tools/android-sdk-linux/docs/reference/java/lang/String.html#isEmpty()  ...this method is from API level 9 onwards.
1,2012/8/12,upgrade to amp 3.3.0
4,2012/8/10,Fix integer-overflow-broken Tag-time comparision  Occasionally led to crashes when TimSort realised the comparison was broken otherwise just gave incorrect ordering...
1,2012/8/10,upgrade to zinc-enabled scala-maven-plugin  not sure it makes a diff here tho...
1,2012/8/10,tweak error message when test repo can not be found
69,2012/8/09,Add ranking of filtered file-list matches better matches first
13,2012/8/10,Make FileListFragment respect the search button notification from activity
5,2012/6/28,Attempt to stop Commit diff view from buzzing it's impending arrival  Becomes even more apparent when viewpager fragments are involved as the buzzing can occur seemingly randomly. Now the initial progress setting is made before the vibration-feedback listener is attached.
219,2012/6/28,Change commit-viewer activity to use a viewpager add file list  Note the pagerIds for the 2 viewpagers - current and 'next' - are deliberately changed to be distinct so that the pager adapter doesn't allocate them identical fragment names. Otherwise the fragment manager would just use the same fragments for both.
18,2012/8/10,Add blob-viewer activity  Use the google-code-prettify library to present text-based blob content or launch the android picker if it's binary (passing thru detected mime-type)  Amend blob frag to launch viewer...
5,2012/6/24,Fix jerkyness on swiping sideways through Branch viewer activity  Deactiviating the unnecessary animation fixes this jerkyness.
11,2012/6/29,Add File-List fragment to Branch Viewer activity using a viewpager  Users can now see the current file list for the head of the branch they're viewing.
11,2012/8/09,Create filterable File-List fragment  The searchbox works on honeycomb and above with SearchView gingerbread and below with a subsitute textview.  Caching helps though larger regexes could still take a long time to run for a long filter list - doing 'indexOf' instead of regex appears to be around ten times faster than regex.  Only decorate the displayed file matches  decorating *all* matching files can take a little time putting this into the viewholder code makes sense if we assume the user is going to spend more time typing than scrolling up and down the screen.  respect editor 'action' key hit by minimising search view  Use monospace text for ref name in the file filter query box
246,2012/8/10,Move commit-log list in Branch viewer to new LogFragment  also tidy CVA
6,2012/6/26,git intent tweaks
180,2012/8/10,update with copyright notice for 2012
10,2012/6/25,No longer die if the default repos dir is no longer available  Users can now save to different locations so it's certainly not a fatal error.
4,2012/6/24,Fix crash in Clone launcher when user enters just '.git' for the repo url  URIish should probably blow up when some tries to create it with '.git'...!  java.lang.ArrayIndexOutOfBoundsException at org.eclipse.jgit.transport.URIish.getHumanishName(URIish.java:569) at com.madgag.agit.CloneLauncherActivity.defaultRepoDirFor(CloneLauncherActivity.java:291) at com.madgag.agit.CloneLauncherActivity.updateUIWithValidation(CloneLauncherActivity.java:140) at com.madgag.agit.CloneLauncherActivity$2.afterTextChanged(CloneLauncherActivity.java:98) at android.widget.TextView.sendAfterTextChanged(TextView.java:6705) at android.widget.TextView$ChangeWatcher.afterTextChanged(TextView.java:6894) at android.text.SpannableStringBuilder.sendTextHasChanged(SpannableStringBuilder.java:921) at android.text.SpannableStringBuilder.change(SpannableStringBuilder.java:401) at android.text.SpannableStringBuilder.change(SpannableStringBuilder.java:269) at android.text.SpannableStringBuilder.replace(SpannableStringBuilder.java:432) at android.text.SpannableStringBuilder.delete(SpannableStringBuilder.java:218) at android.text.SpannableStringBuilder.delete(SpannableStringBuilder.java:28) at android.view.inputmethod.BaseInputConnection.deleteSurroundingText(BaseInputConnection.java:224) at com.android.internal.view.IInputConnectionWrapper.executeMessage(IInputConnectionWrapper.java:377) at com.android.internal.view.IInputConnectionWrapper$MyHandler.handleMessage(IInputConnectionWrapper.java:79) at android.os.Handler.dispatchMessage(Handler.java:99) at android.os.Looper.loop(Looper.java:130) at android.app.ActivityThread.main(ActivityThread.java:3691) at java.lang.reflect.Method.invokeNative(Native Method) at java.lang.reflect.Method.invoke(Method.java:507) at com.android.internal.os.ZygoteInit$MethodAndArgsCaller.run(ZygoteInit.java:907) at com.android.internal.os.ZygoteInit.main(ZygoteInit.java:665) at dalvik.system.NativeStart.main(Native Method)
601,2012/6/19,Replace pull-to-refresh code with Chris Bane's Android-PullToRefresh lib  This library is under active development and uses Maven making it easier for me as a potential contributor to get it building. It's also packaged as an apklib making it easier to use without having to copy and paste code into my own project.  Note that it was necessary to change the view's id from "@android:id/list" to "@+id/pull_to_refresh_list_wrapper" to avoid this fatal error on screen rotation:  E/AndroidRuntime(31031): java.lang.RuntimeException: Unable to start activity ComponentInfo{com.madgag.agit/com.madgag.agit.BranchViewer}: java.lang.IllegalArgumentException: Wrong state class expecting View State but received class android.widget.AbsListView$SavedState instead. This usually happens when two views of different type have the same id in the same hierarchy. This view's id is id/list. Make sure other views do not use the same id. E/AndroidRuntime(31031):        at android.app.ActivityThread.performLaunchActivity(ActivityThread.java:1956) E/AndroidRuntime(31031):        at android.app.ActivityThread.handleLaunchActivity(ActivityThread.java:1981) E/AndroidRuntime(31031):        at android.app.ActivityThread.handleRelaunchActivity(ActivityThread.java:3351) E/AndroidRuntime(31031):        at android.app.ActivityThread.access$700(ActivityThread.java:123) E/AndroidRuntime(31031):        at android.app.ActivityThread$H.handleMessage(ActivityThread.java:1151) E/AndroidRuntime(31031):        at android.os.Handler.dispatchMessage(Handler.java:99) E/AndroidRuntime(31031):        at android.os.Looper.loop(Looper.java:137) E/AndroidRuntime(31031):        at android.app.ActivityThread.main(ActivityThread.java:4424) E/AndroidRuntime(31031):        at java.lang.reflect.Method.invokeNative(Native Method) E/AndroidRuntime(31031):        at java.lang.reflect.Method.invoke(Method.java:511) E/AndroidRuntime(31031):        at com.android.internal.os.ZygoteInit$MethodAndArgsCaller.run(ZygoteInit.java:784) E/AndroidRuntime(31031):        at com.android.internal.os.ZygoteInit.main(ZygoteInit.java:551) E/AndroidRuntime(31031):        at dalvik.system.NativeStart.main(Native Method) E/AndroidRuntime(31031): Caused by: java.lang.IllegalArgumentException: Wrong state class expecting View State but received class android.widget.AbsListView$SavedState instead. This usually happens when two views of different type have the same id in the same hierarchy. This view's id is id/list. Make sure other views do not use the same id. E/AndroidRuntime(31031):        at android.view.View.onRestoreInstanceState(View.java:9963) E/AndroidRuntime(31031):        at com.handmark.pulltorefresh.library.PullToRefreshBase.onRestoreInstanceState(PullToRefreshBase.java:708) E/AndroidRuntime(31031):        at android.view.View.dispatchRestoreInstanceState(View.java:9939) E/AndroidRuntime(31031):        at android.view.ViewGroup.dispatchRestoreInstanceState(ViewGroup.java:2318) E/AndroidRuntime(31031):        at android.view.ViewGroup.dispatchRestoreInstanceState(ViewGroup.java:2324) E/AndroidRuntime(31031):        at android.view.ViewGroup.dispatchRestoreInstanceState(ViewGroup.java:2324) E/AndroidRuntime(31031):        at android.view.View.restoreHierarchyState(View.java:9917) E/AndroidRuntime(31031):        at com.android.internal.policy.impl.PhoneWindow.restoreHierarchyState(PhoneWindow.java:1600) E/AndroidRuntime(31031):        at android.app.Activity.onRestoreInstanceState(Activity.java:906) E/AndroidRuntime(31031):        at android.app.Activity.performRestoreInstanceState(Activity.java:878) E/AndroidRuntime(31031):        at android.app.Instrumentation.callActivityOnRestoreInstanceState(Instrumentation.java:1100) E/AndroidRuntime(31031):        at android.app.ActivityThread.performLaunchActivity(ActivityThread.java:1934) E/AndroidRuntime(31031):        ... 12 more W/ActivityManager(27872):   Force finishing activity com.madgag.agit/.BranchViewer
4,2012/6/13,[maven-release-plugin] prepare for next development iteration
4,2012/6/13,[maven-release-plugin] prepare release agit-parent-1.33
4,2012/6/13,[maven-release-plugin] prepare for next development iteration
4,2012/6/13,[maven-release-plugin] prepare release agit-parent-1.32
1,2012/6/12,version twitch
4,2012/6/12,[maven-release-plugin] prepare for next development iteration
4,2012/6/12,[maven-release-plugin] prepare release agit-parent-1.31
13,2012/6/12,set striped-red background for actionbar  This is similar-ish to the old theme - it doesn't do so well with grey menu option drop-downs from the overflow list...  http://developer.android.com/design/style/color.html
75,2012/6/12,Add welcome text to dashboard activity  Would be nice to have to the welcome message disappear as soon as the user starts their first clone...
6,2012/6/10,Add 'Open Repo' option to allow opening Git repos already on device  This is a follow on to issue #36 which allowed Agit to remember repos located in non-default locations.  The file browsing is provided by OI File Manager which the use is prompted to install if it's not already present.
7,2012/6/09,fix #36: store repo locations in a DB to handle non-default checkouts
109,2012/6/08,Use a Loader for the dashboard get work off the UI thread  Also using a 'fragment' for the first time- the repo list fragment.
0,2012/6/08,Use refresh icon from Android Design's Action Bar Icon Pack  These are the '1-navigation-refresh.png' files from Android_Design_Icons_20120229.  http://developer.android.com/design/downloads/index.html
1,2012/5/25,fix spacing of 'thumb' image on diff seeker bar so thumb does not clip  see here for related info:  http://stackoverflow.com/questions/6491266/android-seekbar-clipped-thumb
66,2012/5/31,Fix TagViewer regression and switch to integration test rather than robolectric  The awful guice repository-scope problems are avoided by passing the repo down as a parameter - so the TagViewer is no longer blank.  The robolectric test has been dying horribly on some systems seemly due to bytecode problems and it didn't give any indication of failure when the TagViewer regressed - so an integration test is replacing the robolectric one.
3,2012/5/29,Display current branch (if any selected) in commit viewer  Also provides action bar link upwards from the commit viewer- if you've specified a branch the link will head back up to the branch commit-list view rather than directly to the repo page.
14,2012/5/28,Use prefix titles on actionbar (subtitle-on-top)  Crumb-trail style thing...
38,2012/5/31,delete troublesome dashboard test - maybe replace it later  fake clicking on a button in an actionbar is bit dubious
855,2012/5/25,switch to ActionbarSherlock for an ICS-style actionbar  Unfortunately this means removing the big friendly Clone button on the dashboard as it's rather bigger than the regular actionbar... need to add some kind of welcome
19,2012/5/26,UX tweak don't show fiddly fields until the Clone url is populated  Establishing the clone-url is always going to be the user's first priority so don't distract them with other fields until they've made headway on that task.  This tweak is only enabled on Honeycomb and above ie where the gentle LayoutTransition animation is available. The change is too distracting if it occurs instantly without animated fade-in.
4,2012/5/24,[maven-release-plugin] prepare for next development iteration
4,2012/5/24,[maven-release-plugin] prepare release agit-parent-1.30
4,2012/5/24,Revert to maven-resource-filtering for updating the version code  Although some of the Android docutmentino indicates otherwise the Android Market won't let you publish an APK with a lower versionCode than previously published for that product. So unfortunately we can't use the nice 'versionCodeUpdateFromVersion' flag from android-maven-plugin v3.  Reverts some of commit 3b80319cb5a46c59035d0eaaefa728eb2c1513a7.
4,2012/5/24,[maven-release-plugin] prepare for next development iteration
13,2012/5/24,[maven-release-plugin] prepare release agit-parent-1.29
7,2012/5/24,add unit test for bitbucket web launch use https rather than ssh  I think it's better to default to https rather than ssh clone urls for this case because SSH access requires the user to have an SSH key installed - even if it's a public repo.  also normalise formatting of AndroidManifest
1,2012/5/24,re-enable proguard mistakenly completely disabled with 1222a40f  Unfortunately it's necessary to manually add various methods used by the integration tests - as they're only supplied by the implementation APK and proguard needs to know not to throw them away so they're available when the integration tests run.
169,2012/5/23,improve maven conf for manifest-updating- android-maven-plugin v3
22,2012/5/22,improve status-bar notifications for ICS and also Honeycomb  Legibility greatly improved appropriate colours are used to match ordinary notifications:  * ICS - the new Notification.Builder and the default notification layout are used. The layout is abused slightly with the 'info' textview being updated (tho the id for this textview is hidden) to serve as the progress text field.  * Honeycomb and below - differences in colour between different versions of Android are handled by using the StatusBarNotificationStyles class which is based off http://stackoverflow.com/a/7320604/438886  The AndroidManifest target sdk update to '13' (ie Honeycomb) is necessary to get the nice Holo-styling on the progress bar. Targeting ICS will have to wait until ABS support is in:  "Applications targeting [14] or a later release will get these new changes in behavior: For devices without a dedicated menu key the software compatibility menu key will not be shown even on phones. By targeting Ice Cream Sandwich or later your UI must always have its own menu UI affordance if needed on both tablets and phones. The ActionBar will take care of this for you."
1,2012/5/22,compile against Android 4.0...
6,2012/5/22,use standard android ids for title & progress views to match ICS  Notification.Builder uses android.R.id.title & android.R.id.progress in it's layouts.
51,2012/5/21,upgrade to android-maven-plugin 3.2.0  This has been a long time coming - the proguard-handling changed with the release of 3.0.0 and we've been stuck on an alpha-release ever since... finally made it on to the modern version!  The exclusions are unfortunately necessary to avoid Dalvik verifier errors as it freaks out over differently proguard-ed versions of the same class.
1,2012/5/21,use ActivityInstrumentationTestCase2 constructor available in Froyo
18,2012/5/21,fix up InjectedTestRunner (RG2)  One new requirement is ensuring that you refer to RoboContext-subclasses...
8,2012/5/20,fix some tests by using Application context rather than activity (RG2)  A lot of the test-fixes hinge on switching from injecting 'Context' (which is taken to mean Activity or Service) to injecting Application - which is a context that is always available and doesn't require your classes to be ContextScoped.
4,2012/5/20,fix GitAsyncTask test including correcting base application modules (RG2)  Note setBaseApplicationInjector() *doesn't* automatically add the xml-configured module if you pass your own modules as parameters.
1,2012/4/26,run GitAsyncTask thread within ContextScope (RG2)  The GAT thread is very likely to have to perform injection ensuring it's in the ContextScope seems wise.
160,2012/5/21,Update to RoboGuice 2 - various API changes  Delete special application classes (impl test) as they're no longer necessary.  com.google.inject.internal.Nullable is no longer available.
1,2012/5/21,improve display of unusable network address list supplied for test server
5592,2012/5/21,code-formatting apocalypse
16,2012/5/04,Push repository-scoping of git operations further down  This is to simplify stubbing out - so as to not have to worry about reposcope at the stubbing level.
63,2012/5/04,Remove unused: var from Clone op and TransportFactory class
1,2012/5/03,Use toy-ssh-agent with older version of sshj that works on Froyo
4,2012/5/03,remove call to properties.load(reader) introduced in API level 9
16,2012/5/03,Provide host IP to android device for integration tests  Used so the device can hit a local git server running in the maven-running host device.
84,2012/3/14,Delete unused roboservicetestcase
12,2012/3/15,tidy test remove unsed ref to RoboUnitTestCase
1,2012/3/14,Robolectric 1.0
1,2012/3/14,use simplified toy-ssh-agent  fewer dependencies
7,2012/3/15,Revert "Use Application rather than Context in CuriousHostKeyRepository"  This reverts commit 6a90dcc9a6a2330d2091eb0513dcf5e94cea8280 which seems to do the opposite of what it's commit message states...
4,2012/3/05,[maven-release-plugin] prepare for next development iteration
11,2012/3/05,[maven-release-plugin] prepare release agit-parent-1.28
18,2012/3/05,Default text-entry prompt to password-style behaviour  This affects both username & password entry but is the best option for a blanket default behaviour  Distinguishing between username and password is a bit more work and there's not much harm making username entry password style as well - especially as this is often put into the clone url.
7,2012/3/05,Fix NPE on rotating while showing a username/password prompt
52,2012/3/05,Fix issue #41 - Illegible Person ident window  Correctly use the dialog theme context - basically fixed with the great info from this post about theme contexts:  https://plus.google.com/107708120842840792570/posts/VTeRBsAeyTi  http://stackoverflow.com/questions/8547720/platform-version-independent-custom-dialog-with-standard-icon-title-and-buttons/8547823#8547823
1,2012/3/05,tweak gitignore ignore .idea project files
9,2012/3/04,Fix for yes/no dialog NPE introduced with de1aeed2
10,2012/3/04,Fix for issue #67 - in-url credentials not working  This actually goes a bit further and as well as allowing clone urls like this to work:  https://rtyley:mypassword@github.com/rtyley/enigma.git  It also gets the string prompt stuff working so that it actually prompts you for your username and password if they're not present in the url.  One thing it doesn't yet do is make the input box behave like a proper password-entry box if it's a password tho...
1,2012/2/28,This should fix the bug on diff view where the thumb is at max even though the diff view is at 50%
7,2012/2/17,Use Application rather than Context in CuriousHostKeyRepository  Application is of course always available and we don't actually need the Activity context
2,2012/2/17,Remove use of doomed RoboUnitTestCase base class
22,2012/2/17,Add integration tests for Branch list activities  Also refactoring Tag test
9,2012/2/17,Add failing test for the repo viewer  The RepositoryViewerActivityTest test was formerly empty.
18,2012/2/17,Avoid hassle of having to context-scope in the KeyRepository  RoboGuice 2 was complaining about not using Context-scoping but I think everything should be fine using the Application as the context.
8,2012/2/17,Tidy pom
233,2012/2/17,Reformat pom.xml files - using spaces not tabs
27,2012/2/17,Tidy up proguard a bit
1,2012/2/17,Update to Carge maven plugin 1.2.0  http://cargo.codehaus.org/Maven2+Plugin+Getting+Started
4,2012/1/17,[maven-release-plugin] prepare for next development iteration
4,2012/1/17,[maven-release-plugin] prepare release agit-parent-1.27
6,2012/1/17,Fix #47 - Exception on checking out some repos due to InflaterInputStream  Calling InflaterInputStream.close() on Oracle Java doesn't call end() on its Inflater if you supplied the Inflater in the constructor - but Android incorrectly *does*. Inflaters can't be used after end() has been called which means you can't re-use Inflaters after using them with an InflaterInputStream on Android - which is precisely what JGit tries to do with InflaterCache. This results in either NullPointerException or IllegalStateException depending on what version of Android you're using.  The fix here is to only use special HarmonyFixInflaterInflaters in InflaterCache - these Inflaters can be re-used after being handed to InflaterInputStream because they ignore their end() method. This is ok because you still have to hand your Inflater back to the InflaterCache once you're finished with it and InflaterCache will now 'decommision' it's Inflaters - which thanks to our HARMONY_FIX_FACTORY actually DOES end() the Inflater and release it's resources.  https://github.com/rtyley/agit/issues/47
1,2012/1/17,Use released JGit with support for issue #47 inflater-decommisioning  Conflicts:  pom.xml
36,2012/1/13,Update to latest patched version of JGit - 1.2
1,2012/1/13,Revert "Try AMP 3.0.0 final (now that CI system is stable again)"  Sad revert - I have a seperate branch for trying to get AMP 3 final working - in the meantime return to the alpha once again.  This reverts commit a014c970f5140daa021baa7accac6ac3506c7775.
1,2011/12/01,Try AMP 3.0.0 final (now that CI system is stable again)
1,2011/12/01,Revert "testing github-push notification..." and going back to AMP-alpha-14  3.0.0 final seems to crash out the build...  This reverts commit 76f13eecc94b66e4b0f204a6ebcfca09307e993d.
1,2011/12/01,testing github-push notification...  https://wiki.jenkins-ci.org/display/JENKINS/Github+Plugin
1,2011/12/01,gitignoring the apklib contents
139,2011/12/01,Revert "putting more strings into xml for translation"  Doing this to make integration tests work again... the whole opspec refactor will be required to get these context strings working again...  This reverts commit 67661e7a9900e2efda2bec9a2646d337cc448a3a.  Conflicts:  agit/res/values/strings.xml agit/src/main/java/com/madgag/agit/operations/Clone.java agit/src/main/java/com/madgag/agit/operations/Fetch.java
4,2011/11/17,Update to AMP 3.0.0-alpha-14 to cope with DDM lib changes etc
1,2011/11/08,Update CREDITS.markdown
9,2011/10/12,Update imports that were referencing non-local R strings.  Also removes unused imports that were present in these class files.
73,2011/10/10,Took ProGuard config out to much clearer non-entitiy-escaped file
2,2011/10/05,This hava home lib path is correct for me on my Ubuntu laptop
5,2011/10/01,Update MAP to AMP  http://code.google.com/p/maven-android-plugin/wiki/PluginRenamed
24,2011/9/30,Explain location of Java platform Jars to ProGuard to fix #50  Solution taken from:  https://github.com/jayway/maven-android-plugin-samples/blob/stable/morse flash/morseflash-app/pom.xml
1,2011/9/28,Update to latest version of MAP
3,2011/9/20,Allow Diff Slider to hold at midway point - closes #51  It's possible that the text size should be greater than 50% at the halfway point... ie both should be at 66% and be parabolic
3,2011/9/04,Fix-up strings for fetch-op
161,2011/9/04,putting more strings into xml for translation
4,2011/9/04,Don't suggest android.kernel repos which are currently unavailable
1,2011/9/04,lastest alpha of MAP
4,2011/9/03,[maven-release-plugin] prepare for next development iteration
4,2011/9/03,[maven-release-plugin] prepare release agit-parent-1.25
1,2011/9/03,Dang snapshot version...
0,2011/9/03,checking in test data I forgot to checkin with 55e10943
99,2011/9/01,Use JGIt API pull command (with the Transport Config Callback tweak)
5,2011/9/01,Change the 'fetch' intent into a 'repo.SYNC' intent to *pull* non-bare (issue #37)  The explicit fetch intent is removed for now - the SYNC intent will still just do a fetch if it's a bare repo.
25,2011/8/31,Use a string to denote Remote rather than RemoteConfig  I like strongly typed objects but the JGIt API doesn't accept one it accepts a string - and RemoteConfig s more than I need.
16,2011/8/31,Show local branches if there are any otherwise the remote branches  There seems to be something different about the JGit API clone command implementation (compared to the hand-rolled one I did) - it doesn't create refs for remote branches when doing a bare repo.
36,2011/8/31,throw nice exception messages  why are there no branches showing?!
762,2011/8/25,Implement 'Pull' operation for issue #37 - will update working dir  Not hooked up to anything yet...  https://github.com/rtyley/agit/issues/37  Use JGit api FetchCommand (with patch to make transports work...)  need to address exceptions - must still unwrap them
10,2011/9/02,Finished Polish translation
1,2011/8/30,latest maven-android-plugin
35,2011/8/30,fix the copied to clipboard message which wasn't getting translated  also remove newlines from new italian translation as newlines appear to be displayed to the end user...
2,2011/8/30,Fixed 2 small errors in Javadoc
7,2011/8/30,Show confirmation dialog for repo deletion - fixes issue #40
1,2011/8/25,Upgrade to maven-android-plugin 3.0.0-alpha-3  It's full of good stuff!  https://groups.google.com/d/topic/maven-android-developers/0nCHI-ixGjE/discussion
4,2011/8/22,[maven-release-plugin] prepare for next development iteration
4,2011/8/22,[maven-release-plugin] prepare release agit-parent-1.24
1,2011/8/22,Credit Bernd for contributing a German translation (see issue #35)  - thanks Bernd!
4,2011/8/21,[maven-release-plugin] prepare for next development iteration
4,2011/8/21,[maven-release-plugin] prepare release agit-parent-1.23
10,2011/8/21,Finished draft for German translation not tested on device yet
1,2011/8/16,Move to maven-android-plugin 3.0.0 part of issue #32 (Eclipse support)  I've been holding off using the 3.0.0 line of maven-android-plugin because the latest release doesn't yet contain this fix:  https://github.com/jayway/maven-android-plugin/pull/42  ...it's quite an annoying regression to live with (often killing a deploy unexpectedly) but I guess I can live with it for a while. Just hope a new release comes out before I'm driven to return to the 2.9.x series... :)
3,2011/8/12,Fix #30 - NPE on clicking Latest Commit when the repo failed to clone  If there are no commits latest commit is null.  I hate null checks bah!
4,2011/8/08,[maven-release-plugin] prepare for next development iteration
4,2011/8/08,[maven-release-plugin] prepare release agit-parent-1.22
3,2011/8/08,Tweak SSH fingerprint notification ticker-text  doesn't just show the centred hostname anymore...
4,2011/8/08,[maven-release-plugin] prepare for next development iteration
4,2011/8/08,[maven-release-plugin] prepare release agit-parent-1.21
1,2011/8/08,Use JGit patched for the low-mem deflation loose-object header issue  see:  http://thread.gmane.org/gmane.comp.version-control.git/178752/focus=178923
7,2011/8/08,Fix #27 and close #29 - problems with github url parsing  (uri path starts with a slash so path[0] is always empty)  In the future could add parsing for github urls like  https://github.com/rtyley/agit/commits/master https://github.com/rtyley/agit/commit/0b20f717064e68c3115b20615c0cd83be86366ed  To take us to the correct rnch or commit in Agit if the repo already exists...
3,2011/8/07,Make sure we only get the repository owner and name out of the path nothing more.  Signed-off-by: Eddie Ringle <eddie@eringle.net>
4,2011/7/29,[maven-release-plugin] prepare for next development iteration
4,2011/7/29,[maven-release-plugin] prepare release agit-parent-1.20
39,2011/7/29,Localise relative times (final bit of localisation for issue #28 ?)  I am now officially in love with this method for formatting relative times:  http://developer.android.com/reference/android/text/format/DateUtils.html#getRelativeTimeSpanString(long)  - allows me to delete a big ugly method. Hurrah!
1,2011/7/29,Update Credits with contributors and missing libraries
3,2011/7/28,Literalize BEFORE and AFTER strings
1,2011/7/28,Localize repo list header title
45,2011/7/19,remove unused class
58,2011/7/19,Package shuffling
5,2011/7/16,Support clone-intent from Eclipse Labs projects on Google Code  http://code.google.com/a/eclipselabs.org/hosting/  eg:  http://code.google.com/a/eclipselabs.org/p/code-recommenders/source/checkout
4,2011/7/16,[maven-release-plugin] prepare for next development iteration
4,2011/7/16,[maven-release-plugin] prepare release agit-parent-1.19
4,2011/7/16,[maven-release-plugin] prepare for next development iteration
4,2011/7/16,[maven-release-plugin] prepare release agit-parent-1.19
2,2011/7/16,Be less annoying by only showing Agit intent when user hits 'Source'  ie https://code.google.com/p/test-for-agit/source/checkout  There are not yet many Google Code projects using Git it's a bit over the top showing the Agit intent for every single Google Project page.
15,2011/7/16,Support for Google Code Git repos  Can launch from Web urls also incorporates patched version of JGit to deal with http://code.google.com/p/support/issues/detail?id=5576
1,2011/7/12,fix the prompting services - shouldn't bleed over between ops
45,2011/7/12,Fix the integration tests: jsch userinfo no longer used for host-checking
3,2011/7/12,tidy
10,2011/7/12,tidy
1,2011/7/12,tweak
32,2011/7/12,Better formatting for SSH server-fingerprint prompt
40,2011/7/11,Getting prompts to show correctly on screens other than the Repo Viewer  Seems to work much better on pull-to-refresh for ssh repos - just need to get the 'SSH Auth fail' messages displaying nicely...
7,2011/7/11,tidy
63,2011/7/10,Make Sync ops respect cancellation
375,2011/7/10,Slightly better DI for PromptBroker et al  com.madgag.android.blockingprompt gradually becoming more generic-ish
1,2011/7/07,double whoops - and rosa pointed it out too...
976,2011/7/07,give integration tests module a better name also don't use obsolete googCs
2,2011/7/07,Unnecessary - already keep all subclases of View
137,2011/7/06,Package reorg - underwhelming attempt to make the main package smaller
3,2011/7/06,tidy
1,2011/7/06,Update to latest version of maven-android-plugin
29,2011/7/06,Better error messages partly by removing nesting of exceptions  Tolerate all exceptions from ops it's reasonable they should throw them
3,2011/7/06,Correct title of error notification
1,2011/7/06,tweak readme
4,2011/7/05,[maven-release-plugin] prepare for next development iteration
4,2011/7/05,[maven-release-plugin] prepare release agit-parent-1.12
8,2011/7/05,Commenting out suggested repo validating test  can not get it to reliably pass :-(
52,2011/7/05,Guide users to setup an ssh-agent if they try to do a clone of an ssh url  As a bit of bonus feature also display the transport protocol implied by the url.
2,2011/7/05,tidy
1,2011/7/05,Determine protocol user is entering...
100,2011/7/04,Working on #24 - making it possible to cancel long-running ops like a clone  This commit actually fulfils Savvas's request that deleting a repo should cancel any download associated with that repo.  There's a bit more to do than that though as I'd like to add a 'cancel' button which will cancel the current op without actually deleting the repo  https://github.com/rtyley/agit/issues/24
1,2011/7/04,method overload for convenience
1,2011/7/04,Expose handy utility method to get top-level dir of repo
109,2011/7/02,tweak Guice use in SyncAdapter  prepping for cancellation functionality
1,2011/6/30,tidy
1,2011/6/30,Better name for status bar notification layout
58,2011/6/30,Tidy sync code into something injectable
1,2011/6/30,tweak
1,2011/6/29,comment out redis - it's repo is a slower than the preceding ones
13,2011/6/29,Tidy
2,2011/6/29,tweak debug lengthen timeout again...
3,2011/6/29,Use TimeUnit seconds rather than minutes - minutes isn't in Android  http://stackoverflow.com/questions/5497324/why-arent-java-util-concurrent-timeunit-types-greater-than-seconds-available-in
2,2011/6/28,Longer timeouts to get integration build to pass...
33,2011/6/28,Added paranoia test to ensure all suggested repos actually can be cloned
1,2011/6/27,Update to JGit 1.0
4,2011/6/25,[maven-release-plugin] prepare for next development iteration
4,2011/6/25,[maven-release-plugin] prepare release agit-parent-1.11
1,2011/6/25,Some debug to check whether the device is running an Inflater-fixed vm
9,2011/6/25,Fix #25 - Agit Periodic-Sync fetch failing (due to bad method lookup)  The addPeriodicSync() method takes the seconds as a *long* not an int.  http://developer.android.com/reference/android/content/ContentResolver.html#addPeriodicSync(android.accounts.Account java.lang.String android.os.Bundle long)
1,2011/6/24,Remove surplus 'wait' param from cargo conf  http://comments.gmane.org/gmane.comp.java.cargo.devel/11017  http://cargo.codehaus.org/Maven2+plugin
4,2011/6/24,Correcting clearly wrong package names in test that cause failure on Eclair  Guess they changed the resolution algorithm for post 2.1...  java.lang.RuntimeException: Unable to resolve activity for: Intent { act=org.openintents.git.tag.LIST flg=0x10000000 cmp=com.agit/com.madgag.agit.RDTypeListActivity (has extras) } at android.app.Instrumentation.startActivitySync(Instrumentation.java:371) at android.test.InstrumentationTestCase.launchActivityWithIntent(InstrumentationTestCase.java:120) at android.test.ActivityInstrumentationTestCase2.getActivity(ActivityInstrumentationTestCase2.java:89) at com.madgag.agit.RDTypeListActivityStoryTest.testShouldShowAllTags(RDTypeListActivityStoryTest.java:62) at java.lang.reflect.Method.invokeNative(Native Method) at android.test.InstrumentationTestCase.runMethod(InstrumentationTestCase.java:205) at android.test.InstrumentationTestCase.runTest(InstrumentationTestCase.java:195) at android.test.ActivityInstrumentationTestCase2.runTest(ActivityInstrumentationTestCase2.java:175) at android.test.AndroidTestRunner.runTest(AndroidTestRunner.java:169) at android.test.AndroidTestRunner.runTest(AndroidTestRunner.java:154) at android.test.InstrumentationTestRunner.onStart(InstrumentationTestRunner.java:430) at android.app.Instrumentation$InstrumentationThread.run(Instrumentation.java:1447)
1,2011/6/24,Small test explicitly checking that zero-length files can be unpacked
9,2011/6/22,Use some smaller repos for demos!  The sizes reported by GitHub seem way too small in general. I've fonud the best way to judge the size of a repo (and thus it's download time in Agit) is to do a bare clone and check the size of the result:  $ du -h --max-depth=1 41M     ./django.git 3.9M    ./maven-android-plugin.git 3.4M    ./connectbot.git 5.7M    ./compojure.git 207M    ./base.git 32M     ./mongo.git 2.5M    ./sshj.git 1.6M    ./scalatra.git 12M     ./robolectric.git 14M     ./jquery.git 248K    ./android-plugin.git 15M     ./celery.git 18M     ./puppet.git 5.0M    ./jgit.git 9.1M    ./xsbt.git 2.0M    ./Music.git 1.8M    ./Train-Schedule-Android-Application.git 2.9M    ./gwtorm.git 23M     ./node.git 5.6M    ./LEGO-MINDSTORMS-MINDdroid.git 12M     ./spongycastle.git 3.3M    ./redis.git
2,2011/6/20,fix typo
3,2011/6/20,Tweak 'about' menu item and 'home' button  Changes based on a couple of items from Nick Butcher's feedback:  - about menu item could do with an icon (probably android.R.ic_menu_info) - when using the ActionBar 'home' button to return to the first screen need to set the CLEAR_TOP flag to clear the back stack
0,2011/6/17,V4 Remote icons from the mighty Michael Goldrei
1,2011/6/17,correct markdown
2,2011/6/17,Update dependency info
4,2011/6/17,[maven-release-plugin] prepare for next development iteration
4,2011/6/17,[maven-release-plugin] prepare release agit-parent-1.10
4,2011/6/17,[maven-release-plugin] prepare for next development iteration
4,2011/6/17,[maven-release-plugin] prepare release agit-parent-1.9
43,2011/6/17,Fix #22 : 'About' Markdown crashes on pre-Gingerbread devices  Using markdownj rather than markdownpapers to avoid dependency on Deque class which is not available pre-Gingerbread
2,2011/6/16,Working on issue #22 : 'About' Markdown crashes on pre-Gingerbread devices  Here is a test which will hopefully fail on the Jenkins build...
4,2011/6/16,[maven-release-plugin] prepare for next development iteration
4,2011/6/16,[maven-release-plugin] prepare release agit-parent-1.8
3,2011/6/15,Fixes #21 - the awful "SSH-prompt kills Agit if you rotate-the-phone" bug  There's still work to do making orientation changes not cause an entire re-eval of the repo but at least total death has been avoided.
4,2011/6/15,Small tidy up of the repo-update broadcaster which notifies activities to update their screen
4,2011/6/13,[maven-release-plugin] prepare for next development iteration
4,2011/6/13,[maven-release-plugin] prepare release agit-parent-1.7
4,2011/6/13,Remove 'Git' from list of suggested repos because it is pretty large
1,2011/6/13,Add README file and add link to the app on the Android Market!  https://market.android.com/details?id=com.madgag.agit
4,2011/6/13,[maven-release-plugin] prepare for next development iteration
4,2011/6/13,[maven-release-plugin] prepare release agit-parent-1.6
2,2011/6/13,fix ordering
3,2011/6/13,Disable menu options that don't work try to make tag viewer standup straight
1,2011/6/13,Make Author & Committer layout better sharing space
9,2011/6/13,Various styling tweaks
11,2011/6/13,unused
18,2011/6/12,Add Tag and Branch icons to repo viewer- needs some work on styling
4,2011/6/12,gentle tweak of expanded ongoing-op notification view
28,2011/6/12,Harmonise the repo-state-change listeners so that dashboard updates nicerer
0,2011/6/12,V4 Repo icon from Michael Goldrei
387,2011/6/12,Delete old icon SVGS
0,2011/6/12,Fixed hi-res branch icon from Michael
8,2011/6/12,Deleting old rdt icons
0,2011/6/12,V3 of Michael Goldrei icons!
4,2011/6/12,[maven-release-plugin] prepare for next development iteration
4,2011/6/12,[maven-release-plugin] prepare release agit-parent-1.5
8,2011/6/12,Fix 'Delete Repo' op so that it actually does cause Repo Viewer to close
11,2011/6/12,Don't show repos that cause exceptions - fixes #20  Even better of course would be to show them and give some explanatory text about the problem. But not showing them at all is better than them taking the entire app down.
1,2011/6/12,Provide multi-resolution copies of the Agit dashboard logo
3,2011/6/12,tweaks to Repo Viewer layout spacing
3,2011/6/12,Fix italic clipping problem in a few more places
3,2011/6/12,Use Michael Goldrei's commit icon everywhere retire the old one  I've been naughty and scaled down the ldpi and mdpi ones rather than ask him to do a properly rescaledd version.
4,2011/6/12,[maven-release-plugin] prepare for next development iteration
4,2011/6/12,[maven-release-plugin] prepare release agit-parent-1.4
20,2011/6/12,Badass Android 2.1 (Eclair) support - fix TabHost NPE  Was getting an NPE at TabHost.dispatchWindowFocusChanged(TabHost.java:295) for Android 2.1. Android 2.2 and greater has been fixed with this commit:  http://android.git.kernel.org/?p=platform/frameworks/base.git;a=blobdiff;f=core/java/android/widget/TabHost.java;h=412f817353a99054ab36234e1441b48c6c7ad820;hp=31920e764e6d25523b6dd5ffb1e4087d4d8fa3b0;hb=acdef59d66094f11da4a6f57194747dc06f73da2;hpb=159f0015418955501d8cf2744b0393db2e73f394  -which basically does a null-check in dispatchWindowFocusChanged()  Fix is to extend TabHost and simply override the dispatchWindowFocusChanged() method with a similar null-check.
4,2011/6/12,Additional debug - trying to work out 2.1 tabs issue...
20,2011/6/12,tidy
15,2011/6/12,Use reflection to only add periodic sync if the device supports it  Aimed at supporting 2.1 - works on the HTC Hero I'm testing on but unfortunately the commit viewer is now broken?!?
4,2011/6/12,[maven-release-plugin] prepare for next development iteration
4,2011/6/12,[maven-release-plugin] prepare release agit-parent-1.3
1,2011/6/12,try not to wipe out the signed-zipaligned build
4,2011/6/12,[maven-release-plugin] prepare for next development iteration
4,2011/6/12,[maven-release-plugin] prepare release agit-parent-1.2
1,2011/6/12,Android market requires an int  I am unlikely to do more than one release an hour.  Grief.
1,2011/6/11,tidy
4,2011/6/11,[maven-release-plugin] prepare for next development iteration
4,2011/6/11,[maven-release-plugin] prepare release agit-parent-1.1
7,2011/6/11,Cleaning up my module interdependencies for Maven 3  http://stackoverflow.com/questions/1981151/warning-on-using-project-parent-version-as-the-version-of-a-module-in-maven-3  http://stackoverflow.com/questions/3684664/maven-property-substitution-not-done-for-project-version-tag-of-pom/3685248#3685248
17,2011/6/11,[maven-release-plugin] prepare for next development iteration
3,2011/6/11,[maven-release-plugin] prepare release agit-parent-1.0
1,2011/6/11,Whoops want the test utils to build but not the integration tests...
3,2011/6/11,Auto-update the android manifest with Version info  Also turn of debugging in PROD tho I'm not sure if I think that's a really good idea given the audience who actually might want to debug the app!
9,2011/6/11,apk alignsign release-related maven config  Mostly taken from Manfred Moser's impressive collection of maven config:  http://www.simpligility.com/2010/07/sign-zipalign-and-to-market-to-market-with-maven/  https://github.com/mosabua/maven-android-plugin-samples/blob/master/morseflash/morseflash-app/pom.xml
228,2011/6/10,Fix Sync so that it doesn't ask the user questions every time a sync occurs  Did this by defining an 'operation scope' where diferent kinds of BlockingPromptService can be bound.  Can't quite believe that defining a new custom scope is the best way to do this but it's basically a slightly souped-up version of a threadlocal which is what I'd have to use anyway.
2,2011/6/10,Finally replace Google Collections with Guava
85,2011/6/09,commit icon from michael goldrei
3,2011/6/09,Added tree & blob icons from Michael
37,2011/6/09,Really 2 commits add Michael Goldrei icons and...  ...attempt to make Pull-To-Refresh messages better
1,2011/6/08,Change pull-to-refresh message so it makes more sense if you do it twice
1,2011/6/07,Bugfix! Only call onRefreshComplete() AFTER updating the adapter...  ...or the notification header will stick around like a bad smell.
14,2011/6/07,Update to latest version of PullToRefreshListView  Includes a few tweaks and bugfixes  git://github.com/johannilsson/android-pulltorefresh.git 3fd944eba54ced4432c23a84565a984fe9346ead
6,2011/6/07,Tidy
1,2011/6/06,helpful note...
1,2011/6/06,fix intent name parsing...
2,2011/6/06,Update to 2.3.3 platform for android sdk and remove the path hardcoding
1,2011/6/06,Use published version of viewholder-listviews
203,2011/6/06,Use 'org.openintents.git.' intent prefix as guide towards interop  I'm trying to signal to the developers of related apps (e.g. GitHub clients) that they can invoke these intents and not have to worry that they are locking themselves into my app.
6,2011/6/06,I have a vague hope this will ensure the deploy order starts with toy-ssh  -and not Agit
1,2011/6/05,Fix NPE when Repo has no commits
1,2011/6/05,Stop Agit appearing as a place to sync contacts to...  ---  http://www.c99.org/2010/01/23/writing-an-android-sync-provider-part-2/#comment-807  February 10th 2010 at 18:40 @Sharad add android:supportsUploading=”false” to your contact provider xml (sync_contacts.xml in my example) to disable creation of new contacts
3,2011/6/05,tidy
1,2011/6/05,change sync process name (still not sure why it needs own process)  ...definitely do NOT want to be confused with contacts (Agit currently shows on my phone as a place to sync phone numbers to!..???)
1,2011/6/05,yms tidy
1,2011/6/05,Failed to properly release the last version...
41,2011/6/04,Show latest commit nicerly...
19,2011/6/03,Repo viewer now shows most important data doesn't link anywhere  also looks like arse.
86,2011/6/02,Get an annoying NPE trying to populate the RemoteSummaryView
89,2011/6/01,Start customising RMA layout  Sadly while a listview looks smart it's not really appropriate I think.
14,2011/5/31,The Account name should be constant regardless of Locale  ...you wouldn't want want multiple accounts would you?
1,2011/5/31,Use release version of android-pinned-header-listviews
82,2011/5/31,Repos chronologically sorted in Dashboard view  ...seems a little slow tho...
2,2011/5/30,Support syncing (ie doing a fetch on all repos)  The Android Account model doesn't fit well with what I want...  Really I don't care about 'accounts' I just want to provide a separate sync function for each repo (but each sync-er is declared using <sync-adapter> so I can't easily have e.g. 3 sync-ers for 3 repos...   http://stackoverflow.com/questions/4649808/syncadapter-without-a-contentprovider  http://stackoverflow.com/questions/5146272/sync-adapter-without-account
20,2011/5/30,We don't always want to execute a gitop from an aaync task...  the android sync manager gives you your own thread
27,2011/5/29,tidy
466,2011/5/29,Use android-pinned-header-listviews for the commit diff list- closes #3  https://github.com/rtyley/android-pinned-header-listviews
1,2011/5/27,Use the release version of android-viewholder-listviews
16,2011/5/27,Make branch list look prettier- show head commit
22,2011/5/26,Guice-ified the Commit item view so that it's imagesession is less obtrusive
20,2011/5/26,Tweak the diff seekbar
3,2011/5/25,does this help the mysterious zero-height header not-getting-measured?
5,2011/5/25,stop floating header from displaying when it's not wanted...  ...ie when the group header is exactly at the top of the screen
6,2011/5/25,logging: trying to understand the zero-height floating header problem  The problem seems to be that onMeasure() isn't getting called to measure the header... so it stays zero height.
2,2011/5/23,Draw shadow for header...  ...also reveals a clue to the 'where's my header problem?' - the answer is 'just off the top of the page'
112,2011/5/23,Show full file path when file header is expanded
20,2011/5/22,Just realised the problem with this approach  the scrollbars end up underneath the pinned header.  bugger.
11,2011/5/22,New PHL behaves semi-right doesn't push-up
1,2011/5/22,Should do this a little more carefully...
2,2011/5/22,
10,2011/5/21,Removed the nasty group expansion indicators  Commit list looks much better now
85,2011/5/21,Factor out commit file diff header generation
22,2011/5/20,Diff transition works faster usually better - but sometimes not at all
25,2011/5/19,Commit diffs now show correct diff-progress even when they scroll back
3,2011/5/19,Correct shadow alpha
8,2011/5/19,tidy
288,2011/5/19,Fix unnecessary surplus diff calcs that came using a transforming view  Duh. Now copied using array list  Also refactored code a bit... would like some kind of limited cache...
5,2011/5/18,tidy
4,2011/5/18,Only show floating header if group expanded
7,2011/5/18,Forced white background looks better need to refresh text layout...
3,2011/5/17,Header now actually floats upwards when next group header approaches...
1,2011/5/17,Overlays the first guy at the moment...
85,2011/5/15,Fix #17 'Dateless annotated tags crash the Repo Viewer activity'  If the annotated tag doesn't have a date use the date of the object it's pointing to.
7,2011/5/14,Add checkout command to branch viewer- JGit checkoutcommand demands branch name
3,2011/5/14,Dodgy tweak to status bar- want it to ellipsise the status text but it won't!
1,2011/5/14,Status bar notifications for ongoing ops now slightly more informative text
9,2011/5/14,User now sees dashboard update with newly created repo when clone-op has completed repo init.  Fixes issue #5
1,2011/5/14,Update to latest jgit build
5,2011/5/12,Use Guava instead of the 'ancient and unmaintained' Google Collections  http://code.google.com/p/google-collections/ says:  What you see here is ancient and unmaintained. Do not use it.  Guava is a fully compatible superset of the old Google Collections Library. It also includes years worth of bug fixes doc fixes and performance fixes so we strongly encourage you to use Guava instead of Google Collections.
11,2011/5/11,Fix commitviewer to use all remote branches if no branch specifid  Fixes coming to a commit from a tag...
5,2011/5/10,tweak
37,2011/5/10,Tweak Credits
80,2011/5/10,Use Markdown for Credits - partially because it displays nice in github
40,2011/5/10,Add 'About' screen with partial list of dependencies to thank...
13,2011/5/10,Update document borders...
0,2011/5/10,Taken from the "Silk”free icon set by Mark James  http://www.famfamfam.com/lab/icons/silk/
48,2011/5/10,Tweaking CommitView and trying to make it testable...
142,2011/5/06,Use better ObjectId view on Commit viewer
2,2011/5/04,Add tap-to-see-more-detail on person idents  The avatar is currently too small...
8,2011/5/03,Better formating of Object-id-copied-to-clipboard toast
186,2011/5/03,Upgrading the tag viewer to display type-specific information  Note that there are still several flaws - the most obvious is that the type icons all say 'Co' for 'Commit' at the moment.
1,2011/4/28,Add a 'Local Repositories' header on dashboard
21,2011/4/28,Work on Tag Viewer  - add scrollview with padding - fix exception occurring on lightweight tags
68,2011/4/26,Add Tag message to TagViewer  This probably breaks for non-annotated tags now.
12,2011/4/25,Fix repo name displayed on dashboard list
2,2011/4/25,Tweak dashboard header padding. Looks quite good right now.  I tried adding margins to the 3 items in the relative view but the bottom of the button came out without padding...
10,2011/4/25,Better layout for the dashoard header
3,2011/4/25,Some more sample repos
2,2011/4/25,Move the centre bright-spot of the radial gradient to the top of the rect
32,2011/4/25,Failed attempt to get the commit list initial fast scroll working.
6,2011/4/25,Correct list padding by using simple_list_item_2  two_line_list_item does *not* have padding
40,2011/4/25,Tidy-up trying to get padding back on lists - and failing  Seems that the ListActivity doc is contradictory:  http://developer.android.com/reference/android/app/ListActivity.html  @android:id/list - correct I think @id/android:list - wrong...
43,2011/4/25,Attempt to use monospace font for git object id header
26,2011/4/25,UI Tweak CloneLauncher - padding & better message on existing folder
3,2011/4/25,Padding italic text so it won't get clipped
1,2011/4/25,The Target folder edit text just wants to be a local path...  ...but TYPE_TEXT_VARIATION_URI seems closest...
5,2011/4/24,Delete old test - the 'readiness' message can be visible at other times
16,2011/4/24,Update Repo list on dashboard with resume  Seem to have lost our padding somewhere tho...
27,2011/4/24,Dashboard restyle with the big clone button in the top right  the button is unfortunately tooo big at the moment....  oh relativelayout when will we learn to unleash your magical charms?
19,2011/4/24,Use startActivityForResult() because it is probably The Right Thing To Do
2,2011/4/24,Tweak wording of helper messages
3,2011/4/24,remove unnecessary config - the links are still clickable without them
5,2011/4/24,Better behaviour on making clone uri field empty
71,2011/4/24,Make the helpful messages of the execution bar clickable
18,2011/4/24,incremental improvement to helpful text on the execution bar
30,2011/4/24,Clone Launcher test clean-up prep for help-text upgrade  robolectric tests are a hell of a lot more fun than regular Android testing
3,2011/4/24,You want a small button you have to have small 9-patch for its background.  The style changes are irrelevant until we get that small 9patch
7,2011/4/23,Fix bare repo button to update the default file location with '.git'
26,2011/4/23,Tidy up CloneLauncher robolectric test (use the robolectric matcher)
18,2011/4/23,Styling for the Clone Launcher inc bottom 'ExecutionBar'  - The 'ExecutionBar' lets the 'Clone' button float above your keyboard so it's always ready  - Add padding in the central scrollview to make everything a bit nicer.  - Add text hint for the two textfields
1,2011/4/22,Set Proguard to keep reflection-detected 'onClick' methods
1,2011/4/21,Intellij seems to think this is necessary...
1,2011/4/21,Damn - this should have made everything good with proguard  but it didn't
43,2011/4/21,Use common Proguard configuration across App AND Integration Tests  This ensures the tests fail realistically rather than providing missing classes...
1,2011/4/21,tidy...
21,2011/4/21,Activating proguard again hopefully tests should expose problems...
8,2011/4/21,Tweak ssh user selection in integration tests.
48,2011/4/20,Name the handler to clarify it's posting to the UI thread
6,2011/4/20,only update the list of commits not the entire adapter...
2,2011/4/20,tidy
1,2011/4/20,remove the barfing debug on CloneLauncher text entry...
1,2011/4/20,Fix prompt for ssh passwords to show title...
1,2011/4/20,Move RepositoryProvider (why doesn't AgitModule need changing?!)
13,2011/4/19,Add support for DSA keys as well as RSA in git+ssh connections
1,2011/4/19,Fix SSH password prompt  Explanatory text not yet showing
7,2011/4/18,Use only ToySshAgent for auth in integration tests  If you're running integration tests on your phone and have another ssh-agent installed (eg ConnectBot) then you don't want to have that causing your tests to fail (if for instance you haven't got any unlocked keys in ConnectBot)
2,2011/4/17,Specify that I want a Main-thread looper  The instumentation tests do not NEVER HAVE run on the UI thread....
2,2011/4/16,Tweaking pom naming
112,2011/4/16,Introducing Robolectric test to Agit...  replaces the boringly broken CloneActivityUnitTest which was not very unit-y anyway.
43,2011/4/15,Fix broken compilation add some view-based matchers
2,2011/4/14,Only need to use 'duplicate detection' when you're using hamcrest...  http://code.google.com/p/hamcrest/issues/detail?id=125
325,2011/4/14,test fail but at least everything seems compile...
3,2011/4/13,Fix compile failure in Test - really need to keep an eye on those!
2,2011/4/13,Update to 2.9.0-beta-3 of M-A-P - which includes my fix for issue #137!  http://code.google.com/p/maven-android-plugin/issues/detail?id=137
112,2011/4/13,this prob doesn't work quite yet don't have a device to test on!
39,2011/4/12,use custom Jsch HostKeyrepository which will ask it's own questions  Just want it to remember which keys we've okayed not sure if I like the idea of using a public authkeys file.
21,2011/4/12,Delete correct directory for bare repos  ...previously we deleting parent folder to gitdir... and that was actually the folder that contained ALL repos...
42,2011/4/11,Refresh branch ref when creating commit list - finally pull to refresh works  doesn't work if you're using SSH as the knownhosts thing breaks things...
292,2011/4/11,Use new ViewHolder framework for a pretty cool reduction of boilerplate
124,2011/4/11,Refactor list code into a 'ViewHolder'-based framework for big listviews  The 'ViewHolder' pattern was described by Romain Guy in this talk:  "Google I/O 2009 - Turbo-charge your UI: How to Make your Android UI Fast and Efficient"  http://www.youtube.com/watch?v=N6YdwzAvwOA   Not sure why no-one has ever written this little framework before me
1,2011/4/11,Hope that this will make the fast scroll work more reliably...
5,2011/4/11,Use existing method from JGit to resolve the gitdir
1,2011/4/11,Nasty NPE here - the ResponseInterface doesn't feel quite right  should try to devise some kind of test around this... arrgh
1,2011/4/11,fix bug with Repo nice name - wasn't actually removing the .git suffix
1,2011/4/11,Bare git repos have a name ending with '.git' by convention
2,2011/4/11,Just realised that my phone has 2.3.3 which is API level 10
10,2011/4/11,pretty RMA header
3,2011/4/11,Use proper remote branch name e.g. 'orgin/master'  -don't include all the ref path
2,2011/4/11,Specify target sdk to gingerbread minimum is 2.1 (Eclair)
25,2011/4/11,Added Gitorious web launch clone support  really wish there was some way an activity could say 'actually I have no idea what to do with this url even tho I accepted it'
6,2011/4/11,Clone Launcher now exits once a Clone has been initiated.  wanted to do this for quite some time!
32,2011/4/11,Clone Launcher now scrolls a bit more logically  helpful when your onscreen keyboard just won't get out of the way
18,2011/4/11,Added 'bare repo' support to the clone launcher
29,2011/4/11,Gave clone launcher a couple of suggestion repos...  still looks ugly.
21,2011/4/10,Update prefix on the actionbar attributes file
173,2011/4/09,Made a big friendly button for doing cloning...  The clone_picture is my own artwork it reflects the obvious lack of talent I possess as a graphic designer!  The 2 button nine-patch PNGs (btn_*_matte.9.png) are taken from this blogpost by Folkert Jongbloed :  http://www.dibbus.com/2011/03/9patch-images-in-android/  He kindly says:  "Use it for your own projects. No I don’t use any licence for this just use it and make tons of money with it!"
1,2011/4/09,updated to stop compiler being upset
82,2011/4/08,Lots of tidying renaming class packages
3,2011/4/08,a bit more debugging try to sort out the GATT
5,2011/4/07,Doing setcontent view in the repo context is a bit tricky.
14,2011/4/07,Booyah! Prompt works very nice  on ssh etch of private github repo get asked if I like the fingerprint of github
4,2011/4/07,tidy
4,2011/4/07,Some rough and ready bindings designed to get a single handler to rule them all
11,2011/4/07,Need to do something about handler...
328,2011/4/07,hooking up the guice with the newly revised RepositoryScope
143,2011/4/06,Reimplementing the (ssh) prompt machinery  Third time's the charm...
17,2011/4/05,Rather hackishly make the RepoNotifications Tests pass  ...which should give us a green build!
4,2011/4/05,tidy
112,2011/4/05,Hopefully get green build by deleting GOST tests and fixing RNT
24,2011/4/05,Rudimentary pull-to-refresh-fetch
40,2011/4/04,Tidy upgrade to Android 2.3.3 poms
8,2011/4/04,tidy
13,2011/4/04,Move the 'can hit github' test to GATT where at least there's slightly less going on  And tests in there are passing.
3,2011/4/04,tidy
1,2011/4/04,Whoops - was checking checkout-out contents in the wrong place  don't want to look in the gitdir...
46,2011/4/04,actionbar updates  https://github.com/johannilsson/android-actionbar
9,2011/4/04,pull to refresh is cool  grabbed from https://github.com/johannilsson/android-pulltorefresh
6,2011/4/04,made the RepoOpScope very... tolerant?... just returns null if not in repo scope  is this this *the* worst way I could have solved this problem???!
1,2011/4/04,reduce dex mem to half a gb prob don't really need so much
5,2011/4/04,Update to the latest version of johannilsson's android-actionbar  pretty minor update just being tidy
28,2011/4/04,Update Agit JGit/SSH/Jsch session factory code for change in JGit update
45,2011/4/04,Clone hacked to compile again with latest version of JGit
70,2011/4/04,starting upgrade of JGit to latest version...
3,2011/4/04,Tweaks around trying to use guice
4,2011/4/04,Shorten the checkout message to be nicer...
8,2011/4/04,Got fetches working again praise be!
14,2011/4/04,tidy test
4,2011/4/03,tidy...
1,2011/4/03,Add assertion to check that the dashed clone checkout completed
20,2011/4/03,Removed use of apparently broken CheckoutCommand from the JGit GIT API  Unfortunately it doesn't work for the first checkout so far as I can tell  mental note - submit fix.
26,2011/4/03,Looks like GATT is almost passing but not quite...?  D/Clone   (26283): Guessed head branchName=refs/heads/master D/GAT     (26283): Got progress to post : com.madgag.agit.Progress@40846668 D/GAT     (26283): publishLatestProgress() : Calling lifecycle publisher with com.madgag.agit.Progress@40846668 ... D/GAT     (26283): ...called lifecycle publisher. D/GAT     (26283): ...posted progress E/Clone   (26283): An actual exception E/Clone   (26283): java.lang.NullPointerException E/Clone   (26283):      at org.eclipse.jgit.lib.ObjectIdSubclassMap.index(ObjectIdSubclassMap.java:172) E/Clone   (26283):      at org.eclipse.jgit.lib.ObjectIdSubclassMap.get(ObjectIdSubclassMap.java:89) E/Clone   (26283):      at org.eclipse.jgit.revwalk.RevWalk.parseAny(RevWalk.java:809) E/Clone   (26283):      at org.eclipse.jgit.revwalk.RevWalk.parseCommit(RevWalk.java:724) E/Clone   (26283):      at org.eclipse.jgit.api.CheckoutCommand.call(CheckoutCommand.java:124) E/Clone   (26283):      at com.madgag.agit.operations.Clone.checkoutHeadFrom(Clone.java:104) E/Clone   (26283):      at com.madgag.agit.operations.Clone.execute(Clone.java:73) E/Clone   (26283):      at com.madgag.agit.operations.GitAsyncTask.call(GitAsyncTask.java:61) E/Clone   (26283):      at com.madgag.agit.operations.GitAsyncTask.call(GitAsyncTask.java:24) E/Clone   (26283):      at roboguice.util.SafeAsyncTask$Task.doCall(SafeAsyncTask.java:191) E/Clone   (26283):      at roboguice.util.RoboAsyncTask$RoboTask.doCall(RoboAsyncTask.java:54) E/Clone   (26283):      at roboguice.util.SafeAsyncTask$Task.call(SafeAsyncTask.java:165) E/Clone   (26283):      at roboguice.util.SafeAsyncTask$Task.call(SafeAsyncTask.java:153) E/Clone   (26283):      at java.util.concurrent.FutureTask$Sync.innerRun(FutureTask.java:306) E/Clone   (26283):      at java.util.concurrent.FutureTask.run(FutureTask.java:138) E/Clone   (26283):      at java.util.concurrent.ThreadPoolExecutor.runWorker(ThreadPoolExecutor.java:1088) E/Clone   (26283):      at java.util.concurrent.ThreadPoolExecutor$Worker.run(ThreadPoolExecutor.java:581) E/Clone   (26283):      at java.lang.Thread.run(Thread.java:1019) E/GAT     (26283): Error cloning ssh://192.168.42.220:29418/small-repo.early.git
23,2011/4/03,GitAsyncTaskTest now fails because the smaple repo actually isn't there
134,2011/4/02,More refactoring...
326,2011/4/02,Guicing it up big time  Doesn't work yet.  Currently:  longMsg=com.google.inject.CreationException: Guice creation errors:  1) No implementation for com.madgag.agit.BlockingPromptService was bound. while locating com.madgag.agit.BlockingPromptService for parameter 0 at com.madgag.agit.ssh.AndroidUserInfo.<init>(Unknown Source) at com.madgag.agit.ssh.GUISshUserInfoModule.configure(GUISshUserInfoModule.java:12)  1 error
1,2011/3/29,use less-bloated toy-git-server which doesn't include junit
3,2011/3/29,tidy
4,2011/3/29,Can I right a test around this?
2,2011/3/29,Tweak timeout for getting auth-agent
2,2011/3/29,Tweak debug - suspect my CI server is just too slow
1,2011/3/29,Use next version of mini-git-server with additional logging
3,2011/3/28,use hamcrest matcher to test for required git objects
4,2011/3/28,If no agit-integration-test.properties file is found don't die  Error in testCanHitCloneRepoFromLocalTestServer: java.io.FileNotFoundException: /mnt/sdcard/agit-integration-test.properties (No such file or directory)
1,2011/3/28,More memory for dex compile - also revert to 2.9.0-beta-1  http://code.google.com/p/maven-android-plugin/issues/detail?id=137  https://github.com/jayway/maven-android-plugin/pull/21
3,2011/3/27,Use the release version of mini-git-server (a strip of Gerrit)
5,2011/3/27,Finally got tag list to look right  tho you might argue I should also show the tag short-message on annotated tags...
1,2011/3/27,I don't seem to specify a target android platform...
39,2011/3/26,Got a failing test - asking why the short description is '...'
1,2011/3/26,fix tag view
6,2011/3/26,fix test to be less particular - test only interested in it not dying  should have separate tests to validate the text contexts
4,2011/3/26,tidy
2,2011/3/26,dep manage hamcrest
5,2011/3/26,Use dep managmeent to remove some duplication of versions
81,2011/3/26,Add failing test for tag view bug  I already had  integration tests in this area but they missed it I think because the tag object data was getting parsed slightly unpredicatably.
10,2011/3/25,Refactor ssh-related classes into their own package
45,2011/3/21,Refactor the permissive UserInfo guice config
2,2011/3/21,Use the stripped-down mini-git-server gerrit fork I've built
1,2011/3/21,update maven android version
1,2011/3/21,Use non-snapshot release of Lazy Drawables
1,2011/3/14,Update to RoboGuice 1.1.1   https://groups.google.com/d/msg/roboguice/hSesBZwKpTk/yucSfkcJBU0J
6,2011/3/14,this actually kinda sorta works  the tests pass and it's doing a full round trip using it's own littlegit-ssh server & also ssh-agent....
336,2011/3/13,Removing toy-ssh-agent which has a new home at https://github.com/rtyley/toy-android-ssh-agent
2,2011/3/13,Tidy
5,2011/3/13,Use version of SpongCastle now available on Maven Central
1,2011/3/13,note to self - is CountDownLatch the closest thing to what I want?
43,2011/3/13,Tests pass locally!  Need a lot more tidying up to get things like the git server war properly encapsulated but at least I've got a cool totally-enclosed server-client-agent integration test setup created...
5,2011/3/11,should make the ssh process more permissive in tests...
166,2011/3/11,Massive refactor with some Guice-if-i-cation...  TransportFactory guicified...  The GitOps can now have a LongRunningServiceLifetime or...
44,2011/3/10,avotre sontay
18,2011/3/10,None of this stuff will actually work yet...  need to sort out the guice...
13,2011/3/10,use narrowed blockingprompt interface in the session factory
23,2011/3/09,Narrowed interface shoewn to AndfroidUserInfo  It only needs to know about the simple blocking methods.
3,2011/3/09,tidy
31,2011/3/09,Incorporate Paul Butcher's RoboServiceTestCase  I think I'm going to want to have a different Guice-setup for tests than to prod.  Hope that won't be too difficult to achieve...
111,2011/3/09,Service tests currently fail because I want service before I launch it  Also created narrowed interface for PromptHelper
64,2011/3/07,Actually like hitting my local server - but the prompt is killing everything!
4,2011/3/06,Update to Maven Android Plugin v2.9.0-beta-1 - which allows Hamcrest library use!  http://code.google.com/p/maven-android-plugin/issues/detail?id=123  Cool.
3,2011/3/06,Finally got my ToySsh agent successfully signing challenges
61,2011/3/06,Disabling Proguard on Agit for the time being
5,2011/2/21,tidy pom fluff
3,2011/2/21,Add actual SSH server that will actually respond and log messages without dying  Turns out that Jetty 6 provides an old version of log4j and SshLog depends on a constructor method LoggingEvent that was introduced around 1.2.16 of log4j or thereabouts.
8,2011/2/20,Tidy Tag List viewer activity test  still mystified why it fails outside the test...
1,2011/2/20,Whoops
2,2011/2/20,Minor version update to compiler & android plugins
1,2011/2/20,Remove implied dependency on Joda by upgrading to latest version of madgag util
6,2011/2/20,So like urr - does running Jetty during my tests significatly slow me down...?
19,2011/2/19,Fix test to check Tag List  All integration tests currently pass
14,2011/2/19,Looking at all the items in a list seems to require this...
2,2011/2/18,Random assertions...
1,2011/2/18,Use the latest greatest but still not that great packaging of Hamcrest  Hamcrest Issue 125 is most... unfortunate...
5,2011/2/18,Add Proguard conf to cope with the unknown custom Android views and JGit Enums    http://proguard.sourceforge.net/manual/examples.html#enumerations
3,2011/2/18,tidy
11,2011/2/18,Hamcrest matchers are nicer  Unfortunately due to Hamcrest Issue 125 - can't use the full library just core
0,2011/2/18,A demo repo with tags of various things in it...   Probably better ways to zip repos but I did it like this...  small-repo.with-tags$ zip -r ../moo3.zip * .git
139,2011/2/17,Currently fails integration but does at least look almost like a test.
159,2011/2/16,Make Branches appear in Reverse chrono order  ...and other stuff
1,2011/2/15,Prefer external!  Must get around to using proguard...
15,2011/2/15,guice-ish tidy
2,2011/2/15,Make the list of branches more informative  It now shows what/when the head commit on that branch was albeit in a very crude format.
12,2011/2/13,Fix duplication of type-specific summary views in Tag View  Also using a bit more injection
5,2011/2/13,Remove the unintended nested-RelativeLayout from PersonIdentView  Note that the padding attributes now get ignored so the layout has changed until I decide how to reconfigure this stuff
7,2011/2/13,Fix ObjectSummaryView to show committer ident  I've just realised that my compound components are all badly configured and need to use <merge>...
46,2011/2/13,Add repo and branch providers  Seems to work tho where is my ident picture for the tagged object on the TagViewer
16,2011/2/11,Getting a bit more guicey- branch view still works
16,2011/2/10,Gotta bit of Guice going...
22,2011/2/10,A bit of object summary display in the Tag Viewer
6,2011/2/05,Added 'none' view to RDT list (slightly-oversized)
47,2011/2/05,Much more decent formatting of ident...
4,2011/2/04,Person Ident looks better though it's still in vertically listed in commit view  Rosa is being very cool.
27,2011/2/04,Got badly-formatted person-idents displaying for Tagger Author  Yeah!
33,2011/2/04,Tagger picture now shows on tag page...
1,2011/2/03,Doh...! That's why I lost the commit message and the nav buttons!
384,2011/2/03,Extracted lazy-drawables used first version - kinda sorta works
1,2011/1/27,Updating to latest version of jgit
14,2011/1/26,A sort-of-generic name for the SSH Agent permission
22,2011/1/25,tidy
22,2011/1/25,tidy
14,2011/1/25,A sort-of-generic name for the SSH Agent permission
4,2011/1/25,Got the nav buttons to stick to the bottom and the commit message to nicely fill the middle section  http://stackoverflow.com/questions/1215757/android-linearlayout-fill-the-middle  https://groups.google.com/forum/?lnk=gst&q=droidin#!topic/android-developers/oI5CcTzpT0M  "If after all the wrap_content and fixed-sized items are allocated for along an axis (horizontal or vertical) there is still room on that axis left over LinearLayout then allocates the remaining space to those widgets with specified weights in proportion to the weight"
2,2011/1/25,Buttons now fill their space equally - and 3 buttons get very cramped
1,2011/1/25,Commit nav buttons point where they're going  just a text glyph at the moment
4,2011/1/25,The white fade was getting too distracting  So made it much less severe should maybe get rid of it altogether
134,2011/1/25,Parent-child commit button-based navigation works now  Hell of a time debugging this though NPEs all over the shop.  And I think I might want to replace it with a Gallery-like flinger experience once I can figure out distinct fling-ing regions for different commits...  And the buttons need to be nailed to the bottom of the display  And look better  And be more informative
258,2011/1/24,First cut at animating the commit nav...  note that buttons don't actually do anything yet...
16,2011/1/23,Added some commit-parent/child navigation  Currently starts a new activity with every click which is not good
52,2011/1/23,Getting rid of the diff player with it's 'Difo' menu item
54,2011/1/23,Got Gravatar icons working  Unknown gravatars have to be downloaded which is done outside of the UI thread to keep the UI responsive
4,2011/1/22,bugfix - was showing the parent's diff
2,2011/1/22,better commit message formatting
10,2011/1/21,Got multiple-parent-diff working under various tabs...
3,2011/1/21,Adding tabs to the CommitViewer  The idea is that 1 tab will show commit details while the other tabs will offer diff-views of the commit's parents  minitab pngs taken from http://code.google.com/p/iosched/
15,2011/1/21,Made Agit open github urls...
385,2011/1/21,Add tabhost to CommitViewer
13,2011/1/20,Converting BranchViewer to ActionBar
26,2011/1/19,Adding an ActionBar - for RMA and RDTypeListActivity  Using Johan Nilsson's action bar code - https://github.com/johannilsson/android-actionbar
8,2011/1/18,Do I really need the android:background thing if I have Theme.Light ?
1,2011/1/18,Taking the title bar off so we can have an *Action Bar*  YEAH! Pattern 4: Action Bar  http://android-developers.blogspot.com/2010/05/twitter-for-android-closer-look-at.html
24,2011/1/18,Tweak to the text-input on the Clone launcher better keyboard behaviour  hint that the git remote uri is uri-ish
3,2011/1/18,Unfortunately creating a tag currently blows up
1,2011/1/18,Use the out-of-the-box icon for deletion...
15,2011/1/17,Generally improved prettyness
6,2011/1/17,Standardising the intent names to match the .LIST intents  tweak for dont-need-to-call-super on onCreateOptionsMenu  also small annoying fix for NPE in TagViewer contnetchanged method... something is probably a
12,2011/1/17,Moved 'delete repo' to be a menu item less obtrusive
97,2011/1/16,Got RDT list activities displaying...
28,2011/1/16,Start of support for the RepoDomaainTypes (Remote Branch Tag)
112,2011/1/16,Role of ROC is diminishing now that I'm using RepositoryCache in more places.  Really would be nice to ensure everyone uses the same Repository instances
74,2011/1/15,Blah blah blah
66,2011/1/14,RepoActivity makes removes a bit of duplication  extension thru inheritance rather than composition - sorry man
4,2011/1/14,This should just about make the tag viewer launchable
2,2011/1/13,Bit more tidying finally got tags appearing on the RMA
7,2011/1/13,compilation errors and such like
75,2011/1/13,A bunch of stuff for Tag/Branch/Remote viewing
54,2011/1/13,Creating a RevCommitListView...
4,2011/1/12,Adding a branch view activity
14,2011/1/11,Tidying
1,2011/1/11,Adding the commirter details with a quick hack...
1,2011/1/11,revalidate the clone-launching UI on text entry into *both* text fields  ...not just the one for the checkout dir.
9,2011/1/11,Don't think there was anything wrong with doing this...
1,2011/1/11,For 2 or more concurrent ongoing actions calling stopForeground won't remove both notifications...  ...so canceling the notification manually
3,2011/1/11,Looks like setting requestCode helps with the whole 'notification fires the wrong intent' thing.  It still fails if you have two concurrent clones going and then try to hit completion onitifications but it does at least seem to be ok with one-at-a-time   http://code.google.com/p/android/issues/detail?id=863 http://code.google.com/p/android/issues/detail?id=3498 http://code.google.com/p/android/issues/detail?id=7780    http://groups.google.com/group/android-developers/msg/297ae75acdaf1eec
11,2011/1/10,Still can't get the completion notification to launch the right RMA :-(
26,2011/1/09,Why do status bar notifications on completion sometimes go to the wrong repository?
1,2011/1/05,Update to my latest unofficial build of JGit which includes Shawn's fix for deep-delta loading in I6faca2a4  http://egit.eclipse.org/r/#change2205
1,2010/12/28,Updated to use a jgit build with change I1d9b3a8b - Use stack-based recursion for delta resolution
2,2010/12/07,Latest version of the Maven Android plugin
2,2010/12/07,Should be public duh
1,2010/12/05,The newly rebased version of my JGit fork
6,2010/12/02,Phew- app is finally back to full functionality (for nominal value of 'full')  Basically I have fixed the intents.
8,2010/12/02,The test passes now - I think? But it does a pull rather than a fetch.  So it is a lie.
11,2010/12/02,Fixing the intent which takes you to the Repo Management Activity
9,2010/12/02,OMG I think that this test is actually now failing properly!
10,2010/12/01,Normalising the 'gitdir' attribute of my intents.  I should probably also add support for the standard VIEW intent...
96,2010/12/01,Update to the latest HEAD of jgit (unofficial Roberto release)
16,2010/12/01,Fixing the intents that use gitdir
14,2010/11/30,I'm really not sure why git is failing to init on the test repo                W/System.err(27155):    at com.android.internal.os.ZygoteInit.main(ZygoteInit.java:626) W/System.err(27155):    at dalvik.system.NativeStart.main(Native Method) W/System.err(27155): Caused by: org.eclipse.jgit.errors.MissingObjectException: Missing commit 9e0b5e42b3e1c59bc83b55142a8c50dfae36b144 W/System.err(27155):    at org.eclipse.jgit.storage.file.WindowCursor.open(WindowCursor.java:112) W/System.err(27155):    at org.eclipse.jgit.revwalk.RevWalk.getCachedBytes(RevWalk.java:864) W/System.err(27155):    at org.eclipse.jgit.revwalk.RevCommit.parseHeaders(RevCommit.java:136) W/System.err(27155):    at org.eclipse.jgit.revwalk.RevWalk.markStart(RevWalk.java:291) W/System.err(27155):    at org.eclipse.jgit.api.LogCommand.add(LogCommand.java:209) W/System.err(27155):    at org.eclipse.jgit.api.LogCommand.add(LogCommand.java:142) W/System.err(27155):    at org.eclipse.jgit.api.LogCommand.call(LogCommand.java:103) W/System.err(27155):    ... 14 more
67,2010/11/23,Package movement
20,2010/11/23,Struggling around with getting pretty Ongoing notifications for GitOps
15,2010/11/23,Don't need this for the diff seek bar - it only has primary progress
1,2010/11/22,The GOS will no longer get auto-restarted after a crash - irritating behaviour if it insist on creating an ongoing notification!  It's possible that START_REDELIVER_INTENT is the best option rather than START_NOT_STICKY but this will do for the moment.  file:///home/roberto/android-sdk/docs/reference/android/app/Service.html#START_REDELIVER_INTENT
1,2010/11/22,Not something I currently wish to see actually.
1,2010/11/22,This slightly darker green is more visible on the Samsung Galaxy Tab
5,2010/11/22,Disabling view re-use for Children - too unpredicateable can not easily tell when my difftext should be invalidated!
10,2010/11/22,Various bits of tidying.  There is a nasty bug arising due to the re-use of views and the diffTexts map.  The map knows nothing about view re-use so we end up believing that two children have difftexts which both actually reference the same editable text.
148,2010/11/21,FINALLY got diff animation 'working' for real commits  Doesn't work too well though!  And where are my newlines?
6,2010/11/20,Removing a bit of test layout
1,2010/11/20,This still looks ok with switch in top right
12,2010/11/20,The blasted switch is finally in the top-right corner  I wanted it in the bottom-left.  Having a lot of problems with LinearLayout & ExpandableListView
37,2010/11/20,The slider disappears of the bottom of the screen- I don't know why!
34,2010/11/19,Some tidying - I probably want to create a Compound Control:  http://developer.android.com/guide/topics/ui/custom-components.html
137,2010/11/19,Nice bit of refactoring around the diffview and text...
5,2010/11/19,Some nicer styling around the diff seekbar
2,2010/11/18,tweak
17,2010/11/18,tidy
1,2010/11/18,Slightly nicer colours for insert/delete
22,2010/11/18,Got the animation back... phew...
5,2010/11/18,Damn - my text animation has suddenly gone missing!
92,2010/11/12,Booyah... Only show status bar notification if the RMA is on top...
1,2010/11/11,This should be released  to maven central by now I think...
379,2010/11/11,Various refactorings and movings mostly around getting better error messages when clone/fetch goes wrong
11,2010/11/10,Got clone of 'private' projects working again. Decided eventually that the PromptHelper should be held by the ROC - on behalf of the RMA
1,2010/11/09,Really want 1.1 final but my hudson server won't have it yet...
1,2010/11/08,Next time THINK Roberto!
1,2010/11/08,Fnar Fnar
3,2010/11/08,Making sure the gitdir provided in the Clone activitiy text box gets passed thru  I am thwarted in trying to provide a good test for this by:  http://code.google.com/p/android/issues/detail?id=12246
1,2010/11/08,tidy
1,2010/11/08,Need the updated version of util-diff which actually works with Android
7,2010/11/08,Some tidying of new-folder generation for tests
147,2010/11/06,Some refactoring - i really don't like constructing Notifications.
49,2010/10/31,Bit o'tidyin
1,2010/10/29,tidy
1,2010/10/29,Damn can't unit-test that clicking the button launches a service...  http://code.google.com/p/android/issues/detail?id=12246
3,2010/10/29,Tidy
2,2010/10/27,Got rid of the NPE which came from the gitop not even having a populated reference to it's own ongoing notification  Need to get proper test coverage of this really...
3,2010/10/26,Now seems to be passing for no particular reason?
2,2010/10/26,Getting a null pointer on the uhdson build...
1,2010/10/26,Tidy
1,2010/10/26,Is it cos I is using a known folder?
1,2010/10/26,Looks like even the parent folder wasn't created?
1,2010/10/26,Turns out that permission was denied creating the folder - which was a bit surprising...  10-25 23:57:07.056 I/Cloner  (  297): about to execute create() on Repository[/mnt/sdcard/Download/1288047426564/.git] 10-25 23:57:07.585 E/Cloner  (  297): IOException 10-25 23:57:07.585 E/Cloner  (  297): java.io.IOException: Permission denied 10-25 23:57:07.585 E/Cloner  (  297):   at java.io.File.createNewFileImpl(Native Method) 10-25 23:57:07.585 E/Cloner  (  297):   at java.io.File.createNewFile(File.java:1160) 10-25 23:57:07.585 E/Cloner  (  297):   at org.eclipse.jgit.storage.file.LockFile.lock(LockFile.java:126) 10-25 23:57:07.585 E/Cloner  (  297):   at org.eclipse.jgit.storage.file.RefDirectoryUpdate.tryLock(RefDirectoryUpdate.java:83) 10-25 23:57:07.585 E/Cloner  (  297):   at org.eclipse.jgit.lib.RefUpdate.link(RefUpdate.java:552) 10-25 23:57:07.585 E/Cloner  (  297):   at org.eclipse.jgit.storage.file.FileRepository.create(FileRepository.java:233) 10-25 23:57:07.585 E/Cloner  (  297):   at org.eclipse.jgit.lib.Repository.create(Repository.java:162) 10-25 23:57:07.585 E/Cloner  (  297):   at com.madgag.agit.Cloner.doInBackground(Cloner.java:86)
1,2010/10/25,Go on! Where's the error hmm?
1,2010/10/25,Yes or no?
1,2010/10/25,Is this what it takes?
4,2010/10/25,tidy
6,2010/10/25,Mending the crash seen by testCanPerformSimpleReadOnlyCloneFromGitHub  You're allowed to fix something if it causes legitimate test failure right?
17,2010/10/25,I can't think of an nice way round it...
13,2010/10/24,Start of refactor trying to cope with Android Issue 12117  http://code.google.com/p/android/issues/detail?id=12117
1,2010/10/24,Refactor to handle Android Issue 12117: ServiceTestCase.startService(Intent) does not trigger Service.onStartCommand()  http://code.google.com/p/android/issues/detail?id=12117  This issue caused the service test to never complete - because the service was never started.
9,2010/10/23,I don't really understand the behaviour of the the ServiceTest ATM
2,2010/10/23,Ha! Build 41 exposed that damn race condition (didn't happen on my local laptop)
7,2010/10/23,More tidy
31,2010/10/23,A bit of service tidying
7,2010/10/23,Tidy
1,2010/10/23,Whoops should have had this
44,2010/10/23,Cleaning up the Clone-launch unit tests...
4,2010/10/23,Watch as I implement functionality!
2,2010/10/22,Bloomin hell I have to call callActivityOnStart()  Obviously  Dur.
1,2010/10/22,Some debug information on clone intent launch
1,2010/10/22,So many more tests to write...
1,2010/10/22,Ugly but it should stop the stackoverflow
2,2010/10/22,The test should have failed. The imp was only responding to clicks not any kind of change
2,2010/10/22,Can I  have a dump test for the SO?
1,2010/10/21,OMG I think my tests caught a bug!
1,2010/10/21,Debuggo!
7,2010/10/21,I dare this to pass!
4,2010/10/21,Getting rid of the test which is BAD - needs additional setup which calculon is not well configured to providel .
28,2010/10/20,Excitingly changing the text of the gitdir causes a stackoverflow
1,2010/10/20,Applying the 'bad gitdir' changes
1,2010/10/20,tidy
2,2010/10/19,fimble
8,2010/10/19,How embarrassing - I was updating the wrong component...
6,2010/10/19,ullin!
2,2010/10/19,Well this *should* fix the button...
2,2010/10/19,Urr...
1,2010/10/19,Stupid wrong test
5,2010/10/19,Commenting out this stuff that currently fails...
70,2010/10/19,Tidying...
16,2010/10/19,How do you like THIS?
112,2010/10/19,testCloneButtonDisableIfGitDirAlreadyExists is probably the first meaningful test I've got...
14,2010/10/18,An end-to-end integration-style test for Clone operation  It fails naturally.
17,2010/10/18,Tidying and fixing the damn intent extras null bug again
0,2010/10/17,Revert "Hudson isn't currently recoginising these as tests for the purposes of reporting..."  This reverts commit 8c3ad4aa8da668d299006c21c1b22579f2092749 - because if the tests are in src/test/java they get run with stubs - not the emu...
1,2010/10/17,Revert "Curious to see if the integration test likes this.."  This reverts commit 4e1248c23556c2f78f0af7c2b7b0982ce248b4ec.
0,2010/10/17,Hudson isn't currently recoginising these as tests for the purposes of reporting...
1,2010/10/17,Curious to see if the integration test likes this..
1,2010/10/14,Got a failing test! YEAH!
82,2010/10/14,Improvements to the pom layout edging towards a proper test
29,2010/10/13,Closer to executing tests... just need to write one now...
103,2010/10/13,Getting close to being able to run Android instrumentation tests
4,2010/10/11,tweak
10,2010/10/11,cosmetic fileRepo-creation refactor
3,2010/10/11,method name tweak
1,2010/10/11,Don't really need the fs stuff in the snapshot just yet
130,2010/10/10,Yep that's right kids - this is the version that can use the newly-modified ConnectBot as an SSH-Agent!  Yes! Big whoop!
4,2010/10/09,Tidy
34,2010/10/08,First steps towards making Agit use an SSH agent  Doesn't quite work yet though because the terminal manager has not quite yet bound when I want to get some identities out
19,2010/10/05,Bunch of stuff...
30,2010/10/02,Managed to get the 'Do you want to accept an unknown host' message up  Big whooop no?
141,2010/9/30,Rather a large refactor aimed at getting SSH-prompts up from non-UI thread... not there yet  However refactor good remove duplication nice like
8,2010/9/27,Got some reasonable nice messages coming out with clone - add checkout message
11,2010/9/27,Using a nice typed object to indicate the remote rather than just the string 'origin'
2,2010/9/27,Nice clone notifications
4,2010/9/27,Using the android.R.drawable.stat_sys_download animated icon  Need to do my own copy at some point
1,2010/9/27,Correction
3,2010/9/27,Re-added the RMA-finishing code - still seems reasonable to do this after a broadcast.
306,2010/9/27,A lot of changes - mainly using AsyncTask and trying to get the Clone and Fetch tasks to do good notifications
2,2010/9/24,Hmm... calling stopForeground(false); DOES get rid of the ongoing notification
2,2010/9/24,tweak possible excessive
5,2010/9/24,Gah! My ongoing notiifcation won't cancel! It sticks around! BAH!
2,2010/9/24,Make the git-fetch notification go away when the user presses on it...
2,2010/9/24,Now have a reasonable 'Repo is being deleted' dialog message
22,2010/9/23,Whole load of gubbins... too tired to make this separate commits!
2449,2010/9/17,Using the diff code from madgag util-diff now which wraps Neil Frasers diff_match_patch  the updates make it possible to show filepath changes in the nice github format e.g:  src/main/scala/com/gu/scarlett/appengine/{AppEngin→Preambl}e.scala
1,2010/9/09,Monospace diff typeface ftw!
71,2010/9/09,Added some nicer displaying of file renames  -haven't quiet figured out what the github hueristic is tho.
9,2010/9/09,basic-level unprettified diffing is up!
6,2010/9/09,Got nice coloured icons (borrowed from Github) to indicate diff change type
15,2010/9/08,Got the expandable diffentry list to look almost humanish
3,2010/9/07,Finally got visible commit info  it looks awful but it's there
10,2010/9/05,Commit viewer poke around... doesn't actually have UI yet but debug prints tree diff  Looks like you need to actually get your RevObjects parsed to be populated!
9,2010/9/02,Styling it all up like a crazy fool
1,2010/9/02,Doh! Needs to be the integer platform version not 1.6 or 2.1r1
25,2010/9/02,Well I like fast scroll...
6,2010/9/02,A bit too much on the header there
6,2010/9/02,Borrowing from the commit list adapter of Hubdroid with a bit of a refactor
5,2010/9/01,First stab at a commit log viewer...
1,2010/8/31,Using the pack-streaming jgit build
10,2010/8/30,Updating agit to use the unofficial build of jgit which I pushed towards maven central earlier  The source for my fork is at https://github.com/rtyley/jgit - and my version numbers are completely screwed up don't take 0.8.3 to mean anything very much - it's more like pre-0.9.0
1,2010/8/30,This sdk path doesn't seem to get picked up from the ENV variable...
