Topic Index 1,Topic Index 2,Topic Similarity
13,5,4.0
7,8,3.0
10,19,3.0
15,14,3.0
16,6,3.0
3,10,2.0
5,13,2.0
6,4,2.0
8,9,2.0
11,2,2.0
0,1,1.0
2,0,1.0
4,15,1.0
9,17,1.0
14,11,1.0
17,12,1.0
1,3,0.0
12,7,0.0
18,16,0.0
19,18,0.0
