Topic Index 1,Topic Index 2,Topic Similarity
12,4,1.872
19,13,1.5125000000000002
4,3,0.8251000000000002
2,19,0.8250000000000001
7,14,0.75
13,18,0.6384000000000001
16,17,0.6192000000000001
15,5,0.5828
11,0,0.481
6,15,0.47879999999999995
17,6,0.4032
14,16,0.3753
9,12,0.26880000000000004
3,7,0.14
5,11,0.10500000000000001
0,1,0.0
1,2,0.0
8,8,0.0
10,9,0.0
18,10,0.0
