make the color picker scale with display density the wa written there wa only one display density,git-master-2015-04-02_22-13-2,2015/3/27,,
disable right modifier directory shortcut key by default running on a dream,git-master-2015-04-02_22-13-2,2015/3/22,,
make sticky modifier an option off by default,git-master-2015-04-02_22-13-2,2015/3/21,,
also implement stickiness for the control key on physical keyboard have one for consistency,git-master-2015-04-02_22-13-2,2015/3/21,,
preference add category for keyboard,git-master-2015-04-02_22-13-2,2015/3/21,,
version 180,git-master-2015-04-02_22-13-2,2014/10/18,,
add class hiding for debugging,git-master-2015-04-02_22-13-2,2014/10/18,,
add class hiding for debugging,git-master-2015-04-02_22-13-2,2014/10/18,,
add preference to control action bar,git-master-2015-04-02_22-13-2,2014/10/17,,
add stuff instead of,git-master-2015-04-02_22-13-2,2014/10/02,,
add some annotation to appease lint,git-master-2015-04-02_22-13-2,2014/10/01,,
import new translation,git-master-2015-04-02_22-13-2,2013/10/31,,
also add a setting which determines whether the volume key change the font size,git-master-2015-04-02_22-13-2,2013/9/30,,
improvement to layout of key input handler,git-master-2015-04-02_22-13-2,2013/8/25,,
add to,git-master-2015-04-02_22-13-2,2013/4/12,,
add support for and,git-master-2015-04-02_22-13-2,2013/2/06,,
add support,git-master-2015-04-02_22-13-2,2013/2/04,,
ensure obey scrolling margin,git-master-2015-04-02_22-13-2,2012/9/29,,
add in some compatibility,git-master-2015-04-02_22-13-2,2010/12/09,,
import updated translation,git-master-2015-04-02_22-13-2,2010/12/08,,
add ant command to import and export translation,git-master-2015-04-02_22-13-2,2010/10/27,,
import using new work flow,git-master-2015-04-02_22-13-2,2010/10/24,,
use east width measurement and drop lib,git-master-2015-04-02_22-13-2,2010/10/08,,
change to for release,git-master-2015-04-02_22-13-2,2010/10/08,,
do elaborate dance to allow toggling to work,git-master-2015-04-02_22-13-2,2010/9/19,,
add support for use,git-master-2015-04-02_22-13-2,2010/9/07,,
tag for 170 release,git-master-2015-04-02_22-13-2,2010/9/02,,
scan based on spec,git-master-2015-04-02_22-13-2,2010/8/04,,
this allows u to use the db in multiple thread,git-master-2015-04-02_22-13-2,2009/8/14,,
add and,git-master-2015-04-02_22-13-2,2009/8/11,,
add,git-master-2015-04-02_22-13-2,2009/7/03,,
add audible terminal bell vibrate on terminal bell and notification on background terminal bell,git-master-2015-04-02_22-13-2,2009/6/02,,
add and polish,git-master-2015-04-02_22-13-2,2009/5/31,,
propagate new string to other language,git-master-2015-04-02_22-13-2,2009/5/12,,
updated translation,git-master-2015-04-02_22-13-2,2009/5/11,,
updated some translation,git-master-2015-04-02_22-13-2,2009/5/09,,
add comment for string to aid in translation,git-master-2015-04-02_22-13-2,2009/4/07,,
make input status indicator more easily discernible,git-master-2015-04-02_22-13-2,2009/1/23,,
allow the sending of pixel dimension,git-master-2015-04-02_22-13-2,2009/1/23,,
allow to be preempted,git-master-2015-04-02_22-13-2,2009/1/21,,
oops disabled the for my local build but wa caught in last submit reverting,git-master-2015-04-02_22-13-2,2008/12/29,,
language,git-master-2015-04-02_22-13-2,2008/12/16,,
add in 256 color support,git-master-2015-04-02_22-13-2,2008/12/12,,
add compression option to host,git-master-2015-04-02_22-13-2,2008/11/11,,
allow live disabling and enabling of port by clicking on,git-master-2015-04-02_22-13-2,2008/11/08,,
add dynamic port forwarding,git-master-2015-04-02_22-13-2,2008/11/08,,
add port to the end of nickname created for host added by with port,git-master-2015-04-02_22-13-2,2008/10/29,,
allow scrolling in generator activity we get landscape orientation looking better,git-master-2015-04-02_22-13-2,2008/10/29,,
only allow deletion a host is selected,git-master-2015-04-02_22-13-2,2008/8/28,,
revert default action to rename tag to,git-master-2015-04-02_22-13-2,2008/8/27,,
removed static host entry in and restored selection,git-master-2015-04-02_22-13-2,2008/8/27,,
updated for 09,git-master-2015-04-02_22-13-2,2008/8/24,,
added indeterminate waiting swirly,git-master-2015-04-02_22-13-2,2007/11/17,,
add support for,v1.8.4,2015/4/09,,
add a keyboard dialog to help,v1.8.6,2015/8/14,,
add an in the keyboard and add virtual key in it home end page up page down,v1.8.6,2015/8/15,,
rearrange import,v1.8.6,2015/8/15,,
use symbol for arrow button this relief some need for translation to many language,v1.8.6,2015/8/11,,
add feedback for tab key,v1.8.6,2015/8/10,,
add feedback to all key except tab and keyboard,v1.8.6,2015/8/09,,
squash together other commits remove test add comment to give translator context,v1.8.6,2015/8/07,,
and add a small separator between button,v1.8.6,2015/8/07,,
allow indexing into bridge to assist with seems to have no way to inspect it item we need to query the adapter for the item at the selected index,v1.8.6,2015/8/07,,
filter out lint false positive,v1.8.6,2015/7/29,,
add a confirm dialog for the disconnect all action,v1.8.6,2015/7/23,,
import revised translation,v1.8.6,2015/7/19,,
string add some context for translator,v1.8.6,2015/7/19,,
add coverage support this will export the coverage report to well,v1.8.6,2015/7/17,,
add a tab button to the emulated key above the soft keyboard,v1.8.6,2015/7/14,,
