Topic Index 1,Topic Index 2,Topic Similarity
2,10,2.0
17,1,2.0
0,9,1.0
1,0,1.0
4,4,1.0
5,5,1.0
6,13,1.0
8,16,1.0
9,2,1.0
10,19,1.0
11,11,1.0
12,3,1.0
14,7,1.0
3,6,0.0
7,8,0.0
13,12,0.0
15,14,0.0
16,15,0.0
18,17,0.0
19,18,0.0
