update for 22 5330 with package automatic adjustment of text size in command input area main screen is enlarged,b,2014/4/13,,
rewrite,o,2014/1/25,,
some warning are removed,b,2014/1/25,,
modified for 21,o,2014/1/25,,
