package,release ID,UI element,related topic,average polarity,# reviews,average rating,average objectivity,# uninstalls,delta rating,element deleted next release
org.fastergps,v1.11,@string/no_root_description$,2,0.007970703125000008,20,3.3,0.3454285714285714,0,-0.9897727272727277,0
org.fastergps,v1.11,@string/no_root_description$,0,-0.1208333333333333,3,1.6666666666666667,0.2490740740740741,0,-2.6231060606060606,0
org.fastergps,v1.11,@string/no_root_description$,4,0.275748556998557,6,4.166666666666667,0.4729226791726792,0,-0.12310606060606055,0
org.fastergps,v1.11,@string/no_root_description$,3,0.009166666666666684,2,1.5,0.5883333333333334,0,-2.7897727272727275,0
org.fastergps,v1.11,@string/no_root_description$,1,0.175,2,5.0,0.425,0,0.7102272727272725,0
org.fastergps,v1.11,@string/no_root_url$,5,-0.18125,6,2.5,0.15,0,-1.7897727272727275,0
org.fastergps,v1.11,@string/no_root_url$,7,0.07569444444444444,6,3.5,0.6108796296296296,0,-0.7897727272727275,0
org.fastergps,v1.11,@string/no_root_url$,8,0.23470486111111113,6,4.5,0.4494444444444445,0,0.21022727272727249,0
org.fastergps,v1.11,@string/no_root_url$,9,0.020665584415584422,8,2.125,0.2307683982683983,0,-2.1647727272727275,0
org.fastergps,v1.11,@string/no_root_url$,6,0.1918641493055556,6,4.5,0.4658730158730158,0,0.21022727272727249,0
org.fastergps,v1.11,@+id/donations__google_android_market_donate_button$donations__google_android_market_donate_button,12,0.0031250000000000062,4,3.25,0.4458333333333333,0,-1.0397727272727275,0
org.fastergps,v1.11,@+id/donations__google_android_market_donate_button$donations__google_android_market_donate_button,10,0.2850649350649351,5,3.6,0.4657215007215007,0,-0.6897727272727274,0
org.fastergps,v1.11,@+id/donations__google_android_market_donate_button$donations__google_android_market_donate_button,11,0.24062499999999998,3,2.6666666666666665,0.49849537037037034,0,-1.623106060606061,0
org.fastergps,v1.11,@+id/donations__google_android_market_donate_button$donations__google_android_market_donate_button,13,0.0,3,5.0,0.14444444444444446,0,0.7102272727272725,0
org.fastergps,v1.11,@+id/donations__google_android_market_donate_button$donations__google_android_market_donate_button,14,0.31666666666666665,1,1.0,0.4166666666666667,0,-3.2897727272727275,0
org.fastergps,v1.11,@+id/donations__paypal_donate_button$donations__google_android_market_donate_button,18,0.118125,5,3.6,0.41883928571428564,0,-0.6897727272727274,0
org.fastergps,v1.11,@+id/donations__paypal_donate_button$donations__google_android_market_donate_button,19,0.0,1,1.0,0.0,0,-3.2897727272727275,0
org.fastergps,v1.11,@+id/donations__paypal_donate_button$donations__google_android_market_donate_button,17,0.32506493506493506,5,3.8,0.3722294372294373,0,-0.4897727272727277,0
org.fastergps,v1.11,@+id/donations__paypal_donate_button$donations__google_android_market_donate_button,16,0.052083333333333336,5,3.4,0.5004166666666665,0,-0.8897727272727276,0
org.fastergps,v1.11,@+id/donations__google_android_market_spinner$,24,0.030208333333333337,3,2.3333333333333335,0.308912037037037,0,-1.956439393939394,0
org.fastergps,v1.11,@+id/donations__google_android_market_spinner$,21,0.18055555555555555,6,3.8333333333333335,0.439484126984127,0,-0.45643939393939403,0
org.fastergps,v1.11,@+id/donations__google_android_market_spinner$,22,0.7,1,3.0,0.6000000000000001,0,-1.2897727272727275,0
org.fastergps,v1.11,@+id/donations__google_android_market_spinner$,23,0.004768668831168832,4,4.0,0.32205762987012987,0,-0.2897727272727275,0
org.fastergps,v1.11,@string/donations__google_android_market$,26,0.002500000000000005,5,3.6,0.35666666666666663,0,-0.6897727272727274,0
org.fastergps,v1.11,@string/donations__google_android_market$,25,0.25,3,3.6666666666666665,0.3361111111111111,0,-0.623106060606061,0
org.fastergps,v1.11,@string/donations__google_android_market$,29,0.4666666666666667,2,2.5,0.5892857142857143,0,-1.7897727272727275,0
org.fastergps,v1.11,@string/donations__google_android_market$,28,0.11781655844155843,3,4.666666666666667,0.37096109908609903,0,0.37689393939393945,0
org.fastergps,v1.11,@string/donations__google_android_market$,27,-0.15625,1,1.0,0.3687499999999999,0,-3.2897727272727275,0
org.fastergps,v1.11,@string/app_name$,36,-0.19374999999999998,2,3.5,0.4,0,-0.7897727272727275,0
org.fastergps,v1.11,@string/app_name$,35,0.31971218395131434,23,3.9130434782608696,0.5246918721375242,0,-0.3767292490118579,0
org.fastergps,v1.11,@string/app_name$,32,0.07124069940476192,7,3.857142857142857,0.47476190476190483,0,-0.4326298701298703,0
org.fastergps,v1.11,@string/app_name$,33,-0.05000000000000001,3,3.6666666666666665,0.6749999999999999,0,-0.623106060606061,0
org.fastergps,v1.11,@string/app_name$,30,0.2876666666666667,5,4.2,0.46272222222222226,0,-0.08977272727272734,0
org.fastergps,v1.11,@string/app_name$,39,0.39425412489557227,19,4.7368421052631575,0.5387291144527986,0,0.44706937799043,0
org.fastergps,v1.11,@string/app_name$,34,-0.04756944444444444,4,4.0,0.4865785256410256,0,-0.2897727272727275,0
org.fastergps,v1.11,@string/app_name$,37,0.31666666666666665,2,3.0,0.3583333333333334,0,-1.2897727272727275,0
org.fastergps,v1.11,@string/app_name$,38,0.5171527777777777,3,4.666666666666667,0.7311342592592593,0,0.37689393939393945,0
org.fastergps,v1.11,@string/app_name$,31,0.34062499999999996,4,4.0,0.340625,0,-0.2897727272727275,0
org.fastergps,v1.11,@string/donations__google_android_market_description$,43,0.1136111111111111,3,2.3333333333333335,0.5388888888888889,0,-1.956439393939394,0
org.fastergps,v1.11,@string/donations__google_android_market_description$,40,0.07777777777777778,3,2.6666666666666665,0.30396825396825394,0,-1.623106060606061,0
org.fastergps,v1.11,@string/donations__google_android_market_description$,44,0.23133116883116883,4,4.0,0.5402867965367966,0,-0.2897727272727275,0
org.fastergps,v1.11,@string/donations__google_android_market_description$,41,0.040625,3,3.3333333333333335,0.4262731481481481,0,-0.956439393939394,0
org.fastergps,v1.11,@string/donations__google_android_market_description$,42,0.0,2,5.0,0.05,0,0.7102272727272725,0
org.fastergps,v1.11,@+id/help_about_version$,45,0.3973333333333333,5,4.0,0.5583809523809524,0,-0.2897727272727275,0
org.fastergps,v1.11,@+id/help_about_version$,48,0.3375000000000001,3,5.0,0.4791666666666667,0,0.7102272727272725,0
org.fastergps,v1.11,@+id/help_about_version$,47,0.21527777777777773,4,4.75,0.4180555555555555,0,0.4602272727272725,0
org.fastergps,v1.11,@+id/donations__google_stub$,50,0.10000000000000002,1,5.0,0.3833333333333333,0,0.7102272727272725,0
org.fastergps,v1.11,@+id/donations__google_stub$,54,0.0,1,5.0,0.3333333333333333,0,0.7102272727272725,0
org.fastergps,v1.11,@+id/help_about_text$,56,0.10666666666666667,3,5.0,0.4155555555555556,0,0.7102272727272725,0
org.fastergps,v1.11,@+id/help_about_text$,58,0.0,1,5.0,0.0,0,0.7102272727272725,0
org.fastergps,v1.11,@+id/help_about_text$,57,0.8,1,5.0,0.75,0,0.7102272727272725,0
org.fastergps,v1.11,@+id/help_about_text$,59,0.37673611111111105,4,4.75,0.5940972222222223,0,0.4602272727272725,0
org.fastergps,v1.11,@+id/help_about_text$,55,0.23333333333333334,1,2.0,0.5785714285714285,0,-2.2897727272727275,0
org.fastergps,v1.11,@+id/help_about_fragment$,64,0.11666666666666667,2,3.5,0.28928571428571426,0,-0.7897727272727275,0
org.fastergps,v1.11,@+id/help_about_fragment$,61,0.5,2,5.0,0.5,0,0.7102272727272725,0
org.fastergps,v1.11,@+id/help_about_fragment$,63,0.3525694444444445,4,4.75,0.6099305555555555,0,0.4602272727272725,0
org.fastergps,v1.11,@+id/help_about_fragment$,62,-0.05000000000000002,1,5.0,0.3,0,0.7102272727272725,0
org.fastergps,v1.11,@+id/help_about_fragment$,60,0.26666666666666666,1,5.0,0.6333333333333334,0,0.7102272727272725,0
org.fastergps,v1.11,@+id/help_html_fragment$,66,0.07083333333333335,3,5.0,0.22916666666666666,0,0.7102272727272725,0
org.fastergps,v1.11,@+id/help_html_fragment$,65,0.4111111111111111,4,4.0,0.5876984126984127,0,-0.2897727272727275,0
org.fastergps,v1.11,@+id/help_html_fragment$,68,0.0016666666666666635,2,5.0,0.45666666666666667,0,0.7102272727272725,0
org.fastergps,v1.11,@+id/help_html_fragment$,69,1.0,1,5.0,1.0,0,0.7102272727272725,0
org.fastergps,v1.11,@string/help_donations$,72,0.1722222222222222,2,4.5,0.19444444444444445,0,0.21022727272727249,0
org.fastergps,v1.11,@string/help_donations$,71,0.30416666666666664,4,5.0,0.4833333333333334,0,0.7102272727272725,0
org.fastergps,v1.11,@string/help_donations$,73,0.8,1,5.0,0.75,0,0.7102272727272725,0
org.fastergps,v1.11,@string/help_donations$,74,0.13291666666666668,2,5.0,0.6504166666666666,0,0.7102272727272725,0
org.fastergps,v1.11,@string/help_donations$,70,0.23333333333333334,1,2.0,0.5785714285714285,0,-2.2897727272727275,0
org.fastergps,v1.11,@string/help_help$,75,0.4133333333333334,5,5.0,0.4766666666666667,0,0.7102272727272725,0
org.fastergps,v1.11,@string/help_help$,77,0.11592592592592592,3,4.666666666666667,0.43407407407407406,0,0.37689393939393945,0
org.fastergps,v1.11,@string/help_help$,78,0.22291666666666668,2,3.5,0.6330357142857143,0,-0.7897727272727275,0
org.fastergps,v1.11,@string/donations__flattr_description$,81,-0.27166666666666667,1,2.0,0.6166666666666667,0,-2.2897727272727275,0
org.fastergps,v1.11,@string/donations__paypal_description$,85,-0.27166666666666667,1,2.0,0.6166666666666667,0,-2.2897727272727275,0
org.fastergps,v1.11,@string/donations__description$,90,-0.27166666666666667,1,2.0,0.6166666666666667,0,-2.2897727272727275,0
