package,release ID,UI element,related topic,average polarity,# reviews,average rating,average objectivity,# uninstalls,delta rating,element deleted next release
org.fastergps,v1.8,@string/app_name$,167,0.41659722222222223,2,5.0,0.6896527777777779,0,0.28767123287671215,0
org.fastergps,v1.8,@string/app_name$,165,0.3398809523809524,2,5.0,0.6527777777777778,0,0.28767123287671215,0
org.fastergps,v1.8,@string/app_name$,168,0.5557407407407408,3,5.0,0.6432098765432099,0,0.28767123287671215,0
org.fastergps,v1.8,@string/app_name$,169,0.1535714285714286,1,5.0,0.3321428571428572,0,0.28767123287671215,0
org.fastergps,v1.8,@+id/donations__google_stub$,171,0.06666666666666665,1,5.0,0.3,0,0.28767123287671215,0
org.fastergps,v1.8,@+id/donations__google_android_market_donate_button$donations__google_android_market_donate_button,175,0.06666666666666665,1,5.0,0.3,0,0.28767123287671215,0
org.fastergps,v1.8,@+id/donations__paypal_donate_button$donations__google_android_market_donate_button,183,0.06666666666666665,1,5.0,0.3,0,0.28767123287671215,0
org.fastergps,v1.8,@+id/donations__google_android_market_spinner$,187,0.06666666666666665,1,5.0,0.3,0,0.28767123287671215,0
org.fastergps,v1.8,@string/donations__google_android_market$,190,0.06666666666666665,1,5.0,0.3,0,0.28767123287671215,0
org.fastergps,v1.8,@string/donations__google_android_market_description$,199,0.06666666666666665,1,5.0,0.3,0,0.28767123287671215,0
org.fastergps,v1.8,@string/no_root_description$,204,0.39999999999999997,1,5.0,0.7150793650793651,0,0.28767123287671215,0
org.fastergps,v1.8,@string/no_root_description$,201,0.27222222222222225,1,5.0,0.5546296296296297,0,0.28767123287671215,0
org.fastergps,v1.8,@string/no_root_url$,205,0.39999999999999997,1,5.0,0.7150793650793651,0,0.28767123287671215,0
org.fastergps,v1.8,@string/no_root_url$,207,0.27222222222222225,1,5.0,0.5546296296296297,0,0.28767123287671215,0
