general code cleanup warning fix and readability improvement,b,2015/8/12,,
ha a number of visual issue but these can be corrected in a subsequent to keep this,b,2015/8/11,,
death to tab,b,2015/8/11,,
long live space,o,2015/8/11,,
make order of file consistent,o,2015/8/05,,
get building with and android studio,o,2015/8/05,,
added arrival time to data shown in favorite listing,b,2013/11/23,,
increment version number,f,2013/11/10,,
action menu a bit,o,2013/10/14,,
added feature to send arrival time message,b,2013/10/14,,
start action mode immediately selecting a train,b,2013/7/28,,
add platform info to departure listing,f,2013/7/28,,
upgraded,b,2013/7/28,,
always get cached boarded departure processing an alarm,f,2013/7/04,,
increment version number,f,2013/4/03,,
increment version number,f,2013/4/03,,
boarded departure service now restarts with intent info,b,2013/3/24,,
release 22,f,2013/2/09,,
