doe what it say in the description,o,2016-01-05,Dalton de Oliveira Silva,5
extremely light search in your phone very quickly,b,2016-01-05,Dalton de Oliveira Silva,5
this is one of those the programmer ha actually taken the care not to make a bloated that still handle the job perfectly,o,2016-01-05,Dalton de Oliveira Silva,5
