# deletions,date,commit message
11,2015/8/09,report button commit
231,2015/8/09,Fix for #94 - Formatting is broken on fragment_post.xml
105,2015/8/09,App fix for text
90,2015/8/08,PR Edits
6,2015/7/17,Choose Audio menu
7,2015/7/06,Recording refactoring
13,2015/7/06,Align Record and play buttons together
9,2015/7/06,Fix context issues with Audio record buttons
37,2015/7/05,Save recorded video
11,2015/7/05,Choose Video from Gallery
55,2015/7/03,Choose photo from gallery
27,2015/7/03,Add camera/photo selection dialog
332,2015/4/17,finally got notifications working ...
232,2015/4/15,fixed the anoying notification pop-up issue
135,2015/4/12,v0.1.6 commit.  added workaround for location not being available
3,2015/3/27,fixed image 'smooshing' on local feed.
2,2015/3/22,inc build number
0,2015/3/22,adding v0.1.5 binary
1,2015/3/22,reduced checkin time from 1 minute to 5 minutes (was starting to be an issue with battery life)
12,2015/3/22,removed jar files and moved to pulling from maven central
