galaxy win,o,2013-12-29,,1
helped me block website,b,2013-12-26,Luigi Obiña,5
thanks for the useful,o,2013-12-20,Richard Ladiana,5
useful,o,2013-12-08,Hardcore Shit,5
simple and efficient tool,o,2013-12-06,Asa Myth,5
simple and doe the work,o,2013-11-20,Guilherme Carvalho,5
love the search feature,o,2013-11-07,Titan Rain,5
thanks,o,2013-11-07,Titan Rain,5
doe everything u need editing host search option is what i wa looking nice,f,2013-10-24,bhupi singh,5
it work saved me from connecting to and pushing host file,o,2013-10-21,Dhananjay Sarsonia,5
thank u,o,2013-10-21,Dhananjay Sarsonia,5
thanks you very much for this nice and simply,o,2013-10-05,Artyom Abgaryan,5
most of the time i make page scrolling instead,b,2013-09-28,Ivan Sidorov,3
with this you must add each entry individually,f,2013-09-26,Kurt Milam,2
way too limiting for a power user,b,2013-09-26,Kurt Milam,2
with the ability to quickly add a large number of entry and quickly select a large number of entry to comment or this would be much more useful to me,f,2013-09-26,Kurt Milam,2
edits your directly on your device without requiring you to dump it,b,2013-09-14,Sam Fleming,5
also let you search and filter if there are multiple entry you need to track down,f,2013-09-14,Sam Fleming,5
totally worth a and cost nothing,o,2013-09-14,Sam Fleming,5
doe what it say and no,o,2013-08-18,Ross Smith,5
i used this i could access our site on my phone to test responsive web design,b,2013-07-22,Joe Harker,5
worked perfectly,o,2013-07-22,Joe Harker,5
thank you,o,2013-07-22,Joe Harker,5
firstly this overwrite my host file to blank,o,2013-07-09,Jedi Romeo,5
but i created a new one and it is working now,o,2013-07-09,Jedi Romeo,5
thanks for elegant free software,o,2013-06-15,Mark M,5
doe what it say,o,2013-05-25,Sean Schnoor,5
no nonsense,o,2013-05-25,Sean Schnoor,5
