Topic Index 1,Topic Index 2,Topic Similarity
2,0,1.0
3,1,1.0
5,2,1.0
7,3,1.0
8,4,1.0
10,5,1.0
11,6,1.0
12,7,1.0
16,8,1.0
18,9,1.0
0,10,0.0
1,11,0.0
4,12,0.0
6,13,0.0
9,14,0.0
13,15,0.0
14,16,0.0
15,17,0.0
17,18,0.0
19,19,0.0
