Topic Index 1,Topic Index 2,Topic Similarity
1,18,2.0
2,14,2.0
4,5,2.0
15,1,2.0
16,8,2.0
0,4,1.0
5,2,1.0
6,12,1.0
7,7,1.0
8,9,1.0
9,11,1.0
10,19,1.0
11,6,1.0
14,13,1.0
17,0,1.0
19,10,1.0
3,3,0.0
12,15,0.0
13,16,0.0
18,17,0.0
