# deletions,date,commit message
2,2015/3/03,changing known model list to nexus and for
7,2015/3/03,eat any exception the test infrastructure trigger exception in this code
10,2015/3/03,added check for motion sensor
2,2015/3/03,check is available
1,2015/3/03,bumped to 173
4,2015/3/02,updated constructor to be chained
4,2015/3/02,and not dumb
10,2015/3/02,this is important for thing like and desktop widget
12,2015/3/02,reworked synchronization around the collection point in the and forced the getter to provide a copy of the list
7,2015/3/02,this add a to make sure the can properly handle an 598 response which indicates some kind of networking error
7,2015/3/02,now ha an additional constructor accepts a status code and a transmit byte length
7,2015/3/02,this make construction of status like 598 easier to build
7,2015/3/02,no longer return null in any case
7,2015/3/02,you will always get a 404 or a 598 on an error
21,2015/3/02,the is initialized force a single read of the sync stats and broadcast this for the metric view to update on startup
21,2015/3/02,note in the component are initialized before the service
1,2015/2/28,fix string overflow
10,2015/2/27,minor cleanup and synchronized the read and write method for
1,2015/2/27,bumped to 172 to address crash with the
1,2015/2/27,changed format string to stop crash
1,2015/2/26,bumped to 171
2,2015/2/26,force the to be null
4,2015/2/26,updated based on review
144,2015/2/25,this get rid of the phone type we no longer need it for anything
1,2015/2/25,detect network location change part of motion sensing
21,2015/2/25,split and blob doe not include accuracy or altitude field
58,2015/2/25,bug and are confused updated for change related to switching from got rid of method a we can just use an overloaded constructor replaced a dependency with so that test can instrument time
58,2015/2/25,added test for no exists yet
58,2015/2/25,added a cache timing test to the
86,2015/2/24,cleaned up merge conflict with dropped entirely
86,2015/2/24,the verification for the blob being sent to is in the class now
86,2015/2/24,removed leak that might show up in clean up import and license got rid of extremely noisy debug logging in test run
1,2015/2/25,make the service not sticky
5,2015/2/25,remove unused function
4,2015/2/25,start the false positive filter a delay to give the user time to move after acceleration is detected
52,2015/2/25,remove no longer relevant
2,2015/2/24,clarified argument for per code review
1,2015/2/24,wrapped the logging of the response body for error so it only show up in debug build
10,2015/2/24,updating per review
55,2015/2/24,legacy sensor use a rolling average to detect motion use the rolling average at a baseline and the average exceeds a relative to the baseline average at then notify movement ha occurred and update the baseline
8,2015/2/24,fixed some incorrect synchronization in the which caused service to not be bound in a thread safe manner
51,2015/2/24,added an explicit and so call work in debug build on device
124,2015/2/19,reworked serialization for and
124,2015/2/19,added basic test around serialization
81,2015/2/20,2 performance change
81,2015/2/20,
81,2015/2/20,2
4,2015/2/19,added a backslash escape character to single quote in
1,2015/2/17,update
120,2015/2/17,pulled out the a and injected it into the updated code to use the new service changed simulation to use half second interval to move position
1,2015/2/17,to screen
9,2015/2/17,comment out limit zoom option in screen
5,2015/2/15,updated polish translation
6,2015/2/13,logging
6,2015/2/13,more logging instance all over the place
4,2015/2/13,test case for incremental delay in starting motion sensor
8,2015/2/13,added a context argument to and to force the unambiguous start of a service
8,2015/2/13,updated to match
59,2015/2/13,ha been moved into the main source tree from the test code
59,2015/2/13,changed redirection of to use reflection so the dependency on is removed and only used at runtime
9,2015/2/13,push the service into
16,2015/2/13,moved into the using the key
6,2015/2/13,addressed nit from review now looking at test case
6,2015/2/13,update translation
39,2015/2/13,use the time rather storing an additional time in the false filter
39,2015/2/13,also based on my testing and the gap in the data i got i added code to ramp up the motion sensor pause time over a 5 min period
1,2015/2/13,check before querying
18,2015/2/12,remove old code for false positive checking
9,2015/2/12,some test case
4,2015/2/12,rename var per review comment
99,2015/2/12,update
16,2015/2/12,fix the reset logic on the
16,2015/2/12,the last location should stay unchanged the user move beyond the threshold distance or scanning is
32,2015/2/11,developer setting for the min sleep time paused and cleanup motion sensor code to handle this setting
2,2015/2/11,have motion sensor do filtering for false positive from accelerometer
30,2015/2/11,move unlimited zoom to setting from developer screen
5,2015/2/05,test for and
2,2015/2/10,updating pr to work with existing test
11,2015/2/10,properly initialize based on
34,2015/2/10,use the sensor the linear
34,2015/2/10,provides no benefit and is unreliable on the
9,2015/2/10,minor code cleanup
11,2015/2/10,code review renaming function to is and to set
8,2015/2/10,add a button on the power option screen to test the significant motion sensor by walking
62,2015/2/10,power saving option have radio for using
62,2015/2/10,or
62,2015/2/10,motion sensor
2,2015/2/09,added test and code to close out crash in the
16,2015/2/09,improve updater test
2,2015/2/09,test cleanup
2,2015/2/09,suppress warning in the were just noise
2,2015/2/09,removed unused cast
7,2015/2/07,improve updater test
14,2015/2/07,remove leftover
1,2015/2/06,developer setting for unlimited map zooming
11,2015/2/06,added for ticket 1130052
3,2015/2/03,now run test on the package
11,2015/2/03,shortened the throttled update test
6,2015/2/03,made scanner state package visible for testing
27,2015/2/02,cleaning up state i find this code confusing
27,2015/2/02,now ha an for state
27,2015/2/02,i find this code more readable
9,2015/2/02,added test around request throttling
7,2015/2/02,added test around
7,2015/2/02,removed the split between and
1,2015/2/02,recreated 1432 of the
50,2015/2/02,added a
3,2015/2/02,bug fix and test for handling void method in the
1,2015/2/01,manually applied to resolve
70,2015/2/01,the motion sensor code to make the legacy motion sensor and the significant motion sensor operate behind a common interface
7,2015/2/01,pulled up the registration of an out of the code
20,2015/2/01,comment untranslated string
20,2015/2/01,bug form
1,2015/2/01,fix entity change
1,2015/2/01,fix missing
4,2015/2/01,update typo fix
39,2015/1/29,of most used string
39,2015/1/29,bug form
3,2015/1/29,moved file from top level android application into the library for all
3,2015/1/29,file
1,2015/1/29,for 1441
0,2015/1/28,added a setting file for android studio
6395,2015/1/28,reformatting
11,2015/1/28,fix and update string
8,2015/1/27,minor
2,2015/1/22,the version checking for the
1,2015/1/22,clone it changing it
1,2015/1/22,bumped to
11,2015/1/22,to patch on code
1,2015/1/22,translate new string to
8,2015/1/22,improve
34,2015/1/22,update string
