Topic Index 1,Topic Index 2,Topic Similarity
2,4,3.0
1,0,2.0
10,1,2.0
12,7,2.0
13,12,2.0
19,6,2.0
0,3,1.0
3,2,1.0
4,8,1.0
5,9,1.0
7,5,1.0
8,11,1.0
9,13,1.0
11,10,1.0
15,17,1.0
16,15,1.0
17,14,1.0
18,19,1.0
6,16,0.0
14,18,0.0
