Topic Index 1,Topic Index 2,Topic Similarity
2,0,2.0
4,1,2.0
7,2,2.0
9,3,2.0
10,5,2.0
11,7,2.0
16,9,2.0
0,8,1.0
1,10,1.0
3,11,1.0
5,4,1.0
6,13,1.0
12,15,1.0
13,6,1.0
14,12,1.0
15,16,1.0
17,17,1.0
8,14,0.0
18,18,0.0
19,19,0.0
