Topic Index 1,Topic Index 2,Topic Similarity
0,0,2.0
14,1,2.0
15,9,2.0
1,3,1.0
2,5,1.0
3,18,1.0
4,14,1.0
9,11,1.0
11,6,1.0
16,16,1.0
18,10,1.0
19,17,1.0
5,2,0.0
6,4,0.0
7,7,0.0
8,8,0.0
10,12,0.0
12,13,0.0
13,15,0.0
17,19,0.0
