# deletions,date,commit message
1,2014/6/08,Drop support for Android 2.1 and 2.2
2,2014/6/05,CleanerActivity: Fix possible BadTokenException
2,2014/6/05,Cache Cleaner v1.1.6
31,2014/6/05,CacheManager: Performance improvements and cleanup
