# deletions,date,commit message
1,2015/11/02,Do not use search icon from appcompat-v7 library  Search icon in appcompat-v7 is marked as private and therefore should not be used.
4,2015/11/02,Do not use colors from support library marked as private resources
1,2015/11/01,Update LICENSE
6,2015/10/25,Use "Used" instead of "System" in device storage statistics
2,2015/10/24,Update README
12,2015/10/24,Bring partial support for Android 6.0
1,2015/10/24,Revert "Set the maximum SDK version to 22"  This reverts commit 7394e1dbcfedc47de53c8c108781e61cec0bb233.
34,2015/10/24,Revert "CleanerFragment: Show "Not compatible" message when necessary"  This reverts commit 21eeeab819099185153ee675dff16710fd26cb78.
1,2015/10/19,README.md: Add Travis build status
3,2015/10/18,Update Portuguese translation  Thanks to smarquespt for the update.
24,2015/10/16,Do not use images for drawing dotted lines
3,2015/10/16,Bump support library versions to 23.1.0
1,2015/10/16,Fix an unescaped apostrophe in French translation
2,2015/10/11,Updating french translation
17,2015/10/10,Show a toast with error message when could not clean the cache
1,2015/9/18,Clean external cache
1,2015/9/14,Bump Build Tools version to 23.0.1
3,2015/8/18,Bump support library versions to 23.0.1
8,2015/8/20,Revert "Add light drawables for checkbox"  This reverts commit 3906082335ff92101de10931faca56656b431750.
3,2015/8/18,Bump support library versions to 23.0.0
2,2015/8/18,Bump target SDK version to 23
1,2015/8/18,Bump build tools version to 23
1,2015/8/12,build.gradle: Fix ambiguous constructor call
1,2015/8/12,Bump Gradle plugin version to 1.3.0
12,2015/8/05,Do not scan before cleaning on app startup
36,2015/8/05,Do not scan before cleaning on system startup
24,2015/8/05,Do not show how much cache was cleaned  This number was not accurate anyway.
19,2015/8/06,Include external cache size in cache statistics  Closes #19.
2,2015/8/04,Cache Cleaner v2.1.6
