App,Store,App ID,Review ID,Country,Version,Rating,Date,Author,Subject,Body,Translated Subject,Translated Body
Chess,Google Play,jwtc.android.chess,Z3A6QU9xcFRPR1duNTFLY1FwM3NMQVAtYnRlMlFOblg4b3FlZ0RyU0xSay1XajQxNWV4cmdjRGRUNVlTNWhoYWtrRzg3Q3hDMkF3MU90QVhOUWVxN0dQZEE,English,,5,2016-05-09,Peter Simons,Simple yet powerful,the doe not have fancy graphic like some but it can do anything you could wish for,,
Chess,Google Play,jwtc.android.chess,Z3A6QU9xcFRPR1duNTFLY1FwM3NMQVAtYnRlMlFOblg4b3FlZ0RyU0xSay1XajQxNWV4cmdjRGRUNVlTNWhoYWtrRzg3Q3hDMkF3MU90QVhOUWVxN0dQZEE,English,,5,2016-05-09,Peter Simons,Simple yet powerful,you can play on the free you can play against the you can solve puzzle and learn and analyze game,,
Chess,Google Play,jwtc.android.chess,Z3A6QU9xcFRPSFo3SWRKTG1WaG9nUmtxUHp4QmVVQkR0RnFNWWYxTVdDSklLODM5ZllpVDJGMlBtTUh5WFY2SG1BSGRDcHFsV1B2cWhKUGhkMHJHVUoxOXc,English,,5,2016-04-22,Daniel Haskin,,ad many option for work well with free chess server,,
