# deletions,date,commit message
5,2016/7/02,Behavior fixes
155,2016/7/02,Main activity - layout fix
1,2016/7/02,Small fix for pebble notifications when everything is collapsed
64,2016/7/02,Final fix for #119
2951,2016/7/02,Some code to support #120
12,2016/7/02,Some settings relayout
67,2016/7/01,Implementing #119 and bugfixes
11,2016/7/01,Support for Halo.Light for date and time pickers (optional). Fix #137 Plus fix for some Polish translations.
1,2016/6/30,Some fixes with strings
1,2016/6/30,Polish translation (thanks to Tomasz Jasnos) and some English string fixes
13,2016/6/29,Build 1.3.2 resources and sorting order for notifications updated
2,2016/6/29,Build 1.3.1 resources
1,2016/6/29,Tiny formatting
8,2016/6/29,Fixes for #132 and #135
