App,Store,App ID,Review ID,Country,Version,Rating,Date,Author,Subject,Body,Translated Subject,Translated Body
Geopaparazzi,Google Play,eu.hydrologis.geopaparazzi,Z3A6QU9xcFRPRUwwYVRHRk44OVM2a25YTXZWaUR1QkpQeXlNVVF1U01wM2xXMnkyaGFmMWxRZWRQTUtJenEwQ2RZV09HNnBPelYxcklnaXpzV29lVjdIMU1V,English,,5,2014-05-20,massimo di stefano,Geopaparazzi,simply awesome you can load into it any kind of dataset,,
Geopaparazzi,Google Play,eu.hydrologis.geopaparazzi,Z3A6QU9xcFRPRUwwYVRHRk44OVM2a25YTXZWaUR1QkpQeXlNVVF1U01wM2xXMnkyaGFmMWxRZWRQTUtJenEwQ2RZV09HNnBPelYxcklnaXpzV29lVjdIMU1V,English,,5,2014-05-20,massimo di stefano,Geopaparazzi,thank you for this,,
