Topic Index 1,Topic Index 2,Topic Similarity
1,1,1.0
2,17,1.0
3,10,1.0
5,2,1.0
6,3,1.0
8,5,1.0
9,8,1.0
12,0,1.0
13,7,1.0
14,4,1.0
15,11,1.0
18,15,1.0
19,9,1.0
0,6,0.0
4,12,0.0
7,13,0.0
10,14,0.0
11,16,0.0
16,18,0.0
17,19,0.0
