Topic Index 1,Topic Index 2,Topic Similarity
5,17,10.245899999999999
14,12,6.0945
4,16,4.872
11,10,3.9347
19,4,3.7199999999999998
7,19,3.2849999999999997
1,9,2.4624
8,7,1.8760000000000003
17,15,1.43
2,14,0.7718
15,18,0.7582000000000001
18,13,0.7276
0,0,0.0
3,1,0.0
6,2,0.0
9,3,0.0
10,5,0.0
12,6,0.0
13,8,0.0
16,11,0.0
