Topic Index 1,Topic Index 2,Topic Similarity
10,18,3.8025
9,19,3.198
11,2,2.667
1,17,2.6651000000000002
13,6,2.5719999999999996
2,13,2.0446
3,12,1.7544
4,8,1.2064
6,9,1.2016
18,3,1.1132
19,11,0.93
8,0,0.7617
5,7,0.6693
7,10,0.5496
12,14,0.506
14,1,0.45899999999999996
15,4,0.23370000000000002
0,5,0.0
16,15,0.0
17,16,0.0
