Topic Index 1,Topic Index 2,Topic Similarity
19,0,11.11111111111111
4,9,5.263157894736842
5,19,5.263157894736842
6,1,5.263157894736842
7,18,5.263157894736842
9,2,5.263157894736842
13,3,5.263157894736842
15,4,5.263157894736842
18,5,5.263157894736842
0,6,0.0
1,7,0.0
2,8,0.0
3,10,0.0
8,11,0.0
10,12,0.0
11,13,0.0
12,14,0.0
14,15,0.0
16,16,0.0
17,17,0.0
