# deletions,date,commit message
13,2015/1/25,encrypt shortcut intent it turn out the terminal shortcut feature wa relying on the explicit component intent security hole closed in 5112961
13,2015/1/25,intent come from shortcut will be seen a coming from the launcher so using a permission to protect shortcut intent is a nonstarter
13,2015/1/25,instead we add a new intent which requires shortcut to be encrypted and authenticated using key known to u
13,2015/1/25,this ensures only shortcut that the user ha created can be run and that the content of those shortcut
13,2015/1/25,the command are being run
13,2015/1/25,existing user shortcut must be recreated
13,2015/1/25,this is unavoidable given existing shortcut are to use the intent via which is something that we can no longer support
1,2015/1/25,fix spelling mistake
1,2015/1/25,updated instruction
2,2015/1/25,update version number to 1064
