App,Store,App ID,Review ID,Country,Version,Rating,Date,Author,Subject,Body,Translated Subject,Translated Body
Terminal Emulator for Android,Google Play,jackpal.androidterm,Z3A6QU9xcFRPSHFmVGI5Y0ZZazhiR3BTNlN4LVVTMUg1TE1tb2VlNG0yTXlOUmZjSHZTRmlWU194YUhkVkRLRWpxeDdzYWRseXU3Z1k3ZC1TX2FRYVZmLXlJ,English,,4,2014-05-31,achmad mahrus soleh,Ok,,,
Terminal Emulator for Android,Google Play,jackpal.androidterm,Z3A6QU9xcFRPR0Y2dU1VY1hCaE1WQVdiaFlaMHV6R0ZGaTVXS0stY09sV2xKVXpjSTZXUERqZ1p5RGRxWUNteGxZSm1QaUJaTkRnSFo4cTFYUXdUWTZ3QWxV,English,,5,2014-05-31,Shalif Olivero,,best,,
Terminal Emulator for Android,Google Play,jackpal.androidterm,Z3A6QU9xcFRPRVJzZk1QRFdXeG5MejlvLW1QYXdYRjZQRmdOTkktVE5LVEkzTjFmblhmMHZhWU9uTXNwWUZOUWtlbEd2UDBMNVRhUFZjVlY0U09pNDAzdHJz,English,,5,2014-05-31,Aiman Mior,Good,nice,,
Terminal Emulator for Android,Google Play,jackpal.androidterm,Z3A6QU9xcFRPSHZRMk9oWTlhaWdianp2dnJ4cWJDNms0TTNSSXN0VF9iZkVnQjFzNHRnUC0wdzBaVEdzcWlXMHlFZjVlQzR2NlpMMEU3YlpyS0tWdkpFUnRR,English,,1,2014-05-31,Daksh Khera,Bad app,i know how to use this,,
Terminal Emulator for Android,Google Play,jackpal.androidterm,Z3A6QU9xcFRPRzZqOHRzVGJiMVJqR2FIQVgwTHRVSkZkUWVDbkR4MVppWUlzaTJHRDFEbTB2bzdySjhoVFF5N3l4ck9ZbGlXdkw4X2lQdTZZbDR0bFVvOGpV,English,,5,2014-05-31,Martin Kodovský,Cool stuff,i cannot live without it by public transport,,
Terminal Emulator for Android,Google Play,jackpal.androidterm,Z3A6QU9xcFRPSFRfTGFobzZ5c0Y2Sk9PV0s0NzE1RVFBeGN0NFZoRnVXQ01VUldHNzBWX2VlV0pEVkt0NVppOWJUaVVJbXdDMHF6dFh3MThMNzJ1VE8tRlow,English,,5,2014-05-30,Purnama Dewatmaka,Great apps!,thanks jack,,
Terminal Emulator for Android,Google Play,jackpal.androidterm,Z3A6QU9xcFRPR2Z2Z0hUWmdNZ0d2Y0wtRkpmOUpOc3pnQ2I4UEQzZTZvZ3J5cWkxSFpzM3E3UkhTc0RMRV9mdnJwQWlPVVkwYkpYV3R0T19jX1ZzQ3RDRzZj,English,,5,2014-05-30,Ahmad Fikri N Dz,Thanks,this is help my phone too thank you very much,,
Terminal Emulator for Android,Google Play,jackpal.androidterm,Z3A6QU9xcFRPRlZ6bVQyamo3RldLSnJpbWNKSkRlUGhlLTFPakpDTlZTMjRoRndRYndhd01kbEdHZWVkYVNENW1zYlhjc3d0aGlRVDBpMHVLb1k2MmpIdGU4,English,,4,2014-05-29,Malgos Overmind,,awesome,,
Terminal Emulator for Android,Google Play,jackpal.androidterm,Z3A6QU9xcFRPSFJfMXBlQThYQ0NxVGthZzV1dFRneXQ1M3hodzZlMjRUSjhRbGV3WXA3bUhTRG1Penhoell0NzN1UVBKQVMtdHpzcUhxcXU4UmFweWFOSzZz,English,,5,2014-05-29,Juniar Rahman,works great,just what i need,,
Terminal Emulator for Android,Google Play,jackpal.androidterm,Z3A6QU9xcFRPRnVGLUV2RGFuYVU5X3EweERPakRBZ25FYkFaaUNhQkRNZjNYOGt2d1NBM2xzTDV6WC1wM2xES3ppWjJ3ZEVtVzFLbWlTQ1dpeXFabm1sc0dZ,English,,5,2014-05-28,Ivica Gokcevski,,love it,,
Terminal Emulator for Android,Google Play,jackpal.androidterm,Z3A6QU9xcFRPSFNYbW9ENHkzcy0zQ3ltQmlHd1RqZ09SY3dLWDJVM3Y5bkFHMUFxZUxCTzk3aXVKTTJfZ3oyZE1IdXhwZk1lYmtfSlVBVmxxT3J1NkZ6Z01B,English,,4,2014-05-28,Simone Messaggi,,great,,
Terminal Emulator for Android,Google Play,jackpal.androidterm,bGc6QU9xcFRPRUozWExaU1JiYUo1OFBqbkJodUw2aFJzTmI5WkduYlFnTFdrTTNvREE4UEVxbUY0TVEwcFdvbGNrTjVOZlQ2NjdXSmpIWHBVZlpwNVdlak9n,English,,5,2014-05-28,A Google User,,nice,,
Terminal Emulator for Android,Google Play,jackpal.androidterm,Z3A6QU9xcFRPSEZOenkteWhDQlVIZmVMQWFoQ3lTcU0tSjVZblA0N0U1clZEYkJybFhiZW9GZGVqWWxDTmVieTlrT0RQQkphTzJHNDJPR0lMRnFzWFZILS1R,English,,3,2014-05-28,Chidanand Sahoo,Descent app,not all command available,,
Terminal Emulator for Android,Google Play,jackpal.androidterm,Z3A6QU9xcFRPSGgwVGVQN1FpemtLdkpmZXEyb3NfSlFwR3JIajFwWFJVSWFBcDlGMTkyUl9NeFk5d2FxdFB6eFU4TTRiNmFWX0hnYzhzM3lGQmtRU1MxTkRZ,English,,5,2014-05-28,alfredo vilando,Usable!!!,terminal,,
Terminal Emulator for Android,Google Play,jackpal.androidterm,Z3A6QU9xcFRPRmh2WjJNeUxOeU0xUm5uYmJDbjZrNWdqNVR2R3R5NjFibVlaWmpCYl82VFo0ZmtRMXdFNTBUSFo2WEtFQU1uUkZQOWRXenJEeGZIcldGQmRB,English,,5,2014-05-27,Adam McKay,if u need term...,this work,,
Terminal Emulator for Android,Google Play,jackpal.androidterm,Z3A6QU9xcFRPR0ZQTjFrWmJPVXlCc1Z3VG1xd3NfUjZ3THVxdlJYdTR1X09SWElRUWtVUmZ3Um9aamJFUmFKeW9yM3hSTWhmTDlKR0dScUViaFdpcldTZ2lv,English,,4,2014-05-27,Hacim Llih,Even with limited skills like mine..,even with limited skill like mine one must appreciate over the year of my very infrequently use of this how frequently it is updated and improved and feature and added,,
Terminal Emulator for Android,Google Play,jackpal.androidterm,Z3A6QU9xcFRPSHFHMlY0alh0NG96TXpFaTBEQ1pCRjlRaDQtdzhIeHYzUngtaWRhQUdveHh5ZEkxUHJzSEZUZWJ5a2lMS05tU0ozZ00zUGt4SFdOOGtsQVBv,English,,4,2014-05-27,Randall Parabicoli,"Great but new ""Term"" widget not working.",been using this for year,,
Terminal Emulator for Android,Google Play,jackpal.androidterm,Z3A6QU9xcFRPSHFHMlY0alh0NG96TXpFaTBEQ1pCRjlRaDQtdzhIeHYzUngtaWRhQUdveHh5ZEkxUHJzSEZUZWJ5a2lMS05tU0ozZ00zUGt4SFdOOGtsQVBv,English,,4,2014-05-27,Randall Parabicoli,"Great but new ""Term"" widget not working.",wa looking forward to using the new but i create a shortcut widget and open it all it doe it open an empty terminal window,,
Terminal Emulator for Android,Google Play,jackpal.androidterm,Z3A6QU9xcFRPSHFHMlY0alh0NG96TXpFaTBEQ1pCRjlRaDQtdzhIeHYzUngtaWRhQUdveHh5ZEkxUHJzSEZUZWJ5a2lMS05tU0ozZ00zUGt4SFdOOGtsQVBv,English,,4,2014-05-27,Randall Parabicoli,"Great but new ""Term"" widget not working.",nexus 4 rooted,,
Terminal Emulator for Android,Google Play,jackpal.androidterm,Z3A6QU9xcFRPRjZJWTZITC1BNzlTUTVlbmZ6U3hGTmNTVmd5UWl5bENNQmhJTS12UEZEN0VEejk2ajhJVXduWTBMQVozUHNNSUNYeGljZnJwS3h6YUtYSklv,English,,5,2014-05-27,Bambang Setiawan,Excellent,thanks,,
Terminal Emulator for Android,Google Play,jackpal.androidterm,Z3A6QU9xcFRPRU1nbFdvdzNMQjJTbnVzWWd2SUhIUi13OEVNOGFkNDBiak5mLXFoMTNmVWZrQkQyNm5EOUlhb1ZFNjVGRUZDVFRjaDBLT0IzZmtER3dUMXY4,English,,5,2014-05-26,Richard Bade,Does what it says,very good just what i wa looking for,,
Terminal Emulator for Android,Google Play,jackpal.androidterm,Z3A6QU9xcFRPSEhFcnQ2WUJoUGFIN0Jwa0M3MUtEeVEzTjRkU2tOOWIya0s0WVlwbFpmQTBSRTZMV3ZYc0tONFd6U2JoNkJaR2RRX0dlMVQtWjF6Y1N3cnZR,English,,5,2014-05-26,Jacob Flynn,"The name, its part of the name.",the name terminal emulator is a stance on it competition,,
Terminal Emulator for Android,Google Play,jackpal.androidterm,Z3A6QU9xcFRPSEhFcnQ2WUJoUGFIN0Jwa0M3MUtEeVEzTjRkU2tOOWIya0s0WVlwbFpmQTBSRTZMV3ZYc0tONFd6U2JoNkJaR2RRX0dlMVQtWjF6Y1N3cnZR,English,,5,2014-05-26,Jacob Flynn,"The name, its part of the name.",the other command prompt emulator fate are terminal from how awesome and reliable this is,,
Terminal Emulator for Android,Google Play,jackpal.androidterm,Z3A6QU9xcFRPSEhFcnQ2WUJoUGFIN0Jwa0M3MUtEeVEzTjRkU2tOOWIya0s0WVlwbFpmQTBSRTZMV3ZYc0tONFd6U2JoNkJaR2RRX0dlMVQtWjF6Y1N3cnZR,English,,5,2014-05-26,Jacob Flynn,"The name, its part of the name.",from rooting to or just playing around,,
Terminal Emulator for Android,Google Play,jackpal.androidterm,Z3A6QU9xcFRPSEhFcnQ2WUJoUGFIN0Jwa0M3MUtEeVEzTjRkU2tOOWIya0s0WVlwbFpmQTBSRTZMV3ZYc0tONFd6U2JoNkJaR2RRX0dlMVQtWjF6Y1N3cnZR,English,,5,2014-05-26,Jacob Flynn,"The name, its part of the name.",old phone to it ha always worked for me,,
Terminal Emulator for Android,Google Play,jackpal.androidterm,Z3A6QU9xcFRPRUZjcE5QMGNsZzI4dDJRcWREeUgzR3hFbk1SQ2ZRRUgxU2Z0RHRzMXVJTWh0YXVnY3VGWUh3QkVfeFFJMzhMaEI3Y1h5Q2hmYkdoS3Bydjl3,English,,5,2014-05-26,Spyder Richards,Cool,yea,,
Terminal Emulator for Android,Google Play,jackpal.androidterm,bGc6QU9xcFRPRmlpNHlUa2tPUGFMdjR1elpoRy00bjFNdlM4NXp0dWZ6MkplUHphbDd4bVlERVVKRWlacFI2MFVsS0FBN3BqZzc0UEloU2Y1bURQOVl0S2tJ,English,,5,2014-05-25,A Google User,,good,,
Terminal Emulator for Android,Google Play,jackpal.androidterm,Z3A6QU9xcFRPR1BrMkRBWG1aQzFoaXk4VVpCUWVzaGZVbXcyQlVkNXpsNlhZWVdhNFNkNG9qUDJ6b1ZXd2tLT3h1U1llbHNlNEFyYk9rZmRCNEUtQVYxeGFv,English,,5,2014-05-25,,Very nice,it seems everything work,,
Terminal Emulator for Android,Google Play,jackpal.androidterm,Z3A6QU9xcFRPR1BrMkRBWG1aQzFoaXk4VVpCUWVzaGZVbXcyQlVkNXpsNlhZWVdhNFNkNG9qUDJ6b1ZXd2tLT3h1U1llbHNlNEFyYk9rZmRCNEUtQVYxeGFv,English,,5,2014-05-25,,Very nice,thank you,,
Terminal Emulator for Android,Google Play,jackpal.androidterm,Z3A6QU9xcFRPRVN0Q1JxYU5iRVRJaXhqc3ZnbVhxdHpoSnViX0ZPSmZ0NXNKWnRqT3AtajB5LVZYOHBaek40d3lVdVhWeGNxaVBRbFBKczFrZmdzZWl0OTY4,English,,5,2014-05-25,Javier Ivona,,y,,
Terminal Emulator for Android,Google Play,jackpal.androidterm,Z3A6QU9xcFRPRzJPaklyLURSTThJT2s5LWhUQWVnZTlUSTdiejg1ZUttT3FfYnd6TmQ2QkhoTjRJY3hvYi1oMW9YOW1CRlgyb3JNRjZqZ2lneUJqVkVQRXEw,English,,5,2014-05-25,Osman Arfeen,Menu Button,awesome,,
Terminal Emulator for Android,Google Play,jackpal.androidterm,Z3A6QU9xcFRPR1NpTTI1U0lESEVCTExqVmgyZ0M3NTExc0hVSEJ5endncWwzajNSMzdsRmlLN05hQ002ck45SXhEY3JzTVVyRTZ4bUl2SDlPT1JCV2NkZ0NF,English,,5,2014-05-25,Dragoș Dumitriu,A must have,the thing i miss is the feature,,
Terminal Emulator for Android,Google Play,jackpal.androidterm,Z3A6QU9xcFRPSHRHZVFCRFc5RFlxbTUtelBkLUdGVzhZM2xMTEtPaVV3d2JKSTNtTnhsM3o3YTJ3UDNyQnVCcG0xTzYxdl9uemdCRzd0Y3RwaWdKOXllU3dr,English,,2,2014-05-24,Stephen Govoruhk,Poor support,soon a they released 2014 they stop supporting 2013,,
Terminal Emulator for Android,Google Play,jackpal.androidterm,Z3A6QU9xcFRPSHRHZVFCRFc5RFlxbTUtelBkLUdGVzhZM2xMTEtPaVV3d2JKSTNtTnhsM3o3YTJ3UDNyQnVCcG0xTzYxdl9uemdCRzd0Y3RwaWdKOXllU3dr,English,,2,2014-05-24,Stephen Govoruhk,Poor support,a scam to keep you buying the next version,,
Terminal Emulator for Android,Google Play,jackpal.androidterm,Z3A6QU9xcFRPSGhocExNd284U05GWjdVWTB1eHNacEpMRndNQnc4VkNSZmoxakZSWFJFRnVSTmVFMUNjWkZVTExGNnVsT213RGtzZUl5ZnJXcFczclhfQjNF,English,,5,2014-05-24,Justin Reis,Just works.,well integrated terminal for android,,
Terminal Emulator for Android,Google Play,jackpal.androidterm,Z3A6QU9xcFRPSGhocExNd284U05GWjdVWTB1eHNacEpMRndNQnc4VkNSZmoxakZSWFJFRnVSTmVFMUNjWkZVTExGNnVsT213RGtzZUl5ZnJXcFczclhfQjNF,English,,5,2014-05-24,Justin Reis,Just works.,super useful with a solid implementation,,
Terminal Emulator for Android,Google Play,jackpal.androidterm,Z3A6QU9xcFRPSGhocExNd284U05GWjdVWTB1eHNacEpMRndNQnc4VkNSZmoxakZSWFJFRnVSTmVFMUNjWkZVTExGNnVsT213RGtzZUl5ZnJXcFczclhfQjNF,English,,5,2014-05-24,Justin Reis,Just works.,new file manager integration a real plus also,,
Terminal Emulator for Android,Google Play,jackpal.androidterm,Z3A6QU9xcFRPRWxPX1dtOTV6NE9sWmRVQzUzalVCa1JrNmhSb01CS0dXSnFRa1EtZmFYekV3SlBjZ0U2bU1HRHJmRmdRYVk5SUJrTDB1RnpOa3ViZk9KNjgw,English,,5,2014-05-24,Ivan Kaselj,Life saver,sometimes you just need to reach your box trough ssh,,
Terminal Emulator for Android,Google Play,jackpal.androidterm,Z3A6QU9xcFRPRWxPX1dtOTV6NE9sWmRVQzUzalVCa1JrNmhSb01CS0dXSnFRa1EtZmFYekV3SlBjZ0U2bU1HRHJmRmdRYVk5SUJrTDB1RnpOa3ViZk9KNjgw,English,,5,2014-05-24,Ivan Kaselj,Life saver,immediately,,
Terminal Emulator for Android,Google Play,jackpal.androidterm,Z3A6QU9xcFRPSEdfTTVLWUtTM2JoT3FhTmZoUkM4LXRoeHI2WE9md3I4RTd2S2MxTEYtbWphT1VRd01YRWk1MmRpTzBwTkNRZDVia2pYcnA4WnFkZThXYm9j,English,,5,2014-05-24,Luiz Gustavo Pozzo,Excelente work,i would like to ask a way to access ssh using key,,
Terminal Emulator for Android,Google Play,jackpal.androidterm,Z3A6QU9xcFRPRUR0bl9oSWJGMUJrQXVZekV0OTRsYmw5c2hqdHg1OG9MY2xtVFAwWW9teERnZWRQbTFIVVduUk1GUGVRcnVsbjN5SHplbU5pbzdtbEpWZ1lN,English,,5,2014-05-24,Luis A Ramos Jr,Good,nice to used for doing some built worked on rooted phone,,
Terminal Emulator for Android,Google Play,jackpal.androidterm,bGc6QU9xcFRPSFNOY05JVmVManN3YlVkZEszUmdSOUV0VWdydDV0SHZoLTJKLVBzd21lRDhNNm9keXE1VjFGck5jMVVsRDJPYk04TFZxM1FJNUM3ei1rcDR3,English,,5,2014-05-24,A Google User,Awesome,work exactly it should,,
Terminal Emulator for Android,Google Play,jackpal.androidterm,bGc6QU9xcFRPSFNOY05JVmVManN3YlVkZEszUmdSOUV0VWdydDV0SHZoLTJKLVBzd21lRDhNNm9keXE1VjFGck5jMVVsRDJPYk04TFZxM1FJNUM3ei1rcDR3,English,,5,2014-05-24,A Google User,Awesome,highly useful,,
Terminal Emulator for Android,Google Play,jackpal.androidterm,Z3A6QU9xcFRPSDJ4TjRBeWFNbjI3MjNUQk5wenBEYkhtcEp6T3dOZ19ad0RBdV9KWENzMW9TelZZMmVpcHl2bV9wYTlma2dQZHdxRXVWXzBhcVkteGVXaVhn,English,,5,2014-05-24,MUHAMMAD ALFIAN,after update this apps my phone being hot,update this my phone being hot,,
Terminal Emulator for Android,Google Play,jackpal.androidterm,Z3A6QU9xcFRPRnJxb2tMa2pqVWVkT1RWWDJMbHhOTWxwZVRwQlF3dGs1Y3JQUm1NTzZ6alYzdTF2dExqdkx2WXlPN1B4ZzBqN0U5ZXZxVE1aYWVFUDRaT0Rv,English,,5,2014-05-24,The Dimka,Good,now i can run recovery,,
Terminal Emulator for Android,Google Play,jackpal.androidterm,Z3A6QU9xcFRPRXBsMUg4VHg3T2c2LTBEM29MNl9VZkJNeFV4UzVoQi1xaHYtRWhQUlc0aW1lMXJDcjVxWHRWV05kZVNKZlV0Zl9YamZ2ckNSTlAyV1VITDJF,English,,5,2014-05-23,Hatsy Rei,5 star + App.,it just keep getting better with each update,,
Terminal Emulator for Android,Google Play,jackpal.androidterm,Z3A6QU9xcFRPRXBsMUg4VHg3T2c2LTBEM29MNl9VZkJNeFV4UzVoQi1xaHYtRWhQUlc0aW1lMXJDcjVxWHRWV05kZVNKZlV0Zl9YamZ2ckNSTlAyV1VITDJF,English,,5,2014-05-23,Hatsy Rei,5 star + App.,i would be willing to pay for it seriously,,
Terminal Emulator for Android,Google Play,jackpal.androidterm,Z3A6QU9xcFRPRXBsMUg4VHg3T2c2LTBEM29MNl9VZkJNeFV4UzVoQi1xaHYtRWhQUlc0aW1lMXJDcjVxWHRWV05kZVNKZlV0Zl9YamZ2ckNSTlAyV1VITDJF,English,,5,2014-05-23,Hatsy Rei,5 star + App.,great job loving the latest feature here,,
Terminal Emulator for Android,Google Play,jackpal.androidterm,Z3A6QU9xcFRPR1FpRkhHRjBSN2RhbWRJb3dZTW5NeDBHVk5RX3IxX0NfNDZMalVPUzBobFdveHpGRklESHpDSFFBdExnVVl2cUZwY0JqQnpHTW5TX01zeFhv,English,,5,2014-05-23,symbian flo,,better and for your awesome work,,
Terminal Emulator for Android,Google Play,jackpal.androidterm,Z3A6QU9xcFRPR0VJWDNPRGdna29pRkt5YldqYnM1WnVCVXRQb2MxTmFaY21XTXFtOWk2YXkzSUlrallhT1NEZFhLeTRNZXROWnBkLUJkY2dBZFJmT2ZfaE5R,English,,5,2014-05-23,Michael Conte,One of the best root apps out there!!!,i first used it to flash touch recovery on my phone and it helped me back my phone up in case of disaster in flashing or changing various setting,,
Terminal Emulator for Android,Google Play,jackpal.androidterm,Z3A6QU9xcFRPR0VJWDNPRGdna29pRkt5YldqYnM1WnVCVXRQb2MxTmFaY21XTXFtOWk2YXkzSUlrallhT1NEZFhLeTRNZXROWnBkLUJkY2dBZFJmT2ZfaE5R,English,,5,2014-05-23,Michael Conte,One of the best root apps out there!!!,awesome must have for root user,,
Terminal Emulator for Android,Google Play,jackpal.androidterm,Z3A6QU9xcFRPR1Y2QmtSY3V1eUpqcjZ0dkNVZ2JmcV9wTi1mM3NYcS1mQVI3R2lJNS1BLWJlZ2F6a2JxTUU2cThYQXo5Q1U3ZkFaNFdFZlltbjVham00WWZ3,English,,5,2014-05-23,Daniel Chavez,Works perfectly,i use it to change display size connecting my and to my using out,,
Terminal Emulator for Android,Google Play,jackpal.androidterm,Z3A6QU9xcFRPRWpXM2VpNXFxaGFLMFRJZ2pmMUtLa0haSEpxaVZjRDJrWl84ZmFyaXRXaGdwZUtCUnIwLWd2MmtCcGhjekctTE9QUU9hOFN0V1ZNcjEtNFZj,English,,5,2014-05-23,Ahmad Apandi,Great lah,thanks,,
Terminal Emulator for Android,Google Play,jackpal.androidterm,Z3A6QU9xcFRPRUVLNWo0T2s2RUV4WjI2U29aczZhNXlNMF90dmdZWE1ZQWVsWVgzbnJwS3hqd0ZmYm9oaEh3eHlCV3lubFRpN3huMldlbFEzNmMwdUxKYkFn,English,,5,2014-05-23,John Doe,I never write reviews,but i just had to the new feature are released,,
Terminal Emulator for Android,Google Play,jackpal.androidterm,Z3A6QU9xcFRPRUVLNWo0T2s2RUV4WjI2U29aczZhNXlNMF90dmdZWE1ZQWVsWVgzbnJwS3hqd0ZmYm9oaEh3eHlCV3lubFRpN3huMldlbFEzNmMwdUxKYkFn,English,,5,2014-05-23,John Doe,I never write reviews,launcher icon to run and a new term here intent,,
Terminal Emulator for Android,Google Play,jackpal.androidterm,Z3A6QU9xcFRPRUVLNWo0T2s2RUV4WjI2U29aczZhNXlNMF90dmdZWE1ZQWVsWVgzbnJwS3hqd0ZmYm9oaEh3eHlCV3lubFRpN3huMldlbFEzNmMwdUxKYkFn,English,,5,2014-05-23,John Doe,I never write reviews,these feature are amazing,,
Terminal Emulator for Android,Google Play,jackpal.androidterm,Z3A6QU9xcFRPRUVLNWo0T2s2RUV4WjI2U29aczZhNXlNMF90dmdZWE1ZQWVsWVgzbnJwS3hqd0ZmYm9oaEh3eHlCV3lubFRpN3huMldlbFEzNmMwdUxKYkFn,English,,5,2014-05-23,John Doe,I never write reviews,thanks much for them,,
Terminal Emulator for Android,Google Play,jackpal.androidterm,Z3A6QU9xcFRPRUVLNWo0T2s2RUV4WjI2U29aczZhNXlNMF90dmdZWE1ZQWVsWVgzbnJwS3hqd0ZmYm9oaEh3eHlCV3lubFRpN3huMldlbFEzNmMwdUxKYkFn,English,,5,2014-05-23,John Doe,I never write reviews,the script feature is such a lifesaver,,
Terminal Emulator for Android,Google Play,jackpal.androidterm,Z3A6QU9xcFRPRzdtR2ZTRUJQeWFfcjZJSEFjYmJZempEbWZPWmNmeXlnckdBYTIyeVNJV0UwZjlSM0pTR0xiWUlIMmloOXJVeFo3cGkxSk5ScjR1ZGllZGZn,English,,4,2014-05-23,Hasanudin H. Syafaat,Apik,,,
Terminal Emulator for Android,Google Play,jackpal.androidterm,Z3A6QU9xcFRPRjZORHUyR1pqUW14VlhoWWltUWFqYVFpNjRYNXZua3dxUkZhVmR5R0RDQnFiZ3dJenBLUmNGU3JCSEM0aS1xeV9XQXhuM0VHVUlqcWk0ZmJJ,English,,5,2014-05-23,Jermal Smith,Much needed app,,,
Terminal Emulator for Android,Google Play,jackpal.androidterm,Z3A6QU9xcFRPRzhYZzZGdlBfRTRCWXZZSlQyWTJjWkNTMnhCdjNZT3lzN29ZbXh0SjAtSEpiMzZZUDk4Rm9rcWJBZFozdVh0WlJ4R1RpN21BTjFRd3BPZW93,English,,5,2014-05-23,Agustín Dall'Alba,The new widget and intent both rock!,but could you add a setting to launch a root shell the intent point to a please,,
Terminal Emulator for Android,Google Play,jackpal.androidterm,Z3A6QU9xcFRPR01kN093YWQ0Y281bXEtUnRIX2cxVGVYdXJXT19ySGJLMl82X3NSMkFael82M1VIeW4tcm4zZGdOUlVJVnhPLVM3bldhajU5aEY4VEhreVBN,English,,5,2014-05-23,Owls Rook,Well done.......,thank you,,
Terminal Emulator for Android,Google Play,jackpal.androidterm,Z3A6QU9xcFRPRklfdEZVX1ZDQVJDczI4RzZUQnZXbXJXRnd3cWFVZWltNHV3cEVhQnFOaUtZb0dfSmxaYUFvREZvZlB3RU5IRmZSVkNLcm14V1NqNzJpY2ZB,English,,5,2014-05-23,Bill Goss,Must-have app,i use it to run script update create and flash update,,
Terminal Emulator for Android,Google Play,jackpal.androidterm,Z3A6QU9xcFRPRklfdEZVX1ZDQVJDczI4RzZUQnZXbXJXRnd3cWFVZWltNHV3cEVhQnFOaUtZb0dfSmxaYUFvREZvZlB3RU5IRmZSVkNLcm14V1NqNzJpY2ZB,English,,5,2014-05-23,Bill Goss,Must-have app,i never need to use,,
Terminal Emulator for Android,Google Play,jackpal.androidterm,Z3A6QU9xcFRPR0kxemswdmxIQ01HamJxM01tcEt2RU8xZHd6Qjk0Q3Z1N3QzUUpNaE1uWFZ0WUN4OHZiRlNTUGhUR0owVXFscVkwWTdXdlQ4QzRwUzlyZTU0,English,,5,2014-05-23,Jacob Lane - Faelo,Noice!,i love the update,,
Terminal Emulator for Android,Google Play,jackpal.androidterm,Z3A6QU9xcFRPR0kxemswdmxIQ01HamJxM01tcEt2RU8xZHd6Qjk0Q3Z1N3QzUUpNaE1uWFZ0WUN4OHZiRlNTUGhUR0owVXFscVkwWTdXdlQ4QzRwUzlyZTU0,English,,5,2014-05-23,Jacob Lane - Faelo,Noice!,keep adding innovative feature,,
Terminal Emulator for Android,Google Play,jackpal.androidterm,Z3A6QU9xcFRPRnZIcl9ZdGRtdDVvdE1JaTk5UVlla0tLTVNoMjRENzlYMzQ2WGtXaERtZDNEQ3VJLU4yZWtNM21FNlFuZ2JKeUkxWDEydmpNNjVPZ2JlWVcw,English,,5,2014-05-23,,,very good,,
Terminal Emulator for Android,Google Play,jackpal.androidterm,Z3A6QU9xcFRPSGdYRDl3RzNMSlgzT19fNzJ3LTVVUjYyeVkxYmNWT2tzRF92dmJoMkcwcWpkdkMxbzR2M2lKenZqUlFPSE9CSEtIVFFzZEIxTXE2R0pqdGVF,English,,5,2014-05-23,Silvana Simic,Awesome tool!,thank you,,
