# deletions,date,commit message
3,2012/3/11,make medial vowel and final consonant combining modern is typically written using syllable block also provides individual conjoining syllable which are supposed to combine to form complete syllable block
3,2012/3/11,at least android 41 the android text rendering service handle conjoining correctly but in order for a syllable block to be rendered correctly we need to pas it component to the text renderer a unit
3,2012/3/11,the easiest way to achieve this is to treat medial vowel and final consonant a combining way will automatically store them in the same column along with the initial consonant and all our code will treat the syllable block a unit
24,2013/1/20,should fix the deadlock reported in 198
16,2013/1/21,implement cursor feedback for toggle key
16,2013/1/21,the cursor graphic are copied from
16,2013/1/21,not sure if people are going to like or not
16,2013/1/21,i guess we can work up a fancier renderer in the future
16,2013/1/21,in testing this i tweaked the way hardware control key worked
16,2013/1/21,fix issue 176
5,2013/1/21,implement combining accent for keyboard
5,2013/1/21,attach a hardware keyboard
5,2013/1/21,type e at this point you will see appear
5,2013/1/21,hat tip to the source code
3,2013/1/21,improve implementation of
3,2013/1/21,note i have not seen this method get called but we might a well have a proper implementation
7,2013/1/21,remove unused cursor member variable
7,2013/1/21,the cursor is now drawn by the
2,2013/1/19,update manifest to version 1051
1,2013/1/18,update translation
12,2013/1/13,function key now match term type
12,2013/1/13,previously we always sent function key
12,2013/1/13,now we send function key match the term preference
12,2013/1/13,issue 192
28,2013/1/12,update translation for recent change to android terminal emulator
28,2013/1/12,i added all the missing string
28,2013/1/12,in some case i copied from a similar language
28,2013/1/12,in other case i wa able to guess at a translation based on the text wa already in the file
28,2013/1/12,and in other case i just used the original
5,2012/12/31,implement cursor close 187
1,2012/12/26,update market link to point to play
1,2012/12/26,update download link location
1,2012/12/25,correct indentation
2,2012/12/25,add more translation
4,2012/12/23,update for new binary file download instruction
2,2012/12/23,bump version name to 1050
9,2012/12/23,add some larger font point size
9,2012/12/23,fix bug capped stored font size preference at 20
14,2012/12/02,update localization
4,2012/12/02,make sure android 11 is installed and updated
4,2012/12/02,make sure the project property file use 11
1,2012/12/02,add end of line
1,2012/12/02,improve error message
2,2012/11/23,version 1049
166,2012/11/23,switch from window line ending to line ending
1,2012/11/04,minor syntax change
9,2012/11/03,updated localization
9,2012/11/03,courtesy
47,2012/11/03,updated localization
47,2012/11/03,thanks to giver and
1,2012/10/27,minor syntax change
1,2012/10/27,
2,2012/10/21,update to version 1048
2,2012/10/14,bump version number to 1047
9,2012/10/14,change behavior to allow phone to use alt
9,2012/10/14,is no longer the default
9,2012/10/14,the opposite of is to pas through alt unaltered which allows phone keyboard to use alt to provide extra character
2,2012/10/13,version 1045
13,2012/10/13,put in transformer handling for alt and meta
13,2012/10/13,rerouting alt and meta seems to be required on this device but not on other device
13,2012/10/13,we should refine this test we find out which device need this special handling
13,2012/10/13,put in transformer handling for alt and meta
13,2012/10/13,rerouting alt and meta seems to be required on this device but not on other device
13,2012/10/13,we should refine this test we find out which device need this special handling
10,2012/10/07,tweak to move to the keyboard section of preference
10,2012/10/07,on by default
10,2012/10/07,rework preference text to make it clearer
10,2012/10/07,rename string resource id name to make their role clearer
10,2012/10/07,add support for setting the high bit instead of sending
10,2012/10/07,i think there are more people who want this the original composing logic
10,2012/10/07,treat the meta key the same way the alt key
10,2012/10/07,therefore we have to handle the case
10,2012/10/07,also the meta flag can come in a combination of 3 bit so to mask them off we need to mask with rather just
1,2012/10/04,honor the flag
43,2012/10/04,make it possible to test the mode
1,2012/10/07,remove initial default command
1,2012/10/07,i think for most user of android terminal emulator the default initial command wa not useful the directory doe not exist by default
1,2012/10/07,the directory is special because it permission are set so it can be written to by the android shell even on phone
1,2012/10/07,therefore it is possible for user of phone to create the directory and then put executables into and then add it to their path and then execute them a shell command
1,2012/10/07,but in reality most people who would go to the trouble of installing application tend to root their phone and set their phone up more like a normal system
1,2012/10/07,there were very few people for which the default initial command string wa useful
1,2012/10/06,add a default to the initial command string
8,2012/9/30,fix rendering of character at start or end of text run we currently discover a character at the start or end of a text run after we process both half of the surrogate pair representing the character individually resulting in error in calculating the portion of the char array containing the run to be drawn
8,2012/9/30,fix this by processing both half of the surrogate pair immediately we see the high surrogate
2,2012/9/25,there are at least two problem with the current implementation is used in a few place to get the spot in the array a column start but this relies on the offset array which is potentially out of date at this point
2,2012/9/25,fix this by adding the shift to the value we use
2,2012/9/25,truncating the line by reducing the storage used count we currently effectively reduce the count by the size of the last column in the line which is not necessarily the same a the size of the overwritten column
2,2012/9/25,we should instead adjust by the size of the column
2,2012/9/25,fix 145 and potentially a class of other bug involving east wide character support
1,2012/9/30,guard against null getting transcript this occurs for instance when we try to retrieve text from the transcript without caring about color information
1,2012/9/30,fix crash text introduced by
137,2012/9/28,make blank line track the current color
137,2012/9/28,this fix emulation error related to scrolling with a background color
2,2012/9/27,fix background color escape sequence should fix issue 149
4,2012/9/27,improve special handling
4,2012/9/27,keep track of x sequence
1236,2012/9/27,this change wa reverted it caused a regression in the way soft keyboard modifier key worked
1236,2012/9/27,using the volume key control key
1236,2012/9/27,i think the regression happened the change introduced multiple copy of
1236,2012/9/27,there should be one instance of for each terminal window
1236,2012/9/27,i would still like the feature but without the regression to the soft keyboard
0,2012/9/23,move to location match up with the issue database
8,2012/9/22,treat the meta key the same the alt key
4,2012/9/22,ed erase in display should ignore scrolling margin
7,2012/9/22,implement
6,2012/9/22,implement
6,2012/9/22,improve parsing escape sequence
6,2012/9/22,fix test of cursor movement
1,2012/9/22,validate foreground and background color are in range
1,2012/9/22,fix issue 156
1,2012/9/22,set default text color to be white text on black background
78,2012/9/22,fix escape sequence
78,2012/9/22,the whitespace ha been fixed
18,2012/9/22,fix bug in key processing
18,2012/9/22,rename to
18,2012/9/22,rename the public getter from to signify each time you call it the current character sequence is reset
18,2012/9/22,bug switch to mode
18,2012/9/22,press and release the letter x hold down the alt key
18,2012/9/22,expected behavior nothing happens
18,2012/9/22,actual behavior the letter x repeat long a you hold down the alt key
417,2012/9/22,they are generated by running
1,2012/9/22,reorganize test
354,2012/9/18,fix whitespace
2,2012/9/09,bump version number to 1045
10,2012/9/09,add a subject line
10,2012/9/09,catch exception and show toast fail to start picker
12,2012/9/09,guard against custom implementation of this should fix in which ha been occasionally seen in the exception log
12,2012/9/09,we extend a rather than implement an in order to avoid an in the case we are running on a custom that ha added a method to
2,2012/9/09,handle finishing a session initialization gracefully
1,2012/9/09,deal with a couple more case could be null
711,2012/9/09,move to separate file
711,2012/9/09,now they will be easier to update and le likely to be localized by accident
2,2012/9/09,clean example and library output directory building
2,2012/9/09,this seems to be needed using git to switch back and forth between different version of the source tree
2,2012/9/09,otherwise we sometimes end up with an mismatch between the library and the
2,2012/9/09,harden version detection
2,2012/9/09,use it is available
2,2012/9/09,catch parse error parsing at
2,2012/9/09,harden version detection
2,2012/9/09,use it is available
2,2012/9/09,catch parse error parsing at
11,2012/9/08,fix crash resizing transcript containing commit
11,2012/9/08,introduced checking of color and formatting attribute a well a text determining the last printing character on a line
11,2012/9/08,however the naive approach to doing this result in an the text in question contains character or combining character because in those case the char array will be longer than the color array
11,2012/9/08,fix this by using the correct index into the color array the screen column of the character
28,2012/9/04,use a more compact representation for color information by storing the formatting info in an array of with size the width of the transcript we save one byte per character
9,2012/9/06,bit and piece
2,2012/9/04,updated translation
10,2012/9/04,remove unused variable and method
21,2012/9/04,remove unused variable
2,2012/9/03,restore this behavior which wa lost we implemented support
97,2012/9/03,store window title in and hook up display in the window title is logically a property of the terminal session so store it a field in the object which allows u to just do in and we want the session title
97,2012/9/03,we do still need a notification interface for the title change but we no longer need to pas around the title so use the existing interface for that
97,2012/9/03,also extend to offer a title change notification interface which make the implementation in easier
6,2012/9/03,poll for window size change unconditionally on 8 automatic window resize appears to be broken on 8 the status bar is visible and the device is in landscape mode
6,2012/9/03,strictly speaking we could disable polling in portrait mode with the status bar visible but detecting orientation is a bit annoying and the polling ha no effect other wasting a little time in that case
6,2012/9/03,instead unconditionally poll for window size change on older platform
2,2012/9/03,implement fling scrolling
1,2012/9/03,make flinging le sensitive
10,2012/9/03,fix color setting code
9,2012/9/03,handle the cursor color part of the standard palette
66,2012/9/03,track cursor color and default text color unique palette entry
21,2012/9/03,treat inverse a style
111,2012/9/03,manage text foreground background and effect data a single style int
90,2012/9/03,improve text style handling
90,2012/9/03,underlined bold and invisible text now working
899,2012/9/03,implement plumbing for setting the terminal window title text
18,2012/9/03,fix rotation of colored text
478,2012/9/03,split text into their own file
38,2012/9/03,remove logic for setting the color palette
69,2012/9/02,first cut at support
39,2012/9/02,repair character encoding
39,2012/9/02,converted back to using f t temp f t temp
5,2012/9/02,make sample compile with 15
5,2012/9/02,android eclipse still us android 15 semantics
131,2012/9/02,updated translation
7,2012/9/02,use and environment variable
1,2012/9/02,add newline at
5,2012/9/01,add the key to the test
33,2012/9/01,have common code in the setup section
193,2012/9/01,working test for
35,2012/8/27,working test with vanilla term
1,2012/8/17,fix crash on open with some keyboard
1,2012/8/17,3
1,2012/8/17,wa fatal exception main at force finishing activity
1,2012/8/15,handle the alt key in mode too
4,2012/8/14,rename function for more clarity
8,2012/8/13,check the direct map checking for character
7,2012/8/13,fix null initializing
7,2012/8/13,fix and key detection
746,2012/8/12,rework
19,2012/8/10,this handle and alt key properly
19,2012/8/10,also the flag is observed
258,2012/8/08,add preference fix bug case a character is properly recognized
258,2012/8/08,remove unused method from
258,2012/8/08,have be used by
43,2012/8/01,dutch translation
3,2012/7/14,generate application icon from market icon
3,2012/7/14,fix documentation for setting up build
1,2012/6/21,fixed a typo
1,2012/6/20,update translation
1,2012/6/20,correctly escape an apostrophe
1,2012/6/20,required by android 19
2,2012/6/20,bump version number to 1044
1,2012/6/20,remove permission by popular demand
1,2012/6/20,they worried the log might contain sensitive information and that android terminal emulator might access this sensitive information and do something bad with it
1,2012/6/20,of course android terminal emulator doe no such thing
1,2012/6/20,it contains no code to access the log at all it just request the permission in order to allow the preexisting command to work
1,2012/6/20,nevertheless i am removing the feature it take too much of my time to answer email from worried user
1,2012/6/20,developer who still want to use this feature will have to build their own version of ate without this change
3,2012/5/27,update
19,2012/5/27,updated translation added new string and fixed some old one
2,2012/5/27,add a text color
2,2012/5/27,trendy
2,2012/5/27,we the color rather grabbing it from the system resource
2,2012/5/27,might have to grab from a system resource this color change in the future
7,2012/5/26,update release checklist
1,2012/5/26,update version number
2,2012/5/26,minor edits to build and release instruction
10,2012/5/14,support sending additional command to existing window via remote interface this implement an idea posed in 111
10,2012/5/14,generate a handle for every window created via the remote interface return the handle to the caller via if a handle is provided in a call to try to find the corresponding window and run the script there switch to the existing window the script is run if found
1,2012/5/13,telnet sample add default telnet host to connect to
9,2012/5/13,real should probably implement of some sort
1,2012/5/12,widget sample statically link the binary apparently us a different standard android
1,2012/5/12,statically link to avoid all library compatibility problem
88,2012/5/11,telnet sample buffer telnet output explicitly instead of in the old method wa causing network writes on the main thread on e device so implement the write buffer explicitly on the main thread and make all direct writes to the via the superclass write method which us a writer thread
2,2012/5/10,fix the makefile to work in a fresh source code checkout
58,2012/5/09,update documentation for library
7,2012/5/09,improve the documentation document our use of thread point out that will initialize an attached for you suggest user call finish done with the session eliminate specific reference to tty in
27,2012/5/11,do all via this ensures subclass of see all of the coming from the terminal emulator
18,2012/5/09,add a write method which function on byte array this will be more convenient for many use case the existing method which operate on string and individual code point
18,2012/5/09,also by mod the existing method to use this one for pushing data to the writer thread we give subclass a single method to override if they need to modify the output stream
7,2012/5/09,update for consistency with make final
7,2012/5/09,technically an break but not a painful one given the youth of the and the existence of a direct equivalent
7,2012/5/09,change parameter name to be consistent with clarify the difference between and
2,2012/5/09,to interpret protocol command
2,2012/5/09,at the moment this requires they wrap the real with a filtering instead give them a method to override which should generally be more convenient
1,2012/5/09,stop the thread and close stream in finish this prevents the leaking of thread we go away
2,2012/5/09,use more descriptive thread name
14,2012/5/09,move writes to the off the main thread this ha two major advantage writes no longer block the main thread leading to more responsive
14,2012/5/09,previously this would result in an exception on honeycomb and later of the network on the main thread
3,2012/5/07,make set the default color scheme
30,2012/5/07,fix this by introducing a default color scheme
4,2012/5/12,tweak build script the and script are now position independent
4,2012/5/12,the old version which avoids an error we are replacing the signed release version with the unsigned debug version
4,2012/5/12,use for the debug version of ate
1,2012/5/12,recursively look for android project file
116,2012/5/10,missing translation
40,2012/5/06,update library doc
1,2012/5/06,require permission to append to path well a requested by jack in 45 i can see two potential security issue with appending 1
1,2012/5/06,2
2,2012/4/29,allow external package to modify path by responding to broadcast one of the most feature in android terminal emulator is an easy way to install additional tool beyond the limited set android offer by default
2,2012/4/29,no special permission are required to receive this broadcast
2,2012/4/29,this is intended to allow installers to override command and is therefore protected by a new permission
2,2012/4/29,in addition two new preference are added to allow the user to disable all path extension or just path
9,2012/2/07,input flag on tty appropriate the terminal driver us the flag for to implement correct character erase behavior in cooked mode
9,2012/2/07,set the flag entering mode and clear it when leaving it
14,2012/4/30,document the library with
1,2012/4/30,style fix
5,2012/4/30,remove superfluous method presumably this is a vestige of the day wa coupled to the term activity
5,2012/4/30,superseded by and now ha no user
14,2012/4/30,make them or private
14,2012/4/30,to accommodate the changing of to we need to add a method to allow writing directly to the input
14,2012/4/30,do this and convert the existing user of this functionality
19,2012/4/30,allow to be instantiated through layout inflation the layout inflater need constructor that take an parameter so add these constructor and provide a public method to attach a for these constructor are used
361,2012/1/21,user of the new library are expected to instantiate connect it to the emulation client via an and then attach it to an which will display the terminal screen and
361,2012/1/21,in the we subclass both and to consolidate the setting and updating of preference in one place
361,2012/1/21,handling stay in the we also override various method of to handle our tty functionality
2,2012/5/06,add support
2,2012/5/06,requires android version 8 or later
1,2012/5/06,upgrade personal build script use environment variable instead of hard coded path
1,2012/5/06,sorry
1,2012/5/02,fix issue 102 and 21
44,2012/5/02,improved translation
4,2012/4/28,requires from 9 or later
4,2012/4/28,add a preference to control the behavior so people who insist on always running a root can turn this off
3,2012/4/29,add native code implementation of for 9 is equivalent to access so add native code to do just to implement for older device
2,2012/4/21,update
1,2012/4/14,update version number to 1042
2,2012/4/14,fix font on level 4
2,2012/4/14,remove unused import
0,2012/4/14,move to the right directory
2,2012/4/14,use instead of apparently slightly faster
2,2012/4/14,this is a lint suggestion
2,2012/4/14,move us clause in front of activity clause
2,2012/4/14,suggested by android lint
3,2012/4/14,update translation
1,2012/4/08,show the status bar by default
1,2012/4/08,this help on device place the menu key in the status bar
1,2012/4/08,we originally hid the status bar by default way back in android 10 the standard screen size wa 320 x 200
1,2012/4/08,screen are larger now which make it more reasonable to show the status bar by default
95,2012/3/21,revise screen resize check handling move the screen resize check code out of and into it logically fit now that there are multiple per term activity
2,2012/3/21,fix emission of combining character following wide character in transcript at the moment combining character which follow an e wide character are not being stored in the same column a the character they modify
2,2012/3/21,fix this by keeping track of the width of the last spacing mark emitted and using this to place combining character into the correct column
2,2012/3/21,properly handle sequence decoding to control character application which emit sequence decode to control character expect these sequence to be interpreted a control character so send them back through process instead of trying to emit them
4,2012/3/21,handle control character other each control character map to a corresponding escape sequence
4,2012/3/21,we already handle most of these escape sequence instead of just handling in an fashion handle all the control systematically
1,2012/3/25,update build script for version
1,2012/3/11,fix spelling mistake
13,2012/3/10,replace intent script execution with more formal interface the current intent script execution mechanism ha at least two serious problem a term activity is already running it will just bring the activity to the top without opening a new window or running the provided script
13,2012/3/10,replace the current mechanism with a more formally defined remote intent interface which provides two action open a new terminal window
13,2012/3/10,no script execution is allowed and no permission are required to use this action
13,2012/3/10,open a new window and run the script specified in the extra
13,2012/3/10,application using this intent must have the permission which must be approved by the user at install time
5,2012/1/30,translated lock
39,2012/3/01,updated dutch translation
2,2012/2/18,update translation android terminal update translation removed trailing whitespace
3,2012/2/08,update translation
3,2012/2/08,
2,2012/2/06,added missing string the function key translation is hard to achieve i try to do it this way and after i get the translated package i look at it again to correct it
2,2012/2/06,
8,2012/1/29,improve 7 string add 2 string and i translate key
1,2012/1/25,version 1041
21,2012/1/25,handle android 30 full keyboard correctly
21,2012/1/25,our toggling behavior wa confusing people especially with respect to the key on android 30 full physical keyboard
21,2012/1/25,we now never toggle we receive the physical key
21,2012/1/25,the physical control key is present on android 30 full keyboard
21,2012/1/25,we now leave it to the system to handle physical cap lock
21,2012/1/25,cap lock is present on android 30 full keyboard
21,2012/1/25,android 30 full keyboard
30,2012/1/23,this result in the transcript always being allocated at least twice for a newly created session
30,2012/1/23,to prevent this delay allocation of the transcript in after the size is set with a call to
5,2012/1/23,this is fine in most case but on the status bar is disabled and the action bar is always showing rotating from portrait to landscape with the soft keyboard showing appears to result in an large enough to push the action bar off screen
5,2012/1/23,work around this by resizing the itself through adjustment of it not just the content
2,2012/1/17,added translation and a small update
1,2012/1/17,update translation for your new option
1,2012/1/17,regard
235,2012/1/16,remove nonworking translation
1,2012/1/16,version 1040 version code 41
1,2012/1/16,add confirmation dialog for closing window from action bar
1,2012/1/16,make toast legible
1,2012/1/16,center them rather the default which is to show them near the bottom of the screen
1,2012/1/16,the old position would show the toast on top of the soft keyboard they were hard to see
13,2012/1/16,remove a few compiler warning
13,2012/1/16,should not affect running program at all
0,2012/1/16,update icon for and newer device
1,2012/1/14,update comment for use of ha expanded well beyond it original purpose update the comment to match
6,2012/1/14,add support for action bar offer a preference on honeycomb and later to allow the action bar to be hidden
6,2012/1/14,hidden the action bar can be displayed by tapping on the upper half of the or by pressing the menu key
6,2012/1/14,tapping on the bottom half of the brings up the soft keyboard
1,2012/1/14,add navigation between session to action bar replace the static window title with the name of the current terminal session which reveals a list of session tapped
43,2012/1/14,split from we want to reuse this in the action bar
62,2012/1/14,an class which wrap
62,2012/1/14,splitting the class allows u to instantiate these class without first creating an instance
23,2012/1/14,let external intercept event in for honeycomb and we want to be able to make a screen tap bring up the action bar in mode
23,2012/1/14,we could in principle do this by letting hold an object but it seems more sensible to add hook into to allow an external and have the activity use those to bring up the action bar instead
23,2012/1/14,this also allows u to move the existing code into the activity eliminating the need to hold a in the
1,2012/1/14,instead on 12 or later take a which keep the radio in the same state a the system is awake
4330,2011/6/12,in theory this will allow android terminal emulator to run on an version of android
4330,2011/6/12,this should fix the problem people have been having with text rendering using nonstandard font
4330,2011/6/12,therefore we need to update the list of running terminal session calling to preclude the possibility of accessing a finished
4330,2011/6/12,also a window wa closed in the activity and then the user selected a specific window the window number passed to u in refers to the window list after taking window closure into account
4330,2011/6/12,we expose three different way to manage terminal session option menu item to open a new window and close the current window
4330,2011/6/12,a activity reachable from the option menu which list all the open window and allows opening closing and switching of window
4330,2011/6/12,the behavior is patterned the window list activity in the android browser
4330,2011/6/12,gesture to change window swipe for the next window for the previous window
4330,2011/6/12,this patch add several icon
4330,2011/6/12,and come from the android browser source the rest come from the android 233 platform revision 2
4330,2011/6/12,this patch doe the following replace the widget in the activity layout with a which is a with a couple of added convenience for dealing with
4330,2011/6/12,them changing the view
4330,2011/6/12,add an in the service to hold and make the activity bind to the service so it can retrieve the list
4330,2011/6/12,make the input reader thread for each session exit on
4330,2011/6/12,these thread hold a reference to their object which would leak otherwise
4330,2011/6/12,for now one and are created a soon a the activity bind to the service none no to create additional session is included
4330,2011/6/12,this prevents a bunch of noise in the log
4330,2011/6/12,this keep everything the activity hold a reference to in memory which in our case includes a fairly significant chunk of memory the backing store to the
4330,2011/6/12,to help break this assumption we introduce a new class which hold the and for a session and handle the launching and watching of the process and the setup of the stream
4330,2011/6/12,this implies we have to stop holding object in all of the class tied to the session
4330,2011/6/12,to this end introduce a new class which is responsible for reading and holding the current value of setting
4330,2011/6/12,for local build i change the package name to which allows with the market however the debug constant stay in the term class i have to change every file using them to either belong to the new package or else import
4330,2011/6/12,this patch split out all of the class into separate file and group related class into no actual change to the code are made
4330,2011/6/12,shinier and more like a terminal
4330,2011/6/12,this bother some application but not others
4330,2011/6/12,the code generated match those sent by the console which appears to work fine a term setting the emulation fix in 1030 xterm sends different escape code i left the escape code at their present value because cause problem with some application
4330,2011/6/12,address issue 9
4330,2011/6/12,feel free to change
4330,2011/6/12,i have no idea whether anyone actually seriously us these but make these key combination behave in manner and remove the bogus and superfluous combo
4330,2011/6/12,thanks to
1,2011/12/08,update simplified translation
1,2011/11/29,display toast terminal reset fix 55
1,2011/11/28,update
57,2011/11/25,updated translation
3,2011/11/23,fix indentation on manifest file
55,2011/11/22,keep all default preference in one place we keep forgetting to change bit and piece which contain default preference we update them
6,2011/11/22,on 5 device
3,2011/11/23,update
1,2011/11/22,version 1039
1,2011/11/22,make terminal window title in window list activity thanks to user for reporting
19,2011/11/22,update
2,2011/11/22,update
6,2011/11/22,update
1,2011/11/22,version 1038
1,2011/11/22,on further thought switch to by default
1,2011/11/22,version 1037
1,2011/11/21,update version number to 1036 and version code to 37
2,2011/11/21,poll for window size change 7
5,2011/11/21,fix text renderer to draw text in correct position on screen wa drawing slightly too low which resulted in empty space on top cutoff character at the bottom
1,2011/11/21,fix calculation of visible window size
1,2011/11/21,make the soft keyboard always visible ate start
8,2011/11/21,avoid polling for window size change on android level 5
5,2011/11/21,tweak default preference default back key preference is to send default term setting is screen close window on process exit default to true
5,2011/11/21,term user expect this even it can lead to accidental data loss
4,2011/11/21,update
1,2011/11/18,set term in process environment and provide preference to choose value in ordinary environment the behavior of program use advanced terminal capability depends on the value of term in the environment
37,2011/11/18,this change break the for the library bump the library version to avoid any potential problem with external copy of the library
1,2011/11/18,to implement this character set we provide a mapping between the character sent by the application in this character set and for the expected display character and use it the character set is selected
21,2011/11/18,correct color rendition for color scheme other than white on black application expect to get black they ask for a black background independent of what the default background color actually similarly they expect white when they ask for a white foreground independent of the default foreground color
21,2011/11/18,we however currently substitute the default background color for black and the default foreground color for white in our palette which lead to incorrect color the color scheme is anything other than white on black
21,2011/11/18,a fix keep track of which color in the palette are the closest match to the default color and substitute those instead of always substituting for black and white
1,2011/11/18,fix tab behavior cursor is on tab stop sending a tab to the emulator when the cursor sits on a tab stop should move the cursor to the next tab stop not leave the cursor in it current position
14,2011/11/18,to account for the possibility of session ending on their own add callback interface to notify session have finished and when the list of session change
9,2011/11/18,clean up setting for a remove the unused argument to the constructor and move the into the constructor eliminating the need for a in
3,2011/11/18,add configurable back button behavior allow the back button to close all window close the current window close the activity but leave the terminal session or send to the terminal
1,2011/11/18,slow down scrolling by vertical fling of now a vertical fling scroll the screen far too quickly to be useful even a small flick of the finger scroll the screen by hundred of line
1,2011/11/18,reduce the coefficient converting fling velocity to scroll distance from 2 to 01 which result in much more reasonable scroll distance
4,2011/11/06,we dim the regular set of color slightly to distinguish them from the bright color
1,2011/11/06,fix fast resize screen shrink when the line containing the cursor is blank and the cursor is not at the bottom edge of the screen fast resize will move the line containing the cursor off the screen
1,2011/11/06,fix this by ensuring fast resize never considers line at or above the cursor for shrinking
1,2011/11/06,this patch prevents a crash which occurs a full resize operation is conducted immediately after this bug is triggered
1,2011/11/03,updated translation
1,2011/10/24,declare version 1035
1,2011/10/24,create android 15 version of notification icon
1,2011/10/24,use version android 15 device are defined to be
0,2011/10/24,add notification icon for use with android 15
1,2011/10/24,update service notification icon
1,2011/10/23,update checklist
1,2011/10/23,bump version number
2,2011/10/23,the original commit broke soft keyboard support
2,2011/10/23,make sure we build on level 10
1,2011/10/22,avoid possible overflow the text end in a high surrogate
3,2011/10/22,add link to android market
1,2011/10/21,create a status bar notification icon
0,2011/10/21,remove executable bit
0,2011/10/21,these file are not executable and should not have executable bit set
0,2011/10/21,these bit sometimes get set importing file from window
0,2011/10/21,move font notice out of re directory
1,2011/10/21,increment version number
15,2011/10/11,implement fast resize for case width remains constant a resize operation currently requires getting the entire transcript text throwing away the backing store constructing a new one and then writing the transcript to the new store
15,2011/10/11,particularly the transcript is large this is a slow and inefficient operation
32,2011/10/11,make the screen a movable window in the transcript buffer instead of the current scheme of having be the screen and everything else be the transcript let the screen be a movable window into the circular buffer
32,2011/10/11,this allows scrolling the whole screen to be much faster and should make fast resize easier
15,2011/10/11,preserve color and formatting across screen size change currently ha no option for preserving information so this information is lost resizing the screen
15,2011/10/11,fix this by adding a variant of which accepts a in which color information will be stored and using it during resize operation
15,2011/10/11,to save memory this implementation only preserve color information for region of the screen which contain text blank area of the screen with colored background will still revert to the default background color
15,2011/10/11,we cannot store information in the upper bit of a char we would have before
15,2011/10/11,an would be the most natural fit but the need to box the value creates serious memory overhead
15,2011/10/11,handle dynamic sizing of the array for u and us le memory per cell an
2,2011/10/11,add a hack to remember the cursor position across screen size change it stand the cursor end up immediately after the last character in the transcript after a screen resize which is very frequently incorrect
2,2011/10/11,therefore we use a hack since is and should never be part of the transcript we mark the cursor location with an before resizing and restore the cursor to the location the end up afterwards
1,2011/10/11,fix behavior with line since the patch ha been ignoring trailing whitespace for line were which cause the content which wa wrapped to the next line to be appended immediately after the last printing character not it original location
1,2011/10/11,this patch fix regression
1,2011/10/11,avoid going off end of offset array going from width 2 to 1 at end of line why this is happening is somewhat puzzling in the first place but this prevents a crash
38,2011/10/21,update project organization for version 14
10,2011/10/09,enable code to run 8
10,2011/10/09,introduce a utility class to deal with
10,2011/10/09,cache the level an integer at startup
10,2011/10/09,use reflection to access
10,2011/10/09,add early out for space character which show up frequently
5,2011/10/09,micro optimization avoid shift
1,2011/10/09,the original message text more accurate did not fit in the
266,2011/9/30,support displaying text the current scheme y we store the content of our screen in an array of char with the upper byte used to encode color and formatting information is fundamentally incompatible with where the available encoding all either need more than one byte per character or are encoding
266,2011/9/30,instead we use a new class which store the transcript row by row and includes facility to handle combining character and east wide character
266,2011/9/30,we also need to make some minor change to the code which display text on screen to support output
18,2011/9/30,optimize the current implementation is going through each line character by character even for line are known to be unwanted in the final this is silly and easy to fix
1,2011/10/01,update translation terminal emulator
2,2011/9/18,update file for latest android
1,2011/9/18,update private build tool to support
1,2011/8/29,increment version number
8,2011/8/28,handle font
8,2011/8/28,this should fix the problem people have been having with text rendering using nonstandard font
5,2011/8/28,avoid accessing a finished resuming the terminal activity may ask each terminal session in the list to update it size which requires accessing the
5,2011/8/28,therefore we need to update the list of running terminal session calling to preclude the possibility of accessing a finished
5,2011/8/28,also a window wa closed in the activity and then the user selected a specific window the window number passed to u in refers to the window list after taking window closure into account
3,2011/8/27,fix problem running on android 15 to 22 hurray for the emulator for making it easy to test older version use our own copy of system not available in older version
10,2011/8/27,add for switching and managing terminal session
10,2011/8/27,we expose three different way to manage terminal session option menu item to open a new window and close the current window
10,2011/8/27,a activity reachable from the option menu which list all the open window and allows opening closing and switching of window
10,2011/8/27,the behavior is patterned the window list activity in the android browser
10,2011/8/27,gesture to change window swipe for the next window for the previous window
10,2011/8/27,this patch add several icon
10,2011/8/27,and come from the android browser source the rest come from the android 233 platform revision 2
85,2011/8/27,support multiple session per terminal activity
85,2011/8/27,this patch doe the following replace the widget in the activity layout with a which is a with a couple of added convenience for dealing with
85,2011/8/27,them changing the view
85,2011/8/27,add an in the service to hold and make the activity bind to the service so it can retrieve the list
85,2011/8/27,make the input reader thread for each session exit on
85,2011/8/27,these thread hold a reference to their object which would leak otherwise
85,2011/8/27,for now one and are created a soon a the activity bind to the service none no to create additional session is included
308,2011/8/27,use in activity and view instead of old code this completes the process of isolating the code for each terminal session which should considerably simplify the task of adding support for multiple session
147,2011/8/27,modify the activity and view to use the new class
73,2011/8/27,for local build i change the package name to which allows with the market however the debug constant stay in the term class i have to change every file using them to either belong to the new package or else import
3910,2011/8/27,this patch split out all of the class into separate file and group related class into no actual change to the code are made
10,2011/8/27,ignore contains information not useful to save in
0,2011/8/22,improve market icon
0,2011/8/22,shinier and more like a terminal
1,2011/6/25,increment version number
15,2011/6/25,fix behavior of patch contributed by
15,2011/6/25,i have no idea whether anyone actually seriously us these but make these key combination behave in manner and remove the bogus and superfluous combo
6,2011/6/25,add link to downloads page to file
1,2011/6/18,increment version number
0,2011/6/18,rename the rt tool to this tool is used to build and test the terminal emulator
1,2011/6/18,allow application to be installed on the card
5,2011/6/18,fix insert and delete line code
2,2011/6/18,escape single quote character string resource compiles
18,2011/6/12,mark string
17,2011/6/12,updated translation
1,2011/5/29,missing translation
1,2011/5/29,missing translation
1,2011/1/09,
9,2011/5/30,traditional update translation for
2,2011/5/28,updated translation
2,2011/5/28,fixed typo
1,2011/5/25,increment version number
20,2011/5/25,use a global reference to hold onto a class object between call
20,2011/5/25,this bug wa detected by using
1,2011/5/24,update local property for building on a new machine
1,2011/5/24,increment version number
4,2011/5/24,change shared library name to make sure our copy take precedence on commit
4,2011/5/24,changed the name of the shared library from to avoid a potential library conflict with incompatible version being shipped in some custom firmware
1,2011/4/25,bump version number
2,2011/4/25,fix error
2,2011/4/25,change shared library name from to my theory is this bug is happening on system that have system version of the shared library
2,2011/4/25,version 1026 of android terminal emulator added a new to the library
2,2011/4/25,i think on device have in their system library that version take precedence over the version in the application and so the is not found
2,2011/4/25,by changing the name of the library to we should avoid loading the system version of the library
14,2011/4/25,housekeeping
14,2011/4/25,make sure the release build is a clean build
14,2011/4/25,regenerate add script for regenerating
1,2011/4/23,rename tool and make it build the code well
1,2011/4/23,bump version number
2,2011/4/23,add and to our the definition of the interface for version 9 includes new function and
1,2011/4/23,set to instead which will allow the preference activity into the same task
24,2011/4/23,by splitting and we can reach these function via the more letter and also provide access to more useful key
24,2011/4/23,the mapping is this tab
24,2011/4/23,
4,2011/4/23,kill the started process group in a it stand now the user press the back button without closing her shell it will keep running unattached to any tty
4,2011/4/23,over time this lead to a buildup of shell each inaccessible to the user
4,2011/4/23,fix this by doing what xterm and other terminal do send to the process group of the started process quitting
1,2011/4/23,remove unused variable in native implementation of
3,2011/4/10,add support for android 15 set to 3 we run on android 15 set to 11 so we run without hack
3,2011/4/10,add a file so we get a custom launcher icon on android 15 device
3,2011/4/10,bump version name to 1022
1,2011/4/07,change for tablet tweak
35,2011/1/09,
0,2011/1/08,add a white background layer
1,2011/1/08,bump version number
1,2011/1/08,
72,2011/1/08,handle composing text
1,2011/1/09,
0,2011/1/08,add a white background layer
1,2011/1/08,bump version number
72,2011/1/08,handle composing text
2,2011/1/07,set module tag to optional
59,2011/1/01,modify text selection algorithm to work better use drag to select rather two tap
59,2011/1/01,text selection is now a mode it last for one drag session
18,2011/1/01,fix style of text selection patch
4,2011/1/01,update doc for current build environment
13,2010/12/27,added an option for selecting part of the text on the screen with two screen touch
13,2010/12/27,
1,2010/11/27,bump version number
1,2010/11/27,
59,2011/1/01,modify text selection algorithm to work better use drag to select rather two tap
59,2011/1/01,text selection is now a mode it last for one drag session
18,2011/1/01,fix style of text selection patch
4,2011/1/01,update doc for current build environment
13,2010/12/27,added an option for selecting part of the text on the screen with two screen touch
1,2010/12/01,the old translation would imply the type of keyboard get changed which is not the case here
1,2010/12/01,
10,2010/11/12,
1,2010/10/22,update makefiles to replace stock term
1,2010/11/27,bump version number
74,2010/11/27,add support for full keyboard
74,2010/11/27,tested with a keyboard
0,2010/11/22,adobe file for icon for android market
1,2010/11/19,bump version number
2,2010/9/11,support delete key long press
1,2010/9/12,bump version number
39,2010/9/04,moved update to a new page
1,2010/9/04,improve formating
0,2010/9/04,give proper extension for markdown
3,2010/9/04,edit markup
1,2010/9/04,support backspace key
1,2010/9/04,thanks to and thanks to for spotting the bug fix in the tracker and tried it out in android term
1,2010/9/04,in general we now support any trying to delete text to the left of the cursor by calling
1,2010/9/04,this becomes an issue we can experiment with followed by
0,2010/9/04,first commit
