App,Store,App ID,Review ID,Country,Version,Rating,Date,Author,Subject,Body,Translated Subject,Translated Body
FBReader: Calibre connection,Google Play,org.geometerplus.fbreader.plugin.local_opds_scanner,Z3A6QU9xcFRPRm11MHpzUnJkc0xLblgwcVRMS29Ec3FVOW10X0pmQjNKbDBuMDdnREc3V21TdlhHMDB2QTdjYXE5R0FweDd4ek1Wb2NBM212dmpRZVFfRkE,English,,5,2016-10-23,El Char,Indispensable,this is game changer for me,,
FBReader: Calibre connection,Google Play,org.geometerplus.fbreader.plugin.local_opds_scanner,Z3A6QU9xcFRPR0J6VUJSMUI4YjBYQ1RJZDZZSGp0YnRkN082alVDNlJacUwzWU9yMVprSkI3bWJRelZDME1YdV9kZURSUHhIem9WNnBIZlpFVHlsaFlja0E,English,,5,2016-09-26,Kain Tesla,It works now after FBReader updates.,but i test the server on it work fine,,
FBReader: Calibre connection,Google Play,org.geometerplus.fbreader.plugin.local_opds_scanner,Z3A6QU9xcFRPR0J6VUJSMUI4YjBYQ1RJZDZZSGp0YnRkN082alVDNlJacUwzWU9yMVprSkI3bWJRelZDME1YdV9kZURSUHhIem9WNnBIZlpFVHlsaFlja0E,English,,5,2016-09-26,Kain Tesla,It works now after FBReader updates.,update needed,,
FBReader: Calibre connection,Google Play,org.geometerplus.fbreader.plugin.local_opds_scanner,Z3A6QU9xcFRPRTdDbm1qdURsSHBSYlpMS1NIQm90eTE5VGxJNm1wVHl4bjNtbERDU2FTZ3VCOHBwSVJwNWp0ZzdaUHlIeGZjN2paREJBdHVHSGZYczdvbEE,English,,1,2016-09-06,Elliot Jenner,,doe not work,,
FBReader: Calibre connection,Google Play,org.geometerplus.fbreader.plugin.local_opds_scanner,Z3A6QU9xcFRPRTdDbm1qdURsSHBSYlpMS1NIQm90eTE5VGxJNm1wVHl4bjNtbERDU2FTZ3VCOHBwSVJwNWp0ZzdaUHlIeGZjN2paREJBdHVHSGZYczdvbEE,English,,1,2016-09-06,Elliot Jenner,,not even any incompatibility just a continued instance there is no catalog to connect to,,
FBReader: Calibre connection,Google Play,org.geometerplus.fbreader.plugin.local_opds_scanner,Z3A6QU9xcFRPSHkyTWpDR2FaQ3Bxd2g4cFZIWENyOTlrNGptLUZwOFVNU0h3NDNVUnk5bnZRTGNzTTd2Nm1lTFdBUWNUU2JGTFVESGJGeDdXY0JDVG9MREE,English,,5,2016-08-31,Anne Kaelber,Love this app!,highly configurable,,
FBReader: Calibre connection,Google Play,org.geometerplus.fbreader.plugin.local_opds_scanner,Z3A6QU9xcFRPSHkyTWpDR2FaQ3Bxd2g4cFZIWENyOTlrNGptLUZwOFVNU0h3NDNVUnk5bnZRTGNzTTd2Nm1lTFdBUWNUU2JGTFVESGJGeDdXY0JDVG9MREE,English,,5,2016-08-31,Anne Kaelber,Love this app!,my complaint is navigating my library tedious,,
FBReader: Calibre connection,Google Play,org.geometerplus.fbreader.plugin.local_opds_scanner,Z3A6QU9xcFRPSHkyTWpDR2FaQ3Bxd2g4cFZIWENyOTlrNGptLUZwOFVNU0h3NDNVUnk5bnZRTGNzTTd2Nm1lTFdBUWNUU2JGTFVESGJGeDdXY0JDVG9MREE,English,,5,2016-08-31,Anne Kaelber,Love this app!,i prefer to connect to my and transfer from,,
FBReader: Calibre connection,Google Play,org.geometerplus.fbreader.plugin.local_opds_scanner,Z3A6QU9xcFRPRjg1RmlWWHhJMFlSbkl2NUt0bDlHVlZ3R09LYjhBQ2hvWHlpYmVJOVd6UWNvUEJYNFc4NWxTWWFrNnRoWDFCSllpX3QzdWlhSEtuRkdmM3c,English,,5,2016-06-25,Marc Gottlieb,calibre and FBReader,awesome combination,,
FBReader: Calibre connection,Google Play,org.geometerplus.fbreader.plugin.local_opds_scanner,Z3A6QU9xcFRPR2F5MW9Nc1ZxanI5WXFwZnVFbDlFcFpWZTQyaUJCMkVJaHpES3VnLVBkUnFEZVNaY2JSN2hxbGpZNVpDREZXSWNGT3FrX29uT01FZ2REdGc,English,,3,2016-06-20,Ronald Harvey,"Connects fine, but...",search doe not work well,,
FBReader: Calibre connection,Google Play,org.geometerplus.fbreader.plugin.local_opds_scanner,Z3A6QU9xcFRPR2F5MW9Nc1ZxanI5WXFwZnVFbDlFcFpWZTQyaUJCMkVJaHpES3VnLVBkUnFEZVNaY2JSN2hxbGpZNVpDREZXSWNGT3FrX29uT01FZ2REdGc,English,,3,2016-06-20,Ronald Harvey,"Connects fine, but...",i type in some word of a title and it doe not find the book,,
FBReader: Calibre connection,Google Play,org.geometerplus.fbreader.plugin.local_opds_scanner,Z3A6QU9xcFRPR2F5MW9Nc1ZxanI5WXFwZnVFbDlFcFpWZTQyaUJCMkVJaHpES3VnLVBkUnFEZVNaY2JSN2hxbGpZNVpDREZXSWNGT3FrX29uT01FZ2REdGc,English,,3,2016-06-20,Ronald Harvey,"Connects fine, but...",why,,
FBReader: Calibre connection,Google Play,org.geometerplus.fbreader.plugin.local_opds_scanner,Z3A6QU9xcFRPSGRhMHoxakUza0NMUjAwcGJEV1BNWl9vU3o3dnlDNUNpakp2bzh4UkhNQVRVT1dYS2tFSjBjU203bk1lR0JDeWNaeGdnZFpodjVNbHZFZmc,English,,4,2016-06-05,clazh h,,helpful with,,
FBReader: Calibre connection,Google Play,org.geometerplus.fbreader.plugin.local_opds_scanner,Z3A6QU9xcFRPSFpwX3hsYUpiTW96R2RDeGx3T21xOG56aXo1QzNSaXYySkg2ZmZoTl9DOE1PNjlBS1hqVFQwS2w1QXM5RmVFN1Roc2lrcFZiaFN6ZDR5cnc,English,,3,2016-05-28,Erin McCarthy,App disappeared,the store say it is already installed but is no longer on my phone,,
FBReader: Calibre connection,Google Play,org.geometerplus.fbreader.plugin.local_opds_scanner,Z3A6QU9xcFRPSFpwX3hsYUpiTW96R2RDeGx3T21xOG56aXo1QzNSaXYySkg2ZmZoTl9DOE1PNjlBS1hqVFQwS2w1QXM5RmVFN1Roc2lrcFZiaFN6ZDR5cnc,English,,3,2016-05-28,Erin McCarthy,App disappeared,i and then still not coming up my please fix this,,
FBReader: Calibre connection,Google Play,org.geometerplus.fbreader.plugin.local_opds_scanner,Z3A6QU9xcFRPRWF4YnNDcE9rYVBBNGUxc1FKcGhWc3dtbDMwWXlER280bWJ2S2FZLXdRSEwzMDI1V1o3VklMbHMtRjZJNTdIOVZIbFlZMndQbk0ybHBWeGc,English,,5,2016-02-10,Private Citizen,Good,it work expected,,
FBReader: Calibre connection,Google Play,org.geometerplus.fbreader.plugin.local_opds_scanner,Z3A6QU9xcFRPSHBnUVp1ZGY1UFN1RkN1eENqZmFwQXNScjhaS1lraTdZdk1LdURPakMtM1R4QVNqTWVZU1dJNGRSczVJU2c2TGQ3WjkzZC1Qa0RiYWIzRGc,English,,1,2016-02-08,Aurora Alberca,Annoying,it keep asking for everything,,
FBReader: Calibre connection,Google Play,org.geometerplus.fbreader.plugin.local_opds_scanner,Z3A6QU9xcFRPRkkxa1piaktGS1Z6T3diandkZVdBbnJMR2JNa25WMVQxeDdEbXlEZlF0aFUyNXhkSTQ2WkpCaTY0X0lvUmJTcnhDQmR3S2R4a284RTJQRHc,English,,3,2015-10-17,Ash Hughes,"Nice app, small problem",connects to and copy book across fine,,
FBReader: Calibre connection,Google Play,org.geometerplus.fbreader.plugin.local_opds_scanner,Z3A6QU9xcFRPRkkxa1piaktGS1Z6T3diandkZVdBbnJMR2JNa25WMVQxeDdEbXlEZlF0aFUyNXhkSTQ2WkpCaTY0X0lvUmJTcnhDQmR3S2R4a284RTJQRHc,English,,3,2015-10-17,Ash Hughes,"Nice app, small problem",seems to be lost title etc are all gone,,
FBReader: Calibre connection,Google Play,org.geometerplus.fbreader.plugin.local_opds_scanner,Z3A6QU9xcFRPRkkxa1piaktGS1Z6T3diandkZVdBbnJMR2JNa25WMVQxeDdEbXlEZlF0aFUyNXhkSTQ2WkpCaTY0X0lvUmJTcnhDQmR3S2R4a284RTJQRHc,English,,3,2015-10-17,Ash Hughes,"Nice app, small problem",is this a bug or some extra setup step i need to do which could be made clearer,,
FBReader: Calibre connection,Google Play,org.geometerplus.fbreader.plugin.local_opds_scanner,Z3A6QU9xcFRPSG4yMGRvS1lDdmZSYjJONE5GdFg4X3o2VWtHZFJUdnNwaEhCT19kZEk1RWh4T0lEUDRjRnY2RmlaQTNTckRqNEJZZXpJZG4tOEV0Q3dUcUE,English,,3,2015-09-21,Laura Conrad,,i have a nit,,
FBReader: Calibre connection,Google Play,org.geometerplus.fbreader.plugin.local_opds_scanner,Z3A6QU9xcFRPSG4yMGRvS1lDdmZSYjJONE5GdFg4X3o2VWtHZFJUdnNwaEhCT19kZEk1RWh4T0lEUDRjRnY2RmlaQTNTckRqNEJZZXpJZG4tOEV0Q3dUcUE,English,,3,2015-09-21,Laura Conrad,,it doe seamlessly connect with the server on my local network,,
FBReader: Calibre connection,Google Play,org.geometerplus.fbreader.plugin.local_opds_scanner,Z3A6QU9xcFRPSG4yMGRvS1lDdmZSYjJONE5GdFg4X3o2VWtHZFJUdnNwaEhCT19kZEk1RWh4T0lEUDRjRnY2RmlaQTNTckRqNEJZZXpJZG4tOEV0Q3dUcUE,English,,3,2015-09-21,Laura Conrad,,in other typing in the wa a major partly because it is not documented that the is different for a browser,,
FBReader: Calibre connection,Google Play,org.geometerplus.fbreader.plugin.local_opds_scanner,Z3A6QU9xcFRPSG4yMGRvS1lDdmZSYjJONE5GdFg4X3o2VWtHZFJUdnNwaEhCT19kZEk1RWh4T0lEUDRjRnY2RmlaQTNTckRqNEJZZXpJZG4tOEV0Q3dUcUE,English,,3,2015-09-21,Laura Conrad,,typing the for a nonlocal network is still a major possible at and this or some other part of the infrastructure is making me do it again twice,,
FBReader: Calibre connection,Google Play,org.geometerplus.fbreader.plugin.local_opds_scanner,Z3A6QU9xcFRPRjAxUzltOFFjYmhwNnkxLXdFZi1yOHJBTUFOaTVSbE51RUxudDNlSkdnWFNCUm1MZGxzRWVSdUt3N3NKZk44U2ROUFEwdEJPUTJJTExXT2c,English,,4,2015-09-10,John Smith,Haven't tried so only 4,i have no type book have never seen any,,
FBReader: Calibre connection,Google Play,org.geometerplus.fbreader.plugin.local_opds_scanner,Z3A6QU9xcFRPRjAxUzltOFFjYmhwNnkxLXdFZi1yOHJBTUFOaTVSbE51RUxudDNlSkdnWFNCUm1MZGxzRWVSdUt3N3NKZk44U2ROUFEwdEJPUTJJTExXT2c,English,,4,2015-09-10,John Smith,Haven't tried so only 4,everything is great,,
FBReader: Calibre connection,Google Play,org.geometerplus.fbreader.plugin.local_opds_scanner,Z3A6QU9xcFRPRjAxUzltOFFjYmhwNnkxLXdFZi1yOHJBTUFOaTVSbE51RUxudDNlSkdnWFNCUm1MZGxzRWVSdUt3N3NKZk44U2ROUFEwdEJPUTJJTExXT2c,English,,4,2015-09-10,John Smith,Haven't tried so only 4,i got the paid version wonder like other is now built in,,
FBReader: Calibre connection,Google Play,org.geometerplus.fbreader.plugin.local_opds_scanner,Z3A6QU9xcFRPRXI3aThvY0J1NUFkQndWMDBsUWNYOWtnRXBqM3lTZGhrVThRRnVQT1E5NFJIMGEwQ25GVmxBeVljV04wMXRTOE1hNXFRZDhrNHRHUkF1THc,English,,5,2015-09-09,Armando Recorriendo el Mundo,Bes reader at all,after year of use my device a is the first application i install i upgrade my device cell phone or tablet,,
FBReader: Calibre connection,Google Play,org.geometerplus.fbreader.plugin.local_opds_scanner,Z3A6QU9xcFRPRXI3aThvY0J1NUFkQndWMDBsUWNYOWtnRXBqM3lTZGhrVThRRnVQT1E5NFJIMGEwQ25GVmxBeVljV04wMXRTOE1hNXFRZDhrNHRHUkF1THc,English,,5,2015-09-09,Armando Recorriendo el Mundo,Bes reader at all,this is the best reader i tried,,
FBReader: Calibre connection,Google Play,org.geometerplus.fbreader.plugin.local_opds_scanner,Z3A6QU9xcFRPSF9FRkNPZ2xFdjQ0RUFXVDFNZGJYeTd4QUp6V0w1NkxrbXF5VEtPa0J5cUFPMjNxLW1aTVhreks2cnRrS2lwWC1TN2VBSE16T0hkTGJWdXc,English,,2,2015-07-08,Luke Price,Confused,i love it ha done everything required,,
FBReader: Calibre connection,Google Play,org.geometerplus.fbreader.plugin.local_opds_scanner,Z3A6QU9xcFRPSF9FRkNPZ2xFdjQ0RUFXVDFNZGJYeTd4QUp6V0w1NkxrbXF5VEtPa0J5cUFPMjNxLW1aTVhreks2cnRrS2lwWC1TN2VBSE16T0hkTGJWdXc,English,,2,2015-07-08,Luke Price,Confused,i just want to read book with no preferably,,
FBReader: Calibre connection,Google Play,org.geometerplus.fbreader.plugin.local_opds_scanner,Z3A6QU9xcFRPSF9FRkNPZ2xFdjQ0RUFXVDFNZGJYeTd4QUp6V0w1NkxrbXF5VEtPa0J5cUFPMjNxLW1aTVhreks2cnRrS2lwWC1TN2VBSE16T0hkTGJWdXc,English,,2,2015-07-08,Luke Price,Confused,i could do better with free,,
FBReader: Calibre connection,Google Play,org.geometerplus.fbreader.plugin.local_opds_scanner,Z3A6QU9xcFRPSF9FRkNPZ2xFdjQ0RUFXVDFNZGJYeTd4QUp6V0w1NkxrbXF5VEtPa0J5cUFPMjNxLW1aTVhreks2cnRrS2lwWC1TN2VBSE16T0hkTGJWdXc,English,,2,2015-07-08,Luke Price,Confused,still love the main though,,
FBReader: Calibre connection,Google Play,org.geometerplus.fbreader.plugin.local_opds_scanner,Z3A6QU9xcFRPRjVZZExfZTdtMWtyNGZjcmczSE5GYXV1SnBsMDBhWGUxZTNlRjRFOWh4UXVwN0c3VFpOeWtFQVFvRFdoRlF6RXlicTZCa2FxZF9acXdhbUE,English,,5,2015-05-13,Kalebe Alves,Love this plugin.,make everything easier,,
