Topic,Words
0,0.035*supported,0.030*to,0.025*like,0.023*list,0.021*a,0.021*adding,0.020*too,0.020*addition,0.020*5,0.018*in
1,0.035*why,0.034*going,0.028*from,0.024*great,0.024*after,0.020*debug,0.020*no,0.020*my,0.019*usually,0.019*everything
2,0.030*from,0.025*down,0.024*feel,0.023*greater,0.023*with,0.022*so,0.022*me,0.021*sorting,0.020*ability,0.019*kind
3,0.049*already,0.038*incredibly,0.029*searching,0.028*feel,0.028*star,0.027*agree,0.027*random,0.023*to,0.023*play,0.022*this
4,0.036*comment,0.031*when,0.029*media,0.028*searching,0.025*albums,0.021*functionality,0.021*do,0.020*me,0.020*usually,0.020*but
5,0.048*it,0.033*page,0.031*work,0.028*use,0.026*no,0.026*constantly,0.023*this,0.023*seems,0.020*job,0.020*already
6,0.056*album,0.040*down,0.040*ideal,0.035*whole,0.034*this,0.031*why,0.021*it's,0.021*be,0.020*best,0.019*anything
7,0.046*appreciated,0.041*it's,0.033*if,0.029*by,0.025*find,0.023*my,0.023*was,0.021*hands,0.018*updating,0.018*so
8,0.029*me,0.028*so,0.026*because,0.025*appreciated,0.024*do,0.024*part,0.023*after,0.022*symphony,0.021*kind,0.020*this
9,0.034*for,0.031*fails,0.028*follows,0.028*comment,0.027*so,0.026*searching,0.025*asking,0.025*when,0.023*greater,0.022*playing
10,0.035*me,0.034*constantly,0.033*subsonic,0.029*use,0.028*greater,0.028*1,0.027*have,0.025*are,0.023*symphony,0.023*do
11,0.035*mess,0.032*addition,0.031*want,0.031*even,0.030*well,0.024*but,0.023*genre,0.023*and,0.022*have,0.022*it's
12,0.034*that,0.031*media,0.030*work,0.028*everything,0.028*of,0.027*list,0.026*instead,0.024*prefixed,0.024*may,0.024*debug
13,0.039*it's,0.028*album,0.028*playing,0.028*too,0.027*page,0.027*thanks,0.025*getting,0.024*files,0.021*why,0.021*may
14,0.056*random,0.047*best,0.039*an,0.025*like,0.025*part,0.023*have,0.022*1,0.022*page,0.021*constantly,0.021*5
15,0.050*genre,0.032*feel,0.029*search,0.028*star,0.027*my,0.026*or,0.024*sorting,0.023*asking,0.022*fails,0.022*encoding
16,0.038*on,0.030*of,0.028*kind,0.028*hands,0.028*already,0.025*was,0.025*random,0.024*usually,0.021*can,0.020*because
17,0.052*adding,0.044*delighted,0.027*my,0.027*you,0.026*for,0.026*do,0.020*subsonic,0.020*star,0.020*have,0.019*shows
18,0.045*usually,0.041*you,0.036*why,0.032*search,0.023*videos,0.023*ability,0.022*that,0.021*incredibly,0.021*subsonic,0.020*free
19,0.051*help,0.037*an,0.032*streaming,0.032*can't,0.028*files,0.026*in,0.024*or,0.023*would,0.023*so,0.023*no
