Topic,Words
0,0.060*never,0.048*star,0.035*out,0.035*phone,0.028*would,0.024*while,0.024*the,0.023*love,0.022*most,0.022*great
1,0.057*thanks,0.034*select,0.033*in,0.028*permanently,0.023*go,0.023*down,0.023*be,0.023*phone,0.023*official,0.022*star
2,0.028*has,0.027*quite,0.027*way,0.024*pin,0.022*it,0.022*let,0.022*the,0.022*music,0.019*play,0.019*list
3,0.032*suggestion,0.032*and,0.029*them,0.023*client,0.022*add,0.021*of,0.021*down,0.019*consistent,0.019*rolling,0.018*the
4,0.048*enough,0.042*out,0.038*really,0.031*used,0.029*new,0.024*great,0.023*do,0.023*play,0.021*back,0.020*song
5,0.041*do,0.034*thanks,0.034*feature,0.033*made,0.032*used,0.026*developer,0.026*have,0.025*great,0.023*stand,0.021*when
6,0.040*would,0.038*love,0.036*impressed,0.029*seriously,0.029*this,0.028*could,0.027*stand,0.024*live,0.023*and,0.021*the
7,0.048*play,0.046*way,0.042*glad,0.030*search,0.028*new,0.025*only,0.023*terrible,0.022*out,0.021*features,0.020*list
8,0.042*would,0.040*tried,0.031*song,0.030*been,0.029*developer,0.027*when,0.025*excellent,0.024*format,0.021*improvements,0.021*extremely
9,0.054*it,0.037*go,0.037*enough,0.029*of,0.028*are,0.026*list,0.026*the,0.025*still,0.025*made,0.022*without
10,0.045*the,0.038*impressed,0.031*used,0.027*still,0.026*terrible,0.023*and,0.022*my,0.020*best,0.019*from,0.019*any
11,0.045*never,0.044*use,0.039*features,0.031*drag,0.029*song,0.024*which,0.023*am,0.022*hands,0.022*best,0.021*of
12,0.050*from,0.042*with,0.040*theme,0.038*really,0.036*it,0.030*there,0.029*music,0.029*if,0.028*new,0.024*updates
13,0.028*best,0.027*seriously,0.025*improves,0.024*it,0.022*icon,0.021*used,0.021*feature,0.021*updates,0.020*permanently,0.020*improvements
14,0.030*subsonic,0.028*quite,0.026*it,0.025*not,0.023*extremely,0.021*love,0.021*out,0.020*finger,0.020*could,0.019*me
15,0.050*mainly,0.044*and,0.041*all,0.032*live,0.032*drag,0.029*there,0.029*any,0.028*poor,0.026*tried,0.025*them
16,0.042*removed,0.033*best,0.027*unreliable,0.026*with,0.026*your,0.023*feature,0.023*there,0.022*continuously,0.022*of,0.021*impressed
17,0.048*music,0.032*has,0.031*out,0.030*with,0.029*your,0.028*abilities,0.025*could,0.025*permanently,0.025*best,0.025*hands
18,0.055*updates,0.040*all,0.028*back,0.024*permanently,0.023*on,0.023*and,0.022*go,0.022*song,0.022*good,0.021*from
19,0.049*i,0.031*this,0.030*on,0.029*is,0.024*full,0.024*poor,0.023*rolling,0.021*search,0.021*finger,0.020*now
