Topic,Words
0,0.048*well,0.043*as,0.032*for,0.031*media,0.031*frequent,0.027*this,0.026*bother,0.025*can,0.025*better,0.024*official
1,0.072*though,0.060*actually,0.055*support,0.049*other,0.039*responsive,0.038*will,0.038*and,0.038*official,0.035*than,0.035*development
2,0.058*this,0.037*media,0.032*pretty,0.031*just,0.031*development,0.031*work,0.028*subsonic,0.028*support,0.027*some,0.027*players
3,0.059*volume,0.058*user,0.055*with,0.033*reduce,0.032*everything,0.032*cheers,0.031*for,0.031*more,0.030*why,0.027*official
4,0.080*responsive,0.062*pretty,0.055*of,0.047*players,0.045*don't,0.044*perfect,0.037*everything,0.033*so,0.031*media,0.028*i
5,0.064*under,0.053*has,0.043*others,0.040*fixed,0.039*this,0.038*base,0.036*support,0.034*receives,0.031*of,0.029*cheers
6,0.073*subsonic,0.054*actually,0.045*he's,0.038*official,0.037*in,0.037*will,0.032*well,0.029*don't,0.029*has,0.029*does
7,0.085*great,0.051*actually,0.048*very,0.048*reduce,0.047*fully,0.045*so,0.043*to,0.023*will,0.022*costs,0.022*well
8,0.064*for,0.063*pretty,0.061*much,0.060*under,0.034*fully,0.033*even,0.032*directions,0.031*of,0.027*others,0.026*active
9,0.056*work,0.040*better,0.038*conjunction,0.035*frequent,0.034*with,0.033*support,0.032*rocks,0.030*costs,0.030*in,0.029*music
10,0.044*it,0.042*kudos,0.042*and,0.041*your,0.041*fully,0.036*well,0.033*more,0.031*work,0.031*great,0.030*bother
11,0.065*car,0.057*cheers,0.051*for,0.049*as,0.047*costs,0.043*others,0.040*rocks,0.038*well,0.034*perfect,0.031*other
12,0.054*under,0.052*just,0.040*others,0.037*so,0.035*for,0.031*can,0.031*to,0.029*frequent,0.028*better,0.028*of
13,0.113*i,0.064*music,0.044*proved,0.041*responsive,0.033*can,0.031*cheers,0.031*will,0.029*feedback,0.029*does,0.029*perfect
14,0.053*and,0.046*active,0.041*fixed,0.040*everything,0.039*other,0.029*bother,0.029*well,0.028*don't,0.028*though,0.028*costs
15,0.051*official,0.051*so,0.046*perfect,0.045*conjunction,0.044*responsive,0.042*as,0.037*better,0.037*your,0.035*even,0.032*frequent
16,0.051*for,0.045*active,0.041*will,0.040*can,0.037*conjunction,0.036*rocks,0.032*under,0.031*development,0.027*frequent,0.026*very
17,0.045*support,0.037*some,0.035*under,0.031*media,0.031*frequent,0.029*for,0.029*volume,0.027*has,0.027*more,0.025*actually
18,0.054*awesome,0.047*will,0.047*more,0.047*user,0.042*bother,0.040*under,0.036*does,0.033*proved,0.029*some,0.028*very
19,0.063*feedback,0.040*work,0.037*much,0.036*costs,0.032*to,0.031*will,0.028*great,0.027*other,0.027*has,0.026*others
