Topic Index 1,Topic Index 2,Topic Similarity
8,9,3.0
19,16,3.0
0,0,2.0
1,18,2.0
3,5,2.0
6,10,2.0
12,3,2.0
2,2,1.0
5,4,1.0
9,6,1.0
10,7,1.0
13,12,1.0
14,14,1.0
17,1,1.0
4,8,0.0
7,11,0.0
11,13,0.0
15,15,0.0
16,17,0.0
18,19,0.0
