Topic Index 1,Topic Index 2,Topic Similarity
10,14,3.0
14,9,2.0
15,5,2.0
16,2,2.0
0,4,1.0
1,1,1.0
2,3,1.0
3,10,1.0
4,7,1.0
5,8,1.0
6,0,1.0
7,19,1.0
9,11,1.0
11,12,1.0
13,13,1.0
18,15,1.0
19,6,1.0
8,16,0.0
12,17,0.0
17,18,0.0
