generalized fix 169 by applying the on magnet link for any client type,b,2014/11/17,,
affect 175,b,2014/11/17,,
offer supported feature in the interface,o,2014/11/17,,
fix 180,b,2014/11/17,,
also fix 183 by maintaining the torrent id lost viewed,b,2014/11/17,,
logging to not rely on static access and a global context,b,2014/11/17,,
fixed some small potential crash,b,2014/10/30,,
catch any uncaught exception and log them,b,2014/10/29,,
clean up lint warning we make beta release,f,2014/10/28,,
improved handling enabling and supporting verification,b,2014/10/28,,
certificate are not matched write the correct server hash to use to the log,b,2014/10/28,,
enabled true certificate checking for the supported,o,2014/10/28,,
fixed 127 and fix 171,b,2014/10/28,,
corrected parser package declaration and updated import statement accordingly,f,2014/10/27,,
removed unnecessary extra helper class,o,2014/10/27,,
translation,o,2014/10/27,,
many to the translator,o,2014/10/27,,
added disabling of new item checker,f,2014/10/27,,
fix 136,b,2014/10/27,,
fix speed parsing unit are unrecognized,b,2014/10/27,,
fixed crash on logging and correct search history provider authority to fix search suggestion,b,2014/10/27,,
do not show the menu option for a torrent no torrent is selected,f,2014/10/27,,
fixed changing between label and server,b,2014/10/27,,
fix 143,b,2014/10/27,,
updated with new build instruction,f,2014/10/24,,
upgraded to build system with full and lite,b,2014/10/24,,
lib is now integrated directly,b,2014/10/24,,
close 148,b,2014/10/24,,
fix bug in server checker background service would incorrectly stop all checking if one wa not available,b,2014/10/16,,
fix 166,b,2014/10/16,,
reversed the text in main screen,b,2014/10/16,,
fix 158,b,2014/10/16,,
added support for via it,b,2014/10/16,,
fix 164,b,2014/10/16,,
allow for sorting based on torrent size,f,2014/10/07,,
allow for sorting based on downloaded percent,f,2014/9/26,,
updated copyright info to include 2014,b,2014/9/11,,
fix the populating of the default server list in setting with the actual number of,b,2014/9/11,,
fix 129,b,2014/9/11,,
added copy to clipboard option for file name and item,f,2014/9/11,,
fix 145 and fix 126,b,2014/9/11,,
added default server feature with option to always ask adding a torrent,f,2014/9/11,,
default to last used server,b,2014/9/11,,
fixed duplicate view id used that caused a crash resuming,b,2014/9/11,,
fix 154,b,2014/9/11,,
