recent update have connection issue with,b,2016-01-17,Matt C,3
take a to bring up torrent list,f,2016-01-17,Matt C,3
then a torrent is remove it a bunch of connection error until it is closed and reopened,b,2016-01-17,Matt C,3
edit work fine now on but timeouts and error still happen on 121 pro tablet,b,2016-01-17,Matt C,3
can never read the torrent file wa working fine i upgraded from android 50 to 60,o,2016-01-16,bryan jowett,2
work but you remove one server setting it get permanently broken,b,2016-01-15,,3
i did this it cannot even open again just white screen and terminated message,b,2016-01-15,,3
i have 3 other market with the same setting this one will not connect,b,2016-01-13,Mike G,2
i open the detail of one torrent to change it folder or and then i go back to the main the crash out of 100,b,2016-01-06,Dániel Csaba Mészáros,4
and it could use some talking about the and functionality,f,2016-01-06,Dániel Csaba Mészáros,4
but it is still one of the most useful for using it with deluge thanks for developing it,o,2016-01-06,Dániel Csaba Mészáros,4
keep it up guy,o,2016-01-06,Dániel Csaba Mészáros,4
any chance of adding a notification of what is currently downloading,b,2015-12-31,Luis Damazo,4
use this with transmission headless at home,o,2015-12-28,Drew Kerlee,5
work perfect for managing and torrent,o,2015-12-28,Drew Kerlee,5
best free torrent manager for android,o,2015-12-26,Jeffrey Clark,4
doe almost everything i want,o,2015-12-18,Josh Chaplin,4
only strange issue is i go to add a all file are out,f,2015-12-18,Josh Chaplin,4
have to them into transmission using sync,b,2015-12-18,Josh Chaplin,4
other that it run great,b,2015-12-18,Josh Chaplin,4
beautiful no just amazing,o,2015-12-16,Michael Johnston,5
thanks for developing this,o,2015-12-16,Michael Johnston,5
work flawlessly,b,2015-12-15,Jeremy Lether,5
work my suggestion would be to add a compact interface a single torrent take up way too much space on the overview,f,2015-12-14,Tamás Faragó,4
dame for the file list there should be an option to set it to compact not everyone is using a big tablet,f,2015-12-14,Tamás Faragó,4
also easier selection of group would be nice like on transmission web,o,2015-12-14,Tamás Faragó,4
i have 10 file under a folder i want to be able to operate on all of them by just changing the not by having to change each entry one by one,b,2015-12-14,Tamás Faragó,4
good work though,o,2015-12-14,Tamás Faragó,4
nice tested with transmission,o,2015-12-13,Dmitri Kolobov,4
difficult to but not the it is very versatile and come at a price of full ease of use,b,2015-12-06,Tom U,5
very happy with this,o,2015-12-06,Tom U,5
fantastic,o,2015-11-24,matteo c,5
work great thanks,o,2015-11-23,Cody Diehl,5
i like the setting restore,o,2015-11-23,Boris Pocatko,5
better grouping of file into folder in torrent downloads would be great,o,2015-11-23,Boris Pocatko,5
