# deletions,date,commit message
20,2016/4/04,improved compatibility
44,2016/4/04,improved share media
67,2016/4/04,fixed media sharing on some crappy apps
4,2016/4/04,added incompatible message for shitty devices
23,2016/4/04,moved classes
35,2016/4/04,fixed activity item added load default api configs from github repo
2,2016/4/03,updated version
113,2016/4/03,updated translation
2,2016/4/03,updated version
38,2016/4/03,improved activity gap
8,2016/4/03,improved status refresh
8,2016/4/03,improved quote/retweet dialog
17,2016/4/03,improved retweet/fav count update
15,2016/4/03,improved retweet/fav count update
63,2016/4/03,improved retweet/fav count update
2,2016/4/03,fixing BadParcelableException
3,2016/4/03,fixed npe added instance sign in for gnusocial.de
2,2016/4/02,updated version
11,2016/4/02,fixed #387
46,2016/4/02,improved link handler fixed extenal site quote
2,2016/4/02,improved link handler
70,2016/4/02,improved link handler
5,2016/4/02,reversed quick return when 'read from bottom' is on
1,2016/4/02,fixed user link NFC sharing
9,2016/4/02,fixed open in browser
564,2016/4/02,improved media viewer
2,2016/4/02,fixed activity item when clicking
3,2016/4/02,updated library version
71,2016/4/02,fixed settings wizard
526,2016/4/01,fixed fallback intent
290,2016/3/31,added some default api configs bug fixes
66,2016/3/31,fixed status link filter
48,2016/3/31,fixed user id crashes
71,2016/3/30,improved trends location dialog
176,2016/3/30,supports remove from user list
58,2016/3/30,fixed status action item click
60,2016/3/30,fixed user timeline
1,2016/3/30,fixed crashes
37,2016/3/30,fixed action mode color improved theme color
2,2016/3/30,updated version
47,2016/3/30,window background bug fixes added alt_text for media
251,2016/3/29,user id fixes
4,2016/3/29,improved follow/unfollow
2,2016/3/29,updated library version
117,2016/3/29,fixed #490
122,2016/3/29,removed unused sources
14,2016/3/29,fixed relationship
118,2016/3/29,fixed gif sharing improved gnu social user improved fanfou hashtag
