# deletions,date,commit message
84,2016/5/15,refactoring
6,2016/5/15,fixed #544
33,2016/5/15,fixed home refresh preferences
99,2016/5/14,fixed activity object
15,2016/5/14,updated patches
36,2016/5/14,added confirmation for quoting protected status
526,2016/5/13,refactoring
4,2016/5/13,refactoring
2,2016/5/13,refactoring
1387,2016/5/13,refactoring
403,2016/5/13,refactoring
0,2016/5/12,updated private config
61,2016/5/12,bug fixes
31,2016/5/02,fixed fanfou dm
1,2016/5/02,updated lib version
567,2016/4/30,make media decoding faster
1,2016/4/28,removed prerelease tag
49,2016/4/28,improved media timeline load more
19,2016/4/28,this version is for extensions
2,2016/4/27,this version is for extensions
82,2016/4/27,make some models serializable
19,2016/4/27,improved dm context menu
1,2016/4/27,fixed #540
10,2016/4/27,fixed #536
13,2016/4/27,fixed #537
3,2016/4/27,updated version
4,2016/4/24,updated versions
4,2016/4/21,fixed status color
1,2016/4/21,fixed provider name
1,2016/4/20,supports joined_twitter action (?)
2,2016/4/20,updated version
19,2016/4/20,fixed database trimming
1,2016/4/20,fixed #531
2,2016/4/20,updated version
31,2016/4/20,bug fixes
