Topic,Words
0,0.019*it's,0.018*please,0.017*and,0.016*multiple,0.016*community,0.016*way,0.015*betterment,0.015*click,0.015*on,0.014*will
1,0.037*time,0.029*was,0.023*added,0.022*show,0.019*working,0.019*6,0.019*work,0.018*so,0.018*it,0.017*society
2,0.022*you,0.020*community,0.020*list,0.019*and,0.018*one,0.018*mark,0.016*able,0.015*include,0.015*working,0.014*thank
3,0.024*add,0.023*cool,0.022*added,0.022*mark,0.020*young,0.020*resending,0.019*receiving,0.018*it,0.018*have,0.018*design
4,0.030*the,0.025*while,0.025*one,0.025*refresh,0.021*someone,0.021*or,0.018*click,0.018*team,0.018*1000,0.018*fine
5,0.030*excellence,0.025*sync,0.025*does,0.023*any,0.022*delete,0.021*up,0.020*added,0.020*same,0.019*all,0.017*without
6,0.031*web,0.030*on,0.030*when,0.023*as,0.020*than,0.019*keeps,0.018*any,0.017*what,0.017*regular,0.016*until
7,0.032*show,0.031*way,0.030*regular,0.026*add,0.023*already,0.023*starting,0.021*refresh,0.021*make,0.020*2,0.020*trying
8,0.036*many,0.034*team,0.025*from,0.024*regular,0.023*trying,0.020*issues,0.019*older,0.018*set,0.018*please,0.016*just
9,0.031*continue,0.031*reload,0.024*where,0.022*research,0.022*excellence,0.022*resending,0.020*have,0.020*advice,0.018*receiving,0.017*add
10,0.029*help,0.027*society,0.026*sends,0.026*thanks,0.025*as,0.024*fine,0.020*with,0.019*us,0.019*issues,0.018*bad
11,0.036*us,0.029*thanks,0.029*delete,0.022*of,0.020*as,0.018*include,0.017*without,0.017*remove,0.016*in,0.016*it's
12,0.044*just,0.030*up,0.029*crazy,0.028*service,0.024*upload,0.023*paid,0.021*please,0.020*being,0.020*developers,0.019*though
13,0.044*keeps,0.031*more,0.030*show,0.029*published,0.025*but,0.022*disappointing,0.021*fantastic,0.020*select,0.019*default,0.018*reason
14,0.033*include,0.032*insists,0.031*in,0.029*reload,0.021*set,0.021*repeating,0.018*and,0.018*is,0.016*bugs,0.016*tools
15,0.030*i,0.029*refuses,0.028*notifications,0.025*crashes,0.022*not,0.022*any,0.020*advice,0.019*cool,0.019*make,0.017*insists
16,0.032*4,0.024*crazy,0.021*multi,0.021*help,0.021*rather,0.020*have,0.019*much,0.018*application,0.018*this,0.018*can
17,0.030*refresh,0.026*requests,0.022*serious,0.021*is,0.020*multi,0.020*us,0.019*will,0.019*already,0.019*it,0.018*again
18,0.026*working,0.025*upload,0.020*service,0.020*poor,0.018*you,0.018*offering,0.018*while,0.018*excellence,0.018*multiple,0.017*resulting
19,0.032*bad,0.025*thank,0.023*love,0.021*try,0.021*crashes,0.019*upload,0.018*the,0.018*starting,0.016*regular,0.016*than
