Topic,Words
0,0.161*it,0.130*for,0.118*your,0.086*application,0.071*there's,0.067*to,0.061*what,0.053*does,0.051*say,0.049*great
1,0.112*it,0.093*on,0.087*say,0.070*work,0.066*not,0.066*enter,0.063*for,0.062*well,0.061*your,0.059*there's
2,0.148*the,0.131*not,0.115*there's,0.084*your,0.076*field,0.070*and,0.059*to,0.052*does,0.048*what,0.046*it
3,0.178*not,0.118*there's,0.097*what,0.096*and,0.072*your,0.058*to,0.043*no,0.043*field,0.041*say,0.039*does
4,0.214*field,0.210*your,0.110*great,0.085*well,0.072*and,0.063*not,0.058*there's,0.038*say,0.033*to,0.027*application
5,0.324*the,0.108*there's,0.089*it,0.062*to,0.062*not,0.059*well,0.053*what,0.052*application,0.047*on,0.039*enter
6,0.290*to,0.159*your,0.093*no,0.084*on,0.083*for,0.071*application,0.067*say,0.049*enter,0.018*the,0.017*there's
7,0.204*on,0.170*great,0.093*work,0.091*no,0.082*say,0.063*it,0.050*enter,0.045*application,0.038*and,0.030*the
8,0.191*well,0.165*does,0.140*on,0.076*field,0.060*enter,0.054*the,0.051*and,0.041*for,0.039*it,0.039*to
9,0.222*the,0.101*well,0.075*no,0.071*not,0.068*does,0.066*on,0.058*enter,0.058*field,0.052*your,0.051*application
10,0.219*it,0.171*not,0.098*what,0.077*for,0.067*enter,0.061*say,0.060*does,0.044*no,0.040*the,0.035*application
11,0.152*does,0.136*what,0.090*to,0.089*there's,0.078*your,0.076*not,0.075*great,0.066*no,0.062*well,0.038*the
12,0.181*enter,0.178*on,0.164*for,0.078*and,0.059*the,0.056*not,0.047*what,0.040*great,0.037*to,0.036*well
13,0.298*it,0.116*enter,0.102*not,0.081*work,0.060*well,0.059*there's,0.048*for,0.044*great,0.042*your,0.032*no
14,0.147*it,0.146*there's,0.129*no,0.105*not,0.075*for,0.073*application,0.070*work,0.054*and,0.042*does,0.029*well
15,0.207*on,0.110*there's,0.094*field,0.084*for,0.082*application,0.081*not,0.067*your,0.054*it,0.051*say,0.038*great
16,0.213*not,0.177*say,0.130*what,0.064*on,0.057*field,0.049*work,0.046*the,0.044*does,0.039*well,0.038*it
17,0.162*to,0.136*application,0.125*say,0.108*on,0.081*work,0.071*no,0.065*enter,0.064*well,0.055*for,0.054*not
18,0.139*field,0.089*on,0.088*not,0.081*to,0.078*no,0.076*enter,0.064*for,0.050*application,0.045*well,0.044*it
19,0.153*does,0.152*work,0.120*well,0.078*what,0.066*for,0.066*application,0.052*your,0.050*enter,0.046*to,0.034*no
