App,Store,App ID,Review ID,Country,Version,Rating,Date,Author,Subject,Body,Translated Subject,Translated Body
AnkiDroid Flashcards,Google Play,com.ichi2.anki,Z3A6QU9xcFRPRTZmYnJVX2tvdlhjSFI1NFFrTy14aE1KWFVXeWJhMkstNVVlZzRNVXN3U3BSUGo1bEQtY00xMEpyZWM3endReFVjdUpsQTRDUzZoYmN2YU5v,English,,5,2015-03-14,lseforever Forever,Good,it have word,,
AnkiDroid Flashcards,Google Play,com.ichi2.anki,Z3A6QU9xcFRPSHNPRG1BQzJVYW9TQjN1NkxXN3pNVzZnNjZ0dnVhV3p3VEVxb3hueFBEczNtdTh5QmRwdkZka0R6RlEyNGxZN0htMUNOSTMzSXkwY1g4ME84,English,,5,2015-03-13,Matthew Thomas,Can't live without it,i love this,,
AnkiDroid Flashcards,Google Play,com.ichi2.anki,Z3A6QU9xcFRPSHNPRG1BQzJVYW9TQjN1NkxXN3pNVzZnNjZ0dnVhV3p3VEVxb3hueFBEczNtdTh5QmRwdkZka0R6RlEyNGxZN0htMUNOSTMzSXkwY1g4ME84,English,,5,2015-03-13,Matthew Thomas,Can't live without it,it really help with memorization,,
AnkiDroid Flashcards,Google Play,com.ichi2.anki,Z3A6QU9xcFRPRVowRnVZM1hMTVU2dWRldU5ES3RYU0Ryc1JUNjZiVjk2YWp1YXdkcHRaRmctY1FDa1VXVDJESHNjMmVleWc5QnI5X08zd2EtTXhBdFNCdlRN,English,,2,2015-03-12,william hutchinson,What happened?,loved this wa perfect,,
AnkiDroid Flashcards,Google Play,com.ichi2.anki,Z3A6QU9xcFRPRVowRnVZM1hMTVU2dWRldU5ES3RYU0Ryc1JUNjZiVjk2YWp1YXdkcHRaRmctY1FDa1VXVDJESHNjMmVleWc5QnI5X08zd2EtTXhBdFNCdlRN,English,,2,2015-03-12,william hutchinson,What happened?,new update messed it up,,
AnkiDroid Flashcards,Google Play,com.ichi2.anki,Z3A6QU9xcFRPRVowRnVZM1hMTVU2dWRldU5ES3RYU0Ryc1JUNjZiVjk2YWp1YXdkcHRaRmctY1FDa1VXVDJESHNjMmVleWc5QnI5X08zd2EtTXhBdFNCdlRN,English,,2,2015-03-12,william hutchinson,What happened?,spent 20 minute putting card into a deck,,
AnkiDroid Flashcards,Google Play,com.ichi2.anki,Z3A6QU9xcFRPRVowRnVZM1hMTVU2dWRldU5ES3RYU0Ryc1JUNjZiVjk2YWp1YXdkcHRaRmctY1FDa1VXVDJESHNjMmVleWc5QnI5X08zd2EtTXhBdFNCdlRN,English,,2,2015-03-12,william hutchinson,What happened?,they wont show up,,
AnkiDroid Flashcards,Google Play,com.ichi2.anki,Z3A6QU9xcFRPRVowRnVZM1hMTVU2dWRldU5ES3RYU0Ryc1JUNjZiVjk2YWp1YXdkcHRaRmctY1FDa1VXVDJESHNjMmVleWc5QnI5X08zd2EtTXhBdFNCdlRN,English,,2,2015-03-12,william hutchinson,What happened?,found them and added 3 more card,,
AnkiDroid Flashcards,Google Play,com.ichi2.anki,Z3A6QU9xcFRPRVowRnVZM1hMTVU2dWRldU5ES3RYU0Ryc1JUNjZiVjk2YWp1YXdkcHRaRmctY1FDa1VXVDJESHNjMmVleWc5QnI5X08zd2EtTXhBdFNCdlRN,English,,2,2015-03-12,william hutchinson,What happened?,now there are 3 card in my deck,,
AnkiDroid Flashcards,Google Play,com.ichi2.anki,Z3A6QU9xcFRPRVowRnVZM1hMTVU2dWRldU5ES3RYU0Ryc1JUNjZiVjk2YWp1YXdkcHRaRmctY1FDa1VXVDJESHNjMmVleWc5QnI5X08zd2EtTXhBdFNCdlRN,English,,2,2015-03-12,william hutchinson,What happened?,,,
AnkiDroid Flashcards,Google Play,com.ichi2.anki,Z3A6QU9xcFRPRVowRnVZM1hMTVU2dWRldU5ES3RYU0Ryc1JUNjZiVjk2YWp1YXdkcHRaRmctY1FDa1VXVDJESHNjMmVleWc5QnI5X08zd2EtTXhBdFNCdlRN,English,,2,2015-03-12,william hutchinson,What happened?,frustrating,,
AnkiDroid Flashcards,Google Play,com.ichi2.anki,Z3A6QU9xcFRPRVowRnVZM1hMTVU2dWRldU5ES3RYU0Ryc1JUNjZiVjk2YWp1YXdkcHRaRmctY1FDa1VXVDJESHNjMmVleWc5QnI5X08zd2EtTXhBdFNCdlRN,English,,2,2015-03-12,william hutchinson,What happened?,2 star it used to be good,,
AnkiDroid Flashcards,Google Play,com.ichi2.anki,Z3A6QU9xcFRPRWg1c2lpTWJyWElvLTFsdWZXU1NPaUY3aVpNVVozRHRiMmZIdm5DQnNEMmdxMXI3S2hIQ2dsOElYeXdHdWJFZVY0SjZWd2FxcFF3YXlRWlVJ,English,,5,2015-03-10,Amin M,Awesome App,this is the first time in my life which i review for some,,
AnkiDroid Flashcards,Google Play,com.ichi2.anki,Z3A6QU9xcFRPRWg1c2lpTWJyWElvLTFsdWZXU1NPaUY3aVpNVVozRHRiMmZIdm5DQnNEMmdxMXI3S2hIQ2dsOElYeXdHdWJFZVY0SjZWd2FxcFF3YXlRWlVJ,English,,5,2015-03-10,Amin M,Awesome App,i never recommended any other but believe me this is really good,,
AnkiDroid Flashcards,Google Play,com.ichi2.anki,Z3A6QU9xcFRPRWg1c2lpTWJyWElvLTFsdWZXU1NPaUY3aVpNVVozRHRiMmZIdm5DQnNEMmdxMXI3S2hIQ2dsOElYeXdHdWJFZVY0SjZWd2FxcFF3YXlRWlVJ,English,,5,2015-03-10,Amin M,Awesome App,please just keep it this way without ad,,
AnkiDroid Flashcards,Google Play,com.ichi2.anki,Z3A6QU9xcFRPRXZjM21JUXVXa0RMMVBFdHFZX2ZqSzZvcC1QOG1tdWJ3RV9zSk1pdjdNWmM3cGFBM1g5ZkpHUnVqaXBCemthNDJ0QlNpd1pzdzVfNm5LMWFv,English,,5,2015-03-09,Sean Smith,Awesome!,syncing is a pain using card adder on chrome,,
AnkiDroid Flashcards,Google Play,com.ichi2.anki,Z3A6QU9xcFRPRXZjM21JUXVXa0RMMVBFdHFZX2ZqSzZvcC1QOG1tdWJ3RV9zSk1pdjdNWmM3cGFBM1g5ZkpHUnVqaXBCemthNDJ0QlNpd1pzdzVfNm5LMWFv,English,,5,2015-03-09,Sean Smith,Awesome!,wish it all used cloud sync and login instead,,
AnkiDroid Flashcards,Google Play,com.ichi2.anki,Z3A6QU9xcFRPRXZjM21JUXVXa0RMMVBFdHFZX2ZqSzZvcC1QOG1tdWJ3RV9zSk1pdjdNWmM3cGFBM1g5ZkpHUnVqaXBCemthNDJ0QlNpd1pzdzVfNm5LMWFv,English,,5,2015-03-09,Sean Smith,Awesome!,one can dream,,
AnkiDroid Flashcards,Google Play,com.ichi2.anki,Z3A6QU9xcFRPRUJhOFRVaVFlUzJTWUZYckRqMzdRei1LT3hPbk54Y2RsR2NiYzdvcGpiV3NQVG4tcmhDMElFUnpVWGw0dHlRMWMxTmh2WFU2M0VLSFlHbDdV,English,,4,2015-03-09,Good kat,,would give it 5 star there were a simple way to switch the front and back of card for review,,
AnkiDroid Flashcards,Google Play,com.ichi2.anki,Z3A6QU9xcFRPR0diYlFYS3I3Y1JfOWh0bnpTZl91RlNSVUlhaEVrdXpWS0FxalQ5el9lZ1RvQUZva3dza0hDUGMwVXZqeTBfbzE5QjdfaTdKNF9jbk9BandZ,English,,4,2015-03-09,Vladimir T,Stopped working,i agreed to the new term and condition on the on the phone stopped working,,
AnkiDroid Flashcards,Google Play,com.ichi2.anki,Z3A6QU9xcFRPR0diYlFYS3I3Y1JfOWh0bnpTZl91RlNSVUlhaEVrdXpWS0FxalQ5el9lZ1RvQUZva3dza0hDUGMwVXZqeTBfbzE5QjdfaTdKNF9jbk9BandZ,English,,4,2015-03-09,Vladimir T,Stopped working,all i get is a loading screen with a message a report is being sent to the developer,,
AnkiDroid Flashcards,Google Play,com.ichi2.anki,Z3A6QU9xcFRPR20tT1p3dTk0X09kNVhTZEhSMlJCbVdSSktUZlZDU2N1YzJRVjhZbG9pbEpQdk1RRDBzWFhBMm9OUERZeFB4RXpMdlotTkpQb2JpeTJ2VUhR,English,,5,2015-03-08,John Jensen,"Great program, now I can take Anki with me.",thanks for making this,,
AnkiDroid Flashcards,Google Play,com.ichi2.anki,Z3A6QU9xcFRPR20tT1p3dTk0X09kNVhTZEhSMlJCbVdSSktUZlZDU2N1YzJRVjhZbG9pbEpQdk1RRDBzWFhBMm9OUERZeFB4RXpMdlotTkpQb2JpeTJ2VUhR,English,,5,2015-03-08,John Jensen,"Great program, now I can take Anki with me.",had a little problem at first,,
AnkiDroid Flashcards,Google Play,com.ichi2.anki,Z3A6QU9xcFRPR20tT1p3dTk0X09kNVhTZEhSMlJCbVdSSktUZlZDU2N1YzJRVjhZbG9pbEpQdk1RRDBzWFhBMm9OUERZeFB4RXpMdlotTkpQb2JpeTJ2VUhR,English,,5,2015-03-08,John Jensen,"Great program, now I can take Anki with me.",i think the syncing is a bit but it would claim to be all synced up but would not match what wa on my computer at home,,
AnkiDroid Flashcards,Google Play,com.ichi2.anki,Z3A6QU9xcFRPR20tT1p3dTk0X09kNVhTZEhSMlJCbVdSSktUZlZDU2N1YzJRVjhZbG9pbEpQdk1RRDBzWFhBMm9OUERZeFB4RXpMdlotTkpQb2JpeTJ2VUhR,English,,5,2015-03-08,John Jensen,"Great program, now I can take Anki with me.",work great now,,
AnkiDroid Flashcards,Google Play,com.ichi2.anki,Z3A6QU9xcFRPR20tT1p3dTk0X09kNVhTZEhSMlJCbVdSSktUZlZDU2N1YzJRVjhZbG9pbEpQdk1RRDBzWFhBMm9OUERZeFB4RXpMdlotTkpQb2JpeTJ2VUhR,English,,5,2015-03-08,John Jensen,"Great program, now I can take Anki with me.",no problem at all,,
AnkiDroid Flashcards,Google Play,com.ichi2.anki,Z3A6QU9xcFRPSENibTgtN1owVENkNXllM3hOTEtUSERQMmI2ZDlwREYtVDdJNklwOWF0VmljREUzRTBqNzk4V0FvNE1sYVQ1YndtUk9yOGV4Z0hyY0tRU2hB,English,,4,2015-03-08,Joey Jojo Jr. Shabadoo,,it work great for but just the other the screen started to flash every time i answer during review,,
AnkiDroid Flashcards,Google Play,com.ichi2.anki,Z3A6QU9xcFRPSENibTgtN1owVENkNXllM3hOTEtUSERQMmI2ZDlwREYtVDdJNklwOWF0VmljREUzRTBqNzk4V0FvNE1sYVQ1YndtUk9yOGV4Z0hyY0tRU2hB,English,,4,2015-03-08,Joey Jojo Jr. Shabadoo,,i have no idea why this is happening,,
AnkiDroid Flashcards,Google Play,com.ichi2.anki,Z3A6QU9xcFRPSHQ4VUpkOE4xeE8wSVRkd08yMzgyMml4aVlNZ0lsbzhoSnROYWpaUVE5ckFoYXVGT2Z2T3d2eXdBYlVMQjlWSlFEVzk4d0wzNnBVX1FCVDhj,English,,5,2015-03-06,Megan Kelley,Best Flashcard App on the market,there is no doubt this is the best flashcard on the market,,
AnkiDroid Flashcards,Google Play,com.ichi2.anki,Z3A6QU9xcFRPSHQ4VUpkOE4xeE8wSVRkd08yMzgyMml4aVlNZ0lsbzhoSnROYWpaUVE5ckFoYXVGT2Z2T3d2eXdBYlVMQjlWSlFEVzk4d0wzNnBVX1FCVDhj,English,,5,2015-03-06,Megan Kelley,Best Flashcard App on the market,it is extremely flexible and offer countless way to customize your deck,,
AnkiDroid Flashcards,Google Play,com.ichi2.anki,Z3A6QU9xcFRPSHQ4VUpkOE4xeE8wSVRkd08yMzgyMml4aVlNZ0lsbzhoSnROYWpaUVE5ckFoYXVGT2Z2T3d2eXdBYlVMQjlWSlFEVzk4d0wzNnBVX1FCVDhj,English,,5,2015-03-06,Megan Kelley,Best Flashcard App on the market,i personally prefer to create the card on my desktop and sync with my portable device,,
AnkiDroid Flashcards,Google Play,com.ichi2.anki,Z3A6QU9xcFRPSHQ4VUpkOE4xeE8wSVRkd08yMzgyMml4aVlNZ0lsbzhoSnROYWpaUVE5ckFoYXVGT2Z2T3d2eXdBYlVMQjlWSlFEVzk4d0wzNnBVX1FCVDhj,English,,5,2015-03-06,Megan Kelley,Best Flashcard App on the market,include picture and sound with your enable the to write your require the answer be typed create card etc,,
AnkiDroid Flashcards,Google Play,com.ichi2.anki,Z3A6QU9xcFRPSHQ4VUpkOE4xeE8wSVRkd08yMzgyMml4aVlNZ0lsbzhoSnROYWpaUVE5ckFoYXVGT2Z2T3d2eXdBYlVMQjlWSlFEVzk4d0wzNnBVX1FCVDhj,English,,5,2015-03-06,Megan Kelley,Best Flashcard App on the market,you can even create multiple card with one click or use it to have one image with several labeled each part with it own card,,
AnkiDroid Flashcards,Google Play,com.ichi2.anki,Z3A6QU9xcFRPSHQ4VUpkOE4xeE8wSVRkd08yMzgyMml4aVlNZ0lsbzhoSnROYWpaUVE5ckFoYXVGT2Z2T3d2eXdBYlVMQjlWSlFEVzk4d0wzNnBVX1FCVDhj,English,,5,2015-03-06,Megan Kelley,Best Flashcard App on the market,i highly recommend watching a tutorial video or reading the manual so you can make the most of this amazing,,
AnkiDroid Flashcards,Google Play,com.ichi2.anki,Z3A6QU9xcFRPRUprNWFhRWN6REg5SFBfbmRqanlRRzFvaHZqNnlDUXIzbzhudlZuZDF0TDNIV3Y1MkpmejNJbFdxeGUxdXVkb0FfSWVvcWhtZEhhSXlhNTNj,English,,5,2015-03-06,Yu Zhang,,i love it,,
AnkiDroid Flashcards,Google Play,com.ichi2.anki,Z3A6QU9xcFRPR2lsM0wtTnY3cUQwTjVEaVVhNzE3MmZPbWRRdG1yTXdQd3FyRTZTVmplT3B6VHhvdENicTlxd2RmU2xELVBTanZxTERhNTVPQTFmTlhiSTNr,English,,5,2015-03-05,Shanen Perumal,Amazing,simple and effective,,
AnkiDroid Flashcards,Google Play,com.ichi2.anki,Z3A6QU9xcFRPR2lsM0wtTnY3cUQwTjVEaVVhNzE3MmZPbWRRdG1yTXdQd3FyRTZTVmplT3B6VHhvdENicTlxd2RmU2xELVBTanZxTERhNTVPQTFmTlhiSTNr,English,,5,2015-03-05,Shanen Perumal,Amazing,great for any subject,,
AnkiDroid Flashcards,Google Play,com.ichi2.anki,Z3A6QU9xcFRPRXg4UkJyUjhiNDFwV1pLMkoxV0lmb2NqR1Fzd0xWY1d2WUkycXFhdnN0TEJHZmhYUDVRajVwallrUnZhX3Z2RjhkV0UwcWgyVkdHdEw2QjhZ,English,,5,2015-03-05,Dre Kin,,great,,
AnkiDroid Flashcards,Google Play,com.ichi2.anki,Z3A6QU9xcFRPR0hURWo1TjFGcEJqVC1KdzlQdF95YzhIV1dpWmRuT2V5cDQ0ZFJMNkxmU1haS29SOTZNaW95Q3lRMDFPazBrZFlyZ2ZiLUJFWUx2RUk2ZFJR,English,,5,2015-03-04,Chris Ang,Still Brilliant,but why move preview from edit note to browser,,
AnkiDroid Flashcards,Google Play,com.ichi2.anki,Z3A6QU9xcFRPR0hURWo1TjFGcEJqVC1KdzlQdF95YzhIV1dpWmRuT2V5cDQ0ZFJMNkxmU1haS29SOTZNaW95Q3lRMDFPazBrZFlyZ2ZiLUJFWUx2RUk2ZFJR,English,,5,2015-03-04,Chris Ang,Still Brilliant,must now hold finger on card menu pop up in order to access preview,,
AnkiDroid Flashcards,Google Play,com.ichi2.anki,Z3A6QU9xcFRPRlhpSEZYVW0wQ1hvemJpNXlSalhOTDNldXVucDZsWjlxSWNheDNYOXBJeFRTc1BVWEVJVXVlcVJvS1BPRzc2RG9tV19zN3R3bG9nU292QVBv,English,,5,2015-03-04,Jonah McIntire,Absolutely the best app,this is the most important in my phone,,
AnkiDroid Flashcards,Google Play,com.ichi2.anki,Z3A6QU9xcFRPRjJ6UTIwRjI3aVhfVXlfMTUyUGtBSUUyYVJETW5JazVITTBXX0JpaFJIMmdKcld5cXlhNlFXZjkwcS1QNVk1dlF3VEZjVlR4dURWeHZKODEw,English,,5,2015-03-03,Adam Kelly,,excellent and flexible flashcard with both customizable and style deck,,
AnkiDroid Flashcards,Google Play,com.ichi2.anki,Z3A6QU9xcFRPRjJ6UTIwRjI3aVhfVXlfMTUyUGtBSUUyYVJETW5JazVITTBXX0JpaFJIMmdKcld5cXlhNlFXZjkwcS1QNVk1dlF3VEZjVlR4dURWeHZKODEw,English,,5,2015-03-03,Adam Kelly,,a for vocabulary learning,,
AnkiDroid Flashcards,Google Play,com.ichi2.anki,Z3A6QU9xcFRPSFg0VTRmZ3pWUTdMZUpEVTN1cWV1cTZZTm9iTWpVWHFnY0VtMXA1a0dzQkFNaWlIZF9EaXJMdjRtNklxaDRmal9ndjdWbWNMRTAtM2djekZ3,English,,1,2015-03-02,Osama a,,cannot login to read term,,
AnkiDroid Flashcards,Google Play,com.ichi2.anki,Z3A6QU9xcFRPSEIyT1ZVV2QxcXBaV1JlT240cWYwdlZpek9VSjJHeFdmMWUzNXdOcW5Gb284VnNsbmRsblZhdjNRdXp4Z2Q4c1EzNHE4bzhsLWI4TllMLTAw,English,,5,2015-03-02,Julian Schmid,Best flashcard system,highly latex compatible sound or image sync with account open,,
AnkiDroid Flashcards,Google Play,com.ichi2.anki,Z3A6QU9xcFRPRlR4dDBuTGVvN1IxSzB1WThzeFBNQ054TE00Q3hfVjRDTk93czg5a2REZmRGbWRSaG5KdEJCY2MyX3Flb2hBMkNTWUxGeTREUnExVXRINGlR,English,,5,2015-03-02,Danny Kommel,,great is everything it need to be,,
AnkiDroid Flashcards,Google Play,com.ichi2.anki,Z3A6QU9xcFRPR1lsZlEwdkFFeXg1YUNXSUJmMG5DM01YNUZhRDNuV3lTMlJ1YXIwM0JOdXdKRjN3dTZ2bEpnVmVFTDMxZHlQTjNWTmp5QzczMHFFY244UFpz,English,,5,2015-03-02,Stephanie Avila,This is great,this can help you with anything it work perfect,,
AnkiDroid Flashcards,Google Play,com.ichi2.anki,Z3A6QU9xcFRPRkRYRlNuUDZlZFJYWkRUSjBjbWQ5M0FoRXNWWVYzdVAxZnN4cUtieEFlY0VpcEtrYVI3aVZjOTBSYXRtZ2FRV3NTNEJRRlN3emQxXzRxMkR3,English,,3,2015-03-01,Ashkan Ranjbar,Average,,,
AnkiDroid Flashcards,Google Play,com.ichi2.anki,Z3A6QU9xcFRPR2EzYkQzMlczNm1Jd3dyZTB4RmtrX0JFZnc3NlZ2ZDdtbi1mU0dFb3dfZUc1VGs0S0VoQ2Z0WWtPb1JrdUlkVFhOOFFsMllIWVU1MVlDcEZj,English,,5,2015-02-28,Joshua Koh,,nifty flashcard enables memorization of info,,
AnkiDroid Flashcards,Google Play,com.ichi2.anki,Z3A6QU9xcFRPR2EzYkQzMlczNm1Jd3dyZTB4RmtrX0JFZnc3NlZ2ZDdtbi1mU0dFb3dfZUc1VGs0S0VoQ2Z0WWtPb1JrdUlkVFhOOFFsMllIWVU1MVlDcEZj,English,,5,2015-02-28,Joshua Koh,,multi device sync window further add on to it usability,,
AnkiDroid Flashcards,Google Play,com.ichi2.anki,Z3A6QU9xcFRPRkgzWVhWQUx3Wkxta2hENDhOYVdVQ0E0dHQwd044REZyNGRfQXlZUE5DcVNGNlkxTUZ5S2lzQWZLa0U5bk1ZTDhaaFNZaF9obDhBRmIxSzF3,English,,5,2015-02-28,Tony Grace,,awesome,,
AnkiDroid Flashcards,Google Play,com.ichi2.anki,Z3A6QU9xcFRPSFF1bFp6by1MejktR29KckRJaDJMdFdaNDFwTnhVbHVFcW1kdm9wYUVHQzlZeUtYWERPY29kZi12Z2ZaYVhST1RCVzUxRWpzLXlkb1VLeGtZ,English,,5,2015-02-27,Rafael A. Couto Cabral,Fabulous once you get your head around it,per this is simply amazing,,
AnkiDroid Flashcards,Google Play,com.ichi2.anki,Z3A6QU9xcFRPSFF1bFp6by1MejktR29KckRJaDJMdFdaNDFwTnhVbHVFcW1kdm9wYUVHQzlZeUtYWERPY29kZi12Z2ZaYVhST1RCVzUxRWpzLXlkb1VLeGtZ,English,,5,2015-02-27,Rafael A. Couto Cabral,Fabulous once you get your head around it,for the it doe look complicated you understand the actual framework,,
AnkiDroid Flashcards,Google Play,com.ichi2.anki,Z3A6QU9xcFRPSFF1bFp6by1MejktR29KckRJaDJMdFdaNDFwTnhVbHVFcW1kdm9wYUVHQzlZeUtYWERPY29kZi12Z2ZaYVhST1RCVzUxRWpzLXlkb1VLeGtZ,English,,5,2015-02-27,Rafael A. Couto Cabral,Fabulous once you get your head around it,how it wa thought to work,,
AnkiDroid Flashcards,Google Play,com.ichi2.anki,Z3A6QU9xcFRPSFF1bFp6by1MejktR29KckRJaDJMdFdaNDFwTnhVbHVFcW1kdm9wYUVHQzlZeUtYWERPY29kZi12Z2ZaYVhST1RCVzUxRWpzLXlkb1VLeGtZ,English,,5,2015-02-27,Rafael A. Couto Cabral,Fabulous once you get your head around it,i got my head around template and different i got myself to design few common type i use most and bang,,
AnkiDroid Flashcards,Google Play,com.ichi2.anki,Z3A6QU9xcFRPSFF1bFp6by1MejktR29KckRJaDJMdFdaNDFwTnhVbHVFcW1kdm9wYUVHQzlZeUtYWERPY29kZi12Z2ZaYVhST1RCVzUxRWpzLXlkb1VLeGtZ,English,,5,2015-02-27,Rafael A. Couto Cabral,Fabulous once you get your head around it,adding actual fl card now using the template is a simple a it can be and i can use etc,,
AnkiDroid Flashcards,Google Play,com.ichi2.anki,Z3A6QU9xcFRPSGU4Rm9WYzhVVDJwaWRNSUxFUER0YkkweThwS0dOX3lyTU1QNjgwc3ZfXzNMU0swT3FJV2ozODJLemM4Mk5Rc0gxNTIzTXN5Z1U0cEdDZ0I0,English,,4,2015-02-24,vishnu nale,Ok,,,
AnkiDroid Flashcards,Google Play,com.ichi2.anki,Z3A6QU9xcFRPR1U0cy1EODI2WXBLd3gwM0VvOU94YThDNXdPMW5qLWJtekxNUzdjSDNpNXNIc0owWTNFbVBJMHBkY3ZLdkFOaTRocE85Y1N5WFpHUVdXa1E4,English,,4,2015-02-24,Mehdi Tamimi,,nice,,
AnkiDroid Flashcards,Google Play,com.ichi2.anki,Z3A6QU9xcFRPRjhrb0FxYmVzdUdpQThDYkwwazJnenVmSVdONnY5UzB4X3RXRVdnbVhNMDJUWXEyYTFYVndNLTBUVmhYUTB0VTZxUXFTaVZTSldfTHdQQThF,English,,5,2015-02-23,harendra Singh,Great app,i use it to learn,,
AnkiDroid Flashcards,Google Play,com.ichi2.anki,Z3A6QU9xcFRPRmt2MXBGbmdYQ043X2tDWXNCejFkYUFJWXVIamtfRk9RZ0haRmNUUjRwUGZaMlVKZ2lQUXU5S3FwNVFLRl9tNkwwdmNlWWJyUktfNV81V1NJ,English,,4,2015-02-21,Chirag Kandiyal,Sync error,another limitation is the inability to add prerecorded audio,,
AnkiDroid Flashcards,Google Play,com.ichi2.anki,Z3A6QU9xcFRPRk9sNFc2STZPdUw2UnFVbk50ZThFR2w0a05BbDhfUXFIenNLaUZsNThBX20wMjFMcDc1azFrWEtveHJCS2tPWGxxN1VELWZhc0hiRG5PaDNr,English,,4,2015-02-20,Guy Lowndes,Great for learning a language,great for learning a write card on the laptop and update my tablet and phone,,
AnkiDroid Flashcards,Google Play,com.ichi2.anki,Z3A6QU9xcFRPRk9sNFc2STZPdUw2UnFVbk50ZThFR2w0a05BbDhfUXFIenNLaUZsNThBX20wMjFMcDc1azFrWEtveHJCS2tPWGxxN1VELWZhc0hiRG5PaDNr,English,,4,2015-02-20,Guy Lowndes,Great for learning a language,the timed viewing is great for in the car if the volume of the recording wa louder,,
AnkiDroid Flashcards,Google Play,com.ichi2.anki,Z3A6QU9xcFRPSEIyWXJ1bWNVRnMydF9sWEZHTXpmQ21GcDQxWUVHaXJ0LUpSOU53N2dmSndBX0xFTGM3VzZfQ19SeWw4bEFJRHdnWG82aFVGbWJTVDRSWFZr,English,,5,2015-02-20,Clemens Borys,Very useful,offer latex implementation for math card,,
AnkiDroid Flashcards,Google Play,com.ichi2.anki,Z3A6QU9xcFRPRTRPNDFIZkJzeVNzdXZaMVN5SmNrUzlCN0ZrNUxwZ0lEUjF5TTVxSWdBWGZLVVNMaHR3YjlIQmxXcUhPMUM1d0d6aGFieUx0YmVBVnJTTlhB,English,,4,2015-02-19,kamran riaz,Amazing,help full in study,,
AnkiDroid Flashcards,Google Play,com.ichi2.anki,Z3A6QU9xcFRPRW8wclhwZm5WSW96UHVIWmM1OWJoaUNja0lKUjNQcWQzR0FDdy1IWFAyMU9qVGo4WGxTS3AxZmdTb1V5QWc3cVRKT0ljRXN0X0pVaGZrM1o0,English,,5,2015-02-18,Levi Erdmann,My most used app,this wa a lifesaver for the exam,,
AnkiDroid Flashcards,Google Play,com.ichi2.anki,Z3A6QU9xcFRPRlhmc08wV1dZNm5rTFZhZFo3bl9NZFp2NDJnaTBoQjVfdkE2akd6OWVLMWtUa3puT0VwVnpKMzRsWk1rZTAwa1RZN0taMzF5SzMyQzkzaXVN,English,,5,2015-02-18,Jozze Oliver,,nice i loved it,,
AnkiDroid Flashcards,Google Play,com.ichi2.anki,Z3A6QU9xcFRPRkxZb3RYWU8yTVNhQTV4MFdUZTVVTmxRcHBZc1o2TjZVUWdmYWR3c3BxVkotXzR1TDZOc1NGXzhSaHk0eGNZWGpzSDR4dXhLTUE4Z29GaWJ3,English,,5,2015-02-18,Dan Armstrong,Use it every day for everything,it syncs to all can be accessed through the browser or dedicated and reset every day for a new focusing only on the card gave me trouble,,
AnkiDroid Flashcards,Google Play,com.ichi2.anki,Z3A6QU9xcFRPRkxZb3RYWU8yTVNhQTV4MFdUZTVVTmxRcHBZc1o2TjZVUWdmYWR3c3BxVkotXzR1TDZOc1NGXzhSaHk0eGNZWGpzSDR4dXhLTUE4Z29GaWJ3,English,,5,2015-02-18,Dan Armstrong,Use it every day for everything,i use it for presentation too a card and a story for every slide,,
AnkiDroid Flashcards,Google Play,com.ichi2.anki,Z3A6QU9xcFRPRkxZb3RYWU8yTVNhQTV4MFdUZTVVTmxRcHBZc1o2TjZVUWdmYWR3c3BxVkotXzR1TDZOc1NGXzhSaHk0eGNZWGpzSDR4dXhLTUE4Z29GaWJ3,English,,5,2015-02-18,Dan Armstrong,Use it every day for everything,the front ha the picture on the back ha the point to be made,,
AnkiDroid Flashcards,Google Play,com.ichi2.anki,Z3A6QU9xcFRPRkxZb3RYWU8yTVNhQTV4MFdUZTVVTmxRcHBZc1o2TjZVUWdmYWR3c3BxVkotXzR1TDZOc1NGXzhSaHk0eGNZWGpzSDR4dXhLTUE4Z29GaWJ3,English,,5,2015-02-18,Dan Armstrong,Use it every day for everything,using prior to presenting make nervousness vanish,,
AnkiDroid Flashcards,Google Play,com.ichi2.anki,Z3A6QU9xcFRPR1FEMHd2cEdLNnc0ZGtpbVU1aFQxV2FXaDVxdlI4eW1ib0pqa0FoWHB2X0g2YWVud2lWUHpINmV5TjdBcEhoR2E4QzYxeDJRcWN4cnVnenNn,English,,5,2015-02-18,,Best app ever,i love how you can sync it easily across all device,,
AnkiDroid Flashcards,Google Play,com.ichi2.anki,Z3A6QU9xcFRPR1FEMHd2cEdLNnc0ZGtpbVU1aFQxV2FXaDVxdlI4eW1ib0pqa0FoWHB2X0g2YWVud2lWUHpINmV5TjdBcEhoR2E4QzYxeDJRcWN4cnVnenNn,English,,5,2015-02-18,,Best app ever,the is totally straight easy to and i love all the statistic available to you practice,,
AnkiDroid Flashcards,Google Play,com.ichi2.anki,Z3A6QU9xcFRPR1FEMHd2cEdLNnc0ZGtpbVU1aFQxV2FXaDVxdlI4eW1ib0pqa0FoWHB2X0g2YWVud2lWUHpINmV5TjdBcEhoR2E4QzYxeDJRcWN4cnVnenNn,English,,5,2015-02-18,,Best app ever,seriously grateful for,,
AnkiDroid Flashcards,Google Play,com.ichi2.anki,Z3A6QU9xcFRPR01MZkxEQUNVZTV2LWJVbkxqejJhQXUwdmhQSVJMUzkwbkhYYTlFaU5FOVRaRjVjdUhRZTVKRUx3SDRZMUVLd3ZfVHFnNDBvQm9jaU5JS3Q0,English,,3,2015-02-17,Patrick Z,badly needs multiple selection,this will take forever for big deck,,
AnkiDroid Flashcards,Google Play,com.ichi2.anki,Z3A6QU9xcFRPR01MZkxEQUNVZTV2LWJVbkxqejJhQXUwdmhQSVJMUzkwbkhYYTlFaU5FOVRaRjVjdUhRZTVKRUx3SDRZMUVLd3ZfVHFnNDBvQm9jaU5JS3Q0,English,,3,2015-02-17,Patrick Z,badly needs multiple selection,add multiple selection for action,,
AnkiDroid Flashcards,Google Play,com.ichi2.anki,Z3A6QU9xcFRPRV9WV05XU1htRDVTNTdORERvVGRkN1NmM2oybnhHU0huME1MaDFhYjkxNjc3N29sWlV4Y0ZYN193MW44QTJyd05kVGJUamUtQmtyZGozZFJz,English,,5,2015-02-16,cat Behemoth,Love the app!,great thank you for updating it,,
AnkiDroid Flashcards,Google Play,com.ichi2.anki,Z3A6QU9xcFRPR2lHcUV2bW5ERG5RWHpzXzVyWjhXSUtEXzlWVGkyQ05pVUQ5NnhBRVZ4d2tCM2gzTXVXZ2MtNUc3WVEwSzk0NERHQ2t2R1Zac00wdTNPdHFN,English,,1,2015-02-16,Ag 123,Issues,the audio played no problem the 1st day,,
AnkiDroid Flashcards,Google Play,com.ichi2.anki,Z3A6QU9xcFRPRTNYdFNiOTgzRk1xX2ZJZTNHc2JraVlqU0JCWTFyNXAzUmZ1Y0lvdld2MzZiSllKUjRFNFlTSlB0RGs5UThYR1UxbW9rN0dBTDZTcTRTNGtv,English,,5,2015-02-16,Vincent Beers,Excellent.,still the best flashcard out there,,
AnkiDroid Flashcards,Google Play,com.ichi2.anki,Z3A6QU9xcFRPRTNYdFNiOTgzRk1xX2ZJZTNHc2JraVlqU0JCWTFyNXAzUmZ1Y0lvdld2MzZiSllKUjRFNFlTSlB0RGs5UThYR1UxbW9rN0dBTDZTcTRTNGtv,English,,5,2015-02-16,Vincent Beers,Excellent.,very customizable,,
AnkiDroid Flashcards,Google Play,com.ichi2.anki,Z3A6QU9xcFRPRTNYdFNiOTgzRk1xX2ZJZTNHc2JraVlqU0JCWTFyNXAzUmZ1Y0lvdld2MzZiSllKUjRFNFlTSlB0RGs5UThYR1UxbW9rN0dBTDZTcTRTNGtv,English,,5,2015-02-16,Vincent Beers,Excellent.,the thing it lack is proper syncing you have to do this manually,,
AnkiDroid Flashcards,Google Play,com.ichi2.anki,Z3A6QU9xcFRPSFZ2RTlDa1FEdzBDYTdFNEF6S2ttb3JMc2pKRjRNMEZSS2NnSDRlZHRZcGZwRWs0X2NaRWNMRmpWMTBMTUVoSTRUWWh3enZ6bG1ySFlFYV9v,English,,2,2015-02-16,Abbas Furniturewalla,No,overcomplicated,,
AnkiDroid Flashcards,Google Play,com.ichi2.anki,Z3A6QU9xcFRPRzdoZmJ1ZF9xRDVuWGlPZjNoRk5MSzNrYXZEUFZkQmdDR3lSWER0ZzhQZjI1ZDdBbHgyUmdWT0tWOFp2dndaOEdsVUFLaUVoRnJ6WmN1Z0hv,English,,4,2015-02-15,Edward Rogers,Great app!,could use a guide to help with editing card though,,
AnkiDroid Flashcards,Google Play,com.ichi2.anki,Z3A6QU9xcFRPR0xha0tiRVcxdkxKRnNQWTBDRHZEQ01sU1FGR0R0NGNLTndrei1wY2RNXzQ4YzgxZ0lwMHRFZFl6X2lQNHFSdXk3VHQ4YWFFcDM4OHR2NzR3,English,,4,2015-02-15,Wilco Boshoff,Great review app,i have been using for a few year now and i still find it is useful and highly efficient in helping me review work,,
AnkiDroid Flashcards,Google Play,com.ichi2.anki,Z3A6QU9xcFRPR0xha0tiRVcxdkxKRnNQWTBDRHZEQ01sU1FGR0R0NGNLTndrei1wY2RNXzQ4YzgxZ0lwMHRFZFl6X2lQNHFSdXk3VHQ4YWFFcDM4OHR2NzR3,English,,4,2015-02-15,Wilco Boshoff,Great review app,the shortcoming i feel are the ability to completely reset a deck and to set the entire workspace to low light,,
AnkiDroid Flashcards,Google Play,com.ichi2.anki,Z3A6QU9xcFRPR0xha0tiRVcxdkxKRnNQWTBDRHZEQ01sU1FGR0R0NGNLTndrei1wY2RNXzQ4YzgxZ0lwMHRFZFl6X2lQNHFSdXk3VHQ4YWFFcDM4OHR2NzR3,English,,4,2015-02-15,Wilco Boshoff,Great review app,worth a download,,
AnkiDroid Flashcards,Google Play,com.ichi2.anki,Z3A6QU9xcFRPR2JiWFI4QXIwcXBZUWdYMzU3bGlmSkY2T3FLcFo0U29JQ0gyeXpRMU5FV0RoVVlibmtwa2hicE5xX2QwMWhkdC1HQkg5M0kzZGV2RlFLSUc4,English,,5,2015-02-14,Brandon Wolfeld,Integral part of my study routine,it is an extremely intuitive smart flash card program,,
AnkiDroid Flashcards,Google Play,com.ichi2.anki,Z3A6QU9xcFRPR2JiWFI4QXIwcXBZUWdYMzU3bGlmSkY2T3FLcFo0U29JQ0gyeXpRMU5FV0RoVVlibmtwa2hicE5xX2QwMWhkdC1HQkg5M0kzZGV2RlFLSUc4,English,,5,2015-02-14,Brandon Wolfeld,Integral part of my study routine,excellent method of metering all of the thing you need to memorize in a way keep you from overwhelming your brain and burning your retention,,
AnkiDroid Flashcards,Google Play,com.ichi2.anki,Z3A6QU9xcFRPRjNYYkFRN09GZk5kRHNNa282VzVJYTFTSnppeVV5OFBUdkVkZUdheGdpNHFtWlhVOWRTa3JlX1dVLVUtN3NzNEhiQjBjVHZzQ2hGSU9RWkZr,English,,5,2015-02-14,Ali Ghafurian,,perfect,,
AnkiDroid Flashcards,Google Play,com.ichi2.anki,Z3A6QU9xcFRPRjNYYkFRN09GZk5kRHNNa282VzVJYTFTSnppeVV5OFBUdkVkZUdheGdpNHFtWlhVOWRTa3JlX1dVLVUtN3NzNEhiQjBjVHZzQ2hGSU9RWkZr,English,,5,2015-02-14,Ali Ghafurian,,thanks a lot,,
AnkiDroid Flashcards,Google Play,com.ichi2.anki,Z3A6QU9xcFRPRkJseVZzOTg0WTJOZVRqVzBzT09GNlk2a2JoWUxoTTZBLWVabXV3RGxtM0ZFdTVtWTR2ZUFVd1VZcUVFS0pLS2RIZzlUX1ppZWdzdEhPNjJn,English,,1,2015-02-14,Nadine Hart,,are you kidding me,,
AnkiDroid Flashcards,Google Play,com.ichi2.anki,Z3A6QU9xcFRPRkJseVZzOTg0WTJOZVRqVzBzT09GNlk2a2JoWUxoTTZBLWVabXV3RGxtM0ZFdTVtWTR2ZUFVd1VZcUVFS0pLS2RIZzlUX1ppZWdzdEhPNjJn,English,,1,2015-02-14,Nadine Hart,,i thought this wa a good to study but i ended up wasting my valuable time to make 50 card for an exam in 3 day,,
AnkiDroid Flashcards,Google Play,com.ichi2.anki,Z3A6QU9xcFRPRkJseVZzOTg0WTJOZVRqVzBzT09GNlk2a2JoWUxoTTZBLWVabXV3RGxtM0ZFdTVtWTR2ZUFVd1VZcUVFS0pLS2RIZzlUX1ppZWdzdEhPNjJn,English,,1,2015-02-14,Nadine Hart,,your suck,,
AnkiDroid Flashcards,Google Play,com.ichi2.anki,Z3A6QU9xcFRPRnc2NWpBNFNpb29WQTNyWHcyT09Bc2lkSE02NDhTVWdJY2UtcG1ibGFUY1lSSUdSM1VUYVJFUXAwamhPUF9DSjlIT1Zyb0tiTlRsa0dLR1VB,English,,5,2015-02-13,Anatoliy Kmetyuk,,the desktop version ha a bug removing the note type,,
AnkiDroid Flashcards,Google Play,com.ichi2.anki,Z3A6QU9xcFRPR3Ayem5odDliYVk1eXlkeURhN3JsVGZ3R1JqRzFiSzl0cmFlRnFWNURBNkhWWVhuVW5ZRjVoV0tERW53WmlGZFBRTVFQN1pZVEVpMkM4UmpZ,English,,4,2015-02-13,Joey Korbel,Can I reverse deck?,can i flip my card over on mobile,,
AnkiDroid Flashcards,Google Play,com.ichi2.anki,Z3A6QU9xcFRPRjNOYlRQbHF0d1UzS2NZTzRfelNDWW9aSXBYQVJsLVlvSXhhcjUxS1NhZUdQS2dYd1JrOUx4RFhiVGpoaXpzSV8yTTkzNlQydVlYWW02dldJ,English,,1,2015-02-12,Helen Khvostova,,cant load it,,
AnkiDroid Flashcards,Google Play,com.ichi2.anki,Z3A6QU9xcFRPRnRUM1ZxNlB3MTgySGk0cXh6aHRjR3E0NHZVSUhoam0xQXlVMURrcktRSnJNdURCaWd6Vm5PTnhtUzh4WXFQRWZ4LXBlVVNIR1RXZlZmMG1V,English,,5,2015-02-12,Nebojša Skorupan,,easily the most important on my device,,
AnkiDroid Flashcards,Google Play,com.ichi2.anki,Z3A6QU9xcFRPSDBHVFNEYTRSWURSVGNQNTF4NGJwR2pRcjBLa3pXa05DZEpYZWFuNUJVS0l3c2VfclhhRlVJTGJydnZ3WTBnSmgzeWpaRFpkb0ZDanRPa2VR,English,,4,2015-02-11,Alexander Lisianoi,,completely syncs with the desktop display latex,,
AnkiDroid Flashcards,Google Play,com.ichi2.anki,Z3A6QU9xcFRPSDBHVFNEYTRSWURSVGNQNTF4NGJwR2pRcjBLa3pXa05DZEpYZWFuNUJVS0l3c2VfclhhRlVJTGJydnZ3WTBnSmgzeWpaRFpkb0ZDanRPa2VR,English,,4,2015-02-11,Alexander Lisianoi,,is the best flashcard out there,,
AnkiDroid Flashcards,Google Play,com.ichi2.anki,Z3A6QU9xcFRPRTAwUnl3bjdCUUtXTFBmVG5UazNWclRUSkxPcTFfYzYzRE00NFBVSHUwT1Yta1I0WExaXzZWQW9zWHA0Q0pLTHdxdUVsdTRxLW9RWVV4VHFF,English,,4,2015-02-11,Cross DeLuca,Good,not friendly just work le fun,,
AnkiDroid Flashcards,Google Play,com.ichi2.anki,Z3A6QU9xcFRPR3ppTU5aMmRPdUJweEYwVXhicl9YRjZTaWYtWlZPcGtDZVJaRWFPRWtJQzMzcWxaNkhFV0RRM3FUQ05iNWdlRnpzU2o3UVNibm5iWXNLR0pz,English,,4,2015-02-11,Evan B,Works great,ha a ton of feature but this is also a little overwhelming,,
AnkiDroid Flashcards,Google Play,com.ichi2.anki,Z3A6QU9xcFRPRlRta2ZPdHBoTmQ4eERITHMzX240dDMya1ZXVENfcnVtM3J6dnpiNlNyUFZEVFJtQ05NRmswRmpUdVVDZy1hejdsU1hYVEMyQ1RsX2J1TkEw,English,,5,2015-02-11,Rodrigo Sousa,muito bom,,,
AnkiDroid Flashcards,Google Play,com.ichi2.anki,Z3A6QU9xcFRPSDBUdDFNSl8xaC1hbkllc3JaTTBub2Q1T3NkejZXWVBQX1ZOdW1DN0VHdHRoZWVtTFlqVWQ3Q0tRX1J3N0hqZFJ3eUswNmlRLUJvZ0VycEFz,English,,5,2015-02-11,Avanish Kumar,,best in it category,,
AnkiDroid Flashcards,Google Play,com.ichi2.anki,Z3A6QU9xcFRPSDZpTXJrZ251Sy0zcldxMVFtX0pjbmFUVHBnMGd2M29Va3ZDQkVFT1ZqamxIWlNJUXNSR09vbnZTXzdxWGJ1enZ3bjhVQzlJdkE4anFjZTln,English,,5,2015-02-10,Farheen Ahmed,Anki,absolutely,,
AnkiDroid Flashcards,Google Play,com.ichi2.anki,Z3A6QU9xcFRPSDZpTXJrZ251Sy0zcldxMVFtX0pjbmFUVHBnMGd2M29Va3ZDQkVFT1ZqamxIWlNJUXNSR09vbnZTXzdxWGJ1enZ3bjhVQzlJdkE4anFjZTln,English,,5,2015-02-10,Farheen Ahmed,Anki,e to share and allows custom study a well,,
AnkiDroid Flashcards,Google Play,com.ichi2.anki,Z3A6QU9xcFRPRk5rYUxOMHJPemFONXdSSlZaaE5wTEdxQzBxVmxPbmJSUUNzYm9wN05oaFJ5c0ZIMzN0Y0YzZFg2WVIxZEQwZnhUWlM0T01QNDlNdlZmTktF,English,,5,2015-02-10,Hamed Nasri,Hamed,this is amazing,,
AnkiDroid Flashcards,Google Play,com.ichi2.anki,Z3A6QU9xcFRPRk5rYUxOMHJPemFONXdSSlZaaE5wTEdxQzBxVmxPbmJSUUNzYm9wN05oaFJ5c0ZIMzN0Y0YzZFg2WVIxZEQwZnhUWlM0T01QNDlNdlZmTktF,English,,5,2015-02-10,Hamed Nasri,Hamed,i use it the first version,,
AnkiDroid Flashcards,Google Play,com.ichi2.anki,Z3A6QU9xcFRPRk5rYUxOMHJPemFONXdSSlZaaE5wTEdxQzBxVmxPbmJSUUNzYm9wN05oaFJ5c0ZIMzN0Y0YzZFg2WVIxZEQwZnhUWlM0T01QNDlNdlZmTktF,English,,5,2015-02-10,Hamed Nasri,Hamed,they make it better and better,,
AnkiDroid Flashcards,Google Play,com.ichi2.anki,Z3A6QU9xcFRPRk5rYUxOMHJPemFONXdSSlZaaE5wTEdxQzBxVmxPbmJSUUNzYm9wN05oaFJ5c0ZIMzN0Y0YzZFg2WVIxZEQwZnhUWlM0T01QNDlNdlZmTktF,English,,5,2015-02-10,Hamed Nasri,Hamed,i love you team,,
AnkiDroid Flashcards,Google Play,com.ichi2.anki,Z3A6QU9xcFRPR0ZRSmtleVBDODM3Yy1ZM3MwdWlDdnF2YWxiYm9kT3hGazNta2JSemRjMVI5NGpjZm1INU9ydVlXSlYyR0N5SFRDRVJycUxHcV9ZUmNtVmM0,English,,5,2015-02-10,Saeed Karimi,,it is a perfect i use it for three year,,
AnkiDroid Flashcards,Google Play,com.ichi2.anki,Z3A6QU9xcFRPRjdaMElJa1JLLTZZYmFScVFPVUEwcVVpeUNFMk4xalRiSldzXzZ4ZTc1VGdkcTRfZTVibjc4Mlg1aWV1X1lmSVRKRXUwMndNNTFCYXRTUmdF,English,,5,2015-02-10,Stephen Middlemass,Brilliant,brilliant and easy to use i got the hang of it love this for language learning,,
AnkiDroid Flashcards,Google Play,com.ichi2.anki,Z3A6QU9xcFRPRjdaMElJa1JLLTZZYmFScVFPVUEwcVVpeUNFMk4xalRiSldzXzZ4ZTc1VGdkcTRfZTVibjc4Mlg1aWV1X1lmSVRKRXUwMndNNTFCYXRTUmdF,English,,5,2015-02-10,Stephen Middlemass,Brilliant,it even extract translate voice file and add them to my card,,
AnkiDroid Flashcards,Google Play,com.ichi2.anki,Z3A6QU9xcFRPRjdaMElJa1JLLTZZYmFScVFPVUEwcVVpeUNFMk4xalRiSldzXzZ4ZTc1VGdkcTRfZTVibjc4Mlg1aWV1X1lmSVRKRXUwMndNNTFCYXRTUmdF,English,,5,2015-02-10,Stephen Middlemass,Brilliant,worth the time and effort to get to know the,,
AnkiDroid Flashcards,Google Play,com.ichi2.anki,Z3A6QU9xcFRPRWExZlZYUkdfSUQzb09wWm9lLXJjZUJsVU9GMF9vWndIdGd5ZWtWbi1mUlkzUE03N1F0djlXREJWaHQyclVwVTA5WlRWcVY2THotSm9Ybm5R,English,,5,2015-02-09,Douglas Marques,Full of features,highly customizable and full of feature,,
AnkiDroid Flashcards,Google Play,com.ichi2.anki,Z3A6QU9xcFRPRWExZlZYUkdfSUQzb09wWm9lLXJjZUJsVU9GMF9vWndIdGd5ZWtWbi1mUlkzUE03N1F0djlXREJWaHQyclVwVTA5WlRWcVY2THotSm9Ybm5R,English,,5,2015-02-09,Douglas Marques,Full of features,i wa used to but it wa specially for custom course,,
AnkiDroid Flashcards,Google Play,com.ichi2.anki,Z3A6QU9xcFRPRWExZlZYUkdfSUQzb09wWm9lLXJjZUJsVU9GMF9vWndIdGd5ZWtWbi1mUlkzUE03N1F0djlXREJWaHQyclVwVTA5WlRWcVY2THotSm9Ybm5R,English,,5,2015-02-09,Douglas Marques,Full of features,it wa almost impossible to know you already had added a specific card in,,
AnkiDroid Flashcards,Google Play,com.ichi2.anki,Z3A6QU9xcFRPRWExZlZYUkdfSUQzb09wWm9lLXJjZUJsVU9GMF9vWndIdGd5ZWtWbi1mUlkzUE03N1F0djlXREJWaHQyclVwVTA5WlRWcVY2THotSm9Ybm5R,English,,5,2015-02-09,Douglas Marques,Full of features,creating card and searching in just work,,
AnkiDroid Flashcards,Google Play,com.ichi2.anki,Z3A6QU9xcFRPRWExZlZYUkdfSUQzb09wWm9lLXJjZUJsVU9GMF9vWndIdGd5ZWtWbi1mUlkzUE03N1F0djlXREJWaHQyclVwVTA5WlRWcVY2THotSm9Ybm5R,English,,5,2015-02-09,Douglas Marques,Full of features,and it ha the ability to create question and to use custom style,,
AnkiDroid Flashcards,Google Play,com.ichi2.anki,Z3A6QU9xcFRPRWExZlZYUkdfSUQzb09wWm9lLXJjZUJsVU9GMF9vWndIdGd5ZWtWbi1mUlkzUE03N1F0djlXREJWaHQyclVwVTA5WlRWcVY2THotSm9Ybm5R,English,,5,2015-02-09,Douglas Marques,Full of features,one thing still missing is some tool or guidance in the to help u create the question,,
AnkiDroid Flashcards,Google Play,com.ichi2.anki,Z3A6QU9xcFRPRWExZlZYUkdfSUQzb09wWm9lLXJjZUJsVU9GMF9vWndIdGd5ZWtWbi1mUlkzUE03N1F0djlXREJWaHQyclVwVTA5WlRWcVY2THotSm9Ybm5R,English,,5,2015-02-09,Douglas Marques,Full of features,i keep getting back to the help to remember the syntax,,
AnkiDroid Flashcards,Google Play,com.ichi2.anki,Z3A6QU9xcFRPRzJkLVUwUFN6emJpRC1hanhyMGJjaGJ4OVNxRHVMZnYyU0o3TmNGZ19WTUw4Rk9sbkhYZHJMZGpxSEVfZV93bVB3b1ZFdV9Pa2ladm9PLU5v,English,,1,2015-02-08,Teresa Guinea,MAKE IT EASIER,this is overcomplicated and hard to use,,
AnkiDroid Flashcards,Google Play,com.ichi2.anki,Z3A6QU9xcFRPRzJkLVUwUFN6emJpRC1hanhyMGJjaGJ4OVNxRHVMZnYyU0o3TmNGZ19WTUw4Rk9sbkhYZHJMZGpxSEVfZV93bVB3b1ZFdV9Pa2ladm9PLU5v,English,,1,2015-02-08,Teresa Guinea,MAKE IT EASIER,sometimes it look like my card got erased,,
AnkiDroid Flashcards,Google Play,com.ichi2.anki,Z3A6QU9xcFRPRzJkLVUwUFN6emJpRC1hanhyMGJjaGJ4OVNxRHVMZnYyU0o3TmNGZ19WTUw4Rk9sbkhYZHJMZGpxSEVfZV93bVB3b1ZFdV9Pa2ladm9PLU5v,English,,1,2015-02-08,Teresa Guinea,MAKE IT EASIER,also why is there some sort of limit on reviewing my card,,
AnkiDroid Flashcards,Google Play,com.ichi2.anki,Z3A6QU9xcFRPRzJkLVUwUFN6emJpRC1hanhyMGJjaGJ4OVNxRHVMZnYyU0o3TmNGZ19WTUw4Rk9sbkhYZHJMZGpxSEVfZV93bVB3b1ZFdV9Pa2ladm9PLU5v,English,,1,2015-02-08,Teresa Guinea,MAKE IT EASIER,this interface is awful,,
AnkiDroid Flashcards,Google Play,com.ichi2.anki,Z3A6QU9xcFRPSG1rcE5GemFZSEMwcFI4M0paT05rTDVDd0JHYmhFWHFWdDN3STJrNjJVdDdyMWczTDluVHJ4V1ltTFh3ZEpoWXNRRGZBcHhPLTNGcUNGYzRr,English,,1,2015-02-08,Ashley Treadwell,App keeps crashing,i wa using the for a month or composing over 100 card the just quit one day,,
AnkiDroid Flashcards,Google Play,com.ichi2.anki,Z3A6QU9xcFRPSG1rcE5GemFZSEMwcFI4M0paT05rTDVDd0JHYmhFWHFWdDN3STJrNjJVdDdyMWczTDluVHJ4V1ltTFh3ZEpoWXNRRGZBcHhPLTNGcUNGYzRr,English,,1,2015-02-08,Ashley Treadwell,App keeps crashing,i tried and but i just get the same error message,,
AnkiDroid Flashcards,Google Play,com.ichi2.anki,Z3A6QU9xcFRPSG1rcE5GemFZSEMwcFI4M0paT05rTDVDd0JHYmhFWHFWdDN3STJrNjJVdDdyMWczTDluVHJ4V1ltTFh3ZEpoWXNRRGZBcHhPLTNGcUNGYzRr,English,,1,2015-02-08,Ashley Treadwell,App keeps crashing,use a more reliable or risk losing all your work,,
AnkiDroid Flashcards,Google Play,com.ichi2.anki,Z3A6QU9xcFRPRjl2RmV6U2s0N0hFaXFRU2R2TFFSZGt6RWFXOE5jc3pHN0FOUUhkaEI1aEpLMWdqRFhGOGJvVWVWM0xFQTY5R3hCNkhXOXZvN24tZFpSOU9B,English,,5,2015-02-08,Hadi Athari,,perfect for memorizing anything,,
AnkiDroid Flashcards,Google Play,com.ichi2.anki,Z3A6QU9xcFRPRm5PeFExVjhFMkFCTElQbmxlaVA4MElKeXZLRXZaU0k0NUFrZDFlVXhiQVZQM0FFUzhtbWg2cnhXMmVmN1ZFNE1JT0VFNDRzMHk1M3dRVFJN,English,,5,2015-02-06,Patrick Jane,Very nice,best for learning whatever you want,,
AnkiDroid Flashcards,Google Play,com.ichi2.anki,Z3A6QU9xcFRPRXduMzhtV3dkSS1rbWQxMDZrcEdkRzNRbWxObU9qS3JjWF9ndkdvVWpfNldHRllmUWF5ejV1RHVQYXMxY2VLR1BtTXJVS282RW9PdTZmejNV,English,,5,2015-02-06,Stuart McGavin,"Used for ages, and amazing - some ideas below",i originally hated but i later gave it a and it ha grown on me,,
AnkiDroid Flashcards,Google Play,com.ichi2.anki,Z3A6QU9xcFRPRXduMzhtV3dkSS1rbWQxMDZrcEdkRzNRbWxObU9qS3JjWF9ndkdvVWpfNldHRllmUWF5ejV1RHVQYXMxY2VLR1BtTXJVS282RW9PdTZmejNV,English,,5,2015-02-06,Stuart McGavin,"Used for ages, and amazing - some ideas below",i love it now,,
AnkiDroid Flashcards,Google Play,com.ichi2.anki,Z3A6QU9xcFRPRXduMzhtV3dkSS1rbWQxMDZrcEdkRzNRbWxObU9qS3JjWF9ndkdvVWpfNldHRllmUWF5ejV1RHVQYXMxY2VLR1BtTXJVS282RW9PdTZmejNV,English,,5,2015-02-06,Stuart McGavin,"Used for ages, and amazing - some ideas below",feature 1 can you make it spacing affect position,,
AnkiDroid Flashcards,Google Play,com.ichi2.anki,Z3A6QU9xcFRPRXduMzhtV3dkSS1rbWQxMDZrcEdkRzNRbWxObU9qS3JjWF9ndkdvVWpfNldHRllmUWF5ejV1RHVQYXMxY2VLR1BtTXJVS282RW9PdTZmejNV,English,,5,2015-02-06,Stuart McGavin,"Used for ages, and amazing - some ideas below",the ignores multiple space,,
AnkiDroid Flashcards,Google Play,com.ichi2.anki,Z3A6QU9xcFRPRXduMzhtV3dkSS1rbWQxMDZrcEdkRzNRbWxObU9qS3JjWF9ndkdvVWpfNldHRllmUWF5ejV1RHVQYXMxY2VLR1BtTXJVS282RW9PdTZmejNV,English,,5,2015-02-06,Stuart McGavin,"Used for ages, and amazing - some ideas below",experimental feature 1 can you make a feature to edit piece of text in like being able to make word different etc,,
AnkiDroid Flashcards,Google Play,com.ichi2.anki,Z3A6QU9xcFRPRXduMzhtV3dkSS1rbWQxMDZrcEdkRzNRbWxObU9qS3JjWF9ndkdvVWpfNldHRllmUWF5ejV1RHVQYXMxY2VLR1BtTXJVS282RW9PdTZmejNV,English,,5,2015-02-06,Stuart McGavin,"Used for ages, and amazing - some ideas below",i say someone ha the ability to turn it in case it make it,,
AnkiDroid Flashcards,Google Play,com.ichi2.anki,Z3A6QU9xcFRPRXduMzhtV3dkSS1rbWQxMDZrcEdkRzNRbWxObU9qS3JjWF9ndkdvVWpfNldHRllmUWF5ejV1RHVQYXMxY2VLR1BtTXJVS282RW9PdTZmejNV,English,,5,2015-02-06,Stuart McGavin,"Used for ages, and amazing - some ideas below",experimental feature 2 can you make it possible to input superscript and subscript number and sign like etc,,
AnkiDroid Flashcards,Google Play,com.ichi2.anki,Z3A6QU9xcFRPRXduMzhtV3dkSS1rbWQxMDZrcEdkRzNRbWxObU9qS3JjWF9ndkdvVWpfNldHRllmUWF5ejV1RHVQYXMxY2VLR1BtTXJVS282RW9PdTZmejNV,English,,5,2015-02-06,Stuart McGavin,"Used for ages, and amazing - some ideas below",,,
AnkiDroid Flashcards,Google Play,com.ichi2.anki,Z3A6QU9xcFRPRXduMzhtV3dkSS1rbWQxMDZrcEdkRzNRbWxObU9qS3JjWF9ndkdvVWpfNldHRllmUWF5ejV1RHVQYXMxY2VLR1BtTXJVS282RW9PdTZmejNV,English,,5,2015-02-06,Stuart McGavin,"Used for ages, and amazing - some ideas below",i can use on my a i have no computer of my own,,
AnkiDroid Flashcards,Google Play,com.ichi2.anki,Z3A6QU9xcFRPRXduMzhtV3dkSS1rbWQxMDZrcEdkRzNRbWxObU9qS3JjWF9ndkdvVWpfNldHRllmUWF5ejV1RHVQYXMxY2VLR1BtTXJVS282RW9PdTZmejNV,English,,5,2015-02-06,Stuart McGavin,"Used for ages, and amazing - some ideas below",experimental feature 3 can you integrate a drawing,,
AnkiDroid Flashcards,Google Play,com.ichi2.anki,Z3A6QU9xcFRPRXduMzhtV3dkSS1rbWQxMDZrcEdkRzNRbWxObU9qS3JjWF9ndkdvVWpfNldHRllmUWF5ejV1RHVQYXMxY2VLR1BtTXJVS282RW9PdTZmejNV,English,,5,2015-02-06,Stuart McGavin,"Used for ages, and amazing - some ideas below",a in make it i can draw in my note and save it,,
AnkiDroid Flashcards,Google Play,com.ichi2.anki,Z3A6QU9xcFRPRXduMzhtV3dkSS1rbWQxMDZrcEdkRzNRbWxObU9qS3JjWF9ndkdvVWpfNldHRllmUWF5ejV1RHVQYXMxY2VLR1BtTXJVS282RW9PdTZmejNV,English,,5,2015-02-06,Stuart McGavin,"Used for ages, and amazing - some ideas below",a lot to but these are mainly just thing i would like,,
AnkiDroid Flashcards,Google Play,com.ichi2.anki,Z3A6QU9xcFRPR3JWOXJIdGRrX3Y3LTNJelRlaWh5N1NDSWRwNnNnZWtLXzZ5UWRQSExiOFZwSmhzbWxXNFdRTVRKajhfemNEVHV1M2g3VE1kRVNsZnV0bDlj,English,,4,2015-02-05,July Lumantas,Perfect,this would have been 5 star had the new update included the ability to edit card template and not just view and delete them,,
AnkiDroid Flashcards,Google Play,com.ichi2.anki,Z3A6QU9xcFRPR3JWOXJIdGRrX3Y3LTNJelRlaWh5N1NDSWRwNnNnZWtLXzZ5UWRQSExiOFZwSmhzbWxXNFdRTVRKajhfemNEVHV1M2g3VE1kRVNsZnV0bDlj,English,,4,2015-02-05,July Lumantas,Perfect,superb,,
AnkiDroid Flashcards,Google Play,com.ichi2.anki,Z3A6QU9xcFRPSFZOOElqWUlqN2Vsa25lR2ZzOUlrd25pTndIYnRFY1JfVWJjNkZ2Tm1NbWR5ejdkZlUyOFBDcG5EQXBaeWlWQWZDZnZia3V2MWtxb0luVzhr,English,,5,2015-02-05,Telo Wolf,So Far so Good,this is one of the best companion program for a college student,,
AnkiDroid Flashcards,Google Play,com.ichi2.anki,Z3A6QU9xcFRPSFZOOElqWUlqN2Vsa25lR2ZzOUlrd25pTndIYnRFY1JfVWJjNkZ2Tm1NbWR5ejdkZlUyOFBDcG5EQXBaeWlWQWZDZnZia3V2MWtxb0luVzhr,English,,5,2015-02-05,Telo Wolf,So Far so Good,i highly recommend this,,
AnkiDroid Flashcards,Google Play,com.ichi2.anki,Z3A6QU9xcFRPSFZOOElqWUlqN2Vsa25lR2ZzOUlrd25pTndIYnRFY1JfVWJjNkZ2Tm1NbWR5ejdkZlUyOFBDcG5EQXBaeWlWQWZDZnZia3V2MWtxb0luVzhr,English,,5,2015-02-05,Telo Wolf,So Far so Good,keep up the good work and please remain an open source,,
AnkiDroid Flashcards,Google Play,com.ichi2.anki,Z3A6QU9xcFRPRzVMbzU1WFFvVFhtaU1jbC10XzVtZUdXbHhndkFuaW9ySTc5VnVJTkh2VzdCVVZKTzNFTVJ1SGp0aWhrUXljX1dfMGxKOTBBYTRwSmpUSkE0,English,,1,2015-02-05,Kara Love,,confusing,,
AnkiDroid Flashcards,Google Play,com.ichi2.anki,Z3A6QU9xcFRPRUFhZFZ2cG1XQmRjVlhaeWFqY3ZfS1I5WE9tTDdLczRPZ3lsRGxldlRNazBfelVaMVlXNzNvYmxwT2hEd0M1cnhadUNHUVZmRVNOVFQyQVpJ,English,,5,2015-02-05,Kamal Lahloh,,very helpful,,
AnkiDroid Flashcards,Google Play,com.ichi2.anki,Z3A6QU9xcFRPR0pGS0lGUmNoMWlNa0Y1Y1dEeWVIdWwwTlFtOWRkWDZhbjJFR01UUWp2QWJJbEIzbHFGRjdaaFBVOGZQbWlyZGNVUUwwQzMwUktJMUdqVEdV,English,,4,2015-02-04,Craig Simpson,Alright,syncing is really slow,,
AnkiDroid Flashcards,Google Play,com.ichi2.anki,Z3A6QU9xcFRPSFJjOV9KSE91bXpJMi1CMllCQTN2MkVrWE9GLXQwczRhVHBXckZVQ0EwWWYtNFlvemdpNzNkVGxGTHpYYUFJZzlUTGd0dnQzSVhQYUpmOHFj,English,,5,2015-02-04,manish meena,Nice,necessary help,,
AnkiDroid Flashcards,Google Play,com.ichi2.anki,Z3A6QU9xcFRPSFdTWV90MnVfbjAyS3NBVkhiSVVjQVNfcFBOVG1QZ2VyUnBuaG9GVktUdFdfN1Y2QVZTVmJmMnRqSkpDUmlCSW1SMWxMNEszVS1DMDBVWkVF,English,,5,2015-02-03,rabarksdale,,best flashcard,,
AnkiDroid Flashcards,Google Play,com.ichi2.anki,Z3A6QU9xcFRPRTFTckFvN0J6ekp2ZlJMWVZ4S1dHUGNqOXZjM1VUMi1ySVZjZkdNd2VYNmxBZmo2SUFITVRtejk3Q0VPM093UVVneFNkNmNIYko0OTdOemdN,English,,5,2015-02-03,sang nguyen,,such an awesome for student and exam taker,,
AnkiDroid Flashcards,Google Play,com.ichi2.anki,Z3A6QU9xcFRPRTFTckFvN0J6ekp2ZlJMWVZ4S1dHUGNqOXZjM1VUMi1ySVZjZkdNd2VYNmxBZmo2SUFITVRtejk3Q0VPM093UVVneFNkNmNIYko0OTdOemdN,English,,5,2015-02-03,sang nguyen,,thanks much for your effort,,
AnkiDroid Flashcards,Google Play,com.ichi2.anki,Z3A6QU9xcFRPSFNNZjF6QmR4MVNZaFBmT05uU0NOc2kwNHZRczBfSDdCaWR5QnNBN3I5MmdLNHpEbUwxUzV0NGl3czFMNlpXdGgtYzJFcTMwY0IzT1RHUE5N,English,,4,2015-02-03,Dan Medcalf,So far so good,just started using this in conjunction with the desktop,,
AnkiDroid Flashcards,Google Play,com.ichi2.anki,Z3A6QU9xcFRPSFNNZjF6QmR4MVNZaFBmT05uU0NOc2kwNHZRczBfSDdCaWR5QnNBN3I5MmdLNHpEbUwxUzV0NGl3czFMNlpXdGgtYzJFcTMwY0IzT1RHUE5N,English,,4,2015-02-03,Dan Medcalf,So far so good,the desktop is there is a learning curve to get use to the interface but it just take time,,
AnkiDroid Flashcards,Google Play,com.ichi2.anki,Z3A6QU9xcFRPSERqbXR1bUFEVGc1elVpYlZHak1xOGJZVXk3OXRfNlBsa2tVc2paa21yRmlTanV4LUtUV2VRUEJGa2QwUTA3bHc0N3NCaU5hdXhVOHIyMmxB,English,,1,2015-02-03,Garrett Rush,No,just tried to get simple flash card,,
AnkiDroid Flashcards,Google Play,com.ichi2.anki,Z3A6QU9xcFRPSERqbXR1bUFEVGc1elVpYlZHak1xOGJZVXk3OXRfNlBsa2tVc2paa21yRmlTanV4LUtUV2VRUEJGa2QwUTA3bHc0N3NCaU5hdXhVOHIyMmxB,English,,1,2015-02-03,Garrett Rush,No,this over complicates thing,,
AnkiDroid Flashcards,Google Play,com.ichi2.anki,Z3A6QU9xcFRPSERqbXR1bUFEVGc1elVpYlZHak1xOGJZVXk3OXRfNlBsa2tVc2paa21yRmlTanV4LUtUV2VRUEJGa2QwUTA3bHc0N3NCaU5hdXhVOHIyMmxB,English,,1,2015-02-03,Garrett Rush,No,back to for me,,
AnkiDroid Flashcards,Google Play,com.ichi2.anki,Z3A6QU9xcFRPRVhWWlV5a2E5dzczckZsUk9JYTkyU1I4MW1fUFBoRXEwZ1VDbXd1QnJ6VC1UYWZrQXctc3F4aUxwV2ZQR2xuVUpYd0pSUVN3ZzlhbXM0SEdF,English,,1,2015-02-02,Thanh Trần Đức,No sound,now i install again,,
AnkiDroid Flashcards,Google Play,com.ichi2.anki,Z3A6QU9xcFRPRVhWWlV5a2E5dzczckZsUk9JYTkyU1I4MW1fUFBoRXEwZ1VDbXd1QnJ6VC1UYWZrQXctc3F4aUxwV2ZQR2xuVUpYd0pSUVN3ZzlhbXM0SEdF,English,,1,2015-02-02,Thanh Trần Đức,No sound,i synced with my account,,
AnkiDroid Flashcards,Google Play,com.ichi2.anki,Z3A6QU9xcFRPRVhWWlV5a2E5dzczckZsUk9JYTkyU1I4MW1fUFBoRXEwZ1VDbXd1QnJ6VC1UYWZrQXctc3F4aUxwV2ZQR2xuVUpYd0pSUVN3ZzlhbXM0SEdF,English,,1,2015-02-02,Thanh Trần Đức,No sound,help please,,
AnkiDroid Flashcards,Google Play,com.ichi2.anki,Z3A6QU9xcFRPSGVxeldCdlFud1NpSFhMc0lyajdIcTBham14aFVxZ1ZTY3VvcVAzNGRRcmYtS3pCWE5GY0Qyc2F0V1JWZzlJd1hieG5lMjV2b09pWnZGNFZN,English,,1,2015-02-02,Linh Dan Dang,,very difficult to study,,
AnkiDroid Flashcards,Google Play,com.ichi2.anki,Z3A6QU9xcFRPRnU0SDFnSWFBTzFNanViSUNxeV9vcnprYlN6VUtJUE9XV292aFBZcjRrTlpmR1QxUjEwMWVTbklIdkhjLVQweVpCQkJ2c2hOU1p4WTljYXpJ,English,,5,2015-02-01,Anand Johnson K,Mind blown,fantastic,,
AnkiDroid Flashcards,Google Play,com.ichi2.anki,Z3A6QU9xcFRPSGplcUhxTTF0YUlZMVQtOThPUUtxQkhDY1FfQkZWalBmQWxnV1hGTWFqNldVWURTcExoblM5eDY4bHZNaGVfWDlvVThvc19ONEwtd1lRQkhr,English,,5,2015-02-01,M Nizam,Amazing app,i use this all the time,,
AnkiDroid Flashcards,Google Play,com.ichi2.anki,Z3A6QU9xcFRPSGplcUhxTTF0YUlZMVQtOThPUUtxQkhDY1FfQkZWalBmQWxnV1hGTWFqNldVWURTcExoblM5eDY4bHZNaGVfWDlvVThvc19ONEwtd1lRQkhr,English,,5,2015-02-01,M Nizam,Amazing app,thank you,,
AnkiDroid Flashcards,Google Play,com.ichi2.anki,Z3A6QU9xcFRPRlRoblVQM2tHOEFBMEdKaXVaVEhvcm1lclpNVTFRMzZidGtoRVFHNk84ZzBPaWFxQlRuYXRNa0RTZ3ByRGpCWVhaQnRVQnNLWWk0MkdlOVJj,English,,2,2015-02-01,Salomón Sfeir,Best Flashcards App Ever!!,but i have one problem with it playback,,
AnkiDroid Flashcards,Google Play,com.ichi2.anki,Z3A6QU9xcFRPRlRoblVQM2tHOEFBMEdKaXVaVEhvcm1lclpNVTFRMzZidGtoRVFHNk84ZzBPaWFxQlRuYXRNa0RTZ3ByRGpCWVhaQnRVQnNLWWk0MkdlOVJj,English,,2,2015-02-01,Salomón Sfeir,Best Flashcards App Ever!!,please fix this issue asap,,
AnkiDroid Flashcards,Google Play,com.ichi2.anki,Z3A6QU9xcFRPR3pXS2hOQnhNY01ST1pPMExuMk9aSmx1Y3dtQ0VJUjNKdFBmQzNQV3B5Wm0zcXVHSlpkUlRCQzczVVIyRUxsa1NhUllyWXhTMUwyMWxoQmJV,English,,5,2015-02-01,Jada Tyler,Great app,i use to memorize many different language and i also use it to study for school,,
AnkiDroid Flashcards,Google Play,com.ichi2.anki,Z3A6QU9xcFRPR3pXS2hOQnhNY01ST1pPMExuMk9aSmx1Y3dtQ0VJUjNKdFBmQzNQV3B5Wm0zcXVHSlpkUlRCQzczVVIyRUxsa1NhUllyWXhTMUwyMWxoQmJV,English,,5,2015-02-01,Jada Tyler,Great app,i recommend it for anyone this is one of the best studying,,
AnkiDroid Flashcards,Google Play,com.ichi2.anki,Z3A6QU9xcFRPRkN2RXFXeS11TEhCbDV1UzdtZnRlZkVPSEh3UXNrbTRBSXUya2pzMmJncndHeV9YSWQwWTRmdjVoU0o0blVfUVBTMjJUNjVBNXl4eUZxUTI0,English,,4,2015-02-01,Li Hong,Pretty good,i usually do so this is a little different i study,,
AnkiDroid Flashcards,Google Play,com.ichi2.anki,Z3A6QU9xcFRPRkN2RXFXeS11TEhCbDV1UzdtZnRlZkVPSEh3UXNrbTRBSXUya2pzMmJncndHeV9YSWQwWTRmdjVoU0o0blVfUVBTMjJUNjVBNXl4eUZxUTI0,English,,4,2015-02-01,Li Hong,Pretty good,but i would say you guy should have a preview function on the note screen,,
AnkiDroid Flashcards,Google Play,com.ichi2.anki,Z3A6QU9xcFRPRkN2RXFXeS11TEhCbDV1UzdtZnRlZkVPSEh3UXNrbTRBSXUya2pzMmJncndHeV9YSWQwWTRmdjVoU0o0blVfUVBTMjJUNjVBNXl4eUZxUTI0,English,,4,2015-02-01,Li Hong,Pretty good,it a trying to go back out to the deck then saying preview for each card,,
AnkiDroid Flashcards,Google Play,com.ichi2.anki,Z3A6QU9xcFRPRWtHWFBXbjRlMXd3SnJNQVNXSEF6VE8td2FfN3U5NmZ1NlFWYWVHdVRhc1RpZDJvN0s0TlRKVmRrcUlwUF9MalRkNUQ1QlBjTkJIcjlJc0dJ,English,,5,2015-02-01,Carlos Valder,Useful!,useful if you want to improve any language or just to learn something,,
AnkiDroid Flashcards,Google Play,com.ichi2.anki,Z3A6QU9xcFRPSEZqeEo5M1lNZzhlMG1GdDVXbGdWNzJIRTBjcmMtWmlxOTl0OTl5TU54LUM2bWNGR3Nsbm54alBnc3prYlRQUmJfNU9ubHJGV3FXNE1OMTRB,English,,5,2015-02-01,Саня Каток,Best of the best,,,
AnkiDroid Flashcards,Google Play,com.ichi2.anki,Z3A6QU9xcFRPSGV3LXJFdFFTSUoweWhwa1dxN3JucktwTWxldm5iRnRSeWg0d0lkSkMzUHVVOGZyWkt1OFd0VzBjV2VqeDM2VHFHWnB1ZGxQeFJILXpDQWVJ,English,,5,2015-01-31,Kgomotso Mohulatsi,,best ever,,
AnkiDroid Flashcards,Google Play,com.ichi2.anki,Z3A6QU9xcFRPSFB0WWdVaG1RSC1YYUVnRHc3amhSZVpkVXA0T3FiSGtjOUtybXhzd2lUbVNWQUxQNmtNYlFteFBZWFI5QldaTkR2SlJScVlsMVU4SUUtS3RZ,English,,5,2015-01-30,Chien Le,,really,,
AnkiDroid Flashcards,Google Play,com.ichi2.anki,Z3A6QU9xcFRPSFB0WWdVaG1RSC1YYUVnRHc3amhSZVpkVXA0T3FiSGtjOUtybXhzd2lUbVNWQUxQNmtNYlFteFBZWFI5QldaTkR2SlJScVlsMVU4SUUtS3RZ,English,,5,2015-01-30,Chien Le,,thanks a lot,,
AnkiDroid Flashcards,Google Play,com.ichi2.anki,Z3A6QU9xcFRPR3JlMWFkclFlM1p0S2FSRU0tRmxkSi04Nmt6WlpiejJPdFk3WnhzWW5qMDRTTXdMM0s3RDMzY1BkeE5HcC0xT21LcUZacVU3XzdFaWVzR1BN,English,,5,2015-01-30,Greg Ihnen,This is THE study app.,there are lot of ready made deck you can grab and use but this really shine you import your own data from file,,
AnkiDroid Flashcards,Google Play,com.ichi2.anki,Z3A6QU9xcFRPR3JlMWFkclFlM1p0S2FSRU0tRmxkSi04Nmt6WlpiejJPdFk3WnhzWW5qMDRTTXdMM0s3RDMzY1BkeE5HcC0xT21LcUZacVU3XzdFaWVzR1BN,English,,5,2015-01-30,Greg Ihnen,This is THE study app.,the user interface is great and there are ton of feature,,
AnkiDroid Flashcards,Google Play,com.ichi2.anki,Z3A6QU9xcFRPR3JlMWFkclFlM1p0S2FSRU0tRmxkSi04Nmt6WlpiejJPdFk3WnhzWW5qMDRTTXdMM0s3RDMzY1BkeE5HcC0xT21LcUZacVU3XzdFaWVzR1BN,English,,5,2015-01-30,Greg Ihnen,This is THE study app.,it syncs between device and platform,,
AnkiDroid Flashcards,Google Play,com.ichi2.anki,Z3A6QU9xcFRPR3JlMWFkclFlM1p0S2FSRU0tRmxkSi04Nmt6WlpiejJPdFk3WnhzWW5qMDRTTXdMM0s3RDMzY1BkeE5HcC0xT21LcUZacVU3XzdFaWVzR1BN,English,,5,2015-01-30,Greg Ihnen,This is THE study app.,the developer is excellent and very actively debugs and improves the,,
AnkiDroid Flashcards,Google Play,com.ichi2.anki,Z3A6QU9xcFRPRk9DTlFTbUJsczhuamNFOFh3NWZuWTU1Z2F6NTBPT3dwTnF0TlBvM3gxTU9aR21naEtMLWJRQnRoblF4b1BWYUZXb1gwRDVNZmRsRTFNcXlV,English,,5,2015-01-30,Aurelia Pagano,Study everywhere!,awesome,,
AnkiDroid Flashcards,Google Play,com.ichi2.anki,Z3A6QU9xcFRPRk9DTlFTbUJsczhuamNFOFh3NWZuWTU1Z2F6NTBPT3dwTnF0TlBvM3gxTU9aR21naEtMLWJRQnRoblF4b1BWYUZXb1gwRDVNZmRsRTFNcXlV,English,,5,2015-01-30,Aurelia Pagano,Study everywhere!,thanks,,
AnkiDroid Flashcards,Google Play,com.ichi2.anki,Z3A6QU9xcFRPR3dLQnpPbmFlY01scmZhSTBwMFJvUkVMRXFuVVprdDJKcXZYekFhQlNYWlVBVVpOMjJ2TDVJRm95Vmk1aF9QWURaQ1hSM1VOczdIU0I1NW5J,English,,5,2015-01-30,Jeffrey Baitis,Works perfectly now on my Android Gingerbread device,if i had to choose one application i cannot live this would be it,,
AnkiDroid Flashcards,Google Play,com.ichi2.anki,Z3A6QU9xcFRPR3dLQnpPbmFlY01scmZhSTBwMFJvUkVMRXFuVVprdDJKcXZYekFhQlNYWlVBVVpOMjJ2TDVJRm95Vmk1aF9QWURaQ1hSM1VOczdIU0I1NW5J,English,,5,2015-01-30,Jeffrey Baitis,Works perfectly now on my Android Gingerbread device,the latest update to 2 make zooming in and out of image on my android gingerbread no problem,,
AnkiDroid Flashcards,Google Play,com.ichi2.anki,Z3A6QU9xcFRPR3dLQnpPbmFlY01scmZhSTBwMFJvUkVMRXFuVVprdDJKcXZYekFhQlNYWlVBVVpOMjJ2TDVJRm95Vmk1aF9QWURaQ1hSM1VOczdIU0I1NW5J,English,,5,2015-01-30,Jeffrey Baitis,Works perfectly now on my Android Gingerbread device,i can buy a 20 old android phone is about the size of a single flash install this and learn anything,,
AnkiDroid Flashcards,Google Play,com.ichi2.anki,Z3A6QU9xcFRPR3dLQnpPbmFlY01scmZhSTBwMFJvUkVMRXFuVVprdDJKcXZYekFhQlNYWlVBVVpOMjJ2TDVJRm95Vmk1aF9QWURaQ1hSM1VOczdIU0I1NW5J,English,,5,2015-01-30,Jeffrey Baitis,Works perfectly now on my Android Gingerbread device,i encourage folk to contribute to this awesome project,,
AnkiDroid Flashcards,Google Play,com.ichi2.anki,Z3A6QU9xcFRPSEVxTTRGb0FIYkFRZHJTcTJjNDNRZ0pCN0M3by1VNW9LQ2dEcHBDajhkM1RBY1NjXzRhQWJ4U3hOQmwwSGJVdmYwTlFpdVhCZjVuVl96SEVF,English,,2,2015-01-30,Sugane Kazuhiko,Doesn't open,close immediately clicking,,
AnkiDroid Flashcards,Google Play,com.ichi2.anki,Z3A6QU9xcFRPSEVxTTRGb0FIYkFRZHJTcTJjNDNRZ0pCN0M3by1VNW9LQ2dEcHBDajhkM1RBY1NjXzRhQWJ4U3hOQmwwSGJVdmYwTlFpdVhCZjVuVl96SEVF,English,,2,2015-01-30,Sugane Kazuhiko,Doesn't open,say encountered a problem,,
AnkiDroid Flashcards,Google Play,com.ichi2.anki,Z3A6QU9xcFRPSEVxTTRGb0FIYkFRZHJTcTJjNDNRZ0pCN0M3by1VNW9LQ2dEcHBDajhkM1RBY1NjXzRhQWJ4U3hOQmwwSGJVdmYwTlFpdVhCZjVuVl96SEVF,English,,2,2015-01-30,Sugane Kazuhiko,Doesn't open,please fix this,,
AnkiDroid Flashcards,Google Play,com.ichi2.anki,Z3A6QU9xcFRPSEVxTTRGb0FIYkFRZHJTcTJjNDNRZ0pCN0M3by1VNW9LQ2dEcHBDajhkM1RBY1NjXzRhQWJ4U3hOQmwwSGJVdmYwTlFpdVhCZjVuVl96SEVF,English,,2,2015-01-30,Sugane Kazuhiko,Doesn't open,i really need to review,,
AnkiDroid Flashcards,Google Play,com.ichi2.anki,Z3A6QU9xcFRPR3RvUFBhMUZ1NHdkYkV6Sm5ON0hjdklFb2hESS03aU1XYkFXV0NkWHlaazdBNEZ1Q0FZa1R0TXFnSjFyZ1hjRTNjZTZIQTdIeGxsWWt3M2JZ,English,,5,2015-01-30,Quy Nguyen,Totally love,i think it is the best flashcard,,
AnkiDroid Flashcards,Google Play,com.ichi2.anki,Z3A6QU9xcFRPRnVIRmg0SlU1LU1TWWppR1hSZDR5RmduUkU3ZXZVMVFtQTU0YVlZU25tSE5wSmgtVFhxSE9nMXZaY3ZDMmlGb2NoWVBHYmpwWVA2RlJKVWUw,English,,5,2015-01-30,Joseph Gericke,Something important is missing!,i love this but i really miss a feature of real flashcard there should be an option to reverse a deck so it give you the back and then the front,,
AnkiDroid Flashcards,Google Play,com.ichi2.anki,Z3A6QU9xcFRPRnVIRmg0SlU1LU1TWWppR1hSZDR5RmduUkU3ZXZVMVFtQTU0YVlZU25tSE5wSmgtVFhxSE9nMXZaY3ZDMmlGb2NoWVBHYmpwWVA2RlJKVWUw,English,,5,2015-01-30,Joseph Gericke,Something important is missing!,this would be very useful for anybody learning a language you also have to come up with the foreign word and not just translate it,,
AnkiDroid Flashcards,Google Play,com.ichi2.anki,Z3A6QU9xcFRPRnVIRmg0SlU1LU1TWWppR1hSZDR5RmduUkU3ZXZVMVFtQTU0YVlZU25tSE5wSmgtVFhxSE9nMXZaY3ZDMmlGb2NoWVBHYmpwWVA2RlJKVWUw,English,,5,2015-01-30,Joseph Gericke,Something important is missing!,i really need this other wise everything else is awesome,,
AnkiDroid Flashcards,Google Play,com.ichi2.anki,Z3A6QU9xcFRPRnVIRmg0SlU1LU1TWWppR1hSZDR5RmduUkU3ZXZVMVFtQTU0YVlZU25tSE5wSmgtVFhxSE9nMXZaY3ZDMmlGb2NoWVBHYmpwWVA2RlJKVWUw,English,,5,2015-01-30,Joseph Gericke,Something important is missing!,great,,
AnkiDroid Flashcards,Google Play,com.ichi2.anki,Z3A6QU9xcFRPRnVIRmg0SlU1LU1TWWppR1hSZDR5RmduUkU3ZXZVMVFtQTU0YVlZU25tSE5wSmgtVFhxSE9nMXZaY3ZDMmlGb2NoWVBHYmpwWVA2RlJKVWUw,English,,5,2015-01-30,Joseph Gericke,Something important is missing!,thanks,,
AnkiDroid Flashcards,Google Play,com.ichi2.anki,Z3A6QU9xcFRPRnVIRmg0SlU1LU1TWWppR1hSZDR5RmduUkU3ZXZVMVFtQTU0YVlZU25tSE5wSmgtVFhxSE9nMXZaY3ZDMmlGb2NoWVBHYmpwWVA2RlJKVWUw,English,,5,2015-01-30,Joseph Gericke,Something important is missing!,seems like a lot of would be you could just flip a deck,,
AnkiDroid Flashcards,Google Play,com.ichi2.anki,Z3A6QU9xcFRPRy01UEhxcjJGY2pPSHlDb3V2aHRQMzVfVG10dklBbGZXVE1zSy04U19uWlJ4ellxc29yRV9qc2FTQ1lTd1lTaG9NSVFZZUN1Z01EN3hrSDFJ,English,,5,2015-01-30,Benjamin Tan,,excellent for learning anything,,
AnkiDroid Flashcards,Google Play,com.ichi2.anki,Z3A6QU9xcFRPR3h4ZmZZeE9Sa0M0UExLa1JUYjlqeVAzZnozdDJtRTJHelk1a3MwTmdFVF93VzREXy1fZl9NSjJHMkhKYU9RTktXSUU5WU9jX0p3cGE5NFhv,English,,5,2015-01-29,Rahil Abbas,Perfect flash card app!,ha it all,,
AnkiDroid Flashcards,Google Play,com.ichi2.anki,Z3A6QU9xcFRPR3h4ZmZZeE9Sa0M0UExLa1JUYjlqeVAzZnozdDJtRTJHelk1a3MwTmdFVF93VzREXy1fZl9NSjJHMkhKYU9RTktXSUU5WU9jX0p3cGE5NFhv,English,,5,2015-01-29,Rahil Abbas,Perfect flash card app!,great to learn pretty much anything you want,,
AnkiDroid Flashcards,Google Play,com.ichi2.anki,Z3A6QU9xcFRPR3h4ZmZZeE9Sa0M0UExLa1JUYjlqeVAzZnozdDJtRTJHelk1a3MwTmdFVF93VzREXy1fZl9NSjJHMkhKYU9RTktXSUU5WU9jX0p3cGE5NFhv,English,,5,2015-01-29,Rahil Abbas,Perfect flash card app!,great job guy,,
AnkiDroid Flashcards,Google Play,com.ichi2.anki,Z3A6QU9xcFRPSDVBUHhpWGJXVDlrSGNaeEVzVUlmbHJvQ0xLMjVrRXA2bERMVTFlS1c4ZWIzck8tS1FvRUVnT3Q5MDc3bGI5bk5DeUFiUmY4dVRiNGIwREVj,English,,5,2015-01-29,Charles Jiang,,help me a lot,,
AnkiDroid Flashcards,Google Play,com.ichi2.anki,Z3A6QU9xcFRPSHp2WFlkUXU0NGRWdTFueVZKRldqdEZ1ejltSE15NDVmejAxbGJwN0dXQlFDeHpUeDZCLXhibGc5ZkNiUlE4a0swMnExc1UwbTRsSnRvcjRR,English,,3,2015-01-29,erich rieder,Reverse geht doch..,manual,,
AnkiDroid Flashcards,Google Play,com.ichi2.anki,Z3A6QU9xcFRPSEpCem16WENmeUc3MmJoZ2VxQUdSU2ZCazhYQzEtMGU5OTV4bjM3ZDFMeC0zSkh6ZlFyT1M5alNreEI1U0M0S2hOaDlfUzlVSkt5Q0NOSjBr,English,,1,2015-01-29,Chee Yong Pek,,the latest version crash on me,,
AnkiDroid Flashcards,Google Play,com.ichi2.anki,Z3A6QU9xcFRPSFdYLWpxYUxzYURDRTlxMzRqLWRYNDdNeklfSlBCUEtla2IzR3RJWEJNaTd2ZDRuWGluUUl3ei05WlRjdnFURjFEd2tIRmU0OW1wbkV2bVU0,English,,5,2015-01-29,Nicholas La Roux,Perfect,perfect android implementation of,,
AnkiDroid Flashcards,Google Play,com.ichi2.anki,Z3A6QU9xcFRPR1VUc2VkNG1fM1RtYVRIUVdGQVlRR2ZMMGlxeS15a0ZhZWVtajd4OWgtdFk0WVJneUVWMC1YdHBKTXlaTGg4UjhFQkhzYW9NVUotcmhzbFBF,English,,5,2015-01-29,Christopher LeMeilleur,From a recommendation,this is a fantastic product,,
AnkiDroid Flashcards,Google Play,com.ichi2.anki,Z3A6QU9xcFRPR1VUc2VkNG1fM1RtYVRIUVdGQVlRR2ZMMGlxeS15a0ZhZWVtajd4OWgtdFk0WVJneUVWMC1YdHBKTXlaTGg4UjhFQkhzYW9NVUotcmhzbFBF,English,,5,2015-01-29,Christopher LeMeilleur,From a recommendation,good job guy,,
AnkiDroid Flashcards,Google Play,com.ichi2.anki,Z3A6QU9xcFRPR1VUc2VkNG1fM1RtYVRIUVdGQVlRR2ZMMGlxeS15a0ZhZWVtajd4OWgtdFk0WVJneUVWMC1YdHBKTXlaTGg4UjhFQkhzYW9NVUotcmhzbFBF,English,,5,2015-01-29,Christopher LeMeilleur,From a recommendation,thank you,,
AnkiDroid Flashcards,Google Play,com.ichi2.anki,Z3A6QU9xcFRPSGhBLXlLZWhxMTJxcENUc3lXTmZLS3RyOVdkbnJyeEk0el9GS0taaXozcTNkNnhtTkU3YVhSVXFXaTJKNUFBeDhDNWo5dFBzWm5UM2pLZ0lF,English,,5,2015-01-29,Ali msi,,love it,,
AnkiDroid Flashcards,Google Play,com.ichi2.anki,Z3A6QU9xcFRPRkx1dzIxTnZZYmF1UUt2N2NkOV9iT3hPU0RkM3BVbms1QnJrajRYTEItcWxMZDY3VzFScWk5TmtxQkFlcHNFRmp6LVhxV2dvQ0Z5UExQcVdN,English,,5,2015-01-29,Marco Castellanos,"Great app, I love it. Thank you.",a very useful,,
AnkiDroid Flashcards,Google Play,com.ichi2.anki,Z3A6QU9xcFRPRXI1YUsyMnFVa3cyV1NTRlM4MkQtYmZtUDBwRUhabjZzdTZJdUh6dXJ0QkFkYXRmZHZpeWdlZ2dkWGtZSnVkWDZ2R2VCLWg5WUFENmI5UW9R,English,,4,2015-01-29,Parvaneh Hariri,,useful,,
AnkiDroid Flashcards,Google Play,com.ichi2.anki,Z3A6QU9xcFRPRmRLRVNWdFJkb21qWWxlMTRvbWM5LWVwdkpiRE9qd0ZER3lpVUFLeWdXMEJHeUo3ZnExVDFuc0tvRVFtMDYzR3g3RE52SXNxMWRaSlBPaElz,English,,5,2015-01-29,Bernard Gintner,Life Changer,i bought my just so i could use this,,
