loving it,o,2015-12-19,Ahmad M,5
a work in progress,o,2015-12-19,K,4
,o,2015-12-18,Connor R,5
best on android fast and great,b,2015-12-18,Clinton Maher,5
can you please add an option for in vibration,f,2015-12-18,Clinton Maher,5
and also an option for a sent message sound,f,2015-12-18,Clinton Maher,5
mid sentence,b,2015-12-17,Rich Morris,1
other that u love this,o,2015-12-17,Rich Morris,1
please fix that,b,2015-12-17,Rich Morris,1
decent,b,2015-12-17,Chelsey Ovo,5
love every idea out into it,o,2015-12-17,Chelsey Ovo,5
i like to see time stamp on each message sent within a conversation like some other and speed improvement,b,2015-12-17,Eddie Torres,4
would make it 5 star for me,o,2015-12-17,Eddie Torres,4
very nice,o,2015-12-17,Kaivalya Sakalgaonkar,5
thanks,o,2015-12-17,Kaivalya Sakalgaonkar,5
nice looking but it crash all of the time,b,2015-12-16,Justin Frost,3
even running in the background,b,2015-12-16,Justin Frost,3
best i have ever tried,b,2015-12-16,Kat Noel,5
would love to see message classification,o,2015-12-16,Naiyer Asif,4
category,f,2015-12-16,Naiyer Asif,4
excellent blend in perfectly with lollipop very stable on my,o,2015-12-16,Mark Gibbons,5
it,o,2015-12-16,Roca Vlad,4
navigation tint not working,o,2015-12-15,kathryn araniador,2
