please fix,b,2014-12-03,ZIPLO,3
it all good but not totally yet,o,2014-12-03,Harsh Modi,3
and searching is worst and must to better you checkout cm file manager and add it functionality to i can bet your will rock,b,2014-12-03,Harsh Modi,3
thanks for reading,o,2014-12-03,Harsh Modi,3
is but need support and download manager,b,2014-12-03,Sumeet Jain,4
very beautiful design,o,2014-12-03,Casey Nguyen,5
ha all the feature a power user need,b,2014-12-03,Casey Nguyen,5
the first to replace total commander in my list,b,2014-12-03,Casey Nguyen,5
only thing i wish is you could swipe between tab,b,2014-12-03,Marc Grondin,4
other that this might just become my default,b,2014-12-03,Marc Grondin,4
bookmark manager,b,2014-12-03,Christian Holm Christensen,3
bookmark should be displayed in slider,f,2014-12-03,Christian Holm Christensen,3
perhaps grouped by type cloud integration remote access,b,2014-12-03,Christian Holm Christensen,3
breadcrumb are big and could be better displayed perhaps in action bar directly,b,2014-12-03,Christian Holm Christensen,3
you should give link to source the actually mandate that,b,2014-12-03,Christian Holm Christensen,3
the best material file manager in the store,b,2014-12-03,Rick Baird,5
kudos to the,o,2014-12-03,Rick Baird,5
i am rooted,o,2014-12-02,Jeff Andrews,4
the thumb drive is blinking red it is powered,o,2014-12-02,Jeff Andrews,4
nexus edit found storage listed under my internal memory,b,2014-12-02,Jeff Andrews,4
cheer,o,2014-12-02,Jeff Andrews,4
good,o,2014-12-01,aravind jeeva,5
just install and i like the design,b,2014-12-01,Pedro Guerrero,4
have root explorer and everything,b,2014-12-01,Pedro Guerrero,4
5 star further exploration,f,2014-12-01,Pedro Guerrero,4
lightweight and highly functional,b,2014-12-01,Kelvin Seah,4
oh no advert too,o,2014-12-01,Kelvin Seah,4
love it,o,2014-12-01,Kelvin Seah,4
not up to the stuck every time and crash frequently,b,2014-11-30,Ashutosh Mishra,1
even copy paste or cut paste not lost some file during cut and paste,b,2014-11-30,Ashutosh Mishra,1
crash from internal storage to,b,2014-11-30,Prithvi Chibber,4
one of the finest for file management all other of this category from my phone,f,2014-11-30,Anthony Lawrence,5
good job the take le space,o,2014-11-28,Rishab Negi,5
one showing external and one internal and you can seamlessly transfer copy and paste file,b,2014-11-28,Shawn McCall,4
you have root and can do what solid explore doe it will remain number one in the play store,o,2014-11-28,Shawn McCall,4
but your just an average phone user this is just for you,b,2014-11-28,Shawn McCall,4
need to be able to change permission well,b,2014-11-28,Shawn McCall,4
include view picture file grouped together,b,2014-11-28,Lokesh Choudhary,5
the letter come out in question mark in diamond,b,2014-11-27,Binky Chua,4
very effective and easy to use,o,2014-11-27,Michael Ehling,5
the material design look pretty neat and the is pretty responsive,b,2014-11-27,Gaurav Jain,4
pretty great,o,2014-11-26,Trevon Crawford,4
maybe after the next update we could get little feature,f,2014-11-26,Trevon Crawford,4
also maybe a second tab for quick navigation,b,2014-11-26,Trevon Crawford,4
look great and work great,o,2014-11-25,Cy Paolino,4
love the option to set certain to be opened with certain file,o,2014-11-25,Cy Paolino,4
thing extra i would like to see is support for medium file maybe in the form of an extension or,b,2014-11-25,Cy Paolino,4
other great job,o,2014-11-25,Cy Paolino,4
love the material design,o,2014-11-25,Cy Paolino,4
amaze file manager,o,2014-11-25,Vasava Ghansyam,5
beautiful and sleek file manager with material design,o,2014-11-25,Christian Humm,5
all basic function are there and the usability is great,b,2014-11-25,Christian Humm,5
very nice fluid design will really appreciate u all could add a note viewer and editor,f,2014-11-24,Keron Jones,5
and clean,o,2014-11-24,Sriram Narayan,4
many time force close paste file need navigation bar navigation menu improvement required,b,2014-11-24,Mahesh GH,3
same go for opening enabling root explorer,b,2014-11-24,Uri Shohet,3
the toast message say cannot play file doe not exist,b,2014-11-24,Uri Shohet,3
a few requested feature,f,2014-11-23,Daniel Millard,4
add the bookmark into the slide out side menu and add a text editor can edit thing like,b,2014-11-23,Daniel Millard,4
thanks for the great file manager,b,2014-11-23,Daniel Millard,4
best material file manager,b,2014-11-23,,5
it color the top notification panel pink,f,2014-11-23,Sachin Singh,3
i want it to be not transparent,o,2014-11-23,Sachin Singh,3
rest is great,o,2014-11-23,Sachin Singh,3
modern,o,2014-11-22,Cirrus McMinor,5
i love it,o,2014-11-21,Jason Lammers,4
unable to write file to system,b,2014-11-21,,3
thank you much,o,2014-11-21,joe holzer,5
very well done,o,2014-11-21,joe holzer,5
practical and beautiful,o,2014-11-21,joe holzer,5
just one thing,o,2014-11-20,Allan Castanon,4
the icon really look material,b,2014-11-20,Allan Castanon,4
can you please change the icon with a more material design related one,b,2014-11-20,Coss Șteo,4
smooth and fast,b,2014-11-20,Marco-Dane Farrier,4
look great and is intuitive to use,o,2014-11-20,Michael Aronoff,5
root access too,b,2014-11-20,Michael Aronoff,5
a great simple file manager,b,2014-11-20,Michael Aronoff,5
love it,o,2014-11-20,Michael Aronoff,5
it nice to have a file manager using the,b,2014-11-20,sabari nath,4
but do add writing to it is the issue i have,b,2014-11-20,sabari nath,4
the is amazing,o,2014-11-20,Nikhil M,5
great feature,o,2014-11-20,Nikhil M,5
work smoothly,o,2014-11-20,Nikhil M,5
this will be my default file manager from now,b,2014-11-20,Nikhil M,5
this is great and everyone should have it,o,2014-11-20,Lee Yan Shan,4
this treat file document and automatic open it with reader,b,2014-11-20,Lee Yan Shan,4
i hope developer can fix this thanks,b,2014-11-20,Lee Yan Shan,4
nice just get crash at heavy process,b,2014-11-20,Bk Vaibhav Sachdeva,3
smooth and quick file manager,b,2014-11-20,Калин Димитров,4
the feature i miss is cloud integration and support for local network access,b,2014-11-20,Калин Димитров,4
fix it for 5 star,b,2014-11-20,Briliant Sun,4
i suggest moving the bookmark to the slide out navigation drawer instead for quicker switching between different folder or directory,b,2014-11-20,Kevin Tan,4
truly amazing,o,2014-11-20,Salman Ahmad,5
can we get an option to sort by file type,b,2014-11-19,Dylan Harris,3
material design root access great,b,2014-11-19,Keven Gélinas,4
look awesome and easy to use,o,2014-11-19,San Shres,5
can u please add some animation like those in keep,f,2014-11-19,guneet sharma,5
opening and closing some folder we get animation starting and ending at same point,b,2014-11-19,guneet sharma,5
rest everything is awesome,o,2014-11-19,guneet sharma,5
look great,o,2014-11-19,Raj Krishnan,5
look thing missing is zip file support,b,2014-11-19,Sasa Novak,5
keep up the good work,o,2014-11-19,Sasa Novak,5
add this option,f,2014-11-19,ilya Tsuprun,4
very nice,o,2014-11-19,ilya Tsuprun,4
,o,2014-11-19,ilya Tsuprun,4
material design make organizing file fun,o,2014-11-19,Saini Mustapizza,4
,o,2014-11-19,Saini Mustapizza,4
kindly add thumbnail option for music and video,b,2014-11-19,Harumraj Kannan,5
the material design,o,2014-11-18,,5
time to add some functionality like zoom and a couple of other feature,f,2014-11-18,,5
no card support yet but look good,b,2014-11-18,Kevin Kitchen,4
stop,b,2014-11-18,Lisa Kulp,2
hope next update fix this,b,2014-11-18,Lisa Kulp,2
great,o,2014-11-18,Mike Ward,5
looking forward to the update look like made it for keep up the great work,b,2014-11-18,Rafael Diaz,5
very sleek,o,2014-11-18,Arvindraj Thangaraj,5
stylish and simple,o,2014-11-18,Arvindraj Thangaraj,5
very nice,o,2014-11-18,Anbarasi Thangaraj,5
finally a file browser which work great and look good,b,2014-11-18,Iván Pondal,5
root mode,b,2014-11-18,Emilio Cabrera,3
love it,o,2014-11-18,Arnav Gosain,5
perfect material design,o,2014-11-17,Vesper Hao Long,5
light and beautiful,o,2014-11-17,Kike Martinez Bernet,5
easily the most beautiful file manager which doe the job well,o,2014-11-17,Dev E Das,5
work flawless on lollipop,f,2014-11-17,Amit Maheshwari,5
lacking some b c functionality such a the ability to sort by type of file,b,2014-11-17,Chas Rivers,2
all the simple feature needed,o,2014-11-17,Guillaume Lagacé,5
the design is absolutely gorgeous,o,2014-11-17,Cody Singer,4
i want to use this my main file but it need some added feature such a text zip and functionality need to be fully implemented,b,2014-11-17,Cody Singer,4
and maybe a material design icon,b,2014-11-17,Cody Singer,4
thanks keep it up,o,2014-11-17,Cody Singer,4
best interface,o,2014-11-17,RaDHeshYAm sHarMa,4
awesome just need option to open zip file,o,2014-11-17,De Jan,5
zip viewer and fast scroll handle,b,2014-11-17,Mohit Arora,5
otherwise it is sweet,o,2014-11-17,Mohit Arora,5
i love this manager,b,2014-11-17,,5
perfect combination of form and function,f,2014-11-17,,5
great easy on the eye and easy to navigate,o,2014-11-17,Dale Flintall,4
i have one no editor,o,2014-11-17,Dale Flintall,4
i wa attempting to make a edit to but noticed no editor,b,2014-11-17,Dale Flintall,4
i opened with e note and made the but would be my only complaint,b,2014-11-17,Dale Flintall,4
other excellent,o,2014-11-17,Dale Flintall,4
loving it,o,2014-11-17,anuj yadav,5
pretty nice and stable for but you should include a share option,o,2014-11-17,Kaivalya Shah,4
4 for now though,b,2014-11-17,Kevs Estrella,4
look good,o,2014-11-17,Kevs Estrella,4
this is common in virtually every file manager,b,2014-11-17,Josh Bollman,4
is,o,2014-11-17,Shahmir Khan,5
need some more advanced,o,2014-11-17,Jiří Šumbera,4
calculate sum or ability to freeze,b,2014-11-17,Jiří Šumbera,4
excellent design and easy navigation,o,2014-11-17,mz k,5
few thing would make it complete like built in extraction of file,b,2014-11-17,mz k,5
this file manager is quickly becoming my favorite good work,b,2014-11-16,Erlend Holth-Isaksen,5
it good to see the file manager complimenting the lollipop style,f,2014-11-16,Kishore Kumaran S,4
still waiting for more feature,f,2014-11-16,Kishore Kumaran S,4
please update icon to something great work,b,2014-11-16,Abhishek Tripathi,5
functional,b,2014-11-16,Stevan Stevanovic,5
love it,o,2014-11-16,Stevan Stevanovic,5
just one scrolling the should hide thereby making aesthetic more towards material philosophy,f,2014-11-16,Hardik Nagar,5
best material design file manager,b,2014-11-16,chirag gawde,5
i wa having some issue with my cm file manager,b,2014-11-16,,5
i wa searching high and i found this in an post,b,2014-11-16,,5
thank you,o,2014-11-16,,5
i find this and i could this is the best i even found in a file manager,b,2014-11-16,Aegis Nova,5
need zip functionality tho,b,2014-11-16,Ahsan Khan,4
can you guy add split view make some multitasking easier,f,2014-11-16,David Cuevas,4
only problem i have is no short cut or i can put a file directly on my home screen and go straight to it,b,2014-11-16,Jason John,4
exactly what i need to manage all of my file,o,2014-11-16,joey bond,4
missing the ability to move file and folder,b,2014-11-16,joey bond,4
attracts people,b,2014-11-16,Adarsh P. S.,5
i love the look of this file explorer,o,2014-11-16,CJ Poffenberger,4
would love to see a text editor and possibly a zip peak ability without having to extract it completely,b,2014-11-16,CJ Poffenberger,4
fantastic start for a great,o,2014-11-16,CJ Poffenberger,4
it not a advanced a still is,o,2014-11-16,leoanshuman,5
great start but need more,b,2014-11-16,Uzair Farooqui,3
cloud access,b,2014-11-16,Uzair Farooqui,3
zip viewer and extractor,b,2014-11-16,Uzair Farooqui,3
one suggestion though,f,2014-11-16,Andras LOHF,4
please put the bookmark in the quick slide out panel on the left and put the bookmark manager in the menu,b,2014-11-16,Andras LOHF,4
loved improving it,o,2014-11-16,ramu bhat,5
i like it a lot,o,2014-11-16,Nick Letsom,4
my only gripe is it would be nice if bookmark showed in the hamburger menu,b,2014-11-16,Nick Letsom,4
it kind of weird it just show a link to what look like an unfinished or unpolished bookmark list,b,2014-11-16,Nick Letsom,4
one suggestion would be adding the text editor of it own,f,2014-11-16,Tanishque Italia,4
keep it up,o,2014-11-16,Tanishque Italia,4
amazed like nice new root browser with theme something between others file like this on first to developer,b,2014-11-16,Mecho Mechoka,5
this is a fantastic basic file manager,b,2014-11-16,Justin Hall,4
most of u looking for a file manager need more,b,2014-11-16,Justin Hall,4
e it is,b,2014-11-16,Justin Hall,4
found this on the feed,b,2014-11-16,Frank Katzenberger,4
5 star first impression,o,2014-11-16,josh fraser,5
i will edit if change,b,2014-11-16,josh fraser,5
good work,o,2014-11-16,josh fraser,5
really and may ditch re more update come,f,2014-11-16,Adam Lucas,4
nice work far tho,o,2014-11-16,Adam Lucas,4
one request ability to move file and move multiple file at once,f,2014-11-16,Adam Lucas,4
no ability to move file at drive me away from many file manager,b,2014-11-16,Adam Lucas,4
like it far tho,o,2014-11-16,Adam Lucas,4
nice looking can you add support then it be perfect,o,2014-11-16,Andrew Pym,4
awesome,o,2014-11-16,Paul Brewer,5
well done,o,2014-11-16,Paul Brewer,5
tried renaming root granted toast message say rename but it failed to rename it,b,2014-11-16,Brian C,4
really like how is laid out,o,2014-11-16,Cookie Hunter,4
look good,o,2014-11-16,Joshua Moroni Gathercole,5
only complaint is showing permission it make folder look a mess,b,2014-11-16,Joshua Moroni Gathercole,5
too many theming an manager this is one of those which try to be too much,b,2014-11-16,Oliver Lienhard,2
it would better be a useful root explorer but nothing more,b,2014-11-16,Oliver Lienhard,2
awesome with the material design language,f,2014-11-16,Emil Arke,5
this file explorer ha lollipop theme and root,f,2014-11-16,Razgriz Finnix,5
and solid explorer,o,2014-11-16,Razgriz Finnix,5
very good nice and no extra bloat or permission good start,b,2014-11-16,Sakuraba,4
however,o,2014-11-16,Sakuraba,4
please make the header smaller,b,2014-11-16,Sakuraba,4
please make clearer,f,2014-11-16,Sakuraba,4
finally you added very lightweight and simple image simple doc drive upload then it would be very powerful a well see file manager for idea,b,2014-11-16,Sakuraba,4
best out there,o,2014-11-16,A Dz,5
look like the developer is working hard to make this a nice all around file manager,b,2014-11-16,Paul Ravenstone,4
still need some work for but it coming along really nicely,b,2014-11-16,Paul Ravenstone,4
going to keep this installed to see it go,b,2014-11-16,Paul Ravenstone,4
good work far,o,2014-11-16,Paul Ravenstone,4
and the is just awesome,o,2014-11-16,Paul Ravenstone,4
nice,o,2014-11-16,Altan KRK,5
the is no doubt but the interface is way too simple,o,2014-11-16,Mohit Rathore,4
far so good,o,2014-11-15,Android AD!KT,5
look and feel nice work on the l design,o,2014-11-15,Android AD!KT,5
perfect far for my usage,b,2014-11-15,Daniel Jansson,5
good customization,b,2014-11-15,Daniel Jansson,5
perfect design,o,2014-11-15,Daniel Jansson,5
no issue,b,2014-11-15,Daniel Jansson,5
and mean something,b,2014-11-15,Daniel Jansson,5
nice wonderful work,o,2014-11-15,Ganesh Naik,5
,o,2014-11-15,Shimul Rashid,5
it could do with zip otherwise i love the design slick simple,o,2014-11-15,Sello Ramolelle,3
thanks,o,2014-11-15,Marius S.,5
i wa going to comment it need a better but the icon here on the play store look,b,2014-11-14,Matthew Bess,4
for some is not the icon in the and therefore not the icon that show up on my phone,b,2014-11-14,Matthew Bess,4
can we get an update with the icon included,b,2014-11-14,Matthew Bess,4
look awesome and very fluid,f,2014-11-14,Danny Dro,5
perfect for the average but your leaving u power user out in the cold with no zip support,f,2014-11-14,Danny Dro,5
either highly recommended,o,2014-11-14,Danny Dro,5
show great promise,o,2014-11-13,Andreas Brandenborg,5
the is but it need some improvement like top part might be of a lesser height,f,2014-11-12,Sachin S,5
right now i feel it cover too much of space,o,2014-11-12,Sachin S,5
2,b,2014-11-12,Sachin S,5
darker status bar,f,2014-11-12,Sachin S,5
enough said,o,2014-11-12,Andy Lin,5
hopefully fix will come soon,b,2014-11-12,Dhiraj Bar,3
simple and very nice,o,2014-11-12,Sai Shravan,5
,o,2014-11-12,Sarthak Goel,5
simple yet brilliant,o,2014-11-12,James Bennett,5
best file manager i have ever used,b,2014-11-12,Bhavya Gandhi,5
lack feature,f,2014-11-12,Carlos Abreu,4
else it perfect,o,2014-11-12,Carlos Abreu,4
