clean and simple,o,2015-03-08,Evan Gilner,5
please get another icon,b,2015-03-08,Miro Costa,5
this one is no good,o,2015-03-08,Miro Costa,5
it working without a flaw,o,2015-03-08,ANEESH TIGGA,4
just what i need,o,2015-03-08,ANEESH TIGGA,4
medium player,o,2015-03-08,Michael McD.,3
