updated,b,2015/7/29,,
minor fix,b,2015/7/29,,
amazed polish translation the best translation stuff,f,2015/7/28,,
dancer,o,2015/7/28,,
preparing for release,f,2015/7/27,,
update for language,f,2015/7/27,,
code cleanup,b,2015/7/26,,
updated,b,2015/7/24,,
added,b,2015/7/24,,
minor fix,b,2015/7/24,,
update,b,2015/7/23,,
minor string fix,b,2015/7/24,,
some fix for selection icon animation,b,2015/7/24,,
added start delay to animation,b,2015/7/24,,
added some new string,f,2015/7/23,,
fixed accent color preparing for release,f,2015/7/23,,
minor,b,2015/7/23,,
minor path handling improvement,f,2015/7/23,,
minor drawer toggle fix,b,2015/7/23,,
disabled drawer toggle animation per design guideline,b,2015/7/22,,
fixed dark theme divider and drawer,f,2015/7/22,,
minor selection fix,b,2015/7/22,,
animation fix for,b,2015/7/22,,
improved animation,f,2015/7/22,,
many change listed below 1,f,2015/7/21,,
added list animation 2,f,2015/7/21,,
improved bar 3,b,2015/7/21,,
grid can now adjust number of on it own even on rotation 4,f,2015/7/21,,
ripple background for property button 5,b,2015/7/21,,
number of file are shown now instead of used space,b,2015/7/21,,
icon added for medium,b,2015/7/19,,
added medium file shortcut and improved navigation,b,2015/7/18,,
merged and more fix,b,2015/7/16,,
update,b,2015/7/16,,
update,b,2015/7/16,,
update,b,2015/7/15,,
update,b,2015/7/15,,
improved and drawer,b,2015/7/14,,
improved drawer,b,2015/7/13,,
new,o,2015/7/12,,
updated,b,2015/7/11,,
minor improvement for,f,2015/7/10,,
reverted new button in row,f,2015/7/10,,
added hell lot of material color,f,2015/7/08,,
improvement in drawer removed useless library and code,b,2015/7/07,,
improved file handling for file,b,2015/7/07,,
improved color preference many can now package,f,2015/7/06,,
fix date in file list for root mode,b,2015/7/06,,
improved restructured class,f,2015/7/04,,
minor improvement,f,2015/7/03,,
update,b,2015/7/02,,
improved,b,2015/7/02,,
removed padding top from divider,f,2015/7/02,,
improved drawer,b,2015/7/02,,
improved file sharing,b,2015/7/02,,
faster and better file sharing,o,2015/7/01,,
update,b,2015/7/01,,
implementing,o,2015/6/30,,
fixed minor exception,o,2015/6/29,,
release 209,f,2015/6/28,,
refracted library,f,2015/6/28,,
fully working new,o,2015/6/28,,
new 1,o,2015/6/28,,
new,o,2015/6/28,,
improvement in,f,2015/6/28,,
update translation,b,2015/6/26,,
minor improvement,f,2015/6/23,,
improvement in,f,2015/6/23,,
minor improvement,f,2015/6/22,,
improved color preference,f,2015/6/21,,
fixed some memory leak,b,2015/6/21,,
update,b,2015/6/18,,
release 208 new color chooser dialog,f,2015/6/16,,
minor fix for rotation,f,2015/6/16,,
minor code cleanup,b,2015/6/16,,
fix for search for rotation change,f,2015/6/16,,
minor margin change,b,2015/6/16,,
fully fixed search,b,2015/6/16,,
improved search,b,2015/6/15,,
update,b,2015/6/16,,
improved file sharing 2,b,2015/6/15,,
improved file sharing,b,2015/6/15,,
fix for shortcut,b,2015/6/15,,
update,b,2015/6/15,,
update,b,2015/6/14,,
updated,b,2015/6/14,,
update translation,b,2015/6/14,,
minor fix to loading file status,b,2015/6/14,,
minor fix for and deletion,b,2015/6/12,,
fix for dialog,b,2015/6/12,,
minor fix,b,2015/6/12,,
release 206,f,2015/6/12,,
reverted search temporarily,b,2015/6/12,,
fixed fully added extract option in,b,2015/6/12,,
fixed and,b,2015/6/11,,
rename fixed fully,b,2015/6/11,,
fix for tab and l storage,b,2015/6/11,,
update,b,2015/6/10,,
