Topic,Words
0,0.013*scroll,0.011*beautiful,0.011*does,0.009*is,0.009*glad,0.009*fail,0.008*possible,0.008*contract,0.008*one,0.008*carrier
1,0.021*taps,0.010*good,0.010*done,0.010*intrusive,0.009*pain,0.009*comparable,0.008*that,0.008*joined,0.008*upload,0.008*once
2,0.013*sized,0.013*access,0.010*can't,0.009*soon,0.009*slower,0.008*where,0.008*data,0.008*requires,0.008*privileges,0.008*crashes
3,0.015*button,0.011*don't,0.011*poor,0.010*then,0.009*fix,0.009*some,0.009*and,0.008*getting,0.008*zero,0.008*problems
4,0.014*slider,0.013*do,0.011*has,0.010*job,0.010*443,0.010*than,0.010*times,0.009*upload,0.009*quick,0.008*making
5,0.012*nice,0.011*installed,0.010*find,0.010*worry,0.010*roll,0.010*says,0.009*guys,0.009*have,0.009*implemented,0.009*the
6,0.014*the,0.013*recognize,0.012*please,0.011*gallery,0.009*reply,0.008*and,0.008*frequent,0.008*am,0.008*post,0.008*no
7,0.012*it's,0.012*anyway,0.012*intrusive,0.011*though,0.011*very,0.010*access,0.010*easy,0.010*group,0.009*advantage,0.008*more
8,0.015*changes,0.012*updates,0.012*people's,0.010*are,0.010*maybe,0.009*though,0.009*year,0.009*do,0.009*faster,0.008*browser
9,0.013*ideal,0.012*insane,0.010*used,0.009*uploading,0.009*there,0.009*feels,0.009*stellar,0.009*quick,0.008*fail,0.008*update
10,0.013*low,0.011*having,0.010*asking,0.010*reluctant,0.009*pain,0.009*others,0.008*on,0.008*permission,0.008*downloaded,0.008*must
11,0.018*new,0.014*message,0.012*chrome,0.012*device,0.012*taps,0.011*only,0.010*clean,0.009*one,0.009*that,0.008*zoom
12,0.013*then,0.012*sight,0.012*regardless,0.010*alternative,0.009*older,0.009*play,0.008*needed,0.008*phone,0.008*combination,0.008*really
13,0.011*slider,0.011*poor,0.010*emails,0.010*nothing,0.009*nature,0.009*advantage,0.009*returns,0.009*invasive,0.009*posting,0.008*bar
14,0.028*crazy,0.013*to,0.012*ago,0.011*fewer,0.011*interested,0.010*having,0.010*once,0.009*sometimes,0.009*bringing,0.008*ability
15,0.016*item,0.012*scroll,0.010*b,0.009*beautiful,0.009*upload,0.009*almost,0.008*an,0.008*force,0.008*save,0.008*gets
16,0.013*missing,0.013*larger,0.012*30,0.011*it'll,0.011*find,0.009*play,0.009*collection,0.009*an,0.009*read,0.008*uploading
17,0.015*spaces,0.013*sidebar,0.013*because,0.012*goodbye,0.011*open,0.011*install,0.010*mention,0.010*please,0.009*crazy,0.009*dolphin
18,0.021*devices,0.010*errors,0.010*hope,0.009*since,0.009*as,0.009*close,0.008*using,0.008*able,0.008*saving,0.008*please
19,0.013*fewer,0.012*continued,0.011*type,0.010*confirmed,0.010*shame,0.010*nature,0.009*restarted,0.009*occasion,0.009*top,0.008*lower
