# deletions,date,commit message
19,2016/3/08,BUGFIX - Fix sticky list headers not working correctly  Use the listview animations support for sticky list headers The first header will now always be fixed to the top of the list New sections will appear in the list initially but will stick to the top as intended A ChangeListWrappable class was added for adapters to indicate they can handle the change list  Change-Id: Ie05b9628427adb59914f12cdd4d1334bbca6edfd
25,2016/3/07,Commit card layout tweaks  Change-Id: I90683efbc3e8444257582900da23374e4ddf0c17
148,2016/3/07,Fix menu items on change details screen  Remove unused BitmapCache class  Change-Id: I33b011979494cc6c0842c1af44f0cd5c947f7646
8,2016/3/06,Show star icon on change details  Revert previous changes for the change details commit card  Change-Id: Iac30fb07b1c3a07801b0e1ef0d4140e9dd2b924d
145,2016/3/06,Switch to full with commit cards and disable fast scroll  Re-arrange commit cards to remove the padding around them Star change is now accessible from the overflow menu  Change-Id: I56cc3ad18b9783ab1aae76675c3b1b31c456632a
3,2016/3/05,BUGFIX - Fix AfterCategory having a value initially in the refine search screen  Change-Id: Iee15b538fe9795c5086abbb6a5793c2b29c79319
42,2016/3/03,Cache images in the diff viewer using the DualCache library  Change-Id: Ie8b6aaa54e9801fe10ff763a074dd1bf764cfae0
2,2016/2/28,Release: update version to: 2.111.81
40,2016/2/28,BUGFIX - Toggle refine search card visibility rather than adding/removing  setHeaderView cannot be called after setting the adapter in Android KK and below. as a result we need to toggle the visibility of the card which will show/hide it without actually removing it. This also fixes the issue where the date was not displayed for the first item in the list.  refs #47  Change-Id: I16dfbeaaa29ef90d4e64cb9f24c636ba2c6ec2ca
