Topic,Words
0,0.017*unlike,0.013*today's,0.011*51,0.011*git,0.011*mode,0.011*too,0.010*possible,0.009*colors,0.009*find,0.009*nexus
1,0.019*new,0.016*i,0.015*icon,0.011*would,0.010*entered,0.010*search,0.009*frequency,0.009*so,0.009*0730,0.009*color
2,0.014*of,0.011*similar,0.010*photo,0.009*default,0.009*today's,0.009*correctly,0.008*happen,0.008*this,0.008*past,0.008*fix
3,0.014*using,0.012*making,0.010*thanks,0.010*additions,0.010*correctly,0.010*widget,0.010*developing,0.009*changing,0.009*an,0.009*launcher
4,0.016*mode,0.014*similar,0.013*very,0.012*calendar,0.012*location,0.011*gives,0.010*interface,0.010*correctly,0.010*please,0.009*features
5,0.018*dab,0.014*current,0.014*corrected,0.012*there,0.010*left,0.010*can't,0.010*that,0.010*show,0.010*could,0.010*somehow
6,0.019*correlating,0.012*actually,0.010*adjustable,0.010*choose,0.010*forward,0.010*transparent,0.010*converts,0.009*letting,0.009*an,0.009*1
7,0.014*i,0.012*ahead,0.011*header,0.011*adjustable,0.010*which,0.010*abstracts,0.009*nothing,0.009*missing,0.009*actually,0.009*a
8,0.017*like,0.017*scheduled,0.015*was,0.014*planner,0.013*lives,0.012*me,0.011*correlating,0.011*tablet,0.011*after,0.010*dab
9,0.019*lovely,0.013*filters,0.012*change,0.012*transparent,0.012*right,0.011*launcher,0.011*screen,0.010*launches,0.010*sent,0.009*front
10,0.015*seem,0.014*default,0.012*are,0.012*never,0.010*s,0.009*since,0.009*because,0.009*visually,0.009*log,0.009*years
11,0.021*agenda,0.016*widgets,0.013*was,0.010*replace,0.010*had,0.009*works,0.009*scrolled,0.008*and,0.008*real,0.008*nothing
12,0.016*close,0.015*ditched,0.013*not,0.011*year,0.011*additions,0.010*yeah,0.010*highlight,0.010*abstracts,0.009*scrolled,0.009*what's
13,0.013*dates,0.011*setting,0.011*1,0.010*well,0.010*up,0.009*current,0.009*could,0.009*installing,0.009*allowing,0.009*entire
14,0.020*black,0.013*simple,0.013*plain,0.012*it,0.012*because,0.012*reads,0.011*saved,0.010*keep,0.010*will,0.009*annoying
15,0.016*adjustable,0.015*draw,0.012*a,0.011*replace,0.011*perfect,0.010*best,0.010*or,0.010*sometimes,0.010*closest,0.010*after
16,0.015*loaded,0.015*disappeared,0.011*despite,0.011*not,0.010*with,0.010*photo,0.009*additions,0.009*out,0.009*and,0.009*seem
17,0.017*recommended,0.015*because,0.014*won't,0.008*suggest,0.008*compatible,0.008*are,0.008*change,0.008*first,0.008*or,0.008*gives
18,0.016*make,0.013*carry,0.013*why,0.010*me,0.009*similar,0.009*horrible,0.008*tablet,0.008*or,0.008*side,0.008*as
19,0.019*fan,0.013*minute,0.011*if,0.011*nexus,0.011*puts,0.010*smack,0.010*wish,0.010*ever,0.010*hurry,0.009*possible
