Topic,Words
0,0.016*an,0.012*block,0.011*behind,0.011*calendar,0.011*stars,0.011*while,0.010*wanted,0.009*for,0.009*won't,0.009*ago
1,0.015*tight,0.014*stars,0.013*get,0.012*my,0.011*everything,0.010*great,0.010*works,0.010*location,0.010*will,0.010*highlight
2,0.013*deleted,0.013*member,0.012*like,0.011*helpful,0.010*into,0.009*alter,0.009*love,0.009*anymore,0.009*icon,0.009*got
3,0.019*this,0.013*fix,0.012*along,0.012*no,0.011*wish,0.011*we,0.011*not,0.011*feel,0.009*new,0.009*disappointed
4,0.013*so,0.013*up,0.013*footprint,0.012*few,0.011*image,0.011*changing,0.010*dreamed,0.010*makes,0.010*had,0.009*free
5,0.016*needed,0.015*to,0.014*can,0.010*love,0.010*button,0.010*response,0.010*consider,0.009*next,0.009*tell,0.009*each
6,0.017*multiple,0.016*go,0.011*different,0.011*launcher,0.010*small,0.010*occurred,0.010*then,0.009*forfeited,0.008*prefer,0.008*me
7,0.015*until,0.012*entries,0.011*categorize,0.011*event,0.010*still,0.009*can,0.009*is,0.009*at,0.009*background,0.009*are
8,0.014*source,0.013*showing,0.012*be,0.011*matches,0.011*unnecessary,0.010*repeating,0.010*lose,0.009*fix,0.009*don't,0.009*every
9,0.015*and,0.014*could,0.012*changing,0.012*behind,0.011*including,0.011*agenda,0.010*cares,0.009*agree,0.009*other,0.009*tried
10,0.012*again,0.011*if,0.011*each,0.011*fixing,0.011*could,0.011*arrow,0.010*disappointed,0.010*which,0.010*allowed,0.010*agendas
11,0.015*helped,0.012*using,0.012*opens,0.010*straight,0.010*besides,0.010*sync,0.010*last,0.009*actual,0.009*repeating,0.009*took
12,0.011*old,0.011*stars,0.010*on,0.010*every,0.010*perfect,0.010*day,0.009*seem,0.009*highlight,0.009*down,0.009*application
13,0.018*add,0.013*page,0.012*agree,0.011*loved,0.011*bunch,0.011*update,0.010*very,0.010*rating,0.009*look,0.009*thanks
14,0.014*be,0.012*display,0.011*properly,0.011*big,0.011*aces,0.011*reach,0.010*can't,0.010*functional,0.010*annoyed,0.009*hour
15,0.015*yesterday,0.013*that,0.012*all,0.012*not,0.012*s,0.011*still,0.011*enough,0.010*could,0.010*footprint,0.009*makes
16,0.018*options,0.014*seamless,0.013*calendar,0.011*appointments,0.011*disabled,0.011*thing,0.010*option,0.010*seems,0.010*is,0.010*completely
17,0.017*frustrating,0.013*arrow,0.012*this,0.011*memory,0.011*i,0.011*want,0.009*time,0.009*tight,0.009*android,0.009*don't
18,0.018*note,0.014*took,0.010*didn't,0.009*functionality,0.009*look,0.009*twice,0.009*had,0.009*can,0.009*calendar,0.008*next
19,0.018*filter,0.014*that,0.013*why,0.013*include,0.012*down,0.012*irrelevant,0.012*next,0.011*weeks,0.011*functional,0.011*lose
