# deletions,date,commit message
39,2013/11/21,replace all by
8,2013/11/21,allow negative font size setting
7,2013/11/21,fix issue with drive file import
2,2013/11/18,
4,2013/11/18,fix crash on android sliding an item
