# deletions,date,commit message
20,2013/9/30,simplify database column definition
41,2013/9/30,move file to
1,2013/9/29,update to build tool 181
1,2013/9/29,update to build tool 181
2,2013/9/27,fix possible crash on some phone
1,2013/9/27,fix possible crash on some phone
8123,2013/9/26,
2,2013/9/26,show the total number of favorite item
37,2013/9/26,always reuse the same entry fragment
5,2013/9/26,improve file
20,2013/9/26,small code cleanup
1,2013/9/26,show the feed there is no name
1,2013/9/26,fix possible crash
1,2013/9/26,drawer increase width
84,2013/9/26,drawer show the feed state
9,2013/9/26,drawer show the no feed name
