App,Store,App ID,Review ID,Country,Version,Rating,Date,Author,Subject,Body,Translated Subject,Translated Body
Flym News Reader,Google Play,net.fred.feedex,Z3A6QU9xcFRPRnFHSnNFWk5mUm1QNWxweFNaTlR0MXB5SDRndV9Ga2ZnV0NfdVFscFpDT3poN05NX0x6MENpdjN5SGJvcmdocEx5RnE1RXhVZnA1ZFhhVlE,English,,1,2013-05-29,Scott Pettersen,Not a Google Reader replacement for me.,way slow it come to feed,,
Flym News Reader,Google Play,net.fred.feedex,Z3A6QU9xcFRPRnFHSnNFWk5mUm1QNWxweFNaTlR0MXB5SDRndV9Ga2ZnV0NfdVFscFpDT3poN05NX0x6MENpdjN5SGJvcmdocEx5RnE1RXhVZnA1ZFhhVlE,English,,1,2013-05-29,Scott Pettersen,Not a Google Reader replacement for me.,have been waiting 20 minute and loaded about 10 of me news feed,,
