# deletions,date,commit message
1,2014/5/19,fix for wms scrambled in case of high resol displays
352,2014/5/19,quite some cleanup + fix for static vars freezing zoomlevel
83,2014/5/19,minimal implementation of RaterLite2 as Tile-Source.
57,2014/5/19,added function GetMapImage
7,2014/5/19,resolved save changes.
424,2014/5/14,correcte collectTableFields - table-name was not placed in quotes.
11,2014/5/13,fix for stackoverflow on db upgrade
3,2014/5/13,fix for mapurl import not filtering #154
