Topic Index 1,Topic Index 2,Topic Similarity
10,1,0.0063
4,3,0.003
2,11,0.0024000000000000002
3,15,0.0021000000000000003
9,18,0.0021000000000000003
1,12,0.002
18,0,0.0018
5,10,0.0015
7,13,0.0015
8,9,0.0015
0,2,0.0
6,4,0.0
11,5,0.0
12,6,0.0
13,7,0.0
14,8,0.0
15,14,0.0
16,16,0.0
17,17,0.0
19,19,0.0
