have no issue with it far work good,v0.1,2015-06-02,Riggy Riggs,5
i use it to the from my phone cause many a time i forget about i installed on my phone and it is difficult to spot them in the drawer,v1.0.3,2017-04-29,Ayush Rao,5
just fails silently saving,v1.0.3,2017-04-28,Rikus Visser,4
this just saved me a ridiculous amount of time,v1.0.3,2017-04-25,Des Savage,5
unable to extract the to external card in please update the,v1.0.3,2017-03-09,Mbs Yaswanth,3
for all android user to backup installed,v1.0.3,2016-12-31,Bijay Shanker Tripathi,4
setting,v1.0.3,2016-12-25,Nick Doukas,2
a con however is the long loading time the is launched when it is listing all the,v1.0.3,2016-11-18,Shahmi Saidi,5
list load and refresh time are very slow for me and unfortunately you rotate the device it attempt to refresh the list again which is painful,v1.0.3,2016-11-16,Liam Bhardwaj,4
in background several service running which drain the battery,v1.0.3,2016-11-05,Googleplus Account,5
extract to external location not working in android 60,v1.0.3,2016-07-22,Nitheesh K,5
doe it replace the newer version i change name only,v1.0.3,2016-07-14,Prama Adhapranata,4
i like the but please change the name,v1.0.3,2016-05-23,George Buller,3
also not a fan of the brown icon,v1.0.3,2016-05-23,George Buller,3
or at least long press menu,v1.0.3,2015-12-19,Songz Mvumvu,3
note 3,v1.0.3,2015-10-16,Arefin Chowdhury,1
need the ability to all user to pick multiple in one then compress using since compress the first file any file the same is not saved but a link to first is made so extraction is done the unpacked folder is the same a original ability to link with etc so you can make a single with all your version of the saved a one file with the ability to choose which version to install,v1.0.3,2015-10-15,Mark Askew,4
in my note 4 it crash simply by changing orientation to landscape to portrait,v1.0.3,2015-09-01,Martyn Britton,3
shame is not practical,v1.0.3,2015-09-01,Martyn Britton,3
