# deletions,date,commit message
2,2015/12/28,clickable web urls telephone numbers & email address
1,2015/12/21,close string
2,2015/12/14,update url to link to data policy
535,2015/12/11,copyright with legal name
3,2015/12/09,Release Version Code 7
65,2015/12/09,remove third party maven repository.
21,2015/12/09,remove comments in build file
4,2015/12/09,build file
6,2015/12/08,Fix issue that prevented a hotspot node to discover its connected peers. The error was due to the failure of the MulticastSocket to join the MulticastGroup. Solved by explicitly setting the Interface.
0,2015/12/04,woopsie LICENSE instead of LICENCE
1,2015/12/04,changed open source to free software
2,2015/11/25,grammar
15,2015/11/25,bug fix check file isn't null before call to listfiles()
8,2015/11/25,new version
3,2015/11/25,minor fix
30,2015/11/25,minor fixes
82,2015/11/24,few fix: * login username check * add own Log tool * add debug option in settings
7,2015/11/23,fix UUID calculation from group (UUID was calculated with nogroup I forgot to recalculate UUID when group is set)
52,2015/11/23,change contact list
9,2015/11/19,fix timestamp in contact last met
7,2015/11/16,small fix
14,2015/11/16,small NullPointerException fix
19,2015/11/16,small fix
12,2015/11/16,flush EncryptedOutputStream
4,2015/11/16,small fix
3,2015/11/16,debug
2,2015/11/16,debug
21,2015/11/16,small fix
620,2015/11/15,Added EncryptedInputStream and EncryptedOutputStream. The reason is because CipherInputStream and CipherOutputStream provided by javax was not designed to be used temporarily over a stream. In practice this resulted in the last block being lost. The new class also added a BufferedStream around the InputStream.  Also clean the way Blocks are processed and emitted by introducing two new Class BlockProcessor (to read the block) and CommandProcessor (to send the blocks).
18,2015/11/12,debug
9,2015/11/12,change filter in PushStatusDatabase
65,2015/11/12,already exists was called TTL
31,2015/11/12,clean the debug log with a BlockDebug class
1,2015/11/12,close the CipherStream
2,2015/11/12,small fix
99,2015/11/12,added CLEARTEXT cipher
8,2015/11/12,debug
2,2015/11/12,debug
49,2015/11/12,debug
3,2015/11/12,small fix
3,2015/11/12,2 hours of debugging because I pass the InputStream instead of CipherInputStream of course it won't decrypt this way ! STUPID HOBBIT !
9,2015/11/12,debug
6,2015/11/12,small fix
16,2015/11/12,debug
334,2015/11/12,Clean the way crypto is done. Added a BlockCrypto.
49,2015/11/11,small fix
1,2015/11/11,There's no need to compute the expected encrypted size with CipherStream.
4,2015/11/11,some debugging
8,2015/11/11,some debugging
8,2015/11/11,fix IV size
9,2015/11/11,test with smaller aes key size (128 instead of 256)
7,2015/11/11,clean some logging
7,2015/11/11,fix the CipherInputStream/CipherOutputStream so that underlying socket is not closed.
14,2015/11/11,fix the stream
97,2015/11/11,Use CipherInputStream instead of Cipher.doFinal for streaming the file in an encrypted fasion.
2,2015/11/11,my mistake I sent the MIME_TYPE before sending the Initialization Vector
5,2015/11/11,small log
11,2015/11/11,small debug message
86,2015/11/11,Encrypt attached file with group key
120,2015/11/11,Encrypt the status with group key
1,2015/11/10,small fix
1,2015/11/10,small fix
1,2015/11/10,disable error log
1,2015/11/10,small fix
51,2015/11/10,Send command to Protocol Channel in a blocking way
73,2015/11/09,Send db size statistics
21,2015/11/09,clean up a bit NeighbourManager
5,2015/11/09,Added About licence statistic participation button
233,2015/11/09,Make settings more readable
126,2015/11/07,StatisticDatabase generate JSONS out of Cursor
3,2015/11/04,user can decice not to send statistics
3,2015/11/04,Connect to https://data.disruptedsystems.org whenever Internet is available and last sync was > one day. Doesn't upload anything for the moment.
75,2015/11/04,Save some statistics in database. Those statistics will be anonymised and later used to improve the routing algorithm.
2,2015/11/03,XML fix
7,2015/11/03,tutorials
5,2015/11/03,limit author name size in status
24,2015/11/03,small fix
3,2015/11/03,display helping status
7,2015/11/03,better login screen
1,2015/11/03,added resource files
9,2015/11/02,Display list of hashtag get list of status with said hashtag compose message with hashtag subscribed user to hashtag.
2,2015/11/02,add resource file + fixes
21,2015/11/02,I forgot to remove status.discard when throwing a StatusReceived or StatusComposed event. Since onEvent as moved to onEventAsync the status was discarded before it was processed and this resulted in not saving the associated tag (discard really only clear the tag list). FIXED!
0,2015/11/02,add resources
44,2015/11/02,Added Storage detail and Data Usage in settings
1,2015/10/31,nothing really
1,2015/10/30,small fix
5,2015/10/30,small fix
1,2015/10/29,small fix
26,2015/10/29,save time in milliseconds instead of seconds (to avoid having a lot of Status received at the same second)
132,2015/10/29,We save scaled down version of the images so that it only weight few KiloBytes.
10,2015/10/29,hide keyboard when user exit chat message
10,2015/10/29,ChatMessage now also saves the author's timestamp. This is to be able to compute a unique hashID.
38,2015/10/28,We now receive BlockFile from within BlockStatus to avoid a race condition where we would receive a File before the status was inserted in the database. The reason is because the CacheManager listen to even Asynchronously.
31,2015/10/28,PushStatusReceived FileReceived and ContactInformationReceived are not Async to prevent receiving file or status before user/status has been created
16,2015/10/28,small fixes
53,2015/10/28,choose an image from library when composing a status
2,2015/10/22,small fix
59,2015/10/22,Added number of recipient for ChatMessage
11,2015/10/22,badger for Group List
397,2015/10/22,Renamed few layout for consistency Move from ListView to RecyclerView for GroupListActivity
60,2015/10/22,add menu for GroupDetailActivity
7,2015/10/22,catch exception
23,2015/10/22,Add an author to a group whenever we receive a status from him.
9,2015/10/22,Problem solved just had to wait a bit for the interface to be fully set up.
6,2015/10/21,le socket.join est necessaire finalement pour recevoir les messages :(
7,2015/10/21,* somehow the MulticastSocket.joinGroup was responsible for the problem in a quiet unpredictable maneer. It turns out I don't need to call this method as the multicastgroup is already given as parameter of the Constructor. It fixed the multicast issue :D
117,2015/10/21,* add Tethering activation from menu * todo: seems to have problem rebinding on multicast socket when switching from managed mode to tethering.
4,2015/10/21,* sometime you can receive your own multicast packet. Have to prevent from connecting to ourself in that case
214,2015/10/20,* rename layout files for clarity
1,2015/10/19,* fix file name check
2,2015/10/19,* silly mistake fix
8,2015/10/19,* add filename in protocol
15,2015/10/19,* sanity check on file name
18,2015/10/19,* use the real file name avoid duplicate and sanity checks
8,2015/10/17,* fix side-effect with Contact dayum!
11,2015/10/17,* fix status loading problem when multiple statuses where received at the same TOA * added PushStatus equals and hashcode for easy list manipulation (can't believe I haven't done that sooner)
4,2015/10/17,* forgot to return the number of bytesread in BlockFile...
3,2015/10/17,* tiny fix
1,2015/10/17,* fix infinite loop in BlockFile.read()
8,2015/10/17,* small fix it is the sender contact statistic that should have been updated not the status author.
2,2015/10/17,* small fix
46,2015/10/17,* prevent a status to be resent to the sender
26,2015/10/17,* add the sender UID in the protocol
3,2015/10/16,* debug
3,2015/10/16,* debug
1,2015/10/16,* debug
164,2015/10/16,* clean the log messages events is displaying it
3,2015/10/15,* small fixes
18,2015/10/15,* sanitized BlockChatMessage
48,2015/10/15,Sanitize BlockContact networking input
73,2015/10/15,Sanitized QR-Code input
10,2015/10/15,fix ChatMessageAdapter
359,2015/10/14,Updating the NeighbourManager * fixing few issues * fixing NeighbourReachable
23,2015/10/13,* minor fix
79,2015/10/13,* fix multicast packet for tethering * fix chat message notification
0,2015/10/11,* add drawable
1,2015/10/10,* minor fix
296,2015/10/10,* Created a new MultiStateButton * Add bluetooth controller in FragmentNetworkDrawer with three state (disabled enabled discoverable) * Add wifi controller in FragmentNetworkDrawer with three state (disabled normal AP).
40,2015/10/08,* added contact tab to display some information about a user. also have to add its group and interest
2,2015/10/08,* do not show the swipe when loading more status (cause it is too fast and it flickers)
58,2015/10/07,* endless scrolling
126,2015/10/07,* fix hashtag subscription click
30,2015/9/30,* synchronised method
1,2015/9/29,renamed ic_launcer because it conflicts with ic_launcher from the TextDrawable library and gradle complains. For some reason it seems to be a problem only with certain people guess it depends of the conf
928,2015/9/29,* FloatingActionButton disappear when status are scrolling * Added a ViewPager for every TabLayout * Added CoordinatorLayout for better scroll management * little hack: - FragmentStatusList has its own floating button and thus need a CoordinatorLayout  to hide whenever the user scroll. - however I also need a coordinator in ContactDetailActivity to hide the header - unfortunately I cannot do both at the same time hiding the header activity while hiding the FAB from the fragment - so I cheated and created two layout file for status_list one with CoordinatorLayout and wnother without depending wether we need it or not.
535,2015/9/29,* replace ListView by RecyclerView in FragmentStatusList (so that I can use CoordinatorLayout with a nice ScrollableHeader for ContactDetail)
38,2015/9/29,* add two tabs on GroupDetailActivity one for displaying the group message the other to display the members * add FloatingActionButton for FragmentStatuslist in GroupDetailActivity * add query option for contact list
117,2015/9/28,* replaced the FloatingActionButton in chat with a chatbox (EditText + send button) more intuitive!
535,2015/9/28,* cleaner interface
1,2015/9/28,* moved to Build Tools 23
95,2015/9/28,* moved to API 23
1,2015/9/26,* more recent version of gradle tool
129,2015/9/26,Added contact details (basic status listing)
52,2015/9/25,Group status list: * can click on a group name * add a group filter in statuslistfragment
60,2015/9/25,* use NetworkCoordinator service looper for network related operation
1,2015/9/25,* minor fix
27,2015/9/25,* implemented socket timeout using keepalive mechanism
17,2015/9/25,* fix: keep alive handler was cancelled before being created
3,2015/9/25,* minor fix
15,2015/9/25,* minor fix
20,2015/9/25,* minor fix
66,2015/9/25,* implemented keep alive for unicast channels
4,2015/9/24,* minor fix
4,2015/9/24,* indicate wether the group is public or private
52,2015/9/24,* ChatMessageService now forwards chatmessage to every channel except the one it was received from * fixed MacAddress
9,2015/9/24,For ChatMessage we record the moment it was received and we actually don't need a timestamp
5,2015/9/24,* Only one contact can match an interface (macaddress+protocolID)
6,2015/9/24,* wifi icon when connected
4,2015/9/24,Minor fix
6,2015/9/24,minor fix
39,2015/9/24,Because there is no API in android to get the macAddress of a neighbour in Wifi I read it directly from the ARP table. But sometimes the arp cache doesn't have such macAddress and then I cannot get the contact list that exists for a given interface:  * fix the error that was due to null string being returned by getMacAddressFromArp and replaced it with an exception * Manage the exception to exit properly
2,2015/9/24,Network Fix: * I did not check wether the end of stream was reached or not -_-
1,2015/9/23,minor fix
3,2015/9/23,refresh the neighborhood
19,2015/9/23,Fixing the way ContactConnected event was thrown
2,2015/9/23,minor fix
9,2015/9/23,minor fix
7,2015/9/23,Minor fixes
348,2015/9/23,Adding TCP connection
2,2015/9/23,minor fix
1,2015/9/23,minor fix the Set returned by getContactsUsingMacAddress is never null
14,2015/9/23,* minor fixes
278,2015/9/23,* Cleaner and better neighborhood management * Added Interface object to manage InterfaceDatabase
128,2015/9/22,Better neighborhood management
165,2015/9/22,Cleaning obsolete classes
5,2015/9/22,* NeighbourManager throw an event when a contact is connected
1,2015/9/22,* NeighbourManager throw an event when a contact is connected
1,2015/9/22,* Added an event logger * Send contactinformation whenever a node is connected
5,2015/9/22,minor fix
460,2015/9/22,Lot of refactoring: - PushStatus are now Contact-based instead of interface based - added a ContactStatusDatabase to keep track of the status sent - clean the neighbour manager move it to its own class
134,2015/9/21,Added TCP Server and Client connection. Added a new Class RumbleProtocolWorker so that the same code is use to send/receive Rumble blocks over Bluetooth and TCP (as both are Input/Output streams)
0,2015/9/16,add resource files
1,2015/9/02,indentation
4,2015/4/26,minor fix
58,2015/4/22,Added: * Node scanner for Wifi using periodic beacon over UDP
288,2015/4/22,Big change in the way the network is done ! * Each scanner has its own Looper * cleaned the handler callbacks especially in BluetoothScanner
145,2015/4/22,Add: * cleaner network interfaces * reverse the way the list is shown
36,2015/4/22,Encapsulate networking operation in thread object when called from the mainUIThread to avoid slowing the UI
26,2015/4/21,Added: * check if wifi is enabled or is in AP mode
240,2015/4/21,Cleaning NetworkCoordinator and InterfaceToggle management
342,2015/4/21,Added * fix firechat support over UDP * synchronised interface button with real interface state
252,2015/4/21,Added * firechat support over UDP * integrated with the ChatService
13,2015/4/21,Added firechat support over UDP
39,2015/4/20,Minor fixes
41,2015/4/20,Minor fix: move onActivityResult from Home to GroupActivity to retrieve the qrcode group
185,2015/4/20,Added: * fix chatmessage layout * exchange chat messages
189,2015/4/19,Added: * ChatMessage Object * ChatMessage Database * ChatMessage (list and item) XML Skeleton * ChatMessage Fragment and ListAdapter * ChatMessage related Database and User Event
12,2015/4/18,Added smooth animation when openning activity from sidebar taken the anim file from Twidere project thank you !
212,2015/4/18,Added: * wipe statuses * delete group (and related statuses) * move group list in its own activity * start skeleton for contact activity
214,2015/4/18,Minor fixes
178,2015/4/18,Fully implemented preference update ! * send contact information at connection time * send group preference at connection time and when it changes * send hashtag preferences
106,2015/4/18,Clean the way we update contact information in the database
216,2015/4/18,Rewrote the Bluetooth Scanning module by adding a state machine.
48,2015/4/17,Diff: * fixed cache manager
121,2015/4/17,Diff: * split ForwarderDatabase into InterfaceDatabase and StatusInterfaceDatabase in order to reuse the InterfaceID * Changed the cachemanager accordingly
286,2015/4/17,Added: * Database to hold user preferences (joined group interest in hashtag) * Protocol block to send and receive such preferences
273,2015/4/16,Replace status database UID and GID per pointer on table row.
717,2015/4/16,Enhanced database coherency created database to holds contact preferences. Also minor fixes
7,2015/4/16,Add a class to display images
2,2015/4/16,Fixed null pointer exception
49,2015/4/16,Fixed push service which was stuck in infinite loop ( '-_-)
109,2015/4/16,Implements slow discovery mode in scanner to avoid disrupting the connection when scanning
165,2015/4/16,Fixed connection problem.. again
18,2015/4/16,Added an option in StatusDatabase to retrieve only the message that are not been sent already to a user (instead of getting them all and filtering them out when adding)
12,2015/4/16,Optimised the query to avoid the OR keyword so that it is AND-optimized
5,2015/4/15,Added: * support when user don't have BarcodeScanner installed on the device
423,2015/4/15,Added: * can invite someone to a private group using camera Barcode :D
19,2015/4/15,Resources files
122,2015/4/15,Added: * group spinner for PopupCompose Activity * group list filter as a StatusQueryOption * move package message into database.objects
29,2015/4/15,Fixed Status ListView: * use Picasso to display Image (very memory efficient) * refresh the list when deleting/updating status  Added group lock in create group popup
181,2015/4/14,Added group key generation. Fixed forwarder database update when receiving a message
30,2015/4/14,Add group creation through User Interface
221,2015/4/14,Notification for public message
13,2015/4/13,So many hours spent today and I don't really know what I achieved... Implementing notifications I guess.
231,2015/4/13,SwipeRefreshLayout to refresh the status
3,2015/4/13,Fixed Base64 Encoding so that it does not append newline
418,2015/4/13,Replace UUID per base64 UID. fixed push service. optimized memory on StatusListAdapter
86,2015/4/12,Replace absolute path per filename
3,2015/4/12,Fixed path name when receiving a message
739,2015/4/12,Fixed minor PushService issues. Optimized memory by storing status ids in in instead of long. Added BlockFile for Rumble. Can now send File with RumbleOverBluetooth
4,2015/4/10,Added Copyright notices
16,2015/4/10,Fixed a little connection problem that prevents race condition. Got to say now opportunistic connection is pretty neat :D
18,2015/4/08,Added preview of the image in composer
148,2015/4/08,Added dialog to compose and send a message
432,2015/4/08,Cleaning the UI replaced Drawer with SlidingMenu
2,2015/4/07,Commit XML file for read/unread status
9,2015/4/07,Added Colouring for unread status :)
150,2015/4/07,Make querying to the database much more clean :)
180,2015/4/06,User Interface Interaction: Like and Delete
1,2015/4/04,Little fix forgot to wake up the awaiting thread.. Now PushService works well :)
250,2015/4/03,PushService implemented
33,2015/4/03,Implementation of MessageDispatcher which pickup a status according to its probability. I am not satisfied with the big-o complexity of the implementation yet.
41,2015/4/03,minor fixes
14,2015/4/03,Routing formulae
165,2015/3/31,Fixed scanning and connection issues in bluetooth
117,2015/3/31,Fixed connectivity and state issues in Bluetooth.
1,2015/3/30,add Exit button on Navigation drawer
19,2015/3/30,fixed/Added connection state machine to avoir multiple connexion at the same time
8,2015/3/29,Only try to connect whenever the state is NOT_CONNECTED. TODO: do the same for Firechat !
2091,2015/3/29,HUGE refactoring ! but no seriously really huge the whole network stack has changed now it looks like this : http://lab.disruptedsystems.org/marlinski/rumble/wikis/rumble-software-design#1-network-design it is much MUCH more clean modular fresh and simple. no more bulky NeighbourManager. Look at the wiki for more details.
118,2015/3/28,Sanitized the database replace MessageQueue with CacheManager which catch event and update the database accordingly.
9,2015/3/21,Display the state of the bluetooth connectivity on the Activity. When a device is within bluetooth reach a grey BT icon is displayed when we are connected with a protocol to that device a highlighted BT icon is displayed.
139,2015/3/21,Implemented a Bluetooth State Machine for Rumble. This fix some problem that occurs when two phone discover and try to connect each other at the same time. Refer to the wiki for more detail about the state machine: http://lab.disruptedsystems.org/marlinski/rumble/wikis/rumble-software-design#flowchart-managing-bluetooth-neighbour
479,2015/3/20,Petit commit à ignorer
18,2015/3/19,some code factorisation disconnect() is the same method for both BluetoothClientConnection and BluetoothServerConnection.
0,2014/12/31,add Rumble Icon for notification
114,2014/12/31,NetworkCoordinator is now a Foreground Service. Activity can bind to it to start/stop networking (todo use Intent instead ?). Other networking related classes and thread use getInstance instead of binding (I found bindService to be quiet bulky). It is safe because all those networking classes are destroyed whenever NetworkCoordinator is destroy.
24,2014/12/18,Implemented a slow start for the trickle timer. Also Listen for the accelerometer and reset the trickle time if phone is detected to be moving and if trickle timer is too large (if trickle timer is still high frequency no need to reset it).
10,2014/12/16,Added connectivity intent to add thread when connection is ready (but it is still not working entirely properly I believe)
5,2014/12/16,Added the permission to be able to receive/send multicast packet through WiFi.
20,2014/12/16,I don't remember what I modified into those file since the last commit but that was probably a good job
4,2014/12/16,update macAddress to linkLayerAddress
177,2014/12/16,Add WiFi-Managed LinklayerAdapter and UDPMulticastConnection. This use case is when the rumble user is connected to its home connection through WiFi.  Added FirechatOverUDPMulticast now able to receive and insert into database a status receive through 239.192.0.0
13,2014/12/16,updated macAddress and getMacAddress to linkLayerAddress and getLinkLayerAddress
3,2014/12/16,FirechatMessageParser is only responsible of JSON coding/decoding. moving the downloading file into FirechatOverBluetooth
45,2014/12/16,FirechatMessageParser is only responsible of JSON coding/decoding. moving the downloading file into FirechatOverBluetooth
4,2014/12/16,replace macAddress by linkLayerAddress as in UDP it is an IP address
1,2014/12/16,silently ignore when status is already in database
0,2014/12/16,added the resources files
74,2014/12/16,Commit before pushing to github
806,2014/12/15,bug fixes: * Rumble now exchanges message from/to another rumble device * implementation of Status Block * todo: disconnection are not well managed not well detected and sometimes it locks in a disconnected state while still preventing the device from connecting to another one.
2,2014/12/15,bug fixes: * Fix Rumble server and client connection problem when both side tries to connect at the same time and both end droping the connection. Now the highest mac address keeps the connection. * todo: errors in block protocol * rethink the design of Connection/Protocol
1,2014/12/15,bug fixes: * PriorityBlockingMessageQueue didn't unregister from MessageQueue.messageListeners * Bluetooth switch button did not update whenever user force stop bluetooth from settings
144,2014/12/14,First milestone achieved :D * DTN works with firechat ! * database updated * ranking works * few bug fix
99,2014/12/14,DTN finally works ! (hurray) * PriorityBlockingMessageQueue dump its database to a newly discovered neighbour * MessageQueue automatically updates every message listener (if any) when a message has been sent * todo: update the database as well
1017,2014/12/13,Heavy network code refactoring: * Got rid of the NeighbourDevice class and replace it with an abstract Neighbour class declined in BluetoothNeighbour and WifiNeighbour * change the protocol list from NeighbourDevice to NeighbourRecord. * Clean/Sanitize code for NetworkCoordinator and NeighbourRecord  Added a MessageQueue: * The message queue manage one single sorted list of all the status (it only keeps the ID and the score in memory) * It centralises any operation on the status to keep the sorted list up to date * Introduce a new BlockingQueue PriorityMessageBlockingQueue that every neighbour will holds in order to get a sublist of the most prioritized message. * This Queue grow automatically when requested and is kept synchronised with the MessageQueue  Rumble Protocol * Started to implement the RumbleBlock protocol * Early design of its protocol
420,2014/12/10,* Add a forwarder Table * updated firechat to avoid sending back a status as we recieved it thanks to the forwarder table * minor style fixing
22,2014/12/10,Cleaning the Connection and Protocol mess: * A Connection is now an interface toward ThreadPoolCoordinator. It exposes method such as getConnectionID() to avoid connecting multiple time with the same connection * A Protocol is now an interface toward NetworkCoordinator and exposes method such as getProtocolID to avoid connection to the same neighbour twice.
127,2014/12/10,* added Avatar (Colored Letter) * added tags automatically in composition when filter is not null (simulate discussion)
169,2014/12/09,Added Hashtag subscriptions (for routing preferences yet to be implemented) and also log-in screen for local username.
176,2014/12/07,Stopped binding the Activity to the NetworkCoordinator service and use the getInstance() instead. Also fixes some issues related to the network right drawer as onCreate() didn't displayed the correct information (because from the time the navigation drawer was created the activity didn't bound yet to network coordinator)
36,2014/12/05,added feature: - clickable words to add Filters
18,2014/12/05,Bug fixes: - forgot to add BluetoothAdapter into networkCoordinator adapter list (don't know why I removed it) - lower case hashtag filter - updating a row didn't return its rowID but number of row affected which was messing with the insertion of statustag (because of unique constraint): fixed with another query returning the rowID of the updated row
73,2014/12/05,Added filter feature for status list
81,2014/12/04,Fix a bug in FirechatProtocol + move the intelligence out of StatusListAdapter into FragmentStatusList.
45,2014/12/04,Receive save and display image sent by Firechat over Bluetooth.
54,2014/12/03,Send message to Firechat app
