# deletions,date,commit message
1,2014/9/09,remember the sort mode - closes #45
1,2014/9/04,target 20
14,2014/9/04,rn emu from travis - does not work atm
2,2014/9/04,bump version
15,2014/9/04,fix some lint issues - migrate to jcenter - bump versions
2,2014/9/04,rm unused import
2,2014/8/27,bump tooling to 20
2,2014/8/15,badge for FDroid
1,2014/8/13,add travis-ci build badge
0,2014/8/13,add a empty build.gradle - hopefully travis picks it up then
147,2014/7/30,use new tooling and move tests to integration-tests
2,2014/5/26,use latest tooling
2,2014/5/21,bump version
27,2014/5/21,allow adjustment of icon resolution
1,2014/5/21,use maxSize here as intended
5,2014/5/21,better default settings
20,2014/5/21,migrate to RoboLectric 2.3
2,2014/4/30,bump version
1,2014/4/30,exclude from recents
7,2014/4/30,move stuff from manifest to build.gradle
1,2014/3/12,test the latest build tools on cloudbees
1,2014/3/12,fix impl
1,2014/3/12,use new build plugin
2,2014/3/12,correction
2,2014/3/05,bump version
237,2014/3/05,big redesign of list handling
1,2014/3/01,declare final  var as final
5,2014/3/01,also add launchers in the app-list
2,2014/2/28,bump version
1,2014/2/28,bump to new build-tools version
3,2014/2/28,don't ignore all warnings - only some
4,2014/2/28,fix lint problems regarding api-usage
2,2014/2/28,deal with lint errors for api-stuff
17,2014/2/28,mainly add forced Locale to case conversions - also some code style improvements
2,2014/2/22,bump version number
3,2014/2/22,ability to select 0 text-lines - was a feature request my Mark Bold
1,2014/2/18,target latest SDK
7,2014/2/18,remove obsolete stuff
4,2014/2/18,unify the base-dir - and do not use cache-dir - this should remove the problem of constantly reindexing when the storage is full
2,2014/2/18,pin versions as I have problems without network at the moment
2,2014/1/15,bump version ( need this for fdroid at the moment )
1,2014/1/02,bump tooling
12,2013/12/22,revert a change from the pull request as discussed here: https://github.com/pserwylo/FAST/commit/f8287e3112a8cade1d17eb959a8db4e856801a1e#android-src-main-java-org-ligi-fast-model-appinfo-java-P12
2,2013/12/22,bump tooling versions
10,2013/12/17,rm getString calls that are not needed here
18,2013/12/17,cleaning
1,2013/12/17,bump version and ignore inner classes for tests
7,2013/12/19,Fixed issue with uninstalled apps causing cache to be rewritten and overwrite the call count.
16,2013/12/18,More text changes mainly related to capitalisation.
2,2013/11/24,go down to android-18 - android-19 does not seem to be on cloudbees yet
1,2013/11/24,mention @ptrv in contributors section
2,2013/11/24,bump versions
8,2013/11/24,cleanup / indent
4,2013/11/24,remove not needed libs and pump versions
3,2013/11/24,bump versions
60,2013/11/24,inline lib functionality to reduce size
