everyone,o,2013-06-21,,5
should,o,2013-06-21,,5
get this,o,2013-06-21,,5
best and idea i ever saw on play store,b,2013-06-18,Navid Nouri,5
much potential,o,2013-06-11,Thomas Cross,5
up for this,o,2013-05-31,Stefano Rossi,5
never thought it could be but it put the phone into plane mode and still make call for free,b,2013-05-28,Ray bies,5
thank you,o,2013-05-28,Ray bies,5
this is alright,o,2013-05-22,dajah janise nash,5
resurrecting old phone to play with this,b,2013-05-17,Ben Lane,5
prop and keep up the good work,o,2013-05-17,Ben Lane,5
really,o,2013-05-16,MAWA,5
love the idea and it going,o,2013-04-26,John Lassiter,5
it work,o,2013-04-23,Erich Andersen,5
i would love to see development continue,o,2013-04-23,Erich Andersen,5
i just downloaded it,o,2013-04-18,James Arvidson,5
the idea is fantastic,o,2013-04-18,James Arvidson,5
this is an i hope to never need,o,2013-04-07,B.J. Scott,5
good idea,b,2013-04-06,johan s,5
i hope i can use this n the doom day,o,2013-03-30,A Google User,5
fantastic idea,o,2013-03-27,Philip Bradley,5
it doe work,o,2013-03-25,Stalker Verse,1
awesome,o,2013-03-25,Stalker Verse,1
then of no use,o,2013-03-25,Stalker Verse,1
i think a good would be perfect,o,2013-03-14,Steve Igrejas,2
work well,o,2013-03-12,Joshua Underwood,5
great little buggy,b,2013-03-10,John Mason-Smith,4
giving 5 star just i like the idea much,b,2013-03-10,michael sayre,5
i hope this take off,o,2013-03-10,michael sayre,5
brilliant everyone download this,o,2013-03-01,A Google User,5
this is one of the most cutting edge mesh program out there,b,2013-02-28,Edward Brooks,5
an it work between 2 device for both voice and messaging at present although it seems to have minor glitch on the device,b,2013-02-03,Hari Raju,5
the former 2 may require development of an for maximal effect though,b,2013-02-03,Hari Raju,5
