# deletions,date,commit message
1,2015/4/18,TLSSocketFactory used for versions below Android 5.0 (API Level 21) reworked
30,2015/4/18,TLSSocketFactory used for versions below Android 5.0 (API Level 21)  ... to enable protocols TLSv1.2 and TLSv1.1 (except for Android 4.0 API Level 15)  Bugfix for issue https://github.com/bitfireAT/cadroid/issues/14
1,2015/4/18,TLSSocketFactory used for versions below Android 5.0 (API Level 21)  ... to enable protocols TLSv1.2 and TLSv1.1 (except for Android 4.0 API Level 15)  Bugfix for issue https://github.com/bitfireAT/cadroid/issues/14
108,2015/4/18,TLSSocketFactory used for versions below Android 5.0 (API Level 21)  ... to enable protocols TLSv1.2 and TLSv1.1 (except for Android 4.0 API Level 15)  Bugfix for issue https://github.com/bitfireAT/cadroid/issues/14
35,2015/4/04,Version bump to 1.0.1
