# deletions,date,commit message
2,2013/10/23,Bump version (1.0.2)  Signed-off-by: Jorge Ruesga <jorge@ruesga.com>  Signed-off-by: Jorge Ruesga <jorge@ruesga.com>
5,2013/10/23,Force to run discover AsyncTask out of the GLThread  AsyncTask can't create a valid handler in ICS (works in JB+) so we force it to run in a UI thread.  Signed-off-by: Jorge Ruesga <jorge@ruesga.com>
