App,Store,App ID,Review ID,Country,Version,Rating,Date,Author,Subject,Body,Translated Subject,Translated Body
PhotoPhase,Google Play,com.ruesga.android.wallpapers.photophase,Z3A6QU9xcFRPRTBGS0dWdnd6YUplelB2VEgwc2FrT1I1dEM2ckVZZkFJZUt2MzFYSlFXS1F1RXRmZkk3TnNSdjJiZ0I1R3BiV0dQUTg1d2M5VXpUNjFMN1NR,German,,2,2016-05-19,Dani K,"",Stürzt seit den letzten Update leider ständig ab :-(,,
PhotoPhase,Google Play,com.ruesga.android.wallpapers.photophase,Z3A6QU9xcFRPRUlrVzExLTRPS2VTZmpFU1dhclZUczZaS3lCTkd5dmJyc3NSSkswck5xU1RaV3IySlR3SHlXNUdWdFhJdGlTekJ5Y0pqMk1NcmlNZlpqU3Rz,Spanish,,5,2016-05-16,Miguel Nuñez,Little Blur No More!!!,Here 5 star for your Effort and for hear my suggestions!!! Aqui van las 5 estrellas por tu esfuerzo y por escuchar mis sugerencias!!! Sigue asi ;),,
