Topic,Words
0,0.104*great,0.081*of,0.074*you,0.061*flag,0.058*mods,0.058*is,0.052*ways,0.052*smartest,0.051*kids,0.037*for
1,0.140*is,0.126*the,0.058*lots,0.052*game,0.050*great,0.049*of,0.048*get,0.047*best,0.043*mine,0.042*mods
2,0.101*mine,0.085*lots,0.082*love,0.078*great,0.065*easiest,0.063*game,0.059*capture,0.042*the,0.042*get,0.038*this
3,0.107*capture,0.090*smartest,0.079*recommend,0.055*flag,0.053*best,0.051*really,0.050*easiest,0.049*love,0.049*this,0.044*you
4,0.104*mods,0.089*great,0.077*this,0.064*download,0.057*of,0.057*lots,0.056*is,0.051*flag,0.048*smartest,0.048*ways
5,0.126*for,0.099*great,0.069*to,0.068*of,0.067*flag,0.056*capture,0.054*mods,0.051*one,0.048*mine,0.046*lots
6,0.135*one,0.105*of,0.068*smartest,0.066*ways,0.059*love,0.056*you,0.048*to,0.045*mine,0.041*kids,0.040*get
7,0.115*really,0.104*mine,0.104*download,0.103*you,0.058*best,0.045*kids,0.044*game,0.038*recommend,0.037*great,0.037*mods
8,0.126*game,0.118*if,0.102*easiest,0.086*really,0.082*love,0.053*recommend,0.052*download,0.037*of,0.036*test,0.032*this
9,0.115*one,0.109*lots,0.107*get,0.073*is,0.071*to,0.070*ways,0.070*for,0.067*mods,0.067*of,0.053*really
10,0.132*of,0.099*love,0.093*great,0.083*flag,0.075*test,0.063*is,0.060*download,0.053*if,0.045*mods,0.040*to
11,0.169*smartest,0.112*of,0.085*easiest,0.083*if,0.066*recommend,0.059*test,0.057*flag,0.055*really,0.039*capture,0.037*mods
12,0.115*have,0.105*smartest,0.092*test,0.080*best,0.064*love,0.063*for,0.059*game,0.053*lots,0.043*this,0.042*is
13,0.162*have,0.103*for,0.082*easiest,0.081*if,0.069*this,0.058*one,0.048*kids,0.045*the,0.044*best,0.038*smartest
14,0.108*download,0.100*kids,0.083*great,0.063*is,0.062*if,0.061*test,0.047*best,0.046*capture,0.046*game,0.044*smartest
15,0.123*easiest,0.111*one,0.108*test,0.093*really,0.068*of,0.060*best,0.048*to,0.044*capture,0.041*is,0.041*great
16,0.185*mine,0.146*kids,0.064*game,0.058*this,0.047*capture,0.043*get,0.042*lots,0.042*to,0.041*you,0.040*test
17,0.113*get,0.100*flag,0.081*capture,0.079*mods,0.058*for,0.052*mine,0.043*recommend,0.039*ways,0.038*have,0.038*to
18,0.144*you,0.121*really,0.088*love,0.068*test,0.057*is,0.052*for,0.045*flag,0.042*recommend,0.041*mods,0.035*this
19,0.106*for,0.091*best,0.086*flag,0.084*have,0.072*easiest,0.072*game,0.062*to,0.059*get,0.046*really,0.041*test
