App,Store,App ID,Review ID,Country,Version,Rating,Date,Author,Subject,Body,Translated Subject,Translated Body
Simpletask Cloudless,Google Play,nl.mpcjanssen.simpletask,Z3A6QU9xcFRPRUhJWEhWSGZIWWlDRlUwNzN0eFllZkY3d1hTeWp4OEVqSFpBQzc2ZjVWc0VFMGg3VnB1WU80OExYejh5QjN4SUxycVRQZVE4QVhjTTFjQVE,English,,5,2016-07-10,Nikhil Das,,the is very useful,,
Simpletask Cloudless,Google Play,nl.mpcjanssen.simpletask,Z3A6QU9xcFRPRUhJWEhWSGZIWWlDRlUwNzN0eFllZkY3d1hTeWp4OEVqSFpBQzc2ZjVWc0VFMGg3VnB1WU80OExYejh5QjN4SUxycVRQZVE4QVhjTTFjQVE,English,,5,2016-07-10,Nikhil Das,,thanks mark,,
Simpletask Cloudless,Google Play,nl.mpcjanssen.simpletask,Z3A6QU9xcFRPRUhJWEhWSGZIWWlDRlUwNzN0eFllZkY3d1hTeWp4OEVqSFpBQzc2ZjVWc0VFMGg3VnB1WU80OExYejh5QjN4SUxycVRQZVE4QVhjTTFjQVE,English,,5,2016-07-10,Nikhil Das,,i have to first create the task and then go back to list of task to find my newly added task to add a reminder,,
Simpletask Cloudless,Google Play,nl.mpcjanssen.simpletask,Z3A6QU9xcFRPRUhJWEhWSGZIWWlDRlUwNzN0eFllZkY3d1hTeWp4OEVqSFpBQzc2ZjVWc0VFMGg3VnB1WU80OExYejh5QjN4SUxycVRQZVE4QVhjTTFjQVE,English,,5,2016-07-10,Nikhil Das,,could you provide a marker to all the task have a reminder added to them,,
