App,Store,App ID,Review ID,Country,Version,Rating,Date,Author,Subject,Body,Translated Subject,Translated Body
Who Has My Stuff?,Google Play,de.freewarepoint.whohasmystuff,Z3A6QU9xcFRPRS0zV2c1SUhsenBteHJZTHZKZTZ6c1dTM2pfLUhUaDdMYzdlX05WV1NxV1RiTnh2SndZY0c5LVAxSGJBRGdvWm11STRMZE0yeHFMZzZRRFE,English,,5,2017-02-19,Batman is Back,,i use it everyday to keep track of lent item,,
Who Has My Stuff?,Google Play,de.freewarepoint.whohasmystuff,Z3A6QU9xcFRPRS0zV2c1SUhsenBteHJZTHZKZTZ6c1dTM2pfLUhUaDdMYzdlX05WV1NxV1RiTnh2SndZY0c5LVAxSGJBRGdvWm11STRMZE0yeHFMZzZRRFE,English,,5,2017-02-19,Batman is Back,,the is simple and straightforward and it also keep history of lent item,,
