one user,b,2014-06-26,Dorsey Dixon,4
the itself work but i select to upload a picture nothing happens,b,2014-06-26,Dorsey Dixon,4
i can upload my status but nothing else,f,2014-06-26,Dorsey Dixon,4
no five 5 star this is fixed,b,2014-06-26,Dorsey Dixon,4
picture upload seems to work fine on android 443,o,2014-06-22,Ritesh Sahu,5
can you please make it intent are associated with tinfoil,f,2014-06-19,Jeff Van Boxtel,5
this is perfect for the reluctant user just interested in keeping in touch with friend,o,2014-06-16,Kevin Thomer,5
main reason i am reviewing is because photo upload doe work in 443 so only kit version 442 and lower will have bug a access to for,b,2014-06-16,Kevin Thomer,5
it a best application for user,o,2014-06-02,Shaik Pasha,5
work great for me without all the invasive permission the stock want,b,2014-05-31,Jennifer Wilson,5
great job,o,2014-05-31,Jennifer Wilson,5
,o,2014-05-31,Jennifer Wilson,5
already no ad,b,2014-05-30,Vu Tuan,5
work well,o,2014-05-30,Linda Dunbrack,5
say goodbye to the official mobile with it insane permission list and it battery sucking behavior,b,2014-05-29,Ben Stegner,5
this is low on permission and is much safer to use,b,2014-05-29,Ben Stegner,5
will get 5 star fixed,b,2014-05-25,Peck Dunne,3
perfect,o,2014-05-23,jomaro NBL,5
cant upload on my,b,2014-05-13,Martin Hutnik,2
just what i needed,o,2014-05-13,,5
for people having issue the site is delete the data for the,b,2014-05-13,,5
should fix all,b,2014-05-13,,5
otherwise similar but better faster for which ha ad and some bug with the,b,2014-05-11,Aswin A,3
no my battery is now happy,b,2014-05-07,Laurento Frittella,5
best on android,o,2014-04-29,Saptarshi Das,5
no advt,o,2014-04-29,Saptarshi Das,5
is one of the great feature of this beautiful,o,2014-04-29,Saptarshi Das,5
i scroll down in main status bar should b it is it b changed,f,2014-04-29,Saptarshi Das,5
using it for seeing general update from everyone else is still functional,b,2014-04-24,Madison Geisler,3
i installed this the stock started asking for permission,b,2014-04-24,Will Dickerson,5
tinfoil for work great and i am pleased by the asking for location permission i accidentally hit something that request it,b,2014-04-24,Will Dickerson,5
recently,b,2014-04-20,Lydia Kean,4
tag no longer work,f,2014-04-20,Lydia Kean,4
and regardless of what page i left the it keep bringing me to the main page of a group i joined,b,2014-04-20,Lydia Kean,4
the is pretty good for older device but saving photo is missing which is a huge need for on it guy,b,2014-04-13,Mohan Natraj Palanivel,4
great,o,2014-04-01,Ben,5
thing work fine on the mobile site seem broken in the suddenly,b,2014-03-29,H Johnson,2
had the for over a year,o,2014-03-29,H Johnson,2
i install on my phone it would just die on first run,b,2014-03-27,jerrin francis,4
this is much better feel a bit slower than using in default browser,o,2014-03-27,jerrin francis,4
this great but still got zoom wan with friend using cant type,b,2014-03-22,lagunabad badSyam,3
please fix,b,2014-03-12,Ozzy Mays,3
the official ha a list of permission longer the contract for my house,o,2014-03-01,Joshua Leal,5
thanks for this convenient alternative,o,2014-03-01,Joshua Leal,5
it work perfectly,o,2014-03-01,Joshua Leal,5
bug i have is after i view a the back button will sometimes take me to the top of my feed and sometimes back to the proper spot,b,2014-02-24,A Google User,5
anyway thanks for the continued development,o,2014-02-24,A Google User,5
cool love it,o,2014-02-23,Dashon Robinson,5
posting picture doe not otherwise solid,o,2014-02-18,Matt M,4
tried on 442 confirmed too any way of implementing it to play with,b,2014-02-18,Morgan Brant,5
faster factory,b,2014-02-17,Chris G,5
no crazy location logging,b,2014-02-11,Sam Mussmann,5
check,b,2014-02-11,Sam Mussmann,5
a refresh button,f,2014-02-11,Sam Mussmann,5
check,b,2014-02-11,Sam Mussmann,5
no ad,b,2014-02-11,Sam Mussmann,5
check,b,2014-02-11,Sam Mussmann,5
open link in the system browser,b,2014-02-11,Sam Mussmann,5
check,b,2014-02-11,Sam Mussmann,5
i will be strongly recommending this to my friend,o,2014-02-11,Sam Mussmann,5
i have issue uploading picture and clicking link on the sidebar can be a pain but this is perfect otherwise,o,2014-02-10,Dan Nguyen,5
i used the official and it wa buggy not to mention all the permission it requires,b,2014-02-10,Dan Nguyen,5
this is great,o,2014-02-10,Christopher McIntyre,4
had a problem viewing picture for a but all better now,o,2014-02-07,Emanuel Ribeiro,5
no other on my phone ha this problem,b,2014-02-04,Brenna Bandell,4
really like this hope it is possible to add notification an option in future update,f,2014-02-04,Teodor Doroftei,5
thank u,o,2014-02-04,Teodor Doroftei,5
,o,2014-02-03,Alex Rodgers,4
bro you make the sad,o,2014-01-28,Martin Brabham,5
the new permission included the ability to read i switched a soon a i found out,b,2014-01-27,Adam Douglas,5
very poor,o,2014-01-22,A Google User,1
,o,2014-01-19,ISA IBAM,5
updated ha been working even better the last update,b,2014-01-17,Alvin Mahana,2
just noticed a problem with link though,b,2014-01-17,Alvin Mahana,2
pick the link and you get one of the comment or close by,b,2014-01-17,Alvin Mahana,2
better in some way but worse in others,o,2014-01-17,Alvin Mahana,2
i can no longer zoom in i can read it better with my poor eye sight,o,2014-01-17,Alvin Mahana,2
what happened to marking all notification read,b,2014-01-17,Alvin Mahana,2
le star for all those thing left out,o,2014-01-17,Alvin Mahana,2
but it take time to load,b,2014-01-12,Amar Soni,3
nice,o,2014-01-11,Dominic Loycel,5
i had a problem today it said there wa a problem however my wa working,o,2014-01-09,Rochelle Hamilton,4
i the and then installed it again,b,2014-01-09,Rochelle Hamilton,4
it seems to be fine now,o,2014-01-09,Rochelle Hamilton,4
really clean,o,2014-01-06,Huni Buni,5
update now allows tagging and photo are larger clicked,b,2014-01-06,Huni Buni,5
notification would be nice too,o,2014-01-06,Huni Buni,5
awesome,o,2014-01-06,Huni Buni,5
no complaint,o,2014-01-06,Tim B,5
a great alternative to the invasive official messenger,b,2014-01-05,,5
i use this in combination with wall to take advantage of free from my carrier,o,2014-01-05,,5
however due to the nature of this application you will not get notification in you must manually check the,b,2014-01-05,,5
please try and add this functionality,f,2014-01-05,,5
also pesters to use the official,o,2014-01-05,,5
could something be implemented to block these element,b,2014-01-05,,5
update thanks for the quick reply,b,2014-01-05,,5
it a shame nothing can be done,b,2014-01-05,,5
love it,o,2014-01-05,Michael Oliver,4
otherwise stellar doe exactly what it say it doe,o,2014-01-05,Michael Oliver,4
get the job done without having sign over my phone,b,2014-01-04,Julio Sanchez,5
navigation is but worth it,o,2014-01-04,Rozzie Kopczynski,3
pretty good,o,2014-01-04,Ashok Karri,5
