simplify usage move boiler plate code into a simple static show method which requires a handler and can be used ad hoc in any,f,2014/4/02,,
cleanup example code,b,2014/4/02,,
add import warning to configuration,f,2014/4/02,,
replace import with explicit import,f,2014/4/02,,
spacing correction,f,2014/4/02,,
update from,b,2014/4/02,,
suppress for some file,b,2014/4/02,,
add missing and curly bracket and fix others style guide demand them even for block and opening curly bracket never appear on a line on their own,b,2014/4/02,,
rearrange too long line,b,2014/4/02,,
adjust naming to conform to style guide in e case change member accessibility so the naming match,b,2014/4/02,,
also some key word were reordered to comply with suggestion,f,2014/4/02,,
trivial spacing change to conform to style guide,f,2014/4/02,,
adjust copyright header,b,2014/4/02,,
adjust import order,f,2014/4/02,,
always ask,o,2014/4/02,,
confirm empty id are really wanted,f,2014/4/02,,
new id already added do save them,f,2014/4/02,,
allow blank id allow adding new id and let them be master,f,2014/4/02,,
pas through info key are new without relying on new key being empty,f,2014/4/01,,
sort out saving empty string id,b,2014/4/01,,
menu cleanup,b,2014/4/01,,
show encrypted data decryption from clipboard,f,2014/4/01,,
change path to,b,2014/4/01,,
allow private key associated to account of an,o,2014/4/01,,
add image,f,2014/4/01,,
cleanup,b,2014/4/01,,
automatically select newly created key in account,o,2014/4/01,,
fully qualified import,f,2014/4/01,,
remove,b,2014/4/01,,
default to allow symmetric decryption,f,2014/4/01,,
fix symmetric decryption,b,2014/4/01,,
fix for encrypt,b,2014/4/01,,
language,f,2014/4/01,,
more layout fix,o,2014/4/01,,
more layout fix,o,2014/4/01,,
language clarification,f,2014/4/01,,
fix layout,o,2014/4/01,,
simplify encrypt and sign,b,2014/4/01,,
fix symmetric encryption and cleanup,b,2014/4/01,,
small layout fix,o,2014/4/01,,
experimental work on a encrypt activity,f,2014/4/01,,
create three key by default,f,2014/3/31,,
change how new default key are passed back fix showing their usage flag,f,2014/3/31,,
layout for new encrypt design,o,2014/3/31,,
include signature result in fragment,b,2014/3/30,,
decrypt mostly work again,o,2014/3/30,,
compiles again,o,2014/3/30,,
more experimental work on decrypt fragment,f,2014/3/30,,
experiment with fragment in decrypt activity,f,2014/3/29,,
remove cancel from menu,b,2014/3/30,,
remove cancel from menu,b,2014/3/30,,
remove from most pi,f,2014/3/30,,
increase to 3,b,2014/3/30,,
,o,2014/3/30,,
style change,f,2014/3/30,,
actually use,o,2014/3/30,,
use save icon not tick,b,2014/3/29,,
revert mistake,b,2014/3/29,,
all editing case i can think of now work,b,2014/3/27,,
fix for editing master key and id case of change primary id and modify master key prop fails,f,2014/3/27,,
version 24,o,2014/3/26,,
sync and about with,b,2014/3/26,,
for 24,o,2014/3/26,,
update from,b,2014/3/26,,
show divider only used,o,2014/3/26,,
rename layout for remote activity,o,2014/3/26,,
improve demo for account,b,2014/3/26,,
fix provider for,b,2014/3/26,,
account activity prettified,f,2014/3/26,,
account list prettified,f,2014/3/26,,
make with and,o,2014/3/26,,
fix capability icon and remove red text for revoked key,o,2014/3/26,,
coding style,f,2014/3/26,,
remove old icon entry,b,2014/3/26,,
forgot resource,b,2014/3/26,,
part 2 of basic user interface for account,b,2014/3/26,,
add strike through text for revoked or expired key and disable view for revoked key well,f,2014/3/26,,
put expiry on a separate line,b,2014/3/26,,
account user interface,b,2014/3/26,,
simplify can encrypt check,b,2014/3/26,,
fix constraint and insert,b,2014/3/26,,
