this is my goto for reading and sending encrypted email on the move,b,2015-10-20,Shashank Jariwala,5
decrypt error just say no installed,b,2015-10-19,David Elston,1
this is exactly what i wa looking for,o,2015-10-10,Dw Bester,5
,o,2015-10-08,Jacob Nkosi,3
e gut,b,2015-10-03,Lars Andresen,5
is an easy to use encryption program allows you to send anonymous message you just copy the encryption and put it in the,o,2015-09-21,Tim Woock,5
import of key very slow,f,2015-09-16,Alexander Ivanchev,5
then i try to sign stuck at extracting signature key and then nothing no password prompt or perhaps the problem is i have stripped master,b,2015-09-16,Alexander Ivanchev,5
i would use it had a signature feature,f,2015-09-16,Gabriel Queiroz,2
error 504 all the time,b,2015-09-16,Thijs van Ulden,3
gateway error for multiple day and for a single application do not exist,b,2015-09-16,Thijs van Ulden,3
it doe not install via desktop i have enough free space account and clearing cache did not provide a solution,b,2015-09-16,Thijs van Ulden,3
even ripped the and tried manual did not fly,f,2015-09-16,Thijs van Ulden,3
i cannot install,b,2015-09-16,Thijs van Ulden,3
network i in the are and some fiber company,b,2015-09-16,Thijs van Ulden,3
may be an android bug and not the developer made it 3 star to ease the pain,b,2015-09-16,Thijs van Ulden,3
how do you export key and fingerprint,f,2015-09-13,Ri Wo,5
i want to export them i can use them in pidgin,f,2015-09-13,Ri Wo,5
any idea,b,2015-09-13,Ri Wo,5
two and all ten up,o,2015-09-09,Oni Jitsu,5
much nicer and easier to use the i used before,b,2015-09-08,Chris Cheetham,5
decrypting plain please can you display the result rather than having to open another viewer,b,2015-09-08,Chris Cheetham,5
very good,o,2015-08-31,Langthang 900,5
i love the,o,2015-08-19,Matthew Urgero,5
it work exactly it should,o,2015-08-19,Matthew Urgero,5
i do however would like to see an option for manually certifying key you know belong to a certain person,f,2015-08-19,Matthew Urgero,5
