enable creation,f,2015/7/06,,
show delete icon in,b,2015/7/08,,
hide keyboard on,f,2015/7/08,,
fixed progress dialog not shown enable dialog,b,2015/7/08,,
fixed qr code scan and progress,b,2015/7/08,,
cleanup remove export all key,f,2015/7/08,,
fix import,f,2015/7/08,,
do not ask for on delete,b,2015/7/08,,
rudimentary backup feature,f,2015/7/08,,
add retry mechanism,f,2015/7/08,,
add state,f,2015/7/08,,
fix symmetric caching,b,2015/7/08,,
shifted proxy checking to,b,2015/7/08,,
put overview into a,o,2015/7/08,,
simplification for expiry dialog,b,2015/7/08,,
temporary fix for multi export,b,2015/7/08,,
apply database fix for bogus row introduced by issue 1402,b,2015/7/08,,
fix expiry check in edit key,b,2015/7/08,,
no progress dialog for bind action in view key fragment,f,2015/7/08,,
some cleanup and fix for back button in,b,2015/7/08,,
fix result type for new error,b,2015/7/08,,
addition of for primary key is not supported,o,2015/7/08,,
better handling of key for modification,f,2015/7/08,,
use in all other place,o,2015/7/07,,
introduce to queue result handling in detached state,b,2015/7/07,,
try cache in certify operation,b,2015/7/07,,
clarification in remote code,b,2015/7/07,,
move queued action handling from commit into,o,2015/7/07,,
package cert not,b,2015/7/07,,
handle by result in,b,2015/7/07,,
linked proxy setting to other proxy,b,2015/7/07,,
fix flow for secret key and disregard cache,o,2015/7/07,,
string digit instead of number,b,2015/7/07,,
fix some from proxy implementation,b,2015/7/07,,
fix handling of progress dialog creation in,f,2015/7/07,,
test make sure encryption happens to all,b,2015/7/07,,
simplify in,o,2015/7/07,,
ignore lint error in lib,b,2015/7/06,,
version 34,f,2015/7/06,,
actually disable item in,f,2015/7/06,,
pull from,o,2015/7/06,,
disable creation,f,2015/7/06,,
better error string for too short pin,b,2015/7/06,,
also catch in,o,2015/7/06,,
save in saved instance,o,2015/7/06,,
better flow for error handling,o,2015/7/06,,
change signed by to sign with,b,2015/7/06,,
poll ha been taken away,b,2015/7/06,,
fix account key selection for,f,2015/7/06,,
in show error in others show notify,o,2015/7/06,,
encrypt to all encryption rather just the first,f,2015/7/06,,
catch in decrypt operation might be thrown from,f,2015/7/06,,
fix,b,2015/7/06,,
forgot a couple line to commit,b,2015/7/06,,
nicer error input data cannot be read,b,2015/7/06,,
cleanup annotation never return null in,b,2015/7/06,,
some cleanup and documentation,b,2015/7/06,,
