updated page,b,2013/4/08,,
file,o,2013/4/08,,
updated page,b,2013/4/08,,
android fix regression introduced in crash on opening in case file loaded on startup,b,2013/4/07,,
android hide button no file loaded,o,2013/4/07,,
android fix crash home clicked no file loaded note that this in addition should be fixed in c code note that still not ideal either disable button or at least display better error message,b,2013/4/07,,
android remove unused code,o,2013/4/07,,
android fix regression due to last commit,b,2013/4/06,,
android translation,o,2013/4/06,,
android version changed to 11,b,2013/4/06,,
android null for mime type apparently not used and cleaner just always returning,o,2013/4/06,,
android use instead of newer but no change should be visible,b,2013/4/06,,
minor fix to android,b,2013/4/06,,
dependency now checked recompiling,b,2013/4/06,,
,o,2013/4/06,,
android workaround for 643 workaround for 643 android article blank rotation and reload in case of restore state just reload page multiple time,o,2013/4/06,,
probability after two refreshes page is still blank is low,b,2013/4/06,,
added progress check on android compile script,o,2013/4/06,,
native,b,2013/4/06,,
fixed,b,2013/4/06,,
added command line option to build script,f,2013/4/06,,
android to support multiple list setting,b,2013/4/06,,
android show welcome on help menu help page can be opened via link in welcome page,o,2013/4/06,,
android get random article,o,2013/4/05,,
android moved string to separate file,o,2013/4/06,,
android,o,2013/4/06,,
android preference fix preference summary not updated,b,2013/4/06,,
setting,b,2013/4/06,,
allow changing zoom note recommendation is actually to use fragment instead of activity on honeycomb or newer,b,2013/4/06,,
you have this,o,2013/4/06,,
added welcome page help page integrated,o,2013/4/06,,
added first version of homepage and help page,o,2013/4/06,,
wa a unused prototype,o,2013/4/05,,
,o,2013/4/05,,
version 10 released on play testing,b,2013/4/05,,
android removed not required permission,b,2013/4/05,,
added note previously used permission implicitly grant read access and in addition currently android doe not enforce,b,2013/4/05,,
,o,2013/4/05,,
android translation,o,2013/4/05,,
android translation syntax fix,b,2013/4/05,,
improved string and added,b,2013/4/05,,
android fix issue reported by,b,2013/4/05,,
fixed native on and,b,2013/4/05,,
android translation,o,2013/4/05,,
android different level for tablet and phone,b,2013/4/05,,
android changed compile target to,o,2013/4/05,,
note besides bug also lead to blank page if clicked link contains fragment,b,2013/4/05,,
android fix welcome page link in version,b,2013/4/05,,
android welcome page add link to directly open,f,2013/4/05,,
file optimized,o,2013/4/05,,
android action button order use instead of always,f,2013/4/05,,
first version of the button icon for multiple screen resolution,b,2013/4/05,,
android use icon for home button,b,2013/4/05,,
android home button added,f,2013/4/05,,
android search bar on icon click,b,2013/4/05,,
added label for search bar increase search bar size,b,2013/4/05,,
android change,b,2013/4/05,,
never show help in action bar,o,2013/4/05,,
android guideline,o,2013/4/05,,
first version,f,2013/4/05,,
add circular progress bar loading file selection list only verified on emulator on device not shown,b,2013/4/05,,
cleanup string,b,2013/4/05,,
fix missing string in default,b,2013/4/05,,
show error message no file found directly in,b,2013/4/05,,
welcome page use landing page,b,2013/4/05,,
added title to welcome page,o,2013/4/05,,
load help page with complete removing help page from history would be nicer but much more effort to implement,b,2013/4/05,,
show help action bar entry if room,o,2013/4/05,,
set action bar title to article title available,o,2013/4/05,,
new version of the libs,f,2013/4/05,,
minor tweak to,b,2013/4/05,,
added compiled libs,b,2013/4/05,,
added android compile instruction,o,2013/4/05,,
minor fix to compilation,b,2013/4/05,,
clicking search suggestion directly open article,b,2013/4/05,,
article suggestion changed implementation to use filter cleaner and doe not block thread retrieving article title from file,o,2013/4/05,,
remove unused,o,2013/4/05,,
added android and target to,o,2013/4/05,,
merged code into main,b,2013/4/05,,
