Topic Index 1,Topic Index 2,Topic Similarity
0,0,2.0
2,1,1.0
4,2,1.0
8,3,1.0
15,4,1.0
18,5,1.0
1,6,0.0
3,7,0.0
5,8,0.0
6,9,0.0
7,10,0.0
9,11,0.0
10,12,0.0
11,13,0.0
12,14,0.0
13,15,0.0
14,16,0.0
16,17,0.0
17,18,0.0
19,19,0.0
