Topic Index 1,Topic Index 2,Topic Similarity
6,3,3.0
9,4,3.0
13,6,3.0
15,11,3.0
0,7,2.0
3,14,2.0
4,8,2.0
7,13,2.0
12,12,2.0
16,1,2.0
5,5,1.0
10,0,1.0
17,16,1.0
18,15,1.0
19,2,1.0
1,9,0.0
2,10,0.0
8,17,0.0
11,18,0.0
14,19,0.0
