Topic Index 1,Topic Index 2,Topic Similarity
0,18,2.0
2,11,2.0
3,1,2.0
4,2,2.0
10,15,2.0
1,0,1.0
5,14,1.0
6,6,1.0
7,16,1.0
8,12,1.0
9,17,1.0
12,19,1.0
13,4,1.0
14,8,1.0
15,13,1.0
11,3,0.0
16,5,0.0
17,7,0.0
18,9,0.0
19,10,0.0
