Topic Index 1,Topic Index 2,Topic Similarity
2,0,2.0
9,3,2.0
4,4,1.0
7,5,1.0
11,7,1.0
13,1,1.0
15,10,1.0
16,16,1.0
18,11,1.0
19,12,1.0
0,2,0.0
1,6,0.0
3,8,0.0
5,9,0.0
6,13,0.0
8,14,0.0
10,15,0.0
12,17,0.0
14,18,0.0
17,19,0.0
