Topic Index 1,Topic Index 2,Topic Similarity
0,3,2.0
6,0,2.0
11,6,2.0
13,2,2.0
15,7,2.0
1,4,1.0
2,1,1.0
3,11,1.0
4,10,1.0
5,16,1.0
8,15,1.0
9,14,1.0
10,8,1.0
12,5,1.0
14,9,1.0
16,13,1.0
17,18,1.0
18,19,1.0
19,17,1.0
7,12,0.0
