App,Store,App ID,Review ID,Country,Version,Rating,Date,Author,Subject,Body,Translated Subject,Translated Body
NetGuard - no-root firewall,Google Play,eu.faircode.netguard,Z3A6QU9xcFRPRzlaVEJvMWVrRlprMVlwdGlJSjE5NkR0Q05PdFIyVVhCeVB6NldKVlBmbTZHaXUxNlBiTVlHWnEta3lqcnpmaENRajZZcmlMeWJXaWM3VDFj,English,,5,2016-02-29,Ilyas Sipahi,it can be trial?,you can filter app ads&amp;tracking easily without root. i want to try really 👍 this app is perfect,,
NetGuard - no-root firewall,Google Play,eu.faircode.netguard,Z3A6QU9xcFRPRjJmSjU3UDBRSFZfN0VTd2RQLUtKa1Z3Z0FGdHdLdmoyTWMxeklNS3VrRVQ4S0xRd3JhTGJzX0NxUGlFdVVWcmhyQ1pjU1hMdnF5VnNOSHdz,English,,5,2016-02-29,Peter M,"","Werkt geweldig, zonder problemen.",,
NetGuard - no-root firewall,Google Play,eu.faircode.netguard,Z3A6QU9xcFRPRkZJUnE5VWd5R2wxdzhBRkFkSVFCbzFzSlBkc1diQ1Z5dE5JMjIxbXEyQk5XUUg5c1BqNmR4TDYwRVdfVDRiaElLYThKcDl6bWF2MXRCNkEw,English,,5,2016-02-28,Alan Chiang,Great light weight app!,Easy to make sure apps don't go nuts on the mobile data plus much more! Great support from the developer with very quick replies!,,
NetGuard - no-root firewall,Google Play,eu.faircode.netguard,Z3A6QU9xcFRPSFJFZldlVDVqTjNnRVhybThvUGVMTFpqMGxGTFpPcFB3SGF0NU1ldlJTa0dsSXprdlcwYVI3WEhudXlxSGs3YWtuZWJ4OUNwU2xoeTV6bU53,English,,5,2016-02-28,Daniel X,"",Excellent tool to block apps from accessing the network.,,
NetGuard - no-root firewall,Google Play,eu.faircode.netguard,Z3A6QU9xcFRPRjFtMHRqV0hqc1hIWW9UejlqcXJjZ0NsRXpBVlRtemhIZEdoWXlTYW1ySHExeUtQTFcwU2NSZjhYWVBkR3loWFVheGNqU3ZBQjRKOUtkSDJ3,English,,5,2016-02-27,Martin Klinkigt,Awesome,One of the best tools you can get for your Android. Many useful features and by blocking all the background traffic my battery life improved by 50%.,,
NetGuard - no-root firewall,Google Play,eu.faircode.netguard,Z3A6QU9xcFRPSHRNbUl2Q0ZObm55bkJCSGpwcTlmN2RBbVNxRHlGWFZ4a1pmcWhxQ1JrYXJ3amp6M0FSazFYbEhoVHZlTmJjQ1RlSTRKODRKRUZUNkx5SHZn,English,,5,2016-02-27,Akhilesh S.v.,True to it's name!,"Does what it is supposed to, except that it's not entirely perfect because sometimes it does allow Internet access to blocked apps. But almost all the time, it blocks unwanted Internet access. it is truly a great and worth having such an app!",,
NetGuard - no-root firewall,Google Play,eu.faircode.netguard,Z3A6QU9xcFRPR3VXTmZHNEpjVWl2NV8yNE81UkdneWJrMjUtUjJEMWx0Ym5ILWlYRzN6LU5URkxzRjA2MHY1MVU1TTZkVGpDVnhuVWhycmtoVWhmRDlEVnVF,English,,5,2016-02-27,Andrej Tobola,"",Great app,,
NetGuard - no-root firewall,Google Play,eu.faircode.netguard,Z3A6QU9xcFRPSGFINzh0eU9sakV0V0VLaS1WeXJGNS1VRHJaVExIU091QzdGODFacTAzdE5uUG1nR0pNNnBkd3FlS21OcVBrLU1FejR6NUdxRDktaEJZYkNJ,English,,1,2016-02-27,Mike Thomure,Made my phone slow to a crawl,"I read such wonderful reviews of this app that I installed it and it made my phone basically useless. It kept saying the things wouldn't work even though it says that they were open, I went to the app and let everything open again and things still didn't work, it wouldn't let me uninstall it. Finally got it uninstalled. I was hoping it would save my battery but I unfortunately was disappointed.",,
NetGuard - no-root firewall,Google Play,eu.faircode.netguard,Z3A6QU9xcFRPRThRRXB3cEhvWDM5Y1dnSGg2MXNBNUJjTFJWZ3FHby1KSWliT1d0NkNHZHBMTzg0b0VyUVJYU29INUs0eDM4cWk1OFBRUDVCTmNwaXF5RzJB,English,,5,2016-02-27,John Constantine,i blocked the NSA !!,"ahem uh thank you, dev",,
NetGuard - no-root firewall,Google Play,eu.faircode.netguard,Z3A6QU9xcFRPRjlMZUFZTjZ0UW54cERWN3JtdnU1Q0xub1J1eTlIR3Z0QkI2M09PQzRLMzhIWUF3ZXFSeWdyRUxDQTJrZ0Q1UDJET0Y1U1psU0R2NXFubS1N,English,,5,2016-02-27,Htler snake,"",gooooooooooooooooooooood,,
NetGuard - no-root firewall,Google Play,eu.faircode.netguard,Z3A6QU9xcFRPRmVuckhraGRHOWx3VTlpSnU4dnNQbEd6NXZSOTRvTTlqWkZSanFwbDdfQl9KLUVEeGNqRlc2dXRib2NpRFVLb190WjE3bXlnbklBUi1pOWNF,Arabic,,1,2016-02-28,عبود المسلماني,"",التطبيق لا يعمل.. ولا يمنع الإنترنت,,
NetGuard - no-root firewall,Google Play,eu.faircode.netguard,Z3A6QU9xcFRPRkhielBFbFJBcFdfdUpZRkMtaXBHWjZXbnNrZmx5Z05DNndOY0ZlWEZkN2pqQ2MxZExVOUxCUGVBWm5oRjY5QnRrYlhMc0FhLTk3Mk5zbWp3,Arabic,,3,2016-02-27,Bahaa مبروك,"","",,
NetGuard - no-root firewall,Google Play,eu.faircode.netguard,Z3A6QU9xcFRPSExpMERiMEFVUXk4LWRIamhZOFhKbm44ZDlvbkZ2aGtzUUpONkl1YTR6YVVnakVmR2wzRlp0YjcxUlBORFZ6OWxEV0xVN01vYmdGbUNVZ05r,German,,2,2016-02-29,Andre Gaida,"","Im heimischen wlan ist alles Ok, auch wenn kein Akku gespart wird, Aber sobald ich mit dem Sgs6 und One M8 unterwegs bin, wird NetGuard zum Hauptverbraucher. Da verlasse ich mich lieber weiter auf die Hintergrundateneinschränkung von Android",,
NetGuard - no-root firewall,Google Play,eu.faircode.netguard,Z3A6QU9xcFRPSGFnTFVlSllBZ2RHQTljbVpxRGMyTU1lamdKdmZzQmd0d3ROc3UxMnVUazRtWkxoeG9pdmd3QmFLUmRMWnBxMGpZUmNNNTNaUV9oS2MtTUZR,German,,5,2016-02-29,kzysek,"",Best no-root firewall,,
NetGuard - no-root firewall,Google Play,eu.faircode.netguard,Z3A6QU9xcFRPRjMzQ1VNZHpySER1SjdjM3VKcFJkaEVQLWlPMlZyNDFCQzFqUEZpdUc5MGlOZS04QWV3dERzdEN2Z01YRy0xX1EyYWpjbVdlQzgwVVFVbFpR,German,,5,2016-02-28,Vila dasAcacias,Exzellente App !!!,"Top App, mit sehr guten Einstellungs- und Überwachungs Möglichkeiten. Separate Einstellungen für WLAN und Mobil Netz. Somit lässt sich die Internet Nutzung der einzelnen Apps, genau steuern. Nicht jede App braucht einen Internetzugang. Durch die Steuerung der einzelnen Apps, lässt sich spürbar ""Datenvolumen"" einsparen. Danke an die Entwickler.",,
NetGuard - no-root firewall,Google Play,eu.faircode.netguard,Z3A6QU9xcFRPR190STBZd2UzeS1McWdRNE9GdzJONVQzeE02bDlhRVk4NmRKZ0I1Zjh2bGhYTEtzaUJ4YWFqS2JMdmhEY0V0dXFjYkZkMVJjMnZwTFFxcDdv,German,,5,2016-02-28,Plus Likesyou,"","OMG. I'm so happy now. Finally an app that really helps me. It works like a charm.   You wouldn't believe how many paid(!!) apps try to phone home all day long for no good reason (alarmclock, camera app, price trend apps, gallery app,  games, gps app, assistant ...)  I will make an inapp purchase soon, not that I need any of the fancy stuff, but just to support your projects, that help so many. Promised!  Just one wish: Please don''t stuff it with bloatware (FB, Twitter, More Apps, Popups, SystemOptimizer) like so many other devs do at one point.",,
NetGuard - no-root firewall,Google Play,eu.faircode.netguard,Z3A6QU9xcFRPRjlJUzl1RUw0X2x6NU94SWMtTmEyN1YtVlIzRWc5eFBxaTFVUUV1NGttLUtsdFJtQ0JMTGFEdWxBeFdjV3hlRDVETzgtVUFkSWF6QkNZVzBv,German,,5,2016-02-28,Nico Piotraschke,"","Perfect, like everything Marcel develops! Greetings from XDA",,
NetGuard - no-root firewall,Google Play,eu.faircode.netguard,Z3A6QU9xcFRPSHRsVzhhZEFNanBTMTZtaWdLZVdKTkJ4V243ZUFpbnI0dlBESVB5WS1wTWU3Q1pmc3JiLXh0X1FBWWVkTW94RUhjclI3ZHBKWU94QmxvTGVn,Portuguese,,5,2016-02-28,Willian Efaanz,Ótimo,Funciona muito bem,,
NetGuard - no-root firewall,Google Play,eu.faircode.netguard,Z3A6QU9xcFRPRWx6UUZyMVZLaWpvcXdZYkM4R3J3SnY1QlYya1l1aEFpWkVHUnFxV3duWGMxM0pkQTlENm9jUG8yc3VibHdyNExzRDNySzhMVVdLYmlBMVZr,Spanish,,5,2016-02-29,Israel Merino,PERFECTO!!,"Estaba teniendo un consumo brutal de Android OS + otras y éste es el ÚNICO cortafuegos que detuvo ese consumo. Más que feliz, felicidades a los desarroladores. El ahorro de saldo es total.",,
NetGuard - no-root firewall,Google Play,eu.faircode.netguard,Z3A6QU9xcFRPR2pHak4tWXRKcWZsU0VZRS1qTzQ4cllmcUVFMGF0Wld2VU9wN09HWENWMnNISm5QWGgtUXBoUDhKa0sxSHRVRjJ6U0JkZWQza00xZ09paS13,Spanish,,5,2016-02-27,Ricardo Rodríguess,"",Lo bueno de esta App es que no usa Internet y funciona excelente. Ojala no cambien esa filosofía. La recomiendo como la mejor de lo mejor,,
NetGuard - no-root firewall,Google Play,eu.faircode.netguard,Z3A6QU9xcFRPSEtndkNROTZxRFJhRVppbXRrb2ktc0t5UG9XOHlIT1FDdTNqYkpkWFY0dlpqNEhHcm5rZndHNXZaNXpHTHRtOFRzckkwaGZMZC1ZaEpHSkZF,Spanish,,2,2016-02-27,Fede nano,"",No se puede sacar la notificación de que la app esta activada 👎,,
NetGuard - no-root firewall,Google Play,eu.faircode.netguard,Z3A6QU9xcFRPRWlkT1dhODFJcVZycmg5SmpiUnpKWHZnS3lQa2tUQlA2YzRHMHE0TjVUX1hERHN6ejVkbXVkTnVvX1ZhLUxid3FIM0ZnMF82NzJJOUJxZk93,Spanish,,5,2016-02-27,Adrian Perez torres,Hoao,Hdhd,,
