Topic,Words
0,0.058*list,0.047*either,0.043*means,0.042*with,0.035*put,0.034*it,0.030*found,0.030*job,0.028*faster,0.027*make
1,0.046*will,0.044*like,0.043*support,0.041*it,0.035*for,0.033*when,0.030*able,0.028*does,0.025*put,0.024*make
2,0.041*dead,0.039*each,0.034*save,0.033*or,0.031*list,0.028*only,0.028*reader,0.027*on,0.027*key,0.026*compatible
3,0.051*4,0.034*found,0.032*the,0.029*only,0.028*disable,0.028*great,0.028*5,0.027*a,0.025*11,0.024*isn't
4,0.063*isn't,0.038*otherwise,0.031*list,0.031*like,0.030*android,0.030*looks,0.030*but,0.029*disable,0.027*how,0.025*time
5,0.059*5,0.039*if,0.036*supported,0.036*other,0.033*is,0.029*what's,0.029*how,0.029*itself,0.023*great,0.023*android
6,0.060*6,0.053*support,0.043*so,0.034*save,0.030*of,0.026*keys,0.025*card,0.024*each,0.023*my,0.023*with
7,0.060*in,0.049*only,0.043*able,0.037*isn't,0.033*lollipop,0.026*bad,0.026*good,0.026*to,0.024*6,0.021*faster
8,0.048*supported,0.044*cannot,0.033*from,0.033*tag,0.032*4,0.030*problem,0.027*still,0.027*for,0.026*like,0.023*keys
9,0.044*4,0.042*only,0.035*please,0.035*would,0.034*never,0.033*how,0.027*the,0.027*stars,0.024*if,0.024*simple
10,0.047*tags,0.039*android,0.038*it,0.036*never,0.035*will,0.033*my,0.032*itself,0.031*mappings,0.031*phone,0.027*so
11,0.041*mappings,0.040*make,0.033*like,0.032*time,0.027*so,0.026*in,0.026*it,0.025*other,0.024*for,0.024*faster
12,0.043*or,0.043*bad,0.041*lollipop,0.039*from,0.034*can,0.032*support,0.028*6,0.028*galaxy,0.027*if,0.026*cards
13,0.047*only,0.045*how,0.035*supported,0.031*not,0.030*section,0.027*my,0.027*make,0.026*but,0.025*what's,0.022*put
14,0.051*how,0.038*keys,0.038*simple,0.029*use,0.029*tag,0.028*able,0.027*11,0.027*itself,0.024*stars,0.024*galaxy
15,0.057*love,0.050*these,0.037*stars,0.037*write,0.036*0,0.031*a,0.031*compatible,0.023*use,0.023*problem,0.022*itself
16,0.046*known,0.043*add,0.040*class,0.037*it's,0.036*simple,0.031*with,0.030*other,0.029*keys,0.027*0,0.026*disable
17,0.070*it's,0.056*classic,0.040*read,0.040*one,0.028*when,0.027*my,0.026*if,0.026*simple,0.026*job,0.025*it
18,0.048*does,0.040*if,0.037*from,0.034*job,0.031*starting,0.027*read,0.026*time,0.023*when,0.023*0,0.022*only
19,0.070*list,0.060*the,0.044*add,0.039*read,0.028*these,0.027*be,0.026*compatible,0.025*time,0.024*dead,0.024*not
