Topic Index 1,Topic Index 2,Topic Similarity
9,11,2.0976000000000004
14,9,2.007
3,18,1.6398
4,15,1.4231
6,4,1.2673
7,16,1.1214
12,3,0.8052
16,10,0.6700000000000002
8,7,0.5932
2,12,0.4599
18,2,0.3584
11,5,0.33149999999999996
1,19,0.26789999999999997
19,13,0.2562
17,8,0.21150000000000002
10,14,0.15400000000000003
0,0,0.0
5,1,0.0
13,6,0.0
15,17,0.0
