Topic Index 1,Topic Index 2,Topic Similarity
13,7,0.5604
18,16,0.5236999999999999
2,2,0.4866
9,6,0.47359999999999997
17,9,0.45139999999999997
4,4,0.4274
15,8,0.34099999999999997
16,12,0.29400000000000004
14,5,0.2924
3,3,0.2665
8,11,0.258
6,1,0.2343
5,18,0.2254
12,19,0.1428
1,15,0.1287
0,14,0.1218
7,0,0.0
10,10,0.0
11,13,0.0
19,17,0.0
