Topic Index 1,Topic Index 2,Topic Similarity
14,11,0.0288
10,18,0.0275
6,4,0.0205
13,14,0.0185
4,1,0.013600000000000003
11,0,0.013600000000000003
0,2,0.0
1,3,0.0
2,5,0.0
3,6,0.0
5,7,0.0
7,8,0.0
8,9,0.0
9,10,0.0
12,12,0.0
15,13,0.0
16,15,0.0
17,16,0.0
18,17,0.0
19,19,0.0
