perfect doe everything it say,o,2013-06-15,Charles Gaulin,5
i have no issue with the shortcut button on the nor the notification tray drop everything work great,b,2013-06-15,Charles Gaulin,5
thanks,o,2013-06-15,Charles Gaulin,5
awesome,o,2013-06-12,Sujay Khandekar,4
very helpful,o,2013-06-12,Sujay Khandekar,4
thing is how do i disable the tap to unlock thing,f,2013-06-12,Sujay Khandekar,4
all i really want is the notification,b,2013-06-12,Sujay Khandekar,4
using this with an one,b,2013-06-12,Areez Vakil,4
the thing i missed on my android phone wa the screen not turning on for notification like my 4 did,b,2013-06-01,Connor Williams,5
now i have it,o,2013-06-01,Connor Williams,5
just what i wanted,o,2013-05-30,Prassanth Lakshminarasimhan,5
thanks,o,2013-05-30,Prassanth Lakshminarasimhan,5
everything work awesome,o,2013-05-27,Red Zie,4
no delay,b,2013-05-27,Red Zie,4
i have to unlock the lock screen,b,2013-05-27,Red Zie,4
in my work the lock screen short cut is very useful for me,b,2013-05-27,Red Zie,4
forgot to mention i have one,b,2013-05-27,Red Zie,4
the is and work flawlessly without any delay,b,2013-05-20,Ishaan Garg,5
awesome work,o,2013-05-20,Ishaan Garg,5
the i wa looking for something soon turned on my screen after a text like my,b,2013-05-13,Chih Zheng,4
this doe the job very well,o,2013-05-13,Chih Zheng,4
the only issue is it take about five or so second to turn on the screen,b,2013-05-13,Chih Zheng,4
granted this is a very new phone,b,2013-05-13,Chih Zheng,4
i used this on galaxy it wa perfect but it need work on nexus 4,o,2013-05-13,A Google User,3
