# deletions,date,commit message
2,2014/9/08,unify package name
1,2014/9/08,update lib
2,2014/9/08,fix
10,2014/9/08,introduce for singleton result
9,2014/9/08,properly handle key type in more specifically return an for stripped and key with an appropriate error message in the log
9,2014/9/08,part of 828
2,2014/9/08,version 291
775,2014/9/08,pull from
17,2014/9/08,revert change in
2,2014/9/08,update libs
24,2014/9/08,work on decryption
1,2014/9/08,fix test
1,2014/9/08,fix test
3,2014/9/08,use pin
3,2014/9/08,fix signature in
32,2014/9/08,prepare decryption
