# deletions,date,commit message
13,2014/4/18,can search retrieve install use key from there
6,2014/4/18,fix unified query column for
5,2014/4/18,update maven libs and use fixed version
193,2014/4/18,remove unused string fix some lint error fix some language confusion
27,2014/4/18,translation from
2,2014/4/18,do not show lookup button in decrypt activity for
2,2014/4/18,small language correction
7,2014/4/18,fix button
3,2014/4/18,fix upload of key close 581
2,2014/4/17,26
9,2014/4/17,remove kill hack in
5,2014/4/17,remove hack in
33,2014/4/17,get rid of close 575
121,2014/4/17,for all method
3,2014/4/17,load data once in fix 571
1,2014/4/17,add up navigation in fix 567
8,2014/4/17,use project icon for certification status close 573
4,2014/4/17,update comment in
5,2014/4/17,secret key can be deleted individually from multi selection
1,2014/4/16,essential instead of integral
866772,2014/4/16,use git submodules for libs fix compilation remove library
1,2014/4/16,fix even more whitespace
2,2014/4/16,fix more whitespace
1,2014/4/16,fix whitespace
1,2014/4/16,update fix
1148,2014/4/16,translation from fix some string reference
1,2014/4/16,fix
14,2014/4/16,stripped support implement support in and of secret key close 570
18,2014/4/16,stripped support add column to key table
2,2014/4/16,clarify comment
2,2014/4/16,version 26
2,2014/4/16,comment
7,2014/4/16,handle new exception in remote service
36,2014/4/16,fix
53,2014/4/15,fix signature verification search for right signature instead of using first for verification
25,2014/4/15,fix in
31,2014/4/15,optimize import
6,2014/4/15,fix in
2,2014/4/15,center of cert fragment close 566
126,2014/4/15,improve verification result display close 568
51,2014/4/15,encapsulate creation of object inside to better constraint it output processing with
3,2014/4/15,add web of trust help entry
1,2014/4/14,some comment to constant
183,2014/4/14,removing remaining us of id closing one of the oldest bug 9
21,2014/4/14,cleanup
12,2014/4/11,move old to
1,2014/4/11,add debug option to main menu close 543
57,2014/4/14,translation from
4,2014/4/14,fix
168,2014/4/14,key edit fix crash create date wa after expiry date change from calendar to calendar with creation from instance experimental result status for decrypt activity
74,2014/4/13,rework
13,2014/4/13,implement in
17,2014/4/13,handle new exception in
435,2014/4/13,remove unused blob class and other dead code
83,2014/4/13,update license header for 2014
37,2014/4/12,more change to
6,2014/4/11,clarify use of method in
60,2014/4/11,more id removed
46,2014/4/11,more fix for import item layout
189,2014/4/11,remove some id
49,2014/4/11,simplify and fix delete key dialog
23,2014/4/11,is now
8,2014/4/11,put it belongs
22,2014/4/11,is now
127,2014/4/11,merge into main method
2,2014/4/11,get by master key id
13,2014/4/11,more cleanup in
228,2014/4/11,to be using a constructor based on context
66,2014/4/11,remove query from introduce encrypt to signer mode
4,2014/4/11,prettify
104,2014/4/11,prettify more layout
16,2014/4/11,split for the remaining use case close 549
88,2014/4/11,get rid of more usage work on
50,2014/4/11,fix
21,2014/4/10,display correct primary user id in import mostly this is an incomplete due to use of machine readable output there is no way to know the primary user id for key fetched from a key server
78,2014/4/10,remove drawer layout remnant from import key
36,2014/4/10,use view holder pattern in close 551
138,2014/4/10,rewrite moved all specific logic from the adapter class into inner subclass in the fragment more versatile status display applied view holder pattern query logic including moved into provider class close 375
15,2014/4/10,cleanup close 547
2,2014/4/10,disable selection of user id and key in view key
6,2014/4/10,minimize use of class variable in
6,2014/4/10,cleanup code for
2,2014/4/10,cleanup import
157,2014/4/10,integrate functionality into
3,2014/4/10,deleted wrong
19,2014/4/09,prettify more layout fix edit and encrypt intent from key view
7,2014/4/09,temporary disable of master key id extraction from
48,2014/4/09,prettify some layout
2,2014/4/09,cert fix verification in fix 541
6,2014/4/09,fix for lint
29,2014/4/09,fix certification layout
45,2014/4/09,fix
101,2014/4/09,fix save keyring improve signature verification
7,2014/4/09,replaced toast in
1,2014/4/08,removed unused toast import in
3,2014/4/08,replaced toast in
9,2014/4/09,cleanup in
1,2014/4/09,hide keyboard hiding custom key length field
1,2014/4/09,instead of
1,2014/4/09,fix decrypt and send intent
41,2014/4/08,modified spinner value for
41,2014/4/08,added info for user about custom key length restriction
85,2014/4/08,use in more place
31,2014/4/08,fix decryption of encrypted for multiple public key
128,2014/4/08,introduce remove dead code
403,2014/4/08,change license from to possible
49,2014/4/08,update copyright timespan for
3,2014/4/08,fixed coding style
22,2014/4/07,added possibility to enter custom key length
22,2014/4/07,added key length limitation according to issue 102 and specification
8,2014/4/07,toast replacement in
13,2014/4/06,fixed bug on window
13,2014/4/06,comment out due to bug on window
2,2014/4/06,license clarification in
13,2014/4/06,show key expiry status similar to revocation
1,2014/4/06,update
1,2014/4/06,update link
18,2014/4/06,update
10,2014/4/06,update
7,2014/4/06,rename folder structure from to
106,2014/4/06,pull from
47,2014/4/06,optimize comment remove dead code
2,2014/4/06,use dark icon in warning dialog in edit key
14,2014/4/06,code style
48,2014/4/06,copyright header correction style fix
7,2014/4/06,cert remove unused menu item
3,2014/4/06,cert change migration routine certification work
4,2014/4/06,cert display green dot for certified key in
41,2014/4/06,the number of ring with an expiration in a cert out there is likely negligible
41,2014/4/06,now verifies the key and display a status
41,2014/4/06,for revocation cert the revocation reason is also shown
36,2014/4/06,cert fix
37,2014/4/06,cert fix and improve user id list
50,2014/4/06,cert ditch selection spinner from cert view
11,2014/4/06,cert display cert type in cert view
12,2014/4/06,cert display status in list
66,2014/4/06,cert properly handle primary flag and revocation of
8,2014/4/05,use in edit key
35,2014/4/05,remove import activity from drawer make it reachable from key list
12,2014/4/05,use in
10,2014/4/05,rework menu item
141,2014/4/05,fix make edit activity like a modal dialog move all menu action into view activity
30,2014/4/05,cert various improvement recognize save signature type save expiry time drop encoded data blob from db
38,2014/4/05,cert more fix almost working now
2,2014/4/04,change header in encrypt activity to be more descriptive
81,2014/4/04,fix key export
15,2014/4/04,fix delete key from
96,2014/4/04,cleanup
51,2014/4/04,fix with and without known key
32,2014/4/04,workaround level 11
18,2014/4/04,different hack for type info
20,2014/4/04,calculate packet on demand
10,2014/4/04,fix loading indicator in and
78,2014/4/04,reintroduce and query the thing left to fix after the db upgrade are key export
78,2014/4/04,minor stuff mostly
263,2014/4/03,more work on new provider specific secret key are preserved a new public key is inserted started work to give virtual column a representation in the contract class streamline method
263,2014/4/03,the method relies on a level 11 method not sure yet how to that many more small thing work a they did
223,2014/4/03,more work on streamlining and stripping
100,2014/4/03,ditch useless method
2,2014/4/03,title for
5,2014/4/03,simplify
2,2014/4/03,demo 3
1,2014/4/03,disable test
2,2014/4/03,version 25
1,2014/4/03,update from
2,2014/4/03,
6,2014/4/03,key lookup for
7,2014/4/03,key lookup for
147,2014/4/03,implement
31,2014/4/03,cleanup
1,2014/4/03,clarify
1367,2014/4/03,break a lot of stuff
1367,2014/4/03,also database redesign
1367,2014/4/03,change entire database design
1367,2014/4/03,this introduces a lot of change notably all and almost all projection
1367,2014/4/03,some feature have been simply commented out for now they need serious reconsideration
1367,2014/4/03,there are a couple of new marking place more work is needed
1367,2014/4/03,the migration path work fine from what i tested
1367,2014/4/03,the old database is not deleted for now it is at every start of the application making all intermediate change transient
