# deletions,date,commit message
2,2016/1/05,Increment to 2.5.0
0,2016/1/05,Rename CIELCHEvaluator.java to CIELChEvaluator.java
40,2016/1/04,Fix background color animation
11,2016/1/04,Combine switches
8,2016/1/04,Remove "Show fewer preferences"
151,2016/1/04,Delete unused activity
2,2016/1/04,Fix dialog shadow
1,2016/1/04,Conversation theme summary
4,2016/1/04,Use settings as first menu option
1,2016/1/04,Use current theme as conversation theme default
14,2016/1/04,Allow color picker inside conversation
2,2016/1/04,Rename theme color option
1,2016/1/04,Fix notification click crash
5,2016/1/04,Use CIE-LCh interpolator for theme changing
5,2016/1/04,Use CIE-LCh color space to animate between colors
132,2016/1/04,Remove simple settings
98,2016/1/04,Remove holo theme
8,2016/1/04,Fix activity theme setting
11,2016/1/03,Remove unused method
71,2016/1/03,Migrate more activity theming code from ThemeManager
61,2016/1/03,Fix color spelling
23,2016/1/03,Simplify color picker dialog showing
8,2016/1/03,Allow exclusion of prefers from automatically calling refresh in LiveViewManager
39,2016/1/03,Use one Preference for all Theme LiveViews
29,2016/1/03,Migrate more Activity theming ThemeManager
3,2016/1/03,Use AppCompatActivity base
39,2016/1/03,Fixed GC issue with LiveViews in LiveViewManager
11,2016/1/03,Theme Toolbar from activity
29,2016/1/02,Make LiveViewManager abstract
446,2016/1/02,Rewrote LiveViewManager  Essentially now you’ll be registering blocks of code rather than views. Significant performance and code quality improvements
55,2016/1/01,Initialize ThemeManager on startup
254,2015/12/30,Static usages of ThemeManager
1,2015/12/29,Update README.md
31,2015/12/25,Clean up notification dialog class
366,2015/12/25,Merge MmsConfig classes
328,2015/12/25,ThemeManager singleton
12,2015/12/24,No need for returning color and activeColor independently
15,2015/12/24,Better constructor for MessageListFragment
4,2015/12/24,Added additional option to conversation preferences for theme
1,2015/12/24,Fix tinting in onResume
3,2015/12/24,LiveView tinting on ComposeButton
4,2015/12/24,Update avatars with active theme
13,2015/12/24,Live tinting of message bubbles
20,2015/12/24,Tint status bar with new color
42,2015/12/24,Remove SharedPreferences object from MessageListFragment
2,2015/12/24,Use the changing position to animate the toolbar color
168,2015/12/24,Add ability to listen for updates to content fragment position
1,2015/12/23,Add Linkify
1052,2015/12/23,Stripped out a lot of unneeded code from SlidingMenu
143,2015/12/23,Remove code for secondary menu
2,2015/12/22,Increment to 2.4.1
4,2015/12/22,Fixed notification action color
1,2015/12/22,Crashlytics #47
1,2015/12/22,Crashlytics #4
3,2015/12/22,Fixed notification icon color
