App,Store,App ID,Review ID,Country,Version,Rating,Date,Author,Subject,Body,Translated Subject,Translated Body
Wifi Fixer,Google Play,org.wahtod.wififixer,Z3A6QU9xcFRPRVgyZG5QczNyQnoyUm81dXJ6TjFmeVpxcTNFaDBJLVNCbWNiNkliM05vLXBTT1VHT0JDYng2YUdLRjN2T3VsT3FRWEoyeE9pSTlqTnE5S2c,English,,5,2014-08-27,Bob Tiller,Simple and effective,many time i find fixer already addressing problem just i notice an issue,,
Wifi Fixer,Google Play,org.wahtod.wififixer,Z3A6QU9xcFRPRVgyZG5QczNyQnoyUm81dXJ6TjFmeVpxcTNFaDBJLVNCbWNiNkliM05vLXBTT1VHT0JDYng2YUdLRjN2T3VsT3FRWEoyeE9pSTlqTnE5S2c,English,,5,2014-08-27,Bob Tiller,Simple and effective,a rare find,,
