App,Store,App ID,Review ID,Country,Version,Rating,Date,Author,Subject,Body,Translated Subject,Translated Body
Sensor Readout,Google Play,de.onyxbits.sensorreadout,Z3A6QU9xcFRPRnVBMXQySnNFRXNGN3ZlbVAxVGpmMXA0RUpEU1RWN0E2dlVpRmV5Umota05mSmUxcmNycEVjdVdGRFhwSFlxQVlnN0UwSXFwVVJHRjhW,English,,4,2014-04-04,Coonie Waschbär,Does what it says on the tin,no just show sensor in a graph,,
Sensor Readout,Google Play,de.onyxbits.sensorreadout,Z3A6QU9xcFRPRnVBMXQySnNFRXNGN3ZlbVAxVGpmMXA0RUpEU1RWN0E2dlVpRmV5Umota05mSmUxcmNycEVjdVdGRFhwSFlxQVlnN0UwSXFwVVJHRjhW,English,,4,2014-04-04,Coonie Waschbär,Does what it says on the tin,a plain number readout would be nice,,
