# deletions,date,commit message
147,2014/10/06,Save Anime-/Mangalist in relation table  This allows us to store the lists of friends too! Updated all related functions (they now have a username or userId parameter to define the user). Also removed the recordId field from the anime and manga table: as the ID's provided by the API are unique we can use them directly.
36,2014/10/06,Remove syncDialog & automatically turn sync on in the settings (Account)
0,2014/10/02,Add new menu icons for the inverse option (Home)
16,2014/10/01,Fix imports & indents (SearchActivity)
1,2014/10/01,Fix search on start while entered an ID (SearchActivity)
6,2014/10/01,Show dialog if there is only an integer in the query (SearchActivity)
1,2014/10/01,Download the anime details if there is only an ID (DetailView)
1,2014/10/01,Make query public for the getActivity method (SearchActivity)
4,2014/10/01,Modify Dialog strings to use the right res ID (Strings)
1,2014/10/02,Fix capital character in strings changed russian into Russian (Languages)
10,2014/10/02,Restart app after language change to apply it (Language)
13,2014/10/02,Cleanup language switcher in the theme file (Language)
1,2014/10/01,Fix language when the device has been rotated (Language)
1,2014/9/30,Fix text outside the card shadow (Card)
1,2014/9/27,Fix show dialog when pressing next to Textview (Card)
253,2014/9/25,Translations update for 1.4 (Language)  This commit will update the following languages: Spanish Portuguese ( and Brazil) Polish French Dutch & Russian.
10,2014/9/15,Replace removeConfirmationDialog method with the universal one (DetailView)
1,2014/9/15,Change removeConfirmationDialog from support lib to HEW (Dialog)
31,2014/9/15,Replace Separated dialog creator with a universal one (DetailView)
10,2014/9/15,Simplify isAdded method by replacing the condition (DetailView)
16,2014/9/15,Remove old unused onConfigChanged method  (DetailView)
16,2014/9/14,Fix crash on pressing back after DV is done with loading (DetailView)
76,2014/9/14,Fix landscape crash caused by swipe to refresh (DetailView)
1,2014/9/13,Update summary string (Language)
20,2014/9/13,Move the programmatically Locale creator to the prefManager (Language)
1,2014/9/13,Update strings & setting .xml (Language)
2,2014/9/13,Fix isAdded() method on refresh by requesting more details (DetailView)
6,2014/8/29,Fix crash by making responses serializable
7,2014/8/29,Pass User record from Friendlist to Profile
126,2014/8/29,Merge Friend table into Profile table
2,2014/8/28,Fix not added animes/mangas showing in myList (DetailView)
3,2014/8/28,Fix memberscore overwriting bug (DetailView)
16,2014/8/28,Remove the old methods that are requesting data from the database (MALManager)
1,2014/8/28,Fix offline support & removal old database request method (DetailView)
4,2014/8/28,Change put and get to pass data (Detailview & IGF)
5,2014/8/28,Add SwipeRefreshLayout to src (DetailView)
73,2014/8/28,Add SwipeRefreshLayout to activity_detailview.xml (DetailView)
10,2014/8/29,Remove old sorting method
22,2014/8/29,Add SwipeRefreshLayout
108,2014/8/29,Update UI & add viewholders
14,2014/8/29,Drop friendSince because of inconsistency.
1,2014/8/29,Add highlite colors onClick
2,2014/8/27,Replace the replace function with update and insert.
19,2014/8/27,Remove unnecessarily columns because null does the same
0,2014/8/25,Add roboto fonts to fix the actionbar item bug (Friends)
4,2014/8/26,Check if type is null to prevent NPE  This fixes an app crash if the Activity was called by an Android Beam event.
12,2014/8/26,Revert "Add Detection for Beam in onCreate"  This reverts commit 9f04cadc1c134aad801ccd592939cab934255150.
1,2014/8/21,Change HEW maven URL to the new maven URL
111,2014/8/09,Remove old itemgridfragment & basicdetails that have been removed.
2,2014/8/04,Fix Grid Too Short on specific devices
7,2014/8/09,Add Detection for Beam in onCreate  NFC beam of titles doesn't always run through onResume sometimes it goes through onCreate. Add detection of the beam there as well.  Fixes #215
146,2014/8/07,Database cleanup
3,2014/8/04,Fix numberpicker if total volumes are unknown
3,2014/8/02,Fix Unknown Item Totals shows 0 on Detailview (fixes #207)
8,2014/8/06,Remove unused MALManager variables
7,2014/8/06,Fix possible SQLite error 1802  After deleting the database (on logout) no new one was created because the MALSqlHelper was not recreated for two reasons: - the MALSqlHelper is designed as singleton (object is retrieved by calling getHelper()) but instance was not unset after deleting the database - malSqlHelper was defined as static in DatabaseManager so even fixing the first point would not fix the bug because all instances of DatabaseManager share the same malSqlHelper  Now MALSqlHelper has the new function deleteDatabase() that deletes the database and sets instance to null so the next call to getHelper() will recreate the database. Also malSqlHelper is not defined as static in DatabaseManager. Also cancel running NetworkTasks on logout to make sure that the tasks are not accessing the database when it is deleted.
12,2014/8/06,Fix first sync after login  autosync() was not working because af and mf are null in onCreate(). Now this is done in onIGFReady().
1,2014/8/01,Bump Version  Bump the version number so that any crash reports properly show as a pre-release build.
77,2014/7/31,Automatic code reformat as suggested by @ratan12
48,2014/7/31,Use AuthenticationCheckTask in FirstTimeInit  This removes the networkThread and the messenger-Handler.
5,2014/7/31,Changes for latest switch to AccountManager
0,2014/7/31,Fix orientation (FirstRunActivity)
28,2014/7/31,Handle authentication errors after password change  WriteDetailTask and NetworkTask now have a callback if there is an authentication error (HTTP status 401). These callbacks are handled in Home and DetailView. Now if the user changed his password and does something within the app that requires authentication a dialog is shown asking for the new password.
2,2014/7/31,Fix #202  Don't reload records if connection is lost.
2328,2014/7/23,Add new cards for UI improvement & #26
0,2014/7/29,Change Atarashii icon (& Beta icon).
11,2014/7/21,Fix some missing translations in DetailView  These are gone missing in the in the last rewrite: - media status - media type - user status for manga Now they're back :)
5,2014/7/20,Fix scroll position reset in resetPage()
1,2014/7/20,Don't show swipe refresh animation when clearing
1,2014/7/20,Better empty list handling in onAttach()
6,2014/7/20,Fix loading indicator displaying
1,2014/7/20,Correct jobReturnsPagedResults()  - use isList() - Search does not return paged results
12,2014/7/19,Do list updates based on broadcasts  Now everytime a WriteDetailsTask finished it sends a broadcast which is received by IGF. If the IGF currently shows the users list and has the same ListType as returned by the broadcast callback it will update the list. This way we're only updating lists if necessary.
1,2014/7/19,Keep own list filter when loading more pages on other list  Fixes bug: the filter on the own list was overwritten when more pages were loaded on an other page (like upcoming).
3,2014/7/19,Fix infinite calling of getRecords when reached last page
18,2014/7/19,Fix NetworkTask error handling  The tasks which return paged results return a 404 if the page is invalid so handle this properly.
6,2014/7/19,No need to call getRecords in onCreateView  Just refresh if there are records (e. g. after rotation)
1,2014/7/19,isEmpty is API 9+ so remove it
2,2014/7/19,Remove useless resetPage()  getRecords() calls resetPage() if clear is true which is always the case here.
1,2014/7/19,Fix possible NPE
3,2014/7/19,Fix some messed up indents
1,2014/7/18,Don't set taskjob in SectionsPagerAdapter  Avoids unnecessary getRecords()-call in SearchActivity
75,2014/7/18,Remove static callback in SearchActivity  - replaced by callback interface: onRecordsLoadingFinished() - improved crouton messages: always show only one crouton not two if af & mf tasks failed also show a crouton if sync failed
36,2014/7/18,Use ListType-variable instead of boolean for type definition  ListType is made for this so use it :)
16,2014/7/18,better af & mf assignment
47,2014/7/17,Error callback for NetworkTask  NetworkTask now has an error callback. In case of an error onNetworkTaskError() is called instead of onNetworkTaskFinished. So onNetworkTaskFinished is never called if there was an error in the NetworkTask.
66,2014/7/17,SearchActivity improved  - no static af & mf - rename HomeSectionsPagerAdapter to SectionsPagerAdapter and use it for SearchActivity too - improved search intent handling
21,2014/7/17,Don't declare af and mf in Home as static  Static variables are considered as bad practise in most cases and can cause subtle bugs as well as GC-problems and should be avoided if possible. Also there is not really a reason for them to be static in Home so generate them dynamically.
4,2014/7/17,Don't show swipe refresh animation for search
4271,2014/7/16,Fix indents & organize imports (res & src)
88,2014/7/16,Removal seperated arraylists & adapters (IGF)
1,2014/7/16,Disable swipe refresh for SearchActivity  This is not needed there and causes a crash.
1,2014/7/15,Only display network error info if it is actually a network error
41,2014/7/15,Implement NetworkTask cancelling  Don't continue loading data if the user selects an other list. This prevents unnecessary loading of useless data and fixes #190.  Exception are FORCESYNC-tasks there is no reason to interrupt them. Instead let them finish but don't display results (thats why there is the new "cancelled" parameter in the callback function).  Cancellation code is a little more complex as it could be because of our low minimum API level. It can be simplified as soon as we drop < API 11.
256,2014/7/15,Unify Anime/MangaNetworkTask  They are doing the same so they can be easily unified. This makes less and cleaner code. Also changed GET and GETDETAILS tasks to return Anime/Manga objects instead of ArrayLists with only one element (now possible as the task's return type is Object since #176).
23,2014/7/13,Fix results from previous search are shown (Search)
2,2014/7/15,Show loading indicator if forced update and clear=true
4,2014/7/11,Don't use holo colors from android resources  They are available for API 14+ only
8,2014/7/11,Fix notifications for synctask()  Only disable notification for swipe refresh.
14,2014/7/11,Use synctask() for forced sync  forcesync() has done the same so it was implemented twice (thx @ratan12 for pointing at it).
2,2014/7/11,Don't try to sync if there is no connection
60,2014/7/11,Implement SwipeRefreshLayout  Forced sync is now possible by swiping down like e. g. in the G+ or GMail-App.
1,2014/7/12,Fix Horizontal lines in (EPDF -> Detailview)
2,2014/7/12,Fix actionbar title android 2.2 & 2.3 (Detailview)
4399,2014/6/28,Rewrite (IGF & Detailview & SearchActivity) + Remove (ABS & SND) + Added (HEW)
3,2014/7/09,Gradle Fixes  Some small fixes to allow Gradle to work. Google released v20 and 21 of the support library and as we were not forcing a specific version it was choosing the newest. This caused issues with Crouton and also SDK versioning. Force support library 19 to avoid the error. Additionally update the version of Crouton to pull in some bug fixes from it.
2,2014/6/18,Bump to Version 1.4
1,2014/6/18,Update API Endpoint  Change the API Endpoint to the production URL
