Topic Index 1,Topic Index 2,Topic Similarity
15,0,0.0348
3,1,0.018
7,18,0.0057
8,6,0.004200000000000001
16,4,0.0036
1,13,0.0031999999999999997
19,15,0.0024000000000000002
0,2,0.0
2,3,0.0
4,5,0.0
5,7,0.0
6,8,0.0
9,9,0.0
10,10,0.0
11,11,0.0
12,12,0.0
13,14,0.0
14,16,0.0
17,17,0.0
18,19,0.0
