Topic Index 1,Topic Index 2,Topic Similarity
4,9,0.0036
2,7,0.003
8,13,0.003
15,14,0.0028
17,1,0.0024000000000000002
18,5,0.0024000000000000002
9,3,0.0021000000000000003
12,0,0.0021000000000000003
3,11,0.0018
7,8,0.0018
13,2,0.0015
14,6,0.0015
0,4,0.0
1,10,0.0
5,12,0.0
6,15,0.0
10,16,0.0
11,17,0.0
16,18,0.0
19,19,0.0
