Topic Index 1,Topic Index 2,Topic Similarity
12,18,0.0112
14,19,0.009600000000000001
18,15,0.0091
7,11,0.0063
19,5,0.0063
0,6,0.0056
6,3,0.005399999999999999
10,4,0.005399999999999999
1,1,0.0048000000000000004
13,0,0.0048000000000000004
3,10,0.004200000000000001
8,7,0.004200000000000001
15,13,0.0036
4,17,0.0035000000000000005
2,2,0.0
5,8,0.0
9,9,0.0
11,12,0.0
16,14,0.0
17,16,0.0
