# deletions,date,commit message
3,2013/2/28,add option to control player order logging a play
34,2013/2/28,prevent crash from sync setting not signed in
34,2013/2/28,sort play by
26,2013/2/27,add a seat property to player
111,2013/2/19,display default numeric value a hint text a field is added it grab focus
218,2013/2/17,change the about activity to a dialog and move the release note there
23,2013/2/15,bump version number to 40 rearrange release note clear the image view the is missing display button on the dashboard properly after signing in or out
9,2013/2/06,improve the logic of quantity and length logging a play
9,2013/2/06,hopefully eliminate having multiple edit form open
126,2013/2/05,clean up and invert all log play setting add a new one for quantity
89,2013/2/03,clean up and invert all log player setting
34,2013/2/02,invert log play and quick log play setting and hook them back up
15,2013/2/02,update to example which includes a focused and pressed version
11,2013/2/02,pressing back logging a play or player save instead of cancel
24,2013/2/01,lower the priority of the sync notification
24,2013/2/01,stop tracking the number of insert update deletes etc
24,2013/2/01,this wa causing the sync adapter to appear to be running at all time
3,2013/1/30,prevent play and color context menu from stepping on each other
60,2013/1/29,get the image activity working
60,2013/1/29,also added recent change from the project
2,2013/1/26,thumbnail are no longer displayed on buddy collection but year are
6,2013/1/26,comment are now working correctly
11,2013/1/17,handle the password expires
1,2013/1/17,fix format game is unrated
21,2013/1/16,allow searching from the quick search box again add shortcut to global search configuration from setting change wording around the global search update version description and release note
67,2013/1/15,remove unused overload
4,2013/1/15,correctly compare player in
66,2013/1/15,make the sync display based on preference exception during sync should display the message not the entire description move most preference to
14,2013/1/14,prevent deleting collection getting an
130,2013/1/14,rearrange and reword setting to be more in line with android fix were black font on black background
20,2013/1/14,rearrange a couple of menu and a couple of wording improvement
10,2013/1/14,use the exception localized message for display
22,2013/1/08,add a notification to the sync adjust the playing notification to use the new icon and look more
148,2013/1/07,complete moving storage of sync progress from preference to sync adapter
3,2013/1/03,missed a file renaming
36,2013/1/03,rename to
229,2013/1/03,use remove old
29,2013/1/03,improve play syncing
125,2012/12/24,syncing of buddy including using the to store last sync time
3,2012/12/23,move sync info from preference to lot of refactoring
73,2012/12/21,handle being down an
1,2012/12/20,correctly store the play sync status on insert
78,2012/12/20,sync now populates added permission to allow network state to be checked
45,2012/12/20,test for connectivity syncing
45,2012/12/20,to accept the account instead of the context
236,2012/12/20,hook new syncing up to the
126,2012/12/19,remote and
89,2012/12/19,separate from and handle exception in the former
118,2012/12/19,refactoring of calling handler from the
1,2012/12/17,begin moving sync service to remove reference to support library we use the one from
194,2012/12/16,the way play are saved
194,2012/12/16,check a play is modified on cancel
194,2012/12/16,save the play immediately to avoid multiple copy in progress
70,2012/12/13,move some task from to new
6,2012/12/11,add icon from home screen to sign in fix null reference error during parsing fix bug launching shortcut update release note
58,2012/12/11,use the account everywhere removing all reference to the stored in the preference
421,2012/12/11,use the new account for and start to remove old way of
2,2012/12/11,forget the method used to authenticate the user
249,2012/12/11,start using the account manager
118,2012/12/07,last bit of polishing for now
2,2012/12/05,correct updating game without player info
296,2012/12/05,more formatting improvement
46,2012/12/03,correct display on forum
46,2012/12/03,rename public field
48,2012/11/20,improve collection add more change the way the artist designer etc
48,2012/11/20,are periodically save batch during collection sync in case of error
30,2012/11/20,update about and release note style the alert dialog icon properly remove specialized content notifiers only prompt to cancel logging a player if something ha changed
2,2012/11/18,update to 17 and support library 11
83,2012/11/18,fix play crash remove old code improve of and refactoring
613,2012/11/15,deleting play now work again
62,2012/11/13,logging a play is now a 2 step process store it in the db then kick off a sync
11,2012/11/13,add the ability to filter the list of play by sync type
13,2012/11/13,add refresh to and the way play are queried
270,2012/11/13,finish auditing style
6,2012/11/12,draw a border around the pie chart and the color make the highlight more visible on light background
14,2012/11/12,correct size of filter button on newer version of android
78,2012/11/12,clean up the style for the and layout plus make the work on white background
183,2012/11/10,clean up formatting and style in all layout
98,2012/11/09,change all icon to the action bar style and theme them
21,2012/11/08,a little cleanup
101,2012/11/08,add a new light theme
47,2012/11/07,delete thumbnail and avatar with the clear option and the image change during a sync
32,2012/11/07,the blob provider adding the ability to delete and access them directly
14,2012/11/06,change the player control to use the default button style for the
72,2012/11/06,remove a lot of unused code and make a new launcher icon
197,2012/11/05,update to
3,2012/11/04,improve refresh all play refresh to be triggered by action bar
13,2012/11/04,forgot one file during the last
139,2012/11/02,improve syncing of a single game begin work on sync a game play fix a bad reference in
5,2012/11/01,throw in instead of returning null
13,2012/11/01,correct permission and title of search result correct navigating up in all case
34,2012/11/01,make stats and link collapsible region
5,2012/10/30,correct text color in show the correct thumbnail in image is missing in display the minute suffix correctly prevent the bar chart from doubling the information
12,2012/10/30,correct the progress bar style
177,2012/10/18,guard against missing attempting to load an image
1647,2012/10/18,remove a bunch of old code and file
999,2012/10/18,make collection a fragment
6,2012/10/18,clear a list in the game info fragment to avoid doubling up the a couple of unrelated minor fix
2,2012/10/12,fixing error during navigation from with use of home button
294,2012/10/12,add buddy information back to be displayed on top of buddy collection
22,2012/10/12,allow clicking on designer artist and publisher showing the description
22,2012/10/12,modify the sync service to sync one of these at a time
269,2012/10/11,buddy collection is now displayed
369,2012/10/10,search result make a remove some of the context menu option
27,2012/10/09,make list button
225,2012/10/09,update replace deprecated method
247,2012/10/08,update
585,2012/10/08,
585,2012/10/08,also make some string more generic and a couple of feature for better reuse
19,2012/10/08,handle a couple of exception use a simpler version of
1,2012/10/08,fix syncing of play
400,2012/10/07,poll improving the query and the layout
400,2012/10/07,also shorten some unrelated title
1,2012/10/06,fixing error during navigation from play to game using thumbnail
6,2012/10/04,prevent error navigating away from the hotness before it finish loading
312,2012/10/04,forum thread move all forum key to centralized class improve custom loader fix some string
476,2012/10/01,make the forum thread list also remove some unused file
264,2012/10/01,forum
354,2012/9/28,comment are now a fragment a tab in the
354,2012/9/28,also cleaned up a few string
295,2012/9/27,update play to be a fragment work a tab from a game and from the home activity
26,2012/9/27,add an icon to the description and retain it state
2,2012/9/26,make save and restores instance state
53,2012/9/25,improve error handling in the content provider accessing an image update release note remove unused file
191,2012/9/24,change the to the and hook it into the
191,2012/9/24,show the game name in the action bar title
179,2012/9/24,make game info list add base game
1597,2012/9/20,some cleanup work including delete unused file rename id show a loading message improve stats section in landscape hide individual list section by default externalize some string
148,2012/9/20,move width and height from style to layout fix artist designer etc
148,2012/9/20,list width add link section try to launch a new attempt to fix launching a shortcut
5,2012/9/14,added ability to refresh manually and automatically
5,2012/9/14,add to the game contract
5,2012/9/14,make sure queried are getting registered with observer
6,2012/9/13,fix one more parsing bug and apply change each game
6,2012/9/13,a bit of refactoring
52,2012/9/12,one more attempt to fix syncing error
124,2012/9/11,add a bunch more info on the game info fragment
13,2012/9/08,fix more bad join
40,2012/9/08,correct query against game and joining correct inserting correct method improve logging of
4,2012/9/08,handle data better in the
20,2012/9/08,make the better with an odd number of child
13,2012/9/08,change the description to instead of a
26,2012/9/07,inserting game child table get the game id from the
2,2012/9/07,map the column to prevent query from
1,2012/9/07,fix bug for in
18,2012/9/03,save hot game on orientation change
278,2012/9/03,fragment the hotness and improve both image fetching and buddy loading
18,2012/9/03,add the ability to refresh the buddy list
18,2012/9/03,improve the loader updating
1,2012/9/03,attempt to show sync status on home activity
40,2012/9/03,add image to
40,2012/9/03,shore up some gap in and
12,2012/9/03,add the avatar back to the adding the new image caching code
5,2012/9/03,load the right layout for
5,2012/9/03,fix up the search action
244,2012/9/03,is now fragmented
12,2012/9/03,fix loading without specifying the
12,2012/9/03,some refactoring
56,2012/9/02,move intent to fragment method to remove unused layout
264,2012/9/02,add action bar and create a fragment
156,2012/9/02,create a dashboard fragment separate from the home activity
15,2012/9/01,add search back to the move refresh to the fix a bug in the externalize a string in
51,2012/8/31,apply to home and about
20,2012/8/28,rename to
59,2012/8/28,address many of the compiler warning
2,2012/8/28,change target to android 41 add the support library and a version class
120,2012/8/28,finish refactoring the image cache
120,2012/8/28,delete the old cache location on upgrade
131,2012/8/25,the method in the
256,2012/8/25,finish converting thumbnail access to the content provider
39,2012/8/24,some of the new image caching code
28,2012/8/24,collection thumbnail now using the content provider
75,2012/8/24,for buddy avatar instead of the image cache use the content provider
27,2012/8/19,upgrade the database to use cascading correct the parsing of collection to use the base method
220,2012/8/19,remove the method cascading delete take care of this now
69,2012/8/19,fix bug parsing game with some refactoring
115,2012/8/16,and fix bug in
235,2012/8/16,refactoring to use everywhere and create with cascading deletes
178,2012/8/16,use on all handler
28,2012/8/16,fix bug in change the log tag prefix relocate some utility method
80,2012/8/15,use a batch of to save a play
80,2012/8/15,some other refactoring
8,2012/8/15,use instead of
5,2012/8/15,updated to start
5,2012/8/15,also made minimum 8
4,2012/8/08,update to final release number for 36
10,2012/7/27,fix the shortcut icon size
41,2012/7/27,some of the play logging refactoring
217,2012/7/26,all code to use
80,2012/7/25,add and the to use it
153,2012/7/25,rename to a little more refactoring
4,2012/7/25,fix crash logging play
80,2012/7/18,lot of around logging play to prevent the double logging
28,2012/7/17,some of the play syncing code add logging and comment
1,2012/7/17,correctly size the shortcut icon
2,2012/7/17,sort by priority
3,2012/7/13,add a contact u form update release note
1,2012/7/12,change size of shortcut icon
18,2012/7/12,finish removing sort by play count
6,2012/7/12,finish removing sort by play count
54,2012/7/12,sort by play count then remove it from the menu store the sort with the view
1,2012/7/11,fix parse error of private collection info
30,2012/7/11,refactoring of sort code
6,2012/7/10,sort by average weight
7,2012/7/09,sort by suggested age
59,2012/7/04,parse private collection info
31,2012/7/03,pas context to sort data to get string from resource
7,2012/7/03,sort by playing time
5,2012/7/03,sort by year published
1,2012/7/03,correct syncing collection
25,2012/7/03,correct syncing page buddy and collection
81,2012/6/19,refactoring sort logic
55,2012/6/10,update release note reformat collection view eliminate duplicate string
64,2012/6/10,can now sort the collection on geek rating
11,2012/6/08,add the ability to filter out expansion
17,2012/6/07,add filtering on geek rating and ranking
31,2012/6/06,improve cursor handling syncing buddy
144,2012/6/06,refactoring based on lint suggestion
102,2012/6/06,buddy syncing now working like the other
47,2012/6/06,slight change of format of
5,2012/5/31,add filter for average rating
1,2012/5/31,fix null exception logging player
28,2012/5/29,fix collection filter parceling for real
7,2012/5/29,fix parceling bug in collection
257,2012/5/28,fix the provider insert
54,2012/5/28,move default sort to provider
248,2012/5/28,more refactoring
4,2012/5/27,fix rank appearing twice on the stats tab
185,2012/5/26,more refactoring
1,2012/5/26,fix rank appearing twice on the stats tab
125,2012/5/25,more refactoring
55,2012/5/25,more refactoring
242,2012/5/25,more refactoring
125,2012/5/24,refactoring
124,2012/5/23,refactoring play in
165,2012/5/23,begin refactoring of
1,2012/5/23,capitalize player name by default
91,2012/5/22,add to the refactoring
69,2012/5/21,fix the not displaying
268,2012/5/21,some similar filter
2,2012/5/21,add filter on average weight
10,2012/5/20,add filter for suggested age
111,2012/5/20,add a step value to the slider and it some
38,2012/5/19,improve content querying logic
26,2012/5/19,be a little better about closing cursor
4,2012/5/19,improve detecting when is down syncing
66,2012/5/19,and to use
230,2012/5/14,more handler refactoring
35,2012/5/13,publisher handler
82,2012/5/12,collection syncing with better error handling
2,2012/5/12,add some method to for better error handling
89,2012/5/12,some handler
1,2012/5/12,improve format of search result row
17,2012/5/11,user can now update existing collection filter
4,2012/5/10,improve of menu item in
30,2012/5/10,play time now work in 5 minute increment and show undefined ha been selected
11,2012/5/09,show the applied filter shrink the size of the filter button
9,2012/5/08,add ability to load update release note
5,2012/5/08,add ability to load filter
26,2012/5/08,add error handling for the bad db schema code
2,2012/5/07,fix null exception in
1,2012/5/07,trying to fix reported null pointer exception
6,2012/5/07,fix exception trying to clear database
4,2012/5/06,manually manage cursor to avoid exception
7,2012/5/04,add ability to save collection filter
2,2012/5/04,update schema for saving collection filter
1,2012/5/04,change play time increment to 30 minute
106,2012/5/03,save collection filter code
35,2012/5/02,change id to type and add back add flatten test from the
12,2012/5/01,save collection filter preparatory refactoring
122,2012/4/27,save collection filter preparatory refactoring
44,2012/4/26,save collection filter preparatory refactoring
21,2012/4/26,save collection filter preparatory refactoring
14,2012/4/26,save collection filter preparatory refactoring
4,2012/4/25,bump version to 36 alpha
0,2012/4/12,remove unused icon
4,2012/4/12,finish overhaul of menu icon
0,2012/4/12,add more image
0,2012/4/11,add more image
0,2012/4/11,add more image
0,2012/4/11,add more image
0,2012/4/11,add missing image that should have been committed a ago
0,2012/4/11,update
0,2012/4/10,update the refresh menu icon
0,2012/4/10,add full support for back and forward menu icon
125,2012/4/10,play logging
10,2012/4/10,correctly update game rank
1,2012/4/09,add to handle deleting expansion from the database
22,2012/4/09,fix on and some refactoring
39,2012/3/31,reformat manifest file
1,2012/3/26,correctly retrieve the player list play is changed
0,2012/3/22,add missing icon
9,2012/2/07,add start option to logging a play to capture play length
1,2012/2/06,correctly update game update release note
13,2012/2/05,viewing a list kick off a new sync
16,2012/2/04,improve syncing notification
152,2012/2/03,capture failed sent play pending and sync them later
3,2012/2/03,correctly link edit menu from
1,2012/2/02,improve and externalize refresh confirmation message
10,2012/2/02,improve refreshing and deleting of modified play
23,2012/2/01,improve display of incomplete and
15,2012/1/31,allowing the sending of a saved play
12,2012/1/31,respect the sync status saving a play
1,2012/1/26,improve the logic logging a play
11,2012/1/25,fix to properly escape the
19,2012/1/25,display a play is in a status other than synced
2,2012/1/25,allow user to save the logged play
4,2012/1/24,add new column to play to support saving without sending
155,2012/1/23,
32,2012/1/22,in relocate last updated field and add
32,2012/1/22,make consistent
4,2012/1/20,improve the shade of green used in the number of player poll
35,2012/1/20,improve buddy logging a player
3,2012/1/17,fix searching with a space
3,2012/1/17,use the play nickname logging a player
27,2012/1/17,store the name used logging a play for the buddy
11,2012/1/15,externalize share play string
2,2012/1/15,add refresh and share option to play
23,2012/1/10,subtle refactoring of
1,2012/1/10,fix display of player on refresh
6,2012/1/10,refresh play if older 7 day
33,2012/1/04,to use
28,2012/1/04,add option to reset sync setting
3,2012/1/03,update release note change the way the quantity is defaulted
27,2012/1/03,change thread article row to a to improve performance
10,2012/1/03,log play location is now an field
66,2011/12/30,make prettier
31,2011/12/29,make log play player prettier
118,2011/12/28,reformat player list logging play
26,2011/12/28,put trim input
92,2011/12/28,change log play layout
93,2011/12/27,change log player layout
218,2011/12/24,address some lint issue and formatting
35,2011/12/22,clean up formatting in the menu and resource
129,2011/12/22,delete unused and format the drawable
4,2011/12/22,bump version number to 35
6,2011/12/20,hide the poll chart and key there are no vote
67,2011/12/20,play can be deleted from play list or specific play clean up string
54,2011/12/18,editing a play show field that are set
5,2011/12/16,add a menu option to see the play filtered by game
3,2011/12/15,sync the play
51,2011/12/09,allow editing of play
67,2011/12/08,make the buddy activity a little prettier
18,2011/12/07,sync all play with the sync process
15,2011/11/23,display a played game
22,2011/11/23,parse play comment and improve syncing of player and item
46,2011/11/22,add icon to for game played clicking it open the list of play
6,2011/11/21,separate expansion into expansion and base game
82,2011/11/21,initial sync of play
17,2011/11/21,add database and content provider change for syncing play
1,2011/11/21,change to auto instead of
3,2011/11/17,allow installation on card
4,2011/11/16,poll for suggested age corrected to not display value with 0 vote
1,2011/11/14,make shortcut icon prettier
41,2011/11/14,add ability to create shortcut from or home screen
125,2011/11/14,add name and inbound to and delete it with the parse and display it remove unused code
98,2011/11/13,expansion simplified to use one table in database
98,2011/11/13,still missing getting name of expansion to be displayed on list tab inserting collected expansion to game table
1,2011/11/12,fix force close poll data is incomplete
12,2011/11/12,add new column to db and remove update
11,2011/11/12,correct the disabling of the sync button
10,2011/11/11,improve collection syncing
4,2011/11/11,fix a cursor exception add some logging and reduce game refresh amount
21,2011/11/10,improve syncing buddy detail
19,2011/11/10,in show thumbnail loading full image
14,2011/11/09,improve syncing to include the last 50 game if everything else is newer a month
115,2011/11/08,use to display description
11,2011/11/08,sync game detail with the collection
22,2011/11/08,for syncing collection use in brief mode
4,2011/11/08,improve some logging around syncing
7,2011/11/08,correctly close the cursor syncing buddy
2,2011/11/03,hide yourself in the
6,2011/11/03,subtle refactoring of
12,2011/11/03,fix syncing notification bug in
19,2011/10/28,change collection filter icon
20,2011/10/28,show avatar in the buddy list and add a
32,2011/10/28,remove unused layout
4,2011/10/27,update release note and help text
8,2011/10/27,add a two column poll key
2,2011/10/27,change language to language
73,2011/10/27,improve the stat bar ever slightly
23,2011/10/25,the poll key work just need to add the pie chart
365,2011/10/25,remove poll tab
45,2011/10/25,stub out the other 2 poll
9,2011/10/25,make poll bar prettier
10,2011/10/25,in show total vote and individual vote clicking on a make it look good when the scroll bar is required
27,2011/10/25,clean up collection hotness and search row
9,2011/10/24,initial commit for expansion
3,2011/10/24,fix poll
9,2011/10/23,add key to poll view
4,2011/10/23,change upgrading to 14
2,2011/10/23,initial commit of
5,2011/10/21,add to about activity
224,2011/10/21,redesign of game info tab
23,2011/10/20,improve empty collection message
45,2011/10/18,use a to view game description
8,2011/10/18,make year text lighter in the collection row
36,2011/10/18,update about and
36,2011/10/18,remove unused code
81,2011/10/18,initial commit of showing the initial letter scrolling
56,2011/10/17,update for apply formatting from beta release of
2,2011/10/15,remove the bug workaround
1,2011/10/13,bug fix displaying forum thread with national character corrected
5,2011/9/30,show the whole thread subject at the top of the list
5,2011/9/30,keep header divider in the
1,2011/9/27,bug fix catching exception during reading downloaded forum
34,2011/9/27,paging on added
1,2011/9/27,bug fix last comment on each page wa not displayed
6,2011/9/23,fix timezone issue in thread display
11,2011/9/23,change the title bar to marquee and remove the thread title
14,2011/9/23,move about from screen to menu
7,2011/9/23,add forum icon to
267,2011/9/22,remove general forum activity in favor of reusing one
26,2011/9/22,improve general forum
8,2011/9/22,improve date parsing
94,2011/9/22,change display of forum date and time
345,2011/9/21,initial commit for general forum
40,2011/9/18,improve thread header and saving instance state
23,2011/9/17,show reply count on thread row
5,2011/9/17,improve saving instance state for and
99,2011/9/17,change format of forum list and forum
3,2011/9/15,bump version number to 33
49,2011/9/15,change the title display on the forum
1,2011/9/13,initial commit for forum
6,2011/8/09,fix release add help text to
3,2011/8/09,use a new icon for the link menu
1,2011/8/08,allow deletion of color
5,2011/8/08,add activity to view
2,2011/8/08,logging a play save the player color in the db
6,2011/8/07,add user to list of geek buddy
1,2011/8/07,show log play help fix display error with player score
1,2011/8/06,encoding changed to
21,2011/8/06,now you can add back the hidden field on the player activity
10,2011/8/06,now you can add back the hidden field
47,2011/8/06,externalize new string
2,2011/8/06,disable log player setting if feature is add choice to edit player or not
2,2011/8/06,add option to hide the log play menu option
31,2011/8/06,add option to hide various field logging play
6,2011/8/05,move some class from to model
27,2011/8/05,in retain state on orientation change
2,2011/8/05,update about release note and help text for comment feature
32,2011/8/05,reformat comment layout
64,2011/8/05,improve comment info menu
58,2011/8/05,add the standard game header to the enable pressing home and search from here
55,2011/8/05,use for performance reason
4,2011/7/07,center the row in the collection view a little better
4,2011/7/06,correctly save state on
29,2011/7/06,add more info to the logging also added some vertical line to it up
25,2011/7/04,logging a player use to the
18,2011/7/01,save player list
64,2011/6/28,add help text the help text code
50,2011/6/28,add long click option to and
2,2011/6/28,fix crash bug when rotating screen on the stats tab
8,2011/6/28,add help text for filter and release note for logging player
40,2011/6/27,improve look and feel of player improve input
5,2011/6/27,send player information add menu to
30,2011/6/27,player can now be improvement
17,2011/6/23,allow editing a log player
5,2011/6/23,implement are you sure dialog logging play
14,2011/6/22,externalize string on
120,2011/6/22,initial commit of logging player
9,2011/6/20,changed layout for collection to include divider
2,2011/6/20,removed unused generic from method
2,2011/6/20,line spacing for dual slider is now configurable
1,2011/6/20,fix alignment bug in
1,2011/6/20,improve look of tab in
46,2011/6/20,in the button cloud display using the exact player number
51,2011/6/19,new filter for play time
51,2011/6/19,updated dual slider to display 3 tick for better scaling and fixed left margin
51,2011/6/19,changed filter data to have suffix data on the file to better differ from dialog
42,2011/6/19,player number filter is now exclusive instead of inclusive
42,2011/6/19,34 player mean game must take both 3 or 4 player
42,2011/6/19,player number filter now includes null entry for max player
42,2011/6/19,player number filter is now 1 12 instead of 0 12
1,2011/6/18,save filter state
2,2011/6/18,fix text of
30,2011/6/18,subtle refactoring of filter
28,2011/6/17,remember state of exact in
8,2011/6/17,extract some more string
3,2011/6/17,switch on a filter button
3,2011/6/17,surround filter clause with
11,2011/6/17,format and extract a string
1,2011/6/17,update release note for collection filtering
0,2011/6/17,add new menu icon
131,2011/6/17,automatically manage add clear filter menu fix issue with removing filter button during change filter text and other refactoring
66,2011/6/17,use better display name in the
277,2011/6/17,simple reformatting of new code
17,2011/6/17,layout optimization in
2,2011/6/16,initial implementation of collection filter
2,2011/6/16,new menu on collection page to select a random game and to apply filter
2,2011/6/16,new filter include number of player and collection status
2,2011/6/16,long click reopens dialog
2,2011/6/16,click remove the filter
28,2011/6/14,performance improvement in
58,2011/6/09,more refactoring of and
183,2011/6/09,refactoring of
248,2011/6/05,lot of refactoring in play logging enable save menu button correctly improve logging error message clear cooky credential change fix medium light text
2,2011/6/05,bump version number to 32
2,2011/6/03,add action to tab intent due to warning seen debugging
33,2011/5/23,add priority to collection
105,2011/5/22,some of the remote handler
2,2011/5/21,correctly sync player age 21
208,2011/5/21,display rating
7,2011/5/21,change id format
14,2011/5/21,change string to recommended format
1,2011/5/19,fix text centering on the
10,2011/5/19,fix text centering on the
113,2011/5/18,the hotness
3,2011/5/17,change thumbnail size in title bar to better accommodate 2 line name
14,2011/5/17,use for all thumbnail
22,2011/5/17,change collection thumbnail to a
2,2011/5/13,show game name in from search screen
7,2011/5/13,show game name in from search screen
42,2011/5/13,change board game loading message
7,2011/5/12,correct formatting of help text
9,2011/5/12,add help text showing for the first time
1,2011/5/12,extend timeouts to
3,2011/5/10,correct handling of in update version number and release note
1,2011/5/07,correct syncing collection game is still in the collection but the specific item is not
2,2011/5/07,correct sync for user name with space
20,2011/5/07,change color of stats and poll bar
7,2011/5/06,improve updating of board game is down
7,2011/4/26,change search string to match recommendation
6821,2011/4/26,merge of collection branch through release candidate for 30
12,2010/8/24,fix rank again update to 241
263,2010/8/19,merge for release 24
0,2010/7/15,merge of collection branch for 23 release
5703,2010/7/15,merge of collection branch for 23 release
23,2010/7/15,merge of collection branch for 23 release
1405,2010/7/15,415
161,2010/7/15,merge of collection branch for 23 release
0,2010/7/15,testing trunk commit
0,2010/7/15,testing trunk commit
6,2009/11/07,correct crash poll are missing bump version number fix
3,2009/10/24,preparing for 21 release
2,2009/8/26,preparing for release 20
4,2009/8/26,added toy and game category to amazon search link and added description to the weight statistic
5,2009/7/08,compensating for being null preparing for release 19
2,2009/7/07,preparing for release 18
119,2009/7/07,implemented search manager
1,2009/6/20,according to eclipse the minimum version should be set to 2 if targeting android 11 i am setting it there
2,2009/6/20,preparing for release 17
6,2009/6/20,moved the call into in order to ensure the view is called at the appropriate time
8,2009/6/20,fixed a few issue with orientation change notably the view is not loaded the game information is downloaded and the orientation change will not invoke a new view until then in order to prevent crashing
16,2009/6/20,fixed enter key behavior and view switching on orientation change
1,2009/6/17,added per new rule
4,2009/6/17,fixed activity kill on orientation change preparing for release 16
1,2009/6/17,fixed rank to account for new ranking system
7,2009/6/17,reimplemented in search result
1,2009/4/23,added two field to game display user wanting and user trading
16,2009/2/24,fixed age display fixed force close due to missing image or site being down
5,2009/2/21,fixed image update added them back in
3,2009/2/12,preparing for release 13
29,2009/2/12,resurrecting the 20 update
29,2009/2/12,currently everything seems stable
29,2009/2/12,however the following bug have been introduced exact search is broken search result appear to display in a strange order is missing from search age is missing from game listing description may not need to be processed a much a it wa image and thumbnail are not functional
5,2009/1/27,preparing for 12 launch
17,2009/1/27,resolved force close due to orientation change during progress dialog
16,2009/1/27,resolved force close during search progress dialog
19,2009/1/26,added link to credit dialog
4,2009/1/26,added the ability to skip directly to a single search result
2,2009/1/26,version changed for release 11
11,2009/1/26,automatically fall back to search no result are found
1,2009/1/25,initial commit complete
0,2009/1/25,initial commit
