App,Store,App ID,Review ID,Country,Version,Rating,Date,Author,Subject,Body,Translated Subject,Translated Body
BoardGameGeek,Google Play,com.boardgamegeek,Z3A6QU9xcFRPRm4teVZ6Y0JiSXlaVVJfZHlpT2FNX2pJaXNuUnRyVVNYN0wyV0ZScFotWXlsaGYtNWRVNVBMUlNLMTNFNXpyYnQwQThDb1pESHFfNUVGSm1n,English,,1,2016-04-25,Antonio Tang,cannot get online,maybe something is down,,
BoardGameGeek,Google Play,com.boardgamegeek,Z3A6QU9xcFRPRm4teVZ6Y0JiSXlaVVJfZHlpT2FNX2pJaXNuUnRyVVNYN0wyV0ZScFotWXlsaGYtNWRVNVBMUlNLMTNFNXpyYnQwQThDb1pESHFfNUVGSm1n,English,,1,2016-04-25,Antonio Tang,cannot get online,the site work perfectly in my browser,,
BoardGameGeek,Google Play,com.boardgamegeek,Z3A6QU9xcFRPRTV6MFVlZVd2aXdsUTVJY29vXy1XZGQ5dlFZdEwtYXloLW5YelZoMWNFMzU5RWdKanZUZTNTT0lJNHhWV3F0RjJtYUl1UC1YWWRFUVR2ZTNB,English,,3,2016-04-25,Sean Kaplinski,Problems syncing,will not sync collection the last couple of day,,
BoardGameGeek,Google Play,com.boardgamegeek,Z3A6QU9xcFRPRTV6MFVlZVd2aXdsUTVJY29vXy1XZGQ5dlFZdEwtYXloLW5YelZoMWNFMzU5RWdKanZUZTNTT0lJNHhWV3F0RjJtYUl1UC1YWWRFUVR2ZTNB,English,,3,2016-04-25,Sean Kaplinski,Problems syncing,however no us seems to be either,,
BoardGameGeek,Google Play,com.boardgamegeek,Z3A6QU9xcFRPRTV6MFVlZVd2aXdsUTVJY29vXy1XZGQ5dlFZdEwtYXloLW5YelZoMWNFMzU5RWdKanZUZTNTT0lJNHhWV3F0RjJtYUl1UC1YWWRFUVR2ZTNB,English,,3,2016-04-25,Sean Kaplinski,Problems syncing,dated interface but very useful,,
BoardGameGeek,Google Play,com.boardgamegeek,Z3A6QU9xcFRPSEJxN2IzTXFNVDRpRWViMmhuZzBBcXRRd3J0a0pGTUtjZTJfcUtjMHpuTW1oLVFwMzg2TVprNDUtdEV0bDBSQkJyTjdtTUJ3Nkk3ano4M1hj,English,,3,2016-04-24,Paul Jennings,Not syncing collection correctly,need more feature such being able to add play to new game not in the collection,,
BoardGameGeek,Google Play,com.boardgamegeek,Z3A6QU9xcFRPSFZ0ZUVCN2ZSLUFFOUJCdzRiRGRGN1dFcHFXMUhVM1JQYXBjR1IxMGRzUnhZVlB0X3JVRUNtWDluU0doVzAzWGEtbU0tRFUxZ2UwYXRlVVJj,English,,3,2016-04-23,John Ray,Work in progress,a useful and attractive still need some work on it,,
BoardGameGeek,Google Play,com.boardgamegeek,Z3A6QU9xcFRPSFZ0ZUVCN2ZSLUFFOUJCdzRiRGRGN1dFcHFXMUhVM1JQYXBjR1IxMGRzUnhZVlB0X3JVRUNtWDluU0doVzAzWGEtbU0tRFUxZ2UwYXRlVVJj,English,,3,2016-04-23,John Ray,Work in progress,for on my syncing ha to be forced by changing the parameter,,
BoardGameGeek,Google Play,com.boardgamegeek,Z3A6QU9xcFRPSFZ0ZUVCN2ZSLUFFOUJCdzRiRGRGN1dFcHFXMUhVM1JQYXBjR1IxMGRzUnhZVlB0X3JVRUNtWDluU0doVzAzWGEtbU0tRFUxZ2UwYXRlVVJj,English,,3,2016-04-23,John Ray,Work in progress,your collection ha to be edited from the web page,,
BoardGameGeek,Google Play,com.boardgamegeek,Z3A6QU9xcFRPSEtTWTNLZF9EU1JEOUs2Y01JUUtha0gxVkJyN1JWMDlDVjlhbDFDaG1FeGtwS09TQzNOY3FwU2d6S3l4cl90V2M4VTVQVzRORkxwcjluZENB,English,,3,2016-04-20,JP Fernandez,More Functionality Please,cool for pulling up info on game quickly and logging play,,
BoardGameGeek,Google Play,com.boardgamegeek,Z3A6QU9xcFRPSEtTWTNLZF9EU1JEOUs2Y01JUUtha0gxVkJyN1JWMDlDVjlhbDFDaG1FeGtwS09TQzNOY3FwU2d6S3l4cl90V2M4VTVQVzRORkxwcjluZENB,English,,3,2016-04-20,JP Fernandez,More Functionality Please,i admit i have yet to use the play logging function on the main website let alone on the,,
BoardGameGeek,Google Play,com.boardgamegeek,Z3A6QU9xcFRPSEtTWTNLZF9EU1JEOUs2Y01JUUtha0gxVkJyN1JWMDlDVjlhbDFDaG1FeGtwS09TQzNOY3FwU2d6S3l4cl90V2M4VTVQVzRORkxwcjluZENB,English,,3,2016-04-20,JP Fernandez,More Functionality Please,i am being completely it is missing the ability to edit my game collection and post or create forum thread,,
BoardGameGeek,Google Play,com.boardgamegeek,Z3A6QU9xcFRPSEtTWTNLZF9EU1JEOUs2Y01JUUtha0gxVkJyN1JWMDlDVjlhbDFDaG1FeGtwS09TQzNOY3FwU2d6S3l4cl90V2M4VTVQVzRORkxwcjluZENB,English,,3,2016-04-20,JP Fernandez,More Functionality Please,these ever get implemented i would absolutely adore this,,
BoardGameGeek,Google Play,com.boardgamegeek,Z3A6QU9xcFRPR0NHTTBBODZlMGVoajFRdlNDaEk4V2Foa1VSWGNCb3pTMTAxSERNRG9Jb1lKbHI3clNLY0N2WVdpNVdWZmJxX2dRTU12N0dhSXlGNTZZYTc4,English,,4,2016-04-16,Maarten Stolker,,with the update much better,,
BoardGameGeek,Google Play,com.boardgamegeek,Z3A6QU9xcFRPR0NHTTBBODZlMGVoajFRdlNDaEk4V2Foa1VSWGNCb3pTMTAxSERNRG9Jb1lKbHI3clNLY0N2WVdpNVdWZmJxX2dRTU12N0dhSXlGNTZZYTc4,English,,4,2016-04-16,Maarten Stolker,,need template and easy picture upload,,
BoardGameGeek,Google Play,com.boardgamegeek,Z3A6QU9xcFRPRklBVW9udDFVM0tON3k3WWtERTdlZjQzbWpVVWJxb1Z2QkE5ZEloSkVWYmswc2FnLV9QNS1zVDM4REFSSURhRUpTRXBzVTA4Y2VMSXZrS01n,English,,4,2016-04-16,Iain Mabbott,,yes,,
BoardGameGeek,Google Play,com.boardgamegeek,Z3A6QU9xcFRPRklBVW9udDFVM0tON3k3WWtERTdlZjQzbWpVVWJxb1Z2QkE5ZEloSkVWYmswc2FnLV9QNS1zVDM4REFSSURhRUpTRXBzVTA4Y2VMSXZrS01n,English,,4,2016-04-16,Iain Mabbott,,i think the disappearing collection bug is finally squished,,
BoardGameGeek,Google Play,com.boardgamegeek,Z3A6QU9xcFRPRl9wdlNKcmhoZDVLMVVmeHNSWVRMeW9nU1NsV1BVTlVWMjlpX0NzTDBvZWFmQ1B3MmxQYVhDZVo1WlJLQ3psTzhLbGwxOXFfS1RHRVFLQUV3,English,,5,2016-04-15,Brenden Valliere,,the easiest way to show others there is more just monopoly,,
