Topic Index 1,Topic Index 2,Topic Similarity
11,18,2.4553000000000003
9,5,1.773
16,15,1.3516
4,9,1.3275000000000001
2,13,0.9017
12,2,0.8588
6,0,0.75
14,8,0.7300000000000001
1,11,0.5958000000000001
17,10,0.5061
5,1,0.5013
13,4,0.4615
19,19,0.45759999999999995
7,14,0.29050000000000004
8,7,0.20279999999999998
10,6,0.19079999999999997
0,3,0.0
3,12,0.0
15,16,0.0
18,17,0.0
