Topic Index 1,Topic Index 2,Topic Similarity
0,0,3.0
2,1,3.0
3,2,1.0
4,3,1.0
6,4,1.0
7,5,1.0
9,6,1.0
12,7,1.0
14,8,1.0
16,9,1.0
18,10,1.0
1,11,0.0
5,12,0.0
8,13,0.0
10,14,0.0
11,15,0.0
13,16,0.0
15,17,0.0
17,18,0.0
19,19,0.0
