App,Store,App ID,Review ID,Country,Version,Rating,Date,Author,Subject,Body,Translated Subject,Translated Body
DebianDroid,Google Play,net.debian.debiandroid,Z3A6QU9xcFRPRWNTT0FHTm9XcGJGd3lYZ2k4NzhHWS1RbEF5YUpSdWt5SjhsSE45cmdiREprb3Q4RnlaQ19lZzJmZGo3TTgzMUVjYXBhMDl3UDhvSU82XzVn,German,,5,2014-01-30,Max vom Norden,Crash,"im FTP-menu. - wurde umgehend in Ordnung gebracht! mehr via email, google+ ist zu langsam + voller sinnloser Daten, die nur dazu dienen, ohne jeden nutzen mein schnelles daten-Kontingent zu vergeuden.",,
DebianDroid,Google Play,net.debian.debiandroid,Z3A6QU9xcFRPRXVkOS02MVFwMFNDVFM3SHBHNEhva2NFVGtsTFFlM28xSnNjcG1BeVhqblZvZXFmZGNpdUJrUTk2a2hNbC1zWTR5WTB0am9CMnRTbE5oc1BN,Portuguese,,5,2014-06-28,Antonio Harres,Very good,"",,
