can now make the robot start pairing with a controller,b,2014/1/12,,
whitespace,o,2014/1/04,,
show progress bar uploading,o,2014/1/04,,
fixed a bunch of typo,b,2014/1/04,,
fixed all lint error and warning,b,2014/1/04,,
update all submodules,b,2013/12/25,,
set and in a more elegant way,f,2013/12/25,,
update android build tool and do not abort on lint error,b,2013/12/25,,
is not available level 18,f,2013/12/11,,
wait a bit closing connection a need to send some data first,b,2013/12/11,,
update library,b,2013/12/11,,
changed log level,b,2013/12/11,,
update library to 311,b,2013/12/11,,
adjusted number of label,f,2013/12/11,,
check connection is available in a better way,b,2013/11/17,,
check if data is available before trying to read data also set to false calling cancel to make sure thread is stopped,b,2013/11/17,,
there is no reason to check calling close,b,2013/11/17,,
retrieve the in a new way in and above also check and is null before creating them,b,2013/11/17,,
prevent some possible exception,o,2013/11/02,,
updated to level 19,o,2013/11/02,,
wa not used,o,2013/10/22,,
call static function directly,b,2013/10/22,,
no need to call in main activity,o,2013/10/22,,
check of hex file uploading,o,2013/10/22,,
more compact update task,b,2013/10/22,,
updated android and,o,2013/10/22,,
can now cancel an upload,b,2013/10/22,,
updated,f,2013/10/17,,
renamed,o,2013/10/17,,
capital letter,b,2013/10/10,,
removed unused space,f,2013/10/10,,
intentional error will update the image,b,2013/10/09,,
released version 050,f,2013/10/08,,
delete old file downloading,o,2013/10/08,,
