fixed whitespace,b,2013/3/11,,
removed unused permission,b,2013/3/11,,
improved connection,b,2013/3/11,,
added copyright section to all file,o,2013/3/11,,
update info the tab is selected,b,2013/3/11,,
implemented to automatically download the,b,2013/3/10,,
create instance,f,2013/3/07,,
added function,b,2013/3/07,,
prevented handler leak,o,2013/3/07,,
enabled hardware acceleration,b,2013/3/07,,
removed whitespace,b,2013/3/04,,
added ability to control the maximum turning and angle value and disable back to spot,f,2013/3/04,,
added info tab,b,2013/3/04,,
removed voice control completely,b,2013/3/04,,
not necessary to run anymore,b,2013/3/04,,
fixed bug hiding section,b,2013/2/23,,
updated for library,f,2013/2/23,,
fixed margin for,b,2013/2/23,,
added ability to reset value and pair with a,b,2013/2/23,,
stop sending graph data,b,2013/2/23,,
retry to connect to device automatically,b,2013/2/17,,
disable voice control completely and remove old toast automatically,b,2013/2/17,,
renamed to fragment,o,2013/2/17,,
just use the activity instance of and,f,2013/2/17,,
put at the top,o,2013/2/17,,
added how to build section,b,2013/1/26,,
keep running runnable sensor is initialized,b,2013/1/26,,
cleaned up the code,o,2013/1/26,,
is now viewable in the graphical layout,o,2013/1/26,,
release version 03,f,2013/1/19,,
prepare for next development iteration,o,2013/1/19,,
prepare release 03,f,2013/1/19,,
updated to latest version of,f,2013/1/19,,
graph fragment can now request or stop the data,b,2013/1/19,,
graph will now show the real data,b,2013/1/19,,
moved constant for the different fragment into the,b,2013/1/19,,
value is now one long string,o,2013/1/19,,
pair with new device,b,2013/1/19,,
now is actually sending data,b,2013/1/19,,
use instead of timer schedule,f,2013/1/19,,
can now be adjusted in,o,2013/1/19,,
better looking in libs folder,f,2013/1/16,,
added real time graph just random data for now,b,2013/1/16,,
forgot before loge,b,2013/1/15,,
set default filter coefficient to 09,f,2013/1/15,,
changed again,b,2013/1/05,,
embed video,b,2012/12/29,,
changed to project homepage,b,2012/12/29,,
ignore shell script used to run maven command for release,f,2012/12/29,,
added new custom icon,b,2012/12/27,,
removed unused import,f,2012/12/25,,
fixed typo,b,2012/12/24,,
combined all the image into one large image,b,2012/12/24,,
updated manifest version,f,2012/12/23,,
added release version 02,f,2012/12/23,,
prepare for next development iteration,o,2012/12/23,,
prepare release 02,f,2012/12/23,,
copy the to the release folder,f,2012/12/23,,
disabled debugging,b,2012/12/23,,
fixed typo,b,2012/12/23,,
updated all to newest version,f,2012/12/23,,
hide coefficient view and button gyro is not available,f,2012/12/21,,
fixed crash on android 23,b,2012/12/21,,
set correct version,f,2012/12/05,,
disabled,b,2012/12/05,,
is deprecated,o,2012/12/05,,
updated comment on how to build,b,2012/12/03,,
upload to and now work,b,2012/12/03,,
updated link to code,b,2012/11/29,,
added encoding,b,2012/11/28,,
updated version,f,2012/11/28,,
prepare for next development iteration,o,2012/11/28,,
prepare release 01,f,2012/11/28,,
reverted back again,o,2012/11/28,,
prepare for next development iteration,o,2012/11/28,,
prepare release 04,f,2012/11/28,,
tried to change again,b,2012/11/28,,
prepare for next development iteration,o,2012/11/28,,
prepare release 03,f,2012/11/28,,
set to newest version,f,2012/11/28,,
prepare for next development iteration,o,2012/11/28,,
prepare release 02,f,2012/11/28,,
prepare for next development iteration,o,2012/11/28,,
prepare release 01,f,2012/11/28,,
one more edit,b,2012/11/28,,
moved into,o,2012/11/28,,
still getting error i try to perform a release,b,2012/11/28,,
prepare for next development iteration,o,2012/11/28,,
prepare release 01,f,2012/11/28,,
added snapshot again,b,2012/11/28,,
prepare release 01,f,2012/11/28,,
rollback the release of 01,f,2012/11/28,,
prepare for next development iteration,o,2012/11/28,,
prepare release 01,f,2012/11/28,,
edited,o,2012/11/28,,
minor edit to,b,2012/11/28,,
now us to build,f,2012/11/28,,
included maven and ant in,f,2012/11/27,,
removed,b,2012/11/27,,
enable another or,b,2012/11/27,,
invalidate joystick etc,b,2012/11/27,,
detect instead,b,2012/11/27,,
added tab variable,b,2012/11/27,,
should update view on resume,b,2012/11/24,,
now the joystick actually sends out data to the robot,b,2012/11/24,,
adjusted joystick color,f,2012/11/24,,
added,b,2012/11/23,,
added remote control via a joystick,b,2012/11/23,,
added voice recognition,o,2012/11/22,,
added icon,b,2012/11/21,,
fixed bug connection wa lost,b,2012/11/21,,
renamed and removed some string,b,2012/11/20,,
renamed to,o,2012/11/20,,
minor edit of the file,b,2012/11/20,,
send stop activity is paused,b,2012/11/19,,
removed unused code,b,2012/11/19,,
removed,b,2012/11/19,,
redraw on resume,o,2012/11/19,,
fix bug caused it to connect after first try also created a boolean to stop reading the,b,2012/11/19,,
check length of reading it,f,2012/11/19,,
can now also type in signed number,o,2012/11/19,,
improved layout,o,2012/11/19,,
now able to adjust value,f,2012/11/19,,
fixed reading bug,b,2012/11/19,,
added ability to read current value,f,2012/11/18,,
disable button is pressed,f,2012/11/17,,
minor edit,b,2012/11/17,,
enabled and tab,b,2012/11/17,,
set target to 17,o,2012/11/16,,
removed,b,2012/11/12,,
renamed to,o,2012/11/12,,
use standard dialog theme for level 11 and above,f,2012/11/12,,
check d flag logging,b,2012/11/12,,
fixed another bug for android 23,b,2012/11/12,,
now work on android 23,o,2012/11/12,,
now show a with the current value inside the,o,2012/11/12,,
removed support library from local folder,f,2012/10/29,,
added,b,2012/10/29,,
fixed degree symbol,b,2012/10/29,,
added support library,b,2012/10/29,,
check is null before setting up the menu,b,2012/10/28,,
removed all string,b,2012/10/28,,
removed eclipse project file,o,2012/10/28,,
removed all file,o,2012/10/28,,
updated,f,2012/10/24,,
