Topic Index 1,Topic Index 2,Topic Similarity
5,3,17.647058823529413
1,8,11.11111111111111
4,11,11.11111111111111
7,1,11.11111111111111
11,12,11.11111111111111
15,0,11.11111111111111
17,19,11.11111111111111
0,2,5.263157894736842
2,4,5.263157894736842
6,15,5.263157894736842
8,5,5.263157894736842
9,6,5.263157894736842
10,7,5.263157894736842
12,18,5.263157894736842
13,10,5.263157894736842
14,13,5.263157894736842
16,17,5.263157894736842
18,9,5.263157894736842
19,16,5.263157894736842
3,14,0.0
