# deletions,date,commit message
1,2015/7/23,Get jcifs from maven repository instead of using convenience .jar copy
35,2015/7/08,Handle keyboard actions on releasing keys  This is the most natural thing to do and allows for handling long press. For instance Samsung's Multi Window uses long press on the back button to show the Multi Window launchers.
2,2015/6/23,v2.7.2
1,2015/6/23,Check the right outline flags fixes #48.
1,2015/5/11,Upgrade targetSdkVersion in AndroidManifest.xml to 22
1,2015/5/11,Upgrade MuPDF to v1.7a
10,2015/5/05,Support FZ_LINK_URI links in pdf documents.  * Modify MuPdfLinks.fillPageLinkSourceRect() to fill in the link rect for any link type not just FZ_LINK_GOTO * Check link.url in AbstractViewController.processLinkTap() added a goToUrl method to open the URL. * In MuPdfLinks.getPageLinks() always set link.rectType and link.sourceRect
3,2015/5/02,Add EPUB file type to file browser preference
10,2015/5/02,Update strings_preferences_ui.xml
1,2015/5/02,Update strings_preferences_ui.xml
1,2015/5/02,Update strings_preferences_ui.xml
8,2015/5/02,Split apk for each ABIs
5,2015/5/01,Upgraded SDK to v22  * Upgraded `compileSdkVersion` and `targetSdkVersion` to 22 * Upgraded `buildToolsVersion` to '22.0.1' * Upgraded Android support library to revision 22.1.0 * Upgraded Gradle plugin to version 1.2.2
2,2015/4/30,Fix #88 v2.7.1
80869,2015/4/29,Include djvulibre as submodule fix #98.
2,2015/4/29,Korean translation due to halcyonera.
8,2015/4/20,Fix: no outline found with PDFs  ttOutline() (in org.ebookdroid.droids.mupdf.codec.MuPdfOutline) fails to find any outline if the argument `outline` is negative.  The JNI part of org.ebookdroid.droids.mupdf.codec.MuPdfOutline had the following code:  return (jlong) (long) doc->outline;  But this returns negative value if the most significant bit of outline handle is 1 because `sizeof long` is 4 (32 bit) and outline handler itself is a 32-bit pointer.
4,2015/4/17,Version 2.7
529,2015/4/17,Update MuPdf fix CBZ add EPUB support. Closes #86.
5769,2015/3/20,Normalize line endings
2,2015/3/15,Add a donate link into donations.html  Add a donate link for donation page. The donate link is found at [Android Apps page](https://sufficientlysecure.org/index.php/android-apps/) the image is found at PayPal official website through Google search.
1,2015/3/15,Update thanks.html  Small fix.
98,2015/3/14,Update build env
2,2015/3/11,Update thanks.html  Small fix.
17,2015/3/11,Update strings_preferences_typespec.xml  Fix Chinese simp. translation for strings_preferences_typespec.xml
27,2015/3/11,Update strings_preferences_render.xml  Fix Chinese simp. translation for strings_preferences_render.xml
7,2015/3/11,Update strings_preferences_performance.xml  Fix Chinese simp. translation for strings_preferences_performance.xml
6,2015/3/11,Update strings_preferences_performance.xml  Small fix.
8,2015/3/11,Update strings_preferences_navigation.xml  Fix Chinese simp. translation for strings_preferences_navigation.xml
5,2015/3/11,Update strings_mainmenu.xml  Fix Chinese simp. translation for strings_mainmenu.xml
10,2015/3/11,Update strings_common.xml  Fix Chinese simp. translation for strings_common.xml
1,2015/3/11,Update release note
2,2015/3/09,v2.6.1
