stash conflict,o,2013/3/08,,
,o,2013/2/27,,
do safe stop,b,2013/2/27,,
temporary solution for flicker this close 80 modified,b,2013/3/01,,
implemented adjustable snooze time with time picker this close 68 modified,b,2013/3/01,,
cancel stopping this close 95 modified,b,2013/2/25,,
something went wrong with the modified,o,2013/2/25,,
