use better time formatting,b,2013/3/10,,
remove log we do not have enough space in the report,b,2013/3/10,,
adapt to new,b,2013/3/10,,
enabled save action,b,2013/3/10,,
removed source link,b,2013/3/10,,
replaced source linking with project dependency modified deleted,b,2013/3/10,,
fixed,b,2013/3/09,,
release intent use a separate in this leak this close 100 modified,f,2013/3/09,,
catch in service this can happen the ha crashed,b,2013/3/09,,
modified,o,2013/3/09,,
removed modified,b,2013/3/09,,
changed logging destination and field now log to internal memory and use these log for this close 103 modified,b,2013/3/09,,
removed permission this is a part of 103,b,2013/3/09,,
