improve pull request merge,v3.6,2014/2/22,,
store theme setting in a format controlled by u,v3.6,2014/2/21,,
store theme setting in a format controlled by u,v3.6,2014/2/21,,
improve release info activity layout,v3.6,2014/1/27,,
download downloads and release through,v3.6,2014/1/25,,
use release author field,v3.6,2014/1/25,,
add support for viewing release and release event,v3.6,2014/1/24,,
use style to reference and size,v3.6,2013/10/30,,
cleanup le dependency between activity and fragment,v3.6,2013/10/28,,
also fetch content available,v3.6,2013/10/28,,
allow assignment of a custom color,v3.6,2013/10/25,,
label creation into label list,v3.6,2013/10/25,,
implement and action local task instead of loader,v3.6,2013/10/24,,
make sure to preserve space used for formatting,v3.6,2013/10/23,,
some string improvement,v3.6,2013/10/23,,
streamline tab creation,v3.6,2013/10/21,,
show search instead of explore item in action bar,v3.6,2013/10/19,,
set option,v3.6,2012/9/02,,
build property,v3.6,2012/8/29,,
search icon for dark theme,v3.6,2012/8/16,,
theme for dialog,v3.6,2012/8/14,,
handle request with fragment,v3.6,2012/8/14,,
search feature,v3.6,2012/8/13,,
extend base sherlock,v3.6,2012/8/13,,
add intent filter for commit,v3.6,2012/8/13,,
allow anonymous to explore the,v3.6,2012/8/12,,
increase avatar size,v3.6,2012/8/10,,
use and tag handler from android,v3.6,2012/8/10,,
pull request comment,v3.6,2012/8/06,,
prevent,v3.6,2012/7/31,,
set theme at main activity,v3.6,2012/7/27,,
set theme during runtime,v3.6,2012/7/27,,
dark light or theme to choose,v3.6,2012/7/27,,
prevent,v3.6,2012/7/22,,
remove background style in pull request commit list,v3.6,2012/7/22,,
style the button,v3.6,2012/7/15,,
use to get label,v3.6,2012/7/14,,
create milestone,v3.6,2012/7/14,,
add button cancel in edit label form,v3.6,2012/7/14,,
add issue label,v3.6,2012/7/14,,
show commits based on branch selected,v3.6,2012/7/12,,
pull request list,v3.6,2012/7/09,,
prevent,v3.6,2012/7/01,,
add back jar,v3.6,2012/6/24,,
reset style and revamp user activity,v3.6,2012/6/21,,
open pull request the comment event is for it,v3.6,2012/6/16,,
show commit in the pull request,v3.6,2012/6/15,,
show pull request link pull request is attached to issue,v3.6,2012/6/15,,
open specific request for in activity feed,v3.6,2011/8/05,,
add recent discussion,v3.6,2011/4/05,,
add breadcrumb,v3.6,2011/4/05,,
option to show in feed list,v3.6,2011/4/05,,
add gist support,v3.6,2011/3/20,,
add dependency jar,v3.6,2011/3/15,,
add jar,v3.6,2011/3/15,,
rename label,v3.6,2011/3/15,,
set default theme for label dialog,v3.6,2011/3/15,,
set default theme for preference,v3.6,2011/3/15,,
hide private activity not profile is not current user,v3.6,2011/3/08,,
pagination on list,v3.6,2011/3/07,,
add,v3.6,2011/3/05,,
button to show all commits at branch,v3.6,2011/3/05,,
use modified version of by,v3.6,2011/3/03,,
add feature 11,v3.6,2011/3/02,,
label,v3.6,2011/2/26,,
show pull request number,v3.6,2011/2/21,,
handle pull request event and show commit from head,v3.6,2011/2/21,,
add popular language,v3.6,2011/2/20,,
removed unused import,v3.6,2011/2/20,,
release and up version,v3.7.1,2014/10/09,,
refresh pull request event list changing pr comment,v3.7,2014/10/04,,
give u more flexibility with what to do with the it,v3.7,2014/10/02,,
use the same border color in light and dark theme and for image and comment,v3.7,2014/9/29,,
add support for starred gist,v3.7,2014/9/27,,
it make no sense to have a single localized string in a sea of unlocalized one,v3.7,2014/9/27,,
make selection dialog consistent to guideline,v3.7,2014/9/27,,
select on list item selection remove the now superfluous button and consistently use a cancel button,v3.7,2014/9/27,,
allow editing commit comment,v3.7,2014/9/25,,
show comment count in commit list,v3.7,2014/9/24,,
convert plural that only are used with static count to string and add count format placeholder appropriate,v3.7,2014/9/23,,
make the distinction clearer by naming the edit activity accordingly,v3.7,2014/9/22,,
use relative luminance and not the l component of the color model a better fit our purpose of adjusting the foreground color to the brightness of the background,v3.7,2014/9/19,,
disable zoom control,v3.7,2014/9/17,,
move it to a setting activity together with the theme setting,v3.7,2014/9/17,,
branch selection need to be initialized,v3.7,2014/9/08,,
adjust foreground color of change header in light theme,v3.7,2014/8/14,,
shrink the huge padding to the left and make font size somewhat consistent to prettified code output,v3.7,2014/8/14,,
in case we need larger font at some point this should probably happen in the form of a default zoom level option,v3.7,2014/8/14,,
string improvement,v3.7,2014/5/30,,
create dialog builder,v3.7,2014/5/31,,
string improvement,v3.7,2014/5/30,,
create dialog builder,v3.7,2014/5/31,,
go to pushed clicking a create event,v3.7,2014/5/23,,
provide them in higher resolution and use the color scheme to match the other,v3.7,2014/5/23,,
replace pull request with pull 192,v3.7,2014/5/22,,
display according to theme,v3.7,2014/5/18,,
added pull request number to repository fragment,v3.7,2014/5/17,,
design improvement 178,v3.7,2014/5/06,,
design improvement 178,v3.7,2014/5/06,,
add support 153,v3.7,2014/4/25,,
add support 153,v3.7,2014/4/25,,
ensure container are during the entire lifetime of the activity,v3.8.0,2015/5/10,,
unify branch and tag selection,v3.8.0,2015/1/06,,
allow viewing deletion,v3.8.0,2014/12/12,,
allow gist,v3.8.0,2014/12/11,,
use library provided rounded drawable,v3.8.0,2014/11/30,,
clean up more button style handling,v3.8.0,2014/11/29,,
color,v3.8.0,2014/11/28,,
also recolor status bar recoloring header on 21,v3.8.0,2014/11/13,,
tracking request come from different thread,v3.8.0,2014/11/12,,
tag or branch,v3.8.0,2014/11/10,,
use a central cache for font and make sure style span font match the base font,v3.8.0,2014/11/02,,
rework font handling,v3.8.0,2014/11/01,,
clean import,v3.8.0,2014/11/01,,
beautify download release and gist section,v3.8.0,2014/10/30,,
tune color picker,v3.8.0,2014/10/29,,
split saturation and value input to allow reproducing gray and add a proper landscape layout,v3.8.0,2014/10/29,,
tune label management,v3.8.0,2014/10/29,,
beautify milestone management,v3.8.0,2014/10/29,,
put fork in separate activity,v3.8.0,2014/10/28,,
use a drawer instead of action bar navigation for list,v3.8.0,2014/10/28,,
improve some and add new one for bookmark,v3.8.0,2014/10/28,,
add stats for each file in commit,v3.8.0,2014/10/27,,
drop the card and use a flat list instead,v3.8.0,2014/10/25,,
purpose of this is to create a branding between the icon and the action color,v3.8.0,2014/10/22,,
filename color based on theme,v3.8.0,2014/10/22,,
need this in for dark theme,v3.8.0,2014/10/22,,
and also introduce replace,v3.8.0,2014/10/22,,
use colored action bar and color highlight,v3.8.0,2014/10/20,,
expand navigation drawer behind status bar,v3.8.1,2015/5/27,,
color drawer entry according to selection,v3.8.1,2015/5/26,,
introduce a new home activity,v3.8.1,2015/5/26,,
always resolve theme item from the passed context,v3.8.1,2015/5/21,,
allow comment box to be scrolled,v3.8.1,2015/5/19,,
add license file,v3.8.1,2015/5/13,,
release 401,v4.0.2,2016/5/21,,
also refresh content list fragment on refresh,v4.0,2016/4/14,,
disable comment editor is locked,v4.0,2016/3/23,,
color entry and view pager according to current header color,v4.0,2016/3/23,,
implement sorting for starred list,v4.0,2016/3/20,,
state is p ed a part of the query not a part of the filter data,v4.0,2016/3/18,,
solely use span to display label,v4.0,2016/3/18,,
color progress bar together with header coloring,v4.0,2016/3/18,,
add some missing break and commit id to merge event,v4.0,2016/3/18,,
use a for the release asset list again,v4.0,2016/3/13,,
we add our scrolling container asynchronously in a lot of case and the system may pick the automatic scrolling mode before leading to panning mode being selected,v4.0,2016/3/12,,
instead of sizing all tab equally size needed but distribute excess space evenly,v4.0,2016/2/15,,
show status and commit status in pull request view,v4.0,2016/2/14,,
make sure visual size of the rendered is always the same,v4.0,2016/2/12,,
add breadcrumb view to content list tab,v4.0,2016/2/11,,
hide on list scroll,v4.0,2016/2/09,,
add sorting capability to list,v4.0,2016/2/09,,
include upstream merge and a method to query a single release,v4.0,2016/2/01,,
include upstream merge and a method to query a single release,v4.0,2016/2/01,,
get u the new preference support library,v4.0,2016/1/23,,
use system font on 21,v4.0,2016/1/22,,
use system font on 21,v4.0,2016/1/22,,
avoid clearing the mode by needlessly invalidating the option menu,v4.0,2015/12/31,,
add year and name of copyright owner,v4.0,2015/12/07,,
