# deletions,date,commit message
2,2013/5/11,close 122 add now playing total in queue to download fragment
9,2013/5/11,add in a safety check parent id is not set
25,2013/5/11,fix 2 nested not working
16,2013/5/11,added trail going down in fragment
5,2013/5/10,surround with try finally block
5,2013/5/10,revert previous commit just always do pause logic
1,2013/5/10,update widget going prepared paused
1,2013/5/10,make progress bar visible
27,2013/5/09,add lazy loading for album list
1,2013/5/09,update to 431
1,2013/5/09,update
1,2013/5/09,use a different album art for each time
2,2013/5/09,synchronize
1,2013/5/07,fix orientation change back orientation change causing crash
9,2013/5/07,fix orientation changing for search activity
255,2013/5/07,fix orientation change for download fragment and showing control at the same time
2,2013/5/07,change wording of to cache to make it more obvious what is on
5,2013/5/06,is not a exception apparently
