App,Store,App ID,Review ID,Country,Version,Rating,Date,Author,Subject,Body,Translated Subject,Translated Body
DSub for Subsonic,Google Play,github.daneren2005.dsub,Z3A6QU9xcFRPRktpRUhuVVBHcTlyemIyaURGVXRRZEdRYVRicHJ0M3JlTXVCMG95ZFRJdjhydUlrazZOT2JnV2duc3otT2liSEwyZ1ZOYzFYY25EV2k2Um1r,English,,5,2014-04-14,Jay Deiman,Great app and awesome support,some troubleshooting back and forth with the it now work perfectly,,
DSub for Subsonic,Google Play,github.daneren2005.dsub,Z3A6QU9xcFRPRktpRUhuVVBHcTlyemIyaURGVXRRZEdRYVRicHJ0M3JlTXVCMG95ZFRJdjhydUlrazZOT2JnV2duc3otT2liSEwyZ1ZOYzFYY25EV2k2Um1r,English,,5,2014-04-14,Jay Deiman,Great app and awesome support,i like the interface better the default subsonic and the support i received in resolving my issue wa exceptional,,
DSub for Subsonic,Google Play,github.daneren2005.dsub,Z3A6QU9xcFRPRktpRUhuVVBHcTlyemIyaURGVXRRZEdRYVRicHJ0M3JlTXVCMG95ZFRJdjhydUlrazZOT2JnV2duc3otT2liSEwyZ1ZOYzFYY25EV2k2Um1r,English,,5,2014-04-14,Jay Deiman,Great app and awesome support,i highly recommend the and this developer,,
DSub for Subsonic,Google Play,github.daneren2005.dsub,Z3A6QU9xcFRPRUxVZ1FzazZvX3NzbmJYNlhsWl9Ib2V1VEZOX0p5U1dJOGVFR2RtWjNkZFFsQzViTXQ1Z2ktcGpLc09KT1BaWGt2cmVYUVNzMTFiVy12TTV3,English,,2,2014-04-13,Anthony,Play and pause,there is always a loud burst of sound i press pause and play again,,
DSub for Subsonic,Google Play,github.daneren2005.dsub,Z3A6QU9xcFRPRmoycDRUOURkcGNkb1NGYndyVWJYYVhNVFdNSlpSbjl6MG5wek9GT001SDUyVmc4S2VJbVdldm9SUm1FU2hobEtsVTdueFZfbzE5ZXZ5NnR3,English,,5,2014-04-04,Dan Greve,Awesome app,,,
DSub for Subsonic,Google Play,github.daneren2005.dsub,Z3A6QU9xcFRPRWtZenNkT0Y2QWZoS2FrQUFPQ3gwaWIwcXEySjdkV0ZoU19INHFpWmNSS3k3LTZodlRIQ1lsUXJNMEZHc0NpSDFCd3loWFVUN0NkYTNzMExv,English,,5,2014-04-03,Carson Ball,Works great on my Galaxy S4,and control are nice feature,,
DSub for Subsonic,Google Play,github.daneren2005.dsub,Z3A6QU9xcFRPSDlFU0M4WDVhUXNMb3RNRU5FTURMOGUtQlk3RjNaY0dndHQ1cEJ3Y1Q4alhqZjZlTzZnZWdvemhrVTBxeE9NM01TdjRoWEVGSW5HT0JNeG53,English,,5,2014-04-02,,Best Subsonic app period,i would even say best music streamer period it plugged into all access a well,,
DSub for Subsonic,Google Play,github.daneren2005.dsub,Z3A6QU9xcFRPSDlFU0M4WDVhUXNMb3RNRU5FTURMOGUtQlk3RjNaY0dndHQ1cEJ3Y1Q4alhqZjZlTzZnZWdvemhrVTBxeE9NM01TdjRoWEVGSW5HT0JNeG53,English,,5,2014-04-02,,Best Subsonic app period,hoping,,
