# deletions,date,commit message
1,2014/7/17,fix song menu item showing up on small album art for album list
1,2014/7/17,fix crash in trying to share
17,2014/7/17,more change for more descriptive sync notification
1,2014/7/17,use artist for starring
1,2014/7/17,populate album dataset for feature which check on it
1,2014/7/17,id is null then looking at starred list
1,2014/7/17,play now from starred list should include
1,2014/7/17,fix case sync report new content from failed download
5,2014/7/17,make the sync notification title more descriptive
3,2014/7/17,move to displaying le generic sync title
7,2014/7/17,fix another crash case
1,2014/7/16,472
33,2014/7/16,fix crash on by using system selectable background on default to blue version for
2,2014/7/16,update translation
1,2014/7/15,get rid of background error on each user with no avatar
47,2014/7/15,no point in inheriting from use a single error message
14,2014/7/15,368 finish up requiring password for tab
11,2014/7/15,368 trying to enter tab confirm password for user
2,2014/7/12,472 to beta
1,2014/7/12,is saving wrong
9,2014/7/12,361 just rename in medium store for
5,2014/7/12,361 make sure to delete from store deleting song
10,2014/7/12,fix crash starting with nothing in list
