# deletions,date,commit message
2,2014/5/02,possible fix for crash some user are getting
18,2014/5/02,46 released
4,2014/5/02,fix rotate crashing
2,2014/5/02,add more cell for
8,2014/5/02,add back star to album make grid text a step smaller
