# deletions,date,commit message
2,2015/9/17,display local cached version of duration in detail dialog
32,2015/9/17,fix root level song being put in folder null
2,2015/9/17,just turn token off no one seems to want to fix server issue
5,2015/9/16,switch to use
1,2015/9/16,6 now us instead of
72,2015/9/16,fix for issue with
6,2015/9/15,fix position not updating for remote playback anymore
2,2015/9/15,update translation
1,2015/9/14,auto redirect to user tab not logged in a an
2,2015/9/12,fix token not being refreshed changing
1,2015/9/12,519 truncate file past size limit instead of just failing
1,2015/9/12,fix trying to save a play queue with a index of 1
4,2015/9/12,536 auto skip song mobile
2,2015/9/11,501 released
6,2015/9/11,put a bunch of context menu option back
