App,Store,App ID,Review ID,Country,Version,Rating,Date,Author,Subject,Body,Translated Subject,Translated Body
DSub for Subsonic,Google Play,github.daneren2005.dsub,Z3A6QU9xcFRPRmNFUzhSbVRQcmNJUEh2cUVncUw2eVQ3RHdXSDhMWDQyLVpZNHpJMzF1bndneGlMcU01V1RhczdTY1BxMlpmYkk4Y1RUUXQ5bTdfZ3ZVb1FF,English,,5,2014-03-09,Tony Gustafson,Best app ever,used to use but dare i say this is better,,
DSub for Subsonic,Google Play,github.daneren2005.dsub,Z3A6QU9xcFRPR1FWTTdMSGpucWwyVzlwSXZDOGtBd3NXVEJ1TDRuOEtHd0pSWXJRYmVBVW0yb1hUYjFFRHdwN0VUbUhSTi1tNnU3Ml9oLUhLNHBCamJRNVVv,English,,5,2014-03-09,Nicholas Kopas,Chromecast and Subsonic!,this is a great work good a the subsonic or better,,
DSub for Subsonic,Google Play,github.daneren2005.dsub,Z3A6QU9xcFRPR1FWTTdMSGpucWwyVzlwSXZDOGtBd3NXVEJ1TDRuOEtHd0pSWXJRYmVBVW0yb1hUYjFFRHdwN0VUbUhSTi1tNnU3Ml9oLUhLNHBCamJRNVVv,English,,5,2014-03-09,Nicholas Kopas,Chromecast and Subsonic!,cool option for local network address,,
DSub for Subsonic,Google Play,github.daneren2005.dsub,Z3A6QU9xcFRPR1FWTTdMSGpucWwyVzlwSXZDOGtBd3NXVEJ1TDRuOEtHd0pSWXJRYmVBVW0yb1hUYjFFRHdwN0VUbUhSTi1tNnU3Ml9oLUhLNHBCamJRNVVv,English,,5,2014-03-09,Nicholas Kopas,Chromecast and Subsonic!,i do split at home and had problem with i set the local network option,,
DSub for Subsonic,Google Play,github.daneren2005.dsub,Z3A6QU9xcFRPR1FWTTdMSGpucWwyVzlwSXZDOGtBd3NXVEJ1TDRuOEtHd0pSWXJRYmVBVW0yb1hUYjFFRHdwN0VUbUhSTi1tNnU3Ml9oLUhLNHBCamJRNVVv,English,,5,2014-03-09,Nicholas Kopas,Chromecast and Subsonic!,anymore,,
DSub for Subsonic,Google Play,github.daneren2005.dsub,Z3A6QU9xcFRPR1FWTTdMSGpucWwyVzlwSXZDOGtBd3NXVEJ1TDRuOEtHd0pSWXJRYmVBVW0yb1hUYjFFRHdwN0VUbUhSTi1tNnU3Ml9oLUhLNHBCamJRNVVv,English,,5,2014-03-09,Nicholas Kopas,Chromecast and Subsonic!,it on the screen,,
DSub for Subsonic,Google Play,github.daneren2005.dsub,Z3A6QU9xcFRPR3hvdkhiaGRFTkdDNWZNTmNZNFAxR0NhNkF2OEVqMnlnSmF3MjZlMXdrY25aN0ZvUHR3bWZuOHFDUU1ZSFdLdHZXNzkzT2E0V0gxSzdOM1Y0,English,,4,2014-03-04,Roy Morris,Chromecast support,great,,
DSub for Subsonic,Google Play,github.daneren2005.dsub,Z3A6QU9xcFRPR3hvdkhiaGRFTkdDNWZNTmNZNFAxR0NhNkF2OEVqMnlnSmF3MjZlMXdrY25aN0ZvUHR3bWZuOHFDUU1ZSFdLdHZXNzkzT2E0V0gxSzdOM1Y0,English,,4,2014-03-04,Roy Morris,Chromecast support,it play one song then stop the whole album is queued,,
DSub for Subsonic,Google Play,github.daneren2005.dsub,Z3A6QU9xcFRPR3hvdkhiaGRFTkdDNWZNTmNZNFAxR0NhNkF2OEVqMnlnSmF3MjZlMXdrY25aN0ZvUHR3bWZuOHFDUU1ZSFdLdHZXNzkzT2E0V0gxSzdOM1Y0,English,,4,2014-03-04,Roy Morris,Chromecast support,sorry i tried viewing your response bit accidentally deleted my review by accident,,
DSub for Subsonic,Google Play,github.daneren2005.dsub,Z3A6QU9xcFRPRkpwVEg4ZHdlcV9mVGZ2QXpNbFpvTmpUV3MwRllqZldOYnlMN2FkNU5oU3Uxcm1uQms4UkhUdnpkek9sTWFJTC1BQ3VDUnhrRGJ1Szg0ajdZ,English,,5,2014-03-04,PJ P,Offline caching,this is what you need when listening to your subsonic collection,,
DSub for Subsonic,Google Play,github.daneren2005.dsub,Z3A6QU9xcFRPRVktd1VUUWRVcXNWZlQ5NFFqaWtTVzRVNnN4QU50Z0poQmJOeHM2aDdBaW9ZdExnT3FnQjR3cGJsWUFkVHBlUmZlRTZqSzFSa3BDMTNXZGR3,English,,5,2014-03-03,Rico Plüss,Awesome!,one of the best out there,,
