App,Store,App ID,Review ID,Country,Version,Rating,Date,Author,Subject,Body,Translated Subject,Translated Body
DSub for Subsonic,Google Play,github.daneren2005.dsub,Z3A6QU9xcFRPRUFzMHVNbzdjMGVONk1MbnlJQ0hQbnY5X0cxalVlVWo5Y29lMlZqczF5d0c2a0k5eDVlVjNFQ2haNG9UX01nYVU5WWh6d3BhTXl0QUZJZlJV,English,,5,2013-12-22,Roni Laukkarinen,Improving rapidly,ultrasonic is a fair but this rule,,
DSub for Subsonic,Google Play,github.daneren2005.dsub,Z3A6QU9xcFRPSE54akd0Szdjdzl2d0pOaFlFSW45MFRzMmI1dWFHcUVqekhPVkxaNmNZSTVYd2NsVmdUMnd0QmtXMk41MHJOa01UU1p6dld2WFAxN2FjUmYw,English,,5,2013-12-22,Slaught Er,Fantastic,work great with too,,
DSub for Subsonic,Google Play,github.daneren2005.dsub,Z3A6QU9xcFRPSE54akd0Szdjdzl2d0pOaFlFSW45MFRzMmI1dWFHcUVqekhPVkxaNmNZSTVYd2NsVmdUMnd0QmtXMk41MHJOa01UU1p6dld2WFAxN2FjUmYw,English,,5,2013-12-22,Slaught Er,Fantastic,best subsonic on the market,,
DSub for Subsonic,Google Play,github.daneren2005.dsub,Z3A6QU9xcFRPRU1nX1o3TmVDNFc1Y3R2X1NweE1rNjFTNjdfektWWU9sdFJNazhRNUV1azdvR3g1dkF0X0RjcExxUHNTM1NrT2ZRNUxRMVZkT2hFVW93elVr,English,,5,2013-12-17,Jay H,I can't cram enough positive words,another reviewer this is subsonic pro,,
DSub for Subsonic,Google Play,github.daneren2005.dsub,Z3A6QU9xcFRPRU1nX1o3TmVDNFc1Y3R2X1NweE1rNjFTNjdfektWWU9sdFJNazhRNUV1azdvR3g1dkF0X0RjcExxUHNTM1NrT2ZRNUxRMVZkT2hFVW93elVr,English,,5,2013-12-17,Jay H,I can't cram enough positive words,incredible feature responsive beta testing feature and ton more,,
DSub for Subsonic,Google Play,github.daneren2005.dsub,Z3A6QU9xcFRPRU1nX1o3TmVDNFc1Y3R2X1NweE1rNjFTNjdfektWWU9sdFJNazhRNUV1azdvR3g1dkF0X0RjcExxUHNTM1NrT2ZRNUxRMVZkT2hFVW93elVr,English,,5,2013-12-17,Jay H,I can't cram enough positive words,well worth it,,
DSub for Subsonic,Google Play,github.daneren2005.dsub,Z3A6QU9xcFRPSGQydTE4T0xLT3FBX2UtMHNQZTRqMEoxUFg4eDdfNFlHU2pYNlV2dXQyTlZ6aXIxb0ktcDFoU0d6ejBvS0lEa3kwOW5YeE5wckFDMlJtMlk0,English,,4,2013-12-12,Carlos Green,Great app,need a recently added folder and a easier way to collect non album file,,
DSub for Subsonic,Google Play,github.daneren2005.dsub,Z3A6QU9xcFRPSHVDZ0FnMVhNSzl3WjBGVlFieEpDbmpiNlBCRDJEMVFpeWJRMmQ5bVVneVQ2MGhkX0dxSWU0VUcyaktfV2Vjbk5ZYmNnOHluR19qczROYXdj,English,,5,2013-12-11,Jeffrey Forsythe,Best Subsonic client for any OS.,delivers the best experience,,
DSub for Subsonic,Google Play,github.daneren2005.dsub,Z3A6QU9xcFRPSHVDZ0FnMVhNSzl3WjBGVlFieEpDbmpiNlBCRDJEMVFpeWJRMmQ5bVVneVQ2MGhkX0dxSWU0VUcyaktfV2Vjbk5ZYmNnOHluR19qczROYXdj,English,,5,2013-12-11,Jeffrey Forsythe,Best Subsonic client for any OS.,for wa the best but surpassed it over the past year with it frequent update and useful improvement,,
DSub for Subsonic,Google Play,github.daneren2005.dsub,Z3A6QU9xcFRPSHVDZ0FnMVhNSzl3WjBGVlFieEpDbmpiNlBCRDJEMVFpeWJRMmQ5bVVneVQ2MGhkX0dxSWU0VUcyaktfV2Vjbk5ZYmNnOHluR19qczROYXdj,English,,5,2013-12-11,Jeffrey Forsythe,Best Subsonic client for any OS.,i requested a feature and the developer incorporated it in the very next update,,
DSub for Subsonic,Google Play,github.daneren2005.dsub,Z3A6QU9xcFRPSHVDZ0FnMVhNSzl3WjBGVlFieEpDbmpiNlBCRDJEMVFpeWJRMmQ5bVVneVQ2MGhkX0dxSWU0VUcyaktfV2Vjbk5ZYmNnOHluR19qczROYXdj,English,,5,2013-12-11,Jeffrey Forsythe,Best Subsonic client for any OS.,very impressive,,
DSub for Subsonic,Google Play,github.daneren2005.dsub,Z3A6QU9xcFRPRzQxM0tXMWNlbXFZNnc2VTZ0dC1QRXg3UGI0V0pnWDNPaE5BTW8tNjZlTmJFZnVZQUhLN0NSRFo1cWsyRmNlYXY4aUVkeUZPQUQycW1BOGtz,English,,5,2013-12-10,Brent Wehry,,excellent,,
DSub for Subsonic,Google Play,github.daneren2005.dsub,Z3A6QU9xcFRPRzQxM0tXMWNlbXFZNnc2VTZ0dC1QRXg3UGI0V0pnWDNPaE5BTW8tNjZlTmJFZnVZQUhLN0NSRFo1cWsyRmNlYXY4aUVkeUZPQUQycW1BOGtz,English,,5,2013-12-10,Brent Wehry,,work great with subsonic on and stream all music,,
DSub for Subsonic,Google Play,github.daneren2005.dsub,Z3A6QU9xcFRPRzQxM0tXMWNlbXFZNnc2VTZ0dC1QRXg3UGI0V0pnWDNPaE5BTW8tNjZlTmJFZnVZQUhLN0NSRFo1cWsyRmNlYXY4aUVkeUZPQUQycW1BOGtz,English,,5,2013-12-10,Brent Wehry,,,,
DSub for Subsonic,Google Play,github.daneren2005.dsub,Z3A6QU9xcFRPR21MS1VlemV2Nm1jWkZwa3FjS2JVRnpYaDU1RDc1MVZUZDhnVXpQdENzZmNueDN0Z0xrdW1hT1Z6OTEtWnJYM2NIM1VmN1lsMmNjM0s3Qy13,English,,5,2013-12-10,Emory Petermann,Great app!,work with subsonic and sound better and all my music is in one place and available to all the on my phone or to with in mode,,
DSub for Subsonic,Google Play,github.daneren2005.dsub,Z3A6QU9xcFRPR21MS1VlemV2Nm1jWkZwa3FjS2JVRnpYaDU1RDc1MVZUZDhnVXpQdENzZmNueDN0Z0xrdW1hT1Z6OTEtWnJYM2NIM1VmN1lsMmNjM0s3Qy13,English,,5,2013-12-10,Emory Petermann,Great app!,the ultimate music player,,
DSub for Subsonic,Google Play,github.daneren2005.dsub,Z3A6QU9xcFRPRUM4OHdpX2ZBelVnVXRhb0dhZDFxcFUybzZReXl5UWdaVmN6M2F4LU5RNFVqV1Vfa01oNmFkTklER3FpVzRWejhnSmlxUm9BSFZkMkU5aGdv,English,,5,2013-12-10,Jon Prather,DSub is subsonic PRO!,no question this application vastly improves on what the subsonic started,,
DSub for Subsonic,Google Play,github.daneren2005.dsub,Z3A6QU9xcFRPRUM4OHdpX2ZBelVnVXRhb0dhZDFxcFUybzZReXl5UWdaVmN6M2F4LU5RNFVqV1Vfa01oNmFkTklER3FpVzRWejhnSmlxUm9BSFZkMkU5aGdv,English,,5,2013-12-10,Jon Prather,DSub is subsonic PRO!,the is so much so that he even included my suggested code for a bug fix a new version of android came out for my device but not yet for his,,
DSub for Subsonic,Google Play,github.daneren2005.dsub,Z3A6QU9xcFRPRUM4OHdpX2ZBelVnVXRhb0dhZDFxcFUybzZReXl5UWdaVmN6M2F4LU5RNFVqV1Vfa01oNmFkTklER3FpVzRWejhnSmlxUm9BSFZkMkU5aGdv,English,,5,2013-12-10,Jon Prather,DSub is subsonic PRO!,d,,
