App,Store,App ID,Review ID,Country,Version,Rating,Date,Author,Subject,Body,Translated Subject,Translated Body
Terminal Emulator for Android,Google Play,jackpal.androidterm,Z3A6QU9xcFRPRnVQSmhKbkpkRWR4elQ3Q0VxQS05Zm42VWt6Tks3Sl81R0VoNTBILUFNSW56TURwMGg4M0NJWmtiREZmZE1CcmVnSWRfdHJJSVN3YmR4bWtB,English,,4,2014-05-22,Hero C,"",What does it do ?,,
Terminal Emulator for Android,Google Play,jackpal.androidterm,Z3A6QU9xcFRPR3ZOanhPaVB2dkV4ekl2am5QbEVKeF80ODFvZW5NclVfYTZDNUViaVQ2bk13VDZTLVBwSTVYSndhZUVIN1ZlQzFVdGFmSk1TTDFkVng5YmZr,English,,5,2014-05-22,Matthew Ott,Lots of options,"I like the multi-window setup, the ""special-keys"", and the terminal-like input mechanism. Very well done!",,
Terminal Emulator for Android,Google Play,jackpal.androidterm,Z3A6QU9xcFRPRTVPUmFZV3NTUUxtNml3VVlSNkE3SV9BNXd6NDFPazlUZzY2OGpEVTJCdUZqcHFKVmZTNGwxeEx0NFRfTEdJaFhDQ2Vyb2tCZVFnNGRpcjJv,English,,5,2014-05-22,jason noronha,This app has no competition,"",,
Terminal Emulator for Android,Google Play,jackpal.androidterm,bGc6QU9xcFRPRmt2dDFtSE1UV0VYankyN1lfeEFXTkFIQVlHN2V1blpSSjR3UDdWa09vdmJQTVdtV2ZTWWpMTTNnRVphRFVWMlFGeXVtLWFkVmF0NFpfcGMw,English,,5,2014-05-22,A Google User,Super,Harika tek kelime!!,,
Terminal Emulator for Android,Google Play,jackpal.androidterm,Z3A6QU9xcFRPR0l0UTRjYjZ3dDU4VU5FSVJGR21LRk1jZG9lelc1OHVYSUdwVnRjQ3FXNjB0Um9mSlJ1Y19NWkJJNVhWNVRRZW83U19CN25TQjFZOS02NEIw,English,,2,2014-05-21,Mikey D,Seemed nice...be warned...,"This app installs into /system/app, so I had to use Titanium or a root browser to remove as a normal user does get uninstall options for a protected area.  Come on man...Not quite what I was looking for, but a little peeved that there is no Android context for uninstalling this? seriously? Had to remove the apk instead. Not cool.",,
Terminal Emulator for Android,Google Play,jackpal.androidterm,Z3A6QU9xcFRPR25yZXkxRGh3V1g0OHRiRFFNU3NSTDM0Uk5hQXJOLVRPYThrR2twbFlYYzNaY2VfNUlwZjlfZHlRMUhWQXRxWjVobVA1b3FtbzZGM0w2aFc0,English,,5,2014-05-20,James Bowman,"Simple, Great!","I'm no dev, but I like to customize my phone. This great app has been  indispensable, and I love that it takes up so little space. Job well done!",,
Terminal Emulator for Android,Google Play,jackpal.androidterm,Z3A6QU9xcFRPRllsQlk1TlpibnRnNno0Z0o0cVRCZ013eVNfWkU4T1hJT1Zsb0Z4VnNkRjFKOF9VQXpkMzdCc0N2RGFPRHJGamJ3YWZWVkJPOHFrUDNYMnZF,English,,5,2014-05-20,Nikhil Warke,Very useful for tweaking things,i first installed it to fake my mac address but discovered it can do hell lotta different stuff.,,
Terminal Emulator for Android,Google Play,jackpal.androidterm,Z3A6QU9xcFRPR2hidVNLeUF4Rm1Qb1pRaWlnOWNzZzBBR2VGa1VvS2oxdjJ5eFBaY1JZSlU0bE9seGZGZ0NCOUlCSzFyam9oeGNsMWJ6elRLMW82NGl3Zmg0,English,,3,2014-05-20,MAHA kInG,Not bad,"While I put enter , the keyboard does not dissappears and also the keypress popup also remain there in the middle of my screen. . .",,
Terminal Emulator for Android,Google Play,jackpal.androidterm,Z3A6QU9xcFRPR2t3U09TVGpoTWRkMS1DZV9oVGJXVFZMMjh5T01ZTDZ3NzFRMFJqckpzSGlyWFhVWUF3WndrUzlwODhiZ2g2OFFPcHBmdE0xZEZDNGJqcHNR,English,,5,2014-05-20,mohammed haroon,Du,Vertph bmf,,
Terminal Emulator for Android,Google Play,jackpal.androidterm,bGc6QU9xcFRPRXpNQ285NTJMMmd2aDBrWTRrSm9hY1BFZm9wOVVjNGZiM21GMlZxTHd0N05ZbjhWeFdaQm5xV3c2RlZDZDZOZUtvOVhVdWNBbW94WUYzdkZz,English,,5,2014-05-20,A Google User,"",This is an amazing little app. Does exactly what it should. Your device does need to be rooted to get the most out of it. - Evo,,
Terminal Emulator for Android,Google Play,jackpal.androidterm,Z3A6QU9xcFRPSGNYMmNpR0dfV3RzRUVxd0pPRXlHYndfQVg3X2RGbk1sNjlZRzhDclQydmIzUjg0WkFpN2htVFFacFhYWUFoemNmT1IyT2xqUEh3RFYtMXJJ,English,,5,2014-05-18,Albert Vanlembrex,galyoung,good apk,,
Terminal Emulator for Android,Google Play,jackpal.androidterm,Z3A6QU9xcFRPR0dIMFJDWWVjTzlLYzBzVmhIWGl5LTFrbUZNMzBZa2ZPREtNWTVFNDJRRGlsMll3VDV3UV81RFBza1hqZU42ZVlhMEZ5VnF1RFVsbjZJdktJ,English,,5,2014-05-17,angga purnama,"",Awesome,,
Terminal Emulator for Android,Google Play,jackpal.androidterm,Z3A6QU9xcFRPSEtUN0V0YW9zcEdaSW90LUw3TVBZczJwTW4yNV9XMHhxTC00TlR1XzJpSTBZN0JiMnRQMTF1bUpHYzJxSHo1clZiTHRQUmd0TzFfdU9GMENV,English,,5,2014-05-17,Encik XephraaTM,Nice apps ever !,Hope to add more intersting figure,,
Terminal Emulator for Android,Google Play,jackpal.androidterm,Z3A6QU9xcFRPRXpTQjBYZjNXak1XU3JSbXNuNkJWbXRqZUZ1YjJ5UzA3cVh2MHJsTmM1Mnl4U2I4WWtBNmQtZHdQM29MMmVTQVpQSms2X29DZTdqS2VQdWlN,English,,5,2014-05-16,upendra yadav,"",Must have app for developers,,
Terminal Emulator for Android,Google Play,jackpal.androidterm,Z3A6QU9xcFRPR1hlVTNVSU1QT1IzUTY2ZWhaSmVrbEJFcG5peHBIMnVzVGxPamNFUkx1Qks5dUZiT1Byek4tVWtpN29OZlZrTnhSdkRlbDNHNjR5WDZhRlNn,English,,5,2014-05-16,Gevorg Poghosyan,works!,Better to use this instead of any pinging app. Thanks!,,
Terminal Emulator for Android,Google Play,jackpal.androidterm,Z3A6QU9xcFRPRy1ZUkpQWkJ0SjhvTEVqRUdTa21YUGFQRFk2T1VIVnczMW9MZHBNWlpoRGQzYUdQQldrczVuSW51U1hHcGdwcWFnUGpzblRtbk5jd2RGT1Bz,English,,4,2014-05-15,Aldy Firmansyah,Coba,Cmd,,
Terminal Emulator for Android,Google Play,jackpal.androidterm,Z3A6QU9xcFRPRVA3c0RzQm5Xcm9nTk9hN2o0TU9YRUFZZUlFRjBvX3d6ZWdvN3NySmtBV3Z3VmlKTjdldkhISkhwZGZFc3RiYWhOX3dpaGpHS1lLb1prMzlR,English,,5,2014-05-14,Sai Aswin,"",Great app !!!!,,
Terminal Emulator for Android,Google Play,jackpal.androidterm,Z3A6QU9xcFRPRTF4UmQwVkIxQXloVmlGM3JuR3NmVlBTNFpIUTdJRWZCWDJqT1VnQXlvb3g3TG1hbjdpQk1aLVptOFNONUZ4bEMyWVNCVEhKYWRrd19BTGZv,English,,5,2014-05-14,Alex Alborote,Advance appreciation. Great deeds to the engineer,"Just right now trying to cope the instalation guide and stil on going. Ive already tried several times to use this app but always failed because of my connection. I know, it wil l really work.",,
Terminal Emulator for Android,Google Play,jackpal.androidterm,Z3A6QU9xcFRPRXVIeUZ0ZnBWQ2h6R2lhZ1gtSi1ySWl6bW9hUTNTYThyaU5Yc2tTUXh1NWFpWUtQb04xTTUydFUtMGx4SVdVYkhoaFlEZE5OUVpneFQtclc4,English,,4,2014-05-13,Jay Ling,good,nice,,
Terminal Emulator for Android,Google Play,jackpal.androidterm,Z3A6QU9xcFRPRU9qcTBSN1pQWUFvckd5TUpyOW5aRGVIeG8zbkp2Y1lWamFpR0lUS01ZT2R1WDdqcFczaUxHNmhtMzNqSl8tcmFMTzV4SXdTUGtuVTdDcG80,English,,4,2014-05-12,kalyan BSS,"",Kalyan,,
Terminal Emulator for Android,Google Play,jackpal.androidterm,Z3A6QU9xcFRPSGJvNUlyanZyUHdVd1RQRU9feUpVcm90ZnpBYll4aXRCaVpzUlV2SUFGQ1VoU2ZBYWRfeWRYZVU5Tnp1OTFaZThHdU12RmpiZUR4dG1GWGNz,English,,5,2014-05-12,Prince Cyril,Perfect,Best terminal app,,
Terminal Emulator for Android,Google Play,jackpal.androidterm,Z3A6QU9xcFRPSHpwNDBPVUNNT3JFbE4wQk1fSkFBN1dZby1Fa1dnV0NOaFZhVjVNazJDWTZPR09meEl2WGwtcFhMYTNSZXpuVWtibEJ6NXJWU3ViWDhEZTVv,English,,5,2014-05-11,Paddy MeBoy,The One,Haven't needed to try others.,,
Terminal Emulator for Android,Google Play,jackpal.androidterm,Z3A6QU9xcFRPRUxmVFpoRm54TjI3TnZLdXlPYnI0WjQ4UXJfb2xuelB5RVZtQWljRTRHeEl0Rmo2Zl9tMzZrcmJqdTQtUFZzRFdmQUtTdnJIcW1aMUpWWkpn,English,,5,2014-05-10,Thongam Deepak Singh,"",Simple and very good,,
Terminal Emulator for Android,Google Play,jackpal.androidterm,Z3A6QU9xcFRPRnZlUjZDQTJ3MVd0cnZ2QmU2RmV0eXYzT2VEQlIwMG82Vmd5MEhnTHZIeGVKSGp4YWJKLXBLM0tVemxib3dlZUdDclpJV3VjRFpncXdybU1N,English,,5,2014-05-10,Ayub Dahlan,"",Okey,,
Terminal Emulator for Android,Google Play,jackpal.androidterm,Z3A6QU9xcFRPSGVFZlFzRWcyV1huT0daX0dUd0pHYXNOWkozeU1KNUxSQjI2Ynp3dEEzZjNyRkx0dk84RzY0S0d2eTZLTnBLNkJzNnJVaXpnbXU1c1dPaXBn,English,,5,2014-05-10,Alexander Asomba,Makes me feel at home,Brings the Ubuntu experience to my phone. All I need for some GUI break.,,
Terminal Emulator for Android,Google Play,jackpal.androidterm,Z3A6QU9xcFRPRTZNTW1WN1NaZWlheko4R2lFdE1XSXAxRmdoQmh3ancwM3BaWmtzdzIyWmpoMEZPSVA4VlNnZnlXaVVIWTQyeHNocW5iVFMybV9aZF8tMF80,English,,5,2014-05-09,Bazli ismail,Nice,Thats facking great,,
Terminal Emulator for Android,Google Play,jackpal.androidterm,Z3A6QU9xcFRPRWQyTWg0RDNCcmQ3QUpDVTFlYmJheFNoakphbzFTTUl4WkR6cTByR2dIanFJN0FCdmZ6ZkVmN2VERWFXWGZIVGlPNDJBMlRPQWpIQ0NuSTdr,English,,5,2014-05-09,Jash Juthani,Very useful app,Good utility that helps any root user with busybox unleash the full potential of their device. Does the job perfectly.,,
Terminal Emulator for Android,Google Play,jackpal.androidterm,Z3A6QU9xcFRPSGdIcVdMcVc2MlhheGNUeFpncURLOXhEczF2cE1OZWxqRHVraWJ6bTBKMjR4S0F0YjE3NnNNWGZmUjk2ZlJtcENJOWcyMXU4NGFvNDMtbUsw,English,,5,2014-05-09,Emir Siregar,I used forever on old or new devices,"I love used this app, this is first application terminal on android and I used forever. Please dont discontinued to develop this app  *two thumbs up*",,
Terminal Emulator for Android,Google Play,jackpal.androidterm,Z3A6QU9xcFRPSFFLMUFBRWNqcE9EOGc5cW1vQ3lRc05iWVAya2ZTZWxXSXpJcTlaTGJvYUVSOFVyNFZES1kycGIxbmZTSjYza0hwUWxZdTM3WTQ4X3paaG80,English,,5,2014-05-07,habib tito,"",Great tools. I like this,,
Terminal Emulator for Android,Google Play,jackpal.androidterm,Z3A6QU9xcFRPRlFRaC1ubUlWQzFkT1B2MUkyMTNIT0NDR1REZ19nTnNMUVNGRnEzVWstdi1kaEQySDY0MDFtNmpkREVmblY0X0RQV2hYQXp3cVVodV9YbmNv,English,,5,2014-05-07,Tim Woodward,"",So handy and does exactly what you need. I just wish it had a separate row of unique buttons like JuiceSSH does.,,
Terminal Emulator for Android,Google Play,jackpal.androidterm,Z3A6QU9xcFRPR1d2a25BMnNXcnNsbXFkNkNWUjF3aVlSR2pjbUNXdlgyVlQ0WmJwdjRQOHU3cHlNa00zMklZLXpRRUdHWEJxRldWVndWYVBxYVU1dFhadzY0,English,,5,2014-05-07,Royce Ardery,"",Worked good,,
Terminal Emulator for Android,Google Play,jackpal.androidterm,Z3A6QU9xcFRPSHNabF9rMGZlTTRzUmFyUU5zNHJfN1VBdFgwamV6Z1dFQlZnUmRRb19oWFkzZXpSMjFOaC14NGlRQlRVWFVJbXhFeXVBX3A1dlhWcjEteFhr,English,,5,2014-05-07,UNKNOWN PERSON,Good for Root users,Accident accident...,,
Terminal Emulator for Android,Google Play,jackpal.androidterm,Z3A6QU9xcFRPRzNSdEI2bE1tSkZDVFJuUFdIRmdRSVFaSFhWWTVkYVBaVVRhSlVCbWJsQzhCVjlJeE5rZk1BTW01cENrT3R3M2ZpOFFEclNGRUYteHM3bkJN,English,,4,2014-05-06,Matthew Charvat,command broke my phone,i used reboot -n 10 now my phone doesnt turn on,,
Terminal Emulator for Android,Google Play,jackpal.androidterm,Z3A6QU9xcFRPRWcyVUJ0QzJxbWJ4b1BnU1l6SDZTNXBQbWJlY0xhUTBRLVQtVTJEUnZTNVdudUxobjREcnoyT2h5V3pVd05oMDZ6SkRBUXljOFRuSmYyMEM4,English,,5,2014-05-06,Balbir Singh,"",Awesome,,
Terminal Emulator for Android,Google Play,jackpal.androidterm,Z3A6QU9xcFRPR2VXVUVwUjhSV0o5dFl0M2lxZEFGRXluc05zQ0xyMEVNM28yMFZVU1R4c0dyVmtJLThKdlBYXzB3Y3NfbG50MU5Tem9waGR3ekt1cW1JT0Rz,English,,5,2014-05-03,Wendale Webb,"",&amp;lt;3 it,,
Terminal Emulator for Android,Google Play,jackpal.androidterm,Z3A6QU9xcFRPRkl0SDUtMjVhSm5GWnR0dDVLdVBJcnFTN0pHLVdkOEdZMV93a2o5ME1IY1gwTDFSX0JLSjk3UGNDVVdQZ2ZLS1hVbU9fUU81SFJZa2tWaG0w,English,,5,2014-05-02,futur yahya,"",Good,,
Terminal Emulator for Android,Google Play,jackpal.androidterm,Z3A6QU9xcFRPSEh6TEF6WkZtQ1B3VG5rZmdzMkJ6dTRzcmJzZUg3ODE3eFRObEhVWjFnLTJPNnZCSzJmQWpITjV3MTllakp2REZSclpoajB6TTVQeEYtcm9F,English,,5,2014-05-02,Tomás Cabral,"",Must have,,
Terminal Emulator for Android,Google Play,jackpal.androidterm,Z3A6QU9xcFRPRjY0cmFNQlY4OVpxcjlIZ0VRcmxmdFY2NnAxcG02RVRFdlZMZXlqVmRXNVBIRFJSZXc1eUlIQ3pQMDZvRGpMVXhHVkhhb0lkdjRRMWdQY0NV,English,,5,2014-05-02,Frank Schneider,"",Essential - what's a computer without CLI ?,,
Terminal Emulator for Android,Google Play,jackpal.androidterm,Z3A6QU9xcFRPRTA2cXhmaUU1akxDamVhWFBEc2JaYXQ0ZWdSb1VTMnF2b0tsWjJhUnVQOXN4dU5RU09tampiS3BfbmNwNEc4cVFKdFdvZTZrMXV6NkgteXZv,English,,5,2014-05-02,Demien Fyodorsson,"",Super,,
Terminal Emulator for Android,Google Play,jackpal.androidterm,Z3A6QU9xcFRPRmxOQkVuTVFOOW9RamZTTlZEWFdpUkNoMnlybFdDVXJVWHhubVFiSEVCMTBna0VaaUk5Tkt1bk1KWl9keW1RWms1N2Y5c3hiUTVsTFU3YTkw,English,,4,2014-05-01,Bram Harmsen,No nonsens terminal,Works appropriate. For the little terminal work I perform on my phone it gets the job done.,,
Terminal Emulator for Android,Google Play,jackpal.androidterm,Z3A6QU9xcFRPRURQS0pWR044dDF1NGtvd0lucl9LTExiaC1iOTRCQTY3WFM4aF9BcnBtbWJvZVNPeXlPY2hqeERQdTJUWlFkTl82QVYxdWVQSkNWWnAwalAw,English,,5,2014-05-01,Zain Adam,Great!!!!,Got this with CyanogenMod 11 and it's great!!!,,
Terminal Emulator for Android,Google Play,jackpal.androidterm,Z3A6QU9xcFRPRW94WjV4ZTVMc09iX3pScjNXU0ZMakk0UUw2VnV3dEZpS3luYnRlUUFqLWozYkpVU0JVQWNyT3RMTk02Q2dFSVdkUlJqWlRjZ1dSUkhfQU1j,English,,5,2014-05-01,Casey Ng,Great app,Simple and easy to use with no ads.,,
Terminal Emulator for Android,Google Play,jackpal.androidterm,Z3A6QU9xcFRPRjZQVHNhNmRiVmRyX0libFoxQ3p6bGc3blhlcVkyYjBJRjVNa3FFamxrdS1sUHMwRko3NDYxRTV1R2RYRWpUdkdrbUxXOEs0NXpZZmxnYy1n,English,,3,2014-04-29,Ikhwan Setiawan,Useful,Very useful when I used Ported Nokia N9 device with dual boot.,,
Terminal Emulator for Android,Google Play,jackpal.androidterm,Z3A6QU9xcFRPSE53R1l4RXNOOGlpM2JFYmY2LUxTOVRRSTlBZ3gwTFA5MUpHWkFHbTFwRERlUGVhYnZBVHJEbHNHZ0ZLWlBERUNkVlcxQmhoVE5mX1lRRU8w,English,,5,2014-04-29,Heru RadiTya,Great,Amazing ! !!,,
Terminal Emulator for Android,Google Play,jackpal.androidterm,Z3A6QU9xcFRPRXNUTlBzcFU0MzlCNThwYURlRlotNjBUQWo5RThFRGlRa2NfdEJDRUNHOTUySS11R1FjWTdmTkZOcmxqdmN5N3IxVldTMm5YX3dtY1JPMWNv,English,,5,2014-04-29,Eggi Okta Frima,Terminal Emulator,Still awesome,,
Terminal Emulator for Android,Google Play,jackpal.androidterm,Z3A6QU9xcFRPSE0xODdaYjZ2TzRpZHFaUmZ6RTZ4cFpRWkY1eTUyajAwZGRkZnZacWREaE9kdmR3YUZTVDV1cmFKRERzc2tsaUJHZVhLVDF4dEtvNlZHOWNB,English,,5,2014-04-29,Mahdi Hosseininia,Absolutely amazing,Awesome app. i feel like i am behind a linux machine.,,
Terminal Emulator for Android,Google Play,jackpal.androidterm,Z3A6QU9xcFRPR21KdUw4SUdnRUxEVmhrNHFxOEYxbktyWmZiSzBtRDdMM3JTOFNCUGJzZEhpX3VXOWRpRXQ4VzhkYTU1N3UtYWZWbWJRUDAxdTd1WDhiY0RB,English,,5,2014-04-28,Navaid Rahmani,Best Unix Emulator on the go,Simply the best and the cool part is that it is very light,,
Terminal Emulator for Android,Google Play,jackpal.androidterm,Z3A6QU9xcFRPR1pONkswS2dzdGdPbGFjUWUzaGtCVVh3em1zalNTUmJ0Nl9UOHY1SkU0V0ROdWpaanB6YlhocGU4OEFJTlBsTVlQdUJ1N0ljWjJRRXhXTHQw,English,,4,2014-04-26,pemula akbar,"",Like it,,
Terminal Emulator for Android,Google Play,jackpal.androidterm,Z3A6QU9xcFRPSGltbTN0LXlFM3huWGFkdmNLRVFkY2pDREhZV1hwMVR2a0V3SE9pVEYxQnZGbFE2YWVuSEJFaS1fcjFxbjNqQTRwZlo1cDd2Zl9mdzhiMlZV,English,,5,2014-04-26,SHM,Great app,"On 4.1.2 with Sense 4+ I could easily copy and paste with use of this app, but on 4.2.2 with Sense 5 that goes right out the window and thus I have to type everything manually like mkbootimg commands for example, and that is really annoying. Anyways, just wanted to bring this to your attention.",,
Terminal Emulator for Android,Google Play,jackpal.androidterm,Z3A6QU9xcFRPRnotbTV1b3RsbUFYelpud1NHaDNSaThGQmJMVmN2SnVlRXloWGJtc0Q3M3pNZ0tIWFRXQVByNG5xSGx1bEJGaG01cUgtVkJBQ0piSExtaURr,English,,5,2014-04-26,Simone Rolando,The best,The best app since Android was born,,
Terminal Emulator for Android,Google Play,jackpal.androidterm,Z3A6QU9xcFRPRVVTOW81SWpXWEtmTU5WdWxLWWhfelRnRnZLV2RvOTIyc2VpbDdsWGNZSFVSMDR4cThyWFllZHVGTWpDMWw1bFdFckV4eUxkZ0hZWW1EaDVn,English,,5,2014-04-24,Nicholas Berlingieri,"",Perfect,,
Terminal Emulator for Android,Google Play,jackpal.androidterm,Z3A6QU9xcFRPRnJXMHpDSkZYRy0wUENaTEZEMWExWDZFOE5hSTBmTkc2SkNfMkh0X1ByZzNxVkRXcEF5cy05eGJIa3FzaVhhSFQ4ZDhDakxUeDlmLVEyeFlj,English,,5,2014-04-24,Pdin Kzeviand,Awesome,Cool app,,
Terminal Emulator for Android,Google Play,jackpal.androidterm,Z3A6QU9xcFRPRnpEMTZuRWpJLVlYSjk5RWxOdndzZFlZRkhDR3NsTGtLd2RQNUZDQ2hRZy1jZkRxTFlDeEpaOWtta1U2RVZxQ2tzTG9EZ3ZxY1FfN2lHaDhr,English,,5,2014-04-24,We Share,command,Ok,,
Terminal Emulator for Android,Google Play,jackpal.androidterm,Z3A6QU9xcFRPSEgzUnQ1a3d6RjF5TnBYT3dvTXUxaXpiQjBMQzQwazJhNnE3VjZXSnlEY0NUcmFHNGFuY2N6c0dNb0Z6UDEwcTRWM19zNU1NdFphbTQ4bV8w,English,,5,2014-04-23,Jason Farmer,"",Works like it should and it's free,,
Terminal Emulator for Android,Google Play,jackpal.androidterm,bGc6QU9xcFRPR1NtSG85cmwydVFlZmF0Z19DNWozUUNmQVR4RllzQ0ZUVkl2My1EbEN2c0NSc2dFT1lzTkNIRjUzejFSdXZ3SkZCaG9kN0tqaDBnbC1xS2Fv,English,,5,2014-04-23,A Google User,Udit Gupta,"Nice app,so good and working best",,
Terminal Emulator for Android,Google Play,jackpal.androidterm,Z3A6QU9xcFRPRjBFR0kxV1k3X0VhQTBtZ1hicHVuZkFwM0wwRldnWkFxeDQtTkZGd0ZkNTRRbGxtTEFoZnpvUERZUzZ2ZG84X1FXSGZvd2pwRFBSRWRsZkFB,English,,4,2014-04-22,Nutan Vishwakarma,"",It gives what it declares,,
Terminal Emulator for Android,Google Play,jackpal.androidterm,Z3A6QU9xcFRPRVhsM09iaVpFM1I4SWh3Q2NScWE1RTJHdjB3S2QweUJQNDVVT19Td3doenQydUNkNU9STWw5eHdPQkNjbUpJeVoxbTRJN3FLZ0VkdnpGR2tv,English,,5,2014-04-21,jack february,"","Bekerja dengan baik, thanks for app..",,
Terminal Emulator for Android,Google Play,jackpal.androidterm,Z3A6QU9xcFRPSEN1eWNqLW44bG95dVgwNFdRbm5tSDFMemJ2WUY4QW1xUklOWlV5QjdyWk1pREhyRWlGUkozRWxubXp0bmxZSUstQXdhRTZ1RnZzYnpTbHUw,English,,5,2014-04-20,Daniel Yao,"",Cool,,
Terminal Emulator for Android,Google Play,jackpal.androidterm,bGc6QU9xcFRPRVJQMlVhVTdFaTJ0XzVudGVoMW1zVWljTEVYNTdqajlWbml3UW9DNmRoVDRSMjRCODZpN2RWUW5ZNmkzdmRrSHY2Wml3WW1Ub3p4ek9SWTZn,English,,5,2014-04-19,A Google User,"",Excellent,,
Terminal Emulator for Android,Google Play,jackpal.androidterm,Z3A6QU9xcFRPR0dsN2xyY25NNlgtU2FWTG1tbHR3RjNMc3ZodEtpQXJUY2hGX0hKNVExdUV1eTFCVnh2MVNQeFRsdF9vdEMwWFFrV3V3UDFpUjhxTmJVR1g4,English,,5,2014-04-18,Alexander Yesipov,"",just works,,
Terminal Emulator for Android,Google Play,jackpal.androidterm,Z3A6QU9xcFRPRlJOdnVKTDkxbUxFc1dtNlcyV3MtQnQ2aUVZSDRkWmtpNDV3MXhkVzY0QjVqaGZwNmVyZ1BmcUJmX2o1X2JURVRPbHdfc0FYWXc5NDJ5bVBn,English,,5,2014-04-17,Cody H,Works good,"I would really enjoy a easy access previous cmd shortcut!! like vol up, or a swiping motion of some sort. To a lesser extant,  but still needed=a tab for saved bash commands. where you could set a command once, and one click to copy it to the active terminal. otherwise functionally is top notch, and in some cases is the only solution in the playstore. these few additions would make life much,much simpler for me, and a whole bunch of everyday users! please consider.",,
Terminal Emulator for Android,Google Play,jackpal.androidterm,Z3A6QU9xcFRPSGZ1bDBuN3lXeFdkdzZKQmZhaTlnTUlDSFdUb2ZBbGU2UzVOaVFpc2thcDkyTk55NVpGRjhneXFSclRsT0trNndwTHBBNDBaVE9fMVNhcWtZ,English,,5,2014-04-17,Sumanth kanakamedala,Awesome,usefull app,,
Terminal Emulator for Android,Google Play,jackpal.androidterm,bGc6QU9xcFRPRjFYQlN1ZmdQX0UxV0JGaW4xa1hfNGFXRXYxclhNQUp0RjdYVmpVQllMUlRIWVpMenduZTZ2TWIwYktsRXk2cUhrUk1RTC1fVVNxUmR5cHlv,English,,5,2014-04-17,A Google User,verry good,nicely,,
Terminal Emulator for Android,Google Play,jackpal.androidterm,Z3A6QU9xcFRPR20zS3J2V0txWEVnaUhneERmQXBkQ0tLbURFTEZsUGtubUpUSW1neHdRZGM2NmV1TzBvOHlOM2t4T1dqQUdyNDdqeldNM0xZOE8zalVmWkhR,English,,5,2014-04-17,Alex Balex,Brilliant Termianal,Simple easy use terminal .,,
Terminal Emulator for Android,Google Play,jackpal.androidterm,Z3A6QU9xcFRPRjFBT09pakxfQnRWeV9HbmtKSjgtZ2ZtVUV3NWdjY29HVWowbXVDbXlzcmdPWURydlI3cnJkSldjb0JzS3drcTQxNFNnTWJPRGh1MUtKTWJB,English,,5,2014-04-16,Amy Rodriguez,"",:),,
Terminal Emulator for Android,Google Play,jackpal.androidterm,Z3A6QU9xcFRPSGo4dG4ySGgyaVhXeGk0UEJ1QVQ0bmdIZ1VkZ1NwLTA3aGE3R1Fnc2NsdHhNNDFxZi13YnllWlhhd2F5VUNqVTRJdmY4bDBybEM1aE5HdUtJ,English,,5,2014-04-16,mike Lazembie,Couldn't be better as far as I'm concerned,Awesome app,,
Terminal Emulator for Android,Google Play,jackpal.androidterm,Z3A6QU9xcFRPRXRodWNCUVZ3WHBnbnZaa05acGN3cU9DeG9rZFM3TGdONzFFSnBSY25NZ25sVWlXczYxUDFrenVMdGI1NU4weUVCdmxCM293TExqQmVhMkY0,English,,5,2014-04-16,Serg Baida,May be usefull,Sometimes,,
Terminal Emulator for Android,Google Play,jackpal.androidterm,Z3A6QU9xcFRPRXpXR3pFSnp0NC1IX2hMb3hrZGw5blB3VGFEMUY4bzhfRkh4cC1HekEwZ2dWSURTZTVKZkRNeUdxbkFQbnRBaE5PbWc5SEZZV1hveUhQSW1J,English,,5,2014-04-15,João Luís Pena,"","Good, recommended",,
Terminal Emulator for Android,Google Play,jackpal.androidterm,Z3A6QU9xcFRPRXI4VXEyenc0M0J4d09Bd1NCUDBfcnVWc09faFphb1lzVWZYNmN3SjJrZWtwLWphWDhTTm5Qc0FsektKY2xDUWNNZ29ZZ2NxaTZ3QnVQRXFn,English,,4,2014-04-15,Bent Bishop,"",Yup.,,
Terminal Emulator for Android,Google Play,jackpal.androidterm,Z3A6QU9xcFRPSGRKR0NMSFdWcGxvOTZ1SUMydlFMcWV6cWl3M1FSbjFJb29aejdvV2pKWThERmhPRm1JWEtTaGhSMkZsVzZjQWpHWmFzWERkQzRTYTFObkww,English,,5,2014-04-15,Prahara Widyasmoro,Great,"",,
Terminal Emulator for Android,Google Play,jackpal.androidterm,Z3A6QU9xcFRPRnBWcThKczlKR0JQVnhhLVlVRV81ZGt3aEtqSVAxdmtkMmhiNVZlSEVCTnNTa1dCNEhQRDVIUXpaN0ozdEZPbmtfU0tuSW1Wa2hWQ3RDSDRn,English,,5,2014-04-14,avan abaszadah,"",Good,,
Terminal Emulator for Android,Google Play,jackpal.androidterm,Z3A6QU9xcFRPRUNqeFFaY2JjNy1TRF9rZjh4N2FsLXNLejV2bXJjRlVkWm5LU0d1ZHF4YlphTkxpTzVENUFURjYwc3hkb0oxU0FrNFJCVEpnTVg5bHcyeG1Z,English,,5,2014-04-14,kirill kulakov,It shouldn't be called emulator.,"I executed ""sudo rm *"" on my friend's phone just to see if it is some sort of a game. It was hilarious, but he had to reflash.",,
Terminal Emulator for Android,Google Play,jackpal.androidterm,Z3A6QU9xcFRPRTFrWUJrSFFheFVIOTFScVdvTVItaWlLSXlMNzliTWtGUEgzTG9ZS2k2TEh3SDVmOFNjV2FDUV92bU81SmhMb1pvcFJhWEF4LVh4ZGx4VC1R,English,,1,2014-04-14,Afonso Duarte,"",Does not work (nexus 7 2013),,
Terminal Emulator for Android,Google Play,jackpal.androidterm,bGc6QU9xcFRPR1pkVWMyVWpLTXhqUWt4WGQyNUU2b0VXNWt5ZF9mMl9DaHRleTljNXpvYzdYVXNNREJtb0xoSzVUY0NERnFKT200eTVvcGI1MVZPYS1EaDRF,English,,4,2014-04-14,A Google User,Its good for swap activate in iris 402,"",,
Terminal Emulator for Android,Google Play,jackpal.androidterm,bGc6QU9xcFRPR25pT3pWLWNzMzdxYmotb0VvbjRGVk05SmVoRWc3LTFMa21LelZJZGEwQkdMTHMzdmlHUXJoS0JLRlBPU3VEdlR2WlhTMjFhR1lOMjN5VERr,English,,1,2014-04-13,A Google User,"",Please sign your package correctly,,
Terminal Emulator for Android,Google Play,jackpal.androidterm,Z3A6QU9xcFRPRjRWYjlSQ3o3M2RCWEdqLTJicldTcXBWcm1GZzR2emU1OFBQQnhXYjdKT0Z2bDh0VE80WUxfRnhETFJDZ1Y2NERmRUg5aUNkYXJJbm4yemc0,English,,1,2014-04-13,Eddie Sykes,What is it for ?,I do not understand it after I have downloaded it.,,
Terminal Emulator for Android,Google Play,jackpal.androidterm,Z3A6QU9xcFRPR2RVOExGV1luTXJSaXA1VkY4RFVsV2pUODlBSVBPa1ZDRGZvXzFjQW9KdUZVelNMQjRrYWwtVDNTbXhHLUg0MFdEd01nS205X20wUWUzdWw0,English,,5,2014-04-13,pico hackr,Best app,"This is really a best app for root users , have been using it for years",,
Terminal Emulator for Android,Google Play,jackpal.androidterm,Z3A6QU9xcFRPR0hnX0psM0RiMVhLNWZPcWRFZHRIYnBQSFlVUWMxY254ZUFhcm44TVI2VWwycVQ3UHd0b2pqV0RocHFFUDVjTTBlWGtObk1qd3g5UThUUk5J,English,,5,2014-04-13,arlen pugh,"",Great,,
Terminal Emulator for Android,Google Play,jackpal.androidterm,Z3A6QU9xcFRPSEFIaVNHNWNjVElVRDNZbmZHakdYUGZzdHBrZ2lpTHNHNGY0R0l4ZFJ5VmxGdUs3TkhnaWxJc29tanIxQ3ZTN2VhTGU4UTFMTmpPSlBMWmtn,English,,5,2014-04-12,Roi'ikka Ta,so cool,works well for using with ubuntu installation images. thanks!,,
Terminal Emulator for Android,Google Play,jackpal.androidterm,Z3A6QU9xcFRPSDdaWFlzakV0eHJuU2VxOTQtZE1yUWd0X2lEWUdjcHJHd1JxaFVBbV9peHRqWHUtUVhTVlNrLTBtYzBndmlPa2U0ZV90aUFkaUxIdFFKTmJR,English,,5,2014-04-12,Krisnadi Bima,Really helpful,"This handy app help me to tweak my phone, like editing phone properties by using getprop command and setprop command. The available command is depend on your phone.",,
Terminal Emulator for Android,Google Play,jackpal.androidterm,Z3A6QU9xcFRPR0hjZXJCQWctN204Q2FHak90amg5c2gwNUpyMDNpNHJWUFgtc0Q5WUJ6am8yb0RzU2xaNkRrSHZkd1dPblZBWEpPMHJGQm0wV1FrSFVDNHRJ,English,,3,2014-04-12,saroj Chhetri,"",Just installing,,
Terminal Emulator for Android,Google Play,jackpal.androidterm,Z3A6QU9xcFRPR1RKYWthVzFpM0hGVjZTRFZEZnJNZ1NoYVdTQ1NVTEFRMDVpUU9uVTZvajBVdnBBenQ0RGp6dXFfZmppam1FQ0lYYzBGMUtyYlBHQjRWc3k0,English,,5,2014-04-12,hamkka harriz,Awesome!,Juz simple UI but big performance...,,
Terminal Emulator for Android,Google Play,jackpal.androidterm,Z3A6QU9xcFRPR2pFeFBTTHMtM2c2MFdKWm1KRFJYSFNOdGZOY0FfV1ZBY0Y5VkhMXzZYSjQ4R3VoZVU0Y2wyUXdRN2NIbG5TTDUwQTAzR1BIRlhsMllXMEZJ,English,,5,2014-04-12,eniram nocer,"",Never leave home without it!,,
Terminal Emulator for Android,Google Play,jackpal.androidterm,Z3A6QU9xcFRPSEtjYUtGWk5HN3NOS1hHWk5mUjE3ekVGQXoyRDlISG5KR1F3S01xTUxUZ3RHMTZ5U2hFRVdpYXN6SzQ2SkZnYkJseDFkajRocExxLWhENllR,English,,5,2014-04-12,anand sri,Amazing,Turned a smartphone into a computer,,
Terminal Emulator for Android,Google Play,jackpal.androidterm,Z3A6QU9xcFRPRjU5SEdfNFRLRHhlTTRVU0xaMW82QS1PWnJ0OUxGUWx5NXRSZk9IcnJjWWFObTFWVXh4dWhObjloOVdvUkI4LUhES2FxNzYwOUEtbzlBazlv,English,,5,2014-04-11,Given Lapore,"",Simply the best,,
Terminal Emulator for Android,Google Play,jackpal.androidterm,Z3A6QU9xcFRPRjgzUV95Q29HLXNZdmlrZzlPOHFORnRRWHd1ZDByZG91bmRSeVRFMmFzNnJ0dW1MYnMtc3plVVhEZkFaSllGdU1mZ2hDMS00NlZtZWxGWTNV,English,,5,2014-04-11,Octovian Mado,Amazing,Like cmd on windows,,
Terminal Emulator for Android,Google Play,jackpal.androidterm,Z3A6QU9xcFRPR3h3S2twa09ubmMyZF9DZjFRTVJvd19YOTRnOHBWeVNwQ1d0VENhUnpLT21UM1pUN1Qzc1pmQlQ5SDlBczBOdU9lTHRSMXFRcDZIVFR3bmtr,English,,3,2014-04-10,Aaron R,"","Works pretty well, text size issues though",,
Terminal Emulator for Android,Google Play,jackpal.androidterm,Z3A6QU9xcFRPR21veDNhdUo1T0NqUlI2WklRRWdEQlJORGROUEZ1N3JQbzAzWF9WQlNyUGRhNE8xaU9mTXBPWXh4SHg1T095bmhBT3RjdXNReFpjM09pa1FZ,English,,5,2014-04-10,Yuval Grimblat,"",Good utility for backing up NVRAM,,
Terminal Emulator for Android,Google Play,jackpal.androidterm,Z3A6QU9xcFRPRTlvVkdaVnRBR2I0UWt1TF9RMzFNS1hNaU5hVktmSE9ibmhSYUdWaXJkUDR5Z2xuV3J5WXluYzRHZWpmTHRsRThsVEtFS08xNXJoa3drZ2ww,English,,5,2014-04-10,Ajay Venkataraman,Brilliant app for development!,It's a great job by the developer. I can run almost any of my commands here in the terminal.,,
Terminal Emulator for Android,Google Play,jackpal.androidterm,Z3A6QU9xcFRPRlJWejV6cGNfV0JXSEN5bEJfUndDZ1BqVndJbWlxNWJZQW03akNBTVVoczFQMk5BaVN5eUdXSUhLVnBUejk1WTZOb2toY09Fd093T0FNa2hz,English,,4,2014-04-09,Kristopher Noronha,does the job,"does the job well, could do better with remappable shortcut keys and on screen buttons for some of them",,
Terminal Emulator for Android,Google Play,jackpal.androidterm,Z3A6QU9xcFRPSGxzUEJRZTlMaDhtUEMxUXoxeFJLaHBIUGZCWHBuVDRJZGY2OC1US0hLZzlCb2Zfek1WcmptdzY3UklTd2FiaE1WM0lqcXpuYTZjbHYzS25z,English,,5,2014-04-07,Myzel Robin,"",Very helpful!,,
Terminal Emulator for Android,Google Play,jackpal.androidterm,Z3A6QU9xcFRPSFFheUJ2UzJ2d2pRV1JvYUE2ZlY2WENON3JtNVc5dDNtQVRLMmFYakNxSzhBYnE3S1NfYlIyQ2VfOFVHOXlUb1JUdGd1R2dhZDMxdW9mM2Q0,English,,5,2014-04-07,GR Sethu,"",Excellent,,
Terminal Emulator for Android,Google Play,jackpal.androidterm,Z3A6QU9xcFRPRWpmcHRtWElYbDFLVVU2c1NfRFlrZ3JJUDc1Smh1SDJnUFdMbGx6NTBhVmlpWkdhN1JSeUhJenZiTFk4VjFWX3hfUGJYR3dYZzFxanlmeU1B,English,,1,2014-04-07,jignesh tailor,"",Not work in my Samsung galaxy note2. .. error is unfortunately stopped,,
Terminal Emulator for Android,Google Play,jackpal.androidterm,Z3A6QU9xcFRPSDlUS0loekxuaU1XSVJIcGNKcHItX2luZ1pRZldmNmItUElKRGN0NEREcGVna1psOWtGb0NmSWdwN252MmNJUG5tYU1MMXNEM3ZZclN0R25V,English,,5,2014-04-06,Fil Samsung,Nice app,Everything you need from an emulator.,,
Terminal Emulator for Android,Google Play,jackpal.androidterm,Z3A6QU9xcFRPSFV0M2ZjUXpQd043anZWRF9ybGJ0dFY4NFNUUmZtMnhfeEZqUDlkUEZaV0VLbG5nNzBsQ3Fyd0h0cURiZjJKSFd2c3d1dzlBbFp1eDRHc3lz,English,,5,2014-04-05,Anuj Diwan,Great,Works wonderfully.,,
Terminal Emulator for Android,Google Play,jackpal.androidterm,Z3A6QU9xcFRPRTFDSmpGZ3RaUmhtWTZVQS11MFg3bC1nbHNvaU54UDBPaWtxX0d3S0I3cDFGWE5keERrcUJ4X3ZxNkdXOXNpRWY4c1RCdHFXUUFBTU8yVUMw,English,,5,2014-04-05,Grayson Maximillian Phoenix,Works as said,"Of course it works like any pc emulator, but kind of dislike it coming preinstalled in Cyanogenmod. It's just a nuisance",,
Terminal Emulator for Android,Google Play,jackpal.androidterm,Z3A6QU9xcFRPSERsZGEteHFnWTVXSGpkVUM4THRHOEpoTVNwLV80OEtCN1JTdmRtMVpFQldWU3NPNTdIRTByM3MwYXJ5S3ZXN3I3d3VxTmVWVENYdE85MkRn,English,,5,2014-04-04,"",The best,"What else to say, just the best among so much concurrents :)",,
Terminal Emulator for Android,Google Play,jackpal.androidterm,Z3A6QU9xcFRPRklWYkxrUU40SEtSaEhDRktMMGpibUZoZ01uUFFKTl9IZWVDakl2aGtIOWpCS2UxdUN5ZExYTk9hYXZLaDF1TVB0YS1ZVlNKR2NmcXZrSm1J,English,,4,2014-04-04,Anurag Tripathy,Good application,Probably the most solid one..! But the UI could have been something more attractive than just black..!,,
Terminal Emulator for Android,Google Play,jackpal.androidterm,Z3A6QU9xcFRPRkFtRnpMbHlYaThFUFdfbjdhQ05WR3ppMjE2Zl8zd2M3UHhDMDF2QU5lZVFmcDVacWd3ZExLM0pyUnByN2sybkRjSFVTMWpNb29Pb1hpYmxR,English,,5,2014-04-04,dimas prasetyo,aplikasi,excellent,,
Terminal Emulator for Android,Google Play,jackpal.androidterm,Z3A6QU9xcFRPRmxBbHBodnJrQVVSLUY4aURIMVZITmZKdFZ1eDZlVVI1aXo0UjhqdUF2QTRUcGpVcTFCbnJrWUhrNmh2RXJ1d3poMVFaVV82cTVhQndtTnU0,English,,5,2014-04-03,Adam E,Hackers Keyboard user,(read it all!) Haven't tested this version yet (could still work flawlessly) but past versions definitately work well with Hackers Keyboard. That should be the go-to keyboard for this and Connectbot (or whatever that SSH client is called).  *Samsung Galaxy S3,,
Terminal Emulator for Android,Google Play,jackpal.androidterm,Z3A6QU9xcFRPRlZkTW9BUFJYR1dScG1tVUpzWWZLZnU4OTZiMDJHb3g0VG5BazRFN2R0MFJ1b1F0eWcwd19VMEtoVV9BMkJBeVV4NVc1U21uV3pnUFhNX0xR,English,,5,2014-04-03,Haven Shi,good,"",,
Terminal Emulator for Android,Google Play,jackpal.androidterm,bGc6QU9xcFRPRS1WVU84UHJuVFhueXdCQmVEcDk0eWM2MVRrNW45Nzl4Ui10SEpRTVh5em1Mb1JwUGhxQ0xVNXZRMm9oS3I0UFVUeHJ0UG9LSE84MTI4ZFpZ,English,,5,2014-04-02,A Google User,Y,Good,,
Terminal Emulator for Android,Google Play,jackpal.androidterm,Z3A6QU9xcFRPRXFKcVVsWHVHSlVjQm1NSkwycHN3V0dNZ1NsRFBoSHRjX0h3SmRvalRiZkxKOU9sS0FIcEd6U3hKVmRKcENUUGJSU0lyZE9XR2I5RTdFaDBB,English,,5,2014-04-02,Nok Nova,Good app,Very good,,
Terminal Emulator for Android,Google Play,jackpal.androidterm,Z3A6QU9xcFRPRXFKa0tVSmhWb2xWMU1XQ1VGRjZISHVuM080czh5Q0diOFZiOFhucTNJSmxWRnVMQ2tYRWx6cFpEOHBROFRpYllIamcxQktEdUlrTjVBU1FV,English,,1,2014-04-01,Steve Marsh,Impossible to type,Keeps hightlighting commands and then deletes them if you dont keep putting spaces.,,
Terminal Emulator for Android,Google Play,jackpal.androidterm,bGc6QU9xcFRPRURlYTU1TmZzcVdSbVcyb2RRckUybU81Slk1WWhwSldFR2tmdFkyQ3ZFYU1HRXNCZ1hjZzMxd2hnejRDSTg2V2R0Z2N4VHpwaDgxY0x6dlFF,English,,5,2014-04-01,A Google User,"The best, and still free.",It's worth paying for!,,
Terminal Emulator for Android,Google Play,jackpal.androidterm,Z3A6QU9xcFRPRWE3ckFxUkZFZDl5dnlVYmI3SHhrT3NsNlB6endBYzExT3NjR2g3WkdJOXkyaThYUmNUZVdrY3pZTHNvTk16eno0VWNxWWFFWDRFWThNeDE4,English,,5,2014-04-01,Alan hat,use all the time,"HTC Wildfire S  (app v1.0.59) &amp; Star N9599T (app v1.0.59)  Recommended to me by XDA-Developers.  Simple, lightweight, functional terminal emulator. What more could you want apart from a real one? one of the very few apps that's never crashed or caused a crash",,
Terminal Emulator for Android,Google Play,jackpal.androidterm,Z3A6QU9xcFRPRzhTMG53OXV5NzBRaEw2MUJ5cVNHbXRZTXdrYUxGTU1XVHNaRnU0NXpOT0pRcDBKRkpuQnl0VFhVV0kwZXBrOFNaNVVSRVJ4NUl5UldValhr,English,,5,2014-04-01,Szymon Libudzki,Does everything it's supposed to,"Does everything that it's supposed to as it should, and does it well.",,
Terminal Emulator for Android,Google Play,jackpal.androidterm,Z3A6QU9xcFRPRzltRmtTczFhaUcybGdFTW51TWE1SWlYRXc1dlIwVlJMN3g5QUF4UVlGdW9tN2pBRThEeTlyQy1VYnUyS3RBMU5vZ3lNYWJ3TFMwRnZYRmI4,English,,5,2014-04-01,"",Great App.,"It works, what else is there to say?",,
Terminal Emulator for Android,Google Play,jackpal.androidterm,Z3A6QU9xcFRPRW1yNzhuZUdPdkJ2RWprSjhlSjZBVGJsMXhOcVlyaFdjN2hKXy1CVS1wQ3JkUVRKd19haXF4ZWNlUDZSeDNveWhSVExEUzlOc1JfTjBNTFcw,English,,4,2014-04-01,troy cagle,Command line junky,If I do not have a terminal I can't see what is going on and I cannot do anything about it.  I love my terminal.,,
Terminal Emulator for Android,Google Play,jackpal.androidterm,Z3A6QU9xcFRPRUdlYmpwVkNiZU11My00UUE3OVl0US1wZ1ZnWjRIQjBuZFJuMFFEZUNGN1k4MnlHNVAwZnQwb0tmV0hRRjhkc0lvX0o4VjhZeDNIZGpQanJ3,English,,5,2014-04-01,Sándor Pálvölgyi,It works again.,"Last update did not work, always freezed. I am happy it wors again. Thanks.",,
Terminal Emulator for Android,Google Play,jackpal.androidterm,Z3A6QU9xcFRPR3VLOVNlZjJnRVA5MEpMSjFNZm1qeTZ2bXlCNm1IM3BSNzBSYVZzWEQ2R1NzQmswSmoyZ0ZKUTVNUW9BaHNsMjVTUzc3SEJpZFhKSEV1d2g0,English,,5,2014-03-31,Omkar Mirkar,Best Emulator,This is best emulator I have used. Uses less memory on RAM &amp; yet get the job done. Also handles the hackers keyboard very well. Keep it up. Thank you developer(s).,,
Terminal Emulator for Android,Google Play,jackpal.androidterm,Z3A6QU9xcFRPSHBOYWdxRDlNZDNiRGgxdlFHd2pqOERfNFVHdmFRU1pjVmdLcEtXWmw1cmVVU0FQS0NkZ19ETlJGZldTcTZaWW0ya3VCLWtmd3NnWWsxODY0,English,,5,2014-03-31,Logan Mattson,Works great,I didn't even know what this was until I got it when I rooted and installed CyanogenMod version 10 for my rooted nook.,,
Terminal Emulator for Android,Google Play,jackpal.androidterm,bGc6QU9xcFRPRmlSTFBwNzBUd2JmTnJpQVFrOWFoeHJQTmgyWXJxVzdjSFQwVzkyRTFaR1Z6TWQ3eTN0V09raU5aNjgxc3k2dTNqLUVRZ3FybjRfSkU2WG1F,English,,5,2014-03-31,A Google User,"",A must have app for every advanced user.,,
Terminal Emulator for Android,Google Play,jackpal.androidterm,Z3A6QU9xcFRPRzVIeDFZNWt3Q1I0WGRjcC11NVJIUVZVMHNsZkxzZTdFY0lQSmRDWWxzTGROVXhkQ0JBaFZmY1NqZFpQTTJodW9kZ2xSTTlXQUhZLXVpanpB,English,,5,2014-03-31,Alejandro Gómez,"",Handy,,
Terminal Emulator for Android,Google Play,jackpal.androidterm,Z3A6QU9xcFRPRlcyX3o1Rm1nWUZWTWQ2enN3eThYbHpidEk3R29RVmpvcGVieHNzYVJHVlpxamd0UHk3c0FiNFp4WjBxNkt4VmpCT0djNXAzWGU1RkJyUGFF,English,,5,2014-03-31,Daniel Nastase,"Useful, robust","I've used this app since forever. I work mostly in command line/text mode and that would be hard without a terminal. This app has most of what I need in a terminal, is very robust and has an unbeatable price ;). Kudos to the developer!",,
Terminal Emulator for Android,Google Play,jackpal.androidterm,Z3A6QU9xcFRPRlQ3SjMtMmJoTHo0RXZIT3Z0Zm52cGtDNkxWU0VSb3VOWWl6ZHM3WTNMVkE3NURHTWVLblk3ZG13SGZ3Z3l1SFdGME9Ma0ptTmJhZDNvbnhN,English,,4,2014-03-30,Dante Hunter,If ...,If it can only store few commands instead of writing them every time ... 😕,,
Terminal Emulator for Android,Google Play,jackpal.androidterm,Z3A6QU9xcFRPRVVZMmFRc3pURnlIa0ZBTkxSTDh2YTVaMWgzZWxQWDJ2VTl0NU5HVnlJNVlOUnNFeWpUaUpJR3JCVTNoYkdybFhKSHpkdTNMZzVVcDJCUTJr,English,,4,2014-03-30,windhu locusz,Good,This app always helpfully,,
Terminal Emulator for Android,Google Play,jackpal.androidterm,Z3A6QU9xcFRPRlhfaWVRLXhXT0lNMndrMVZMbVVoZ0puVnBOb0dBVHZCLWNjTTZvc0gyY2tDNGMxZnlfQ2g3ZXdYQ3dxQ3BhbjJKeTR0dGJWb0JNUlc3N0hV,English,,5,2014-03-30,Robert Krawitz,It is what it is,"It does what it's supposed to with no drama. Indulge your inner geeque.  Use with hacker's keyboard.  If you know what it is, you probably need it. If you don't, you don't.",,
Terminal Emulator for Android,Google Play,jackpal.androidterm,Z3A6QU9xcFRPSFRhZldZcWswSTdCR0NCNmx2SjU3QlZjSldjQjNBcTZWOE9IY1U3Z2J0eUUtTml4ZTJheFBHdzJlb3BBT013SS10NFVOMnp3Rlp1YV9DS2Rv,English,,5,2014-03-30,Blake Schulz,Samsung Galaxy s4,Works perfect,,
Terminal Emulator for Android,Google Play,jackpal.androidterm,Z3A6QU9xcFRPRUNzVXQ1N1JCUjNPSTNnY2FfRkhrek9QRTJCOVl5RHlSYUt0Zm9VQzRVYk5fNWFWTzdjTFcwRGZINjVxUzZiQjFJQjd3NTktZ2d2RXBFcHNN,English,,5,2014-03-30,"",Very useful,"Great for logcat on cm11 nightlies, very easy to use too",,
Terminal Emulator for Android,Google Play,jackpal.androidterm,bGc6QU9xcFRPSFozTDVpbUhmR1dRSTFmUDA2WVhWT2c3TTU4UGY0c0ZJV2VqRGMxT1N0TW5zbnhBbTlVM2xBeFB3amZXaDd0czR1VG1GUVRQODdJLUM0c1RZ,English,,5,2014-03-30,A Google User,Excellent,A must have app for any Android user!,,
Terminal Emulator for Android,Google Play,jackpal.androidterm,Z3A6QU9xcFRPRlQ1dzZfSWNXUTNPdlhOV21lZFAyTFB4Yi1wNzNtWm5tWVZ3SzFOVFZFXzVWenFESVZqQ1psZWY5UmxGWVhOd1BwaFdSb3p3QmJJYjRMbWhN,English,,5,2014-03-30,Benjamin Ellenberger,Excellent application for your inner geek,"I can do a lot of things I can do from my linux console. Ssh to my server, file information and root access etc. works flawlessly.",,
Terminal Emulator for Android,Google Play,jackpal.androidterm,bGc6QU9xcFRPSEoydUdrVl80bV9wNEpsUW93RkVhYTRxMTRlU1R3NDNkZC1jcXRDNTFMdXlXRW5jbnJ6QmIyVkxiSndNNUVvV3h4WXZHdlV3dTlTWFJwOXRJ,English,,5,2014-03-30,A Google User,Thanks,"Easy to use, very useful, appreciate that you keep it updated on a regular basis.",,
Terminal Emulator for Android,Google Play,jackpal.androidterm,Z3A6QU9xcFRPRzF5WG52MU1KOGtsMTBkem52SnZrLXdJLTl0ei1NVzVzSWZ0S3Q4OVB3WVVvcVZhMEJGT3N4LUg5dGdHM29EV0ZUZDZaakdBVjduX2xVWGQ0,English,,5,2014-03-30,Pavel Radchenko,"",Great app,,
Terminal Emulator for Android,Google Play,jackpal.androidterm,Z3A6QU9xcFRPRVRFTkgtTTJjOWRTTEwxMnFjLWd5UFY0bEM0YkctRmpMV0dqT19TbzFUQ1JQRXNCelFqaUhHeUZ6Um4wSjNUenRLbXRVQ0xLQ1pXQnF1Q2Uw,English,,5,2014-03-30,Sankar Rama Pandian,Best emulator,It is the best terminal emulator ever used,,
Terminal Emulator for Android,Google Play,jackpal.androidterm,Z3A6QU9xcFRPRmc0cE5KVWJ2R0RSNUFSUnF0end2TjFPem9YSENuWXVGX1dJX0lxWG9ZMWdselJWdHd5dVFxdGlxancwX2QzZHUya09fRk9GeHo0N0libElz,English,,5,2014-03-30,Allen Robertson,"",Great cool,,
Terminal Emulator for Android,Google Play,jackpal.androidterm,Z3A6QU9xcFRPRVF4OFFBeXltT1R0aUh5YTh4UGswZGtFTXJjaUtRMzBGdTkwckNIYXNvTXNjTTVkeDZTb21INTgtWjlFUGZIY2ZDQ3VkdWl0UmUxYVRtOTJv,Korean,,3,2014-05-20,김도은,어떻게압축풀음?,아니...마인크래프트열리지않는 파일을열기위해깔았다만...영어가나오지않고한글만되고... 이게뭥미...ㅠㅠ,,
Terminal Emulator for Android,Google Play,jackpal.androidterm,Z3A6QU9xcFRPRnB3S0JoNnNhdk1oTHFRX2ZEanhmbjRmbDBkZUVpWEotNGd1MFo2cHMySmVYQkp1YmNMMWVjdnRWc29odGkyUmNhUTI0TjhWVmJqRGNWZUZZ,Korean,,5,2014-04-05,닛산,좋,읍니다,,
Terminal Emulator for Android,Google Play,jackpal.androidterm,Z3A6QU9xcFRPR3dSYXFHTmlOYzFkUnlMcmlBWlpnd3hFTmZ2QW5aMEpOSkJyamVUZ1hCN0JZaHl2OGM0TlFkM2cxYWxHS3UwUURTdXlSenhDbWdGWktQbmJV,Korean,,5,2014-04-01,KuyHo Chung,Sweet,Simple yet perfect terminal for Linux. Makes me realise Android is actually running on Linux :),,
Terminal Emulator for Android,Google Play,jackpal.androidterm,bGc6QU9xcFRPRTl1S25JVVF3UkhyWWw0ZEczaWNPZ2I0a0wwM0hDdndCQlNmNmxZTTlxOTJMQlZROGo5Rm1fY0kxWEhDTFA4TzZPY0dNVE9jdjhvdEJabWRr,Dutch,,5,2014-03-31,Een Google-gebruiker,Een noodzaak voor powerusers,"Geweldige app, echt een noodzaak voor iedereen die iets geavanceerds met Android wil doen. Mooie feature dat het meekomt in Cyanogenmod.",,
Terminal Emulator for Android,Google Play,jackpal.androidterm,bGc6QU9xcFRPRVVSSFlkdnQ5MXBVQ0tYVVZCMy1xd180T2Y2eWZhZXpFRnNCOHVyUV9sV2ZzWElVTGRQcldKLUpmeXFtVURQZi1NVWxNS2tSc1BPc21xTWFF,French,,4,2014-05-20,Un utilisateur de Google,Defy,Good,,
Terminal Emulator for Android,Google Play,jackpal.androidterm,Z3A6QU9xcFRPRTJGSlR5N1ExTHRKTDQzazhzb2lhbjdSTlJKSzlsd0RrbmFJTzQ4QTVxMXpST0syRlRlcWxEa1NYZV9lOG9lTUx2Ynlma2JxSE9SdWQtQkp3,French,,4,2014-05-18,Lucas Bourgeon,"",Validé,,
Terminal Emulator for Android,Google Play,jackpal.androidterm,Z3A6QU9xcFRPSGVFVVFJQ1ZyekRKWWh5QVYxdjE2Sll2cWZzUzhtZmdvSzNuck5pUzJESTZSWV9vNzU0N2lJTzZTWHhjdHJlWk5JMzRxMU9tYWJCelBjWlow,French,,5,2014-05-09,taha tags,Cool,Nice,,
Terminal Emulator for Android,Google Play,jackpal.androidterm,Z3A6QU9xcFRPSHdMWVpkRFoyaXlpWUJObHZZb3lnUm1FUUV0ZUZvSnZyWjJ6eHBPdXRianpseUw3R0RRTkdiRWEta2o4NGxxTGZkWHhUSHJ4V0tXWm9SaU5r,French,,5,2014-05-07,Kenny Da Silva,Parfait !,"Exactement ce à quoi on peut s'attendre ! Pour ceux qui ne cherche pas plus loin que le bout de leur nez, la touche Tab est accessible avec Vol-up+W... Ainsi que plein d'autre d'ailleurs (cf menu ""touches speciales"") Bravo au dév ;)",,
Terminal Emulator for Android,Google Play,jackpal.androidterm,Z3A6QU9xcFRPR3RNZ3VKeF9BekJrQ2J1VU5lZ2dPZWgycUJZSGlRQlgya2RpUUNWV3IzWUQyWUhUbFk1YTFlMjVVSkhfWFZvb0dXYjJySlB6bjgzaUNWSENz,French,,5,2014-05-04,LANMATCHION Hervé,"",Je kif ce clavier.Merci a son constructeur.,,
Terminal Emulator for Android,Google Play,jackpal.androidterm,Z3A6QU9xcFRPRWFIN2E0N1h0YV9sVUctX1VTTWQ4UHk0OXN2UnpUSENJMXZhNXlOU0JPTThJOV9aQkhTQWw2bnhwbzRJVUtQZlBlS1M0NWkyVWI4c3Vwd05R,French,,5,2014-04-25,Maxence Poutord,Parfait,Mais la touche tab me manque !,,
Terminal Emulator for Android,Google Play,jackpal.androidterm,Z3A6QU9xcFRPSGhUbmtRQTlsV09rdDZHTG1CSzg2UFdScUg2ZkJ6RVRjZGNlRVpISWdsZGNYa2lwamVSaW12S0dCVV80QVpua3YzMDQxZEV0SXpXbU8zVlB3,French,,5,2014-04-15,JJ GG,"",Indispensable,,
Terminal Emulator for Android,Google Play,jackpal.androidterm,Z3A6QU9xcFRPRmcxcWZRYXRvaDdXNC02elRaVlNfNjBNWmI0OHNYQXFlaEVjekVLUWREeGRSS3VSZUR5UDBCaU9sbTFCa3N6MG5WZkc4ZjczeG5naUU0QzBj,French,,5,2014-04-07,Maximilien DDesgarnier,"",Fonctionne très bien. Parfait,,
Terminal Emulator for Android,Google Play,jackpal.androidterm,Z3A6QU9xcFRPRWdpWktqMV9hRWhPbVZfTTdGZW5DNVNMQzd4S2NpVzRLR3BqbXloUG1GcmZHVEJpT0ZiZXhNeEdSLXhMZDNoSnpfNXQxUnR1a1Z6U2pTcXNJ,French,,5,2014-04-04,Ga Z,Pour les experts,Rien a dire de plus a part qu'il est tres fiable,,
Terminal Emulator for Android,Google Play,jackpal.androidterm,Z3A6QU9xcFRPRk55NFBpTTlxMFVhUzhVS1FMdEZDdV9vRjNFSWpNVUpzR2Q4VXAzclBleTFLTGZUZ1RHMWV4M0ZGWkZWRjBPYTVEVmdoUjNkMllIc21jTXFN,Greek,,1,2014-05-19,Ge0mos,"",Oute mia entoli den perni,,
Terminal Emulator for Android,Google Play,jackpal.androidterm,Z3A6QU9xcFRPRUVKdjZTSi1pWV9DSlRpOW5YU2JNREI4ZkY1Z3hGMHNDLTRPN25DbGRPX1VtWUlpVXJHV3NDZlBTbDlGeDVfdmhGZDRBNzNVeTUxMXE3XzZv,Greek,,5,2014-05-16,Antonis Loizos,Really goood!,Dam!Is the best i had ever use in my life.,,
Terminal Emulator for Android,Google Play,jackpal.androidterm,Z3A6QU9xcFRPSHg5aE50WHFkbmFQZEh5aV9hdjA1QTdWSnIyVnB1X3RKT1pDY1JoMllXcDFtaXlYNGc3eEF2b3dfdk5uOGJ5ckE4WG1MZnBmZm9KWUtFXzBr,Chinese (Simplified),,5,2014-05-19,刘继刚,it's good,good app,,
Terminal Emulator for Android,Google Play,jackpal.androidterm,Z3A6QU9xcFRPRi1UOGVVNFpkcmQ2TzRZMGdDQi1VWXBCOTM2RjhQNkIwb0NzT3RtaUtJY0lrLWNGYXI3M1JtcHc5ckNvbGRRdWV1WjVnUVJUVWNLa0F1cnlv,Chinese (Simplified),,5,2014-05-18,yuanfang li,utf-8 bug,chinese backspace is stop run,,
Terminal Emulator for Android,Google Play,jackpal.androidterm,Z3A6QU9xcFRPRUN1dHhfaWFpbUlka01UbE5PT0ZHX25lTHVfa2xucWwtbVpaaHEzRGd6S0s2dXBwdFd0MXg5bmx0WUltUEk0NEhEOTZqSkVLZlVrQmhrUXY0,Chinese (Simplified),,5,2014-05-17,吴宁,Good,"",,
Terminal Emulator for Android,Google Play,jackpal.androidterm,Z3A6QU9xcFRPRWRIMVFQV0ZzNmozeUY4dmZZLWc4bFg0WVNZSS1MbWM4TEdLVGJQNzR6RGNDWUlScjFMUnlmemJ1ZkYyNFRCZmlYck1kU1RtdDM2aDJfcWNj,Chinese (Simplified),,5,2014-05-11,吴彬,"",很好用,,
Terminal Emulator for Android,Google Play,jackpal.androidterm,Z3A6QU9xcFRPR1lvRFJfcXN2N1pib2xEVHo2V24yYVVUYTgySkQ4amJmSXpPd1MzZEE0b3hYcnYtSndZTl9yRUdZZ1U1ME9uR3FrdEZvY1Y3MmpuOEg2Sjln,Chinese (Simplified),,5,2014-05-09,熊亮,"",很不错,,
Terminal Emulator for Android,Google Play,jackpal.androidterm,Z3A6QU9xcFRPRzVrNzc3aUhsTExRMzZBWlVvUXpYLTBOVXJER3BrMWNxVlVGYjNhMUxKZWFQX2ZhOWVJc2JFS1RSNmEtdldxdjY2dE9YTTdWdVp4OXdYTHh3,Chinese (Simplified),,5,2014-04-21,Kinson Seh,"",Good,,
Terminal Emulator for Android,Google Play,jackpal.androidterm,Z3A6QU9xcFRPR0c0a2FfaFM4Nll5QllBaGNUNWNyNUN6VE15UDA3elpmSzFFUEpSQzdXT29iYWI3Z2hTN1A0aGRCbE1pWDY0WG4xY2g5eUl0M0hMOUJGc2N3,Chinese (Simplified),,5,2014-04-17,陈少举,Thanks,Thank you!,,
Terminal Emulator for Android,Google Play,jackpal.androidterm,Z3A6QU9xcFRPRTZIQ1dsT1NzQVJNbjNJNnBhZU5EVThSdGpmZ0xZUk51WTlSTXZCVnlseVp3Z1Q0NGh1TFpTRnFOZ1BpQ1BQWU9WQUx6VEl0MmViemNSZWFn,Chinese (Simplified),,5,2014-04-15,柴林峰,很不错，真不知道怎么用了,"",,
Terminal Emulator for Android,Google Play,jackpal.androidterm,Z3A6QU9xcFRPR1hLcDVhVHZHano4MnJtVS1iT1B6Z1poS0JSbHlhUjNvdXg3QktLWk1HT19OLTZIZXdPbVZROExseXd1Zmx2QzY3ZlNXWUoxTV95dWNBQnIw,Chinese (Simplified),,5,2014-04-07,Lover Di,love!,but how to make it colorful？,,
Terminal Emulator for Android,Google Play,jackpal.androidterm,Z3A6QU9xcFRPRmhzeXJGZF81N3ZnX01KaHFQaXo1anNQTzBMeFcwaVc1dldLYXdYRFFfcEg4Tkx0VUtnQlZoaTh6Q0psY0FuQWhBS3YwWktrdnl3aUdrSjhZ,Chinese (Simplified),,5,2014-04-03,周大业,Really good,一直在用，很好。,,
Terminal Emulator for Android,Google Play,jackpal.androidterm,Z3A6QU9xcFRPRnpoaWRiLUhZazBDV0FsWEVnQzg4eGhBdG9xYmk3V01BaUZnS1A5b2JWUUJxczhpeUJHdl8zUG16a3RMVG1TVFBtSE9mTFBWc05TR0FXb3Zz,Chinese (Simplified),,5,2014-04-01,Peifeng Yu,"",The best terminal on Android~,,
Terminal Emulator for Android,Google Play,jackpal.androidterm,Z3A6QU9xcFRPRkg0Q0c2MWl3QTNCNFZ3N0lGQjE2M0JjYVpodk8zUFpiS01WTHluRGFOZkl1aTFYdUlZbEtFVnpNbmY4ZEFXaVJaQnhCSHgtdEQ2OGcwb2E0,Italian,,5,2014-05-22,Davide Ginelli,Funziona molto bene!,"Non è certamente un'applicazione che uso quotidianamente, ma tutte le volte di cui ne ho avuto bisogno, si è comportata in modo egregio!",,
Terminal Emulator for Android,Google Play,jackpal.androidterm,Z3A6QU9xcFRPRk9NaUFFLWY0a1A4RkNVR3ZxYlZWMU9OTlhsc2tVR1dnV195b1l0Zm1qYzJMRUpaVkZVVGRncTg2bGpYX1o1MGc4ajVpVlhZa2pHQng2OVg4,Italian,,3,2014-05-20,Manuel Carriel,"Problemi 😰,",la registrazione dello schermo viene con i colori sballatissimi e la registrazione in se viene male (metà schermo da una parte ecc) non capisco il perché :(,,
Terminal Emulator for Android,Google Play,jackpal.androidterm,Z3A6QU9xcFRPRmhIQW9OajF3bTI3Q0tyX3p5Rm43eGpzVk82UmZaQW91ZGstUWRzdTJZWU1QdjJlU0N4dXF5T19xTnNqeTV5UnYzVlA5YzlfNWdEQTVSS1lr,Italian,,5,2014-05-19,Alain Bernardi,Pratico terminale,È un terminale che fa il suo lavoro. In ambiente Linux è uno strumento essenziale.,,
Terminal Emulator for Android,Google Play,jackpal.androidterm,bGc6QU9xcFRPR3czLW9nemZPckZKT0VHQzZrTmxKdEppaVBoWkM5eGJqeVZhcWtxR3doOExnaGhwV0tvYW81blEyZW93NWxjaVJZUTlObnhoc1V0RVBFbG5J,Italian,,5,2014-05-17,Un utente Google,funziona,mantiene le promesse,,
Terminal Emulator for Android,Google Play,jackpal.androidterm,bGc6QU9xcFRPRm5Hdmpmd1MweFlQcHQ3T0NfbW9mSUxaWFJuUU00aWFYc2tlTmo3dElnZXA5cWhIVERfc2hqckR1bEUweEtxb1VsczFtSjhldGRkaTZwYmk0,Italian,,5,2014-05-16,Un utente Google,Fantastico,"Completo, veloce e intuitivo.",,
Terminal Emulator for Android,Google Play,jackpal.androidterm,Z3A6QU9xcFRPRUN3WjVIM1l5RXZROVJYS29NWFEwRDdmT0FTVjlYUWkzTkVXNEtuZUFiVFJwSUpOeEZDT0V0bm1tbldFNUROXzFzY00yc042SXRya2xwUzlJ,Italian,,4,2014-05-12,luca pozzebon,Buona,"Ben fatta, mancano dei comandi e altri sono adattati agli smartphone, ma è sicuramente molto utile e indispensabile per gli smanettoni.",,
Terminal Emulator for Android,Google Play,jackpal.androidterm,Z3A6QU9xcFRPRzFJUS1NU08tb2FvOC1faG9mTnNrMVVpYnJoR0QwaWxaODZ0WXliOHN2WUJSWFY1bWJhOC1CNkdlUnVKTF85MWNSNkhZa0Q4cGZXRVcySXEw,Italian,,5,2014-05-09,Giorgio Seghetto,Fantastico,Un terminale gratis eccellente,,
Terminal Emulator for Android,Google Play,jackpal.androidterm,Z3A6QU9xcFRPSEZKTjFhWWZVOTFRbm1SOUUzZkpQa0xCRVNvak1tc1VfSUk4ckdmLUJJcm1MUjB4OTBjMWd4cmw3eEE4UUJvaDQ0bmQyUVhnTWcwLUtNTElj,Italian,,5,2014-05-09,Stefano Pisciella,"",Migliore nel suo genere,,
Terminal Emulator for Android,Google Play,jackpal.androidterm,Z3A6QU9xcFRPRmlabm1rZ0sxdDVDTUZmNnZDOVhWMmxyR0Y5NjJqZkRJMWs5N3g0WnQ5VFl5NUdvTVBGanR1VFNBUWNmZG1CRng3X1p1N2VINng2ZzFIdlBv,Italian,,5,2014-05-03,Maurizio C,Ok,Ok,,
Terminal Emulator for Android,Google Play,jackpal.androidterm,Z3A6QU9xcFRPSHJTeWZvVzF4TWR2ckJ0NUJaaFlsLTRlYWdXVnkydjhNZ1JxdWd0aUFta1phT2JRTm5iZVdaV01GQzNJaFhEYVVtSTJydkExVDE1UGVCRVRB,Italian,,5,2014-04-30,Luca Occhi,Bello,Abbinato ad Hacker's keyboard è perfetto,,
Terminal Emulator for Android,Google Play,jackpal.androidterm,Z3A6QU9xcFRPSGxrQkFHeHJVVWRxLXpCbnBfWUtna3R0VGYxQklCUXFXV3N6U1pqTkZUQlFNb0FGMm52cm8tc1lvblBibm5tWjRNQzhETDRzdll6ZUxZYkNB,Italian,,1,2014-04-25,Vincent Keyless,Yee,Brutte votazioni yeee,,
Terminal Emulator for Android,Google Play,jackpal.androidterm,Z3A6QU9xcFRPRXZwR2F2SW1qUUI2WkpXRDVjakowMGRNbTVqMURmcWdFZDgwbXc1QXJrSGRlNW5Tb2R3ekJjbmtGam8zV2dvU3VoNXUyUEVGYV9GYnJoendv,Italian,,5,2014-04-21,massimo piccinetti,Very good,A must have for developers,,
Terminal Emulator for Android,Google Play,jackpal.androidterm,Z3A6QU9xcFRPSFpQelltQmpvNDZCS1JDNWN0TGpLd2t4QTVnRE16ZW9nLXc3bFdaNUJBZVN5cDU5U0h5VXVKUWoyU3hFV3cyTlVtb283MERxMzdXdGc4RnlF,Italian,,5,2014-04-15,antonio mascolo,Ottima,Applicazione veramente utile e devo direva confronto di altre app qst e ottima....sbloccata imei del tel in pochi secondi...,,
Terminal Emulator for Android,Google Play,jackpal.androidterm,Z3A6QU9xcFRPR0FOSFhkX1g0LUF3a0NmYnNrNlpLeHBERUg3Z2JzYm4yWDBpblRrU3ZqdmV6TFdPdlFOQllTQ1hNNkkxRHc4b2g3aHFXbG5LaHBTbUlQblhZ,Italian,,1,2014-04-14,Armando Iovino,"",Ma come funziona non capisco qualcuno mi risponda grazie,,
Terminal Emulator for Android,Google Play,jackpal.androidterm,Z3A6QU9xcFRPRkZqcmZrdHRDU1J5VmJWUTYwYUlGcTV1cktKM1lqZTVDTThUelpjRHVJMkxSa0Zxa2FOclY5NU5sOEdkQzh4N2t0LVRxVHo2SU5hdExtREU4,Italian,,5,2014-04-13,Gabriele D'Andrea,Per geek,È un terminale,,
Terminal Emulator for Android,Google Play,jackpal.androidterm,Z3A6QU9xcFRPSHRpbDNnUWRnbzMtU19DRUUtOGpYOGlzWkNOYXhMeFFmc0FPZTl2RDZCY09fOGZwQ1Y5Y1BWT05KOHN3T28zRTZXR0hYVWFDZG1XbjJDZnI0,Italian,,5,2014-04-13,"",Bella App,Molto simile al terminare di linux Ubuntu complimenti allo sviluppatore xD,,
Terminal Emulator for Android,Google Play,jackpal.androidterm,Z3A6QU9xcFRPSE9odXBrb0h5Ti00a2xoUG11SE13UUZwOGZfcWxYcmt5R050Um1qVEs1aTFqMXVQWkI1Z1B3dkY3Q0w5cGZHVTM5QTdDNXR4ckdoUnFVUjg0,Italian,,5,2014-04-12,Marco Viceconte,"",Yeah,,
Terminal Emulator for Android,Google Play,jackpal.androidterm,Z3A6QU9xcFRPR2liRllxT0R2aDhhTmhLd01zNjNQbmxRdnpvR2tNNExDTWpBdDhKc05EUGFQalg0SUFJUHVSRnVlM3dITnQzX05MZGFZVjNKR3pXRkFaZmxj,Italian,,5,2014-04-09,Lucio Satta,WOW !!!,5 stelle extralusso! Per i bimbiminkia che installano qualsiasi cosa e poi votano *  $ man bash  MrSatanasso [Debian stable - Linux user #158396],,
Terminal Emulator for Android,Google Play,jackpal.androidterm,Z3A6QU9xcFRPRlYzLXplLXNaSjhLeWxRSm9qTHZEbUNSYUwxOTdUQ1FPU3FuOGRHYlJrd1pGc3BsdHYwZG5rcmphWUtGM0pCZEk0LVYxRUtvTHJTeG9FOVZn,Italian,,5,2014-04-07,alessio palma,La tastiera bluetooth non é un'opzione.,Ottima.,,
Terminal Emulator for Android,Google Play,jackpal.androidterm,Z3A6QU9xcFRPR1RZclJhSXdKU2RsRG8xVkJFU01XbEpIS29nV1ZNekFzMUxIdlpwdmJPM1NabUduUHp6VEdjZEhlWDN6MjF3ejBmTUlveklpREJZdmlhUDVn,Italian,,5,2014-04-04,Francesco Spossati,toga,perfetta,,
Terminal Emulator for Android,Google Play,jackpal.androidterm,Z3A6QU9xcFRPR29DYnJ6RGI0THlGVXZDX1dDZ3ZveEtzN0ttNFcxMDA4YVBRREFyb0UzT3Z5ZHY0RGNKTmVGbWRJbjk1UTVVSmtqRHBrY0pZVWJxLWUtd29n,Italian,,3,2014-03-30,Roberto Zanaboni,"",Mancano molti comandi,,
Terminal Emulator for Android,Google Play,jackpal.androidterm,Z3A6QU9xcFRPRWtwVjR6d1gxdkZpS2kxcE5yQndGQjdScVU4Y0VCUlZ3bDFaZnVZZy1VZk1nc2dfMWR4aHQ5VnlIZWhONE9FSURYbVlHSDdoSWcwR1EtbHFn,Italian,,5,2014-03-30,Francesco Mignone,Perfetta,Per me é perfetta fa tutto e di più si deve conoscere il codice per usarla quindi imparatelo prima di dare rating bassi,,
Terminal Emulator for Android,Google Play,jackpal.androidterm,Z3A6QU9xcFRPSGNPc3dQUEthYzBhOHJHdDZ3ZGJaNXJINWN3aXRxOEZhNXdDejNoaFh6OUFzTDJRelIzMDdNVDFhdDFRQnNnV1A4bFZ2V09lVjRoNzJQTFAw,Arabic,,5,2014-05-22,عبدالرحمن محمود,إستفسار,ما وظيفة هذا البرنامج و كيف يستخدم؟,,
Terminal Emulator for Android,Google Play,jackpal.androidterm,Z3A6QU9xcFRPSHdRS1JMSWFQMUNEbDd6aTZQN2JaVklreXQzbS1Ma0djMUJ6OWNQcG16NkFmeEtWdzNoQmR0OERwS0NfV1ZfcG5BNFZ5bGpNcTNOSmcwRmhj,Arabic,,5,2014-05-22,عبد الله حسين,"",ممتاز 😊,,
Terminal Emulator for Android,Google Play,jackpal.androidterm,Z3A6QU9xcFRPRnpVY182VGo3b0hCS204Z3VfbEx4cWhsOW1PR083MzgwVThYdFZTal9kUW12Zmp3bEJjUmVOV0UtSzVVQzByeVo0RFNNdG1NYnQwd3pSdExj,Arabic,,5,2014-04-23,sefo baghdad,"",رائع,,
Terminal Emulator for Android,Google Play,jackpal.androidterm,Z3A6QU9xcFRPSEsyaURLTFJwUVpZTk1rVmdlR2FvYTFodlBWNHdiSFlZLWRGVWFJYS1YLVlnM2xkaG1wLXNfWkgwQm5HMUZfZFg5VFZlMmM5VHB6aFdvSU80,Arabic,,5,2014-04-14,Abdullah Al Ghaly,روعة,وربي جميل,,
Terminal Emulator for Android,Google Play,jackpal.androidterm,Z3A6QU9xcFRPR0hKQm5CbWZrRDNVWWstQjBuUHF6RXlPRzFMeldKTEpHWUViNG92U0xSUnFwaE1QTHBaLVFOU3JFMlk2Z2Q4c3Uyd0ZmaGdQX2JqX043d2hr,Arabic,,5,2014-04-09,f4 modz,Thanks,,,
Terminal Emulator for Android,Google Play,jackpal.androidterm,Z3A6QU9xcFRPRjFnZ19QbmxXU0g5bEpBZU16SEo1ei05Nkl2OU51TVJORTlVWWpBTkJLUVA3VENBcFRGUEpwQUotd2xqR3I5c0VjUXUzRFhoMHlMWE5fT2Y0,Arabic,,5,2014-04-01,Suharlan Madi,"","",,
Terminal Emulator for Android,Google Play,jackpal.androidterm,bGc6QU9xcFRPR0t3WlNXQXFPcVQ5ai1KR2JTX2hkanV3SW9VajNxVTk5TVF4TEVreHhHMEhJTm9ESzREdFdOOE56NlpJR2pJT01pMjQ0azg5eVAwSmJDNm1r,Catalan,,4,2014-05-11,Un usuari de Google,Manquen comandes,"Evidentment no poden estar totes, però falten algunes comandes i fins i tot configurar l'idioma i presentació de consola.",,
Terminal Emulator for Android,Google Play,jackpal.androidterm,Z3A6QU9xcFRPR1dWS3h2cXJyTHBabWRRN0JBWTQ1OUJhYmE0Q1oyUlIwY2Npc0k0d055aElZdjY1SC1yZW91QmszQ1VzMmdUcWhUZE1KNU9JSnhaWUo1c2Zz,Czech,,5,2014-05-20,Borokl,I ATE this app,.,,
Terminal Emulator for Android,Google Play,jackpal.androidterm,Z3A6QU9xcFRPR3lPZWxNb2tWT1pBS0VqZWwweTFvSTJ1WEZSbFluZ2hJa2ZxYXp6QjVmMXBfU2xqbWF1MENlOF9Tdk1SYWJhdzZ3ZXpvWHBiVUNxUm1fR3BB,Czech,,5,2014-05-11,Roman Šebek,"",OK,,
Terminal Emulator for Android,Google Play,jackpal.androidterm,Z3A6QU9xcFRPRk9BZVlZcFlMNkdzTWN3N25McmZKNW95c2lmZkRIUlN1bFRobjU5TGh3TG9ZV1ViQVRHQTBaR05KMG9ydWR1aHpMb2QyQXdHTmdneG9mQ0ln,Czech,,1,2014-05-05,Patrik Horkel,Hehe,To je vtipny jak vsichni delaj ze znaji vsechny prikazy na linux,,
Terminal Emulator for Android,Google Play,jackpal.androidterm,Z3A6QU9xcFRPSG1OWXN6eFFZSkFQem1QQWpRTVhBb0NfTHk5REFGbGZmRldiZFkwT0xzdGEwZHc3Y2J3eGlSSUZiSnZPQ0hUY0NvYVd0OXlqSU9ZUjlIOFNN,Czech,,4,2014-04-22,"",Spokojený,"Pracuje jak má , a s BusyBoxem úplná paráda",,
Terminal Emulator for Android,Google Play,jackpal.androidterm,Z3A6QU9xcFRPRVZ0ZW9fVF9RUXpvTHgtLVA5dU8tOGZPUU11bVI2NkhrZjBlUnhJS2diOXdDbzBpYXdCbTdNWEQ0dTlEbndtMXZNdVRsOUZJMTlGWXVVWVpz,Czech,,3,2014-04-20,Eduard Lavinger,"",Neni spatny.,,
Terminal Emulator for Android,Google Play,jackpal.androidterm,Z3A6QU9xcFRPRlJfaGpjR2owaE5pQjNoYWczbW9xdHExZm1ubEpZN3J2NTF3Um0ySktiQlRsQkJaSHFVNVUtY2luNURNNjZObUdWR2owU0hXUktxTW1lTktv,Czech,,1,2014-04-15,Martin Skůpa,"","Nevim, jak se toho zbavit.",,
Terminal Emulator for Android,Google Play,jackpal.androidterm,Z3A6QU9xcFRPR3U2UVZzbWpzTGhlbG5MMktWdFhZLTBCc25ocWw2bl9WYlh1ZlRtUGFSaHNmUXc2bHAyMk5HXzFpaHJ0VVZXY3FTWEp1YnpOeDd0dGg5ekdV,German,,1,2014-05-18,Hey BlacK,Gekauft und verarscht !,Ich ka nn das tool nicht ohne unterbrechung nutzen kakt immer ab und ist selten zuverlässig.,,
Terminal Emulator for Android,Google Play,jackpal.androidterm,Z3A6QU9xcFRPSHBjaDQ0aTVmaXRmTU5DV0hvOWJTMEFGaDJoekJtN2FQbHhXbkhpWkZmaHZzUGwwRmV1NGtNVGR1ZGZxZ00yTlo1UnB0U3V0WERhb3ROQ3R3,German,,5,2014-05-14,Dominik Kosubek,@Yves Wittwer,Dies ist ein Standard beim Cyanogenmod ;)  Und super APP!!,,
Terminal Emulator for Android,Google Play,jackpal.androidterm,Z3A6QU9xcFRPRkp5Q2VELXpWR1l4dEIxUjBsUjczX1ZXZTlCaXZyaDVrdy1xLWRVTG9jYWZ4RWNmX0JxaWppV3NWMlVtWld4VmlPV2lSb0MxOFdsSVFnTi1j,German,,5,2014-05-13,Nicole lutz,Versteh nicht.,Ich versteh den Sinn nicht trotzdem cool,,
Terminal Emulator for Android,Google Play,jackpal.androidterm,Z3A6QU9xcFRPSG9zZ3MwdzdhQmlId3pqcHJKRTRoUDBxc29ERENLdDlsZmQzU2FnQmFkWE5BaHhZdjJHcU1ManVlNjFVancxTVZ1c2xDTW9NZmJHQmt5YWRv,German,,4,2014-05-09,Yves Wittwer,muss sein,"meiner meiunung nach, sollte diese app grundlegend installiert sein.",,
Terminal Emulator for Android,Google Play,jackpal.androidterm,Z3A6QU9xcFRPR20zVEltYjBhVjdxak1xeFdjU040SEdxdlBwdElhV0VyRENFT2FDRTF6TlZOc1FFN0xCeEFPSkZPTmEtWTJveGlsZjRpWGItRGdSU251ZEo0,German,,5,2014-05-08,Ron Bartholomæ,Kann mir jemand helfen,Immer wenn ich was machen will kommt Befehl verweigert (permission Denied)  Kann mir jemand helfen ich bin da noch neu was Terminals angeht,,
Terminal Emulator for Android,Google Play,jackpal.androidterm,Z3A6QU9xcFRPSHFTd0IwNDNnbElxZ0FjVlVTS3VULXFqN1BJT2ZoMnNyZUEzVUxkRFhwY0ZwaW9IMDNNaU1DaHpRanVNRW8xSnpnWmZfNWtiWEpxdnpBNWc4,German,,4,2014-05-03,yves wittwer,Sehr nuetzlich,hab anfangs nicht ganz verstanden aber kommt schnell.,,
Terminal Emulator for Android,Google Play,jackpal.androidterm,Z3A6QU9xcFRPRXpUTjJoM0pibkxCSG9vRFp1V1hybmhycDVMUVBYalZNWm1BYmxFaHBpVmMzXzV4RlU5bnJhTW5zS3VZYmJXYWJycUVVYk51Uk9DUTJLdFRv,German,,4,2014-05-02,Michael Hertel,Geht,"Im Prinzip macht sie was sie soll,  nur ist halt alles etwas klein und funmelig auf einem Smartphone.",,
Terminal Emulator for Android,Google Play,jackpal.androidterm,Z3A6QU9xcFRPRXhlUF9wTkRUT2tUVHBfRDdsazM5YXBlQzNYSkROUDhDSUhxM0F5UXR1SzlLTzN2enVQREx2UXZkWkNRejNJMUg4amNvNlZ4UE9MWE80TTFB,German,,5,2014-04-14,Marius von Gunten,Must have,Ein App der auf keinem Gerät fehlen darf,,
Terminal Emulator for Android,Google Play,jackpal.androidterm,Z3A6QU9xcFRPRTJBcmRzczlVTjNQMkFTeGE5ZUJHcnlhcHV6cmNiWXNteFN5MnRyMHRaTDBUY0tEY1pUa1BGRlJBMUhXLUp6SjJPSy04RzdmMUNFZUx3dDhv,German,,3,2014-04-09,Luca Happel,Geht,"Ich bin von desktop termials besseres gewohnt. Schade das man nicht die Hintergrundfarben als html code eingeben kann, sondern aus desings wählen muss. Sonst fehlt mir noch die auto Ergänzung. Trotzdem, ein must have, denn ohne terminal macht linux für mich keinen Sinn.",,
Terminal Emulator for Android,Google Play,jackpal.androidterm,Z3A6QU9xcFRPRWFOUzBjYk95T0JqMkRwbV9iWDZ1TGVwVEsydDJ1Z2lyY01zYUlwNDJ3S3A5OEFPUGVFV05aTm1FdC1oNTF1dXVTSmY1WDFzdFhSZzVleG5N,German,,3,2014-04-06,Olivenbäumchen findeichgut,"Aber, aber ja doch.",Hat mal jemand ne Mark ? Ich frag ja nur mal so ;-).,,
Terminal Emulator for Android,Google Play,jackpal.androidterm,Z3A6QU9xcFRPSEFsLXhlWVl6cGtLb2dRTjMxdjE4dEF6b1NxRndGMW1SYm14Sm1hcEZoeXk0Vnp3c1EweHB4U2pucVEzWVZmMGJ6cG9GQ2IxT2NxbE5QRUtj,German,,5,2014-03-31,Damian Mazur,"",Gut,,
Terminal Emulator for Android,Google Play,jackpal.androidterm,Z3A6QU9xcFRPSFNsbl9vV0pBT2FjSkt5bGR3c2VUTlBkLWM4NHg5ZTlDZGNLRHFfWXJjYTFPRjd3Qm41N1FkT3J2TUZLRmVfNE5LcEc1V2ItNk5DWjNNSk44,German,,5,2014-03-31,Wayne Interssierts,"",Backt Backfisch wie es sein soll,,
Terminal Emulator for Android,Google Play,jackpal.androidterm,Z3A6QU9xcFRPSFNwbHk4RUU1eHdJWlFadXQzMHdpLWNfSVVtaDF1akJBZnVlWHNBSU1fMmxsN3Vkd0VKV0p5VURJcXkyRy1ON0VFVWNsc3BHNnE3MjNDdUQw,German,,5,2014-03-30,ra la,TOP,OPTION: load root automatically is missing!,,
Terminal Emulator for Android,Google Play,jackpal.androidterm,Z3A6QU9xcFRPRjlZZDBkeUJ1bWppb3RnS1Uzd0JZX3lkR21QcnVLOUFkcEZGdUpqSG5zcXZITEdCZGpLM0RzVjFDam1Sd2c0cmJodjNDT1hQbEV5YzBRMHJZ,Hungarian,,5,2014-04-14,Dániel Streba,Ez az app minden rootolt Androidra kötelező!,Már kötelező lenne a rootoló progiknak is ezt telepíteni a SuperSU mellé! :D,,
Terminal Emulator for Android,Google Play,jackpal.androidterm,Z3A6QU9xcFRPRS1CeUg1RUkxNmhOR1drM1d3bkNnOHRXenBwb0VJcXlLVlhqX2NqZDU2M2w1dTNaWUZDcVZaLWVTbms2Wm8yN3lrUzBocWNUV19oU24wbF80,Hungarian,,5,2014-03-31,Marcsello Hooves,Egyszerüen kiváló,Semmi kifogásom nincs vele. Linux alapú rendszerekre ez alap!,,
Terminal Emulator for Android,Google Play,jackpal.androidterm,Z3A6QU9xcFRPRVRGOGdRemN5R1FpQkJuQ2prUDE0WFllTmxDVGtHTnBJd1BzVkU5MENvOTcyUXFva3RBOThjcVVHZDBmaUFRUjRGZDBHbUtxS3N0cEVXUEI4,Norwegian,,3,2014-05-17,Morten Neubert,"",Påske,,
Terminal Emulator for Android,Google Play,jackpal.androidterm,Z3A6QU9xcFRPR1lyaGQzWDRBNWMwdHctYjh0bENLSlR6LTl3UnB5QTZqOGthcXpya05oS3NwTzI4WHVHT0RUZ3hiV2F2T2VsUEdkVFBtRUYzOTljdnF3akNV,Polish,,5,2014-05-14,Kuba Maniak,Beznadzieja,Jak kolega nizej ta gra nie chodzi. Wolno sie laduje i wyskakuje jakies $ -.- ZALL.,,
Terminal Emulator for Android,Google Play,jackpal.androidterm,Z3A6QU9xcFRPRjdVTWpncHJsbVlKNkVVTU5aS1A4OVltOTBCaVlLZzJ2Ny1ibFktZFNmYWZ3bmxZZzllVnBKa1Y2Tzk1TmpQWjNXZnhWN2tuaGRHdzBITU5r,Polish,,5,2014-04-27,Mateusz Ziomek,Świetny,"Dzięki terminalowi można prawie wszystko, szczególnie jeśli ma się root'a",,
Terminal Emulator for Android,Google Play,jackpal.androidterm,Z3A6QU9xcFRPSHpPRzY3Sk5TTy1oQncwMzhiX2RVenFtY3Ryd3BTN2g1akhZWVV5Q0FZV1pqbE14dTFERWVsRVkzWlJTZEZVTmoyU2FvNlF0YldLVzRWVWVB,Polish,,5,2014-04-16,Konrad Coner,Supcio,Wszystko czego mi brakowalo,,
Terminal Emulator for Android,Google Play,jackpal.androidterm,bGc6QU9xcFRPSGZUS3FKM2xRWDZ4bDZLOXhuTHFlRXNCVFdZY1E0VzNoNUVyUDZEVmZmWVZnMFAyRUsxdVJEYW5QNi1SWFJxR3BxMW5MN082NHFDLTFjYzFj,Polish,,5,2014-04-07,Użytkownik Google,Must have!,"Must have dla kazdego programisty i maniaka Andka. Apka robi to, do czego została stworzona. Bez reklam i zbędnego syfu.",,
Terminal Emulator for Android,Google Play,jackpal.androidterm,Z3A6QU9xcFRPRWlRRkRZRmpPODVuZDlGOGZwSWx5aXF6REI3M0xDM3VQVzZmTFhiNThsQ1A1NWJ2LUMtWVBrUHA4UXNvNTFDOWpqUlhVVW9lcklnVTc1RFQ0,Polish,,5,2014-04-06,Patryk Patucha,Świetny programik,Robi z androida prawdziwy komputer.,,
Terminal Emulator for Android,Google Play,jackpal.androidterm,Z3A6QU9xcFRPR2laR1pOLVhnVzlYd2lDdWFxZGp3X2hidXl3T2NKRkZHbTdlZ0hiQUJDWHdtTWtPcTdnUVU2a1BiQThZT2JjNUlKdHRHb1A4bC1rVnRVQWNR,Portuguese,,5,2014-05-22,telmo rocha,Muito bom!,Cumpre o q promete.,,
Terminal Emulator for Android,Google Play,jackpal.androidterm,bGc6QU9xcFRPRmZfZkNXMGxfSEYtQVBaR0d3Q0FQcENIT0dZZVhLdmFCNjBJdzMtZE8wNlFMUGJSTW1PYlU3NDNkbjlTUElTTl9obWFNa0dZWmxKdnVFQ3VB,Portuguese,,5,2014-05-21,Um usuário do Google,Muito bom,Excelente,,
Terminal Emulator for Android,Google Play,jackpal.androidterm,Z3A6QU9xcFRPR1d2elF4d05sT1ZkRXJQSEt6Z05CQTdLSktlaURJYTBSSC0zd3VUdFlEbHJEdzNuakpPZmt3Q0lralc2WXFWU212emJPbFlJdHZFVDJSaHZZ,Portuguese,,2,2014-05-16,Leticia Alves,pode,nen prests isso orrivel isso,,
Terminal Emulator for Android,Google Play,jackpal.androidterm,Z3A6QU9xcFRPRURNTEdIQzhuUEtKNnZNQkhpR0R5OFpSTXkxZDVWU1RhYnB2RmNpcUQxWVFRZVVEMzZmWURyQVBNS0U3dGtlYXpocEVSMlpBcEp4OFdsYW5z,Portuguese,,5,2014-05-13,Jorge Fontenele,"",It allows me to use the Su. Great!,,
Terminal Emulator for Android,Google Play,jackpal.androidterm,Z3A6QU9xcFRPRV9GaTdmSjFpRWVJMmFPUWxCUjd1bHZvX1VWWGt0akhrSkgtSW9ET1RxS3Vta01TYzRGVmR0VjFHRkUzQk5NeTdJczNHNmNTTDVzT1ZzMWM0,Portuguese,,5,2014-05-09,Vagner MA,"","Haha, indispensável.",,
Terminal Emulator for Android,Google Play,jackpal.androidterm,Z3A6QU9xcFRPRUhfbmR3enVmYVNkUldteVJPSGZ0QTFIcU8tZ1A3b0RQQUdjT3NLdTJNaVJZZVNKWXo3Qi1LNmZDNFNJYnkzZkZZd2pjQ05jbFRxQlNJaEc4,Portuguese,,5,2014-05-09,João Mollick,Excelente,Muito bom otimo esse e o melhor!!!nenum outro se compara a esse!!,,
Terminal Emulator for Android,Google Play,jackpal.androidterm,Z3A6QU9xcFRPRk9qVXRhQnY3OWNvbHlsZklFNF9NVnJTb3BCeVczT1VDX2FxSEFKQ0o2dmxpV01OVm9wM1NZTFBEeXJ2bjhTUm5laG1pelBpZDJvY0c2cWFz,Portuguese,,5,2014-05-09,Moizes Lamberti,Funciona.,"Realmente funciona, o difícil é achar uma aplicação prática pra ele.",,
Terminal Emulator for Android,Google Play,jackpal.androidterm,Z3A6QU9xcFRPSHd6d2N3dms4NVB5YkhTZzlXZ3R0NHFRMUFESFN3cVdhSDNWM211aTdQZjZwb0g0bzIyb3ZhLWJLQ2ZsR2xRNFBVRmhNTnNSb2pUd1djY29z,Portuguese,,5,2014-05-07,Jose Paiva,"",Muito bom,,
Terminal Emulator for Android,Google Play,jackpal.androidterm,Z3A6QU9xcFRPRXJxSUNFMkVZUTVpRE0zbm5sVEFJeGs0cEJzVEhrRmdKekFBRnhfVmtPMnRjcS1fVG5kdDNnalBFdHVqdjFXaFRBOUJRNzlxbnQwWld6UHRV,Portuguese,,5,2014-05-05,Nuno Castelo,"",MT bom,,
Terminal Emulator for Android,Google Play,jackpal.androidterm,Z3A6QU9xcFRPRXNRY3lRd1FvSk52SkQ2VGFkMGplUVVVeWcxemJiSFE1ZzNkU0xfWHBySHFDM29xTUpQUmtQcWY0UDVNS3ctaEFsSHJXaXAxcHg0UXp5aEVz,Portuguese,,5,2014-05-03,Cainã Micael,Me ajudem,Isso venho instalado no meu cel n sei para q serve quero saber me ajudem?,,
Terminal Emulator for Android,Google Play,jackpal.androidterm,Z3A6QU9xcFRPRmpNS3U1WmY0UDFMS1ctTzhObTJrR1VScHZxNHMyTklZTG9MZlJMbFhpdG5rYV9JZ09kSEVwWC15TlBsUDNRR3BjYmM0aDFYN0FLOS1aUWtn,Portuguese,,5,2014-05-01,Amiilton Amilton,Muito bom,Mesmo,,
Terminal Emulator for Android,Google Play,jackpal.androidterm,Z3A6QU9xcFRPRmFnRzBWVDB4M3JCOUhzcG1wQjBzdTBxX0R4QVIzRjNHMjctR0dHeWl2dkhrMGJJZ2NQUlA1Rlpxb0hfcllGM2RoeUdmekthTXZoWUxyMXpj,Portuguese,,5,2014-04-28,nilson motta,"",Parabéns por mais um excelente aplicativo,,
Terminal Emulator for Android,Google Play,jackpal.androidterm,Z3A6QU9xcFRPRjJfMGlxRGl3NG9wdVB1ZWFLdXp2S3NxSG9OUUNkQk40ajVyeUtMcnJGblpXZlZoWHhNcmJ2VWFwbFlJUThpZEVOZ1Q3VS1xSE4zSDhmOVJV,Portuguese,,5,2014-04-16,Diego Sant'Ana,Samsung Galaxy Gran Duos,Very useful. Congratulation Devs,,
Terminal Emulator for Android,Google Play,jackpal.androidterm,Z3A6QU9xcFRPRldkZzZPLUpHOGdabDBmTGw5SHktNkJLNjQ1YzhkbHEtaS1TWldNOEFmZ2RJb2I0ekxEcHFKYzVtalRiTHkzVzJnYnJuWlphRGtqMjBVVU9V,Portuguese,,5,2014-04-14,Ericles De Jesus,Ótimo aplicativo,"",,
Terminal Emulator for Android,Google Play,jackpal.androidterm,Z3A6QU9xcFRPRmRDQVkyRS1uZ3dBWmNleVhBZWt5N3lwaHRnaHFVbkgtb1B5Y2xSNkl6a1JsRFROb2NjY1ZoQWw3UGRiMzUtc2hsaUdJTzBHRWhFVzFfVlRN,Portuguese,,5,2014-04-12,Alex S,root,sudo,,
Terminal Emulator for Android,Google Play,jackpal.androidterm,Z3A6QU9xcFRPRVhLM01DbjhaaGRWTGhaTlJGa2RuLU9Od2k1djhzZlk4dk1fbFJqZlBJb3RteDNQQ3g0R2hQWFlBSkFSN1VwVmZBaV9uNkhqejAzNTJaMHNr,Portuguese,,5,2014-04-11,Rafael Toshio Inouye,Perfeito,"Consegui acessar informações sobre memória, processos etc de boa",,
Terminal Emulator for Android,Google Play,jackpal.androidterm,Z3A6QU9xcFRPRmtXRk84MzFfTnJYOWRrUmZCT3I1RmhpWEtqUmFnYkJ1Q2ZzR3cxWnhZUmF2RDNFOHJFV2pBbjJPeEtvZFc2cFN4X1d0NldSczRWNkNCRWlz,Portuguese,,5,2014-04-08,Elias praciano,Ótima ferramenta.,Uma mão na roda!,,
Terminal Emulator for Android,Google Play,jackpal.androidterm,Z3A6QU9xcFRPR19naFhzOGFUc0pGN2diZVRsSXVUT0tEQ0s3akNJZ05Pa1NhRnNtejJBcXktLVF3UE4wZlpFdkJnSFhiYWZGaFBoSElSQXhVclppUFByV3Rn,Portuguese,,5,2014-04-07,Altair Junior,"",Maravilha \o/,,
Terminal Emulator for Android,Google Play,jackpal.androidterm,Z3A6QU9xcFRPRWgyclk0RzJKeUdrNG5SVjZLTWw3V2pPWUxPYnlWRGc5emJuc1hmWTRtMkRiSlBscElranVWcHNQMVJwenNNVHQ2M0tmQlphbnliVUpTY0x3,Portuguese,,5,2014-04-07,Willian Ferreira,"",Muito bom!,,
Terminal Emulator for Android,Google Play,jackpal.androidterm,Z3A6QU9xcFRPRnh0VzhCdlVVMUh6WnV1UnVrQlAtRnJYMmpJV1ktX2tncFRpbkhJZENpMHk0bkpzQkpuMFZtN2VGSW5OWXB1WkNXUVFIeG9XcnUtYXFHZEcw,Portuguese,,5,2014-04-07,Hugo Thebas,Muito bom,Não tenho o que reclamar. Ótimo app.,,
Terminal Emulator for Android,Google Play,jackpal.androidterm,Z3A6QU9xcFRPR25iZ0ZfdUN0dnFINGx1RU9fd2V1ZGJIOVlLODZwaDE4NThMUWlOVllZeGtWdEJQQWdVdHl2UDVYemg3V215dk9QZkV2VnVpM0dxNVl2Xy1F,Portuguese,,5,2014-04-05,Rodrigo Luis Silva,Ótimo,"Nada melhor como um terminal para dar um ping e testar a conexão, kkk Perfeito",,
Terminal Emulator for Android,Google Play,jackpal.androidterm,Z3A6QU9xcFRPRkNzSExqYXgtNE1rdTQ2dXNHa29BOFhiVW9zRHNncHJraVhsajJjV2NQSjBKOGtINXBuRnZ3QkFIRkJqUFVtaTBlWnYxSW8yYlVuX04tdzZN,Portuguese,,5,2014-04-04,angelo costa,Maravilha,Dá pra sentir um gostinho do terminal do Linux!,,
Terminal Emulator for Android,Google Play,jackpal.androidterm,Z3A6QU9xcFRPRmlRWnA1WXJEdkJfajQ5WEQ3MEVoNzRDNjktcUVRQUx0RDZnN242Z2k4TmNHTXNPRTljY21jb1VkZnJ1bXF0dGhSV1NsSV9qaWFYM0RaWmk4,Portuguese,,5,2014-03-31,Wensley Oliveira,Exerce a função com maestria.,Útil para qualquer desenvolvedor Android ou usuário avançado.,,
Terminal Emulator for Android,Google Play,jackpal.androidterm,Z3A6QU9xcFRPR1MxUmM2SzR0WDdZQWYxOXltZlpNZGZST3BDLVIxc3phTkhlb3hfVVhpNGFlTFBLZFQ0R2dtX0NiQkRMOGNMWWd3UXg3RXlTc0dzR2FqSkY0,Russian,,5,2014-05-22,Егор Корешев,"",Pretty good for me,,
Terminal Emulator for Android,Google Play,jackpal.androidterm,Z3A6QU9xcFRPR0tFcUJsUXlfY0tVWUp6ZnV2MXZhVVAycTcwWUdYenN0eWVPUmtreVNYYUNnaU1FZnd1VlJBMnlKME5mQ2VhcFVfeFN1YUtSYWN2VU5yMUFB,Russian,,5,2014-05-18,Олег Козлов,Виндузятники читайте что такое bash,Прога гуд.,,
Terminal Emulator for Android,Google Play,jackpal.androidterm,Z3A6QU9xcFRPRTl3R0JRbmx6T1Q5aTR0ajRNYVlNZGFFNkZlc3RDZFdFcWNRdVFGNWJTMzUzbW1aVllqWnV5bk8yY1VTOE9DczFVSkZvbFRVVVZzRGc0Yk1z,Russian,,3,2014-05-15,иван иваннов,Прога норм но я не шарю),Я хорошо понимаю CMD в windows'е! А тут чтото не так...,,
Terminal Emulator for Android,Google Play,jackpal.androidterm,Z3A6QU9xcFRPRUMxbG5qaUhxUGEtUUdyc3pLd3NEUEpnN0lPR2pscVhsTmZacDVhVGk0Qm0zOTFPYlRGLW0tdW5KckNuX2dvWDVZVVA2R3dJUjRmWm5fb01J,Russian,,5,2014-05-12,Дмитрий Гнатюк,"",Супер,,
Terminal Emulator for Android,Google Play,jackpal.androidterm,Z3A6QU9xcFRPSEpGdlRKN0NrZzd3QU9KMlc5Q1FsZnlGU0E0djZ0dDJXREp1aWdUUG5NVkU5WjNPRlFXS3R4YWpZTmd5eVB1ZEVYU2NkY0VJLU9iZHlXQmxJ,Russian,,5,2014-05-11,Aleksey Maksimotchkin,Ok,Excellent,,
Terminal Emulator for Android,Google Play,jackpal.androidterm,Z3A6QU9xcFRPSHctaTZwRnpFYXBNUEFZQmotSVZsQ0RSWEgxcDdEd1hOTFk2Z1REenNkWnVTVE5uODVpOUxtNWw2b2FnbGptMnQzNXBzaWR4NlVzQmVvVnFZ,Russian,,5,2014-05-08,Sergey Green,"",Для тех кому это действительно нужно... 🚀🚀🚀👍👍👍,,
Terminal Emulator for Android,Google Play,jackpal.androidterm,Z3A6QU9xcFRPRnZIWERUV3hyeWY0b2lXUkp6VnVRVjBMY3ViWmhLek1wdUphc2VHb25mMS1VOFp4Z0JNWTdjdXdhRXl3SVZpVzVTSlpyeUpwaG5ZUTVHdkE4,Russian,,5,2014-05-07,Vitaliy Evil Devil,Полезно,Нормальная программа,,
Terminal Emulator for Android,Google Play,jackpal.androidterm,Z3A6QU9xcFRPR0FWZEV4N0VtWUNfbmJkUTR0cTlBUWJ5ZUprWkRxZkFxYmVJUFZGY2JxZnJUQlllX0dUVDdsTGZ2UjRHX01hMkZjRjFfNEQxRTJQRGR2NFk4,Russian,,5,2014-05-07,Xazar intro,"",То что искал! Спасибо,,
Terminal Emulator for Android,Google Play,jackpal.androidterm,Z3A6QU9xcFRPRUx0b3RlN1dKT3lySnJZRFg3TTlNcC1SQmJqcFYwX2EyMzFaVERVWVd2RHY1QzZvTm9TOThHOHFrVlhRRmhOSTRmRzVmN3hMUFdoeVlCVko0,Russian,,5,2014-05-05,Тамила Шамхалова,"","Работает, правда команды несколько отличаются от привычных.",,
Terminal Emulator for Android,Google Play,jackpal.androidterm,Z3A6QU9xcFRPSEhyVU96bFpOUnI5d0kyYkdFcUN5ajZtSVJsVy1HSXpMTUpmdFhJZ0MtdDdZMjlWWF9raDBBSHVrbmhpQmF0Mzk2RVlSYnp2d0dYZWI5MEw4,Russian,,3,2014-05-04,Lazer Bill,"",Норм приложение.,,
Terminal Emulator for Android,Google Play,jackpal.androidterm,Z3A6QU9xcFRPRlU1dmMxVzFNQ2hoakNTaThFcEQxNnBncXJNdE1BWWhKaERaYTlON2h2NmZWWUJQZFJubVBkTU1Ca3hmODd3R3VzX2FRcmxUak1nT1daYVE0,Russian,,5,2014-05-02,Дмитрий Каверзнев,Хорошо,Всегда помогает при действиях с рутом,,
Terminal Emulator for Android,Google Play,jackpal.androidterm,Z3A6QU9xcFRPSG5fUmUxeFNxX2pkMFdUeTVWdVFzWEpHYnZPYXBoVUJnVE1IVVZUMlNsako2QlNYbDFMQUhQSnZhX3BxZFF4Wml0MVV4UTVjUjk3RjhPYXFR,Russian,,3,2014-04-29,андрей полунин,"",Не работает вставка с текста с буфера,,
Terminal Emulator for Android,Google Play,jackpal.androidterm,Z3A6QU9xcFRPSG5kWUdRM2NsbGNpRWdFTkozckd6QVAtMTQtNEdYcEZ6aTF5ZFg0YjJWYW5jd0U3QWhMODl6Y1BfajNyZmg2MEhFUEQtTHRJX3F3SDFXX1dz,Russian,,5,2014-04-28,Виктор Чегодаев,Отличный терминал,"Для тех кто знает что это и умеет пользоваться, незаменимая вещь.",,
Terminal Emulator for Android,Google Play,jackpal.androidterm,Z3A6QU9xcFRPR2s1aWlseU5vNmdmbkJoUlNTV19GZms2WVhia2Y4a0ZXRGdYdVFXNk5sUXZDbXNXSVpZZDZxM0hlODlJU2VfX2Noc2FyYkdoWl84eEhOUDdJ,Russian,,5,2014-04-27,Владимир Карасев,"",Ставлю 5ку всё отлично просто и понятно. Philips xenium w3568,,
Terminal Emulator for Android,Google Play,jackpal.androidterm,Z3A6QU9xcFRPRVdvcEdtV1hmZ1drenptd0ZNcVZsMXBKaEZJMTVlNVdJMUk4RGx3RnFEN2RqVGplM2g3aEN5Y3k0SVp4YnBZdWh4YXVnLXJVS1MyUGRoUW5j,Russian,,1,2014-04-25,edmundo rodriges,говнище,команда free ни хера не работает,,
Terminal Emulator for Android,Google Play,jackpal.androidterm,bGc6QU9xcFRPRS0xbVF5cm5oTTJSTHl4bGlEQk9CWWtMN1dBRklUcGhGdGd1Ykd0YW4yeENjZklzUmVTbzl6WTd1ZFhqblYwU2RKYVdCYl9EdzZqejJwMDZF,Russian,,5,2014-04-22,Пользователь Google,СУПЕР,Харошая эмуляцыя всё ок,,
Terminal Emulator for Android,Google Play,jackpal.androidterm,Z3A6QU9xcFRPRVlXMmtJd0pmbDk1V1hoc085ZDJJYkQ1Z3ZkeHBETjJsdU5EMGpLVzdEbzdEWHY3cjFpWHJMNUtaZERzcXBUT0Q4QXhTQ3hvVGJ0N1VlQkNJ,Russian,,5,2014-04-19,REIF,"","Кто не знает как пользоваться, лучше вообще не ставьте, дабы потом не натворить чего не нароком.",,
Terminal Emulator for Android,Google Play,jackpal.androidterm,Z3A6QU9xcFRPRnlXSmdJcmgwTm0tMHdxR0czOW9WX3JnM0ZCU1pjR0t2MEtVa0ZocHA3c1J4UjVVN3pGa2NkeVU1a1ZfQ2dHdzczUDcxUDZNcHJXS1R3Y1Vz,Russian,,5,2014-04-15,Иван Иванов,Класс,"Очень хороший эмулятор терминала. А gcc пользоваца можно? И кто- то писал ( виндузятник видимо) что не понимает как пользоваться. Пользоватся надо так:  cd /mnt/sdcard, потом touch имя_файла.txt Это создает текстовый файл",,
Terminal Emulator for Android,Google Play,jackpal.androidterm,Z3A6QU9xcFRPR2N4cV8yX0dKVnBtWEFyclRHMENzVTNlNnJqWjlETWlUUVNXQmk3ZWdmdnVXNWd0b2UxVnhmZkFsZmNfUnd5WVRvLU9pMXBlZ3dhbkloMlE0,Russian,,5,2014-04-13,Vitaliy Tsukanov,"Спасибо большое,","Сделал бэкап efs,теперь можно ставить прошивки,надо еще один бекап с помощью Root Explorer,на всякий пожарный)))",,
Terminal Emulator for Android,Google Play,jackpal.androidterm,Z3A6QU9xcFRPSGZmQlZJWXBpc0ctVGdzWTlMWm5QbnVSbWpraHJSZHp0VGtaVURNTWpuMkJHUGNwcEtTanVGY0VlMjIxZE1keWtobjkxeTZxMHExSFJOZlA0,Russian,,5,2014-04-10,Nick Zhaworonkow,"",Лучший эмулятор.,,
Terminal Emulator for Android,Google Play,jackpal.androidterm,Z3A6QU9xcFRPR2UzNm5BREdYUHNnU3RzVmdGT2tSNEU5R20yU2lPNXFfb2pHdklJdVlPX2JvZWx6Q2VzVGJ5TXRsWFl2VXlGVG5LTXdSaWlQTURWXzBfMzhv,Russian,,5,2014-04-10,Михаил Юрчук,Спасибки,"Хорошое приложение,спасибо!",,
Terminal Emulator for Android,Google Play,jackpal.androidterm,Z3A6QU9xcFRPR05LRFA2a253SDBzZkZaZGxtQUY3ZlZSUUUxUC03ZXNPaXViellQSkY4UkZ4VTdCcTE0d3ZSUVZEQ0V3dG1kcHJsa2pRX3FmSHdyZGYwMGZn,Russian,,5,2014-04-05,Igor Miracle,Samsung galaxy star plus(gt s7262),Самый лучший cmd для андроид! This is excellent cmd for android!,,
Terminal Emulator for Android,Google Play,jackpal.androidterm,Z3A6QU9xcFRPSEk3bllFblVCUDZ2bXQ1c080Vk43ZUIySkJsbzh4NWlmZUN6eVZFNVZYZmczX1NBOFBXOWdWcUhheDFuYkJGWmEzZjVwcDZPOFY1ZlJrVndJ,Russian,,5,2014-04-03,Евгений Шаманов,Гуд,Вау,,
Terminal Emulator for Android,Google Play,jackpal.androidterm,Z3A6QU9xcFRPRlNFa2RnWV9jbXBaQXdUMFdoY2taUnZwY1AtY0thQ2dCc1ZYMVRsU21pVWhJMFpnVzRIdDhCckQxazByQmVEbmJnQXRDSXJLZmlUQkFKQm5n,Russian,,5,2014-04-02,Dima Ko,Cool,Respect,,
Terminal Emulator for Android,Google Play,jackpal.androidterm,Z3A6QU9xcFRPSGxoRW1KaXRmQ0pJRmFmZ1FmTlB3MjRWSDBjdndLN0p3RXIyV19GNGlWZGcyMTl2bVpMU19YeUd5LUtpQUlzajBmd2tvQmRyeDdlQWdJZ1BZ,Russian,,5,2014-03-31,Alex M,Good,But u should fix utf8 chars.,,
Terminal Emulator for Android,Google Play,jackpal.androidterm,Z3A6QU9xcFRPRVNCcFd5UDRhU2lveFhSUmczSWMyZGFwRWhweUpiV2ZPaWtRYTB2MjFiZjM5WE9DVDl0aDVqODNFRnI5RGhlNnJ0M1pYeU5qV3JMTHZjT3lR,Russian,,5,2014-03-31,Novgorodskay Nasty,"",Klass!!!!!!!))))),,
Terminal Emulator for Android,Google Play,jackpal.androidterm,Z3A6QU9xcFRPRjI4dE1VQjJIVWlYNVc4S2F5ZUpmOHNJLVp4dms4ZVZfQkZhY2tKWjVpMlV5VzNmaGc5a04wYkplOEpYNTM1UnFERWJQZmxzeFkwNnZ0OW5N,Russian,,5,2014-03-31,Archy Bald,"",Отличное приложение. Частенько пользуюсь!,,
Terminal Emulator for Android,Google Play,jackpal.androidterm,Z3A6QU9xcFRPR2NVN1h1bVRueVkwVmhZVzMwRDFNX0VSdmVHYmcwX21DdWtHRWNhQUpTQnNYLWpwLVFlMmNuM1phR2VZZkplLWl4S0k5ZHAtbUNGUEhvV2I0,Russian,,5,2014-03-31,Sergey Andreev,Отличное приложение!,А иногда и незаменимое!,,
Terminal Emulator for Android,Google Play,jackpal.androidterm,Z3A6QU9xcFRPRVNtb0VKcEg2Q2JOMk9HVl9xVTJuVzlCRW84bnVTalRHLVRRTlhyZXFnbTc4ZGlBSUJCVGkxTHZOdGVTZEpVNTJaS294cGZSQl9kNU5MQkRv,Russian,,5,2014-03-30,Oleg Kovalyov,"",Отличное приложение,,
Terminal Emulator for Android,Google Play,jackpal.androidterm,Z3A6QU9xcFRPRVRpZEtpUWR3NzhIZTRQdE5NSnJIaXRYUkIzSkE0N2lmaExKaWN1NDhjUEtUUFplZEszRU01SUN1UUhzbGs4Q1k2bi1YLWNVaUh2RGkzeGFB,Serbian,,5,2014-04-28,Slobodan Simić,"",Ako znate čemu služi onda vam i treba :-),,
Terminal Emulator for Android,Google Play,jackpal.androidterm,Z3A6QU9xcFRPRjVtN05FZGJmb3FwM21uMkRjZGhDZTBzY1Y2Ujl3cGJLdXFfMkllMEo0alNINHlEdmdPOGVHQlNxdkpCOTltV3pSY3VhSWFmMUlWOENvRmhv,Slovenian,,5,2014-04-12,Blaž Veber,Galaxy S2,Odlično.ini,,
Terminal Emulator for Android,Google Play,jackpal.androidterm,bGc6QU9xcFRPR2lacVNYd3RzQ2FWSFZsSDFJWXozQlNrR0ZBVHczdGU0cHpzMVBMVmtoMEd4MFlLRVVxQU5qQjctOHlMNDI3aXdjRUtrQS10NzU2aXFkSEFN,Spanish,,5,2014-05-22,Un usuario de Google,Buena,Excelente para quien sabe ocupar un app d esta clase,,
Terminal Emulator for Android,Google Play,jackpal.androidterm,bGc6QU9xcFRPRmlCeWZrTUJpX1YxX1ZLRUgxcWk5TXQta1VkUUFIVGV1c19Oa3R6cHUzcFMtd0ZSdWxZVlI1dnhIWWpWekVtazN1MFdQdGtpTmhiMW9HUzU0,Spanish,,5,2014-05-19,Un usuario de Google,Bueno,Como intalo recovery en lg p350 “ ayuda,,
Terminal Emulator for Android,Google Play,jackpal.androidterm,Z3A6QU9xcFRPRkpQQkNWUml6bWN6cWtMU1I1OUxJV3BoRS01a1VvYTByNkVhOTNfdHZQZnhqUzVEWHZfTmg4RW9xVFdLcUh2czhRMHJJWW4wQnVlT29oa0pV,Spanish,,1,2014-05-19,Ana Ferre Pla,"",No sirve,,
Terminal Emulator for Android,Google Play,jackpal.androidterm,Z3A6QU9xcFRPRkZobWNKVFFkVm13SHdNZE50cl83YUllVlptMXhMSThiaUdYZ3ZYYS00YXF2N3hLYXZCWmwtblBMcndxTEZOQXJ0dXhMRFlxNEtTdnM4dDVB,Spanish,,5,2014-05-18,leoman lemus,Bien,Bien,,
Terminal Emulator for Android,Google Play,jackpal.androidterm,Z3A6QU9xcFRPSEc5Zm5sRWVyd3FmalRvMVJuNHJodkhqcVlqQ0g2MDZYV3ZRVDNNVEZyTjdPZkRxeFpoYWhudnRCeFRxME4wMndCZGZIYXBDeHFlY1dfTllN,Spanish,,3,2014-05-18,Nicolas Zuñiga,Exelente app,Usenlo les va a sacar de apuro,,
Terminal Emulator for Android,Google Play,jackpal.androidterm,Z3A6QU9xcFRPRUw1S1FkT2o1Y0pnUDAzbkpLVUIzQm44N2l0UVhQdWFWeG03M2VYWTl4eTd3RnNLeFlYeEV1ejhxMFVyWS1IUXJhbnlDX1hEY001bDRZSmc4,Spanish,,3,2014-05-18,Marcos Ortiz,"",Los comandos no son como en windows,,
Terminal Emulator for Android,Google Play,jackpal.androidterm,Z3A6QU9xcFRPRmpwTVViSGVjSlY1Wl9RZnIzaXJZRjZqSmxmeTFSd0Zsa05JQlloNWViUExLc0JXQl9acXVqbGZ0ek1sTmRUbHNITGY3NDBPVEw0WGdTY3k4,Spanish,,5,2014-05-18,marilo barroso,Muy buena,Funciona muy bien y va perfecto gracias,,
Terminal Emulator for Android,Google Play,jackpal.androidterm,Z3A6QU9xcFRPRVJQZjVFY3BaQkRxS1F2Rmd2ZFRSUGJ6VzdRVFVUVVo0Y19NMUNnMnlBdlRQcjhCVnI5TEp4WUx1eThVbnJoNHJ6N0RNUlJwSjJUa1R0NTZj,Spanish,,5,2014-05-15,Jose Santiago Caamaño,"",Excelente. Incluso si no eres root. Solo para quienes saben usar un terminal,,
Terminal Emulator for Android,Google Play,jackpal.androidterm,Z3A6QU9xcFRPR2NlWFl2RnlUYzFHVUgyRU5HM29TM05NenVwdDRsZGJZV21SN0J3aG9VWXQzMnp5MlhiNlNiWUpUa1lxR29DdnhwLWdCWXJyRC1DRnNnbDMw,Spanish,,5,2014-05-15,Luis Salcido,Excelente,Te permite utilizar android con una memoria usb y una pc.,,
Terminal Emulator for Android,Google Play,jackpal.androidterm,Z3A6QU9xcFRPRS1DZTVyY1I5QkppME8wb0Z6eFJlUnVqYWM2OUNrTEo1Z3VCZUJhLTZwNnVXQm5KU1UwdVgwaV9HTHVxdnR3QTJzU3BJMTJ1QlZoMzBQOUdF,Spanish,,5,2014-05-14,Jose David Aguilar Salgado,terminal,"todo usuario OS necesita saber, conocer y dominar el lenguaje de su OS; independientemente de la plataforma que se use",,
Terminal Emulator for Android,Google Play,jackpal.androidterm,Z3A6QU9xcFRPR043WEZWOXVSQm9UM2V5Qi1oNDFQZTVkeWs3MmNHaTU0V21PM1lUNWZwSktyU3luM0hWckw3YVVrTHVPcVE0NklYOGdaWVVuMjZ5MXFVV0VV,Spanish,,5,2014-05-09,Rupel Ramos,"",It does the job.,,
Terminal Emulator for Android,Google Play,jackpal.androidterm,Z3A6QU9xcFRPRjhiaGh6WE9xMVlyQ0FiNUlWSjZrWGgzTHJXb3VfUkFqMEo0RVRWbS1Qa0M1Wlp4VW9NRFFGZjZJQlJyWjJ1WXM4d0FIZnlpZklSZ0VEbjcw,Spanish,,5,2014-05-08,Ana Laura Murillo,Ayuda,Me podrian desir como rootear my cell,,
Terminal Emulator for Android,Google Play,jackpal.androidterm,Z3A6QU9xcFRPRUFZZm9xa2xOeS1aT290TWI5SUhMN2w2c2pKZ1d5TjdFQll1SUJYQjJvVmZPNW91VW1tOEQ4cDBzY2haRUwySUQ0QnpqYjZDQlAxWXdRTVpB,Spanish,,5,2014-05-06,Pablo Ramírez,Perfecta,I like,,
Terminal Emulator for Android,Google Play,jackpal.androidterm,Z3A6QU9xcFRPR3ctckZMdGdTbVliUEQ2c2hnMWF2elNINzN4WFJOTzBhRXl2UUNGaUtTMTNUYmcyX0FNNUl5VVZDY25RZWJhZUJ6S2RvYV83akxPRExTV0dj,Spanish,,5,2014-05-06,Boadload rdz,"",Exelente,,
Terminal Emulator for Android,Google Play,jackpal.androidterm,Z3A6QU9xcFRPRm5wdkZaaUVZVEc1aUpTd2FfTjZEd0NXNmpSVHRGN2YzOHNtczJNLWlDdzFLb29GS2UtNHNsUjFSbXVuSHBRcDJIbnAzem1nVENKcWxKVlpZ,Spanish,,5,2014-05-05,Daniel Suilar,"",Muy bueno,,
Terminal Emulator for Android,Google Play,jackpal.androidterm,Z3A6QU9xcFRPRXprZEp6cDFzTGpfY0xDbkRvNG1fVEpCc3ZKRW9DeXBFMWhPODhzVnFVZWVBV2p6c3NFMEY1RGttbHN3R3UxcHdJLXlxcWN0YXFQVWl1RzZr,Spanish,,5,2014-04-30,José Luis Carrillo Ortiz,Siempre util,Necesario para todo cel,,
Terminal Emulator for Android,Google Play,jackpal.androidterm,Z3A6QU9xcFRPRkZPdW03bHRXVzhvbDRCZ2FJdGpWLVhjcHJJd09tX1RTeDROdGFXcHlXd3ZrQ05sOHJOczJMUTVmQ0VfM3JQZkd6NnluN0V3dDRDV056U1ZJ,Spanish,,5,2014-04-27,Eduardo Nava Sánchez,"",Muy bien,,
Terminal Emulator for Android,Google Play,jackpal.androidterm,Z3A6QU9xcFRPR05qa1VNZEpJdlNWenhOSF9ZNHphV3dKalhESDFaOEpEX1JESFFEbkIxWjdmaHVQejJIdk1QX0M4ZTZmcVRteDBvTmJzWmxtUGN5bFpZXzk4,Spanish,,4,2014-04-26,Mi 007,"",Como hago root de una aplicacion?,,
Terminal Emulator for Android,Google Play,jackpal.androidterm,Z3A6QU9xcFRPSEpaWXVRX2dZNjVzTk1xSzJvR2F4QVVIaERjeWZLZVVwWmoxRHBqazN5QmZ2WGR3U29lYWtpTlA3RWNFUGFzQktQUUxPVEU1VHZ1NFhVaEdF,Spanish,,1,2014-04-25,Javi Barre,No anda,Baje el juego mario bros y no lo abre. No sirve es pésimo emulador tampoco se puede jugar al pacman.   0 estrellas.,,
Terminal Emulator for Android,Google Play,jackpal.androidterm,Z3A6QU9xcFRPRWlfTFdveThFNWsyTnZtTmRYOE5IZ3ZFWi1VUzRSaFNCTDdIYUM5ZkxTenlwazFGeklTVm9MWVY5aFhQZzRMbzZSTF9UYVRxcDBwNl9LUndB,Spanish,,5,2014-04-24,Jesus Roman Fuentes Ruiz,La mejor App,"Puedes rootear tu Android, pero si no usas la terminal nunca seras Dios :)",,
Terminal Emulator for Android,Google Play,jackpal.androidterm,Z3A6QU9xcFRPRWZjSXFtdE0ybm40Zlc5TVlMWFU5LXN2Y3o4SUJBMUNBdW1IQlF2THFnU1ZQbTAxMHV1ekUxMVlqMjBRUzd3Y2tCeWVYN212U0dCSW52cVUw,Spanish,,5,2014-04-24,David Montes,Jeje,La P O jeje,,
Terminal Emulator for Android,Google Play,jackpal.androidterm,Z3A6QU9xcFRPSExkc0x6U0tJckFKV3RldGxqR1QxZnMta0lUZUJTSUh4NnkxNkpkNXRSRm8tSWhtRm5SSGRic0wxaU5lNHB0OURKTjR4UXd6TEVzS2EtZk1R,Spanish,,4,2014-04-24,PANCHO'S TUTORIALES,"",gran app,,
Terminal Emulator for Android,Google Play,jackpal.androidterm,bGc6QU9xcFRPRXhDM05qRS1feHV6MGJEaGJ1Vkh5LTltTEtqLW0ycXY4Wkl3elgzQ0ttbW1OUDNXT2RWTkNwenA5Q3dMbGVuLTZqbWtwRWxTdWhIdUNORVAw,Spanish,,5,2014-04-23,Un usuario de Google,Exelente,Exelente aplicasion,,
Terminal Emulator for Android,Google Play,jackpal.androidterm,Z3A6QU9xcFRPR01IcTdGUmlGbjdEa0l2clhZRFJfWDNCb3FqaEplNzRScnFEdUFuUUM4ZWFYMHdfUW1VTzJrLXBxZFJDdEREZzFsSW5wY3ZMejlldVVXSXVn,Spanish,,5,2014-04-19,Mr. Valentinho,Buena app,Sigan así buenísima la actualización,,
Terminal Emulator for Android,Google Play,jackpal.androidterm,Z3A6QU9xcFRPSGxhZVRUVHR3UEN4VU5XQ2JiaWZHd2xvYWdLalhpRlJkcnpQSnFEdlFrVzlMZUxPa192M3pic1NpU0VNb3NYei1kMVBmaHZYNVZTcmozTDlz,Spanish,,5,2014-04-15,"","",Que bronca los boludos que dicen saber y ser avanzados.pedorros,,
Terminal Emulator for Android,Google Play,jackpal.androidterm,Z3A6QU9xcFRPRmFDWFh4NUxiSG45S1BSUW84Qm9OdWpZRjBheVFNYzl4SGcwSFB0NnBnTlNVTVh6aFBqdFRCRlN4V0pvaGxPRFBkd1pjQlRYX0JxeWhFblFF,Spanish,,5,2014-04-15,Adi Iordache,Muy util,La uso mucho porques soy usuario avanzado y cambio el recovery muchas veces,,
Terminal Emulator for Android,Google Play,jackpal.androidterm,Z3A6QU9xcFRPSEQyYm43U2hlZktpTVRfb2plOVlGS2NhV3dUUXQ1MTAxak1uV1lPMHZBZU1JajZkTnlsWlloLVBsSkJGcUJVb0NnTXBicW56LUZUNVRBbERF,Spanish,,5,2014-04-14,Jorge Quiroga,Samsung S3 -,Muy buena app.,,
Terminal Emulator for Android,Google Play,jackpal.androidterm,Z3A6QU9xcFRPSG9sSlZXemJwdXRGdml4dnR1bE5XLXVmUkpxUHYwX1RZcFJsdWE1Y1JXWmZEVjJjbmR4V24wLVQyVmJSaTM3TEJDUWdJUWFmOVlHbTZ0S2hF,Spanish,,5,2014-04-14,Yosefh Mæ Pchan,No se como utilizarla,Alguien sabe si se puede hacer un comando de instalación de las aplicaciones directamente a la SD externa no quiero instalar nada en la memorio interna me lagea el dispositivo por eso hice roots en LG L7,,
Terminal Emulator for Android,Google Play,jackpal.androidterm,Z3A6QU9xcFRPR01yTEJmTnMyYWMtRWkta3FjbFdHcHRwcnRpUUI3SE1lekt3TVI0RDd2bG5jN2tIdEFrcExjcVZuS1JQT1g4ZVNJcmZkSXpNcWhrY0xCUUM0,Spanish,,5,2014-04-11,roguesco,supet,super,,
Terminal Emulator for Android,Google Play,jackpal.androidterm,Z3A6QU9xcFRPRWh2VnVxaHhsRDNWLWY1NUlPaE9TeTV3RmdwR0FObjhoNEQwX21RY19DaUVTZzdMWEdaVDFPZ25sbXJLbk1JTENsS29Na1BnajktRWxJSjgw,Spanish,,5,2014-04-11,Juanvi Hoyos,"",Útil,,
Terminal Emulator for Android,Google Play,jackpal.androidterm,Z3A6QU9xcFRPR1pQam42U0NRMkQ1elRZaTNvYjl1ekZCeGcxQjhnVlZreFZwN2E4SGFMbWJaM1NrbERjT09LdlQwMzhERnJNMVBOZ2FyTnBILUpJdGlHM1k4,Spanish,,5,2014-04-10,Tiziano Spagnuolo,Exelente,"Ayuda mucho, ya que sirve para escribir comandos fáciles en otras apps, pero si no funciona dicha app usas esta",,
Terminal Emulator for Android,Google Play,jackpal.androidterm,bGc6QU9xcFRPR2NOeVdSY0hDU1VYU2pZSWJqVXRRYTdzYjlpYlQ2Tmp6UnJmT3JIYmI5N3lZMy1obGdYZ0FLVmlpQjZuRFBrS0pPVHB4ZXpUeGw2U0MxYXRr,Spanish,,5,2014-04-09,Un usuario de Google,Huawei CM990,Muy buena consola esta muy buena la recomiendo al 100%,,
Terminal Emulator for Android,Google Play,jackpal.androidterm,Z3A6QU9xcFRPSFR3V1duYkhnQ0cwTmg0UHYyRVJiY0hiSUIzajFsWUM3dEJMTF9jc2FpcDd6YjZ2aUVaNDFPclcwYkxxOXNscUFHNG9jTkg5Nl9Ia0RNbnlJ,Spanish,,5,2014-04-09,Cesar Conde,"",Muy util,,
Terminal Emulator for Android,Google Play,jackpal.androidterm,Z3A6QU9xcFRPR1hOR2h0QW9SSFp0QzUxY3FMUV82RHNCRTVsR0JGTFZKMXZLOEI5QjVpQkxFQ3k4enlFWDQ1cjRhUVpxX05YNnBDRzUycDZNTVZPT0ZqU3Zn,Spanish,,5,2014-04-08,Nesty El Bandido,Melma,Me gisto,,
Terminal Emulator for Android,Google Play,jackpal.androidterm,Z3A6QU9xcFRPR21RWXkyUzNyeEdqSy1pZ1BzWGVTSXRMcnd6US1PMVk4dXYxaTJ5MWlNNlgtSUtqam9UeHJwN0ZmTWltRkNJVHA1Z3JVRWo0Wi1iaXgzRkdv,Spanish,,5,2014-04-06,Kriling Perez,No se usarla,Disculpen mi ignorancia pero para que sirve esta app yo desde que soy root la e descargado e  actualizado pero no encuentro su uso me podrian ayudar ?,,
Terminal Emulator for Android,Google Play,jackpal.androidterm,Z3A6QU9xcFRPRlU0cEVpVUlBc2xaeXo5NUtNajd3RVNLQ2VXd3k5d2VOX3JUUnlwVXdCV0ZfUWJiblJ6Wkd0QWlUX3pIOFhpbk02TENlQ3dOZUJxTVBRWE9B,Spanish,,5,2014-04-05,Duanel Garrido,"",Muy buena,,
Terminal Emulator for Android,Google Play,jackpal.androidterm,Z3A6QU9xcFRPSE9uVE5KTXhDdjNtTWFmeGgtMmltRWEzeThZTkIwMzJHQVJNTWU0NjgtMHZKVGpRM2w4LWItU1BIZTAzN0FDdXIwdjdmOHFlMXlFeFRyR004,Spanish,,5,2014-04-04,Enrique Barreto Ruiz,Muy útil,"",,
Terminal Emulator for Android,Google Play,jackpal.androidterm,Z3A6QU9xcFRPRjN4SGRFTmt0d05CX2xhQ0NSMkZhbnJsYzI0ZnZHVjlkV3pQbDRyRlNtRGM5RVZSVHRCXzlramZlQktRaTNzaXd2NS1hblBJc216NGVaTk5B,Spanish,,5,2014-04-03,Gonzalo Gonzalo,"",Excelente,,
Terminal Emulator for Android,Google Play,jackpal.androidterm,Z3A6QU9xcFRPRjhRM0RhUHRoVTl5OHVUaTRIZ2lzVG1Ba1FxMlh5M2QzX2dhZFZpNGs1YmJhV0J5LVdXbm1DdVREbGg3czZJb1FKY01WYlc4OUZjR3JRRDFj,Spanish,,5,2014-04-03,Baxh Adrek Omega,Excelente y sin errores,"La mejor terminal jamas creada, muy útil",,
Terminal Emulator for Android,Google Play,jackpal.androidterm,Z3A6QU9xcFRPSGlJcEdNc1VIc0JJenNDRS12bXR4U29PYS1lUUQ5ak9BNU5pdjZIdnF1MUltOXFxWjlqR3RCWktNeUxGeW9YZTdsdERHenAzLUppd3lIbTFz,Spanish,,5,2014-04-02,Sebastian Chavarria,Emm,Disen q es buena pero m rnseñan a usarla plsss esq no se q ay q acer,,
Terminal Emulator for Android,Google Play,jackpal.androidterm,Z3A6QU9xcFRPRjd6ay1ST1hJNS1MMldCTENpUnJJaERBNHdGX3VjWTNJcTZHVm02XzExeHpzT3NPYklrcnJOSDc3Smd4Z1IzcGlOOFd4SXFTS3pKOUVnUTlj,Spanish,,5,2014-04-02,Edwin Eduardo RM,Yeah,La mejor app para los que nos gusta sacarle el jugo a nuestros android root xD,,
Terminal Emulator for Android,Google Play,jackpal.androidterm,Z3A6QU9xcFRPRkhRSk43OXJhSnVIX3htZVpmRTVhaldJRXdBeTFKUU5aX3NjRDBVdnlIdWV1TTRVbGtmYUp5bzNrbWZ3VEUyZUJ6M25wLW1yYS1IR01VZGZR,Spanish,,5,2014-04-01,Angel Aires,Tres palabras...,Per fec to,,
Terminal Emulator for Android,Google Play,jackpal.androidterm,Z3A6QU9xcFRPRW5zSEpiVWhnUF96SDUycmNILWdOaHBpeGxHOFJZZkU4SzZjT2xDU3NCT1d5NXUyMzRVczY5cnczcTkxOHBPUmlvUDRPdW5SUmxRbG85YlNB,Spanish,,2,2014-03-31,Jeancarlo Luna Altazar,se me cierra,con esta ultima actualización se me cierra en mi samsung young,,
Terminal Emulator for Android,Google Play,jackpal.androidterm,Z3A6QU9xcFRPRlV6Wjc3cVhLVkRRajl1ZGlTZ1R3QTIxd0pxR29xc0t6dkxEWDN0bEJOeG4wWTRBYUNMOTRJMlhyeHduZ0JLcEdKZ05GbDFLN3hkYm56UEtv,Spanish,,5,2014-03-31,"","",U Must en toda regla.,,
Terminal Emulator for Android,Google Play,jackpal.androidterm,Z3A6QU9xcFRPRWVScGFUUHRnWjRrVXBpclg2WUtUT3BSRWM2dW9vSDVnSTRsNDZ0NF9SbnNzMFdUZEVQMGg5RktTdU5ya0pkOXNyd09NSG4yWkFCTjVzREo0,Spanish,,5,2014-03-31,Jesus Lobo Aranguez,Imprescindible,No puede faltar en un dispositivo android si quieres toquetear,,
Terminal Emulator for Android,Google Play,jackpal.androidterm,Z3A6QU9xcFRPRVRiWnZSQ2F6dVlrWGhUcWlLTkhkVGRxNjhpM1VTeXZ2bDY1OWZUTEduYW5neklWVVU4dEZzVjUwcUJlU1k2TGZMMXl2ZzN0TF9hTnpOY21V,Spanish,,5,2014-03-31,José Lorenzo Cameselle Escribano,"",Perfecta!!,,
Terminal Emulator for Android,Google Play,jackpal.androidterm,Z3A6QU9xcFRPR1A4M1RXckhtS1ZLOC0xVlFiV2l1Q1FEaWFFYTZybEJnUHNmSkVzblFTN3FtcmhlczVaQlNRb0JiMFUxbnFzWjlEWEFNLXZGTzM0dXY2THhV,Spanish,,5,2014-03-31,Javier Alonso,Buena,Imprescindible,,
Terminal Emulator for Android,Google Play,jackpal.androidterm,Z3A6QU9xcFRPRlV4ZmJZS2tEY0tOY3ZndnRfZ3ZhdHdSUGI1cEF5U0NSdEpNVzRZX3FDdUUzOFQ2STdEOVgteWNBWEM5RWRCRzRUWnVqYW92Rm5MWVpnWHZF,Spanish,,5,2014-03-30,Pepe Vázquez Fernández,"",Imprescindible.,,
Terminal Emulator for Android,Google Play,jackpal.androidterm,Z3A6QU9xcFRPRWtDcjFJc2YyRzBoTXBXcUx6RUpqeGpsMXRUT2JmVF9RVUlXYllmUGR5dzgxZGY2Ykd3OFBBMk5aQXpEUVJ2ZHZ6djFtOER4bjhIVE5zNF8w,Spanish,,4,2014-03-30,Adrián Patrón May,"",Muy buena,,
Terminal Emulator for Android,Google Play,jackpal.androidterm,Z3A6QU9xcFRPSFoxbDhWVUpPZUhuM3BiWUNkMzExQWZfaldOVTFxMC1BdUVNdWpjVmNiOC1pY09idmdDdVZMYnNHdEpGeXI3YVJhQ0pqUEJmLWw3ejdiMjZv,Thai,,3,2014-05-21,Aunyamanee Gunnog,"",ใช่ไงอ่ะ สอนมั้งดิ,,
Terminal Emulator for Android,Google Play,jackpal.androidterm,Z3A6QU9xcFRPRUVRQjE5ZjVVdXRsRnVLT2lFcmxQaGZkU3R0emQ3WndTV2dQQVRlVFA3Y2hoZlpXTW81bjlIWC1oSmQxUi1ldzJ2Rm80NVZtV2Z1UllHZTNj,Thai,,5,2014-05-18,Saharat phetprasert,"",ใช้ไงอะบอกผมมั่ง แอดมาบอกนะ mengza2543,,
Terminal Emulator for Android,Google Play,jackpal.androidterm,Z3A6QU9xcFRPRnA5Skd2TWxnZ3JXNHBZd0d2TkMya3F2QWNJU0V6cWhzTW81TTFrNEU1UWZPZGJmUFFaLV9NdlpGcUlPUVBud1h6TUFOTHRodnEwU2lGQkpn,Thai,,1,2014-05-03,GamerHomeTV GHTV,"",มันใช้ยังไง ใช้ไม่ได้ ถ้าใช้ได้แล้วเดียวให้ 5 ดาว,,
Terminal Emulator for Android,Google Play,jackpal.androidterm,Z3A6QU9xcFRPRk1oeGl2eElsZG5sRUFsY2hhZmxKZ2NWV0Zxa2dOWVk0VF9Ka1ZOR2YtTlUtQ1dxTnFKWllEeGNQSkppUHdwTzNNMG1XdkJZbGduWXkxZXdJ,Thai,,5,2014-04-27,เฮ้ย'ยยย เพชร,hacker ควรมีไว้!,ง๊ายง่าย ไม่จุกจิก แฮ็กเกอร์ก็ควรมีนะจ๊ะ ปล.คนที่ไม่่รู้คำสั่ง หาใน google ก้ได้ หรือใครใช้ linux ก้เอาคำสั่ง linux มาใช้เลย,,
Terminal Emulator for Android,Google Play,jackpal.androidterm,Z3A6QU9xcFRPSGMwQmltU2VKYmVUQnhfSXJ5bzE4V0NseVZMTGc3Nk1rUFZDYnhaSTY0YmozVmV3cXdoanRSZ3pyTFlhSm5Yek1kb1paLW96cHh3RHBYRzJN,Thai,,1,2014-04-27,Santio K.nim,ใช้ยังไง,งง,,
Terminal Emulator for Android,Google Play,jackpal.androidterm,Z3A6QU9xcFRPRUVVTzJyazJaSEduMDlyNlo5NzhMZ29lMFJkZXhJOGJiUzBKTktCdG5YdVkxc090cVRTUjVvY09lTHZ2OGNyYjExQjV5bGN2VjNGS1Q5QXIw,Thai,,5,2014-04-19,Damnern Chaimuangmoon,Berm,Nice,,
Terminal Emulator for Android,Google Play,jackpal.androidterm,Z3A6QU9xcFRPRnYzM25iZkpCLTdueG8wVFd5RGZCYm15cmU0a29YYmI4c3Q2SFJESzllNnBsUzRONWdoajNXQ0dtUUVWNmdQbGhMVE9YUnk0ZG1zVUNXNHhJ,Thai,,5,2014-04-13,whan yungbin,good,good,,
Terminal Emulator for Android,Google Play,jackpal.androidterm,Z3A6QU9xcFRPRVNpczNhY1hNaExpZjc0VjI1WkdCeTlNU0tLYjhPRFUzN253THR1dFFzTkFxVmNuWmw4MHNyM1NqczJGMDVadDF2ZmwxZ1dFZlliUnNCM0FR,Thai,,5,2014-04-12,Pasit Wangjareonying,Pasit,Good app for hack,,
Terminal Emulator for Android,Google Play,jackpal.androidterm,Z3A6QU9xcFRPRmc0TTdKWkR0Y2FtRWVjRDJXU3o4SzhzOFRjUjFZSld4QnEyWUY5a0NhbXRLUWFzOW93MTdKYUJFRVFuRHl1OVZ3LVk1TFRCMHM3UXV4SC1F,Thai,,2,2014-04-06,รมย์ชลี บุญมี,"",ช้า,,
Terminal Emulator for Android,Google Play,jackpal.androidterm,Z3A6QU9xcFRPSHdSWmNYWXRhNTg3cUVMaGxyZzNyRDN6R0dmbks0ZXgxQ2gyUVlnQmNIV2FsY0JHTV80bGNxWjk1TUo1ODZudnJoVmt0SG14NUVWWGkyNVBV,Thai,,5,2014-04-01,ปีเตอร์ ครับ,.,ใช้ยังไงบอกหน่อยครับ,,
Terminal Emulator for Android,Google Play,jackpal.androidterm,Z3A6QU9xcFRPSHJndXZLdHBQNndmT1VXeDlhOEstQWVPa1F6aE5FUTJkUkdfb04xeTdVSG5pOUV5SDhnUVhBdGdINGlXaFFhRzcxMVZkbVRFZm5SQ01TdTdV,Turkish,,1,2014-05-17,Enes Güven,Yetersiz,"Baska yerden aldigimiz kodları yapistiramiyoruz cok yetersiz ugras,dur.",,
Terminal Emulator for Android,Google Play,jackpal.androidterm,Z3A6QU9xcFRPSFNGbTZKeGZiTlNMd005QlJHT3J2NGpKTVI2Z3pYalRDcmNGUER3RDR0LTR2ckpjMUhLS3ZUTV9QdEY2UW51U0hZSmVJM01HYml0OS1aRTdV,Turkish,,1,2014-05-11,Fatih ÖZ,"",Copy but don't paste,,
Terminal Emulator for Android,Google Play,jackpal.androidterm,Z3A6QU9xcFRPRTRDZUhvX2xGeTRaQU5oR3NkWmVnRWJ1UExOTkdoVkFpUEEwMTdQYVI2c2JtM3FLZEMxbklieG1uam81NkhQc1dZWFFESS04dVQwcXZvbzRR,Turkish,,5,2014-04-16,Halil AYTAN,.,amg herkes komutlari soruyo Yazilimci degilseniz komutlardan bisey anlayamazsiniz,,
Terminal Emulator for Android,Google Play,jackpal.androidterm,Z3A6QU9xcFRPRjA0Z09PMGRUYXJianN2dEVOT25FcmROa0dZeVZhdjhrcEQ5T1dNSXNTUUwtOVRVcmJEWDRaX3cwVVpaLWJvS2VjNG12cWxCVXBnNTNqbGxB,Turkish,,4,2014-04-08,umut uzun,"",Arkadaşlar komutlar neler nerden buluruz,,
Terminal Emulator for Android,Google Play,jackpal.androidterm,Z3A6QU9xcFRPRW93aFVlN0dmQUVpczhMU0RfVXR2YV9admxURnJDbmU5NFJLNlFGdVk2UEtPUjdVUmtZVTZ3Ny1fME1BWXkxN2ZMY2QtcnFFNXZjMVdJQnBZ,Turkish,,5,2014-04-04,Blacel,Su,SuperUser yetkisini adam akilli alabilen tek terminal Helal!,,
Terminal Emulator for Android,Google Play,jackpal.androidterm,Z3A6QU9xcFRPR04yYWEtaFdPRXpnTUg2ZXJmSV9QUHVxV29GREdUaFRJeGlrbDdjaEt5WHlBWWlDT2RyOWNYMU5RRGpBN25kY21pbjZXLWtja3JpZXEzR3FN,Turkish,,1,2014-03-30,Kuzen Gaming123,Emeg gecen herkese hlal,Hackleme işlemlerimi bile buradan hallediyorum ms dos gibi helal,,
Terminal Emulator for Android,Google Play,jackpal.androidterm,bGc6QU9xcFRPRXZ2YmRSSUh5S2lYa1VvdWkxaFVJVWNBNGF3UFlBUnlISVRGTVRmdTdVbExtV1hsS1JBRlVOaUd6Z0hoWXNzLUpSdHEwYTUxZHRQOWl0Ukkw,Vietnamese,,5,2014-05-17,Người dùng Google,Hay,Hay,,
Terminal Emulator for Android,Google Play,jackpal.androidterm,Z3A6QU9xcFRPSGVTY2llc1FFSzdKMWwzS0thZ24yMXJHY3NnSEZ4SFlOOVh4cS1kYUZZOVBsUVNENDUzN2VNT0haSXlSS0c2MTRZRzE2dWpxc0Fpb3o0SWR3,Vietnamese,,4,2014-05-10,le trang,"","N N. N K xn b.,    m",,
Terminal Emulator for Android,Google Play,jackpal.androidterm,Z3A6QU9xcFRPR3ptTHUwWDRtUzF6NGRrbHo1WXpOdEJPOE85NzBvdzdZdTZYc2x5a2xraURCaE9RTkc3MTZIdi1KUjcyRXc4cXRZVTRXZUVmR3VGeFZaMTV3,Vietnamese,,5,2014-04-26,khiem bui,Good,Ngon,,
Terminal Emulator for Android,Google Play,jackpal.androidterm,Z3A6QU9xcFRPR2tEcjBEWXpiWm1vMTF6VUM0NVoyOUpNNldsbFIzYlN5QmY5X0ZRaGJaTFBKVElNc2JKNzZIZ2FadnkzTkkwcDliNk84elNXanc0clRiQ3BR,Vietnamese,,4,2014-04-25,quang nguyen duy,"",Cai nay dung sao vay moi nguoi,,
Terminal Emulator for Android,Google Play,jackpal.androidterm,Z3A6QU9xcFRPSEFTSHBOOVNWMXpaOUdRaHRRRElreWNuRnNyRTFqUDNwNWJiVjRHc3F4Uk5WZkk1bDZZVXlJdTZWV1daR1lRZnBRREFPRlNLdEhYcjA0cS0w,Vietnamese,,4,2014-04-20,Datdat Nguyen,"",Chua bt co dug dc kg,,
Terminal Emulator for Android,Google Play,jackpal.androidterm,Z3A6QU9xcFRPRzBHRDlkcFRVNGEwMEhmRzZDY1RCVnVTR0xjczJnRy15Q21jMzZLN01aZGVvVWV0TXlOTGJseE1iT09welhHVXpTSERrdmJuTFJZWVN3dG1r,Vietnamese,,3,2014-04-18,ai aiyeu,"",Tam duoc,,
