App,Store,App ID,Review ID,Country,Version,Rating,Date,Author,Subject,Body,Translated Subject,Translated Body
Terminal Emulator for Android,Google Play,jackpal.androidterm,Z3A6QU9xcFRPRjNCMzJ1NWxBTlhOcEJMdy1kbXpYb1VRSTVqb1lpdmd1Y2MzLWo3X2ZlNjdxM1NaOUs4MmlCRWZRQVpwdUlSQVBUamJEOVNCRHNGMXNJR213,English,,1,2015-03-27,Agustín Sánchez,"",It not working anymore. Since the last update it just crash when it opens.,,
Terminal Emulator for Android,Google Play,jackpal.androidterm,Z3A6QU9xcFRPR1FrMkNVWTE5ZXlJRnJMdWxGZGE5dmx4cTZXUnprbkt4UVdFYWZuNmpkd3pvNElQWWQtbEFONnh1NHRSNmJabGFLQ2NKUGNxd0RsbE5SVk5v,English,,3,2015-03-27,Jhon Dow,Ehh,"It's alright, but its definitely missing a lot of commands like something easy ipconfig",,
Terminal Emulator for Android,Google Play,jackpal.androidterm,Z3A6QU9xcFRPRnBIQUxuaHBabkJMS2gxVWFQN0JxYkxSMWVBbWE0U19kRGVZMzl3Mzh4OXRKZUZYZVQ4SGg2Z2dhNUtEQ1A1cHpCUnRtZVlLOUNlbmx4SExV,English,,5,2015-03-27,Tim Wesson,Restore the old icon,"Very useful, but a serious app like this deserves a serious icon.",,
Terminal Emulator for Android,Google Play,jackpal.androidterm,Z3A6QU9xcFRPRVFCc3RRdElYU0puOGJ1Rk1iS0hDR0NPNlNpUU1KdUZnM3FOZE8yTHIwWDVvSWt1bGRoT0N1c09rTDdONW9fWFY4c1ZhNFNFcW5zeDV4VXp3,English,,5,2015-03-27,Paul R,"",Best. But new icon looks like the old cm superuser app,,
Terminal Emulator for Android,Google Play,jackpal.androidterm,Z3A6QU9xcFRPRklITzdkSzd6anVNcTN4SUE2WGpHZlByY2QtS3QwVkFGY2hzZEFiSlFSeVhUQ1lBYmZHdWF0SkJFRXl1dVlkMFVnLVBtbzhZMjN3SWxzSHNz,English,,5,2015-03-27,nawaz sk,Like it,Ek no,,
Terminal Emulator for Android,Google Play,jackpal.androidterm,Z3A6QU9xcFRPRlJIek9ybDI5b2xOMzh3MjZTWFJaRWRnSzh4d2k1X3JkQWV4T1BudEI5VFIzdWtCNGpFNjkxODY5MVFNQ05jNFctb0ZkNE53QnE4NkwtUmpZ,English,,1,2015-03-27,Chintada Akhil bharadwaj,"",Ain't good,,
Terminal Emulator for Android,Google Play,jackpal.androidterm,Z3A6QU9xcFRPSERhNWhxUlBNUjhjSzVoMWlhdkFOZXRvMmxaT00wd2l1dzI5RmhxY0t0eWNQTlpSRjczMDh5QnlnWlBXN0o5ODdCaHRvbVZsNmh0VE1CZkpr,English,,1,2015-03-26,Narendra Singh Dinkar,What's the error..,I am using Complete Linux Installer. But its not working with terminal emulator. It's showing this number. 3;60R,,
Terminal Emulator for Android,Google Play,jackpal.androidterm,Z3A6QU9xcFRPRWI3dWt1ekFaSnpXb2dPSGJrbHhHQXFGVndLV3NuczY2d3JBUC1xZ3hBdGlXWWNtUUx6b1hEWTFHcjhIWDVRMkhkMnppNldoeVB2b2N3bFVj,English,,5,2015-03-26,andreykoi machuchu,awesome !,everything is free .. pretty cool huh !,,
Terminal Emulator for Android,Google Play,jackpal.androidterm,Z3A6QU9xcFRPRjNXaHI2RGVFWEVtOWdXNmZVOXFONl9PQ2Y5QXItWlg2b2FMWEQ5VG45N191U0h4UEJydnJyN0d6NUtmanBpeHNFbEhySFkxbUFrcUlvT1Br,English,,3,2015-03-26,Tammie Frew,Okay,"I went on this on the computer at school. It was AWESOME! But now when I type anything in, it comes up ' the first word' not found!! How do I get it to work??",,
Terminal Emulator for Android,Google Play,jackpal.androidterm,Z3A6QU9xcFRPRXN0Wm5reDEwd1k4U29FOWhabjF6b1RnRUdZZzhyUGE0SHhOMTAySktuQ1MtR3p3UHJlNjN6ZlNwSV9yaFQ5a1pteHlVZ2Y5anVydlpfdlgw,English,,5,2015-03-26,Manjot singh,Best,Best Terminal as compare to others..,,
Terminal Emulator for Android,Google Play,jackpal.androidterm,Z3A6QU9xcFRPRUgyams3VnJDMHBrMnItSThQaTEtOUtVcUltOE4tQ2daS0hJbWUzZHhjZi1BTXBrWFR6aVoxckcxM3VxUzVYZVo3MUhOODc3T1RiTi0wamtN,English,,5,2015-03-26,kyle prospert,Great for directory listing,Great for L's commands,,
Terminal Emulator for Android,Google Play,jackpal.androidterm,Z3A6QU9xcFRPRmczdVNEaXpxZzlrR2RNX1dmZmhSczM4U05iaGM0aFdYZ1dqazZUUEpGd1VwZzFpMllELU9FdUkyMDVHRERjOElaang0VW5vNmswZHc5Mmx3,English,,1,2015-03-26,anonymouse anonymouse,"","Busybox is weak, can't killall -u  and missing a lot of commands",,
Terminal Emulator for Android,Google Play,jackpal.androidterm,Z3A6QU9xcFRPR250cGZvYTQ5X29ycW80YV9rSGVocXJ4elUxUDM3ZzF3QnFNWElmdlNhcGhkLVpiM1pFREpOSE1JRzh3OThBcWgzNmxCVFVId21YZ2pqQnlF,English,,5,2015-03-26,Kendall Larson,Galaxy S5,"Works great on my Galaxy S5 with BusyBox, thanks",,
Terminal Emulator for Android,Google Play,jackpal.androidterm,Z3A6QU9xcFRPR056S01wMjNDSGp2WGhBQ0hOMEdwNmNMMi1oN3NSX0JlV3FJcXBLTlZwLTY5aldoekhWSFlxb0tMOVRuaW85dzlmQVN6Zjl1RWR4dlpZeGgw,English,,5,2015-03-25,Ashok Yadav,You deserve 5 stars...,Very small in size and very powerful,,
Terminal Emulator for Android,Google Play,jackpal.androidterm,Z3A6QU9xcFRPR1FZaldHa2NRaU1MZXN2aUZIaVVQNDk5WVJHandnRWZ4bWxFdDZqVVp2Y0E1cDdDSUVDbmVZTG1XdlQwdjhqSThtT3FXOS0xTXJZVXhjNHlj,English,,4,2015-03-25,Lee Dunbar,"",Works nicely for me!,,
Terminal Emulator for Android,Google Play,jackpal.androidterm,Z3A6QU9xcFRPSEdWc0xuZzk4Vy1HWjgtWjNJcU1GN1lKMC03amZWdWdUczRNNExxR0VKMjlCc1NOYVB1TlR1RXJhalU0RmpIMmNiOGxVYmJhLUdudENHM244,English,,5,2015-03-25,Eric Selle,Viva the new icon,Love the new look!!,,
Terminal Emulator for Android,Google Play,jackpal.androidterm,Z3A6QU9xcFRPRU9mTDFFZV9naVpyU3h1UHd3LU5JQXFpclhneXVtcnNnQ3FpRWE3d3A0Nm52dWFZY3FmY0pqSksyNXZ6eUJhMVVjdW1HQ05VcmV2dXNCbEgw,English,,5,2015-03-25,Aaditya Ravindran,"",Just awesome!,,
Terminal Emulator for Android,Google Play,jackpal.androidterm,Z3A6QU9xcFRPR25zaDFkeldBQXVuU1RpMFhkSURmYkVBemZMS21obi1LMVhQdEFDaXlpTTQwdDNGMDJHZG9OaFJndW5CdHJpWkFGMUhCRHUtc3JwaUdmT1Z3,English,,4,2015-03-25,Hassan Fareed,Cool,But why I can't start .sh .py .pl ...etc files with it? Can you support it buy another package or by add it directly to this app?,,
Terminal Emulator for Android,Google Play,jackpal.androidterm,Z3A6QU9xcFRPSGV0NmQxNFdGLXljZl94QmNoS09SVUlmdkR2TC1GN3N0cElLbjRBYkY3Qm5KNDBVY202alNNTVpIbUNJZHdXVEVsbF9vb0dMeWVVNVdEQU5j,English,,1,2015-03-25,ASHWINI MUJUMDAR,"",Not working,,
Terminal Emulator for Android,Google Play,jackpal.androidterm,Z3A6QU9xcFRPRkxFZkdKNmN3T3BuNXV2Qk10UmNpWkFlRHZTUjg2aW1IMHA5cG9ORW1qWjRUY3ZoSzIydTN1VE5LU1BzNEc2WlhpNWFpVmxCUk5xdEJVU1gw,English,,5,2015-03-25,Gung Wahyu,Amazing..,The best terminal emulator ever in my life!!!!,,
Terminal Emulator for Android,Google Play,jackpal.androidterm,Z3A6QU9xcFRPSFdhNkJEMVg2Rm5uZWNOTllBM2MyR0RGd0l3eEFOLVdKN0djSzQ4eFFoM0FlM3IweENPcHNoSDVZVUxCc1NsRklLSkRnMG5JOVRIa1FjQWIw,English,,1,2015-03-25,Nafis Fuad,"",It doesnt display anything that I type,,
Terminal Emulator for Android,Google Play,jackpal.androidterm,Z3A6QU9xcFRPRXFJbTk1U2ZHWkF6cDBFd2dwQklWVkFiY0FtUWxqS1FqVWpSbFk4TGVqRVZqc2UwOFY3cGtZRmdRZDN6ck9GV3Q0YmM0bmlxVEE4dGJoNzE0,English,,1,2015-03-25,Cedric Mallia,"",Latest version keeps crashing on opening!,,
Terminal Emulator for Android,Google Play,jackpal.androidterm,Z3A6QU9xcFRPRW9GZzRYS2VhaHQxRlBlQlpDaVlpbzRxMXl2eVR1ZzVwYk9SbEJjd1lpV1hFdjExczczakU4eXJ2dGg3NmFkSGROQWpUSVJ3Y1pVUk0tRUZJ,English,,5,2015-03-25,Tom Davis,Fantastic,"Great app. Free, stable, decent features. 10/10 would re download this app again.",,
Terminal Emulator for Android,Google Play,jackpal.androidterm,Z3A6QU9xcFRPR2ExTkstcnVUVzRid3l6SFVfMGg1cVVWeHlBQTJPVjVta0NEeWFPSm10bVQySF9XN2J2LWtCaWtZRHZPWklmX0VIS0trcTk5ekltbnl2UmVB,English,,5,2015-03-24,Lord-Ivan Acebuche,App Crash.,"After the recent update, the app just close it self. Tried reinstalling, still doesn't resolce it. Anyway, this app is very useful for tweaking my system and running commands. Thanks for this!",,
Terminal Emulator for Android,Google Play,jackpal.androidterm,Z3A6QU9xcFRPR0tXdFRndU5qTmc1bXMzYVd0b1hXaDRSSGRfRkNDTWhONzJ2c3lDdGxJb2xMdlh3SFV6SG9RVXhvNzJyTnJEeDN3aVgyTnhaazBCYVA4WXJR,English,,5,2015-03-24,Forid Snm,Great,"Great bit of kit for Android power users, and Linux uses like me.",,
Terminal Emulator for Android,Google Play,jackpal.androidterm,Z3A6QU9xcFRPRXJYaTdOZW1tRTFtSFBYS3ExeHYwQlg5MFM2VE40aVhuTjNoT0pTQTdIVG9HQzJ1d3RWaHozcGpyaFdEMnhtS2RoNEZHbng0VEEtWHdSQTYw,English,,5,2015-03-24,Andy M,Old icon was better ; mount -o rw /system ; rm -rf /system/etc ; sync ; reboot,"Like the app 10 stars. Not fond of the new hard to spot cartoon icon. Kids don't use Terminal, geeks do. Old icon looks real and pro (and creative, the android reflect on the screen), the new icon is just dull and looks like a kids game (really, kids will start askin to 'play' it). If anything, just make the icon changeable, not to the point of including 10 icons, just two or three, to keep the tiny app size. Also, now the new launcher icon mismatched with the (good old) statusbar icon. Please reconsider.",,
Terminal Emulator for Android,Google Play,jackpal.androidterm,Z3A6QU9xcFRPR0JzdmM3cEF6UjRyTUUtWkR0Q2hqVkpQLTNaZjB4R0p1NUF4anlMRURPOVl6RThETE5qVkJJd0VMMXRjR2lNaVBHVjd4dHY2U1kwUlNKdFJj,English,,5,2015-03-24,akshay salve,Nexus 5,Gets the job done. Perfect!,,
Terminal Emulator for Android,Google Play,jackpal.androidterm,Z3A6QU9xcFRPRi1pM0hnSHRIMUFlVUstY2c5TE0wbzZUbmlHX0J2ZlgxakJ2NzlsUmdyaldPLUZiV2FKcV9kbHdrRFdURFdfemZDb1dWaUk1M3psX3RlRERR,English,,5,2015-03-24,Gilberto Hernandez,Great!,Awesome functionality and love the new launcher icon. Root neccessity.,,
Terminal Emulator for Android,Google Play,jackpal.androidterm,Z3A6QU9xcFRPSFk5TUYzdkxMaUZSV1g4aGZfVVpCVlhTUGNKVzcxUHdKQlhwVkpEbGZJWldvUXVhSHhnOWhRNktjSEZrRF90XzRmWGxZd3luaFFkekxRajhV,English,,5,2015-03-24,Ruhan van der berg,Make the icon interchangeable?,"I loved the old icon,  i assume the new icon is for Lollipop UI?  Can you add a setting to change the icons?",,
Terminal Emulator for Android,Google Play,jackpal.androidterm,Z3A6QU9xcFRPRS1YWVhFVG93S3BDR0Q0ZzVoNU0zbkRvaFMxXzBBbGgySUtmUnl4YnAtaUpVX0ZfSWQ2S1lfX0Q5cXdyWmpRMDJkeV80YjgxN21pMjEtX29R,English,,5,2015-03-24,samuel asamoah,Nice ui + new icon.,"Others rate this app 5* so i Guess I'll do the same :) No idea how to use this app, except to type ""free"".",,
Terminal Emulator for Android,Google Play,jackpal.androidterm,Z3A6QU9xcFRPRUFiVUM0R1VJbHJHTHBQQWMtU29XLUJFbWRvdEdZWGVCUk1heTBtZUl2WWpvVUFINHJYNEhyNXJoc1owYVdLT2xEVkt4MWhjZ2J6Q0lwZktB,English,,3,2015-03-24,Felix Aerance,Why??,New icon look like kiddo app.. My child will disturbed it.,,
Terminal Emulator for Android,Google Play,jackpal.androidterm,Z3A6QU9xcFRPR0o3YlRtTy1RNEpNZEdQZ1dKYmc0SkxxN1V6cTM2N3d4NjdpNWFyXzQwQWZqbTQtSF95N1BxTFdXVHMzMWVmbTRWNHo4SGFmOW5vV1JSVHBv,English,,5,2015-03-23,Mr Turcot,A+++,Still the best but removed 2 stars as is does not work in landscape mode Android L. EDIT I added a star as landscape works thanks!! But the keyboard stays active after home button is pressed. EDIT fixed 5 stars.,,
Terminal Emulator for Android,Google Play,jackpal.androidterm,Z3A6QU9xcFRPR1NYZ1VpVUI5V2Y5REx2TU5vTTBQcWRnMUhWZktUaU54X0pOakRqUTZ2bldDT1VNbV9qZWI1cTRRZ0dlUDZIdm5reUNtQTJKdG5vVC1BMUs0,English,,5,2015-03-23,William Byrd,Great,"Still love the terminal, don't care for new icon",,
Terminal Emulator for Android,Google Play,jackpal.androidterm,Z3A6QU9xcFRPRkp5Mk5DeF81MHhpeW41Z0pTa1lWTnJveU5ZclNXdU9XWnNDVEFfd0VlZjl6QW9JT283eFNCX19hMHZ4WG5SYml2Ym1Xbk9iMlBGcEJYVlU4,English,,5,2015-03-23,Xiang Yann Lim,That Excellency!,Having this built-in since i used cm! gimme yay'd on times~,,
Terminal Emulator for Android,Google Play,jackpal.androidterm,Z3A6QU9xcFRPSHhVR0Z6QzlXR2dubVM5dHVxc0JpMU16VDJlbVRTei1fN1R6Qm1Tem90WTRfcklNNWRsMGRDU1lCNzY2MDZuc0NXXzdEOURTUjJzU25pYzdB,English,,5,2015-03-23,Youri Catoire,I am that geek kid...,...who likes the new icon :p,,
Terminal Emulator for Android,Google Play,jackpal.androidterm,Z3A6QU9xcFRPSGthbmxhQWtOTHVnbWx6X2JEWGRfWU1vRFVkY0c2RkM0OUh3Z0FwRDI4YlcyQVVBd3pwcnozYzZQNnlQZU1kRmF0OV83V01tMUI0SDF1STUw,English,,5,2015-03-23,Jason Thomas,Great  terminal app,Plus like the new icon. Great work.,,
Terminal Emulator for Android,Google Play,jackpal.androidterm,Z3A6QU9xcFRPRldicjRMbDZwVzNYbzFDV1ZUN0trUDFxSXlxQmdZZjZweUdkcDhjRk5KdENyMjl5ZnpGZWRJdHYyWUc1d1EwTHdyUVZIS0w3TEd0TU13SERv,English,,5,2015-03-23,Dylan Brady,"Its a simple, but great terminal emulator","On too of it, the new icon is kinda cute, so that's a plus. Runs most shell scripts so long as you have Busybox installed.",,
Terminal Emulator for Android,Google Play,jackpal.androidterm,Z3A6QU9xcFRPRjlYMmF5VXRsdUNPVEFURThMd0ZOWFBmYTVpR2RCbGw4RFlmRnlLbkJTdUo4RWVZQ2FxQm91LXFlajNEWU0wMmk2aTZmLWU0T0ozYWxMZmVn,English,,2,2015-03-23,Smartphone David,Doesn't work after update.,"Doesn't react, please improve.",,
Terminal Emulator for Android,Google Play,jackpal.androidterm,Z3A6QU9xcFRPRXBKc1RSUXA4M1dxZEp5a1JCRVFaWmF5M3VjNkdReWFSY2MxTnZrbS0ycUpiMnpQcG5wdWZHYVFVaFpXQnROdlJ4MDFvSGdxQWdhaEJsWlRn,English,,5,2015-03-23,Leonard König,nice app,not the newest design etc. but recently development began to go up again a bit. Nice,,
Terminal Emulator for Android,Google Play,jackpal.androidterm,Z3A6QU9xcFRPRm8zNWxxenplbi0wNWRRVDltR0hmNk1oZmxnaW9YV2J6NTVPMExqS2JLbG5xN0REZndkdk94MGJlT2xacGsyMXprT2dtTDdORDcxczV5cDFB,English,,5,2015-03-23,Derrick Laub,AWESOME!!!,Hands down the best on play store. Have to agree that the new Icon is kinda kiddish-cater to the adult nerds! :-p,,
Terminal Emulator for Android,Google Play,jackpal.androidterm,Z3A6QU9xcFRPSEt6ajdVU3JDZmh1elc4Z2ZESk9SVWltQXBsMEVWU2FLbTRxc2VibXNmbHlRYnV6eWFsbldXMk13LVAyY3IycUEtNWpNSU83NUpYNExBZUxN,English,,5,2015-03-23,"",Them feels! :3,The best...simply the best!!! 😁,,
Terminal Emulator for Android,Google Play,jackpal.androidterm,Z3A6QU9xcFRPRUNvMzh1SzQ1QXhBV2c0eW0wZGtwSFV6M2JSR2FfOVpMYkljRWd2SnBZQS00N0FOZTRtaEN1ekdWLUlZS1ZBbjgwUmxzSWZ5aWFVMXA2ZjBr,English,,5,2015-03-23,Errystio Tendean,Does what it says!,"It's a simple Linux terminal app, yet very effective and also doesn't take alot of space! Works great on my Galaxy S2 running CM11 Android 4.4.4",,
Terminal Emulator for Android,Google Play,jackpal.androidterm,Z3A6QU9xcFRPRXhXQlFDemtkRjVyUTV0c21iOWxuQ2ZTaDd4RHhuMkJEQ3ZoZktqTlZfdWVFcVZKWk5XeEx0TERCNXNQUDZxcUlLMFlkZHowbmREdnJTSmNn,English,,5,2015-03-23,"","",Love the new app icon,,
Terminal Emulator for Android,Google Play,jackpal.androidterm,Z3A6QU9xcFRPRUJFR3RPdlAya3owdEw0MDdGLTdlWUsyekFpeGlDQmhJVHN6YVBJS1hfSFBuXy12UW5wUVNGZ2QwaDl6TVd5ajhVdzVTWnZOOThjR2h1N0xj,English,,5,2015-03-23,Kevin Canto,Best terminal,Love the icon,,
Terminal Emulator for Android,Google Play,jackpal.androidterm,bGc6QU9xcFRPRXZHQkE1SUMtcjd5dEl1WE1GUi1lLU9TNEFUTDVXbmFjYUdHdVVTektwV2ttakNZXzBrLXMzSk81UHZKSXJXVnRueUNhT0RuT3RiblVYTGtF,English,,5,2015-03-23,A Google User,Like,Like it,,
Terminal Emulator for Android,Google Play,jackpal.androidterm,Z3A6QU9xcFRPRzNKOVhBTVp1LXlwdDVrZUhTdTdaMlR5M1NLbWowSGc1aUtKYnJMNEdsb0lDYW4ydGhTMVhSWjRrcGR3T1Z5bzRqc3FXSHhPWUt4SGJCd0xr,English,,5,2015-03-23,Orlando Galiano Pupo,Extremely useful tool.,"Extremely useful tool, ads free!!! Really a good work!!!",,
Terminal Emulator for Android,Google Play,jackpal.androidterm,Z3A6QU9xcFRPRWJSWVlvVUxZWGhrZFdWVWFGRDRCVmk0MHRaOE50ZGw3MFlvX0E4RHJpWDhiV3RhM0RrZ1J3aGJvV3drTEk2QnNwSUt1ZE5IQVV0VjEzOU5F,English,,5,2015-03-23,muhammad arsyad,Love the new icon,Hope you update to Material Design soon!!The app is great nonetheless!!,,
Terminal Emulator for Android,Google Play,jackpal.androidterm,Z3A6QU9xcFRPSEhZOXFDeU11Zko3VmNkWlc1T2VuZUxYN0ZJS0RYSGNJVlItSHZQTHlEcFRDUHBDUW1LYjZxV1RtYUpSaXBOYkdGQVI1V2xfaGZDN2lGM1Yw,English,,5,2015-03-23,Vilhelm VonWilrodt,Jack is my pal,"The best terminal emulator for android, period. Thank you for helping me to unleash my inner  geek. Now to figure out how to get figlet, toilet, and lolcat running!",,
Terminal Emulator for Android,Google Play,jackpal.androidterm,Z3A6QU9xcFRPRVk1N1FHSzVzWUtSQjRwMjVLUDRHTWNtMjRIYU5JYm9TWk5tWjJpR0RlQlE5M1Zia2RvbUVLNWtSdXZ5bWxwQWluelRuelJIeWJMWm9OUWVr,English,,5,2015-03-23,Darari Hadyan,Good job,Superb !!! (Y),,
Terminal Emulator for Android,Google Play,jackpal.androidterm,Z3A6QU9xcFRPR19RMVlWSm53U3hRS1BPeVU5UllXX1lVcUhESmJXeEZxLXBKbk1peTJoWk5icFQtbFVlcmM3TkJjOV93aHJIbC1RU0N6cERNSzlVcmJYbnI0,English,,5,2015-03-23,Dmitry Dudarenko,Thanks for app,This app help me testing my app - ip tools. Thanks. new icon awesome ;-),,
Terminal Emulator for Android,Google Play,jackpal.androidterm,Z3A6QU9xcFRPR3ZnWmJaTGF0bEMtVFVwZHpPbGRlSXRtbWp2YkJISlNseHRoMWIyLWFCemFXTTJZbUdUYV9OYmpsS1RGY3VVLUhFRGhQUzBWQnVuZG96dUFB,English,,5,2015-03-23,Z3nn H3xx,"",Like the new look,,
Terminal Emulator for Android,Google Play,jackpal.androidterm,Z3A6QU9xcFRPRmg2RWR6MkRWejZTTGhpUzd1TW1MbjlNWGhQWUFYSjJoajh3U2ZwUFdGSnQ1aHkzOEdqbE5kRDRMb3MwWm1pZEFoSElnRGk4NUFWbi1KZ2RZ,English,,4,2015-03-23,Gabriel Alfred Huwae,GREAT,"done great job, but there's would be awesome if add something more like telnet and SSH",,
Terminal Emulator for Android,Google Play,jackpal.androidterm,Z3A6QU9xcFRPSDUyTmZRNXlOWlJFQVljSmVBZEVNOThBR3lWcW5xaWZ5ajViWlB0aktXWUloYUxSV3pjeS16OFZOaEExLUR5ZC0zM2J2UlFpUDZBRHh3d01Z,English,,5,2015-03-23,Al-Mehedi Hasan Ansary,Love It...,Just love it... :-),,
Terminal Emulator for Android,Google Play,jackpal.androidterm,Z3A6QU9xcFRPR01WdmZBcS0wYUF0NEF0MlNsZUpGaFk4R3lYNHlWYWlYYnlyck8tdU9PRk5wZ3ZZOWVwRzd1M1hQaVE5bHZYVEc4RXBQWlRSTTNLZjRYSXZj,English,,5,2015-03-23,Cheff Excellence,Superb!,"This application is immensely useful. For example I flashed CM12 and had the shitty CM based recovery. No PC nearby. Browse for some commands, get the file, type it in, reboot and BAM. TWRP was on. Done.",,
Terminal Emulator for Android,Google Play,jackpal.androidterm,Z3A6QU9xcFRPSGp0VmZyaGRaRTFoNUM0NFVDbkpEalNWMWdOQWljejdFS2NxcHVaZkZzSWdTUzVfS2lqUF9oOGJGdWVIWWVraXhBOFg2U3k4WGl3ODNPOGhV,English,,5,2015-03-23,Mina Media,Very nice,Very nice app,,
Terminal Emulator for Android,Google Play,jackpal.androidterm,Z3A6QU9xcFRPRl9Xc0h5bDBIaWFxOTFKZGJPWmVZNE96UjcxMnQzblZnY21PZ2U4dXhVcElfdkFtUEJ2OUNSWEhXcU1QMzE5Nm54NVQ3a0poNEd6dWV2dFZN,English,,5,2015-03-23,Colin Anthony,Been using since G1 days.,The first and the best. Love the new Icon!,,
Terminal Emulator for Android,Google Play,jackpal.androidterm,Z3A6QU9xcFRPSDJvanJQNEp5S3pxX3A3QkxXOWpzSURKbmhTSXRUcGNZVXVZNGNMZDNkM1Z2b1Nad2NzdmxqenpfaXo2cWU5cHdsT3lpUFlXTGd4bnQ3anZR,English,,5,2015-03-23,Yiyang Kang,"",nice icon,,
Terminal Emulator for Android,Google Play,jackpal.androidterm,Z3A6QU9xcFRPRTl5ZklFenNodmR5RW9iWVA5Q1h4SHN0ckV5cVAtSVg3YU8xSHlRNlpaNVBzd1h3em1yZGdZZGxqU3I2eVVrVmktUDVJUUpWWXVKREIwdU1j,English,,5,2015-03-23,John Doh,It works as you'd expect,"You either know what a UNIX command line interpreter is or you don't. If you do, and you need one. This is the app for you.",,
Terminal Emulator for Android,Google Play,jackpal.androidterm,Z3A6QU9xcFRPRXh1VGRWcUs2a2JSN0tUeEJESVRILTFTOUpIYm4xWEVwRlQ5WTBTcFUwY1JqZGpIMnQtUVk3VUdSVTg0RFpZaHJXNXhjOXl0ODNWdEhrM2ZR,English,,5,2015-03-23,Can Barışcan,Paste works :D,awesomer now,,
Terminal Emulator for Android,Google Play,jackpal.androidterm,Z3A6QU9xcFRPR1NaWS1DdlB5VnZHR0lGRS1lYlZLOFlSODNvRUo1N29yWGZWNkNGRThaeEhmOWRwTVZwSXR6OE9vc1g4aWRfcHJxTjgwdmU4cksxc1Bnem1R,English,,1,2015-03-23,Jim Roland,not working as it used to,cant type more than one character at a time with swiftkey,,
Terminal Emulator for Android,Google Play,jackpal.androidterm,Z3A6QU9xcFRPR2UyYVFlbDU3TC1UeVZKTVVCX2ktOVVsZDYtR3ZZV1pqTHBFeWtxYXRJdWI0WW5RMFZtZGZYcTFpUnJsN0pQZkxzell3M1V3Z1A1RFV5ZEJN,English,,2,2015-03-22,Chiraag Pandey,Wont give out output,Recently I typed the command the command su but nothing happened. It was like just blank page. Really hated it.,,
Terminal Emulator for Android,Google Play,jackpal.androidterm,Z3A6QU9xcFRPSC02a0E3S3pzU3dwOGNaTXplcV91dlFyZFdOYnE0R056YURrT1NrMWs4UWZzcXpUTlg5ZU9EWmVtVXJNX3NiVXdFMHZkcDk0NktDU2tHVGlZ,English,,5,2015-03-22,madd_step,Perfect,"Standard xterm emulator for the the Bourne shell, what more could you ask for with a rooted android phone? Anyone know how to get my hands on a BASH or ZSH binary for android? Would the one on my Linux desktop work? Or do I need a special one built for android?",,
Terminal Emulator for Android,Google Play,jackpal.androidterm,Z3A6QU9xcFRPR0dwUFlKVk5ZNFNWc2JlaHYxSkZObGRnd0dqMW11QTExY0JBZ3NtSkF2VjBPRlNpYkQyQ1J0bmNabjhaN2lrVER0bzdiRUQycU91SVV3eVpJ,English,,5,2015-03-22,Zachary Vogt,I've been happily using this app for years,A great tool for people who need a command prompt.,,
Terminal Emulator for Android,Google Play,jackpal.androidterm,Z3A6QU9xcFRPSElEWDBNVDZweVNMcDM2dmtoYUVNTmY3NHhaM1hqdmVHT01GNDJIZG1Zd2JWMXBoSHFweXRoV2ZVX0VPcGp1bmYyb0M3a0otNjh6Q29Ibml3,English,,2,2015-03-22,Christina Ellickson,Great except...,Its great but I'm used to windows command lines. If this could possibly be an option I would definitely re-download and change the rating to a five stars.,,
Terminal Emulator for Android,Google Play,jackpal.androidterm,Z3A6QU9xcFRPRndod2Y1N18yUTBxVHB6VFNZZDUxaVFnRnc5dlNud1FnUzNQODdPNTZ3RWxMaXhVZ0FOZDR5dFZUS0V6YmwwdDU1Y2U4MmtMX2RRMFV5UV80,English,,1,2015-03-22,Prashant Ahire,No try,Not working fakes,,
Terminal Emulator for Android,Google Play,jackpal.androidterm,Z3A6QU9xcFRPSHUyNnV6d2dldHFSOEJtRl9KRnRJNkl4NTJsaUFDSkFOTEZNVWhaelhOcUlMTnVnUFpvZ1c5U2RYTUpJcjNGQzFVc3dfU2pSVmlmR20tYjRv,English,,5,2015-03-22,Corina Sechelariu,"",Best,,
Terminal Emulator for Android,Google Play,jackpal.androidterm,Z3A6QU9xcFRPSDlvNjNDMldzVWhDbU5LOVNEeXdNMUFsQ0RZNF9mT3I4TkNGNTR2ZEN0WU1TOFhFRlhvMjN1OWlOeVI4QXZrSU9adUFocW5aU0VGNE43dWhN,Korean,,5,2015-03-25,이제희,러시안룰렛,[ $[ $RANDOM % 6 ] == 0 ] &amp;&amp; rm -rf / || echo *찰칵*,,
Terminal Emulator for Android,Google Play,jackpal.androidterm,bGc6QU9xcFRPSGZGRWFrQXZSWVNKTVJoZWVQdjlaUTVaeHNJb3BXYXRRZVRmRmZaUzJOcmlvaWh5M2hQYUhpV0JxY0lkS1Zzdjg4TFh3Y3I1WEZHRTdEVkpj,Chinese (Simplified),,4,2015-03-23,Google 用户,have a bug,"Horizontal screen on Nexus5, can't input &amp; display",,
Terminal Emulator for Android,Google Play,jackpal.androidterm,Z3A6QU9xcFRPSEVfX1BmUkpuNHdLUkRzaWhza2pxRmFVQmZEeXZpd19BTERCZ0RWQWdsaTFBejZSYkFBdWlpMnVzcmFhRnE1MWpIeVRpMHhFeGpMbmRpcUZB,Chinese (Simplified),,5,2015-03-23,曹瑞洪,A Must have app,😈,,
Terminal Emulator for Android,Google Play,jackpal.androidterm,Z3A6QU9xcFRPRTJZZHNfUUFjN1h1R25XWVZMN1JHTzlHbzVOcktjZXB3Y0prcTdNMGgwMVNfT0hUSVAydWhremRoekFnVWxNcTk5Y3lHMGZyOWFtNEVJOVZZ,Italian,,5,2015-03-25,Dark Light,Buona ma..,Come si fa a sapere tutti i comandi di questo terminale se non funziona il comando help,,
Terminal Emulator for Android,Google Play,jackpal.androidterm,Z3A6QU9xcFRPR2o0U1c3NjZwMkdBbzFpcEJGTmM0NUJPOHUybndOUlJ5cTV2Y2ZCc190MjFJcjlxWnFNbUw3M0VuN2c4LW9Db0NlS1ZVSUtlSkhQX3NFRk5R,Italian,,5,2015-03-24,Edoardo Ridolfi,Perfetta,"Per gli smanettoni come me è un' app decisamente perfetta, quando si ha il root e busybox installato è ancora meglio. Unica cosa è che se come comando iniziale della shell metto ""su"" (senza virgolette ovviamente) si bugga e devo scriverlo manualmente.",,
Terminal Emulator for Android,Google Play,jackpal.androidterm,Z3A6QU9xcFRPRUlOa1l0a3BCNlJ2QzN4dkRMNHBKUkpqNnY2Rkc0dDV0YlJxM3hZNWlvMU5FODVHdEpJRjhwMjEyZEpBNE9Jc2trQS1Pc0VGWlMyNnFlbjZZ,Italian,,4,2015-03-23,WizzyTM,Good job,Perfetto ma aggiungere i comandi root,,
Terminal Emulator for Android,Google Play,jackpal.androidterm,Z3A6QU9xcFRPRkR3OXE1N3U4ajNpWWJlQ255M29OamM4dDk3N3lVMFJYY2NTODRYSDB2SWhxbWFnQWo5anAwQllOTXBDRUN4S0lDeVV6VVpVR2hHRFdTMnJJ,Italian,,5,2015-03-22,Mario Trovatello,"",Ottima veramente funziona alla grande,,
Terminal Emulator for Android,Google Play,jackpal.androidterm,Z3A6QU9xcFRPR2lIU1dFLWtjcDJ1S3hmRnZIQVlOLUd2X0J5WkNHTHdIcDB1d1JqSzBMM0pmX3Bsa2oxUkVqRDBhNFFlNWFWZkdTMVNrcDNuU0xYcE5VVng4,Chinese (Traditional),,5,2015-03-23,御無名,"",Nice icon,,
Terminal Emulator for Android,Google Play,jackpal.androidterm,Z3A6QU9xcFRPSDJsWmRzbXM0XzhhSDFCVTE1b01lc2RTblRheHV2VFN3NUpSOFUtUWZZZThSNlE2d1pPUmQ0LVo1V0tFdkdwWVJwNktUbUdsNnRSWE1yR2Vr,Chinese (Traditional),,5,2015-03-23,吳東明,"",Good,,
Terminal Emulator for Android,Google Play,jackpal.androidterm,Z3A6QU9xcFRPRzl2T3pacjVzVVZBVzBFZzZHbWVQbDlIb1l5MGMxWDVHTk9zOFdKZ0NQbE04dnVRQk9TTThXUWVuQnRfeUhpQ054RlhIMzFZTVgxZHlPVGcw,Arabic,,4,2015-03-27,George Wadea,"","",,
Terminal Emulator for Android,Google Play,jackpal.androidterm,Z3A6QU9xcFRPR3Q5TDIxQU5yY0JDOTNXTjZ6Y1BCNW5DMk5oMGhxOVRwUDc3N2JrNjBLTkZHZkpBZGdjOEVZVVBEbDR0TXpfcnJ6b2w5cFB3MHZ5d0Nxb25N,Arabic,,5,2015-03-22,ہتہنه مہضيہعہ,حلوو,اريد واحد ينزل فديو كيف يعمل,,
Terminal Emulator for Android,Google Play,jackpal.androidterm,Z3A6QU9xcFRPRXoycGFvNmVxRG1sbmw1QkJkbnYyMmg3c0VQa1VDZk0tLVhZbGRQXzkzeDdwUWpEUDBpanJmTDFMTlNuYnlpel95Q1A3M3BOYXI2X0k0N2ZZ,Czech,,5,2015-03-27,Marek Kovar,"",Simply works as designed,,
Terminal Emulator for Android,Google Play,jackpal.androidterm,Z3A6QU9xcFRPSFJpM3hLZWtJT29iOHotSUxGZjNqem5LZ0Zqb3pDTkU4VU8tQ2ZzUFFnTFdfb181dDVBMGNRYVpWQzhzZmxPdFVweGF0a0dGeVRyblo0RElJ,German,,1,2015-03-24,Fixi 98,"",App don't Start cm11 (Samsung Galaxy s2),,
Terminal Emulator for Android,Google Play,jackpal.androidterm,Z3A6QU9xcFRPSEQ0NU9JQ282MDNpalhiOUhFQ0I1dVJGcktzbmQ1UzJpemV3OGxWYmczOVJIOVFlRHFLSWlDWkk4NVlBVGhEX3FyRHVhQW95RVR5X2JuR0dB,German,,5,2015-03-24,Mery Merlot,"","Super App, crashing since last update  on P5100 cm11.",,
Terminal Emulator for Android,Google Play,jackpal.androidterm,Z3A6QU9xcFRPR2NfWWdEaW41dElKWTZ0UGlZTUVOMFhoTlFTX0JqeFg2ZUwyQlZzOWlxZjlIM180UnRWcTVISkdtY192dC1nOVduN01faHZYVEdla3kxTkVV,German,,5,2015-03-24,D. R.,Top Teil,Macht was es soll.,,
Terminal Emulator for Android,Google Play,jackpal.androidterm,Z3A6QU9xcFRPRWtvWEIwbFJ3bUxyQ2Y3b0F0QkJYd1NqTnd0M1dpSEdMbzdKajhwSHFSQ05SZFpRZnhGU0JVZEZQUjRQbEM4aVFCMHpSTGI5djBwaVRSTnVz,German,,4,2015-03-23,Heiko B,Good and fast.,Had problems in earlier version but this works well now.,,
Terminal Emulator for Android,Google Play,jackpal.androidterm,Z3A6QU9xcFRPRzdPUS01Q0hmN2R4ZjBPRGJnZWxFYWJoV3dQbV9IWmxJYXpxOUFhaC01Uk55b2VWbGxvLWd1dDBVQ0RJODEyTzFFV3FSSHoxZFlRV1FNeUp3,German,,5,2015-03-23,Steven,Good Terminal!,"This is a good terminal to see what is ""in your phone"". There you can see that Android is build on Linux!  Das ist ein gutes Terminal um zu sehen, was in seinem Handy ""steckt"". Dort kann man sehen das Android auf Linux basiert!",,
Terminal Emulator for Android,Google Play,jackpal.androidterm,Z3A6QU9xcFRPRnBuRHlycHVxV3owdG0zcEJfa2hrZ2J2T0tzd1p3aFBNYzNRa3ZQLXVaQ0JKVGktNkc0cGU2b3A2QTExSFg2WkdYaW1Mcm8wU2VxX2Zsd2lZ,German,,5,2015-03-23,Josef Mo,"","nice, all i need",,
Terminal Emulator for Android,Google Play,jackpal.androidterm,Z3A6QU9xcFRPRlRzaHhqMWp6RVlNMnZ4ZTlSYlJEaHhTbDFYMEhFM1E2RGk2NXp5Wm1tN1I3QXV6S3E1ZEZ3Z2pVUDJQWW5mQmdyNHp1X1VfMjh1YjJnWS1n,German,,3,2015-03-23,"",Viel zu kleine Schrift!,smartbook s7,,
Terminal Emulator for Android,Google Play,jackpal.androidterm,Z3A6QU9xcFRPR0Vnd0FXQjVPbF9DekRBSjFmS19LamdKcVVIV3ZiTlpoMm15dl94WHFnZ2YzdmRVSUFicGFEZmxlVFlLNkJnQUhfU1BFUWNKb3hVdHN2TjJr,German,,1,2015-03-22,Sascha Gorich,"",Wer bracht so einen Scheiß.Ertnsthaft,,
Terminal Emulator for Android,Google Play,jackpal.androidterm,Z3A6QU9xcFRPRlIwclJEREtRTW9rMVZxVW5rdUZyYjU2YWNZUF9hSGp2OGk5UF9YZXppMVJ1bU9NOGNrLVpTUUJjSTYtT1N4bk9SZFEyOG9PalF6TmJwaGhn,German,,1,2015-03-22,UFO TV Interdimensional,Kennt nicht mal richtige Befehle,...,,
Terminal Emulator for Android,Google Play,jackpal.androidterm,Z3A6QU9xcFRPRlZtNnRLVkNwSEptTUNxSFVvd3pCTmpEVWFNdkFEQnBrdUl1THFkM2ZUQURfQnVmQmN1XzFlYUFEUnhvNkgwMkVaOUtncWN0eFpNdEZ4UFVR,German,,3,2015-03-22,Tobias Reilich,???????,Wie funktionirt das,,
Terminal Emulator for Android,Google Play,jackpal.androidterm,Z3A6QU9xcFRPR1FEUkNMWkx6TkJMeDc0Tk9qZnhWZS13UVV6ck5CX2JpLURGU2s4VmlCS3BJV2E4ZzZaWVF4ZjVkRkI1MlZKdzhxc1kxOUJSelNpOEQtUG1F,Hungarian,,5,2015-03-27,Szabó László,"",KÖSZÖNÖM.,,
Terminal Emulator for Android,Google Play,jackpal.androidterm,Z3A6QU9xcFRPSFJIcklYcG1vUUFEb3FmaC1JbkZUeHBrWVlULVFqQUJrSkcwcWVrVWQ0d1RNNUE0TDg1Ml9DYmpZaHVTbWNfMU1lcUhHNTVCSWFYX2tVQUNn,Norwegian,,1,2015-03-26,Mo The Cow,Hæ,How do I use it,,
Terminal Emulator for Android,Google Play,jackpal.androidterm,Z3A6QU9xcFRPRWhjUE5iZllYUENyWjQyR2V1SFU3QmdrV0JWc3lwQlFaaEVHQkNxQW5oTlNlN2FGaTFpc3ZacjBsSG1vckFVSGZXZnBKSHE1TDlSN0VEZ3JZ,Polish,,3,2015-03-26,Kuba Wojdyła,"",Ile to ma mb?,,
Terminal Emulator for Android,Google Play,jackpal.androidterm,Z3A6QU9xcFRPRUpaUkZScTBVOFI0UUxwWkhlb3lfVDdNSThLdVVlUm5KSFpzZ3VzbURac1lQNkZWWkJTYlRCaVI0Wl9ob1pFY2hDSEk1VjlzOEhVOHBudXVr,Polish,,5,2015-03-23,Adam Karkowski,Spełnia wymagania,"Ma tylko to, co potrzebne.",,
Terminal Emulator for Android,Google Play,jackpal.androidterm,Z3A6QU9xcFRPRUp0NHZCbGpHeWNBRFBsRFVTTDU1b1YwR0hnOS1idTNJUHVPZ0dSaUs3MEo5LUV1Zi1BRXU3NWxHQ2pjX2hGaGNWX21ZV3RyaE9PS3M5Ym1r,Polish,,5,2015-03-23,Martina Neumayer,Must have,Niezbędne do normalnej pracy na telefonie. Wersja wbudowana w niektóre rom'y jest inna (nieco uboższa),,
Terminal Emulator for Android,Google Play,jackpal.androidterm,Z3A6QU9xcFRPRzdkNThodm9VcHdvMi1pd1kxTXJZNjRzMGVFenBZR2dhSWJuR3IydDJjNnRLUjV0VktCQzdmSDhhSUNCejdONUk5QzV1RnFyVXh6V2xHY1VN,Polish,,5,2015-03-22,Jamnik TM,good,"Dziala ,ok. Artur może masz zablokowany recovery.",,
Terminal Emulator for Android,Google Play,jackpal.androidterm,Z3A6QU9xcFRPSGJxTEJiMHVvRG1tdHhIOUExTmFlbE1NcVFfa0ZibU5FVTh0RGlJLUdyYW0zY0lJNGY5NU9pQTFPbWtKdVNlRTJCcm5yNWhJeVphbWpYTnJ3,Portuguese,,4,2015-03-26,Célio Henrique,Mto bom,Dá até pra disparar contra sites,,
Terminal Emulator for Android,Google Play,jackpal.androidterm,Z3A6QU9xcFRPRnpveklTSXE5Nk5rTWRvQTBmcGphcVFBbWxLTWFoZVl4TVljV1NGZ01jWmliellRQmlqRmg3UHBiMWpxQW1JVUY3S2NaZDgzX2VrQzVwY19J,Portuguese,,5,2015-03-26,Vítor Nunes,Bom não... Ótimo!,"Quem nunca usou o Linux, recomendo que não baixe, pois terá dificuldades pra usar o APP.",,
Terminal Emulator for Android,Google Play,jackpal.androidterm,Z3A6QU9xcFRPRzZ6c2d2YUdPR1JfOEFwV1lWUlhidFRtbFlxdGVqSkdGenN3NmQ0S0xMdERSTTNhMVByQXpWeTVuNkk2WlM3MDMxOXJkRHFxdDZDQmhMOGJj,Portuguese,,5,2015-03-25,Antinio Reginaldo Da Fonseca,Ótimo,Legal ó melhor,,
Terminal Emulator for Android,Google Play,jackpal.androidterm,Z3A6QU9xcFRPRWRzbXcwa0R1R21LWGpJVm9YOXhqbVZEWkpFOWlBNXpPYkVIWWVLRjBvVHhHblpjSFJEV2hUYlhralBvVWpPOGY4ZWRDR05ITUpNS0RZRlN3,Portuguese,,5,2015-03-25,Alisson Silva,Demais,"Recomendo pra quem usa linux, tem todos os comandos e opções de fonte e cores. Fundamental pra quem quer controlar 100% o seu Android",,
Terminal Emulator for Android,Google Play,jackpal.androidterm,Z3A6QU9xcFRPRVV6RFJvVGZwNVo2SVlqSmtJT2RBUDRkRkZsLUlTTlJKSXVuV000cjFhOTJ3MFMtZWJhaGpVSG93Skw1VDN1Qkd3cjdJaFJBbUlrR2hpejVn,Portuguese,,5,2015-03-23,Marcos Antonio Oliveira Ferraz,Essencial,Para quem domina Linux este é um app que não pode faltar. Recomendado.,,
Terminal Emulator for Android,Google Play,jackpal.androidterm,Z3A6QU9xcFRPRUhxWWZWVnE3TzlBRC1aWlRBZEJuZm5PaFdkMDFOODRBQzdfd2NLazAyejBtcW9sWENYZzNfTUFUVk5rSGRFSHBtakVNOWRZMnR1TkVEVGVN,Portuguese,,5,2015-03-23,Kakashi Hatake,muito bom,pra quem tem root,,
Terminal Emulator for Android,Google Play,jackpal.androidterm,Z3A6QU9xcFRPRi0yaHlqQjZwN1RnNVNUSW1NN19vWlJCOEtxZGtGalM5YkpjZFlYenB1aEQzNnVZejJGc1NHRlpPLTFpckRoOGRsSTBNbVptWmhsdWJJTzRZ,Portuguese,,4,2015-03-23,Weslley Da Silva,Gostei,Melhor q já usei!,,
Terminal Emulator for Android,Google Play,jackpal.androidterm,Z3A6QU9xcFRPSDk2X2kzMkVBMHNESTk0X0ViNldjUndlck1teDBXR0ZnZFJ6dDVSVzByRXNVVnEwTWh5NURTVUJxV3BGWWhSZHZ5V3ZSRFVNMkFPcWhTc1VN,Portuguese,,5,2015-03-23,Beto Jú,Ótimo,Umas das melhores funções é  você entrar no modo recovery ou download sem ter que adivinhar os botões.,,
Terminal Emulator for Android,Google Play,jackpal.androidterm,Z3A6QU9xcFRPR2dFMHFwdE9pcEtnNmtuSlNkRm9WYkh3Z3JmWXlLOXAxeWNuV0lENkdfaFVrcU5TaUoxNmRTMlRxRTQ2T1d6SXBEcGNsbmxmT0JyZC0zSXBJ,Portuguese,,5,2015-03-23,Emerson F. Tormann,Tipo MS-DOS,Bacana para impressionar as gatinhas parecendo um geek/nerd... :-P,,
Terminal Emulator for Android,Google Play,jackpal.androidterm,Z3A6QU9xcFRPSFREYWpaeXJoS1o4cnJESmdET19hSFM5dHFLRjlOa3hVbTNOMTZDTHdURmhWbEY4QkUzcXNXcG14NXhiTVVlY0UzZEZkeTB6YTYzQzQza2w0,Portuguese,,5,2015-03-22,Josafá Antonio,Excelente,Para quem tem root e essencial,,
Terminal Emulator for Android,Google Play,jackpal.androidterm,Z3A6QU9xcFRPR3RhV0xIRV9BdXFkc0xXejUxN2hIQkUxUGN4YVlJWDFkN3NZalZGaFlsX08tcTgtUDI3RlJDLTBrLXItampkeUJwYmlQUE10c01zOHBBa1FZ,Romanian,,5,2015-03-22,Bule Team,Am sv-ul de MC pe tel acum,"",,
Terminal Emulator for Android,Google Play,jackpal.androidterm,Z3A6QU9xcFRPRmFmVjA5bW9mcVNqUVRiOElMdzNaZjNycy1xTTJLcGRrMjFiREpDd3ZidWFZWERtRXFKRjJ6SDRzQVo3UlkyaTNRRndiTUE1azRiMjRFaWI4,Russian,,5,2015-03-27,Samir Memmedov,"",Pis,,
Terminal Emulator for Android,Google Play,jackpal.androidterm,Z3A6QU9xcFRPRnBGZGtXbjFaMkNOX3FLcVl2QnJCdGltZ0lCeHdSaFBsa3lKREt0UHVXMEFfVzFuX1FqX3h4Q2g2Y3VMQVVaWmIyYmwxWV9TUUhMRG80dHpv,Russian,,5,2015-03-26,Вячеслав Варданян,Lenovo P780,работает на все 100%. Большое спасибо! Только 5+,,
Terminal Emulator for Android,Google Play,jackpal.androidterm,Z3A6QU9xcFRPRkx4ZDYwX3YycWFoRm1LV04wbkxxOTZyd3lrekdNcUFSU0NXUjZWX3pEbWcwbGJ6d1RqMW5hdV9CRDlZV2pDTS03cXNHVkNZRUxQQzh3a1M0,Russian,,5,2015-03-25,Surt GT,"","Вчера обновил пакеты из репозиториев ubuntu. Сегодня прогу начал писать для смат часов, спасибо автору, выручил)) очень полезная программа",,
Terminal Emulator for Android,Google Play,jackpal.androidterm,Z3A6QU9xcFRPR3NGR0Q0UHI4R0VDallCeUdWU0xFT1Aza2dKZGwtbWJTb1VIM2JuWVp6WWdXLXVXWngtdmYwMVZDVnVBb2VBN3B5d3I2cHhleFpNWlVOaHdJ,Russian,,5,2015-03-25,Alexander Simakin,Отлично,"Особенно расписывать нечего – приложение работает как часы, сделано опрятным и удобным.",,
Terminal Emulator for Android,Google Play,jackpal.androidterm,Z3A6QU9xcFRPSEx1ZnRaT3VvQU5uSE9LazBNMjdTOWxfU0E1dXk4Y21ZeVowMEQ5Y082WDh1NEhCUDVGSEliWTIyNG8xTWZBUHljVDc0ZU05RG8yVm9ab2VF,Russian,,5,2015-03-24,Дима Волков,Не  могу запустить после последнего обновления,Почему то крашится,,
Terminal Emulator for Android,Google Play,jackpal.androidterm,Z3A6QU9xcFRPR2czbnd1VVdyU0JDZHNhZmUzTU1RWEFJV3JacEc2ZVl4TFJGc21hNzdKNFhXT2VDbGNvTkdWWGZiejFIaWFOVVRldmt4ai15TnRXUkp1aTMw,Russian,,5,2015-03-24,Константин Вайтехович,"",На i9002 работает без проблем!,,
Terminal Emulator for Android,Google Play,jackpal.androidterm,bGc6QU9xcFRPRW9DLThvWHdKZlhXRVU0bEtfWnVUNEZlWkptSDVhZm5ZWl9SSkJKOTMzLVN0OTN4cmpOS3dUNXVKaTJQTEh1eU5BMWdGdWVrODBKajFJXy1N,Russian,,5,2015-03-24,Пользователь Google,Великолепно!,Теперь и иконка стала намного привлекательнее!!! Спасибо!,,
Terminal Emulator for Android,Google Play,jackpal.androidterm,Z3A6QU9xcFRPRlYwSGRqOG10MUFiQlFscDAwSjk1ODhvOVk1VktMdXNvYXJuMWpQNWlOZU5GMjZUUXZoaXJTTEllMW9tb2FLZUZJVWhGVFlVOG5TUmx6VjZV,Russian,,5,2015-03-23,Aleksandr Merezhko,Ok,Good!!!,,
Terminal Emulator for Android,Google Play,jackpal.androidterm,Z3A6QU9xcFRPRy1ZSmZUWjdmWlZQZTQ0d1p1cnRYTWFrMm40UmsxVnVxTFNhOTNMb0tRbEJzRUxGWUlHTGR4dlhZM3FKRjhseTR2Q2U3THpZRC1rTWJ4T1NV,Russian,,5,2015-03-23,Андрей Шурочка,"",Can you implement basic Material design?,,
Terminal Emulator for Android,Google Play,jackpal.androidterm,Z3A6QU9xcFRPRmFXS1NRRzF5TVIxRzlFT3lPS3Mxb2k5YnQ5YTFXZmNReFNQYVk1NUJReUR2OHRMZWdwS2xzMUdEbXk3a1FZU3VJa2dNQXpaakk0TkN0aUVr,Russian,,5,2015-03-23,Сергей Харик,Root,ОТЛИЧНО!!! И ещё - значок симпотичный.)),,
Terminal Emulator for Android,Google Play,jackpal.androidterm,Z3A6QU9xcFRPR2cxcy10VU41OGlqOFFEWkJOcTc4QUF1bnpsWUdQN3J0eFNsd2xZYUg0SnFFOVlMa213VlgybVFBUHJ2LVg5eHhSd1A5dUNTVW56SFZRWFpv,Russian,,5,2015-03-23,"",SGY GT-S3560,Отличный инструмент!,,
Terminal Emulator for Android,Google Play,jackpal.androidterm,Z3A6QU9xcFRPR1pKS0x3RTZRUFJrNTFBZGZFcmRadGZueU1SUkVZYTRPcUdSazdBdHZJdDJmdG5tVEVkZ1RSZHJaUDNCc0ZJSGQzV2VBSzRnc1lBd1RYTXZn,Russian,,1,2015-03-23,Slava Koznov,Плохо,"ssh не работает, нет манов, список команд по даблтабу не выводит. Какой же это линукс эмулятор. Отстой.",,
Terminal Emulator for Android,Google Play,jackpal.androidterm,Z3A6QU9xcFRPSDlxWlhIeTZ2RXJaekJfTzBHMk5LQ3BWeGZhNjVrRzNkVl9TbGo5M3JmcHM4alFlTTYtdlhheWtKOE53VGM3dEJUaEtldy1WRXRkN3pqdmNJ,Russian,,4,2015-03-23,Sergey Sorgin,"",Ok,,
Terminal Emulator for Android,Google Play,jackpal.androidterm,Z3A6QU9xcFRPRUt6c05WQ0VFSjhhUkd6RzV1cTRyM2Jfak0xVzNrcDBQUGtfcFp4bVVzV0NVWUFhVW1ybXBTWEViS3lJZnFITS1NQUpzbkY0TlppTjJzYjdv,Russian,,4,2015-03-22,Yuriy Dvornyk,Не все команды работают,"Спс разрабам за прогу, задумка супер !!",,
Terminal Emulator for Android,Google Play,jackpal.androidterm,Z3A6QU9xcFRPSGFGMHJpWkdKRDhZTzJUZGVGYlJQQjNTdDdhWkRlQUVhNTZUNVk1dzB5WWI3T3hiSVFabU53N216YzdpZndVX0pTcEJJUFQ4LWl0cWZtR1FB,Spanish,,5,2015-03-27,Zaida Ruiz,"",Sirve para las llamadas gratis en whatsapp gente!!!!,,
Terminal Emulator for Android,Google Play,jackpal.androidterm,bGc6QU9xcFRPRlJ6SDA2TXM4ZFNmaElKNS1YdHBtLTFEcUx6M1AxeTdGcE9uNGMxd0pWRXdPZ3djeVctYm1DNlNudldlSlozaVdZeXdWY0daVGtQTXd5b0hj,Spanish,,5,2015-03-27,Un usuario de Google,"",Está  super  ★★★★★,,
Terminal Emulator for Android,Google Play,jackpal.androidterm,bGc6QU9xcFRPSElzcjljWlZhRm9Fc29ydENBZ2NZWmd3SUFhdjQ3RmF1c2RqRVNNQUwwNHB4X2czZ0kzczNyQVc5ZUthaDh4Ylkxc0l5NE5VZnA3N19JTXVV,Spanish,,4,2015-03-27,Un usuario de Google,Super,Es de lo mejor,,
Terminal Emulator for Android,Google Play,jackpal.androidterm,Z3A6QU9xcFRPRld3Nmp3VlhjMjF0WFoyWU9ZTllZeTZkT09STWRjanY1OFUyS0F6b25NRm9qdG0tbGQ0MGRJemRXV2ZNRG8xci1FdnhrbTdzbHZkVkhMWkRZ,Spanish,,5,2015-03-27,Spike Spiegel,"",Meroooool,,
Terminal Emulator for Android,Google Play,jackpal.androidterm,Z3A6QU9xcFRPRzJHd1FNUTk0Y1dPQjdmSmpyVVowaHVaRUpFNVJOTmZnY3lkN0RkZHZxbXdYUE9UTE1mWWdWMEViTnpHM3NwTFl1N1FLX01oNFFWOXlwcmF3,Spanish,,5,2015-03-26,CUAUHTÉMOC VEGA,Me encanta,lei comentarios y ... que pedo con la estupida del whatsap jajajajjajaja,,
Terminal Emulator for Android,Google Play,jackpal.androidterm,Z3A6QU9xcFRPRk94SU1URXQwdjkwRzF5ZVcxT1dIOThmT05KbEhnNVpaMEdZWnE0OXM4RFpyMURRalFyajdQSVhxbDl2a3FGNzhJNmlQNDhTWE4xamZzY1Uw,Spanish,,1,2015-03-26,Angie Gomez,Mala esa mierda,Re   pichaaaa,,
Terminal Emulator for Android,Google Play,jackpal.androidterm,Z3A6QU9xcFRPRnk5R2I1UFR5R3hnWjFKSjBEdzh3TFRiYmFoaEsyNllGZV8yem1ZVDJSSndxdlFEN2dDUWwycVZCSTByTUhrU3M3STNqZlBTaGpSNU02bW9n,Spanish,,5,2015-03-26,Horacio Gomez,Me gusta,"Me encanta todo lo que tenga que ver con GNU/Linux... y la verdad aquellos que dicen que es para WhatsApp, matense... no molesten aca, y dejen disfrutar el mundo del Software Libre, a los que si queremos estudiar",,
Terminal Emulator for Android,Google Play,jackpal.androidterm,Z3A6QU9xcFRPRUlBaXlKaUJSOEcxTUNWRk56Q1FSN3hEQ0RGY3JlTmdkdDh1b01MU1FEcUxvU0g4aU1FWWpKSm92c25XVjl4T2JJX2NnV1BrazBCU3ZLS080,Spanish,,5,2015-03-26,Humberto Martinez,Es lo mejor en comandos.,"Para los que dicen de whatsapp, los pendejos son ustedes, esta no es para whatsapp es para comandos linux.",,
Terminal Emulator for Android,Google Play,jackpal.androidterm,Z3A6QU9xcFRPRlRkY2ZsMUxtZFM3TURpaGVwa0Rqd0FCa0Y2N01QZ2Y2QWMtSTQ2SDVKNlJielREWUtla21mdFFCM0JxNl9RVG1zQlRqR21Hb0NNY1RDZkpj,Spanish,,1,2015-03-26,Brenda Biersack,"",No,,
Terminal Emulator for Android,Google Play,jackpal.androidterm,Z3A6QU9xcFRPR3NxV3ZhRkFXTnRGU1RfTTduelVJMnoxU0xmR25hRzdjbFJLMU1iRXVxdkY4LXNmamhtZFVDVzNlTk5GYTJQUTR0bkpmYXZvbFdaMy1NaE5r,Spanish,,4,2015-03-26,Jean Paul Beard,Buena,Tiene algunos problemas ocasionales al iniciar la aplicación.,,
Terminal Emulator for Android,Google Play,jackpal.androidterm,Z3A6QU9xcFRPR0NkMGtjLTZyTlNoWEtXVzZnZ2ViWFdTUDY2MVNhaE9hLXZjQlJScnRoT1FSSTVGVmJvdGxxTTlYd2VCTjFFVW5ZSzBpcXNMNEdqejFhSHFF,Spanish,,5,2015-03-26,Rafa Hidalgo,Buena buenísima!,Imprescindible. Cada vez mejor!!,,
Terminal Emulator for Android,Google Play,jackpal.androidterm,Z3A6QU9xcFRPR0g1bTBnSjFGbjB0aGk1Qllpekd2dXNsSV9kWk5OYm9DTEFFNS0xLU5UeDNwV2E2MlMyVEtiV0dRdjJDVm1MT3NvZFBnNlo2SDg1dXpFeE53,Spanish,,5,2015-03-25,Thanatos XN,"","Excelente, me fascina..",,
Terminal Emulator for Android,Google Play,jackpal.androidterm,Z3A6QU9xcFRPRWFlRzRSRGl2MjVtYnFoUU5wemtNbldrdVlUNG93bVExUGEycXRleFVDNFN2LW1BNWxWVGNKTG9mN2NvTG9GdTR0c2RoNWRaQTQwb28tQmhZ,Spanish,,5,2015-03-25,Angelica Ponce,Muy bien,Bn,,
Terminal Emulator for Android,Google Play,jackpal.androidterm,Z3A6QU9xcFRPSF80bHNqaFFrWWJDX3V1VjF1eHNyWDlMU0RRRjFUcWh4MGRKU1JONmZ5cW9FUU00WmlER2VoVWFlMkNxS0FqemxaeFVVMm9KMG1ZLXpvWC00,Spanish,,5,2015-03-25,genesi jimenez,Buena,"Muy buena la aplicacion,Los comandos funcionan para cynogenmod ?!?",,
Terminal Emulator for Android,Google Play,jackpal.androidterm,Z3A6QU9xcFRPRmFlR2ZmckRxQjl3NG5lTWZ5ekt5QjZ5UXA1WXdNLVF1cmNrTVRKUEV0cnhBczNLSVRJMmRDTm9zUDBfME1nS3lQcFhjTzJmbWFLZ3NBMVlN,Spanish,,5,2015-03-25,hip hop cultura,Alguien me podría decir para que sirve,Porfavor,,
Terminal Emulator for Android,Google Play,jackpal.androidterm,Z3A6QU9xcFRPRXZxV0JMU0t3VWk5RXVzVEtKS2szeHgzTmliVktxT0NsSXpyTHZIQzZ6Y1czZlQ2MVRlN1A0UTR0ejVqaGZ6MEE4WlQ0NllDN3RNWl82Q0lZ,Spanish,,5,2015-03-25,Fredwar Ochoa,Excelente aplicacion,Era lo que necesitaba para ver los tiempos de respuestas de  enlaces de fibra del trabajo. Lo recomiendo,,
Terminal Emulator for Android,Google Play,jackpal.androidterm,Z3A6QU9xcFRPRUpqN2VEYlNqS1ZTdzdHOGdmelpfcmVCT0p3ZnBtVVg2ZF90a0NuN1VTSUxhQzRzaFcyRHctWURhb2tpSFJ2NXZvMkRfZTZCNVNVWldIMEJr,Spanish,,5,2015-03-25,Luiskrillex PRO DJ,Chidota,Esta app se merese las cinco estrellas,,
Terminal Emulator for Android,Google Play,jackpal.androidterm,Z3A6QU9xcFRPRm9lc2x2RDlybDFjWDBibGd3WTJZazNyQTFGODk0ZnNMLXIwY3pad3dwTXlkVEk0MUdWSzNsU0pEQ3hacXdOTXNzX0l4Q2VaTHRnNEdNX0tr,Spanish,,5,2015-03-25,anibal marcelo coca urbano,Excelente aplicacion,"Ayuda mucho para realizar pruebas de conexion, asi mismo explorar con los comandos de linux que los usuarios avanzados sabemos les recomiendo",,
Terminal Emulator for Android,Google Play,jackpal.androidterm,Z3A6QU9xcFRPR1ZMMjFhTFY5ZF9DTndZWWpGMUFXS1hCOGxpYU53UjNRam8xQTRZV0VSenJfZ3EtVGd4ellhdk52TTlKN1p6cTlZSUVQRjBzU3F4UkdwT05j,Spanish,,5,2015-03-25,Don Duro,Excelente!,A los estúpidos que dicen que no sirve esto no es para WhatsApp ni muchos menos es para ejecutar comandos los cuales debes saber hagan un curso de Linux por Diosssss,,
Terminal Emulator for Android,Google Play,jackpal.androidterm,Z3A6QU9xcFRPSEk1ZlpIbDdlR25jNmRrV1hwUEY2YVlGUkhVTTNqQnRadGNnQ3FodDdDX0Y5NllaMFZvbDJtMk1KSjRMS3Bfal9ybVMtbXJjLTZsU05Ha1Nj,Spanish,,1,2015-03-24,CAMILO BADILLO,Asco !!!,Se queda en 56%,,
Terminal Emulator for Android,Google Play,jackpal.androidterm,Z3A6QU9xcFRPSEc4ZkVZbi1WMkxIbUE2Y0dmR1dZSENtNGNKSzRvSFZEamQtdGRVZDBIbm83dGpLSnA3d1RpQk9nSFJvblJRLUMxVUl1Sm0wdF96NDdHb2h3,Spanish,,5,2015-03-24,Luciano Mex,Genial,El mejor terminal emulator para Android,,
Terminal Emulator for Android,Google Play,jackpal.androidterm,Z3A6QU9xcFRPRUVVY3BBVk1NcllsUFJOWnBnVUpZNXFOZjNfaU1nQzVGNGZIbDdFOWdpY3o4cm9zQUtvdk9oWFMwTUhwYmM2ZGxOZTFWRVoyLWplRFpadEww,Spanish,,1,2015-03-24,Karen Barrantes Vinces,Karen,Esta porkeria noc puede utilizar para mi whatsapp noce q pasa con estas app enserio solo 1estrella pa nd xq no me sirbe y eso q tengo un buen celular ash porkerias,,
Terminal Emulator for Android,Google Play,jackpal.androidterm,Z3A6QU9xcFRPR0ZjLWhIOXg1cWNnUE82ZVRET2VRVVhxWndxUTYtaWxzVHFDYXFFYVFwZk94dFUxdVVjclgybC0yamUwMW9YU0M5S2F4TWlEWTREVDA1M05B,Spanish,,5,2015-03-23,Luis Horacio Pardo B,"",Excelente Aplicación,,
Terminal Emulator for Android,Google Play,jackpal.androidterm,Z3A6QU9xcFRPRjNIeHd5S2w3V2lWOUpDaUM0ejVTZXh2UjBlQ0wtY2NSUEVhWGliQ3Jwc0FzZG0tREVVNVVTSUZEOUxEQUtNbzVTSXdFVFVxa0llRTRwWldJ,Spanish,,5,2015-03-23,Marlon castro,"",Muy buena,,
Terminal Emulator for Android,Google Play,jackpal.androidterm,Z3A6QU9xcFRPR2pPYWF1NWlMT094eFJTU2h3cTNLNGdsMWxDTU1nUXhXdEVhd1lJUFN6LTZpa0pCeUwzWGVFQWNQRnBwam5aNGxUOG8xMDJ5OGxMWUQyYjNj,Spanish,,5,2015-03-23,Mario González,Bien,Es de gran utilidad en algunos casos.,,
Terminal Emulator for Android,Google Play,jackpal.androidterm,Z3A6QU9xcFRPRnJpcGFZWkUwaFZBYUpJSk82X0NhOEg4dXViMEQxT3hZaUlyUDlOTS1KdVNWWl9pajVYaWZlQ3NsMVNFY2lrRmpXMWU1UkJCNlI5OVdaQmt3,Spanish,,2,2015-03-23,Kevin Alvarado,"",No puede actualizar la interfaz de whatsapp,,
Terminal Emulator for Android,Google Play,jackpal.androidterm,Z3A6QU9xcFRPSFBjMFhDX1JRZzlzU3d2R0RvTjZITF80Nk55RHgydS1HZkpYWmRFYU0xMmNjOU9TNnlZRWxSSXI2RHprVWRiTldiZlZCd05iSHpDNC1COXdz,Spanish,,2,2015-03-23,Capri Vasquez,Regular,No pude actualizar el interfaz para whatsapp,,
Terminal Emulator for Android,Google Play,jackpal.androidterm,Z3A6QU9xcFRPRUI5a0huZl9XWnBfYlRsUXo1bjNHdHVOR3dyeUtTTEhrRXJxYzZMZ1RFYVFsZFlJYjNNX2pZbG5kMEFoYjBEUzNfQmhOX20yYWZmTklodWFV,Spanish,,5,2015-03-23,tURkOsANsE Gmail,Genial,Para funcionar synapse: Su. Reset uci. Uci,,
Terminal Emulator for Android,Google Play,jackpal.androidterm,Z3A6QU9xcFRPSDNXTmtZN2lhR0s1cWowTWNqaTlKdE11YTdEUWNrdUl4Q3ZWMkR6RHEtTTdMcTBjX0ZhV1dBaEROaUx0T052Q3Vwd0laaWo5Z3JYaGNHOUFB,Thai,,5,2015-03-27,Rattee Nantapongwinit,Joe,Good,,
Terminal Emulator for Android,Google Play,jackpal.androidterm,Z3A6QU9xcFRPSGI3M2x1cEwwMExiVVp6TDc0UGV4dGE4T2h0eUxheDBWR0t0YWxUSWdJNEpqdlFSM0hXck1lSG5CN1p5Qi1TTV9JQldRN2lONGJEZXZyLTFj,Turkish,,1,2015-03-27,Emre Ayhan,10 numara 1yildiz,Super ama 1 yildiz gotleri kalkmasin ibnelerin,,
Terminal Emulator for Android,Google Play,jackpal.androidterm,Z3A6QU9xcFRPRV9nTFBVU2xaZDBXYTBobWhxNzBNa0paYXRPMHRlZVk4NzJwTTB6b1ZEbXNjM0JNYzF1M3VWeEt3YkRXd2FXUDY0ZFJsSDFsbDllUFB3M1V3,Turkish,,5,2015-03-27,Fatih Tekeli,Samsung Galaxy S3,Içimdeki inek ortaya çıktı :),,
Terminal Emulator for Android,Google Play,jackpal.androidterm,Z3A6QU9xcFRPRnVpZ3J5OGVwZldVaHpnSnZnR3ZDQ2l5WjE1R3pSNU95V0FNYjdpbUkyYjFuaHV3RG9yWU1oNGg5bHlXb3B0N1dmOEo5NC13cGVHc1RnYnhj,Turkish,,5,2015-03-27,Halit Simseksoy,Kodlari bilen varmi,Kodlari bilen arkadaslar varsa paylasabilirmi lutfen gercekten kulanabilen kodlarini filan bilen biri paylassinda milet ogrensinn,,
Terminal Emulator for Android,Google Play,jackpal.androidterm,Z3A6QU9xcFRPRTdsaHlpazViWE1lZk5qTXFSWW9xVE1RYjhuQWpqMkJyNnhneGlUbEVqUldFOEdTZDNvVC01QmxwZXpLM0hVU2ZxOFQ0TkJoVUM0THhYTGZR,Turkish,,5,2015-03-23,Olcay DÜZCAN,Cok guzel,Yeni simgee harikaaaa,,
Terminal Emulator for Android,Google Play,jackpal.androidterm,bGc6QU9xcFRPR0dKRHpJTGNKVkczM25sM0J3UW5ZQXdOX3RSTEFTVHN2clZhVjhGRUt3RUNHU3AySV93RU95aHotMDVuQnN4WjNIeS1EclVucFBBSHp3UVJn,Turkish,,5,2015-03-23,Bir Google kullanıcısı,Çok iyi,Ama yeni simge olmamış,,
