fix by moving call,b,2014/12/06,,
calling trigger a layout measure pas and the measure pas end up calling which can call through to the service to request the album art which work after the handshake is complete,o,2014/12/06,,
call were happening in the or method create a handshake callback and set the adapter there,o,2014/12/06,,
remove possibility of ordering the same page multiple time,b,2014/12/05,,
fix exception from calling the handshake completed,b,2014/12/05,,
prepare for release 122,f,2014/12/04,,
fix in,b,2014/12/04,,
fix an in,b,2014/12/04,,
check for null return null in case,b,2014/12/04,,
note the is normally a string so if return null it indicates a special condition,b,2014/12/04,,
use this in to affect the visibility of menu item for managing the,f,2014/12/04,,
make sure the option menu is regenerated player information change,f,2014/12/04,,
add annotation for nullity in relevant location,f,2014/12/04,,
fix a crash item do not have,b,2014/12/04,,
at least one server in the wild doe not return for query asked,b,2014/12/04,,
mark volatile,b,2014/12/04,,
fix an issue the handshake can complete in one thread and is set to true but then callback do work in another thread and is still false,b,2014/12/04,,
