Topic Index 1,Topic Index 2,Topic Similarity
1,4,2.0
9,11,2.0
19,14,2.0
0,10,1.0
2,5,1.0
3,1,1.0
5,0,1.0
6,9,1.0
7,8,1.0
8,15,1.0
10,3,1.0
11,13,1.0
14,2,1.0
16,6,1.0
4,7,0.0
12,12,0.0
13,16,0.0
15,17,0.0
17,18,0.0
18,19,0.0
