# deletions,date,commit message
1,2013/10/23,Update italian translation
2,2013/8/09,v1.3
1,2013/8/09,Don't hide accounts without a name
4,2013/8/09,Display error message when we have no permission to access K-9 Mail  When the extension is installed before K-9 Mail it won't have the needed permissions to access K-9 Mail's content provider. Reinstalling or updating the extension fixes this problem.
2,2013/8/09,Show error messages in settings screen
10,2013/8/08,Remove code that is unnecessary because of minSdkVersion 17
2,2013/8/08,Remove useless object creation
4,2013/8/08,Open Play Store app when extension is clicked and K-9 Mail is not installed
2,2013/7/22,v1.2
1,2013/7/22,Validate values returned by K-9 Mail's content provider  This should fix a NPE reported via Google Play.
0,2013/7/01,Remove support library
1718,2013/7/01,Move images to 'assets' branch
4,2013/6/30,v1.1
4,2013/6/30,Fix formatting of AndroidManifest.xml
1,2013/6/30,Ignore all exceptions when unregistering the BroadcastReceiver
0,2013/4/21,Add Play Store assets
2,2013/4/21,Support K-9 Mail 4.2x by cheating (use account number as UUID)
1,2013/4/21,Don't crash when accounts couldn't be retrieved
2,2013/4/20,Add version name to about dialog
5,2013/4/20,Add about dialog
9,2013/4/17,Better handle edge cases  Don't make the settings screen show stuff like "3 of 1 accounts selected". Leave the account selection preference disabled if there are no accounts to select.
1,2013/4/17,Check if K-9 Mail is installed and set up
260,2013/3/27,Modify settings activity to be able to select K-9 Mail accounts
5,2013/3/27,Use 'Android Activity' wizard to create settings activity
1,2013/3/27,Start K-9 Mail when extension is clicked
8,2013/3/27,Perform updates triggered by broadcast intent in background thread
1,2013/3/27,Include DashClock API source instead of using the JAR
1,2013/3/27,Display number of unread messages per account
4,2013/3/27,Add code to display the unread count for all K-9 Mail accounts
1,2013/3/27,Display static text in DashClock
0,2013/3/27,Add DashClock API JAR  Source: https://code.google.com/p/dashclock/downloads/detail?name=dashclock-api-r1.1.jar
