App,Store,App ID,Review ID,Country,Version,Rating,Date,Author,Subject,Body,Translated Subject,Translated Body
Squeezer,Google Play,uk.org.ngo.squeezer,Z3A6QU9xcFRPRW85bnljTXZiOHZGanRyeXYtdUVBLVZ0Q1BxUjd6enpJUHk1UVBjVWR2cFo3Z2V3TXdlOGc3ZnA3M2YxTDRTODlOdlk4Q1FPZThIbElS,English,,5,2015-07-07,Stuart Rowan,Brilliant,work perfectly with the scan button and now enjoying a random shuffle,,
Squeezer,Google Play,uk.org.ngo.squeezer,Z3A6QU9xcFRPRW85bnljTXZiOHZGanRyeXYtdUVBLVZ0Q1BxUjd6enpJUHk1UVBjVWR2cFo3Z2V3TXdlOGc3ZnA3M2YxTDRTODlOdlk4Q1FPZThIbElS,English,,5,2015-07-07,Stuart Rowan,Brilliant,thank you,,
Squeezer,Google Play,uk.org.ngo.squeezer,Z3A6QU9xcFRPR1hkWnlVY0VPOGJFd042bjJhalRmNUFvcE1JWEJoS3pBOTVYdnRiSGFXZ2h0UHFiV0V3NWROaFRTZ09mczVBSGk1am9lN1BOclVRUFZO,English,,5,2015-07-05,Tommy Sharp,,best controller far,,
Squeezer,Google Play,uk.org.ngo.squeezer,Z3A6QU9xcFRPR1hkWnlVY0VPOGJFd042bjJhalRmNUFvcE1JWEJoS3pBOTVYdnRiSGFXZ2h0UHFiV0V3NWROaFRTZ09mczVBSGk1am9lN1BOclVRUFZO,English,,5,2015-07-05,Tommy Sharp,,work great and the syncing of multiple seems to work really well,,
Squeezer,Google Play,uk.org.ngo.squeezer,Z3A6QU9xcFRPR1hkWnlVY0VPOGJFd042bjJhalRmNUFvcE1JWEJoS3pBOTVYdnRiSGFXZ2h0UHFiV0V3NWROaFRTZ09mczVBSGk1am9lN1BOclVRUFZO,English,,5,2015-07-05,Tommy Sharp,,great job,,
Squeezer,Google Play,uk.org.ngo.squeezer,Z3A6QU9xcFRPR0VpVU93R3hIaVNBemQ0SDk5UnNwQzF1amU2R0hfSXMtYzhmUnpGcVJ2OW84SVZmVmdIZkpiRW9ER1ZuLWtGbF9WaDJSekIydERnY0c4,English,,4,2015-07-05,David Virgo,Faster than the Logitech app,very happy with this far,,
Squeezer,Google Play,uk.org.ngo.squeezer,Z3A6QU9xcFRPR0VpVU93R3hIaVNBemQ0SDk5UnNwQzF1amU2R0hfSXMtYzhmUnpGcVJ2OW84SVZmVmdIZkpiRW9ER1ZuLWtGbF9WaDJSekIydERnY0c4,English,,4,2015-07-05,David Virgo,Faster than the Logitech app,the stopped working for me under 51,,
Squeezer,Google Play,uk.org.ngo.squeezer,Z3A6QU9xcFRPR0VpVU93R3hIaVNBemQ0SDk5UnNwQzF1amU2R0hfSXMtYzhmUnpGcVJ2OW84SVZmVmdIZkpiRW9ER1ZuLWtGbF9WaDJSekIydERnY0c4,English,,4,2015-07-05,David Virgo,Faster than the Logitech app,this seems more responsive,,
Squeezer,Google Play,uk.org.ngo.squeezer,Z3A6QU9xcFRPRWExTlI3VHRjZ3RHUmRReUotaXZSRW95cHVMWHd5cmMteGM4X2N3Z0U3aFNtWHJGdDR4MkdEbzRmNjBZNE13aEVDY3FMOExpYVo2akd0,English,,5,2015-07-05,Winthrop Bissell,Like this app. It works.,stopped working,,
Squeezer,Google Play,uk.org.ngo.squeezer,Z3A6QU9xcFRPRWExTlI3VHRjZ3RHUmRReUotaXZSRW95cHVMWHd5cmMteGM4X2N3Z0U3aFNtWHJGdDR4MkdEbzRmNjBZNE13aEVDY3FMOExpYVo2akd0,English,,5,2015-07-05,Winthrop Bissell,Like this app. It works.,maybe due to android update,,
Squeezer,Google Play,uk.org.ngo.squeezer,Z3A6QU9xcFRPRWExTlI3VHRjZ3RHUmRReUotaXZSRW95cHVMWHd5cmMteGM4X2N3Z0U3aFNtWHJGdDR4MkdEbzRmNjBZNE13aEVDY3FMOExpYVo2akd0,English,,5,2015-07-05,Winthrop Bissell,Like this app. It works.,this work well far,,
Squeezer,Google Play,uk.org.ngo.squeezer,Z3A6QU9xcFRPRWExTlI3VHRjZ3RHUmRReUotaXZSRW95cHVMWHd5cmMteGM4X2N3Z0U3aFNtWHJGdDR4MkdEbzRmNjBZNE13aEVDY3FMOExpYVo2akd0,English,,5,2015-07-05,Winthrop Bissell,Like this app. It works.,work on tablet 84,,
Squeezer,Google Play,uk.org.ngo.squeezer,Z3A6QU9xcFRPRXEyUE9RTUFsUFNYZDVUeG9JQTRQUFVsVzR4VjBteUNMZEt6OFhFQnJvV1ctWFd2Wl9FVjJJcWNsOVM0Z0lUaGxaa3E4SVhFa2NNaUha,English,,5,2015-07-01,Koen Maes,Much better than the official one.,the official always h some kind of especially with newer android build but this just work exactly a it should,,
Squeezer,Google Play,uk.org.ngo.squeezer,Z3A6QU9xcFRPRXEyUE9RTUFsUFNYZDVUeG9JQTRQUFVsVzR4VjBteUNMZEt6OFhFQnJvV1ctWFd2Wl9FVjJJcWNsOVM0Z0lUaGxaa3E4SVhFa2NNaUha,English,,5,2015-07-01,Koen Maes,Much better than the official one.,excellent,,
Squeezer,Google Play,uk.org.ngo.squeezer,Z3A6QU9xcFRPSFRPdFNMN1o0SnN6SmVXVnREYU5rQzhMaTJINUZSY0FnZFNTLUhrTTl3WW4ybnhsd0xyT0FmMXBEbFJqNldQOHM1MXFQZHYzS3ZxX0RZ,English,,5,2015-06-25,James Dick,Wow,wow what an amazing love it,,
Squeezer,Google Play,uk.org.ngo.squeezer,Z3A6QU9xcFRPSFRPdFNMN1o0SnN6SmVXVnREYU5rQzhMaTJINUZSY0FnZFNTLUhrTTl3WW4ybnhsd0xyT0FmMXBEbFJqNldQOHM1MXFQZHYzS3ZxX0RZ,English,,5,2015-06-25,James Dick,Wow,all these update are it get better and fantastic,,
Squeezer,Google Play,uk.org.ngo.squeezer,Z3A6QU9xcFRPRlhIOWNudHdEU2JLS3dIOGh6a2NKV1paNHVFMUpaS01lRVpzRUtvaWJQUENaUUp3WmpWZ1AzMjhwYXZiSldjVDBTUU8xRlJtN1o0MWFS,English,,5,2015-06-23,Christian Moser,Best app for your squeezebox needs,open great,,
Squeezer,Google Play,uk.org.ngo.squeezer,Z3A6QU9xcFRPRjc3RTFtTnpZRl9PR2o5YnpIX3NkS2dQTkJ1ZmVfV3g3R1IyeFFqTVJfTW9SX2owVjBHOEw3M2ZGSEtlNkhIUkVLWUd5ZjFORlhCcmJW,English,,5,2015-06-23,Ernest Lau,Works like a charm!,solid performance with functional,,
Squeezer,Google Play,uk.org.ngo.squeezer,Z3A6QU9xcFRPR1U3Y3FnbXl3MkU1WS1icEtGcTRUNVFFa2hROXlWUl9pc3FSRzgwTGt1R0pKVkliY0pPSV9pLUNFV2xmZlhvN0F3NzRGNW5nUUx5WHJ6,English,,5,2015-06-14,Steve Payne,Does the job,doe what it say on the tin,,
Squeezer,Google Play,uk.org.ngo.squeezer,Z3A6QU9xcFRPR1U3Y3FnbXl3MkU1WS1icEtGcTRUNVFFa2hROXlWUl9pc3FSRzgwTGt1R0pKVkliY0pPSV9pLUNFV2xmZlhvN0F3NzRGNW5nUUx5WHJ6,English,,5,2015-06-14,Steve Payne,Does the job,another happy user,,
Squeezer,Google Play,uk.org.ngo.squeezer,Z3A6QU9xcFRPRUwyUHF5a3pMT1IyOGlFcHhOZ2JzbTVpNWUxaUVaTjVOZEJ0TnFpYkhUNWlHR1NzQXllZDhvc0JhOGtfa3Z6UUVveDlFaDVvc0h0WmE0,English,,5,2015-06-11,Michael Burgener,Excellent,squeezer is much better the,,
Squeezer,Google Play,uk.org.ngo.squeezer,Z3A6QU9xcFRPRXAxWEVFV1RhODBJSnNGczhpUDhyejB2VjZac0V1a1FQUjc5aGZSRG80LXlZSTNPejdIMHdUd05ValZNUWpWRDdzOXdlVTlfVWpXQ0dW,English,,5,2015-06-08,Richard dunn,Excellent,immediately on installing squeezer i wa very impressed with the speed and responsiveness,,
Squeezer,Google Play,uk.org.ngo.squeezer,Z3A6QU9xcFRPRXAxWEVFV1RhODBJSnNGczhpUDhyejB2VjZac0V1a1FQUjc5aGZSRG80LXlZSTNPejdIMHdUd05ValZNUWpWRDdzOXdlVTlfVWpXQ0dW,English,,5,2015-06-08,Richard dunn,Excellent,this is now my default,,
Squeezer,Google Play,uk.org.ngo.squeezer,Z3A6QU9xcFRPRXAxWEVFV1RhODBJSnNGczhpUDhyejB2VjZac0V1a1FQUjc5aGZSRG80LXlZSTNPejdIMHdUd05ValZNUWpWRDdzOXdlVTlfVWpXQ0dW,English,,5,2015-06-08,Richard dunn,Excellent,thanks,,
Squeezer,Google Play,uk.org.ngo.squeezer,Z3A6QU9xcFRPRWNINU1CQ3B0Yl9nZmN4ZDRHTm9kRl9JNXR3RDU5TVktbGRJUVdxV3BmaWlVZmRxMEJlVmtpUThyQ2VUQzBhMFk2aUlXdmV3WkE3R2Nw,English,,4,2015-06-08,Tommy Hemmert Olesen,Almost perfect,very close to the perfect controller for the squeeze box family,,
Squeezer,Google Play,uk.org.ngo.squeezer,Z3A6QU9xcFRPRWNINU1CQ3B0Yl9nZmN4ZDRHTm9kRl9JNXR3RDU5TVktbGRJUVdxV3BmaWlVZmRxMEJlVmtpUThyQ2VUQzBhMFk2aUlXdmV3WkE3R2Nw,English,,4,2015-06-08,Tommy Hemmert Olesen,Almost perfect,especially now the official stopped working,,
Squeezer,Google Play,uk.org.ngo.squeezer,Z3A6QU9xcFRPRzBSbks3eW5hOFc1QWNfUERicDU3SVFlejE5ajVWb05ZVVZCOVhLTzJPVDVzZlB1Q0U2QmVRcUl4WkdGNHFwZ3dsQXlsd3VGMUxKWTVB,English,,4,2015-06-06,Joe Wagoner,Better than logitech,nice to see something new for this platform,,
Squeezer,Google Play,uk.org.ngo.squeezer,Z3A6QU9xcFRPRk9aMy0tSHpUN3RLcDJNWkpGeXZNSzdUc29qZWh3Snh0UVVwdjVDQW5mUkMyVnhhUUtCYzlOOXVnR1FSZGVCOXJpdXFiT0pJRExxZ3lv,English,,1,2015-06-02,Elijah Eli,I cannot connect!,i tried to log both my and phone to but it cannot recognize the address,,
Squeezer,Google Play,uk.org.ngo.squeezer,Z3A6QU9xcFRPRk9aMy0tSHpUN3RLcDJNWkpGeXZNSzdUc29qZWh3Snh0UVVwdjVDQW5mUkMyVnhhUUtCYzlOOXVnR1FSZGVCOXJpdXFiT0pJRExxZ3lv,English,,1,2015-06-02,Elijah Eli,I cannot connect!,check setting,,
Squeezer,Google Play,uk.org.ngo.squeezer,Z3A6QU9xcFRPRjhLWDJpckVtMWI2VWU1T3NRd050Nm04WDJwQmdGY0hmR2ppbTV4WWVmRU9tcUYyd1F2SS1PRDJWSFdpekhINm8tQ3FrVFNIVGdCMTFO,English,,4,2015-05-31,Mark Underwood,Better than Official,the official is slow and tends to crash regularly,,
Squeezer,Google Play,uk.org.ngo.squeezer,Z3A6QU9xcFRPRjhLWDJpckVtMWI2VWU1T3NRd050Nm04WDJwQmdGY0hmR2ppbTV4WWVmRU9tcUYyd1F2SS1PRDJWSFdpekhINm8tQ3FrVFNIVGdCMTFO,English,,4,2015-05-31,Mark Underwood,Better than Official,primary difference is that this sends command over rather through server,,
Squeezer,Google Play,uk.org.ngo.squeezer,Z3A6QU9xcFRPRjhLWDJpckVtMWI2VWU1T3NRd050Nm04WDJwQmdGY0hmR2ppbTV4WWVmRU9tcUYyd1F2SS1PRDJWSFdpekhINm8tQ3FrVFNIVGdCMTFO,English,,4,2015-05-31,Mark Underwood,Better than Official,album art is a nice touch,,
Squeezer,Google Play,uk.org.ngo.squeezer,Z3A6QU9xcFRPSFZRekxiVUE4aFZMN1F1SEsyTFJoeFBabTN3UDJacUJoR2dvTTlQcGoxMjl6Q1l0M2Q4Tkg4akN5Zm1fbnYwQUYwS2V0bTZ4NUJnZzdH,English,,1,2015-05-31,Thom Louis Attwood,Can't access Apps,particularly,,
Squeezer,Google Play,uk.org.ngo.squeezer,Z3A6QU9xcFRPRlRjckNaNFF1NlJLOWpmbGJPaVVjbHl6TnU5VkswMWZmaXh0TGZXQzNmZ0VmRGg5XzE1RVR5alVOTFRHcm1oWGJ3RmtVd3lCWXhDMTNL,English,,4,2015-05-30,Tim W,Nicely done!,different from the official but better in many way,,
Squeezer,Google Play,uk.org.ngo.squeezer,Z3A6QU9xcFRPRlRjckNaNFF1NlJLOWpmbGJPaVVjbHl6TnU5VkswMWZmaXh0TGZXQzNmZ0VmRGg5XzE1RVR5alVOTFRHcm1oWGJ3RmtVd3lCWXhDMTNL,English,,4,2015-05-30,Tim W,Nicely done!,load easy swipe down access and all the important feature,,
Squeezer,Google Play,uk.org.ngo.squeezer,Z3A6QU9xcFRPRmZnSkJnc3J5VWFYYzkzTXllRTN4MjFMZm5BWmpreXNyUWxTQzV0MEE4ckRuSWtPTzVrczN2WnlMdXlMVHcwY0J1dHRNc1Y1T2dQZnEz,English,,1,2015-05-29,Dan Kwok,App doesn't work,keep saying connection failed check even i put in the correct address,,
Squeezer,Google Play,uk.org.ngo.squeezer,Z3A6QU9xcFRPRjFyS3VJd1R5S0p1NHVtVzdWbVpvNVkxaEhyRzNmSU56WnlOUGN6cTlrcUctenpPUTQtUmVkU2U0aldjTkljUUdfLUdnazVDWkdUZEVz,English,,4,2015-05-28,Ben Taratoot,Excellent app. Hope it continues to improve.,this is a great,,
Squeezer,Google Play,uk.org.ngo.squeezer,Z3A6QU9xcFRPRjFyS3VJd1R5S0p1NHVtVzdWbVpvNVkxaEhyRzNmSU56WnlOUGN6cTlrcUctenpPUTQtUmVkU2U0aldjTkljUUdfLUdnazVDWkdUZEVz,English,,4,2015-05-28,Ben Taratoot,Excellent app. Hope it continues to improve.,you start a album or by tapping a play doe not continue past that one song,,
Squeezer,Google Play,uk.org.ngo.squeezer,Z3A6QU9xcFRPRjFyS3VJd1R5S0p1NHVtVzdWbVpvNVkxaEhyRzNmSU56WnlOUGN6cTlrcUctenpPUTQtUmVkU2U0aldjTkljUUdfLUdnazVDWkdUZEVz,English,,4,2015-05-28,Ben Taratoot,Excellent app. Hope it continues to improve.,i can work around it but an option for this would be nice,,
Squeezer,Google Play,uk.org.ngo.squeezer,Z3A6QU9xcFRPRXJDRnJKNHFPSGlKOTg1SHJJMWw1VG93MF9iTzVNdHZjNmpxOUEzeUU3LTNEMlJyT09QSXBMM1hjZkZKWHR1RzFVa1A1ZUVKYVVfUFNC,English,,5,2015-05-25,S Imdaman,So far awesomeness,work great,,
Squeezer,Google Play,uk.org.ngo.squeezer,Z3A6QU9xcFRPR05xSTR0YmRzMDNNRTViVVRDUmtvdmw2Nlk0cGFpaVNla0E2blE2SkcxY1Awb1Q0OTdsS1lKVnA1NHVwaGx6LVBFTVY3d2R5M2NkTXdq,English,,5,2015-05-22,Jon Hill,Best squeezebox controller out there,ha this been all my life,,
Squeezer,Google Play,uk.org.ngo.squeezer,Z3A6QU9xcFRPR05xSTR0YmRzMDNNRTViVVRDUmtvdmw2Nlk0cGFpaVNla0E2blE2SkcxY1Awb1Q0OTdsS1lKVnA1NHVwaGx6LVBFTVY3d2R5M2NkTXdq,English,,5,2015-05-22,Jon Hill,Best squeezebox controller out there,thanks,,
Squeezer,Google Play,uk.org.ngo.squeezer,Z3A6QU9xcFRPRjhQQkNDNXhXdzl5bmx1WTc3clktWU1EajBoUHlRQUxwbXNRRkhuc2pkY2p1bnFiUUFKaWpvczBCbkN1LW5JWG9vOXJNR0NDTnMtQkph,English,,5,2015-05-19,Graham White,Excellent,work better the,,
Squeezer,Google Play,uk.org.ngo.squeezer,Z3A6QU9xcFRPSHYyY1FMczBDU2ZYME5nc01hblNGRE51X2dVeUlwTUNCaHdxYnE4Z1lWbTdqaTMxN3I3MnhoY3dRdmwyUXI5UU9rM2N5VFZPU1pDMUVJ,English,,5,2015-05-18,Pauly B,Great work!,any chance to move volume to the main screen instead of in menu,,
Squeezer,Google Play,uk.org.ngo.squeezer,Z3A6QU9xcFRPRUtyWktsanM3X3dzd3MxVzhhQlZxNnZ6LXE1bFRiR3VMZks2RnJ6a1hEazIyRU42SE0xU1ZaRFFJd0NOR2FGQU5zbHBuQmFDNHhKaU5f,English,,5,2015-05-17,Matt Gould,,excellent work,,
Squeezer,Google Play,uk.org.ngo.squeezer,Z3A6QU9xcFRPRUtyWktsanM3X3dzd3MxVzhhQlZxNnZ6LXE1bFRiR3VMZks2RnJ6a1hEazIyRU42SE0xU1ZaRFFJd0NOR2FGQU5zbHBuQmFDNHhKaU5f,English,,5,2015-05-17,Matt Gould,,re n to use my old a i can use my phone a remote,,
