# deletions,date,commit message
5,2014/12/07,use instead of in a boolean context
2,2014/12/07,prepare for release 123
1,2014/12/07,ensure the is below the
1,2014/12/07,fix inverted logic error showing option menu item
15,2014/12/07,wrap the in a
15,2014/12/07,without this changing the content of any other item in the layout will cause the layout to which cause the scrolling marquee text to reset
15,2014/12/07,wrapping the in a mean that the will not change size then the layout is recalculated and the text continues to scroll
39,2014/12/07,hash the player id to generate a long identifier for it
39,2014/12/07,converting the mac address to a long doe not work for player do not use the mac address a their identifier
