App,Store,App ID,Review ID,Country,Version,Rating,Date,Author,Subject,Body,Translated Subject,Translated Body
Squeezer,Google Play,uk.org.ngo.squeezer,Z3A6QU9xcFRPR3Y0bW5tM0V0QkpuOFdLUEVvZ2hrSTVMLXNkWDIwdkI5NFcwTjNuaWIyMk4tMFUxeGhFd2ZySFU5VWM0TnFCMzQ0NDdNcERJM3hRdjJk,English,,5,2017-05-14,Paul Grayson,,work great,,
Squeezer,Google Play,uk.org.ngo.squeezer,Z3A6QU9xcFRPRUtIMk1BOU10MWhjcEU4QzJEV3Nyb3hUcjlEU0ZCU2s3bTc3SnZyakhBTmVCN3VrcVJuYlpOTm9yV3BERW04Mm5sbl9iRFVGakhaQW1O,English,,5,2017-05-10,Heikki A,,better original,,
Squeezer,Google Play,uk.org.ngo.squeezer,Z3A6QU9xcFRPRUtIMk1BOU10MWhjcEU4QzJEV3Nyb3hUcjlEU0ZCU2s3bTc3SnZyakhBTmVCN3VrcVJuYlpOTm9yV3BERW04Mm5sbl9iRFVGakhaQW1O,English,,5,2017-05-10,Heikki A,,clean and it should be,,
Squeezer,Google Play,uk.org.ngo.squeezer,Z3A6QU9xcFRPRUtIMk1BOU10MWhjcEU4QzJEV3Nyb3hUcjlEU0ZCU2s3bTc3SnZyakhBTmVCN3VrcVJuYlpOTm9yV3BERW04Mm5sbl9iRFVGakhaQW1O,English,,5,2017-05-10,Heikki A,,perfect,,
Squeezer,Google Play,uk.org.ngo.squeezer,Z3A6QU9xcFRPRTFzUnd4RkpKcVZKNDhSNXJacjlUVFlUdU5KZmMtdi1LYk5TeTlKMzgybDVaWU9XbkdsRnNzaFdTTXpERGhvWEcwMEx3YnRQUG1FODZk,English,,3,2017-05-10,Vincent Lo,,please can this be fixed,,
Squeezer,Google Play,uk.org.ngo.squeezer,Z3A6QU9xcFRPRTJ3MEx4OS12WXV3MkdxUjBDTmZxT3NPTl80LTc2VzIwWGk0aS1OOXltdGRpbDhva1pWMWJ0VWhsbXZyeXp2ZUsycEpab3doUVZ2c2x5,English,,5,2017-05-08,Neil Dennis,,better official,,
Squeezer,Google Play,uk.org.ngo.squeezer,Z3A6QU9xcFRPR3VFREdjYTBaR1lxTVN0NFhqRnRfUmVLb21wTW9POXNuZjBrTEx6U3VEdGZLVXhMbUJHSjZKalkzblUxVFkxWHBscUc0SllDSXQ4VGRi,English,,5,2017-05-08,,,great controller,,
Squeezer,Google Play,uk.org.ngo.squeezer,Z3A6QU9xcFRPRU01TzZjM1BFSGZYQS12RU4tZTBBcHRMaXEzSjV4VElWLWlaSF9mWVJyM3pqRnZzVFhwZDlXeWVCNEFZTG12S2RPcm1DTXgwWUJPZTR0,English,,5,2017-05-07,Alistair Gillies,,it knock the official version into a cocked hat,,
Squeezer,Google Play,uk.org.ngo.squeezer,Z3A6QU9xcFRPRlhZdHM1aXRqdzRqOU9UU0o0anVBM0ZrOEZRb2VzRjJWNUp2Wm91WXNjMG5JNUZPTlA3TW5ET0FtYjJpUnczd1hzUlEwWHFRY085R0JX,English,,5,2017-05-03,Chris Oulahen,,my remote for my stopped working i gave this a try,,
Squeezer,Google Play,uk.org.ngo.squeezer,Z3A6QU9xcFRPRlhZdHM1aXRqdzRqOU9UU0o0anVBM0ZrOEZRb2VzRjJWNUp2Wm91WXNjMG5JNUZPTlA3TW5ET0FtYjJpUnczd1hzUlEwWHFRY085R0JX,English,,5,2017-05-03,Chris Oulahen,,it work better my remote,,
Squeezer,Google Play,uk.org.ngo.squeezer,Z3A6QU9xcFRPRlhZdHM1aXRqdzRqOU9UU0o0anVBM0ZrOEZRb2VzRjJWNUp2Wm91WXNjMG5JNUZPTlA3TW5ET0FtYjJpUnczd1hzUlEwWHFRY085R0JX,English,,5,2017-05-03,Chris Oulahen,,easy to use and broad feature set,,
Squeezer,Google Play,uk.org.ngo.squeezer,Z3A6QU9xcFRPRlhZdHM1aXRqdzRqOU9UU0o0anVBM0ZrOEZRb2VzRjJWNUp2Wm91WXNjMG5JNUZPTlA3TW5ET0FtYjJpUnczd1hzUlEwWHFRY085R0JX,English,,5,2017-05-03,Chris Oulahen,,option to download is a really good and unexpected feature,,
Squeezer,Google Play,uk.org.ngo.squeezer,Z3A6QU9xcFRPRlhZdHM1aXRqdzRqOU9UU0o0anVBM0ZrOEZRb2VzRjJWNUp2Wm91WXNjMG5JNUZPTlA3TW5ET0FtYjJpUnczd1hzUlEwWHFRY085R0JX,English,,5,2017-05-03,Chris Oulahen,,well designed and implemented software application,,
Squeezer,Google Play,uk.org.ngo.squeezer,Z3A6QU9xcFRPSGFkYTh2eGJFemtMQU9iX3lNcUVrS1N6OEZ3WWYzcTlLM2ptSDI5NWFfQVEyR0VTUU9iTDVIVU9mZkVsbktkQlpYazc1N2d4c2hQcEFN,English,,5,2017-04-28,Dave Evans,,great and top mark to the guy developing and maintaining it,,
Squeezer,Google Play,uk.org.ngo.squeezer,Z3A6QU9xcFRPSGFkYTh2eGJFemtMQU9iX3lNcUVrS1N6OEZ3WWYzcTlLM2ptSDI5NWFfQVEyR0VTUU9iTDVIVU9mZkVsbktkQlpYazc1N2d4c2hQcEFN,English,,5,2017-04-28,Dave Evans,,is tapping forward or backward ha no effect is this a design feature or a bug,,
Squeezer,Google Play,uk.org.ngo.squeezer,Z3A6QU9xcFRPSGFkYTh2eGJFemtMQU9iX3lNcUVrS1N6OEZ3WWYzcTlLM2ptSDI5NWFfQVEyR0VTUU9iTDVIVU9mZkVsbktkQlpYazc1N2d4c2hQcEFN,English,,5,2017-04-28,Dave Evans,,forward and back work the same a on web interface something is playing,,
Squeezer,Google Play,uk.org.ngo.squeezer,Z3A6QU9xcFRPSGFkYTh2eGJFemtMQU9iX3lNcUVrS1N6OEZ3WWYzcTlLM2ptSDI5NWFfQVEyR0VTUU9iTDVIVU9mZkVsbktkQlpYazc1N2d4c2hQcEFN,English,,5,2017-04-28,Dave Evans,,still an excellent and doe what i use most,,
Squeezer,Google Play,uk.org.ngo.squeezer,Z3A6QU9xcFRPRjlSeEJCcDdtSjhURm1uTnJtM196VUZnS1AwdFJBb093dEhFVVoxYXVXZXlDc05Hb1NvWEM4NGhSd3NYRzJaLTMxRVJKY0d4QUdjaDln,English,,5,2017-04-16,Martin Charles,,oh my gosh,,
Squeezer,Google Play,uk.org.ngo.squeezer,Z3A6QU9xcFRPRjlSeEJCcDdtSjhURm1uTnJtM196VUZnS1AwdFJBb093dEhFVVoxYXVXZXlDc05Hb1NvWEM4NGhSd3NYRzJaLTMxRVJKY0d4QUdjaDln,English,,5,2017-04-16,Martin Charles,,i never knew it existed,,
Squeezer,Google Play,uk.org.ngo.squeezer,Z3A6QU9xcFRPRjlSeEJCcDdtSjhURm1uTnJtM196VUZnS1AwdFJBb093dEhFVVoxYXVXZXlDc05Hb1NvWEM4NGhSd3NYRzJaLTMxRVJKY0d4QUdjaDln,English,,5,2017-04-16,Martin Charles,,the interface on this is intuitive,,
Squeezer,Google Play,uk.org.ngo.squeezer,Z3A6QU9xcFRPRjlSeEJCcDdtSjhURm1uTnJtM196VUZnS1AwdFJBb093dEhFVVoxYXVXZXlDc05Hb1NvWEM4NGhSd3NYRzJaLTMxRVJKY0d4QUdjaDln,English,,5,2017-04-16,Martin Charles,,so much better the web interface,,
Squeezer,Google Play,uk.org.ngo.squeezer,Z3A6QU9xcFRPRjlSeEJCcDdtSjhURm1uTnJtM196VUZnS1AwdFJBb093dEhFVVoxYXVXZXlDc05Hb1NvWEM4NGhSd3NYRzJaLTMxRVJKY0d4QUdjaDln,English,,5,2017-04-16,Martin Charles,,this is the should have been bundled with my touch from the get go,,
Squeezer,Google Play,uk.org.ngo.squeezer,Z3A6QU9xcFRPRm1RNmdILTd1Z201QmJVa1hIVTZjWGE3Wl82M3ZjTjBEMWx6S0JRUkEyYmw2VnoyaEJNVVhBS3VPOWlUODI1SC10VzhEek1xZG1ua25w,English,,4,2017-04-15,aaron quantz,,work good,,
Squeezer,Google Play,uk.org.ngo.squeezer,Z3A6QU9xcFRPRm1RNmdILTd1Z201QmJVa1hIVTZjWGE3Wl82M3ZjTjBEMWx6S0JRUkEyYmw2VnoyaEJNVVhBS3VPOWlUODI1SC10VzhEek1xZG1ua25w,English,,4,2017-04-15,aaron quantz,,orange squeeze seems to be dead this is a good alternative,,
Squeezer,Google Play,uk.org.ngo.squeezer,Z3A6QU9xcFRPRm1RNmdILTd1Z201QmJVa1hIVTZjWGE3Wl82M3ZjTjBEMWx6S0JRUkEyYmw2VnoyaEJNVVhBS3VPOWlUODI1SC10VzhEek1xZG1ua25w,English,,4,2017-04-15,aaron quantz,,doe this pause phone in use,,
Squeezer,Google Play,uk.org.ngo.squeezer,Z3A6QU9xcFRPRzhETFA1aXpfZnFVUG5LcDd4dXZWRzExeDZNSzBVdWdRcnFjd05kWWh3Q3gtUzdYakxtMVZUX0phX1NiTHJ4V216cDRhTVJkcmRpSmUy,English,,5,2017-04-14,Bill Cannastra,,thankful for this,,
Squeezer,Google Play,uk.org.ngo.squeezer,Z3A6QU9xcFRPRzhETFA1aXpfZnFVUG5LcDd4dXZWRzExeDZNSzBVdWdRcnFjd05kWWh3Q3gtUzdYakxtMVZUX0phX1NiTHJ4V216cDRhTVJkcmRpSmUy,English,,5,2017-04-14,Bill Cannastra,,work great and let me control my music library via my touch,,
Squeezer,Google Play,uk.org.ngo.squeezer,Z3A6QU9xcFRPR0Z6dmhfc2xYZXdSMjh5ZDVIa1kxX2tIZG5JU1Vud215TFVPWUJaQ1M4ZTlWeVpFbUpGSURILThIaXB5M3Q1bnV2Vzg1UUp0SExTWlpu,English,,4,2017-04-13,Aaron Klenke,,love the,,
Squeezer,Google Play,uk.org.ngo.squeezer,Z3A6QU9xcFRPR0Z6dmhfc2xYZXdSMjh5ZDVIa1kxX2tIZG5JU1Vud215TFVPWUJaQ1M4ZTlWeVpFbUpGSURILThIaXB5M3Q1bnV2Vzg1UUp0SExTWlpu,English,,4,2017-04-13,Aaron Klenke,,i ran out of skip for and now i can skip via the notification in the skip is disabled,,
Squeezer,Google Play,uk.org.ngo.squeezer,Z3A6QU9xcFRPR0Z6dmhfc2xYZXdSMjh5ZDVIa1kxX2tIZG5JU1Vud215TFVPWUJaQ1M4ZTlWeVpFbUpGSURILThIaXB5M3Q1bnV2Vzg1UUp0SExTWlpu,English,,4,2017-04-13,Aaron Klenke,,any help,,
Squeezer,Google Play,uk.org.ngo.squeezer,Z3A6QU9xcFRPSFZoMi1DWUV5MzJIVDlsd3VPQ2xlWEZEM0Y0YllJaVRzNXNVM1I0bWdCdlNsdi16bjFoakNxQ3J4ZFVlTEdHYkM3SXRta3Uwdng0VjRE,English,,5,2017-04-12,Fredrik Månsson,,i use it with a few raspberry pie,,
Squeezer,Google Play,uk.org.ngo.squeezer,Z3A6QU9xcFRPSFZoMi1DWUV5MzJIVDlsd3VPQ2xlWEZEM0Y0YllJaVRzNXNVM1I0bWdCdlNsdi16bjFoakNxQ3J4ZFVlTEdHYkM3SXRta3Uwdng0VjRE,English,,5,2017-04-12,Fredrik Månsson,,search for content work now,,
Squeezer,Google Play,uk.org.ngo.squeezer,Z3A6QU9xcFRPSFZoMi1DWUV5MzJIVDlsd3VPQ2xlWEZEM0Y0YllJaVRzNXNVM1I0bWdCdlNsdi16bjFoakNxQ3J4ZFVlTEdHYkM3SXRta3Uwdng0VjRE,English,,5,2017-04-12,Fredrik Månsson,,,,
Squeezer,Google Play,uk.org.ngo.squeezer,Z3A6QU9xcFRPRjBoY1k3ejF2NVJJU2thUHNZckFwQUYySGtJVmZHNTdYeWhpMVktSmNOS3F2T2M5TlpwTXBMamR1Ml9sT0tWQmRYZ1FGYklBN3RGQWVJ,English,,5,2017-04-11,Eric Baillargeon,,my whole collection on demand right from my tablet,,
Squeezer,Google Play,uk.org.ngo.squeezer,Z3A6QU9xcFRPRk9pZTd0UVFnaTRZb1ltSXBIY1g3UTVqZmZoSUNnc1l2dVNybXU3aVg4YVdkOVk5di13TVBKZ3NUc2xPaEM3aWxuVEl2TmUzSDN5ZnBl,English,,4,2017-04-11,Francis Deweirdt,,rightfully the most downloaded,,
Squeezer,Google Play,uk.org.ngo.squeezer,Z3A6QU9xcFRPRk9pZTd0UVFnaTRZb1ltSXBIY1g3UTVqZmZoSUNnc1l2dVNybXU3aVg4YVdkOVk5di13TVBKZ3NUc2xPaEM3aWxuVEl2TmUzSDN5ZnBl,English,,4,2017-04-11,Francis Deweirdt,,will be glad to give 5 star and even able to select genre for random mix,,
Squeezer,Google Play,uk.org.ngo.squeezer,Z3A6QU9xcFRPRk9pZTd0UVFnaTRZb1ltSXBIY1g3UTVqZmZoSUNnc1l2dVNybXU3aVg4YVdkOVk5di13TVBKZ3NUc2xPaEM3aWxuVEl2TmUzSDN5ZnBl,English,,4,2017-04-11,Francis Deweirdt,,excellent work,,
Squeezer,Google Play,uk.org.ngo.squeezer,Z3A6QU9xcFRPSFdnQ3RNZlM4ZjBIc2ZrbTFrUmVIRUlhSmpLUHYxT09WS2JPdDg2NGFhenBBVDlsR01BN3hldmJwLUlLYUFLQ0szTWxYRmFpaFptaWdl,English,,5,2017-04-05,Olivier Magere,,perfect,,
Squeezer,Google Play,uk.org.ngo.squeezer,Z3A6QU9xcFRPSFdnQ3RNZlM4ZjBIc2ZrbTFrUmVIRUlhSmpLUHYxT09WS2JPdDg2NGFhenBBVDlsR01BN3hldmJwLUlLYUFLQ0szTWxYRmFpaFptaWdl,English,,5,2017-04-05,Olivier Magere,,huge thanks to the team,,
Squeezer,Google Play,uk.org.ngo.squeezer,Z3A6QU9xcFRPRmwzSkN6b3lrX2F5UVRDVjVwQU0zVzZwSW5IcF9VNWVFR2huVGQ2bFBMQmRHOVNLNTRXLXgwZ0lDWmdRNm1IV052dVUzWkV2WkR5UDBT,English,,5,2017-04-03,Gavin Hamill,,now feature searching for support it like music and,,
Squeezer,Google Play,uk.org.ngo.squeezer,Z3A6QU9xcFRPRmwzSkN6b3lrX2F5UVRDVjVwQU0zVzZwSW5IcF9VNWVFR2huVGQ2bFBMQmRHOVNLNTRXLXgwZ0lDWmdRNm1IV052dVUzWkV2WkR5UDBT,English,,5,2017-04-03,Gavin Hamill,,really perfect for the squeeze server,,
Squeezer,Google Play,uk.org.ngo.squeezer,Z3A6QU9xcFRPR3VyVlVBVUZQMlJHT1BpSnBGMlpKeDQ3SmxhczlPS1hZTE1ob0tBOW1PR0RQSTZsR0tHRnpuOTZwTnRldGp3Z1lrQjZmUGtFb0tPWHE1,English,,5,2017-04-02,Matej Konecny,,the last the allows to search through,,
Squeezer,Google Play,uk.org.ngo.squeezer,Z3A6QU9xcFRPR3VyVlVBVUZQMlJHT1BpSnBGMlpKeDQ3SmxhczlPS1hZTE1ob0tBOW1PR0RQSTZsR0tHRnpuOTZwTnRldGp3Z1lrQjZmUGtFb0tPWHE1,English,,5,2017-04-02,Matej Konecny,,great new feature,,
Squeezer,Google Play,uk.org.ngo.squeezer,Z3A6QU9xcFRPRmNjbVlRNlBERW5pNC1CenpUMWM0NHhmRmJpV2p6UG92Vzl3MlVNMU91WXZWMkZ0TmtfRTlyY1NqZmhQc2JsMy1tUTlZWVY2TllmbGlt,English,,5,2017-04-01,Michael Kollmann,,latest update is great now,,
Squeezer,Google Play,uk.org.ngo.squeezer,Z3A6QU9xcFRPRmNjbVlRNlBERW5pNC1CenpUMWM0NHhmRmJpV2p6UG92Vzl3MlVNMU91WXZWMkZ0TmtfRTlyY1NqZmhQc2JsMy1tUTlZWVY2TllmbGlt,English,,5,2017-04-01,Michael Kollmann,,search in is,,
Squeezer,Google Play,uk.org.ngo.squeezer,Z3A6QU9xcFRPRVpObGYwMWU4WTg4MHMtSmczc3pNUVctY2N6R0ZqQXd4VU85ZTNhSEdaNFFzaWh3ak1YcWVNWW9BZkM3cENXOG0xSEtuVDFGblBFS1M1,English,,5,2017-04-01,Harry Shipton,,sadly the search functionality on like do not work they should,,
Squeezer,Google Play,uk.org.ngo.squeezer,Z3A6QU9xcFRPRVpObGYwMWU4WTg4MHMtSmczc3pNUVctY2N6R0ZqQXd4VU85ZTNhSEdaNFFzaWh3ak1YcWVNWW9BZkM3cENXOG0xSEtuVDFGblBFS1M1,English,,5,2017-04-01,Harry Shipton,,i had originally made a quick fix from the source on so it wa still usable,,
Squeezer,Google Play,uk.org.ngo.squeezer,Z3A6QU9xcFRPRU5hTFdfSEttUkZEUDZ1eXZjMl8zVEVRc0R1Y19sNjlOb00yQWZVT0dIemxWWVhud09oNGxEaUZfOW1wZkFTbkF1VFQ4UUVkUXA0ZTdx,English,,5,2017-04-01,John H,,free thanks for keeping the alive,,
Squeezer,Google Play,uk.org.ngo.squeezer,Z3A6QU9xcFRPRU5hTFdfSEttUkZEUDZ1eXZjMl8zVEVRc0R1Y19sNjlOb00yQWZVT0dIemxWWVhud09oNGxEaUZfOW1wZkFTbkF1VFQ4UUVkUXA0ZTdx,English,,5,2017-04-01,John H,,thanks for your reply,,
Squeezer,Google Play,uk.org.ngo.squeezer,Z3A6QU9xcFRPRU5hTFdfSEttUkZEUDZ1eXZjMl8zVEVRc0R1Y19sNjlOb00yQWZVT0dIemxWWVhud09oNGxEaUZfOW1wZkFTbkF1VFQ4UUVkUXA0ZTdx,English,,5,2017-04-01,John H,,any clue,,
Squeezer,Google Play,uk.org.ngo.squeezer,Z3A6QU9xcFRPRU5hTFdfSEttUkZEUDZ1eXZjMl8zVEVRc0R1Y19sNjlOb00yQWZVT0dIemxWWVhud09oNGxEaUZfOW1wZkFTbkF1VFQ4UUVkUXA0ZTdx,English,,5,2017-04-01,John H,,,,
Squeezer,Google Play,uk.org.ngo.squeezer,Z3A6QU9xcFRPR3B4RW13V3l6NUluTzRsTlJwVUQ0LW14WERucGh0MHRPRHppdlZ1N0pDVkRYUWpoUmdoZzhRSXpxcUVTOUhwdDQ3NTJ2UHg1dVFGdGNS,English,,4,2017-03-30,andy,,great any chance of a black theme well a the dark theme,,
Squeezer,Google Play,uk.org.ngo.squeezer,Z3A6QU9xcFRPSGpnUFpUU3FLR3VXSkpJckZVVVNaRUpLMS1xSE10VGhoWkppTlVnbFpZakg4Y01RcTJvRHV2TmdGNkhGcWZsdFBkQ3Vnci1zci1nQTdH,English,,5,2017-03-10,George TJ,,i love squeezer and medium server,,
Squeezer,Google Play,uk.org.ngo.squeezer,Z3A6QU9xcFRPSGpnUFpUU3FLR3VXSkpJckZVVVNaRUpLMS1xSE10VGhoWkppTlVnbFpZakg4Y01RcTJvRHV2TmdGNkhGcWZsdFBkQ3Vnci1zci1nQTdH,English,,5,2017-03-10,George TJ,,then some,,
Squeezer,Google Play,uk.org.ngo.squeezer,Z3A6QU9xcFRPR2VuY29WaGE0UkpIanhqcTZONzBxcHVReHpWN2pueWhfZ0lqOG40eFRWQmhWUl9OeDZBWkhDOXMwWXNVcUpWM2x2NDBKcjJXODdhSUNL,English,,5,2017-03-07,Jonathan Willard,,it work,,
Squeezer,Google Play,uk.org.ngo.squeezer,Z3A6QU9xcFRPR2VuY29WaGE0UkpIanhqcTZONzBxcHVReHpWN2pueWhfZ0lqOG40eFRWQmhWUl9OeDZBWkhDOXMwWXNVcUpWM2x2NDBKcjJXODdhSUNL,English,,5,2017-03-07,Jonathan Willard,,it work well,,
Squeezer,Google Play,uk.org.ngo.squeezer,Z3A6QU9xcFRPR2VuY29WaGE0UkpIanhqcTZONzBxcHVReHpWN2pueWhfZ0lqOG40eFRWQmhWUl9OeDZBWkhDOXMwWXNVcUpWM2x2NDBKcjJXODdhSUNL,English,,5,2017-03-07,Jonathan Willard,,smooth butter,,
Squeezer,Google Play,uk.org.ngo.squeezer,Z3A6QU9xcFRPRTVSRVpXZTFsaE1QeGZtbkd5RHlDV3VyVFhZMklFRWowRDNXYTB6TkYyZ1p3YXlTbl9STHFyaElJNzdfcnRWV050Z0dadG1fX25Ga0VT,English,,4,2017-03-04,,,still an awesome,,
Squeezer,Google Play,uk.org.ngo.squeezer,Z3A6QU9xcFRPRlk3NzJXVDIwSnZXTGMtMFEtNzJBVHBtUlBUdThXSTZ1S1JscE0wYnNhemNLcmZrUmxpbFpKV1RCV21zQ1JTUzhzcENyVTNKZDB5LTQ5,English,,3,2017-02-25,monsur hussain,,used to but since last update it now requires restarting reopening shame a it wa perfect,,
Squeezer,Google Play,uk.org.ngo.squeezer,Z3A6QU9xcFRPR3V4WkJPZFRDUHJkUFc3ZmRjdDllNWN2cEE1SE1WNTY0Y2o5TXVYV1M5SnBBNXN2UE5CTFpGM3Q3Tk9xTjE0N2dyQ19yMGxZcF9XNkVB,English,,5,2017-02-24,Andrew McCorkell,,good a any of the paid,,
Squeezer,Google Play,uk.org.ngo.squeezer,Z3A6QU9xcFRPR3V4WkJPZFRDUHJkUFc3ZmRjdDllNWN2cEE1SE1WNTY0Y2o5TXVYV1M5SnBBNXN2UE5CTFpGM3Q3Tk9xTjE0N2dyQ19yMGxZcF9XNkVB,English,,5,2017-02-24,Andrew McCorkell,,great work thanks,,
Squeezer,Google Play,uk.org.ngo.squeezer,Z3A6QU9xcFRPRXVyQ0hlS0VXRVRkbG53bUo3SDYtNUFiMGQ2V1gxdjNVcXRzMjFQUEotdnJESW9Qdk1sZFFwS1pRanVkeDZ0QjlDWnNfZUdiYVgtNGNp,English,,5,2017-02-22,Rafael Oropeza,,excellent,,
Squeezer,Google Play,uk.org.ngo.squeezer,Z3A6QU9xcFRPRXVyQ0hlS0VXRVRkbG53bUo3SDYtNUFiMGQ2V1gxdjNVcXRzMjFQUEotdnJESW9Qdk1sZFFwS1pRanVkeDZ0QjlDWnNfZUdiYVgtNGNp,English,,5,2017-02-22,Rafael Oropeza,,minor flaw but in general is a very good alternative to paid solution,,
Squeezer,Google Play,uk.org.ngo.squeezer,Z3A6QU9xcFRPRURZeU1tYm12QmgzRWcxZlN1MHVlMnFRVkJ3aXZrNzVaVGk1c0tPX3BrOTNCVFl0cjhtUS13ZWt5TE5aOGg3a0ZuYVRRSnJPOUNKYmRJ,English,,4,2017-02-19,,,it work well with the downside being the volume control which on my phone at least is a bit sticky or unresponsive otherwise it be 5 star,,
Squeezer,Google Play,uk.org.ngo.squeezer,Z3A6QU9xcFRPR3BrRE9WbGUxT1NmeWdXRTRUMlJDN2M5WTBJLXcyelhsMzlrX1B3NFAxWkNReFRpcThKR1BBcEVzWUVmc1hCeGJtbWMtOGJTS01hS3d6,English,,5,2017-02-06,Jill angelichio,,thank you,,
Squeezer,Google Play,uk.org.ngo.squeezer,Z3A6QU9xcFRPR3BrRE9WbGUxT1NmeWdXRTRUMlJDN2M5WTBJLXcyelhsMzlrX1B3NFAxWkNReFRpcThKR1BBcEVzWUVmc1hCeGJtbWMtOGJTS01hS3d6,English,,5,2017-02-06,Jill angelichio,,doe everything a owner need from the phone,,
Squeezer,Google Play,uk.org.ngo.squeezer,Z3A6QU9xcFRPRlNvak9PN2ZDbmp0Y05FX1JIVV9rM3B3SHEyOXljc3h6aFU1SXNTS0NhdGFuSnBoN25sUGpzRGdUcEhHUC1aREo3eHJwbHVhMWNsSHNV,English,,4,2017-01-21,Luke D,,great work with my server based on protocol,,
Squeezer,Google Play,uk.org.ngo.squeezer,Z3A6QU9xcFRPRlNvak9PN2ZDbmp0Y05FX1JIVV9rM3B3SHEyOXljc3h6aFU1SXNTS0NhdGFuSnBoN25sUGpzRGdUcEhHUC1aREo3eHJwbHVhMWNsSHNV,English,,4,2017-01-21,Luke D,,however lack like alphabetical selection big or displaying source file type and,,
Squeezer,Google Play,uk.org.ngo.squeezer,Z3A6QU9xcFRPRTc3OUdVNGtQZlQ0SGYxZnlGNEhONFpqbzZWeUx3azBoQzZ1V21FcnJyWXl0bXpEY0V0WUxlUzFKMnd3alpoTW5fZTBiSnh5dkNXY2hQ,English,,4,2016-12-31,Jay Schieber,"Good, some flaws",it ha really gotten more stable over the and more robust at finding the server,,
Squeezer,Google Play,uk.org.ngo.squeezer,Z3A6QU9xcFRPRTc3OUdVNGtQZlQ0SGYxZnlGNEhONFpqbzZWeUx3azBoQzZ1V21FcnJyWXl0bXpEY0V0WUxlUzFKMnd3alpoTW5fZTBiSnh5dkNXY2hQ,English,,4,2016-12-31,Jay Schieber,"Good, some flaws",synchronization is often flaky,,
Squeezer,Google Play,uk.org.ngo.squeezer,Z3A6QU9xcFRPRTc3OUdVNGtQZlQ0SGYxZnlGNEhONFpqbzZWeUx3azBoQzZ1V21FcnJyWXl0bXpEY0V0WUxlUzFKMnd3alpoTW5fZTBiSnh5dkNXY2hQ,English,,4,2016-12-31,Jay Schieber,"Good, some flaws",cannot find a way to make my android another client like my desktop is with,,
Squeezer,Google Play,uk.org.ngo.squeezer,Z3A6QU9xcFRPR0NNSVNPNzd6cEpJcmVOUTdjNmhPSVJvcXRNeERHV2pVUDJIWkRKWnEwQlNrZWNZc3pWMFdqanJMZEtobUhXODEyZmd3Y2EwYm1yQmts,English,,5,2016-12-19,Tim Manser,Great app needs large control skin,just assigned an old phone to bee a full time wall mounted controller,,
Squeezer,Google Play,uk.org.ngo.squeezer,Z3A6QU9xcFRPR0NNSVNPNzd6cEpJcmVOUTdjNmhPSVJvcXRNeERHV2pVUDJIWkRKWnEwQlNrZWNZc3pWMFdqanJMZEtobUhXODEyZmd3Y2EwYm1yQmts,English,,5,2016-12-19,Tim Manser,Great app needs large control skin,would be good if there wa a skin the skip filled the whole screen for easy control when walking past,,
Squeezer,Google Play,uk.org.ngo.squeezer,Z3A6QU9xcFRPRS1EMHhlZ2lFTkh1WWN6V0ZJY1djUGdoUGlDemFmU25oMWVvbkNBZGk2aGVMT1Rsa1BVeFhoeFlHYlNoeG9aTG9odzY0TEZ0WWlwSFNr,English,,4,2016-12-18,Kari Barry,,just get better and better with it perfect integration with android wear and the fact it now seems to never drop out or lose connection is amazing,,
Squeezer,Google Play,uk.org.ngo.squeezer,bGc6QU9xcFRPR2g0QUxxRkNaRC1jc3FyZmJmMVRCd3NRbjZTR04zalBsV09PVC00RWM5MElTSW8zWHVIUndUNEhSNlExX0NlOVpSQlpKTjYwenJySmp5,English,,1,2016-12-10,A Google User,Hate its,not good,,
Squeezer,Google Play,uk.org.ngo.squeezer,Z3A6QU9xcFRPSFVicmp4OVo4b0NybllvQm1nQk9Va2U5bnR5QTNlcmpodzVqc0E1UmllV1BZdExTMW90bTctYUpjc2NsVk9OdlgzblhBWkpZV0hYS0M0,English,,5,2016-12-04,Bob Sudduth,Better than logitec,work but occasionally understand a and just play one song,,
Squeezer,Google Play,uk.org.ngo.squeezer,Z3A6QU9xcFRPSFVicmp4OVo4b0NybllvQm1nQk9Va2U5bnR5QTNlcmpodzVqc0E1UmllV1BZdExTMW90bTctYUpjc2NsVk9OdlgzblhBWkpZV0hYS0M0,English,,5,2016-12-04,Bob Sudduth,Better than logitec,turned out to be user error,,
Squeezer,Google Play,uk.org.ngo.squeezer,Z3A6QU9xcFRPSFVicmp4OVo4b0NybllvQm1nQk9Va2U5bnR5QTNlcmpodzVqc0E1UmllV1BZdExTMW90bTctYUpjc2NsVk9OdlgzblhBWkpZV0hYS0M0,English,,5,2016-12-04,Bob Sudduth,Better than logitec,just start playing on the and not a song in the,,
Squeezer,Google Play,uk.org.ngo.squeezer,Z3A6QU9xcFRPRzNrMncyMm1PZ1FZZXhMdHJ0ZnZMX0h4ZHRjQ2R4cmlNS1FNMkptbEtvODVISEFaM0xCRG4tS1ZvZl9wN2ZkQ2hpamRKRVRwTE1qRXdz,English,,5,2016-12-03,Heiko Rath,Excellent LMS controller,work perfectly to control several in my house,,
Squeezer,Google Play,uk.org.ngo.squeezer,Z3A6QU9xcFRPRzNrMncyMm1PZ1FZZXhMdHJ0ZnZMX0h4ZHRjQ2R4cmlNS1FNMkptbEtvODVISEFaM0xCRG4tS1ZvZl9wN2ZkQ2hpamRKRVRwTE1qRXdz,English,,5,2016-12-03,Heiko Rath,Excellent LMS controller,neat it us the phone volume button for the,,
Squeezer,Google Play,uk.org.ngo.squeezer,Z3A6QU9xcFRPRzQ0bi0xYWp4M1pRX2h5S0FIV05fbnFiY25LY2VpcVRnel9xRTFjWlVRVTB5eUxBZDdZUVp2REt0R0MzVnpfMnpMOU5USVlyazBFLV9B,English,,3,2016-11-23,David Kaspar,Very decent,pretty good overall,,
Squeezer,Google Play,uk.org.ngo.squeezer,Z3A6QU9xcFRPRzQ0bi0xYWp4M1pRX2h5S0FIV05fbnFiY25LY2VpcVRnel9xRTFjWlVRVTB5eUxBZDdZUVp2REt0R0MzVnpfMnpMOU5USVlyazBFLV9B,English,,3,2016-11-23,David Kaspar,Very decent,have developer given up,,
Squeezer,Google Play,uk.org.ngo.squeezer,Z3A6QU9xcFRPRmdCcWJlNXRLSGFremliZmwxUEZ5U29FSGFuQXM1Z0FYaW05V1RDXzlfc0F5amxuT3BHdmlwUU5xaE5ZNEdZTmt4OXNYNG1vc29HWFo3,English,,1,2016-11-20,Elite Spellcaster,Didn't work,this piece of dung is useless,,
Squeezer,Google Play,uk.org.ngo.squeezer,Z3A6QU9xcFRPRk1zZW5JQ2ZkUF9QUkFYRk1yYTlQR2pEVkVxczVtMXZadFpGNUZGaTkzNGk3UDBoWUZMY1lpalJUMVNBY0pCcm5KbDhCNU9yODJQakMz,English,,5,2016-11-06,Thomas Nelson,My remote died. This was a life saver. Many thanks,a pleasure to have it working again,,
Squeezer,Google Play,uk.org.ngo.squeezer,Z3A6QU9xcFRPSDE1MlFTLXlYRDVMRFJ0Z0g3WU00VWhXY0tyY1ppa3VhYW9oQVVaNXNiZ1paU1gyNDBSNzhyemYzeG9MZlMzMS1JTHZtNjNILUNVWjI3,English,,3,2016-11-02,Thomas Schulzki,A lot missing,abandoned,,
Squeezer,Google Play,uk.org.ngo.squeezer,Z3A6QU9xcFRPSDE1MlFTLXlYRDVMRFJ0Z0g3WU00VWhXY0tyY1ppa3VhYW9oQVVaNXNiZ1paU1gyNDBSNzhyemYzeG9MZlMzMS1JTHZtNjNILUNVWjI3,English,,3,2016-11-02,Thomas Schulzki,A lot missing,orange squeeze is still mile ahead,,
Squeezer,Google Play,uk.org.ngo.squeezer,Z3A6QU9xcFRPSFRhd2dHbFRhVGJWOTVXZWxLZGhDeS14MXpjUEhwMk5RQ0plcFh5a1FhZ292V0J3a2NMcmRxUE9sV2hpM1NEdDAtTUozVzhUeG5NcUtr,English,,5,2016-10-30,Marc G.,Does exactly what I want,squeezer is very simple to install and easy to use,,
Squeezer,Google Play,uk.org.ngo.squeezer,Z3A6QU9xcFRPSFRhd2dHbFRhVGJWOTVXZWxLZGhDeS14MXpjUEhwMk5RQ0plcFh5a1FhZ292V0J3a2NMcmRxUE9sV2hpM1NEdDAtTUozVzhUeG5NcUtr,English,,5,2016-10-30,Marc G.,Does exactly what I want,it connected without any problem to the server i installed on a raspberry pi and which get it music from my device,,
Squeezer,Google Play,uk.org.ngo.squeezer,Z3A6QU9xcFRPSFRhd2dHbFRhVGJWOTVXZWxLZGhDeS14MXpjUEhwMk5RQ0plcFh5a1FhZ292V0J3a2NMcmRxUE9sV2hpM1NEdDAtTUozVzhUeG5NcUtr,English,,5,2016-10-30,Marc G.,Does exactly what I want,i really like such work without any problem,,
Squeezer,Google Play,uk.org.ngo.squeezer,Z3A6QU9xcFRPRUduMHdjcGM1VFZGS1l1YnlBeWZsaEZ4a3pQVFZjQXFEZkR4Zm1ZaXpycE02bmpTWWQxUXBWbG8zajUzU1lVQzJxSm5HMVZ5Ni15VEJE,English,,5,2016-10-28,Thomas Smith,Perfect.,favorite not working though,,
Squeezer,Google Play,uk.org.ngo.squeezer,Z3A6QU9xcFRPRzZLMU5aVWEyYXZZTGxSMzVEcV9saWtsZlpDMW9SMERyYklfOVQzQnp0RFJ4ZWk4MDh5cGtVdGNndS1fQ1RtVU1uMVM5SkxoVjhGcmxK,English,,3,2016-10-26,Jacob Hagemier,,no search,,
Squeezer,Google Play,uk.org.ngo.squeezer,Z3A6QU9xcFRPRjV5QVpodDlDWkFYbWhaTEY5ckdDZ3FyaVNFQ0MyUU5KSEdHeHkzQ2Q3b2VQakV2VS12M3hnWmhiS2cxLXJJSWZ6RnVQNGxMaDMySTVI,English,,5,2016-10-12,TOM KNIGHT,Sqeezer,tried some of the other this one work great,,
Squeezer,Google Play,uk.org.ngo.squeezer,Z3A6QU9xcFRPRjV5QVpodDlDWkFYbWhaTEY5ckdDZ3FyaVNFQ0MyUU5KSEdHeHkzQ2Q3b2VQakV2VS12M3hnWmhiS2cxLXJJSWZ6RnVQNGxMaDMySTVI,English,,5,2016-10-12,TOM KNIGHT,Sqeezer,note 7,,
Squeezer,Google Play,uk.org.ngo.squeezer,Z3A6QU9xcFRPRjZ2ZFVtSXltcXlSdTItdFFvekZPSFdHZERIQlEtRVd2N0VnZE9tVFYxSVpLOF9jczBHS1RINVhFZG01V0k1Q2J1dE9mSlJUVjZiVFJQ,English,,1,2016-10-07,Craig Williams,Choose player,i have 2 but the choose player option is usually not available,,
Squeezer,Google Play,uk.org.ngo.squeezer,Z3A6QU9xcFRPRjZ2ZFVtSXltcXlSdTItdFFvekZPSFdHZERIQlEtRVd2N0VnZE9tVFYxSVpLOF9jczBHS1RINVhFZG01V0k1Q2J1dE9mSlJUVjZiVFJQ,English,,1,2016-10-07,Craig Williams,Choose player,it appears occasionally,,
Squeezer,Google Play,uk.org.ngo.squeezer,Z3A6QU9xcFRPRjZ2ZFVtSXltcXlSdTItdFFvekZPSFdHZERIQlEtRVd2N0VnZE9tVFYxSVpLOF9jczBHS1RINVhFZG01V0k1Q2J1dE9mSlJUVjZiVFJQ,English,,1,2016-10-07,Craig Williams,Choose player,very frustrating,,
Squeezer,Google Play,uk.org.ngo.squeezer,Z3A6QU9xcFRPRl9YeVk5WWdkU204ZG9pOU1lUmNpMy1td3NjOXVGLWV4aFVkYzdCOFB1NHQyemlkQUpZc0x0MmE0VG9LTUJFNjhZWVREZVhOUVE4LW96,English,,5,2016-10-06,Chuck Peters,Squeezer,work great and i love it,,
Squeezer,Google Play,uk.org.ngo.squeezer,Z3A6QU9xcFRPRjhXS1ptNmh6Xzh1Sk83QjJSRkV2MGNfZ1oyRVc1ZHFPa0h1TmU2VWs2OFpodzlnOXQxemlQR2tpc0xNVVhEa3RKRVVlQlhHY0VxU2JF,English,,3,2016-09-29,Richard Baines,Few bugs,seems to work for a then music stop playing and the is then unresponsive,,
Squeezer,Google Play,uk.org.ngo.squeezer,Z3A6QU9xcFRPRjhXS1ptNmh6Xzh1Sk83QjJSRkV2MGNfZ1oyRVc1ZHFPa0h1TmU2VWs2OFpodzlnOXQxemlQR2tpc0xNVVhEa3RKRVVlQlhHY0VxU2JF,English,,3,2016-09-29,Richard Baines,Few bugs,same on my other mobile,,
Squeezer,Google Play,uk.org.ngo.squeezer,Z3A6QU9xcFRPRjhXS1ptNmh6Xzh1Sk83QjJSRkV2MGNfZ1oyRVc1ZHFPa0h1TmU2VWs2OFpodzlnOXQxemlQR2tpc0xNVVhEa3RKRVVlQlhHY0VxU2JF,English,,3,2016-09-29,Richard Baines,Few bugs,then have to revert back to original controller to get it going again or power phone off,,
Squeezer,Google Play,uk.org.ngo.squeezer,Z3A6QU9xcFRPR1hIdFlyeHd0aWJwd2Z1enN4QW9MR3pXSzhJSlRNcmFLbGVNMWpGVmlCX0thMm03YmU1X0kzNWY3RmMzRko1Zl9RT3hCeUlkY3dMSVhn,English,,5,2016-09-28,Brian Yeargain,Better than logitech apps,must have for any user,,
Squeezer,Google Play,uk.org.ngo.squeezer,Z3A6QU9xcFRPR1hIdFlyeHd0aWJwd2Z1enN4QW9MR3pXSzhJSlRNcmFLbGVNMWpGVmlCX0thMm03YmU1X0kzNWY3RmMzRko1Zl9RT3hCeUlkY3dMSVhn,English,,5,2016-09-28,Brian Yeargain,Better than logitech apps,also better the which is incredibly buggy,,
Squeezer,Google Play,uk.org.ngo.squeezer,Z3A6QU9xcFRPR0RYdHJ0LWoyeTZWZWw4Z3k3SHhFVXlLYWRrUEdjN3RWelB3RDJFM29TdV9XdmJwWm44OEozRW9UeDVxcUhKNHNhMDN3QXZLeU50TVNo,English,,3,2016-09-21,András Ákos Jenei,Bugs,break switching between,,
Squeezer,Google Play,uk.org.ngo.squeezer,Z3A6QU9xcFRPSGM5NkZrRWdUNVpvMmcyTGVPQTM2UUpCU1oya1pDeXhhRTBKVlhMbzNjTEpsX1Ryby1pMzd0anJoVGtnZWZUbkhFU2h3SkpEX2Q3NmNJ,English,,4,2016-09-10,Dominic Heptinstall,,any chance guy,,
Squeezer,Google Play,uk.org.ngo.squeezer,bGc6QU9xcFRPSE1hSWFyOV9GbllTUmdJTVMtdlFLbWw5TUMwQm5ubk10a0ZpLUhMVGJKT0JLQnhTOUpaUTBlODM2RmdKTmxHOTRTTjBZdy01OXFNcEVx,English,,1,2016-09-10,A Google User,,i hate this,,
Squeezer,Google Play,uk.org.ngo.squeezer,Z3A6QU9xcFRPSDM0aURkaUh5cFVUQVF4NGJwTHJJTGNUSVlaV0llZm9tUERvRm4wYXZmUF9MZExJMGZDRU9oYXZpU3RZSThMRGRscWNIaDFkdG55TW1n,English,,2,2016-09-06,Matt Barrett,Lacks essential features,initially looked but inability to start playing a part way through the list make it useless to me,,
Squeezer,Google Play,uk.org.ngo.squeezer,Z3A6QU9xcFRPR2puV2tJNm4wOE5iSDFpUGUyMnlvQmVxY0FBSXpEbi1Gajc1ZDFPWlVmNks2QUZmdnByU2ptYmpmM3ZYZENvSU0yTUd5TFNraV9JYl96,English,,4,2016-09-02,Alex Thompson,,great alternative to the broken official,,
Squeezer,Google Play,uk.org.ngo.squeezer,Z3A6QU9xcFRPSGFGUW1IbG9McjJjTEFNR1pVTU1LZUlJOWlMa2NjSWRyb01fOExpSmYtS280SEZENlJrVjFPT1N0Mm1qc05oclpmS0pQeTc0aTg1LXRQ,English,,5,2016-08-28,Franck Gilliers,Nice work,work very well,,
Squeezer,Google Play,uk.org.ngo.squeezer,Z3A6QU9xcFRPSGFGUW1IbG9McjJjTEFNR1pVTU1LZUlJOWlMa2NjSWRyb01fOExpSmYtS280SEZENlJrVjFPT1N0Mm1qc05oclpmS0pQeTc0aTg1LXRQ,English,,5,2016-08-28,Franck Gilliers,Nice work,faster the official,,
Squeezer,Google Play,uk.org.ngo.squeezer,Z3A6QU9xcFRPR2FhbkpfYVdGWGI1al9iSjMxS0MzTTQ4UFh5R0tmaHcxbTBIRWdjUEFFeFUzZUpGRXdwV1FtanBoTGpmcURBV1c5dHlDcElaSzBHYmtS,English,,3,2016-08-17,Dawn Mellis-Fox,Crashing now,requires restart to find server at each session which never used to be an fixed soon this is very frustrating,,
Squeezer,Google Play,uk.org.ngo.squeezer,Z3A6QU9xcFRPR3RjSGE2ZzJDdHZucEdZRTIwLVRVcEhQZTM2bXJvSW5Ia0xOTEY5empuX2xZLUZmY0ZOZV85a3BaM0wzWmtnZGdmTmduMWZVTXRyTEhm,English,,5,2016-08-14,Paul Limmer,Brilliant.,far better reliability the,,
Squeezer,Google Play,uk.org.ngo.squeezer,Z3A6QU9xcFRPR0F1WnI0YTZvcWx3dDJUaXU0cnN5NWdrcXE5MWxjQjExTFAxSnpiMENJNU9TN0JZMXJ2Y3dQeEVTSENWSDdqSDMyR0NLdG1RTm1OOVd5,English,,5,2016-07-24,Pavel Klimov,,5,,
Squeezer,Google Play,uk.org.ngo.squeezer,Z3A6QU9xcFRPR2tiSUI4TjdYOGE3T0N4dGVOTUZJQUxER2VKSk1vY3ZwZXMxLS1KUVVBTHFobmxvRTRDbF93TEUwZFc3RTNnWkthMVFuS0I0bThTd0NL,English,,3,2016-07-20,Skurious M,Like Original Squeezebox,work well,,
Squeezer,Google Play,uk.org.ngo.squeezer,Z3A6QU9xcFRPR2tiSUI4TjdYOGE3T0N4dGVOTUZJQUxER2VKSk1vY3ZwZXMxLS1KUVVBTHFobmxvRTRDbF93TEUwZFc3RTNnWkthMVFuS0I0bThTd0NL,English,,3,2016-07-20,Skurious M,Like Original Squeezebox,the same navigation interface the is welcome,,
Squeezer,Google Play,uk.org.ngo.squeezer,Z3A6QU9xcFRPR2tiSUI4TjdYOGE3T0N4dGVOTUZJQUxER2VKSk1vY3ZwZXMxLS1KUVVBTHFobmxvRTRDbF93TEUwZFc3RTNnWkthMVFuS0I0bThTd0NL,English,,3,2016-07-20,Skurious M,Like Original Squeezebox,need to add some menu option in future release like add a song to an existing from current playing,,
Squeezer,Google Play,uk.org.ngo.squeezer,Z3A6QU9xcFRPSE45QmFldmdGdG1oRGgtZFgyZTVBbU5ScWZZb1hFb25icEZURmxCX1RnSFJheUVRSFRlSjFtUmN5OVM1b3l6VF93SWQ1LVEwTW5kcVVZ,English,,5,2016-07-15,Austin Austin,,great,,
Squeezer,Google Play,uk.org.ngo.squeezer,Z3A6QU9xcFRPSGhmT01MWTJwZzcwOFNIc0QzYnpnUk1BV01TNW1naU15TWFaeUtLZ3E4MnpCYmNrUVVXNVRYejgxVjJCZHAzU2hKeXRfZE5fVDRRZUhk,English,,4,2016-07-11,Mr G,Must for Squeezebox owners,this keep your alive,,
Squeezer,Google Play,uk.org.ngo.squeezer,Z3A6QU9xcFRPSGhmT01MWTJwZzcwOFNIc0QzYnpnUk1BV01TNW1naU15TWFaeUtLZ3E4MnpCYmNrUVVXNVRYejgxVjJCZHAzU2hKeXRfZE5fVDRRZUhk,English,,4,2016-07-11,Mr G,Must for Squeezebox owners,brilliant functionality,,
Squeezer,Google Play,uk.org.ngo.squeezer,Z3A6QU9xcFRPR29aVjlKNEM3Ti1vcFNZeTZVejdjTGUxdElCUWs2VXpEc1BEWVVFZUlSUnhXOUJMSmlySDF3aGZiSUR5cU9uX1pPM2NQaThqS3NiRW1M,English,,4,2016-07-11,Jonas Ramos,Problem with volume,please fix,,
Squeezer,Google Play,uk.org.ngo.squeezer,Z3A6QU9xcFRPRmxTQ2FKNEdUMEx1Zl9LVG5saktjRnJ3OHdWeUdDZTFkbHhqVEFkQkR1emMwVEVlcU1GMkR6bnkxNUN3ZVBMdDJYX0FIVzZVZEtrRDlf,English,,2,2016-07-09,Lewis Tsalis,System enhancer?,why did squeezer download an in the background called system enhancer,,
Squeezer,Google Play,uk.org.ngo.squeezer,Z3A6QU9xcFRPRmxTQ2FKNEdUMEx1Zl9LVG5saktjRnJ3OHdWeUdDZTFkbHhqVEFkQkR1emMwVEVlcU1GMkR6bnkxNUN3ZVBMdDJYX0FIVzZVZEtrRDlf,English,,2,2016-07-09,Lewis Tsalis,System enhancer?,what is it supposed to enhance,,
Squeezer,Google Play,uk.org.ngo.squeezer,Z3A6QU9xcFRPRVRwTl9DU1JXOThQLWFvSTJsVXhvQURaSXIySVpkNEk4YzhobjF0Rld1dnJtT256LVI1dlFfOHp1dHF2U0ZBQ0xYM2RTaXJGWFAtVDVq,English,,5,2016-07-09,Malcolm McRae,Excellent App,great,,
Squeezer,Google Play,uk.org.ngo.squeezer,Z3A6QU9xcFRPRVRwTl9DU1JXOThQLWFvSTJsVXhvQURaSXIySVpkNEk4YzhobjF0Rld1dnJtT256LVI1dlFfOHp1dHF2U0ZBQ0xYM2RTaXJGWFAtVDVq,English,,5,2016-07-09,Malcolm McRae,Excellent App,with it i can even control my player with my watch,,
Squeezer,Google Play,uk.org.ngo.squeezer,Z3A6QU9xcFRPRWRBbzVDVmREeUNTU1g3R1RoNVJBM0JVTW96UjdrUzhIQk5GMndBMk9aSEZhM1lsQnBlMXZReGRDa1R1R2lPOW1kZUZUemRRckZHZm9s,English,,4,2016-07-08,Amar Subash,Works great !,official is dead and this work very well,,
Squeezer,Google Play,uk.org.ngo.squeezer,Z3A6QU9xcFRPRWRBbzVDVmREeUNTU1g3R1RoNVJBM0JVTW96UjdrUzhIQk5GMndBMk9aSEZhM1lsQnBlMXZReGRDa1R1R2lPOW1kZUZUemRRckZHZm9s,English,,4,2016-07-08,Amar Subash,Works great !,is a bit simple but work very well,,
Squeezer,Google Play,uk.org.ngo.squeezer,Z3A6QU9xcFRPRWRBbzVDVmREeUNTU1g3R1RoNVJBM0JVTW96UjdrUzhIQk5GMndBMk9aSEZhM1lsQnBlMXZReGRDa1R1R2lPOW1kZUZUemRRckZHZm9s,English,,4,2016-07-08,Amar Subash,Works great !,volume control work with your phone control,,
Squeezer,Google Play,uk.org.ngo.squeezer,Z3A6QU9xcFRPRWRBbzVDVmREeUNTU1g3R1RoNVJBM0JVTW96UjdrUzhIQk5GMndBMk9aSEZhM1lsQnBlMXZReGRDa1R1R2lPOW1kZUZUemRRckZHZm9s,English,,4,2016-07-08,Amar Subash,Works great !,very good,,
Squeezer,Google Play,uk.org.ngo.squeezer,Z3A6QU9xcFRPRkI1OU1sVENpWnJaWVVXUVJQWkVRQS12U3dXWWNxTzY0by0tWnBOcWtYT2JYV3VES25VTDdnUk1iNHdrd3kwam5uYW51RWlxYmpRVmV6,English,,1,2016-07-03,David Franken,Won't connect to Squeezebox,i installed this to control my parent old radio,,
Squeezer,Google Play,uk.org.ngo.squeezer,Z3A6QU9xcFRPR2lUQUlaaEF6Ql8xVTNOWENxTDdTN2h1eWlBd2RER01lM09uZ2VseWVyTXlwblh5dmM5N3g5NFozRDBIR19MUHdXZk5tVzlxSFRMMlhW,English,,4,2016-06-29,Charles Greig,,the latest it hang on connection to a local server,,
Squeezer,Google Play,uk.org.ngo.squeezer,Z3A6QU9xcFRPR2lUQUlaaEF6Ql8xVTNOWENxTDdTN2h1eWlBd2RER01lM09uZ2VseWVyTXlwblh5dmM5N3g5NFozRDBIR19MUHdXZk5tVzlxSFRMMlhW,English,,4,2016-06-29,Charles Greig,,i kill and it connects immediately,,
Squeezer,Google Play,uk.org.ngo.squeezer,Z3A6QU9xcFRPRXNPZDg2cm5sZlZVUWNac2NfYkJVdEZySDE2ak1rMDA1Zl9NZVVRYlBocngtNTJKNHZqOTNtZXd0aFkzN2M0VjlDZ0dDWTdRQlFmVVk5,English,,5,2016-06-29,Daryl Foster,Useful and versatile,interacts perfectly with medium server running on my server,,
Squeezer,Google Play,uk.org.ngo.squeezer,Z3A6QU9xcFRPRXNPZDg2cm5sZlZVUWNac2NfYkJVdEZySDE2ak1rMDA1Zl9NZVVRYlBocngtNTJKNHZqOTNtZXd0aFkzN2M0VjlDZ0dDWTdRQlFmVVk5,English,,5,2016-06-29,Daryl Foster,Useful and versatile,control all of my device,,
Squeezer,Google Play,uk.org.ngo.squeezer,Z3A6QU9xcFRPRXNPZDg2cm5sZlZVUWNac2NfYkJVdEZySDE2ak1rMDA1Zl9NZVVRYlBocngtNTJKNHZqOTNtZXd0aFkzN2M0VjlDZ0dDWTdRQlFmVVk5,English,,5,2016-06-29,Daryl Foster,Useful and versatile,allows me to download song from my library to my mobile device,,
Squeezer,Google Play,uk.org.ngo.squeezer,Z3A6QU9xcFRPR1NNXzMzVHVHQUVMU1diTjVCcWVuazA2OXhTWk9KSTAtUzJ5b3Nacm5DWTE3NzdBN1dNOTk1N244ZW1wSDUySE1FSGNGMDVhcEJnNVho,English,,5,2016-06-28,Frank Collins,Reluctantly first used but now glad,the doe not work on lollipop forced onto this,,
Squeezer,Google Play,uk.org.ngo.squeezer,Z3A6QU9xcFRPR1NNXzMzVHVHQUVMU1diTjVCcWVuazA2OXhTWk9KSTAtUzJ5b3Nacm5DWTE3NzdBN1dNOTk1N244ZW1wSDUySE1FSGNGMDVhcEJnNVho,English,,5,2016-06-28,Frank Collins,Reluctantly first used but now glad,initial connection but quickly connects on subsequent start,,
Squeezer,Google Play,uk.org.ngo.squeezer,Z3A6QU9xcFRPR1NNXzMzVHVHQUVMU1diTjVCcWVuazA2OXhTWk9KSTAtUzJ5b3Nacm5DWTE3NzdBN1dNOTk1N244ZW1wSDUySE1FSGNGMDVhcEJnNVho,English,,5,2016-06-28,Frank Collins,Reluctantly first used but now glad,a very good only get and it is an open source effort,,
Squeezer,Google Play,uk.org.ngo.squeezer,Z3A6QU9xcFRPR1NNXzMzVHVHQUVMU1diTjVCcWVuazA2OXhTWk9KSTAtUzJ5b3Nacm5DWTE3NzdBN1dNOTk1N244ZW1wSDUySE1FSGNGMDVhcEJnNVho,English,,5,2016-06-28,Frank Collins,Reluctantly first used but now glad,kudos to all involved,,
Squeezer,Google Play,uk.org.ngo.squeezer,Z3A6QU9xcFRPRm1Nb0dWMEJKQkdOT28wMG5feW5fV2x6M0RnZFhpM29FaUJTb2F0d0ZOZXJXVFV0ajd3Y2NuNy1XSklzMGk1VVVPRFBRZC1sUGtIUVVV,English,,2,2016-06-27,Chris Donovan,Latest update doesn't remember my server,with the latest every day the forgets my server address,,
Squeezer,Google Play,uk.org.ngo.squeezer,Z3A6QU9xcFRPRm1Nb0dWMEJKQkdOT28wMG5feW5fV2x6M0RnZFhpM29FaUJTb2F0d0ZOZXJXVFV0ajd3Y2NuNy1XSklzMGk1VVVPRFBRZC1sUGtIUVVV,English,,2,2016-06-27,Chris Donovan,Latest update doesn't remember my server,this wa very good this update,,
Squeezer,Google Play,uk.org.ngo.squeezer,Z3A6QU9xcFRPRm1Nb0dWMEJKQkdOT28wMG5feW5fV2x6M0RnZFhpM29FaUJTb2F0d0ZOZXJXVFV0ajd3Y2NuNy1XSklzMGk1VVVPRFBRZC1sUGtIUVVV,English,,2,2016-06-27,Chris Donovan,Latest update doesn't remember my server,hopefully it get fixed soon,,
Squeezer,Google Play,uk.org.ngo.squeezer,Z3A6QU9xcFRPRmhKcXh1LURJSnNmV0t5eWpNQS1GWVVTRExoZ1diWU9PQzAtTTZwbjE0b0w5R2dzS0Q1T0YtZXBsd3RfVTJ5ZHpzaXZ3UmhuS1JZaVpv,English,,5,2016-06-26,Iain Firth,Fixed it,latest update fixed an issue which prevented it controlling my player,,
Squeezer,Google Play,uk.org.ngo.squeezer,Z3A6QU9xcFRPRmhKcXh1LURJSnNmV0t5eWpNQS1GWVVTRExoZ1diWU9PQzAtTTZwbjE0b0w5R2dzS0Q1T0YtZXBsd3RfVTJ5ZHpzaXZ3UmhuS1JZaVpv,English,,5,2016-06-26,Iain Firth,Fixed it,good work,,
Squeezer,Google Play,uk.org.ngo.squeezer,Z3A6QU9xcFRPSDIzRUR1QmZPa2hpLWcyNkgwWU5xUjVJZnFmeVU4dFQwTzctLUwtLUc0bF90cW81NnhMTHNWRGtXVkFXN1BFOHVCNHZRWVpFOG5FWXZY,English,,5,2016-06-25,Ed Chan,Working as intended,work perfectly with server running on and with,,
Squeezer,Google Play,uk.org.ngo.squeezer,Z3A6QU9xcFRPRjZOX2NjdFA1cEFXOUxJMlg4OXhpWGx4ODE1TXBpSTJZeXJ4bUhLNlR5dDNjSW5oOHZzTGQyREdnWHVYcnhNSFZkblloOGM4LWdXMWNK,English,,5,2016-06-25,Toon van Gerwen,,still in developing,,
Squeezer,Google Play,uk.org.ngo.squeezer,Z3A6QU9xcFRPRjZOX2NjdFA1cEFXOUxJMlg4OXhpWGx4ODE1TXBpSTJZeXJ4bUhLNlR5dDNjSW5oOHZzTGQyREdnWHVYcnhNSFZkblloOGM4LWdXMWNK,English,,5,2016-06-25,Toon van Gerwen,,and after so much year,,
Squeezer,Google Play,uk.org.ngo.squeezer,Z3A6QU9xcFRPR2F2bGFoOVFOcEVBTG5KQkx2MW1fYUlaLVhoMjJPTWkySVFaaHlXeHFvVVFBa2NYOUtKQkw0UzJyR2JQQUNRUVo5cFIwTlQ5WVFwYkMt,English,,4,2016-06-25,Terry White,,apart from searching,,
Squeezer,Google Play,uk.org.ngo.squeezer,Z3A6QU9xcFRPSFdIcTdBdmo5S01ia2hDVDR5ZjJ2ejlNRDdwelJpTnUxQXNoZHRWRDFXREpKUVdSYWdqYTRCRE1PRVJXekFfRTlLeC15U2ZMeG5HSWZw,English,,5,2016-06-19,Ronald Jobson,Brilliant,i have tried a few and for a free this is absolutely brilliant,,
Squeezer,Google Play,uk.org.ngo.squeezer,Z3A6QU9xcFRPSFdIcTdBdmo5S01ia2hDVDR5ZjJ2ejlNRDdwelJpTnUxQXNoZHRWRDFXREpKUVdSYWdqYTRCRE1PRVJXekFfRTlLeC15U2ZMeG5HSWZw,English,,5,2016-06-19,Ronald Jobson,Brilliant,highly recommended,,
Squeezer,Google Play,uk.org.ngo.squeezer,Z3A6QU9xcFRPRW9oT0hpeTVBeXhQTVhETFF2UjVlZVBGNGF3ekNlNVcycDJVeTNodElueFR2SUxJeWcxcUh4cVg0NV85VDVWX2hOcmVMUDBxLXE4UVdv,English,,5,2016-06-12,Robin van Kekem,Werkt zoals het moet,layout en top,,
Squeezer,Google Play,uk.org.ngo.squeezer,Z3A6QU9xcFRPRmY4WV9FMDYtcUFVSWRHY1dTMWVHNXdXYTNiRHJkMV9ZMFZzbEpOTW9pOTU1S242QkdHVkh4bDFKT19sY2pPNHlIdW80dk5EX2h4d0tr,English,,5,2016-06-04,Alex Robertson,Top notch,great actually work and work well,,
Squeezer,Google Play,uk.org.ngo.squeezer,Z3A6QU9xcFRPRmY4WV9FMDYtcUFVSWRHY1dTMWVHNXdXYTNiRHJkMV9ZMFZzbEpOTW9pOTU1S242QkdHVkh4bDFKT19sY2pPNHlIdW80dk5EX2h4d0tr,English,,5,2016-06-04,Alex Robertson,Top notch,open source is thank you very much,,
Squeezer,Google Play,uk.org.ngo.squeezer,Z3A6QU9xcFRPSEV4X0ZQeUdZazlOLU4zc0QzVFB5SWl4TzhIeHhfZ2pxSmNPZzBlNDNjLXBCWVF0b0gwXzN3c09UUVM5RG5RN1E4UWtybjA0UjhLNTZ1,English,,4,2016-05-21,Quinn Fissler,Smart layout and responsive,but no way to queue all result of a search except one by one infuriatingly fiddly button in play list,,
Squeezer,Google Play,uk.org.ngo.squeezer,Z3A6QU9xcFRPSFpTdWliMi1IUnZMUFRCSE1SVHVzRDVzeWFhNHc1Wi02ajZ4azBVc2pIcXppWlFSSjJxWVFjQzZsdm5KNDl6ajdDcll3Z1NLT0QzeWVm,English,,4,2016-05-13,Alexander foti,,great,,
Squeezer,Google Play,uk.org.ngo.squeezer,Z3A6QU9xcFRPSFpTdWliMi1IUnZMUFRCSE1SVHVzRDVzeWFhNHc1Wi02ajZ4azBVc2pIcXppWlFSSjJxWVFjQzZsdm5KNDl6ajdDcll3Z1NLT0QzeWVm,English,,4,2016-05-13,Alexander foti,,work really well,,
Squeezer,Google Play,uk.org.ngo.squeezer,Z3A6QU9xcFRPSFpTdWliMi1IUnZMUFRCSE1SVHVzRDVzeWFhNHc1Wi02ajZ4azBVc2pIcXppWlFSSjJxWVFjQzZsdm5KNDl6ajdDcll3Z1NLT0QzeWVm,English,,4,2016-05-13,Alexander foti,,would be great if there wa a way to sync volume change you have the player synchronized too,,
Squeezer,Google Play,uk.org.ngo.squeezer,Z3A6QU9xcFRPR2pqTTRKRExzTHdEbExUZjVldUEzOW5MLWdnTkJXSW1sYVlCa2dRV1NlN0ZtLTFiN184N0hwbDZvZU1HQkJobm85OGduN2lJd2M4bFBk,English,,5,2016-05-12,Stefan Denic,,,,
Squeezer,Google Play,uk.org.ngo.squeezer,Z3A6QU9xcFRPSGdFdWV4UE5lNXd6REdzRm1NaXRtdnJ1V3hNbFRleVNKTE1XUTJjRHN4ci1jZDBqQUp5VG50cHVXUU9JTWdiN3oweW9tY1lnci1EZjNJ,English,,5,2016-05-10,Chris Shaw,Hated the remote with the squeezebox... This saved me,see title,,
Squeezer,Google Play,uk.org.ngo.squeezer,Z3A6QU9xcFRPRU1RSkdMejdxYWxCelJCaFNycDU5TnREWXFUdTNJS0s0cy1vazNOOExuYmtCczhMeno1cXdHZkVsTlBpX3h5N1Y1b1B1a3Rfa0hMS2w1,English,,5,2016-05-10,Pedro Canache,Excellent App,very good working with my fusion research music server,,
Squeezer,Google Play,uk.org.ngo.squeezer,Z3A6QU9xcFRPRWFxNFBheXZleU9KUGVXdWxBV0YwZUFsV1B1MnFSbGFpRVBJTE9Idm9yZl9EU05ORUQ4d0JUSERzcjVlbTFsU3Zwb2ZYakVMM29KUkUz,English,,5,2016-05-09,John Doe,,superb free for controlling and displaying the content of my with i now have my music under control,,
Squeezer,Google Play,uk.org.ngo.squeezer,Z3A6QU9xcFRPRWFxNFBheXZleU9KUGVXdWxBV0YwZUFsV1B1MnFSbGFpRVBJTE9Idm9yZl9EU05ORUQ4d0JUSERzcjVlbTFsU3Zwb2ZYakVMM29KUkUz,English,,5,2016-05-09,John Doe,,a truly excellent system,,
Squeezer,Google Play,uk.org.ngo.squeezer,Z3A6QU9xcFRPRl9UQjZvTWRfQ0pzQ1V1U1hUeUcxMi1uMlE4eVkwOWdnT3U4MFFYTVlsa1ZxeUFFN3pFVmJYcjVxcVhuWXU1VFc5ejg3Q3gwRThpeUJG,English,,5,2016-04-29,Stephen Warren,It works!,that already make is better most competitor,,
Squeezer,Google Play,uk.org.ngo.squeezer,Z3A6QU9xcFRPRl9UQjZvTWRfQ0pzQ1V1U1hUeUcxMi1uMlE4eVkwOWdnT3U4MFFYTVlsa1ZxeUFFN3pFVmJYcjVxcVhuWXU1VFc5ejg3Q3gwRThpeUJG,English,,5,2016-04-29,Stephen Warren,It works!,it would be nice the power button wa not hidden on a menu,,
Squeezer,Google Play,uk.org.ngo.squeezer,Z3A6QU9xcFRPRVc3bFVSMEgwRkRkT0ZaaEx3TlF2NWVvNEZmZXRmRjY3U25xZWp1a1B2aXdWenRqcktJVVJueWlsMEZoN3YydkRLNFRiMkUyQVRnNTBP,English,,5,2016-04-28,Toni Prug,Fantastic,is there a way to make a donation,,
Squeezer,Google Play,uk.org.ngo.squeezer,Z3A6QU9xcFRPRWZ1dVJsXzY4ZmdNc2R3WTB3UXdSTGNDeXlCZzJZSEhvSmd4eGE4LThxX19GNnJoYzRXLVM1NHNzakhSMXpHZjJiQXBIUF9vT0M5QXdW,English,,5,2016-04-24,Chuck Green,,great for controlling the medium server,,
Squeezer,Google Play,uk.org.ngo.squeezer,Z3A6QU9xcFRPRWZ1dVJsXzY4ZmdNc2R3WTB3UXdSTGNDeXlCZzJZSEhvSmd4eGE4LThxX19GNnJoYzRXLVM1NHNzakhSMXpHZjJiQXBIUF9vT0M5QXdW,English,,5,2016-04-24,Chuck Green,,i have a radio and 2 android device connected to my,,
Squeezer,Google Play,uk.org.ngo.squeezer,Z3A6QU9xcFRPRWZ1dVJsXzY4ZmdNc2R3WTB3UXdSTGNDeXlCZzJZSEhvSmd4eGE4LThxX19GNnJoYzRXLVM1NHNzakhSMXpHZjJiQXBIUF9vT0M5QXdW,English,,5,2016-04-24,Chuck Green,,this allows you to synchronize all of your player or have each of them playing different in different room,,
Squeezer,Google Play,uk.org.ngo.squeezer,Z3A6QU9xcFRPRWZ1dVJsXzY4ZmdNc2R3WTB3UXdSTGNDeXlCZzJZSEhvSmd4eGE4LThxX19GNnJoYzRXLVM1NHNzakhSMXpHZjJiQXBIUF9vT0M5QXdW,English,,5,2016-04-24,Chuck Green,,it allows you to adjust the volume on each player separately and turn a player on or off the other player continue,,
Squeezer,Google Play,uk.org.ngo.squeezer,Z3A6QU9xcFRPRWZ1dVJsXzY4ZmdNc2R3WTB3UXdSTGNDeXlCZzJZSEhvSmd4eGE4LThxX19GNnJoYzRXLVM1NHNzakhSMXpHZjJiQXBIUF9vT0M5QXdW,English,,5,2016-04-24,Chuck Green,,a big thank you to the developer,,
Squeezer,Google Play,uk.org.ngo.squeezer,Z3A6QU9xcFRPRm1UN2tSWlE3RDVMSHNidVdsTTZwQ0dKVXJybGh3MlVWMEIwOGVrYzdScXZNYS1pRDBES1pxT2pBOEpaRlJLd2w2VUw4YlRDQ1BJMDNJ,English,,4,2016-04-22,K Fam,,first they kill the then stop updating the android,,
Squeezer,Google Play,uk.org.ngo.squeezer,Z3A6QU9xcFRPRm1UN2tSWlE3RDVMSHNidVdsTTZwQ0dKVXJybGh3MlVWMEIwOGVrYzdScXZNYS1pRDBES1pxT2pBOEpaRlJLd2w2VUw4YlRDQ1BJMDNJ,English,,4,2016-04-22,K Fam,,lame,,
Squeezer,Google Play,uk.org.ngo.squeezer,Z3A6QU9xcFRPRm1UN2tSWlE3RDVMSHNidVdsTTZwQ0dKVXJybGh3MlVWMEIwOGVrYzdScXZNYS1pRDBES1pxT2pBOEpaRlJLd2w2VUw4YlRDQ1BJMDNJ,English,,4,2016-04-22,K Fam,,thing missing here for my need is the ability to browse library by album artist,,
Squeezer,Google Play,uk.org.ngo.squeezer,Z3A6QU9xcFRPRi1nOWRKYW41LXFDZm5MSUZQNDhxdjk0TFZBS3FuTjY5MkxmN1VoUU9oMVZmUDZWaUJVNm0wTVMya0p2TFR2N0FWT0QyeVBseVc3UUJz,English,,1,2016-04-21,Rikk Sullenberger,Can't use phone as the hotspot,your using your phone to connect to then the software will not work a it want to use the useless a portable solution,,
Squeezer,Google Play,uk.org.ngo.squeezer,Z3A6QU9xcFRPRl8zMGhlUmRnV2NISXhrc1RSNkhacUN1NEFUTHFITmZZSk4yX0MyVmR6QU9GSWhvQUxibkhBc1ZDOE9KbGphTlU5REZWNFBHUlFEWjdj,English,,3,2016-04-16,Adam Smith,,you need to buy squeezer if you like feature,,
Squeezer,Google Play,uk.org.ngo.squeezer,Z3A6QU9xcFRPR01OLWgzSzVqT1RJMmhFaHdOTGt0WlhsYWpvYTExNFBxSGR4R1d5UmJDeDFlaXhSMHFmZVVDUzdIWG54VDNFb3NKR1NvQnVxTERYOExj,English,,5,2016-04-05,Philip Kane,,excellent the developer,,
Squeezer,Google Play,uk.org.ngo.squeezer,Z3A6QU9xcFRPR01OLWgzSzVqT1RJMmhFaHdOTGt0WlhsYWpvYTExNFBxSGR4R1d5UmJDeDFlaXhSMHFmZVVDUzdIWG54VDNFb3NKR1NvQnVxTERYOExj,English,,5,2016-04-05,Philip Kane,,should be able to operate without connecting to did the original,,
Squeezer,Google Play,uk.org.ngo.squeezer,Z3A6QU9xcFRPR01OLWgzSzVqT1RJMmhFaHdOTGt0WlhsYWpvYTExNFBxSGR4R1d5UmJDeDFlaXhSMHFmZVVDUzdIWG54VDNFb3NKR1NvQnVxTERYOExj,English,,5,2016-04-05,Philip Kane,,i often used my duet to just stream radio,,
Squeezer,Google Play,uk.org.ngo.squeezer,Z3A6QU9xcFRPR01OLWgzSzVqT1RJMmhFaHdOTGt0WlhsYWpvYTExNFBxSGR4R1d5UmJDeDFlaXhSMHFmZVVDUzdIWG54VDNFb3NKR1NvQnVxTERYOExj,English,,5,2016-04-05,Philip Kane,,great to not have to have a computer running but still stream music,,
Squeezer,Google Play,uk.org.ngo.squeezer,Z3A6QU9xcFRPR01OLWgzSzVqT1RJMmhFaHdOTGt0WlhsYWpvYTExNFBxSGR4R1d5UmJDeDFlaXhSMHFmZVVDUzdIWG54VDNFb3NKR1NvQnVxTERYOExj,English,,5,2016-04-05,Philip Kane,,you can even take your duet round to your mate house without having to take the computer well,,
Squeezer,Google Play,uk.org.ngo.squeezer,Z3A6QU9xcFRPR01OLWgzSzVqT1RJMmhFaHdOTGt0WlhsYWpvYTExNFBxSGR4R1d5UmJDeDFlaXhSMHFmZVVDUzdIWG54VDNFb3NKR1NvQnVxTERYOExj,English,,5,2016-04-05,Philip Kane,,any chance,,
Squeezer,Google Play,uk.org.ngo.squeezer,Z3A6QU9xcFRPRzlJWXBLYmxOdTZwT3IyZjRLQ2Q3U3AxZmt5ZGI2eU9vbURNM1RQTVdLSm8xVEZ5YTJxeUJXY0lGTmlKc1R0ZXZaSUFLdC1kU196cnNh,English,,4,2016-04-03,Eliot Howell,It works,it work well but the is not the most obvious,,
Squeezer,Google Play,uk.org.ngo.squeezer,Z3A6QU9xcFRPRjlJa0poZHFmakJ1VnFzZkRQRmZqdURKVEtZZUVkQmh0ZWxEMUdfQ2Q0Q2tDU2phcVR2SzBhYjZoLXUwTTFHYV9oQ1BfS1NZbGdWM1Vy,English,,3,2016-04-02,mvp019,,the other omission is the alphabet a an index to the right of the list of artist so you have to guess about you are headed in the long list,,
Squeezer,Google Play,uk.org.ngo.squeezer,Z3A6QU9xcFRPRnR4NWVLbzFnQUJSOUdNQTI5UEFjVmZkQkRjZDk3bzlJUlRQRGlEeDhnRVI4dlJQZ2g4SnBVTzE0RkVoQ1EzS3kzWjU3U1FzeWdxTlpM,English,,3,2016-03-27,Robert Watson,Can't get it to start,seems to need a server i address forum say one must download server but doe this mean you need to have a connected computer running to use this,,
Squeezer,Google Play,uk.org.ngo.squeezer,Z3A6QU9xcFRPR0p0aENIcHhoeTVVbXI1OWM4TTVKYS1QUDYtbllQODg5OGJsM0ZFZjl6bDBfTlVVN3drcUo3bzV3cWtaNzF4WDFkWkhaVXpNX0ZmMDBY,English,,4,2016-03-22,Tibor Lakatos,,work well,,
Squeezer,Google Play,uk.org.ngo.squeezer,Z3A6QU9xcFRPR0p0aENIcHhoeTVVbXI1OWM4TTVKYS1QUDYtbllQODg5OGJsM0ZFZjl6bDBfTlVVN3drcUo3bzV3cWtaNzF4WDFkWkhaVXpNX0ZmMDBY,English,,4,2016-03-22,Tibor Lakatos,,find network and server immediately,,
Squeezer,Google Play,uk.org.ngo.squeezer,Z3A6QU9xcFRPR0p0aENIcHhoeTVVbXI1OWM4TTVKYS1QUDYtbllQODg5OGJsM0ZFZjl6bDBfTlVVN3drcUo3bzV3cWtaNzF4WDFkWkhaVXpNX0ZmMDBY,English,,4,2016-03-22,Tibor Lakatos,,a bit time to load content,,
Squeezer,Google Play,uk.org.ngo.squeezer,Z3A6QU9xcFRPR0p0aENIcHhoeTVVbXI1OWM4TTVKYS1QUDYtbllQODg5OGJsM0ZFZjl6bDBfTlVVN3drcUo3bzV3cWtaNzF4WDFkWkhaVXpNX0ZmMDBY,English,,4,2016-03-22,Tibor Lakatos,,stable no crash,,
Squeezer,Google Play,uk.org.ngo.squeezer,Z3A6QU9xcFRPR0p0aENIcHhoeTVVbXI1OWM4TTVKYS1QUDYtbllQODg5OGJsM0ZFZjl6bDBfTlVVN3drcUo3bzV3cWtaNzF4WDFkWkhaVXpNX0ZmMDBY,English,,4,2016-03-22,Tibor Lakatos,,support for tidal via is did not find it under my but under my favorite,,
Squeezer,Google Play,uk.org.ngo.squeezer,Z3A6QU9xcFRPR0p0aENIcHhoeTVVbXI1OWM4TTVKYS1QUDYtbllQODg5OGJsM0ZFZjl6bDBfTlVVN3drcUo3bzV3cWtaNzF4WDFkWkhaVXpNX0ZmMDBY,English,,4,2016-03-22,Tibor Lakatos,,all my music is there but no search function,,
Squeezer,Google Play,uk.org.ngo.squeezer,Z3A6QU9xcFRPR214VVlDVDRDY19zdTFUZmJ0REZsM29wV2w4dzMwQTA1TEdPZnBtcm5rWWd1YzVSd0w3ZmstdVNDbWlpTjVDZEY2eUJfamRJRkRhM3R0,English,,5,2016-03-21,Sanjay Gohel,Squeezer for Logitech Boom,excellent,,
Squeezer,Google Play,uk.org.ngo.squeezer,Z3A6QU9xcFRPRkt1cDZ2UGs5dUc5a25ZODFsLTdLSll3dlhqM0FES1pJZUJySTdaRVU4VGFZejFDQ0JEOWh5LUtBZG8yTGl4WVNOdndFX19zYUdwTEFS,English,,3,2016-03-20,Minh Justin Ta,,is this even implemented,,
Squeezer,Google Play,uk.org.ngo.squeezer,Z3A6QU9xcFRPSGo4c19VRmw2LWVaT1pOYzVsdGlIVURGUmlYbVUtVEVhSzAxNnY4MHdZeVZqaDRHaWFBMERGcGxkQnd1UGlKY19PNmlqcFd4cWl3THF5,English,,3,2016-03-15,hisham khodeir,It's ok,i would have gave it 5 star the search in the radio and sound cloud worked,,
Squeezer,Google Play,uk.org.ngo.squeezer,Z3A6QU9xcFRPRVNFMElmMkxzYjFQSE8yLURxWXJTUXhmU2dhTmNxQ05iRjZpQjhsd3NCMDZGUG04VmdmREFJR0pLOW5SczdQYk9FWjZLcUNPUnd3aU5J,English,,5,2016-02-24,Dirk McKeenan,"Tastes Great, Less Filling",i needed a version for my new android and this work great,,
Squeezer,Google Play,uk.org.ngo.squeezer,Z3A6QU9xcFRPRVNFMElmMkxzYjFQSE8yLURxWXJTUXhmU2dhTmNxQ05iRjZpQjhsd3NCMDZGUG04VmdmREFJR0pLOW5SczdQYk9FWjZLcUNPUnd3aU5J,English,,5,2016-02-24,Dirk McKeenan,"Tastes Great, Less Filling",i love it requires so few permission,,
Squeezer,Google Play,uk.org.ngo.squeezer,Z3A6QU9xcFRPRVNFMElmMkxzYjFQSE8yLURxWXJTUXhmU2dhTmNxQ05iRjZpQjhsd3NCMDZGUG04VmdmREFJR0pLOW5SczdQYk9FWjZLcUNPUnd3aU5J,English,,5,2016-02-24,Dirk McKeenan,"Tastes Great, Less Filling",to the developer is the project for anyone wanting to contribute,,
Squeezer,Google Play,uk.org.ngo.squeezer,Z3A6QU9xcFRPR29wUUQ2c3dmUnFKaWlSaWFHaTNlTERQa0lPdlNhVDViZHBNbmpxaW5GcnpNZEx5dTdCTWE5Vnl0ZlA0U1JUOGtISlI2dXNQVDU0Ri1q,English,,5,2016-02-22,Evan Walton,Best Squeezebox Controller,work good lot of option,,
Squeezer,Google Play,uk.org.ngo.squeezer,Z3A6QU9xcFRPR29wUUQ2c3dmUnFKaWlSaWFHaTNlTERQa0lPdlNhVDViZHBNbmpxaW5GcnpNZEx5dTdCTWE5Vnl0ZlA0U1JUOGtISlI2dXNQVDU0Ri1q,English,,5,2016-02-22,Evan Walton,Best Squeezebox Controller,,,
Squeezer,Google Play,uk.org.ngo.squeezer,Z3A6QU9xcFRPRnJuMTB6LTlmLXlRd0RSU05PVTg5TU5WdnFlTkN6elUtVVlmT3BYLWJrLTV4ajVHM2NwV0dBMVVtRzhRZ3JIRTR2MmdBaXZFU0Y1OWdm,English,,5,2016-02-13,Hakan Doruk,,great,,
Squeezer,Google Play,uk.org.ngo.squeezer,Z3A6QU9xcFRPRm9jQTZ0OVEwTXRld1YzbTZHeFpiSXNBbGFINlRnV2lfOTlEUXh2em1IMWN3MktWQlpBYkJFbFBQXzdhTUQxZEpVVll1UDAweHNOUG0t,English,,4,2016-02-09,Kevin Duling,Won't start audio book files,i select my or file with my they play fine,,
Squeezer,Google Play,uk.org.ngo.squeezer,Z3A6QU9xcFRPRm9jQTZ0OVEwTXRld1YzbTZHeFpiSXNBbGFINlRnV2lfOTlEUXh2em1IMWN3MktWQlpBYkJFbFBQXzdhTUQxZEpVVll1UDAweHNOUG0t,English,,4,2016-02-09,Kevin Duling,Won't start audio book files,except for great,,
Squeezer,Google Play,uk.org.ngo.squeezer,Z3A6QU9xcFRPRlpTNnlfVExRampYY3pYeVp1dm83RE9JbjhDdlItZ25ta2RxcmtobGJaS1RHRDNfOHQ5YksxaEdGOVktWlZOSThER3pJZ1R1VlRXN2p4,English,,3,2016-01-20,Jehan Shaw,Good but...,i would really like to have a list all track by artist option instead of being forced to pick an album,,
Squeezer,Google Play,uk.org.ngo.squeezer,Z3A6QU9xcFRPRlpTNnlfVExRampYY3pYeVp1dm83RE9JbjhDdlItZ25ta2RxcmtobGJaS1RHRDNfOHQ5YksxaEdGOVktWlZOSThER3pJZ1R1VlRXN2p4,English,,3,2016-01-20,Jehan Shaw,Good but...,will upgrade the rating you add this,,
Squeezer,Google Play,uk.org.ngo.squeezer,Z3A6QU9xcFRPRXFHOGhQcU5Dd0tOaEJQN254akd5cGFXOFBkNUcxX2NZa3ZuNGxQMFpCX2FlaVlJQVpLb0ZLZk4zNTRTZ1lwcVNTQno3aTFzOEtYLUl2,English,,4,2016-01-19,Asbjørn Skrettingland,Good squeezebox app,this is an very good,,
Squeezer,Google Play,uk.org.ngo.squeezer,Z3A6QU9xcFRPRXFHOGhQcU5Dd0tOaEJQN254akd5cGFXOFBkNUcxX2NZa3ZuNGxQMFpCX2FlaVlJQVpLb0ZLZk4zNTRTZ1lwcVNTQno3aTFzOEtYLUl2,English,,4,2016-01-19,Asbjørn Skrettingland,Good squeezebox app,the thing missing is support for query in,,
Squeezer,Google Play,uk.org.ngo.squeezer,Z3A6QU9xcFRPSDA0cW9tcXlIek1wdkJfZ0NkbDQ2X2NsQzFZakZULVZqMDJtNG1LSVh3NmhIYnZHRm9xVkp3RVhfNGFuZ1VJSTkxM1JVdW9sdkRYVThN,English,,5,2016-01-15,Matthew Protonotarios,Great,it work fine for me,,
Squeezer,Google Play,uk.org.ngo.squeezer,Z3A6QU9xcFRPSDA0cW9tcXlIek1wdkJfZ0NkbDQ2X2NsQzFZakZULVZqMDJtNG1LSVh3NmhIYnZHRm9xVkp3RVhfNGFuZ1VJSTkxM1JVdW9sdkRYVThN,English,,5,2016-01-15,Matthew Protonotarios,Great,thanks for this great,,
Squeezer,Google Play,uk.org.ngo.squeezer,Z3A6QU9xcFRPR2xhbDJCTWlUQk5WQzBMSG1jYlRXY255NWFIVjViVnhqYVU3a0I0M0Zlb3U4REtsZjBsbVFIRGtLa3pMRXZOUEttejNuSDlMVE9lVlB0,English,,2,2016-01-11,Atanas Christev,Mediocre,some functionality missing,,
Squeezer,Google Play,uk.org.ngo.squeezer,Z3A6QU9xcFRPR2xhbDJCTWlUQk5WQzBMSG1jYlRXY255NWFIVjViVnhqYVU3a0I0M0Zlb3U4REtsZjBsbVFIRGtLa3pMRXZOUEttejNuSDlMVE9lVlB0,English,,2,2016-01-11,Atanas Christev,Mediocre,those little triangle right next to the slider are infuriating the author need a good slap,,
Squeezer,Google Play,uk.org.ngo.squeezer,Z3A6QU9xcFRPRTcwVTZhQ2FuRkhfZ3MyZkljNHhZN1BtT0hzNzZueXdHYXJPOFZ4eGd0R2d1Nm8tRWhoWDFULXFfMVhyeXBZeWxDWFEzT01lWDQ3RzZi,English,,5,2016-01-10,Wilbur Deftly,Magic!,worked perfectly installation,,
Squeezer,Google Play,uk.org.ngo.squeezer,Z3A6QU9xcFRPRTcwVTZhQ2FuRkhfZ3MyZkljNHhZN1BtT0hzNzZueXdHYXJPOFZ4eGd0R2d1Nm8tRWhoWDFULXFfMVhyeXBZeWxDWFEzT01lWDQ3RzZi,English,,5,2016-01-10,Wilbur Deftly,Magic!,this is a great application,,
Squeezer,Google Play,uk.org.ngo.squeezer,Z3A6QU9xcFRPR0t0ZXd0N3dqN3dlNTlsUFFjMGhEcU5KSGczeFlxT2hiMGlHTktzeVpEUUFUWmQzeERaRlZDSWFmcTlSaEt3TWxrY1haOWx4WDREVFNz,English,,5,2016-01-09,Arend Hamming,Perfect,even advanced feature like synchronization are but in a user friendly interface,,
Squeezer,Google Play,uk.org.ngo.squeezer,Z3A6QU9xcFRPR0t0ZXd0N3dqN3dlNTlsUFFjMGhEcU5KSGczeFlxT2hiMGlHTktzeVpEUUFUWmQzeERaRlZDSWFmcTlSaEt3TWxrY1haOWx4WDREVFNz,English,,5,2016-01-09,Arend Hamming,Perfect,love it,,
Squeezer,Google Play,uk.org.ngo.squeezer,Z3A6QU9xcFRPRkgzN2pfQUM1bWNoODBockRuQnBFdzlQLXVfRUxMNy1YTnNvUjdnTFNaczlpVkFPU294dFRmZkxGTXg0aG94V3ZZRENKUGRGRFR6ZVAt,English,,5,2016-01-06,Gurdeep Dhanjal,The Best,great replacement for,,
Squeezer,Google Play,uk.org.ngo.squeezer,Z3A6QU9xcFRPRXRfUmVCQlBxWW1qaTdQVEJrdTJCc3hYMkM3OWV6Z3VTRVlYbGZoWllJS3k3aF9TRExieEpXTHdyT1ZJeWJNd2tfZkdZaU9DR2hYUTV4,English,,5,2016-01-02,Jason Legum,Indispensable. An upgrade,the build on the interface by adding performance enhancement and an easier way to access large library,,
Squeezer,Google Play,uk.org.ngo.squeezer,Z3A6QU9xcFRPRXRfUmVCQlBxWW1qaTdQVEJrdTJCc3hYMkM3OWV6Z3VTRVlYbGZoWllJS3k3aF9TRExieEpXTHdyT1ZJeWJNd2tfZkdZaU9DR2hYUTV4,English,,5,2016-01-02,Jason Legum,Indispensable. An upgrade,searching across and song is beautifully accomplished,,
Squeezer,Google Play,uk.org.ngo.squeezer,Z3A6QU9xcFRPRXRfUmVCQlBxWW1qaTdQVEJrdTJCc3hYMkM3OWV6Z3VTRVlYbGZoWllJS3k3aF9TRExieEpXTHdyT1ZJeWJNd2tfZkdZaU9DR2hYUTV4,English,,5,2016-01-02,Jason Legum,Indispensable. An upgrade,simplifies alarm clock too,,
Squeezer,Google Play,uk.org.ngo.squeezer,Z3A6QU9xcFRPSDRVYXQzbVNscG43aVcxeWIxTEtFSGpxS2htUFFDUEVIRE1aQ1FBUW1hbGdacXZnVFFmaUxwUVNkLURpTmxOR3Z1eXk1NFlZS01SdVox,English,,4,2016-01-01,Marky Mark,Good but,good,,
Squeezer,Google Play,uk.org.ngo.squeezer,Z3A6QU9xcFRPSDRVYXQzbVNscG43aVcxeWIxTEtFSGpxS2htUFFDUEVIRE1aQ1FBUW1hbGdacXZnVFFmaUxwUVNkLURpTmxOR3Z1eXk1NFlZS01SdVox,English,,4,2016-01-01,Marky Mark,Good but,i have only used it for a short time far and i am already impressed with how it look and performs,,
Squeezer,Google Play,uk.org.ngo.squeezer,Z3A6QU9xcFRPSDRVYXQzbVNscG43aVcxeWIxTEtFSGpxS2htUFFDUEVIRE1aQ1FBUW1hbGdacXZnVFFmaUxwUVNkLURpTmxOR3Z1eXk1NFlZS01SdVox,English,,4,2016-01-01,Marky Mark,Good but,it took just a few second to find my server and music with no input from me,,
Squeezer,Google Play,uk.org.ngo.squeezer,Z3A6QU9xcFRPSDRVYXQzbVNscG43aVcxeWIxTEtFSGpxS2htUFFDUEVIRE1aQ1FBUW1hbGdacXZnVFFmaUxwUVNkLURpTmxOR3Z1eXk1NFlZS01SdVox,English,,4,2016-01-01,Marky Mark,Good but,the thing i have found disappointing is the random song play mode,,
Squeezer,Google Play,uk.org.ngo.squeezer,Z3A6QU9xcFRPRldma29hbUc5LXRqYWR1YXpidWdkZHg4RXRtb3pGTXdTTFp4TTZXUVVFS1kwSHc3ZkFXbmhpVlREdzY5d1Q2SWtCWlhWVjd5MEVHa2Vt,English,,2,2015-12-26,Dave Cochrane,"Good, but needs filtering options",work really but is a bit annoying how it lump in conductor and band in with the artist,,
Squeezer,Google Play,uk.org.ngo.squeezer,Z3A6QU9xcFRPRldma29hbUc5LXRqYWR1YXpidWdkZHg4RXRtb3pGTXdTTFp4TTZXUVVFS1kwSHc3ZkFXbmhpVlREdzY5d1Q2SWtCWlhWVjd5MEVHa2Vt,English,,2,2015-12-26,Dave Cochrane,"Good, but needs filtering options",these are separate field for a and to lump them all together make search longer and annoying,,
Squeezer,Google Play,uk.org.ngo.squeezer,Z3A6QU9xcFRPRldma29hbUc5LXRqYWR1YXpidWdkZHg4RXRtb3pGTXdTTFp4TTZXUVVFS1kwSHc3ZkFXbmhpVlREdzY5d1Q2SWtCWlhWVjd5MEVHa2Vt,English,,2,2015-12-26,Dave Cochrane,"Good, but needs filtering options",this need to allow filtering of what appears in the artist list,,
Squeezer,Google Play,uk.org.ngo.squeezer,Z3A6QU9xcFRPRldma29hbUc5LXRqYWR1YXpidWdkZHg4RXRtb3pGTXdTTFp4TTZXUVVFS1kwSHc3ZkFXbmhpVlREdzY5d1Q2SWtCWlhWVjd5MEVHa2Vt,English,,2,2015-12-26,Dave Cochrane,"Good, but needs filtering options",problem solved,,
Squeezer,Google Play,uk.org.ngo.squeezer,Z3A6QU9xcFRPRXE2WkFQUFQzejEzTlFPcjMxWmZBa21uOGc0enJhb2RsV1BUd0hUeEFENVJJNzlMQkJ2ODFvRW9lakJBOWZZNUNUNmxNSzFzMk1jcDlI,English,,5,2015-12-23,Daniel vk,"Awesome, worked straight out of the box",great guy,,
Squeezer,Google Play,uk.org.ngo.squeezer,Z3A6QU9xcFRPRXE2WkFQUFQzejEzTlFPcjMxWmZBa21uOGc0enJhb2RsV1BUd0hUeEFENVJJNzlMQkJ2ODFvRW9lakJBOWZZNUNUNmxNSzFzMk1jcDlI,English,,5,2015-12-23,Daniel vk,"Awesome, worked straight out of the box",work on one,,
Squeezer,Google Play,uk.org.ngo.squeezer,Z3A6QU9xcFRPR0lTLWI0WmVVMnRVWE1LVW51cFhRaHVoNDRVS2VWbnpsMjdnR3VYQ1BwcVNTbUJEUU9mYWRsd0NYUlVIalJtMTByWjJXY0U0RFFqSUtK,English,,4,2015-12-14,Ryan Skarra-Gallagher,,would get 5 start but i can skip track from the notification not the main itself,,
Squeezer,Google Play,uk.org.ngo.squeezer,Z3A6QU9xcFRPSGU5Yl9saGM4Q3VrYU5JSkJQTTBFc0NnaGtLaFFFRklvd3hPa1VQeE94cHVzTEpoT3ZGNURNYm9EMmhOT2xuTHJ4NV9UOEQwNWIxXy1F,English,,5,2015-12-09,Matt Absalom,,much better the official,,
Squeezer,Google Play,uk.org.ngo.squeezer,Z3A6QU9xcFRPSGU5Yl9saGM4Q3VrYU5JSkJQTTBFc0NnaGtLaFFFRklvd3hPa1VQeE94cHVzTEpoT3ZGNURNYm9EMmhOT2xuTHJ4NV9UOEQwNWIxXy1F,English,,5,2015-12-09,Matt Absalom,,thanks guy,,
Squeezer,Google Play,uk.org.ngo.squeezer,Z3A6QU9xcFRPSDhiRFlvdm56elFRSjBqM0RfTXlSZXRKekk3M2R1cWI3dWdwNTdBNjNsSEpCWGhWSjVNNkNMTXcwV2NVazNHcTFhYTdiWE80eS1rN0Vu,English,,5,2015-12-09,Alec Spence,,just fantastic glad i found this after the just stopped working,,
Squeezer,Google Play,uk.org.ngo.squeezer,Z3A6QU9xcFRPRkpKdm1KWU5pLTBKa25feG9HVlM3RldmU0NZaEJnTS1nc3RhUUw3OUpfYjNrU0czejI1V2FjQzBibVh2SGF6eTE3VWtYR1VsaUtiSy1T,English,,5,2015-12-06,Andrew Collier,Brilliant!,this ha brought my,,
Squeezer,Google Play,uk.org.ngo.squeezer,Z3A6QU9xcFRPRkpKdm1KWU5pLTBKa25feG9HVlM3RldmU0NZaEJnTS1nc3RhUUw3OUpfYjNrU0czejI1V2FjQzBibVh2SGF6eTE3VWtYR1VsaUtiSy1T,English,,5,2015-12-06,Andrew Collier,Brilliant!,great bit of software,,
Squeezer,Google Play,uk.org.ngo.squeezer,Z3A6QU9xcFRPRkpKdm1KWU5pLTBKa25feG9HVlM3RldmU0NZaEJnTS1nc3RhUUw3OUpfYjNrU0czejI1V2FjQzBibVh2SGF6eTE3VWtYR1VsaUtiSy1T,English,,5,2015-12-06,Andrew Collier,Brilliant!,running on transformer,,
Squeezer,Google Play,uk.org.ngo.squeezer,Z3A6QU9xcFRPSGJUQ2xqTXpqakM5a2YwbmhuSkIwZUU5NDdsSXEtNVFCdmlvMFdWNmdEX2E4SkJlUWc0SXI3c21aQmNxMFQtQWd4MXRSbVQ2UVdnR1Zj,English,,5,2015-12-05,Olly Cruickshank,Great app,awesome well done developer,,
Squeezer,Google Play,uk.org.ngo.squeezer,Z3A6QU9xcFRPR1hOc2xJWmZKTEMxeVlnOUVUdjBsWHdYRmRoSW9lTFd3d2Z0NjhMTzZJWkF6RmQtLTFpWFVkQzVXeFJrLWxXR25fb1FOZGIyOWp1TlhS,English,,4,2015-12-02,,"Good App, nearly great.",the is really good and give fantastic but would be great the search function in such a also worked,,
Squeezer,Google Play,uk.org.ngo.squeezer,Z3A6QU9xcFRPRUgzbWV6SFRpbEw2b3lGeDJtN3pnVFRwc3U1OUlRNF9ZTU5ORU9KV0F4anNfQ0QwWUFuY0hpWng4Njl1UFU1T21Gbm1jUUlKTEtqalZS,English,,5,2015-11-28,Marty Bucher,Perfect,thanks for stepping in stepped out,,
Squeezer,Google Play,uk.org.ngo.squeezer,Z3A6QU9xcFRPRUgzbWV6SFRpbEw2b3lGeDJtN3pnVFRwc3U1OUlRNF9ZTU5ORU9KV0F4anNfQ0QwWUFuY0hpWng4Njl1UFU1T21Gbm1jUUlKTEtqalZS,English,,5,2015-11-28,Marty Bucher,Perfect,work expected and thankfully work with latest android release,,
Squeezer,Google Play,uk.org.ngo.squeezer,Z3A6QU9xcFRPRUgzbWV6SFRpbEw2b3lGeDJtN3pnVFRwc3U1OUlRNF9ZTU5ORU9KV0F4anNfQ0QwWUFuY0hpWng4Njl1UFU1T21Gbm1jUUlKTEtqalZS,English,,5,2015-11-28,Marty Bucher,Perfect,perfect,,
Squeezer,Google Play,uk.org.ngo.squeezer,Z3A6QU9xcFRPR1dXMkZkbUstUFpCMW9jRzBnMWFEZ29HcWd4WFdScElrV3dNOWx0aVhOUGsxZGFIdzk2aEtzM3BRUjg0dDAxQ1NCMktJdDBzekJVbEls,English,,5,2015-11-27,Priscillia Beaudoin,,best,,
Squeezer,Google Play,uk.org.ngo.squeezer,Z3A6QU9xcFRPSDU0ak1RNGlFaTlTbEpPU2FtSkN2OFBsal9GdnlteTJ2S1ZDNkxfWkNrQnBnVEJCY0s4VVM1bGNSZnFZVlI0YlN3WWw4V3kzNmxzcHZP,English,,5,2015-11-23,phil went,Perfect for handling squeeze players,bug free,,
Squeezer,Google Play,uk.org.ngo.squeezer,Z3A6QU9xcFRPR0w4ckdxLTVtRFFsWG9DVmwyZkFDeWlwaExfTEhQaTExdFdnR1ZuOXJNOUhMY1FNTmZ3anlvdlRBVHNIVFE3NzhLZUF3a3BWM0pzbThX,English,,5,2015-11-18,Hg Lim,,fantastic,,
Squeezer,Google Play,uk.org.ngo.squeezer,Z3A6QU9xcFRPR0w4ckdxLTVtRFFsWG9DVmwyZkFDeWlwaExfTEhQaTExdFdnR1ZuOXJNOUhMY1FNTmZ3anlvdlRBVHNIVFE3NzhLZUF3a3BWM0pzbThX,English,,5,2015-11-18,Hg Lim,,this is what the official touch should have been,,
Squeezer,Google Play,uk.org.ngo.squeezer,Z3A6QU9xcFRPR0w4ckdxLTVtRFFsWG9DVmwyZkFDeWlwaExfTEhQaTExdFdnR1ZuOXJNOUhMY1FNTmZ3anlvdlRBVHNIVFE3NzhLZUF3a3BWM0pzbThX,English,,5,2015-11-18,Hg Lim,,the control are very responsive,,
Squeezer,Google Play,uk.org.ngo.squeezer,Z3A6QU9xcFRPR0w4ckdxLTVtRFFsWG9DVmwyZkFDeWlwaExfTEhQaTExdFdnR1ZuOXJNOUhMY1FNTmZ3anlvdlRBVHNIVFE3NzhLZUF3a3BWM0pzbThX,English,,5,2015-11-18,Hg Lim,,a widget would be a great enhancement to an already awesome,,
Squeezer,Google Play,uk.org.ngo.squeezer,Z3A6QU9xcFRPR0w4ckdxLTVtRFFsWG9DVmwyZkFDeWlwaExfTEhQaTExdFdnR1ZuOXJNOUhMY1FNTmZ3anlvdlRBVHNIVFE3NzhLZUF3a3BWM0pzbThX,English,,5,2015-11-18,Hg Lim,,thanks very much for making this great,,
Squeezer,Google Play,uk.org.ngo.squeezer,Z3A6QU9xcFRPSHg4VTk1bngwV2I4YmIwQzNHZy1ldDBBYU5Tc0RTS2wyd2RRdkJLVVZkRUJyNWVmSHZWbVRKUG9PQzRJRE1HRlJUd25NczZ3c095NGRF,English,,3,2015-11-13,Andy Barrow,,the server ha over track,,
Squeezer,Google Play,uk.org.ngo.squeezer,Z3A6QU9xcFRPSHg4VTk1bngwV2I4YmIwQzNHZy1ldDBBYU5Tc0RTS2wyd2RRdkJLVVZkRUJyNWVmSHZWbVRKUG9PQzRJRE1HRlJUd25NczZ3c095NGRF,English,,3,2015-11-13,Andy Barrow,,i guess i should expect this system to be slow to update on a large music i often find that in the middle of paging through the connection to the server is lost and i have to reconnect and start from the beginning again,,
Squeezer,Google Play,uk.org.ngo.squeezer,Z3A6QU9xcFRPSHg4VTk1bngwV2I4YmIwQzNHZy1ldDBBYU5Tc0RTS2wyd2RRdkJLVVZkRUJyNWVmSHZWbVRKUG9PQzRJRE1HRlJUd25NczZ3c095NGRF,English,,3,2015-11-13,Andy Barrow,,4 or 5 time it can get pretty frustrating,,
Squeezer,Google Play,uk.org.ngo.squeezer,Z3A6QU9xcFRPR3FfRFZGQlNpVmtIMEo5Uk96eHU4NTJyVHV6ZFY3cXlJcU9NWXM3cFZQNlVEQVNfSjRlSzJQaEpXdUdiRC05SkJmbGszZlgxcTU0RHli,English,,5,2015-11-13,Tyler Young,,great,,
Squeezer,Google Play,uk.org.ngo.squeezer,Z3A6QU9xcFRPR3FfRFZGQlNpVmtIMEo5Uk96eHU4NTJyVHV6ZFY3cXlJcU9NWXM3cFZQNlVEQVNfSjRlSzJQaEpXdUdiRC05SkJmbGszZlgxcTU0RHli,English,,5,2015-11-13,Tyler Young,,work perfectly,,
Squeezer,Google Play,uk.org.ngo.squeezer,Z3A6QU9xcFRPR1NjUHdCX1k3T3lQWjJxU052aUxWX1pnYUptOC1vYXNaVmlsRm9WTFhtTHFMbFMxcVAtY215U211WTBjWUw4Z2tVUUNhZlRMZzVjS0xt,English,,5,2015-11-08,Can'tBe You,Thank-you.,left a bad taste in my mouth,,
Squeezer,Google Play,uk.org.ngo.squeezer,Z3A6QU9xcFRPR1NjUHdCX1k3T3lQWjJxU052aUxWX1pnYUptOC1vYXNaVmlsRm9WTFhtTHFMbFMxcVAtY215U211WTBjWUw4Z2tVUUNhZlRMZzVjS0xt,English,,5,2015-11-08,Can'tBe You,Thank-you.,really set the standard for the future of home entertainment,,
Squeezer,Google Play,uk.org.ngo.squeezer,Z3A6QU9xcFRPR1NjUHdCX1k3T3lQWjJxU052aUxWX1pnYUptOC1vYXNaVmlsRm9WTFhtTHFMbFMxcVAtY215U211WTBjWUw4Z2tVUUNhZlRMZzVjS0xt,English,,5,2015-11-08,Can'tBe You,Thank-you.,but not supporting the software,,
Squeezer,Google Play,uk.org.ngo.squeezer,Z3A6QU9xcFRPR1NjUHdCX1k3T3lQWjJxU052aUxWX1pnYUptOC1vYXNaVmlsRm9WTFhtTHFMbFMxcVAtY215U211WTBjWUw4Z2tVUUNhZlRMZzVjS0xt,English,,5,2015-11-08,Can'tBe You,Thank-you.,bad,,
Squeezer,Google Play,uk.org.ngo.squeezer,Z3A6QU9xcFRPR1NjUHdCX1k3T3lQWjJxU052aUxWX1pnYUptOC1vYXNaVmlsRm9WTFhtTHFMbFMxcVAtY215U211WTBjWUw4Z2tVUUNhZlRMZzVjS0xt,English,,5,2015-11-08,Can'tBe You,Thank-you.,this,,
Squeezer,Google Play,uk.org.ngo.squeezer,Z3A6QU9xcFRPR1NjUHdCX1k3T3lQWjJxU052aUxWX1pnYUptOC1vYXNaVmlsRm9WTFhtTHFMbFMxcVAtY215U211WTBjWUw4Z2tVUUNhZlRMZzVjS0xt,English,,5,2015-11-08,Can'tBe You,Thank-you.,work great,,
Squeezer,Google Play,uk.org.ngo.squeezer,Z3A6QU9xcFRPR1NjUHdCX1k3T3lQWjJxU052aUxWX1pnYUptOC1vYXNaVmlsRm9WTFhtTHFMbFMxcVAtY215U211WTBjWUw4Z2tVUUNhZlRMZzVjS0xt,English,,5,2015-11-08,Can'tBe You,Thank-you.,thanks,,
Squeezer,Google Play,uk.org.ngo.squeezer,Z3A6QU9xcFRPSElTX29Hek1WV0w3TnlIVXhmVU1Bc2FsY1IxeXNMS0lzVDdXWjZSMVM4bXdoQkx3XzMwUE5xajdlNmlFVkMycnBHVElNZWk2Y3ktTUpR,English,,5,2015-10-31,Waldy Wiz,,nice work well,,
Squeezer,Google Play,uk.org.ngo.squeezer,Z3A6QU9xcFRPRm15QlZvQ2xMWUVzQWR3VmZ6cVkzbFFBZS1JSXh6LVNYWHJzNzdvVFl0U1poQ0ZFTVdvLTZaSVBWMDZpS1I1WnhYbHB4ZDEyQWZNU1RK,English,,5,2015-10-30,janet hammond,Works realy well,this is great work real well with my thank you to the developer,,
Squeezer,Google Play,uk.org.ngo.squeezer,Z3A6QU9xcFRPRkR5cG51YVkwRGRPa1JjOFlHQVZ5QXA0NFc3WjJnN1FBSko0b0dZaXNxUU9jc1d3YVJPcWJxLVBnUnFKMTJJMFQ2ZW9aWllkcTQ5cVlh,English,,4,2015-10-24,Anders Larsson,Better than official software....,from,,
Squeezer,Google Play,uk.org.ngo.squeezer,Z3A6QU9xcFRPRTBiZEZaa0p0eEtXaFZ0X0h2dlB5cHBfZ040eUhQZWlyOE8ydzY3bXFsZ2t1a2toem91Tnc1TkVDYm9NZ3dwc0FSWUp2TUh5UWpHY2F5,English,,5,2015-10-24,Daniel Singleton,,this is everything the official should have been,,
Squeezer,Google Play,uk.org.ngo.squeezer,Z3A6QU9xcFRPRlo0ZXktRVZ4V1Q0dDdxd19fOXVqYUh1bzRidzNHRjlIMlJFRFlYVDVfUjFlQUVpUjJXaUtHaWp3T2tEa0RSYThXQXlLME5PazdRMjB6,English,,5,2015-10-22,A Better Place LLC,FREAKIN AWESOME!,having a blast with this,,
Squeezer,Google Play,uk.org.ngo.squeezer,Z3A6QU9xcFRPRlo0ZXktRVZ4V1Q0dDdxd19fOXVqYUh1bzRidzNHRjlIMlJFRFlYVDVfUjFlQUVpUjJXaUtHaWp3T2tEa0RSYThXQXlLME5PazdRMjB6,English,,5,2015-10-22,A Better Place LLC,FREAKIN AWESOME!,one thing would be nice though,,
Squeezer,Google Play,uk.org.ngo.squeezer,Z3A6QU9xcFRPRlo0ZXktRVZ4V1Q0dDdxd19fOXVqYUh1bzRidzNHRjlIMlJFRFlYVDVfUjFlQUVpUjJXaUtHaWp3T2tEa0RSYThXQXlLME5PazdRMjB6,English,,5,2015-10-22,A Better Place LLC,FREAKIN AWESOME!,the ability to create play list and ad whichever song is playing to whichever you want,,
Squeezer,Google Play,uk.org.ngo.squeezer,Z3A6QU9xcFRPRlo0ZXktRVZ4V1Q0dDdxd19fOXVqYUh1bzRidzNHRjlIMlJFRFlYVDVfUjFlQUVpUjJXaUtHaWp3T2tEa0RSYThXQXlLME5PazdRMjB6,English,,5,2015-10-22,A Better Place LLC,FREAKIN AWESOME!,just looking for a way to build play list,,
Squeezer,Google Play,uk.org.ngo.squeezer,Z3A6QU9xcFRPRUtJbkRjenBGLXhocnBtWUxvMUFxWmN1Nkc3Y2ZjUE93enNYcUtMc3U5UGVfa09JOVgwX1VKQ1dXZm5mb3NBamlYUVpCcGVheG11bEVB,English,,5,2015-10-17,Dima Фиш,,really fast,,
Squeezer,Google Play,uk.org.ngo.squeezer,Z3A6QU9xcFRPRUtJbkRjenBGLXhocnBtWUxvMUFxWmN1Nkc3Y2ZjUE93enNYcUtMc3U5UGVfa09JOVgwX1VKQ1dXZm5mb3NBamlYUVpCcGVheG11bEVB,English,,5,2015-10-17,Dima Фиш,,much faster then,,
Squeezer,Google Play,uk.org.ngo.squeezer,Z3A6QU9xcFRPR0R0X21tTWZQQTRnbV9vU0Rjb0JDRFRaOFU0QW9MYlpWd1NYclFrWVZIaWJzRTJjTk9aTXc2S2VqRy1YVVVyOVJoTTIxZXpWbkJEOGk2,English,,1,2015-10-14,Rich Paddon,"Doesn't work, is just blank",i get a load of menu but they are empty i click through to them,,
Squeezer,Google Play,uk.org.ngo.squeezer,Z3A6QU9xcFRPR0R0X21tTWZQQTRnbV9vU0Rjb0JDRFRaOFU0QW9MYlpWd1NYclFrWVZIaWJzRTJjTk9aTXc2S2VqRy1YVVVyOVJoTTIxZXpWbkJEOGk2,English,,1,2015-10-14,Rich Paddon,"Doesn't work, is just blank",any suggestion,,
Squeezer,Google Play,uk.org.ngo.squeezer,Z3A6QU9xcFRPR0R0X21tTWZQQTRnbV9vU0Rjb0JDRFRaOFU0QW9MYlpWd1NYclFrWVZIaWJzRTJjTk9aTXc2S2VqRy1YVVVyOVJoTTIxZXpWbkJEOGk2,English,,1,2015-10-14,Rich Paddon,"Doesn't work, is just blank",nexus android 511,,
Squeezer,Google Play,uk.org.ngo.squeezer,Z3A6QU9xcFRPR3Q3S2tKeGRBODRxeURjcmNkRzFsMmVFa2JXRE9EYXVuVzEzMkE4QUxybDI4MVlNaXVVWEdwSWlaSWVJSEstWTkyc2RFMHpoR3Q1OGxp,English,,5,2015-10-08,JP Graba,,my old became defunct 511,,
Squeezer,Google Play,uk.org.ngo.squeezer,Z3A6QU9xcFRPR3Q3S2tKeGRBODRxeURjcmNkRzFsMmVFa2JXRE9EYXVuVzEzMkE4QUxybDI4MVlNaXVVWEdwSWlaSWVJSEstWTkyc2RFMHpoR3Q1OGxp,English,,5,2015-10-08,JP Graba,,this one seems to do will let u know more i continue to use in use for over a year work like a charm,,
Squeezer,Google Play,uk.org.ngo.squeezer,Z3A6QU9xcFRPR3Q3S2tKeGRBODRxeURjcmNkRzFsMmVFa2JXRE9EYXVuVzEzMkE4QUxybDI4MVlNaXVVWEdwSWlaSWVJSEstWTkyc2RFMHpoR3Q1OGxp,English,,5,2015-10-08,JP Graba,,maybe these guy will make an for streaming,,
Squeezer,Google Play,uk.org.ngo.squeezer,Z3A6QU9xcFRPRUo0UXkzb0g1Wno3UFF6SUlwV2ZkRXJIcktnNlN0YXdUbFFDYjVhV1k3eURsbkFHRXEtQ3dKYnJqSDlDeW85bzRNQ3QzVEpmV3pFVFlM,English,,4,2015-10-05,Tim Coombs,,worked first time with no problem and quite quick to connect,,
Squeezer,Google Play,uk.org.ngo.squeezer,Z3A6QU9xcFRPRUo0UXkzb0g1Wno3UFF6SUlwV2ZkRXJIcktnNlN0YXdUbFFDYjVhV1k3eURsbkFHRXEtQ3dKYnJqSDlDeW85bzRNQ3QzVEpmV3pFVFlM,English,,4,2015-10-05,Tim Coombs,,one annoying is that if i play from an album folder it play them in a random order even the track are numbered,,
Squeezer,Google Play,uk.org.ngo.squeezer,Z3A6QU9xcFRPRUo0UXkzb0g1Wno3UFF6SUlwV2ZkRXJIcktnNlN0YXdUbFFDYjVhV1k3eURsbkFHRXEtQ3dKYnJqSDlDeW85bzRNQ3QzVEpmV3pFVFlM,English,,4,2015-10-05,Tim Coombs,,am i missing a setting,,
Squeezer,Google Play,uk.org.ngo.squeezer,Z3A6QU9xcFRPRWZjd1BJQ2dtYk83VURjTHlPYnRod2c0VXN0anpZTnNqbzRBTG9tSGR6MkZpdUphOUx5aFlpUkgzRGZ4Z1FQRDZfQ2M5N0pvNlU5blFL,English,,3,2015-09-23,Alan Tweedlie,OK but search does not work,work interface is but search doe not work,,
Squeezer,Google Play,uk.org.ngo.squeezer,Z3A6QU9xcFRPSFRnMlFoMnlueWJyeG1VYkg4R2FPenJLdmtSanRQVnB0Z2ktYWJCUC0ybkMyRU94Mmx6Q2RzNFo1OE1LRHZXZ2RrZjBnUVZaX2JTSlhN,English,,4,2015-09-21,Eric Drum,Almost perfect,far this is the best controller i have seen,,
Squeezer,Google Play,uk.org.ngo.squeezer,Z3A6QU9xcFRPSFRnMlFoMnlueWJyeG1VYkg4R2FPenJLdmtSanRQVnB0Z2ktYWJCUC0ybkMyRU94Mmx6Q2RzNFo1OE1LRHZXZ2RrZjBnUVZaX2JTSlhN,English,,4,2015-09-21,Eric Drum,Almost perfect,i end up using multiple radio a well a on old cell the ability to easily control them all from one screen is nice,,
Squeezer,Google Play,uk.org.ngo.squeezer,Z3A6QU9xcFRPSFRnMlFoMnlueWJyeG1VYkg4R2FPenJLdmtSanRQVnB0Z2ktYWJCUC0ybkMyRU94Mmx6Q2RzNFo1OE1LRHZXZ2RrZjBnUVZaX2JTSlhN,English,,4,2015-09-21,Eric Drum,Almost perfect,i have to disconnect and reconnect in order to get it working again,,
Squeezer,Google Play,uk.org.ngo.squeezer,Z3A6QU9xcFRPSFRnMlFoMnlueWJyeG1VYkg4R2FPenJLdmtSanRQVnB0Z2ktYWJCUC0ybkMyRU94Mmx6Q2RzNFo1OE1LRHZXZ2RrZjBnUVZaX2JTSlhN,English,,4,2015-09-21,Eric Drum,Almost perfect,i would like to see a widget controller,,
Squeezer,Google Play,uk.org.ngo.squeezer,Z3A6QU9xcFRPRUVjd0VCM09Na3B3LTJha0RhanFuVko1ekxocDFpQkZjdDRhS0dDTURndFBkcWdBNkZCWG8xalVzVHBUYno0LVVCb3NKQTk3M2hVZnFo,English,,4,2015-09-19,Bjørn Forbord,,this work on my the did not,,
Squeezer,Google Play,uk.org.ngo.squeezer,Z3A6QU9xcFRPRUVjd0VCM09Na3B3LTJha0RhanFuVko1ekxocDFpQkZjdDRhS0dDTURndFBkcWdBNkZCWG8xalVzVHBUYno0LVVCb3NKQTk3M2hVZnFo,English,,4,2015-09-19,Bjørn Forbord,,but the tidal give no info on my phone,,
Squeezer,Google Play,uk.org.ngo.squeezer,Z3A6QU9xcFRPSGZwcVBBeGxTa1dmQTZ1bU1hVndpRFBoempxd2ZVd2ZIekd2Sm8zTWFnalVsR0V5ZndfWEU4RlVYSXVZaS05ZXZRYmNQaXplb19DVTFF,English,,5,2015-09-17,John Callaghan,Great considering it is free,heap more reliable the,,
Squeezer,Google Play,uk.org.ngo.squeezer,Z3A6QU9xcFRPSGZwcVBBeGxTa1dmQTZ1bU1hVndpRFBoempxd2ZVd2ZIekd2Sm8zTWFnalVsR0V5ZndfWEU4RlVYSXVZaS05ZXZRYmNQaXplb19DVTFF,English,,5,2015-09-17,John Callaghan,Great considering it is free,many thanks to the developer,,
Squeezer,Google Play,uk.org.ngo.squeezer,Z3A6QU9xcFRPR1QxLU9qQ0tROWVKZlB3NVdiVjhpVy1qYzNfZHh4NXE1RFIzdzNIdm10dW9qZ2tTSjJPajdWeEw0NHR3RTJ2Y25GdHJHQlVrX2ctVmdL,English,,1,2015-09-12,D Mllr,Doesn't  work for SB Touch on TabS,screen is empty,,
Squeezer,Google Play,uk.org.ngo.squeezer,Z3A6QU9xcFRPR1QxLU9qQ0tROWVKZlB3NVdiVjhpVy1qYzNfZHh4NXE1RFIzdzNIdm10dW9qZ2tTSjJPajdWeEw0NHR3RTJ2Y25GdHJHQlVrX2ctVmdL,English,,1,2015-09-12,D Mllr,Doesn't  work for SB Touch on TabS,am,,
Squeezer,Google Play,uk.org.ngo.squeezer,Z3A6QU9xcFRPSGYya2Z0SS11dUlKYUE2QmNFaHlJRUdQeVRfQ0hJQW9MbmM5SGxEYk50blFIU1NNSE15ZFJNNVRveS1sNUh2MmNzaVI2T2xKY1A1aVE4,English,,4,2015-09-09,Paresh Shrotri,,work advertised,,
Squeezer,Google Play,uk.org.ngo.squeezer,Z3A6QU9xcFRPR0RMRi1lQ1BNSU9WdkRGZXFjeVpKZXdTTUhubGc2bkFwQk5NTTlNYTlIaVJCemJ0V3RuMWdCbmN1Zm1rSm5vcG4wTmRBekU1a0RDd3gt,English,,5,2015-09-06,Stephen Boissiere,,the official controller stopped working for me e time so this wa a very pleasant surprise,,
Squeezer,Google Play,uk.org.ngo.squeezer,Z3A6QU9xcFRPR0RMRi1lQ1BNSU9WdkRGZXFjeVpKZXdTTUhubGc2bkFwQk5NTTlNYTlIaVJCemJ0V3RuMWdCbmN1Zm1rSm5vcG4wTmRBekU1a0RDd3gt,English,,5,2015-09-06,Stephen Boissiere,,thanks,,
Squeezer,Google Play,uk.org.ngo.squeezer,Z3A6QU9xcFRPR0dTMDVrMFRNZHlGb0F4TEs3b1hqcHYzR1dEMEp6X1Zzdkc0Rm1YMF9nVjgtY0Q5MFBaa2swdTV2eHFPZ1dBMmNRTGtTZG5jS2l5dDA3,English,,5,2015-09-04,Mike O,Works where Logicrap doesn't,doe what need to be done,,
Squeezer,Google Play,uk.org.ngo.squeezer,Z3A6QU9xcFRPR0dTMDVrMFRNZHlGb0F4TEs3b1hqcHYzR1dEMEp6X1Zzdkc0Rm1YMF9nVjgtY0Q5MFBaa2swdTV2eHFPZ1dBMmNRTGtTZG5jS2l5dDA3,English,,5,2015-09-04,Mike O,Works where Logicrap doesn't,see and control my without hassle and failure,,
Squeezer,Google Play,uk.org.ngo.squeezer,Z3A6QU9xcFRPRVBNeHNuWE1UVDFnTmlMcUF4SFBsR3FEbDZaMDItdng4Z3hXeUh1Q0xGcEhZUWdxWnhBRzllSmFkVzZjQV9JYWRna0tNWUVOdmpvRVNj,English,,5,2015-08-31,Muhammad Ali,Fixed all my issues,i used to use the default for my transporter,,
Squeezer,Google Play,uk.org.ngo.squeezer,Z3A6QU9xcFRPRVBNeHNuWE1UVDFnTmlMcUF4SFBsR3FEbDZaMDItdng4Z3hXeUh1Q0xGcEhZUWdxWnhBRzllSmFkVzZjQV9JYWRna0tNWUVOdmpvRVNj,English,,5,2015-08-31,Muhammad Ali,Fixed all my issues,the used to crash and malfunction on both android and,,
Squeezer,Google Play,uk.org.ngo.squeezer,Z3A6QU9xcFRPRVBNeHNuWE1UVDFnTmlMcUF4SFBsR3FEbDZaMDItdng4Z3hXeUh1Q0xGcEhZUWdxWnhBRzllSmFkVzZjQV9JYWRna0tNWUVOdmpvRVNj,English,,5,2015-08-31,Muhammad Ali,Fixed all my issues,thankfully i found this and it control my transporter flawlessly,,
Squeezer,Google Play,uk.org.ngo.squeezer,Z3A6QU9xcFRPRVBNeHNuWE1UVDFnTmlMcUF4SFBsR3FEbDZaMDItdng4Z3hXeUh1Q0xGcEhZUWdxWnhBRzllSmFkVzZjQV9JYWRna0tNWUVOdmpvRVNj,English,,5,2015-08-31,Muhammad Ali,Fixed all my issues,will update with any bug i find them,,
Squeezer,Google Play,uk.org.ngo.squeezer,Z3A6QU9xcFRPRnc2QzdqeWJWVzVWeHNPc2F5SDd3WF82V1J5Y0RQbDZZc2RNZk5VUVRHdmxBZ0wwR2N4NThMVTlySDBRa2ZQV1hhczBzSndEWkpCR0hO,English,,5,2015-08-16,Daniel Muller,Does more than the official app and better,very good replacement for the official,,
Squeezer,Google Play,uk.org.ngo.squeezer,Z3A6QU9xcFRPRnc2QzdqeWJWVzVWeHNPc2F5SDd3WF82V1J5Y0RQbDZZc2RNZk5VUVRHdmxBZ0wwR2N4NThMVTlySDBRa2ZQV1hhczBzSndEWkpCR0hO,English,,5,2015-08-16,Daniel Muller,Does more than the official app and better,is clean and efficient,,
Squeezer,Google Play,uk.org.ngo.squeezer,Z3A6QU9xcFRPRnc2QzdqeWJWVzVWeHNPc2F5SDd3WF82V1J5Y0RQbDZZc2RNZk5VUVRHdmxBZ0wwR2N4NThMVTlySDBRa2ZQV1hhczBzSndEWkpCR0hO,English,,5,2015-08-16,Daniel Muller,Does more than the official app and better,managing multiple box work without hassle,,
Squeezer,Google Play,uk.org.ngo.squeezer,Z3A6QU9xcFRPSGhidUdkNU5YZHM4U2h4V1lyYjFMdHlyR2ZILUJFNkZqb083SnBRU3NCZDdaTkZHakluaTA3UFJidFBZcTd1NXo1VW1EZkNrTWtwSDAw,English,,5,2015-07-31,tuan truong,Super,et en plus,,
Squeezer,Google Play,uk.org.ngo.squeezer,Z3A6QU9xcFRPRUxhUnVVU0pIcTh6ODExeTN0OUg2UU1sWl92RUpDMTZYSDZ2aEhxZ3NweTdyZjNMMnRnSmhXTzBuRVB6b19ic2ZKM2Y1c3pOT2gyeVNB,English,,5,2015-07-27,Luigi Maria Nappi,Widget request,this is probably the best application for,,
Squeezer,Google Play,uk.org.ngo.squeezer,Z3A6QU9xcFRPRUxhUnVVU0pIcTh6ODExeTN0OUg2UU1sWl92RUpDMTZYSDZ2aEhxZ3NweTdyZjNMMnRnSmhXTzBuRVB6b19ic2ZKM2Y1c3pOT2gyeVNB,English,,5,2015-07-27,Luigi Maria Nappi,Widget request,i would love to have a widget,,
Squeezer,Google Play,uk.org.ngo.squeezer,Z3A6QU9xcFRPSHBHbzBmR0dsck1BRTEySEp2bFhsUDF4Y181ejFCSGlaVk5qOUgtd09yUWJaU3FaVlF6OFZFR0V1QWVhd2lqZUxnVjVFWVpWb3BUMFli,English,,5,2015-07-23,Jukka Karo,Very good,work alarm setting are a nice addition in the latest version,,
Squeezer,Google Play,uk.org.ngo.squeezer,Z3A6QU9xcFRPRmlORUlvRHRKelhGQW52UEJsSnZJUXp6QnpyRmMtZFVLUWZmQi1GWDQwalVVUFBDSHpTRGJNR0hMWGRLbHRwX1JaQ3hDN1pmaXZRdlhp,English,,5,2015-07-12,Matt Fountaine,Good software,best free replacement for the degraded for,,
Squeezer,Google Play,uk.org.ngo.squeezer,Z3A6QU9xcFRPSEgzd2x3WHMtQ1laZDBCS0ZqamdsLXNkQUJibHdEVnpNU19mWFFaUXVHSWlQTTV5VDlqd3lQUEJYdUlEdUlCdThrX0lGRFhDMjdnSzRr,English,,5,2015-07-12,Kevin Swift,Great,good replacement for the player,,
Squeezer,Google Play,uk.org.ngo.squeezer,Z3A6QU9xcFRPRzFnNTByTko2OFlnZVp3aFRQSUVQak5ROEtEc3VTVUl3b1VCalZ4c19zTnpHTEQ3eWUtbVRBWjJUNHNXMHRFaTdWY096S0hJOE9PX2VQ,English,,5,2015-07-11,Derek Gair,Alarms!,the new alarm functionality is excellent,,
Squeezer,Google Play,uk.org.ngo.squeezer,Z3A6QU9xcFRPRmF4VjlBNXgxUHJSZ01xdTk5QXh1RElWZV9yR3NqbW43ZWJENGxtRFpMVTBkR1hnUVMzNTJoSU1Kc2dBVm5xR0xDc3NCWjJBVGRfR2dm,English,,5,2015-07-10,Allan Dennis,,the official stopped working,,
Squeezer,Google Play,uk.org.ngo.squeezer,Z3A6QU9xcFRPRmF4VjlBNXgxUHJSZ01xdTk5QXh1RElWZV9yR3NqbW43ZWJENGxtRFpMVTBkR1hnUVMzNTJoSU1Kc2dBVm5xR0xDc3NCWjJBVGRfR2dm,English,,5,2015-07-10,Allan Dennis,,five second clicking on install for i wa browsing my music collection,,
Squeezer,Google Play,uk.org.ngo.squeezer,Z3A6QU9xcFRPRmF4VjlBNXgxUHJSZ01xdTk5QXh1RElWZV9yR3NqbW43ZWJENGxtRFpMVTBkR1hnUVMzNTJoSU1Kc2dBVm5xR0xDc3NCWjJBVGRfR2dm,English,,5,2015-07-10,Allan Dennis,,thanks,,
Squeezer,Google Play,uk.org.ngo.squeezer,Z3A6QU9xcFRPRjRlalBqNGZ0enFQQnFGLUxJbFdIMFVaLV9SU2taNnVVNURZWWFYcERqVE9hNGdnVi13OXdid1BER0lfQzJpMzIwNWw2clJiNmVjTkRE,English,,5,2015-07-10,Andrew Phillips,,great,,
Squeezer,Google Play,uk.org.ngo.squeezer,Z3A6QU9xcFRPRXduSG1yX1JUSUUzd2xMSHpaTndTaE5adWt5WUZGS0c2X1ZLdzJETG94MmJ1aWk4eGdPNTFZbW5mWjhzOHBGX3hocFlZRm8yeTdBUXAy,English,,5,2015-07-10,Craig Huckle,Exactly what you need,great,,
Squeezer,Google Play,uk.org.ngo.squeezer,Z3A6QU9xcFRPRXduSG1yX1JUSUUzd2xMSHpaTndTaE5adWt5WUZGS0c2X1ZLdzJETG94MmJ1aWk4eGdPNTFZbW5mWjhzOHBGX3hocFlZRm8yeTdBUXAy,English,,5,2015-07-10,Craig Huckle,Exactly what you need,well laid easy to all the feature i need,,
Squeezer,Google Play,uk.org.ngo.squeezer,Z3A6QU9xcFRPRXduSG1yX1JUSUUzd2xMSHpaTndTaE5adWt5WUZGS0c2X1ZLdzJETG94MmJ1aWk4eGdPNTFZbW5mWjhzOHBGX3hocFlZRm8yeTdBUXAy,English,,5,2015-07-10,Craig Huckle,Exactly what you need,much better one,,
Squeezer,Google Play,uk.org.ngo.squeezer,Z3A6QU9xcFRPRXduSG1yX1JUSUUzd2xMSHpaTndTaE5adWt5WUZGS0c2X1ZLdzJETG94MmJ1aWk4eGdPNTFZbW5mWjhzOHBGX3hocFlZRm8yeTdBUXAy,English,,5,2015-07-10,Craig Huckle,Exactly what you need,like how it deal with group,,
Squeezer,Google Play,uk.org.ngo.squeezer,Z3A6QU9xcFRPRXduSG1yX1JUSUUzd2xMSHpaTndTaE5adWt5WUZGS0c2X1ZLdzJETG94MmJ1aWk4eGdPNTFZbW5mWjhzOHBGX3hocFlZRm8yeTdBUXAy,English,,5,2015-07-10,Craig Huckle,Exactly what you need,reported bug with sleep timer and it wa fixed in next release,,
Squeezer,Google Play,uk.org.ngo.squeezer,Z3A6QU9xcFRPR09xVERPVkp2eXh6aWhqY3JmQWFUR2o2OVI4VXBEdkhfZTdybFcxSURqQUhjNFdsVUtmRTMtSTZ1OVNVRkQyMWtZTTNqMktXLUhDREpC,English,,5,2015-07-10,Kristian Wrang,,much better design compared to the official one,,
Squeezer,Google Play,uk.org.ngo.squeezer,Z3A6QU9xcFRPR09xVERPVkp2eXh6aWhqY3JmQWFUR2o2OVI4VXBEdkhfZTdybFcxSURqQUhjNFdsVUtmRTMtSTZ1OVNVRkQyMWtZTTNqMktXLUhDREpC,English,,5,2015-07-10,Kristian Wrang,,edit opted for now work,,
Squeezer,Google Play,uk.org.ngo.squeezer,Z3A6QU9xcFRPR09xVERPVkp2eXh6aWhqY3JmQWFUR2o2OVI4VXBEdkhfZTdybFcxSURqQUhjNFdsVUtmRTMtSTZ1OVNVRkQyMWtZTTNqMktXLUhDREpC,English,,5,2015-07-10,Kristian Wrang,,just gave my duet a new lease of life,,
Squeezer,Google Play,uk.org.ngo.squeezer,Z3A6QU9xcFRPRnJCOFI5UlN0Q0l4TWtHaHVkaXIxLU9sTDRGdkhQYjVGNUlTaUdNMUJHYkRXd3lpTmNGOGxxQnVqLVdXcFJnY1VXZ0czV3BaMmJSY2hN,English,,5,2015-07-09,Jayaprakash Jegadeesan,"Let's you listen, no bother.",everything work,,
Squeezer,Google Play,uk.org.ngo.squeezer,Z3A6QU9xcFRPRnJCOFI5UlN0Q0l4TWtHaHVkaXIxLU9sTDRGdkhQYjVGNUlTaUdNMUJHYkRXd3lpTmNGOGxxQnVqLVdXcFJnY1VXZ0czV3BaMmJSY2hN,English,,5,2015-07-09,Jayaprakash Jegadeesan,"Let's you listen, no bother.",best free controller,,
Squeezer,Google Play,uk.org.ngo.squeezer,Z3A6QU9xcFRPRnJCOFI5UlN0Q0l4TWtHaHVkaXIxLU9sTDRGdkhQYjVGNUlTaUdNMUJHYkRXd3lpTmNGOGxxQnVqLVdXcFJnY1VXZ0czV3BaMmJSY2hN,English,,5,2015-07-09,Jayaprakash Jegadeesan,"Let's you listen, no bother.",i need nothing more,,
