Topic Index 1,Topic Index 2,Topic Similarity
19,5,0.082
14,19,0.0544
4,8,0.051199999999999996
7,15,0.0435
17,11,0.0378
12,13,0.037399999999999996
2,16,0.0288
8,4,0.028499999999999998
15,2,0.028000000000000004
3,9,0.027200000000000005
5,18,0.027200000000000005
10,1,0.019600000000000003
11,0,0.019200000000000002
1,14,0.0156
18,3,0.0154
0,6,0.0
6,7,0.0
9,10,0.0
13,12,0.0
16,17,0.0
