Topic Index 1,Topic Index 2,Topic Similarity
16,11,0.3868
7,9,0.2556
13,4,0.14759999999999998
0,10,0.1462
6,14,0.13349999999999998
5,7,0.1296
4,8,0.1168
15,0,0.11220000000000002
8,13,0.0966
3,19,0.096
9,12,0.0888
19,3,0.06720000000000001
10,1,0.0663
12,17,0.0504
1,2,0.0
2,5,0.0
11,6,0.0
14,15,0.0
17,16,0.0
18,18,0.0
