Topic Index 1,Topic Index 2,Topic Similarity
11,0,0.0879
3,2,0.060700000000000004
9,4,0.045399999999999996
19,11,0.0356
16,9,0.019
6,6,0.0174
14,17,0.0156
0,1,0.0
1,3,0.0
2,5,0.0
4,7,0.0
5,8,0.0
7,10,0.0
8,12,0.0
10,13,0.0
12,14,0.0
13,15,0.0
15,16,0.0
17,18,0.0
18,19,0.0
