# deletions,date,commit message
3,2016/7/05,Add UI option for x509-username-field option (closes #519)
5,2016/7/04,Fix Config fragment not always showing the most current config
28,2016/7/04,Implement exponential back off between connection attempts and generally overhaul time between connection logic massively.
35,2016/6/28,More fixes for connection entry.
1,2016/5/20,Update README.txt
106,2016/6/27,Fix logic in ConnectionAdapter (closes #498 #497)
98,2016/6/27,Update translations
16,2016/6/16,Fix crash when using Always-on option in Android N
9,2016/6/16,New versions for everything!
3,2016/6/16,Fix mtu option doing nothing with default settings.
2,2016/5/19,only show disconnect dialog for connected VPN in profile list
3,2016/5/25,Fix crash on import
2,2016/5/22,Use the new icon in the quick tile.
19,2016/5/22,Make Tile work in passive mode which suits OpenVPN for Android well enough.
1,2016/5/22,Add variant for better testing with instant run that has a minimal sdk of 21
56,2016/5/10,Do reading from content urls in the background. Also fixes Skydrive imports.
2,2016/5/05,Version 0.6.55
8,2016/5/05,Update OpenVPN
20,2016/5/05,Give the user a choice if the vpn is already connected.
