# deletions,date,commit message
17,2013/6/07,Also use friendly names when printing keystore certificate  --HG-- extra : rebase_source : 4168ea0e489768c5fa2f5b54619d96e880e380c6
7,2013/6/07,Increase OpenVPN version add fixes from crowd.in to english texts  --HG-- extra : amend_source : bc03ea072fbc2b8815fbdf691a42ed9600e959d1
1,2013/6/07,Added tag v0.5.37 for changeset 749f4aeeea4f
62,2013/6/06,Fix printing of certificate DN Names
3,2013/6/04,Remove debug log  --HG-- extra : rebase_source : 8bbc53af76542bad266d7c1c60005b8d1752a00e
1,2013/5/31,Remove stray todo  --HG-- extra : rebase_source : d629543abbdefc92b953a0ad6898e23c8325ea17
217,2013/5/31,Fix screen off  --HG-- extra : rebase_source : ed2b5eae3e70ad9a5bdc40b85f49c5336d346d9a
119,2013/5/31,Update OpenVPN to current -master  --HG-- extra : rebase_source : 7d9f6d9e6ac62a8843f925e33c48a671ff153f91
2,2013/6/05,Make a bit more clear what kind of remote certificate is expected (closes issue #165)
12,2013/6/05,Fix issues reported by Intellij
24,2013/6/05,Add support for asking username/password if none is set (closes issue #174)
8,2013/6/03,Update translations
1,2013/5/29,Move build files to misc directory  --HG-- rename : build-native.bat => misc/build-native.bat rename : build-native.sh => misc/build-native.sh rename : fetchtranslations.sh => misc/fetchtranslations.sh
1,2013/5/29,Move files around  --HG-- rename : LICENSE.txt => doc/LICENSE.txt rename : README.txt => doc/README.txt rename : todo.txt => doc/todo.txt rename : genFAQ.py => misc/genFAQ.py
12,2013/5/29,Compile fixes
24,2013/5/29,Allow pausing the VPN also without persistent-tun.  I don't like the concept but I don't to educate people ….
2,2013/5/29,Fix build without signing key
1,2013/5/26,compile fixes
1,2013/5/26,State the obvious
6,2013/5/26,Add signing configuration for gradle
5,2013/5/25,Doc update
2,2013/5/25,Allow project to be build with gradle
5,2013/5/25,Extend external API documentation and change hasPermission to prepareVPNService
1,2013/5/25,Commit files missed in last openvpn import
112,2013/5/25,Implement Option to pause VPN when screen is off (closes issue #162)  --HG-- rename : src/de/blinkt/openvpn/core/NetworkStateReceiver.java => src/de/blinkt/openvpn/core/DeviceStateReceiver.java
247,2013/5/24,Updaten OpenVPN version to 2.4master
3,2013/5/24,Fix error in env
1,2013/5/20,Fix aidl crash …..
33,2013/5/20,Add certificate CN print  Need to fix string for email and order  --HG-- extra : rebase_source : c3d5858d53d2f8f340b0d4a07434021f194a247a
4,2013/5/06,Fix spelling of sate to state  --HG-- rename : src/de/blinkt/openvpn/core/NetworkSateReceiver.java => src/de/blinkt/openvpn/core/NetworkStateReceiver.java extra : rebase_source : 5a23bc869e5631048de0e0df2a56702e01fad9df
16,2013/5/10,Report ics-openvpn version to server when push-peer-info is used
445,2013/5/03,Add snappy library. In preparation for upcoming snappy support of OpenVPN
160,2013/4/24,Switch license to GPLv2.\nI am annoyed of people modifying my code breaking and then ask me for help on their commercial product for free...  --HG-- extra : rebase_source : 9c5beb9346c0c4cc124c6286c4d97e3895b7a8fe
1,2013/4/23,Add the information that Android will keep using proxies when having no DNS server specified (closes issue #161)  --HG-- extra : rebase_source : 99047ef45106d9884e9f9b09e8fe117ba23da597
2,2013/4/16,Fix NPE when calling disconnect() without being connected
13,2013/4/16,Add states when requiring user input
6,2013/4/16,Remove unused string update logmenu
1,2013/4/10,Add Swedish!
46,2013/4/10,Always log tun information  I tired of bug reports without this information. Also this removes one of the unclear buttons in the Logwindow
2,2013/4/10,Do not close main window when starting a VPN Connection.  I am not sure why I did that in the first place.
7,2013/4/08,add LastConnectedUuid to state messages.
27,2013/4/08,Remove tls-remote conversion. Let Heiko's patches handle this stuff
1,2013/4/08,Fix status updates
25,2013/4/07,Allow clearing of external apps
19,2013/4/07,Registering for a state receiver gets the most recent state. Also added the coarse state to the interface.
5,2013/4/06,Add external API with security.
2,2013/4/06,Fix tls-cipher when invalid ciphers are given
2,2013/4/02,Tag version 0.5.36a
3,2013/4/02,Fix stupid bug in naming native library (fixes 4.1)
1,2013/4/01,Fix genFAQ.py script
103,2013/4/01,Update translations
1,2013/4/01,Ignore error when unregistering network state listener
123,2013/4/01,Update OpenVPN to 2.3.1
