# deletions,date,commit message
7,2013/12/06,Backout changeset 1d8b310becfab706b1ffe8b9c2c4312fd570597c  --HG-- extra : rebase_source : 4b78ee065695c1c803b8c85c847ee04f780481e4
53,2013/12/08,Update pre resolve patch
4,2013/12/08,Create shortcuts with the shortcut activity (closes issue #214)
3,2013/12/06,Fix bug when fragment is attached after being created.
15,2013/12/05,Also log time in exports
6,2013/12/05,Fix NPE in DeviceStateReceiver
2,2013/12/05,Version 0.6.1
574,2013/12/05,Add pre resolve patch
