App,Store,App ID,Review ID,Country,Version,Rating,Date,Author,Subject,Body,Translated Subject,Translated Body
OpenVPN for Android,Google Play,de.blinkt.openvpn,Z3A6QU9xcFRPRzl0aVVpVmM4S1I4bmdUdmszeldwQ09ZS0x0VHhHRmV3OTJuOUFCYW4xWmZrd2dVVnlJLWhNQ2RNMmIwMFdwWVlVZW1hNUFhV1pSUlhOQVE,English,,1,2014-11-11,Angel Nazario,"",Really??,,
OpenVPN for Android,Google Play,de.blinkt.openvpn,Z3A6QU9xcFRPR3cxdkwxeHJkMVJEcUJnaGFoQWNjNjJTQ05KWkhENlVReW50TWFkV2pwUndpQ2lEUGJLS1FHYWo4TmhxVDFkUG5Yd3R3T2VVV1AxVlNDS0E,English,,5,2014-11-11,Fernando Medina,Excellent,Does everything it promises,,
OpenVPN for Android,Google Play,de.blinkt.openvpn,Z3A6QU9xcFRPRkZ3ejQ4RS1QMS1SLWlLR0V4bzVxRktlUzZ1dVRpUHRORHEycXYxOGtuSjZvRm9vRHR6NkIyUkhDVFhFanJEVzN5U0ZHcWluQjhkTDJqUFE,English,,5,2014-11-11,Alvie Gibertas,vpn,Open for android,,
OpenVPN for Android,Google Play,de.blinkt.openvpn,Z3A6QU9xcFRPSEQyZkNoVUhTR0syMHpIdDVqZTVkcWphc3RlUk1kWTluSzBxRDFBeVJPNFBZS25MSkVqZ005c01pQTAtNUtlT0szcnpRdmlHQVdrWFowV0E,English,,5,2014-11-10,Jurito Laureta,Very good,Nice one,,
OpenVPN for Android,Google Play,de.blinkt.openvpn,Z3A6QU9xcFRPRUJfTnBmT29KejdhTlhnbU1iTE9MZUl6N1NFZnY1a3RRMzE5Z2VGT21BOXBwUTRzdjRZNmQ1ZUNCemJsY3psVl9iSzVtZnJsblNtdXkxLUE,English,,5,2014-11-09,Josh Wisely,Great tool.,Be careful with 64-bit hardware (such as the Nexus9). You may have to clear your cache after upgrading from an older version.,,
OpenVPN for Android,Google Play,de.blinkt.openvpn,Z3A6QU9xcFRPR0ktQ04wYUprQ2R4dEZTQTg0QzVOTWlSTV9QNVNESFNuUDltUHQ1NWYtVkJkRjUteDRCNXpOdHZJeEFjZzFMeEJ3UXZSdkVueUZNTG52a3c,English,,5,2014-11-09,"",Awesome!,A little more privacy..,,
OpenVPN for Android,Google Play,de.blinkt.openvpn,Z3A6QU9xcFRPSHRESVpVQmxYRDI1Z2JWTEMtQ2M0aWFkU3RCTjF4MVpPd1BrNHVnVUY0N2lpZENmcG9keVZDbVBwYmpDdF9Kc0tXTDhiaGYwRjhlUEhQMlE,English,,5,2014-11-09,Corey Baker,Just works,"Simple, elegant, fast, and free. Recommend.",,
OpenVPN for Android,Google Play,de.blinkt.openvpn,Z3A6QU9xcFRPRjdYQjNNeDhNQ0lQMTllYUlsdG02dnlPeFhOblNYWWxMNWhuOU1tYVp2N2xhZ2FFeHk2TlVGU1VTblptQWF4RElibkF1Vll6bGhBZ0hqRmc,English,,2,2014-11-09,ady 133t,new update have bug,bug happen n i cant connect vpn on my android 4.2.2. Error log ==&amp;gt; Assertion failed at openvpn//src/openvpn/crypto_openssl.c:488,,
OpenVPN for Android,Google Play,de.blinkt.openvpn,Z3A6QU9xcFRPR1ljNDlxTHNZVi1zQUhuZnhxR3VJVGItWHg5bnpNTURvT0h0eE9XTTZHRUtGbVNpb25iVnFrQmxjYnBwVVlJX2JyVFJfOENWX20zZzV3QUE,English,,5,2014-11-09,Scott Buttrill,Powerful OpenVPN client,I especially like the intuitive and useful interactive menus for editing the config file.,,
OpenVPN for Android,Google Play,de.blinkt.openvpn,Z3A6QU9xcFRPRzVPSk1VRmlIcmxYLXZBVE5qNFJxdEZQMnhFYWp0T1lLMzBVMnMySHZDYURFZGJJUEZYMVFUdlkyLTlnVnZHcnVyZlhpd0xQWUFBQTd3c3c,English,,5,2014-11-09,"",Love it!,Great application that does what it promises to do.,,
OpenVPN for Android,Google Play,de.blinkt.openvpn,Z3A6QU9xcFRPRWdVMDNtazBLbjZJR0tIajRiaTl2YnpUbVpITmk2a203cjQtYWJjMDlscXQwaVhjY3FIUEJEcEJuTy1vd3pWRDZkZG5oT0lVbEgzNmQwTEE,English,,5,2014-11-07,Sushant Srivastav,"",Nicest of all,,
OpenVPN for Android,Google Play,de.blinkt.openvpn,Z3A6QU9xcFRPSGNyNFZjam1nRDBvZ0JfVEVrZGs2Q1J6dUNTaE0wQW5EeElkSUM0T28xLUwzZFJDeEhZclZDUEpPMFVGSnBGUnVCTWk3YVNQdllqcDBCR1E,English,,5,2014-11-07,MANIK HANSDA,Awsome,Its work....Very nice super app,,
OpenVPN for Android,Google Play,de.blinkt.openvpn,Z3A6QU9xcFRPR3ZwRk5rTE4tN1cyRDc4ZU1SS2dSN3Z6RjFPTmdjYTVkZ2QwNEk4bG9GUUJQbEJYb2x2TjBfRnJ3aEg0eGFtdllYWkthVEF3Q1JxWW1taGc,French,,5,2014-11-09,_ hls _,Indispensable,Marche parfaitement et m'est utile tous les jours. Je recommande.,,
OpenVPN for Android,Google Play,de.blinkt.openvpn,Z3A6QU9xcFRPRnZpdGFvQzRxMTJzOVJ5YzV5SHp5SHVVVi1uaVIwMkNQT2lna3dXamlYU2p2NjBSR3c5MTFzOFVucGVQUG9ZYW1hOHliVkUzNTJ5b1RDcnc,Chinese (Simplified),,3,2014-11-11,Xiaobing Lu,"",还好,,
OpenVPN for Android,Google Play,de.blinkt.openvpn,Z3A6QU9xcFRPSGpLQnJ3bHllQWxIX3NFRERDdHlkcTF1S3RvY1MyLWNkN3ZMTFhQcW5yQzB5RUk4LTRtVEhvVkR3RlVwdWRxeThuSkNHY01RWkpLN3o4QWc,Chinese (Simplified),,4,2014-11-09,小章,没混淆技术很难过墙,希望 open vpn后续会有混淆技术,,
OpenVPN for Android,Google Play,de.blinkt.openvpn,Z3A6QU9xcFRPRlBYZGU1R1VBTTNBVm5RSmRsdTZzZVgzcUtHcllKMDc2bXgtU3BVbmxKQzR1ckl5a19wNGhydGw1Uk1JNjg5ODA1UVZQTTZlN0puUzZic2c,German,,5,2014-11-10,Ulli Hochholdinger,"Coole APP, super Support von Arne ;)","Ich nutze Open-VPN regelmäßig und viel. Die APP sorgt für einen stabilen Tunnel, und der Support vom Entwickler ist klasse ;)",,
OpenVPN for Android,Google Play,de.blinkt.openvpn,Z3A6QU9xcFRPSEdISC1fRGV5LXNBcndROVJGWVhlcEQzd01mRkpWdXJtazI1cF9OUjFpQ21oQ0l4aHVxbmNQNkVUR3l1MUwtX0RRb3Nab3dZWDc1Smo5dXc,German,,5,2014-11-07,Bernd Endner,Einfach,Funktioniert und ist einfach zu nutzen. Auf Fragen wird zeitnah eingegangen,,
OpenVPN for Android,Google Play,de.blinkt.openvpn,Z3A6QU9xcFRPRTJ2djVPbmZLbFhtOXhjRWlPdHd1M2ljaVFzM1FKbDc2akRQWWQtdHNQZUFaN29XSHgyZjBxWm9MTmlqUFpGaTgxc3JHck1OOC1BZ2tEbVE,Spanish,,5,2014-11-11,Víctor Chajon,Me encanto esta aplicación,T.k,,
OpenVPN for Android,Google Play,de.blinkt.openvpn,Z3A6QU9xcFRPR2VvcFBvRkszWHFsdlNHTnFrbHJJOXg0WG5DZWJGUUhET2ZSOFJDOHA2WEtVMFlnVkFVckR0ZzhVbVBVbThYR2ZYcmg5cmVrcWxLRFNQemc,Spanish,,5,2014-11-11,Diego Jimenez,"",Q puedo hacer para q se me conecte mas rápido ya q se demora a veces demasiado en conectar ayuda por favor,,
OpenVPN for Android,Google Play,de.blinkt.openvpn,Z3A6QU9xcFRPRXJya0o2ZU50YnNBZGxqZGJYVGVESV80OXFRMUxKU3FuWm5nTEYyenN1dTJlSnBmRzZoNHNkemhZTU9nTkVaaDRJNWZaU2oxODYtMkVGVVE,Spanish,,4,2014-11-10,OMAR EDUARDO GOMEZ SAAVEDRA,S.O.S,No se como configurarlo..  Quien me ayuda,,
OpenVPN for Android,Google Play,de.blinkt.openvpn,Z3A6QU9xcFRPRnBiVHl3b0M3bk9wT3N0di1kYk5NMnNIMUtpUWJtbzI1TVZUcmVWZnRaNktDV05VeGFoejQ3QUNDMW0zQmkwZkEwZE5EVHc4TUdSay1kekE,Spanish,,5,2014-11-10,Juan Andres Paredes Guerrero,Programa vpn,Fuera Mejorar hacerlo automático,,
OpenVPN for Android,Google Play,de.blinkt.openvpn,Z3A6QU9xcFRPRWRXNnNhOVljWmdQaHN4VVJCRFU5UFVPY3RMSEgyc0tDTmNmRUtBSHVmSnoxakpNejgxbmVKNk92RkpEMTFKLVdsVGpLdXozbTNtZlkzdXc,Spanish,,5,2014-11-08,Eduardo Collado Cabeza,Fundamental,Esta es una de las pocas aplicaciones que son fundamentales en cualquier teléfono o tablet,,
OpenVPN for Android,Google Play,de.blinkt.openvpn,Z3A6QU9xcFRPRmhCeHlvYWtVcndna3BWalpLcmlzTkRzdk1sNVFUQzFURjlWbkVEdFFBSEhJWDVtOW9ULXNzOVdDaFNNUF8tTWJpTU1mMVE2a1JiUzd3WUE,Spanish,,4,2014-11-07,Jorge Santizo,Maso,Maso,,
OpenVPN for Android,Google Play,de.blinkt.openvpn,Z3A6QU9xcFRPRlNuLWdWOW91amc3YW1SbTAxcGR5cTU5WDNwTjl4U0ZIN2RvU2VROWpvSElvZHg0SVhIMnQ1YUZ4S3RZeE5yUzF6VFZQaDNhNS1fM3BZckE,Spanish,,5,2014-11-06,MrUnoChile,Buen trabajo,"Hace tiempo que la uso, pero no me habia dado el tiempo para valorarla. Gracias esta muy buena aplicacion! Recomendable.",,
OpenVPN for Android,Google Play,de.blinkt.openvpn,Z3A6QU9xcFRPSEk1dk8xM3JFYzIxVS1SQ1dZcFFOcklnUGxOMDcwaUFCd2R5cTN6cEhTejhvUnRadjR5UDUzSzNFcG5UYVlJcmZRMV9GQlNsa2dvMVU0bkE,Thai,,5,2014-11-07,Mod Saiy,มอส,สส,,
OpenVPN for Android,Google Play,de.blinkt.openvpn,Z3A6QU9xcFRPR3NVZlpkMzFiMXdPck10cGE4cXhPNHNBc2F1cEFNaUNoMmlfbmZtb0NPMWVYdVZ6dWl0NmpNUzJVZHJwTllyQmFhWVNCOElKUF9KczBMbGc,Turkish,,5,2014-11-08,ata celo,"",Super,,
OpenVPN for Android,Google Play,de.blinkt.openvpn,Z3A6QU9xcFRPR3h3aGNDLTFqY2tXb0dYSzBfZTlXYVpjdS0xV2FGcTFSbW1EaS1ZeV9BazgxdFVQNmhON2FXRjU4RW5SRTVTTW5UX1gyLWRhZlBXVVVMTlE,Turkish,,4,2014-11-07,burak zurnacı,ayarlar nasıl yapılıyo,vodafone için bedava internet ayarları nasıl yapılıyo ?,,
OpenVPN for Android,Google Play,de.blinkt.openvpn,Z3A6QU9xcFRPRlFOTmM3MGp5d1EwNGRIU25FcTVnVDFSSjNEMmdEZjB1SVF3bTRTQWFLWmJ6bkRjZ2J0c05ZR2dtUU9jcXBCQi1NaWV2R0dVMXp4UlItSGc,Turkish,,3,2014-11-07,Burak Kartal,Sarj sorunu,Ekran yuzde 33 sarj harcarken vpn yuzde 52 harciyor optimizasyon sart,,
