package,release ID,UI element,related topic,average polarity,# reviews,average rating,average objectivity,# uninstalls,delta rating,element deleted next release
com.moez.QKSMS,v2.6.1,@string/app_name$,1300,0.6185185185185186,3,4.666666666666667,0.5231481481481483,0,1.0259740259740262,0
com.moez.QKSMS,v2.6.1,@string/app_name$,1323,0.3195454545454545,2,4.0,0.5118181818181817,0,0.35930735930735924,0
com.moez.QKSMS,v2.6.1,@string/app_name$,1302,0.44000000000000006,1,4.0,0.6000000000000001,0,0.35930735930735924,0
com.moez.QKSMS,v2.6.1,@string/app_name$,1299,0.4895833333333333,1,5.0,0.5375,0,1.3593073593073592,0
com.moez.QKSMS,v2.6.1,@string/app_name$,1321,0.1778138528138528,1,5.0,0.5431818181818181,0,1.3593073593073592,0
com.moez.QKSMS,v2.6.1,@+id/contact_list_number$,1331,0.31333333333333335,3,3.6666666666666665,0.45,0,0.02597402597402576,0
com.moez.QKSMS,v2.6.1,@+id/contact_list_number$,1332,0.4222222222222222,1,4.0,0.44444444444444453,0,0.35930735930735924,0
com.moez.QKSMS,v2.6.1,@+id/conversation_list_error$,1338,0.29636363636363633,3,3.3333333333333335,0.5245454545454545,0,-0.3073593073593073,0
com.moez.QKSMS,v2.6.1,@+id/conversation_list_error$,1340,0.4222222222222222,1,4.0,0.44444444444444453,0,0.35930735930735924,0
com.moez.QKSMS,v2.6.1,@+id/conversation_list$,1344,0.25,1,2.0,0.55,0,-1.6406926406926408,0
com.moez.QKSMS,v2.6.1,@+id/conversation_list$,1345,0.4340909090909091,1,5.0,0.48863636363636365,0,1.3593073593073592,0
com.moez.QKSMS,v2.6.1,@+id/conversation_list$,1342,0.4222222222222222,1,4.0,0.44444444444444453,0,0.35930735930735924,0
com.moez.QKSMS,v2.6.1,@+id/conversation_list$,1343,0.205,1,3.0,0.5349999999999999,0,-0.6406926406926408,0
com.moez.QKSMS,v2.6.1,@+id/contact_list_contact$,1351,0.25,1,2.0,0.55,0,-1.6406926406926408,0
com.moez.QKSMS,v2.6.1,@+id/contact_list_contact$,1349,0.34500000000000003,2,4.5,0.4,0,0.8593073593073592,0
com.moez.QKSMS,v2.6.1,@+id/contact_list_contact$,1350,0.4222222222222222,1,4.0,0.44444444444444453,0,0.35930735930735924,0
com.moez.QKSMS,v2.6.1,@+id/contact_list_type$,1356,0.33611111111111114,2,3.0,0.4972222222222223,0,-0.6406926406926408,0
com.moez.QKSMS,v2.6.1,@+id/contact_list_type$,1354,0.34500000000000003,2,4.5,0.4,0,0.8593073593073592,0
com.moez.QKSMS,v2.6.1,@+id/conversation_list_name$,1365,0.25,1,2.0,0.55,0,-1.6406926406926408,0
com.moez.QKSMS,v2.6.1,@+id/conversation_list_name$,1366,0.3195454545454545,2,4.0,0.5118181818181817,0,0.35930735930735924,0
com.moez.QKSMS,v2.6.1,@+id/conversation_list_name$,1361,0.4222222222222222,1,4.0,0.44444444444444453,0,0.35930735930735924,0
com.moez.QKSMS,v2.6.1,@+id/list_item_subtitle$,1371,0.25,1,2.0,0.55,0,-1.6406926406926408,0
com.moez.QKSMS,v2.6.1,@+id/conversation_list_unread$,1376,0.25,1,2.0,0.55,0,-1.6406926406926408,0
com.moez.QKSMS,v2.6.1,@+id/conversation_list_unread$,1375,0.4340909090909091,1,5.0,0.48863636363636365,0,1.3593073593073592,0
com.moez.QKSMS,v2.6.1,@+id/conversation_list_unread$,1373,0.4222222222222222,1,4.0,0.44444444444444453,0,0.35930735930735924,0
com.moez.QKSMS,v2.6.1,@+id/conversation_list_unread$,1372,0.205,1,3.0,0.5349999999999999,0,-0.6406926406926408,0
com.moez.QKSMS,v2.6.1,@+id/list_item_title$,1380,0.25,1,2.0,0.55,0,-1.6406926406926408,0
com.moez.QKSMS,v2.6.1,@+id/list_item_body$,1382,0.25,1,2.0,0.55,0,-1.6406926406926408,0
com.moez.QKSMS,v2.6.1,@+id/conversation_list_date$,1390,0.25,1,2.0,0.55,0,-1.6406926406926408,0
com.moez.QKSMS,v2.6.1,@+id/conversation_list_date$,1391,0.4281565656565657,2,4.5,0.4665404040404041,0,0.8593073593073592,0
com.moez.QKSMS,v2.6.1,@+id/conversation_list_date$,1389,0.205,1,3.0,0.5349999999999999,0,-0.6406926406926408,0
com.moez.QKSMS,v2.6.1,@+id/contact_list_name$,1395,0.34500000000000003,2,3.0,0.5750000000000001,0,-0.6406926406926408,0
com.moez.QKSMS,v2.6.1,@+id/contact_list_name$,1396,0.25,1,5.0,0.2,0,1.3593073593073592,0
com.moez.QKSMS,v2.6.1,@+id/contact_list_name$,1393,0.4222222222222222,1,4.0,0.44444444444444453,0,0.35930735930735924,0
com.moez.QKSMS,v2.6.1,@+id/conversation_list_background$,1398,0.25,1,2.0,0.55,0,-1.6406926406926408,0
com.moez.QKSMS,v2.6.1,@+id/conversation_list_background$,1401,0.3195454545454545,2,4.0,0.5118181818181817,0,0.35930735930735924,0
com.moez.QKSMS,v2.6.1,@+id/conversation_list_background$,1400,0.4222222222222222,1,4.0,0.44444444444444453,0,0.35930735930735924,0
com.moez.QKSMS,v2.6.1,@+id/conversation_list_snippet$,1407,0.22749999999999998,2,2.5,0.5425,0,-1.1406926406926408,0
com.moez.QKSMS,v2.6.1,@+id/conversation_list_snippet$,1405,0.4340909090909091,1,5.0,0.48863636363636365,0,1.3593073593073592,0
com.moez.QKSMS,v2.6.1,@+id/conversation_list_snippet$,1404,0.4222222222222222,1,4.0,0.44444444444444453,0,0.35930735930735924,0
com.moez.QKSMS,v2.6.1,@+id/conversation_list_avatar$,1412,0.3687710437710438,3,3.6666666666666665,0.4943602693602694,0,0.02597402597402576,0
com.moez.QKSMS,v2.6.1,@+id/conversation_list_avatar$,1410,0.205,1,3.0,0.5349999999999999,0,-0.6406926406926408,0
com.moez.QKSMS,v2.6.1,@+id/contact_list_contact_initial$,1417,0.25,1,2.0,0.55,0,-1.6406926406926408,0
com.moez.QKSMS,v2.6.1,@+id/contact_list_contact_initial$,1414,0.33611111111111114,2,4.5,0.3222222222222223,0,0.8593073593073592,0
com.moez.QKSMS,v2.6.1,@+id/contact_list_contact_initial$,1418,0.44000000000000006,1,4.0,0.6000000000000001,0,0.35930735930735924,0
com.moez.QKSMS,v2.6.1,@+id/search_list$,1420,0.25,1,2.0,0.55,0,-1.6406926406926408,0
com.moez.QKSMS,v2.6.1,@+id/conversation_list_muted$,1427,0.25,1,2.0,0.55,0,-1.6406926406926408,0
com.moez.QKSMS,v2.6.1,@+id/conversation_list_muted$,1428,0.4340909090909091,1,5.0,0.48863636363636365,0,1.3593073593073592,0
com.moez.QKSMS,v2.6.1,@+id/conversation_list_muted$,1426,0.3136111111111111,2,3.5,0.4897222222222222,0,-0.14069264069264076,0
com.moez.QKSMS,v2.6.1,@+id/starred_contacts$,1435,0.29833333333333334,3,3.0,0.5616666666666666,0,-0.6406926406926408,0
com.moez.QKSMS,v2.6.1,@+id/starred_contacts$,1431,0.25,1,5.0,0.2,0,1.3593073593073592,0
com.moez.QKSMS,v2.6.1,@+id/starred_contacts$,1429,0.4222222222222222,1,4.0,0.44444444444444453,0,0.35930735930735924,0
com.moez.QKSMS,v2.6.1,@+id/conversations_list$,1438,0.25,1,2.0,0.55,0,-1.6406926406926408,0
com.moez.QKSMS,v2.6.1,@+id/conversations_list$,1436,0.3537710437710438,3,4.0,0.4893602693602694,0,0.35930735930735924,0
com.moez.QKSMS,v2.6.1,@+id/color_picker_swatch$,1444,0.25,1,5.0,0.2,0,1.3593073593073592,0
com.moez.QKSMS,v2.6.1,@+id/color_picker$,1448,0.25,1,5.0,0.2,0,1.3593073593073592,0
com.moez.QKSMS,v2.6.1,@+id/color_picker_checkmark$,1454,0.25,1,5.0,0.2,0,1.3593073593073592,0
com.moez.QKSMS,v2.6.1,@string/hint_no_messages$,1460,0.0,1,3.0,0.0,0,-0.6406926406926408,0
com.moez.QKSMS,v2.6.1,@string/hint_no_messages$,1464,0.44000000000000006,1,4.0,0.6000000000000001,0,0.35930735930735924,0
com.moez.QKSMS,v2.6.1,@string/hint_no_messages$,1462,0.5333333333333333,1,5.0,0.6,0,1.3593073593073592,0
com.moez.QKSMS,v2.6.1,@string/hint_no_messages$,1465,0.1778138528138528,1,5.0,0.5431818181818181,0,1.3593073593073592,0
com.moez.QKSMS,v2.6.1,@string/dialog_conversation_details_last_message_date$,1480,0.0,1,3.0,0.0,0,-0.6406926406926408,0
com.moez.QKSMS,v2.6.1,@string/dialog_conversation_details_last_message_date$,1482,0.4340909090909091,1,5.0,0.48863636363636365,0,1.3593073593073592,0
com.moez.QKSMS,v2.6.1,@string/dialog_conversation_details_last_message_date$,1488,0.44000000000000006,1,4.0,0.6000000000000001,0,0.35930735930735924,0
com.moez.QKSMS,v2.6.1,@string/dialog_conversation_details_last_message_date$,1484,0.5333333333333333,1,5.0,0.6,0,1.3593073593073592,0
com.moez.QKSMS,v2.6.1,@string/dialog_conversation_details_last_message_date$,1483,0.1778138528138528,1,5.0,0.5431818181818181,0,1.3593073593073592,0
com.moez.QKSMS,v2.6.1,@string/dialog_conversation_details_last_message_date$,1473,0.4222222222222222,1,4.0,0.44444444444444453,0,0.35930735930735924,0
com.moez.QKSMS,v2.6.1,@string/dialog_conversation_details_last_message_date$,1476,0.205,1,3.0,0.5349999999999999,0,-0.6406926406926408,0
com.moez.QKSMS,v2.6.1,"@+id/in_2$Don't worry, this isn't a real message. We're just showing you how your chats will look!",1506,0.0,1,3.0,0.0,0,-0.6406926406926408,0
com.moez.QKSMS,v2.6.1,"@+id/in_2$Don't worry, this isn't a real message. We're just showing you how your chats will look!",1510,0.3089069264069264,2,4.5,0.571590909090909,0,0.8593073593073592,0
com.moez.QKSMS,v2.6.1,"@+id/in_2$Don't worry, this isn't a real message. We're just showing you how your chats will look!",1512,0.5333333333333333,1,5.0,0.6,0,1.3593073593073592,0
com.moez.QKSMS,v2.6.1,@string/dialog_conversation_details_message_count$,1518,0.0,1,3.0,0.0,0,-0.6406926406926408,0
com.moez.QKSMS,v2.6.1,@string/dialog_conversation_details_message_count$,1519,0.4340909090909091,1,5.0,0.48863636363636365,0,1.3593073593073592,0
com.moez.QKSMS,v2.6.1,@string/dialog_conversation_details_message_count$,1527,0.44000000000000006,1,4.0,0.6000000000000001,0,0.35930735930735924,0
com.moez.QKSMS,v2.6.1,@string/dialog_conversation_details_message_count$,1533,0.5333333333333333,1,5.0,0.6,0,1.3593073593073592,0
com.moez.QKSMS,v2.6.1,@string/dialog_conversation_details_message_count$,1521,0.1778138528138528,1,5.0,0.5431818181818181,0,1.3593073593073592,0
com.moez.QKSMS,v2.6.1,@string/dialog_conversation_details_message_count$,1517,0.4222222222222222,1,4.0,0.44444444444444453,0,0.35930735930735924,0
com.moez.QKSMS,v2.6.1,@string/dialog_conversation_details_message_count$,1520,0.205,1,3.0,0.5349999999999999,0,-0.6406926406926408,0
com.moez.QKSMS,v2.6.1,@+id/message_count$,1548,0.0,1,3.0,0.0,0,-0.6406926406926408,0
com.moez.QKSMS,v2.6.1,@+id/message_count$,1536,0.3089069264069264,2,4.5,0.571590909090909,0,0.8593073593073592,0
com.moez.QKSMS,v2.6.1,@+id/message_count$,1549,0.5333333333333333,1,5.0,0.6,0,1.3593073593073592,0
com.moez.QKSMS,v2.6.1,@+id/message$,1560,0.0,1,3.0,0.0,0,-0.6406926406926408,0
com.moez.QKSMS,v2.6.1,@+id/message$,1553,0.44000000000000006,1,4.0,0.6000000000000001,0,0.35930735930735924,0
com.moez.QKSMS,v2.6.1,@+id/message$,1565,0.5333333333333333,1,5.0,0.6,0,1.3593073593073592,0
com.moez.QKSMS,v2.6.1,@+id/message$,1561,0.1778138528138528,1,5.0,0.5431818181818181,0,1.3593073593073592,0
com.moez.QKSMS,v2.6.1,@+id/mms_downloading_view_stub$,1568,0.0,1,3.0,0.0,0,-0.6406926406926408,0
com.moez.QKSMS,v2.6.1,"@+id/out_1$Sweet, here's an outgoing message",1573,0.0,1,3.0,0.0,0,-0.6406926406926408,0
com.moez.QKSMS,v2.6.1,"@+id/out_1$Sweet, here's an outgoing message",1584,0.44000000000000006,1,4.0,0.6000000000000001,0,0.35930735930735924,0
com.moez.QKSMS,v2.6.1,"@+id/out_1$Sweet, here's an outgoing message",1577,0.5333333333333333,1,5.0,0.6,0,1.3593073593073592,0
com.moez.QKSMS,v2.6.1,"@+id/out_1$Sweet, here's an outgoing message",1587,0.1778138528138528,1,5.0,0.5431818181818181,0,1.3593073593073592,0
com.moez.QKSMS,v2.6.1,@+id/popup_messages$,1595,0.0,1,3.0,0.0,0,-0.6406926406926408,0
com.moez.QKSMS,v2.6.1,@+id/popup_messages$,1589,0.44000000000000006,1,4.0,0.6000000000000001,0,0.35930735930735924,0
com.moez.QKSMS,v2.6.1,@+id/popup_messages$,1592,0.5333333333333333,1,5.0,0.6,0,1.3593073593073592,0
com.moez.QKSMS,v2.6.1,@+id/popup_messages$,1590,0.1778138528138528,1,5.0,0.5431818181818181,0,1.3593073593073592,0
com.moez.QKSMS,v2.6.1,@+id/popup_messages$,1601,0.0,1,4.0,0.0,0,0.35930735930735924,0
com.moez.QKSMS,v2.6.1,@+id/conversation$,1607,0.3195454545454545,2,4.0,0.5118181818181817,0,0.35930735930735924,0
com.moez.QKSMS,v2.6.1,@+id/conversation$,1606,0.4222222222222222,1,4.0,0.44444444444444453,0,0.35930735930735924,0
com.moez.QKSMS,v2.6.1,@+id/recipients$dialog_conversation_details_recipients,1615,0.4340909090909091,1,5.0,0.48863636363636365,0,1.3593073593073592,0
com.moez.QKSMS,v2.6.1,@+id/recipients$dialog_conversation_details_recipients,1614,0.4222222222222222,1,4.0,0.44444444444444453,0,0.35930735930735924,0
com.moez.QKSMS,v2.6.1,@+id/recipients$dialog_conversation_details_recipients,1612,0.205,1,3.0,0.5349999999999999,0,-0.6406926406926408,0
com.moez.QKSMS,v2.6.1,@+id/label_downloading$downloading,1621,0.44000000000000006,1,4.0,0.6000000000000001,0,0.35930735930735924,0
com.moez.QKSMS,v2.6.1,@+id/widget_label$,1622,0.44000000000000006,1,4.0,0.6000000000000001,0,0.35930735930735924,0
com.moez.QKSMS,v2.6.1,@+id/compose_reply_text$,1631,0.4895833333333333,1,5.0,0.5375,0,1.3593073593073592,0
com.moez.QKSMS,v2.6.1,@+id/welcome_themes$,1634,0.4895833333333333,1,5.0,0.5375,0,1.3593073593073592,0
com.moez.QKSMS,v2.6.1,@+id/welcome_themes$,1635,0.45,1,5.0,0.5267857142857143,0,1.3593073593073592,0
com.moez.QKSMS,v2.6.1,@+id/welcome_quickreply_title$welcome_theme_title,1640,0.4895833333333333,1,5.0,0.5375,0,1.3593073593073592,0
com.moez.QKSMS,v2.6.1,@+id/welcome_quickreply_title$welcome_theme_title,1639,0.45,1,5.0,0.5267857142857143,0,1.3593073593073592,0
com.moez.QKSMS,v2.6.1,@string/welcome_theme_description$,1648,0.4895833333333333,1,5.0,0.5375,0,1.3593073593073592,0
com.moez.QKSMS,v2.6.1,@string/welcome_theme_description$,1646,0.45,1,5.0,0.5267857142857143,0,1.3593073593073592,0
com.moez.QKSMS,v2.6.1,@+id/slide_view$,1653,0.5333333333333333,1,5.0,0.6,0,1.3593073593073592,0
com.moez.QKSMS,v2.6.1,@+id/empty_state_icon$,1657,0.205,1,3.0,0.5349999999999999,0,-0.6406926406926408,0
com.moez.QKSMS,v2.6.1,@android:id/icon$,1663,0.205,1,3.0,0.5349999999999999,0,-0.6406926406926408,0
com.moez.QKSMS,v2.6.1,@+id/audio_icon$,1666,0.205,1,3.0,0.5349999999999999,0,-0.6406926406926408,0
com.moez.QKSMS,v2.6.1,@+id/compose_icon$,1670,0.205,1,3.0,0.5349999999999999,0,-0.6406926406926408,0
com.moez.QKSMS,v2.6.1,@string/donate_google$,1674,0.20000000000000004,1,5.0,0.6333333333333333,0,1.3593073593073592,0
com.moez.QKSMS,v2.6.1,@string/donate_paypal_button_summary$,1682,0.20000000000000004,1,5.0,0.6333333333333333,0,1.3593073593073592,0
com.moez.QKSMS,v2.6.1,@string/product_name_donate_1$,1688,0.20000000000000004,1,5.0,0.6333333333333333,0,1.3593073593073592,0
com.moez.QKSMS,v2.6.1,@string/product_description_donate_1$,1689,0.20000000000000004,1,5.0,0.6333333333333333,0,1.3593073593073592,0
com.moez.QKSMS,v2.6.1,@string/donate_google_summary$,1698,0.20000000000000004,1,5.0,0.6333333333333333,0,1.3593073593073592,0
com.moez.QKSMS,v2.6.1,@string/product_description_donate_5$,1699,0.20000000000000004,1,5.0,0.6333333333333333,0,1.3593073593073592,0
com.moez.QKSMS,v2.6.1,@string/donate_paypal$,1708,0.20000000000000004,1,5.0,0.6333333333333333,0,1.3593073593073592,0
com.moez.QKSMS,v2.6.1,@string/product_description_donate_10$,1709,0.20000000000000004,1,5.0,0.6333333333333333,0,1.3593073593073592,0
com.moez.QKSMS,v2.6.1,@string/product_name_donate_10$,1718,0.20000000000000004,1,5.0,0.6333333333333333,0,1.3593073593073592,0
com.moez.QKSMS,v2.6.1,@string/product_name_donate_5$,1722,0.20000000000000004,1,5.0,0.6333333333333333,0,1.3593073593073592,0
com.moez.QKSMS,v2.6.1,@string/donate_paypal_button$,1724,0.20000000000000004,1,5.0,0.6333333333333333,0,1.3593073593073592,0
