package,release ID,UI element,related topic,average polarity,# reviews,average rating,average objectivity,# uninstalls,delta rating,element deleted next release
com.moez.QKSMS,v2.5.2,@string/hint_no_messages$,2719,0.08967633928571428,8,3.125,0.4419084821428571,0,-0.5430000000000001,0
com.moez.QKSMS,v2.5.2,@string/hint_no_messages$,2715,0.10234375,6,3.1666666666666665,0.4015625,0,-0.5013333333333336,0
com.moez.QKSMS,v2.5.2,@string/hint_no_messages$,2720,0.06828463203463203,4,2.25,0.5683495670995671,0,-1.4180000000000001,0
com.moez.QKSMS,v2.5.2,@string/hint_no_messages$,2716,0.09732142857142856,2,4.5,0.35119047619047616,0,0.8319999999999999,0
com.moez.QKSMS,v2.5.2,@string/hint_no_messages$,2714,0.25,1,3.0,0.8,0,-0.6680000000000001,0
com.moez.QKSMS,v2.5.2,@string/hint_no_messages$,2717,0.1879761904761905,2,2.0,0.563452380952381,0,-1.6680000000000001,0
com.moez.QKSMS,v2.5.2,@string/hint_no_messages$,2713,0.43589531680440774,2,3.0,0.6905475206611571,0,-0.6680000000000001,0
com.moez.QKSMS,v2.5.2,@string/hint_no_messages$,2718,0.20227272727272724,1,1.0,0.19090909090909092,0,-2.668,0
com.moez.QKSMS,v2.5.2,@string/hint_no_messages$,2721,0.25,1,4.0,0.3,0,0.33199999999999985,0
com.moez.QKSMS,v2.5.2,@string/hint_no_messages$,2711,0.3872159090909091,2,3.5,0.7386363636363636,0,-0.16800000000000015,0
com.moez.QKSMS,v2.5.2,@string/dialog_conversation_details_last_message_date$,2730,0.10894758908446925,11,2.6363636363636362,0.49023360076562555,0,-1.031636363636364,0
com.moez.QKSMS,v2.5.2,@string/dialog_conversation_details_last_message_date$,2724,-0.023194444444444445,6,2.8333333333333335,0.2894097222222222,0,-0.8346666666666667,0
com.moez.QKSMS,v2.5.2,@string/dialog_conversation_details_last_message_date$,2731,0.19469088203463203,8,3.0,0.5006858766233767,0,-0.6680000000000001,0
com.moez.QKSMS,v2.5.2,@string/dialog_conversation_details_last_message_date$,2725,0.039769345238095236,4,3.25,0.37589285714285714,0,-0.41800000000000015,0
com.moez.QKSMS,v2.5.2,@string/dialog_conversation_details_last_message_date$,2726,0.25,1,3.0,0.8,0,-0.6680000000000001,0
com.moez.QKSMS,v2.5.2,@string/dialog_conversation_details_last_message_date$,2735,0.33341450216450214,2,3.5,0.6074134199134199,0,-0.16800000000000015,0
com.moez.QKSMS,v2.5.2,@string/dialog_conversation_details_last_message_date$,2727,-0.06694444444444445,1,1.0,0.48055555555555557,0,-2.668,0
com.moez.QKSMS,v2.5.2,@string/dialog_conversation_details_last_message_date$,2732,0.21701388888888887,3,2.6666666666666665,0.4461111111111111,0,-1.0013333333333336,0
com.moez.QKSMS,v2.5.2,@string/dialog_conversation_details_last_message_date$,2733,0.67,1,4.0,0.8125,0,0.33199999999999985,0
com.moez.QKSMS,v2.5.2,"@+id/in_2$Don't worry, this isn't a real message. We're just showing you how your chats will look!",2752,0.4503333333333333,5,3.2,0.6726666666666666,0,-0.46799999999999997,0
com.moez.QKSMS,v2.5.2,"@+id/in_2$Don't worry, this isn't a real message. We're just showing you how your chats will look!",2748,0.15357340859897678,10,2.9,0.4895350993703266,0,-0.7680000000000002,0
com.moez.QKSMS,v2.5.2,"@+id/in_2$Don't worry, this isn't a real message. We're just showing you how your chats will look!",2739,-0.0007169913419913441,7,2.4285714285714284,0.3665584415584416,0,-1.2394285714285718,0
com.moez.QKSMS,v2.5.2,"@+id/in_2$Don't worry, this isn't a real message. We're just showing you how your chats will look!",2746,-0.13571428571428573,1,3.0,0.13214285714285715,0,-0.6680000000000001,0
com.moez.QKSMS,v2.5.2,"@+id/in_2$Don't worry, this isn't a real message. We're just showing you how your chats will look!",2737,0.17857142857142858,2,3.5,0.6303571428571428,0,-0.16800000000000015,0
com.moez.QKSMS,v2.5.2,"@+id/in_2$Don't worry, this isn't a real message. We're just showing you how your chats will look!",2743,0.04100198412698412,4,2.5,0.31061507936507937,0,-1.1680000000000001,0
com.moez.QKSMS,v2.5.2,"@+id/in_2$Don't worry, this isn't a real message. We're just showing you how your chats will look!",2749,0.5302777777777777,3,4.0,0.6597222222222222,0,0.33199999999999985,0
com.moez.QKSMS,v2.5.2,"@+id/in_2$Don't worry, this isn't a real message. We're just showing you how your chats will look!",2742,0.46875,2,3.5,0.6140625000000001,0,-0.16800000000000015,0
com.moez.QKSMS,v2.5.2,"@+id/in_2$Don't worry, this isn't a real message. We're just showing you how your chats will look!",2750,0.06666666666666667,2,4.0,0.6833333333333333,0,0.33199999999999985,0
com.moez.QKSMS,v2.5.2,"@+id/in_2$Don't worry, this isn't a real message. We're just showing you how your chats will look!",2738,-0.07777777777777777,1,2.0,0.7333333333333334,0,-1.6680000000000001,0
com.moez.QKSMS,v2.5.2,"@+id/in_2$Don't worry, this isn't a real message. We're just showing you how your chats will look!",2741,0.3500811688311688,2,2.5,0.4907467532467532,1,-1.1680000000000001,0
com.moez.QKSMS,v2.5.2,"@+id/in_2$Don't worry, this isn't a real message. We're just showing you how your chats will look!",2753,0.38333333333333336,1,5.0,0.6383928571428572,0,1.3319999999999999,0
com.moez.QKSMS,v2.5.2,"@+id/in_2$Don't worry, this isn't a real message. We're just showing you how your chats will look!",2744,0.36818181818181817,1,3.0,0.7272727272727273,0,-0.6680000000000001,0
com.moez.QKSMS,v2.5.2,@string/dialog_conversation_details_message_count$,2754,0.01821428571428572,3,2.3333333333333335,0.6984126984126985,0,-1.3346666666666667,0
com.moez.QKSMS,v2.5.2,@string/dialog_conversation_details_message_count$,2764,0.3607142857142857,3,3.3333333333333335,0.49134920634920637,0,-0.33466666666666667,0
com.moez.QKSMS,v2.5.2,@string/dialog_conversation_details_message_count$,2766,-0.11190476190476191,3,2.6666666666666665,0.4773809523809524,0,-1.0013333333333336,0
com.moez.QKSMS,v2.5.2,@string/dialog_conversation_details_message_count$,2757,0.10610795454545455,4,2.75,0.7193181818181817,0,-0.9180000000000001,0
com.moez.QKSMS,v2.5.2,@string/dialog_conversation_details_message_count$,2759,0.09625,3,3.6666666666666665,0.41055555555555556,0,-0.0013333333333336306,0
com.moez.QKSMS,v2.5.2,@string/dialog_conversation_details_message_count$,2758,0.038691460055096424,5,3.2,0.2870523415977962,0,-0.46799999999999997,0
com.moez.QKSMS,v2.5.2,@string/dialog_conversation_details_message_count$,2756,0.3246875,3,3.6666666666666665,0.5764583333333334,0,-0.0013333333333336306,0
com.moez.QKSMS,v2.5.2,@string/dialog_conversation_details_message_count$,2765,0.24226866883116882,2,3.0,0.47824675324675325,0,-0.6680000000000001,0
com.moez.QKSMS,v2.5.2,@string/dialog_conversation_details_message_count$,2755,0.07281746031746032,3,2.6666666666666665,0.36334325396825395,0,-1.0013333333333336,0
com.moez.QKSMS,v2.5.2,@string/dialog_conversation_details_message_count$,2763,0.20227272727272724,1,1.0,0.19090909090909092,0,-2.668,0
com.moez.QKSMS,v2.5.2,@string/dialog_conversation_details_message_count$,2767,0.25595238095238093,2,3.0,0.4119047619047619,0,-0.6680000000000001,0
com.moez.QKSMS,v2.5.2,@string/dialog_conversation_details_message_count$,2761,0.67,1,4.0,0.8125,0,0.33199999999999985,0
com.moez.QKSMS,v2.5.2,@+id/selected$,2770,-0.175,1,3.0,0.95,0,-0.6680000000000001,0
com.moez.QKSMS,v2.5.2,@+id/message_count$,2775,-0.018055555555555557,3,4.0,0.5444444444444444,0,0.33199999999999985,0
com.moez.QKSMS,v2.5.2,@+id/message_count$,2778,0.04218749999999999,2,1.5,0.38749999999999996,0,-2.168,0
com.moez.QKSMS,v2.5.2,@+id/message_count$,2777,-0.15,4,2.5,0.15,0,-1.1680000000000001,0
com.moez.QKSMS,v2.5.2,@+id/message_count$,2776,-0.1863690476190476,2,2.0,0.2720238095238095,0,-1.6680000000000001,0
com.moez.QKSMS,v2.5.2,@+id/message_count$,2783,0.36294642857142856,2,3.5,0.48660714285714285,0,-0.16800000000000015,0
com.moez.QKSMS,v2.5.2,@+id/message_count$,2773,0.29709934163059154,6,3.1666666666666665,0.5758139430014432,0,-0.5013333333333336,0
com.moez.QKSMS,v2.5.2,@+id/message_count$,2779,0.1879761904761905,2,2.0,0.563452380952381,0,-1.6680000000000001,0
com.moez.QKSMS,v2.5.2,@+id/message_count$,2782,0.36976354453627186,3,3.0,0.6697400137741049,0,-0.6680000000000001,0
com.moez.QKSMS,v2.5.2,@+id/message_count$,2784,0.125,2,4.0,0.65,0,0.33199999999999985,0
com.moez.QKSMS,v2.5.2,@+id/message_count$,2780,0.658125,2,3.5,0.7650000000000001,0,-0.16800000000000015,0
com.moez.QKSMS,v2.5.2,@+id/message_count$,2774,-0.09375,1,4.0,0.25,0,0.33199999999999985,0
com.moez.QKSMS,v2.5.2,@+id/empty_state_icon$,2788,-0.007499999999999993,2,3.0,0.7849999999999999,0,-0.6680000000000001,0
com.moez.QKSMS,v2.5.2,@+id/empty_state_icon$,2786,-0.6,1,1.0,0.6,0,-2.668,0
com.moez.QKSMS,v2.5.2,@+id/empty_state_icon$,2787,0.2953125,1,5.0,0.5218750000000001,0,1.3319999999999999,0
com.moez.QKSMS,v2.5.2,@+id/empty_state_icon$,2789,0.25,1,3.0,0.6785714285714286,0,-0.6680000000000001,0
com.moez.QKSMS,v2.5.2,@+id/message$,2795,-0.10357142857142858,3,3.3333333333333335,0.6940476190476191,0,-0.33466666666666667,0
com.moez.QKSMS,v2.5.2,@+id/message$,2798,0.27569146005509637,5,2.4,0.47638567493112954,0,-1.2680000000000002,0
com.moez.QKSMS,v2.5.2,@+id/message$,2794,-0.6,1,1.0,0.6,0,-2.668,0
com.moez.QKSMS,v2.5.2,@+id/message$,2796,0.0757913961038961,4,3.5,0.2858225108225108,0,-0.16800000000000015,0
com.moez.QKSMS,v2.5.2,@+id/message$,2800,0.17199404761904763,4,2.75,0.4373511904761905,0,-0.9180000000000001,0
com.moez.QKSMS,v2.5.2,@+id/message$,2791,0.284375,1,2.0,0.475,0,-1.6680000000000001,0
com.moez.QKSMS,v2.5.2,@+id/message$,2793,0.27642045454545455,4,3.25,0.6138494318181819,0,-0.41800000000000015,0
com.moez.QKSMS,v2.5.2,@+id/message$,2799,0.3254761904761905,2,3.0,0.637202380952381,0,-0.6680000000000001,0
com.moez.QKSMS,v2.5.2,@+id/message$,2790,0.2953125,1,5.0,0.5218750000000001,0,1.3319999999999999,0
com.moez.QKSMS,v2.5.2,@+id/message$,2792,0.11116522366522368,3,3.6666666666666665,0.2827200577200577,0,-0.0013333333333336306,0
com.moez.QKSMS,v2.5.2,@+id/message$,2797,0.395,1,2.0,0.665,0,-1.6680000000000001,0
com.moez.QKSMS,v2.5.2,@android:id/icon$,2805,-0.175,1,3.0,0.95,0,-0.6680000000000001,0
com.moez.QKSMS,v2.5.2,@android:id/icon$,2804,0.2953125,1,5.0,0.5218750000000001,0,1.3319999999999999,0
com.moez.QKSMS,v2.5.2,@android:id/icon$,2806,0.20500000000000002,2,3.0,0.6492857142857142,0,-0.6680000000000001,0
com.moez.QKSMS,v2.5.2,@+id/audio_icon$,2810,-0.007499999999999993,2,3.0,0.7849999999999999,0,-0.6680000000000001,0
com.moez.QKSMS,v2.5.2,@+id/audio_icon$,2808,0.2953125,1,5.0,0.5218750000000001,0,1.3319999999999999,0
com.moez.QKSMS,v2.5.2,@+id/audio_icon$,2811,0.25,1,3.0,0.6785714285714286,0,-0.6680000000000001,0
com.moez.QKSMS,v2.5.2,@+id/compose_icon$,2812,-0.2798611111111111,2,2.0,0.8479166666666667,0,-1.6680000000000001,0
com.moez.QKSMS,v2.5.2,@+id/compose_icon$,2815,0.2671875,2,2.5,0.5767857142857142,0,-1.1680000000000001,0
com.moez.QKSMS,v2.5.2,@+id/compose_icon$,2816,0.2953125,1,5.0,0.5218750000000001,0,1.3319999999999999,0
com.moez.QKSMS,v2.5.2,@+id/compose_icon$,2813,0.18008116883116881,2,3.5,0.5507467532467533,0,-0.16800000000000015,0
com.moez.QKSMS,v2.5.2,"@+id/out_1$Sweet, here's an outgoing message",2826,0.3804166666666666,3,3.3333333333333335,0.8266666666666667,0,-0.33466666666666667,0
com.moez.QKSMS,v2.5.2,"@+id/out_1$Sweet, here's an outgoing message",2827,0.042708333333333334,4,2.75,0.3236979166666667,0,-0.9180000000000001,0
com.moez.QKSMS,v2.5.2,"@+id/out_1$Sweet, here's an outgoing message",2828,-0.04131493506493508,4,2.0,0.4125811688311688,0,-1.6680000000000001,0
com.moez.QKSMS,v2.5.2,"@+id/out_1$Sweet, here's an outgoing message",2822,0.15854496671258034,6,3.5,0.35674500688705235,0,-0.16800000000000015,0
com.moez.QKSMS,v2.5.2,"@+id/out_1$Sweet, here's an outgoing message",2818,0.23984375000000002,4,3.0,0.528125,0,-0.6680000000000001,0
com.moez.QKSMS,v2.5.2,"@+id/out_1$Sweet, here's an outgoing message",2825,0.286031746031746,3,3.3333333333333335,0.5533730158730159,0,-0.33466666666666667,0
com.moez.QKSMS,v2.5.2,"@+id/out_1$Sweet, here's an outgoing message",2819,0.07898809523809527,2,1.5,0.5384523809523809,0,-2.168,0
com.moez.QKSMS,v2.5.2,"@+id/out_1$Sweet, here's an outgoing message",2817,0.25,1,4.0,0.3,0,0.33199999999999985,0
com.moez.QKSMS,v2.5.2,"@+id/out_1$Sweet, here's an outgoing message",2824,0.20016233766233765,1,4.0,0.4814935064935065,0,0.33199999999999985,0
com.moez.QKSMS,v2.5.2,"@+id/out_1$Sweet, here's an outgoing message",2823,0.0,1,4.0,1.0,0,0.33199999999999985,0
com.moez.QKSMS,v2.5.2,@+id/popup_messages$,2833,-0.175,1,3.0,0.95,0,-0.6680000000000001,0
com.moez.QKSMS,v2.5.2,@+id/popup_messages$,2829,0.13132034632034628,5,2.8,0.40448051948051955,0,-0.8680000000000003,0
com.moez.QKSMS,v2.5.2,@+id/popup_messages$,2835,-0.6,1,1.0,0.6,0,-2.668,0
com.moez.QKSMS,v2.5.2,@+id/popup_messages$,2840,0.25971861471861474,9,3.111111111111111,0.5258378427128427,0,-0.556888888888889,0
com.moez.QKSMS,v2.5.2,@+id/popup_messages$,2838,0.0,2,3.0,0.0,0,-0.6680000000000001,0
com.moez.QKSMS,v2.5.2,@+id/popup_messages$,2834,0.3695366981503345,5,3.4,0.53086186540732,0,-0.26800000000000024,0
com.moez.QKSMS,v2.5.2,@+id/popup_messages$,2836,0.09138988095238096,5,2.8,0.4474702380952381,0,-0.8680000000000003,0
com.moez.QKSMS,v2.5.2,@+id/popup_messages$,2831,0.0,1,4.0,1.0,0,0.33199999999999985,0
com.moez.QKSMS,v2.5.2,@string/app_name$,2844,0.327834145021645,4,3.5,0.6440205627705629,0,-0.16800000000000015,0
com.moez.QKSMS,v2.5.2,@string/app_name$,2841,0.5672222222222223,9,4.444444444444445,0.6414814814814815,0,0.7764444444444445,0
com.moez.QKSMS,v2.5.2,@string/app_name$,2860,0.3991550925925926,9,3.888888888888889,0.6147453703703705,0,0.2208888888888887,0
com.moez.QKSMS,v2.5.2,@string/app_name$,2845,0.4102777777777778,6,3.8333333333333335,0.6718055555555557,0,0.16533333333333333,0
com.moez.QKSMS,v2.5.2,@string/app_name$,2858,0.22916666666666663,2,2.5,0.30833333333333335,0,-1.1680000000000001,0
com.moez.QKSMS,v2.5.2,@string/app_name$,2846,0.15000000000000002,1,3.0,0.875,0,-0.6680000000000001,0
com.moez.QKSMS,v2.5.2,@string/app_name$,2849,0.25,1,3.0,0.8,0,-0.6680000000000001,0
com.moez.QKSMS,v2.5.2,@string/app_name$,2857,0.11547619047619048,2,2.5,0.5702380952380952,0,-1.1680000000000001,0
com.moez.QKSMS,v2.5.2,@string/app_name$,2843,0.2333333333333333,1,4.0,0.3666666666666667,0,0.33199999999999985,0
com.moez.QKSMS,v2.5.2,@string/app_name$,2856,-0.06694444444444445,1,1.0,0.48055555555555557,0,-2.668,0
com.moez.QKSMS,v2.5.2,@string/app_name$,2859,0.21964531680440774,2,2.5,0.5983600206611571,0,-1.1680000000000001,0
com.moez.QKSMS,v2.5.2,@string/app_name$,2862,-0.14166666666666666,1,4.0,0.5,0,0.33199999999999985,0
com.moez.QKSMS,v2.5.2,@string/app_name$,2842,0.5083333333333333,2,3.5,0.6708333333333334,0,-0.16800000000000015,0
com.moez.QKSMS,v2.5.2,@string/app_name$,2851,-0.23702380952380947,1,1.0,0.4119047619047619,0,-2.668,0
com.moez.QKSMS,v2.5.2,@string/app_name$,2850,-0.01666666666666668,1,3.0,0.5499999999999999,0,-0.6680000000000001,0
com.moez.QKSMS,v2.5.2,@string/app_name$,2852,0.47890625,1,1.0,0.6875,0,-2.668,0
com.moez.QKSMS,v2.5.2,@string/app_name$,2861,0.67,1,4.0,0.8125,0,0.33199999999999985,0
com.moez.QKSMS,v2.5.2,@string/app_name$,2848,0.16,1,3.0,0.62,0,-0.6680000000000001,0
com.moez.QKSMS,v2.5.2,@string/donate_google$,2864,0.38375,1,5.0,0.54,1,1.3319999999999999,0
com.moez.QKSMS,v2.5.2,@string/donate_google$,2867,0.23750000000000002,1,3.0,0.628125,0,-0.6680000000000001,0
com.moez.QKSMS,v2.5.2,@string/donate_google$,2866,0.2953125,1,5.0,0.5218750000000001,0,1.3319999999999999,0
com.moez.QKSMS,v2.5.2,@string/donate_paypal_button_summary$,2873,0.38375,1,5.0,0.54,1,1.3319999999999999,0
com.moez.QKSMS,v2.5.2,@string/donate_paypal_button_summary$,2871,0.395,1,2.0,0.665,0,-1.6680000000000001,0
com.moez.QKSMS,v2.5.2,@string/product_name_donate_1$,2877,0.38375,1,5.0,0.54,1,1.3319999999999999,0
com.moez.QKSMS,v2.5.2,@string/product_name_donate_1$,2876,0.15000000000000002,1,3.0,0.875,0,-0.6680000000000001,0
com.moez.QKSMS,v2.5.2,@string/product_description_donate_1$,2883,0.38375,1,5.0,0.54,1,1.3319999999999999,0
com.moez.QKSMS,v2.5.2,@string/donate_google_summary$,2885,0.38375,1,5.0,0.54,1,1.3319999999999999,0
com.moez.QKSMS,v2.5.2,@string/donate_google_summary$,2884,0.23750000000000002,1,3.0,0.628125,0,-0.6680000000000001,0
com.moez.QKSMS,v2.5.2,@string/donate_google_summary$,2886,0.2953125,1,5.0,0.5218750000000001,0,1.3319999999999999,0
com.moez.QKSMS,v2.5.2,@string/product_description_donate_5$,2890,0.21270833333333333,2,3.0,0.36833333333333335,1,-0.6680000000000001,0
com.moez.QKSMS,v2.5.2,@string/product_description_donate_5$,2889,0.24238095238095236,5,3.4,0.40809523809523807,0,-0.26800000000000024,0
com.moez.QKSMS,v2.5.2,@string/product_description_donate_5$,2893,-0.049999999999999996,1,3.0,0.475,0,-0.6680000000000001,0
com.moez.QKSMS,v2.5.2,@string/product_description_donate_5$,2891,0.20227272727272724,1,1.0,0.19090909090909092,0,-2.668,0
com.moez.QKSMS,v2.5.2,@string/donate_paypal$,2898,0.38375,1,5.0,0.54,1,1.3319999999999999,0
com.moez.QKSMS,v2.5.2,@string/product_description_donate_10$,2900,0.38375,1,5.0,0.54,1,1.3319999999999999,0
com.moez.QKSMS,v2.5.2,@string/product_name_donate_10$,2904,0.38375,1,5.0,0.54,1,1.3319999999999999,0
com.moez.QKSMS,v2.5.2,@string/product_name_donate_10$,2905,0.15000000000000002,1,3.0,0.875,0,-0.6680000000000001,0
com.moez.QKSMS,v2.5.2,@string/product_name_donate_5$,2912,0.22510416666666663,4,4.0,0.49124999999999996,1,0.33199999999999985,0
com.moez.QKSMS,v2.5.2,@string/product_name_donate_5$,2910,0.2125,2,2.5,0.38166666666666665,0,-1.1680000000000001,0
com.moez.QKSMS,v2.5.2,@string/product_name_donate_5$,2909,0.10113636363636362,2,2.0,0.09545454545454546,0,-1.6680000000000001,0
com.moez.QKSMS,v2.5.2,@string/product_name_donate_5$,2913,0.20595238095238097,2,2.5,0.6994047619047619,0,-1.1680000000000001,0
com.moez.QKSMS,v2.5.2,@string/donate_paypal_button$,2917,0.38375,1,5.0,0.54,1,1.3319999999999999,0
com.moez.QKSMS,v2.5.2,@string/donate_paypal_button$,2914,0.395,1,2.0,0.665,0,-1.6680000000000001,0
com.moez.QKSMS,v2.5.2,@+id/contact_list_number$,2923,0.08363636363636362,2,2.0,0.24962121212121213,0,-1.6680000000000001,0
com.moez.QKSMS,v2.5.2,@+id/contact_list_number$,2919,0.3630952380952381,4,3.75,0.594047619047619,0,0.08199999999999985,0
com.moez.QKSMS,v2.5.2,@+id/contact_list_number$,2922,0.16170798898071626,3,3.0,0.6034205693296603,0,-0.6680000000000001,0
com.moez.QKSMS,v2.5.2,@+id/contact_list_number$,2920,0.35,2,3.0,0.30000000000000004,0,-0.6680000000000001,0
com.moez.QKSMS,v2.5.2,@+id/contact_list_number$,2921,-0.1,2,1.5,0.6,0,-2.168,0
com.moez.QKSMS,v2.5.2,@+id/conversation_list_error$,2926,0.0625,2,3.0,0.46416666666666667,0,-0.6680000000000001,0
com.moez.QKSMS,v2.5.2,@+id/conversation_list_error$,2928,0.06041666666666667,2,4.5,0.3416666666666667,0,0.8319999999999999,0
com.moez.QKSMS,v2.5.2,@+id/conversation_list_error$,2927,-0.0389285714285714,3,2.3333333333333335,0.4785714285714286,0,-1.3346666666666667,0
com.moez.QKSMS,v2.5.2,@+id/conversation_list_error$,2924,0.10357142857142856,2,4.0,0.6928571428571428,0,0.33199999999999985,0
com.moez.QKSMS,v2.5.2,@+id/conversation_list_error$,2925,0.9099999999999999,1,3.0,0.7800000000000001,0,-0.6680000000000001,0
com.moez.QKSMS,v2.5.2,@+id/conversation_list$,2930,0.29166666666666663,3,3.3333333333333335,0.6961111111111111,0,-0.33466666666666667,0
com.moez.QKSMS,v2.5.2,@+id/conversation_list$,2932,0.08452380952380951,3,3.3333333333333335,0.46349206349206346,0,-0.33466666666666667,0
com.moez.QKSMS,v2.5.2,@+id/conversation_list$,2933,-0.03851190476190473,2,2.0,0.5159523809523809,0,-1.6680000000000001,0
com.moez.QKSMS,v2.5.2,@+id/conversation_list$,2929,0.20714285714285713,1,4.0,0.3857142857142857,0,0.33199999999999985,0
com.moez.QKSMS,v2.5.2,@+id/contact_list_contact$,2938,0.18305555555555555,6,3.0,0.6083333333333333,0,-0.6680000000000001,0
com.moez.QKSMS,v2.5.2,@+id/contact_list_contact$,2934,0.20227272727272724,1,1.0,0.19090909090909092,0,-2.668,0
com.moez.QKSMS,v2.5.2,@+id/contact_list_contact$,2937,0.41666666666666663,2,4.0,0.4833333333333334,0,0.33199999999999985,0
com.moez.QKSMS,v2.5.2,@+id/contact_list_contact$,2935,0.030952380952380953,2,2.0,0.36190476190476195,0,-1.6680000000000001,0
com.moez.QKSMS,v2.5.2,@+id/contact_list_type$,2940,0.10958668315811175,7,3.2857142857142856,0.5076028138528139,0,-0.38228571428571456,0
com.moez.QKSMS,v2.5.2,@+id/contact_list_type$,2941,0.23926767676767677,6,2.5,0.5387626262626263,0,-1.1680000000000001,0
com.moez.QKSMS,v2.5.2,@+id/contact_list_type$,2939,0.430952380952381,2,3.5,0.7119047619047619,0,-0.16800000000000015,0
com.moez.QKSMS,v2.5.2,@+id/conversation_list_name$,2947,-0.005555555555555554,3,3.3333333333333335,0.4761111111111111,0,-0.33466666666666667,0
com.moez.QKSMS,v2.5.2,@+id/conversation_list_name$,2944,0.17857142857142858,2,3.5,0.6303571428571428,0,-0.16800000000000015,0
com.moez.QKSMS,v2.5.2,@+id/conversation_list_name$,2946,-0.23702380952380947,1,1.0,0.4119047619047619,0,-2.668,0
com.moez.QKSMS,v2.5.2,@+id/conversation_list_name$,2948,0.3263095238095238,4,3.25,0.6676190476190477,0,-0.41800000000000015,0
com.moez.QKSMS,v2.5.2,@+id/list_item_subtitle$,2951,-0.035,1,3.0,0.30833333333333335,0,-0.6680000000000001,0
com.moez.QKSMS,v2.5.2,@+id/list_item_subtitle$,2953,0.13333333333333333,1,4.0,0.3666666666666667,0,0.33199999999999985,0
com.moez.QKSMS,v2.5.2,@+id/conversation_list_unread$,2956,0.43749999999999994,2,3.0,0.5441666666666667,0,-0.6680000000000001,0
com.moez.QKSMS,v2.5.2,@+id/conversation_list_unread$,2957,-0.004166666666666666,2,4.0,0.43333333333333335,0,0.33199999999999985,0
com.moez.QKSMS,v2.5.2,@+id/conversation_list_unread$,2955,-0.009960317460317447,3,3.0,0.5992063492063492,0,-0.6680000000000001,0
com.moez.QKSMS,v2.5.2,@+id/conversation_list_unread$,2954,0.21095238095238095,2,2.5,0.5719047619047619,0,-1.1680000000000001,0
com.moez.QKSMS,v2.5.2,@+id/conversation$,2962,-0.0175,2,3.5,0.6541666666666667,0,-0.16800000000000015,0
com.moez.QKSMS,v2.5.2,@+id/conversation$,2961,0.2975595238095238,4,3.0,0.605952380952381,0,-0.6680000000000001,0
com.moez.QKSMS,v2.5.2,@+id/conversation$,2959,-0.23702380952380947,1,1.0,0.4119047619047619,0,-2.668,0
com.moez.QKSMS,v2.5.2,@+id/conversation$,2960,0.20714285714285713,1,4.0,0.3857142857142857,0,0.33199999999999985,0
com.moez.QKSMS,v2.5.2,@+id/list_item_title$,2964,-0.035,1,3.0,0.30833333333333335,0,-0.6680000000000001,0
com.moez.QKSMS,v2.5.2,@+id/list_item_title$,2966,-0.03333333333333334,2,2.5,0.33333333333333337,0,-1.1680000000000001,0
com.moez.QKSMS,v2.5.2,@+id/list_item_body$,2969,-0.035,1,3.0,0.30833333333333335,0,-0.6680000000000001,0
com.moez.QKSMS,v2.5.2,@+id/list_item_body$,2970,0.13333333333333333,1,4.0,0.3666666666666667,0,0.33199999999999985,0
com.moez.QKSMS,v2.5.2,@+id/conversation_list_date$,2976,-0.046230158730158705,3,2.6666666666666665,0.36230158730158735,0,-1.0013333333333336,0
com.moez.QKSMS,v2.5.2,@+id/conversation_list_date$,2977,-0.14166666666666666,1,4.0,0.5,0,0.33199999999999985,0
com.moez.QKSMS,v2.5.2,@+id/conversation_list_date$,2975,0.3447619047619047,4,3.25,0.6723809523809524,0,-0.41800000000000015,0
com.moez.QKSMS,v2.5.2,@+id/conversation_list_date$,2974,0.16,1,3.0,0.62,0,-0.6680000000000001,0
com.moez.QKSMS,v2.5.2,@+id/contact_list_name$,2982,-0.035,1,3.0,0.30833333333333335,0,-0.6680000000000001,0
com.moez.QKSMS,v2.5.2,@+id/contact_list_name$,2979,0.09640151515151514,4,2.0,0.4893939393939394,0,-1.6680000000000001,0
com.moez.QKSMS,v2.5.2,@+id/contact_list_name$,2981,0.14166666666666666,2,3.5,0.6208333333333333,0,-0.16800000000000015,0
com.moez.QKSMS,v2.5.2,@+id/contact_list_name$,2983,0.3904761904761905,4,3.25,0.5059523809523809,0,-0.41800000000000015,0
com.moez.QKSMS,v2.5.2,@+id/conversation_list_background$,2987,0.11880952380952381,5,3.2,0.5675714285714285,0,-0.46799999999999997,0
com.moez.QKSMS,v2.5.2,@+id/conversation_list_background$,2986,-0.004166666666666666,2,4.0,0.43333333333333335,0,0.33199999999999985,0
com.moez.QKSMS,v2.5.2,@+id/conversation_list_background$,2988,-0.23702380952380947,1,1.0,0.4119047619047619,0,-2.668,0
com.moez.QKSMS,v2.5.2,@+id/conversation_list_background$,2985,0.9099999999999999,1,3.0,0.7800000000000001,0,-0.6680000000000001,0
com.moez.QKSMS,v2.5.2,@+id/conversation_list_snippet$,2993,-0.035,1,3.0,0.30833333333333335,0,-0.6680000000000001,0
com.moez.QKSMS,v2.5.2,@+id/conversation_list_snippet$,2989,0.09341269841269843,3,3.0,0.5479365079365079,0,-0.6680000000000001,0
com.moez.QKSMS,v2.5.2,@+id/conversation_list_snippet$,2991,0.2200297619047619,4,3.0,0.6444047619047619,0,-0.6680000000000001,0
com.moez.QKSMS,v2.5.2,@+id/conversation_list_snippet$,2990,0.13333333333333333,1,4.0,0.3666666666666667,0,0.33199999999999985,0
com.moez.QKSMS,v2.5.2,@+id/conversation_list_avatar$,2998,0.049166666666666664,2,3.5,0.3375,0,-0.16800000000000015,0
com.moez.QKSMS,v2.5.2,@+id/conversation_list_avatar$,2995,0.17282738095238095,4,2.75,0.5779761904761905,0,-0.9180000000000001,0
com.moez.QKSMS,v2.5.2,@+id/conversation_list_avatar$,2994,0.10357142857142856,2,4.0,0.6928571428571428,0,0.33199999999999985,0
com.moez.QKSMS,v2.5.2,@+id/conversation_list_avatar$,2996,0.2619047619047619,1,2.0,0.5238095238095238,0,-1.6680000000000001,0
com.moez.QKSMS,v2.5.2,@+id/contact_list_contact_initial$,2999,0.049166666666666664,2,3.5,0.3375,0,-0.16800000000000015,0
com.moez.QKSMS,v2.5.2,@+id/contact_list_contact_initial$,3003,0.19880952380952382,4,2.75,0.49136904761904765,0,-0.9180000000000001,0
com.moez.QKSMS,v2.5.2,@+id/contact_list_contact_initial$,3002,0.10113636363636362,2,1.0,0.5954545454545455,0,-2.668,0
com.moez.QKSMS,v2.5.2,@+id/contact_list_contact_initial$,3001,0.7,1,4.0,0.6000000000000001,0,0.33199999999999985,0
com.moez.QKSMS,v2.5.2,@+id/contact_list_contact_initial$,3000,0.20000000000000004,2,3.5,0.55,0,-0.16800000000000015,0
com.moez.QKSMS,v2.5.2,@+id/search_list$,3006,-0.035,1,3.0,0.30833333333333335,0,-0.6680000000000001,0
com.moez.QKSMS,v2.5.2,@+id/search_list$,3007,0.13333333333333333,1,4.0,0.3666666666666667,0,0.33199999999999985,0
com.moez.QKSMS,v2.5.2,@+id/conversation_list_muted$,3012,-0.035,1,3.0,0.30833333333333335,0,-0.6680000000000001,0
com.moez.QKSMS,v2.5.2,@+id/conversation_list_muted$,3011,0.018071428571428582,5,3.0,0.5642857142857143,0,-0.6680000000000001,0
com.moez.QKSMS,v2.5.2,@+id/conversation_list_muted$,3010,0.13333333333333333,1,4.0,0.3666666666666667,0,0.33199999999999985,0
com.moez.QKSMS,v2.5.2,@+id/conversation_list_muted$,3013,0.16,1,3.0,0.62,0,-0.6680000000000001,0
com.moez.QKSMS,v2.5.2,@+id/conversation_list_muted$,3009,0.9099999999999999,1,3.0,0.7800000000000001,0,-0.6680000000000001,0
com.moez.QKSMS,v2.5.2,@+id/recipients$dialog_conversation_details_recipients,3018,0.11071428571428571,3,3.3333333333333335,0.43801587301587297,0,-0.33466666666666667,0
com.moez.QKSMS,v2.5.2,@+id/recipients$dialog_conversation_details_recipients,3015,-0.14166666666666666,1,4.0,0.5,0,0.33199999999999985,0
com.moez.QKSMS,v2.5.2,@+id/recipients$dialog_conversation_details_recipients,3014,0.012440476190476224,2,1.5,0.46785714285714286,0,-2.168,0
com.moez.QKSMS,v2.5.2,@+id/recipients$dialog_conversation_details_recipients,3017,-0.1923611111111111,2,2.5,0.8729166666666667,0,-1.1680000000000001,0
com.moez.QKSMS,v2.5.2,@+id/recipients$dialog_conversation_details_recipients,3016,0.9099999999999999,1,3.0,0.7800000000000001,0,-0.6680000000000001,0
com.moez.QKSMS,v2.5.2,@+id/conversations_list$,3019,-0.13601190476190472,2,2.0,0.3601190476190476,0,-1.6680000000000001,0
com.moez.QKSMS,v2.5.2,@+id/conversations_list$,3022,0.06339285714285714,4,3.5,0.5976190476190476,0,-0.16800000000000015,0
com.moez.QKSMS,v2.5.2,@+id/conversations_list$,3023,0.20714285714285713,1,4.0,0.3857142857142857,0,0.33199999999999985,0
com.moez.QKSMS,v2.5.2,@+id/conversations_list$,3020,0.5349999999999999,2,3.0,0.7000000000000001,0,-0.6680000000000001,0
com.moez.QKSMS,v2.5.2,@+android:id/title$,3027,-0.2,1,1.0,0.3,0,-2.668,0
com.moez.QKSMS,v2.5.2,@+id/alertTitle$,3029,-0.2,1,1.0,0.3,0,-2.668,0
com.moez.QKSMS,v2.5.2,@+id/title$favorites,3037,-0.2,1,1.0,0.3,0,-2.668,0
com.moez.QKSMS,v2.5.2,@+id/color_picker_swatch$,3041,0.11907242063492063,3,2.6666666666666665,0.448561507936508,0,-1.0013333333333336,0
com.moez.QKSMS,v2.5.2,@+id/color_picker_swatch$,3042,0.4,1,5.0,0.375,0,1.3319999999999999,0
com.moez.QKSMS,v2.5.2,@+id/color_picker_swatch$,3040,-0.09375,1,4.0,0.25,0,0.33199999999999985,0
com.moez.QKSMS,v2.5.2,@+id/welcome_quickreply_title$welcome_theme_title,3045,-0.2,1,1.0,0.3,0,-2.668,0
com.moez.QKSMS,v2.5.2,@+id/welcome_quickreply_title$welcome_theme_title,3047,0.2953125,1,5.0,0.5218750000000001,0,1.3319999999999999,0
com.moez.QKSMS,v2.5.2,@+id/welcome_quickreply_title$welcome_theme_title,3044,-0.09375,1,4.0,0.25,0,0.33199999999999985,0
com.moez.QKSMS,v2.5.2,@+id/color_picker$,3051,0.0005208333333333223,3,3.3333333333333335,0.35729166666666673,0,-0.33466666666666667,0
com.moez.QKSMS,v2.5.2,@+id/color_picker$,3052,0.4,1,5.0,0.375,0,1.3319999999999999,0
com.moez.QKSMS,v2.5.2,@+id/color_picker$,3050,0.2619047619047619,1,2.0,0.5238095238095238,0,-1.6680000000000001,0
com.moez.QKSMS,v2.5.2,@android:id/title$,3055,-0.2,1,1.0,0.3,0,-2.668,0
com.moez.QKSMS,v2.5.2,@+id/toolbar_title$,3060,-0.2,1,1.0,0.3,0,-2.668,0
com.moez.QKSMS,v2.5.2,@+id/color_picker_checkmark$,3068,-0.2,1,1.0,0.3,0,-2.668,0
com.moez.QKSMS,v2.5.2,@+id/color_picker_checkmark$,3065,0.330952380952381,2,3.5,0.4494047619047619,0,-0.16800000000000015,0
com.moez.QKSMS,v2.5.2,@+id/color_picker_checkmark$,3064,0.10078124999999999,2,4.5,0.38593750000000004,0,0.8319999999999999,0
com.moez.QKSMS,v2.5.2,@+id/welcome_quickreply_title$welcome_quickreply_title,3072,-0.2,1,1.0,0.3,0,-2.668,0
com.moez.QKSMS,v2.5.2,@+id/mms_downloading_view_stub$,3075,-0.2,1,1.0,0.3,0,-2.668,0
com.moez.QKSMS,v2.5.2,@+id/mms_downloading_view_stub$,3074,0.4347135416666667,6,2.6666666666666665,0.5420833333333334,0,-1.0013333333333336,0
com.moez.QKSMS,v2.5.2,@+id/mms_downloading_view_stub$,3076,0.2291396103896104,4,2.25,0.6132034632034632,0,-1.4180000000000001,0
com.moez.QKSMS,v2.5.2,@+id/mms_downloading_view_stub$,3078,0.2953125,1,5.0,0.5218750000000001,0,1.3319999999999999,0
com.moez.QKSMS,v2.5.2,@+id/delete_locked$delete_unlocked,3083,-0.13571428571428573,1,3.0,0.13214285714285715,0,-0.6680000000000001,0
com.moez.QKSMS,v2.5.2,@+id/delete_locked$delete_unlocked,3082,0.30669642857142854,2,4.0,0.5678571428571428,0,0.33199999999999985,0
com.moez.QKSMS,v2.5.2,@+id/error$,3084,-0.0125,1,5.0,0.31666666666666665,0,1.3319999999999999,0
com.moez.QKSMS,v2.5.2,@+id/starred_contacts$,3091,0.38904761904761903,5,3.6,0.5180952380952382,0,-0.06800000000000006,0
com.moez.QKSMS,v2.5.2,@+id/starred_contacts$,3093,0.12916666666666665,4,3.0,0.60625,0,-0.6680000000000001,0
com.moez.QKSMS,v2.5.2,@+id/starred_contacts$,3092,0.03806818181818182,4,2.0,0.3164772727272727,0,-1.6680000000000001,0
com.moez.QKSMS,v2.5.2,@+id/starred_contacts$,3090,0.13333333333333333,1,4.0,0.3666666666666667,0,0.33199999999999985,0
com.moez.QKSMS,v2.5.2,@+id/compose_attachment$,3095,0.284375,1,2.0,0.475,0,-1.6680000000000001,0
com.moez.QKSMS,v2.5.2,@+id/compose_attachment$,3096,0.15,1,1.0,0.20000000000000004,0,-2.668,0
com.moez.QKSMS,v2.5.2,@+id/compose_attachment$,3098,-0.3847222222222222,1,1.0,0.7458333333333333,0,-2.668,0
com.moez.QKSMS,v2.5.2,@+id/compose_attachment$,3094,0.20016233766233765,1,4.0,0.4814935064935065,0,0.33199999999999985,0
com.moez.QKSMS,v2.5.2,@+id/compose_reply_text$,3100,-0.0501736111111111,2,1.5,0.6104166666666666,0,-2.168,0
com.moez.QKSMS,v2.5.2,@+id/compose_reply_text$,3103,0.22559687786960514,3,3.0,0.5506427915518824,0,-0.6680000000000001,0
com.moez.QKSMS,v2.5.2,@+id/compose_reply_text$,3102,0.13148809523809527,2,3.0,0.4934523809523809,0,-0.6680000000000001,0
com.moez.QKSMS,v2.5.2,@+id/compose_reply_text$,3099,0.23644209956709958,4,3.25,0.4826988636363636,0,-0.41800000000000015,0
com.moez.QKSMS,v2.5.2,@+id/loading_text$,3108,0.24226866883116882,2,3.0,0.47824675324675325,0,-0.6680000000000001,0
com.moez.QKSMS,v2.5.2,@+id/loading_text$,3104,0.20203168044077136,2,1.5,0.37975206611570256,0,-2.168,0
com.moez.QKSMS,v2.5.2,@+id/loading_text$,3107,0.25,1,4.0,0.3,0,0.33199999999999985,0
com.moez.QKSMS,v2.5.2,@+id/loading_text$,3105,0.38333333333333336,1,5.0,0.6383928571428572,0,1.3319999999999999,0
com.moez.QKSMS,v2.5.2,@+id/loading_text$,3106,0.16,1,3.0,0.62,0,-0.6680000000000001,0
com.moez.QKSMS,v2.5.2,@+id/compose_view$,3111,0.284375,2,2.0,0.475,0,-1.6680000000000001,0
com.moez.QKSMS,v2.5.2,@+id/compose_view$,3113,-0.3847222222222222,2,1.0,0.7458333333333333,0,-2.668,0
com.moez.QKSMS,v2.5.2,@+id/compose_view$,3109,0.20016233766233765,2,4.0,0.4814935064935065,0,0.33199999999999985,0
com.moez.QKSMS,v2.5.2,@+id/compose_button_background$,3117,0.284375,1,2.0,0.475,0,-1.6680000000000001,0
com.moez.QKSMS,v2.5.2,@+id/compose_button_background$,3114,-0.3847222222222222,1,1.0,0.7458333333333333,0,-2.668,0
com.moez.QKSMS,v2.5.2,@+id/compose_button_background$,3118,0.395,1,2.0,0.665,0,-1.6680000000000001,0
com.moez.QKSMS,v2.5.2,@+id/compose_button_background$,3116,0.20016233766233765,1,4.0,0.4814935064935065,0,0.33199999999999985,0
com.moez.QKSMS,v2.5.2,@+id/widget_compose$,3120,0.033271705146705154,3,2.3333333333333335,0.5674422799422799,0,-1.3346666666666667,0
com.moez.QKSMS,v2.5.2,@+id/compose_recipients$,3127,0.24226866883116882,2,3.0,0.47824675324675325,0,-0.6680000000000001,0
com.moez.QKSMS,v2.5.2,@+id/compose_recipients$,3126,-0.3847222222222222,1,1.0,0.7458333333333333,0,-2.668,0
com.moez.QKSMS,v2.5.2,@+id/text_view$,3131,0.3338541666666667,2,3.5,0.5566964285714286,0,-0.16800000000000015,0
com.moez.QKSMS,v2.5.2,@+id/text_view$,3130,0.20097648563557655,2,3.0,0.5250442739079103,0,-0.6680000000000001,0
com.moez.QKSMS,v2.5.2,@+id/text_view$,3133,0.22613636363636364,2,2.5,0.24545454545454545,0,-1.1680000000000001,0
com.moez.QKSMS,v2.5.2,@+id/text_view$,3129,0.16,1,3.0,0.62,0,-0.6680000000000001,0
com.moez.QKSMS,v2.5.2,@+id/compose_letter_count$,3135,0.284375,1,2.0,0.475,0,-1.6680000000000001,0
com.moez.QKSMS,v2.5.2,@+id/compose_letter_count$,3137,-0.3847222222222222,1,1.0,0.7458333333333333,0,-2.668,0
com.moez.QKSMS,v2.5.2,@+id/compose_letter_count$,3134,0.20016233766233765,1,4.0,0.4814935064935065,0,0.33199999999999985,0
com.moez.QKSMS,v2.5.2,@+id/compose_view_stub$,3142,-0.0501736111111111,2,1.5,0.6104166666666666,0,-2.168,0
com.moez.QKSMS,v2.5.2,@+id/compose_view_stub$,3143,0.20016233766233765,1,4.0,0.4814935064935065,0,0.33199999999999985,0
com.moez.QKSMS,v2.5.2,@+id/welcome_indicator_2$,3147,0.284375,1,2.0,0.475,0,-1.6680000000000001,0
com.moez.QKSMS,v2.5.2,@+id/welcome_indicator_2$,3144,0.41250000000000003,1,3.0,0.5125000000000001,0,-0.6680000000000001,0
com.moez.QKSMS,v2.5.2,@+id/welcome_indicator_2$,3145,0.0,1,5.0,0.0,0,1.3319999999999999,0
com.moez.QKSMS,v2.5.2,@+id/search_name$,3149,0.15000000000000002,1,3.0,0.875,0,-0.6680000000000001,0
com.moez.QKSMS,v2.5.2,@+id/name$,3154,0.15000000000000002,2,3.0,0.875,0,-0.6680000000000001,0
com.moez.QKSMS,v2.5.2,@+id/welcome_start$welcome_start,3163,0.4,1,5.0,0.375,0,1.3319999999999999,0
com.moez.QKSMS,v2.5.2,@+id/welcome_start$welcome_start,3161,-0.019047619047619046,1,2.0,0.46190476190476193,0,-1.6680000000000001,0
com.moez.QKSMS,v2.5.2,@+id/welcome_start$welcome_start,3160,-0.06694444444444445,1,1.0,0.48055555555555557,0,-2.668,0
com.moez.QKSMS,v2.5.2,@+id/locked_indicator$,3166,0.22499999999999998,1,3.0,0.7833333333333333,0,-0.6680000000000001,0
com.moez.QKSMS,v2.5.2,@+id/locked_indicator$,3165,0.41250000000000003,1,3.0,0.5125000000000001,0,-0.6680000000000001,0
com.moez.QKSMS,v2.5.2,@+id/locked_indicator$,3164,0.2619047619047619,1,2.0,0.5238095238095238,0,-1.6680000000000001,0
com.moez.QKSMS,v2.5.2,@+id/btn_download_msg$download,3172,-0.019047619047619046,1,2.0,0.46190476190476193,0,-1.6680000000000001,0
com.moez.QKSMS,v2.5.2,@+id/btn_download_msg$download,3171,0.2953125,1,5.0,0.5218750000000001,0,1.3319999999999999,0
com.moez.QKSMS,v2.5.2,@+id/play_slideshow_button$,3176,0.2333333333333333,1,4.0,0.3666666666666667,0,0.33199999999999985,0
com.moez.QKSMS,v2.5.2,@+id/play_slideshow_button$,3175,0.395,1,2.0,0.665,0,-1.6680000000000001,0
com.moez.QKSMS,v2.5.2,@+id/out_2$And another!,3182,0.34152777777777776,2,3.0,0.4652777777777778,0,-0.6680000000000001,0
com.moez.QKSMS,v2.5.2,@+id/out_2$And another!,3181,0.2619047619047619,1,2.0,0.5238095238095238,0,-1.6680000000000001,0
com.moez.QKSMS,v2.5.2,@+id/sliding_menu$,3184,0.2265625,2,3.5,0.3458333333333333,0,-0.16800000000000015,0
com.moez.QKSMS,v2.5.2,@+id/sliding_menu$,3187,0.04166666666666667,1,1.0,0.19666666666666668,0,-2.668,0
com.moez.QKSMS,v2.5.2,@+id/slide_view$,3192,0.16493055555555555,3,2.6666666666666665,0.2961111111111111,0,-1.0013333333333336,0
com.moez.QKSMS,v2.5.2,@+id/welcome_themes$,3197,0.2953125,1,5.0,0.5218750000000001,0,1.3319999999999999,0
com.moez.QKSMS,v2.5.2,@+id/welcome_themes$,3195,-0.09375,1,4.0,0.25,0,0.33199999999999985,0
com.moez.QKSMS,v2.5.2,@string/welcome_theme_description$,3202,0.2953125,1,5.0,0.5218750000000001,0,1.3319999999999999,0
com.moez.QKSMS,v2.5.2,@string/welcome_theme_description$,3203,-0.09375,1,4.0,0.25,0,0.33199999999999985,0
com.moez.QKSMS,v2.5.2,@+id/welcome_previous$,3204,-0.23702380952380947,1,1.0,0.4119047619047619,0,-2.668,0
com.moez.QKSMS,v2.5.2,@+id/welcome_previous$,3206,0.04166666666666667,1,1.0,0.19666666666666668,0,-2.668,0
com.moez.QKSMS,v2.5.2,@+id/welcome_next$,3209,0.20227272727272724,1,1.0,0.19090909090909092,0,-2.668,0
com.moez.QKSMS,v2.5.2,@+id/welcome_next$,3210,0.13333333333333333,1,4.0,0.3666666666666667,0,0.33199999999999985,0
com.moez.QKSMS,v2.5.2,@+id/response_index$,3217,-0.07777777777777777,1,2.0,0.7333333333333334,0,-1.6680000000000001,0
com.moez.QKSMS,v2.5.2,@+id/response$,3221,-0.07777777777777777,1,2.0,0.7333333333333334,0,-1.6680000000000001,0
com.moez.QKSMS,v2.5.2,@+id/buttonNegative$,3225,0.395,1,2.0,0.665,0,-1.6680000000000001,0
com.moez.QKSMS,v2.5.2,@+id/image_view$,3232,0.395,1,2.0,0.665,0,-1.6680000000000001,0
com.moez.QKSMS,v2.5.2,@+id/buttonPositive$,3236,0.395,1,2.0,0.665,0,-1.6680000000000001,0
com.moez.QKSMS,v2.5.2,@+id/buttonNeutral$,3239,0.395,1,2.0,0.665,0,-1.6680000000000001,0
com.moez.QKSMS,v2.5.2,@+id/welcome_indicator_0$,3247,0.41250000000000003,1,3.0,0.5125000000000001,0,-0.6680000000000001,0
com.moez.QKSMS,v2.5.2,@+id/indicator$,3252,0.41250000000000003,1,3.0,0.5125000000000001,0,-0.6680000000000001,0
com.moez.QKSMS,v2.5.2,@+id/delivered_indicator$,3257,0.41250000000000003,1,3.0,0.5125000000000001,0,-0.6680000000000001,0
com.moez.QKSMS,v2.5.2,@+id/welcome_indicator_1$,3260,0.41250000000000003,1,3.0,0.5125000000000001,0,-0.6680000000000001,0
com.moez.QKSMS,v2.5.2,@+id/details_indicator$,3266,0.41250000000000003,1,3.0,0.5125000000000001,0,-0.6680000000000001,0
com.moez.QKSMS,v2.5.2,@+id/muted$,3269,0.16,1,3.0,0.62,0,-0.6680000000000001,0
