package,release ID,UI element,related topic,average polarity,# reviews,average rating,average objectivity,# uninstalls,delta rating,element deleted next release
com.moez.QKSMS,v2.2.4,@string/dialog_conversation_details_last_message_date$,4956,0.18119897959183673,7,2.7142857142857144,0.4845493197278911,0,-1.0344580043072504,0
com.moez.QKSMS,v2.2.4,@string/dialog_conversation_details_last_message_date$,4957,0.3531539987789988,13,3.923076923076923,0.41938304217150374,0,0.17433320448395806,0
com.moez.QKSMS,v2.2.4,@string/dialog_conversation_details_last_message_date$,4958,0.2989285714285714,7,4.0,0.5620238095238095,0,0.25125628140703515,0
com.moez.QKSMS,v2.2.4,@string/dialog_conversation_details_last_message_date$,4955,0.10914965986394558,7,3.857142857142857,0.5254761904761904,0,0.10839913854989236,0
com.moez.QKSMS,v2.2.4,"@+id/in_2$Don't worry, this isn't a real message. We're just showing you how your chats will look!",4965,0.31366071428571424,13,3.6923076923076925,0.5367258382642998,0,-0.056436026285272334,0
com.moez.QKSMS,v2.2.4,"@+id/in_2$Don't worry, this isn't a real message. We're just showing you how your chats will look!",4962,0.17798776455026455,6,3.6666666666666665,0.4294246031746032,0,-0.08207705192629833,0
com.moez.QKSMS,v2.2.4,"@+id/in_2$Don't worry, this isn't a real message. We're just showing you how your chats will look!",4960,0.17583774250440917,9,3.888888888888889,0.5474691358024691,0,0.140145170295924,0
com.moez.QKSMS,v2.2.4,"@+id/in_2$Don't worry, this isn't a real message. We're just showing you how your chats will look!",4961,0.1900257936507937,10,3.2,0.40319246031746026,0,-0.5487437185929647,0
com.moez.QKSMS,v2.2.4,"@+id/in_2$Don't worry, this isn't a real message. We're just showing you how your chats will look!",4964,0.7124999999999999,2,4.5,0.41875000000000007,0,0.7512562814070352,0
com.moez.QKSMS,v2.2.4,@string/hint_no_messages$,4969,0.3841666666666667,6,3.8333333333333335,0.4572222222222222,0,0.08458961474036863,0
com.moez.QKSMS,v2.2.4,@string/hint_no_messages$,4968,0.19564285714285717,10,4.2,0.5299816849816851,0,0.45125628140703533,0
com.moez.QKSMS,v2.2.4,@string/hint_no_messages$,4970,0.12421296296296297,3,3.6666666666666665,0.5136574074074074,0,-0.08207705192629833,0
com.moez.QKSMS,v2.2.4,@string/hint_no_messages$,4966,0.28428571428571425,7,3.5714285714285716,0.3976360544217687,0,-0.17731514716439323,0
com.moez.QKSMS,v2.2.4,@string/hint_no_messages$,4967,0.18463541666666666,4,2.5,0.3880208333333333,0,-1.2487437185929648,0
com.moez.QKSMS,v2.2.4,@string/dialog_conversation_details_message_count$,4973,0.21789399092970527,7,2.857142857142857,0.43670351473922897,0,-0.8916008614501076,0
com.moez.QKSMS,v2.2.4,@string/dialog_conversation_details_message_count$,4974,0.27349867724867727,18,4.0,0.5012398249898251,0,0.25125628140703515,0
com.moez.QKSMS,v2.2.4,@string/dialog_conversation_details_message_count$,4975,0.2869791666666667,4,3.0,0.5078125,0,-0.7487437185929648,0
com.moez.QKSMS,v2.2.4,@string/dialog_conversation_details_message_count$,4972,0.21119791666666665,4,4.0,0.40520833333333334,0,0.25125628140703515,0
com.moez.QKSMS,v2.2.4,@string/dialog_conversation_details_message_count$,4971,0.275,1,5.0,0.7250000000000001,0,1.2512562814070352,0
com.moez.QKSMS,v2.2.4,@+id/message_count$,4978,0.21400974025974023,11,3.0,0.4293344155844156,0,-0.7487437185929648,0
com.moez.QKSMS,v2.2.4,@+id/message_count$,4976,0.33076955782312917,7,4.285714285714286,0.5459262166405024,0,0.5369705671213207,0
com.moez.QKSMS,v2.2.4,@+id/message_count$,4980,0.1111111111111111,3,4.0,0.4361111111111111,0,0.25125628140703515,0
com.moez.QKSMS,v2.2.4,@+id/message_count$,4977,0.1519563492063492,5,3.6,0.42343253968253974,0,-0.14874371859296476,0
com.moez.QKSMS,v2.2.4,@+id/message_count$,4979,0.4,4,4.5,0.48750000000000004,0,0.7512562814070352,0
com.moez.QKSMS,v2.2.4,@+id/message$,4983,0.19847817460317463,10,3.4,0.4222098595848596,0,-0.34874371859296494,0
com.moez.QKSMS,v2.2.4,@+id/message$,4982,0.177390873015873,6,3.6666666666666665,0.5253273809523811,0,-0.08207705192629833,0
com.moez.QKSMS,v2.2.4,@+id/message$,4981,0.215625,4,3.25,0.5125,0,-0.49874371859296485,0
com.moez.QKSMS,v2.2.4,@+id/message$,4984,0.3821428571428571,5,4.6,0.4833333333333334,0,0.8512562814070348,0
com.moez.QKSMS,v2.2.4,@+id/message$,4985,0.3080535714285714,5,3.8,0.4157857142857143,0,0.051256281407034976,0
com.moez.QKSMS,v2.2.4,@string/app_name$,4993,-0.125,2,2.0,0.3,0,-1.7487437185929648,0
com.moez.QKSMS,v2.2.4,@string/app_name$,4990,0.32771440972222227,16,3.625,0.4547420634920635,0,-0.12374371859296485,0
com.moez.QKSMS,v2.2.4,@string/app_name$,4994,0.3691964285714286,6,4.5,0.624702380952381,0,0.7512562814070352,0
com.moez.QKSMS,v2.2.4,@string/app_name$,4992,0.27394655257936507,16,4.0,0.5387546741452992,0,0.25125628140703515,0
com.moez.QKSMS,v2.2.4,@string/app_name$,4986,0.2005871212121212,4,2.75,0.5482070707070708,0,-0.9987437185929648,0
com.moez.QKSMS,v2.2.4,@string/app_name$,4987,0.3130208333333333,4,4.25,0.7369791666666666,0,0.5012562814070352,0
com.moez.QKSMS,v2.2.4,@string/app_name$,4988,0.2666507936507937,5,4.0,0.25323809523809526,0,0.25125628140703515,0
com.moez.QKSMS,v2.2.4,@string/app_name$,4989,0.153125,1,4.0,0.5625,0,0.25125628140703515,0
com.moez.QKSMS,v2.2.4,@string/app_name$,4991,0.22666666666666666,3,3.6666666666666665,0.6344444444444445,0,-0.08207705192629833,0
com.moez.QKSMS,v2.2.4,"@+id/out_1$Sweet, here's an outgoing message",4996,-0.02113095238095239,4,2.5,0.2970238095238095,0,-1.2487437185929648,0
com.moez.QKSMS,v2.2.4,"@+id/out_1$Sweet, here's an outgoing message",4997,0.26243480725623586,7,3.857142857142857,0.5504109977324264,0,0.10839913854989236,0
com.moez.QKSMS,v2.2.4,"@+id/out_1$Sweet, here's an outgoing message",4999,0.12279166666666667,5,4.2,0.4208333333333334,0,0.45125628140703533,0
com.moez.QKSMS,v2.2.4,"@+id/out_1$Sweet, here's an outgoing message",4998,0.2830357142857143,6,4.0,0.5717948717948719,0,0.25125628140703515,0
com.moez.QKSMS,v2.2.4,"@+id/out_1$Sweet, here's an outgoing message",4995,0.4122395833333333,8,3.625,0.41796874999999994,0,-0.12374371859296485,0
com.moez.QKSMS,v2.2.4,@+id/popup_messages$,5002,0.3530793650793651,10,3.5,0.464686507936508,0,-0.24874371859296485,0
com.moez.QKSMS,v2.2.4,@+id/popup_messages$,5003,0.22396825396825396,6,3.6666666666666665,0.4882539682539682,0,-0.08207705192629833,0
com.moez.QKSMS,v2.2.4,@+id/popup_messages$,5000,0.21321759259259263,9,3.7777777777777777,0.48601139601139604,0,0.029034059184812833,0
com.moez.QKSMS,v2.2.4,@+id/popup_messages$,5001,0.09166666666666665,2,3.5,0.5458333333333333,0,-0.24874371859296485,0
com.moez.QKSMS,v2.2.4,@+id/popup_messages$,5004,0.1964285714285714,4,4.25,0.37187499999999996,0,0.5012562814070352,0
com.moez.QKSMS,v2.2.4,@+id/contact_list_number$,5008,0.10892857142857142,1,5.0,0.6857142857142858,0,1.2512562814070352,0
com.moez.QKSMS,v2.2.4,@+id/contact_list_number$,5009,0.3821527777777778,3,4.333333333333333,0.5844444444444444,0,0.5845896147403682,0
com.moez.QKSMS,v2.2.4,@+id/contact_list_number$,5006,0.14739583333333334,2,2.5,0.5340277777777778,0,-1.2487437185929648,0
com.moez.QKSMS,v2.2.4,@+id/contact_list_number$,5005,0.36180555555555555,3,3.0,0.6631944444444444,0,-0.7487437185929648,0
com.moez.QKSMS,v2.2.4,@+id/contact_list_number$,5007,0.2829464285714286,2,3.5,0.5153869047619047,0,-0.24874371859296485,0
com.moez.QKSMS,v2.2.4,@+id/conversation_list_unread$,5013,0.1944642857142857,2,4.5,0.6478571428571429,0,0.7512562814070352,0
com.moez.QKSMS,v2.2.4,@+id/conversation_list_unread$,5012,0.16666666666666669,2,3.0,0.45833333333333337,0,-0.7487437185929648,0
com.moez.QKSMS,v2.2.4,@+id/conversation_list_unread$,5014,0.51,2,4.0,0.81,0,0.25125628140703515,0
com.moez.QKSMS,v2.2.4,@+id/empty_state_icon$,5015,0.11001984126984127,2,4.5,0.46369047619047626,0,0.7512562814070352,0
com.moez.QKSMS,v2.2.4,@+id/empty_state_icon$,5019,0.05568181818181818,1,3.0,0.45227272727272727,0,-0.7487437185929648,0
com.moez.QKSMS,v2.2.4,@+id/empty_state_icon$,5016,0.0,1,1.0,0.0,0,-2.748743718592965,0
com.moez.QKSMS,v2.2.4,@android:id/icon$,5022,0.10892857142857142,1,5.0,0.6857142857142858,0,1.2512562814070352,0
com.moez.QKSMS,v2.2.4,@android:id/icon$,5024,0.05568181818181818,1,3.0,0.45227272727272727,0,-0.7487437185929648,0
com.moez.QKSMS,v2.2.4,@android:id/icon$,5021,0.0,1,1.0,0.0,0,-2.748743718592965,0
com.moez.QKSMS,v2.2.4,@+id/unread$,5028,0.10892857142857142,1,5.0,0.6857142857142858,0,1.2512562814070352,0
com.moez.QKSMS,v2.2.4,@+id/audio_icon$,5031,0.05446428571428571,2,3.0,0.3428571428571429,0,-0.7487437185929648,0
com.moez.QKSMS,v2.2.4,@+id/audio_icon$,5030,0.05568181818181818,1,3.0,0.45227272727272727,0,-0.7487437185929648,0
com.moez.QKSMS,v2.2.4,@+id/audio_icon$,5033,0.24,1,4.0,0.6500000000000001,0,0.25125628140703515,0
com.moez.QKSMS,v2.2.4,@+id/compose_letter_count$,5037,0.10892857142857142,1,5.0,0.6857142857142858,0,1.2512562814070352,0
com.moez.QKSMS,v2.2.4,@+id/contact_list_contact$,5043,0.2596369047619048,5,2.8,0.5164325396825398,0,-0.948743718592965,0
com.moez.QKSMS,v2.2.4,@+id/contact_list_contact$,5041,0.3385416666666667,3,4.0,0.6861111111111112,0,0.25125628140703515,0
com.moez.QKSMS,v2.2.4,@+id/contact_list_contact$,5040,0.38937499999999997,2,4.0,0.600625,0,0.25125628140703515,0
com.moez.QKSMS,v2.2.4,@+id/contact_list_type$,5046,0.3248611111111111,3,4.0,0.5448611111111111,0,0.25125628140703515,0
com.moez.QKSMS,v2.2.4,@+id/contact_list_type$,5045,0.29257936507936505,6,3.0,0.6185548941798942,0,-0.7487437185929648,0
com.moez.QKSMS,v2.2.4,@+id/contact_list_type$,5047,0.3625,1,4.0,0.49583333333333335,0,0.25125628140703515,0
com.moez.QKSMS,v2.2.4,@+id/color_picker_swatch$,5052,0.19583333333333333,1,4.0,0.43333333333333335,0,0.25125628140703515,0
com.moez.QKSMS,v2.2.4,@+id/color_picker_swatch$,5051,0.46875,1,4.0,0.68125,0,0.25125628140703515,0
com.moez.QKSMS,v2.2.4,@+id/contact_list_name$,5058,0.2529166666666666,2,4.0,0.4766666666666667,0,0.25125628140703515,0
com.moez.QKSMS,v2.2.4,@+id/contact_list_name$,5057,0.3347222222222222,3,3.0,0.6671296296296297,0,-0.7487437185929648,0
com.moez.QKSMS,v2.2.4,@+id/contact_list_name$,5055,0.37135416666666665,4,3.5,0.634375,0,-0.24874371859296485,0
com.moez.QKSMS,v2.2.4,@+id/contact_list_name$,5056,0.09714285714285714,1,3.0,0.34952380952380946,0,-0.7487437185929648,0
com.moez.QKSMS,v2.2.4,@+id/color_picker$,5064,0.19583333333333333,1,4.0,0.43333333333333335,0,0.25125628140703515,0
com.moez.QKSMS,v2.2.4,@+id/color_picker$,5060,0.46875,1,4.0,0.68125,0,0.25125628140703515,0
com.moez.QKSMS,v2.2.4,@+id/color_picker_checkmark$,5065,0.19583333333333333,1,4.0,0.43333333333333335,0,0.25125628140703515,0
com.moez.QKSMS,v2.2.4,@+id/color_picker_checkmark$,5068,0.46875,1,4.0,0.68125,0,0.25125628140703515,0
com.moez.QKSMS,v2.2.4,@+id/contact_list_contact_initial$,5070,0.33184523809523814,7,3.2857142857142856,0.639484126984127,0,-0.46302943287867926,0
com.moez.QKSMS,v2.2.4,@+id/contact_list_contact_initial$,5071,0.22982142857142857,2,3.5,0.4226785714285714,0,-0.24874371859296485,0
com.moez.QKSMS,v2.2.4,@+id/contact_list_contact_initial$,5074,0.30999999999999994,1,4.0,0.52,0,0.25125628140703515,0
com.moez.QKSMS,v2.2.4,@+id/starred_contacts$,5079,0.19583333333333333,1,4.0,0.43333333333333335,0,0.25125628140703515,0
com.moez.QKSMS,v2.2.4,@+id/starred_contacts$,5075,0.32541666666666663,5,3.0,0.6086111111111111,0,-0.7487437185929648,0
com.moez.QKSMS,v2.2.4,@+id/starred_contacts$,5077,0.2652380952380952,3,4.0,0.69,0,0.25125628140703515,0
com.moez.QKSMS,v2.2.4,@+id/starred_contacts$,5076,-0.3166666666666667,1,4.0,0.4666666666666666,0,0.25125628140703515,0
com.moez.QKSMS,v2.2.4,@+id/starred_contacts$,5078,0.22982142857142857,2,3.5,0.4226785714285714,0,-0.24874371859296485,0
com.moez.QKSMS,v2.2.4,@+id/compose_reply_text$,5082,0.07077741702741705,2,3.0,0.5372474747474747,0,-0.7487437185929648,0
com.moez.QKSMS,v2.2.4,@+id/compose_reply_text$,5084,0.18857142857142856,2,3.5,0.4797619047619048,0,-0.24874371859296485,0
com.moez.QKSMS,v2.2.4,@+id/loading_text$,5085,0.05568181818181818,1,3.0,0.45227272727272727,0,-0.7487437185929648,0
com.moez.QKSMS,v2.2.4,@+id/loading_text$,5089,0.27999999999999997,1,4.0,0.6100000000000001,0,0.25125628140703515,0
com.moez.QKSMS,v2.2.4,@+id/text_view$,5094,0.05568181818181818,1,3.0,0.45227272727272727,0,-0.7487437185929648,0
com.moez.QKSMS,v2.2.4,@+id/text_view$,5093,0.27999999999999997,1,4.0,0.6100000000000001,0,0.25125628140703515,0
com.moez.QKSMS,v2.2.4,@+id/welcome_start$welcome_start,5099,0.10000000000000002,1,4.0,0.48333333333333334,0,0.25125628140703515,0
com.moez.QKSMS,v2.2.4,@+id/header_background$,5100,0.30000000000000004,1,4.0,0.65,0,0.25125628140703515,0
com.moez.QKSMS,v2.2.4,@+id/header_background$,5101,0.30000000000000004,1,4.0,0.95,0,0.25125628140703515,0
com.moez.QKSMS,v2.2.4,@+id/compose_button_background$,5109,0.30000000000000004,1,4.0,0.65,0,0.25125628140703515,0
com.moez.QKSMS,v2.2.4,@+id/compose_button_background$,5108,0.30000000000000004,1,4.0,0.95,0,0.25125628140703515,0
com.moez.QKSMS,v2.2.4,@+id/welcome_themes$,5111,0.30000000000000004,1,4.0,0.65,0,0.25125628140703515,0
com.moez.QKSMS,v2.2.4,@+id/conversation_list_background$,5118,0.30000000000000004,2,4.0,0.8,0,0.25125628140703515,0
com.moez.QKSMS,v2.2.4,@+id/conversation_list_background$,5116,0.4225000000000001,2,3.5,0.6225,0,-0.24874371859296485,0
com.moez.QKSMS,v2.2.4,@+id/conversation_list_background$,5115,0.5,1,4.0,1.0,0,0.25125628140703515,0
com.moez.QKSMS,v2.2.4,@+id/conversation_list_background$,5119,0.27999999999999997,1,4.0,0.6100000000000001,0,0.25125628140703515,0
com.moez.QKSMS,v2.2.4,@+id/conversation_list_background$,5117,0.008333333333333338,1,3.0,0.2916666666666667,0,-0.7487437185929648,0
com.moez.QKSMS,v2.2.4,@+id/welcome_quickreply_title$welcome_theme_title,5121,0.30000000000000004,1,4.0,0.65,0,0.25125628140703515,0
com.moez.QKSMS,v2.2.4,@string/welcome_theme_description$,5126,0.30000000000000004,1,4.0,0.65,0,0.25125628140703515,0
com.moez.QKSMS,v2.2.4,@+id/mms_layout_view_stub$,5132,0.6666666666666666,1,5.0,0.5666666666666665,0,1.2512562814070352,0
com.moez.QKSMS,v2.2.4,@+id/mms_layout_view_stub$,5130,0.015972222222222224,1,3.0,0.19097222222222224,0,-0.7487437185929648,0
com.moez.QKSMS,v2.2.4,@+id/mms_layout_view_stub$,5131,-0.013928571428571433,2,3.0,0.4023809523809524,0,-0.7487437185929648,0
com.moez.QKSMS,v2.2.4,@+id/conversation_list_error$,5136,0.2844444444444445,3,3.3333333333333335,0.5122222222222222,0,-0.41541038525963137,0
com.moez.QKSMS,v2.2.4,@+id/conversation_list_error$,5138,0.22291666666666665,1,1.0,0.49375,0,-2.748743718592965,0
com.moez.QKSMS,v2.2.4,@+id/conversation_list_error$,5135,0.5,1,4.0,1.0,0,0.25125628140703515,0
com.moez.QKSMS,v2.2.4,@+id/conversation_list_error$,5139,0.27999999999999997,1,4.0,0.6100000000000001,0,0.25125628140703515,0
com.moez.QKSMS,v2.2.4,@string/donate_google$,5142,0.325,1,3.0,0.625,0,-0.7487437185929648,0
com.moez.QKSMS,v2.2.4,@+id/conversation_list$,5145,0.325,2,3.0,0.625,0,-0.7487437185929648,0
com.moez.QKSMS,v2.2.4,@+id/conversation_list$,5146,0.2627777777777778,6,3.6666666666666665,0.633888888888889,0,-0.08207705192629833,0
com.moez.QKSMS,v2.2.4,@+id/conversation_list$,5149,0.5200000000000001,2,4.0,0.62,0,0.25125628140703515,0
com.moez.QKSMS,v2.2.4,@string/donate_google_summary$,5152,0.325,1,3.0,0.625,0,-0.7487437185929648,0
com.moez.QKSMS,v2.2.4,@+id/conversation_list_name$,5155,0.325,1,3.0,0.625,0,-0.7487437185929648,0
com.moez.QKSMS,v2.2.4,@+id/conversation_list_name$,5159,0.39104166666666673,3,4.0,0.7275,0,0.25125628140703515,0
com.moez.QKSMS,v2.2.4,@+id/conversation_list_name$,5158,0.1600297619047619,2,2.0,0.42163690476190474,0,-1.7487437185929648,0
com.moez.QKSMS,v2.2.4,@+id/conversation_list_name$,5156,0.32125,2,4.0,0.5529166666666667,0,0.25125628140703515,0
com.moez.QKSMS,v2.2.4,@+id/conversation_list_name$,5157,0.008333333333333338,1,3.0,0.2916666666666667,0,-0.7487437185929648,0
com.moez.QKSMS,v2.2.4,@+id/conversation$,5162,0.3025,2,3.5,0.6175,0,-0.24874371859296485,0
com.moez.QKSMS,v2.2.4,@+id/conversation$,5160,0.5,1,4.0,1.0,0,0.25125628140703515,0
com.moez.QKSMS,v2.2.4,@+id/conversation$,5164,0.5200000000000001,1,4.0,0.62,0,0.25125628140703515,0
com.moez.QKSMS,v2.2.4,@+id/conversation$,5161,0.008333333333333338,1,3.0,0.2916666666666667,0,-0.7487437185929648,0
com.moez.QKSMS,v2.2.4,@+id/conversation_list_date$,5167,0.36833333333333335,3,3.6666666666666665,0.7450000000000001,0,-0.08207705192629833,0
com.moez.QKSMS,v2.2.4,@+id/conversation_list_date$,5165,0.5200000000000001,1,4.0,0.62,0,0.25125628140703515,0
com.moez.QKSMS,v2.2.4,@+id/conversation_list_date$,5166,0.008333333333333338,1,3.0,0.2916666666666667,0,-0.7487437185929648,0
com.moez.QKSMS,v2.2.4,@+id/conversation_list_snippet$,5172,0.16666666666666669,2,3.0,0.45833333333333337,0,-0.7487437185929648,0
com.moez.QKSMS,v2.2.4,@+id/conversation_list_snippet$,5170,0.5,1,4.0,1.0,0,0.25125628140703515,0
com.moez.QKSMS,v2.2.4,@+id/conversation_list_snippet$,5173,0.27999999999999997,1,4.0,0.6100000000000001,0,0.25125628140703515,0
com.moez.QKSMS,v2.2.4,@+id/conversation_list_snippet$,5171,0.5200000000000001,1,4.0,0.62,0,0.25125628140703515,0
com.moez.QKSMS,v2.2.4,@+id/conversation_list_avatar$,5176,0.4225000000000001,2,3.5,0.6225,0,-0.24874371859296485,1
com.moez.QKSMS,v2.2.4,@+id/conversation_list_avatar$,5178,0.5,1,4.0,1.0,0,0.25125628140703515,1
com.moez.QKSMS,v2.2.4,@+id/conversation_list_avatar$,5179,0.14416666666666667,2,3.5,0.4508333333333334,0,-0.24874371859296485,1
com.moez.QKSMS,v2.2.4,@+id/conversation_list_muted$,5181,0.36833333333333335,3,3.6666666666666665,0.7450000000000001,0,-0.08207705192629833,0
com.moez.QKSMS,v2.2.4,@+id/conversation_list_muted$,5180,0.2641666666666667,2,3.5,0.4558333333333333,0,-0.24874371859296485,0
com.moez.QKSMS,v2.2.4,@+id/recipients$dialog_conversation_details_recipients,5189,0.325,1,3.0,0.625,0,-0.7487437185929648,0
com.moez.QKSMS,v2.2.4,@+id/recipients$dialog_conversation_details_recipients,5187,0.39,2,4.0,0.805,0,0.25125628140703515,0
com.moez.QKSMS,v2.2.4,@+id/recipients$dialog_conversation_details_recipients,5188,0.5200000000000001,1,4.0,0.62,0,0.25125628140703515,0
com.moez.QKSMS,v2.2.4,@+id/recipients$dialog_conversation_details_recipients,5185,0.18541666666666667,2,3.5,0.39375000000000004,0,-0.24874371859296485,0
com.moez.QKSMS,v2.2.4,@+id/conversations_list$,5194,0.16666666666666669,2,3.0,0.45833333333333337,0,-0.7487437185929648,0
com.moez.QKSMS,v2.2.4,@+id/conversations_list$,5190,0.5,1,4.0,1.0,0,0.25125628140703515,0
com.moez.QKSMS,v2.2.4,@+id/conversations_list$,5193,0.27999999999999997,1,4.0,0.6100000000000001,0,0.25125628140703515,0
com.moez.QKSMS,v2.2.4,@+id/conversations_list$,5192,0.5200000000000001,1,4.0,0.62,0,0.25125628140703515,0
com.moez.QKSMS,v2.2.4,@+id/selected$,5195,0.14166666666666666,1,1.0,0.5055555555555556,0,-2.748743718592965,0
com.moez.QKSMS,v2.2.4,@+id/out_2$And another!,5203,0.5,1,3.0,0.625,0,-0.7487437185929648,0
com.moez.QKSMS,v2.2.4,@+id/out_2$And another!,5202,0.015972222222222224,1,3.0,0.19097222222222224,0,-0.7487437185929648,0
com.moez.QKSMS,v2.2.4,@+id/out_2$And another!,5204,0.42499999999999993,1,4.0,0.5375000000000001,0,0.25125628140703515,0
com.moez.QKSMS,v2.2.4,@+id/out_2$And another!,5201,0.5200000000000001,1,4.0,0.62,0,0.25125628140703515,0
com.moez.QKSMS,v2.2.4,@+id/camera$,5209,0.014722222222222222,1,5.0,0.6622222222222223,0,1.2512562814070352,0
com.moez.QKSMS,v2.2.4,@+id/camera$,5207,-0.5,1,2.0,0.5,0,-1.7487437185929648,0
com.moez.QKSMS,v2.2.4,@+id/search_name$,5212,0.2578125,2,4.0,0.5291666666666667,0,0.25125628140703515,0
com.moez.QKSMS,v2.2.4,@+id/search_name$,5211,0.1600297619047619,2,2.0,0.42163690476190474,0,-1.7487437185929648,0
com.moez.QKSMS,v2.2.4,@+id/search_name$,5210,0.5,1,4.0,1.0,0,0.25125628140703515,0
com.moez.QKSMS,v2.2.4,@string/product_name_donate_1$,5216,0.153125,1,4.0,0.5625,0,0.25125628140703515,0
com.moez.QKSMS,v2.2.4,@string/product_name_donate_1$,5217,0.29270833333333335,2,2.5,0.4947916666666667,0,-1.2487437185929648,0
com.moez.QKSMS,v2.2.4,@string/product_name_donate_1$,5219,0.09714285714285714,1,3.0,0.34952380952380946,0,-0.7487437185929648,0
com.moez.QKSMS,v2.2.4,@string/product_name_donate_1$,5215,0.5,1,4.0,1.0,0,0.25125628140703515,0
com.moez.QKSMS,v2.2.4,@string/product_name_donate_10$,5221,0.2578125,2,4.0,0.5291666666666667,0,0.25125628140703515,0
com.moez.QKSMS,v2.2.4,@string/product_name_donate_10$,5220,0.2733531746031746,3,2.6666666666666665,0.6144246031746031,0,-1.0820770519262983,0
com.moez.QKSMS,v2.2.4,@+id/name$,5229,0.3265625,4,4.0,0.78125,0,0.25125628140703515,0
com.moez.QKSMS,v2.2.4,@+id/name$,5225,0.22291666666666665,2,1.0,0.49375,0,-2.748743718592965,0
com.moez.QKSMS,v2.2.4,@+id/name$,5227,0.09714285714285714,2,3.0,0.34952380952380946,0,-0.7487437185929648,0
com.moez.QKSMS,v2.2.4,@+id/name$,5226,0.3625,2,4.0,0.49583333333333335,0,0.25125628140703515,0
com.moez.QKSMS,v2.2.4,@string/product_name_donate_5$,5233,0.30963541666666666,4,3.25,0.6380208333333333,0,-0.49874371859296485,0
com.moez.QKSMS,v2.2.4,@string/product_name_donate_5$,5234,-0.3166666666666667,1,4.0,0.4666666666666666,0,0.25125628140703515,0
com.moez.QKSMS,v2.2.4,@string/product_name_donate_5$,5231,0.09714285714285714,1,3.0,0.34952380952380946,0,-0.7487437185929648,0
com.moez.QKSMS,v2.2.4,@+id/error$,5235,0.22291666666666665,1,1.0,0.49375,0,-2.748743718592965,0
com.moez.QKSMS,v2.2.4,@+id/mms_downloading_view_stub$,5243,-0.003961640211640214,3,3.0,0.33191137566137563,0,-0.7487437185929648,0
com.moez.QKSMS,v2.2.4,@+id/image_view$,5248,0.29500000000000004,2,3.0,0.735,0,-0.7487437185929648,0
com.moez.QKSMS,v2.2.4,@+id/image_view$,5247,0.1,1,4.0,0.1,0,0.25125628140703515,0
com.moez.QKSMS,v2.2.4,@+id/image_view$,5245,0.1111111111111111,1,4.0,0.24166666666666667,0,0.25125628140703515,0
com.moez.QKSMS,v2.2.4,@+id/compose_button_bar_1$,5250,-0.3166666666666667,1,4.0,0.4666666666666666,0,0.25125628140703515,0
com.moez.QKSMS,v2.2.4,@+id/compose_button_bar_2$,5255,-0.3166666666666667,1,4.0,0.4666666666666666,0,0.25125628140703515,0
com.moez.QKSMS,v2.2.4,@string/product_description_donate_5$,5260,-0.3166666666666667,1,4.0,0.4666666666666666,0,0.25125628140703515,0
com.moez.QKSMS,v2.2.4,@+id/welcome_next$,5266,0.09714285714285714,1,3.0,0.34952380952380946,0,-0.7487437185929648,0
com.moez.QKSMS,v2.2.4,@+id/welcome_next$,5269,0.0,1,1.0,0.0,0,-2.748743718592965,0
com.moez.QKSMS,v2.2.4,@+id/list_item_subtitle$,5270,0.5,1,4.0,1.0,0,0.25125628140703515,0
com.moez.QKSMS,v2.2.4,@+id/list_item_title$,5275,0.5,1,4.0,1.0,0,0.25125628140703515,0
com.moez.QKSMS,v2.2.4,@+id/list_item_body$,5280,0.5,1,4.0,1.0,0,0.25125628140703515,0
com.moez.QKSMS,v2.2.4,@+id/search_list$,5285,0.5,1,4.0,1.0,0,0.25125628140703515,0
com.moez.QKSMS,v2.2.4,@+id/delay$,5293,0.42499999999999993,1,4.0,0.5375000000000001,0,0.25125628140703515,0
com.moez.QKSMS,v2.2.4,@+id/delay$,5290,0.5200000000000001,1,4.0,0.62,0,0.25125628140703515,0
com.moez.QKSMS,v2.2.4,@+id/play_slideshow_button$,5296,0.42499999999999993,1,4.0,0.5375000000000001,0,0.25125628140703515,0
com.moez.QKSMS,v2.2.4,@+id/play_slideshow_button$,5297,0.29,1,2.0,0.52,0,-1.7487437185929648,0
com.moez.QKSMS,v2.2.4,@+id/locked_indicator$,5300,0.42499999999999993,1,4.0,0.5375000000000001,0,0.25125628140703515,0
com.moez.QKSMS,v2.2.4,@+id/locked_indicator$,5303,0.04293650793650795,2,3.0,0.31111111111111106,0,-0.7487437185929648,0
com.moez.QKSMS,v2.2.4,@+id/delete_locked$delete_unlocked,5309,0.375,1,5.0,0.4,0,1.2512562814070352,0
com.moez.QKSMS,v2.2.4,@+id/welcome_night_description$welcome_night_description,5310,0.275,1,5.0,0.7250000000000001,0,1.2512562814070352,0
com.moez.QKSMS,v2.2.4,@+id/welcome_night_hint$welcome_night_hint,5315,0.275,1,5.0,0.7250000000000001,0,1.2512562814070352,0
com.moez.QKSMS,v2.2.4,@+id/welcome_night_title$pref_night,5320,0.275,1,5.0,0.7250000000000001,0,1.2512562814070352,0
com.moez.QKSMS,v2.2.4,@+id/sliding_menu$,5327,-0.017857142857142856,1,2.0,0.42142857142857143,0,-1.7487437185929648,0
com.moez.QKSMS,v2.2.4,@+id/slide_view$,5330,-0.017857142857142856,1,2.0,0.42142857142857143,0,-1.7487437185929648,0
com.moez.QKSMS,v2.2.4,@+id/attach$,5338,0.33624999999999994,2,4.0,0.5079166666666667,0,0.25125628140703515,0
com.moez.QKSMS,v2.2.4,@+id/details_indicator$,5342,0.3625,1,4.0,0.49583333333333335,0,0.25125628140703515,0
com.moez.QKSMS,v2.2.4,@+id/welcome_previous$,5345,0.008333333333333338,1,3.0,0.2916666666666667,0,-0.7487437185929648,0
