package,release ID,UI element,related topic,average polarity,# reviews,average rating,average objectivity,# uninstalls,delta rating,element deleted next release
com.moez.QKSMS,v2.5.4,@string/hint_no_messages$,2326,0.5,1,4.0,0.55,0,0.3308128544423439,0
com.moez.QKSMS,v2.5.4,@string/hint_no_messages$,2324,0.365952380952381,2,3.0,0.5059523809523809,0,-0.6691871455576561,0
com.moez.QKSMS,v2.5.4,@string/hint_no_messages$,2321,0.49583333333333335,2,3.0,0.4833333333333333,0,-0.6691871455576561,0
com.moez.QKSMS,v2.5.4,@string/hint_no_messages$,2327,1.0,1,5.0,0.3,0,1.3308128544423439,0
com.moez.QKSMS,v2.5.4,@+id/out_2$And another!,2333,0.5,1,4.0,0.55,0,0.3308128544423439,0
com.moez.QKSMS,v2.5.4,@+id/out_2$And another!,2336,0.4916666666666667,1,3.0,0.4666666666666666,0,-0.6691871455576561,0
com.moez.QKSMS,v2.5.4,@string/dialog_conversation_details_last_message_date$,2344,0.6066666666666667,3,3.3333333333333335,0.48333333333333334,0,-0.33585381222432265,0
com.moez.QKSMS,v2.5.4,@string/dialog_conversation_details_last_message_date$,2351,0.5,1,3.0,0.5,0,-0.6691871455576561,0
com.moez.QKSMS,v2.5.4,@string/dialog_conversation_details_last_message_date$,2339,0.0,1,3.0,0.0,0,-0.6691871455576561,0
com.moez.QKSMS,v2.5.4,@string/dialog_conversation_details_last_message_date$,2338,0.4916666666666667,1,3.0,0.4666666666666666,0,-0.6691871455576561,0
com.moez.QKSMS,v2.5.4,@string/dialog_conversation_details_last_message_date$,2347,0.41190476190476194,1,5.0,0.41190476190476194,0,1.3308128544423439,0
com.moez.QKSMS,v2.5.4,"@+id/in_2$Don't worry, this isn't a real message. We're just showing you how your chats will look!",2359,0.4106349206349207,3,3.3333333333333335,0.5206349206349207,0,-0.33585381222432265,0
com.moez.QKSMS,v2.5.4,"@+id/in_2$Don't worry, this isn't a real message. We're just showing you how your chats will look!",2361,0.5,1,3.0,0.5,0,-0.6691871455576561,0
com.moez.QKSMS,v2.5.4,"@+id/in_2$Don't worry, this isn't a real message. We're just showing you how your chats will look!",2354,0.0,1,3.0,0.0,0,-0.6691871455576561,0
com.moez.QKSMS,v2.5.4,"@+id/in_2$Don't worry, this isn't a real message. We're just showing you how your chats will look!",2357,0.9625,2,5.0,0.5875,0,1.3308128544423439,0
com.moez.QKSMS,v2.5.4,"@+id/in_2$Don't worry, this isn't a real message. We're just showing you how your chats will look!",2356,0.4916666666666667,1,3.0,0.4666666666666666,0,-0.6691871455576561,0
com.moez.QKSMS,v2.5.4,@string/dialog_conversation_details_message_count$,2373,0.5,1,4.0,0.55,0,0.3308128544423439,0
com.moez.QKSMS,v2.5.4,@string/dialog_conversation_details_message_count$,2379,0.365952380952381,2,3.0,0.5059523809523809,0,-0.6691871455576561,0
com.moez.QKSMS,v2.5.4,@string/dialog_conversation_details_message_count$,2377,0.5,1,3.0,0.5,0,-0.6691871455576561,0
com.moez.QKSMS,v2.5.4,@string/dialog_conversation_details_message_count$,2378,0.0,1,3.0,0.0,0,-0.6691871455576561,0
com.moez.QKSMS,v2.5.4,@string/dialog_conversation_details_message_count$,2371,1.0,1,5.0,0.3,0,1.3308128544423439,0
com.moez.QKSMS,v2.5.4,@string/dialog_conversation_details_message_count$,2383,0.4916666666666667,1,3.0,0.4666666666666666,0,-0.6691871455576561,0
com.moez.QKSMS,v2.5.4,@+id/message_count$,2392,0.5,2,3.5,0.525,0,-0.16918714555765613,0
com.moez.QKSMS,v2.5.4,@+id/message_count$,2396,0.32,1,1.0,0.6,0,-2.669187145557656,0
com.moez.QKSMS,v2.5.4,@+id/message_count$,2395,0.705952380952381,2,5.0,0.35595238095238096,0,1.3308128544423439,0
com.moez.QKSMS,v2.5.4,@+id/message_count$,2390,0.4916666666666667,1,3.0,0.4666666666666666,0,-0.6691871455576561,0
com.moez.QKSMS,v2.5.4,@+id/message$,2409,0.5,1,4.0,0.55,0,0.3308128544423439,0
com.moez.QKSMS,v2.5.4,@+id/message$,2410,0.32,1,1.0,0.6,0,-2.669187145557656,0
com.moez.QKSMS,v2.5.4,@+id/message$,2400,0.75,2,4.0,0.4,0,0.3308128544423439,0
com.moez.QKSMS,v2.5.4,@+id/message$,2406,0.4916666666666667,1,3.0,0.4666666666666666,0,-0.6691871455576561,0
com.moez.QKSMS,v2.5.4,@+id/message$,2403,0.41190476190476194,1,5.0,0.41190476190476194,0,1.3308128544423439,0
com.moez.QKSMS,v2.5.4,"@+id/out_1$Sweet, here's an outgoing message",2418,0.41000000000000003,2,2.5,0.575,0,-1.1691871455576561,0
com.moez.QKSMS,v2.5.4,"@+id/out_1$Sweet, here's an outgoing message",2414,0.75,2,4.0,0.4,0,0.3308128544423439,0
com.moez.QKSMS,v2.5.4,"@+id/out_1$Sweet, here's an outgoing message",2422,0.4916666666666667,1,3.0,0.4666666666666666,0,-0.6691871455576561,0
com.moez.QKSMS,v2.5.4,"@+id/out_1$Sweet, here's an outgoing message",2413,0.41190476190476194,1,5.0,0.41190476190476194,0,1.3308128544423439,0
com.moez.QKSMS,v2.5.4,@+id/popup_messages$,2433,0.5,1,4.0,0.55,0,0.3308128544423439,0
com.moez.QKSMS,v2.5.4,@+id/popup_messages$,2434,0.32,1,1.0,0.6,0,-2.669187145557656,0
com.moez.QKSMS,v2.5.4,@+id/popup_messages$,2424,0.6373015873015874,3,4.333333333333333,0.40396825396825403,0,0.6641461877756769,0
com.moez.QKSMS,v2.5.4,@+id/popup_messages$,2427,0.4916666666666667,1,3.0,0.4666666666666666,0,-0.6691871455576561,0
com.moez.QKSMS,v2.5.4,@+id/welcome_start$welcome_start,2441,0.275,1,4.0,0.35,0,0.3308128544423439,0
com.moez.QKSMS,v2.5.4,@string/app_name$,2442,0.34479166666666666,4,3.5,0.5322916666666666,0,-0.16918714555765613,0
com.moez.QKSMS,v2.5.4,@string/app_name$,2452,0.365952380952381,2,3.0,0.5059523809523809,0,-0.6691871455576561,0
com.moez.QKSMS,v2.5.4,@string/app_name$,2460,0.6000000000000001,2,3.5,0.5625,1,-0.16918714555765613,0
com.moez.QKSMS,v2.5.4,@string/app_name$,2454,0.0,1,3.0,0.0,0,-0.6691871455576561,0
com.moez.QKSMS,v2.5.4,@string/app_name$,2462,1.0,1,5.0,0.3,0,1.3308128544423439,0
com.moez.QKSMS,v2.5.4,@string/app_name$,2465,0.1111111111111111,1,2.0,0.35555555555555557,0,-1.6691871455576561,0
com.moez.QKSMS,v2.5.4,@string/app_name$,2458,0.5625,2,5.0,0.5375,0,1.3308128544423439,0
com.moez.QKSMS,v2.5.4,@string/app_name$,2455,0.7000000000000001,1,5.0,0.8333333333333334,0,1.3308128544423439,0
com.moez.QKSMS,v2.5.4,@+id/mms_downloading_view_stub$,2467,0.2056818181818182,2,3.5,0.4022727272727272,0,-0.16918714555765613,0
com.moez.QKSMS,v2.5.4,@+id/compose_reply_text$,2473,0.32,1,1.0,0.6,0,-2.669187145557656,0
com.moez.QKSMS,v2.5.4,@+id/loading_text$,2477,0.32,1,1.0,0.6,0,-2.669187145557656,0
com.moez.QKSMS,v2.5.4,@+id/text_view$,2483,0.32,1,1.0,0.6,0,-2.669187145557656,0
com.moez.QKSMS,v2.5.4,@+id/locked_indicator$,2487,0.8,1,2.0,0.75,1,-1.6691871455576561,0
com.moez.QKSMS,v2.5.4,@+id/audio_icon$,2493,0.5,1,3.0,0.5,0,-0.6691871455576561,0
com.moez.QKSMS,v2.5.4,@+id/audio_icon$,2491,0.4,1,5.0,0.375,0,1.3308128544423439,0
com.moez.QKSMS,v2.5.4,@+id/contact_list_number$,2497,0.0,1,3.0,0.0,0,-0.6691871455576561,0
com.moez.QKSMS,v2.5.4,@+id/contact_list_number$,2500,0.5,1,5.0,0.875,0,1.3308128544423439,0
com.moez.QKSMS,v2.5.4,@+id/conversation_list_error$,2503,0.25,2,4.0,0.4375,0,0.3308128544423439,0
com.moez.QKSMS,v2.5.4,@+id/conversation_list$,2510,0.25,2,4.0,0.4375,0,0.3308128544423439,0
com.moez.QKSMS,v2.5.4,@+id/search_name$,2514,0.0,1,3.0,0.0,0,-0.6691871455576561,0
com.moez.QKSMS,v2.5.4,@+id/search_name$,2512,1.0,1,5.0,0.3,0,1.3308128544423439,0
com.moez.QKSMS,v2.5.4,@string/product_name_donate_1$,2519,0.0,1,3.0,0.0,0,-0.6691871455576561,0
com.moez.QKSMS,v2.5.4,@+id/contact_list_contact$,2522,0.25,2,4.0,0.4375,0,0.3308128544423439,0
com.moez.QKSMS,v2.5.4,@+id/contact_list_type$,2530,0.0,1,3.0,0.0,0,-0.6691871455576561,0
com.moez.QKSMS,v2.5.4,@+id/contact_list_type$,2527,0.5,1,5.0,0.875,0,1.3308128544423439,0
com.moez.QKSMS,v2.5.4,@+id/name$,2533,0.0,2,3.0,0.0,0,-0.6691871455576561,0
com.moez.QKSMS,v2.5.4,@+id/conversation_list_name$,2540,0.25,2,4.0,0.4375,0,0.3308128544423439,0
com.moez.QKSMS,v2.5.4,@+id/list_item_subtitle$,2541,0.0,1,3.0,0.0,0,-0.6691871455576561,0
com.moez.QKSMS,v2.5.4,@+id/list_item_subtitle$,2543,0.5,1,5.0,0.875,0,1.3308128544423439,0
com.moez.QKSMS,v2.5.4,@+id/conversation_list_unread$,2549,0.0,1,3.0,0.0,0,-0.6691871455576561,0
com.moez.QKSMS,v2.5.4,@+id/conversation_list_unread$,2546,0.5,1,5.0,0.875,0,1.3308128544423439,0
com.moez.QKSMS,v2.5.4,@+id/conversation$,2554,0.0,1,3.0,0.0,0,-0.6691871455576561,0
com.moez.QKSMS,v2.5.4,@+id/list_item_title$,2557,0.0,1,3.0,0.0,0,-0.6691871455576561,0
com.moez.QKSMS,v2.5.4,@+id/list_item_title$,2560,0.5,1,5.0,0.875,0,1.3308128544423439,0
com.moez.QKSMS,v2.5.4,@+id/list_item_body$,2564,0.0,1,3.0,0.0,0,-0.6691871455576561,0
com.moez.QKSMS,v2.5.4,@+id/list_item_body$,2565,0.5,1,5.0,0.875,0,1.3308128544423439,0
com.moez.QKSMS,v2.5.4,@+id/conversation_list_date$,2568,0.0,1,3.0,0.0,0,-0.6691871455576561,0
com.moez.QKSMS,v2.5.4,@+id/conversation_list_date$,2570,0.5,1,5.0,0.875,0,1.3308128544423439,0
com.moez.QKSMS,v2.5.4,@+id/contact_list_name$,2573,0.0,1,3.0,0.0,0,-0.6691871455576561,0
com.moez.QKSMS,v2.5.4,@+id/contact_list_name$,2571,0.5,1,5.0,0.875,0,1.3308128544423439,0
com.moez.QKSMS,v2.5.4,@+id/conversation_list_background$,2578,0.0,1,3.0,0.0,0,-0.6691871455576561,0
com.moez.QKSMS,v2.5.4,@+id/conversation_list_background$,2577,0.5,1,5.0,0.875,0,1.3308128544423439,0
com.moez.QKSMS,v2.5.4,@string/product_name_donate_10$,2585,0.0,1,3.0,0.0,0,-0.6691871455576561,0
com.moez.QKSMS,v2.5.4,@+id/conversation_list_snippet$,2587,0.0,1,3.0,0.0,0,-0.6691871455576561,0
com.moez.QKSMS,v2.5.4,@+id/conversation_list_snippet$,2589,0.5,1,5.0,0.875,0,1.3308128544423439,0
com.moez.QKSMS,v2.5.4,@+id/conversation_list_avatar$,2594,0.0,1,3.0,0.0,0,-0.6691871455576561,0
com.moez.QKSMS,v2.5.4,@+id/conversation_list_avatar$,2592,0.5,1,5.0,0.875,0,1.3308128544423439,0
com.moez.QKSMS,v2.5.4,@string/product_name_donate_5$,2599,0.0,1,3.0,0.0,0,-0.6691871455576561,0
com.moez.QKSMS,v2.5.4,@+id/contact_list_contact_initial$,2601,0.25,2,4.0,0.4375,0,0.3308128544423439,0
com.moez.QKSMS,v2.5.4,@+id/search_list$,2607,0.0,1,3.0,0.0,0,-0.6691871455576561,0
com.moez.QKSMS,v2.5.4,@+id/search_list$,2606,1.0,1,5.0,0.3,0,1.3308128544423439,0
com.moez.QKSMS,v2.5.4,@+id/search_list$,2608,0.5,1,5.0,0.875,0,1.3308128544423439,0
com.moez.QKSMS,v2.5.4,@+id/conversation_list_muted$,2611,0.0,1,3.0,0.0,0,-0.6691871455576561,0
com.moez.QKSMS,v2.5.4,@+id/conversation_list_muted$,2614,0.5,1,5.0,0.875,0,1.3308128544423439,0
com.moez.QKSMS,v2.5.4,@+id/recipients$dialog_conversation_details_recipients,2617,0.0,1,3.0,0.0,0,-0.6691871455576561,0
com.moez.QKSMS,v2.5.4,@+id/starred_contacts$,2625,0.0,1,3.0,0.0,0,-0.6691871455576561,0
com.moez.QKSMS,v2.5.4,@+id/starred_contacts$,2622,0.1875,1,2.0,0.6875,0,-1.6691871455576561,0
com.moez.QKSMS,v2.5.4,@+id/conversations_list$,2628,0.0,1,3.0,0.0,0,-0.6691871455576561,0
com.moez.QKSMS,v2.5.4,@+id/conversations_list$,2626,0.5,1,5.0,0.875,0,1.3308128544423439,0
com.moez.QKSMS,v2.5.4,@+id/search_avatar$,2635,1.0,1,5.0,0.3,0,1.3308128544423439,0
com.moez.QKSMS,v2.5.4,@+id/search_query$,2636,1.0,1,5.0,0.3,0,1.3308128544423439,0
com.moez.QKSMS,v2.5.4,@+id/search_snippet$,2641,1.0,1,5.0,0.3,0,1.3308128544423439,0
com.moez.QKSMS,v2.5.4,@+id/search_date$,2648,1.0,1,5.0,0.3,0,1.3308128544423439,0
com.moez.QKSMS,v2.5.4,@+id/welcome_indicator_2$,2651,0.1875,1,2.0,0.6875,0,-1.6691871455576561,0
com.moez.QKSMS,v2.5.4,@+id/sliding_menu$,2657,0.1111111111111111,1,2.0,0.35555555555555557,0,-1.6691871455576561,0
com.moez.QKSMS,v2.5.4,@+id/slide_view$,2665,0.1111111111111111,1,2.0,0.35555555555555557,0,-1.6691871455576561,0
com.moez.QKSMS,v2.5.4,@+id/color_picker_swatch$,2669,0.0,1,4.0,0.7,0,0.3308128544423439,0
com.moez.QKSMS,v2.5.4,@+id/welcome_themes$,2675,0.0,1,4.0,0.7,0,0.3308128544423439,0
com.moez.QKSMS,v2.5.4,@+id/welcome_themes$,2671,0.925,1,5.0,0.875,0,1.3308128544423439,0
com.moez.QKSMS,v2.5.4,@+id/welcome_quickreply_title$welcome_theme_title,2676,0.0,1,4.0,0.7,0,0.3308128544423439,0
com.moez.QKSMS,v2.5.4,@+id/welcome_quickreply_title$welcome_theme_title,2678,0.925,1,5.0,0.875,0,1.3308128544423439,0
com.moez.QKSMS,v2.5.4,@+id/color_picker$,2681,0.0,1,4.0,0.7,0,0.3308128544423439,0
com.moez.QKSMS,v2.5.4,@string/welcome_theme_description$,2688,0.0,1,4.0,0.7,0,0.3308128544423439,0
com.moez.QKSMS,v2.5.4,@string/welcome_theme_description$,2687,0.925,1,5.0,0.875,0,1.3308128544423439,0
com.moez.QKSMS,v2.5.4,@+id/color_picker_checkmark$,2695,0.0,1,4.0,0.7,0,0.3308128544423439,0
com.moez.QKSMS,v2.5.4,@+id/empty_state_icon$,2697,0.4,1,5.0,0.375,0,1.3308128544423439,0
com.moez.QKSMS,v2.5.4,@android:id/icon$,2702,0.4,1,5.0,0.375,0,1.3308128544423439,0
com.moez.QKSMS,v2.5.4,@+id/compose_icon$,2706,0.4,1,5.0,0.375,0,1.3308128544423439,0
