App,Store,App ID,Review ID,Country,Version,Rating,Date,Author,Subject,Body,Translated Subject,Translated Body
SysLog,Google Play,com.tortel.syslog,Z3A6QU9xcFRPRWRfY2FtOTlUbklOVUprSlcyM1R4eHhuZ2wxTWc4SndSZGlQRFR1djkwT2hXYVpqNUE1MzFxUGhrWVdlcVZMb1RVMzBrREhXVDN0X3pIcEcw,English,,1,2016-03-12,Ismael Barros²,Crashes,crash trying to see a live,,
SysLog,Google Play,com.tortel.syslog,Z3A6QU9xcFRPRV8xZEw1Y2JxSTNsSjVNRUtpNkVnOXNodlJseWNfR3QySVA5WVJoalBQcENuVGQ0aW00TGdEck0xM2NlZUF2X09kT3NDbHpWQS1JMUJnZ1pz,English,,1,2016-03-04,Athar Khan,Why no custom storage location,like other log this also doe not have option to set a folder to save all log file,,
