Topic Index 1,Topic Index 2,Topic Similarity
13,19,17.647058823529413
0,2,11.11111111111111
1,11,11.11111111111111
2,4,11.11111111111111
4,6,11.11111111111111
6,17,11.11111111111111
10,5,11.11111111111111
12,14,11.11111111111111
14,15,11.11111111111111
3,3,5.263157894736842
5,0,5.263157894736842
7,9,5.263157894736842
8,12,5.263157894736842
11,10,5.263157894736842
15,1,5.263157894736842
16,13,5.263157894736842
18,7,5.263157894736842
19,16,5.263157894736842
9,8,0.0
17,18,0.0
