Topic Index 1,Topic Index 2,Topic Similarity
0,1,11.11111111111111
2,8,11.11111111111111
15,18,11.11111111111111
17,0,11.11111111111111
1,6,5.263157894736842
3,2,5.263157894736842
4,12,5.263157894736842
5,7,5.263157894736842
6,19,5.263157894736842
7,11,5.263157894736842
8,4,5.263157894736842
9,15,5.263157894736842
10,9,5.263157894736842
14,10,5.263157894736842
11,3,0.0
12,5,0.0
13,13,0.0
16,14,0.0
18,16,0.0
19,17,0.0
