Topic Index 1,Topic Index 2,Topic Similarity
4,2,11.11111111111111
14,19,11.11111111111111
17,11,11.11111111111111
0,16,5.263157894736842
1,5,5.263157894736842
2,13,5.263157894736842
3,9,5.263157894736842
5,18,5.263157894736842
7,0,5.263157894736842
8,4,5.263157894736842
10,1,5.263157894736842
11,8,5.263157894736842
12,12,5.263157894736842
18,3,5.263157894736842
19,17,5.263157894736842
6,6,0.0
9,7,0.0
13,10,0.0
15,14,0.0
16,15,0.0
