App,Store,App ID,Review ID,Country,Version,Rating,Date,Author,Subject,Body,Translated Subject,Translated Body
Book Catalogue,Google Play,com.eleybourn.bookcatalogue,Z3A6QU9xcFRPR1JEb3hoQmpFQW5QYzN2Q0Q3ZkRHXzZINl9MNWVuWmJEb2JtTmpOLVZaMmZ1bUJJY2Rxb1E5V2ZfX1JUTzNCaDBxMGJia0g0SHRwYmF2b1E,English,,5,2013-03-14,Lee Bartholomew,Impressive but wish there was one thing I could do,Add my own cover if it's missing.  Since it uses googles goggles this should be easy to do.    Otherwise so far found one old school book with the wrong ISBN on the barcode  (oops) came up as a 2 and not 5.  But found it manually.  Tried doing this years ago on Office with Access XP.  had it set up with a modified cuecat that read barcodes.  But I had to type in everything.  and I own way more books than anything else. :P,,
Book Catalogue,Google Play,com.eleybourn.bookcatalogue,Z3A6QU9xcFRPR21IRVk3NlVEUE1HUy1panliV3hrdU1pczBQM19qZVd2bld5Y1ljdm9zMWVqU05MSWgyanA4cnNPMDhFTWx4NHdreGlfbWlHZUNib1I5dHc,English,,5,2013-03-12,Drake Garrison,Wow,Good app,,
Book Catalogue,Google Play,com.eleybourn.bookcatalogue,Z3A6QU9xcFRPR0RadTJORTY2bzZVUzh5Um1JUzNUUlZhbDhid0tidGotZUF1bzZZZTU0RG82cHZna1RaelpielZqNHJuZ0FXc0pjUkp0OFFGOWRYY2xoU3c,English,,4,2013-03-11,James Batchelor,Pretty good,"Compared apps: Codex Book Shelf and Book Catalogue side by side. Used same books for test. Codex was very very slow to bring back scanned results and then only brought a partial cover image. Book shelf was better but not very intuitive and only brought back b&amp;w cover image. Book catalogue was fast, full color and much more intuitive, although it has its share of confusing things. Also, wish it synced up to a website to keep and maintain library from multiple places.",,
Book Catalogue,Google Play,com.eleybourn.bookcatalogue,Z3A6QU9xcFRPRmpnNTlyVERjc3lXcEI3NGFabHR4ZXBzVG10bTlmdmtKdndjbUlmZjRCM3NXTnFPc0pTYWxLNEZVQ0J0ckNKZ2Q5dC1OVGNTQmpFMW10N3c,English,,2,2013-03-11,Magne Haugen,Doesn't find Norwegian books,"Looks like it only search at Amazon for ISBN codes, and do not find my books.",,
Book Catalogue,Google Play,com.eleybourn.bookcatalogue,Z3A6QU9xcFRPSEtnMzJMNHJWTnpjcEdpSGVpYUVYM2R5Tl9QaDhPV3pYV1c1eVhTblppZGNJajJvYm5weUJKMHBfSDJlYVAzY0lLcTJiOUZXYkZ6WDBZRWc,English,,4,2013-03-11,Cassandra Boughen,Good but missing one thing,"I am loving this app so far. Didn't get 5 stars as it is missing the ability to search just the author. Atm you need the title and author which sucks when you can't remember the exact title and inconvenient when you have a lot of books by the same author - type, add book, go back and repeat - type, add, back, type, add, etc. Sore fingers!",,
Book Catalogue,Google Play,com.eleybourn.bookcatalogue,Z3A6QU9xcFRPRnpxWFloQ1BJNUN6anJKU29pNTlFSHM0VzJsMGJod3NZeTFNeTFObkU2UVV2SUtObS12Ui1xYlhxZ2RCRDB1M2MyUHVEeUp1bFhsenhLLUE,English,,5,2013-03-09,Andy Schoenhofer,Well-thought-out app,Samsung Galaxy Note 10.1  Scanning works great with google goggles app.,,
Book Catalogue,Google Play,com.eleybourn.bookcatalogue,bGc6QU9xcFRPRU42LVBZVEhFNXN2RUNURGtPTkQzY25HUU95QlNfekxGdVFWWDF1ckxFRzNBTS03M2FsS3dtWENrUENyMnBLMzhtQ3BqeTNmSlZWZnB0NHc,English,,5,2013-03-04,A Google User,Email us with bugs; help us improve the app,"If you lose data on upgrade, send us an email. It is almost always fixable, but only if you tell us.   In response to Roger King's question: THIS IS SO THAT WE CAN GET THE NECESSARY INFORMATION TO HELP YOU RECOVER YOUR OWN DATA.   Bug reports in reviews almost never carry enough information to help fix or mitigate the bug.",,
Book Catalogue,Google Play,com.eleybourn.bookcatalogue,Z3A6QU9xcFRPSFE5bmdScnpDeEZlUFpWWTBVX04zMkZTRU5ub1FKalQxTjlIUXYxQnhWZGxvazFGTlJ5XzdnVktMQmZ1WXVzUEtUbjRpQ19mMVZtYVFXLXc,English,,1,2013-03-03,Roger King,What for,Can't remember what u read?,,
Book Catalogue,Google Play,com.eleybourn.bookcatalogue,Z3A6QU9xcFRPRkpHck5HTVBrclBKb3lkRmRVTzFwcWxqTFJDbVFUcDk1cU9kMlYyTTBReFMzM25HTHpwS1J0UGR2MW9TeWZleDZvM2FsdGh5bnBScFV6Y2c,English,,3,2013-03-02,Tracey Walton,Lost my whole library,The last update lost my library. Wiped the data off my phone and synced with goodreads. Everything is gone.,,
Book Catalogue,Google Play,com.eleybourn.bookcatalogue,Z3A6QU9xcFRPRXFFTWRiaXdiYTdpV0FZMkZiNjVnY2toMk81amptcUtxemtCZzhlSm44VUMwMmJBemdfMWVuRlJlWjh0RXhISVlIa2FCb0JRNFZOWVlVOHc,English,,5,2013-03-01,sumit anitanjaya,Nice,Good app,,
Book Catalogue,Google Play,com.eleybourn.bookcatalogue,Z3A6QU9xcFRPRkJGT0pJUTJHM0Z0VmJacXE3MVJnRTBIc2FJNmV5NkZzR3JqTVpZdFllMDBzY3AzYm5aS3g0bmtVRlhEdXlUZ00wTFhCZzZRa0NITXc4RlE,French,,5,2013-03-16,lea chatelaine,très bonne appli,même si l'interface n'est pas très jolie j'aime la possibilité de créer plusieurs bib il manque juste à mon bonheur une fiche auteur  merci pour votre travail,,
Book Catalogue,Google Play,com.eleybourn.bookcatalogue,Z3A6QU9xcFRPRlJjZ2piVU92RlU1THBwQlRvZUZUUC1LeDhkMnhMYjBPWWNkeTNteUltdlBRNWRZcnFSZmpWVU9ENEVPYnk1NGxIemo1MmJNUl82TUNRQ3c,Chinese (Simplified),,3,2013-03-08,JEFF lou,中文支持不好,Isbn查不到书,,
