# deletions,date,commit message
51,2013/9/12,tweak styles
1,2013/9/12,tweak french strings
3,2013/9/12,Support Fahrenheit and Kelvin Unit(bis)
40,2013/9/12,Support Fahrenheit and Kelvin Unit
3,2013/9/12,Add french strings
