but 3 star for the ugliest icon,b,2014-05-03,Nirman Sarkar,3
great quick reminder of installed,b,2014-05-01,Big D Velo,5
tediously check 400 listing,b,2014-04-25,Greg Zeng,1
they are kidding u,f,2014-04-25,Greg Zeng,1
still a hideous icon,b,2014-04-24,Jay Raja,4
put on screen title,o,2014-04-24,Ahmad Sam,5
,o,2014-04-24,Ahmad Sam,5
,o,2014-04-24,Ahmad Sam,5
