App,Store,App ID,Review ID,Country,Version,Rating,Date,Author,Subject,Body,Translated Subject,Translated Body
Portal Timer,Google Play,de.ub0r.android.portaltimer,Z3A6QU9xcFRPRVp6QWRVbG9LcnhKS003U2hCOElkZTVSelFBNmF2TzFtcWhlU2s4Q0JvMDdiZTdwZEpzdWt5SnJoZHV1MFNLMEZqSFNRa2h3ZmhJZzFCaUxN,English,,5,2013-03-18,Рыжий Кот,Galaxy Nexus 4.2.2,"Отлично ! Именно то, что я и искал, 3 таймера, все они видны в баре и не сворачивают игру, тап по уведомлению в баре открывает всплывающее окно, которое тоже не вырубает сканер ингресса. Очень здорово, спасибо тебе, Автор !",,
Portal Timer,Google Play,de.ub0r.android.portaltimer,Z3A6QU9xcFRPRVNtTlhjM1k2RDFaNXpUTG5nV1lQNU8zdUVYR1hndmg0V014eHBHWm94ZGZLLXVnSzI3dWFWYS0tdFVPU0ctUUtOejJLdl90aHF5akN1elpR,Danish,,4,2013-03-10,Lars Vinder,Goood thinking,Simpel and works,,
Portal Timer,Google Play,de.ub0r.android.portaltimer,Z3A6QU9xcFRPRmpSZHdDS1NjM3VwR0VfSDNwWW1oM0IwUzJMOUJ3X0FMOUZTWHNlQ0FySTUyeTg4eTZSeW1TUVhyZWFOUXotQUY5cWF4bzVjQ1BuOTNlN21n,German,,5,2013-03-12,Daniel Bürger,Timer,Tut was es sollte und das gleich drei mal.  Schnellzugriff ist super.,,
Portal Timer,Google Play,de.ub0r.android.portaltimer,Z3A6QU9xcFRPSEtVMlVXalhNdjhZZGt5NGFtMFotSHA2NGhCRmtBR0VjWk9wMkFyTUV2bk90NlBnVHlyc2lGNF96QzdlZUgxY1Fab2NSeVNlcTZocHEtNFJJ,German,,5,2013-03-10,Malte Woelky,Perfekt und angenehm minimalistisch.,Tipp.,,
