Topic Index 1,Topic Index 2,Topic Similarity
6,1,11.11111111111111
7,10,11.11111111111111
9,4,11.11111111111111
11,3,11.11111111111111
12,0,11.11111111111111
13,2,11.11111111111111
15,5,11.11111111111111
16,13,11.11111111111111
0,6,5.263157894736842
2,11,5.263157894736842
3,7,5.263157894736842
5,9,5.263157894736842
8,14,5.263157894736842
14,17,5.263157894736842
18,8,5.263157894736842
19,15,5.263157894736842
1,12,0.0
4,16,0.0
10,18,0.0
17,19,0.0
