Topic Index 1,Topic Index 2,Topic Similarity
6,3,11.11111111111111
5,0,5.263157894736842
7,2,5.263157894736842
8,4,5.263157894736842
11,1,5.263157894736842
14,7,5.263157894736842
0,5,0.0
1,6,0.0
2,8,0.0
3,9,0.0
4,10,0.0
9,11,0.0
10,12,0.0
12,13,0.0
13,14,0.0
15,15,0.0
16,16,0.0
17,17,0.0
18,18,0.0
19,19,0.0
