# deletions,date,commit message
3,2015/2/08,Update changelog  Signed-off-by: Kevin Cernekee <cernekee@gmail.com>
16,2015/2/08,StatusFragment: Fix IPv6 address display  The status fragment never actually displayed IPv6 addresses correctly. Fix this and split server_name/ipv4/ipv6 into three separate lines since two of them can be relatively long strings.  fixes #2  Signed-off-by: Kevin Cernekee <cernekee@gmail.com>
2,2015/2/08,external: Don't try to commit binaries on "make refresh"  We don't store these in the repo anymore so it will just throw an error.  Signed-off-by: Kevin Cernekee <cernekee@gmail.com>
1,2015/2/08,external: Sync with openconnect rev 6dc7b0a6d514  Signed-off-by: Kevin Cernekee <cernekee@gmail.com>
1,2015/2/08,OpenConnectManagementThread: Send the mobile headers when appropriate  If the OS type in the profile is Android or iOS send the mobile headers so the gateway can set an appropriate idle timeout.  Signed-off-by: Kevin Cernekee <cernekee@gmail.com>
20,2015/2/08,README: Update build instructions  fixes #3  Signed-off-by: Kevin Cernekee <cernekee@gmail.com>
1,2015/2/07,OpenConnectManagementThread: Revert back to old SHA1 cert hash  Commit 948a60430ff5e0 ("Use new Java API to get peer cert") inadvertently changed the format of the certificate hash which would cause previously accepted certs to generate a new warning.  The new scheme only hashes a portion of the cert; the traditional cert fingerprint computes the SHA1 of the entire DER file.  So for now we will manually implement the latter scheme and preserve compatibility with existing stored hashes.  See also: http://thread.gmane.org/gmane.network.vpn.openconnect.devel/1956/focus=2113  Signed-off-by: Kevin Cernekee <cernekee@gmail.com>
3,2014/12/30,Update changelog and bump version to 1.10 (1109)  Signed-off-by: Kevin Cernekee <cernekee@gmail.com>
1,2014/12/30,external: Use -fPIE when linking  The gcc info page says:  For predictable results you must also specify the same set of options that were used to generate code (-fpie -fPIE or model suboptions) when you specify this option [-pie].  The output binary is exactly the same before and after making this change but it's probably a good idea to follow the rules anyhow.  Signed-off-by: Kevin Cernekee <cernekee@gmail.com>
2,2014/12/28,Update changelog and bump version to 1.10-beta1 (1101)  Signed-off-by: Kevin Cernekee <cernekee@gmail.com>
7,2014/12/28,OpenConnectManagementThread: Use run_pie to wrap curl on ICS  Now that curl is a PIE binary it won't run as-is on ICS.  Before connecting write out a wrapper script that either invokes curl-bin (a PIE ELF binary) directly or uses run_pie to execute it via dlopen().  fixes #1  Signed-off-by: Kevin Cernekee <cernekee@gmail.com>
1,2014/12/28,external: Build curl binary with -pie  We will use the run_pie helper from Chromium/OpenConnect to execute it on ICS.  JB+ can run PIE binaries without a helper.  Signed-off-by: Kevin Cernekee <cernekee@gmail.com>
5,2014/12/28,travis: Update to use NDK r10d; don't delete jar/so files  Signed-off-by: Kevin Cernekee <cernekee@gmail.com>
0,2014/12/28,Don't store prebuilt binaries in git  These are getting updated too often and bloating the repo.  Signed-off-by: Kevin Cernekee <cernekee@gmail.com>
1,2014/12/28,OpenConnectManagementThread: Use new Java API to get peer cert  getCertSHA1() has been replaced by getPeerCertHash().  Signed-off-by: Kevin Cernekee <cernekee@gmail.com>
3,2014/12/28,external: Update openconnect to v7.02+  This also provides the run_pie binary for running curl on ICS bumps NDK to r10d gets rid of the GCCVER override and pulls in the latest GnuTLS.  Signed-off-by: Kevin Cernekee <cernekee@gmail.com>
3,2014/12/28,external: Update stoken to v0.81  This allows us to drop tomcrypt and link against nettle instead.  Signed-off-by: Kevin Cernekee <cernekee@gmail.com>
0,2014/9/02,First attempt at a Google Play feature graphic  These are required for new APK uploads or store listing changes so let's toss something simple together for now and revisit later.  Signed-off-by: Kevin Cernekee <cernekee@gmail.com>
2,2014/9/02,Update changelog and bump version to 1.02-final (1029)  Signed-off-by: Kevin Cernekee <cernekee@gmail.com>
