App,Store,App ID,Review ID,Country,Version,Rating,Date,Author,Subject,Body,Translated Subject,Translated Body
OpenConnect,Google Play,app.openconnect,Z3A6QU9xcFRPSElmd1FCQ1ZYVVhOV1FBaEpSYmc3aWFFS19QR2FLd25KMGdVeHN5ckNtTHhwUUNyVXNsWWR1STVISWRqVTR4MkFHNTEwcXhKVjRKRkVlWFE,English,,5,2014-04-05,"",Great software!,"Easy use to connect the U's vpn. Cisco anyconnect failed, but this one works! Thanks! Recommendate to everyone.",,
OpenConnect,Google Play,app.openconnect,Z3A6QU9xcFRPRldpeEVyczRDTHZwTWV2WDlBQnhfWGdpeUd1eVVKUjlaaWExS24zUGxIWEN2My1tRy1IblhPV3FSM3NDTExDcFlwMG4zaFEtN2o2UmFYLWc,English,,5,2014-04-04,Nathan Jenko,"",This is probably the best Cisco client. Love it.,,
