Topic,Words
0,0.190*turns,0.115*an,0.099*my,0.088*tells,0.080*out,0.074*them,0.064*delete,0.060*wrong,0.057*expected,0.049*who
1,0.265*reminder,0.123*that,0.110*out,0.098*wrong,0.063*expected,0.057*is,0.048*them,0.047*who,0.044*me,0.042*my
2,0.155*my,0.086*an,0.077*expected,0.076*me,0.074*who,0.071*tells,0.061*a,0.038*reminder,0.038*its,0.038*them
3,0.108*of,0.098*delete,0.083*is,0.082*expected,0.067*my,0.060*me,0.055*them,0.053*i,0.052*an,0.051*who
4,0.189*me,0.153*of,0.085*that,0.083*stuff,0.073*reminder,0.068*expected,0.068*them,0.043*wrong,0.042*who,0.038*a
5,0.190*out,0.158*i,0.134*a,0.110*them,0.067*tells,0.045*reminder,0.044*that,0.043*stuff,0.039*wrong,0.032*who
6,0.244*stuff,0.126*out,0.109*my,0.076*wrong,0.074*tells,0.073*its,0.052*them,0.039*has,0.036*who,0.031*an
7,0.138*delete,0.122*a,0.116*expected,0.097*reminder,0.084*tells,0.057*my,0.054*out,0.051*them,0.049*has,0.042*an
8,0.235*tells,0.091*me,0.084*who,0.082*wrong,0.075*expected,0.067*that,0.067*a,0.061*delete,0.056*an,0.052*of
9,0.171*expected,0.126*them,0.095*its,0.091*that,0.088*turns,0.072*my,0.067*me,0.061*stuff,0.049*who,0.046*a
10,0.152*me,0.133*of,0.130*a,0.127*i,0.116*tells,0.099*reminder,0.081*my,0.034*an,0.021*delete,0.020*stuff
11,0.136*delete,0.122*a,0.116*out,0.085*me,0.076*an,0.074*has,0.070*stuff,0.066*them,0.059*turns,0.052*my
12,0.149*that,0.131*wrong,0.086*tells,0.086*is,0.081*me,0.069*has,0.067*a,0.065*stuff,0.050*turns,0.031*them
13,0.339*wrong,0.126*an,0.083*i,0.057*of,0.055*them,0.052*expected,0.051*has,0.044*its,0.032*is,0.032*stuff
14,0.219*i,0.181*expected,0.095*that,0.080*me,0.077*who,0.066*my,0.037*reminder,0.032*turns,0.031*of,0.027*out
15,0.137*me,0.120*expected,0.111*its,0.086*an,0.074*is,0.058*wrong,0.057*tells,0.054*that,0.046*has,0.043*a
16,0.182*them,0.139*has,0.124*who,0.075*out,0.064*delete,0.058*me,0.055*my,0.050*is,0.049*an,0.039*its
17,0.171*turns,0.141*delete,0.094*a,0.087*them,0.083*expected,0.074*out,0.058*who,0.040*me,0.039*tells,0.033*of
18,0.244*who,0.156*its,0.110*i,0.073*has,0.073*me,0.058*of,0.047*an,0.046*wrong,0.043*them,0.042*a
19,0.135*of,0.134*them,0.084*its,0.083*who,0.069*out,0.059*a,0.056*turns,0.054*that,0.049*expected,0.048*i
