# deletions,date,commit message
2,2016/2/03,version bump
536,2016/2/03,extend OverViewFragments from OverViewBaseFragment
12,2016/2/03,hide progress when fragment is not visible
3,2016/2/03,fixed action bar back button
