# deletions,date,commit message
766,2015/10/08,added auto night theme oragnized settings screen
5,2015/10/08,added option to disable database updates on mobile data
30,2015/10/07,added runtime permissions
