subtle animation,o,2013/12/11,,
icon in database are by default,b,2013/12/10,,
new code found,b,2013/12/09,,
update to send detail about the device,b,2013/12/09,,
move the class,o,2013/12/08,,
update database with icon,b,2013/12/07,,
minify the secret code representation,b,2013/12/07,,
add a contribute menu button to export data,f,2013/12/07,,
remove previous way of crawling for secret code,b,2013/12/07,,
update,b,2013/12/04,,
rename to,o,2013/12/04,,
bump version number,b,2013/11/13,,
removing the unnecessary dependency,o,2013/11/13,,
update support library and,b,2013/11/13,,
