developer is awesome in responding to issue and releasing update,1.8.0,2013-11-29,John Aronow,5
by limiting background activity on certain application this save my phone a lot of battery life and increase general phone performance,1.8.1,2014-10-02,Brent M,5
my phone is rooted say it not still broken update root fixed by back thank you for your hard work,1.8.1,2014-09-20,Terry Mickel,5
ha worked but stopped receiver for exchange service on account change because it force closing but it continues to,1.8.1,2014-09-07,ajpearce,3
guess it a bug,1.8.1,2014-09-07,ajpearce,3
this is a must have for anyone looking to make their phone run smoother and save battery life,1.8.1,2014-08-23,A Google User,5
root required,1.8.1,2014-08-23,A Google User,5
this is one of the first i install my phone,1.8.1,2014-08-20,Elspeth Murday,5
your phone will be faster and hold charge longer without all of the automated process add up over time,1.8.1,2014-08-20,Elspeth Murday,5
you would not believe how many of your start invisible background process to send your data home,1.8.1,2014-08-20,Elspeth Murday,5
i made change to service framework and cannot activate them anymore,1.8.1,2014-08-06,Luiz Demenicis,1
there must be a file in the card the change are written,1.8.1,2014-08-06,Luiz Demenicis,1
is irresponsible,1.8.1,2014-08-06,Luiz Demenicis,1
work fully for e,1.8.1,2014-07-24,HECKMO HECKMO,5
disabled continue running in the background,1.8.1,2014-05-20,Manjukiran S,2
need root,1.8.1,2014-05-13,A Google User,5
been using it for year and work every time,1.8.1,2014-04-04,James Maxwell,5
however upon the one i selected is disabled,1.8.1,2014-03-20,Top Cat,4
doe not seem to like c program a well,1.8.1,2014-03-20,Top Cat,4
well worth the purchase,1.8.1,2014-03-12,Jason Quire,5
take control of your phone by disabling continuously start for no reason in the background even if not in use,1.8.1,2014-03-06,A Google User,5
support,1.8.1,2014-02-08,Darwin Lau,5
this give great control and visibility to all the individual trigger start up in the background,1.8.1,2014-01-26,Joe Some-body,5
it may cause certain thing to stop functioning,1.8.1,2014-01-26,Joe Some-body,5
now faster,1.8.1,2013-12-23,David Polasek,5
the difference in speed make this a joy,1.8.1,2013-12-14,Kristopher Baker,5
you have email he is extremely happy to help solve issue with different device,1.8.1,2013-11-30,A Google User,5
root is granted but unable to deny from starting,1.9.0,2014-11-16,A Google User,3
can get root access,1.9.0,2014-11-16,Enrique Leon,1
cannot acquire please fix,1.9.0,2014-11-14,A Google User,1
this seems like a simple thing to fix,1.9.1,2014-12-15,Brian Chee,2
the latest two update no longer work on,1.9.1,2014-12-11,Howard B,2
it appears the latest update will no longer install on gingerbread 23 and is no longer visible in the play fix,1.9.1,2014-11-27,Marbieskarb Marks,4
root access ha disappeared,1.9.1,2014-11-20,Brad Denison,3
far everything work a expected,1.9.7,2017-03-14,Ryan,5
still crash latest update,1.9.7,2017-03-14,Roy,1
cannot handle a large number of installed,1.9.7,2017-03-14,Roy,1
this is the only startup manager that ha ever worked properly for me and it stopped working i got a pixel,1.9.7,2017-03-13,yosif c,5
i think the last update fixed it,1.9.7,2017-03-13,yosif c,5
no update in two plus year,1.9.7,2016-12-29,Daniel Richert,2
work great in marshmallow but fails in nougat,1.9.7,2016-12-20,,5
any chance of an update,1.9.7,2016-12-20,,5
it crash when reading the receiver list in every device is installed,1.9.7,2016-12-10,Rubens Furbetta,3
please fix your is too good to be crippled by such a bug,1.9.7,2016-12-10,Rubens Furbetta,3
also no way to make a program start at boot,1.9.7,2016-11-30,Jared Cooperband,1
main screen appears and then error and close,1.9.7,2016-11-28,Rob Husch,1
crash,1.9.7,2016-11-08,Pete Austin,1
change the criterion of start,1.9.7,2016-08-28,Paul Cheyne,5
work great with 4,1.9.7,2016-07-28,Reza Ameli,5
ha been given root access in latest version of,1.9.7,2016-07-25,Steven Gaskell,1
other require root work fine,1.9.7,2016-07-25,Steven Gaskell,1
i emailed developer but received no reply,1.9.7,2016-07-25,Steven Gaskell,1
i also tried it on my acer tablet run android 51 and guess what,1.9.7,2016-07-25,Steven Gaskell,1
need my root not work yet,1.9.7,2016-07-21,Albert Lu,1
crash loading application list,1.9.7,2016-07-11,Raistlin TAO,2
keep crashing loading,1.9.7,2016-07-05,Garreth Alvin Chan,1
and android n permission support,1.9.7,2016-07-03,Miguel Romero,2
crash few second,1.9.7,2016-06-28,Moshe Loterman,1
used to be a old but it no longer detects root permission,1.9.7,2016-06-12,Marvin Bernal,2
i have root,1.9.7,2016-06-07,,1
huge shame,1.9.7,2016-06-06,Joe Wigdor,1
unfortunately it no longer detects root on my galaxy with root 271 or 268,1.9.7,2016-05-02,Danny Lyons,2
two issue for me,1.9.7,2016-04-21,Mike Beaton,4
doe not work on recent device,1.9.7,2016-04-08,Daniel McGowan,1
root access running 51,1.9.7,2016-03-30,Brandon Cox,1
ha been given root permission but fails to see root and then doe not work at all,1.9.7,2016-03-30,Brandon Cox,1
better review it worked on 511 or newer,1.9.7,2016-03-18,Drew Campbell,3
please fix,1.9.7,2016-01-30,Christian Bautista,4
running 511,1.9.7,2016-01-12,A Google User,5
using this for past 3 it wa working perfectly,1.9.7,2015-11-15,JAKE BSDGEEK,3
recently updated my firmware to now all the time,1.9.7,2015-11-15,JAKE BSDGEEK,3
please fix,1.9.7,2015-11-15,JAKE BSDGEEK,3
any plan to support marshmallow,1.9.7,2015-11-12,Rod S,3
lg,1.9.7,2015-11-05,Matthew Ferguson,3
i have used this in the past with other phone but it seems to be broken with my running android 51,1.9.7,2015-11-05,Matthew Ferguson,3
i grant it permission but it spit back a toast about not having permission i try to disable an,1.9.7,2015-11-05,Matthew Ferguson,3
please fix,1.9.7,2015-11-05,Matthew Ferguson,3
please update,1.9.7,2015-10-04,Patrick W. Julius,3
crash constantly,1.9.7,2015-08-25,Dean Montero,1
unable to even open,1.9.7,2015-08-25,Dean Montero,1
refunded,1.9.7,2015-08-25,Dean Montero,1
used to work well but suddenly crash on galaxy,1.9.7,2015-08-23,Jisoo Lee,4
some do not appear in the list of but can be found via search bar only,1.9.7,2015-08-19,Anton Tkachev,4
please fix,1.9.7,2015-08-19,Anton Tkachev,4
fast scrolling in list cause freezing the,1.9.7,2015-08-03,Gejza Poda,1
no update for this error,1.9.7,2015-08-03,Gejza Poda,1
is working perfectly on all my other device though,1.9.7,2015-07-20,A Google User,1
crash every time,1.9.7,2015-06-23,Dave Griffiths,1
sort by 2,1.9.7,2015-06-21,Suprateeka R Hegde,4
3,1.9.7,2015-06-21,Suprateeka R Hegde,4
please fix,1.9.7,2015-06-19,Miroslav SVK,3
ha anyone experienced this lately,1.9.7,2015-06-12,Daniel Curiel,4
still the best autostart manager out there,1.9.7,2015-06-01,Aayush Dhuria,5
what more is there to it turn off from running,1.9.7,2015-04-16,A Google User,5
seems to do fine preventing from starting up automatically,1.9.7,2015-03-09,Joel Armstrong,4
let you disable from starting up running in background,1.9.7,2015-02-25,Joshua Charles Rucker,5
work system,1.9.7,2015-02-25,Joshua Charles Rucker,5
refunded,1.9.7,2015-02-19,Stephen Cooke,3
fixed new version work again s in 42,1.9.7,2014-12-18,Larry Kahn,5
