replace the view option dialog with a fragment,1.8.0,2013/4/08,,
one dialog is left need to be ported,1.8.0,2013/4/06,,
add support for build,1.8.0,2012/7/30,,
oops,1.8.0,2011/12/10,,
build use a manifest market will accept,1.8.0,2011/12/10,,
considerably reworked and improved build script,1.8.0,2011/12/09,,
various build script improvement,1.8.0,2011/12/09,,
no longer the can now read it from the manifest,1.8.0,2011/12/09,,
this is because in you would place a that is supposed to override the system one access to the system is not available,1.8.0,2011/12/09,,
updated locale,1.8.0,2011/4/23,,
updated translation,1.8.0,2011/4/22,,
added event from gingerbread and honeycomb to the list,1.8.0,2011/3/24,,
very basic only extends to using the proper theme,1.8.0,2011/3/24,,
various item,1.8.0,2011/3/22,,
the code ha been so both grouping mode can use it to initialize their item style,1.8.0,2011/3/22,,
added to toggle between the two grouping option,1.8.0,2011/3/22,,
use proper layout for row in both grouping mode,1.8.0,2011/3/22,,
is a bit to short for an request,1.8.0,2010/3/26,,
updated translation,1.8.0,2010/3/22,,
added a determined progress bar well,1.8.0,2010/2/10,,
build against 21,1.8.0,2010/2/09,,
this allows u to reference new 21 intent through the,1.8.0,2010/2/09,,
internally we now cleanly separate between the default enabled state of a component and the current state,1.8.0,2010/2/09,,
added to the build process,1.8.0,2009/9/22,,
release a new version,1.8.0,2009/9/22,,
let create a section for release,1.8.0,2009/7/22,,
removed unused import ended up there by accident,1.8.0,2009/7/14,,
slightly updated some event,1.8.0,2009/7/14,,
added item,1.8.0,2009/7/09,,
made item provide some info and feature,1.8.0,2009/6/26,,
slightly updated string,1.8.0,2009/6/26,,
increment version number,1.8.1,2013/11/21,,
increase list right padding for scrollbar,1.9.0,2014/11/07,,
move filter option to action bar,1.9.0,2014/11/07,,
use the android default theme,1.9.0,2014/11/07,,
target android 50 require at least 11,1.9.0,2014/11/07,,
inc version number,1.9.1,2014/11/08,,
prevent unnamed receiver from hiding,1.9.1,2014/11/08,,
add search feature,1.9.1,2014/11/08,,
rewrite access to use,1.9.5,2014/12/14,,
inc version number,1.9.7,2014/12/17,,
