Topic,Words
0,0.022*what,0.016*50,0.015*before,0.013*a,0.013*keeps,0.013*on,0.013*think,0.013*nothing,0.013*send,0.012*99
1,0.020*wouldn't,0.020*gladly,0.017*why,0.017*ideally,0.016*says,0.016*show,0.014*accord,0.013*must,0.012*before,0.012*buttons
2,0.019*limit,0.018*configuration,0.016*respond,0.016*see,0.015*sometimes,0.012*message,0.012*compatible,0.012*generic,0.012*seems,0.011*wondering
3,0.022*so,0.021*still,0.017*you,0.014*stars,0.014*an,0.012*middle,0.012*constantly,0.011*didn't,0.011*running,0.011*meta
4,0.018*loud,0.017*problem,0.016*may,0.016*but,0.014*used,0.012*tweaks,0.012*nothing,0.012*potential,0.012*longer,0.012*its
5,0.021*play,0.015*help,0.015*played,0.014*needed,0.013*android,0.013*capable,0.013*devices,0.013*won't,0.013*title,0.012*sure
6,0.020*watch,0.016*down,0.015*wouldn't,0.014*of,0.013*going,0.013*update,0.013*again,0.012*but,0.012*message,0.011*highly
7,0.022*middle,0.016*sends,0.016*making,0.014*stops,0.013*show,0.013*option,0.012*waiting,0.012*hit,0.011*be,0.011*fix
8,0.018*see,0.015*etc,0.014*neutron,0.014*or,0.013*feature,0.013*field,0.012*starts,0.012*full,0.012*please,0.012*capable
9,0.024*idea,0.023*installing,0.017*even,0.016*etc,0.015*making,0.013*right,0.013*should,0.012*won't,0.012*excellent,0.011*except
10,0.022*anything,0.020*middle,0.019*list,0.017*on,0.016*have,0.016*stock,0.016*so,0.014*generic,0.014*or,0.014*phones
11,0.025*if,0.024*attempting,0.017*tried,0.017*back,0.016*suggestion,0.015*5,0.015*says,0.014*wouldn't,0.013*is,0.013*has
12,0.035*everything,0.020*2011,0.020*please,0.016*stars,0.016*on,0.015*but,0.014*an,0.013*new,0.012*even,0.012*recommend
13,0.022*except,0.021*waiting,0.016*other,0.015*constantly,0.014*hitting,0.014*running,0.013*starts,0.013*again,0.012*using,0.011*radio
14,0.019*2010,0.017*problem,0.015*would,0.015*tweaks,0.014*useful,0.014*you,0.014*updating,0.014*except,0.013*symbol,0.013*combinations
15,0.026*text,0.022*needed,0.016*no,0.016*changing,0.015*though,0.014*even,0.014*a,0.013*while,0.013*devices,0.012*idea
16,0.020*back,0.019*99,0.018*good,0.017*no,0.015*into,0.014*devices,0.012*try,0.012*be,0.011*right,0.011*stops
17,0.022*43,0.019*still,0.015*tag,0.014*filters,0.014*got,0.012*fix,0.012*broke,0.012*buttons,0.012*best,0.011*characters
18,0.018*one,0.017*galaxy,0.015*changing,0.014*or,0.013*50,0.012*then,0.012*broken,0.012*will,0.011*cast,0.011*all
19,0.026*volume,0.020*way,0.019*music,0.019*on,0.015*idea,0.014*perfect,0.014*figured,0.013*text,0.013*everything,0.013*money
