Topic Index 1,Topic Index 2,Topic Similarity
6,0,8.333333333333332
9,1,8.333333333333332
10,2,8.333333333333332
12,3,8.333333333333332
13,4,8.333333333333332
19,5,8.333333333333332
0,6,0.0
1,7,0.0
2,8,0.0
3,9,0.0
4,10,0.0
5,11,0.0
7,12,0.0
8,13,0.0
11,14,0.0
14,15,0.0
15,16,0.0
16,17,0.0
17,18,0.0
18,19,0.0
