Topic Index 1,Topic Index 2,Topic Similarity
8,10,0.3183
4,5,0.25410000000000005
12,17,0.17600000000000002
6,7,0.176
13,16,0.1727
14,11,0.1363
2,0,0.13340000000000002
1,4,0.12600000000000003
11,6,0.12279999999999999
10,12,0.1222
9,9,0.1131
18,15,0.10630000000000002
17,2,0.0744
7,18,0.065
3,1,0.064
5,19,0.0437
0,3,0.0
15,8,0.0
16,13,0.0
19,14,0.0
