# deletions,date,commit message
4,2015/9/10,Add more targets (armeabi armeabi-v7a mips x86) for building sepolicy-inject raise minSdkVersion to 16 (Android >= 4.1) and update app version
2,2015/7/28,Update README.md
1,2015/7/13,Add link to Google Play
7,2015/7/11,Add pre-Lollipop compatible shadow to Toolbar
