# deletions,date,commit message
13,2014/4/18,can search openkeychain retrieve & install & use keys from there
6,2014/4/18,fix unified query columns for select*fragment
5,2014/4/18,Update maven libs and use fixed version
193,2014/4/18,Remove unused strings fix some lint errors fix some language confusions
27,2014/4/18,Translations from transifex
2,2014/4/18,Do not show lookup button in decrypt activity for decryption-only
2,2014/4/18,Small language corrections (thanks to yahoe.001)
7,2014/4/18,FIx nfc button
3,2014/4/18,Fix upload of keys closes #581
2,2014/4/17,OK 2.6 RC1
9,2014/4/17,Remove kill hack in KeychainDatabase
5,2014/4/17,Remove dev hack in KeychainDatabase
33,2014/4/17,get rid of PgpKeyHelper.getMasterKeyId  Closes #575
121,2014/4/17,NotFoundExceptions for all getGeneric-type methods
3,2014/4/17,load data only once in ImportKeysListLoader  Fixes #571
1,2014/4/17,add up navigation in ViewCertActivity  Fixes #567
8,2014/4/17,use project icons for certification status  Closes #573
4,2014/4/17,Update comments in AndroidManifest
12,2014/4/17,Rename provider types following http://developer.android.com/guide/topics/providers/content-provider-creating.html
5,2014/4/17,secret keys can only be deleted individually from multi selection
1,2014/4/16,essential instead of integral
866772,2014/4/16,Use git submodules for libs fix compilation remove library sourcecode
1,2014/4/16,Fix even more whitespace
2,2014/4/16,Fix more whitespace
1,2014/4/16,Fix whitespace
1,2014/4/16,Update PGPSecretKey.java  fix
1148,2014/4/16,Translations from transifex fix some strings references
1,2014/4/16,Fix help_start
14,2014/4/16,stripped support: implement has_secret support in ui and impot of secret keys  Closes #570
18,2014/4/16,stripped support: add has_secret column to keys table
2,2014/4/16,Clarify comments
2,2014/4/16,Version 2.6 beta1
2,2014/4/16,comments
7,2014/4/16,Handle new exceptions in remote service
36,2014/4/16,Fix SIGNATURE_UNKNOWN_PUB_KEY
53,2014/4/15,Fix PgpDecryptVerify signature verification: search for right signature subkey instead of using first subkey for verification
25,2014/4/15,Fix ViewHolder in ImportKeysAdapter
31,2014/4/15,Optimize imports
6,2014/4/15,Fix nullpointer in ImportKeysListEntry
2,2014/4/15,center empty-info of cert fragment closes #566
126,2014/4/15,Improve verification result display close #568
51,2014/4/15,encapsulate creation of OpenPgpSignatureResult objects inside OpenPgpSignatureResultBuilder to better constraint its output when processing with PgpDecryptVerify
3,2014/4/15,add web of trust help entry
1,2014/4/14,Some comments to Constants
183,2014/4/14,Removing remaining uses of Id closing one of the oldest bugs #9
21,2014/4/14,KeychainDatabase cleanup
12,2014/4/11,move old apg.db to apg_old.db (half measure~)
1,2014/4/11,add debug backup/restore options to main menu  Closes #543
57,2014/4/14,Translations from transifex
4,2014/4/14,Fix SIGNATURE_SUCCESS_CERTIFIED
168,2014/4/14,key edit: fix crash when create date was after expiry date change from gregorian calendar to calendar with creation from instance experimental result status for decrypt activity
74,2014/4/13,Rework verifyCleartextSignature
13,2014/4/13,Implement SIGNATURE_SUCCESS_CERTIFIED in PgpDecryptVerify (not tested)
17,2014/4/13,Handle new exceptions in KeychainIntentService
435,2014/4/13,Remove unused blob classes and other dead code
83,2014/4/13,Update license header for 2014
37,2014/4/12,More changes to PgpSignEncrypt
6,2014/4/11,Clarify use of methods in PgpKeyHelper
60,2014/4/11,More ids removed
46,2014/4/11,More fixes for import item layout
189,2014/4/11,Remove some Ids...
49,2014/4/11,Simplify and fix delete key dialog
23,2014/4/11,PgpDecryptVerify is now context-free
8,2014/4/11,put signatureType where it belongs
22,2014/4/11,PgpSignEncrypt is now context-free
127,2014/4/11,PgpSignEncrypt: merge generateSignature() into main method
2,2014/4/11,PgpSignEncrypt: get by master key id
13,2014/4/11,More cleanup in providerHelper
228,2014/4/11,Refactor ProviderHelper to be non-static using a constructor based on context (first commit to get context out of pgp classes)
66,2014/4/11,Remove queries from PgpKeyHelper introduce encrypt to signer mode (not tested)
4,2014/4/11,Prettify view_key_userids_item
104,2014/4/11,Prettify more layouts
16,2014/4/11,split getMasterKeyId for the remaining use cases  Closes #549
88,2014/4/11,get rid of more getMasterKeyId usage work on getKeyRingsAsArmoredString
50,2014/4/11,fix EditKeyActivity
21,2014/4/10,display correct primary user id in import dialogue MOSTLY  This is an incomplete fix; due to use of machine readable output there is no way to know the primary user id for keys fetched from a key server.  Pending https://bitbucket.org/skskeyserver/sks-keyserver/issue/28/primary-uid-in-machine-readable-index
78,2014/4/10,remove drawer layout remnants from import key dialogue
36,2014/4/10,use view holder pattern in KeyListFragment  Closes #551
138,2014/4/10,Select*KeyFragment rewrites  - moved all specific Public/Secret logic from the Adapter class into inner subclasses in the Fragments - more versatile status display ("revoked" "expired" "can certify"...) - applied view holder pattern - query logic including subqueries moved into provider classes  Closes #375
15,2014/4/10,ViewCertActivity cleanup  Closes #547
2,2014/4/10,Disable selection of user ids and keys in view key
6,2014/4/10,Minimize use of class variables in ViewKey
6,2014/4/10,Cleanup AsyncTask code for NFC
2,2014/4/10,Cleanup imports
157,2014/4/10,Integrate NFC functionality into ViewKeyActivity
3,2014/4/10,Deleted wrong AppMsg
19,2014/4/09,Prettify more layouts fix edit and encrypt intents from key view
7,2014/4/09,Temporary disable of master key id extraction from uri
48,2014/4/09,Prettify some layouts
2,2014/4/09,certs: fix verification in ViewKeyActivity (how embarassing)  Fixes #541
6,2014/4/09,Fix gitignore for lint
29,2014/4/09,Fix certification layout
45,2014/4/09,Fix NFC
101,2014/4/09,Fix save keyring improve signature verification
7,2014/4/09,Replaced Toasts in ViewKeyActivity
1,2014/4/08,Removed unused Toast import in ViewKeyActivityJB
3,2014/4/08,Replaced Toasts in ImportKeysOrCodeFragment
9,2014/4/09,Cleanup in SelectKeyCursorAdapter
1,2014/4/09,Hide keyboard after hiding custom key length field
1,2014/4/09,KeychainIntentService instead of APG
1,2014/4/09,Fix DECRYPT and SEND intent
41,2014/4/08,Modified Spinner values for CreateKeyDialog. Added info for user about custom key length restrictions.
85,2014/4/08,Use NotFoundException in more places
31,2014/4/08,Fix decryption of messages/files encrypted for multiple public keys
128,2014/4/08,Introduce ProviderHelper.NotFoundException remove dead code
403,2014/4/08,Change license from ASLv2 to GPLv3 where possible
49,2014/4/08,Update copyright timespan for Thialfihar
3,2014/4/08,Fixed coding style.
22,2014/4/07,Added possibility to enter custom key length. Added key length limitations according to issue #102 and SpongyCastle specification.
8,2014/4/07,Futher Toast replacements in CertifyKeyActivity
13,2014/4/06,Fixed gradle localTest bug on Windows.
13,2014/4/06,Comment out localTest due to bug on windows
2,2014/4/06,License clarification in README
13,2014/4/06,show key expiry status similar to revocation
1,2014/4/06,Update README
1,2014/4/06,Update travis link
18,2014/4/06,Update transifex config
10,2014/4/06,Update README
7,2014/4/06,Rename folder structure from OpenPGP Keychain to OpenKeychain
106,2014/4/06,Pull from transifex
47,2014/4/06,Optimize comments remove dead code
2,2014/4/06,Use dark icon in warning dialogs in edit key
14,2014/4/06,code style
48,2014/4/06,copyright header correction style fixes
7,2014/4/06,certs: remove unused menu item
3,2014/4/06,certs: change migration routine so certifications work
4,2014/4/06,certs: display green dot for certified keys in KeyListFragment
41,2014/4/06,certs: ditch expiry re-add data blob improve ViewCertActivity  GnuPG doesn't support expiry of user id certifications. The number of rings with an expiration subpacket in a cert out there is likely negligible.  ViewCertActivity now verifies the key and displays a status. For revocation certs the revocation reason is also shown.
36,2014/4/06,certs: fix ViewCertActivity
37,2014/4/06,certs: fix CertifyKeyActivity and improve user id list
50,2014/4/06,certs: ditch selection spinner from certs view
11,2014/4/06,certs: display cert type in cert view
12,2014/4/06,certs: display uid status in uid list
66,2014/4/06,certs: properly handle primary flag and revocation of uids
8,2014/4/05,Use AppMsg in edit key
35,2014/4/05,Remove import activity from drawer make it reachable from key list only
12,2014/4/05,Use PgpKeyHelper.splitUserId in EncryptAsymmetricFragment
10,2014/4/05,Rework menu items
141,2014/4/05,Fix nfc make edit activity like a modal dialog move all menu actions into view activity
30,2014/4/05,certs: various improvements  * recognize self-certifications * save signature type * save expiry time * drop encoded data blob from db
38,2014/4/05,certs: more fixes almost working now
2,2014/4/04,Change headers in encrypt activity to be more descriptive
81,2014/4/04,db-overhaul: fix key export (and some export-related ui changes)
15,2014/4/04,db-overhaul: fix delete key from ViewKeyActivity
96,2014/4/04,ViewKeyMainFragment cleanup (don't use inline queries!)
51,2014/4/04,db-overhaul: fix DecryptAndVerify with and without known keys
32,2014/4/04,db-overhaul: workaround api level 11
18,2014/4/04,db-overhaul: different hack for type info (api level problem inside)
20,2014/4/04,calculate nfc packet on demand only
10,2014/4/04,db-overhaul: fix loading indicators in KeyListActivity and ViewKeyActivity
78,2014/4/04,db-overhaul: reintroduce by-mail and by-subkey queries  the only thing left to fix after the db upgrade (that I can think of right now) are key exports
78,2014/4/04,db-overhaul: minor stuff mostly ProviderHelper
263,2014/4/03,db-overhaul: more work on new provider  specifics: - secret keys are preserved when a new public key is inserted - started work to give virtual columns a representation in the contract class - streamline ProviderHelper methods. the getUnifiedData method relies on a api level 11 method not sure yet how to fix/workaround that... - many more small things work as they did before
223,2014/4/03,more work on streamlining uris and stripping ProviderHelper
100,2014/4/03,ditch useless PgpKeyHelper.getMasterKey methods
2,2014/4/03,title for ACTION_IMPORT_KEY_FROM_KEYSERVER_AND_RETURN
5,2014/4/03,simplify OpenPgpServiceConnection
2,2014/4/03,Keychain API Demo 3
1,2014/4/03,Disable tests
2,2014/4/03,version 2.5
1,2014/4/03,Update from transifex
2,2014/4/03,Changelog
6,2014/4/03,Key lookup for API
7,2014/4/03,Key lookup for API
147,2014/4/03,Implement ACTION_IMPORT_KEY_FROM_KEYSERVER_AND_RETURN
31,2014/4/03,Cleanup DrawerActivity
1,2014/4/03,clarify readme
1367,2014/4/03,Break a lot of stuff. Also database redesign.  Change entire database design. This introduces a lot of changes notably all URIs and almost all projections. Some features (like key deletion) have been simply commented out for now since they need serious reconsideration. There are a couple of new TODOs marking places where more work is needed.  The migration path works fine from what I tested. The old database is not deleted for now ie it is reimported at every start of the application making all intermediate changes transient.  Tested and working (for me): - All activities in the main drawer - Multiselect and Search - ViewKeyActivity with and without secret key available - CertifyKeyActivity - SelectSecretKeyActivity (from CertifyKeyActivity) - SelectPublicKeyActivity (from encrypt activity)  What doesn't work: - Actually certifying keys (pending a TODO in ProviderHelper) - Importing keys doesn't preserve secret keys - "Encrypt to this contact" doesn't pass key - Editing keys. All controls are disabled I'm not sure why... (is this even my fault?) - Deleting keys  What I didn't test: - Key export - API stuff - Creating keys (since editing doesn't even work)
