App,Store,App ID,Review ID,Country,Version,Rating,Date,Author,Subject,Body,Translated Subject,Translated Body
OpenKeychain: Easy PGP,Google Play,org.sufficientlysecure.keychain,bGc6QU9xcFRPRmlmMmU0QUc4QzZ5WnBNbjJtVWJ1OFFhYjRlOGF6VUJYYUlYT2lkOG1xQXE4WERObF9uV29QSzJEWUU3blhMS3EzMXdzTm1fTkZxSFlmTllJ,English,,5,2014-06-13,A Google User,0724261503,King,,
OpenKeychain: Easy PGP,Google Play,org.sufficientlysecure.keychain,Z3A6QU9xcFRPR0ZGYldMVFpWUzVJUFJqeC1mSE5lb1FPQVNGT05LOGlEQV85M3BnQ0VuNlVoNUVsZzJCUXlnMWtJOVRxMGcwanZCWGZMNlZ1WWttSHBfRi1V,English,,5,2014-06-10,Jorge Cevallos,"",Recommended!,,
OpenKeychain: Easy PGP,Google Play,org.sufficientlysecure.keychain,Z3A6QU9xcFRPSE8tdFRvTWdEQVAycG9acEhiLUctemFKS2RFaEpydWhXcTVSdUpwcG1vYzdjTzN1NVR3RTRPQjJreDRkUzZ6WXZBcmFBVHNwSUJ3dDZka2hR,English,,5,2014-05-23,Samus Aran,Fixed,Not exactly what I expected. But whatever.,,
OpenKeychain: Easy PGP,Google Play,org.sufficientlysecure.keychain,Z3A6QU9xcFRPR3hlbnpHTUd1TFR2Z2JlbWQ3TVYtVDhueTV0aU9sRlJteExIMVVqSWRzYXRjejFmUklmZUViRWxiZFRJcnhhUEFIQ01OUnl6aFZ4aWFzNzJn,English,,5,2014-05-09,Sergey Briskin,Excellent work!,It's the best solution for privacy on Android. Thank you :),,
OpenKeychain: Easy PGP,Google Play,org.sufficientlysecure.keychain,Z3A6QU9xcFRPSC1jS3FhNGY0el9TYTc0U2htRlBxM3pWQWVwOFRkZW1rNmRwM1p6Sm04d09FUFJqUVE3ZnZSdS1GYzNxdUJ2YVdEZkNqVy1fbE1XV0M3MWdz,French,,3,2014-05-12,Adrien Detimmerman,Probleme de signature,Impossible de signer quoi que ce soit avec ma clé. Sinon le reste fonctionne très bien.,,
OpenKeychain: Easy PGP,Google Play,org.sufficientlysecure.keychain,Z3A6QU9xcFRPR2FmMTVyVGN6Z3ktcVhMdklmbHF0OE42NmlMVzFlNEtvb1RubjlnMUswR0luREdOdGIta0Z3S3pneTRvUmpzNlpHNktOTEQyUktzMTNydmI4,German,,3,2014-07-12,Holger Stock,Signieren nicht möglich,"Die App funktioniert grundsätzlich ordentlich, allerdings kann ich bis dato nur verschlüsseln. In meinem etwas betagten Schlüssel ist für die Signatur ein 1024 Bit DSA-Schlüssel enthalten, der konsequent ignoriert wird. Unter KMail funktioniert es problemlos.",,
OpenKeychain: Easy PGP,Google Play,org.sufficientlysecure.keychain,Z3A6QU9xcFRPR25pTlFmbDZjSFhBVjBoekJHU20tVk1uZktNR0dkYVJzMkp4Z1Jud01YaUkxanFsQVI5bkVLZEg1ZEltcm4xcTVMN0VtS0FLbVF6RUtnV3Fr,German,,4,2014-07-03,Christian Schauerte,"Gut, aber noch mit Kinderkrankheiten","Die Anwendung läuft stabil und sie ist ansprechend gestaltet. Auch unbedarfte User können sich so an das Thema ""Verschlüsselung""  heranwagen. ABER: obwohl ich die neuste Alpha-Version von K9 nutze,  verheiraten sich die beiden Apple nicht miteinander. Über eine Lösung würde ich mich sehr freuen! Das wäre dann der 5. Stern.  😁",,
OpenKeychain: Easy PGP,Google Play,org.sufficientlysecure.keychain,Z3A6QU9xcFRPRmppQ0J5MXlIUzEwMXBHUE1jcDlKRGxmUW8yTXZuQnZKWlBhNVotbE9QbzVSNkFlUkl0d1Q0V082YUh1UmNrOTBKZzIyckN2QnlQcEZONmtn,German,,5,2014-07-02,Rafael Eduardo Wefers Verástegui,Endlich geht es weiter!,Endlich tut sich wieder etwas im Bezug auf mobile Krypto. Weiter so!,,
OpenKeychain: Easy PGP,Google Play,org.sufficientlysecure.keychain,Z3A6QU9xcFRPRmhJbW9lQ0duZi1WeE1fNGxkRnhtTXNPeEJZVU9vQkxuVGg0UGFxdE1oTm9mNVVtUnJLdXBzM0d0VDgyVXM5LWpPMVNrcGlmNV94Z3F5bE9N,German,,5,2014-06-04,Philipp Crocoll,Great,"Nice UI, great k9 integration (well, after I found that I need to activate it on k9's account settings -is this mentioned ANYWHERE?)",,
OpenKeychain: Easy PGP,Google Play,org.sufficientlysecure.keychain,Z3A6QU9xcFRPRk9GN1R5cGJmYkFwTlJTcHJKT3J4UXdSRndxV0d0b0hVMWNtTWFSWE15T0tpR0gzT19tNG9qV0tGQjFhQTBSaGxxVFpWelZ4SF9ZX2k0V0Jz,German,,5,2014-06-02,David Dahlberg,Hervorragend,Bedient sich gut. Beta mit autentifizierter K-9-Mail-Integration. Jetzt muss man K9 nur noch PGP/MIME beibringen.,,
OpenKeychain: Easy PGP,Google Play,org.sufficientlysecure.keychain,Z3A6QU9xcFRPR2RDd2VxT1hKd1pwVTNUelkwd29Bc1FUZC0za2ZBSGhQUG1zS0ZEMWRwUXlDdFMza1lHZVlrdmNIRnhkYkdnUmF5clVSUkI1dVBBODluWGdj,Portuguese,,5,2014-06-16,Rafael P B Mota,Exclente,Recomendo. Otimo gerenciador de chaves gpg.,,
OpenKeychain: Easy PGP,Google Play,org.sufficientlysecure.keychain,Z3A6QU9xcFRPR2ZqdDRiR19LQTZvSnpwZ0VDVEdCVGw4TnZXWTVZdXlDbXdfQnVNUVBVRmFvNGRtYUVpRE1kbjg4Q080UFhIcmE5aEY2clZPbFZsZjFBVV9J,Russian,,4,2014-08-24,Yegor Ivanov,Import problem,"Nice program, but i cant import my key. It ends with error. Is there a way to import my old key?",,
OpenKeychain: Easy PGP,Google Play,org.sufficientlysecure.keychain,Z3A6QU9xcFRPRWpMa1RVWk9rbXZuUWZhSU9lQ2pFalJGWEpLWkZUVHU5ZHlWRXN2cHA3VWhQMWZwOHNILUx2ZTBESXkzaEFuT1NON0VwSlNBVFF6T2FnZTJz,Russian,,5,2014-05-27,Дмитрий Журавлев,Одобряю!,"Много попробовал аналогичных программ, но остановился на этой. Отличная программа! Всё просто и удобно сделано. Автор успешно улучшает функционал программы.",,
