cant select folder from external memory,b,2014-07-15,Dheeraj Bapat,2
good wall,b,2014-06-08,Shiva K,5
nice and clean,o,2014-04-19,Nick Carrasco,4
please optimize it to load out wallpaper,b,2014-02-04,Omprakash Sahu,5
good and cool on the screen,o,2014-01-13,Devaraj,4
please fix for five star,b,2013-12-29,Gary Killen,3
cool,o,2013-12-22,Chelsie Rivera,5
