package,release ID,UI element,related topic,average polarity,# reviews,average rating,average objectivity,# uninstalls,delta rating,element deleted next release
de.dotwee.micropinner,release-v1.9.1,@+id/checkBoxPersistentPin$input_description_makepinpersistent,4,0.0,1,4.0,0.0,0,-0.7631578947368425,0
de.dotwee.micropinner,release-v1.9.1,@+id/checkBoxPersistentPin$input_description_makepinpersistent,0,0.13333333333333333,1,5.0,0.38055555555555554,0,0.23684210526315752,0
de.dotwee.micropinner,release-v1.9.1,@+id/buttonPin$dialog_action_pin,5,0.0,1,4.0,0.0,0,-0.7631578947368425,0
de.dotwee.micropinner,release-v1.9.1,@+id/buttonPin$dialog_action_pin,9,0.13333333333333333,1,5.0,0.38055555555555554,0,0.23684210526315752,0
de.dotwee.micropinner,release-v1.9.1,@+id/editTextContent$,11,0.15016666666666667,1,5.0,0.45721428571428574,0,0.23684210526315752,0
de.dotwee.micropinner,release-v1.9.1,@+id/editTextContent$,10,0.13333333333333333,1,5.0,0.38055555555555554,0,0.23684210526315752,0
de.dotwee.micropinner,release-v1.9.1,@string/input_description_content$,16,0.15016666666666667,1,5.0,0.45721428571428574,0,0.23684210526315752,0
de.dotwee.micropinner,release-v1.9.1,@string/input_description_content$,17,0.13333333333333333,1,5.0,0.38055555555555554,0,0.23684210526315752,0
