Topic Index 1,Topic Index 2,Topic Similarity
0,16,1.0
1,2,1.0
3,3,1.0
4,10,1.0
6,13,1.0
7,8,1.0
9,4,1.0
10,15,1.0
12,5,1.0
18,11,1.0
2,0,0.0
5,1,0.0
8,6,0.0
11,7,0.0
13,9,0.0
14,12,0.0
15,14,0.0
16,17,0.0
17,18,0.0
19,19,0.0
