# deletions,date,commit message
2,2015/9/19,Translated using Weblate (Hungarian)  Currently translated at 100.0% (83 of 83 strings)
1,2015/9/18,Translated using Weblate (Japanese)  Currently translated at 100.0% (83 of 83 strings)
10,2015/9/19,Translated using Weblate (Hungarian)  Currently translated at 100.0% (83 of 83 strings)
1,2015/9/18,Added master synchronization toggle implements #244
1,2015/9/18,Improved xml layout (cf. #196)
0,2015/9/18,New contact icon (fix #220)
1,2015/9/17,Translated using Weblate (German)  Currently translated at 100.0% (83 of 83 strings)
1,2015/9/18,Translated using Weblate (Japanese)  Currently translated at 100.0% (83 of 83 strings)
3,2015/9/17,Translated using Weblate (German)  Currently translated at 100.0% (83 of 83 strings)
2,2015/9/16,v2.9.3
2,2015/9/16,Fix #251 (unsupported clipPath())
