# deletions,date,commit message
2,2016/3/04,Translated using Weblate (Asturian)  Currently translated at 96.7% (118 of 122 strings)
12,2016/3/03,moving add to favorites lower
1,2016/3/03,Translated using Weblate (Japanese)  Currently translated at 100.0% (122 of 122 strings)
2,2016/3/01,don't reload history if list adapter contains data --> fix for long press menu positioning issue
3,2016/2/29,v2.19.2
14,2016/2/29,Show history on tap. #344 Keyboard will appear only if the user taps on the search bar.
3,2016/2/27,Translated using Weblate (French)  Currently translated at 95.0% (114 of 120 strings)
1,2016/2/27,Option to freeze history. A solution for #239
1,2016/2/24,Translated using Weblate (Arabic)  Currently translated at 100.0% (120 of 120 strings)
2,2016/2/24,Translated using Weblate (Arabic)  Currently translated at 100.0% (120 of 120 strings)
8,2016/2/20,Translated using Weblate (French)  Currently translated at 90.8% (109 of 120 strings)
0,2016/2/20,using official icons
2,2016/2/18,Should fix #391
2,2016/2/16,Translated using Weblate (Russian)  Currently translated at 100.0% (120 of 120 strings)
1,2016/2/07,Translated using Weblate (Russian)  Currently translated at 100.0% (120 of 120 strings)
2,2016/2/15,v2.19.1
8,2016/2/15,Handle codepoints. Fixes crash with appnames containing multi-byte characters such as 😂
18,2016/2/14,Use pojo.mapPosition() rename some variables fixes #387
2,2016/2/13,v2.19.0
3,2016/2/13,Translated using Weblate (German)  Currently translated at 100.0% (120 of 120 strings)
1,2016/2/13,Show nfc setting only if nfc is available
6,2016/2/10,Translated using Weblate (Turkish)  Currently translated at 100.0% (120 of 120 strings)
2,2016/2/10,Translated using Weblate (Turkish)  Currently translated at 100.0% (120 of 120 strings)
2,2015/12/18,Translated using Weblate (Japanese)  Currently translated at 100.0% (120 of 120 strings)
7,2016/2/08,Remove base score boost others
3,2016/2/08,Not %
3,2016/2/08,Initialize ArrayList only when needed
4,2016/2/07,Translated using Weblate (Russian)  Currently translated at 100.0% (119 of 119 strings)
28,2016/2/07,Refactor menu code to use inflatePopupMenu
11,2016/2/07,Display a message when adding shortcut
11,2016/2/07,Removed duplicates detection
1,2016/2/07,Don't create shortcut for launcher activities (fix #365)
54,2016/2/07,Improved shortcut result layout
13,2016/2/06,Translated using Weblate (Catalan)  Currently translated at 45.3% (54 of 119 strings)
3,2016/2/06,Update build.gradle
16,2016/2/01,Better fuzzy search
6,2016/1/15,Update Spanish translations (app → aplicación)  "App" is a word that is not correctly used in Spanish because it doesn't even exist in Spanish. The correct word is "aplicación".
1,2016/1/13,Movign to gradle alpha 3
18,2016/1/12,Update Spanish translations  Translate new strings and fix and sort current translations
2,2016/1/02,Translated using Weblate (Portuguese (Brazil))  Currently translated at 73.9% (88 of 119 strings)
1,2015/12/18,Translated using Weblate (Japanese)  Currently translated at 100.0% (119 of 119 strings)
2,2015/12/17,Translated using Weblate (Asturian)  Currently translated at 92.4% (110 of 119 strings)
1,2015/12/17,Translated using Weblate (Polish)  Currently translated at 100.0% (119 of 119 strings)
44,2015/12/20,Better cache for icons
1,2015/12/18,Translated using Weblate (Japanese)  Currently translated at 100.0% (119 of 119 strings)
11,2015/12/17,Translated using Weblate (Italian)  Currently translated at 100.0% (119 of 119 strings)
4,2015/12/17,Translated using Weblate (Polish)  Currently translated at 100.0% (119 of 119 strings)
3,2015/12/14,cleaning
1,2015/12/14,cleaning
16,2015/12/14,placing excludeFromAppList to AppResult
25,2015/12/14,fixing menu remove item from favorites if excluded
2,2015/12/14,v2.17.0
1,2015/12/14,Translated using Weblate (Russian)  Currently translated at 100.0% (119 of 119 strings)
11,2015/12/12,Translated using Weblate (German)  Currently translated at 100.0% (111 of 111 strings)
1,2015/12/14,Translated using Weblate (Russian)  Currently translated at 100.0% (111 of 111 strings)
6,2015/12/14,Formatting
1,2015/12/14,Fix #357
43,2015/12/14,fixing "add to favorites" to menu
1,2015/12/14,New Gradle version
16,2015/12/13,changing signature of addToFavorites
17,2015/12/13,Remove fav menu when result already favorited
1,2015/12/12,Translated using Weblate (German)  Currently translated at 100.0% (111 of 111 strings)
1,2015/12/12,fixing getFavorites
5,2015/12/12,D@mn... :-/
4,2015/12/11,Translated using Weblate (Turkish)  Currently translated at 100.0% (111 of 111 strings)
2,2015/12/09,v2.16.0
4,2015/12/09,removing fix for circleci since it is now on master
