App,Store,App ID,Review ID,Country,Version,Rating,Date,Author,Subject,Body,Translated Subject,Translated Body
KISS Launcher,Google Play,fr.neamar.kiss,Z3A6QU9xcFRPR183ekl4aG52N3dhZVBUOU5Yb295YlNUNG1kaUJUN0RKN1pNX3Zrd1hpNnowTXN0SUotT2N4RkZIYTA4cml5Z3hhdmpwdU9QSktYQ2FJdFFV,English,,5,2015-09-14,Noah Loomans,Pure awesomeness.,"This launder is AWESOME! However, I would like to have icon pack support. Do you have any plans on adding them?",,
KISS Launcher,Google Play,fr.neamar.kiss,Z3A6QU9xcFRPRktIVjk4UzJ6WFNmN1BTQjZudTNsVDZlNzVSYUdVdGlZelA3U3dXcHdYZzd6b0xzbThTRGZGMVNOSVBXLUU5dm9LWTRHb1pRcjl0ejRWUkhV,Italian,,4,2015-09-14,Nicolò Visaggio,Benissimo,Sono molto soddisfatto: ha semplificato l'uso dello smartphone. Unica pecca: manca la possibilità di nascondere la cronologia per avere a vista l'immagine di sfondo della Home.,,
KISS Launcher,Google Play,fr.neamar.kiss,Z3A6QU9xcFRPRUlCSWV1eVM4cVpEOWR0S25BNkhMekJSSV9lQnE2a0JtbXJleDJOTUt5VFo5TUtkZXpFdXc2X0xmcEZCSHB5djFFYThJM3lFNzNoVnhsakdn,Italian,,4,2015-09-13,Gabriele Diex,Great,Ottima idea ma consiglierei di creare un tema real dark per chi ha i display amoled come me così da consumare poco in termini di autonomia 😊,,
KISS Launcher,Google Play,fr.neamar.kiss,Z3A6QU9xcFRPR1pyZmgyYlRzVnpwTGVvQUM3cHFNQ09uaDBsMEM4NVRGRnpvN2NaSVJucFM0cERaUGxiR2EtWU1YeVBUdFA5RkdOZG1kSmpmQmZnbjVvZGtn,Italian,,4,2015-09-12,Andrea Dalle Palle,Fantastico,"Bella esperienza, per essere utilizzato in modo giornaliero basterebbe aggiungere una riga di elementi preferiti sotto la barra, avere una migliore intelligenza nella cronologia, e una barra di ricerca più ampia. Continua così!",,
KISS Launcher,Google Play,fr.neamar.kiss,Z3A6QU9xcFRPSGJFancxdmFOQWNUcWhqVjJmbHpjT3lQZnhJcjluUDE0LVNMVEd4X2ZHOXRwSzBsR01JVUFvTy1TY1FoZmVNMkhBanhMV1IzaTNyX2otS3NV,Italian,,4,2015-09-11,Andrea Bonezzi,"Leggerissimo, semplicissimo",...ma abbastanza scomodo. Sono troppo abituato a premere sull'icona dell'applicazione rispetto a scrivere il suo nome con la barra di ricerca,,
KISS Launcher,Google Play,fr.neamar.kiss,Z3A6QU9xcFRPRk16OTNOUlYyUW9POUIzdF96UTlCQmhoWEU4MW5hYjBzTHlUcnlVa2Jkc0Z4bWpwU2lBd0FoS0NCZDBnVFZ2dHV4anhweTFrUlM4UTFGbkNF,Italian,,2,2015-09-11,Gianluca Acca,Boh,Buona idea... ma la schermata bianca non mi convince.... minimalismo senza eleganza,,
KISS Launcher,Google Play,fr.neamar.kiss,Z3A6QU9xcFRPRUswMVVsNGRjZk5CRElFeUxDdHpVNGdmdjNhTnpNN1VoWWh4eklYaXR1dkRnSW9CRnRHWVEzWWpjeW1jTTIzWWFMM1lEeUxlODRiSEtEeVVN,German,,3,2015-09-12,Matthias Wagner,Ausbaufähig,"Verknüpfungen sollten noch irgendwie integriert werden können und bei den Kontakten noch Chat-Apps zur Auswahl stehen, sonst alles easy und recht flott...",,
KISS Launcher,Google Play,fr.neamar.kiss,Z3A6QU9xcFRPRTlOUUJFeHFQSjE0ZUhVNl85MzBrZ1F6TEVjc1g3VE9kaDBfcTlVVDAybWNrVjFWaVlYSFdfOE0tQUdBVXRiV0tWeWF3M19xR0M0WEZhSnFJ,German,,2,2015-09-12,Herr Kuechenstrolch,"",smart-launcher ist besser,,
KISS Launcher,Google Play,fr.neamar.kiss,Z3A6QU9xcFRPRmw5THpsT2hpaGpBVklndUtPcHZSRHlkeVJuZlp3NHhfWExfSVZaSXQ2TTlTWjhDZ0ZtU2xRc29lQlVrUFJnR3MxT2J4cDlzN2V3dWtxZHlr,Portuguese,,4,2015-09-14,Luiz Vitor Monteiro,150kb? What's?,"E ainda tem gente dando 1 estrela por ser simples, vai usar o Smart então.",,
KISS Launcher,Google Play,fr.neamar.kiss,Z3A6QU9xcFRPRklXalp2S3ZIOFJ2MENMd3lIT29GTkdnUVhlLXVNbEEwbVkxSXdId1NHVW9oN1R2bV94XzFNbVp2cGV6bzBXZmxzLWdPLWZjbHNhbG1sX0RZ,Portuguese,,5,2015-09-12,Alifer Souza,Simples...,Além de simples facilita a vida do usuário com buscas rápidae eficaz...,,
KISS Launcher,Google Play,fr.neamar.kiss,Z3A6QU9xcFRPRkl6QVREWTNsTjNhdFVjdkpTWGVRR2Z5Mkl2d21HMW5CMEZBWFJJSVRUTmkzNzVYa2ktREhTMEFaZ2JBbVQ1ZWZhVjA2dEwzR0Rtb0xlajNV,Russian,,5,2015-09-14,Вячеслав Бельков,Самый лучший лаунчер.,"Ничего лишнего, только самое необходимое.",,
KISS Launcher,Google Play,fr.neamar.kiss,Z3A6QU9xcFRPRklmRjFKaEtkS1BQbGRVcGRvZ2VDY19oU1VtdmJjT3Z1WFBIVVR0SlRKMl8xNWxfVTg0WlFtRHZPXzFfZ2dHQWhwTldjazU2Y3A2Zk85ZTl3,Russian,,1,2015-09-12,Андрей Овцын,Crash,При вводе в поисеовой строке приложение вылетает,,
KISS Launcher,Google Play,fr.neamar.kiss,Z3A6QU9xcFRPRnVFYjdBelgxZDZ5RVdqcUFSREE1MHJ0aXhWcG5zeE9HZ19PVlFDTThQdTRWYjhpM0lhSmZyQW11ZWJsOEVkOUZuNnZ1aXU1RXBxZnZham9J,Spanish,,5,2015-09-15,Raul Gonzalez Hernandez,Request,Could you add custom colors for the launcher background?,,
KISS Launcher,Google Play,fr.neamar.kiss,Z3A6QU9xcFRPSHV2bVQzMjRFUlFJQWFoR3h3XzhpWTdsM19tRDZCWnZfZHJCMHMyd1c3SWkydURzWWJoUS1RSGVySlhzaDRFY3lhR0dHUGxpa3hqeWxoTUN3,Spanish,,5,2015-09-10,Thomy Acosta,Buenisima.,"Diferente, estable y muy bien lograda. Combina perfecto con el teclado y tiene un buen estilo de lista de apps. 5*",,
