Topic Index 1,Topic Index 2,Topic Similarity
1,7,11.11111111111111
2,11,11.11111111111111
3,0,11.11111111111111
16,9,11.11111111111111
17,17,11.11111111111111
5,12,5.263157894736842
6,3,5.263157894736842
7,16,5.263157894736842
8,2,5.263157894736842
9,6,5.263157894736842
11,15,5.263157894736842
13,4,5.263157894736842
14,5,5.263157894736842
18,8,5.263157894736842
0,1,0.0
4,10,0.0
10,13,0.0
12,14,0.0
15,18,0.0
19,19,0.0
