Topic,Words
0,0.108*they,0.089*working,0.087*native,0.069*do,0.068*anything,0.047*a,0.046*fantastic,0.046*way,0.036*sending,0.033*so
1,0.157*sending,0.100*won't,0.088*do,0.081*way,0.066*work,0.044*galaxy,0.044*i,0.044*not,0.034*properly,0.029*with
2,0.102*working,0.102*do,0.066*properly,0.066*won't,0.063*but,0.054*sending,0.051*they,0.049*fantastic,0.047*accepts,0.046*on
3,0.106*i,0.081*let,0.068*with,0.063*can't,0.057*buggy,0.056*are,0.051*bit,0.048*on,0.045*incoming,0.039*me
4,0.122*too,0.096*so,0.070*but,0.066*a,0.058*are,0.054*now,0.050*bit,0.048*let,0.047*on,0.045*incoming
5,0.207*now,0.155*got,0.069*won't,0.068*a,0.060*working,0.051*native,0.050*send,0.046*on,0.027*can't,0.024*so
6,0.113*work,0.093*got,0.063*incoming,0.062*i,0.059*fantastic,0.059*accepts,0.051*let,0.051*but,0.050*galaxy,0.039*me
7,0.103*too,0.087*sending,0.082*incoming,0.069*so,0.061*got,0.056*a,0.050*let,0.049*not,0.041*coins,0.040*accepts
8,0.117*does,0.114*native,0.091*properly,0.084*any,0.054*a,0.044*anything,0.043*buggy,0.039*can't,0.037*they,0.037*but
9,0.119*properly,0.099*anything,0.095*native,0.083*does,0.061*with,0.056*sending,0.046*are,0.043*too,0.030*so,0.029*they
10,0.130*anything,0.123*way,0.118*i,0.078*not,0.052*coins,0.047*working,0.046*do,0.034*incoming,0.034*got,0.027*does
11,0.181*me,0.086*work,0.062*any,0.050*now,0.049*incoming,0.049*too,0.045*does,0.044*accepts,0.042*got,0.042*way
12,0.099*work,0.079*anything,0.068*with,0.061*properly,0.054*way,0.053*sending,0.051*accepts,0.050*so,0.046*working,0.036*send
13,0.106*send,0.102*do,0.076*buggy,0.067*got,0.061*incoming,0.053*i,0.047*bit,0.039*anything,0.038*not,0.033*me
14,0.116*sending,0.086*i,0.082*properly,0.064*way,0.053*got,0.051*bit,0.048*anything,0.047*so,0.041*native,0.041*coins
15,0.124*i,0.119*sending,0.089*let,0.078*send,0.059*galaxy,0.056*they,0.049*not,0.043*any,0.043*a,0.041*fantastic
16,0.159*with,0.112*incoming,0.103*work,0.050*any,0.050*won't,0.048*fantastic,0.041*properly,0.037*working,0.036*now,0.032*i
17,0.123*me,0.082*let,0.065*native,0.063*work,0.053*any,0.052*way,0.050*on,0.047*i,0.047*they,0.047*a
18,0.122*galaxy,0.068*now,0.063*so,0.050*coins,0.045*let,0.042*not,0.042*sending,0.041*won't,0.039*can't,0.038*accepts
19,0.106*anything,0.084*got,0.075*does,0.072*me,0.053*incoming,0.050*are,0.048*they,0.046*can't,0.045*i,0.045*let
