# deletions,date,commit message
2,2016/3/02,#300 Fixed regression: Invalid or malformed links in messages crash AndStatus
8,2016/2/28,#320 Changelog updated
23,2016/2/28,#320 Error during Database upgrade is shown converter to v.23 improved
4,2016/2/28,#320 Database converter implemented
0,2016/2/28,#320 New Material design icons added
192,2016/2/28,#320 New User's attributes are shown in a UserList
71,2016/2/28,#320 New User's attributes are loaded by UseListLoader
135,2016/2/28,#320 New User's attributes are written to a new database schema
57,2016/2/27,#320 New User's attributes are read from input messages
22,2016/2/26,Preparing for release 22.18
2,2016/2/26,#303 Cache size adjusted a bit
19,2016/2/26,#44 Slightly optimized Commands Queue saving. OutOfMemoryError handling added.
12,2016/2/26,#303 Cache size is based on available memory not on total memory size
