Topic,Words
0,0.018*appear,0.013*cool,0.011*my,0.011*int,0.011*print,0.010*set,0.010*text,0.010*plus,0.010*again,0.009*quotes
1,0.015*maybe,0.012*where,0.011*expected,0.011*reconstituting,0.009*problem,0.008*super,0.008*query,0.007*if,0.007*developers,0.007*could
2,0.018*what,0.014*something,0.013*work,0.011*anything,0.011*developers,0.010*int,0.010*ton,0.009*be,0.009*exactly,0.009*said
3,0.017*upgrades,0.014*fine,0.014*get,0.013*custom,0.012*done,0.011*star,0.010*of,0.010*can't,0.009*beat,0.009*disabled
4,0.012*spacious,0.011*resetting,0.011*wonderful,0.011*while,0.010*play,0.010*putting,0.009*chose,0.009*including,0.008*open,0.008*changes
5,0.013*groovy,0.013*tool,0.012*reinstall,0.010*plus,0.010*like,0.009*small,0.009*though,0.009*check,0.009*actual,0.009*front
6,0.017*downloaded,0.014*like,0.011*shared,0.011*observed,0.010*via,0.010*is,0.009*pending,0.009*few,0.008*better,0.008*tin
7,0.013*good,0.011*frequently,0.010*welcome,0.010*chose,0.009*also,0.009*up,0.009*groovy,0.008*flashing,0.008*instructions,0.008*plenty
8,0.016*codes,0.015*spacious,0.011*too,0.010*fast,0.009*says,0.009*reset,0.009*information,0.008*easily,0.008*plus,0.008*my
9,0.011*not,0.010*open,0.010*tin,0.009*maybe,0.009*then,0.009*space,0.009*weekly,0.009*less,0.008*is,0.008*without
10,0.019*limitation,0.012*frequently,0.010*also,0.009*expect,0.009*email,0.009*material,0.009*exactly,0.008*somebody,0.008*out,0.008*needs
11,0.019*helpful,0.014*storage,0.011*changes,0.011*stars,0.010*plus,0.009*all,0.009*instead,0.008*application,0.008*then,0.008*fa
12,0.012*full,0.011*giving,0.010*mark,0.010*etc,0.010*has,0.009*installing,0.009*welcome,0.009*your,0.008*through,0.008*phone
13,0.014*saving,0.014*upgrades,0.011*write,0.010*cloud,0.009*just,0.009*quick,0.009*supposedly,0.009*it's,0.009*right,0.008*lose
14,0.012*device,0.010*best,0.009*groovy,0.009*scope,0.009*around,0.009*won't,0.009*special,0.008*reasons,0.008*lightweight,0.008*there
15,0.012*correct,0.010*edit,0.009*manufacturer,0.009*query,0.008*people,0.008*know,0.008*most,0.008*open,0.008*helpful,0.008*notes
16,0.012*added,0.010*3,0.010*been,0.009*friends,0.009*special,0.008*variety,0.008*than,0.008*overview,0.008*information,0.008*set
17,0.016*still,0.011*how,0.011*completely,0.010*loved,0.010*their,0.009*need,0.009*right,0.009*lightweight,0.009*star,0.008*achieves
18,0.012*before,0.012*cracker,0.012*phone,0.010*utilities,0.010*template,0.009*clean,0.009*like,0.009*they,0.008*anything,0.008*with
19,0.014*simple,0.011*make,0.011*guy,0.010*int,0.009*appear,0.009*aren't,0.008*lovers,0.008*software,0.008*galore,0.007*well
