Topic,Words
0,0.112*a,0.060*old,0.058*through,0.052*graphically,0.047*and,0.044*integration,0.044*quite,0.042*cool,0.042*on,0.038*easy
1,0.097*feature,0.086*graphically,0.084*information,0.071*public,0.070*text,0.061*old,0.058*the,0.048*nicely,0.046*cool,0.039*of
2,0.118*graphically,0.103*you,0.070*integration,0.061*public,0.047*quite,0.045*text,0.044*responsive,0.042*nicely,0.041*and,0.038*a
3,0.120*very,0.090*lets,0.078*to,0.060*is,0.058*keys,0.058*quite,0.057*easy,0.046*information,0.046*graphically,0.044*nicely
4,0.123*to,0.103*old,0.067*through,0.063*very,0.053*nice,0.050*cool,0.044*move,0.042*developer,0.039*easy,0.037*important
5,0.132*and,0.114*looks,0.089*integration,0.088*move,0.087*keys,0.062*new,0.055*old,0.038*feature,0.035*important,0.032*developer
6,0.150*easy,0.138*public,0.069*lets,0.061*looks,0.044*information,0.042*through,0.040*the,0.039*a,0.030*old,0.029*text
7,0.165*of,0.120*the,0.067*and,0.050*keys,0.047*nice,0.046*quite,0.042*new,0.041*text,0.038*nicely,0.036*cool
8,0.097*nice,0.088*move,0.085*to,0.078*developer,0.076*integration,0.054*a,0.047*easy,0.046*of,0.043*important,0.038*use
9,0.095*important,0.087*of,0.084*keys,0.084*cool,0.060*text,0.055*slider,0.055*great,0.055*the,0.040*easy,0.040*integration
10,0.125*new,0.087*through,0.083*important,0.064*use,0.061*to,0.057*integration,0.053*move,0.043*and,0.043*responsive,0.039*you
11,0.104*lets,0.100*public,0.098*to,0.086*new,0.076*you,0.056*nicely,0.053*graphically,0.042*nice,0.038*easy,0.036*keys
12,0.113*great,0.102*on,0.100*and,0.092*very,0.066*lets,0.057*easy,0.055*quite,0.052*graphically,0.045*keys,0.043*is
13,0.137*important,0.111*old,0.088*public,0.066*feature,0.053*a,0.050*on,0.050*use,0.049*lets,0.044*and,0.038*keys
14,0.091*and,0.063*important,0.061*on,0.057*public,0.054*responsive,0.048*of,0.048*looks,0.044*to,0.044*quite,0.044*lets
15,0.189*information,0.101*lets,0.094*and,0.077*looks,0.073*on,0.065*through,0.056*integration,0.054*very,0.041*developer,0.028*keys
16,0.109*very,0.084*and,0.082*through,0.061*of,0.060*old,0.045*responsive,0.043*slider,0.043*public,0.041*move,0.040*integration
17,0.102*through,0.097*is,0.082*new,0.068*developer,0.063*very,0.061*slider,0.058*great,0.057*to,0.043*keys,0.042*of
18,0.111*is,0.080*old,0.079*feature,0.061*use,0.059*you,0.053*keys,0.052*and,0.046*information,0.044*move,0.043*new
19,0.096*nicely,0.076*text,0.065*public,0.060*is,0.056*of,0.052*cool,0.050*old,0.048*developer,0.047*move,0.035*and
