Topic Index 1,Topic Index 2,Topic Similarity
15,1,1.9858
0,5,1.9251000000000005
17,6,1.8786
5,19,1.8053
2,9,1.6789999999999998
7,10,1.4508
9,17,1.3598
19,4,1.1387999999999998
8,13,0.9403
13,14,0.8361999999999999
12,15,0.7381
4,3,0.6534
11,18,0.6419
18,7,0.6211
16,8,0.608
3,11,0.5355
6,12,0.47939999999999994
1,0,0.1628
10,2,0.0
14,16,0.0
