Topic Index 1,Topic Index 2,Topic Similarity
14,13,0.06689999999999999
16,5,0.055499999999999994
0,8,0.046799999999999994
10,14,0.0445
8,7,0.043199999999999995
18,17,0.0406
19,16,0.040299999999999996
13,0,0.0341
15,18,0.033600000000000005
17,6,0.0325
9,12,0.024199999999999996
2,2,0.019
1,1,0.0
3,3,0.0
4,4,0.0
5,9,0.0
6,10,0.0
7,11,0.0
11,15,0.0
12,19,0.0
