App,Store,App ID,Review ID,Country,Version,Rating,Date,Author,Subject,Body,Translated Subject,Translated Body
NTPSync - Time Synchronization,Google Play,org.ntpsync,Z3A6QU9xcFRPR1g0Um5LbUFKeUlQeUp0QkY1VkdXeGVpTkhNTTI4MjNmcmlsWE55NmlXOW9zOVlVRkdIdGRQVndiZkhVQndodWQ2YjNjal9SOXRuYzl1dlI0,English,,1,2013-09-09,Tom Moore,Does  not work on Samsung Galaxy Tab 2,noted by another cannot set time,,
NTPSync - Time Synchronization,Google Play,org.ntpsync,Z3A6QU9xcFRPR2Q0VW1GSmVCM3NqcWt1cFVDUWxjWWJTcDJSMHV0Wi01WjhScEp5d1lPcldaZHdBZUVQLTRtVUt4cmVEQTJEZUZrWDJDNEtGUm0xSGJGYk8w,English,,1,2013-08-29,Claude Bucher,Not working,seems to remain blocked by firewall no other ha this issue,,
