# deletions,date,commit message
238,2015/5/02,Update dependencies
3,2015/5/02,Add Nexus 6
2,2015/4/26,Bump version
94,2015/4/26,UI to control options
3,2015/4/25,add string resources for custom color options
46,2015/4/24,background color option and clean up method
23,2015/4/24,rename variable names
9,2015/4/24,center images
16,2015/4/24,rename preference to percentage
6,2015/4/24,Tweak downsampling zie
6,2015/4/24,blur radius preference
2,2015/4/24,fix comments
2,2015/4/24,check only for frameUri == null
17,2015/4/24,Background padding preference
2,2015/4/19,Update Travis CI
202,2015/4/19,Custom Backgrounds WIP  Todo: * Center images correctly * Nicer UI for selecting preferences * Add controls to select custom backgroun color options
23,2015/4/18,Updates
9,2015/4/15,Travis
0,2015/4/15,clean up images
1,2015/2/19,Add Xiaomi MiNote Black+White and Moto X
0,2015/2/20,add Moto X png
8,2015/2/19,Finish Xiaomi MiNote
2,2015/2/19,Add Xiaomi MiNote Black+White  Screenshot position has to be tuned
12,2015/2/15,Use checkstyle plugin
7,2015/2/07,Update README.md
1,2014/12/18,Update version
1,2014/12/17,Use Latest version of Analytics
3,2014/12/03,Bump minor version due to new permission
1,2014/12/03,Bump
2,2014/12/03,Bump Segment deps
4,2014/11/23,Bump
6,2014/11/23,Update Travis Script to build all build types
53,2014/11/23,Use Crashlytics Open Source Org Keys
190,2014/11/23,Update Dependencies
1,2014/10/20,release version 3.0.8
1,2014/10/20,release version 3.0.7
17,2014/10/20,Flatten device properties
1,2014/10/20,Move screen into Activity
313,2014/10/19,release version 3.0.6
1,2014/10/19,Guard against weird MIUI bug
413,2014/10/19,Consolidate Utils
1,2014/10/19,formatting
1,2014/10/19,Correctly track screen calls
3,2014/10/19,IDs only need to be unique for package
40,2014/10/19,Remove unused methods in BitmapUtils
