App,Store,App ID,Review ID,Country,Version,Rating,Date,Author,Subject,Body,Translated Subject,Translated Body
Device Frame Generator,Google Play,com.f2prateek.dfg,Z3A6QU9xcFRPSHY4djlSbGM2MmVtU2h5X3o3YVVqX2RqSzVQWThvR0xKU1JXVE5zSlRJQXI1RFEzaTFCWmU5WVRybGU2aURwY2syeWJVOHZoSVBFcDNTUUE,English,,5,2013-11-17,Paul Simmons,Very nice....,This will come in very handy. I have one request though. I use the metallic blue HTC One. It would be that much more awesome if you had the different color variants of this phone.,,
Device Frame Generator,Google Play,com.f2prateek.dfg,Z3A6QU9xcFRPSDFkZ1pZZTItVlVvNkVjRXluOTJaNkd5QUZDWHNOeUNadTRTNnBQUnZCX1hRRnJDZXlQSVdTWnNwRFNBV3V0cEZEd2VUblg5UUlVTjFEQ0E,English,,5,2013-11-14,Roderick Omari,Simply the best,This is already the best app in it's category. But I've put in a request for the white nexus 5. I'm still giving it 5 stars though because it works so perfect already. Do yourself a favor and don't pass on this app.,,
Device Frame Generator,Google Play,com.f2prateek.dfg,Z3A6QU9xcFRPSEF3elJEbGV0bFZjanNYRDNscXpxblRMV2lvdmF4ODNJMWtfZzJzV1RnRlRPSG95TWlibnhSNFVUS0tRMXJHYVlTRXB0X1ZQaEM3WWdNb0E,English,,5,2013-11-06,Kelvin Peralta,Excellent!,Awesome App for showing off screens. Now with Nexus 5 Great Job!,,
Device Frame Generator,Google Play,com.f2prateek.dfg,Z3A6QU9xcFRPRWVMMjVTbXFQbGtGUlcyU1FRYnJJM0g2SkRkV3h3OFJ1cUVZcWZuT3RPbDNUSEhzMUFqTEh1aU1QRmUxOURmbXZwOFcxSFl2SFYzcTlNOXc,English,,4,2013-10-22,Brett Miller,Note 3,please add this device.,,
Device Frame Generator,Google Play,com.f2prateek.dfg,Z3A6QU9xcFRPRTNqXzRIaldGNFJ3SVBGcEhtQnBrd2NkQU5IWTFva1JvOTlNMjQ4S1Z3SHZOUzNxM1RDWnVtY1hjNHVnR19vRW5jcXFjRWRNX1B0bXE3VHc,English,,4,2013-10-02,Dan Tallant,Almost there...,"*sings* ""Two steps forward, and three steps back..."" Okay, now the 2013 Nexus 7 says 800x1280...? Last I checked it was 1200x1920...",,
Device Frame Generator,Google Play,com.f2prateek.dfg,Z3A6QU9xcFRPRUplT3daM0pDUjZrcUtpV0RwWXNPVktOMzMyQzFidlVPRG9qaHZzcnNFQ1RMTWFqT2JYTi1lbFZJc08tOVZDdzY4a0kxSVBRY1g3VHhfS2c,Korean,,5,2013-11-19,김민관,넥서스5 ㅎㅎ,굿,,
