App,Store,App ID,Review ID,Country,Version,Rating,Date,Author,Subject,Body,Translated Subject,Translated Body
Device Frame Generator,Google Play,com.f2prateek.dfg,Z3A6QU9xcFRPRlBTY1JQal80c09DXzFqdHNTZGxXM3dsYnpZZE5kY0piX1I0ekpNVUNNWXBiNnZGUS1UdXZJRy1JMnJWWkJ3Q0dhb3lGaTVMR0VRT19mVWc,English,,3,2017-04-19,Courtney Hill,"",Need new devices this app was updated 12/25/16 and is still missing the Pixel and so many others,,
Device Frame Generator,Google Play,com.f2prateek.dfg,Z3A6QU9xcFRPSFQ4M1RfNEk0Tjg1YnExcWNzVEg5NlViVkI3VThjNnpCeENDTmJrNWkzbk5XbkJ6cmJnTmp3ZjU2dHRmN0tlY24tTjlGUi10SElpdHZmVWc,English,,5,2017-04-13,Nilavo Mukherjee,"",Gd but need more devices like iPhones,,
Device Frame Generator,Google Play,com.f2prateek.dfg,Z3A6QU9xcFRPRk5oaTYzdFZNN3BBNzJvUkdrT3NBUW4wdTFHQ2IzdEx5VldCS1RFNEl0OHdhNFZtMlE1OFRRM1NOVWdzeGU3cFBnYnN3Snk3S1FqY1VPcFE,English,,5,2017-04-07,Farman ali khan,"",Please add some more device,,
Device Frame Generator,Google Play,com.f2prateek.dfg,Z3A6QU9xcFRPRnlWenZXZjNlTTBEQWRkUVRtS0pSTm1FbkxIcXFjUGxjd08zWkM1RVozb21OSUxEQnYweG9UeWJMa0JPWHRuTFMxU3dNeWVXc3Z5WmtmYWc,English,,4,2017-04-07,SUNAINA ANGEL,"",Add frame for Lenovo k6 note,,
Device Frame Generator,Google Play,com.f2prateek.dfg,Z3A6QU9xcFRPRW15Z1ZYaU5wVkVTUlBReEJZQnRUdjVEVGVCcjVHTTNDRElJM1lFQUNrc0NUczhlaE14bFhGX21paUJvWmk2M1FnV1NMaXF2MlplXzJQR0E,English,,4,2017-04-03,Ashik Rahman,"",Thanks,,
Device Frame Generator,Google Play,com.f2prateek.dfg,Z3A6QU9xcFRPSG9fMXJPSl8zZ0wzeF9tV052VVlKSi1rOUk1d3dXd0NnYVRFUjh1TmQtN2YtN3dPOTR4MTJLdHNrVUxaMnl3Y1ZuMnIxcjV6OENQMDRDeUE,English,,5,2017-02-21,Rheno Andhika,"","Great app, add galaxy s7 please",,
Device Frame Generator,Google Play,com.f2prateek.dfg,Z3A6QU9xcFRPSG1WSUtiempWVE94UzB0VHpMZklJOFdCX3oxSzdzNWF5WElSdENiRm5OZXMxdWZ3OURDTkIzNEFQZFRtYUxjbFdzM1FINmVXTUl3azU3M2c,English,,1,2017-02-21,Gr8_SouL OFFICIAL,"",All most all mi models but the superstar-mi note 3 is not there .very bad,,
Device Frame Generator,Google Play,com.f2prateek.dfg,Z3A6QU9xcFRPSFc2OG5WNDhuWk1GTU1nQTdpcXBDVnJtT0doa1ZmRnVLTG1vS3hlcy1ubkxCc1pzU2o2TXR5Y1phazRIWTZmV3hydmlxMVJBbEFXNFNxa1E,English,,5,2017-02-01,Darshan Gowda,"",Much Useful for developers :) Keep adding more devices! LG G3 please.,,
Device Frame Generator,Google Play,com.f2prateek.dfg,Z3A6QU9xcFRPR3pueDZmRXZyR0E4MUM1TWNrY0JuRExKZVNObGxYSzl4dTgwTEQxRUx4bjFtQWhDZDAwbXNZelVrUWpOMmpROXB1RlFWQUI1Sno5QXRsblE,English,,3,2017-01-27,Sarfaraz Habib,"",I want OnePlus 3T and MotoX 2016,,
Device Frame Generator,Google Play,com.f2prateek.dfg,Z3A6QU9xcFRPR1N6MHpJMjBWdVhDaGVQVWVUX0V5RERva0pJVnJvMmRtbFBCakJqcElEMFZzUEpEbDdLWGtBYS1MR09odTZFMEtFT0lGd1EzeDh3dFNuMFE,English,,4,2017-01-22,Dragan Beronja,"",Add more devices...,,
Device Frame Generator,Google Play,com.f2prateek.dfg,Z3A6QU9xcFRPRUs4VzVoM2lTV21La0JUSE1JZFN2NkVpeTJuTlNldS1yamUyaFI1OUZ1UjhlNHNRVTBLT2RucFJRMjNLczN5bWxmaGRHeDhrUWp2cE8xMFE,English,,5,2017-01-20,"","",Very good app8,,
Device Frame Generator,Google Play,com.f2prateek.dfg,Z3A6QU9xcFRPSE1SU2hHTll2WU9tZHYtV2gyWEpxaHJXLXo5dHZ0WWhPN1pPYnd1dnlfdGc0TGJ2cnRLUUVIcXdlNXRNeEZ2WDMtdjR0eXRBUVVjUUFuWkE,English,,3,2017-01-14,Jason Salamat,"Good, but...","Needs more devices, and more up-to-date devices. Lots of old ones here. Add OnePlus 3/3T please.",,
Device Frame Generator,Google Play,com.f2prateek.dfg,Z3A6QU9xcFRPRnhud0I4NEl2c2NoazhablBHOGxmcmJQSXZvSFBPaGdHakY1b1E0WUJqVUZKUWhnMVlIVEh4UkpxbnVVMHp1SUxVVGplQTZRXzh2UjY1NXc,English,,5,2017-01-12,Mayank Sharma,Very nice app......,"Really good app, I am very impressed it because it works properly and there are many device with colour background....👍",,
Device Frame Generator,Google Play,com.f2prateek.dfg,Z3A6QU9xcFRPRjZFYUhDWnowWmo3R2NLYWhUUlRhTHdVMjZRV0RqNnQtUGllbHFDaVl1TzE5cFVlWEdKRHp1VkFGZ0F6MTl5ai1LeTlMZDVZdVQxSF9mT2c,English,,5,2017-01-12,technical funda,Very good frames,I got the frame of iPhone 7 plus in this application and I pranked my friends that android also exist in iphones,,
Device Frame Generator,Google Play,com.f2prateek.dfg,Z3A6QU9xcFRPRUlQaDZfRExBNXkzSEhoRHk5amwwN1dfeEExUl8tUEw4Z2VENEJCNVJBeXJCX3gzTG51NktsUmVNSFpDV0NXdHNQeGxpSmZ5Sl80NVpJMEE,English,,5,2017-01-08,Alexey Rudakovsky,Great app,Helps me a lot. Many thanks!,,
Device Frame Generator,Google Play,com.f2prateek.dfg,Z3A6QU9xcFRPRzY1WFBTT09nZGxvNS1MT0xsT3dJM2lSeVl1WXZmRkNyMGF5b0NITVQtVWhGQmplbnpFdUhGQ29ELXZwVmxmM2hOQUNmLWxTb092ZHdyQ2c,English,,3,2017-01-07,Shahrukh Ahamed,good,I like it,,
Device Frame Generator,Google Play,com.f2prateek.dfg,Z3A6QU9xcFRPRXdRQXVHajJwNGxHQ3JGS2lJRUNkWE1IU080OGtuMGdzNFNjX0FtVFRJaVBiVGptX0laeW1DNEFySEdiVzUwVTVvdXVKTlFJY1NWMWxISkE,English,,3,2016-12-29,Azad Khan,Need more device,There is enough device. Need more device frame,,
Device Frame Generator,Google Play,com.f2prateek.dfg,Z3A6QU9xcFRPSFVKaHdSOGc4RWtmR1YtdC0wNWtnQ1BCQjN2cllYdHZwTGtadGs1cHdDSUVuelJZbVpmb2VieFhzOXN1a0VmOWotMF82NFUxZUROUUNDNFE,English,,4,2016-12-25,Gaber JR,Pretty cool but it needs more,"Where are all new Samsung devices? Note5 note7 s7, what about lg g3 g4 g5 v10 v20, there are alot of important devices out there",,
Device Frame Generator,Google Play,com.f2prateek.dfg,Z3A6QU9xcFRPSFpOTEsyT1VSUUVnRU9VbVVwYWluLWpFc2EyQlhIcENlTEVPZnl5RHU4OW5qd1VOQkJrNk5rZW0wY1pocjBVVVJGSy1sX2xuMktMV1lIQ3c,English,,1,2016-12-22,Evan Radecki,"","There are barley any devices. It has my phone (Moto x pure) but it is the old one. Please add more devices, or even better make it so we can put a picture of our phone.",,
Device Frame Generator,Google Play,com.f2prateek.dfg,Z3A6QU9xcFRPRXFMZHdmWkIwNGlHdkVJSFhlb3JxcE5VTmFtc0RrbDl5My1fQUhmNlhCb2NZTW8wakE2QjdOeFpFUUtoZHNvTHNaRkNjM3BENzNoSEJEcnc,English,,1,2016-12-19,Brian Wheeler,It doesn't scale,Wouldn't support my pixel xl,,
Device Frame Generator,Google Play,com.f2prateek.dfg,Z3A6QU9xcFRPRlpjZVNKQmpYdEt2cG96U2xpbGt1UGRiOHNydG5QWUprZmR2RV9uZjhaM1FwMUJESW1NWEpkcHBUdXYzem92OVFuSkdHTmd3eHN2U0h0cFE,English,,5,2016-12-18,Fahim Khan,"",Good app but needs more frames.,,
Device Frame Generator,Google Play,com.f2prateek.dfg,Z3A6QU9xcFRPRUNVbFlaR19zY2RyMUVlTGZDWE5KM3NqV3hLYmU1NmhHUjRscEI5WUk0RzU0YXE4MUp2MEZmU0gtVDhxWWRtMGNmV19MNkxoQXZza1JnRlE,English,,3,2016-12-11,Ferdinand Official,Bring the s7 edge,We need the s7 edge device,,
Device Frame Generator,Google Play,com.f2prateek.dfg,Z3A6QU9xcFRPSGdQaGZuc0FoaEp6SGFyZTB2TVFQeHJVUmQ1MkgwQTRXcmMycTBDYnpEWkVITVA1clBITVBmOTF4RTRGSlo0aWJqZ0p1a2gtYmQydHl0T0E,English,,3,2016-12-09,Dwi Budi Bowo Laksono,Liked,Xperia Z family please...,,
Device Frame Generator,Google Play,com.f2prateek.dfg,Z3A6QU9xcFRPR0FFLWdHNTY0dXZPcWQwZGt5RDgxVzI0aEpUNEFLNzd5Wkx6OXV2dkxpN3BNWmQ3cFN2Nldlb1pFbEZVeFhKVXVNejNGczQxOXM0Um85OGc,English,,5,2016-11-20,Lincoln,yes,good work,,
Device Frame Generator,Google Play,com.f2prateek.dfg,Z3A6QU9xcFRPRldzVnJoZjhFS1owRTg4Y0FNdDYxM3JqQkZQYnVZNWxyZ09rTFhablZVdGJ3S01XanJDVjJmTWktMWZuOEVwU0RYWWpUSC1ROFR2YlZJaHc,English,,4,2016-11-12,Ninad Khire,Great but...,"Please add new devices and options like custom background color, device frame color, output resolution and quality. Thanks for such good app.",,
Device Frame Generator,Google Play,com.f2prateek.dfg,Z3A6QU9xcFRPSG45S0I4a2Rkdkl2X04yb1I1RGlMUUNRbmxhV2dwcnBoOWM5a2xESGRXZVh6VU1YZUlqSnJsdkRRdXJRWS1la0RKaXJOVk9XNGZWa0EwT0E,English,,3,2016-11-03,Jaya Prithivi Raj,"",Add more frames,,
Device Frame Generator,Google Play,com.f2prateek.dfg,Z3A6QU9xcFRPRlZPRU1HaDRzYkFldmlab0lxRTlQd2JFU0xOa1FheU96T0ZCaHpDWTFLMnJOSHNUWTVZbXFrekJJX1ZuTF9HTUlTSGs2MUtRNnNTZEE2YlE,English,,4,2016-11-03,Hamza,Too huge,The size of app is too big.,,
Device Frame Generator,Google Play,com.f2prateek.dfg,Z3A6QU9xcFRPRnN2Z19QUTAwelJocnAtQkNFdjF6VGxJazBybnpfcG1LSzRmRzBOQU95SkFNU095T3FGcldjRm80TE43OS1idGFGa3hLRTlGUHRUT0lyTkE,English,,4,2016-10-25,J Sauler,Excellent,"Please add more devices, especially the new Pixel and Pixel XL",,
Device Frame Generator,Google Play,com.f2prateek.dfg,Z3A6QU9xcFRPRXhuTW0yY1FpaW5aV0MzbGVKZFV0NXYzZHlZNDN6eXlkc3MxWTJwQVZJTWs3N1EwMFlVNDJEWkFBSG1hdW5PazItTFdlcndlYjJ1bkpxaVE,English,,2,2016-10-05,sagar nigam,Need improvement & More Devices,"Recent update is crashing on my Redmi Note 3, After every frame I've to restart the App.. Plus Now it need more new devices Frames like Redmi Note 3, Mi5 &amp; Samsung Galaxy S7 etc",,
Device Frame Generator,Google Play,com.f2prateek.dfg,Z3A6QU9xcFRPSFpweFJYOXlqc0QwV1VUYTd3SFB4VW1jVU5rZi1rNHp1OGZNcnYxMGZCa2prcGNaZGdSUkZueDEwXzZqNGxZcC1LNDdCYnh4YThOS0xQc1E,English,,3,2016-09-05,Arron Earnshaw,Great but needs more devices,"Dropped to a 3* rating, as there's not many new phones being added. If you add OnePlus 3 I'll rate 5*",,
Device Frame Generator,Google Play,com.f2prateek.dfg,Z3A6QU9xcFRPSGc3X1hIeXYtZHdGNkpyd2N2ZkVuVTRhV1Vvbnlvc1NtQnpsU3huZE1sS1daUThPdTZFejVMcTI1dTBaX200eFd4U0VQY0tCRDU1T3pUcHc,English,,5,2016-07-25,Jagadeesh Duggirala,"",Superb !!,,
Device Frame Generator,Google Play,com.f2prateek.dfg,Z3A6QU9xcFRPRlFhUWpqS2VFV2JtcW13SXpIMW9DUWJLX3FOcDdxemhVc2UxV0RZVkgxSE9zRjRNZXlKRXNBeHZCcHhOam9idUhROFRTNlBaaXY4UzdhUUE,English,,1,2016-07-04,Benjamin Selzer,Every Piece of Crap Xiomi and No HTC 10,Blah,,
Device Frame Generator,Google Play,com.f2prateek.dfg,Z3A6QU9xcFRPRzctdGpITFlJSlR6S185ZlhGRHRqeU1EZDh0X1lvdGl3dk9wZTBEd2NrRHRJc1duS3FwQ0VPd20zY0FwQ3ItWTcyMDQza1F2eWdQX1FUbEE,English,,1,2016-05-30,Nicolas Sincere,Awful,Seriously lacking on devices. Worthless,,
Device Frame Generator,Google Play,com.f2prateek.dfg,Z3A6QU9xcFRPRm92OHJhQ0ljVFlxa2tqSEtoVjdLY19ubEN5cUI5dXo5WVdUaElSZHFaTWVtMFZIQ3RtcHNXeGdVZTRvMlVaOVNjSkV3cVJnTkt3NVZCelE,English,,5,2016-05-23,Zakir Şıxlı,"Good app, but...",Image managing and direct screenshot taking functions are urgent for comfortable experience.,,
Device Frame Generator,Google Play,com.f2prateek.dfg,Z3A6QU9xcFRPSEZTSGhoUzc5QzZjOHV3emVPSm9QS3J6T0FrTDIwcWJKZ0tadGh1TGlyQy15d0VsM0ZEbnBSZ2p0d083dnFXbzNPTlhFdEkxNUZTc2hlLVE,English,,5,2016-05-21,Dan Sullivan,Best,Thanks for this app!,,
Device Frame Generator,Google Play,com.f2prateek.dfg,Z3A6QU9xcFRPR0ROc0l3MVd1elRteC1qNjEzY3pYR2s5WjR4Q1BMWmtHbXdoTkhNVzNjclNiMVhPOVVFY25WVlI5QW9tTXVNTm50QmFDekNLcGNGVE9PR0E,English,,4,2016-04-24,Gerald Kuehn,Works for a few Devices,"Would be nice to put a screen record in it, not just a Screenshot...",,
Device Frame Generator,Google Play,com.f2prateek.dfg,Z3A6QU9xcFRPSGJ5UEFoTWFvejZ2RWtWTmQ0bWp5d1BPQUkxcVpxZ1dLOFhOVjJvdUczXzV0YWRZalloeGpac1ZmTDljYjlHdlRQdVJwZGs4LUhMWFRVTmc,English,,3,2016-03-19,Mike Fox,If you own one of the 15 or so devices it supports...,"Seriously, there is the Galaxy Note (first one) and not the 5? No Galaxy S6? Disappointed. Good mockups though. Hope to see more frames in the future but until now, it hasn't been useful to me so I'll rate it for what it's worth.",,
Device Frame Generator,Google Play,com.f2prateek.dfg,Z3A6QU9xcFRPSEM5MV96MG1WR3FiNlR1cDhyak1MeXRGbXM4Y0FjNjNHcERVdFhYT0xvMk9WbXRmX3RONE1VZ19JemxCVDl6dDlpNEdadTN3NVpvb2l2bnc,English,,5,2016-03-16,Hoàng Thế Kiệt,Good job!,"This app is all I need. Hope for more new devices (S7, G5, Z5, Tab S2, Nexus 9...) in the future. Thank you so much.",,
Device Frame Generator,Google Play,com.f2prateek.dfg,Z3A6QU9xcFRPRjV2dnFzXzVNbGNYOTNkOHJnNzZDVjlrdTBqZ2JjMm4wbVdXYnFOLXJhOHJsZUIwV3RRak04bWc3UWQ2Wk1TRTVQeGJOb1lXckpEb2R1QlE,English,,5,2016-03-07,john Vedinick,Resized screenshot,"Hi,  Is there any way that I can just get the resized image without the device?",,
Device Frame Generator,Google Play,com.f2prateek.dfg,Z3A6QU9xcFRPSGljRUQtS1FSZ093ekNPcTFEdzhvNm9KLUVmWU56bDIxdVZzNGVNcFpOajdlSTlFZFlhZlNQU3F2bFpaNVJMaFN2N3NnTzBMdG50U2RPbWc,English,,1,2016-02-20,Blake Mitchell,Yet another of these apps,With no Note 5 frame. No thanks.,,
Device Frame Generator,Google Play,com.f2prateek.dfg,Z3A6QU9xcFRPRVBfS0dRbVdUUTc4Q2VkYkVHMVhsRzhxWlRPWDhZV3JtQjRFbXFrYm9tLVhOMjVacXBQOVU4VUI1Nnlad1JBd2s4cHJPbHdUYXJQaVZmeEE,English,,5,2016-02-14,Sakshat Shinde,"",Plz add this for videos also!,,
Device Frame Generator,Google Play,com.f2prateek.dfg,Z3A6QU9xcFRPSHVHRHdjS1RIelZ6N2FEMXhOZVpkcGxSU241cjAtQ1hrRTJxSjFnMEZOVzMwdVluQ2lSSHhicDZQNnVsWEVDQlhJNjJLd2hvZWQtYlFIYnc,English,,5,2016-01-03,Fugi LaPlante,I love this app,I would really like to have the Samsung Galaxy s5 and s6/s6 edge here. Thanks for your consideration.,,
Device Frame Generator,Google Play,com.f2prateek.dfg,Z3A6QU9xcFRPRjhOTm1tSkNxTGxDRHZiN0dtRWl6a3lNX09VdGtSVHFTQl9ON1NNek16X3NoTlYySndKU0RfLV9lc1lmM293ZlRmaldkNkJvNl8yNG9iTFE,English,,4,2016-01-03,Bjorn Bainto,Now on Tap,Screenshots shared to this force close the app :(,,
Device Frame Generator,Google Play,com.f2prateek.dfg,Z3A6QU9xcFRPSDFsTXJiaGxNRnptcENOSVRDYl9FZWF5QVFpUVozV1BjVTJkWERpVkRJNkJ4UzloZ1AyY1h6VFc4eVNGOEYtUmhvUzRJa2NTSDhxTV9HNXc,English,,2,2015-12-30,Miha Kukovec,Icon,And still the same old icon.....,,
Device Frame Generator,Google Play,com.f2prateek.dfg,Z3A6QU9xcFRPSDNZbWhlYUVMaVZSRldhc0dUS1dBcDdZZVhRM243cEZ3QjlUbFBhMVJUTXFSRlZzZGE5LTRjR2x3WnBtZ3JNMmZUeDRXenc3b1BwYjU4MUE,English,,5,2015-12-23,Karsten Schreyer,"",Awesome,,
Device Frame Generator,Google Play,com.f2prateek.dfg,Z3A6QU9xcFRPRm1GenEtRG14RGxXd055eHFWYTlvTU92OGllbnNLQk1nekExRmFMVnBzNEdLRjhqOXFoZVEzSWo0bC1ralBFSC0tLTZib3NHSXRuWkx0ZWc,English,,5,2015-11-29,Pritam Saha,Nice,Like it! coz ita has Redmi 1S frame.. 😂😜,,
Device Frame Generator,Google Play,com.f2prateek.dfg,Z3A6QU9xcFRPSFNOT3VvOVVDb3FwUUJqdXBDRk41b1BKeTEydzM4UTZxNldnWm5oMVJ6bUVhclFwbklTWFNMRWVzTmcxR0JicE9OY01LaDZzZkN3QUkzN2c,English,,1,2015-10-31,utkarsh kapoor,Nexus5x,Please bring an update for nexus 5x and add in it.,,
Device Frame Generator,Google Play,com.f2prateek.dfg,Z3A6QU9xcFRPRnRUeWFXd3diTWlfMFdhTl9HUjhPUkZ6QXVNelh1UkxOeXM0VnFQU0w1OXRnZmlYVjRTM1QyNDZSTzBhWGx2MGV3cENmUzg1azNXYWYxaVE,English,,1,2015-09-28,Jazli Aziz,No 2015 phones?,Some 2014 flagships are even missing. Really poor selection of frames.,,
Device Frame Generator,Google Play,com.f2prateek.dfg,Z3A6QU9xcFRPR0tyVzZJVVlPUUd1cG9HZlhJd0RJV2p6b0tPS1JxT0VXY1lEai1YbEVreERFMDladUhBaGJFV3B5NEpPbE5yWUdqOXQ5OTRCa2lTT2N6YlE,English,,5,2015-09-23,Jared Kells,"","Simple, does what it says!",,
Device Frame Generator,Google Play,com.f2prateek.dfg,Z3A6QU9xcFRPRTBrdkpUeDF4OXVvSFQteUhGVzl4VmV6T0xpQ1EzbHdBMldoVlhmOFM4RGVwQUNEcWhFRmJHemZqamJNUHFocE95REJJSGg0YWlvYmdhaEE,English,,5,2015-09-08,Raphael Cohen,"",Add more phones/ tablet styles  and this app will be amazing!. Good work .,,
Device Frame Generator,Google Play,com.f2prateek.dfg,Z3A6QU9xcFRPSFF5RGpsTmhvdUlsMFhRUUZTUFhqSFUzN184QkUySFdBSmN3TXZmeDRLT25HYV90YkF4NEdiTmRncEFUZXBfOElQbGZ6Tk1BdzJFck1wQ2c,English,,5,2015-09-07,Kevin Michaels,"",Love it. Would like to see it updated more often though. Some more editing possibilities would be nice.,,
Device Frame Generator,Google Play,com.f2prateek.dfg,Z3A6QU9xcFRPRm9KZ0NUdXNlZ2dXdDBJR0I5Q3J2cFF4SEFSdnd0VFd3Q1N5ay01Wkk1b3lOQ24wbHd0OGdyNVk0bUdOUksxeHlHQWtkTHhUcFhNU09rRlE,English,,1,2015-08-23,Sagar Kapasi,"","Useless, No Android One",,
Device Frame Generator,Google Play,com.f2prateek.dfg,Z3A6QU9xcFRPRkxVUmZMbkNXcmFlQ01BdHhiV1h6MmlmWW8tSjM3enV6MUtFTG9nSXI4b21nVG1xU2JYUHNoQTNzWWk1b05aTmFiSVN3Z1p1NHZIcDBiUFE,English,,1,2015-08-23,Omar Jawhar,Seriously?!,Add all the new flagships. Useless junk app without them.,,
Device Frame Generator,Google Play,com.f2prateek.dfg,Z3A6QU9xcFRPRjA5T3Jmem5PbHVGM0JDaDBTd1ZZSk1pV2stVXVFb3Bld01QQmxYRmJ6TmRmWlZrUWRIVkNIcDVkTkNhVjFSX3Y4YVZRalY0VDR6ajVuMWc,English,,5,2015-08-17,Jerrad N.,"","Quick, easy, and gorgeous screenshots.",,
Device Frame Generator,Google Play,com.f2prateek.dfg,Z3A6QU9xcFRPR09tcTBDeFNESTZmcDlLQ2FHMUJBQVlCSVd2TS1CeEotcWVDeVlYRGJWWmxpNUJVZUF6RG5fYmxXOVF0QUdxOEY3MFYzdGZtNE5iczQ0aFE,English,,1,2015-07-25,Aditya Sharma,Not a good app,Tested different wallpapers with different frames. App doesn't respond and it says unfortunately device frame generator has stopped.,,
Device Frame Generator,Google Play,com.f2prateek.dfg,Z3A6QU9xcFRPRnk5WU5EcmFkTHhPdXhSZ001S2lTaEpRcm1HRDkzT3J6MHZqdFVfc01QRmpZcTNyYTRqV2Vac1lMTm02a0QwMEx5ZmJ0QVdfSUZjSGJLa1E,English,,1,2015-06-27,Techiehook HD,Waste of time,No oneplus one....,,
Device Frame Generator,Google Play,com.f2prateek.dfg,Z3A6QU9xcFRPSFhZME53UEVocnJTNjVNR1hRY1VzNXRUOVp6ZEJQMTNDQnI1anA4akpQWTQyZmVNTkg3ZW5OMGlSbTNQcmtsakxNTjgySWFCN1NObnZwWlE,English,,5,2015-06-09,Ezhil Anbazhagan,"",awesome,,
Device Frame Generator,Google Play,com.f2prateek.dfg,Z3A6QU9xcFRPR3RXY3k3WGZvWkNHUkZvUzZmRDdKZjBxVDJxMlkydE5UNUdPQXQ1ZEg1TU96b0t5MUZEbEluSUNiZHY1SjhWT3MzUlpRa2NNNmpJNU16VHc,English,,5,2015-06-02,andee de lioncourt,Nice,Work 👌,,
Device Frame Generator,Google Play,com.f2prateek.dfg,Z3A6QU9xcFRPR0FlR0x5bVdfVDBmOG1JSkhYa25QVnZrclRKUXlOWm1pSTB5TVVlMWp2SGc5TGlScVNVdkFUYWlGenBYVzBJeXNVQWdZQ3JMZFdNMDBoNkE,English,,4,2015-05-30,Pinak Wadekar,Is good but...,Need a black background color selection. If its available then please let me know!,,
Device Frame Generator,Google Play,com.f2prateek.dfg,Z3A6QU9xcFRPRXFWYlVrNWVSXzlOWi1JQUtfc3MteTFaVS1TX3E1YjJLZHRtTVd1eURFeW45X1kwZ1ppZi1vdEw0aFA5djlMM29CLW02eHAydDZFSFdXenc,English,,5,2015-05-30,Anil Patel,"",Awesome work,,
Device Frame Generator,Google Play,com.f2prateek.dfg,Z3A6QU9xcFRPRjFZYjJzNnVPaXpmUzNSMmFBbENqS2ZwQTBndFowMW96MTBXU0N3b2dRTmZ4SDI5WnVUdTdwdm9wMG9TM014YUVhYXVoVk9oeGNoRHZha0E,English,,5,2015-05-28,Harikesh Patel,GOOD,very nice.,,
Device Frame Generator,Google Play,com.f2prateek.dfg,Z3A6QU9xcFRPSHhGbklYQXY5TlUwS3BMTjFicW9Xb04yT1lzMWZFd1BEc3FQaGd0VHowRnB5bmludE01dGFzcGJWZWZzejNMV1REOUJ6ZjdUQW1TX0dzNUE,English,,4,2015-05-19,Sai Krishna MVM,Very good,Am option to choose background color would've been better!,,
Device Frame Generator,Google Play,com.f2prateek.dfg,Z3A6QU9xcFRPSFlqTWVVaE43NDQwVUgzNFE4bU9qNjZPQldFd0tWV3JCMGpGUml0b1BPc3d2aEhmQThrV045c0pHS2NTa19qdDlNZE9Pb1V1eDYtQmxoT3c,English,,2,2015-05-12,M Sulaiman,"","Add LG G2, G3 ... Also missing latest flagships",,
Device Frame Generator,Google Play,com.f2prateek.dfg,Z3A6QU9xcFRPRi12V2pKS1pWRDlleC1lLWNSMkZ4MV9EOGtVY1NpM1VCWnZXa0lkTENsWG5MQUVVeEVzaklHQmpVMnpJdXN0S2ZNN2xQa0J1M3lnVkRZc0E,English,,2,2015-05-08,Tejas De,"",Add new devices,,
Device Frame Generator,Google Play,com.f2prateek.dfg,Z3A6QU9xcFRPSFRoUnUwQUx1LUxVMmRlZmktT3lidV82eFYzZkpsTzZJQjV6NHJ2Z0hDTE5TWUZtSXh1VGxrNTBHUW1aOUZuZllVM2J0dGdSOEtPX0lxbUE,English,,1,2015-05-08,Shiv Manas,"","Outdated devices, missing all current generation flagships",,
Device Frame Generator,Google Play,com.f2prateek.dfg,Z3A6QU9xcFRPR01JUEJBdUxiTF9EYlp0RjJzTVBJQzZLSFg4d3BzM3Z0RWp3bjc2M2JYMGRzbWNvN0RaaENDbHZ2dWJxZGF3VnBvMlhlZlNaelY4SkdwSEE,Korean,,5,2016-08-21,김동현,very good application,Thanks!,,
Device Frame Generator,Google Play,com.f2prateek.dfg,Z3A6QU9xcFRPR3BsWFRXZGVjZ2kxNy1XSUJxRjNLaVRmX3lWTThXX3laUFBkSWhTRTZVb29oNzVxUjlOVmc5a3V3dlJDOHpUT2owUFI1Ry1XWnFOUG9OdHc,Korean,,5,2016-05-15,송인규,이게제일좋음,최고임,,
Device Frame Generator,Google Play,com.f2prateek.dfg,Z3A6QU9xcFRPSDZWX3VIVTlGcWMwZGQwYTZ1WDB3SEtKX3ZWakhpcVRtTVBXTl9hQ2daSENLOFpmQ3JiR3Iwd2o2LXpLMG5UY1JCczVyd2liblJWVVgxRFE,Korean,,5,2016-01-14,박영수,넥서스5x,Good~~~~,,
Device Frame Generator,Google Play,com.f2prateek.dfg,Z3A6QU9xcFRPSExtZmhBWWFKV0NGdEk4ckhYWjNyNmlDbkxYdVhCTVpMcDhhcHRPcEl1a1FabG1UREozbWc0TDBqS2dfT2dIM05TWHJDY3BFNkdOc1duMWc,Korean,,4,2015-10-23,H.S. Choi,추가 기기가 많이 늘지 않았군요,갤럭시탭S 시리즈도 추가해 주면 좋겠습니다,,
Device Frame Generator,Google Play,com.f2prateek.dfg,Z3A6QU9xcFRPR25CR09MMmpWb19OUUFncGxJNS05am1lOGR3dEw0ZEpkRnN1UEROVDI2V2p3aWFlT244cklhdGdnWGx4M1NMXy1zOGI4b0Qwc2xUX05UN2c,Korean,,5,2015-09-21,Taegun Roh,xperia z2도 추가해주세요.,z1만 있넹ㅋㅋ,,
Device Frame Generator,Google Play,com.f2prateek.dfg,Z3A6QU9xcFRPRS1EaXAyME9EVFRscGNrbk1qMTg0d1haZGE5WGRUV0hIT1BaWmR0eFRGSFI0NVhQVlNZcWVIa0llY2lqeFVNN3BqT1Y3cTNLQVctY2xLS3c,Korean,,5,2015-05-10,김준명,"",Awesome,,
Device Frame Generator,Google Play,com.f2prateek.dfg,Z3A6QU9xcFRPSDViRHRSQW9paXJ1SURaUnNHcG5LeUE4OTVXQ2RpMmpQN2lxSDZ0VU5TX2JnbmFGb0tMUTU5ZFhLSEZPZkdNdmktNGdHb1czakhRUk1NNHc,Dutch,,3,2016-12-26,Pep Henneken,Handy app!,Although latest update(s) don't work well for me (sharing a screenshot directly doesn't work). Reverting to a backed-up version up yet again.,,
Device Frame Generator,Google Play,com.f2prateek.dfg,Z3A6QU9xcFRPR2RRTVVkVnQ5Y0drSjgzbW5QamhZS3ZPejEyZFlXcVFiMU90cG51T2NXUUEtcnpIRlpGeFRZOUs3cU5TZENJSHNWOVRCcDhpekQyNEtQM2c,French,,3,2016-01-04,Steph Ane,"","Très peu de modèles proposés : marques nexus, samsung et xiaomi",,
Device Frame Generator,Google Play,com.f2prateek.dfg,Z3A6QU9xcFRPSHhtLVpwTGg1QjI4d1I0LWlIQzlhaE5uUWpaRmtWNDRqSTV2aHhQLWpqWjh2WTd1V3FZdzRXWDZNMTM4MU1LVFVvM2tRS1FjNDQxOC1mN1E,French,,5,2015-07-19,Maxence Rouleau,"",Android Wear est-il prévu ?,,
Device Frame Generator,Google Play,com.f2prateek.dfg,Z3A6QU9xcFRPSHlOM2JWQUpJT3lPc3FFaTZpSEZscDl4WjNLQlNIeDNnWmJtLUo1eEVZMHYxMXJtaUtIM2U4ZTVnQ191dEJBMnVZOWVDLWhtLXZYTWVSNUE,Greek,,1,2015-05-31,Drew Christodoulou,Not enough phones...,Yeah.... If u hope to get more than one star reviews u will add more than 10 devices to your app.,,
Device Frame Generator,Google Play,com.f2prateek.dfg,Z3A6QU9xcFRPR19TVjdTYXZCZHB3SU9UVXZyUW1tSFphQ3lZS3RoMWFSRi1ibnJxNlJrNzNmRUE0dkVwTXdtLThubkJmNkN6R01vc3NBVTlEMmdmanFubUE,Chinese (Simplified),,4,2016-04-22,Zheng Yy,interesting app,"please support sumsang s6 edge ,thx a lot",,
Device Frame Generator,Google Play,com.f2prateek.dfg,Z3A6QU9xcFRPR09KQXVCUUdGSEhMQzlKekhCR05SWWxjRmJfSFNKb0swOTlSMWRVM3VielVkU1pPTm9ySWxZNW1oSWVTTkpMdVV6RE5XUzJKR1k5elBaZXc,Chinese (Simplified),,5,2016-01-02,Lai homwam,更新后Nexus6P下拉分享到DF出错,如题，截屏后下拉状态栏分享到DF后，DF停止运行。进入DF选择就可以。,,
Device Frame Generator,Google Play,com.f2prateek.dfg,Z3A6QU9xcFRPRVJUQ3JaelY5QVcwNEVqaWNCSFMyOTVXU1NMME1qUXhTamlCdHFHX2FwZXdxMzB4bWpfeGlsTXNrQ0JGSmJMWEtneVU0U3NFQ0dLcUpSMGc,Italian,,5,2016-01-26,Francesco Campus,Great app,Could you add xiaomi redmi note 3 frame?,,
Device Frame Generator,Google Play,com.f2prateek.dfg,Z3A6QU9xcFRPSERZdU1LQWJUTldPN19QLUlIUmF3amN5c3NkcW1DYU04MzJzSEhjWFRGQjRBeWNVT0NnX3JtUnA5Ukd3YUVUVFlvekVRZVVsSGNYZ3UtM0E,Italian,,5,2015-09-16,Gianmarco Piccirillo,Bell'app,"Buona app, magari se aggiungeste un pò più di device sarebbe meglio",,
Device Frame Generator,Google Play,com.f2prateek.dfg,Z3A6QU9xcFRPRkFkZU91SnFKeFhKaVBSTFpzQWE0RkltTE1Wc3hIOXdlZFJjUi1acGRmRnFvNU9vTEVFMFdMWVdLd09pSHVCTjRFZFg1MWItZXFnZEF4THc,Italian,,1,2015-06-07,Houssa Adel,Pochi smartphone,Ne mancano tantissimi di terminali,,
Device Frame Generator,Google Play,com.f2prateek.dfg,Z3A6QU9xcFRPRk5zTjY2cmFURDFsWm1jX1RUN3V0OWd3aGhMVTljU21KaUV4ckNHSHdvVU91UzFWTDJLOEFGa0pJMnFMNjZ2NUQtTVB3Nk9iUUIzMDhnMUE,Chinese (Traditional),,5,2015-06-13,Mark Huang,"",very good!,,
Device Frame Generator,Google Play,com.f2prateek.dfg,Z3A6QU9xcFRPRlFmWThaUk1QMlIxSTZvRmZLX3dsa0tGaWxpbG1qMFN4b1ZmZV81cFZNMDJwYUtTQTRrWC1MQ25ITUQwYWpJOER5YmJwalBKMGJweEpZQWc,Arabic,,3,2015-09-14,عاشق. صلالة,"",هل يدعم وضع الفيديو ؟,,
Device Frame Generator,Google Play,com.f2prateek.dfg,Z3A6QU9xcFRPRl9Yc2IyWkQ3d3NaTlRXYkhxYmlyZWhCOEJkUE5jcnZ2ekxxeFRscmZ3aWdaSjJGalJmc0lIUjF4bmlBc3JUOXdEMXQ2MHVvNkM2dXFxZUE,German,,5,2017-01-13,Mario V,Top,Imba,,
Device Frame Generator,Google Play,com.f2prateek.dfg,Z3A6QU9xcFRPSFBFaDFPOEpycXlITm9nOEF4ZnZadXVTQWg1aEo0dW82ZUtxSU1SR1FXa0VPUkh5MUc5Z0U2blVtTWYxanVXYmZRWk01WjdkMTczazlWWFE,German,,4,2016-07-29,BlackNebulaR,Tolle Verschönerung für Screenshots,Diese App verschönert langweilige Screenshots ungemein und ist einfach zu bedienen. Leider gibt es aber nicht alle Geräte und viele der Geräte sind bereits mehrere Jahre alt.,,
Device Frame Generator,Google Play,com.f2prateek.dfg,Z3A6QU9xcFRPRnJFZ1RlRlN2cW02S0R3RkM2ajctRTRCWkx0OWNYQllCNEV3cEpzYXlPZGpKZ0FBUHA0X2VwQ0Vaa1ROaEgwZEFhb19ZazBpalA0dkhuWVE,German,,4,2015-05-24,Keno Nagorny,Sehr gut!,Sehr gut und flüssige Bedienung. Ein paar mehr Geräte in Zukunft wären super.,,
Device Frame Generator,Google Play,com.f2prateek.dfg,Z3A6QU9xcFRPRmVQbzM4dVpsbFczS2didzFQQkw2ckhNUTRPaXM2dUF1Y1dNX1I1azdzdDAxdGlkTTM4YlZPdmJobThxSE14ZHF5YW1rUS1wVEY1N2RhT0E,German,,5,2015-05-04,Veit Joseph,Easy to use,Does what it used to do. No special feature because not needed. Super fine for me.,,
Device Frame Generator,Google Play,com.f2prateek.dfg,Z3A6QU9xcFRPRXN3Y1dBb3hlTnBHVTZOWnlGSXd1T0ZYWFI0MHN5Z1JTQ2RBQktNVUw0TVE1am83Wm5TVmJjZC1zVnNXRy1RWndEVVFaSG9UcXJRSm12eVE,Hungarian,,4,2015-07-04,David Budai,"","Good app, but please, add HTC One M8!",,
Device Frame Generator,Google Play,com.f2prateek.dfg,Z3A6QU9xcFRPRlFoc3k5NUtqY0x6dU9KemxKVHlaMkxjM2hQOXVnTXYzUjVsN2p6V2E4Rlk2UllGWUVtM3JGYmFUTjhraEJ6S2JYazZqQzJFUDdtY1hlZmc,Hungarian,,5,2015-05-29,Kornél Szabó,Ez ez...,Ez mennyire hiányzott! Thank you!!!,,
Device Frame Generator,Google Play,com.f2prateek.dfg,Z3A6QU9xcFRPSExYXzl3ZS1vSXB0TkNOZ3l1RTBNRHctYnA5WEE0WE5rN0I4SHNnSmJyajFfTHctbmZuNmdKajhFek1ucHQwdE10eU9xUXpTdXdzaUNUZHc,Indonesian,,4,2017-02-11,Zul Kurniawan,"","Pilihan perangkat ada banyak, tapi hanya satu atau dua yang bisa dipakai (hanya menyesuaikan resolusi perangkat asli).  Sangat disarankan untuk bisa menggunakan perangkat lainnya.",,
Device Frame Generator,Google Play,com.f2prateek.dfg,Z3A6QU9xcFRPR1ZPTzY5N2NpNGxPcVlLZmxueEFiUE9QLTRRa0JHYjYyckdWSTJCeFB1UXRHdFRGQ0NYcnY3VjhmTjJSZWxyX3dZNEhsWkh2dnZud0RNbnc,Indonesian,,5,2016-05-22,Mas Koppo,Terbaik,"Diantara aplikasi sejenis ini yang paling bagus. Tingkatkan lagi,saya request frame Asus.",,
Device Frame Generator,Google Play,com.f2prateek.dfg,Z3A6QU9xcFRPRnFpd2k1LWtDV1NrbjFNNVBicXRWZ2dSbDN4QXZ5SjRpdExpVFd4VEM5eFdJOWlPbXZTLTR0dTEzOERzTmJMMFl2Z1k5MV8tQTVCVGZHSnc,Indonesian,,4,2015-10-07,Kang AB,"",Nice... :) but Customize background is Nothing :(,,
Device Frame Generator,Google Play,com.f2prateek.dfg,Z3A6QU9xcFRPRjJRVUpORGM4VndaRE9tMFpUaHYzWERQWkxfczgxdFhLdnJfazNSVmNoeER1SjhyQ3ZOeXljaVRXaXFqTjBOMmwtTFo1NVEyLTN6R0lUd0E,Indonesian,,5,2015-06-19,Rafli_ Tanpa_ID,"",Bagus nih ... buat para design home screen,,
Device Frame Generator,Google Play,com.f2prateek.dfg,Z3A6QU9xcFRPSEJNZGMyQ0MtdzF3eDZCTThqcTJ3VUJJbTlVRkdLd2Jwa01GbjF5RDVOcWFtSjJxOEhHWWZuSjB3dUZiWmc2d1ZXSVVKMnc3cF9Nc3FBYkE,Indonesian,,5,2015-06-16,Adibbian Kasendri,Wokee Gan,Mantap..,,
Device Frame Generator,Google Play,com.f2prateek.dfg,Z3A6QU9xcFRPR1JfWGxGLVo4MjBXVUFyRzhObTlSbVNvOVZyeFQ2NVByMkZUcFBBbUZLeWRBaWNfWUN0NEtTc08xYmlXR3doQndmSWR5MXU0LUs1WjJFVVE,Indonesian,,4,2015-06-14,Anton Tiherna,"",Request : Template untuk jenis Oppo belum ada,,
Device Frame Generator,Google Play,com.f2prateek.dfg,Z3A6QU9xcFRPR0lNLWo4UHVjQUNPWFZaQW1xWVQ4S2trOEVibjRmZDVnTFNRNXJIVlpXRmYtX0QxbXUyZzdPOXliVFlRQ1N4aS1XQUtWTXBnVHYxRHhab0E,Indonesian,,5,2015-05-13,Abdul Majid,"",Mantap...,,
Device Frame Generator,Google Play,com.f2prateek.dfg,Z3A6QU9xcFRPRi1SS19LNU9hdVB6Y2hzR2pBM18xQ1g3ZlJxbVZZUGUyTWVpS2FLS2NEc0JNckpYcWZGdmNrOXRrdmR5cy02YWlrd3c4UW1QZDN6OHBqWlE,Indonesian,,4,2015-05-05,sgt 2309,"",Mantap,,
Device Frame Generator,Google Play,com.f2prateek.dfg,Z3A6QU9xcFRPSDRoQkxnTV9TQmN5N1dJeE50UkRCRWxRVmZCMXRmQmdDQ0FTb3NINXY3QlZIMDkyNXNDUnpQZjhfd3Z0dk9vem14ZGV1dkNjd0o3UG1rN3c,Polish,,1,2017-01-31,Sunshine Polska,"",Nie ma rozdzielczości dla neffosa C5. Jak będzie dam 5,,
Device Frame Generator,Google Play,com.f2prateek.dfg,Z3A6QU9xcFRPRVI3WmZISkJIM1ZWM0MwQ0dLdjJrOWFkUS0tWG1OTHJTbHZ1MkpXSUhOU2E3UmJSeGNnVGNjUWJZWXdBMkhmTTFER1RBc2JiWVEzWWFXaHc,Polish,,5,2015-11-06,Łukasz Orłowski,"",Please add new frames like LG Nexus 5x or Huawei Nexus 6p. Thanks.,,
Device Frame Generator,Google Play,com.f2prateek.dfg,Z3A6QU9xcFRPR0daMWdyeFhLem9ZZWVvdjF2TWdEZEVPaDRRMlVOUmg5Nl9PWVRxeUtJOXJuNHJvTHFTOEZ6S2J1Ujl5VGZ4LUdfcmdXbEtjdzlSYkc5Rmc,Portuguese,,2,2016-05-07,Sakata fazendo Sakatisses,"",Não tem pro meu celular,,
Device Frame Generator,Google Play,com.f2prateek.dfg,Z3A6QU9xcFRPRkF3ODFldVpURnhkZVJ0ZXdYNFlwM21NamgtYlNSa3B5SENGejVJRWJOUnhVUXItWC1PcHFXTHhtaUVDVjBHc0pMQ1lQQjJzUVJsMFgwSVE,Russian,,4,2016-09-21,Grigory Berengolts,"","App is excellent, but needed a white background. I don't understand how to set up it (if it has this ability).",,
Device Frame Generator,Google Play,com.f2prateek.dfg,Z3A6QU9xcFRPRnBsNnhiZWQ5TU1IcFljWllid0dnRUxiSmhKRW9XbWRONXZiQXhjWEh3RWIyVGhDMXRuWlk4aHBCYUNFRG1kY2lJcnBsWC1LUU1EVXItMHc,Russian,,1,2016-04-14,Lenovo A3000H,"",The app crashd when i try add photo,,
Device Frame Generator,Google Play,com.f2prateek.dfg,Z3A6QU9xcFRPRUhuTkpTTU81QlBGa2U5Qk1ndjhjcEw0N2V5dFBxVUU3cjJ5TlNUcFMyNU1fblhtTWI0d3ZhSHdKeVFBcFhNM1J3TnAtSGg0bUNmR1o0ZGc,Russian,,4,2015-12-06,Владислав Тазов,"",Добавьте One plus 2,,
Device Frame Generator,Google Play,com.f2prateek.dfg,Z3A6QU9xcFRPRlRrS0g4UWhIelZHTVF1TFZRUHpyblhOYklvT2lQajFweHJkYjFGTFZOUm45QVdmNTBFMFZ1RUdJbWw4U1VyYk13NjFjRDlFbEVPRTM3c2c,Russian,,4,2015-07-20,Вячеслав Головенко,Add Explay Indigo,"Please , add device ""Explay Indigo""",,
Device Frame Generator,Google Play,com.f2prateek.dfg,Z3A6QU9xcFRPSEhlb0tLR1pPNDlEcHJxTnpiVXlqbC1UUS10bnlPQ0lSMlg1a0wzSEpyUHNvUGpfblZpUXBjNkIzRU45WENjcW92VVE4TjVfUWt5OEtzc2c,Russian,,3,2015-07-10,sergey romancov,Мало устройств,"Добавьте nubia Z7 mini. Please, add nubia Z7 mini.",,
Device Frame Generator,Google Play,com.f2prateek.dfg,Z3A6QU9xcFRPRzNKYTFVcHN5MDlPdFE2SHVlS1htWDNoNmdhWTlEb0NGejJvVVhseE5lYmQ4OHA5UmVyYnN5YkVSdW0xY1ZTaUQ0RmI0Ry1ZY1ZRNm9EU2c,Russian,,1,2015-05-18,Мемстер Мемов,Мало девайсов.,Добавите Galaxy S IV - исправлю.,,
Device Frame Generator,Google Play,com.f2prateek.dfg,Z3A6QU9xcFRPR25FbGJETGZNRnJCaURwMkNnc0k2cDU1TzhKdUhtUEU1Nm5ZMmpMb3FfcHFhM1BBQW1iaWg3UVFEdV9WOGZoQlluVEJoNGdzblpRYURlTEE,Spanish,,5,2017-02-09,Ellie Goulding,"","Muy buena para personalizar las capturas de pantalla,mejor que screener",,
Device Frame Generator,Google Play,com.f2prateek.dfg,Z3A6QU9xcFRPRkRYS0hKS0FOWmVSWFQxV0JzYjJfaWxBOGN6YTBjdG5zaXA2WTR5aEtNa0NnZVEzVG1FM0NIQjNFQ3pGLTlQSTVYMGJrdllJMWhZZjFZLWc,Spanish,,5,2016-04-23,Alfredo Durán,Nexus 6 XT1103 32Gb,Cool!,,
Device Frame Generator,Google Play,com.f2prateek.dfg,Z3A6QU9xcFRPRVRZczJiaUk5MkFXZF9OSFhrMFlpUHNKTUMxbThfU1N2R0ZaWDBOT2theUpnU1FpSi05bmN4cUZ1ZDhnRUMyWEVjdHpNX2tKMl9Wd09wb1E,Spanish,,1,2016-04-03,OoZz Javier,Pesa mucho,Para que sea una mierda de aplicación,,
Device Frame Generator,Google Play,com.f2prateek.dfg,Z3A6QU9xcFRPRU1Vcm9ULW9KQ1hITDJMeGhGeDZvTjRWS25sX1pxWTYtMXVuLXM3WnJtZ0NVbzBCemdmQzlheEFJRFZSQzUyWUZoT3QyZTRlbmc5S2RObEE,Spanish,,4,2016-03-25,Rolo Nieves,"",Improve filtering,,
Device Frame Generator,Google Play,com.f2prateek.dfg,Z3A6QU9xcFRPRVhrajRtTi00b1NTR0dMT3JfWVVwbmxQRmdQandJYVJjMnBjNkxxTkRUeEF5VXhOTGltMTVxaVpJdWVrUlBYdTVwVWh5QnlBcGdHV01wT3c,Spanish,,4,2015-12-24,Victor Luján,HTC One M9,Necesito plantilla para el M9,,
Device Frame Generator,Google Play,com.f2prateek.dfg,Z3A6QU9xcFRPSFduYU16U1JxTUdZLVB6eXdpelk5ejJ5NEhLb2p6SS1Jd3ROZWJiZG5NLVRvQS1BWXA4dVJpR1BsT2EtNjJ5bkVwOXpiZHNVelUwSkdjYVE,Spanish,,4,2015-12-08,John Villavicencio Sarango,"",Falta Template para el Xperia z3,,
Device Frame Generator,Google Play,com.f2prateek.dfg,Z3A6QU9xcFRPRk5vMWVkQ0JValczZmw0ZDFwMTZHVjc1Nk5OT3RNQkJiSEJRQnFJbVRuRTlxdExqdDNQdmJLd0E0Tmp0ZXRCV1o3ZTV5bURyc01rVTJWSlE,Spanish,,3,2015-06-14,El Ingeniero,Autoajustar,Debería de auto ajustar los screenshots.,,
Device Frame Generator,Google Play,com.f2prateek.dfg,Z3A6QU9xcFRPR0VuQXZ1bldDWDNSX2JkUnFrb21EVlA1aDdCNmVlaWpQd2hRWkxDWmlVZkhMaHZJZFpld01GVFZ6V1NaalM1R19ZS05aeHVsVEJZSEFFMFE,Swedish,,5,2016-11-11,Jenny Hanell,"","Would be nice with more modern phones to choose from and also smart watches like moto360 for watchface developers! :)  New comment: Thanks for adding Nexus 5X and 6P. Although what has happened with the colors of the backgrounds? They were much nicer before! Now I often get an ugly yellowish color when having the ""color background"" set. Anyway, still like this app alot!",,
Device Frame Generator,Google Play,com.f2prateek.dfg,Z3A6QU9xcFRPR2c3LWZvSWlFcm80endLZ29ockNyRUtLcXNZcUxIb3BETWw4RVJ0RDV4Z21GWnJYYjViNGtmTzh0OHZYZnVneDFTaEl2OUtmMkQ4ajYwOXc,Turkish,,1,2015-07-17,Bilal YLDZ,So bad!,"Man, you should add more devices.",,
