better alignment for play button on every,b,2015/6/02,,
delete,b,2015/6/02,,
clear some redundant code and get version,f,2015/6/02,,
update string,b,2015/6/02,,
custom filename for extracted,o,2015/6/02,,
fix for name,b,2015/6/02,,
improve method,b,2015/6/02,,
add navigation drawer and optional,f,2015/6/02,,
delete unnecessary import,o,2015/6/02,,
add header for day and night,f,2015/6/02,,
replace to,b,2015/6/02,,
add,f,2015/6/02,,
go to play is clicked,b,2015/6/02,,
replace info drawable to play,b,2015/6/02,,
update dependency,b,2015/6/02,,
add to,f,2015/6/02,,
update,b,2015/6/02,,
fix navigation bar setting on device,b,2015/5/31,,
install location the internal memory of my device is quite small this pr should allow user to easily move the to the,b,2015/5/30,,
add darker color for status bar,f,2015/5/29,,
update,b,2015/5/29,,
replace to,b,2015/5/28,,
replace to,b,2015/5/28,,
update,b,2015/5/27,,
update version code,b,2015/5/27,,
add community in setting,f,2015/5/27,,
add,f,2015/5/27,,
add about activity,f,2015/5/27,,
