remove and translation completed,o,2015/7/05,,
improve code for pro version,f,2015/7/05,,
prepare 10 release,f,2015/7/05,,
update layout,b,2015/7/05,,
update translation,b,2015/7/05,,
update translation,b,2015/7/05,,
update translation,b,2015/7/05,,
hide,f,2015/7/02,,
fix navigation drawer is null,b,2015/7/02,,
remove unused setting,b,2015/7/02,,
fix margin,b,2015/7/02,,
update dependency,b,2015/7/02,,
add,f,2015/7/02,,
add favorite,f,2015/7/01,,
improve,b,2015/7/01,,
update language,b,2015/7/01,,
more asynchronous add and optimization,f,2015/7/01,,
update dependency,b,2015/6/30,,
added 2 feature for rooted phone clear cache and clear data,b,2015/6/21,,
is created to provide single of,o,2015/6/21,,
earlier multiple instance were being created which is not required,b,2015/6/21,,
added for checking some root related info,b,2015/6/21,,
tested on a few rooted and phone,b,2015/6/21,,
update translation,b,2015/6/20,,
update,b,2015/6/19,,
add android arsenal to,f,2015/6/19,,
release 051,f,2015/6/18,,
update string,b,2015/6/18,,
