package,release ID,UI element,related topic,average polarity,# reviews,average rating,average objectivity,# uninstalls,delta rating,element deleted next release
app.openconnect,"v1.11, Latest",@+id/needs_work$needs_work,1,0.3918498883928571,16,4.3125,0.5351587301587302,0,-0.17489495798319332,0,0
app.openconnect,"v1.11, Latest",@+id/needs_work$needs_work,5,0.18735119047619048,4,4.0,0.47232142857142856,0,-0.4873949579831933,0,0
app.openconnect,"v1.11, Latest",@+id/needs_work$needs_work,4,0.5339892676767678,11,4.909090909090909,0.7206691919191919,0,0.42169595110771585,0,0
app.openconnect,"v1.11, Latest",@+id/needs_work$needs_work,0,0.2783333333333333,5,3.8,0.30166666666666664,0,-0.6873949579831935,0,0
app.openconnect,"v1.11, Latest",@+id/needs_work$needs_work,3,0.4208333333333334,1,5.0,0.31388888888888894,0,0.5126050420168067,0,0
app.openconnect,"v1.11, Latest",@+id/needs_work$needs_work,6,0.75,2,5.0,0.675,0,0.5126050420168067,0,0
app.openconnect,"v1.11, Latest",@+id/needs_work$needs_work,2,0.47777777777777786,3,4.333333333333333,0.7611111111111111,0,-0.15406162464986028,0,0
app.openconnect,"v1.11, Latest",@+id/token_need_password$token_need_password,7,0.30625,4,3.75,0.28958333333333336,0,-0.7373949579831933,0,0
app.openconnect,"v1.11, Latest",@+id/token_need_password$token_need_password,10,0.06220238095238094,2,5.0,0.5133928571428572,0,0.5126050420168067,0,0
app.openconnect,"v1.11, Latest",@+id/token_need_password$token_need_password,11,0.3703125,3,4.666666666666667,0.7127314814814815,0,0.17927170868347364,0,0
app.openconnect,"v1.11, Latest",@+id/token_need_password$token_need_password,8,0.42698412698412697,3,5.0,0.6265873015873016,0,0.5126050420168067,0,0
app.openconnect,"v1.11, Latest",@+id/token_need_password$token_need_password,9,0.7816666666666667,2,5.0,1.0,0,0.5126050420168067,0,0
app.openconnect,"v1.11, Latest",@+id/token_need_devid$token_need_devid,13,0.0,1,5.0,0.0,0,0.5126050420168067,0,0
app.openconnect,"v1.11, Latest",@+id/token_need_devid$token_need_devid,14,0.3524088541666667,8,4.5,0.6172743055555556,0,0.012605042016806678,0,0
app.openconnect,"v1.11, Latest",@+id/token_need_devid$token_need_devid,15,0.85,1,3.0,0.45000000000000007,0,-1.4873949579831933,0,0
app.openconnect,"v1.11, Latest",@+id/token_need_devid$token_need_devid,12,0.3809523809523809,1,5.0,0.488095238095238,0,0.5126050420168067,0,0
app.openconnect,"v1.11, Latest",@+id/connection_time$,21,0.225,1,1.0,0.45,0,-3.4873949579831933,0,0
app.openconnect,"v1.11, Latest",@+id/connection_time$,20,0.3152380952380952,5,5.0,0.547420634920635,0,0.5126050420168067,0,0
app.openconnect,"v1.11, Latest",@+id/connection_time$,19,0.4791666666666667,2,5.0,0.7125,0,0.5126050420168067,0,0
app.openconnect,"v1.11, Latest",@+id/connection_time$,18,0.4190476190476191,2,4.5,0.5773809523809523,0,0.012605042016806678,0,0
app.openconnect,"v1.11, Latest",@+id/using_pin$,23,0.2805555555555556,3,5.0,0.6777777777777777,0,0.5126050420168067,0,0
app.openconnect,"v1.11, Latest",@+id/using_pin$,22,0.4257316468253968,6,4.5,0.552529761904762,0,0.012605042016806678,0,0
app.openconnect,"v1.11, Latest",@+id/using_pin$,26,0.22083333333333335,7,3.7142857142857144,0.376984126984127,0,-0.7731092436974789,0,0
app.openconnect,"v1.11, Latest",@+id/new_vpn_hostname$,29,0.38645833333333335,6,4.5,0.5453317901234568,0,0.012605042016806678,0,0
app.openconnect,"v1.11, Latest",@+id/new_vpn_hostname$,27,0.45547619047619053,5,4.6,0.6654761904761904,0,0.11260504201680632,0,0
app.openconnect,"v1.11, Latest",@+id/new_vpn_hostname$,31,0.25148809523809523,4,3.0,0.3866071428571428,0,-1.4873949579831933,0,0
app.openconnect,"v1.11, Latest",@+id/new_vpn_hostname$,28,0.43854166666666666,4,4.5,0.5805555555555555,0,0.012605042016806678,0,0
app.openconnect,"v1.11, Latest",@+id/new_vpn_label$add_profile_hostname_prompt,32,0.40119047619047615,7,4.0,0.4976190476190476,0,-0.4873949579831933,0,0
app.openconnect,"v1.11, Latest",@+id/new_vpn_label$add_profile_hostname_prompt,36,0.39365079365079364,3,4.333333333333333,0.6626984126984127,0,-0.15406162464986028,0,0
app.openconnect,"v1.11, Latest",@+id/new_vpn_label$add_profile_hostname_prompt,33,0.48589285714285707,5,4.8,0.5365410052910053,0,0.3126050420168065,0,0
app.openconnect,"v1.11, Latest",@+id/new_vpn_label$add_profile_hostname_prompt,34,0.1722222222222222,3,3.3333333333333335,0.6666666666666666,0,-1.1540616246498598,0,0
app.openconnect,"v1.11, Latest",@+id/new_vpn_label$add_profile_hostname_prompt,35,0.4208333333333334,1,5.0,0.31388888888888894,0,0.5126050420168067,0,0
app.openconnect,"v1.11, Latest",@+id/vpn_spinner$,40,0.4055224867724868,9,4.222222222222222,0.5150095532039977,0,-0.265172735760971,0,0
app.openconnect,"v1.11, Latest",@+id/vpn_spinner$,37,0.24166666666666667,3,3.3333333333333335,0.6527777777777778,0,-1.1540616246498598,0,0
app.openconnect,"v1.11, Latest",@+id/vpn_spinner$,39,0.5121428571428572,5,4.8,0.5121428571428571,0,0.3126050420168065,0,0
app.openconnect,"v1.11, Latest",@+id/vpn_spinner$,41,0.4208333333333334,1,5.0,0.31388888888888894,0,0.5126050420168067,0,0
app.openconnect,"v1.11, Latest",@+id/vpn_spinner$,38,0.0,1,3.0,1.0,0,-1.4873949579831933,0,0
app.openconnect,"v1.11, Latest",@+id/add_new_vpn_hint$,44,0.5398809523809524,7,4.142857142857143,0.44603174603174606,0,-0.3445378151260501,0,0
app.openconnect,"v1.11, Latest",@+id/add_new_vpn_hint$,42,0.19999999999999998,3,3.0,0.5,0,-1.4873949579831933,0,0
app.openconnect,"v1.11, Latest",@+id/add_new_vpn_hint$,46,0.3927827380952381,4,5.0,0.4519262566137566,0,0.5126050420168067,0,0
app.openconnect,"v1.11, Latest",@+id/add_new_vpn_hint$,43,0.2972222222222222,3,4.0,0.7138888888888889,0,-0.4873949579831933,0,0
app.openconnect,"v1.11, Latest",@+id/add_new_vpn_hint$,45,0.4464285714285714,4,4.75,0.6669642857142858,0,0.2626050420168067,0,0
app.openconnect,"v1.11, Latest",@string/no_vpn_profiles_defined$,47,0.3373015873015873,9,3.6666666666666665,0.4817460317460317,0,-0.8207282913165268,0,0
app.openconnect,"v1.11, Latest",@string/no_vpn_profiles_defined$,51,0.5770833333333334,4,4.75,0.58125,0,0.2626050420168067,0,0
app.openconnect,"v1.11, Latest",@string/no_vpn_profiles_defined$,48,0.32625000000000004,5,4.6,0.6638425925925927,0,0.11260504201680632,0,0
app.openconnect,"v1.11, Latest",@string/no_vpn_profiles_defined$,50,0.3809523809523809,1,5.0,0.488095238095238,0,0.5126050420168067,0,0
app.openconnect,"v1.11, Latest",@+id/vpn_item_title$,56,0.33359375,8,3.875,0.5694155092592593,0,-0.6123949579831933,0,0
app.openconnect,"v1.11, Latest",@+id/vpn_item_title$,54,0.22142857142857142,4,4.0,0.3755952380952381,0,-0.4873949579831933,0,0
app.openconnect,"v1.11, Latest",@+id/vpn_item_title$,52,0.5402777777777777,3,5.0,0.5407407407407407,0,0.5126050420168067,0,0
app.openconnect,"v1.11, Latest",@+id/vpn_item_title$,53,0.39365079365079364,3,4.333333333333333,0.8293650793650794,0,-0.15406162464986028,0,0
app.openconnect,"v1.11, Latest",@+id/vpn_item_title$,55,1.0,1,5.0,0.3,0,0.5126050420168067,0,0
app.openconnect,"v1.11, Latest",@+id/existing_vpn_label$choose_existing_vpn,57,0.3739583333333334,6,4.0,0.5411651234567901,0,-0.4873949579831933,0,0
app.openconnect,"v1.11, Latest",@+id/existing_vpn_label$choose_existing_vpn,59,0.5330357142857144,6,4.5,0.5096560846560846,0,0.012605042016806678,0,0
app.openconnect,"v1.11, Latest",@+id/existing_vpn_label$choose_existing_vpn,60,0.27346938775510204,7,4.142857142857143,0.5947278911564625,0,-0.3445378151260501,0,0
app.openconnect,"v1.11, Latest",@+id/connection_state$,63,0.2873015873015873,3,5.0,0.513558201058201,0,0.5126050420168067,0,0
app.openconnect,"v1.11, Latest",@+id/connection_state$,65,0.3023809523809524,2,4.5,0.5898809523809524,0,0.012605042016806678,0,0
app.openconnect,"v1.11, Latest",@+id/connection_state$,66,0.75,1,5.0,1.0,0,0.5126050420168067,0,0
app.openconnect,"v1.11, Latest",@+id/version$,67,0.0,1,3.0,0.5,0,-1.4873949579831933,0,0
app.openconnect,"v1.11, Latest",@+id/version$,68,0.85,1,3.0,0.45000000000000007,0,-1.4873949579831933,0,0
app.openconnect,"v1.11, Latest",@+id/i_love_it$i_love_it,75,0.625,2,5.0,0.5249999999999999,0,0.5126050420168067,0,0
app.openconnect,"v1.11, Latest",@+id/i_love_it$i_love_it,74,0.7960937499999999,3,4.666666666666667,0.6916666666666668,0,0.17927170868347364,0,0
app.openconnect,"v1.11, Latest",@+id/i_love_it$i_love_it,72,0.6833333333333332,3,5.0,0.7666666666666666,0,0.5126050420168067,0,0
app.openconnect,"v1.11, Latest",@+id/token_password_entry$,81,0.275,1,5.0,0.8194444444444444,0,0.5126050420168067,0,0
app.openconnect,"v1.11, Latest",@+id/token_password_entry$,77,0.42720238095238094,2,5.0,0.7633928571428572,0,0.5126050420168067,0,0
app.openconnect,"v1.11, Latest",@+id/token_password_entry$,80,0.5666666666666668,1,5.0,0.6833333333333332,0,0.5126050420168067,0,0
app.openconnect,"v1.11, Latest",@+id/token_password_entry$,79,0.4,1,5.0,0.8,0,0.5126050420168067,0,0
app.openconnect,"v1.11, Latest",@+id/inlineFileData$,83,0.125,1,2.0,0.4583333333333333,0,-2.4873949579831933,0,0
app.openconnect,"v1.11, Latest",@+id/file_selected_item$file_nothing_selected,87,0.125,1,2.0,0.4583333333333333,0,-2.4873949579831933,0,0
app.openconnect,"v1.11, Latest",@+id/file_selected_item$file_nothing_selected,91,0.29107142857142854,1,5.0,0.5267857142857143,0,0.5126050420168067,0,0
app.openconnect,"v1.11, Latest",@+id/file_title$client_certificate_title,96,0.125,1,2.0,0.4583333333333333,0,-2.4873949579831933,0,0
app.openconnect,"v1.11, Latest",@+id/file_title$client_certificate_title,92,0.29107142857142854,1,5.0,0.5267857142857143,0,0.5126050420168067,0,0
app.openconnect,"v1.11, Latest",@+id/file_select_button$file_select,101,0.125,1,2.0,0.4583333333333333,0,-2.4873949579831933,0,0
app.openconnect,"v1.11, Latest",@+id/file_select_button$file_select,100,0.29107142857142854,1,5.0,0.5267857142857143,0,0.5126050420168067,0,0
app.openconnect,"v1.11, Latest",@+id/file_selected_description$,102,0.125,1,2.0,0.4583333333333333,0,-2.4873949579831933,0,0
app.openconnect,"v1.11, Latest",@+id/file_selected_description$,105,0.29107142857142854,1,5.0,0.5267857142857143,0,0.5126050420168067,0,0
app.openconnect,"v1.11, Latest",@+id/token_string_import$import_from_file,111,0.125,1,2.0,0.4583333333333333,0,-2.4873949579831933,0,0
app.openconnect,"v1.11, Latest",@+id/fdButtonSelect$select_file,115,0.125,1,2.0,0.4583333333333333,0,-2.4873949579831933,0,0
app.openconnect,"v1.11, Latest",@+id/fdButtonSelect$select_file,116,0.29107142857142854,1,5.0,0.5267857142857143,0,0.5126050420168067,0,0
app.openconnect,"v1.11, Latest",@+id/disconnect_button$disconnect,121,0.4208333333333334,1,5.0,0.31388888888888894,0,0.5126050420168067,0,0
app.openconnect,"v1.11, Latest",@+id/quickedit_settings$,123,0.4208333333333334,1,5.0,0.31388888888888894,0,0.5126050420168067,0,0
app.openconnect,"v1.11, Latest",@+id/maybe_later$maybe_later,130,0.4208333333333334,1,5.0,0.31388888888888894,0,0.5126050420168067,0,0
app.openconnect,"v1.11, Latest",@+id/prompt$,134,0.4208333333333334,1,5.0,0.31388888888888894,0,0.5126050420168067,0,0
app.openconnect,"v1.11, Latest",@+id/change_pin_button$new_pin,139,0.4208333333333334,1,5.0,0.31388888888888894,0,0.5126050420168067,0,0
app.openconnect,"v1.11, Latest",@+id/token_string_examples_2$token_string_examples_2,143,0.0,1,1.0,0.0,0,-3.4873949579831933,0,0
app.openconnect,"v1.11, Latest",@+id/server_name$,151,0.27142857142857146,1,4.0,0.4714285714285714,0,-0.4873949579831933,0,0
app.openconnect,"v1.11, Latest",@+id/server_name$,149,0.41,1,5.0,0.63,0,0.5126050420168067,0,0
app.openconnect,"v1.11, Latest",@+id/progress_bar$,152,0.27142857142857146,1,4.0,0.4714285714285714,0,-0.4873949579831933,0,0
app.openconnect,"v1.11, Latest",@+id/check$remote_trust,158,0.29107142857142854,1,5.0,0.5267857142857143,0,0.5126050420168067,0,0
app.openconnect,"v1.11, Latest",@+id/token_devid_space$,163,0.17777777777777778,1,5.0,0.3888888888888889,0,0.5126050420168067,0,0
app.openconnect,"v1.11, Latest",@+id/path$,167,0.6,1,5.0,1.0,0,0.5126050420168067,0,0
