whats up with this,v2.5,2014-09-12,Michaella Ndaye,2
open but i have adobe this one go to the bin,v2.5,2014-05-14,,3
i just wanted to write a lite novel,v2.6.1,2015-05-10,Edward Batting,1
good but need zoom out,v2.7.3,2017-02-08,Deaf Lion,3
please bring back save option,v2.7.3,2017-01-14,Steve Sanetsis,5
a i give two star back for bringing back the full screen option a they were,v2.7.3,2016-12-17,Arnúlfr Kromicus,4
author never said the read them,v2.7.3,2016-12-17,Arnúlfr Kromicus,4
besides there is no option for increasing font size,v2.7.3,2016-06-23,Ahmad Fazeli Shoushi,3
open color margin crop,v2.7.3,2016-05-17,Anthony Dach,5
make some more improvement,v2.7.3,2016-03-07,Vaibhav Kakade,2
waiting,v2.7.3,2015-11-04,mohanad elnour,3
report,v2.7.3,2015-10-10,Patty Bailey,5
i especially like the inverted color capability,v2.7.3,2015-09-30,Kyle Zentner,5
a i give star back for bringing back the full screen option a they were,v2.7.3,2017-05-06,Arnúlfr Kromicus,5
author never said the read them,v2.7.3,2017-05-06,Arnúlfr Kromicus,5
