fix crash open and file 1,b,2015/4/23,,
all mime type received from outside android should be normalized they are used to create an intent,b,2015/4/23,,
2,b,2015/4/23,,
mime type and scheme matching in the android framework is unlike the formal definition,f,2015/4/23,,
a result you should always write these element with lower case letter or use or to ensure they are converted to lower case,b,2015/4/23,,
3 use instead of,b,2015/4/23,,
delete a photo in gallery,b,2015/4/23,,
support photo operation,b,2015/4/22,,
remove unused code,b,2015/4/22,,
change icon,b,2015/4/22,,
asynchronously download image by,b,2015/4/22,,
beautify comment,b,2015/4/22,,
remove unused code,b,2015/4/22,,
on,o,2015/4/16,,
track correctly downloading photo,b,2015/4/15,,
code cleanup,b,2015/4/15,,
apply custom property transformation to each page set a that will be called for each attached page the scroll position is changed,b,2015/4/15,,
this allows the application to apply custom property transformation to each page overriding the default sliding look and feel,f,2015/4/15,,
note prior to android 30 the property animation did not exist,f,2015/4/15,,
a result setting a prior to android 30 will have no effect,b,2015/4/15,,
show file name in gallery,b,2015/4/15,,
to selected index in gallery,b,2015/4/15,,
show loading rendering image,b,2015/4/15,,
use the same with other module,o,2015/4/15,,
display cached photo network down,b,2015/4/14,,
code,b,2015/4/14,,
code cleanup,b,2015/4/14,,
show page index and total summary,b,2015/4/14,,
improve code style,o,2015/4/14,,
show indeterminate,o,2015/4/14,,
code cleanup,b,2015/4/14,,
support gallery like way to browse photo out of the box zooming using and,b,2015/4/14,,
review,o,2015/4/22,,
save server info to database check the server feature it is community edition auto hide search function and activity tab,b,2015/4/21,,
,o,2015/4/16,,
manage setting in a standard manner,b,2015/4/15,,
update,b,2015/4/23,,
update version code,b,2015/4/23,,
update version code,b,2015/4/23,,
fix is a method of 11 change to call instead also make the class extends,f,2015/4/22,,
user choose to trust persist the info and to ask again,f,2015/4/16,,
review 322 a window to ask download folder recursively,b,2015/4/11,,
fix crash downloading empty file,b,2015/4/10,,
allow downloading folder recursively,b,2015/4/10,,
notify uploading file,o,2015/4/10,,
drop thumbnail within encrypted inside of encrypted thumbnail processed differently 1 forbid downloading thumbnail from server 2 forbid calculate thumbnail locally the file wa downloaded,b,2015/4/09,,
update version code,b,2015/4/08,,
update,b,2015/4/08,,
