modify file action icon,o,2013/11/06,,
improve icon,b,2013/11/05,,
change indentation to 4 space,f,2013/11/04,,
add check for right level for,b,2013/11/04,,
disable sharing of encrypted,f,2013/11/03,,
update version to 070,b,2013/11/01,,
minor improvement use new icon for image file set the original file name the initial input of the rename dialog improve error string,b,2013/11/01,,
