Topic Index 1,Topic Index 2,Topic Similarity
4,3,0.44800000000000006
6,5,0.3534
10,9,0.3465
3,15,0.23940000000000003
17,16,0.18849999999999997
0,0,0.0
1,1,0.0
2,2,0.0
5,4,0.0
7,6,0.0
8,7,0.0
9,8,0.0
11,10,0.0
12,11,0.0
13,12,0.0
14,13,0.0
15,14,0.0
16,17,0.0
18,18,0.0
19,19,0.0
