this is awesome,o,2013-04-22,Benoit Lechasseur,5
work straight out of the box,b,2013-04-22,Benoit Lechasseur,5
on my nexus this cause a clicking noise to come through my headphone,o,2013-04-22,Dan Lithio,5
wa able to fix the clicking noise by disabling the proximity sensor use and then restarting the phone,b,2013-04-22,Dan Lithio,5
other work perfectly,o,2013-04-22,Dan Lithio,5
developer contacted me and said he would be adding a note about this,b,2013-04-22,Dan Lithio,5
android give me a boner,o,2013-04-13,jack frost,5
this wa such an easy to use,o,2013-04-13,jack frost,5
,o,2013-04-13,jack frost,5
work just it say,o,2013-04-01,Abhilash K M,5
extremely easy to set up and it work without a flaw or hiccup,o,2013-03-23,Steven Kluck,5
awesome,o,2013-03-23,Steven Kluck,5
thus developer is lightning fast in fixing the application,o,2013-02-27,Emmanuel Mathew,5
application doe what it claim,o,2013-02-27,Emmanuel Mathew,5
good job,o,2013-02-27,Emmanuel Mathew,5
,o,2013-02-27,Christopher Wardell,2
