Topic,Words
0,0.072*love,0.045*developer,0.033*still,0.030*like,0.030*conversions,0.029*subnet,0.028*found,0.028*handle,0.027*10,0.027*good
1,0.056*what,0.041*keyboard,0.035*for,0.032*much,0.030*so,0.028*good,0.028*like,0.028*is,0.027*it,0.026*thank
2,0.051*what,0.047*and,0.041*easy,0.038*plus,0.037*to,0.028*great,0.028*found,0.026*is,0.025*lot,0.023*tools
3,0.060*a,0.045*thanks,0.044*help,0.037*handle,0.031*keypad,0.030*100,0.028*like,0.028*interface,0.026*to,0.025*the
4,0.051*handle,0.045*use,0.043*and,0.040*10,0.038*lot,0.036*provide,0.034*special,0.027*job,0.023*plus,0.023*stuff
5,0.059*address,0.042*applicable,0.032*love,0.031*thank,0.030*great,0.029*found,0.029*keypad,0.028*me,0.027*with,0.026*or
6,0.048*to,0.046*need,0.041*simple,0.040*my,0.039*a,0.036*ranges,0.033*use,0.033*that,0.030*i,0.025*thanks
7,0.052*check,0.041*me,0.032*10,0.032*i,0.030*my,0.029*has,0.028*handy,0.028*to,0.028*needed,0.026*all
8,0.049*job,0.048*required,0.039*easy,0.036*one,0.036*me,0.031*so,0.025*interface,0.024*use,0.024*no,0.023*needed
9,0.042*awesome,0.040*special,0.036*100,0.035*plus,0.034*free,0.033*interface,0.033*enter,0.030*network,0.028*i,0.027*thank
10,0.049*its,0.045*handy,0.044*need,0.041*use,0.039*exactly,0.037*for,0.037*great,0.036*user,0.032*at,0.029*100
11,0.039*i,0.035*the,0.031*has,0.030*special,0.029*love,0.028*network,0.027*use,0.025*very,0.025*or,0.025*permissions
12,0.045*thank,0.043*so,0.040*special,0.038*thanks,0.037*its,0.030*all,0.029*provide,0.029*for,0.025*on,0.024*ranges
13,0.049*for,0.048*applicable,0.045*a,0.044*later,0.040*required,0.033*that,0.032*simple,0.031*work,0.027*all,0.027*my
14,0.050*tool,0.036*numbers,0.033*no,0.032*provide,0.031*like,0.030*need,0.030*check,0.029*on,0.029*special,0.029*plus
15,0.042*interface,0.038*conversions,0.038*job,0.036*my,0.034*to,0.031*thank,0.031*lot,0.030*applicable,0.029*tools,0.029*exactly
16,0.050*first,0.045*all,0.036*address,0.036*developer,0.035*my,0.033*with,0.032*so,0.030*handle,0.030*handy,0.029*what
17,0.049*subnet,0.042*user,0.038*time,0.035*it,0.035*with,0.035*required,0.034*best,0.029*key,0.027*on,0.027*awesome
18,0.075*simple,0.071*handle,0.046*address,0.041*me,0.029*it,0.027*you,0.027*very,0.026*plus,0.025*numbers,0.024*conversions
19,0.091*i,0.080*very,0.052*me,0.052*what,0.041*efficient,0.030*special,0.026*no,0.026*enter,0.025*project,0.025*actually
