# deletions,date,commit message
9,2015/10/21,disable media auto-sharing if storage permission has been revoked
22,2015/10/21,Request storage permission when sharing media to the app
9,2015/10/21,disable media auto-sharing if storage permission has been revoked
22,2015/10/21,Request storage permission when sharing media to the app
2,2015/10/20,4.6 / 212 version bump - using 212 since we didn't release 4.5.3
185,2015/10/20,update translations for 4.6
42,2015/10/18,Validating permissions in MediaBrowserActivity when adding media
41,2015/10/18,Validating permissions in MediaBrowserActivity when adding media
7,2015/10/18,Remove the site placeholder icon in Referrers and Clicks. When the icon URL is not valid hide the icon.
1,2015/10/18,move a Toast string to strings.xml
1,2015/10/18,fix location permission request
8,2015/10/17,fix permission request
5,2015/10/16,Checking media permission when attempting to add media to post
26,2015/10/16,Checking media permission when attempting to add media to post
8,2015/10/15,Update Stats widget with new colors
10,2015/10/15,Update to new colors.
13,2015/10/14,Disable editor format bar buttons while uploading media  - Prompt user with a toast that uploads have to complete before publishing or changing settings
6,2015/10/14,Added a 'delete' flag to onMediaUploadCancelClicked  - This way a distinction is made between a 'soft' cancel (mark as failed) and a 'hard' cancel (delete from queue)
2,2015/10/13,Person details added to the UI  A mock method is also introduced to get a person from the DB for the local table id. For now it'll return mock person object to test the UI.
2,2015/10/13,People management and person activity naming changes
3,2015/10/13,Username & role UI elements added for people
12,2015/10/13,Cleaned up updateMediaUploadState (now uses an enum for upload states)
1,2015/10/09,New icon to use in the header of the widget
7,2015/10/08,Fixing saved state of list
9,2015/10/08,Fixing activation
9,2015/10/08,Removing current theme from list
1,2015/10/08,Removing extra space
1,2015/10/08,Moving to new-line
1,2015/10/08,Removing unused import
2,2015/10/08,Removing hard-coded strings
4,2015/10/08,Fixing divider background and adding WPPreference to style view
3,2015/10/08,Use the StatsUtils method (now that we have it) that retrieves the correct localBlogID from a remoteBlogID.
12,2015/10/08,Moving hint interface into it's own file to limit dependencies.
9,2015/10/08,Toggling Related Posts enables/disables appropriate views.
2,2015/10/08,Restores the search query upon rotation.
0,2015/10/08,Updated preview picture
1,2015/10/08,Only set the layer type for the like animation on kitkat
5,2015/10/08,fix #3283: crash on rotate during disconnection
42,2015/10/08,Moved SignOutWordPressComAsync from WordPress to MeFragment
1,2015/10/08,fix #3209: set the ProgressDialog non cancellable
15,2015/10/08,Set a minimum height on the widget container and let it grows if text size is set bigger by the user.
0,2015/10/08,Update the preview picture. Still not the final version.
1,2015/10/08,Rename the "QuickPress" widget to "WordPress QuickPress" so that it appears next to "WordPress Today's Stats" when choosing widgets.
24,2015/10/08,UI improvements following designer review.
24,2015/10/08,Do not re-use site picker adapter instead introduce a new simplified version of it. Also do not re-use the site picker activity layout but use our own version of it.
1,2015/10/08,Fix an issue where self-hosted blog could return invalid remote blog ID
4,2015/10/08,Fix a typo.
1,2015/10/07,Changing to protected
12,2015/10/07,Fixing mixed state for search
13,2015/10/08,Use correct strings on the popup menu
1,2015/10/07,Added a search menu item to `NotificationsSettingsFragment`  It is only showed when you have more than 15 sites. Fixes #3242
4,2015/10/07,Added the ability to mark a site as spam.
31,2015/10/07,Refactoring to remove duplicated work.
5,2015/10/07,Updating local state on preference change
3,2015/10/07,Changing preview/customize to use customizer correctly
1,2015/10/07,Changing clicking theme to preview
0,2015/10/07,Updated `reader_tear` images including xxxhdpi for future
1,2015/10/07,Reload rather than update comment list after moderation
3,2015/10/07,Replying to a comment updates the comment list
41,2015/10/07,Split addMedia() into two methods
1,2015/10/07,Fixed a bug where the media upload progress bar wouldn't display due to a localization issue
2,2015/10/06,Saving state on rotate
1,2015/10/06,Fixing customize theme crash
1,2015/10/06,Fixing background for pre Lollipop devices
344,2015/10/06,Using new settings interfaces removing logic from settings fragment.
21,2015/10/07,Moved the fix for #3280 and changed order of error  Instead of using a keyListener this fix was moved to the signing_fragment.xml. Also username errors are prioritised over password errors.
8,2015/10/06,Encapsulating self-hosted and WP.com logic in their own classes.
2,2015/10/06,Reset READER_MAX_POSTS_TO_REQUEST to 20
26,2015/10/06,Move gap marker logic to separate routine
1,2015/10/06,Remove gap marker when "new posts" message appears
10,2015/10/06,Adding data models and tables for site settings and categories.  Also including some new views that site settings will use.
6,2015/10/06,Removing useless if/else
8,2015/10/06,Using onAttach(Activity) because phones below level 23 were crashing
1,2015/10/06,Improving formatting.
44,2015/10/06,Remove unused file
7,2015/10/05,Styling the related posts dialog
1,2015/10/05,Added new line
1,2015/10/05,Removing device_id filter on the settings endpoint if it's empty
1,2015/10/05,Using new search icon
2,2015/10/05,Trim non-breaking spaces when creating excerpt
32,2015/10/05,Switching toolbar on search instead of custom configuration by ID
1,2015/10/05,Fixing lifecycle issue where Search rotate would make a new copy every time
2,2015/10/05,4.6-rc-3 / 211 version bump
2,2015/10/05,Visual editor lib version bump
1,2015/10/05,Obey maximum image width (from blog settings) when uploading images from visual editor
11,2015/10/04,Fix rotate issue
1,2015/10/03,Change method to private.
19,2015/10/03,Reader: Updates analytic calls to use updated keys. Adds new calls.  Updated enum keys in existing calls. Adds new calls for tracking unlikes and loading loading list topics.
1,2015/10/03,Fixes isFreshlyPressed check. Adds new convenience methods.
72,2015/10/03,Reader: Organizes and adds new analytics for the reader.  Renames some existing enums to match the tracks naming convention Alphabetizes the lists Adds new analytic for lists discover and unliking. Some of these anticipate future feature support.
72,2015/10/03,Reader: Organizes and adds new analytics for the reader.  Renames some existing enums to match the tracks naming convention Alphabetizes the lists Adds new analytic for lists discover and unliking. Some of these anticipate future feature support.
11,2015/10/02,Wrap toolbar and tab layout in an AppBarLayout so shadow shows beneath tabs.
1,2015/10/02,Added NUM_TABS constant
2,2015/10/02,Added logging
18,2015/10/02,simplified nux_flat_button_selector.xml
3,2015/10/02,Update strings and handled a very edge case in the config phase of the widget. (Blog that gets erased while adding the widget)
6,2015/10/02,use StringUtils.stringToInt utility
46,2015/10/02,Performance improvements and cleaned up the code a bit
1,2015/10/02,Added support for retrying failed image uploads
3,2015/10/02,Added support for cancelling media uploads in the new editor
1,2015/10/02,reuse the same notification in case of post edit
20,2015/10/02,Materialized secondary button - gives feedback to the user when buttons are pressed
3,2015/10/02,remove the _app:maxwidth_ attribute from the LinearLayout
24,2015/10/01,Hiding App notifications settings on devices without GCM services
7,2015/10/01,Cleanup
9,2015/10/01,Deleting posts older than gap marker post now deletes from tbl_post_tags instead of tbl_posts purging now depends on max # to display instead of max # to request
1,2015/10/01,Fixed the header clock icon from not showing.
30,2015/10/01,Cleaned up/optimized some code in `NotesAdapter`
23,2015/10/01,Rewrote routine which deletes posts older than gap minor cleanup
4,2015/10/01,Remove unused files
150,2015/10/01,Remove Unused Activity
1,2015/10/01,Added media upload progress callbacks  - These are used to update the progress bar above uploading images in the visual editor
5,2015/10/01,Added media upload success callback handling to EditPostActivity for new editor
10,2015/10/01,Updated UploadMediaTask to return the uploaded media url as well as its remote id
16,2015/10/01,Updated EditPostActivity to handle image upload requests from new editor
2,2015/10/01,move the help icon out of the LinearLayoutSizeBound
2,2015/10/01,Do not remove cache onEnable since it's called even on device startup. Optimization sometime sucks.
22,2015/10/01,Added improvements for multi sites and multi widgets users
7,2015/9/30,Delaying adapter to onResume()
6,2015/9/30,Switching on public/premium themes
3,2015/9/30,Cleaning up imports
1,2015/9/30,Moving initialization to onResume to handle context better
10,2015/9/30,Opening with blog to handle previews correctly
2,2015/9/30,Don't hide tear image when showing progress
7,2015/9/30,Updating layout to match spec
1,2015/9/30,Tweaking one of the empty filter strings.
26,2015/9/30,Fixed issue where older versions of android would show a black background for the filter buttons.
4,2015/9/30,Removed the AppBarLayout.LayoutParams import for easier readability in the code.
10,2015/9/30,Adds support for adding the toolbar on Android 4.0.X.  Fixes #3235
8,2015/9/30,Using string resources
24,2015/9/30,Updating SiteSettingsModel to include related posts data
8,2015/9/30,Adding Related Posts dialog
8,2015/9/30,Standardized the dimens of the my site fragment and notifications fragment empty list views.
1,2015/9/30,Reload adapter when filling the gap fails (so the gap marker view is reset)
26,2015/9/30,Notifications filters now show a custom empty list message along with an action button.  Matches up w/ calypso on the web.
2,2015/9/30,String tweaks.
7,2015/9/30,Gap marker is now correctly positioned
2,2015/9/30,Other improvements logging in Jetpack blogs
9,2015/9/30,Better errors handling for Jetpack blogs
18,2015/9/30,Add new config activity
2,2015/9/30,Minor cleanup
42,2015/9/30,Other improvements in multi-sites management
6,2015/9/30,Added post settings button to the ActionBar for the new editor
3,2015/9/30,Updated image settings dialog to always clear the custom ActionBar view
22,2015/9/30,Updated EditPostActivity to null-check before updating preview/save ActionBar buttons  - Fixes crash issue when the image settings dialog is visible (with its modified ActionBar)
2,2015/9/29,configuring searchBar look
6,2015/9/29,Rename search button and fixing size
4,2015/9/29,Removing empty search field
24,2015/9/29,Disabling swipeToRefresh in search
1,2015/9/29,Removing swipe to refresh
2,2015/9/29,Bumping to versionCode 209 for 4.5.2 hotfix release
17,2015/9/29,Searching the REST API for themes
54,2015/9/29,Reader post adapter now correctly handles like/comment counts when logged out
4,2015/9/29,Hide progress when tag is set
43,2015/9/29,Different approach for gap detection
6,2015/9/29,Moving onClickListener outside of null check to account for search
1,2015/9/29,Set correct db version
4,2015/9/29,Fix #3282 - hide like/comment counts in detail when zero
9,2015/9/29,Added selectable background
30,2015/9/29,2nd pass at separate view type for gap marker
14,2015/9/29,Toolbar text is now aligned with the gravatar in the content (for real this time)
74,2015/9/29,First pass at making gap marker a separate view type
227,2015/9/29,Add the ability to select a blog for the widget
1,2015/9/29,Toolbar text is now aligned with the gravatar in the content
47,2015/9/29,Squashed 'libs/editor/' changes from 244a513..ce4343d  ce4343d Merge pull request #244 from wordpress-mobile/feature/13-edit-images 11425f6 Updated the image settings dialog FormatBar to use a custom layout with a TextView 40d2e08 Updated the image settings dialog to always keep the ActionBar visible c96d170 Added a check to avoid creating a second image settings fragment if one already exists 136dc70 Reverted image settings dialog bg color back to white 40439dd Added semi-transparent dark background to edit overlay for older APIs 2f33e3c Adjusted thumbnail margins 9dc5aa2 Added new 'close dialog' drawable for 720dp width mode with padding to align title with dialog indentation 499a0c9 Added extra padding to image settings dialog when screen width is at least 720dp f8300a1 Added isAdded() safety check c536123 Clear existing actionbar menu items in image settings dialog e6b9dda Merge branch 'develop' into feature/13-edit-images 0424688 Added more space between thumbnail and filename ba463ef Added the image's thumbnail and filename to the image settings dialog 58bfffd Deleted unused layouts c3e7507 Replaced a magic number with a constant 474bf1c Cleaned up unused resources e9f8909 Updated image settings dialog to restore previous actionbar on save (was only working for close) de5bbd5 Renamed save menu item 27d2950 Give focus to title field when opening image settings dialog 5424abc Adjust image settings dialog padding and background color 3aec367 Restore previous ActionBar state when exiting the image settings dialog 9af68e2 Added an actionbar menu to the image settings dialog with save and close buttons c5710cb Changed the image settings dialog into a full-screen fragment 6407b5a Merge pull request #249 from wordpress-mobile/issue/243-persist-post-keyboard-switch 12affc1 Merge pull request #248 from wordpress-mobile/feature/247-debug-html 6336fde Merge pull request #246 from wordpress-mobile/issue/245-upgrade-gradle-1.3.1 4f1816f Persist title and content onSaveInstanceState and restore it on re-creation e14f9a5 Added a 'Log HTML' button to the format bar in debug mode aa24797 Added a method to EditorFragmentAbstract for enabling debug mode 3beb931 Updated travis.yml to use API 23 4242049 Updated gradle and target SDK to latest versions cd7de84 Added an image icon in front of the width slider in the image settings dialog 515e1df Changed label colors for image settings dialog to WP Gray 0a3dc32 Changed the image settings dialog to use a SeekBar for width instead of a Spinner with preset sizes 3d2b019 Updated fill_parents to match_parents c250f38 Fixed an issue where alignment meta data was being lost 69022b7 Added support for the alignment drop-down menu in image options 9a004ec Fixed an image editing bug in API<19 fc90559 Fixed a bug where the edit overlay could receive cursor focus and be editable 285e4c2 Updated image settings to return the new text input values and update the image meta 5b0d20f Removed some padding between labels and input fields b5e9a4e Added some padding above the top separator in the image options dialog for API>19 (it was too close to the dialog title) 02f0c70 Updated the image settings dialog to use the new container layout 0496580 Split the image options dialog layout into API<21 and API>=21 versions 15449e4 Updated the color of the image options labels to match WPAndroid 27f30d7 Adjusted the color of the title and separator for ImageSettingsDialog when a separator is present (API < 19) 74212fe Cleaned up hardcoded dimens from image options dialog 6a1407e Adjusted margins to align spinners and checkboxes with their labels 95daa7c Set the colorControlActivated theme color in the example app to match WPAndroid 3e0622d Image settings dialog v2 95af194 Renamed link dialog xml for consistency d106e31 Added a dialog for image options (based on legacy editor's version) d10c875 Merge pull request #236 from wordpress-mobile/feature/187-insert-media aca4a8d Merge branch 'develop' into feature/187-insert-media 48b396c Merge pull request #235 from wordpress-mobile/issue/196-action-bar ecafc6e Merge pull request #229 from wordpress-mobile/issue/219-format-bar-cut-off 28af050 Remove margin round format bar buttons for small tablets 0273838 Reset layout-w610dp back to w600dp 03719ec Fixes action not hiding properly on resume. 06f4d2f Merge pull request #237 from wordpress-mobile/issue/234-robolectric-3 af8bdb5 Updated Robolectric to 3.0 and dropped robolectric-gradle-plugin dependency 52b4bcd Added a soft keyboard check to hideActionBarIfNeeded() ddb5454 Updated a string resource generalizing from images to media 7c20e43 Disabled HTML format bar button while uploading media 56e7c8c Disabled media format bar button in HTML mode 06bbcd1 Refactored id > mediaId for clarity 412d07e Added support for stopping a media upload 48ab0b1 Fixed broken integration tests (missing abstract method implementation) 9fbb480 Fixed NPE in callback-image-tap handling (caused by test data) 51c6ae9 Added support for retrying failed uploads (with demo code in EditorExampleActivity) 6cdf34c Handled extracting upload status from image when receiving callback-image-tap 96fe4a6 Added onMediaRetryClicked() to EditorFragmentListener interface 440ff00 Added handling for callback-image-tap 7e2c8b6 Added a context menu for media in EditorExampleActivity with a new option for simulating a failed upload 7c5cf6c Mirrored changes to ZSSEditor.insertLocalImage in ZSSEditor.insertImage for remote images d3b01be Fixed an issue where backspace couldn't be used to delete an image ad83c1a EditorFragment cleanup 71ff1a9 Added media upload handling to example activity 85e42b3 Fixed float handling in onMediaUploadProgress 1138861 Updated media methods for thread safety 486a021 Added methods for handling media upload status updates (success failure upload progress) a0a8f62 Added support for inserting media passed by the editor's host activity a26408d Registered the media button for a context menu with media options 0ddb006 Changed width of layout-w600dp to layout-w610dp  git-subtree-dir: libs/editor git-subtree-split: ce4343df9500be66712f953ae365dadc88451c87
9,2015/9/29,Check null query string
9,2015/9/29,Check null query string
9,2015/9/28,Changing formatting for language display to include country name.
94,2015/9/28,Cached settings no longer loaded from background thread + refactoring.
5,2015/9/28,Adding username/password parameters to validate credentials.
2,2015/9/28,Fixing order of strings. Should automate this.
8,2015/9/28,Hide follow button in blog preview when logged out
7,2015/9/28,Fix #3272 - edit tags button is hidden when logged out
7,2015/9/28,Fix #3270 - tag preview no longer shows follow button when logged out
7,2015/9/28,Fix #3269 - detail no longer shows follow button when logged out
5,2015/9/28,Fix #3268 - tapping like button in list view now opens detail
1,2015/9/28,Remove unnecessary call to `setVisibility()`  If a user signs in to the app the fragments get recreated so the view will already be set to `visible`.
132,2015/9/28,Tracking whether or not credentials are valid.
5,2015/9/28,Not adding header on Search
2,2015/9/28,Getting correct spinner position with a null check
1,2015/9/28,Adding wildcard for easier search
1,2015/9/28,Only hide the filter view when showing the WordPress.com sign in button.
1,2015/9/28,Tag toolbar is now positioned correctly on tablets and landscape devices
0,2015/9/28,Added missing PNGs
10,2015/9/28,Inspector cleanup.
3,2015/9/28,Gap marker now uses repeated tear image with round rect for text
2,2015/9/28,check null source in JSONUtils.queryJSON()
2,2015/9/28,check null source in JSONUtils.queryJSON()
5,2015/9/28,Just a minor improvement: check the current REST response before going deeper into UI updating.
16,2015/9/27,First pass at service logic for requesting posts before gap
4,2015/9/27,Handle edge case of last post having a gap marker
5,2015/9/27,Save gap marker after saving server posts
48,2015/9/26,Moved has_gap_marker to tbl_post_tags so it can be tag-specific
2,2015/9/26,Opening Search Fragment on search click
9,2015/9/26,Adding Fragment dynamically
10,2015/9/26,Removing ThemeSearchActvity because it is no longer required
3,2015/9/25,Removing shadow on activities with tabs.
4,2015/9/25,First pass at gap detection
4,2015/9/25,Added hasGapMarker to post model and table
1,2015/9/25,Set a minHeight on the buttons to make sure they were easy to tap on.
25,2015/9/25,Using preferences to set default category and format when creating posts.
25,2015/9/25,Added support for filtering the list when the radiobuttons are tapped.
123,2015/9/25,Cleaned up design now matches up to the dp perfectly.
3,2015/9/25,First attempt at filter UI.
30,2015/9/22,Setting language when resuming activities in order to preserve setting on rotation.
7,2015/9/24,Storing default category and format locally due to self-hosted limitations
1,2015/9/23,Verifying dialog is non-null
1,2015/9/24,Updated the error message string shown when the JSON API module is disabled on the site
4,2015/9/24,check for apktool
1,2015/9/24,Hack: We need to delete the Jetpack sites that were added in the initial WP.com get blogs call. These sites will not have the dotcomFlag set and will have an empty password.
8,2015/9/23,Wrapping ImageView with a FrameLayout to show foreground when tapped
7,2015/9/23,Passing in whether it's the current theme so that we know not to show "Activate" menu
7,2015/9/23,Switching on whether or not the theme isPremium to activate directly or show details to buy
8,2015/9/23,Using openWPCOMURL to handle usernames
2,2015/9/23,Fixing compile errors with correct strings/ids
1,2015/9/23,Removing below toolbar because there is no toolbar
622,2015/9/23,Removing unnecessary Theme classes
71,2015/9/23,Overriding WPWebViewActivity instead of doing the work of authenticating all over again
1,2015/9/23,Resolves crash when showing `LicensesActivity` by setting the correct theme in manifest
2,2015/9/23,Revert "Made add site methods package local"  This reverts commit 484dabc7ed9d01e66c2709a69212d8711298b1ff.
2,2015/9/23,Made add site methods package local
2,2015/9/23,Don't show FAB on My Site when there aren't any sites
18,2015/9/23,Add site button on siteless "My Site" page now enables adding a self-hosted blog
6,2015/9/24,Introduced a constant that defines the default maxY value used on empty graph.
22,2015/9/23,Code optimization fixed some DRY.
1,2015/9/23,Allowing Activate premium theme but don't try activating through API
24,2015/9/23,Use `NotificationManagerCompat` instead of `NotificationManager`  Always create the GroupSummary notification to support Android 4.X. If there are more than one notification we create an inbox style notification otherwise it is the same style as an individual notification.  Fixes #3223
2,2015/9/23,Switched WPMainTabAdapter back to a FragmentStatePagerAdapter (but still keeping the offscreen limit to keep fragments in memory)
2,2015/9/23,4.6-rc-1 / 208 version bump
2,2015/9/23,4.6-rc-1 / 207 version bump
1,2015/9/22,Checking for a null URI when adding media to a post
31,2015/9/22,Cleaning up WebActivity intents and opening of url
59,2015/9/22,Added inner view to comment post header to enforce background color preventing empty text from overlapping header
1,2015/9/22,Fixed tag overlap on tag preview
1,2015/9/22,Correct long tag name overlap
9,2015/9/22,Corrected the # of like avatars that can fit the display
7,2015/9/22,Removed footer spacer view changed scrollView height to `wrap_content` and removed `fillViewPort`.
26,2015/9/22,move back analytics inits to the main thread
1,2015/9/22,noticed we were calling HelpshiftHelper.init twice
4,2015/9/22,move AnalyticsUtils.refreshMetadata() call back to App.onCreate()
49,2015/9/22,kill retrieveAndSaveEmailAddressIfApplicable and use the Account.getEmail() method
1,2015/9/22,add an email field to AccountModel
6,2015/9/22,- Read the correct localBlogID for a Jetpack blog - Show the correct error message when REST API are disabled on the blog.
2,2015/9/21,Bumping versionCode 207 for 4.5.1 release
2,2015/9/21,Fixing category caching and format/category selection.
1,2015/9/21,Disabling Related Posts implementing in another PR.
73,2015/9/21,Fixing local-only storage of location preference.
2,2015/9/21,Getting position of spinner instead of always passing 0
5,2015/9/21,Replacing onAttach with non-depracated version
99,2015/9/21,Removing SiteSettingsTable dependency from SiteSettingsModel.
76,2015/9/21,Moving network related work out of the Site Settings data model.
14,2015/9/21,Using unique XMLRPCClientInterface objects for queries.
17,2015/9/21,Increased footer spacer height in layout did away with layout listener
38,2015/9/21,Remove liking user container remove liking user fade in/out
1,2015/9/21,remove -dontobfuscate option from proguard
2,2015/9/21,4.5 / 206 version bump
