# deletions,date,commit message
10,2015/4/24,Changed ReaderActivityLauncher.showReaderComments to accept Ids instead of a ReaderPost object.  You can also now optionally pass a commentId to showReaderComments and it will attempt to scroll that comment into view after loading.
9,2015/5/12,Moving broadcast registration
12,2015/5/12,Fixing up request code constants.
1,2015/5/12,Catching IllegalArgumentException when unregistering receiver.
1,2015/5/12,Null check before saving editor Fragment.
64,2015/5/12,Resolved conflicts updated fab colors
3,2015/5/12,mCurrentItemBackground renamed as mSelectedItemBackground in SitePickerAdapter
6,2015/5/12,Remove mSelectedItemBackground from SitePickerAdapter
1,2015/5/12,Drawable instance in SitePickerItemDecoration made final
49,2015/5/12,Sites are now correctly selectable in the site picker page  site_picker_card_view layout renamed as site_picker_listitem.
1,2015/5/06,fix #2635: check if data is null
66,2015/5/12,Replaced "add site" button in site picker with fab
4,2015/5/12,Site Picker fab ripple color fixed to be white
2,2015/5/12,Use default gravatar in Me page when the account is self-hosted.  Also remove the blavatar_placeholder_com & blavatar_placeholder_org as they are no longer used.
1,2015/5/12,Update the label on Comment followers to be in par with the web
115,2015/5/12,Switched to com.getbase.floatingactionbutton
3,2015/5/12,Show a custom message when the user is not connected with the default .com account.
105,2015/5/12,fix #2670 and clean up EditPostSettingsFragment
9,2015/5/12,replace GetPostFormatsTask signature with a simpler one
7,2015/5/12,Remove unused variable
126,2015/5/12,Restrict methods visibility and make variables final.
8,2015/5/12,update translations for 4.0 release
12,2015/5/12,remove stickiness on PostUpload events
2,2015/5/11,4.0 / 180 version bump
1,2015/5/11,Fixing URL path.
24,2015/5/12,Use the new default blavatar instead of com & org ones
2,2015/5/11,Site Picker page item decoration added to divide sites
1,2015/5/11,Site Picker FAB button color change
3,2015/5/11,Site Picker blavatar size changed back to 40dp  There was a confusion in the previous commit about the spacing but we've verified that 40dp is actually the correct value.
12,2015/5/11,Site picker page spacing issues resolved
4,2015/5/11,Don't show comment icon in list view when logged out unless comments exist
12,2015/5/11,Don't show icon bar in reader detail when user is logged out
61,2015/5/11,1st run with the inspector
15,2015/5/11,remove pre-masterbar code
1,2015/5/11,1dp padding added to blavatar in site picker to show the border
59,2015/5/11,replace WordPress.onPostUploadedListener and WordPress.postsShouldRefresh by a sticky event
3,2015/5/11,Default blavatar image is changed
12,2015/5/11,SitePicker Add Site button changed to be a FAB
59,2015/5/11,Site picker page styling changed
1,2015/5/11,Corrected dup use of mColorUnread
61,2015/5/11,Use background with ripple for note content view use background color on itemView for read/unread
1,2015/5/11,update with the new GlotPress URL
4,2015/5/11,update i18n scripts with the new GlotPress URL
1,2015/5/11,update to mediapicker 1.2.3
1,2015/5/10,Using newest MediaPicker library (v1.2.3) to address NPE.
15,2015/5/10,Fix #2655 - WPMainActivityLeaked
2,2015/5/09,Corrected typos in comment
16,2015/5/09,Fix #2653 - EditPostActivity leaked
10,2015/5/09,Reader toolbar is now fixed
196,2015/5/09,Reader toolbar no longer auto-hides
7,2015/5/09,Use custom spinner style with custom dropdown arrow drawable
2,2015/5/08,No follow buttons anywhere when logged out
20,2015/5/08,No follow button in header when logged out
10,2015/5/08,Update reader tags after sign in even for self-hosted
1,2015/5/08,Only show like star when logged out if likes exist
8,2015/5/08,move addPictureButton action to LegacyEditorFragment
7,2015/5/08,fix #2639: catch the AssertionError
30,2015/5/07,fix #2614: call startActivityForResult from MediaAddFragment
1,2015/5/08,Use constant when comparing the "type" of the PN received from the server.
4,2015/5/07,Removing unused override.
21,2015/5/07,WPMainActivity now extends MediaAddFragmentCallback to remove dependency
14,2015/5/07,Disable comment likes
6,2015/5/07,Correctly stores .com username and api_key in case of Jetpack blog not connected with the main .com account. Do not use/store the .com password.
30,2015/5/07,fix #2614: call startActivityForResult from MediaAddFragment
33,2015/5/07,Added disabled state for like comment follow
10,2015/5/07,Hide reader tag menu for logged out reader
8,2015/5/07,Use recommended tags for logged out reader
1,2015/5/07,Rewrite PN type "c" as "comment"
1,2015/5/06,Fixing NPE on null callback.
1,2015/5/06,Added new analytics properties for push authentication tracking.
3,2015/5/06,Added new analytics properties for push authentication tracking.
1,2015/5/06,Adds support for verifying the 'expires' timestamp' that is passed with the push auth notification.
2,2015/5/06,Adds support for passing a custom title to `StatsViewAllActivity`
3,2015/5/06,Fixed build issue and changed comments to load in a web view.
5,2015/5/06,Fixed a few bugs:  * ReaderPost is only requested when it doesn't exist yet. * Post likes properly fall back to load the post in the reader if it doesn't exist in the ReaderPostTable.
24,2015/5/06,First pass at disabling reader-related items that require wp.com account
9,2015/5/06,Better way of removing completed connections. This also fix an issue where the network HTTP error code 403 doesn't trigger hasResponseDelivered to true in the Volley framework.
1,2015/5/06,Fix an issue with Jetpack Stats where the default .com account was not being used properly.
37,2015/5/06,Reverted reader comments integration as it causes some UX confusion.
23,2015/5/06,Revert "Revert "Revert "Changed ReaderActivityLauncher.showReaderComments to accept Ids instead of a ReaderPost object."""  This reverts commit 67aa35aeac12da35d8791b6d42e6ab4cc59d97c6.
4,2015/5/06,Add notification_type:{comment|like|follow|...} to push_notification_received and notifications_notification_details_opened events.
1,2015/5/06,fix #2635: check if data is null
1,2015/5/06,rename nosara event
1,2015/5/06,rename nosara event
4,2015/5/06,split sign out wpcom/complete handling in WPMainActivity
6,2015/5/06,rename UserSignedOut event to UserSignedOutCompletely
2,2015/5/06,change sign out message
18,2015/5/05,Changed to show default blavatar when not signed into wp.com
2,2015/5/05,Hide the avatar frame for non-wp.com
19,2015/5/05,fix #2598: open all previews with an authenticated url
19,2015/5/05,broadcast a UserSignedOut when the user remove its last blog (wporg or wpcom) from the app
1,2015/5/05,Unescape HTML for blog name in ViewSiteActivity
76,2015/5/05,remove mIsWordPressComUser from AccountModel and set hasAccessToken() friendly (only package visible)
3,2015/5/05,remove mIsWordPressComUser from AccountModel and set hasAccessToken() friendly (only package visible)
88,2015/5/05,remove wpcom data when user signs out wpcom
3,2015/5/05,Unescape html entities for blog names and handle empty ones
12,2015/5/05,Site picker now sets the current blog
4,2015/5/05,Do not pass the the array of StatsEndpointsEnum to the Service. Pass it as int[] otherwise we get an error on old devices.
5,2015/5/05,Remove unused imports.
5,2015/5/05,Remove `onDestroy` since it's empty now
41,2015/5/05,Move the method that returns the REST Endpoint path inside the enum.
3,2015/5/04,Auth push uses a unique ID so other pushes don't interfere with it.
20,2015/5/04,First go at implementing push auth notification.
28,2015/5/04,Removing some verbosity from media request codes.
13,2015/5/04,Verifying tab adapter is non-null before querying for a fragment.  With Don't Keep Activities checked the app would crash when returning to the main Activity from anywhere.
34,2015/5/04,Consolidating request codes and eliminating collisions.  ACTIVITY_REQUEST_CODE_PICTURE_LIBRARY was the same as BLOG_SETTINGS.
1,2015/5/04,Using tag to find fragment.
1,2015/5/04,Re-add the code that removes Stats after merging with develop.
39,2015/5/04,Removed PTR
8,2015/5/04,Fixed site picker card on 4.x
6,2015/5/01,Cleaned up a few warnings from the code inspector.
81,2015/5/01,Killed the custom typeface span as it wasn't obvious how to apply some margin to it.
6,2015/5/01,Added some fallbacks to web view activities in case the reader post doesn't exist.
36,2015/5/01,Launching a WebView now uses authentication to sign in the user.  Fixed linking to stats followers view.
22,2015/5/01,Notifications PTR progress now disappears as expected
5,2015/5/01,Fixed site picker cardview appearance on pre-L
3,2015/5/01,rename drawables (name changed in wpeditor)
1,2015/5/01,update to wputils 1.6.0
157,2015/5/01,remove unused layout (was moved to the editor repo)
286,2015/5/01,Update wpeditor
1,2015/5/01,bump version number to 1.6.0
39,2015/4/30,Handle the current (self-hosted) blog being removed
10,2015/4/30,Users can select the Add button to add images from their device.
25,2015/4/30,Changed to using a sign in button
1,2015/4/30,Fixed notifications fragment for self-hosted
62,2015/4/30,Fixed notifications fragment for self-hosted
2,2015/4/30,4.0-rc-3 / 179 version bump
1,2015/4/30,Use a placeholder image when thumbnail can't be decoded
9,2015/4/30,Delete old stats during startup by using a RateLimitedTask
1,2015/4/28,Removing potential race condition with WP image loading threads.
13,2015/4/28,Removing potential race condition with WP image loading threads.
20,2015/4/28,WP library images and local images working.
50,2015/4/28,Local images are maintained after fragment is re-created.  WP library images are buggy
1,2015/4/27,Returning to the post editor won't crash if Activity was destroyed.  Still an issue of re-loading existing media into the post upon return from the picker.
18,2015/4/27,Returning to the post editor won't crash if Activity was destroyed.  Still an issue of re-loading existing media into the post upon return from the picker.
1,2015/4/29,Removing note20test again ;)
14,2015/4/29,Experimenting with loading the reader post when we reach a footer block so we can deep link to the comments list.
10,2015/4/29,Revert "Revert "Changed ReaderActivityLauncher.showReaderComments to accept Ids instead of a ReaderPost object.""  This reverts commit cf140754fc0121f13b88db134e182584207ce19b.
2,2015/4/29,A bit o' cleanup
11,2015/4/29,Reverted usage of reader comment view since it doesn't work if the reader data hasn't been downloaded yet (#2604)  Fixed viewing of followers via the stats fragment.
23,2015/4/29,Revert "Changed ReaderActivityLauncher.showReaderComments to accept Ids instead of a ReaderPost object."  This reverts commit f4e5518dd1edd4827c505e67b73e0c37471ac441.
1,2015/4/29,Update tracks lib to version 1.0.2
1,2015/4/29,Update tracks lib to version 1.0.2
1,2015/4/29,Accidentally committed note20test bucket usage.
1,2015/4/29,Fixed the color of the comment_reply_background.
28,2015/4/29,Added support for formatting footer spans differently.  They will have bold and underlined links to match the design.
59,2015/4/24,Support for noticon span.
10,2015/4/24,Changed ReaderActivityLauncher.showReaderComments to accept Ids instead of a ReaderPost object.  You can also now optionally pass a commentId to showReaderComments and it will attempt to scroll that comment into view after loading.
4,2015/4/29,New footer note block for handling footers in certain note types.
2,2015/4/29,Skip account migration on fresh install
1,2015/4/29,Don't set `mIsWordPressComUser` to true for empty token
1,2015/4/29,Increase the 2fa code allowance to 8 characters.  Fixes #2599
10,2015/4/29,Style updates.
3,2015/4/29,Added editor layout for tablets (sw600dp)
0,2015/4/29,Added bigger HTML button drawables for tablet format bar
3,2015/4/29,move origin from ActivityLauncher to MeFragment
22,2015/4/29,Added 10 minutes TTL to cache and clean Stats data when: - User logout - User hides blogs - User remove blogs from the app
1,2015/4/29,fix helpshift origin tag if launched from the Me tab
1,2015/4/29,update helpshift version / buck dependency
2,2015/4/29,Removed unused color resources
56,2015/4/29,Removed unused English strings
280,2015/4/29,Removed unused layouts menus & dimens
2,2015/4/29,Refactor if condition
169,2015/4/29,Removed unused animation resources
0,2015/4/29,Removed unused drawables
1,2015/4/29,Hide the "new posts" message whenever the post list is refreshed
3,2015/4/28,Lightening the divider color to match the web app coloring.
98,2015/4/28,Fixed the header and user comment layouts.
11,2015/4/28,Change  "Disconnect" label on Me page to use a WPAutoResizeTextView so it won't get cropped on smaller displays
82,2015/4/28,Wrapped "Me" fragment in a ScrollView
1119,2015/4/28,Removed a lot of inline JS/CSS from the main editor html file.
4,2015/4/27,Bringing back the menu options for adding media in the post editor.  Added an option for the new media picker.
1,2015/4/28,Further tweaked "new posts" logic to skip message when first post is visible
26,2015/4/28,Simplified "new posts" logic so that message only appears if you've scrolled the list
2,2015/4/28,Actually fix #2571 :)
0,2015/4/28,Update audio placeholder image  png credit to Joen Asmussen
1,2015/4/27,Null checks are so hot right now.
3,2015/4/27,Fixes comment moderation from notifications.  The activity result wasn't being passed to the notifications list fragment so that's why nothing was happening when you performed a moderation action.  Refs #2505
1,2015/4/27,Switch to `AccountHelper.getDefaultAccount().isWordPressComUser()`
11,2015/4/27,Main activity now passes onActivityResult to reader fragment when appropriate
4,2015/4/27,Renamed "Remove blog" to "Remove site" in BlogPreferencesActivity and updated related strings to use "site" rather than "blog."
3,2015/4/27,Added Toast when current site not hidden
31,2015/4/27,Moved some WebView config code from EditorFragment to EditorWebViewAbstract
6,2015/4/27,Remove log lines
2,2015/4/27,Better logging
1,2015/4/27,Add more audio formats
1,2015/4/27,Add more audio formats
6,2015/4/27,Destroy Stats service when it's not needed
17,2015/4/27,Tweaked logic for showing "new posts" message added subheader to that message.
5,2015/4/26,Capitalizes tag names for toasts and navbar  Also removes duplicate toast message
2,2015/4/27,Handle audio files in media browser  Fix #2474
4,2015/4/25,Pulled the EditorWebView layout element into a separate file  - Now using distinct editor resources for API 19+ and for older APIs
1,2015/4/25,Add unspam action in comments  Fix #2574
1,2015/4/24,Modified EditorWebView to use WebView.evaluateJavascript on API>=19
17,2015/4/24,Added EditorWebViewAbstract and replaced EditorWebView usage in EditorFragment
3,2015/4/24,Moved the format bar's left margin inside the scrollview  - This makes scrolling reach the left edge of the screen - Also suppressed the RtlHardcoded lint check for the format bar
35,2015/4/24,Removed add site "+" from ActionBar added "ADD SITE" button which shows a dialog enabling a choice between adding a self-hosted blog or creating a new wp.com one
3,2015/4/24,Removed `ManageBlogsActivity` from manifest
24,2015/4/24,New posts aren't loaded until after using taps "new posts"
1,2015/4/24,new FAQ section with an Q/A about Permgen space error
41,2015/4/24,Use `notifyDataSetChanged` in the post adapter and tweak the logic for when the "new posts" bar is shown.
37,2015/4/24,Clean the Stat service code.
12,2015/4/23,Shrank HTML button and tightened its margins  - Renamed and kept the previous margin dimens to be used for the tablet version - Some style cleanup
9,2015/4/23,Reworded show/hide menu item and action mode title
4,2015/4/23,Do not re-enqueue a request that is already in the queue and waiting to be process or ongoing.
78,2015/4/23,Removed blog lists from settings (only wp.com username/sign-in remains)
2,2015/4/23,Site picker now enables creating a new wp.com blog
16,2015/4/23,Do not automatically stop the service when StatsActivity is destroyed.
2,2015/4/23,3.9.1 / 177 version bump
16,2015/4/23,Clean the code by following suggestions returned by the "code inspector".
47,2015/4/23,Better handling of offline network mode. Rename variables.
2,2015/4/22,Changed menu and ActionMode title
4,2015/4/22,Catching other unknown URL exception.
4,2015/4/22,Catching other unknown URL exception.
7,2015/4/22,Making sure Cursor is closed if exception gets thrown.
7,2015/4/22,Making sure Cursor is closed if exception gets thrown.
249,2015/4/22,Removed show/hide blogs from settings
16,2015/4/22,No longer showing selection count in action mode title
97,2015/4/22,Show/hide now works current site is highlighted
6,2015/4/22,Catching unknown URL exceptions.
6,2015/4/22,Catching unknown URL exceptions.
1,2015/4/22,fix wpcomrest test: testGetAbsoluteURLWithLeadingSlash
3,2015/4/22,update unit tests
404,2015/4/22,remove broken tests (introduced by the volley refactor in e14d23bbf09f2e14bcb86223a75a326333675e71)
248,2015/4/22,ViewAll activity now uses StatsService to update/load data from the server.
35,2015/4/22,Replace `switch` statements with `if..elseIf` (for buck)
1,2015/4/22,update media picker lib to 1.2.2
2,2015/4/22,replace nonexistant site_picker_listitem with site_picker_card
117,2015/4/22,replace switches on R.id with if/elseif
58,2015/4/22,Better handling of Jetpack Stats setup and better handling of No network connection.
75,2015/4/22,Basics of editing site visibility added to site picker still need to update db with changes to visibility
41,2015/4/22,Do not clean the fragments content during the refresh of the Stats Activity
1,2015/4/21,Removing staging repository.
1,2015/4/21,Fixing interface.
5,2015/4/21,Removed unnecessary HTML button code
352,2015/4/21,The StatsService can now handle different date/timeperiod and blog. Each fragment now calls the service with the correct parameters (blogId timeframe statsType) and displays the response on the screen. With these changes in place we can create a screen composed of any type of StatsFragments even duplicates are allowed with minimum efforts.
2,2015/4/21,4.0-rc-1 / 176 version bump
5,2015/4/21,Using latest media picker library from staging repository.
1,2015/4/20,Using a solid color instead of the image placeholder.
2,2015/4/20,Making the placeholder images consistent for blog and local media.
1,2015/4/20,Bump Simperium to 0.6.3 release.
13,2015/4/20,Added default blavatars for both .com and .org
9,2015/4/20,Simplified ReaderWebView `shouldInterceptRequest`
3,2015/4/20,Linked up format bar buttons to ZSSEditor methods  - Isolated the HTML button so it's not disabled like the rest when the title is the active field
15,2015/4/20,use a HttpURLConnection instead of DefaultHttpClient
1,2015/4/20,Added unit test for Utils.buildMapFromKeyValuePairs  - Fixed a bug in buildMapFromKeyValuePairs
107,2015/4/20,fix #2459: move fetch blog list wporg in an AsyncTask
13,2015/4/20,Rename variables.
68,2015/4/20,Disabled multi-select by default moved SiteRecord to adapter
22,2015/4/18,Replaced add button with menu
84,2015/4/18,Switched site picker to a card view
170,2015/4/18,Moved loading logic to adapter added separator between visible/hidden blogs
81,2015/4/18,First pass at site picker ActionMode
90,2015/4/18,Moved site picker adapter to separate class
5,2015/4/18,Optimized styling
26,2015/4/17,Site picker sorts visible blogs to the top uses disabled styling for hidden blogs
3,2015/4/17,Added partial support for the callback-selection-changed JS callback  - Editor is notified when the focused field (title or content) changes - Handled disabling the format bar when the title is in focus
16,2015/4/17,Added format bar buttons and dividers to editor layout
4,2015/3/31,If string is empty return empty string instead of null  Verify that passing in an empty string does not return null  Handling cases where the url could be malformed so there are no hosts even with a non-empty string
4,2015/3/31,If string is empty return empty string instead of null  Verify that passing in an empty string does not return null  Handling cases where the url could be malformed so there are no hosts even with a non-empty string
1,2015/4/17,Do not use dashes in properties.
1,2015/4/17,Do not use dashes in properties.
19,2015/4/17,Renamed format button highlighted underline dimens
6,2015/4/17,Resolved conflicts in GCMIntentService
34,2015/4/17,Renamed content margin for wider use applied to me & my sites fragments
53,2015/4/17,Fixed width of post list on tablets also removed separate sw720dp post list layout
2,2015/4/17,Fixed crash in notification settings fragment
8,2015/4/16,Created constants for the push note types.
16,2015/4/16,Relabeled legacy editor color assets
1,2015/4/16,Make sure to handle the connection status to WPCOM correctly
1,2015/4/16,Make sure to handle the connection status to WPCOM correctly
2,2015/4/16,Renamed two Reader events that were not updated correctly
2,2015/4/16,Renamed two Reader events that were not updated correctly
104,2015/4/16,Renamed legacy editor button selectors and images
52,2015/4/16,Renamed events to have the action last. Also some events names now use eventprops instead of having the full "action-string" hard-coded in them.
52,2015/4/16,Renamed events to have the action last. Also some events names now use eventprops instead of having the full "action-string" hard-coded in them.
1,2015/4/16,add _buck install --run wpandroid_ and the reference to watchman
2,2015/4/16,target Android API level 22
1,2015/4/16,better local.properties parsing
1,2015/4/15,Qualified Utils static imports in UtilsTest
1,2015/4/15,update to tracks 1.0.1
1,2015/4/15,update to tracks 1.0.1
2,2015/4/15,get android sdk dir from local.properties
4,2015/4/15,update .buckconfig
1,2015/4/14,Added a unit test.
3,2015/4/14,Circularize the push notification icon if the note is known to have a gravatar.  Place WordPress notifications in the 'Social' category so they are placed in the proper area of the notifications area on lollipop.
3,2015/4/14,Finish the note detail activity if the note couldn't be retrieved.  Fixes #2526
32,2015/4/14,Created ui/main package
10,2015/4/14,Minor optimization to getCurrentBlog()
2,2015/4/14,Use EventBus in SitePicker to detect when blog list is changed and reload the site list.
8,2015/4/14,new rule to inject version name and code in the AndroidManifest.xml
2,2015/4/14,Some EditorFragment cleanup
2,2015/4/14,Fix #2429 - hide keyboard on changing fragment
3,2015/4/13,Switched fragments to smooth scrolling
8,2015/4/13,Fragment is scrolled to the top when user tabs the active tab
1,2015/4/13,Cut reader excerpt length to two lines
2,2015/4/13,3.9 / 175 version bump
9,2015/4/13,Renamed callback classes for clarity  - JsCallbackHandler -> JsCallbackReceiver - JsCallbackListener -> OnJsEditorStateChangedListener
20,2015/4/13,new Buck macro to automatically add the fetch_deps dependency to android_lib tasks
2,2015/4/13,add a clumsy _fetch-dependencies_ dependency
1,2015/4/11,update to mediapicker 1.2.1
3,2015/4/11,Fix app_name by renaming the resource target name
8,2015/4/10,add editor resources to the main lib
4,2015/4/10,use full package name for resources imported from sub libs
44,2015/4/10,fetch buck dependencies
156,2015/4/09,replace switch/case on non final field by if/elseif
1,2015/4/03,first BUCK integration
3,2015/4/13,fix #2521: check decoded bitmap is not null before putting it in the LRU cache
21,2015/4/11,Using consistent "disconnect" wording tweaked disconnect dialog
4,2015/4/10,Fixed crash when displaying photo viewer
1,2015/4/10,Fixed layout error that was causing travis to fail
1,2015/4/10,Gravatar on Me tab is downloaded using exact size
10,2015/4/10,Simplifying many of the user facing media picker messages.
1,2015/4/10,Fixed crash showing SSLCertsViewActivity
1,2015/4/10,Updating media library to v1.2.1 for bug fixes.
1,2015/4/10,Fixed crash showing LicensesActivity
23,2015/4/10,Removed "Help & Support" from settings
22,2015/4/10,Moved signin to ActivityLauncher
40,2015/4/10,Removed signout from settings
2,2015/4/10,Added sign out to me tab
6,2015/4/10,Added a lint rule ignoring the 'InvalidPackage' check for Robolectric  - Fixes lint error caused by the IDE bug workaround in build.gradle
6,2015/4/10,Added notes and logging for some currently unused JS callbacks
74,2015/4/10,update translation for 3.9 release
3,2015/4/10,Site picker now has "Add a site"
6,2015/4/10,Fixed: swipe-to-refresh triggered when scrolling up the post list
3,2015/4/09,Downgrading plugin tests aren't working with the new tools.
3,2015/4/09,Updating robolectric-gradle-plugin and the Android gradle build plugin.
135,2015/4/09,Resolved conflict in stats activity (again)
6,2015/4/09,Add drop-shadow to avatar on Me tab
35,2015/4/09,Moved some utility methods from EditorFragment to Utils
11,2015/4/09,Added a WebView sublcass EditorWebView and switched the editor to use that  - Overrides onCheckIsTextEditor() to declare itself an editor - Moved execJavaScriptFromString over to be a method of EditorWebView
4,2015/4/09,Remove unused strings.
276,2015/4/09,Remove "Published" module
2,2015/4/09,3.9-rc-4 / 174 version bump
3,2015/4/09,Added handling for the "callback-selection-style" JS callback  - Added support for toggling styles in the editor using the format bar and handling the callback to update the highlighted status of format bar buttons
1,2015/4/09,Use TextUtils to check if display name is empty
27,2015/4/09,Moved JsCallbackHandler to its own file  - Added a JsCallbackListener interface for callbacks from the handler to the editor fragment - Updated ZSSEditor.callback to send the full callback path
3,2015/4/09,Added example format bar with bold button
1,2015/4/09,If the display name is empty use username in me page
48,2015/4/09,Me fragment layout changed to be LinearLayout
4,2015/4/09,Fixed: reader toolbar is untappable
8,2015/4/09,Fixed: reader toolbar appears above PTR progress
19,2015/4/09,Fixed: reader toolbar should appear after user taps "New posts"
42,2015/4/09,Fix #2406 - Load media file in the background
143,2015/4/08,Resolved stats conflict
133,2015/4/08,Updating to MediaPicker v1.2.0 and updating MediaSources.
89,2015/4/08,Forgot to remove dummy_fragment in previous commit
69,2015/4/08,DummyFragment removed
8,2015/4/08,Me page now correctly shows WordPress.com user details
1,2015/4/08,Resolved conflicts
45,2015/4/08,Squashed 'libs/analytics/' changes from f150a27..b4d2666  b4d2666 Merge branch 'release/3.9' into develop 77ff509 update analytics lib to add isWordPressCom arg in refreshMetadata 04d6dcb remove org.wordpress.android.WordPress dependency 314cabe Merge branch 'develop' into feature/nosara-tracks 7495b53 Merge branch 'develop' into feature/modularize-editor 177ea7e rename editor/analytics projects in build files 9ff6a4c rename editor/editor to editor/WordPressEditor and analytics/analytics to analytics/WordPressAnalytics to avoid confusion in Android Studio c3a0335 add sonatype configuration to publish the artifact to maven central  git-subtree-dir: libs/analytics git-subtree-split: b4d266605fc00d16a51784129633dc1dcf5c2689
14,2015/4/08,Rename variables and remove unused fields and imports.
1,2015/4/05,Moving check into RateLimitedTask
20,2015/4/07,Switching to serial execution for image fetching. Add string resources.
2,2015/4/07,Correctly checking if a given source URI is a network URI (or local).
12,2015/4/07,If themes is not accessible don't show it in my site page
18,2015/4/07,Cleaned up site picker's AsyncTask and fixed incorrect sorting which caused self-hosted blogs to appear at the bottom of the list
2,2015/4/07,viewBlogComments in ActivityLauncher renamed as viewCurrentBlogComments
18,2015/4/07,Check for theme's accessibility in ActivityLauncher
2,2015/4/07,3.9-rc-3 / 173 version bump
7,2015/4/07,fix #2441: check the fragment is added in a callback before showing a toast message
9,2015/4/07,Some ActivityLauncher methods better named
21,2015/4/07,Show all children for a group/sub-group and use icons on children where available in the response.
8,2015/4/07,viewCurrentBlogPosts animated parameter removed
23,2015/4/06,If the user has no WPCom token then do not use Rest API to try and retrieve user info
9,2015/4/06,Defining analytics strings in AnalyticsTracker.
3,2015/4/06,Excluding support package from media picker dependency.
1,2015/4/06,Removing debug log.
5,2015/4/06,Reader toolbar now toggles when switching pages
4,2015/4/06,Fixed a typo in comments
3,2015/4/06,Add the published module
3,2015/4/06,Use ActivityLauncher.viewBlogSettings in AuthErrorDialogFragment
9,2015/4/06,Use ActivityLauncher.viewCurrentBlogPosts in DummyFragment & ThemeBrowserActivity
3,2015/4/06,fix NewApi lint error
105,2015/4/06,remove ReaderUserActions and AppPrefs.USER_ID
15,2015/4/06,* Add StringUtils.notNullStr call in Account's getters * Fix DB model and DB migration
5,2015/4/05,Moving check into RateLimitedTask
28,2015/4/05,Speeding up media library image fetching with parallelization.
58,2015/4/05,Updating MediaSource interfaces.
22,2015/4/04,Shortened auto-hide time code cleanup
138,2015/4/04,Added spacer to post list cards to provide room for auto-hide toolbar
11,2015/4/04,First pass at auto-hiding reader toolbar
2,2015/4/04,fix 2237: Prevent NPE when clearing search view focus
12,2015/4/03,Skip multiple checking of the note tab badge changed WPMainActivity to Activity (was ActionBarActivity)
11,2015/4/03,Verify that the xmlrpc url matches when signing back in with a self-hosted site.  Kill the `currentBlog` if we delete all db content.  Use `apply()` when saving shared preferences.
9,2015/4/03,MainActivity now listens for changes to the Note bucket.  Updated SimperiumUtils.hasUnreadNotes() to compare timestamps of unread notes with the last_seen timestamp in the meta bucket.  updateLastSeenTime() is called when the notifications tab is loaded.
17,2015/4/03,Cleaned up EditorFragment
22,2015/4/03,Changed project license from MIT to GPLv2
2,2015/4/03,Fixed issue with JavaScript not loading on API<19
181,2015/4/03,Removed NotificationsActivity opening note from push is now handled by WPMainActivity
14,2015/4/03,viewBlogStats refactored to take blogId and used in notification details
3,2015/4/03,Switched WebChromeClient onConsoleMessage to use debug log messages instead of error
4,2015/4/03,viewStatsSinglePostDetails added to the ActivityLauncher
1,2015/4/03,Updated to use build tools 21.1.2
1,2015/4/03,Added title to editor example content
105,2015/4/03,rename getAccounts* method to getBlogs in WordPressDB
29,2015/4/03,move methods for Account to AccountHelper (were not 100% linked to the account model)
330,2015/4/03,replaced ACCESS_TOKEN and WPCOM_USERNAME preferences by a call to the default account
1,2015/4/02,Added travis build status to README
1,2015/4/02,SitePicker now includes .org accounts
64,2015/4/02,Modified post settings due to changed heading styles
79,2015/4/02,Further cleanup of blog settings
14,2015/4/02,editBlogPostorPage added to ActivityLauncher
3,2015/4/02,Unnecessary imports removed
2,2015/4/02,newAccount added to ActivityLauncher
75,2015/4/02,new Account model + actions + db persistence and migration
121,2015/4/02,Removed "View Admin" from site settings and cleaned up the activity layout
4,2015/4/02,viewSettings added to AcitivityLauncher
12,2015/4/02,viewSSLCerts added to ActivityLauncher
28,2015/4/02,Removed unused reader menus
15,2015/4/02,Removed demo badging
5,2015/4/02,Removed unnecessary toolbar from reader list fragment
14,2015/4/02,Cleaned the code a bit.
2,2015/4/01,Tracking origin of post detail view request.
2,2015/4/01,Lightened the error placeholder drawable
2,2015/4/01,Increased toolbar height to 56dp to match Google's specs changed tab indicator color
1,2015/4/01,Using ACTION_MEDIA_SCANNER_SCAN_FILE on 4.4+ (KitKat).
34,2015/4/01,Returned toolbar menu (edit subs) to the reader tab
52,2015/4/01,Returned tag spinner (dropdown) to the reader tab
2,2015/4/01,My Site "Settings" label changed to "Site Settings"
5,2015/4/01,Move that code that checks for null values outside the if branch and use it on every flow.
35,2015/4/01,Use a 3-levels models on Referrers and display the first 2 levels only for now.
4,2015/4/01,README cleanup
4,2015/4/01,Set default activity for example application
3,2015/4/01,Updated README with build instructions for Windows (fixes assets symlink)
1,2015/4/01,Timeframe and Date cannot be null here.
1,2015/4/01,Make sure StatsType is not null in ViewAll activity. If null show a Toast and finish the activity immediately.
3,2015/4/01,Added @SuppressLint for web debugging
9,2015/4/01,Changed WordPress-Utils-Android dependency to maven artifact
11,2015/4/01,Cleaned up animations
10,2015/4/01,update analytics lib to add isWordPressCom arg in refreshMetadata
18,2015/4/01,update analytics lib to add isWordPressCom arg in refreshMetadata
25,2015/4/01,remove org.wordpress.android.WordPress dependency
25,2015/4/01,remove org.wordpress.android.WordPress dependency
12,2015/4/01,Don't pass ordinal of StatsViewType
4,2015/3/31,If string is empty return empty string instead of null  Verify that passing in an empty string does not return null  Handling cases where the url could be malformed so there are no hosts even with a non-empty string
4,2015/3/31,If string is empty return empty string instead of null  Verify that passing in an empty string does not return null  Handling cases where the url could be malformed so there are no hosts even with a non-empty string
305,2015/3/31,Removed drawer-related resources & routines
1185,2015/3/31,Removed WPDrawerActivity
16,2015/3/31,Cleanup
48,2015/3/31,Removed drawer from ThemeBrowserActivity
229,2015/3/31,Removed drawer from StatsActivity
135,2015/3/31,Removed drawer from PostsActivity
15,2015/3/31,Removed drawer from NotificationsActivity
17,2015/3/31,MediaBrowserActivity cleanup
122,2015/3/31,Removed drawer from MediaBrowserActivity
12,2015/3/31,Comment detail fragment now works in comment activity
57,2015/3/31,Removed drawer from CommentsActivity
37,2015/3/31,Removed drawer from ReaderPostListActivity
1,2015/3/31,Updated ViewSiteActivity and WebViewActivity to use support toolbar w/o drawer
47,2015/3/31,Updated ViewSiteActivity and WebViewActivity to use support toolbar w/o drawer
1,2015/3/31,1.5.0 version bump
1,2015/3/31,1.5.0 version bump
3,2015/3/31,fix #2479: fix a NPE in PostUploadService.onCancelled
72,2015/3/31,Resolved conflicts
22,2015/3/31,Make anonID persistent across app restarts. This enable anon tracking of .org users.
4,2015/3/25,Canceling post load task when Fragment is paused.
7,2015/3/30,More efficiently querying database to check for pending media deletes.
8,2015/3/25,Checking for null Blog object before calling getLocalTableBlogId(). (+1 squashed commit) Squashed commits: [6f94474] Formatting.
7,2015/3/30,More efficiently querying database to check for pending media deletes.
3,2015/3/30,fix #2451: remove log call leaking xmlrpc username/password
1,2015/3/30,fix #2470: track when a user replies to a helpshift conversation
1,2015/3/30,update to helpshift 3.8.0
7,2015/3/30,Use AppLog instead of Log. Also renamed the constant that contained a reference to Mixpanel (wrong cut&paste).
6,2015/3/30,replace the old crashlytics dependency with the updated Twitter-Fabric crashlytics dependency
181,2015/3/29,Revert "Moving from private inner class to public outer class to test"  This reverts commit 5fffc66b9ebfba6eb3ed207f45e2db1e297c5387.
169,2015/3/29,Moving from private inner class to public outer class to test
2,2015/3/29,Only update WPComBlogList if the user has a valid DotCom token
1,2015/3/28,enabled caching for HttpUrlConnection
2,2015/3/28,Image is now read using a BufferedInputStream
36,2015/3/28,Removed HttpClient
9,2015/3/28,Switched to HttpURLConnection
1,2015/3/28,Switched to ThreadSafeClientConnManager
2,2015/3/28,ReaderWebView now reuses the DefaultHttpClient
10,2015/3/28,ReaderWebView cleanup
1,2015/3/27,Removed commented line.
44,2015/3/27,Reverted renaming the dotcomFlag it was muddling up the clarity of the code changes in the PR.
1,2015/3/27,Change basic note block textview to use `wrap_content` for the width.  Fixes issue where link highlight could happen outside of the linked text. Because of this change I had to apply the `layout_gravity` for the text block in code for badge notification types.
13,2015/3/27,Me page actions connected to ActivityLauncher
4,2015/3/26,Renamed a method and removed a comment.
70,2015/3/26,Don't delete content when signing out.  Instead set a logged out preference that will cause the login activity to be shown. When the user signs back in check if the username matches (for both .com and self-hosted accounts). If the username doesn't match clear out the content in the database.  Fixes #1989
14,2015/3/26,Renamed `dotcomFlag` to `isDotCom` for easier readability.
2,2015/3/26,Remove unexpected blank lines
3,2015/3/26,Use the Automattic tracks library from maven.
8,2015/3/25,Checking for null Blog object before calling getLocalTableBlogId(). (+1 squashed commit) Squashed commits: [6f94474] Formatting.
4,2015/3/25,Canceling post load task when Fragment is paused.
1,2015/3/25,Renamed the note block header layout file.
22,2015/3/25,JS to Java callback proof of concept  - Added a callback handler injected into the WebView - Set up a 'DOM has loaded' callback to load the example HTML into the editor
87,2015/3/25,Updated ZSSRichTextEditor to latest version
2,2015/3/24,Auto-load an example HTML file in editor  - Enabled debugging of web contents - Set editor fields to editable
12,2015/3/24,Updated common editor files and imported editor HTML file from iOS
2,2015/3/24,Pass the gravatar image type to the `HeaderNoteBlock` constructor.  This will display the follow header image without rounded corners which is desired for blavatars.
2,2015/3/24,3.8.1 / 171 version bump
4,2015/3/24,check that we never give a null url to the GravatarUtils.blavatarFromUrl() method
1,2015/3/24,Make sure to track additional properties on single event.
4,2015/3/24,check that we never give a null url to the GravatarUtils.blavatarFromUrl() method
7,2015/3/23,Open follow range types in the stats followers view if possible.
6,2015/3/23,Renamed `HeaderUserNoteBlock` to `HeaderNoteBlock` since it's not just for Users any longer.  Open the blog preview activity when a follow header is tapped.  Refs #2431
0,2015/3/20,Updates the tint of `notion_clock` to match the new coloring.  Fixes #2449
12,2015/3/20,Visual improvements to `ViewPostFragment`: * WebView uses OpenSans. * Better font colors. * Padding updated to match up with 48dp rhythm. * Removed shadow from post title.
30,2015/3/20,Added support for `WPWebViewClient` to pass the token for image requests.  Moved `isImageUrl` method to `UrlUtils` since it is being used in two places now.  Fixes #2444
13,2015/3/20,replace hard coded (and duplicated) preferences keys in NotificationSettingsFragment
2,2015/3/20,fix #2440: fix copy/paste typo in a preference key
1,2015/3/20,fix #2439: check for null cursor
5,2015/3/19,Apply `grey` coloring to POST range types.  If `mShouldLink` is set to true POST ranges will still be the blue link color (which is intended).  Fixes #2378
9,2015/3/19,Renamed a method and added a comment.
1,2015/3/19,fix gallery placeholder icon
1,2015/3/19,fix gallery placeholder icon
1,2015/3/19,fix #2437: clear uploading posts state if the PostUploadService is not running during PostList creation
228,2015/3/18,use EventBus instead of local broadcast for Stats
90,2015/3/18,use EventBus instead of local broadcast for "Core events" (network / blog list update)
18,2015/3/18,use EventBus instead of local broadcast in Notifications
1,2015/3/18,un/register events
4,2015/3/18,remove useless local broadcast register
2,2015/3/18,3.9-rc-1 / 170 version bump
2,2015/3/17,Me page layout completed
42,2015/3/17,remove unused media events
89,2015/3/17,use EventBus instead of local broadcast and cleans media upload events
9,2015/3/17,remove unused broadcast notification
1,2015/3/17,nux alert background update
90,2015/3/17,replace local broadcast by EventBus for SuggestionService and listeners
7,2015/3/16,Customizing media fragments.
63,2015/3/16,Updating MediaPicker library.
29,2015/3/16,Use `getId()` when getting the site id for a `SITE` type block.  Also changed `handleNoteBlockSpanClick` method to a switch so it's easier to read.
2,2015/3/16,Bumping version for 3.8 release.
17,2015/3/15,Implemented fetching and local caching of tags
4,2015/3/15,Updated xmlrpc mocks to include getResponse method
3,2015/3/14,Refactoring showReaderIfNoBlog to handle both no blog and non-DotCom accounts
2,2015/3/14,Fix #2421: Fix offline media deletion
3,2015/3/13,fix quick photo launch
6,2015/3/09,Fix #193. Add connection check before posting/uploading  Alert users that the post can't be published due to a complete lack of connection. Also when there is no connection adding media (video/photo) will only be queued without trying to upload it. Upload will continue once a connection is established.
2,2015/3/12,Tapping a media gallery span opens gallery editor.
6,2015/3/12,Tapping a media gallery span opens gallery editor.
8,2015/3/12,Receiver inserts uploaded media IDs into gallery.
1,2015/3/12,Using isVideo to determine if a file is a video.
3,2015/3/12,Using isVideo to determine if a file is a video.
0,2015/3/12,Switch site button in my site page made transparent
1,2015/3/12,Changes my site icons to have a transparent background
30,2015/3/12,Mapped events to start real testing
4,2015/3/12,enable gallery handling
51,2015/3/12,enable gallery handling
29,2015/3/12,remove unused code
29,2015/3/12,remove unused code
1,2015/3/12,addMedia now works with local files
26,2015/3/11,Use the new method to retrieve the Tracks client.
1,2015/3/11,Made "Switch site" full-width to provide more tappable area
51,2015/3/11,Added CardView to fragment_my_site
2,2015/3/11,Site picker slides out
14,2015/3/11,Resolved conflicts
1,2015/3/11,first step at introducing the new media picker
4,2015/3/11,first step at introducing the new media picker
1,2015/3/11,remove reference to string/copyright
145,2015/3/11,update translations for 3.8
1,2015/3/09,curl command now follows redirections
2,2015/3/10,Creating constants for property names and using integers for values.
9,2015/3/10,Removing unused imports.
39,2015/3/10,Setting the theme in the manifest removes the drop-shadow.  No need for API 18 workaround.
1,2015/3/10,Handling Locale's with provided country codes when selecting language.
3,2015/3/10,Use current blog in MySiteFragment instead of the last one
0,2015/3/10,Update icons - take 2.
8,2015/3/10,My site add buttons correctly display bg color for selected state
1,2015/3/10,Added autocomplete suggestions for tags
1,2015/3/10,temporarly change the dialog background from translucent (unreadable) to grey_darken_30
1,2015/3/10,fix copy/paste error
6,2015/3/10,remove unused origin tags change showFAQ and showConversation method signature to force origin tracking
14,2015/3/10,track from where a helpshift screen is opened
1,2015/3/10,update com.helpshift.android from 3.5 to 3.7.2
0,2015/3/10,Update icons
14,2015/3/10,Updated font colors for error messages and empty modules.
1,2015/3/09,Removing drop shadow from comment editor.
5,2015/3/09,Removing drop shadow from many Activity's that still included it.  * Post Editor * Post Settings * Post Categories * Settings * Show/hide blogs * Blog settings * Manage notifications * Licenses
1,2015/3/09,Moving field to top of class.
1,2015/3/09,Adding string resource for Device.
1,2015/3/09,Dismissing Language dialog onPause.
5,2015/3/09,Sorting language list. Fixing out-of-bounds read. Fixing language display names for languages with a specified region.
1,2015/3/09,Site picker now slides in
2,2015/3/09,Adding loading indicator to media library videos.
2,2015/3/09,Set the color of inactive horizontal labels to gray-darken.30
10,2015/3/09,Tracking refresh status and showing toast only on refresh failure.
34,2015/3/09,Removing available_languages from strings.xml to use the generated file.
1,2015/3/09,My site card elevation changed to use  dimension
2,2015/3/09,My site buttons now have a selectable background
22,2015/3/09,Better namings for the strings in my site page
12,2015/3/09,Some dimensions for my site combined to have fewer dimensions
4,2015/3/09,MySiteFragment newInstance method refactored to be cleaner
2,2015/3/09,Use match_parent instead of fill_parent in my site fragment
32,2015/3/09,Use context rather than activity in ActivityLauncher methods
1,2015/3/09,curl command now follows redirections
4,2015/3/08,Handling new format of generated available_languages array.
1,2015/3/08,Adding translatable=false attribute to available_languages array.
1,2015/3/08,Fixing quote characters.
2,2015/3/08,Moving Language to bottom of About section.
1,2015/3/06,Removing snapshot repository for MediaPicker dependency.
10,2015/3/06,Resolved conflicts
13,2015/3/06,fix #2328: sort blogs with an empty title by their hostname
13,2015/3/06,fix #2328: sort blogs with an empty title by their hostname
17,2015/3/06,rename addMedia() local vars
277,2015/3/06,remove WPCollectionSpan
57,2015/3/06,Update colors - first pass.
3,2015/3/05,Inserting shortcake instead of Span.  Fixes problem where adding multiple images wouldn't be saved to offline local post drafts.
2,2015/3/05,Adding checking for null before adding image URI to WPCollectionSpan.
1,2015/3/05,Updating to latest staged MediaPicker and using new Loading interface.
15,2015/3/05,Changed `black` back to #000000 in `colors.xml` and changed all `textColor` references to use grey_dark instead of black
10,2015/3/05,Removing unused methods.
2,2015/3/05,Changed default style background from grey_light to grey_lighten_30 (slightly darker)
2,2015/3/05,Changed follow button to have a white background
2,2015/3/05,Changed follow button to have a border and (on v21) a ripple effect.
1,2015/3/05,Changed `color_control_highlight` to `@color/pressed_wordpress`
3,2015/3/05,Correcting issue that caused blog images to not be added to the editor.
4,2015/3/05,Added null check on extras
1,2015/3/05,Annotating non-null parameter.
16,2015/3/05,Converting tab titles to string resources and keeping empty tabs.
8,2015/3/05,My Site page buttons linked to relevant activities using ActivityLauncher
26,2015/3/05,rename and update editor colors
27,2015/3/05,rename and update editor colors
8,2015/3/05,Merge branch 'develop' into feature/modularize-editor
1,2015/3/05,Updated card pressed elevation
1,2015/3/05,Use standard card elevation
1,2015/3/05,Use standard FAB elevation
1,2015/3/05,Added elevation to tabs
2,2015/3/05,fix merge issue
1,2015/3/04,Adding translatable=false flag to language array.
27,2015/3/04,Passing appropriate MediaSources for MediaPicker tabs.
4,2015/3/04,Switching to four tabs to differentiate blog vs local media.
2,2015/3/04,change status bar and action bar colors
54,2015/3/04,Authors module is always on the screen now.
1,2015/3/04,Update the current blog when it's changed from SitePickerActivity
1,2015/3/04,Blog name changed to be light bold
1,2015/3/04,Do not set paddingLeft on the Checkbox for devices with Android 4.1 or lower.
3,2015/3/04,Checkbox is now checked by default and its state remains the same even after switching tabs.
26,2015/3/04,reuse wpcom colors in stats
4,2015/3/03,Showing only supported languages in the Language picker.  Of the form: Language (code) ie... English (en)
1,2015/3/03,Adding array resource to identify supported languages.
21,2015/3/03,Marking preference key strings as non-translatable.
19,2015/3/03,Added support for Open Sans light bold & light bold italic.
72,2015/3/03,My site page layout completed
2,2015/3/03,Resolved conflicts
46,2015/3/02,Moving preference keys to string resources.
1,2015/3/02,SettingsActivity will handle runtime locale config changes.
12,2015/3/02,Cleaning up file upload queue insertions.  Users now alerted of problems with the provided file via Toasts.
4,2015/3/02,Code cleanup.
20,2015/3/02,Refreshing blog media when user enters the post editor.  This allows time for the request to occur before the user requests the MediaPickerActivity. A toast will alert the user when the go to the MediaPickerActivity if their blog media could not be refreshed.
1,2015/3/02,Updating to v1.1.3 MediaPicker library for bug fixes.
1,2015/3/02,Fixing gallery creation logic.  No gallery would be created unless there were both local and remote image files included in the gallery.
1,2015/3/02,fix #2372 by catching IllegalStateException
6,2015/3/02,Revert "check if activity has been paused before performing main toolbar button onClick"  This reverts commit 54b538f9522d632198548e4463fd12972224e600.
1,2015/3/02,check if activity has been paused before performing main toolbar button onClick
25,2015/3/02,remove NotificationsConstants
204,2015/3/02,remove deprecated colors
1,2015/3/02,Do not show the legend on start up
1,2015/2/28,Don't show empty view when a comment is being submitted and make sure it doesn't show up after it appears.
31,2015/2/27,Gracefully handling multiple video selection.
1,2015/2/27,Bumping to new version of MediaPicker-Android.  Fixes issue that caused grey thumbnails for recently captured media.
0,2015/2/27,Updating icons to remove alpha per Material guidelines.
4,2015/2/27,Adding activity indicator when uploading gallery items.
27,2015/2/27,Handling web and local images when generating preview for collection span.  Adding newline after inserting span for better editing experience. Without it tapping to bring the keyboard to the foreground would tap the span and open a dialog.
9,2015/2/27,Using custom view to show collection items.  Users can select any number of media items in the collection to remove.
12,2015/2/27,Adding a dialog to allow users to remove items from a collection span.
143,2015/2/27,Encapsulating WPImageSpan tap handling into its own method.
3,2015/2/27,adding notification colors  Separating out the "Calypso" colors that were being used by notifications and putting them in their own section.
1,2015/2/27,Removed italics from note_block_user_header
1,2015/2/27,mark string reference untranslatable
12,2015/2/27,Concatenated spaces in code  Concatenated spaces in code in order to remove double quotes from strings.xml
6,2015/2/27,Fixed hardcoded strings in media details  Changed media details so it retrieves its strings from strings.xml
30,2015/2/27,Updated main activity to use 2fa changes
110,2015/2/27,Resolved conflicts
4,2015/2/27,new CustomSwipeRefreshLayout with a workaround to catch onTouchEvent IllegalArgumentException
57,2015/2/27,new CustomSwipeRefreshLayout with a workaround to catch onTouchEvent IllegalArgumentException
20,2015/2/27,Remove the background highlight on labels.
9,2015/2/26,Saving multiple images in new WPCollectionSpan to reduce lag.
10,2015/2/26,Refreshing blog library media when launching MediaPickerActivity.  A short toast is shown to users if their blog media could not be retrieved.
72,2015/2/26,Vastly simplifying gallery creation.  Can handle multiple galleries with uploads in progress. Removed many unnecessary class variable. Optimistically inserts MediaGalleryImageSpan and fills with IDs as local images are uploaded.
2,2015/2/26,Removed bold style from note_block_comment_user and wrapped username in <strong>..</strong> at runtime to match username in note_block_user_header
3,2015/2/26,Removed bold style from note_block_user_header
1,2015/2/26,Updated HeaderUserNoteBlock to use getSpannableContentFromIndices
13,2015/2/26,Optimistically adding MediaGallery to editor.  Updating Media galleries as media upload completes.
0,2015/2/26,Updated tab icons to new gridicons
7,2015/2/26,Make the outer highlight color for bars customizable.
5,2015/2/26,Fix the legend dimension defined in resource.
103,2015/2/26,- Show the checkbox option on the Views tab only. - Make the color squares smaller and move it before the text label. - Make legend label smaller.
7,2015/2/26,Better logging of Volley Errors.
2,2015/2/26,use the standard toolbar height
1,2015/2/25,Only show the "new posts" bar if the new post(s) will appear at the top of the list
3,2015/2/25,Updated tabstrip to use elevation and white indicator
3,2015/2/25,Resolved conflicts
6,2015/2/25,Set a maximum value on column width. Quick fix for #2117
33,2015/2/25,- Change inner dark orange to dark-orange (#d54e21). - Make the color squares part of the label. - Make the color squares smaller than the checkbox and less rounded.
2,2015/2/24,Adding back button to MediaPickerActivity.
1,2015/2/24,Handling Quick Photo result and fixing gallery creation bug.  Galleries created with both local and remote content would never succeed.
11,2015/2/24,Inserting the gallery icon instead of the shortcode to allow editing.
7,2015/2/24,Resolved conflicts
9,2015/2/24,Code cleanup
41,2015/2/24,Removed visibility listener - we can use EventBus for this purpose in the future
5,2015/2/24,Use `addBlogs()` convenience method instead of passing a bunch of null arguments.  Hat-tip @maxme
2,2015/2/24,Fixed centering of text in two step footer label.
6,2015/2/24,s/setEnabled/setPersistenceEnabled/
15,2015/2/24,resolved conflicts
2,2015/2/24,3.8-rc-2 / 168 version bump
7,2015/2/24,s/JSONUtil/JSONUtils/
6,2015/2/24,fix potential bug on array to string conversion
28,2015/2/24,Removed leading slash from endpoint paths
1,2015/2/24,fix typo in a comment
1,2015/2/24,fix typo in a comment
1,2015/2/24,reuse the same id to show the error notification (in case we call updateNotificationWithError several times)
5,2015/2/23,Removed remaining traces of `WPCOM_PASSWORD_PREFERENCE`
9,2015/2/23,Split out the two step footer text into two different sentences.  Last sentence acts as a button for firing off the SMS.
8,2015/2/23,Remove query arguments from image Url and only intercept image requests if the `ReaderPost` is private.
1,2015/2/23,delay the refreshing anim by 50ms to workaround https://code.google.com/p/android/issues/detail?id=77712
1,2015/2/23,delay the refreshing anim by 50ms to workaround https://code.google.com/p/android/issues/detail?id=77712
10,2015/2/23,remove unnecessary timeout settings
11,2015/2/23,start the PostUploadService service as foreground service
1,2015/2/23,styling update
24,2015/2/23,styling update
3,2015/2/23,rest post and update notification when upload task is cancelled
8,2015/2/23,use onStartCommand instead of onStart and make the service sticky
1,2015/2/23,reset upload task (and therefor the uploaded post) when PostUploadService is destroyed
1,2015/2/22,Fixed handling of UpdatePostsStarted
132,2015/2/22,ReaderCommentListActivity now uses comment service
255,2015/2/22,ReaderPostPagerActivity now uses post service
91,2015/2/22,ReaderPostListFragment now uses post service
2,2015/2/21,Fix for v1.1 /sites/{siteId}/posts/{postId} change which moves the comment count and whether comments are open under a new "discussion" node
21,2015/2/21,Removed unnecessary ReaderTypes.RefreshType
1,2015/2/21,Added URL to media detail view  Added a clickable copyable URL to the media library detail view
14,2015/2/21,Changed fragment to use standard onActivityResult()
17,2015/2/21,Simplified updateCurrentUser (result listener was unnecessary)
2,2015/2/20,Added workaround for /read/menu/ endpoint which currently returns endpoints for updating tagged posts with the v1 path regardless of version requested.
14,2015/2/20,Using consistent forward slashes before every path
18,2015/2/20,Replaced all instances of `getRestClientUtils()` with `getRestClientUtilsV1_1()`
3,2015/2/20,No need to store dotcom_username or password any longer.
15,2015/2/20,Moved menu handling to the fragment
63,2015/2/20,Moved updating followed tags & blogs to the fragment
45,2015/2/20,Initial update is now handled using sticky event by the fragment
8,2015/2/20,Database purge is now handled using sticky event by the fragment
34,2015/2/20,Moved activity result handling to fragment
2,2015/2/20,Renamed reader menus
38,2015/2/20,Removed unnecessary tag ID code
25,2015/2/20,Cleaned up comparing tags to one of the default tags
19,2015/2/20,Simplified setCurrentTag() calls
120,2015/2/20,Moved post/tag/popup listeners to fragment
4,2015/2/20,Resolved conflicts in previous merge
17,2015/2/20,Cleaned up a few warnings/inspector recommendations.
1,2015/2/20,fix proguard configuration
8,2015/2/20,Style the graph legend a bit.
1,2015/2/20,Changed log tag to WordPress-EVENT
25,2015/2/20,Switched to onEventMainThread
4,2015/2/20,Reader service now posts events on the main thread
10,2015/2/20,Use correct colors for the text in legend.
25,2015/2/20,Add the ability to add a 2nd dataseries (views/visitors) for comparison purpose on the graph.
2,2015/2/20,Better commenting.
4,2015/2/19,Removed WPComLoginActivity reference from Manifest.
2,2015/2/19,Fixed a 'connection still allocated' log warning by not using an ivar for the DefaultHttpClient.
1,2015/2/19,Make sure to reset the state of the group before applying any customization.
17,2015/2/19,No need to pass the password to WPWebViewActivity any longer.
11,2015/2/19,Experimenting a bit with 2 datasets in the graph.
42,2015/2/19,Removed password from Stats when loading WebView.
3,2015/2/19,Don't store the password after creating a blog.
8,2015/2/19,Only fire auth fail listener if we receive `invalid_token` or `authorization_required` from the api response.
27,2015/2/19,Simplified authenticate method to fall back to using the token stored in the shared preferences.
18,2015/2/19,Rewrote handling of changed blogs in ReaderSubsActivity
6,2015/2/19,Use ActivityLauncher to switch sites
4,2015/2/19,Switch site button changed to be a WPTextView
5,2015/2/19,Unnecessary dimension values removed in fragment_my_site.xml
6,2015/2/19,Unnecessary imports removed from MySiteFragment
43,2015/2/19,Moved EventBus handling from the activity to the fragment
2,2015/2/18,Fixes #2350 - typo in CONTRIBUTING.md
263,2015/2/18,Delete `WPComLoginActivity` no longer needed since we show `SignInActivity` now for auth errors.
2,2015/2/18,Base the index off of the original array of retrieved columns.
1,2015/2/18,Fixed an index exception when getting blogs from WordPressDB
16,2015/2/18,Fixed a TODO. Creating a new user now uses a `WPComLogin` to authorize the user.
2,2015/2/18,Don't run the blogs list task if we aren't signed in.
23,2015/2/18,Resolved conflicts
10,2015/2/18,Added a listener for when a REST API request fails with an authorization error.  If such an error is fired we show the login screen again because we need a new token.
4,2015/2/18,Added ability to show only visible blogs in SitePickerActivity added ActivityLauncher
4,2015/2/18,Corrected blogId type in SitePickerActivity
60,2015/2/18,Optimized SitePickerActivity so information needed by getView() is already known
27,2015/2/18,Web views now support passing token as an additional parameter for authorizing on WP.com.
181,2015/2/18,Killed DashboardActivity instead use a WPWebViewActivity which does the same thing.
48,2015/2/18,WP.com auth errors now load SignInActivity instead of showing the alert dialog.
3,2015/2/18,My site fragment introduced.  The top part of the fragment is completed with a few styling issues left. The site picker works with the My Site fragment now. The last used blog will be opened by default in the fragment and the user can use the switch site button and the site picker to change the blog.
2,2015/2/18,3.8-rc-1 / 167 version bump
1,2015/2/18,fix merge conflict introduced in 1efd970e55eab8162ba0b896ceaaa7ff32860f9d
1,2015/2/18,3.7 / 166 version bump
