App,Store,App ID,Review ID,Country,Version,Rating,Date,Author,Subject,Body,Translated Subject,Translated Body
WordPress,Google Play,org.wordpress.android,Z3A6QU9xcFRPR3FHTDVya2hrMnIxOUNYVHU3NkVLeUM3MXoxdWc1VEpFZnNxd3J2Y0otRm9JdUNwRkdaeDh1NnhBcEFYRl9Wa1JqVmpDdk5QVUdTNlJuUEE,English,,3,2015-12-02,Lily McElroy,Can't login,I'm trying to login and it'll automatically log me back out. I've tried unistalling the app and reinstalling the app. That didn't work. I would just like to login into my account and update my blog.,,
WordPress,Google Play,org.wordpress.android,Z3A6QU9xcFRPRldTOW5CYUh1WUtBUEVxTDVnWll6LVgya1h4dVZpX3BYR2RoUVJWc29oa2tWTS1BZW9sSFhOLW83WnZyTm1SNjRlbEpqTVhaSEM5cjlac0E,English,,5,2015-12-02,Junayed Ahmed,"",Ya really good...!,,
WordPress,Google Play,org.wordpress.android,Z3A6QU9xcFRPRVZUT0hIdjNvSGZjUmFRV0FXa0VjaVR4em9IQjdEVHp4eWJhdW5BN0ZJWTdjaU5mNWN0YjQ2TTFNZTVHWlZta1lEa3JtOG16OGdUMng5cGc,English,,5,2015-12-02,maccx ken,"",Awesome stuff,,
WordPress,Google Play,org.wordpress.android,Z3A6QU9xcFRPRWpidEgyTGpiYXBJd0NqMTdWcjdRRi1nRGJRRXdtcXc0MDJxY3BFTW9EZDVUTkN3NE5rZWZxd3JoVWM5Q1lPTnYxcmtEY2JITGZqdHVMT3c,English,,4,2015-12-02,Abhrajyoti Dutta Ray,"",Smoother than before,,
WordPress,Google Play,org.wordpress.android,Z3A6QU9xcFRPR0pqYU5aT3FScHg3Z3pQZGk3TjRhM1ZSNUVEbDhSRWFuZklYN1prUk1WUjhidlh0MzUxUk1hbXdfMDlSMzlaWmdNTUZFb2loQ1haeVVQQ3c,English,,5,2015-12-02,Giorgi Salukvadze,Wordpress,Amazing,,
WordPress,Google Play,org.wordpress.android,Z3A6QU9xcFRPR2xIY2l0U2RZMkRDZ2JDV2E0TnJtN25Dcmp5MkMtY3JhUkZ6Z0VYMGNCNS1mQ1RFLWJuVGRMVHIxenVfNE9zdDdfUlprbnZQdnVEcVNqREE,English,,1,2015-12-02,Raphael George,Login bug,Can not  log in self host website anymore,,
WordPress,Google Play,org.wordpress.android,Z3A6QU9xcFRPR01wX0VOcFZJdE0yV1NNSnRuR1c2bHdjM1RSTXk3RWFIM0xydmotY0FlZktyNjhWZ2VKS2RkWG5JM014LU1XX1NEV0FMY1hLZ3BzZFRLMXc,English,,1,2015-12-02,Jason Sears,Requires using of major security hole.,"Uninstalling this because it requires the use of XML-RPC on your site. XML-RPC has been shown recently to be vulnerable to hackers which is why I've disabled it on my sites. Unfortunately, it looks like I'll never be able to use this app because the developers are uninterested in addressing the issue.",,
WordPress,Google Play,org.wordpress.android,Z3A6QU9xcFRPRjQzZW40Qk12U0NCS3QwTlBxN0xnT2dQNHZZcGd4VE0xUk5jSVluUmxTbDZsaXp0bUxCOXJVckxEcENlenpwdWowVWI5U2NmNkZrd0ZlalE,English,,1,2015-12-02,tri setiyawan,"",Still buggy,,
WordPress,Google Play,org.wordpress.android,Z3A6QU9xcFRPRUJRVGpvbDhCMHZtWHhYdU9mMGswTFRNLXJDQ0hTcTNuRndSTjNjaWZDbERwQzdrQ19aeDdFbEJxekhLelo1STU2c3hWT3duVEdfU09FMXc,English,,1,2015-12-02,Madan Neupane,Don't download it!!!,worst ever!,,
WordPress,Google Play,org.wordpress.android,Z3A6QU9xcFRPRlppd1dJUURRaDNSRGhmMVExSXpiVXRJU2NnT2lXU0pwOEhXb01XVjZTUU9WNUJRWVNTRWZKSWRLVnBJQ3pjNHJybGM2TzdBX3dQeFROMmc,English,,2,2015-12-02,Mohit Kumar,Unable to set featured imaged,Thi app is good... But i cant find option to add featured image in post,,
WordPress,Google Play,org.wordpress.android,Z3A6QU9xcFRPRkFzOXJhY3YydldUVUw1ZUdUN0JXNDhUUTZGLU5WLUxSUkotZmpNVmJPZjAtVDhfSlNjMUJ4eVh2dmZXYW5fbkRBT3NRMFY2SnlOWHhOV3c,English,,5,2015-12-02,Wahedul Islam,"",Nice,,
WordPress,Google Play,org.wordpress.android,Z3A6QU9xcFRPSFFvN1l2THh1a281S0xRaW9DalZyMmt5c3pkZzNkQTQ0ZEdTYkVrQTFGbTRhOWJ2WjU1M1VYcGVGbFppVW1PbjdMUnQydVBZdzY2S0lDdEE,English,,2,2015-12-02,Tshegofatso Megene Setwaba,"","I try to log on to my account and then logs on, but than it immediately logs off. Can you fix the bug problem please. I would gladly appreciate it☺",,
WordPress,Google Play,org.wordpress.android,Z3A6QU9xcFRPR01kdXVVOVA0Sk91eWpobXBmUHZMbm55VWVFRkRBS1E4Szk2TGtNc0RjdElqYVNrQXh2RlR1bVZuMldGb0FmLWJfMjZ4T0xFUkpRZGpOQXc,Italian,,5,2015-12-02,Jazmin Huamani Martinez,"",Forte,"",Strong
WordPress,Google Play,org.wordpress.android,Z3A6QU9xcFRPRUQxY2VpMHVpQzFxWnhEb3Fka0VxNnhFcnpCc2pNcFc5eDVUOGpZUUVQZG1GVlU0ZlI5eVZEeTBBYy1qVXN4eUpEMzVOdlowbWc1X1dFTlE,Indonesian,,2,2015-12-02,Zaenal Abidin,"",Gak bisa login,"",Can not login
WordPress,Google Play,org.wordpress.android,Z3A6QU9xcFRPRU1PNHVyYzE5Sm9CdHBHNXFvVlUyOW5GajJhQUJlTDBMd3dmNjV6UG02X1Rzb2dqRV9Dc3pUME44MGtHY0xmSHI1V2tnMldGc2FiSm15d0E,Portuguese,,3,2015-12-02,Raquel A.,Mais ou menos,Ainda peca por não ser possível por a foto de perfil e outras coisas básicas.,Kind of,Yet sin not be possible for the profile picture and other basics.
WordPress,Google Play,org.wordpress.android,Z3A6QU9xcFRPSFFENVl4TFdQMGsySV9tZWFKNW51V21INzk0WDdzYWREN0RxaGU4blh1TkRqcU1SVGJSNnh0N242Y3NqODdfV1NXYU5zbk4tMDVqTEk4a2c,English,,5,2015-12-03,mhamed abdllselam,"",I like wordpress,,
WordPress,Google Play,org.wordpress.android,Z3A6QU9xcFRPRUEyeVcxZ0V4NTFXTl94ak45MVNOQUVUNmRSTVhDOU82R0o0QllIcHdIUjRpOElCd2tiZUQ5UnN2UjVWVzVjd3BKM1ZMS0owckJwUUkzVWc,English,,3,2015-12-03,Sarah Burkett,Keeps Changing Post Date,"No matter what I do, it changes the date and time of the posts.",,
WordPress,Google Play,org.wordpress.android,bGc6QU9xcFRPRTl6LUZEYl84dTBBZ1VlUUYwWGZNVmhjTG91OGFkdEdPOUJ4eWpFdDYwVUNEOUVXMW95QlJBVmwxa1JuYTBaSjdzUWhUSjNDTGxTUC1nUWc,English,,1,2015-12-03,A Google User,Can't even download.keeps stopping at 40%,Poor,,
WordPress,Google Play,org.wordpress.android,Z3A6QU9xcFRPRlRFNFU5NHh6aXhOdEE2Z0NuanhhVVYzck9kMFdpM3laTnMwVTA1b3ZzYmpYT0FyOGdhMmxIcTRuNHR6a0ZjeXU1Vy1rUlZJUVpYa2Fnb0E,English,,1,2015-12-03,#åShĪk_ MåHåMūD,"",Hi,,
WordPress,Google Play,org.wordpress.android,Z3A6QU9xcFRPRnFkYk9McC1PVC03Vmw2WWl0NkNzUU9GOWRBbkhHWXJDd21XZldxOVBUc25vY2cyN2x6emp2YlJvN3RjU1J3WmtBc3lHeURWTFlQZGxrYnc,English,,5,2015-12-02,Raul Pires Coelho,The way to blog...,...the best!,,
WordPress,Google Play,org.wordpress.android,Z3A6QU9xcFRPSG1ZX1NkYlloS3RIQzJ0VGlKbFlYRXFSTDZzUjlpRkJMd3RSemNnQmJnOXpNWFE0REttZThCeXctVXNRTGh4Zzl1UUdZVkZBTVBxcW5BT1E,English,,5,2015-12-02,Shweta Yadav,"",Nice,,
WordPress,Google Play,org.wordpress.android,Z3A6QU9xcFRPR3Y4R1JKWnNkR2ZhM01lLVdkR09WUE02LTNyWnRZenZsUXFSRDNzOEhXZ1pYaWVDdGNPOE5UZG5IWGlZWUt4WWZ0TlNhcy1jV3VmTmNqMFE,English,,5,2015-12-02,Lisa Reed,"","Love it!!  Very easy and we'll organized blog site. Emailed \u0026amp; onsite followers, immediate process of content. Highly recommend",,
WordPress,Google Play,org.wordpress.android,Z3A6QU9xcFRPR3NCdVF5VUIzbHVwLWRXOEpub3d3N3RPMUdhRWtrekw1VGV0MmVicjM4VTFBUnBtZ0lUZ1ZSYnhoZUgtcTl5MW94ekpXSURTMzBRcktNakE,English,,5,2015-12-02,Shariat Rahman,"",খুব ভাল,"",Very good
WordPress,Google Play,org.wordpress.android,Z3A6QU9xcFRPR3Bld2hDQllOVzFpYkU2ZDl5R08wYTl0bmNDWUQ4cENDNExaMllXaGE1dmUyZ3BkS2cxeEllM1FIdlJsQUFyV3pHbllJYWdlNjZ0UFNBMXc,French,,1,2015-12-03,Anthony Molina-Diaz,"","En tant que développeur et administrateur de sites internet tournant sous WordPress, je vais devoir me montrer intransigeant. Cette application ne sert pas à grand chose si ce n'est qu'elle permet la gestion rapide d'articles, de médias et de pages. La véritable puissance résiderait dans le fait de pouvoir gérer son site Web en fonction des extensions qui y sont installés (et donc d'afficher la liste de nos plug-ins, au minimum !). Vous me répondrez que cela est possible via le bouton ""Afficher l'Admin"". Sauf qu'il renvoie vers une version responsive (dégueulasse, au passage) de WordPress. Dès lors, à quoi sert votre application ? Inutile car double emploi. J'espère pouvoir ré-évaluer votre application. Positivement cette fois. Car j'ai toujours été satisfait de votre moteur de blog/site ;-)","","As a developer and administrator of websites running on WordPress, I'll have to show me uncompromising. This application is not used much except that it enables rapid management of articles, media and pages. The real power lies in being able to manage its Web site based extensions that are installed (and thus display a list of our plug-ins, at least!). Then you say that this is possible via the ""View Admin"". Except that he refers to a responsive Version (disgusting, the way) WordPress. Therefore, what is your application? Useless because redundant. I hope to re-evaluate your application. Positively this time. Because I have always been happy with your engine blog / website ;-)"
WordPress,Google Play,org.wordpress.android,Z3A6QU9xcFRPSHF3bExhMHR3VVBtR2FnNUtySU9lV2NMNGhDcm9SYVJKaEV3YjE3djY2TlN2bnFrUm5kRzI2bHpaNXFoRnZVNUFDVzlIYnB1YlNTWGZNR1E,German,,2,2015-12-03,Andreas Niewienda,"","Habe die App installiert und hatte sofort Probleme mit dem Login. Da ich eine Limit Login App installiert hatte wurde ich als Administrator ausgesperrt.  Nachdem ich in ""Einstellungen"" auf HTTP login umgestellt hatte funktioniert die App kurzzeitig. Nach Schließen und Neuladen allerdings erneut nicht.  Die App ist im Moment noch nicht ausgereift und muss noch verbessert werden.","","Have the app installed and immediately had problems with the login. Since I had installed a LimitLogin app I was locked out as an administrator. After I had changed in ""Settings"" on HTTPLogin the app works briefly. After closing and reloading but again not. The app is not yet mature at the moment and still needs to be improved."
WordPress,Google Play,org.wordpress.android,Z3A6QU9xcFRPRUg3Yzg0eXVSbGtWV0hGak9UbUt4bHpTRzlteFRxUnUyeEZJUkRSQmxsN2xVbXB3emFaeXBfMWJZWG9RSmhlU3lWSWhudW1HZzlwZEFBV3c,Indonesian,,4,2015-12-03,budi santosa,"",Bisa login dan mengelola banyak blog,"",Can login and manage many blogs
WordPress,Google Play,org.wordpress.android,Z3A6QU9xcFRPRWFmT0RMYWo0NXRFTzg3SVl6M1ByWXdiMDlRZmFFeVJRN2JqQVcxNGlMTk9sSFoxOVlsaDNLMTcwdzRjSWpGazFGdVNJOUZFZDBzbWVJWUE,Russian,,1,2015-12-03,Alexander Saltykov,"","Can't write post, can't see the statistics - errors. Please fix.",,
WordPress,Google Play,org.wordpress.android,Z3A6QU9xcFRPSFk3aDFpOEtLYUJ2UE1OVXkzVW12emhsMmVjWS1yOENXUTdkVWpQSnZibWN4X1hKMHpZOWQ2Q3JZNGNsMGlOQUdtekFnMjRrNEFpVDBzOVE,Swedish,,3,2015-12-02,Cathrin Bäckström,Problem,Vid varje uppladdning av ett inlägg blir hela telefonen konstig. Man kan inte öppna andra program och man kan inte trycka på någon knapp. Går knappt att låsa upp telefonen under uppladdning.,Problem,"At each upload of a post, the entire phone strange. You can not open other applications, and you can not press any button. Is hardly possible to unlock the phone during charging."
WordPress,Google Play,org.wordpress.android,Z3A6QU9xcFRPR1owSHR3RTZwQVlaTGJmd3llZ2hDT3Z1VUpMTG9wU2F4YkVzd1pWbTZoUzdfQVB3ajE3UDhoSnpLck51ZmlZR0JSWGZGaVdhbDVSQkRQd1E,English,,5,2015-12-04,Angie M,Blogging at its best,Very convenient,,
WordPress,Google Play,org.wordpress.android,Z3A6QU9xcFRPRTRLMEIxanYzZC1ud0hZenFfUGtXY2JNcW1HZzlvRE56TEhjTkpJdG5pdjMwTWtla2tPS1ZFNUFzRHZtRGZoLUR1U3FRX0oyZ2hiTHR3N0E,English,,1,2015-12-04,Sarah Prive,Can't see new posts anymore,"I updated to the new version last night and now I can't see new posts from the blogs I follow. I get the message ""unable to retrieve posts."" Update: So then I uninstalled and reinstalled the app and now I can't even log in! Says my password is incorrect. Ahhhh!",,
WordPress,Google Play,org.wordpress.android,Z3A6QU9xcFRPR045aGkyWGtQWmI5eDJOR1BWUWF2Tk5obDRTZ3Z1SURQQjRibElJd1V4X2M1RU1NY1ZQZ3dzS0V2UDFwX0VQSGNYaDd1U2pVT0NkaDhlMkE,English,,4,2015-12-04,shaik riyaz,Not bad,Easy to use,,
WordPress,Google Play,org.wordpress.android,Z3A6QU9xcFRPRWVmdkM2c2VIeXBrYjlCa0xLMFVteGdKanRzSHFFckttdUlkMDJxNXRiNXdBNndvQkwxbkpkbTJjNUt6dnphOEZmOTZxREI0TlJzaGt6WXc,English,,5,2015-12-04,Kim Loesch,"",Loved it,,
WordPress,Google Play,org.wordpress.android,Z3A6QU9xcFRPSDB2OXNwczBHV09wQjZpVEY5UDRhTTlwZXg1LTRYSEFIbFdoaTgtdkpxNENBWjdoV21pT0VCaEdyYmVpSGlSNDhJVmhQTTZ4VTh6T3VOS3c,English,,2,2015-12-03,shakib mahmud,Multiple accounts?,Why does my other accounts get removed when I switch sites? Very much disappointing :/,,
WordPress,Google Play,org.wordpress.android,Z3A6QU9xcFRPRnZtZGp1U284eVBtd21Ga1VtN2lhdFlCSzFVYm15LVZ0YVp4MmswdFFTeDNOUVhzdHpmamJWREV5ZWpQdmFKaFNmaDF4S094M3ZOQTNDYlE,English,,1,2015-12-03,Ela Syakilla,Cant login,I cant login at all. What is wrong?,,
WordPress,Google Play,org.wordpress.android,Z3A6QU9xcFRPRkZEeTd2aWF0WHhYNjM5RDRCbUlSTTJpMG5MUm5QR2NpalVIRVQzN2VTSTdWQWhIdklLRTRheklBMWloVGdKbno5b0Q4emdHQU9RWjF5dlE,English,,4,2015-12-03,Jacopo Nanni,Favourites,"Would it be possible to add a favorites functions so that a page, that must be updated on a regular basis, can be accessed as soon as the app is launched?",,
WordPress,Google Play,org.wordpress.android,Z3A6QU9xcFRPRWtsdjhHdGY1eVBqcEItYVl1R01VNHlIQW5jdGFObFlTeGdQTGRWVGVQdGRjaVFKZmJlYlNzNkNSREJfa2tTSG5mdXhwdXNWbGZQODJsSVE,Italian,,2,2015-12-04,Davide Bagnasco,Funziona maluccio,Non mi permette di caricare pdf ma solo immagini o video nei media,It works this lily,It does not allow me to upload pdf but only images or videos in the media
WordPress,Google Play,org.wordpress.android,Z3A6QU9xcFRPSEJJSWZvS2hnN19GR0xvb0xab3hRMGpxekJDUkZxeWJfVWJaalhBTzctVXl4OTNPSGdMQ1NfOEZlZEx0X0QtcXdweEVjU3p1UW9PajZld2c,Chinese (Traditional),,5,2015-12-04,JunZhi Zheng,Login Issue,"After I enabled JetPack SSO feature for my web-hosting WordPress site, I can't login to my site in WordPress App, please let me know how to resolve it.",,
WordPress,Google Play,org.wordpress.android,Z3A6QU9xcFRPRnJuS19Lc05YVXFyaGl0YXg4aHFOZWUxQVFVZk5renVOc3hWYWJ5OG9xN25tdTVDYklpN3R4Z21WaEdnVlREZlROekJqaUMtQXpSUzREV1E,Indonesian,,5,2015-12-03,Abdullah Chadik,Bagus,Mudah,Good,Easy
WordPress,Google Play,org.wordpress.android,Z3A6QU9xcFRPRW5FQnNrblZuZXg2Q1VFeHJLb3JuWlpwbVlhOXV2RTJyQXc0akJ2dkx6cFl1MnA1QUk3akxNaWpPNFhhemI1WFVfOWVLcERFTTdDSDdfc2c,Portuguese,,4,2015-12-04,Larissa Castanheira,Muito prático,"Só não tem 5 estrelas porquê no editor de posts não tem campo de imagem destacada, precisa abrir o painel para inserir esta e outras informações da publicação.",Very practical,"Only has 5 stars why the editor of posts has not highlighted image field, you need to open the panel to enter this and other information the publication."
WordPress,Google Play,org.wordpress.android,Z3A6QU9xcFRPR0NUOFk4dC0xbFJySlNPR201b2ptOXk2aUVZeTVsTWVobXY3d3VmNWVNZXFVb1FhZHhHZy1YY2cwRmctYzhoRFVveHI4UmxlX2ZkN24wNmc,Portuguese,,5,2015-12-04,Adriana Ribeiro,Blogging faster,Quite amazing ask for blogging. It is very friendly to use. I recommend it.,,
WordPress,Google Play,org.wordpress.android,Z3A6QU9xcFRPRXZ6dUlGRm1BMEZCdlprdU1XeDc5bUJIVzNudW9SN0J5QWVGZlRBZHRiQkNjN3Rld3VvT09zV3JzUnZrOTluQnhQN09mLWtTTDd1a2dnN3c,Russian,,1,2015-12-03,ALEX NIKS,Ни фига не загружается! !!,Почему постоянно пишет что то про пространство ??ничего не загружается! !,Those guys will not boot! !!,Why constantly wrote something about space ?? nothing to boot! !
WordPress,Google Play,org.wordpress.android,Z3A6QU9xcFRPR0EwM1hsemNRbzdXWlFFSWVRc2s5Vm9aVF9VS0t3N28xRk80RXBOTVpMMVpaSkNXY0FPa2tXUzdITUdMTUlidWhwdlUycm1naVJtVEdSUWc,Spanish,,2,2015-12-04,شيما إلقاء,"",No me deja editar entradas desde el móvil,"",Will not let me edit entries from the mobile
WordPress,Google Play,org.wordpress.android,Z3A6QU9xcFRPRWJ3d2FtbFJjQkhhSE1YQ1ZlUEF4eTNqdUhhOWVQNFBraEl0X1BVbXpqUC1UU0xJRC1SaHp1dGE4akdtcjdyZ0RHOTQ2dGl4dkFCNjNXRXc,Vietnamese,,5,2015-12-04,Le Mai,"",Hay. Nên bổ sung tiếng việt,"",Or. Should additional Vietnamese
WordPress,Google Play,org.wordpress.android,Z3A6QU9xcFRPRTAwdzl0eWxZQzBfbUVtUlRtc1RROVdfZkZGNWpxSHUyeFN2N19SeUpxaTRDcUV2cFB5MS1STXhobHpJc3VHYmhDekFfeVdhdU8zZjBrWUE,English,,5,2015-12-05,anju karal,Awrsome,Website maker,,
WordPress,Google Play,org.wordpress.android,Z3A6QU9xcFRPRjhfZElWb3FWOEkzYi02blMxbUhhU3NuR1FQWERjOTJ4M1Nray1WYW9GazJJWDM1UGE1SjZjcGtYZkxlazdmRURGbmxCYjJRM0NZM2ZpR1E,English,,5,2015-12-05,Vardana Bhanot,Awesome blogging app,Better than blogger app,,
WordPress,Google Play,org.wordpress.android,Z3A6QU9xcFRPRnJRYm1kVjAzTnU4N0Etb19FSVBzTEJyUVdDRV9CS2VqbmFIU2MyOXRWNTNtWm9ueGJHZkl2UUtvLTByZEhrQlhLLThCSmxBUzl1UEU5Mnc,English,,5,2015-12-05,Ramin Android,THE RAM5N,Good job. Thanks for Developers. But picture upload to media is failure. Upload not complete. Please fix the problem. Sincerely Ramin Cabbarly,,
WordPress,Google Play,org.wordpress.android,Z3A6QU9xcFRPRUN5aGZGZ2VONldkWmtUcGxUb3J3dlgyVjZUWE05NnczRGpZelZneFZvX09UMkhYOEI4c1ZEVTI4bXh0MU1BbnR1dzBCc2hrZkNqYWhBSlE,English,,5,2015-12-05,christopher hughes,Awesome!,It took some time but now we have a WP android app that lets you manage every single aspect of your site.,,
WordPress,Google Play,org.wordpress.android,Z3A6QU9xcFRPRW9GTkQwbzA0Mm03V3ZPUFVZS0YxY3pDOFAxdS1YbkVmVTAwSXdlcHVlWTRSMEFCcHZtcGpSa3FydGNzb0pTalZYUkdZT01jWnRpSGlta2c,English,,5,2015-12-04,jide mathew,Good,"I really love this application, but it could be very Good and Helpful if can search for old post instead of scrolling scrolling down... And also fix .PNG image transparent turn to black if insert image.... At the same time, Thanks! WordPress",,
WordPress,Google Play,org.wordpress.android,Z3A6QU9xcFRPSFBFbmpKa1BLYTZ3cnBacjg0SFRrRkV4RkNES2JmbVFtay02UHpDbVpLV0JzVFJmRmV6N2gxOVBoOHBILXpEaXRvRVZ5UGxrWTFHMzJRVEE,Italian,,3,2015-12-05,Valentina Staniscia,Come si dice? Meh.,Mi chiede sempre di inserire la password per visualizzare il sito dall'app. Dopo un po' è sfiancante... E lo fa pure se la memorizzo. Lo risolverete mai 'sto problema?,How do you say? Meh.,He always asks for the password to view the site from the app. After a while 'it is exhausting ... And it does well if I memorize it. You never will solve 'the problem I am?
WordPress,Google Play,org.wordpress.android,Z3A6QU9xcFRPRUtnQXhOSk1rb0V5eWY4RnZwOUw5dTdHMEZLdWY4a2NOX3d1a1lXMmNKRHBtOXd2aG9rY1pXMG1QcWpsd1RFQWhRSGIwUThjT1ExUnVBU2c,Finnish,,1,2015-12-04,Jelias Liimatainen,Tiiän pareman pelin sen nimi on growtopia,Nii ladatkaase peli,Tiia pareman the game its name is growtopia,Nii ladatkaase game
WordPress,Google Play,org.wordpress.android,Z3A6QU9xcFRPRWNiZVVXQXE5bFhoWVJfV3NCbjNpTUpXZFRiVGxXSmo2Q1pjMWhrNXhBM3JKNmU1bzB1b1F3WF9fN2dHN3JJcURZMW9vWjZnblVoTVBvVUE,Indonesian,,1,2015-12-04,Feby Kresna,Ck!,Versi lama lebih bagus...ini error muluu,Ck!,The old version is better ... this error muluu
WordPress,Google Play,org.wordpress.android,Z3A6QU9xcFRPRi1wTHU3YnRTM1c2bl80LWZnZ2JJRng5X3R4R0hacW1GYXhJNkp1Y3lhbnF3MEtweHdha3FJY2toUzVldlhYM0ZTZ2Z3ZXRZYkVhTnV2MVE,Portuguese,,4,2015-12-05,Mateus Silva,"",Bom,,
WordPress,Google Play,org.wordpress.android,Z3A6QU9xcFRPRlZzdnlpMEtpcjYyWWN3MFdvU182Q1hvTWJjSG12OTJSRU9ieFRoYzc2VVRULWloRXo0WjRsMDFYM1VYZ1VDSUsxR2Iwa1lHR1EwMm5rNkE,Portuguese,,5,2015-12-05,Menina moça cresceu,Ótimo,E perfeito criei meu blog aqui👏👏👏,Optimum,And perfect created my blog aqui👏👏👏
WordPress,Google Play,org.wordpress.android,Z3A6QU9xcFRPRVVGaldVVHVPcWxiZEF5WjNOUXRIcTBxdVU3b0VvdG1pTVZWNzVPMmZIcUo2clFfU1kzcFlmb3V4TDV3X2pGU1VGd085VkQ3VnZoc3BTNlE,Russian,,4,2015-12-05,Полина Моторина,"",Мне не очень .,"",I do not really.
WordPress,Google Play,org.wordpress.android,Z3A6QU9xcFRPSEtpbVRPby1sbm85MzNDalVkQnVFLXp3cHdyaWVyWTA0V2hYUTVSS1AzQlRSLTVJbHl4bUktY1JvZ1RqdGZiN0VES3kzZXhraTVWUEpSY0E,English,,3,2015-12-06,Kanak Agrawal,Meh,"I liked your dog. But your dog ate my homework. I want my homework back. Either way, I cannot trust your dog from now on.",,
WordPress,Google Play,org.wordpress.android,Z3A6QU9xcFRPRXc4eWRlb1RoeGpJR3FsVlpOalc5bUpnRjg1U0k5di1ESlF2MzBCYjFEMWdkeU9HNmdMbEFaOTlKYjdFcHBrZEdFT282dzFMYV9ha19lTFE,English,,1,2015-12-06,Neil Ennis,Can't log on,Won't accept my user name and password. Works fine through a browser,,
WordPress,Google Play,org.wordpress.android,Z3A6QU9xcFRPRnZMdkpFWHJWWGJ5eG1TUnBrNHFiR1FaQlE5YmkteXRDR0l2ZXA0RlNWb3NBQkkyaDN3Ui1DcmpfdHBXT3hmOWNHWmpJd19FTW45SWxWOFE,English,,4,2015-12-05,James Hood Guitar,Its not workng anymore ;-(,"I love this app however after I did a factory reset on my phone, re installed the app and went to enter my login info and it keeps telling me I have entered the wrong info when I am very very very sure I have not Help please!",,
WordPress,Google Play,org.wordpress.android,Z3A6QU9xcFRPSEZ4SkVfZlV2LTdXb1owNldOYjdadWpvUF84RjJmTTlYSTZhVWVMeWpKVUxzcTNmSGZLRXg2LVpzUEcxaW9tUkZKZTNkcWVTcndJRG84SUE,English,,2,2015-12-05,Bangun Tidur,Oh no,"Please update it soon, it stops whenever I open it.",,
WordPress,Google Play,org.wordpress.android,Z3A6QU9xcFRPSDZ1M3QxNTh5S0M1dGNsdFo1djBuOEU1VXFXcnNtSW1HdHczRHVCYnNySnVDMEtMakVWV2E4RGJRUXhUSFRISVZPVXF3NF9Bd2p0RVZkbGc,English,,2,2015-12-04,Neal Wallace,Mobile web page does more,The iOS \u0026amp; mobile browser versions have more functionality than the Android app. (Can't set featured image for example). I would rather maintain my site via the browser or iPhone than through this app.,,
WordPress,Google Play,org.wordpress.android,Z3A6QU9xcFRPRkhkY3VUN2hnU3VmN0xMeTFXWndVczVRS0VOR2M3VF9lTlQzT3RsUFJweFFlQ1luc1VsMXluR3pFVTcydnNaZl9ZU05EdDBUVE9mRHg4MlE,Japanese,,1,2015-12-06,やまもとのぶひこ,最悪,本家での作りなので期待したのですが余程Microsoftのwriterの方が出来が好いです。,Most 悪,"It is for you that because you expect to make in the head family, but it is to a great extent good is be better Microsoft's writer."
WordPress,Google Play,org.wordpress.android,Z3A6QU9xcFRPSGdBd1RVcXNXWHAxS2RPeEhSOUEwdTFOWEphQjhnN0RoX1FmN2t1aHJMWkdkYjA1MGwzWGEtNG5MQ05PQk5fNjhTdzdQYUo1UmRtVnBmMEE,Indonesian,,5,2015-12-06,Saila Tulmuna,bagus,kadang kadang suka erorrrr,Good,sometimes like erorrrr
WordPress,Google Play,org.wordpress.android,Z3A6QU9xcFRPSFF1dEx3SUYzTzVDcElzMFpTUDhDZkxIQ1IxallCYy1ZUERpS2JtRE9POHAzaWNHWVNrd1YzODdyd3pZcGE2NWttNUcwMUxOTWtMS2dGWXc,Indonesian,,5,2015-12-05,Tdee Gunawan,"",Thanks,,
WordPress,Google Play,org.wordpress.android,Z3A6QU9xcFRPSGxjSE91dlNxaHRjZDEtd1QwR2pHanV1SXMwbEhjRVY1NHJ1al9GRzRVbWdaMTRjRVdwTTluTURndFNsY0pDd0lpM1M1WWRaaUo3UDhwVHc,Indonesian,,5,2015-12-05,basugiart arts,Wordpress,Goood,,
WordPress,Google Play,org.wordpress.android,Z3A6QU9xcFRPRU9KU0U4U0F1OExYQWItRS0yQ3BnYlRoemxXZldTcnpnVzhFR2trczhRa19tLW81V3A1cFJHUDNTYVZ0RVRVN2kxNVd3LXpzRWsxM1ZSSmc,Portuguese,,1,2015-12-05,Heraldo Mendes,Baixando,Se for bom do mais estrelas,Downloading,If it's good most of the stars
WordPress,Google Play,org.wordpress.android,Z3A6QU9xcFRPRktYZ2tVekgybmdDbWFMeFlrOUJsM2g2U2F5MVpvaDQ4X2FNaEhLeWlHalJJRTJFQUk1UGZ0enhtaTcxS1o1cGF5OFJlMXJZX2IxazU3Tnc,Vietnamese,,5,2015-12-05,Bac Range Rover,Good app,Great,,
WordPress,Google Play,org.wordpress.android,Z3A6QU9xcFRPRk84X1BoRnFoQ0xheEtzc1RLc3JHclpfWW9lM0FIaTdJeWo2Yl9iUXBDY2NpQ2xaQV9fN0dmeFp4REdZZThkbXBKeF9pa1VTMElJaVFCZ0E,English,,1,2015-12-07,Patrick McGinley,can't log in,Can't log in with my username and password. Both work fine on the website.,,
WordPress,Google Play,org.wordpress.android,Z3A6QU9xcFRPRmdRME56c2ZDR2JrMTJNVlUwQ09GNlM3MlVOS3lkajJkdjJkd0l2ZVlMbDhzbXFJa05zb2h5YWNTRWZmQ0V3STI2c0N3VmRySFBWdjQxbVE,English,,1,2015-12-07,Caroline Melisa Puspitasari,Can't open,Suddenly i can't open the application. Please fix it,,
WordPress,Google Play,org.wordpress.android,Z3A6QU9xcFRPRmJ3R3Jsbm1OUS11ZldDOENHbkc2VFlUcEVMMXoyOE5mc0hoTGl4VkFZS2RKUTNkbUNxMmR4XzBtWTF1NFFZcWtXa3VVMndpcUg5Vm5Udnc,English,,5,2015-12-07,raghavendra singh,"",Amazing for creating website,,
WordPress,Google Play,org.wordpress.android,Z3A6QU9xcFRPRjc3MXFJdzlSMnd6em5ucTIwajRGS2lTOXMxQ0RzbmswOGEtRmpOTkdKRnVrdGh4TkhnUmN0WmRBYS1uUEI0Sjg3eGYzNjNzYnpMRWNzVUE,English,,1,2015-12-06,Jesse Snyder,Broken and inadequate,"As a professional writer and Author, my blog is vital to my career as it allows me to keep in touch with my growing community of fans. At times I do not have access to a laptop and would appreciate an app that actually works and allows me to check and manage my blog, to which I pay for the domain server. I fail to see how this app has median average of about 4-stars considering it fails to function properly. From Author J. Adam Snyder",,
WordPress,Google Play,org.wordpress.android,Z3A6QU9xcFRPSFZFTG5DckhkOTNObGZxR0RsQlpZTTd5R1JoTTVUb1RsX3o1YzY1MV9ZWDZoWldWcW1ETWF5YUlyUC1jeVBTWkV4c0hSOER1UDZGYlY3a2c,English,,5,2015-12-06,sifat ul alam,Owwwwweee,Tnx for u made it,,
WordPress,Google Play,org.wordpress.android,Z3A6QU9xcFRPRUNwTjQ4dERQREFyZlRMYVlGNlhjdW1NazFidUlzQWFjUzlycnhEUkNwUjZmQ0xPNXZZWFk0LWFORXgyOGU0S0ZuQU5fVUFYU0FWNEhJWHc,English,,5,2015-12-06,Su Bina,Wonderful,Thanks,,
WordPress,Google Play,org.wordpress.android,Z3A6QU9xcFRPRmFRd2J1eTJkaUhaczItQ29zSzdmU0ZwaFp1X3I4VWd5Smw2TEpHXzBSNnYxajN4SHIwZDR2c1B5QjN2ZHZYSDk1QTFBY2ttZWphUW5wV0E,Finnish,,5,2015-12-07,Aatu Väätäinen,aivan mahtava,iha paras peli,Just awesome,lov best game
WordPress,Google Play,org.wordpress.android,Z3A6QU9xcFRPRUFhZ0JoQmpzUl9Nb00xcmZZUHUzMldRU01Bb25PNzlEUG5iRTRJOGxUbDdZSm5ISDJBbmdoUHBKMG1nanREanhTbWhsMnY0cDJFSHJCREE,German,,1,2015-12-06,Justus Holzinger,"",Katastrophe,"",Disaster
WordPress,Google Play,org.wordpress.android,Z3A6QU9xcFRPR2EtN3pWMmVYTGNRRVNWanpHOVp6RVNtbkxmN3JUU2MyTDg1OW5iVUQ1OFdVWTkyLU5IY096SnpqNmdCMmk3VFc3eWt5d2FYbE1Obng4dGc,Indonesian,,5,2015-12-07,Mulky Jaya,"",very good,,
WordPress,Google Play,org.wordpress.android,Z3A6QU9xcFRPRVFPX0lienZDZnRwdFQtQllmY19FX0xjVVRER0c3WDVKa19XWGtETjJJd1NxMkpfaHVNNVRWeEZPTHJYNmVUU0dMQTYtbjNTa1g4U3BhRXc,Portuguese,,2,2015-12-07,Marcos Fêo Spallini,Horrível,Falha ao moderar os comentários. Desinstalando.,Horrivel,Failed to moderate the comments. Uninstalling.
WordPress,Google Play,org.wordpress.android,Z3A6QU9xcFRPSE5XN2dtYlY4MUZuWmhmOUJiOTVVRm1HLU9LSXB0Z0hvZjgyQzFRUEI1V2R5eHRRSzNqTzQ5NzhsNEE2VllIQXB4XzMzQW94XzZTUWI0TXc,Spanish,,5,2015-12-07,Juan Pablo Assmus,Excelente wordpress app,"Trabaj muy bien, tiene pocas limitaciones pero es muy util para la mayoría de las cosas que debo hacer. Me facilita el trabajo.",Excelente wordpress app,"Worked very well, it has few limitations but is very useful for most things I do. I facilitates the work."
WordPress,Google Play,org.wordpress.android,Z3A6QU9xcFRPRjBIYkRsOHdINldRQ2thRGU1Wml3S3RmYjU4b3B2XzRrMWMxc20xeDNUdlNXOUVQSXZsTmN0aFpMdXVMVjVLZC1mX2ZwYlVtdThTSjYtTXc,Thai,,4,2015-12-07,ณัฐพล จูไธสง,"",เอาไปก่อน,"",Down out
WordPress,Google Play,org.wordpress.android,Z3A6QU9xcFRPRUFXUVNQQU92U25wMHVxSl9sMUtuU1lfekdNS2E4VDlwVWRtbV9Lc21oY3J4QlZTOUV1Sy10aV9XZUE0RmF5WFdLdzB0N2tEVlowbW0wYVE,English,,4,2015-12-08,Vasu Jamwal,4 stars,Bust app to update your WordPress posts on the go,,
WordPress,Google Play,org.wordpress.android,Z3A6QU9xcFRPR2cyRFM5UXR0djV6Z3BxWFMxbGZxSmxMeEVfUXNHWGFfTmdCbDc2alh5R1htb2dOdzFIRG5BM2tyMk5BbzQ5akptRXpBc2l4OWtUem1LTVE,English,,4,2015-12-08,Jorge Alberto Mussuto,"",Excellent experience with the company,,
WordPress,Google Play,org.wordpress.android,Z3A6QU9xcFRPRXBGWmNnb2tRU1oyZHJmaFVCbFJxUTJqbjdqaV9vejFSRktTZUNvOFF3TkRyczQ4TS1XT01GZU5pMkUyTDF3LVJpZndOeVRNU2ZuT2pLYXc,English,,3,2015-12-08,Retno Susanti,Nice but...,I cant upload my picture for gravatar on personal information. Fix that button upload picture,,
WordPress,Google Play,org.wordpress.android,Z3A6QU9xcFRPSHNzQUpQdU5kZFp2NXg2S0lUVk5MVlhWeEprRnNXaWsyV2NacmhEdG94cFBQeXBETDREcUZVaG85SWg0RG4zNjhMZ0o0M0lIM2JXMFUtUVE,English,,5,2015-12-08,Mac Pro,"",Others useful business blog thks WordPress,,
WordPress,Google Play,org.wordpress.android,bGc6QU9xcFRPR1RfZUk3Q2tfeHpfbUllVFctV0ZFUkZhLWNkU1Ewb3hTU3EzakgyY0lGcGJxM2RuYVI4YWZOREttQzRCSTNud1c1WThEanFKaGVZYm1IZUE,English,,4,2015-12-08,A Google User,"",Why Can't reply comment..?,,
WordPress,Google Play,org.wordpress.android,Z3A6QU9xcFRPRVpFaU1CRGpRYm4wV0FjTHI2LTZXN05WOXBKeGdLeEgzUEhLT3BFeXlVM2dneklMTTRuZ0locWVvNWpZMGJKTWpORzlScC1ROGdmdEw5SFE,English,,1,2015-12-08,AJAY BAROT,How to earn money from it,How to earn money from it application WordPress,,
WordPress,Google Play,org.wordpress.android,Z3A6QU9xcFRPSG9NSVJHc3BxcW9tME53dnByVVQ4OXQ1c2lKS1oxbzM2Tm9sNm1kSS1ja0dUY3VsLXBqUkJkdW41cHBjUUxRSkhhME5VZ2ROd1JQWVh5UlE,English,,4,2015-12-07,Firda Fauziyyah,Cant open the notification,Everytime somebody comment my post I cant see it on the notification bar,,
WordPress,Google Play,org.wordpress.android,Z3A6QU9xcFRPRzZzTldGRzk1b3JOSm5HRFN0Q3dXWFBWR0pudVNoanpXbDFCdXVXMnlyazg3dk13RDNUZXpUZUIwOVFoRVFwcU5sc1dOcjJvTXNwelFrMlE,English,,2,2015-12-07,michelle hulett,Worthless,"Basically unusable on my Android. Very buggy. I like having the convenience of a WordPress app, but I'll have to use the computer until the app shows some major improvement.",,
WordPress,Google Play,org.wordpress.android,Z3A6QU9xcFRPSEJHVFA4X2R4ZzQ5REZnWmcxQ0FuUEN5WWJ2cS1CRFRvcnJrdm4wX21xQkZzZDdXRWY2OTI5TVJETllkSXk4WkVSb3RSU3VQTk5TbnNsUlE,Indonesian,,4,2015-12-08,Aziz Fahmi Alfian,Top,Bgt,,
WordPress,Google Play,org.wordpress.android,Z3A6QU9xcFRPRndSSE0zZVExNXlmYV9qRHNOVVU0RjBoN3d2ajI5aTZzTTYtTWJGc1ZKTXVPSWZlSkozM2pORjYzLVBoMjBFR195Qjgzcldld0lpQ21lUHc,Indonesian,,5,2015-12-08,Hendi Sufyan,Ok,Sangat membantu hobi,Ok,Very helpful hobby
WordPress,Google Play,org.wordpress.android,Z3A6QU9xcFRPSGFGN0JNRDZBSHloTWRWVTN5TXVvYzFQNERiUUZhMW5hcDJ1RmhBcWxSYnozeXNXa0ZDZ2U4SnhTb2tOaHFwWUZnNEY0bnJxUzI1Zk1KQ3c,Indonesian,,5,2015-12-08,Gede Agus Arianto,"",Like...👍,,
WordPress,Google Play,org.wordpress.android,Z3A6QU9xcFRPRzhpQTRzTm1LR0dwUmJVQVN5T3JVWnR0Um1QVDZMRHdacFBuLXJCTFhBdGpVSlpPa3BydkZoSnFneVdJb2RkN010TFhvZkpOTnRUS24xTlE,Indonesian,,5,2015-12-08,muhamad ikrampelesa,Mantap,Beri bintang 10,Steady,Beri bintang 10
WordPress,Google Play,org.wordpress.android,Z3A6QU9xcFRPSGV2Q3hWSkVZRXB4aHc4em9CWWhIbWRsMk5qQ2M5ZW1PNTZuVUQ2a3lkSmFKbTZjRDZuQ253ZDdsNFdSM2EzY1V4S3JERUluaDNpYU5UTEE,Portuguese,,3,2015-12-08,Beatriz maciel dos santos,Utilizável,"Há muito a melhorar, mas consigo administrar meu blog Allumiar com facilidade.",Usable,"There is much to improve, but I can manage my Allumiar blog with ease."
WordPress,Google Play,org.wordpress.android,Z3A6QU9xcFRPRmpId2M2dExBTThXRFFhOE1QYzdmWFZnaWhsNnd4cnJidzJ6ZE1BRWJ4MTJSYmFiZzZqajZZcVBUMWl4ZnZNTzdrU0hLZFRVRkRtMFIwRlE,Spanish,,4,2015-12-08,Marco Baldoceda,Buena,Tiene lo necesario para crear entradas en tu website.,Good,It has what it takes to create entries on your website.
WordPress,Google Play,org.wordpress.android,Z3A6QU9xcFRPSEw0Z2RueXlYbDNTc0J4a1B5Wkc4aGprbF9DNnBicDFzQVlmZEpsMEllLTVXN283R1l6SGRaZWJ6aEp3VGVMbGVmdTU4MlEwTlZYOWNBS2c,English,,1,2015-12-09,Tony Bredwell,Try to sign up but can't and won't now,Kept telling me password wasn't strong enough .. I'll decide that uninstalled and gone and won't be installing or signing up for it again ! If I could give it -6 stars I would !,,
WordPress,Google Play,org.wordpress.android,Z3A6QU9xcFRPSHItcDZTcW5hSEhVdTgxbllLeElQTmV2Y09GTjR5T1d0allFYUxMclhOM2tQV25xa05heGlYSHJyX0JaazdMTVNZUHZSNEJjMV9fRkEyblE,English,,1,2015-12-09,Chonlasith Jucksriporn,"",Cannot login to my self-hosted server.,,
WordPress,Google Play,org.wordpress.android,Z3A6QU9xcFRPRmRHUnhJdHNNbE0waTBQalRxOGxXMjBaZWpGZm5WWXlrSDRhaU5ma0tNN1BvTGYtb1FtQ3p0WWFJM2gwd0NEVG9wWndveDBMZzhva0ZDTmc,English,,1,2015-12-09,Kyle Boyek,Cant log in,"Wont let me log in, and it wont let me contact them for help??",,
WordPress,Google Play,org.wordpress.android,Z3A6QU9xcFRPRmVRd3R6bTV6NWJaME9xTVV6U3VpVlN1REN5cDJ4dlNjeTRUNzB3YzhDT00xWS1od2JHTU84dlJVZEpNRUlXM18xdDNNeTF4VlZyTUJtQkE,Dutch,,5,2015-12-09,Ilona Van Summeren,"",Werk perfect en fijn!,"",And work perfectly fine!
WordPress,Google Play,org.wordpress.android,Z3A6QU9xcFRPRjQ3Rzk3dGNpVWxybXczRFRDMi1NV0pzc3NTWUdIYTFyVFd0WDVyNHAzcHBSemwxdGprZDE1V21YUS16eC1LbkVJM0F2NUFpcXB5V3lXLUE,Indonesian,,5,2015-12-09,Sigid Prayudha,"",Ok,,
WordPress,Google Play,org.wordpress.android,Z3A6QU9xcFRPRjB5azJ5X05GNWVuTS0wQlJxcEZ4akVOZVpXRmROSHdHaXF2dkdZUDlNejhJRGZYN2JYWk96MXlzbVRDdkNDaEgtdGd4RXZCcWJuelUwOFE,Indonesian,,5,2015-12-09,Dinda Wulandhana,"Hello, I am back! Follow my website Wulandhana Production",Thanks to Wordpress for made it.,,
WordPress,Google Play,org.wordpress.android,Z3A6QU9xcFRPR2U5RkhHaEdhWURLZC1NRlZRdUJxZHNKLWVCWlY0VFJDcE5pSzlTWG85QTB2NVhsZ0lmMG9LMzZRLTZ0QUtiQ2FzTF9Qdk1yemdla3JNQWc,Indonesian,,5,2015-12-09,Greatania Putrie,"",Ok...,,
WordPress,Google Play,org.wordpress.android,Z3A6QU9xcFRPR0c5WF9QajQ3cW9nT19IdjVvRmNZWFJ5bmI5M2xFeTYtRWdyUjRtMzdKNlhubGRtSHlRRU0wUTlKZE41N005c0Vkcm1TQzM0cGtrVXpGd1E,Vietnamese,,5,2015-12-09,Silver Ben,"",Tốt,"",Good
WordPress,Google Play,org.wordpress.android,Z3A6QU9xcFRPSGt6SUZZNF85dVJnSFU0Y2hJU2hEQ2tZdjFPYnc5bFRqNmhBR05ER3pmUmpYZlA5QlJKME5KNWZYdldJbkJEd2dxY1B1a2d1REJTblkwenc,English,,1,2015-12-10,Gangster fied,Love the app,I love the app but I've had to use the computer version because I can not get my reader to update it keeps saying that it is unable to retrieve new posts I've tried restarting the app I've tried un-installing it and then redownloading it but not thing please fix and I'll change my rating,,
WordPress,Google Play,org.wordpress.android,Z3A6QU9xcFRPSGlfOE05TEhZR3V4V292SGJ2bl9iWl80d0QwYU9MUkxBeV8xaElQSHJUamliMGMzZnlIcC1wS09pSmUtUlVUV3RTUEVhcHlPMUg1azFOUGc,English,,1,2015-12-10,Nancy Keiter,Lights are on but nobody's home at WordPress,"Came on here to see what the problems are and it seems as though we're all having the same problems... freezing up,shutting down today it won't even let me in to my blog!! Web page not available than it stopped!!! I go to look at another blog can't get a secure connection this is been going on every day I have reported it several times!!! Way to go WordPress updating means improvement not to destroy! I wish you would just lefted things alone! I like the way it was 3 years ago when it actually worked!!!!!",,
WordPress,Google Play,org.wordpress.android,Z3A6QU9xcFRPRWRoRDNCZExCeUZjTGw4bXBSbEVUT2tSb2JnTnZiaUdWQlk1clYxV3g2dks5U3pYMlk0OGItN0FIUmFQQTZWbnJJMkYxTEo1T2hoVk1WUkE,English,,1,2015-12-10,Christopher Harry Calvert,Rarely works.,"It used to work flawlessly, now it only uploads and syncs 98% of the time. 2% of the time it works. Viewing stats is possible, so it's not completely useless - just 98% useless. XML-RPC is enabled, the problem is the app.",,
WordPress,Google Play,org.wordpress.android,Z3A6QU9xcFRPR2pmcnVfWEZhcTlFZVBJUTA0a0RibUp4c0tSVEVqckd6emRuLVVmUzdtY1RHdVF0bVAya05waUFOeEhJZFBpUGtxOVVJV0hfMVJFZkFoS1E,English,,3,2015-12-10,Fanny Fanita,A bad thing,"PLEASE FIX IT!!! TODAY IS MY 1ST ANNIVERSARY SINCE I JOINED WORDPRESS BUT WHY DID I DESERVE THIS???!!! I COULDNT OPEN MY NOTIFICATIONS, I CANT WRITE A POST AND I CANT READ ANYTHING. U RUIN MY MOOD......!!!",,
WordPress,Google Play,org.wordpress.android,Z3A6QU9xcFRPRnRQaE5CNWotTTRLb2dUS1FlY0hUZnVQaWNGNlpjSWFFcHM2X0JCeXhaTE1BUDQ1X3pVZnNXdkhmY3V1R1d3R1dNTjNtT0U0U1N3QWw3WkE,English,,1,2015-12-10,Ted Kyle,Sudden Problem w Date \u0026amp; Time of Posts,"Suddenly, maybe with the upgrade to WordPress 4.4, it's saving the time of a post wrong. GMT, instead of local time. Weird.",,
WordPress,Google Play,org.wordpress.android,Z3A6QU9xcFRPRjhWTDc0WW1zSjBMcXllTGNXR2hVbUJjeHpmMC10Zy1IQjlPNWoxWmFKSVNKYnZEemRmdzBPamxQaTlET19jbm9vcnVlWXh6TGhGMTRQSEE,English,,1,2015-12-10,Cypher Incorporated,Can't login,"I'm trying to login to admin but it keep saying invalid username and password, where I can login to website using same credentials.",,
WordPress,Google Play,org.wordpress.android,Z3A6QU9xcFRPRmtBOWVIbm5KWXRGdWp5YVpEYmFqZWN5aDRpeVpLU1RfSWpvWEFzd0FCTWFzcEVKZDVZWmpwc250NW00aThKWEVZT1lwcVdsWEtMRFZuRWc,English,,5,2015-12-09,CNB S,"",Liked it,,
WordPress,Google Play,org.wordpress.android,Z3A6QU9xcFRPSGZSeTUyM3NBdmZMRGhqTEZKeXp6Tkd0bFBRVmlKVkJ0SmhCdXZWb3lEZTZtWElRWndRS2ZLQnVOX0h1NEVndkpxbU40Q1NSLWFmTFRXV2c,English,,5,2015-12-09,PAY VAI,Good,My blog,,
WordPress,Google Play,org.wordpress.android,Z3A6QU9xcFRPSDlqaDE3Nnd2SURNekt4M1R4TDZkR3RyV1ViNU9uWmxfY3BwdEtMMUx3ZGNSTVcxTjF4Ty1hLVFLVkJUV0Q4RnFzeWhsUTFaOVlHVFFmLUE,Italian,,3,2015-12-10,Emanuele Frasca,WordPress,"Per nulla paragonabile alla gestione del blog da computer, la maggior parte delle volte rimanda ad una pagina apribile da browser, sicuramente da migliorare.",Wordpress,"For nothing comparable to the management of the blog from computers, most of the time referring to a page that can be opened by the browser, surely be improved."
WordPress,Google Play,org.wordpress.android,Z3A6QU9xcFRPR1RkdHhTMDl4eFhJdHppek13dFJvWHJQT19iYnJ6cXVIQm9fRWRVX3d3YmV0ZlpLdlZQRzJ3OXBTRWpYYm5INld6V0s5Z2p2b000U0kybnc,German,,2,2015-12-10,Jack LP,Nicht einloggbar..,Ich würde mich gerne einloggen können.. Habe alle Passwörter versucht aber nichts klappt. Habe mir dann einfach einen neuen Wordpress Benutzer mit Administratorrechten erstellt aber der geht genauso wenig.,Not einloggbar ..,I would like to be able to log .. Have tried all the passwords but nothing works. Property me then simply a new WordPress user created with administrator privileges but who goes any more.
WordPress,Google Play,org.wordpress.android,Z3A6QU9xcFRPRmx3WUZ4Y0NzQ3RRSnFNeDJRcTJyMHozeGpZOGdUZktJM3hkLUhrVUxzSTcyN09WR2Y0dnhianlCNktueXJDMWJPbEg3YkZLZ2hYd2h1S3c,Indonesian,,5,2015-12-09,Andrey Pataya,"",I like,,
WordPress,Google Play,org.wordpress.android,Z3A6QU9xcFRPRUFRWlBjd295UUdibldQeDVLU2VTcG04MnhmSTFfMng3OVRtNzNLV0lYeXhnTFJ3TGdsR1VJOXRENmh2czBrVXNSNXlGdzluWkRuWjdIbkE,Portuguese,,5,2015-12-10,Betiinha Sanchees,"",Melhor para a organização 😌👌,"",Best for the organization 😌👌
WordPress,Google Play,org.wordpress.android,Z3A6QU9xcFRPSHZ4OXlXaHZ1ZjBndm82ekRqVHctYXkyNHliZklIT1lqMXl1T0tyaWctTTFPLWc3dmM5bWJLSUlURTBRUC1BWkRMTmhndzlTMUt2M3pFTWc,Portuguese,,2,2015-12-10,Camili Queiroz,"",Ta baixando se for legal dou mais estrelas,"",Ta downloading if it is legal give more stars
WordPress,Google Play,org.wordpress.android,Z3A6QU9xcFRPRWpqRzFwVW5vTm8xak5UZUpwdlE5LXhnOFhzVnZNeDdES1VLOXoxcXNUeFhyM3dHMW02cXFVUm9YdzBlaVFleTZ6YUo0QW9yMkJtUW9Lbmc,Portuguese,,5,2015-12-08,Igor Neves Guimarães,Muito bom.,Realizei o sonho de ter meu próprio blog.,Very nice.,I realized the dream of having my own blog.
WordPress,Google Play,org.wordpress.android,Z3A6QU9xcFRPRXhOVUtMdVp3dDVxS0tLNWw4c2tSMkFJRUlNNmxQamhWeUh2TDdrY0NPU1h6d0pVS0pkcnIzRUNYNl81TmpWNUl3Q25EYUltcnNMbU5UcXc,Spanish,,2,2015-12-09,La Bocina,Falla seguido,"Tengo una tablet samsung, desde ella casi nunca puedo acceder a mi sitio. Me obliga a trabajar desde la pc. Fiasco.",Falla followed,"I have a Samsung tablet, since it rarely I can access my site. It forces me to work from the pc. Fiasco."
WordPress,Google Play,org.wordpress.android,Z3A6QU9xcFRPRzlqOFJvcU1NaXVjc2pvNng5OGVGem5LaHVvaHFUN1JSREN0X3RPMVpGeTVtT25oNUpGUzFaRHBNajlkZ0dXMjVpNlJyU2JNSjVGSVdOOUE,Vietnamese,,5,2015-12-09,quynh hatruc,"",Bổ sung thêm tiếng việt thì ok ^^~,"",Adding it ok ^^ ~ Vietnamese
WordPress,Google Play,org.wordpress.android,Z3A6QU9xcFRPRmVTZ2wySDlCMzNVa21kVGNSVzVjOEZXOTdCR0RIT3N6MWFpY3NyVDJtRW5mWWdwOWI3MWRrRkkwUC1yZlU5cGx6TG9ha1VqUDBMOWJnelE,English,,2,2015-12-11,Shubham Takankhar,Needs improvements,I m not able to use it properly its very slow and features limited functions,,
WordPress,Google Play,org.wordpress.android,Z3A6QU9xcFRPRzhiV2ZoYkE4a3dyNnJiS2hGZ0ZVX2xtdGpRVzZMNEZJb0NOcVQ2Q1FwNlhkMFUwVndqUE1GYUNoRjF2M1ZBTTJyaUFiZEF5UjkzQWxuZFE,English,,5,2015-12-11,Anurag Khanra,"",Really awesome....,,
WordPress,Google Play,org.wordpress.android,Z3A6QU9xcFRPRU1feDF4UjQxdkR3Z2Zla21ydWotTU5Va0ZWRHRIUjF5a1dfbGk2ZUV5TzZYVWg3OG5wSWRXZi1TbzdHMm83VmM2SVFQRlR5TVNJOTNPalE,English,,4,2015-12-11,UTKARSH SHENDRE,"Wonderful, amazing app",Try its very fine app...,,
WordPress,Google Play,org.wordpress.android,Z3A6QU9xcFRPSDRYbnNFcmY0Q1p0V0xiSko1YjJMMVQ5X3RDblN4dndET2tMS042dFRDVjNnY0xobTBMRjk0cHZQUzdMMW9fVXhhZFRnVkJQenlUblg5bFE,Indonesian,,4,2015-12-11,Imam Nh,Coba,"Karna ada tugas sekolah, gua harus download ini.",Try,"Because there is a school assignment, the cave must download this."
WordPress,Google Play,org.wordpress.android,Z3A6QU9xcFRPRm4zazRqM2lzNXQxZHl0WnNuLWJhZG5zOVVOZVlVMEtLYjRrTVlXQTNhR0JzNDUxZVg2eWgycHJwd3BxcUR2TXJsenFKWk1MU016YnVFRGc,English,,5,2015-12-12,Paulson Nwadiukwu,Best bloging app ever,"Found it to be very easy and helpful, its close to a desktop version.",,
WordPress,Google Play,org.wordpress.android,Z3A6QU9xcFRPSFZpWW9DbVYzWTA1eGkwX0Jmc3JkQjNfUTZQRHJBdGFIYlBkT1hlWkxUMkZqa1NuLVI4WVNtRklKVmMwQUhYRnNvWG93bDZla1YxckNKTUE,English,,4,2015-12-12,Pauline Mifor,Feedback,"The app is very efficient and concenient. The switches from one panel to another are smooth, and the loading of images and texts  only takes seconds provided that the internet connection is excellent. I also like the feature that I can make a draft in Wordpress even if I am not connected to the Internet. I suggest the app to have the other editing tools available in browser and desktop version of Wordpress such as text alignment, text font or size, etc.",,
WordPress,Google Play,org.wordpress.android,Z3A6QU9xcFRPRS1vQmFKS1RYS3laUWxqOVZUc2V2TnMwTU93RmFvRHFVUktoNDFCYXdnM29jQndRVzF4Q0IyV185RmZrSGNJblltS1UzVDZPNzhDN1JUN1E,English,,3,2015-12-12,Roland Success,Good,I cant seem to find featured image icon,,
WordPress,Google Play,org.wordpress.android,Z3A6QU9xcFRPSFVoTk53MmlGdlJIU1ZVVTZBM0JUTHhFck5QTndxemFWR2ZPUzZXZEphbU9UVThlOVlTMnZGMkR0ZDY5TnhBX1BFX1V6MWxrX1pjRm05Wnc,English,,5,2015-12-12,Nikhil Bagde,"",My fav app,,
WordPress,Google Play,org.wordpress.android,Z3A6QU9xcFRPSEtHQ0FuVjdzVnpET0trbk40eXFadjdsMEExUDFZSkd3SG9Ja29GQ2VCWDlyTDBVTkRTcmR2YTNnUEl4ZWFPSGJReXBDSS00cjlGdkxlT2c,English,,4,2015-12-12,Natalija Sikiric,God,It's so slow.,Code,It's so slow.
WordPress,Google Play,org.wordpress.android,Z3A6QU9xcFRPRTNZNXJLeXQwb3JER3FKTnQtOTB6LU1BdXBwX2w1ejRHNWlScEVQcVFxQzVyaDY2M2lCVmo5VHM5X2g0TWF2TC0wSHhoN3BXQXNSaXdTTFE,French,,1,2015-12-12,Katie Froger,Énérvant,Je ne peut plus suivre les activité de me blog et ne peut plus lire un seul article avec cette application. Il faut revoir ce la tout de suite !!,Annoying,I can not follow my blog activity and can not read a single article with this application. We must review it right away !!
WordPress,Google Play,org.wordpress.android,Z3A6QU9xcFRPRjF2QkVYNDFMVldXNHBZVVZmUzBqTzZoSkJxMDhlZjV6cmV0Y0RRdXpod1F0Z1hSMTVTTmxpdTloWUw5SlFTeGRhbUVzR2FoWmVwdUFRYnc,Indonesian,,2,2015-12-12,wiwina vt,"",Bagian setting tidak bisa dibuka gimana nih,,
WordPress,Google Play,org.wordpress.android,Z3A6QU9xcFRPSGdRb3FYOTlVMy1FWlFBSDBWel9PZ1BrVVg4ZWNjR3hrN3liaHRiZ1F1aENSUWFZeWxQbmZPNzhoRGh5WUk4dWg5NXRMaFFfUUV2SEg4cGc,Swedish,,3,2015-12-12,Lowe Garmark,OK,Man kan ej lägga up nyga sidor,Ok,You can not add up NygÃ pages
WordPress,Google Play,org.wordpress.android,Z3A6QU9xcFRPSENmTU51U1VVZjlsY29qNGNaczVCNGY1UVg1cTNDM0U1QUtIdUVmR0tvSDlpTGN6QndndGh1YmZlZGFlUzBZT0xhWFVEWnJ6NGMtUUh1QXc,English,,5,2015-12-13,Gabriella Astrid,Loved it!,I wrote all of my thoughts in my blog right away so I avoided the risk of forgetting what to write,,
WordPress,Google Play,org.wordpress.android,Z3A6QU9xcFRPR2xkU1BrYlZPRGo3RFBwakJNdExxaFFMc2FQZ2otSGluMEVJdTRvcE41U0pvRU5HUDgzNkxGUEROdnRxekppdVdWZXZyb05wZndLMU02UEE,English,,5,2015-12-12,Deepak Sharma,"",Great app help you write blog anywhere anytime...,,
WordPress,Google Play,org.wordpress.android,Z3A6QU9xcFRPRzZGZ1JfODhMMU1FRnZnelVraGxMOGJLUnpmOFZMdEMwUTJjYkpOSmV3U0ladm5JR1g2Q005OXY0Y2l1dnVxS1ZsYzFTZFpEbnZETG9FQ0E,English,,1,2015-12-12,ilo stephen,"",I can't get to logging using blogspot please help resolve the issue,,
WordPress,Google Play,org.wordpress.android,Z3A6QU9xcFRPRlBjUU1CVl9QTVlhVUt6SFpjcFJBV3pVX05vLVdERFdzS3BJcVdINXBMMy04bmJQZ1B3dmZQaXpXdnFIVS1xbVJGRmFNaHpYdHVhVTFsRWc,English,,2,2015-12-12,Adam Jensen,Keeps deleting content,I make a post with 35 pics with captions and I try to upload. After failing upload I go to my posts and find that the entire post had been deleted. So now I can start again and redo everything. Please fix bug.,,
WordPress,Google Play,org.wordpress.android,Z3A6QU9xcFRPSDNpaW1fckhfNHZTRDVqNmV5eC1HSDhKU2ZnYWNndXFTUENMOExOc0VrVXV5M3Roa2s3eWZ6eTBrZHRTbllhSnF0U1VjTm1QZmVCZl90YXc,French,,5,2015-12-13,Aly Sellami Asfouri,"",A16N01,,
WordPress,Google Play,org.wordpress.android,Z3A6QU9xcFRPSFFBUlJWZDJyS1owX2Naa0VfSy1LOWwzdWxfOW1VVnRseWFXSGxUclhyVzktNENpR2V4RHo4Z1ZGYlNzcGd6T2ZHTTl0YXg5VGQ0b0JCZXc,Indonesian,,5,2015-12-12,CiahJjang ls,Menyenangkan,Ga ribet buka2 browser jadinya kalau mau liat yg terupdate,Fun,Ga complicated happens if the browser buka2 want to see which updates
WordPress,Google Play,org.wordpress.android,Z3A6QU9xcFRPR1ZGYVJCQXc4Vk1Tdy1uZ2twWFFENnVIZXlqM2VROVo3N05BYWtUcUo3cXhZSVM3U1N1aXdHWGRWX3RDcFlON05acGh3Uzl3NjJQdHpINGc,Portuguese,,5,2015-12-13,Gabriela Da Cunha,Gostei,"Gente, visitem o meu blog: cem tonalidades! Está com novidades diárias!!!",Liked,"People, visit my blog: a hundred shades! It is with daily news !!!"
WordPress,Google Play,org.wordpress.android,Z3A6QU9xcFRPSGVXdnlvcHdKcFRDN0hYWllVREJubEpSRG4zT1NjTmg2VDRVd1E2NjRka29sSzlxY0ZyVHdURE1IT1A3b3VqSFVqZ0JLbndVaFcxQko0Rmc,English,,5,2015-12-14,skirtdiary21 Oladele,Please fix,"Since the last update I can't post anything anymore,please help !!!!!",,
WordPress,Google Play,org.wordpress.android,Z3A6QU9xcFRPRnFqZ1JHZlhnTi1GeGxjNTFGdFZBLVdzVnZ2THY5RmlQbi1PaTdOcnpRN1lZMmk1SFdFZGhSZFo1eHZrZnJPNE14V0ZvUWxfUlY1cXBOQlE,English,,1,2015-12-14,Tasha Wills,Unable to Log in with Self Hosted Site,"I'm unable to login to my account with added self hosted site. Keeps saying ""We can't log you in. Couldn't connect to WordPress site."" Useless app.",,
WordPress,Google Play,org.wordpress.android,Z3A6QU9xcFRPSGp1eWNHcnN4SGlXNGF3V0hRVTY2eUlBb3AwcEkyaHUzSm02Ujh4MUR6VXhPd3FNV0JXNnRGOFFxMjdMZDd5NFhXSFhiUmI5dDBaVnBmZFE,English,,1,2015-12-14,Freeman Presson,Broken,Cannot update a post.  POS.,,
WordPress,Google Play,org.wordpress.android,Z3A6QU9xcFRPRW1COVAwTmVadnlrOEZjMG52ZUU5R2M3UlFTcmdRY0k0Um9jeGo0ZTF4dkFKWUhIUUhyS3MzNmtheExBek9QZEpIWFF0bXVPS0NZV3NtWEE,English,,5,2015-12-14,Akash Anjaan,"",Kudos,,
WordPress,Google Play,org.wordpress.android,Z3A6QU9xcFRPRmU4REFIWDZ2OERFZTY1b2RqbjRHRFlZYlFlMkdWLVVfbnVlZlV6dU1idC1xaWlTVDZaVFZudDhqblVmWDU5MHFPeTVGNHoxYXQ0NWVZVHc,English,,5,2015-12-14,varun sharma,Not defects,In my sight (vision),,
WordPress,Google Play,org.wordpress.android,Z3A6QU9xcFRPRWxTdjN3YnFTOFpYdjE0NkxZZ01pVy1Yb1dfVlhnTmRNclk2ck9YV2xKckpXQnhiTmZKdjdacFU1dEJXRHpIYUVGWm4zd2luWG9sXzdJR1E,English,,5,2015-12-14,Audrie TurnerSteele,SOLIDMINDSET,Choice,,
WordPress,Google Play,org.wordpress.android,Z3A6QU9xcFRPRUNhNmwtc1hObWtRcWc5dDh3QW1JcFhwVzdsODM2bjBKdEMzbjdURG1zemxqX2FSUktwWTc3MU13VEVvWlc3dE1TcWhBcVBCNmlZd29JakE,English,,5,2015-12-14,David Leibowitz,No problems.,Just does what it's supposed to do.,,
WordPress,Google Play,org.wordpress.android,Z3A6QU9xcFRPR2pmcnVfWEZhcTlFZVBJUTA0a0RibUp4c0tSVEVqckd6emRuLVVmUzdtY1RHdVF0bVAya05waUFOeEhJZFBpUGtxOVVJV0hfMVJFZkFoS1E,English,,1,2015-12-14,Fanny Fanita,FIX IT ASAP!!!!!!!!!!!!!!!!!!!!!!!!!!,"PLEASE FIX IT!!! TODAY IS MY 1ST ANNIVERSARY SINCE I JOINED WORDPRESS BUT WHY DID I DESERVE THIS???!!! I COULDNT OPEN MY NOTIFICATIONS, I CANT WRITE A POST AND I CANT READ ANYTHING. U RUIN MY MOOD......!!!",,
WordPress,Google Play,org.wordpress.android,Z3A6QU9xcFRPSEYweEJ3RlZocHVxSnRjVmZyYzNiSl9aUEVnbmJxU0ltaUdPN09IRUgwZjhOV29ORzY2bV9OZTI4M2g2VXgxOWIydlBUTy1BUzdCVVkyeUE,English,,5,2015-12-13,Craxme Dot Com,Great,Work loving ittt,,
WordPress,Google Play,org.wordpress.android,Z3A6QU9xcFRPRVhoTU9IWC1ZZi11MjFRdnFIS2RXMmJMX2RkY1RBQU4wMzhyUGVQOWlKTlNmU2xISk9QNlhQSmZib01xNzR1LUdLRmEwbm1oMHFmUmRLR1E,Bulgarian,,1,2015-12-13,Ginka Stoikova,"",За по-стара версия,"",For an older version
WordPress,Google Play,org.wordpress.android,Z3A6QU9xcFRPR3NwRC1lUERxNWZoZmJubmt1WS1sZm9EM1ZGcEhWd3pESHk0SkpMM1F4b2x1Rjk5SjBCQUpDcmR3czNONS02VEwxT0MyY2hHQ0JMZkVwclE,Polish,,4,2015-12-14,Dominika Drukała Der,Spoko,Wszystko ok tylko czemu większość jest po angielsku,Cool,Everything about just that most of it is in English
WordPress,Google Play,org.wordpress.android,Z3A6QU9xcFRPR2RQR1FfbjJJQkdYYzlDNi04d25rSEZ1d3h2RTBKY01FaEJZTlNDYkxGSFFySUxfYVpjaDQ0SFR2eFIzODEtVkZKSnlfLW9ZQnM4V01qV0E,Russian,,4,2015-12-14,Александр Aleksander,"Много непонятного, а так неплохо","Эта соцсеть больше для компьютеров, чем для смартфонов. Русскоязычным там тоже мало внимания уделяется.",Many unknown and so good,"This social network more for computers than for smartphones. Russian speakers out there, too little attention is paid."
WordPress,Google Play,org.wordpress.android,Z3A6QU9xcFRPR1dHdU9JUnY4cXZkUGM1cmloNFJBVkN3WXZ2RmFPYVUxRTV4Umo4QXVmTG9ENkNiYlRhclU1dmJBUnpmQW55U3dlcU5GX3JFcXluajRJT1E,Spanish,,1,2015-12-14,Juega Android,Fatal,No hay manera de acceder a mi web,,
WordPress,Google Play,org.wordpress.android,Z3A6QU9xcFRPRlZ1X2JlVktoNmZIekNtQWU0WHJUcEFNd0JiV0c5TS1lWjU1Zkpfd3Rfek9sd1RmUzZDbE4tajVoSWlVNDdpVnJJdlVKV1dSQjZxQy1vSXc,English,,1,2015-12-15,Minh Thiện,"Duplicate post, deleted post doesn't move to Trash","Last bug doesn't save changes, 2 stars. 1 star for new bug , thank you Automattic, now you give me duplicate post and when I delete 1 post then refresh, guess what? Both posts disappeared, no where to be found. Trash folder is all empty but when I delete a post on web, it move to Trash folder. Here's a tip: Don't write app if you can't even know how to! Now I lost my post forever thank to a bunch of lazy developer at Automattic. Is this app automatic delete my post too? Won't test this for you.",,
WordPress,Google Play,org.wordpress.android,Z3A6QU9xcFRPRXdoQXlINENfWjllbkJJNk94SHpobkdySUFxeXVkMXp3MjN3ZVNkTGVZaEtvZ2pta195aHhTUmk5bjFXdkI1RDNjY0t4V2pXWFF0YUlZMlE,English,,5,2015-12-15,stuart picot,Great app,Any chance off adding and the other options like beable to do featured image and videos .Or rest of options .,,
WordPress,Google Play,org.wordpress.android,Z3A6QU9xcFRPRVQyM0hDRURzLUp5bXJfLWczZjNmcWd4UEQ2V3VDWkJuN2d1NTZQYTZSOU5sZ1F0bGI0US0ybVV3XzVUdFk4RGFwWFU5YUpNVl9OTzRPY1E,English,,2,2015-12-15,AJ D,Only shows code,"When I try to edit my pages, it only shows me code, not the visual layout of my page. Not practical at all.",,
WordPress,Google Play,org.wordpress.android,Z3A6QU9xcFRPRWNaUWN1aS1TaXk3RVptSmhLUHdEY21JQ1RiZ051NWRZU1k4bGVpa085RWtJeEo3aEVaSjhFV2FkWHVlb3hBR0txNlk3RkNPYXlrakJfMWc,English,,3,2015-12-15,Emon khan,"",This WordPress Site dosenot supported on Normal Phone...,,
WordPress,Google Play,org.wordpress.android,Z3A6QU9xcFRPRjNuVWhfR1g0bEVKSVNVVjZidjd4NmNxeldNQVVnb3Fad0d4TXBzM1FsS1dHSExURmRQcnNob3AtXzhDX0JJYjh2eEpCLVlDSW9CazlXM1E,English,,5,2015-12-14,Ricky Oheneba Frank,Great app,Superb,,
WordPress,Google Play,org.wordpress.android,Z3A6QU9xcFRPR2NERU12WTBmV1ZfSkVhNmxWem9zaUJoOEpTSjFIbzYwb1k5TEg0bGpsdTBYWi1RU2NlNTBaQmgySi01LW1URngxNEpRWGZ4Tkkxc1VKWkE,English,,5,2015-12-14,kaustubh more,Excellent,Can write post on the go and make changes,,
WordPress,Google Play,org.wordpress.android,Z3A6QU9xcFRPRkdZdTd3UGxHUmhlV1gxbENKMHlhbGlXbzVQRll3VFA3MFNZcXBBWGxXaGFsdld2Nm1PdjQxU0k5TWgyOFNSY0hTV3FOUEF4NlBjcFktWUE,Indonesian,,5,2015-12-15,Wahyu Hari Purnomo Purnomo,Good,Nice for aplikasi,,
WordPress,Google Play,org.wordpress.android,Z3A6QU9xcFRPSE1Cako5X0NkNDN3OUp5QU5SQlEwaXltRXNmUmVtcnBsSHZXaDg0MEd0dVQ5azR5UnFsQ05CMnEyWG1YZG41Tnc1bGJybmNhMHFUODE3ZEE,Portuguese,,3,2015-12-15,Carol Shanthus,Não posta a foto.,"Eu tento adicionar uma nova foto no post e não vai, não dá para por fotos nem no perfil",Do not put the photo.,"I try to add a new picture in the post and will not, I can not for photos or profile"
WordPress,Google Play,org.wordpress.android,Z3A6QU9xcFRPSHFyVEFGVEdmVEVsRGl4SlY0YnZEai1Zd3hWOHRNalI2QUFVSnBLTkhObEVGNWI3MDN1ZTZyUm93ZkFvcm9hYWFXcWROTC00c1ZDMHJLU2c,English,,5,2015-12-16,Michelangelo Namwali,love it,Best way to start blogging,,
WordPress,Google Play,org.wordpress.android,Z3A6QU9xcFRPSGNRRlFXTVB2RlZ1WFdiQ0ZlNkJUTmdXOTEyTVY4clpjWkxVdUdFR2N4d1BsQVYxM3d3ZEV4M3ZlSUd0QUZzeXZqMjRJQlVsV2tzTDl4V1E,English,,5,2015-12-16,Derin J Tom,Best app for blogging,App has all the necessary functions that are good enough to optimize the blog in a decent way.,,
WordPress,Google Play,org.wordpress.android,Z3A6QU9xcFRPR2I5bEJyZ3VxaTBiWTdhX3czd1F4S1U3RHJoOWpmRnRWWnJqaHZWSmtrc2UzV2d0amRSeWZfTFRGOU53cXlUOVZ3Y2FxT3JRcVRDZW12R2c,English,,5,2015-12-16,Rushikesh Padia,I loved it,It's very easy and having many exciting features.,,
WordPress,Google Play,org.wordpress.android,Z3A6QU9xcFRPRjl0WXFSdTM3OE95YXJyRVlzUzRCaV96aUpsNzFIUUJqTUZ2SHloRnk5OVFoTm94UHVVRElPM2lXTmdJNGp0YWFvN0Y3QU1SN2F0RU1Ia1E,English,,3,2015-12-16,Yudha Haris,Upload Error,"When i uploading a photo in media library, it take infinity time upload.. but my network connection is not having problem..",,
WordPress,Google Play,org.wordpress.android,Z3A6QU9xcFRPR2NHRUt2YlNDT1RMM1FfbVpEbEdnVmRLM19kVDJuNThSUko4a1pfeGhZQ1l4OTRvdG8tal83MXk2WlNQZWJtdmYtUXVLN0tqOGNnbzJxWHc,English,,3,2015-12-15,Tina Walker,Wanted to rate it better,I like this app because it makes it easy to update my blog. But it doesn't always work accurately.,,
WordPress,Google Play,org.wordpress.android,Z3A6QU9xcFRPSHo4cU5acWpManhsdno4NFRKQWRWOGtzYlc4OEs4WS1lemNocEFsRHlQUnFaVlIwbjByUW03Q04xRTFsSHN1TUdnZW0yOWdMTk9uOC0zSXc,German,,5,2015-12-16,MANIJEH HOLTBY,I have been updated this since 2013,Fantastic so far. Unfortunately was not working for me rather others.,,
WordPress,Google Play,org.wordpress.android,Z3A6QU9xcFRPRlNrMzFkejZNNmxFeE9PemtqVEh6UEFaZmE0SFd5RkxPTEIxNFgwczVuc2Zfd0phSHA5M2puc25jZ1NJVmFGQlBEdVJUOUQydDFwZ0RoQWc,German,,1,2015-12-15,Mike Weber,Einloggen geht nicht :(,"Schade - hatte mich gefreut, mit der App nun auch unterwegs bloggen zu können, aber sie behauptet, mein Passwort oder Nutzername wäre falsch...auf dem PC klappt es aber mit exakt den selben Daten ohne Probleme...nun ja, dann halt doch wieder auf die Desktopvariante wechseln und Laptop bei kleineren Reisen mitschleppen... :(",Login does not work :(,"Too bad - had looked forward, with the app now also be able to blog on the go, but she claims my password or username would be wrong ... on the PC it works but with exactly the same data with no problems ... well, then stop but switch back to the desktop variant and lugging laptop with smaller travel ... :("
WordPress,Google Play,org.wordpress.android,Z3A6QU9xcFRPSGJZSGFEY00zeXNBdExmVVZDaElYUXl6dndPeVdLQm8yRDdEWTU4dmN0cjdteXdRbDFHb0Qtb05aanJrWjJVSV9yRkxucEZhNEVhdC1Samc,Indonesian,,4,2015-12-15,Budiman asAdy,Featured image,"Where? All is oke, thanks..",,
WordPress,Google Play,org.wordpress.android,bGc6QU9xcFRPRm5Yd1QwamJDOFZXVVktUVRfM3F1S19GejdjY0FQWjVldXpXWGREVmZmZ1BOV09jYzZ5RzcxSmRLOGwtQjVhYWJEZVZoNHYwSUo0MzNQRUE,English,,3,2015-12-16,A Google User,Works,Satisfied.,,
WordPress,Google Play,org.wordpress.android,Z3A6QU9xcFRPRktwdkRWMnNpQllsQ1ZJWXowU1JQOWl5Mm4tdVg0Y1lDTEk3T1FrbTRpTWFNU3VWbjYxWGxaY3lUbkNRQlBkZlB2Ym5zekF3RXJlSm9Oc0E,English,,5,2015-12-16,Bentley Phillips,Great!,Love being able to publish new writings to my blog!,,
WordPress,Google Play,org.wordpress.android,Z3A6QU9xcFRPRWJSaTE2TDlDekhKaUkxRFFrNmVGRkVYMlR5UEl1Zmxpa0wzTTJDMkFLQzYzSlFZOWgyYjZMbkU5VmYxZ1ZUaFI0Q3FJdEhMS0w2MHlzcmc,English,,5,2015-12-16,Ibrahim Anwar,Simple,And useful,,
WordPress,Google Play,org.wordpress.android,Z3A6QU9xcFRPR0liMW11WDRYbHpod1k0QXVCUmx5MGVmQzEzQ3Fxbnh2c1dwZnJUUFc4d1hlRnRyVVpkel9vWVlrdWg0Q1l1dll1NWpJcDhPdUV2LW92NFE,Greek,,2,2015-12-16,Gina Tsichlia,"",Doesnt even follow orintation changes,,
WordPress,Google Play,org.wordpress.android,Z3A6QU9xcFRPSHotN1Z1eFFlTnZBWmlCZ21JWFJWY3V3M3VSYll6YllBRUpzQkYtYjBreEpPbWVHYlU1NjRpUnZoWEQ1aUJyVTY3VHZCcm10VUdRVm8zdVE,German,,4,2015-12-16,Marcel Streicher,Sehr gut aber...,"Es wäre gut wenn es im Browser von wordpress auch 2 buttons gäbe, mit denen man eine Seite zurück oder vor springen könnte, da das fast jeder Browser hat",Very good but ...,"It would be good if there were in the browser of WordPress also 2 buttons, with which one could jump back one page or in front, because the browser has almost everyone"
WordPress,Google Play,org.wordpress.android,Z3A6QU9xcFRPR0ZpN1p6VEl5MUh4blktd21xQzd3TWFsZWdFQ016dnBFUE9XTUtWWG9faUYyaTU4RS1YSENERDlCNXoxaFhmdFdqSlNXMERpb2FHQ3psU2c,Indonesian,,4,2015-12-16,Mo El,Wp,Ok,,
WordPress,Google Play,org.wordpress.android,Z3A6QU9xcFRPSEtwLWRraUtsLWpNT0hKaXhzb3RfRkJmRl91QldCVHVVcFJ5ZzRhd0VGSElVTTJjaTFxZm9TNmFVSG5sbGVGbEFLZTFYeURFNGFGVjhkQ1E,Indonesian,,5,2015-12-16,Yanti Herlanti UIN Jakarta,Good,Update everywhere we can,,
WordPress,Google Play,org.wordpress.android,Z3A6QU9xcFRPSElhQm9ZOFVNWVhRY2xCQlRxSHRFal9zQmtqSkIyUXRYWnNGUTNyM3F6TnBRdjQ3dUJWMGtCcWZQQl9Cc0RrTnVYSnRHa2JnM2lwUUoxU1E,Portuguese,,3,2015-12-16,Aquila Fonseca,"",Sem opção de foto no post...,"",No photo option in the post ...
WordPress,Google Play,org.wordpress.android,Z3A6QU9xcFRPRXp5dTkzWEdla3ExREV6RlpqMmdodlU0Z3ZPc1oyVnFGS0FYYy1nZWFtM1lWVXpJclJvRHR4ZWdqLWZ6dXFuVkUzWEdQYVZkNnBwaHZBcEE,Portuguese,,4,2015-12-16,Evandro Ferreira Dos Santos,João Victor,Oiii gnte como coloca a foto de Perfil. Ah o meu blog é Aseriesofbooks seguem lá,Joao victor,Oiii gnte as puts the picture profile. Oh my blog is Aseriesofbooks follow there
WordPress,Google Play,org.wordpress.android,Z3A6QU9xcFRPRzBianNka0dWcUpUdkMzRUN6aGxGZDJRZ1d3Q0NXRVl6QTJvMndlLWNNY3hqb0xpNTREVktIWDhpSkxyYVNxMDNUY05RYmZHZzVGMGNqbVE,Arabic,,5,2015-12-10,محمد يحي شراحيلي,مح,حقيقة الاخبار,,
WordPress,Google Play,org.wordpress.android,Z3A6QU9xcFRPSG5Va1NJU2F4U09OX3AtMnQ5cHU3T2dKTlJyMDNXMXRYMkdqNVlPWUZNSWVGNEtZT0VrMWVVMGRpQno0VGMwZnZwOGM3dUdHR1ZESjFBUHc,Arabic,,4,2015-12-04,انا احب الله,"",فيه مشاكل في تسجيل الدخول  نرجو إصلاح المشكلة  تطبيق مميز يستحق التشجيع,,
