App,Store,App ID,Review ID,Country,Version,Rating,Date,Author,Subject,Body,Translated Subject,Translated Body
WordPress,Google Play,org.wordpress.android,Z3A6QU9xcFRPSHc2dVlwbEgxQXQzY2lmZ0NUYTJxQ2tZeXZ0RDdjay1JaW1MZU9lWndvdWU2LUh4SkZFV29VWlV0ekd5TlhlRG1lc3BISGhsVkN0WUlKU3c,Dutch,,5,2013-06-11,Michael van de Pol,IP wissel?!?!?,"Leuke app. Ik host thuis op mijn eigen webserver. Maar onlangs door provider ander ip adres gekregen en dat wijzig je niet zo maar, noch in de app, nog in de website zelf. En dat is jammer.",,
WordPress,Google Play,org.wordpress.android,bGc6QU9xcFRPRUI0Nk44VndhamFsZHhrYm5PLWNyaEVpTzFRdmZEaXh6QXVHRTV0ZGhwYW9WM1JvZng1elMwcHNkQmlZYkxHZWZ0d1hvY1ZjTlNsYTFZR0E,Italian,,3,2013-06-11,Un utente Google,Non riesco a scaricarlo!,"Prima funzionava ora non riesco a scaricarlo, incompatibilità con 4.2 o aggiornamento fuffa?",,
WordPress,Google Play,org.wordpress.android,Z3A6QU9xcFRPSHBDcy0xS1B2QXVzLTMzdENuQWJmSGRQNXp1aWN5S21XSkF4OXM0TEJ5NksyZlpFR0J6NTFobUwxZkdBaEk4aC1oUkd4RVlvWGo0Z2hYSnc,Bulgarian,,5,2013-06-11,Angel Donchev,Angel,Prilojenieto e mnogo dobro!,,
WordPress,Google Play,org.wordpress.android,Z3A6QU9xcFRPRXUtQ1ZYZ01pbjN0eDZPRTB2Z2dsTlJWU1luNk80X1hoc1RETjNuaWJFLV9KcVc4RHVWaklvd3ROQXhqdDBXWjJIdVp2SkswTjVESGYwdVE,German,,5,2013-06-11,Dennis Lohmann,Will nicht mehr ohne,"Im ernst seit ich diese app habe, schaue och ständig nach, neue Besucher? Ein kommentar?  Oh schnell nen Post schreiben ... Genial",,
WordPress,Google Play,org.wordpress.android,Z3A6QU9xcFRPRjAwYlJqNUVWdko4SGdXQkt5ZTJyWUFiSWN4b1NPck1VamJiQ3ppNHFGZGJWUy1CNlF6a09Bd3ZhUTVXbnlfQlh1c2NHd0dOMTdXeUdOVXc,German,,5,2013-06-11,Sven Owsianowski,Idealer Begleiter,"Für Blogger der ideale Begleiter. Man kann schnell einen kleinen Artikel schreiben, Fotos hinzufügen, Kommentare bearbeiten und und und. Rundum gelungen.",,
WordPress,Google Play,org.wordpress.android,Z3A6QU9xcFRPSDRJS0pLOFo4S2tTWURyMmtTSVBJSjZJM3JxYUdBcVJWOVNPdjlSNFdVTks0OUxackEyWkxoR0x6UXc3QWpGdnp0Y2VaTzRUZlN3dGZyM0E,Norwegian,,5,2013-06-11,Øyvind Selnes,Bra og oversiktlig,Har brukt denne noen måneder og synes den er enkel å betjene. Har ikke opplevd noen problemer.,,
WordPress,Google Play,org.wordpress.android,Z3A6QU9xcFRPRjRPc1NweUowQjZUZURvbHNXSUpoT0k1UnNWV09BV2ZWenB5ZlBKRHNyRFIxLVdhVGlwaE1HWU5HMkxCbVhnVXdFSURlN09NSFRzY2pnalE,Portuguese,,5,2013-06-11,aderito santos,Perfeito,Apos compra mini teclado para fixar tablet app wordpress era faltava para melhor escrita meus post meu blog,,
WordPress,Google Play,org.wordpress.android,bGc6QU9xcFRPSHdZRG9rYU1EaGZocmpCZlh0VWZZaXhlZ0ZaOGlCZzU0ZDQ2dlhyN0FxRndKS01aUm9GcjgzVlFPSTVYMDBWSnFQRU5Wb2RmYWNvSUd5WXc,Russian,,4,2013-06-11,Пользователь Google,Плохо,Надоел странный баг. При сохранении записи теряются теги между знаками \u0026lt;\u0026gt;,,
WordPress,Google Play,org.wordpress.android,Z3A6QU9xcFRPSGpCckVjNEFrSWVKUGMxWlZzMThENGp4ZjRIeTBObkhRR3V5Y1hPanQ4bFRjWmtxZWZ0cUlWSkpmTTJ2cU9ZR04zRktWeXVBaHFjRE5uSnc,Russian,,2,2013-06-11,Dmitry Pyzhov,Не работает,Так и не заставил работать с автономным блогом (,,
WordPress,Google Play,org.wordpress.android,Z3A6QU9xcFRPR3ZzUW80dGpvcU1PY3hJWDVfMHBIb29OcnhtcFk4dDFudW9BdzYzRGxTRGVzd2FQREloc0JjTzFEMWxYaUd1bEpTMlBRdTlocFBrb2ZiRFE,Spanish,,5,2013-06-11,Gian Spinali,Perfecta,"Excelente app, no me hace falta más nada.",,
WordPress,Google Play,org.wordpress.android,Z3A6QU9xcFRPSGNJbEdMTTYwVEdEbWJnM2hDQ2lFYmF3dHVkX2tURlZhTGFqbF9iRDZ2RGU4bVJRTm9CN2Q2Zm90bmRzZ2xubUFyQ004U3lXUjE1bHZsU0E,Spanish,,5,2013-06-11,Antonio Perez Llorca,Genial,funciona perfecto,,
WordPress,Google Play,org.wordpress.android,Z3A6QU9xcFRPRXNhcl9HMzRRNkp1aklNTVY1OVFmTEVKY1lnT1JyLXVkTFgwbFR5a09DSkNHUjNwZGM4VG1YeWJ0Nzh3UXFUVmQ3ZHlDVHNHY3FYTG95R3c,Spanish,,1,2013-06-11,Gian navax,no veo el boton de publicar,alguien me dice donde se publica un post ya que no veo el publicar luego de aver terminado el post,,
WordPress,Google Play,org.wordpress.android,Z3A6QU9xcFRPSDFjem5rQUlnbFlLbU9hei1CTkFOSk50b3FOYkdZMXM4cTRxOU8wUzlmUmlUOFhZemNSa292enZDM29RaW9fdkhNb3pweXU5b2plYXJ4MUE,Spanish,,5,2013-06-11,Oscar Garcia,Estupenda,"Me va muy bien, va perfecta para hacer post",,
WordPress,Google Play,org.wordpress.android,Z3A6QU9xcFRPRWtqcjNEdEJmQVQ0RVR2THNVajVEdXFpVmpBZ2ZIeUZJNFJDZ0lrZ0V2SGFuQ3A4S1IwUWRtTUNGZlU0X2dSMENRUmU2Q2xsckRuMmI1cHc,Spanish,,5,2013-06-11,Edwin Andres Guzman,Excelente,Super para administrar,,
