App,Store,App ID,Review ID,Country,Version,Rating,Date,Author,Subject,Body,Translated Subject,Translated Body
WordPress,Google Play,org.wordpress.android,Z3A6QU9xcFRPRzNleEdLeGpJZURwaWxZWlJGODFfRjVERDRTMFpITEFSSHdPMXg5dEVtUzUyVFFXZU11Yy00N2t6czdZNFJCd0lRMFlUUXFud0xsaTV6dHc,English,,4,2014-02-26,Mike R,Great work guys!,"Overall, the app has come a long ways. I just wish the dashboard could be accessed easily, without going through so many menus. What happened to the button for quick access?",,
WordPress,Google Play,org.wordpress.android,Z3A6QU9xcFRPR2hRYmZZRE05Rmt0R2gtVWpYUFdvb1Uxcms0YnFTVlB5ZXkyN2JWWk1kcDZGUFZmNVlmbVpWbi1tMjNKX2RkVHBZLW9TWVRHSjFkRFJKaUE,English,,4,2014-02-26,Towfie Fanous,The editor is in html,I love the app but I don't like how you see the post in html tag version as you are editing it.  I would like to have the option to switch between normal view and html tag view. Other than that it would be 5 stars.,,
WordPress,Google Play,org.wordpress.android,Z3A6QU9xcFRPSHUyUmVoMEJBdDYtS0NrdUQ0dU5sT0ZFY09Rd1QycjlyZ3lOQ1NDQl9fRWJibXFKWkNmaTZkZG1fVkt6RVNEclluM1hwVVVPY0N2Y1pZc2c,English,,1,2014-02-26,Leah Bradshaw,Pictures never show up.,"Everytime I post a picture from the Android app it never shows up in the post. It always makes a box with the word ""image"" instead of the picture. What's the deal?",,
WordPress,Google Play,org.wordpress.android,Z3A6QU9xcFRPRVl6YjdVZXJqWGJ1cjBzT0xhNVhNQmFKS1VnT0hQU2xKQndPQ2FHTURxamxvY1djYkF4UlVmMVlMSGRIZmswVk9wOXAyWUxQOUNJOGFCUlE,English,,1,2014-02-26,Waseem Anwar,Bad,I am only using it for coment moderation. And i am not able to rply to coment on self hosted site. Plz fix it,,
WordPress,Google Play,org.wordpress.android,Z3A6QU9xcFRPRnlhaTYxZlVYcERZbUdLTlctT1A4X05pU3AydTlYZzJZUlVCMDZTYnl1ODlvVjNlbnZjWmF0dC1xU1JhVlRWN3ZyUjFhVDgwT05wakctX2c,English,,1,2014-02-26,Kahil Nettleton,Nice UI update...but...,The UI update was a long time coming...  Still no option to hide the stats section that is useless to self hosted sites.  Dashboard is just the web version?  Wth?  Media section displays blurry thumbs.  Doesn't seem to have been tested out before releasing.  Editing pages/posts is a terrible experience. Offers nothing for the seasoned users.,,
WordPress,Google Play,org.wordpress.android,Z3A6QU9xcFRPRW5LbEI3ZWQwX0JiYWoxb2hvcmtyN1RRVldpWXl5M1FjTmFJcktQZ3JzVDNQSWlISTBUc085SUVsTER3UUU1MWh5WWttel94dEpJNm5Sdnc,English,,1,2014-02-26,amber rittenhouse,Help,Won't let me connect to Facebook. Have to click on gmail link to get to the Facebook one. Then when I get there the page is all messed up. Nowhere to sign in at. Dumb. Fix or I will delete.... Still sucks,,
WordPress,Google Play,org.wordpress.android,Z3A6QU9xcFRPRjFEcG9ySU5qOFhla3VraWx3RGlQNzIyRGNocHB5c3dIRGdrbXRoTThEWUtwaWpSWFlyRWZVZlQ4dHZZOTdPbmxoclVoZmhyNHdKTHpxMWc,English,,4,2014-02-26,Joe Cox,Great,Very handy and highly recommend,,
WordPress,Google Play,org.wordpress.android,Z3A6QU9xcFRPRjN2emRwMGZGWW9tMDBQcGFHdzc0ODJHRU9aYUxQYTBQdHI0clRPY3RBZzhsYTBrcDNtaXl5c0hkeXNIbnhHOFRLR0xYT2RwdVlSTjRvQ1E,English,,1,2014-02-26,Alexa Moore,Won't log in,"not sure why but it will not let me log into my word press account. I've tried on multiple occasions and still the same problem, yet I can log in online just fine its just a app that wont let me log on. Please please please help!",,
WordPress,Google Play,org.wordpress.android,Z3A6QU9xcFRPRk1JUV9Nd0xXUDRiVnBmZXZiRzVRRFZHWVdsdGxoWGNyM2M3a1FTRlY0Z0taM2swaFFsalI2M0wtSlA4b0R4RlF3UFlaYmk3QlBwX2liUEE,English,,5,2014-02-26,Mark Thomas,Needs featured,Need to be able to set a featured image like you can on the web,,
WordPress,Google Play,org.wordpress.android,Z3A6QU9xcFRPRktKVDdEUVpDZ0Rqbm40RFpFd2ZEdmZCaUFTQUNGbFA0VVl5RzFWOVVleG5hWnlxYXpYbTIybV9XVnRDSTB3RlN6d2QtUHYydWR1OUJLUlE,English,,3,2014-02-26,Laura Richards,Android app,"Android app is pretty annoying, keeps saying my facebook isnt logged in to share my posts, then wont allow me to log in, the screen doesnt fit and cant click on anything properly its like a webpage trying to be viewed in a phone and it makes my bloggibg life very tedious on the go",,
WordPress,Google Play,org.wordpress.android,Z3A6QU9xcFRPSGZmMVR2X0w2cE1EQzdUQm91ZVd1SjR1dUl5Q1pRUkV5OTRRTnI0Qm1ZWG1nZUc5ZlFvQzBvZ3VrcXlySVMtbllUM011eXJXRUFSMUNlb0E,English,,5,2014-02-26,Bill Schrlau,Great!,"I enjoy using this site to keep my thoughts organized.   I write several blogs focused on beauty industry and a person parenting page for my son.  The set up is great most of my writing is done from tablet, works great for what I do.",,
WordPress,Google Play,org.wordpress.android,bGc6QU9xcFRPR0xSWHl1aTRRWFhzY2d4a01zbnQyYURYb2R2MkQ4TUFSNmpTUWhWbHpISnNna1prTjdPbzE2cDJKN1FVZExwX012SnpYeGx6R3JONGp6Y2c,English,,5,2014-02-26,A Google User,Great App. Makes,"blogging a breeze. Nexus 4 or 7, or PC, it's all good :-)",,
WordPress,Google Play,org.wordpress.android,Z3A6QU9xcFRPSDNubUxHSUpMNFk0bDR4bjJ0WmdDaDNWbDlqcWxMQmtnRkJPZy1nVU9DREpqbmpqeXBISnZLejlSb3UwV0ZtWE4yOXpYMnNha3UweHROU1E,English,,4,2014-02-26,Pınar Şardar,Notifications,"Within defined intervals, there can be routine push notifications about visitor stats. Overall it is good. Search for tags can be improved.",,
WordPress,Google Play,org.wordpress.android,Z3A6QU9xcFRPRWxNUGpWaURnQlQ1YUpMSFhhQUpVMXV2QkRKU2lDSzZ6NGlPWm9mMWVIcHA3RjczQ0Y3SExJNXVyaEl0RHpqS1dVZ2VnNVk2TzU4eWxRakE,English,,4,2014-02-26,Ben Taipei,Great app!,"",,
WordPress,Google Play,org.wordpress.android,Z3A6QU9xcFRPR3hYNFVzZHpCR2E3YWtSTWVpeTRxSVd5QTBHR1V2d0xlWFhCbENxaUk4ZGc2Nnc5RkFLS09ycFNhMThrTFZhWmljMlZWUE4yYU5FN0habXc,English,,5,2014-02-26,David Hancock,Great,Really useful for those times when your on the move and want to manage your blogs.,,
WordPress,Google Play,org.wordpress.android,Z3A6QU9xcFRPRTBTRVVTUnU3MmxERTB6U1F1TlR6Rk14OXNUT1h1c1FodDhvTVV5UDRWZXdEOFpVX1prbG1sbjlERHh1Vm0yX3NZQ2xnRjhEemVINmhMNkE,English,,3,2014-02-26,sayth Sagar,Great,Great app,,
WordPress,Google Play,org.wordpress.android,Z3A6QU9xcFRPRm9iWXB6SE82VmtLNTRJUDRTRUxmTkd1MFdIOGdmbDJUU1pjam9KOGcyaVJvN0dHeDZaNXhIREdLN0dhMlI2ei1CNjBYU05RVXFXYmVXZGc,English,,5,2014-02-25,Hendri Wijaya,Pretty good,"",,
WordPress,Google Play,org.wordpress.android,Z3A6QU9xcFRPRWFTbS02aXBTWlJGZi04UDRGZlBsbURRZFNZUVJISkktSV9DQWZ0eXhNdlpnMFhVZ2hHRERCUXpyVHNSckZyRDcxSG9Ob0hYMEtxYkpIX0E,English,,1,2014-02-25,Julie Coggburn,"I can't even login. Tells me my username and password are incorrect, even though I have no problems on my normal browser.","",,
WordPress,Google Play,org.wordpress.android,Z3A6QU9xcFRPRzY0WXYteUVLNk84SFZadmhtaXhCN2VBejdzSlg5WnJXN2JZaFVTTkUzdjk1NGlmdkVDbDcyWEQ1WklTMC04ZXJNdW13dTdiSHQyVDctNHc,English,,3,2014-02-25,Achmad Ismail Rivaldi,Please add this FEATUREE,"As far is look good but is it possible to edit our posting which was very old post ? For example I can edit my recent post on ""post menu"" but how about post in 2013 or later?  Please add feature : search post that we have posted and a simple feature to edit it...  just one more.  In my top post and pages if we click it we can't edit it but just open it via site.  I just wanna edit pleaseeee",,
WordPress,Google Play,org.wordpress.android,Z3A6QU9xcFRPRU4yNWJKV290U2M1Z01EaVhMS0prQWppYmtGN1lod2RIa3ZMN09JZ3RaYzRGekRTNEZVaGNWZzZmSERYMmJORjdYMGUxRi1EYzVURUQ5bFE,English,,5,2014-02-25,Nguyễn Trung Hà,Okay,Good,,
WordPress,Google Play,org.wordpress.android,bGc6QU9xcFRPRU51aEJnU2ZkOHBGcE9sVS1lQTBHMEs0X2VDZW5mUFJpOExBSGN4QnVMcmp2b2ZObWZVcm1ZejA4ZlRuSVpIb2tSMWQxXy1CaHhFcEltZnc,English,,5,2014-02-25,A Google User,Jiban chakraborty,Very nice,,
WordPress,Google Play,org.wordpress.android,Z3A6QU9xcFRPR2o1VnBEZ3kxRnZXNlI1SmxfZ0p0RFFpUzJYSHd0RGFpU1IwekIxbWlKNkszZmpNYTQ2WGtvRkpoVnRuZEtUNmhCX0wtZlVKVmZ0OEY5ZEE,English,,4,2014-02-25,Keith Boshoff,It's cool,But having WYSIWYG editing would be cooler :),,
WordPress,Google Play,org.wordpress.android,Z3A6QU9xcFRPR1l2NGRZU3lUazFwWVM4RXFaVUV1NEg3MU1MaHdGYzgxQWxDdHNqSDVaTU41b19sUkJaU1RDT0g1NUwwYkd5d2VfR1ktZmsyY1dIZEFOalE,English,,3,2014-02-25,Kania Kennedy,Gets the basics done,"I use this on my Galaxy Note Tablet and Galaxy S2 phone. It gets the basics done in a jiffy and I like being able to easily shift between my numerous blogs.  Nothing fancy like ecommerce posts or event posts,  but the browser interface has become more usable for those features on the go.  I would suggest the ability to set a featured image though.",,
WordPress,Google Play,org.wordpress.android,Z3A6QU9xcFRPR2VJaEJLZFc1Q255c2pHREptVDRRTUphajB5VXBXMmZ4OHJWdXVWUFliWDFNUHQwMzJuNDR3Z0pxNF9JZ2daM3l6VTlYNmlCUTNqSjlaN1E,English,,5,2014-02-25,Yaro v,Sick!!!,"",,
WordPress,Google Play,org.wordpress.android,Z3A6QU9xcFRPR0EzOFoyVkZseDYtZDBSdmg3akN5YXpwX1lIT2dTdzNJaFJMNE80UHRrWE5vUDNsUEFJWExWMzJ5YlFMUW1BZ3BMMDlfcFhpcUJWWEkyZUE,English,,4,2014-02-25,John Ioannou,Errors,"Version 2.6.1 is giving some errors. ""An error occurred"" is the display message, but is working fine.   -Feature article is missing",,
WordPress,Google Play,org.wordpress.android,Z3A6QU9xcFRPRkNndnNiTmJJQ3pKSFd2Z1QwZmdvQkJmSWFfb2d4S2M0bVlnOTgzR3BGWUJIVHJYYjR1aGxnR2lIMG9zdEYtR1J5LXhDVkZhb0VsanJRYlE,English,,5,2014-02-24,Derrick Brown,I Love it.,"",,
WordPress,Google Play,org.wordpress.android,Z3A6QU9xcFRPSHg2LWdmcDRFVTlKdHU1SEtKdHRFRFF3WkFuelJqczRnMnhiQS1uRkN1dUlqZ0Rubld4SmF6NDBMOUNjVlkweVpQVHpaSzdzbHhkRWpqV1E,English,,4,2014-02-24,Zubin Mistry,Love it!,Love it!,,
WordPress,Google Play,org.wordpress.android,Z3A6QU9xcFRPRmlucFhSRkFPNEtOdFZqSUdTalVwa3lHQTFGRlFNSVdxZVpBd1dja1gxbTIzeHFLX3ptWk9OdWw3NmVMTUtxVEZKbUxvZC1xM2U0WVp5Vmc,English,,4,2014-02-24,Yudha Ellylyng Desiani,good,"",,
WordPress,Google Play,org.wordpress.android,Z3A6QU9xcFRPRkNHSFY3VTlNVWlFOEozd0RCd2h1RnZ4dGZnZ1F6VVdsNmFFMkJnUEdzUjBfbWxtOElkRFpmU2pndDhjby0wYnhtTFFJa3NhWHlTdG9GcFE,English,,5,2014-02-24,Emmanuel Brown,Excellent app,"",,
WordPress,Google Play,org.wordpress.android,Z3A6QU9xcFRPSHZRZ2o0dE5pQWc0MnZFejM1ajNSOUVsZzBmT3ZXYkpoTlJnSVc1MmtFeElVaGFLQXhlZ2NiaUxwYl9jdzdxOUFlN1NjMHBFSzNWUlpFdkE,English,,4,2014-02-24,Jonathan Campbell,Android update?,"If you use Android and you recently completed an Android update, I am finding that I need to uninstall and then reinstall many of my apps, including WordPress.  Annoying, but afterwards they work fine.",,
WordPress,Google Play,org.wordpress.android,Z3A6QU9xcFRPRndnU1pZSzI5RlVYSnBNVW9GTmkwZElVUzQydXJNLXpWNGZoeWlsWkt1TjJYQWtNaVdpbEZORlc2dTNtSzdWbC03bWhWcFdJaV92cWJLVVE,English,,1,2014-02-24,Jeff Taylor,Have to log in to read WordPress?,I am not prepared to sign up just to read WordPress articles. UNINSTALL!,,
WordPress,Google Play,org.wordpress.android,Z3A6QU9xcFRPSG14THFrXzdOSkdLZnFZbTlwcVRocEpzMlNkOXhyUHprWW0tR2E3bHRBOTctaEdod3B5WjcwbEY1QzJ5RFU3bXROZEdPMEJib1duWHhOM2c,English,,4,2014-02-24,Mayur Ramjiyani,Good,Excellent app for blogging,,
WordPress,Google Play,org.wordpress.android,Z3A6QU9xcFRPSFNYUkNva1pjWm9aUVZKbllQZG5uS2FMVUpucm1KYlRNZzhDNVZWNnN5UkhGbVpuSkp2c09FdmxiMnJxcTJNSV9aMFo5UHZmY1d3VTczUGc,English,,5,2014-02-24,Ed Gadgets,Good,Goooood excellent,,
WordPress,Google Play,org.wordpress.android,Z3A6QU9xcFRPRzhZWloxbzV5R3lGZGJuTlRrNnlYN2tUaUc5REg2M3dsRTZWRnR3RWNIaGFqbmd2T0ZHbW9rbERETExlVktMWjNXWVRWekk1b19PWlYwZXc,English,,4,2014-02-23,umama nowroze ittela,Great app,User friendly,,
WordPress,Google Play,org.wordpress.android,Z3A6QU9xcFRPRnNIdnhDQmF2VkJzTzkwcGZTVEcxVDVGWldyRXg0MU9qQ0NjYW1DV1R2LXI1MEV5cW03V2tTOU9LNHRyR1lNLVg3RHhjX3YwZXBoQUpFOHc,English,,5,2014-02-23,Bonivasios Dwi,Thanks!,:)))),,
WordPress,Google Play,org.wordpress.android,Z3A6QU9xcFRPSFpYaFNJYm1UZ1RjRmlOaFRaQTYzN0xTVlJ0RDlFeEg3YzhaWGFMRXdSbFNXaE1SNlB4RE8yOW43c1Qxd1BnY1ZTaWpoMWFtVTJQQjhtLUE,English,,5,2014-02-23,Shane Harder,Awesome,Love editing my site on my tablet!,,
WordPress,Google Play,org.wordpress.android,Z3A6QU9xcFRPRVRnazZpajIzdVFmUXozeHIwaU5FdHZSVlJrbFk1NERtd2Y0WDEtYkJodHRGcHBmWEtFMjFobWVZbzl6dnZiN29CYUJyUFRmdUJzSUtYNVE,English,,4,2014-02-23,Spencer Hunt,Love the layout,"",,
WordPress,Google Play,org.wordpress.android,Z3A6QU9xcFRPRTZfUXN5TVJ6RDU0ZFJnSExFSHRMNnUzaUNDQnlTdnZEbmZIdmFOMG1lYTBzRDZsZTlMQ2RndXFacmYzUDQ0Wm1ETmJtNDQtUlhwYTA2dGc,English,,1,2014-02-23,Kate Sutterfield,Please fix app,The WordPress app appears to be glitching and wont pictures shared to it straight from the gallery. It's exhibiting other problems as well.,,
WordPress,Google Play,org.wordpress.android,Z3A6QU9xcFRPR1lfMVpvbWpDQmJnTC0tOHlqd19HOXZPb0JrNzIwUnE4cmRiWnc2clpmOTFOQkplYXFtRWNIRHZLWEJjdm82UVBDd0N1dVhxRUoxVWVCeXc,English,,1,2014-02-23,Eilidh Quinn,Wont download,Wont download past 43% any time I try. Have enough space on phone for it. Very frustrating.,,
WordPress,Google Play,org.wordpress.android,Z3A6QU9xcFRPSHd5Wl9vQnlGc1RQMXo2VHZ1eXlkR0c4YllGZ2pNTGs4V01jQ1dJRjZKeHpQenNWWGpmZlJJSmdOZ2VMZmZQcEVoaHgyMGV6TERtWUdPcWc,English,,5,2014-02-23,Kaye Jah,Works very well!,"Simple to use, links all my blogs at once, and loads quickly!",,
WordPress,Google Play,org.wordpress.android,Z3A6QU9xcFRPRXFCZENlVGUtNHhRT0pNNUpicWNGMUxUMjhhVDFPU0x3Um5lMkt4Nk14bmZYeUNyY3RVV3NMcmZvQkxNa0NUVDAtRnlnWjE1cWc1NDRLX0E,English,,1,2014-02-23,Bart W van Assen,Hopeless,Used to be a great tool to quickly manage multiple sites. Now one has to logout-login to change between sites. DUH!,,
WordPress,Google Play,org.wordpress.android,Z3A6QU9xcFRPRkhXLVp6TzBfOW0yV3hKV0NMZEp3c0dXaVZ0REl0dmxZN1EtcjFLUE1ydHNjOVNsSUcwQVRLSDZVVXkzODl3a0lWTERCR0swSzZ1Uld0a0E,English,,1,2014-02-22,F.L Rutledge,It's non functional,I really would like to start using WordPress as my primary blog site.  However the app is very non functional.  It's too complicated to do simple tasks such as editing your page and uploading pictures.  Please fix the bugs.  Thanks,,
WordPress,Google Play,org.wordpress.android,Z3A6QU9xcFRPR3ZOeU1FR3VmWnM0MVlaLXFNQk5FWUI3U0llVHlKYUhnMy1SWW1QVjFsaDI1cXBFVjNrSjFvRUhqTkNMMlVkVmgxU1ZjQTNGMVBYalFHVGc,English,,1,2014-02-22,Steven Melikean,Program has too many bugs!,"Worst frickin' blog program I HAVE EVER SEEN! I have traveled around the world and blogged about my travels with this \u0026amp;@#$* program and it does not perform as advertised, especially on Android OS. Yesterday, I lost 3 hours of work due to your NON-INTUITIVE save and draft view features. Coupled with the program not-responding 2-3 times, I was very frustrated using this POS program. Quite frankly, the developer should shoot himself. Ha. I wish . . . Thanks Wordpress for absolutely nothing.",,
WordPress,Google Play,org.wordpress.android,Z3A6QU9xcFRPSFVldkl3ZzdGSllWLVFHdXQzS0t6MENEQ2wxUEtabTZDaTBCdEVmdjRiU19Nckl6cld2UVVzVmEwaWZWNDhnWlBqaVhySnhWQlJsUkVsSVE,English,,4,2014-02-22,Rohan Mott,Much improved,"",,
WordPress,Google Play,org.wordpress.android,Z3A6QU9xcFRPR0R4LTR0R1RISTNrQ0twcjl6bEJwS2JPMVRkN1N6bHNTRWF5UXBUcVE1ZWpidWRNeHhFUE5fbkJ6Wk9fSVZhbmNudUlrZEg0Ql9VVjFoaUE,English,,5,2014-02-22,Bogdan Stanescu,Perfecta aplicatia!,Excelenta pentru acces mai rapid la site :),,
WordPress,Google Play,org.wordpress.android,Z3A6QU9xcFRPRjJqUldTUHN4SmM2UkVfTUVTaGs3MjFEeGk1ZE5WTlhMYnNkQzI2OTVMRnhPNWNCR0c3NkJ2dmExY0UzOUV5T3dOdmNGajVGTFJBSGl6OWc,English,,4,2014-02-22,tony gibbons,Decent solid app.,"Slightly limited functionality on tablet, but easy to use on the go.",,
WordPress,Google Play,org.wordpress.android,Z3A6QU9xcFRPRV9PS2txQnVmMXhfUi1sclRFQ0JNakpwMU5xZ1MtcmN2XzhreHRJRWJTZkQ3VjA1U19iM1c2R2lMTmtTbVd2T2JkOWVKZEZHRGFGaWhfdVE,English,,5,2014-02-22,Nathan Hawkes,Great!,"This app is fantastic, but I'd quite like to see more features. Theme and Plugin management, user management even ... I know I can do that on the site but it would be nice. And a bbPress app would be fantastic too! I can't find one in the Play Store.",,
WordPress,Google Play,org.wordpress.android,Z3A6QU9xcFRPRUI5ZFpRTllISUYyTG5fZTBNelhBSUlMRFpJVDUxWmppLWNrZUhBVzJJSUhLOEdpZElQQmp1NTlaa3ZqVFI3a3FpemNxQVpWdEVqa2VsMHc,English,,5,2014-02-22,Lars Angus Lyons,Review should not  be made while installing,Seems to work so far :-),,
WordPress,Google Play,org.wordpress.android,Z3A6QU9xcFRPRXRwOXRxdzdNcm56NUIzbFFHS3NlbVlSSHVMVWt3MUNzenlDVVJ5VG1HVnV0eFFOV19HZzY1dmRlcTV3cjU2bUNoaXA1NllXTGJZZGJWSnc,English,,5,2014-02-22,Miles Tange,Great product always,Great Great always.,,
WordPress,Google Play,org.wordpress.android,Z3A6QU9xcFRPRlRYNGdxMk80bld1c1V4UGI0bGNfdFRVbDdtWkZONFRKZzlmRXRBclZMTV9NTFFWeEpGZ1U0eUlxZjJxTDZleWgweWxuQU1DMXotZ25TTVE,English,,3,2014-02-21,Persia Anderson,Hmmm...,"I've just published my 22nd post, but it doesn't seem to have gone through, although it does say it has. Am I missing something? Do I need to upgrade at this point?",,
WordPress,Google Play,org.wordpress.android,Z3A6QU9xcFRPR25CVktsSndKUUhhODU4MWZPUEl2bnNBSWJwS1FpRnF1SGk1c29vU1N4LWpXZHVveldqaTNJbHhPTmw4QXdlbHJMbnBfVHkwOW42X2lFR3c,English,,2,2014-02-21,Yuki shiteru,I kinda hate it,"Compare to comp ■It has no User...for me to send an invitation to my friend... ■this app is very slow.. ■the themes..in comp can edit the menu bar...but this.....app sucks ■this app is good, but it is needed to be fix  I think ill just use the wordpress in my net. :((",,
WordPress,Google Play,org.wordpress.android,Z3A6QU9xcFRPRXE2M29DSzVsSDJ0QndFcEhpSVkwM0xjU3hwSkFWSk9TZXd6SlNBOHlqMTd1VmdwNGtQb0NsZHA5Y3UwRURNTW5pOGp2VWpHaXpPQWtVOFE,English,,5,2014-02-21,Sastra Vardhana,Very nice app,good and nice ap,,
WordPress,Google Play,org.wordpress.android,Z3A6QU9xcFRPRUpXSEI1NEJ3OENkM0pVNUpkUElKM3djQmVCVkZwMUxtemVpTFhNU2JXRHhrWExQWVpQMnV4NU9HSVVmN3JRT3RjRzZ4ZV9mSzAwSmYtelE,English,,4,2014-02-21,David Adlam,Working again,Interesting that after being told they could not reproduce my problem that the NEXT new update fixed the said problem ... still at least it is usable again... :),,
WordPress,Google Play,org.wordpress.android,Z3A6QU9xcFRPRXptbnIwUjZHM1hXVWY5ME9iQUN3MXFfN0ZGaU1aZHZzRmR3UGRYenNjMjR4QW1xRGs5Vi1OMTJFU1FNUkNOZEJwM0lfN1JkRVlrN3FSTlE,English,,5,2014-02-21,Joseph Bunga,Very Simple to use,Created with the user in mind,,
WordPress,Google Play,org.wordpress.android,Z3A6QU9xcFRPSFV5aXhTOW1CV3NVRklZT0dWU2xiQ20yVnVoSk1kSlV1Zm16NTZDV2EyblpfbFQ1clpfbDRUNm1MVUJDVVNyV0ZlSlFfX2N2V3ZVVmJoYmc,English,,4,2014-02-21,Johan Øvergård,Great update,"The last update was great, but still cant search for blog names, just tags. Whats up with that????",,
WordPress,Google Play,org.wordpress.android,Z3A6QU9xcFRPRU9GSjYzZzNHYUJNYnYzT2hoY2Vlc0NjWmtPeV9lSmdsVU5Ua29oMXRZVDJ2Sk0tOTlPbjN6YVF4VmY5LXR6Nk8zZnZ3bTVvbVZtZ2ZfTGc,English,,4,2014-02-20,Leslie Helton,I can finally edit my site via mobile!,"Absolutely happy this is finally available for sites, however functionality best serves for blogging. I'm a vendor, with an ecommerce based site, and need a method to control inventory while on the go!",,
WordPress,Google Play,org.wordpress.android,Z3A6QU9xcFRPRkhjeXRuZXJvelNLREtNcW5nRERqd3o0Vnlta2wydlk5NjlGMUJRSy1DY1FuajRWSlgyYVB5RWZpWEVLWVR0Wkh5azJlcFlwQk1rN3Rtcmc,English,,3,2014-02-20,Cat Lanzilotta,Managed to log in,"After changing my password.   So far it is working well!   I don't recommend trying to do anything with one's theme through the app, though.",,
WordPress,Google Play,org.wordpress.android,Z3A6QU9xcFRPRkU1d1VLNzdRRjR0NXBSRjJuVXhqOTgzdFBaZ1dUSmZUd3BOYWljMlVZM085LTN2b1pKSTAxLW42OHk1YmNNYnFRM2dIZGJfdkhEdlNQVkE,English,,4,2014-02-20,শফিক শামস,Shams,Post categories does not seperate,,
WordPress,Google Play,org.wordpress.android,Z3A6QU9xcFRPRnBUeVZSWHJGcW9CZmZVcnFXYURmaHlNNmliLS1XN056SDZRYlRhd1VtTWNzMDE5bW1ZYklrekU3MTFSS1JHbUkzaUJJdVdGdFVSTTRORmc,English,,5,2014-02-20,Ashish Singh,Stats,"",,
WordPress,Google Play,org.wordpress.android,bGc6QU9xcFRPRUZQZzQtRERhaGZqeF90VlpSS3prRG80ZUZqUk5UTlVyeUx0V2dfOGFVVXpkODZRakJsZEloQ3BySEZldm1PTzRkREtZcG93dHg2bkpCMVE,English,,5,2014-02-20,A Google User,Above Average,"Hi, Version 2.6 has a bug. Post only works if have opened up the app before sharing. Thanks. God bless. Aaron",,
WordPress,Google Play,org.wordpress.android,Z3A6QU9xcFRPRTV4QmFIa2dGUmxBRFNQOFFXM09obFBYQTdsXzBiT2V2V3JKa2tZeFI0YVB3NEY2T2JHWGhFdUJKOGdXSUcxLVVKbVdHYXhIRlZ2ME1RUnc,English,,5,2014-02-20,Hermawan Ristriantoro,Josss...,Apiiiik tenan,,
WordPress,Google Play,org.wordpress.android,Z3A6QU9xcFRPRkZKZERuQzlXWWwxQUhqQ1g0cVFqbVVoWld5U19xN0JvUi1STE9HNXhia3ZEWVhMXzJCMTBxNmVsSmFEa0h1S2hYVUc1OTB3VTZ3bUFmSVE,English,,5,2014-02-20,Hannah Vaughn,I love it,Check out my short story BLOG,,
WordPress,Google Play,org.wordpress.android,Z3A6QU9xcFRPRkthRjVKZmJSelhPVnI1VXhDc2RveVZuWURyemdRVGMzcmZiMHZoQm5uOFk4SEU0TnVOVkloVUZJVURWaE9IRXJya2R6ZTNhSzlHbFVQZ2c,English,,3,2014-02-20,Ryan Stokes,It's WordPress.,It does what our says on the tin however in the latest version of WordPress the dashboard was made responsive and mobile friendly and I don't feel the app matches this or lives up to this standard.,,
WordPress,Google Play,org.wordpress.android,Z3A6QU9xcFRPSHN3ZU1JYVlReXV2U1NHb1Q1cmNCMTVkX1k0aWVBN2xRWFJGUlN5blJ3SmpHMExhcWFETy1RTDRPUGd0XzJXWUFYZk9LbHlEYmJGMl82bkE,English,,4,2014-02-20,Gabe csj,Nice,But could be better,,
WordPress,Google Play,org.wordpress.android,Z3A6QU9xcFRPRnZlNk9CMjNUN201WHRBSE00OGI4MEY2eHlqUEJwRzRtMno5ek5QRjFrZUxlMHdHclluM3V0SkdDbElUd1B5Tkw0aVEwbnRBb2kteFp4NGc,English,,5,2014-02-20,Steve Scroggs,Power in my hands...learning curve.,"",,
WordPress,Google Play,org.wordpress.android,Z3A6QU9xcFRPR1pneko2UVBncXdsSS1LSWdWbk5kUjB2czlYRkp2VW5McE9jOXRjU0tFWEJLVEJkZjJNMGQ0OGZPb0t5LTBpUml0WXJNSTJ2R0ZRbW1fckE,English,,4,2014-02-20,Piotr Syguda,Nice,Easy and comfortable for publishing short posts.,,
WordPress,Google Play,org.wordpress.android,Z3A6QU9xcFRPRzlCNGQ3WkVKMFJnWC1Nc3RYeXpvOHcwVHBzbXItTDJaWF9LZFBJS1JQdUttOTdyUlJZZHBndHpNX3I0Y19CN0Z5US0tUFZTZE51cVBJR1E,English,,5,2014-02-20,Dennis Heffernan,Invaluable,A must-have for managing your site on the go.,,
WordPress,Google Play,org.wordpress.android,Z3A6QU9xcFRPSGRmRHphelBnTmxkWk9wNjZFb20xeC1qODJWU0FZa2hPeDAtcDBjOXpUVVpfdDBIVW9wdmZ5eVhJN2VyQXFFZ2ZfVVVsZTdhdGhmMWhCeGc,English,,5,2014-02-20,Stephen Wilkinson,Excellent app,Only recently started using this application after a suggestion from a friend.  Glad I took there advice.  Great way to start blogging or keep all your favourite sites in one place.,,
WordPress,Google Play,org.wordpress.android,Z3A6QU9xcFRPR1VtYTIxUjdTOEVYdGI2WVN1VWNDaks0dXdjWDJocXBuWXZxcTRCZzIxdks5WXREclEtWWtja3BqTThfUUs3OGdmSHRZRnJ5TnpKQ202aXc,English,,5,2014-02-20,Luke Asher,Reading!,The words make me more smarterer.  :D,,
WordPress,Google Play,org.wordpress.android,Z3A6QU9xcFRPRTZyMEhfT3BXR2NmRU1DOVYxbFo4elp3dUxIU1NBajlTQXhGNERzVlVoOVUtc0tqOGxlZmZxTVlvbS1BS2NsYXVTTmJLT241NXJkNGFZUEE,English,,5,2014-02-20,Wyatt Kearns,Gets the job done,"",,
WordPress,Google Play,org.wordpress.android,Z3A6QU9xcFRPRl9MX0F5WXVsb1Ftcjdja1FOWlBSdTNBLXFPWGdpYmxOcDJYU3FyRVVRYnF6SGZJd0tsTVFqQVpvRXFxNzdoYlJQWDMyY0d0M1d0cjZrMnc,English,,3,2014-02-20,Tom Sanko,Update made it less useful,"Version 2.6.1 seems to have fixed the upload error issue. Thanks for the quick response!  I'm still unimpressed with the changes to the interface but I can live with that.  Original review: SGS III with Android 4.3. Uploading a post from my phone since the update results in an error notification 80% of the time. And yes I am logged in to my Wordpress account,  Also, the new interface requires more steps just to send a simple post as the post settings have been moved to a separate page for no apparent reason.",,
WordPress,Google Play,org.wordpress.android,Z3A6QU9xcFRPR1lacVJmOHRQUC05Wllva0tNTHdURUkyeC1MNDgySDNVOUtYa3N6LUM1UTV0Yk5IdXhMWGNFREtqalVramNMcGloeUJHTExaLTdUQXUzSXc,English,,5,2014-02-20,Ms.Dark Child,This is the best,Best word press,,
WordPress,Google Play,org.wordpress.android,bGc6QU9xcFRPRXhmcS1ZY08zMWhlajU0M2lqSTMwNS1Hd05Fal9mcHQxNUI1aXFkRC01cnNnWUExM3FCb0F3SjktNmRxazU2N3FTNzZjUlVlUDZOZ21CNEE,English,,4,2014-02-20,A Google User,Won't Upload Pics anymore,"",,
WordPress,Google Play,org.wordpress.android,Z3A6QU9xcFRPRmwtWmo3RzE5SDBmRXN6dEFycE91bnQ3VndJbjh1ejhjVklsYlRPX1RxbU1nZzFOcGI0bTZ3OUY3OXhPSGhwZmM3aU03MjUtdlJkM3FIWEE,English,,4,2014-02-20,Lenka Ilo,More work needed,"The app is ok but not brilliant. I can use it to moderate comments but don't bother doing much else via the app. Having a Samsung Note2, it's easier to use Chrome to do what I need.",,
WordPress,Google Play,org.wordpress.android,Z3A6QU9xcFRPSGwwUWZjY0Fxa0M2TFdRc3BKaTNnNUtxeURuVmx1cHZyWENxSEVmQmhzQlZNaUFMUUVwR2VldnVhMEllUkozUU5sUjMzX1VCdlVZM0lvUEE,English,,5,2014-02-20,Rahan RaY,👌,Simple \u0026amp; efficient :),,
WordPress,Google Play,org.wordpress.android,Z3A6QU9xcFRPRVk1UGhyZ2NiSjIzMURTcUY0b20tUE9rOEsxUUZYTjVtdmlJbWFnRURnYUtBNVhqLTN2enNzSHRKblZwX3hfUzdTa1BUVTNMZEp6RHpUakE,English,,5,2014-02-20,Vishruth BN Harithsa,Totally Good,Easy to Use and Handle. Update Made Great Improvements.... Thank You Team:-),,
WordPress,Google Play,org.wordpress.android,Z3A6QU9xcFRPRWlaTDlpTVBHc2xzUGZmSElUSm1ia2lseVZ4WjFpOGRxdDdBWWxwLTlmc3Y3blVVVHVKdU5oZGFQMWtrNk1aT25vREpxdnhHdUhVSU9pOUE,English,,3,2014-02-20,Kartik Arora,Stats not visible,"Since the latest update, I'm not getting any stats, everything is 0! Please fix it",,
WordPress,Google Play,org.wordpress.android,Z3A6QU9xcFRPR2FIdDEycWUtN3RrZWU1VWRZNVM3aEVhQWlOVjd5dVNwR2hSTHpFd2xVR1VvQ2xBRzdmTXNodHlkelBjaVVhSjZNS1lhSU40MFlPMjV0ZHc,English,,5,2014-02-20,Shakil Thasariya,Nice app,Nice app from wp. I use wp for all my blogs.,,
WordPress,Google Play,org.wordpress.android,Z3A6QU9xcFRPR1BjanA5dzBYNWpUczgxSjZfRTRIdTVWWHBjU0dzd3RkTHhIbmJiNFBlNzMtbFRnV2o4Szc2MDRVSGNWS2l1OGdkSkQ2NVNzMzdPeVJOVlE,English,,5,2014-02-20,Mama JAG,Perfection,"Doesn't matter where you use it, phone, tablet, computer...it's a wonderful way to blog! Thanks for the awesome work.",,
WordPress,Google Play,org.wordpress.android,Z3A6QU9xcFRPRWlOWEluZFNzT2w5WlNzYnFia0xMcmlXM3prdUdfdk5mcGU1Y2FDNTdTRlhYVy1lLTZsSkt0RmtKcDF1U2ZFUFNrS01IMTZfOTlaZnZQQ0E,English,,5,2014-02-20,Steve Bloor,Superb app.,Allows me to update my blog on the go,,
WordPress,Google Play,org.wordpress.android,Z3A6QU9xcFRPSG1ZdmNYbk5rNHZ2bG00Y1Q5c3pNblZ1SnN1dWNRMlh0Nk5KWlE1WjZ3TDZGOHByLTVXUThHU2tCSnJ4R2dDRkpVdG9sVzFFSnhxVG1KaGc,English,,5,2014-02-20,enry que,Nice,Ok love,,
WordPress,Google Play,org.wordpress.android,Z3A6QU9xcFRPRk50T2VOTkxsbElWNXZuRlNIa0V0dTBWdEtWLU55alp3eWV3VXprQndZT21GN0JFQm1GY0dTLUNzVUNhaHZOYXdyTUladzRhSXV4dk5mOWc,English,,4,2014-02-20,Cynthia A W,Works smooth,"",,
WordPress,Google Play,org.wordpress.android,Z3A6QU9xcFRPSHVIQkxnVERmVVgwMnZDaFIzaUhmYWNVdVRHMGJFVklzQjMtQ2R4TWlFd1FYV0FJTkhXQlZINXpfQmdhWENpVkZFazR2RXBIcGpBS0FsdUE,English,,4,2014-02-20,Jeff Wilton,Awesome but could be better!,Any chance we can see offline caching of our websites?,,
WordPress,Google Play,org.wordpress.android,Z3A6QU9xcFRPSFg4X1FGTUdlSzBDdnZvTTRlSEFyeDV1b1gzZU5Gc2RnLXBSQllWclc0WEtCQVBINGlnd0ZmZ3AxWnRQSUJJeDdwNXJFRzRfaDNZaFBXM2c,English,,4,2014-02-19,Caleb Gallanger,Comments,Having comment issues.,,
WordPress,Google Play,org.wordpress.android,Z3A6QU9xcFRPRnl3LS1DMHV5RzhHdU85M2o2ZXRHSmE4WHpLaGtRcEV5SnRtdTU0QUEzSzZZTDZNaEM3MHNfTWFveEV6dXMzYUNzM3VQaTdmVWF6UnE0WVE,English,,5,2014-02-19,Nicole Schalles,Amazing,A wonderful way to express through writing,,
WordPress,Google Play,org.wordpress.android,Z3A6QU9xcFRPRmQwQ0EzWmRES3RvRGFWS1FhQ2sxUTA2WkttZGJYeHM4enRicnVQUDRBQnY5emZ1bnVwanZSX2VBcjlROXY5bGlwNU5WNlZDaC13OXhYZmc,English,,5,2014-02-19,Vimal Suresh,Great,"This app is getting better and better, kudos to the entire team for the website and the app. Thank you!",,
WordPress,Google Play,org.wordpress.android,Z3A6QU9xcFRPSDYwWlpyNVlDTkY3VXRHa2dXM25teTk2SE5wR3lHeVZOdVkyWjhUbXA4RzBIOVh1ckk3U05MeUtpVzRnZkQyX3F0bTkxVXRDb0lqN3QyOFE,English,,2,2014-02-19,Richard MacRae,Upload error.  Please fix this,Since I last updated the app I can no longer add pics or compose and send a post without getting an upload error message.   It really ia not good enough. I run a successful blog but am finding it harder and harder to do . Please fix this issue. Others have mentioned it so please reply.,,
WordPress,Google Play,org.wordpress.android,Z3A6QU9xcFRPR3VlYlFiMDE0REN5ZDh4MTQ5RDZwY2tMSWdPUU1QV3R3OExDX2w2TGdrWmR1RGZEcTdFT1RILXJTYThDYWhqQkJfc0k4TEh1WTBmSk5SZVE,English,,4,2014-02-19,Earn Saenmuk,It's pretty good,I like almost everything about it! I just wish it's easier to link the account to Facebook and Twitter..,,
WordPress,Google Play,org.wordpress.android,Z3A6QU9xcFRPR3pjWm5ZWGdBbDRpem5xSVFwbnNJOUN4UEFXRmtON0ZILUtBRXhldjFlZFQyaGRXM1gzTVotN1UzaVhGNWZybC1FSDJ5RXJ1SWtBYnF2elE,English,,2,2014-02-19,Samuel Lorinx,It's cool app though it could have performed more stuffs than these,"",,
WordPress,Google Play,org.wordpress.android,Z3A6QU9xcFRPRkR2U3ExZ1l6QV9IVzN3MklJbC1fdkhjWmN4YjlaQ0QxNEhZZmpWSnhoaWw3NjBva2hBdFpmR05kamNLRUx1b2IzbDFtdFUzbDg4cXhyOHc,English,,3,2014-02-19,Angel Tan,Still trying it out !,"",,
WordPress,Google Play,org.wordpress.android,bGc6QU9xcFRPRmt3dHR5SXRwQ3ZPWkhqNmVhZFFtblZhZ0s2Y0YydUNHN2VRVEY1WFFfNEdGRDVQWWFfVGpwcnhNV05YOWNPMGJIR2JfcHltcHlRNEQtSmc,Dutch,,5,2014-02-26,Een Google-gebruiker,Nice!,Great app,,
WordPress,Google Play,org.wordpress.android,Z3A6QU9xcFRPSG4xRXpFUG5OWE01akVCVTliYjJmUVY0YlhEY2pval9sTjdfOXJHU1FWZGZ6ZEFEU0l3Z1htd09mLVFNMVRSSV96ZVRGcVk4WjlzQ3NaaFE,Dutch,,1,2014-02-26,Jeroen van Hoek,Alleen maar crashen na update,App geeft foutmeldingen en crasht. Geen bericht te maken.,,
WordPress,Google Play,org.wordpress.android,Z3A6QU9xcFRPR252NHp3X1lrMllwcE02T2oyTHJWemNEZGxPSnp6cWhqY3dsa1AzM0M4ZFJrLWhxSER6bW1OVEVSTWlkWlA0LXFFS3ZWR01DSjF3UEhpc1E,Dutch,,4,2014-02-21,Richard de Leeuw,I,"",,
WordPress,Google Play,org.wordpress.android,Z3A6QU9xcFRPRkUwX291NG1zVzNOaDhwR3lwQVNwNHVZMzlRSk5XR3ltNjQ2bm5vdGEwQ2oxSHpPekxPbEU5cHZwWkpGdGRzMURDMEdvUDhFUDlSVFdfYmc,French,,3,2014-02-26,Delphine Miki,Pour ajouter des vidéos c'est payant,"",,
WordPress,Google Play,org.wordpress.android,Z3A6QU9xcFRPRWd1U0k4cF94YmpPNHQ4bm0tbWtEZk1DLW0xUlZ2UEllOVFsRnhiYW43aUd4VVZSeUVTM3ZmR3lqUjViMENDMFFzQmY1Nk1WTl9NS3JaOVE,French,,4,2014-02-22,Theyo Casanova-Perrotin,Vraiment bien. Mais incomplet !,"Vraiment j'aime beaucoup. Mais j'enrage lorsque je dois par exemple, ajouter un utilisateur ! Pour parfaire l'application il ne manque pas grand chose !",,
WordPress,Google Play,org.wordpress.android,Z3A6QU9xcFRPRUZ5cDJRNHhIeXlIM2hFNmpoOHFlRVM3UmZsTGZVTEtPM1MxbGF2ZE5vcWZ3ZG9OM0NsUnBiT25pdVJGQVQxbF9PY1RTZTh2dmIwQ2Zld0E,French,,5,2014-02-21,Pierre Mavro,Au top,Pratique et utile,,
WordPress,Google Play,org.wordpress.android,Z3A6QU9xcFRPSFMwMktRRDdtZnJDWWRUZkNIOVZSZzBjcndDb0N6U3lkSUR5bkpJcHdTd2hiTW9OQUhOczlUN2RaVVN0bGZjYmpYeGIxdUxCVF9QMm1BdFE,Italian,,5,2014-02-26,bébé d'amour Salerno,Vero open,Accattivante.,,
WordPress,Google Play,org.wordpress.android,Z3A6QU9xcFRPR0tUUThXV3pzZTBCN1QxeFRXWWNnWUZ2Tmk1ZGxwZUxaUTBsb1FXR2tpa0NKWGZLU2hrdW02Y0c5M1ZFTVlVTWowNGRuTHhSZ2MtXzBTbXc,Italian,,5,2014-02-26,Fabio Busnelli,Utile,Un ottima app per un ottima piattaforma.,,
WordPress,Google Play,org.wordpress.android,Z3A6QU9xcFRPR19iOUxYN3BwR2NZbmd5UEczSEJ1NjJ1aVh6dEN6LUFPYS1pYnVXbTBaQlNUSGZRSW1udFBzX1JaSS1pWllBWWhqLVFnMXpLcG1vVWFDbmc,Italian,,4,2014-02-20,Vanni Latini,Ottimo,"",,
WordPress,Google Play,org.wordpress.android,Z3A6QU9xcFRPR2U4SXViU29veXpUZnl0Q3ZnS1p4NkRiTEVmUEtvOE1vRXc2NER0LUVSTk1waVFBSWR3OG1pdmQ0dVZybnBsdlB1MmRLZzlMYjZneVFDb3c,Chinese (Simplified),,5,2014-02-26,李春吉,很棒！,不错的来源软件,,
WordPress,Google Play,org.wordpress.android,Z3A6QU9xcFRPR2Y1Vk5RTWRWbGNLYktKNVVLWEZyWTgxYzA4TzA3dnpCRERTaHBxRGpsRU9YSFdBQ2pRa0h2cEN6ZEdxWmpWb2YzeHBZT1ExMm5FSVNqd1E,Chinese (Simplified),,4,2014-02-21,王维康,要中文,支持一下中午啦,,
WordPress,Google Play,org.wordpress.android,bGc6QU9xcFRPRkNzYzRxb0tGZEpjdVpjZWpybjNBVkhhY01zcmJLUkZ0SW1mbE40RVRLazVCUkM5QXA5cjlUc1lndS1VMHpFNTZEYXRTaEhURkNPRlVXM0E,Czech,,5,2014-02-20,Uživatel Googlu,Super,"Je to dobrá app,ale docela by se hodilo pridani barev pisma pri psani prizpevku a nebo jsem si toho nevšiml. Na samsung galaxy y s Creeds rom maká skvěle.",,
WordPress,Google Play,org.wordpress.android,bGc6QU9xcFRPRU56dUQxbTlCWFhQa2FQWUNhS2UweXVuR29abDRaQ09iT3A2WkdlVmpKMngzNS04Qmo5UWlUQnpwQnA1WGpBTVVPQTRrRkNrLXZSeTF6bmc,Danish,,3,2014-02-20,En Google-bruger,"",Hvordan tilføjer jeg en Wordpressblog jeg vil følge til app'en? Jeg kunne kun finde ud af det før den store update.,,
WordPress,Google Play,org.wordpress.android,Z3A6QU9xcFRPR0RYRENkTEJlWmtjVkw0V1N0Q0o4RXlMeFRLRHVtdkg3cll3Nlp6NkFCbHR3ZWthcUhTVGNab1VncVI1V1JKRDN5TTQyLWtFS0hYZ1VkM2c,Finnish,,4,2014-02-26,Sami Itkonen,Toimii,Ok,,
WordPress,Google Play,org.wordpress.android,Z3A6QU9xcFRPR0IteWhGZ09Nb3ZOaFk1OWlZWVZhZ05MbVk0UXk4Y1ZleHdvNlI1ejRrYUl3SlZBOV9SSjlxTEJxaHJqOERJYjFIbkxuenZJdEpEbnM0aHc,German,,4,2014-02-26,Christian Horn,ausreichend,"naja es funktioniert und man bekommt letztlich die Beiträge hoch, insofern ok. Sobald es an die Verwaltung von umfangreichen Medien geht wird es aber heftig unkomfortabel, selbst auf großen Handys wie dem Note2 will man das nicht machen.",,
WordPress,Google Play,org.wordpress.android,Z3A6QU9xcFRPR2RZaGlZeVJmdmlrVTIzeGRzWVJrd1dsX2hRQlJzMkRUZE51cGZVcC1kUk1KeVRGeEc0Y1BPSHE0cHVHNUp3MWR2UTdnc29SVGsxMGJjbHc,German,,1,2014-02-26,Jan Glogau,Nix geht mehr,Update: keine Veränderung zur letzten Version. Untenstehendes bleibt aktuell! Hierfür dürfte es noch nichtmal einen halben Stern geben.  Seit dem letzten update funktioniert weder der Reader noch die Statistik. Bilder können auch nicht mehr hochgeladen werden. Schlechte Vorstellung. It would be nice to fix that.,,
WordPress,Google Play,org.wordpress.android,Z3A6QU9xcFRPRmk5dDZTb0lTbTF0cDNOWnVlUmRxLXhtWXpiY3Y2NWdCN1Q4dkp6TU54b2t4TjVJZTlGMzViZlRJaG51Umw4aEp4aTVaelRXbnNwX2NwMlE,German,,5,2014-02-24,Tobias Rudolph,Toll!,"Schneller Support, Lösung erfolgreich. @Automattic: Hm, that screen never appeared before when I tried to login to my blog. Mysterious. But it's working, ★★★★★.",,
WordPress,Google Play,org.wordpress.android,Z3A6QU9xcFRPRkRjMXdsVndzSXlCWGdVcFp1RDdVOWJONTZWb2tnOUdtaUQ0SE1xbGphVG1ROEFDUXFKWDU1S3F4M3Vha0VDZ0I4aGd3NnhJN1FaT0JRTGc,German,,1,2014-02-24,Christian Swat,Geht nicht,Geht nicht melde mich mit mein Daten und sagt mir die APP geht nicht,,
WordPress,Google Play,org.wordpress.android,Z3A6QU9xcFRPSG4yTmtwUHAycWR4MWhvaUZKYmNlZWZyd0kwZXVlRzItUXl6bS1BanBLOE1Qbk5ZY19IYm1FM3RjbFFGOFFzbHpWY0RWZ2dqaFZLdzRITUE,German,,1,2014-02-23,Mark Valentini,Artikelbild - Beitragsbild einstellen..,.....leider ist diese Funktion auf dem Samsung Tab / Note und S4 nicht gegeben. Auf dem IPhone einwandfrei!!! Für Samsung nicht zu empfehlen.,,
WordPress,Google Play,org.wordpress.android,Z3A6QU9xcFRPRUxqb3Bpb3BpNzNKSnpiV3RfS0tNQnRKNW1Sc0tTOGF2UktyaHhYd3RwNkM5eWNBa29JdUtvdFFNaUxOMUU5bTR3TDdEaGhObGhBb0FnZ0E,German,,5,2014-02-23,Jan Karres,Letztes Update mit wesentlichen Verbesserungen,Das letzte Update der App hat einige Verbesserungen mit sich gebracht. Insbesondere die überarbeitete Kommentar Funktion gefällt mir sehr gut.,,
WordPress,Google Play,org.wordpress.android,Z3A6QU9xcFRPRlpQcjZwbF9KNkJhcDl3RE1yOUtQREg3MVJhcm9fZFU4WjJLaFRtT2xPRzN4OWxRVXBOZFVaWlFwZUNnTFo0YVpIZFN6UXNZcGFJU0JTdkE,German,,2,2014-02-22,Christian A. Heller,Kein g+ login,"",,
WordPress,Google Play,org.wordpress.android,Z3A6QU9xcFRPSHpfMnRuX2JLU0g2OWE3OXZZeVoyOW5idHFsVWpzV3BLZTNueGo1b3gtQW1Hb1ZRM2x4M0pFS0FrMlQtUWl6UHlnc2VSQVZXMkZGOEplWmc,German,,2,2014-02-22,Beccy S.,Leider schlecht,Seid update will es einfach keinen post mehr veröffentlichen. :( (Samsung S II),,
WordPress,Google Play,org.wordpress.android,Z3A6QU9xcFRPRVpSX0hkV0htX0U3MUxjNng1bHdTVkJZaWpNcWRhRUxPRWpIRU91VEl2Y1l5Zlk0VEd6eWpLanhmWWI5aS00S1JNVlM5UkFVXzYzeW50QXc,German,,4,2014-02-21,sandra w.,Gut,"Kann mich mit meinem Tablet leider nicht einloggen,  obwohl ich bereits dort registriert bin. Also wieder deinstalliert. Schade Update:Jetzt läuft es wieder wunderbar",,
WordPress,Google Play,org.wordpress.android,Z3A6QU9xcFRPRmppbzFTcjdHanZKX0ttcDBRTU80UUhhZktRYmljdEpEQjRFMUo5VWhmRkJzRzItY2cwVWd3WnA0c1l4N0c5VkVIdWdrR0pPTks5aUpPYkE,German,,5,2014-02-21,Maggy Walter,Alles wieder Top!,Nun geht die App wieder 1a - sogar mit Bildern. Der Reader läuft auch gut und das Design ist sehr schön.,,
WordPress,Google Play,org.wordpress.android,Z3A6QU9xcFRPRlhJSzViTjR4U0JFRkVYOFFUdmRBcG5TMHhEOEJDOHNCdnpqWUUxYzNYV0E3X2pSbFQtWkFZUEtDTmdka1dXekEtVGthZEFBam4xQ0dXSGc,German,,4,2014-02-20,Wilfried D. John,Richtig gut und wichtig...,...um schnell Inhalte online zu bringen - endlich wieder mit Bildern ;-),,
WordPress,Google Play,org.wordpress.android,Z3A6QU9xcFRPSDdFSWxBNjhDZlFDNURTaDM1em5ybWpHcVdtWGxYNVBkSmZvSGY4dXpNQTExSzRTMU4zcWNMbEd0aUlpQ3EzdEkzYVBua1dXOTNxOVR3MEE,German,,5,2014-02-20,Marcel Quoos,Top!,"",,
WordPress,Google Play,org.wordpress.android,Z3A6QU9xcFRPR2MzWGljQ0Itc0xXTXFLMm5xSElHU2h0SmFUTFdzSExEcEhSenFveUtUb2pMQV90d0JyU2FOWHhWMHd1YU9OVjRzOVAzejNzV0JLTU92aHc,German,,4,2014-02-20,Kai Kretschmann,Jetzt gehts wieder,Vorher waren Bilder Uploads eine Katastrophe. Nun ist's OK.,,
WordPress,Google Play,org.wordpress.android,Z3A6QU9xcFRPRXdUNm53MnpGOEhTMVlvcVlISmZZbGdIY2gtbzlRTTNaNE4wYjgxZ0xqcnVnamhiTmM4WkhfMXFCdDQ1TnczREFnaTd0eG9BTzFzWHBsRXc,Polish,,5,2014-02-21,adam chodzko,Aj,A,,
WordPress,Google Play,org.wordpress.android,Z3A6QU9xcFRPR2NTMjlMWmpBVTQ2c1dUcC1nVm5VN2NYeXc4d1J2SkZ4T1lDMENCWGROZnoxSmVlSTdtcURsY1J5aDNoby1EekxLd1ZvSHUtV3Z0dXltcnc,Portuguese,,5,2014-02-26,César Henrique,Muito bom!,Quem trabalha com WordPress não pode ficar sem esse aplicativo.,,
WordPress,Google Play,org.wordpress.android,Z3A6QU9xcFRPRmhhaHNaYzhYS0VEb21WVG91ZjNyb0VqSXJvTEFHa011dUJ2UHFibEFTUGw2eG85OVBlM3l6RXBseEVrcl9ndDZCck1tcDl3eVdpREJPMUE,Portuguese,,2,2014-02-25,Márcio Serafim,Don't work,Load more pages don't work...,,
WordPress,Google Play,org.wordpress.android,Z3A6QU9xcFRPR0ZwSjVxYm9Ob1JzNWdXbElMdVZmVEcySDVGTVVkbmltbk5Gb1NwRndfcHdsbHgxeTl6aFZpMUVIMEFfTXJ1R1Y3S1NwTnJpOTN4RGFTdFE,Portuguese,,5,2014-02-21,Alex Silva,Show!,Muito prático!,,
WordPress,Google Play,org.wordpress.android,Z3A6QU9xcFRPSDdnNWFSM3ZJNW5yQ1NvczdBcmViT0VBWEdMLTB1NmFnbnp0OVdnYzRvYzE1NVVGbGdHRzNxSnRJazZfbU5hYXB3bElaSGNsWkt0aUdSYnc,Portuguese,,4,2014-02-20,Leonardo Feelckins,Parabéns Desenvolvedores,"Interface linda, recursos incríveis apesar de faltar muita coisa ainda, tipo Widgets :)",,
WordPress,Google Play,org.wordpress.android,Z3A6QU9xcFRPR1FSRVBXUnc4NmFUcmFsS0xXMncyZ29lX0lReWdadE5VTnFLakdmZThKcVVIbHJVN1dOZmljQU1IQzVPZ3h3NDJpV0xqaUJrWmstdUJySFE,Russian,,5,2014-02-25,Sergey Kalinov,Мне все нравится.,"",,
WordPress,Google Play,org.wordpress.android,Z3A6QU9xcFRPSDNMZzdBNUVXVzlZNkpsdnpIb19vNHI4QlFoSGdXeXNZTjV3NEk2RGk4OFA0NVdSWGtueDhTb2FHTFJzaWVXV0ZMYjhOLWdaalpDalZjVEE,Russian,,4,2014-02-24,Нейман Ахмедов,Норм,"Добавьте возможность управлять пользователями! Только из-за этого скачал программу, а тут нету..",,
WordPress,Google Play,org.wordpress.android,Z3A6QU9xcFRPRmUwdFZfMmhQUWZSU1NXMnE0c0xQSmtJcmx1Rm5hcTRTODh2clgzY3p1bFp1YUxOaXh6TktrZmluaGM3NTNKWmxwRWFUNmFkb0xtRS1TR3c,Russian,,5,2014-02-20,Владислав Гречишкин,Ура!!!,Вернули русский язык. Большое спасибо. Было б здорово если без захода в админ панель выбор шаблонов и т.д. Короче увеличить размах и будет здорово,,
WordPress,Google Play,org.wordpress.android,Z3A6QU9xcFRPR0tGcWQtc0FLckV2LVZXNmROZ2V0RmtLVUZWaVZ3QllOdnRHZ05UN1VXV0Z3d0xkVHE5WGhKNUo0ZFNXbjBoNUI1aFdWMjJVVUY0Wl9tLVE,Russian,,1,2014-02-19,Денис Денисов,Испортили,Где русский? Не заходит!,,
WordPress,Google Play,org.wordpress.android,Z3A6QU9xcFRPRVlEY1lGdFIwWFBsUnpMRllJQ2RncVVpRUtoNzdPTXI3RDFMUnpYcnVQUUJNMjdtZ2xwdjVuVkNYT19UdWJmbGp5N3pQdlJVR0RYSU9xaFE,Spanish,,1,2014-02-26,Matias La Orden,Bug,Impossible to answer Comments in self hosted WordPress blogs,,
WordPress,Google Play,org.wordpress.android,Z3A6QU9xcFRPRVVWOV9wQ2I2U3RiX1FVTXhFRUJjRjRwcDlPZ0dWU3RKS1NOaFNpWEhCa1o2SHlTMzhuRlQ0LVVIQnBSWXhDLWtILTRhdG55RDNSZ2JKQVE,Spanish,,5,2014-02-26,Ana Maria Tomasi,Excelente...,Ecepcional...  Me es gratisimo...,,
WordPress,Google Play,org.wordpress.android,Z3A6QU9xcFRPSHQ2UkVKdF9pRzc0dE9oWnlQekpacEJUczNmandfYUxwNWtDMFk4Q1h3US1jLUpCMzFfOVlic2JJb2hiMmRJZW1OSkIyLXNwNzlWUjF5Ymc,Spanish,,5,2014-02-26,Wilfredo Padilla Pabon,Lg G2,Muy efectiva y hasta ahora las actualizaciones han sido para mejorar la aplicación.,,
WordPress,Google Play,org.wordpress.android,Z3A6QU9xcFRPRmRBRlUtd3ZJdnlLTlJ6YUpMTUFmNmhFcXNDam9rcWFiU3Z4YlhWTVRPTjNEekVfV2NjZ1VWNHV6X3U4LUF3ZVk0amFUbDlad0g0ZzBSOVE,Spanish,,5,2014-02-25,Noelia Rivera-Cotto,La amo,No me da ningún problema,,
WordPress,Google Play,org.wordpress.android,Z3A6QU9xcFRPRXBPTXl6Q3VybHpXRVNLQmNQdzBBU3J1MGxZZ0tGSmFoTndUYVRacl9BOVlfRHh6NV9hRzVfU0NNVC1qMDBOcFVibDV6dDNMSmtJd01reUE,Spanish,,5,2014-02-23,Nixon Lima,Buenisima app,me animo a decir que supera en simplicidad y efectividad a su versión web. En esta app esta todo lo que necesito. Well done WordPress!!!,,
WordPress,Google Play,org.wordpress.android,Z3A6QU9xcFRPRVNPaHA2TEJaZ0pxaHgwUVV4S1RpLURfUEhZLUJzeEl4Q0pSNHBxQ3dFdUZQSFlPemlwZm9HNEpqMEJVSllNVFZkcUJKbVdKcW5OandvckE,Spanish,,4,2014-02-22,Bruno Ilave,Gestión básica de blog,"Permite la edición y publicación de contenido, ya sea en un blog en WordPress o en un sitio propio. Mas adaptado a una utilización en tablet que en teléfono.",,
WordPress,Google Play,org.wordpress.android,Z3A6QU9xcFRPRUZoNklKZUdFTXp1VkVTOS1oUTd6V0RnSmtBRkZ0REhpWlJmdmh4S2xnSzMwdV9IalhoWmR6dWFWOTF4NzAteGtFaGxZb2g5UTk1RDBaalE,Spanish,,2,2014-02-21,Ricard Méndez,Aún falta mucho camino,Un cambio diseño.Interacción con las opciones y mirar que el acceso sea más rápido y actualización d  noticias de twitter,,
WordPress,Google Play,org.wordpress.android,Z3A6QU9xcFRPRWlsb2lRZF9Ebk5BWkFSSm1hVDJwTm5ZbE1oSFNfVU9PVXNmOGs4R0RRZjlTYVFkaWZQNzd3SHJVa0c5Unc0TEE0dFRTbllrZHFqTmlRSVE,Spanish,,5,2014-02-21,Sergio Luis Aldana Barrios,Jiayu G2S,Excelente herramienta para actualizar nuestro blog desde cualquier lugar,,
WordPress,Google Play,org.wordpress.android,Z3A6QU9xcFRPRWoteUZHX0RUSG9aRkxhem5oQk5PekhPckNpSml5dUxmUGhqQWJrR01iOTFWenhQOW1GdnE0cFhrN3dnYXUzZXZmb2M5aWwxNkhKQ3pXVlE,Spanish,,4,2014-02-20,Sergio Zapata,Excelente,Perfecto,,
WordPress,Google Play,org.wordpress.android,bGc6QU9xcFRPSGZidEVUSVVmZFo1ZmE5dUVGWjVNUENfSTBOTk0xM3NfUk5lX0FsNjZCU2diNU91UDRHUEFfTThtVDdlSWkwUzFCdU81eHdOS1kxMUY0X1E,Spanish,,3,2014-02-20,Un usuario de Google,Mejorando,Cada vez mejor. Sería bueno también que auto actualizara los post cada x tiempo.,,
WordPress,Google Play,org.wordpress.android,bGc6QU9xcFRPR3ZaNXRTNVpsZGhtQ3ZVTi1hVTdGOFpLd1VicGVQaEFfR0NxNDE4N1RWME55NW1Ea3dLLXpnUlBBcDR3UlpERmdCSnRQeVAySFM4VTFoS2c,Spanish,,4,2014-02-19,Un usuario de Google,Inoperable.,"No funciona, agrega mi blog pero todas las fun iones se queda cargando... y al final se traba.",,
WordPress,Google Play,org.wordpress.android,Z3A6QU9xcFRPRVpYb25BVV9DOHJ2QlNMaDFDVGdicGQ0WXd2aXpQaFRtRmJEVkN2X2k1SjAxQkNuaGk1OXpGa1RHZjdfdS05dXNkLTNzZ09nMXhzOU9BWVE,Swedish,,1,2014-02-23,joel ekelöf,Värdelös,"Man kan knappt redigera inlägg, går inte att lägga till bilder osv..",,
WordPress,Google Play,org.wordpress.android,Z3A6QU9xcFRPRzB5dnJzM21kWWpxbFhrVUxsbVBEdVNMQk9IU3hjODlCaW1Ld1Bndk1kQ1ppZDAwZmVyNV9IWnRjQVVFWlhWTmt5eHM0emRnMGxhMG9iNkE,Swedish,,5,2014-02-20,Mattias Kallio,Betyget sjönk,Det funkar igen! Max-betyget är tillbaka och det här är min favorit-app igen. :-),,
WordPress,Google Play,org.wordpress.android,Z3A6QU9xcFRPRlg3ck40LXBOWkNkVWRWNHlzOHlXaV91aERsLTZTQWJvZmxjYWNGZUNoLW1FX3dCWmdDTHpsTGpvSGtfU0duU2lBVG5CcEZCUlp2bTdSc1E,Swedish,,4,2014-02-19,Fredrick Larsson,OK,++++,,
WordPress,Google Play,org.wordpress.android,Z3A6QU9xcFRPRVVvb28tNFdTQXhPSUlwNXN5Ulp5MWk3eEs3Vkd6a0VjRV9zUzRRLUlvbUxTYWVkN0loZUR3QjJyOXBxTFJRS0s0VW9YUHpDU20tbkFoSWc,Swedish,,1,2014-02-19,ellinor fransson,Dålig,"Vad fan har ni gjort med appen???? Det går inte ladda upp bilder, fixa detta nu tack!",,
WordPress,Google Play,org.wordpress.android,Z3A6QU9xcFRPSFU1NnNyV3NzRHREblQwWWprM3dITld1dmtjdjVaYWF2ejdqcTZVeU9kRFc3VHI5cEpHdGYzSTNGUEdZdkZ2dHdyWVltRS1rSXdXckM5N3c,Turkish,,5,2014-02-26,Habeş ANIK,Gecis cok iyi,Wp ekibime tesekkur ederim,,
WordPress,Google Play,org.wordpress.android,Z3A6QU9xcFRPR1RIbnppZzRObmxhMVM5ZmlHSTlfTFRPRGJWU1pPT2oxRGR0U2xOMHliVDJLYWM4WUNiUk03eXNOYmVmb0J2UjRoc2Fhcy03bk0zVF95c1E,Turkish,,5,2014-02-26,Emre Ayaz,Guzel,Guzel ama turkce menu yok orasi kötü,,
WordPress,Google Play,org.wordpress.android,Z3A6QU9xcFRPRmQ4YU5NVm1ENC04d18xUkJCUTVVUjdnUUwtcEoybFdPQUpPZzAyRkEza29PRWJyQkdFUzFGWWZ4ZXlfV1VKVUtDZXRhNjRTVjJZNFVzUVE,Turkish,,1,2014-02-22,Yiğit Karataş,Update not TURKEY language!!!,Add TURKEY Language please!!!,,
WordPress,Google Play,org.wordpress.android,Z3A6QU9xcFRPRnJNcGwtaTlTdDJPSm53RUh4azRHRk5fb2E0QVU4eG5CUHlNZWhaSmNtWE5kQUhXODNKaDdKeWdOdGVNSm93VkUyZ3ZKSUltZWo2Q0s3Y2c,Vietnamese,,5,2014-02-20,Vy Haru,Great,I love the new theme,,
WordPress,Google Play,org.wordpress.android,Z3A6QU9xcFRPRUZTTlBUZDBURW42WUNvN2tpLVFTZTBwRHNCSS1wRnlYajBZUmdHWWZWa2t5bmVBU29JVW9ielhkbXNINklHVU9wcWRyZE5kaDdLdFpGZ2c,Thai,,5,2014-02-26,พิเชษฐ เลาหาง,ดีมากเลยครับ,ดีมากเลยครับ,,
WordPress,Google Play,org.wordpress.android,Z3A6QU9xcFRPRnJVa1hhd0IwTHFxd2picWpUUDJtN3dOdVNvTzBjS3VQcG1uZS10T013NzkwZUsxRTRoWGhjWjJkb3V3LTZ3TkZaUjM2MWpJdEQ4NXFScXc,Thai,,5,2014-02-25,SRIRACHAI APIRATH,good,i like it,,
WordPress,Google Play,org.wordpress.android,Z3A6QU9xcFRPSEZZcjNUVEFJclpTSzZ1Nk15dmNnNlNZSndOd0RRNE9aOG1DSjRBNmltSW5IRUFhek5MZnlBcnptTzhaYW8zZl84MEx4T2gyWkl2WHJKUVE,Arabic,,5,2014-02-25,Imad Zal,شكرا برنامج روعة,"",,
WordPress,Google Play,org.wordpress.android,Z3A6QU9xcFRPRm5fR0ZtMF9hVThLM3lfQ040TFdoamNNelU3M3E0QkluX2pyblVOYjNSeTdlSWtnZTM1cU5YSXY5X3J4ODg2RlhxQXJMREllbDRLQVBOX2c,Arabic,,5,2014-02-19,Ehsano Sano,Good,,,
