App,Store,App ID,Review ID,Country,Version,Rating,Date,Author,Subject,Body,Translated Subject,Translated Body
WordPress,Google Play,org.wordpress.android,Z3A6QU9xcFRPRmNvdk9RY0ZxTi1iNlAtelB1cVBPdnNwZHBaUkQ2UTR2VWo2Yl9MQ1U4QXZWcUlBUGlyaW5TakpiYWg3MFY2WmVBbHFJMTBvX1lXUHlnS2c,English,,1,2014-11-13,Benjamin Dykes,Won't load pictures,Gives error loading pictures from camera / phone support sucks,,
WordPress,Google Play,org.wordpress.android,Z3A6QU9xcFRPRnE3dFFMWUI0TnNsRE84OG5jZmVsLVdTQlFBaGZZdHlpalFvVVdadWxpTE9RRktOSzB6T1pzcEJwVzhreGE0ZTQ1dlJYU0ZhSVh4YVVhUFE,English,,4,2014-11-13,lucky subiakto,"",Amazing application...,,
WordPress,Google Play,org.wordpress.android,Z3A6QU9xcFRPRlI4MFhHdlNZcTVEVXdpYkZ3MG02Z1VaYlZVbDBCYnowd0l1N0lvWWoxWUNVUnBpVndKQklRczFsMWhjemNxTTZhTFUyb05rLUZqenFYYmc,English,,1,2014-11-13,Kenneth Cris Cootauco,Can't log-in to self-hosted site.,"I use a captcha plug-in to prevent log-in spamming or hack attempts at the contr panel.  This app does not detect that and simply says im entering the wrong log-in credentials. Fix this and i'll consider my review/rating.  Until then, one star for me.",,
WordPress,Google Play,org.wordpress.android,bGc6QU9xcFRPR0c0bGI3Ny1ibjVreEZINnpwd2RqSm12Tng3T3VGakR6ZUhLcG5WeXgyUXNQYVNHa0pLSE5kazlSVXF6UmtmVUZNeW1RQy1IdUlXVFJOTWc,English,,4,2014-11-12,A Google User,Kumar UJJWAL yadav,Its really nice.work fast bt I need some features. please do it soon,,
WordPress,Google Play,org.wordpress.android,Z3A6QU9xcFRPR0RzN0dxR0R6emtpQXlCWUNreV83ajZhVlpwNUVjRDFJTnV6MGlnNVJEQzQ0TXNKTHdpNF9NcUpzaFc4OXIwWmh6akJvWFBxaGFPNHJHZmc,English,,5,2014-11-12,usman herdi,Loved it,No complaint just enjoy it,,
WordPress,Google Play,org.wordpress.android,Z3A6QU9xcFRPRmtpckdaaEdueWUyUzRGdDBLZGhwclpSdi1mOEprcktMLVV1VGZWRlhFVU9uWjB3UVNzRW9HOS1xblYxVHBVUUdDLUVxR1hCa0h3dTBHeEE,English,,5,2014-11-12,Tuhin Tusar,Great,It help me to be active with my blog when I'm on the go.,,
WordPress,Google Play,org.wordpress.android,Z3A6QU9xcFRPRnEyU1l1cG9Fa1BUblZMakZ1eUxQNDB2cGUtbVYyR3pMSW5NSmJneWNzNlEzMmZJSmc3NlU2bHp3Vkw4ZTBrUm1CeVZZNjZPSkxBelFqWnc,English,,5,2014-11-12,Mtalimon Alimon,Good,Excellent,,
WordPress,Google Play,org.wordpress.android,Z3A6QU9xcFRPRTRiYkNIOHRKLTBrY3ZMTGtjNWk4Q3VYcEdpQVcwTUxKNWJIV01IcWNvQmd4eU8tWTVIb1NBNEh0UmVLTERQMDZCa1Z2b0h6cDVrMTRRZ2c,English,,1,2014-11-12,Gie Margondes,Couldn't loggin to my selfhosted site,Wasted,,
WordPress,Google Play,org.wordpress.android,Z3A6QU9xcFRPRXd4ZkJlWXEzYm96Q3RNM3JiTkx5WHlTc3J3akZlcktqV0VzNWY5M3lLT2dPNjk0TXZYXzYySVlSakN3My1TcTZsS0ZpUGxEVWNxM3B3RWc,English,,5,2014-11-12,Naman Goyal,Nice,Wow,,
WordPress,Google Play,org.wordpress.android,Z3A6QU9xcFRPRWtKSHl5U3pHTkNmc1BhZWtyXy1aZGJGSHR3aV93ZVlKZ3Jyblo0TW5YeG5QNjh0ajBkZmNUQlRIdVhnc3hPTzB3Z19LNHF6ZWlYeDFvTGc,English,,1,2014-11-11,giordano bruno,cant use,"tried ...tried again with better gear, now im shut out... user name exists, cant find username.... that old crock",,
WordPress,Google Play,org.wordpress.android,Z3A6QU9xcFRPR1R2SFJLUkRjTUF6cUxDSkJJTlhFTmpFT1JIMFMzSzJLZjdkanBPZHYxXzZSUUtldmZtZ0ZsV3liUzNQdHZPNDcwTGdzVlRJbXh2b2RCamc,English,,5,2014-11-11,Abul Bashar,"",Mlraj,,
WordPress,Google Play,org.wordpress.android,Z3A6QU9xcFRPRkJUOUtMak12aXdtMFhLazI5ckJQV3ViSTRDRU5mQ2E2bTAxUW12eHhVd012RGZpQTlHTmNDY0JLVzh6QVZYX3dMR3pxb1pvSVBzOXd2ekE,English,,5,2014-11-11,Rajesh Sawant,Rajesh Sawant,Good for mobile,,
WordPress,Google Play,org.wordpress.android,Z3A6QU9xcFRPRVptWkVSM0t3STNFeXZobmJBU3c2OXVUOGhyVEZISUVzdWNqOGhtS25sazhDSDZZMDVZZGtScVhxa2xwUEtMMG9QNk9nRGF4RTZxLWhWSVE,English,,2,2014-11-10,Aquarian Philosophy,"",I love word press but detest this app and yet need to use it at times. Fix the mobile version of sites first and foremost then I'll rate higher...,,
WordPress,Google Play,org.wordpress.android,Z3A6QU9xcFRPRXJPWHRRZDJhbWFJT1FLTFN1b0JOckI4UE5jMkFIamFvQ0FPYlNyMEs1MEN1SEhiUTBNNXBDM29qcDFWZ0lMeDlZYzEtYkpDalVTN2pkVGc,English,,5,2014-11-10,Zandrea Java,Love it,"Omg,nicmd application",,
WordPress,Google Play,org.wordpress.android,Z3A6QU9xcFRPR3BxUmt4V0hLMmN5WkgwTFJ3YldBRWdjeW9aWEZja2ZESWc4bmE3aDZvOVhuelZkcEozZW1iQXQ3M2Z0T0IzVVhyTzB1R3Z0bDRiM1QwakE,English,,4,2014-11-10,suhila sadah,"",Memudahkan kerja nak kemaskini blog,,
WordPress,Google Play,org.wordpress.android,Z3A6QU9xcFRPSGJtQUJqR2NNRnk2NkYxNWdPSjlMcUN3SWFGT2hGR3FOU3JPekQ3Tzg3U3hRWUF6V01qSnR2UXFyV3l1SmpJbE1paF93MDlIbzZHcEM5MXc,English,,3,2014-11-10,Nino Frewat,Improve the reader,The reader is very very slow to load,,
WordPress,Google Play,org.wordpress.android,Z3A6QU9xcFRPSGc2RjZMSTk1bGJPYnhpaGZkbXVHbm9zLXpXbGg2djV3STJQZFY5dXJmSTNfcFVQTEt4M01XMUFIRThpcFJ2aFI2Q0pMX0xJdlVVOFZkZUE,English,,5,2014-11-10,Kay Burnett,WordPress,Love the app,,
WordPress,Google Play,org.wordpress.android,Z3A6QU9xcFRPRVhpdU1nM1VMc2wxQmllT2VXV3I0UmlUMEloYTEzSVF3ZWs1N1o2eGpMUXBpQTlmMUZQVTFaODh5LWJJYUloWUxxcDRDdjkyVTFkZTRfTEE,English,,5,2014-11-10,Neeraj Dubey,"",A.......w..........e..........s......o......m........e,,
WordPress,Google Play,org.wordpress.android,Z3A6QU9xcFRPR2ZKeG0wZlhyVUZOdkhRRFNHa3BEQ0tMXzM2MTJXWUhLWHgzTmlmY25rSVhWa1ZLa3NQcWxhODF5Z19jbExZR3R4RUhFREV6eG4xaDN4bnc,English,,5,2014-11-10,Govind Bhanushali,Great app,I love it,,
WordPress,Google Play,org.wordpress.android,Z3A6QU9xcFRPSDdVOHVEM3Vsc2hfVTRmNy1FbGY5OFZDTmo4NThOVE8wQ1Z1dmVLZkpGRnJ3XzJUM2lKRmppWFlPLUlPenNjZHR4cWRHb0ozVU1nOTVTQWc,English,,3,2014-11-09,Fahad Anik,"",its good,,
WordPress,Google Play,org.wordpress.android,bGc6QU9xcFRPRzN1aTIxVEMwbzdZS0Y3c3pkbERwSlI2ZHNNRDZxUmRaTUtJOVBDSC1VSWpQN2JKYWswOW5HUWo2VGFPSkJiaEE0ZDBMV19MUlhOcHpfZlE,English,,3,2014-11-09,A Google User,ট,ভালো কাজ,,
WordPress,Google Play,org.wordpress.android,Z3A6QU9xcFRPSDRrWWR1RlhSN21yOXJmZWxiblVrRWRsYTZhamFqVUhRbkdLVUgwT05CMUJxd0JnMGZmTVBONTF0LS1xN25jWVNOSGlta2tMMExmTnYxZmc,English,,5,2014-11-09,santhya dini,good,easy use,,
WordPress,Google Play,org.wordpress.android,Z3A6QU9xcFRPRzlITVJiejZUWFJZbnh4Qi1YaTR5UGJwaGE5VTJheVV0UGhRRkZVbDViM2JiS0RzTVVUcWhVV0tpYUUtX2RMQzNJXzNtSUtUSlFnNFQwZEE,English,,3,2014-11-09,Jennifer Hankin,Great app with some awkward features,"This app is really good for writing posts on the go/ staying up to date with stats. To truly be a 5 star app, I think an upload bar should be added to posts/photos and videos that you're uploading. It's also awkward to upload a post once it's become a local draft. Edit: an upload progress bar is really necessary for the uploading of posts.",,
WordPress,Google Play,org.wordpress.android,Z3A6QU9xcFRPRUplNjdpWk5NdDdhSXZxVXZZV3E2dHFuREVwYkRkd3pUQ044U0YteWpXSTZYN0tKS09pUUJSOFJCN1JQcjVEQVdGQ3ZCR0lMemRhaFJIWHc,English,,5,2014-11-09,Girdhari Lal Jangu,Jangu,I like it,,
WordPress,Google Play,org.wordpress.android,Z3A6QU9xcFRPSEVhVGF3S3FlazR1SUVOX1BCaWZRRlVVZmVKeHRqNWlLc1lDTGE1MWZPU1E5OXZXQmdUWlRQZ3ZoWWFfTUtfaThSeVNoekIxREpUejRnZ3c,English,,3,2014-11-08,Abdul waroinge,Abdul waroinge,I love it its the coolest app i have ever instilled,,
WordPress,Google Play,org.wordpress.android,Z3A6QU9xcFRPSFh2Y2lpRENOZ1dreTZwN1hpNkpYVXBiVXVQMXRBcjlyYlZxQVptN2xCZGM4UV82YUZoeEVXQk96dUJVVHA4WS01T2RwaHFRSy0tNUx2MkE,English,,2,2014-11-08,Sharon Gan,Uploading issues,"Takes a really long time, like two days, to upload a short post with two images. Drains my phone battery and slows everything down. Making local changes and then updating a post is next to impossible. it just never uploads.  I have to use my laptop to get that done. what happened? It wasn't so slow and inefficient before. It took barely minutes to upload posts just a few months ago. Please fix it.",,
WordPress,Google Play,org.wordpress.android,Z3A6QU9xcFRPR0tzWGhCVlRtQ2hwN2tnWmNvaFFnZ1Rfek1uNldHcmI2X1JhUUs1SGVYRmJHdG41ZXZhUVZsVFUtQXpBdjZHNnJmMF9aLWJPTjk0VTJ3b0E,English,,5,2014-11-07,mahesh mp,I,Like,,
WordPress,Google Play,org.wordpress.android,Z3A6QU9xcFRPR0tYdlBTZjRRNG4yR0Z4TXdaM09CWWRLeERTVUJZNThBejBkY25VWGhxMTQ3VnBMWXEtbU1jQU1mX3RaRmE2MmxVbS1xWjMxbXN1YXpjRnc,English,,4,2014-11-07,Mohd Kamil Vakil,"",++1 to app,,
WordPress,Google Play,org.wordpress.android,Z3A6QU9xcFRPRTdtMXBUb21BV2NvalM0SFZvMFoxRVJiQjRaV0k2dmhpbV83YlBIVlBWUG1kUFdZal8yT0ZleW03SGdyQlZjT083OUpwU1MwLXE2QndCVmc,English,,1,2014-11-06,Ashlee Cadwell,"",Won't connect to wordpress,,
WordPress,Google Play,org.wordpress.android,Z3A6QU9xcFRPRWxELU9sTTZHcVZWZllvc0NGc0JZWmpzRWFDcy02QkxOUmFEWWdETFVFUDlxTFBNdTJSOTRzNnVwS0hSaE9ZSTdreHRIazVfRk9hc2N3a1E,English,,5,2014-11-06,Ayodeji Balogun,"",Weldone guys,,
WordPress,Google Play,org.wordpress.android,Z3A6QU9xcFRPSDFoWDN1a0FIZlc0eVBpV1hhbDNhcmgyTTVxUWU3SWtvVl9xYWVXZVBiNUwtd3lSbUFkS1Jwd0xFWFBESkQ2Uy1vS0dBUlN5QjJzVGlRWmc,English,,4,2014-11-06,larry mintz,"","Love the password protection. It has one bug: if you use one password for more than one post, all those particular posts will be readable. Please fix this bug.",,
WordPress,Google Play,org.wordpress.android,Z3A6QU9xcFRPSFFVN2pIOXh4Q3M5enJlSGlndHBKS2k0eldHS0lZbVRKc0dFeWlrejBoaW9lWnlLQWNCczBPTzZqTE4xV1NiQnI0VlljYUNXdnd2Y3pzZHc,English,,2,2014-11-06,Katie Pippin,Buggy,Haven't been able to upload posts for a month or so. Will spend an indefinite amount of time uploading (even for really simple posts with minimal photos!) and eventually save as a local draft. Had a very long and intricate post save and upload as completely blank-aargh! Please fix.,,
WordPress,Google Play,org.wordpress.android,Z3A6QU9xcFRPRU5aYklWbi1taGZiYVd1MEpsRzJXRktNS2I5N0lLXzhCRFAwMml4Z0hnNFJ0WDBwRUp1TXFxVVJESG9iaTRqNG1uNWZwcE5qaTZMQWU4N0E,English,,1,2014-11-06,Radu Sandovici,Posts couldn' be refreshed...,I hate it when I get this error. FIX IT!,,
WordPress,Google Play,org.wordpress.android,Z3A6QU9xcFRPRTRRUkJCNXo5NzR1ci1xU21qa3RWNThKczJNUEotQTZMbHQ0aXlkcE00elpQd0Rma1k1R1BVN1hId2VoVnJuWFNMTTNkdVZud25rdTduZXc,English,,3,2014-11-06,Mary-Joye Louw,"","One big complaint. One cannot copy and paste a URL into a message, one has the use the Google, Chrome and Firefox browser apps for that !!!",,
WordPress,Google Play,org.wordpress.android,Z3A6QU9xcFRPRUk5aXliVThoWWpsbUx2VDJVTmdjaTlGT1pXbDFxSWVqRHBiX2ROamtRZWhXamFBSzc0OHZwa241VTJtcGNEdWlkVGNPb3NsUzgzT29kc1E,English,,5,2014-11-06,Narmaada R Das,KMFCause1,"In one word, Awasome. Love \u0026amp; Blessings, Acharyaa Narmaadaa.",,
WordPress,Google Play,org.wordpress.android,Z3A6QU9xcFRPSFRBcnU5NkFkd1A2b04wQkhIcXVxaTFkZjRjOGctTy1ybWRUQkpCQ2VsN0I5dFpaVzBaVjl5Nk9mYk0zQy1RVjdLcjJRZy0wN29DVmpPVmc,English,,5,2014-11-06,Zarief santaria,Need numbering,Where is the numbering and bullet? I really need these features. Could you please consider to add them...,,
WordPress,Google Play,org.wordpress.android,Z3A6QU9xcFRPRTVqSk1JX1Rlc1pielBiUmpqaDVoWUU4QTRteGFncFUxU2lHdzVlenhzT25jc3dZU0RGTmgxRVpVaFd2dEREMVozTnpVdHQwVnBibzdMeVE,English,,1,2014-11-06,Melissa Orr,Blacklisted me?,"I tried logging into my WP site, once, using this app while on my home wifi but it couldn't connect. Now my home network is not allowed to load the page at all, from any browser from any device. The server doesn't respond to my IPs request to view the page. I can only load the site using other networks so I have to go to a friend's place or public wifi. I tried using the app to log on using my mobile data and now my mobile IP is blocked too. Very troublesome. I've contacted support.",,
WordPress,Google Play,org.wordpress.android,Z3A6QU9xcFRPRTJNcmE2ZzI2SnpZa1MwUjkzMGQ2YjBJcDFfc0h3SE9VNHh5andmRWIxTGtmR3BLXzVjZUYzbGJTdW01cGhPenNWb2k4VjZLSTBjTVAyNUE,English,,4,2014-11-05,khnat horn,"",Good,,
WordPress,Google Play,org.wordpress.android,Z3A6QU9xcFRPR2plYzJaMHNmQ3oteXlQaGMteTNFSDJYNjB4cURCMUNzVFdYcFhWSm81eXprRXpNeTlHQzdJdmc1QmZkOEN0WkloRHZKMUVGUUF3VEo3S2c,English,,3,2014-11-05,MAI Rony,"",Good,,
WordPress,Google Play,org.wordpress.android,Z3A6QU9xcFRPSGV4QTFkZUJoeDJTY2lQU2ZEUjdkWTFxNjNKcGVmWmI2cEtWMndhSFJlcVRFVUZHTThtbWkxc1JtMHZTclV4U2d0Y18zUS1Gcmd4bmtOS1E,English,,5,2014-11-05,Henry Orozco,Muy buena,Excelente,,
WordPress,Google Play,org.wordpress.android,Z3A6QU9xcFRPR05UQk4wLXpiNEd2UHZTRmJOVVlEYjZXZ1RYTUNDQVFzTklqbGloYksySkNvdDZFUkd1SlgweFVKclJkOWlKZUdfU0dEcFMtTkhocXBjbkE,English,,5,2014-11-05,Ankush Sharma,WordPress,It's easier,,
WordPress,Google Play,org.wordpress.android,Z3A6QU9xcFRPSG9DMjQ3R0psbVQ1VXlPUTVpSnJza3dHS2ozdGZpbGNMdjZyNER5dUNNYk5HWTMtMEQ5eUVCalNCUDRSbXg4VmJzbmJjWG9GTElGYVJpQ3c,English,,4,2014-11-05,dave tulk,"",Cool,,
WordPress,Google Play,org.wordpress.android,Z3A6QU9xcFRPSFNJbEFuTWttZURQZ2Y3OEtaWWljR3g1VXN5RmpGZkU3Wk9ENnBmVmFIcXVaNWVzZGc5RDljTnRzeDFzZWhzb25WNlNRcmwzVEtNMkIxM0E,English,,5,2014-11-05,Ansari ansu,"",Super,,
WordPress,Google Play,org.wordpress.android,Z3A6QU9xcFRPRU5SVFhRY0N1ZjF2X1R1NWlnQlVlU2VlMzhXTUpBbXd5RGlKbHc5SWc5cllEd0Y1TDdXWm01VUhSMENRSy1oYk5OVUxyV1RFQjd1bTFDS1E,English,,5,2014-11-05,Sargam Gupta,Nice App,Helps me to make posts on blog in an easy way,,
WordPress,Google Play,org.wordpress.android,Z3A6QU9xcFRPR1NtUXJiNVBnZWc0VDVKX0E5Yl82OVNuNjRPVi1CeU1YZVo1bC1PSTI4dGVEWV9falpLX0dIMWJuOTFGclIwcl81X0VPaEFxSnFUZDYxRXc,English,,1,2014-11-05,Andy Chih,Worse even after update,"In the previous version you could still refresh the reader to get new posts, Now? I keep having to clear data and re-login to get them. Great!",,
WordPress,Google Play,org.wordpress.android,Z3A6QU9xcFRPRnNRM29EbjgtQ0V5TTZhTHVISTlMN3Z1YWtMSHk4eXBlWVphYTc1NUNlRHNSVjBmNFhrQWg2NURGQjlMQkJqY1M5UEdYX0JtZGFsMWpwYnc,English,,5,2014-11-05,Linell Faye Celiz,In love with this app,"I so love this app that I might bring it to vegas and marry it!! Hahah, an idea from Gus  :D",,
WordPress,Google Play,org.wordpress.android,Z3A6QU9xcFRPSEFZODVPOWdhVkhxR1c2MEUyQ2EySExFRDRMNE1pcU83WHZzYlAwejhyaVpETzN4U29kcWlEbnZQTWxSdUJZNzVBeEVDNHk0X19vaEFoMXc,English,,5,2014-11-04,gumzo habari,WP,Good App,,
WordPress,Google Play,org.wordpress.android,Z3A6QU9xcFRPRk91d1IyN0dwZnQ3bUxHOXhwbC00VngzZzZXZWR2LThuZXB0bVlRRWhEU2k0MF9fYUJsZHFmLWIzSWpaWFhQdkxGZHhjQmFpYlAwLThlQmc,English,,5,2014-11-04,Faith Sashah Halima,It's amazing,A transformation app. I like it. It makes you think about something new...thus it promotes creativity. its also a great app,,
WordPress,Google Play,org.wordpress.android,Z3A6QU9xcFRPR2RtbzFaUlJnUkl6WUFpemNvUkxGU1ducGZNWHRtUFVBRmVnaDJ1dENiekp5VGRyMWpxR1A3Y3N5dldubFY5VlZzRUQ0TjRFT0U0Mzlqd2c,English,,5,2014-11-04,Jevin Menezes,"",Blogging I loved with WordPress. WordPress the best blogging niche for all upcoming \u0026amp; great bloggers.,,
WordPress,Google Play,org.wordpress.android,Z3A6QU9xcFRPSDczZGVKNlJram1OQUhmNW5jWVhLQWZOV2l4Q084aGppMzZxeUhVX0g5YVZzaGlKYjU3RFJzR1doVDZ5UDFzcEk5aUJ1TkplQVZJUXhrLXc,English,,5,2014-11-04,Liam Green,Awesome,This app is awesome for go on go or if you don't have access to a computer ...,,
WordPress,Google Play,org.wordpress.android,Z3A6QU9xcFRPRTBTcTJCcGFVZ0VuWUVTVjZXQldOTkRIQVRBZHM0V3BIZDgzaXk1dHdMd0I2ZUwyWXdaRWhkeDhKYi1SUHVyY1h6eUpSYk45TnNTN3c0WVE,English,,2,2014-11-04,Zenny Qodariyah,"",I liked it to share my own streak to the world!,,
WordPress,Google Play,org.wordpress.android,bGc6QU9xcFRPR2x4azRMRzhUeXlyRHpnd2g5dFQ0amt1U295UVlRMW1JX0UySjRrTjNkb3N0LWlJRlktODlpSTBqV3hESkdqRnVnR2x1dlhYYjVLbm1JX2c,English,,2,2014-11-04,A Google User,It's junk,"Official Wordpress app just doesn't justify the tag 'official'. Doesn't work at all, it takes forever to upload a simple post with less than 100 words and one single image. On top of it, my phone stops responding. Please fix it and make it live up to the expectations.",,
WordPress,Google Play,org.wordpress.android,Z3A6QU9xcFRPRk9Zeng3UVZXSkdNNjlFdkxsdzJoWkdwYjYxLWVqd0E1MlkzZUpKMEV3VW9ZMlAxVVdNWVF2aTlfUS1OcVBMNWxlVHFWalYzM2pIeXV6TlE,English,,5,2014-11-04,Hirak Mehta,Does what it says,Best app can do almost everything that i can do by logging in WordPress from my pc. Only thing to improve is SEO,,
WordPress,Google Play,org.wordpress.android,Z3A6QU9xcFRPRlJ1NUY4NUdubUhpTUtjNXZNV3JYQm5obzFyZmI4UHhIY2k5Q2g2YzlDeVJybWM3SWYwbTViQTNsem12a1d4QkhIay11T2F5c2JJdWtyNnc,English,,3,2014-11-03,ilyas deraiya,Nice App,But one thing you need to add is SEO tools and meta description option.. Once you add this the app is 10/5... :)  Please add SEO tools for self hosting sites,,
WordPress,Google Play,org.wordpress.android,Z3A6QU9xcFRPRUdOTzdYYmd0bk1KYk9zelBWV3FzXzBkd21EZ1BCWGdwbkNOUFdNS3N6WDBWTnZqSGdMQllfWUd6TzlNVnpQemZELUUybjlHdU8xb1hGMFE,English,,4,2014-11-03,Sunny Bongiri,Awesome App,"But one main thing is missing please add SEO tools, meta description etc at time of posting a post in self hosted website.. Please add this option also... Thank you",,
WordPress,Google Play,org.wordpress.android,Z3A6QU9xcFRPRkx6QkJDbFJVTFhZdTdmQktCZW1nanZXcjJYc2tYSjlncFdYa2pJVTdqdnBIVTVQQjdiaXc3cDhLYmcwcHZ0TWx6NVNrMG5ZZ25YS2lOZnc,English,,5,2014-11-03,Desh Primik,I like word press,I am proudly like WordPress.,,
WordPress,Google Play,org.wordpress.android,Z3A6QU9xcFRPRUI5MDZQelBLVlVmTUUzYzRNTzkxcE53Z1FqSmR3MFlyaFFDdVpzTzRveXZVbC15eEJHNzJadF9pRWlZeml3QVpsSUhhRTVGNDQxeUpOclE,English,,2,2014-11-02,Matthew Pinto,Could be great,"Uploads are working better, but the new live progress bar in notifications cripples my phone. Something ain't right.",,
WordPress,Google Play,org.wordpress.android,Z3A6QU9xcFRPR3U5Vks5Q08yQnBrOTZrSlNKazVxQk5zNmVoV05wbXlWczd2VFJyeEk4d3E5ajBRZDhpX1lsZTNaZ2lxNmlvVUh4QlUxNHVTMXMxSnpVZXc,English,,1,2014-11-02,Michael Helmick,Worse than using firefox,My full installed editor replaced with a limited functional one. Side menu slides around and hard to select something. My post list is a long string of characters. Really shocked that this app made for wordpress does not beat my Firefox browser. On android slate hp pro 8. uninstalled.,,
WordPress,Google Play,org.wordpress.android,Z3A6QU9xcFRPRm42LWsxQ1p5Q0g2Qm1CMzVScEF5Q3UzYUlINjNwckJRTHA2UkFZQUR4ZzFYaUVnZlY3d2IxN19hRWV4cHVNUGVWQWd1cVNRSjg4TmlBV0E,English,,4,2014-11-02,Pave Chicago,Pb,Works,,
WordPress,Google Play,org.wordpress.android,Z3A6QU9xcFRPR2VqblZ3clpFVnE3a1RXN0xWMExTMVRmdTlmX3VEVUtDc1Y4ei1PV05sMks0TG1SNlMtSk9ONGpuTW04MUdyd2VxRzQzRndaa1hWMjEyN0E,English,,1,2014-11-02,Paleo Irish,Tried it twice,I uninstalled this app some months ago out of frustration and decided to try it again. I manage a self hosted WordPress site and this time around I could not even log in using the correct login details. What's up with this app? Using a Samsung S3. I use the mobile wp site instead of this app. Also lack of response to bad reviews is not helpful - help us solve the issues and get 5 stars.,,
WordPress,Google Play,org.wordpress.android,Z3A6QU9xcFRPRVdBZ0NESG1VSmJFOUdRNDdrbm1mSVNpZDV1UEcyWWwxNWxPUk9vMHhoa1MxaE9KbXZ2QThZejZpQmJLVDVEOXdwOUZ4MldyRWRqOUxVZlE,English,,2,2014-11-01,Tony Bonanno,Still Anti-Android,Tyddies to wordpress,,
WordPress,Google Play,org.wordpress.android,Z3A6QU9xcFRPR1hRN2kzYVZSbVhFbDM3LVQyY3VJempSVUhxTmVVMjlsZ3hZZ19uTDVIQ2NvdDVkQWJtRTdhZVQzUkRYYUV2VmtzdGtGLVVzUDhzMTNVd3c,English,,5,2014-11-01,mukisa joseph,nice,best of all apps,,
WordPress,Google Play,org.wordpress.android,Z3A6QU9xcFRPRWFZeDIwRHd5TVg3WTBhN1ppYjdUVmttQ2hWajdXS1p6Tmx0czhVeE45WE5mSjV4N0FQTC00VUtYQnVfRUJVT0oxdmlLX2t4RU15VjFhMEE,English,,2,2014-11-01,aditya gulati,Confusing settings,"Can't update my Gravatar. The""upload"" option is unresponsive. I think it's only desingned for a computer.",,
WordPress,Google Play,org.wordpress.android,Z3A6QU9xcFRPRkRQWktGS3J0ZmRhVnFGeEp4cExUN2EwNl91UldfaUtCM2xveHZVN1VHaUpwN2dDNEEzTjNtTXFlYl8yXzNjSkVjTzRaX19jcXRkS242T3c,English,,5,2014-11-01,Chester sufry,Hehe,I just download this app and i think its ok la,,
WordPress,Google Play,org.wordpress.android,Z3A6QU9xcFRPR0hkUFlBaXFCb0tSYU1DOE44TXJ4SHFTTGFEOC1MOThpclE2WTNDTWt1Zmh3ZTdQcWFvX21sRFNKd2xUR0VHNkgtdVNhXzVGcEw2S2Jpemc,English,,5,2014-11-01,syed hassan,Like it.,Your wp website is now manageable from your mobile..,,
WordPress,Google Play,org.wordpress.android,Z3A6QU9xcFRPRUwtZ3JBQlVyb2NJVVFySVFILXZXMl9YMXNWbVczOFM3RXQ0Zzk0VTNQd1N4d2dxcW8weUg4S3hXdDMwQzFSc2lNMWwtVEpqRkhFSW52NEE,English,,5,2014-11-01,erwin andreas,Great App,"I just loved it. This app have many functions that help me to write, edit and publish into my blog. Every single thing in this app works good.",,
WordPress,Google Play,org.wordpress.android,Z3A6QU9xcFRPR214cnpja09neWJuOXdOWVc0dkZfNGFHVE9IYWdEWnFyN0RzLUVueW94RVRaYjdYb3p2blhfY2t4VDhzVlB2X05qQS1wQmFHN0RoU2NpbEE,English,,5,2014-11-01,larry gates,Great app,"As a writer, I depend on a social program that has everything I need to edit and distribute my work. But since this update i cant turn off the underline and it keeps switching to swipe",,
WordPress,Google Play,org.wordpress.android,Z3A6QU9xcFRPSDF2Mm5FN0l4aExRSTYyN2N5VmdBZHJpaXRCRUFYMnRYQXdTaUQxNkpUMU1VNmpsSTVGVFZwcmZpMEZXUnVvakFHZnNlUHZSdWZnQ1Y5LXc,English,,4,2014-11-01,Ali mamzy,Hmmmm,very effective for gossip,,
WordPress,Google Play,org.wordpress.android,Z3A6QU9xcFRPRjF2UjhwNVJfd3JPR0ZIX1E4Q0Q4VXRuc1Z6eEw1WUJlclkzMmRfaGI1eGxkM2JaNnh3WHI2OHNBT0xFM2pOM045dGp2REx3VHFxR3dnYnc,English,,2,2014-10-31,Aurelie Chan,Mobile web \u0026amp;gt; app,"The mobile web version of WordPress is much better then the app itself. I can see our different categories: pending, pending, drafts, etc much better than in the app itself.",,
WordPress,Google Play,org.wordpress.android,Z3A6QU9xcFRPSDJoODFKdGU5cmNHTS1RN2FGdEZWUUl0TTV4a090TDRuRVVfYVhXSVlNamxHNlBtMFNMWXFnRWpmUU91XzgzODVEZXROVFRoVWN0YWU1T1E,English,,2,2014-10-31,Kite Lee,So annoyed with this app,It's not refreshing on my phone or the Ipad... 5 blogs and each are listed at least 22 times..  So annoyed... Uninstalled!!!!,,
WordPress,Google Play,org.wordpress.android,Z3A6QU9xcFRPRXhuN05oX0RGYy10aUVDdllNOUdpTGJDWFVKTTUwYW85bHB0RGhoczgwcGJLbEtpWlJVa095a0M0S2FKanV0V1Z6MzJ4V1d4VlNKMTJ3dUE,English,,5,2014-10-31,Rafael Ridwan,really love it,"I can write anytime anywhere, thx wordpress",,
WordPress,Google Play,org.wordpress.android,Z3A6QU9xcFRPRkowY1pyODE2MWVVdmlZbE55azRaSUw4Tk5XT3c4dWdoNExfMHgzTGlsUUF0dDk3bGpoa2QzQnhxeWd0X1RhRkw2V2xGYzhsM1FzZEk4SVE,English,,2,2014-10-30,ryan bauman,"",Can't erase comments,,
WordPress,Google Play,org.wordpress.android,Z3A6QU9xcFRPSHdzaGxDX3hiclM0YmNtdkI4d0tFRVNkTHpnZGRJaUNIdE9tZlU3MTR2bG91OGVzeXliN2FrRHc4S0VKNC1NdzExUWhybkdRS0pKcG83YkE,English,,1,2014-10-30,Aireena Morillo,Sucks,"I tried to publised twice, all gone. It cant be seen on site itself.",,
WordPress,Google Play,org.wordpress.android,Z3A6QU9xcFRPSGxPYlpLbnAzeWFUMzRNdHlLckV3WDI2Qk9hWnRkLXRJaUNsamFHUWtMSUxnWU1vb25LREZtQ3FYaXR1RnJGaUFYTUIzcGRpaS15WW8tMEE,English,,5,2014-10-30,Dr Nikola Milic,"",Great aplication! My web is now easy to manage.,,
WordPress,Google Play,org.wordpress.android,Z3A6QU9xcFRPR3lnU1pOWGNCWlg2UjJad0hwU1VlMWxqMVVGcjRnMkdLcEJLVl9SdHdxbE9GWmpyQ0QxbWJVdXh3WW9aa211UDZnZHN2VFRqUHNoUlA4X0E,English,,1,2014-10-30,manish gulia,Featured image,Where is my featured image gone after i published my post ? I tick on use image as featured image but that was not showing on  my website. It happens again n again,,
WordPress,Google Play,org.wordpress.android,Z3A6QU9xcFRPR1NvNFZDMmVXUVQ0M0k2TmpyQkZNRG1kNmgyamttOEdtUFNBMGJSWlFFSFRfQjJuNzBBWnRNNUZoT3k2RnA3UlZ2UDFQc3lkTlhVU1lCUlE,English,,5,2014-10-30,han su Yin,Yah,Wordpress - simply the best.,,
WordPress,Google Play,org.wordpress.android,Z3A6QU9xcFRPRkg5WjVWOE1EdDRzTGhVdUVXWklMbEZ0Y3Q0SXFnTEhxbXBZZXZZMnYyR1A1M2xMdlJ2Njc0WkYwcGRLQ3prVFotRVIxb25XU2ZqazFGc3c,English,,5,2014-10-30,King Ansari,Browsing,Its good for progress,,
WordPress,Google Play,org.wordpress.android,Z3A6QU9xcFRPRU9BVDZQdTF1LWIxRllQcENrVFpONWVLanNDR2VGcmJ0U2phamJnR01IaFdxeTJaU2UwVnJaSDRNYzJtU003OUR0TlZPV1ViU1FNbGcxR0E,English,,1,2014-10-30,Faith Carr,What happened?,"Used to work great. Now with this NEW update, pics don't show up on posts. Gone from lovin' it to HATING IT!",,
WordPress,Google Play,org.wordpress.android,Z3A6QU9xcFRPRURVcy1LRHNWQkw4eGFBT0VvdTRRU1FsSjBCaTV6YkdHOVJycnI1TWVFOTdUOGktMnZOOVNwU0t2dFMyeUdZaWgyd3hTcTdHeTY2Ukl4MkE,English,,2,2014-10-30,xSAKUxX,Crashs after update,"I just wrote an blog entry for more than 1 hour. Then the app crashed and everything was gone!! I wrote it again and in the middle of writing it crashed again. Everything gone again!! This didn't happen before the last update! And sometimes when I want to upload a photo into the entry it says ""data can't be retrieved"". When I try again and again it works at some time... I'm very annoyed!",,
WordPress,Google Play,org.wordpress.android,Z3A6QU9xcFRPRVctX1JBLUlJS0tFN29jYWtzX1lWSi00SElkbTNQNTJCQ244YW9iRWg5cHB6enkwTUlBWVJBVURDZE92bHVJX29fWjBNZW4wWXoyY2ZFREE,English,,4,2014-10-30,Azubuike Ikedionu,Getting better by the day,"Ok, the app is now improved like it used to be at first and am loving it again unlike months ago when it turned to crap app...",,
WordPress,Google Play,org.wordpress.android,Z3A6QU9xcFRPRk5ScDd5d016cnM3bjFURTZRSDI2OHlXSGRKcE9PVDEyUTFONmxZRUdBTHJJZmJYeDgybk1uZnFpNVJfU0sxUTFES2tmcUpUTGVLb0lTRlE,English,,1,2014-10-29,Charlie Taylor,Aggravating,"I previously talked about how ""Posts can't be refreshed at this time"" aggravates me. But this is a whole new level of grade A bull. I try to log in and you can't even get onto the WordPress site? What is this BS?! COME ON",,
WordPress,Google Play,org.wordpress.android,Z3A6QU9xcFRPRWhVamxlNDMxV2haUVZkS3BZdExwZmNxSUhtUmYydzFJWl9pYTFEbzQ2elJjV1lmUzM1U1BRdzR6NUE5SFZPTU5kV0xlblM3eG1wS2trRmc,English,,4,2014-10-29,jawahar pimpare,:::List of missing things:::,1) Unable to add alt tag to image. 2) No support for meta keywords 3) No plugin support 4) Cannot use all heading tags. 5) No font formatting options,,
WordPress,Google Play,org.wordpress.android,Z3A6QU9xcFRPRzAyTGdOQmpMTU5LemhIc0h4MXdMTjd0eVZMSEtiMzdNaGJVTXpDa0ZCWnJwYm9xdmNyNm5XSDhYNmpZQTFPa3YyRWhwYTdobFZWVEZkNGc,English,,3,2014-10-29,Thoyib Antarnusa,Not enough,"For quick posting, this app is pretty good. But to format the post, this app is still not good enough. I hope this app will have more feature like the pc has.",,
WordPress,Google Play,org.wordpress.android,Z3A6QU9xcFRPRkhoei0xUDVETlQ0UlJsMll0Q2xETWtzX0tQYnFlZ05ubm1lUG5uM0x4cUZBWWktOVVVVHlrY3RLMFlrdDQtdDViSlFRdF9ZdFNtY1hGREE,English,,5,2014-10-29,Sandeep Sadh,"",Need a feature that we can select featured pic,,
WordPress,Google Play,org.wordpress.android,Z3A6QU9xcFRPR3hWSVFzcWVEcUF0SmtPZUlucEFBSy1ISWVzNW9NNmJYcWM1TTJqaVJkdkUtTUh2ZWhSbXZ6NHIwMEM0UVIyb0JsWWlCTHZxN1VMa00zaGc,English,,5,2014-10-29,Kevin Mcgill,Speaking publicy,Blog,,
WordPress,Google Play,org.wordpress.android,Z3A6QU9xcFRPRjlKN1h2dEpXUTZwcHRXVllPLURrMDJ5OUszQkhnOW9sdjh4WEJyT0d1VFJHVTktOXVuWkwxS2VIcVdtMXdCS3YwWjJZTFpDV1RoeTFDLVE,English,,5,2014-10-29,Emir Emir,"","More options like on web, change featured image, media libary search, etc...",,
WordPress,Google Play,org.wordpress.android,Z3A6QU9xcFRPSExIVEdLTmJrYWM0ZFVzb1JiRTFha2FqRE1xaGlJdWNFeTE2V2VWQmt4WDdtXzM5T19fVUZ5VHMwZm5fWkVtQVR3RnUwVDRnS203REt0TEE,English,,1,2014-10-29,sandile gumede,Featured image gone,The featured image featured has disappeared. Now i have to update again on my PC before i can publish. This has become useless again.,,
WordPress,Google Play,org.wordpress.android,Z3A6QU9xcFRPSDUwWURsYTVpZFlkWkFhbFVEelhoNnVIcUlQQXAxRnJ4c1lGaFNNRXFqeXVsYXdqQkZ4Wm5DZk4xTThDa0t5TmY2NWtLWnhhaTZ3ZEFWZ1E,English,,5,2014-10-29,lynda ezekwesili,"",Useful,,
WordPress,Google Play,org.wordpress.android,Z3A6QU9xcFRPRzU3aVBxTWh4N01kcWNfYUx1YXFhcXprTXlvS0tDTGFqbU1BUU9YcUdRLURuN25VWmxMRFBLNHRqYnZWZHJta3lPWXcwQ1B5YnhHaXpmcnc,English,,5,2014-10-29,Moayad saleh,Great app,Great app. Simple and easy to use. Very practical.,,
WordPress,Google Play,org.wordpress.android,Z3A6QU9xcFRPSGRJMk5IWEFON3VlSHg1OVRWUC00NFlTbERHN0Z5ZDAzaUdIeTZiSjNwQ1h2SHhCX0U3T2tMMEEzeEVqdTBObTM4V0xmMFFjX2lpalVXeFE,English,,5,2014-10-29,Shailendra Zade,Happy,Happy wid new updates,,
WordPress,Google Play,org.wordpress.android,Z3A6QU9xcFRPRk1MSjFyaUpsTlRhTGlHLTlFTnhVbFBiYk5CRjg2UnlnYUxYQlBoWGxQcHBBZmczZjBhY3lUaVZzZFR3RWVOb05LczFRaVFudnh6R2dUMEE,English,,5,2014-10-29,Siva Sankar,"",Nice,,
WordPress,Google Play,org.wordpress.android,Z3A6QU9xcFRPR0NQYU12SUlqVnhkSGhnY09NekxjZzdmeVcwcEEyOXRUQnMyWTNPdFJsdkhYNFB4UUV4aGlTSjdNZUNKVUlDdUJKNlpGY1NncXNCTkV0WHc,English,,5,2014-10-29,Samsababi Bailey,WordPress,I just think that it is a great service and easy to use,,
WordPress,Google Play,org.wordpress.android,Z3A6QU9xcFRPRUtuUFctUjFlTFVFN2g5bzBLOE1HR1k3OXBrYlczT0FMMExqZXd5UUpDZ0JJREUzNkQ4b0pTMGdsV3VZaGtKVnRTRlpmQjVFdU1TMXFScEE,English,,3,2014-10-29,Akshat Kumawat,Not so good,We can't do the all work on it...,,
WordPress,Google Play,org.wordpress.android,Z3A6QU9xcFRPR01kNUdrWm1DZjJ6RlR6R2cwbElTRWpqX3FWMHo0M1JhV1NRYTJmOVN0YzVqLVBDa19zTUlrYWxmY0t0ODZlMHBranhIRko0Wkdkc2Z2SUE,English,,5,2014-10-29,Özgür Fatih Ataç,User friendly,Allows me to do almost everything that I can do on my computer with ease,,
WordPress,Google Play,org.wordpress.android,Z3A6QU9xcFRPR1dPeWxubWVDY3ZTYUNMUmljVFo3NXdwdGttQVhWaFBmeXJWNC1TUTBGTS1hekl4bGVKSGlHM1Z3UUNUckp4dXRTZnhhMGQyMkVSOG1rc1E,English,,5,2014-10-29,Christen Jones,Simply excellent and elegant,Thank you for such a great and helpful app!,,
WordPress,Google Play,org.wordpress.android,Z3A6QU9xcFRPRk5sa2UxYm1hNW03Q2g4T3ZPN3k2Q2JDNGQ4Wm1RSFlfeW9Tem1xdDdyTFR5eE5LRUNMX04tQ2dXOTdhTWMyTzF0LXI2M3FGNnJ3bno4Znc,English,,4,2014-10-29,Adil Zerozeroseven,Need more user friendly!,Theme customization should be added,,
WordPress,Google Play,org.wordpress.android,Z3A6QU9xcFRPSGUtbEVQeTdaeDFyNEhTdmZ4MTRST3pOUVpObEVPOXRzRlVCRWcwQ2E5aEdtNWpWcE1SX3ltRFN2WGJubDdPbTg0YnFzTldPbkc1bjhUZXc,English,,5,2014-10-29,marlen palayad,Wordpress is awesome!,Giving it 5 stars because I can now do blogging straight to my phone..  Very easy and convenient.. :D,,
WordPress,Google Play,org.wordpress.android,Z3A6QU9xcFRPRTMxZk9mOFIxdS1YblpzcmdOTW8tOHNUTE5HclctZDJUd013U1E4RXBvbHkxa3BMVXJFa0tETy16bmE0NGV6QjFHd0ZYWVJjaE9JVGl5LXc,English,,5,2014-10-29,Ane Mailname,Great resource,"Nice app,  decent UI,  now to be able to blog on the go!",,
WordPress,Google Play,org.wordpress.android,Z3A6QU9xcFRPRXpVVmtXMEZISnNaTXlHZ0EzMFJGTGRpa0FKTjFPQ09jSUJLX1ZxUHQ5WE1uWG5vcUNtVzAwLWNyVV82S2VKaG9hRDRyOXg3a2FzQmF3VXc,English,,5,2014-10-29,Christiaan Karsten,Great App!,"This is really a great app, thanks for making it so easy to manage my blog on the go.",,
WordPress,Google Play,org.wordpress.android,Z3A6QU9xcFRPSFdEUXo1QUNzbEhiLWFrazFKNXZqOFNTdS1Ia2JvTmZob0tYdFc1U2hmRTRGd0VwT2hCSThjOWZYY0lvaXg0RlZCbnA0c1VBTWk2MG9aT1E,English,,2,2014-10-29,Murni Jamaludin,Cannot login samsung grand duos,I cannot login wordpress no matter how many times I tried.please fix it.thanks,,
WordPress,Google Play,org.wordpress.android,Z3A6QU9xcFRPR09MOXlveWhGQ0lzV1NnUm0tOTJ3Z3laSk1KY1cyT0pVR2tvUHhMYVM2QkdjSkVfektXTGFFU3FYSWxDWWxwQ2FqdWlUNk9GV1VDazJmWkE,English,,5,2014-10-28,migisha boyd,Awesome!,5 star!,,
WordPress,Google Play,org.wordpress.android,Z3A6QU9xcFRPRXhIcW9kVGZmZnpqdDhkdm9uZlc1VFlyenVEeWRUSmhrWnhzUmRZdjJYTjRPOG9PRDVUYl9iYXNHTUt1VVJpdG9ETWY4MVhZSmx3YjdlZ0E,English,,5,2014-10-28,zaw myint,"",Galaxt note3,,
WordPress,Google Play,org.wordpress.android,Z3A6QU9xcFRPSDNDRnlOUXNWNVY1N1VSVXdBU2h1cVZfUEJtQVNSSVdCWUxXUTFveER0VXZ4UTlVOXdXT1BMNXhKc0x3NFZCVUdRTUpVWmEtSGFMUkp2Smc,English,,3,2014-10-28,Wolf Hentschel,Needs Material Design face-lift.,Solid blogging app. Great support.,,
WordPress,Google Play,org.wordpress.android,Z3A6QU9xcFRPRk4tazg3d3BsWXBDS1c2c1JrQkEzZ0MxVnp6cFpMdFFNWlFuZ2YtbGhRTWhjZkJicjkxaENURXI0bXZuLXhMQmp1WHJDT1I1VmE3aEdaRGc,English,,5,2014-10-28,Cường Hà,Thanks !,That great,,
WordPress,Google Play,org.wordpress.android,Z3A6QU9xcFRPSHlJOFEtZ05hZU03eWV3bkJ1Z2hVcWlWWlNQRjdaclpnaEdudy0weF9KdXF6NUlmTEI3bHRrMUJYWDVuOFNXT0x0TU1rdWgtQUZtMGExekE,English,,5,2014-10-28,Bob Krienke,BobKrienke,Absolute Dynamite!,,
WordPress,Google Play,org.wordpress.android,Z3A6QU9xcFRPSDhvVWphekdUQ0p0a2J2YjdGcVBubk1jVE51bERqdnctLTY3TkFzR2lhRXRIa1I3OWlNbzZpRVZzVC11TGxTVlpvU2FBc19KbWhkdV9vSkE,English,,4,2014-10-28,NaGa Krishna Kanala,Cool !,Just an another review for the best site for providing better app.,,
WordPress,Google Play,org.wordpress.android,Z3A6QU9xcFRPR1BPdXZKS24xOEF4WFF4WmtRNVBtM0dOTUJrSG9nWnJORlBQTU5pdXM5MEQxWjdkQnNNTV9ZTGVJbzBqWUxxZ1RNN0d5aENEQUZnbnMycHc,English,,5,2014-10-28,Sami Ullah,"",Its really great.. i m running and tracking my biz from this app.. thanks wordpress,,
WordPress,Google Play,org.wordpress.android,Z3A6QU9xcFRPSGcyeTVqN2J0QThLTnZDNkFwdUpmSHJfYlpEZFNFYUM5ZWxubGxFQk9wYWlSSzVwNWhweFk2MWVtYWwtTnhVemFmdjNqd0xHVU91NUZBVGc,English,,4,2014-10-28,Lucila Mesa-Bustamante,"",Nice app,,
WordPress,Google Play,org.wordpress.android,Z3A6QU9xcFRPR2F6TVNySmZ1TG0zWnB5Y3RDQ2JETnQ2cFRaRE9LdS1xeVRsR1IyYnVBU3NYVDl5NXgwWThseG1rVngxWlB6YW1qWXo3S19ldTdNV09PWHc,English,,1,2014-10-27,Kon Aoki,Please fix!!,"This thing used to work but after the update , I am unable to post pictures. Gives me an error saying ""An error occurred while uploading the Post HTTP status code: 403 was returned. Forbidden"". I love the app, so please fix!!",,
WordPress,Google Play,org.wordpress.android,Z3A6QU9xcFRPRnA0RG93NjNjdWtMZUJ3NlpTb2lrU0hsMkw5Wjg3WXRfOE93Ml85bW5rYkFPbVcxNkYwUDVwUkRBWUd6UzY4VklPVkdwZTRPeXpTemU3aHc,English,,5,2014-10-27,Michael Ehling,Use it daily,"Clean, speedy, feature-filled app for posting, editing, and managing your WP-driven sites.",,
WordPress,Google Play,org.wordpress.android,Z3A6QU9xcFRPSGt4SFd2RU10bUZ0MVJLcjhCUGVaSXRzdlhkaVd2UXNEamhoLTMxOWRkbTVwWkF5OEg5Z2JNTGgwWFhrR0x3cm1RN0NtRkpvenVUUnQ2Nmc,English,,2,2014-10-27,Michael Vincent,please fix the scheduling feature,"I tried to schedule 3 posts today and they all get published immediately. What a way to mess my blogging schedule. I don't know why this is happening but I'm really really frustrated right now. At one point there was a time when the app deleted a post that I saved, and it was very long article I painstakingly wrote using a 7 inch tablet. And you know what's sad? I don't have an option but to still continue using it. Sigh...",,
WordPress,Google Play,org.wordpress.android,Z3A6QU9xcFRPR1daTGNEQy02bUpuTUpsLTZEOWxma2xlaUNkbUdxd0xKQ2RPQldLU2FmbXJnUHpLUnRiRTNjVWtaNFFZQTVEM0JKek52dHhEYWZnYmlmc1E,English,,1,2014-10-27,DAnielle Lau,very poor,it's not convenient app and has  complicated features. upgrade your system so we can use wp on mobile!,,
WordPress,Google Play,org.wordpress.android,Z3A6QU9xcFRPR050cERUSmdrU2RTbjZtRU5HbzVrVzNuckIyc3NHZWR5RnZaa1lQaHY0d3c5OHRNZ3lROFh4VkhwMUlIR2Z1QzI4YlBGalBaOWNnbmFKY1E,English,,5,2014-10-27,Aizatul Izzati,"",Trial review,,
WordPress,Google Play,org.wordpress.android,Z3A6QU9xcFRPSHZiOVZDcUNLWGZhTUgwYjJBei00aTFGdjQwZ1ByYkoyNkdtSGpRQndRVVFrYnMtUmlmUl9GdERmTmVtcjNaeENSVHlLd0FQZWpGNFF1RlE,English,,5,2014-10-27,Ranjan Kumar,"",Good blog,,
WordPress,Google Play,org.wordpress.android,Z3A6QU9xcFRPSEE1cElpQ1R2UEZ5ZDZMQzE5YXZpU0VVRXgzNldsQ3FpUkFNaXhCYmhGRUNKNk8wVmJhSGxXYUViaVZVV205U0k0QUV5aW5Vb2Jsbm9WdEE,Japanese,,5,2014-11-06,akira iwamoto,とっても便利,スマホから投稿、編集が出来るのは凄く助かります。移動中などでＰＣを開けなくても出来るのがとても良いです(^^)d☆,,
WordPress,Google Play,org.wordpress.android,Z3A6QU9xcFRPRVQ3ZXBYbjNjeVBMSE9YR3JaMTl4NERLY0pXck51T2tTdVFmdDVZeDAyZzRSRl9Ea0VMellKbzJRdjNVdHlJbm55MVlXRTFOXzRJNVhvTWc,Dutch,,5,2014-11-05,n folmer,"",Top,,
WordPress,Google Play,org.wordpress.android,Z3A6QU9xcFRPSFpaVHl5SlNTMGwtdkFhVmVjTU1OQUEyYnBjNXZnMjBiNzQyV1AyQ1pRdXNKWWltWC05bmJaV3MtR2Npc2ZwUE1wZzFfb19oNjRwRnZRMlE,Dutch,,4,2014-10-27,Michiel Doetjes,"",Vooral erg handig voor het onderweg goedkeuren van reacties.,,
WordPress,Google Play,org.wordpress.android,Z3A6QU9xcFRPSDZfRTNiTTctRDRBWF9DYW5Bc2VDSWVTaWtKRDFnY3YzX2xGZ2l5LXlHbGxzWFVidFBxNDBRTzNhVTU4S3ZqRzNPdmY5YlFWU3c3NWhFYUE,French,,2,2014-11-13,Romuald Houndji,"",Toujours des erreurs de chargement des photo et des articles.... il faut tjs se déconnecter et se reconnecter pour que ça passe Pffff,,
WordPress,Google Play,org.wordpress.android,Z3A6QU9xcFRPR0ZOWnZkUkNsNmRxZVdULXNQdXdzMzlNUlF3RVVlRFZqVVktNDRNbmRRdDdieXlHdVFzUmVOaW02NDdxM2pnOHBpS2FrclpIM1BqR0xLb0E,French,,3,2014-11-12,Nickko G,Minimaliste,Mise en forme sommaire. Difficile de reprendre un article débuté sur mobile dans la version web.,,
WordPress,Google Play,org.wordpress.android,Z3A6QU9xcFRPRWt6S1o5V1lHQ09QcWhDOU84LTYtUlNSMEZILU5icUR5Q08tLVV1ekc0eVpFNkhUbndpM2ZNeEVNeFFtQ0JjR0xFNTZQOFpWX0VxV1UtR3c,French,,5,2014-11-06,Steny Vierendeels,Epoustouflant,Rien à dire Wordpress va de l'avant...,,
WordPress,Google Play,org.wordpress.android,Z3A6QU9xcFRPR1M1R2Rsa2JZck1wX3RIaV9wMEcyQ3E0S3NwaEVoUGZNVWJlMHV6bmVYSmVSeFhxODZFUUZnQl9xWnZvcFF5TTNCbHo1S014Z2VTLXFIX1E,French,,5,2014-11-04,Philippe Schneider,"",Best open source program ever,,
WordPress,Google Play,org.wordpress.android,Z3A6QU9xcFRPRXBNejROQjdEU2xqMDMxYzROOHh4SnM4SUxzWXpVTm8yUmYzVjVscHRCMWtJbVQ2N2VuQWw2SG9TT1dxb3BOcklHZmdsZEk0cHFvR2RSanc,French,,4,2014-11-02,Cey Liine,Rien à dire,Répond parfaitement aux caprices de l'adolescente que je suis,,
WordPress,Google Play,org.wordpress.android,Z3A6QU9xcFRPRzJ1YnlyUlRVcjRPNVFTQjB2VFZhOW1WcURQdTBadF9aZE94SHRacjJoTC1INC12cTVxTVhkM25PMFpUQU9oaVNlWHFpSy1uLTlWakRncFE,French,,5,2014-11-01,Hubert SELLIAH,Utile et accessible !,Appli simple et accessible ! D'une simplicité déconcertante :),,
WordPress,Google Play,org.wordpress.android,Z3A6QU9xcFRPR0hKUkNaNk53VV9fdENhQnJ6Vm9zT3RqWlc3czgwc3U5MWR6MWs4QnBjN3pGYWswczdhNlVOM1lZdjFRMjVPVWIzVmd4QWJvTGdnNFJLQkE,French,,5,2014-10-31,Pierre Grosbois,"",Super,,
WordPress,Google Play,org.wordpress.android,Z3A6QU9xcFRPRUJRakJkSEotRmlWZ2Vrb2tRbVRCdjhVdVFBY2l6aUdWRmR6MmRzWnRxckFidFJ4WmZEd3ZWRlFLZUNHUUYtTWNyV2dFQ3BxdXBNV1o0UGc,French,,5,2014-10-30,Stéphane Blot,ou se trouve les paramètres ?,Parfaitement fonctionnel,,
WordPress,Google Play,org.wordpress.android,Z3A6QU9xcFRPRkhwNG5WVW9IN1lIdTU0aDQzR3Y0Z0Rmd2FLU2haTkVHNGVpbC1Kay1MaGpsN2ZnMTdTdEVPVEZteTFfSlRDNXZrcnZIaGxOMF9fNlBfbmc,French,,5,2014-10-29,Yo V.T.C.,Juste parfait,Très bien construit même en version gratuite.  Déjà deux blogs et un site en construction.,,
WordPress,Google Play,org.wordpress.android,Z3A6QU9xcFRPR0RoTlZCMXFzNnB0UzZPTFM5Sld4UkNtaXQxS0hCaUd0OUhMU09rLXBKclpGLWl5NEdoQWFhamNLWVMxOWEyeG5GM3lxelFjaENNUFN4d1E,French,,5,2014-10-29,cher mouta,J'adore,Je commence un roman et des fois me viennent plusizurs idées quand je suis avec des potes à l'extérieur donc j'ouvre l'appli et j'écris. Donc parfait! Merci :),,
WordPress,Google Play,org.wordpress.android,bGc6QU9xcFRPSFZUeHNWY1ZIWDV0UTNycGNNdlVrVVN1RTIwT1VwUEZnN21GX2kzTFVIVWRjdDNEejIwdWR1WExXWms3U3QyZ3g2REpjVTVIUHRSUlhRdnc,Greek,,5,2014-11-01,Ένας χρήστης του Google,Πολυ καλο,Οσο παει πιανει την τελειότητα. Συνεχίστε,,
WordPress,Google Play,org.wordpress.android,Z3A6QU9xcFRPR3lWekh0aENST01ycG05RS1kWXRqNmdWTnVHTklwX0hNWVlFZjk1SzMxNmpWRVdyeS1qUU92b1djMWstbFZ1M0NVZ0ZVZWpoRjhjV0VvMUE,Italian,,5,2014-11-13,Laura Anni,Perfetta,"Una sola domanda, io riesco a caricare le foto ma come faccio a metterla con anteprima dell.articolo? E per la fotogallery?",,
WordPress,Google Play,org.wordpress.android,Z3A6QU9xcFRPSF9faW5aaXZyUXBBZVdjcmxaWnRZZ0hMUjRsOGZZSUxaV2JIb2p2eG1TNFNVLXphOWlmRDRIODFfZjVjNl9SVU0zQVBWY21DZEZNZlFSNHc,Italian,,4,2014-11-09,Salvatore D'Agostino,Ottima,Ottima app per gestire il proprio sito.ps ho scoperto cime risolvere il problema con Aruba.,,
WordPress,Google Play,org.wordpress.android,bGc6QU9xcFRPRjFwcHctNXVsczJVang5cXpabmM3bWdnTm4xRzBhejNyVTQxWUhyVl82VkJSZGt0UFN3ekg5bTBfTDF1SDdrS2NOQ24tYWZyeHY0SzZnaEE,Italian,,5,2014-11-06,Un utente Google,"","leggera, veloce e comoda",,
WordPress,Google Play,org.wordpress.android,Z3A6QU9xcFRPR3RMY0F1YWFCaUphdmo1TXpTVXhmemEzUWV5OVpoTnBxQXZaX1E5XzhjYmRQMnR3UlVKUGkyM2JfWkZMdHg5M0pmZHNxSDB1X3lpaXlzR2c,Italian,,1,2014-11-06,fabiana ciarla,Non funziona,"Su Aruba non funziona, fate qualcosa",,
WordPress,Google Play,org.wordpress.android,Z3A6QU9xcFRPR0VILWNaYk9RaWR0QkJkaFF4TndkZ01GVk9xaUU3LVRIQ1JGZVZmOE5LWksxaVE4MFlodXp5RlRfenVCX3h4N2pWcno3UWVhNkZxRWhqYkE,Italian,,1,2014-11-05,Vincenzo Capasso,Non Funziona!,Non funziona su Aruba... Strano visto che è uno dei siti self-hosted più diffusi! Deluso!,,
WordPress,Google Play,org.wordpress.android,Z3A6QU9xcFRPRTdNSmQ2bUFfdGVaVzdOQ1N3SWJYWXdDY2piajIzeTFFcWw4eGxPb3l5aVlyS3RONXd2bHh6UnJaeVp0RHgzMl9FREg0RVpkc3ZSSVNGSVE,Italian,,3,2014-11-04,Antonio Frattaruolo,Mancano funzionalità,"Se si potesse avere totale controllo,come su plug-in ed impostazioni sarebbe ideale.Snella e funzionale comunque.",,
WordPress,Google Play,org.wordpress.android,Z3A6QU9xcFRPR0hWdm1odlF0X2Q1Rkd4cFA4ckhsQm9NV3ZRZ1hJZEpiZ2VXM3A2b3lOVlptLWxlNjZkcC1USHFuMjJSMXd5c0RMNkI3RnlRSUw2S2xoZGc,Italian,,5,2014-11-04,Giuliano Serventini,APP ok,Testata su S2 e Nexus 5: funziona bene. Mi piace!,,
WordPress,Google Play,org.wordpress.android,Z3A6QU9xcFRPR1dEX2NLOWxsZnB1V2dhN1NZamJiTF9XdDZ1UEh6OUJEYVNhUTkwamdnd1ZtcGtHVnY2NERMQUFUVjd0SGNLbnk5UERBVk9kbnhDdzBITUE,Italian,,4,2014-11-03,Luna Lovegood,"","Nessuno è perfetto, ma ci siamo quasi!",,
WordPress,Google Play,org.wordpress.android,Z3A6QU9xcFRPRlJZLTZ6WmNySGE1X2dSZmRJaFNCNE0yNElCTGJUNWtpSlJDQmpQOC01VVRMZmF5cC1nYzgxMURSeG8wVWdhdDl2YUQ1WXlOXzdrOXpSZmc,Italian,,4,2014-11-01,Raffaele Lanzetta,"",Ottima,,
WordPress,Google Play,org.wordpress.android,Z3A6QU9xcFRPRzlDcUdOeWNaaXpzX293ZmN3V3VzV1FXS3RJYXB3UzQxbG11Qjl2NC1ZNlBjTERPcTJqYUFraW1oLWs3M3drVk1mM083ektZcl8xSXdXbXc,Italian,,1,2014-10-31,Felice Di Matteo,Non funziona,Avrei tantissimo bisogno di un applicazione così  ma sul mio host misterdomain.eu non  vuole andare cercate di risolvere,,
WordPress,Google Play,org.wordpress.android,Z3A6QU9xcFRPRmRob2xPYktHVjN0UjBvVG9Vb2FoZmt4czltUEVRLVpGRnlRUnBMcUJOVm5HZU1fcXZmYnpsUTlEYVl1WklVV3dnemhKZ1NNYV9jUWFfVGc,Italian,,4,2014-10-31,Giuseppe Vazzana,"",Ottima,,
WordPress,Google Play,org.wordpress.android,Z3A6QU9xcFRPRUMzcVR3bXJudlR2c1VYZDJmcmI3VVpxZG82cWJvc2pTaDlER3BGdlMzMnJzVEt5VzQzWW02ZXF4TnRoc2RIanM5WkpIdXhUZzhxQ3RUYWc,Italian,,5,2014-10-30,Davide Barelli,Ottima.,Ma se non siete capaci ad usarla non mettete una stella! Ė gratuita e funziona benissimo (e sono anni che si possono mettere foto).,,
WordPress,Google Play,org.wordpress.android,Z3A6QU9xcFRPR0NGRjlWLXgyTGFPTGZZMlhVNF96Ynp3T2F1RXNtQkJjVlhUQTFPREwxOExKTG1jc1RwVXdJaTB3RHJJcWU5Wlh4WXdhREs3VkpmV1VHNXc,Italian,,3,2014-10-27,Andrea Ramarro,"",Buona app x la lettura,,
WordPress,Google Play,org.wordpress.android,Z3A6QU9xcFRPRVp4S3Y3dTBuMTNULUpFMWZNd191cUFnRmdNdlZNVmZOUTBvMHRPV05rZnJtUXNHYm81UDNxdHBkUE5XT1lJQk45NGdTM2NuUXhpUWswZGc,Chinese (Simplified),,4,2014-10-30,vicky x,问题已解决，请问为什么不能上传本地草稿,使用客户端添加新blog后，右上角只有发布键，编辑后显示为本地草稿，也无法上传到网页草稿中，只能选择发布，而网页添加的草稿在安卓客户端显示为草稿，进入编辑界面，右上角显示为更新，就算编辑后更新也不能通过客户端发布。。。这是我不会用还是客户端本来就是这样设置的？--果然是我不会用，想要更改草稿状态原来是要在编辑页面下方的博文设置里，更改状态，改成草稿就能上传，改成发布，就可以发布,,
WordPress,Google Play,org.wordpress.android,Z3A6QU9xcFRPRXJyS3RoSWlBUmk2Zk54OTNJaW5PUElEbXc1MU80SXBIS1NLLU5DeTJxc3NlemJuTHpWejFUTXVvRUxVX0wwUnNFM0tYV2VQZzR3RHBWOUE,Chinese (Simplified),,3,2014-10-30,Hazel Zhu,"",希望能够支持自定义登录地址,,
WordPress,Google Play,org.wordpress.android,Z3A6QU9xcFRPRXhNZGpWalFYVjVFQjhna05LRzl0NGttTnBzZTA1RzlwLW5UNVluOEIxRWV6RXJYakRQbVdjSGhENXpNd2M5dmhoYmFUcTNQd2RUSnJGT3c,Danish,,4,2014-11-08,anna cicero,"",wordpress,,
WordPress,Google Play,org.wordpress.android,Z3A6QU9xcFRPR01rY3Atc1VpT0FpVTJsNnNDWm5CZkhxY3dzQUw0QTBXNXJyY2NWVDZ2Q0FrYjlpQnROeEtHWmhuOXQ1LU9oVmZqbnBzOU95a09qV01FSGc,German,,1,2014-11-13,Fabian Meindl,Loosing content every second upload,"It happend to me almost every second blog, that when I'm trying to uload a locally saved blog, it just looses all the content and i ve to write it again.... really baaad",,
WordPress,Google Play,org.wordpress.android,Z3A6QU9xcFRPRVdJZ3F2RzhXdWRHQnlTY3gzWWFUUERkVDNKcFlVbS1KVTJoNU43Yks0RkpHSDVLYWc0eDZ0QmNPYnk3UkFsTlY5RVBrVUlSeFNncVkzTmc,German,,2,2014-11-12,Simon Ming,Keine Benachrichtigung bei selbstgehostetem Blog :-(,Warum gibt's das nicht? Würde die App erst richtig nützlich machen. Bitte nachrüsten!,,
WordPress,Google Play,org.wordpress.android,Z3A6QU9xcFRPSG5yNTNqQ3ZzS2JVZGlUemFLajhocmp0ams1eFNYTExRVVN6RXNEOEFWbVlmSDBYNFlncU93bzRoT3k1ZTk1d2N1N3dzcGdnRzJmUW1SN3c,German,,2,2014-11-11,Tobias Wiezorek,Error on Galaxy Note II,"I allways get a ""HTTP status code: 500 was returned.  Internal Server Error"" when I want to upload pictures. When I try the same with my ZTE Blade 4G is functioning without any problems. What is wrong?",,
WordPress,Google Play,org.wordpress.android,Z3A6QU9xcFRPSERJZVBUQ2JOTDQwV2I1UlhSQXk0MlhVRG1IMVJLdFZXS1U0YjM4M1lYbnJWZHJuOUhzWHROdFQ0UlBBZzgtNEFlcXQ3bnFlX2ZOc1p0YWc,German,,5,2014-11-03,Florian Berikoven,Top,Sehr gute app. Anmeldung klappt problemlos die app ist übersichtlich und bietet eine gute Übersicht über die Beliebtheit der Beiträge. Habe sie zwar erst seit heute hat mich aber trotzdem überzeugt.,,
WordPress,Google Play,org.wordpress.android,Z3A6QU9xcFRPRjI5QmZFR1pyTHEyRjBUZlVlYU1rYTZDWG1nNTRLOE1jQkZVY3RTYTY0YjN0YWVrVkE2RTE4elB1TVYxRXQ5ZVhWUGdSYnFXUjNxeTRHaVE,German,,2,2014-11-03,Nadine Wagesreiter,"Good idea, many terrible bugs","I just wrote an entry again, took me 3 hours! It  happend not the first time that an entry just disappeared when you just touch the screen while a big entry is loading. If you need help pls contact me, its not so hard to fix that! You have this issue since 4 updates or so!!! Also I cannot load pictures a lot of times! They are all from the same Dir. No idea why. Please fix that, I really need the app!!!!",,
WordPress,Google Play,org.wordpress.android,Z3A6QU9xcFRPRjNFemJhckI5Vk9GM2N6SWZPQ1BNRHY2TUowdEZ0WWE0LVVGQmxBS0d1Uk9kTFZlTTNUMjVmZjktUmtQTlQ0UWZoR2h2Zm04WnBrZzFfWmc,German,,1,2014-10-31,Dirk Niemeyer,Schlecht!,"Fängt an immer mehr Stellen an zu schwächeln. Wird langsam unbrauchbar. Macht zwar in der Statuszeile + im Anzeigebereich Meldung bei neuen Likes, in der App selbst sind aber nur die zu sehen, die schon vor dem Update da waren. Lässt sich auch nicht aktualisieren. Weitere Bugs: siehe die anderen aktuellen Bewertungen! -  Zugriff auf Spam-Ordner bei Kommentaren wäre auch nicht schlecht, da Akismet häufiger normale Kommentare als Spam rausschmeißt.",,
WordPress,Google Play,org.wordpress.android,bGc6QU9xcFRPR21UdmhKTWtpb0dUUVkwMWVfNjY3b1c1SWRBSHpadHA5VEVCWFZSMi1wbUJ5WXJMclM5THN1czhUQ09ZSEJzRnZ2SU5mNmJPZ3VmY2JIRVE,German,,1,2014-10-31,Ein Google-Nutzer,Bug,Leider hat das eigentlich tolle App einen erheblichen Bug. Bei einem umlaut im Text wird nach dem veröffentlichen der ganze Text nach dem ersten umlaut gelöscht und ist nicht wiederherstellbar. Auch beim editieren eines fertigen Artikels ist das der Fall!,,
WordPress,Google Play,org.wordpress.android,Z3A6QU9xcFRPSEhTOFBMcjBIYVhiOEJRMl9pMV9XTkdfOThxT1VENDFSR2N5U2lIWVY5X3g2Y1J0dGVRNUt2NVFwOElEckhGdjBDME1SYmV3REx4MzdHSUE,German,,5,2014-10-29,Wahoo Studios - Tobi,Tolle App!,"Die App ist wirklich übersichtlich und einfach gestaltet, vielleicht fehlen hier und da einige Optionen, aber im Großen und Ganzen ist das eine gelungene und nützliche App! Wahoo * * * * *",,
WordPress,Google Play,org.wordpress.android,Z3A6QU9xcFRPSDZidmpVZFBBbGNDaWllcG1NaE8zMGQ4N0ZZc09FdnFlUlA3ellITi1wTmQ3OG5OYmNDTFBUVDgxMnBXanhFbmlpSHZ2N1dveGxMX0Q2VUE,German,,4,2014-10-28,Karen Robinson,Titelbild,Ich würde unterwegs mit der App echt gerne ein Titelbild für den Artikel auswählen können. Muss momentan immer nachher nochmal am PC ergänzen. Aber sonst 5 Sterne.,,
WordPress,Google Play,org.wordpress.android,Z3A6QU9xcFRPRWh1UnVZTC04SFZfdDNTd0JkelhMNHZDWkdNcmdjYmRPeERMcHp2bmNScExhMTBNVnNzVjBtRnQ2UVRZWW9tbG5hNFFmNWVKdlAySWFJZ2c,Polish,,5,2014-11-02,Marek U.,5/5,"Poprawiono ikona wpisu\\dodaj pliki\\wybierz plik ,przedtem nie działało.",,
WordPress,Google Play,org.wordpress.android,Z3A6QU9xcFRPR00zT2tjR0lKZTVlcWZNdUdhUHllZWxLaVBJcEZ3TnowcDZQUDNkazVkNDVzZzFFckNlenhZYnZhNXpMOWNzTGNjM2dLT3AtM21xandUM3c,Portuguese,,5,2014-11-13,AryChrist Ferreira,Perfeito,Eu tenho um Blog lá gente só pesquisar no google clap chiclette,,
WordPress,Google Play,org.wordpress.android,Z3A6QU9xcFRPSElvV2RfWkNDT0lzS2RXQVhlbUlLbUFPem01cjNWRy1mMjNNaUdGMWlPRWI4ekNERUZ4dFZhMGwyeTZEN294cXlSTFNnS1NtQnNQOWJyblE,Portuguese,,1,2014-11-12,Talita Galleoni,"","Muito ruim, tudo em inglês, toda hora trava, uma bosta. Como faz pra excluir essa conta? Não recomendo!",,
WordPress,Google Play,org.wordpress.android,Z3A6QU9xcFRPR2dnbTdRWHFWeDFyc1Q3eTlyZ2ZJZnVFcnlaeDFGOEx0TE5OaHVEZXFSb1g2Z2NvVmlMQ3hXN3Y1MUlWbWhGSnhoX2tuM1ZRT3JXRzVoZFE,Portuguese,,5,2014-11-12,alexya costa,"",Massa,,
WordPress,Google Play,org.wordpress.android,Z3A6QU9xcFRPRjZXTUFZWVVWdC1qTzhnUkdWOEo3SC1uVmxLS3BDXzZBVHVpNmJNZWJYR01ZRXdVXzRTTGZ2TlhwQWpOSWxRdDhNMnVJb0s3bUVsNGFOZVE,Portuguese,,5,2014-11-09,Laís Corrente,WordPress,"Fácil, fácil!",,
WordPress,Google Play,org.wordpress.android,Z3A6QU9xcFRPRlBNbTUtYzd0NjZtRDdPQkFsMm1PVEkxRUxnazVpTFdKX1VnVzQ0cmsxMml4R1pYWUdobkpjSU9CYVdvLUJTOXQtek92azQwVVppNTdudmc,Portuguese,,5,2014-11-08,Ronildo da Silva Ferreira,Bom,Baixa super rápido ñ toma muito espaço no celular...recomendo,,
WordPress,Google Play,org.wordpress.android,Z3A6QU9xcFRPRzRyXzFmd2xzYzd2b0k4QUdlZVVsUGxlMy1KbnlvUGtJeXRMbDNKbUkzZ1ZkNHFJYnR1MkdHN1d3UlRybG9NR2ZEcGxhZjBta2dQUGpUN0E,Portuguese,,5,2014-11-06,JULIMAR S.C.,"",Muito louco demais,,
WordPress,Google Play,org.wordpress.android,Z3A6QU9xcFRPSFB2cWVIMGpua2Y2VWpDc0pPczE0WHREUzlGRXljZC1WamdFTE9KN2JtVGVBNnBVVC1OS0RBN1hiMmhUejRGMDYyN1REaUwxaVJFQm1DT3c,Portuguese,,5,2014-11-06,Meninas no Videogame,Bom!,Bom para fazer blogs e sites!,,
WordPress,Google Play,org.wordpress.android,Z3A6QU9xcFRPSHFZV1ZfYzhMUEhxNEEyVktPLWpvMWxxYmNpb2YyV1ZuS1NacXl1MVR0QlFyaDNSaE9WVkNWYWJ0WlJIdHhrZjFoa2JBVi0yLTItMzN3TFE,Portuguese,,1,2014-11-05,Nicole Silveira,....,Não dou mas estrelas pq ainda não baixou mas galera tem como postar video???,,
WordPress,Google Play,org.wordpress.android,Z3A6QU9xcFRPRmZuV2FjSVhiTnhiOHdQQldLYVhoTVF4RWxfQ19NT2IzaWRGVUFuekFUQ3QtSVowaWM1T3JTeF95b3JudDg3YnIwbDBaMU8wRUxMbE1SN3c,Portuguese,,5,2014-11-05,Clovis Vilela,Muito bom !!!,Muito bom !!!,,
WordPress,Google Play,org.wordpress.android,Z3A6QU9xcFRPRWt2TzQtSVQxWHFRUTdSekVsMnNvay1JMXpZZllBNUFKdkg3dFBsZlh1aDdCSGF0UzQ5X3o4Rk5nOWlNVTBwNVlKZmtTelVTTGJ2YlJ2OHc,Portuguese,,5,2014-11-04,Guilherme Sousa,Útil,Muito eficaz quando preciso add ou modificar algo,,
WordPress,Google Play,org.wordpress.android,Z3A6QU9xcFRPSGktWVdGeEwxbUotVzlfejRWRzJlUGlYUVhTVFBnRFNzaHJKdVZJTnFfLXBzZXh2VGItUE5HUlhWR3l3OHRrQnVaVEhybzU5VUdVSS0wclE,Portuguese,,4,2014-11-03,Alefe Siqueira,Muito último!,Dei 4 estrelas pois falta apenas a tradução para português.,,
WordPress,Google Play,org.wordpress.android,Z3A6QU9xcFRPRjlxUW04WUpyYXo5ZjBxREdWbFN5Y3hRTmtRQXF2MkMyZTYwWlQ2ZHJMTC1aWnpTdEQtRTVBVy1zS01HYS1kOTJyX3lUVWJWdkdrN0doWVE,Portuguese,,5,2014-10-31,Khensany Charllot,Bacana,Legal,,
WordPress,Google Play,org.wordpress.android,bGc6QU9xcFRPSGVzQnRkV1hSSWoxSVh4QmFXTmZ6LTZzczVVcF9DTUVmU292YzdrbmtQTjBNT1dsRmY0Nk80amhOVXo1SUJkbUFtbUhmWHdGMm5zMXVFTEE,Portuguese,,4,2014-10-31,Um usuário do Google,"","Atualizando: tem se tornado cada vez melhor, de fato. Incluíram funcionalidades bem relevantes. |  Gostei muito. Tenho servidor próprio e funcionou perfeitamente, inclusive para mais de uma aplicação. Claro que ainda pode ficar melhor.",,
WordPress,Google Play,org.wordpress.android,Z3A6QU9xcFRPRUtsUC1pMkxfTW1xYlVqY2poTzlZUzEydXR6a0xQQjNWUGhzcmpmOEdkWXBLS1BDRF9nT1J6WTBzdzByUnk4SE9WSXpRMTdTeXBPYUJ4X3c,Portuguese,,5,2014-10-30,Fernanda Maria Pereira,"",Prático,,
WordPress,Google Play,org.wordpress.android,Z3A6QU9xcFRPRTJIWWZybkdOOWg5NmhDNEswYzNrcGxJZ3Iyb1ZzcVAwUVI4UU1tdW5EZnFZRlFBRHUwZW9vU3ZfQzNDUGtIelpMTFpWaWNNVzA4UnZ5ZkE,Portuguese,,5,2014-10-30,The Splash,"",Perfeito,,
WordPress,Google Play,org.wordpress.android,Z3A6QU9xcFRPR18takdyUEk5NDF6SVZDdW9xZlVBYnhrQnltSmZsYlNKRzVndHlZWm0yRlB0VlJqS0MxR1NiT3ZNeU4xc1lLZU9zYnNBRFNLbnNFcW5mV3c,Portuguese,,5,2014-10-30,Ibraim A. L.,"Muito fácil de configurar blogs ""self-hosted"".","Está melhor a cada atualização! Já era fã do WordPress ("".com"" e ""self-hosted""), agora também do app para Android.",,
WordPress,Google Play,org.wordpress.android,Z3A6QU9xcFRPSDgtTkctTFRsVjlnZzlzbmVRTVFYOXZNVjJQSU92OExQUjJLMTdESHVjWUJ0cFFqNmF5UmVMaUwzWjlPaXFrTkpkVzhKM3l6VW5naVptT3c,Portuguese,,5,2014-10-28,Tereza Rodrigues,"",Adorei,,
WordPress,Google Play,org.wordpress.android,Z3A6QU9xcFRPR1lTLVV4Um8yQWx5Yk5BcXhGSzFfVzZwLXJQX0hmektSYjltWlFCWDNyMzFGYkJGSTNyQmR5ZEJHS0tGUVJ6RklPTTIxMGx3SFd1YjBmNGc,Russian,,1,2014-11-13,Александр Артюх,Ошибка,После обновления не могу загрузить картинки на автономный блог.,,
WordPress,Google Play,org.wordpress.android,Z3A6QU9xcFRPSEZ4SUd1dWpoLVFMbGZWenM2MFhMalF2X0JKV3RUeFVaNkU4SVZHdF82SWpqdkVYZEdpRXhDOWZ5MUJwV01OWHVyQS1wb3VycmhvSXBkbWc,Russian,,5,2014-11-10,Георгий Финикин,Отлично,Благодарочка разработке ),,
WordPress,Google Play,org.wordpress.android,Z3A6QU9xcFRPRzh6c2wyLTNndXF3U0M0MElrYWJSQzhOcF8zVTFucUdXMy1pVlFqZGZJOWNTOXludmJIcmxYV1NqUVZxTmpmSElrd2RJX2RFYTFEekZoTXc,Russian,,1,2014-11-06,Totenkopf Gman,Не понимает шорт коды,"Ожидал что то на типа приложения вконтакте, разочаровали. Для чтения больше подходит, а не для публикации",,
WordPress,Google Play,org.wordpress.android,Z3A6QU9xcFRPSDN3cmZnc1NQY0tzZ21MeVdMdldNT1NLSUZXSERnb09UVklBVGo0TlNMbUh1T2p5dnpvMFRKak8zNGpfQzItc2dHcVhJWi1hUFF6aFhvMUE,Russian,,5,2014-10-29,Жевжик Михаил,Очень удобно,Всем доволен.,,
WordPress,Google Play,org.wordpress.android,bGc6QU9xcFRPSE5TbW04dzFQaVJNdm5TbXlYZG9nYXhHOV9BSGs0NV9UZE9ERXY1UUJtX0plMXdJTTJhTjVndmVRRTZlRE9Jdlo0bXppSVZSVHpVVUhvVWc,Russian,,5,2014-10-29,Пользователь Google,Samsung galaxy s5,Best!,,
WordPress,Google Play,org.wordpress.android,Z3A6QU9xcFRPRkdobzIxOElzV3dQdEEtQVNjcFd3Qkh6RksxdXdfWVA4T0ZDSWZwcWE4OVlfWS1tanNxNzlsLU9JcjZ6NUJsbE9JeHhsY2VyLW5zQlNSa2c,Russian,,3,2014-10-28,Леонид Ковалев,Нельзя задать миниатюру записи!,"Поставил тройку, так как для меня важна возможность задать миниатюру записи. Сейчас наверное все современные шаблоны выводят изображения через миниатюру...",,
WordPress,Google Play,org.wordpress.android,Z3A6QU9xcFRPR3Brd0xrbTVaV2pXMU1DREt3MHFkNW9UX29ObEJkSjVBZTBKaVNWTExRYVppYWk4NkVMVmFxV0kzNHFqVEtNOXJqMDBwTlFiYkgwTzFCaWc,Spanish,,5,2014-11-13,Miguel Rios P.,Me encantó,"Así de sencillo lo explicó, me encantó. Es fascinante la forma en que puedo navegar de un post a otro y además es como un navegador web. Lo tiene todo: excelente ;)",,
WordPress,Google Play,org.wordpress.android,Z3A6QU9xcFRPR0NRUUp0R01lQThDbnNXYzhIallESUY4a0Vwa3ZsZEVsT3BaalBTQ0dSRzJUeFBuWFNGU05sR3JJOXdjQ212Y21qdEFNSHVVaENMYVVtYkE,Spanish,,1,2014-11-10,Txedo Lopez,Cannot access to my self-hosted WP,"The log shows several exceptions and the app causes an internal server error (500) in my blog. I am using WP 4.0, so it could be an incompatible version issue",,
WordPress,Google Play,org.wordpress.android,Z3A6QU9xcFRPRjRZZ1V6cFE5VkpjeHdySnlLOHFrOEJhd0pKQVhMVlBfcnduSk5qNDNUTVdCT0JpbURPNUdDYkkzQW1ieFpHMGlMbWdLaGN4eWtRdUlWa3c,Spanish,,3,2014-11-05,Rayner Lizarazo,Se ve buena,Vamos a ver,,
WordPress,Google Play,org.wordpress.android,Z3A6QU9xcFRPRXJRTURBVUNXajBoZVgwNGpnYWk3WjMzQWNod0N2TGxkdkJ2TkVxb2t0bmZKd1o5aThITXBYNU04N0dmWjJYdDl5NVloaFNWOVU4aVAzYnc,Spanish,,4,2014-11-04,Pablo Vallina,Debe mejorar aún,Compartir según que cosas puede ser una locura,,
WordPress,Google Play,org.wordpress.android,Z3A6QU9xcFRPRmJUT2NEQVFVdGZVenM2R1JvVEc3Z2p1Nl9wTGNhejBGRTIwV1hYOWxjeFlCck9jdlNBSG1tVy02VXdWOWl0M0xVN1BGZHpLWThtdFNBNmc,Spanish,,5,2014-11-02,Den Dec,Xperia U,"Funciona muy bien, me gusta mucho, es muy fácil de usar. Lo recomiendo!",,
WordPress,Google Play,org.wordpress.android,Z3A6QU9xcFRPRlZOTlE4N2hUbzRrTUdjbldpWE5wcnljZm9YOXlFeXlwTW10TlE2XzZGRngtYk9pVWxUVHBlV3hGTlJ1dlBLd3FNc3p1R1FPTGo4UWhfeWc,Spanish,,5,2014-10-29,NEY DUARTE,"",Muy recomendable,,
WordPress,Google Play,org.wordpress.android,Z3A6QU9xcFRPRnJPMC1TaU9YbC1XSk5jTnBfMG1UOHhqMlA2cEN6elpVUkIyZC1OQ01qQ0pQR3RsUi1HRGtRdWlkZ3NVSkg5X051TXFyNmctWVpiMkJKckE,Spanish,,1,2014-10-29,Javier Pocovi Antuña,Issues uploading pictures,"Every time I try uploading pictures to my self hosted blog, it gets an error.",,
WordPress,Google Play,org.wordpress.android,Z3A6QU9xcFRPR3NER3NIQWRNcEgwOXdYeUNEaUFmMVlyd2g2OC1EempfOTRfeVlhUm5pbk9UYWt2NnFxaXYzbW1oTHh5RGJJTGFjanhMYjN4NjZCbkY5TVE,Spanish,,5,2014-10-29,Alfonso Postigo,WordPress,Funciona bien y la van mejorando. Bien trabajo!,,
WordPress,Google Play,org.wordpress.android,Z3A6QU9xcFRPSEhOVkJiTTdRR2FjSmJFRE9fZTJBUGk1amtOelR1YnB2cTF0MGNBSW1SOFp4Uk00UW9vT25FaDJiWFFTUVhNUHM3cE0zZHp2a1prR1ZoTnc,Spanish,,4,2014-10-29,Sin Horizontes,Muy buena APP,"Perfecto para leer los blogs que sigo, moderar los comentarios... un pelín incómoda si se han de publicar grandes textos o en ocasiones añadir vídeos. Sin duda hay cosas que se pueden mejorar.",,
WordPress,Google Play,org.wordpress.android,Z3A6QU9xcFRPSC14RHI1UnE5aDA3QUFpNU9YTTZ5V2h5aHJmR1phOVhzTHNCNDJTMFY1YzNyemRMTk45enVORVZpMlVMMUluenpxZ1dsQWJfeEZaMWxnU0E,Spanish,,3,2014-10-28,Carmen Santos,No entiendo nada para que sirve.,Mis recetas de ana.,,
WordPress,Google Play,org.wordpress.android,Z3A6QU9xcFRPRmVzR3Q2Rzh4dmQxWGM4Zl9reDRVb2xpMmt1YTR4RVM3WnJyUjA2cFB6dmVnRFo3LXhEckcyeWJaWXBxbzBZOVhPdUhnRzBWdzd2c1R2SFE,Spanish,,4,2014-10-27,Elizabeth Lépiz Morales,Aprendí a usarla,"Ya por fin entendí entre mis enredos y por el momento, todo bien.",,
WordPress,Google Play,org.wordpress.android,Z3A6QU9xcFRPSHZtVjl4b2hONFJLcEV3RXowckR3cExLYTgtZEFGcWJPQWEwQnlsamc4bTNWRkpNbTFual9RYVQxdGZzMlV4MHp5QjljZHJMbkJzY200Nmc,Swedish,,4,2014-11-09,Tibor Blomhäll,Allt jag behöver för att sköta bloggen från mobilen,Förutom utvald bild (post thumbnail). Fanns den möjligheten med skulle det bli en solklar femma!,,
WordPress,Google Play,org.wordpress.android,Z3A6QU9xcFRPRUJGY085d25JWHdmYmFwTC1OTTlZMXZzenNHRlRPRVhHQ0JlX2o2ZDV0VFVINUR2LTRpVkJDbGpVWkozRVdfUnotbGxGNzl6UHBPaVIwU3c,Swedish,,1,2014-11-06,Ina Jonsson,Buggar,Senaste uppdateringen fungerar absolut inte. Kan inte publicera och jag som använder den ofta 😞,,
WordPress,Google Play,org.wordpress.android,Z3A6QU9xcFRPRTFxa2I0U2IzOTI1MDFwalN6azhLMlQ3U1FOX2RMSXNqMllSNUhLZFBMTUEwWXNYU04zZGhlTjlXOG51U0duOW1uTm02ODdWLTNiazFxbUE,Swedish,,1,2014-11-02,Daniel Lernhede,Buggar,"Efter den senaste uppdateringen så laggar det! Gör om, gör rätt!",,
WordPress,Google Play,org.wordpress.android,bGc6QU9xcFRPSHQ3MUtudG50VDZXZE9adHVSZE5RWmxBeGMxTXYwQ3ZLckZaT0ZyUlRHOHRVYU9LQ0gzRGEwM3ZTLURnSk5RRUdud25OVGV6eXkzQlRwbUE,Swedish,,2,2014-11-02,En av Googles användare,Sgs4,Efter uppdatering till 3.3 kan inte appen uppdatera eller skapa inlägg. Varken från Android eller iOs. :(,,
WordPress,Google Play,org.wordpress.android,Z3A6QU9xcFRPRzFIU0ljMFlyd1VQOU9pYWs5Q0ZOaHdMLUVOc0dqZEZka2FFQVdIVTdENGZ2bWUzSXVQSnM0MVJfQzNQQnZTbGs0Vl9jVjg3UmxTdTFiZVE,Swedish,,2,2014-11-02,Jennifer Tiderman,Cant do posts anymore,Everything looks different and I cant do posts anymore. The option is gone. Can someone please explain why? Tried to log on and off and reinstall the app but with no success...,,
WordPress,Google Play,org.wordpress.android,Z3A6QU9xcFRPSDg4Y0J4eHhocXFzZEk2RVNlQ3IwUUI1ZFRyUng0T0JzbWgyR2x0aHFyenVDR2JDR2ZNWkQxRUdyMzc2dDhSOHBnQl9PaGdoendZRGNjZ0E,Turkish,,4,2014-11-09,EmR EmiRhan Deadly.killer™,Para kazanan varmı,Varsa yazabilirmi,,
WordPress,Google Play,org.wordpress.android,Z3A6QU9xcFRPRkJhd1lDdG81U3gxSlF0MVVMM3p4Z2FBN2IzUHRrRWI1eDcxaVh2SlFPMHVzY19kaWJMdmdmemlyZ0ZNaHM1aVpDYmc2cHM1SHJjNURrTmc,Turkish,,5,2014-11-09,oğuzhan özusta,eksikler yeterli,"eksikleri yeterlilik gösterir,  işinize yarar ama mükemmel bir özelliği bulunmaz",,
WordPress,Google Play,org.wordpress.android,Z3A6QU9xcFRPR1ViUzRQNXJaMmgyeVZtbWhjWlZxUW9McmVWSDZ5MG5wLVB6WlhHbGlPUUVoMTJGYmFUTlh3Zkd2ZDMzQU5xcnowVV9iWXRMX05ud0pJMHc,Turkish,,3,2014-11-06,Berfin Tarhan,"",kullanılır cok kötü degil ama eksikleri var,,
WordPress,Google Play,org.wordpress.android,Z3A6QU9xcFRPSFJObngtZ25zMVl4UnI3WGNtbkpRNzRaclNid0hDbXF1OTZYOFZXYmh5eXNXbENRbXdFT0wxUzctQ1RyVi1YSmR4blBSMWJ2RVZ3WTBoZ3c,Turkish,,5,2014-11-05,Ugur Akdeniz Devrim,"",Good,,
WordPress,Google Play,org.wordpress.android,Z3A6QU9xcFRPSGs5ZnBKa0FKRTdqM3diM3Rrd0lNcEF3aVJvLXozQXNJdDBiUmJRS0kyaHNtbTIxdXYxcUNlSEkzVi1tZTk0VW5fY05yUmU2WUxOV3VhX0E,Turkish,,3,2014-11-03,Melih Güçlü,Çok eksik,Editörlerin taslaklarını göremiyorum ve duzenleyemiyorum yani ortak calisamiyoruz,,
WordPress,Google Play,org.wordpress.android,Z3A6QU9xcFRPSDdxM0stb0lmWERXVU1xdXpYakotLVVvVlNheUNxNEE1QVBCdE1KMEZCd3ZhU21ENkxQMGU2ZmgwMVVra2NONlNWZzdma05MSDFYOG0yYmc,Turkish,,5,2014-11-02,Onur Taşcı,Eklemeler gerek,Wp adminin tamamını olması gerek kendi eklesigimiz admin ayar sayfaları vs ve daha detaylı yazı ekleme duzenleme misal yazı link duzenleme gibi bunlarda olursa super olur valla,,
WordPress,Google Play,org.wordpress.android,Z3A6QU9xcFRPR0NudGlxdGhBR0lvdDZDUTlUV1NMQ0dtY0gzVTdWRC1tdzVYMnA5OVpJbXpUd3lxSkJiSHhNTWM3LXE2VzVBTnJGU2h2T21aNVFURWZ4MVE,Turkish,,4,2014-10-31,Yusuf Sahin,"",Istatistikleri görüp inceleme konısunda kullanıyorum genelde. İş görür,,
WordPress,Google Play,org.wordpress.android,Z3A6QU9xcFRPR3hPaWE4X095YzlfOFdXVktMNFhfSTNWRHM5OTBNTlNuRHV5dEZ6VmJMSUNSUWdwZ2xVeEMtdUg5SWNvekFrYXByY05vWk52ZnZuMkp3TEE,Turkish,,1,2014-10-30,İlyas Öner,Giriş yapmıyor.,Kendi sunucumda bulunan wordpress siteme giriş yapamıyor. Önceki sürümlerde böyle bir sorun yoktu. Gayet iyi bağlanabiliyordum fakat güncelleme sonrası program hiçbir işe yaramıyor. Bu problemin yanı sıra bir de öne çıkarılan görsel öğesini ekleyemiyorum. Tema üzerinde yetki sahibi olmasına gerek yok ama en azından spinner ve otomatik etiket ekleme modülü olabilirdi. Hadi en azından içerik ekleyebiliyorum diye kullanıyordum. Artık giriş bile yapamayan bir program ne işe yarar ki!,,
WordPress,Google Play,org.wordpress.android,Z3A6QU9xcFRPRUVUVVRxSmo1NzJIclR1UkNrU3ZwWkJvWFowdVY1cDM4Q28zektHTDhjYVE4Ql9XMXdCbkZQTVhvZGRZdnhjU0tHNE1DTVBmTng0OFNmLWc,Turkish,,4,2014-10-30,Salih Değirmenci,Geliştirilmeli,Tema ayarları ve düzenleyici vs. bilgisayar daki gibi eklenebilirse çok daha iyi olur.,,
WordPress,Google Play,org.wordpress.android,Z3A6QU9xcFRPRmJ1bzlBRUEwRDlUWS1TYi1DV09GRm1Gd202T2R2N3RzcTUwaUNLQlJZeUJxMUlJMndPVTRDT0VNQy1YT0JOOVNyc2xNa281SFFjWUVHU3c,Turkish,,5,2014-10-29,Yeni Mesaj,Bayıldım,Halâ baygınım.,,
WordPress,Google Play,org.wordpress.android,Z3A6QU9xcFRPRzRVYzhJWVFMdGVSb2FsUGd3RFdDTnVWamlFb0o3b3JYa3BXM0FfN3NWTnVwU3B2aUYtaXR5Qk5WeTdEUTZyVU5JUUtoWTdKSEhGalRXdHc,Turkish,,5,2014-10-29,Hakan Kara,"",İşimi görüyor.,,
WordPress,Google Play,org.wordpress.android,Z3A6QU9xcFRPSGtVZ19XS1h5S0ZaNlYzc3ZlTU1jb0d5b3FzWFg5TlpKeEMtWjFwOWgzWVVUZ0JZVU9sN3ZhVENfTkhrd1Jyamg1aDJCQU8yaWpHMm0xQ3c,Vietnamese,,2,2014-11-12,Minh Khue,Bị lỗi font tiếng việt,Fix ngay đi Ad,,
WordPress,Google Play,org.wordpress.android,Z3A6QU9xcFRPR2pUVDNyX3NBMXpGal9PN0RuN1lIZkFNNC03SWRNbXZwZC12V0wzVW1sQ19BOVlwRlBzRWU1RzlZanJGNkFWTGpwZVVHVjh0ZDQwQk5vNkE,Vietnamese,,2,2014-10-30,Tùng Nguyễn,"",font error,,
WordPress,Google Play,org.wordpress.android,Z3A6QU9xcFRPRms2RHE1ZWNObjdlRVJPUHhpWi00V2ZrSHV0NGZ4YkcyZmxIREdhNGltcndwOGVvcnF6c2hTejF6VVRkSnVSeENVYmZsMVlzWmNXSXZuWVE,Vietnamese,,5,2014-10-29,Văn Văn,"",Tốt,,
WordPress,Google Play,org.wordpress.android,Z3A6QU9xcFRPSFlMSldQWHhSNFVGeUhxYlR4UnBTWV9NZW5lRWhxdXJRRlVEWGNaMHhVdGc2OS1LMk40OHFCRTVVcXpYdW1oSU1nbjBreFlkRHRFWW03b1E,Thai,,5,2014-11-05,Apirl namkangland,"",สะดวกดีครับ,,
WordPress,Google Play,org.wordpress.android,Z3A6QU9xcFRPRTlwcEVXNEgzNWxUb296VlMtSE1SeGl1dDlvdDlzTXFLQlEzeVAzVlNfaE5KWElYWWxPMzBnQzRvSnpWMi1uX01yemxreTdaVy1wYlA0anc,Thai,,3,2014-11-05,อ้าย เกับตะวัน อ้าย เกับตะวัน,อ้าย ไม่อาดใจ,ดีมากๆ,,
WordPress,Google Play,org.wordpress.android,Z3A6QU9xcFRPRk9ib0tvZmQ1aVlFYW56d0tDM1hMTVRWc2ZQR3Y1LVZ3azUxLWF3Nkl4UGFPdU1YMUt5TlpfYnYwaGh0aUc1TzdLcjAzRlhrSzFUTE1LNFE,Thai,,4,2014-11-01,yalee kalupie,"",Yalee kalupie,,
WordPress,Google Play,org.wordpress.android,Z3A6QU9xcFRPRnhHQ2NzU3NoVGV1Q0RVU0ZvREFqWjM4S3VCd1lRcW85a0EtVGhOTnVqUHM0Y0V3QlNjMlRxbDAtaW5sNURXeVVuTEpwVDI4VkV4WVh1VEE,Thai,,4,2014-10-31,สมนึก ผ่านสำแดง,สมนึก ผ่านสำแดง,ลองใช้ดูก่อนนะ,,
WordPress,Google Play,org.wordpress.android,Z3A6QU9xcFRPSHpjRmxtNDM1bV9NQWVaNm5xTDRxOUQ0aDR6UnNDVl9VeWNKSUZ5RVNsM0NSUEdYdWZmTldiWldGamJTNjI1ZkVzZ2N6U0wxcFdHSkFzY0E,Thai,,5,2014-10-29,Phod Love,"",ดี,,
WordPress,Google Play,org.wordpress.android,Z3A6QU9xcFRPRXBLaTFKRzNva2gwcm1SR0lkLWQtdUptTGdvTmt2Z1hUSUJKWlg1eFM3REltMk9NS015dnloREY3QllMNUFnMUNBaTFrVDRIM1JqTlc3eHc,Arabic,,5,2014-11-13,فراس الشكاكي,ديوانية,جمهوري,,
WordPress,Google Play,org.wordpress.android,Z3A6QU9xcFRPR0IxLTJFNUh6eFA4UkFvZ2t1TThwV0o4WU92c2tEQ2VVT19QcXJ5RUJwdXBhRzBZZklIZmZPSlUwdjFYejVGVGVDM2Ixa2xtdExHNTRqY2c,Arabic,,5,2014-11-12,عدي علوان الجنابي,العراق,رووووووووعة,,
WordPress,Google Play,org.wordpress.android,Z3A6QU9xcFRPR0lrcWdkVHNiUmRtTmx1S0Nzc1BOOTFlUFhxSXFBekdIRmR1ZlNkLVU4bEt4cnhrcjlVNm5ueElyZ2RnaFJtZFhYYnZ5cWFOWVpQcGNIZ3c,Arabic,,5,2014-11-08,سيد يعقوب الكربلائي,وورد,جداول,,
WordPress,Google Play,org.wordpress.android,Z3A6QU9xcFRPSHFpY0VHTDlBWEIzTTEwMHc5bE1tMVFHbHlBcVlKUTNQT1Q3ZEh6R1hGYzh0VGVlRUlLdUxCNzlIOVVCQW1nV1V5MzQ5TDJPSHpwMUhoTEE,Arabic,,5,2014-11-06,علي قويدر,لبنان...,الحمد لله الذي هدانا لهاذا وما كنا له مقرنين,,
WordPress,Google Play,org.wordpress.android,Z3A6QU9xcFRPR2RTWmRINHFLT2ZIZVlycUVhd2JIbGl1VFJDdkVodS1Uc283SGVfSWd5SEttTlp2bDlmYnJZeTY4eVFUN3FPck9qRTZ1ZTVxaElVM2hHNWc,Arabic,,5,2014-11-05,عاشق الورد 0535949962,ممتاااااااااااز,جيد جدالااا,,
WordPress,Google Play,org.wordpress.android,Z3A6QU9xcFRPSExsaDBZazJPUUVJT1JmQ3VCX09ZeHBxRlE4Tjd3QlhLbjNKTTBITkd6c0JxUkJnTGhIVENrWVYtM2tjMUxHRUNLVTFmTlh6Wm9xSWxUMmc,Arabic,,5,2014-10-30,رهيف الخدزه,جميلل,💕 جميل مره,,
WordPress,Google Play,org.wordpress.android,Z3A6QU9xcFRPR1QyWExPSldVa05zeVRBQzduM0RxcWNGcVFkbExvQ2stWHhWSWNtMGVDQVBYODNYRlcwU294a0M4dlAxT045ZmRobmo5a2VvR0h3S1loQUE,Arabic,,2,2014-10-28,رورو االحارثي,"",ماني عارفه حلو ولا لا الله يستر بس,,
WordPress,Google Play,org.wordpress.android,Z3A6QU9xcFRPRmJDbVlFVDhuWDB4a3A5VFUydjhRTmRPVGc2c3d6RENZcFdnU0F4RDJqektFV242a1JfMmJrckdwV01fNVR1dnFJY29aal9lN1ZmODFGWXc,Arabic,,5,2014-10-28,Kono Mohamed,مصر,تمام,,
WordPress,Google Play,org.wordpress.android,Z3A6QU9xcFRPRXZMcHM4aWtiNFhnNlVvTGxoTl9Ca25rc3JlNFhKZzBBZ2Y1cW5oQzNlY1k2M0ZiRlpSc212ZTIxU0Nhc3ZGU0VqcUlRWUJUTE1GZGdpS0E,Romanian,,5,2014-11-13,Stoican Tammy,Best app,Love my blog,,
WordPress,Google Play,org.wordpress.android,Z3A6QU9xcFRPRmEzX01VUDJZYW1oVXd0Tzg5Vlh1M0kzU01xWEFlQTBnbXFUQnJaeEJQRjNKd0h4ZVY3UzJrV3NGejJvc0lBR0FJclBEYXdTNUdqOWNhLWc,Romanian,,5,2014-10-29,Constanta Maritoi,...,Mereu l-am folosit şi încă-l folosesc.,,
