this is quite easy to set and it is very easy to use,o,2015-01-15,Louis Orleans,5
the response time is very and i love it ha widget too,b,2015-01-15,Louis Orleans,5
this is the music mode is a nice work pretty well,o,2015-01-13,Vishal Kara,4
like the clean layout,o,2015-01-13,Vishal Kara,4
good job,o,2015-01-13,Vishal Kara,4
one feature i do miss the stock ha is the night light mode by the off button,f,2014-12-28,Kenny Jacobsen,5
thank you,o,2014-12-28,Kenny Jacobsen,5
awesome,o,2014-12-27,Sam Hebert,5
been waiting for it,f,2014-12-27,Sam Hebert,5
stuff like bug me,b,2014-12-27,Sam Hebert,5
edit some i have one suggestion,f,2014-12-27,Sam Hebert,5
the slider bar for stick very much,b,2014-12-27,Sam Hebert,5
maybe work on the code for or use another format,b,2014-12-27,Sam Hebert,5
please get back to me,b,2014-12-27,Sam Hebert,5
better the,o,2014-12-07,דני ק,5
quicker and far more intuitive,o,2014-11-29,Simon Chambers,5
i love the lock screen control and home screen widget,b,2014-11-29,Simon Chambers,5
good alternative and i like the fact it ha widget,b,2014-11-26,Jamie Magee,4
certainly useful,o,2014-11-26,Jamie Magee,4
best for these bulb,o,2014-11-18,Eddie Hoffman,5
great to see the lollipop lock screen feature,f,2014-11-18,Eddie Hoffman,5
work ha useful widget and the start of a useful,b,2014-11-15,Paul Byrne,4
if it could also be attached to the system audio stream would be amazing,b,2014-11-15,Paul Byrne,4
work easy setup,o,2014-11-15,Joel Nitschke,4
would love to see some scheduling option to really make this stand out from the others,o,2014-11-15,Joel Nitschke,4
awesome,o,2014-11-11,Harry Sibenaler,5
very fast in opening and the widget wa just wa i wa looking for,b,2014-11-11,Harry Sibenaler,5
beautiful use of material design,o,2014-11-09,Adam Booth,5
perfect,o,2014-11-07,Laurens B,5
do it control light in your house cool can u tell me how to set it please,f,2014-11-06,Yazzy Lo,3
great in place of the original for limitless led bulb,f,2014-11-06,Nick Schultz,5
my suggestion would be to allow zone control within the,f,2014-11-04,George Leverington,5
thanks for continuing to support this these bulb,f,2014-11-03,Caleb Jarrett,5
the value of hue,o,2014-11-03,Caleb Jarrett,5
this is finally what i have been looking for,o,2014-11-02,Sterling EMC,5
i hated the other for my light with a passion,f,2014-11-02,Sterling EMC,5
but this one work and is very quick and pretty looking,o,2014-11-02,Sterling EMC,5
also the material update look awesome,o,2014-11-02,Sterling EMC,5
would like to donate,o,2014-11-02,Sterling EMC,5
