Topic Index 1,Topic Index 2,Topic Similarity
0,5,11.11111111111111
1,13,11.11111111111111
3,4,11.11111111111111
4,6,11.11111111111111
12,18,11.11111111111111
5,14,5.263157894736842
6,3,5.263157894736842
7,7,5.263157894736842
8,0,5.263157894736842
9,16,5.263157894736842
10,8,5.263157894736842
11,19,5.263157894736842
14,9,5.263157894736842
2,1,0.0
13,2,0.0
15,10,0.0
16,11,0.0
17,12,0.0
18,15,0.0
19,17,0.0
