Feature,Review,Version,Date,User,Rating,Similarity
@+id/icon_plus$,high privacy risk,v4.3.3,2017-02-19,Steven Z,1,8.7
@+id/icon_plus$,can you add custom theme to the browser to make it more cool and good to see,v4.3.3,2016-10-13,Jay Caton,5,16.0
@+id/plusIcon$,but could it be possible not to color inverse the image,v4.2.3,2016-04-19,The Jucktion,4,4.1000000000000005
@+id/plusIcon$,the thing would be better and must be a browsing button down close to your for a easier just a suggestion,v4.2.3,2016-02-15,adrian L,5,20.8
@+id/plusIcon$,make an option to hide or disable the swiping animation to work faster,v4.2.3,2015-12-20,Anass Ben-Malik,4,15.5
@+id/plusIcon$,browser need color mode with dark theme support,v4.2.3,2015-10-03,,4,21.0
@+id/plusIcon$,add a shortcut for inverted mode in menu or a button in left pane,v4.3.3,2017-03-26,Goji,3,12.3
@+id/left_drawer_list$,please add ordering to the bookmark and tab,v4.3.3,2016-11-10,Taj Avery,5,8.0
@android:id/progress$,i wish it had a navigation bar,v4.3.3,2017-03-15,Bill Freeman,4,21.4
@android:id/progress$,just keep this on improving,v4.3.3,2017-01-01,Ludwig Matias,5,23.0
@+id/faviconTab$,to no avail,v4.2.3,2016-02-06,Safira Raharjo,3,1.6
@+id/right_drawer_list$,oh how the mighty have fallen,v4.3.3,2016-12-02,Kathryn Davidson,1,1.6
@+id/twv_list$,please add ad blocker option,v4.2.3,2016-04-15,Sai Suraj Gupta,1,11.899999999999999
@+id/twv_list$,but i would like to be able to add shortcut to my possible,v4.2.3,2015-12-25,Barnaby Collins,3,11.799999999999999
@+id/twv_list$,although i wish i could simply import my bookmark from chrome and would be a 5 star for me,v4.2.3,2015-11-05,Abdullah Al-Marhuby,4,11.799999999999999
@+id/twv_list$,or add an option to disable the animation please,v4.2.3,2015-10-05,VVin Wu,4,11.899999999999999
@+id/twv_list$,and the right i dismiss it,v4.3.3,2016-12-02,Kathryn Davidson,1,5.2
@+id/twv_list$,not lacking option either,v4.3.3,2016-11-17,Milija Milanovic,5,11.899999999999999
@+id/twv_list$,then there is an option to set any user activate text and change the text size of any web page,v4.3.3,2016-07-29,Aleksandar Dimitric,5,36.6
@+id/twv_list$,it need import bookmark option and folder for them,v4.3.3,2016-05-02,,4,11.899999999999999
@string/loading$,please do something to disable,v4.3.3,2016-07-29,Vladimir Kryptonian,1,6.7
@+id/icon_desktop$,scored a 64 in the benchmark which wa the same for at puffin at 460 but ha more control over your privacy chrome and it light weight,v4.2.3,2015-10-18,Tony Harrison,4,8.799999999999999
@+id/proxyHost$,i really like the text feature,v4.2.3,2016-04-13,sky maze,5,10.9
@+id/proxyHost$,another suggestion is adding a button to close all tab at once basically an exit button,v4.2.3,2015-11-09,michal m,4,10.9
@+id/proxyHost$,duck integration and duck suggestion,v4.3.3,2017-03-29,Markus Malecki,5,6.6000000000000005
@+id/proxyHost$,also up and down button,v4.3.3,2017-01-14,Edward B,4,9.700000000000001
@+id/proxyHost$,with desktop style tab there is no way to access bookmark,v4.3.3,2016-12-17,John Bilkey,5,9.0
@+id/proxyPort$,and fast reading and you can chose reading from dark to lite,v4.2.3,2016-02-11,Chris K,5,13.0
@+id/proxyPort$,i also like swiping for bookmark or tab which make it much more convenient on always tapping button on the upper right corner,v4.3.3,2017-04-23,,4,12.4
@+id/proxyPort$,the dark and theme are unique,v4.3.3,2017-03-14,A X,4,9.0
@+id/proxyPort$,i would only say i wish i could use adobe flash on android 51 lollipop,v4.3.3,2016-12-16,Josh Kennedy,5,16.9
@+id/proxyPort$,do wish the wa updated more often tho,v4.3.3,2016-10-16,John Alex,5,10.299999999999999
@+id/icon_reading$,please add syn,v4.3.3,2016-09-23,Євген Гарастович,4,7.3999999999999995
@+id/icon_reading$,please add navigation gesture and screen reader support,v4.3.3,2016-05-08,Dhiraj Konge,5,7.3999999999999995
@+id/textViewTitle$Large Text,have u been guy,v4.3.3,2016-05-07,Gigih Halim,5,2.9000000000000004
@+id/progress_view$,need to be and with gesture,v4.3.3,2017-01-30,Adrián Iriarte,3,7.8
@+id/url$,light,v4.2.3,2016-03-04,Aung Phyo,1,3.8
