feature,count
@+id/default_list_name$,17
@+id/monster_list_description$,0
@+id/section_view_fragment$,5
@+id/display_back$,21
@+id/spell_list_school$,0
@+id/spell_list_description$,1
@+id/feat_list_name$,0
@+id/section_list_fragment$,1
@+id/rule_list_name$,0
@+id/startupProgressBar$,3
@+id/display_webview$,1
@+id/spell_list_name$,0
@+id/spell_list_qualities$,0
@+id/details_view_fragment$,3
@+id/search_list_name$,0
@+id/appIcon$,0
@+id/display_star$,2
@+id/history_title$menu_history,4
@+id/rule_list_misc$,0
@+id/race_list_misc$,0
Description: $,12
@+id/default_list_misc$,9
@+id/class_list_misc$,0
@+id/race_list_name$,4
@+id/textView1$Loading Books...,0
@+id/character_list_misc$,0
@+id/monster_list_type$,0
OTHER,2
@+id/monster_list_name$,1
@+id/monster_list_description_title$,0
@+id/history_drawer_list$,1
@+id/feat_list_description$,0
@+id/feat_list_prereqs$,2
@+id/search_list_misc$,0
@+id/content_error$,0
@+id/character_list_name$,0
@+id/details_list_fragment$,0
@+id/skill_list_description$,0
@+id/search_list_parent$,0
@+id/feat_list_prereqs_title$,0
@+id/skill_list_qualities$,0
@+id/display_title$,6
@+id/skill_list_attribute$,1
@+id/feat_list_type$,0
@+id/skill_list_name$,0
@+id/class_list_name$,0
