Feature,Review,Version,Date,User,Rating,Similarity
@+id/progress$,for when going into for a brief moment it show old black gradient and while in status bar turn bar not themed,v1.3,2014-12-15,Scott Ericson,4,14.799999999999999
group$,just keep getting better,v1.5.1,2015-04-14,Dominic Chiesa,5,7.199999999999999
@+id/drawer_buttton$,light,3.0.,2016-10-31,Ldog s,4,28.000000000000004
@+id/drawer_buttton$,i have a couple folder i access regularly are buried in the folder,3.0.,2016-07-16,Cody J,4,11.799999999999999
@+id/drawer_buttton$,the only thing i did not like is there is no option of seeing the property of multiple selected file,3.0.,2016-06-20,Ekasmeet Singh,4,31.2
@+id/drawer_buttton$,please add progress bar copying file and,v1.3,2014-12-21,Sukumar Duvvuru,4,31.2
@+id/drawer_buttton$,i suggest using,v1.3,2014-12-19,Ben Van Riper,5,13.4
@+id/drawer_buttton$,with other file doing this show an option to select some song in storage or use the default android tone,v1.3,2014-12-14,Cadu Silva,4,31.2
@+id/drawer_buttton$,why is it making folder doing backup of any,v1.4,2015-02-01,abhinav bansal,2,11.799999999999999
@+id/drawer_buttton$,functionality see external in directory,v1.4,2015-01-25,Dylan Phoenix,3,23.799999999999997
@+id/drawer_buttton$,please add a filter it great file an cool,v1.5.1,2015-04-05,Dr. Saunak Chowdhury,4,31.2
@+id/drawer_buttton$,the best material file but please add system,v2.0.5,2015-07-24,Michal Malčovský,4,31.2
@+id/drawer_buttton$,problem in hiding multiple file or folder suppose i have following folder,v2.0.5,2015-07-21,Tirth Patel,4,33.2
@+id/drawer_buttton$,folder creation work,v2.0.5,2015-06-21,Steve Brown,5,11.799999999999999
@+id/date$,improvement get my 5th star,3.0.,2016-11-20,Ethan Hamburg,4,24.0
@+id/date$,the is very charming but still lack of usability like fast hope it will get better soon,3.0.,2016-08-01,Dika SP,4,24.0
@+id/date$,add move to card the,3.0.,2015-12-01,khalid arhalla,4,27.900000000000002
@+id/date$,add more feature for a power like card and cloud storage,3.0.,2015-09-20,Derick Peterson,3,28.4
@+id/date$,maybe after the next update we could get little feature,v1.0,2014-11-26,Trevon Crawford,4,24.0
@+id/fab$,it would be greatly appreciated,3.0.,2017-03-04,user 7,5,9.8
@+id/fab$,but i would like to see some improvement in it,v1.5.1,2015-04-21,Projjal Sengupta,5,17.400000000000002
@+id/checkBox$doforall,this is too great a beta many feature is available for free,v1.3,2014-12-18,Vallen Valliance,5,10.6
@+id/secondLine$,too much wasted space,3.0.,2016-02-02,Tek Wyzrd,3,3.2
@+id/secondLine$,it color the top notification panel pink,v1.0,2014-11-23,Sachin Singh,3,8.1
@+id/checkBox2$anonymous,now it purpose is to cram feature,3.0.,2016-08-06,Sudhir Khanger,2,9.9
@+id/checkBox2$anonymous,a few requested feature,v1.0,2014-11-23,Daniel Millard,4,9.9
@+id/checkBox2$anonymous,still waiting for more feature,v1.0,2014-11-16,Kishore Kumaran S,4,9.9
@+id/checkBox2$anonymous,lack feature,v1.0,2014-11-12,Carlos Abreu,4,9.9
@+id/pager_title_strip$,but need some improvement,3.0.,2016-08-05,Mayur Naik,5,18.9
@+id/pager_title_strip$,the is but it need some improvement like top part might be of a lesser height,v1.0,2014-11-12,Sachin S,5,18.9
@+id/pager_title_strip$,also please allow to rename bookmark,v1.1,2014-12-06,George Mag,4,12.5
@+id/pager_title_strip$,it ha basic feature working well but first of need fixing on and maybe some gesture,v1.1,2014-12-04,سید رضا سعیدزاده,4,18.9
@+id/pager_title_strip$,i think you need to go back to the material design guideline and reconsider your choice,v1.3,2015-01-01,Scott Kurtz,2,47.199999999999996
@+id/pager_title_strip$,right the lack storage write is available on lollipop the collapsible bar need a revamp and much more,v2.0.5,2015-06-13,Savez Siddiqui,4,25.4
OTHER,sent waited,v1.3,2014-12-14,Neil Sanford,1,0
@+id/description$,feature request add exported file provider like in e explorer,3.0.,2017-03-16,Станислав Петряков,3,37.4
@+id/description$,new feature are being added regularly too,v1.4,2015-01-19,Jazli Aziz,5,23.200000000000003
@+id/progressBar1$,i use dual sense 50,3.0.,2017-02-22,S Murali Mohan,5,7.7
@+id/progressBar1$,but what i am missing in it is the use of gesture,3.0.,2016-10-21,Purnendu Podder,5,7.7
@+id/progressBar1$,or use all thread available,3.0.,2015-08-21,Matthew Patrick,5,7.7
@+id/progressBar1$,please randomize icon color random theme is activated,3.0.,2015-07-31,Kat Yu,4,12.2
@+id/progressBar1$,improvement 1,v1.4,2015-01-25,Dylan Phoenix,3,10.6
@+id/progressBar$,give u a red primary and secondary color,3.0.,2015-10-20,Michael,2,9.3
@+id/title$,strange you must scroll to the top of a listing to find the action button,3.0.,2016-08-05,David Hanney,1,20.200000000000003
@+id/title$,is very modern and color scheme can be customized,v1.5.1,2015-04-26,Tee Isme,5,5.5
@+id/editText$,pure white brought me here,3.0.,2016-04-03,ilir pirani,5,2.1
@+id/action_overflow$,work flawless on lollipop,v1.0,2014-11-17,Amit Maheshwari,5,7.8
@+id/action_overflow$,darker status bar,v1.0,2014-11-12,Sachin S,5,12.8
@+id/size$,on sharing a there is no option of,3.0.,2017-02-20,somen kundu,4,24.4
@+id/size$,but i would like to have storage info bar in option,3.0.,2017-02-19,ABHAI KUMAR,5,24.4
@+id/size$,my request would be to add support for cloud storage,3.0.,2016-10-25,Joe Bennett,4,22.2
@+id/size$,not many option,3.0.,2016-10-10,Jeroen,3,24.4
@+id/size$,no option to just move a,3.0.,2016-10-07,Jay L Harmon,1,24.4
@+id/size$,but please do provide an option to disable pull to i pull down intending to reach top of the list fast it refreshes,3.0.,2016-09-04,Sriram Vemuri,5,24.4
@+id/size$,only thing i can think of is missing is the ability to add bookmark to folder on the android home,3.0.,2016-07-16,Cody J,4,22.2
@+id/size$,a rollback would be best option,3.0.,2016-07-14,Fab Mini,1,24.4
@+id/size$,the move option ha can no longer move folder around,3.0.,2016-07-10,Mark Deacon,2,24.4
@+id/size$,please add folder,3.0.,2016-07-04,Xuhu Zhang,5,22.2
@+id/size$,please add support,3.0.,2016-06-05,Sajin Kasali,5,22.2
@+id/size$,very and ton of option,3.0.,2016-03-15,Bryan Guerrero,5,24.4
@+id/size$,nice just need an option to view the size of and home,3.0.,2015-12-10,Abhishek Kumar,5,54.7
@+id/size$,add search to the text editor,3.0.,2015-11-27,Vala Zadeh,4,22.2
@+id/size$,i have a please i select multiple give an option to see the property or total space used,3.0.,2015-11-04,fist strike,5,24.4
@+id/size$,this is i just want to request to have an option to display the used and free space rather the total number of will rate to 5 star if granted,3.0.,2015-09-15,Lord Bryan Gloria,3,24.4
@+id/size$,i hope they add more feature,3.0.,2015-09-08,Khevin P.,5,22.2
@+id/size$,very nice fluid design will really appreciate u all could add a note viewer and editor,v1.0,2014-11-24,Keron Jones,5,40.5
@+id/size$,can u please add some animation like those in keep,v1.0,2014-11-19,guneet sharma,5,22.2
@+id/size$,add this option,v1.0,2014-11-19,ilya Tsuprun,4,29.299999999999997
@+id/size$,time to add some functionality like zoom and a couple of other feature,v1.0,2014-11-18,,5,22.2
@+id/size$,really nice material design with many different available color option in the menu,v1.3,2015-01-04,Brooks Sorensen,5,36.1
@+id/size$,no bloat or add with fresh and theme,v1.3,2015-01-03,Corey Kevin,5,22.2
@+id/size$,thank you much for fixing the share option problem,v1.3,2014-12-15,Ayan Pal,5,24.4
@+id/size$,the user see the default android option,v1.3,2014-12-14,Cadu Silva,4,24.4
@+id/size$,please add this in the next update,v1.4,2015-02-15,Robin Hong,3,22.2
@+id/size$,you add these,v1.4,2015-01-28,Hesam Sanei,4,22.2
@+id/size$,could have included an option for sharing,v1.4,2015-01-18,A G Karthik,5,24.4
@+id/size$,very nice made file add an option to disable root folder access which is always showing then i will give 5 star,v2.0.5,2015-07-14,KARAN SINGH,4,42.6
@+id/size$,please add networked access to,v2.0.5,2015-06-21,Steve Brown,5,22.2
@+id/size$,no option,v2.0.5,2015-06-12,uddipta das,1,24.4
@+id/size$,also could you add support,v2.0,2015-06-05,Lord_Zane 55,3,22.2
@+id/size$,the latest update is you added many great option,v2.0,2015-05-30,Ádám Bors,5,24.4
@+id/size$,why you moved the add button on top instead of bottom right corner,v2.0,2015-05-28,Christian Bodelsson,4,22.2
@+id/size$,add option to turn off it needlessly slows down the operation,v2.0,2015-05-26,Muzirian മുസിരിയൻ,4,29.299999999999997
@+id/profile_pic$,although i would suggest you add the ability to remove the bookmark and manager short cut from the sidebar,v1.1,2014-12-11,Osman Hanif,4,27.900000000000002
@+id/overflow$,open stunning and all feature one need,3.0.,2017-01-29,Nonononoki,5,37.0
@+id/overflow$,just one scrolling the should hide thereby making aesthetic more towards material philosophy,v1.0,2014-11-16,Hardik Nagar,5,34.199999999999996
@+id/overflow$,one suggestion though,v1.0,2014-11-16,Andras LOHF,4,28.799999999999997
@+id/gridView$,it is a good reason for me to set up a on my instead,3.0.,2016-05-16,Anders Alyhr,4,16.7
@+id/gridView$,need a for move button and ability to make the bar a bit narrower,3.0.,2015-11-21,Syl M,4,29.2
@+id/gridView$,could you guy add interval select,3.0.,2017-03-30,Saif Hassan,4,34.4
@+id/gridView$,can you guy add split view make some multitasking easier,v1.0,2014-11-16,David Cuevas,4,50.0
@+id/gridView$,please make clearer,v1.0,2014-11-16,Sakuraba,4,29.2
@+id/gridView$,and theme,v2.0.5,2015-07-28,Harry Carson,5,3.4000000000000004
@+id/gridView$,can you make it an option,v2.0,2015-06-05,Lord_Zane 55,3,29.2
