feature,count
@+id/detail_instructions$,0
@+id/widget_parsed_events$,1
@+id/detail_event$detail_retrieval,1
@+id/detail_expires$,0
OTHER,0
@+id/detail_icon$,0
@+id/alert_summary$alert_summary,0
@+id/detail_target_header$detail_target,0
@+id/event_raw_xml$,3
@string/app_name$,0
@+id/detail_expires_header$detail_expires,0
@+id/detail_description_header$detail_description,0
@+id/detail_target$,0
@+id/alert_title$alert_title,1
@+id/widget_title$widget_title,0
@+id/detail_instruction_header$detail_instructions,0
@+id/detail_description$,0
@+id/about_ok_button$ok,0
@+id/parsed_events$,0
