feature,count
@+id/buttonThree$my3,2
@+id/textViewOutOfBundleType$,0
@+id/continue_button$continue_button,0
OTHER,0
@+id/buttonOk$ok,0
@+id/textViewOutOfBundle$out_of_bundle_container_label,1
@+id/error_close_button$,0
@string/app_name$,0
@+id/about_version$,0
