feature,count
@+id/textView2$lbl_template_name,1
@+id/always_gplay$always_link,0
@+id/lbl_updated$lbl_updated,1
@+id/lbl_val_version$,0
@+id/lbl_installed$lbl_installed,3
@+id/tag_input$,1
@+id/lbl_version$lbl_version,0
OTHER,1
@+id/tags$,0
@android:id/list$,0
@+id/lbl_val_updated$,0
@+id/tags$lbl_annotations_description,0
@+id/tmpl_name$,0
@+id/format_select$,2
@+id/lbl_val_installed$,0
@+id/icon$,0
@+id/empty$lbl_templates,0
@+id/textView1$lbl_template_editor,0
@+id/format_as$lbl_format_as,0
