feature,count
@+id/trezorPinButton9$\?,0
@+id/receiveAddressText$\n\n,0
@+id/trezorPinButton5$\?,0
@+id/listValueText$123,0
@string/trezorProvidePin$,0
@string/receiveAddressSubTitle$,0
@+id/sendMaxButton$,0
@string/newTxFee$,0
@+id/mainLocalBalanceIcon$,0
@+id/newTxAmountLabel$newTxAmount,0
@+id/sweepAddressMainText$,0
@+id/listBitcoinIcon$ ,0
@+id/newTxAmountScaleText$m,0
@+id/pinLoginButton$,0
@+id/pinText$,0
@+id/txReceivedOnMargin$,0
@+id/txFeeUnit$ ,0
@+id/newTxFeeLabel$newTxFee,0
@+id/txFeeInfoText$,0
@+id/listValueQuestionMark$\?,0
@+id/txAmountText$amount,0
@+id/txUnconfirmedEstimatedBlocks$willConfirmAfter,0
@string/newTxAmount$,0
@+id/txUnconfirmedIncreaseFee$increaseFee,0
@+id/receiveQrImageView$,0
@+id/textCode$twoFacGauthTextCode,0
@+id/btchipPINValue$,0
@string/sendAmountText$,0
@+id/sendScanIcon$,0
@+id/btchipPinPrompt$btchipProvidePIN,0
@+id/newTxFeeText$,0
@string/twoFacEmailConfirmNotice$,0
@+id/sendToEditText$,0
@+id/trezorPinButton2$\?,0
@+id/trezorPassphraseValue$,0
@+id/qrInDialogImageView$,0
@+id/empty_list_view$no_peers_connected,0
@string/welcomeGreenBits$,0
@+id/newTxAmountUnitText$ ,0
@+id/listBitcoinScaleText$m,0
@+id/mainBalanceQuestionMark$\?,0
@+id/receiveNewAddressIcon$,0
@+id/txReceivedOnTitle$txReceivedOn,0
@+id/txFeeScale$,0
@+id/sendMaxLabel$MAX,0
@+id/trezorPinValue$,1
@string/newAddress$,0
@+id/sweepAddressPasswordText$,0
@+id/listReplaceableText$replaceable,0
@+id/trezorPinButton6$\?,0
@+id/signupQrCodeIcon$,0
SMS$,0
@string/txFeeInfo$,0
@+id/sendBip70ProgressBar$,0
@+id/sweepAddressAddressText$,0
@+id/sendSubAccountBalance$,0
@+id/newTxFeeScale$m,0
@+id/peer_list_fragment$,0
@+id/listInOutIcon$,0
@+id/newTxFeeUnit$ ,0
OTHER,0
@+id/listWhoText$,0
@+id/txBitcoinScale$,1
@+id/sendToNoteText$,0
@+id/trezorPinButton3$\?,0
@+id/txUnconfirmedEstimatedBlocks$Will confirm after blocks (estimated): 15,0
@+id/newTxAmountText$,0
@+id/sendAmountFiatEditText$,0
@+id/sendAccountName$,0
@+id/trezorPinButton1$\?,0
@+id/pinErrorText$,0
@+id/receiveCopyText$copyAddress,0
@+id/sendSubAccountBalance$ 0.00,0
Google Authenticator$,0
@+id/txUnconfirmedText$txUnconfirmedTx,0
@+id/useNativeAuthentication$useNativeAuthentication,0
@+id/firstLogInButton$firstLogInText,0
@+id/trezorPinButton8$\?,0
@+id/mainBitcoinScaleText$,0
@+id/pinSkipButton$pinSkipText,0
@string/txAmountText$,0
@+id/bitcoinUnitText$,0
@+id/mainLocalBalanceText$0,0
@+id/listWhenText$,0
@+id/sendFiatIcon$,0
@+id/txReceivedOnText$,0
@+id/sendAmountEditText$,0
@+id/code$,0
@+id/sendToNoteIcon$,0
@+id/mainBalanceBitcoinIcon$ ,0
@+id/newTx2FACodeText$,0
@string/sendToText$,0
@+id/sendAccountNameLabel$footerAccount,0
@+id/pinSaveText$,0
@+id/sendBitcoinUnitText$,0
@+id/pinSaveButton$,0
@+id/firstMadeByText$madeBy,0
@+id/trezorPinButton7$\?,0
@+id/trezorPinButton4$\?,0
@+id/empty_list_view$No Peers Connected,0
@+id/sendSubAccountBalanceUnit$ ,0
@string/twoFacEmailChangeNotice$,0
@+id/bitcoinScaleText$,0
@+id/sweepAddressPasswordPromptText$,0
@string/greenaddress_headline$,0
@+id/mainBalanceBitcoinIcon$,0
@+id/sendNoTwoFacFooter$noTwoFactorWarning,0
@+id/sendSendButton$sendSendButton,0
@+id/mainBalanceText$0,0
@+id/receiveCopyIcon$,0
@+id/sendBitcoinScaleText$,0
@+id/txBitcoinUnit$ ,0
@string/trezorProvidePassphrase$,0
@+id/sendSubAccountBitcoinScale$m,0
"@+id/txUnconfirmedRecommendation$If you increase the fee now to the recommended level, the transaction will be expected to confirm after 2 blocks.",0
@+id/mainTransactionList$,0
@string/pinTitleText$,0
@+id/listNumberConfirmation$1,0
