feature,count
@+id/dialog_welcome_extra_text$app_name,2
@+id/alert_dialog_message$,1
@+id/dialog_welcome_extra_button$,3
@+id/button_delete_wifis$button_title_delete_wifi,4
@android:id/list$,2
OTHER,3
@+id/dialog_welcome_extra_toggle$,3
@+id/button_enable_wifis$button_title_enable_wifi,7
@+android:id/title$,1
