feature,count
Part:$,0
@+id/detail_armor_image$,0
S Rank:$,0
@+id/dragon_res$,2
@+id/detail_weapon_bow_charge1$,0
@+id/detail_decoration_image$,0
@+id/rate$,0
2$,0
@android:id/list$,1
Description:$,0
@+id/detail_weapon_blade_note1$,0
@+id/grid_item_label$@+id/label,0
@+id/detail_armor_label$,0
Attack:$,0
Charge 4:$,0
@+id/detail_monster_image$,0
Rare:$,0
@+id/percentage$,0
A Rank:$,0
@+id/item_img2$,0
@+id/attack$,0
@+id/detail_decoration_label$,0
@+id/add$,0
@+id/a_rank$,0
Subquest:$,17
Quest:$,0
@+id/weapons$weapons,0
@+id/detail_monster_label$@+id/label,0
Type:$,0
@+id/detail_weapon_name$,0
Slots:$,0
@+id/element$,0
Reward:$,0
Slot:$,0
@+id/detail_weapon_creation$,0
@+id/header2$Item 1,0
@+id/detail_weapon_affinity$,0
@+id/skilltrees$skill_trees,0
@+id/b_rank$,0
@+id/detail_weapon_attack$,0
@+id/dragon$,0
OTHER,0
@+id/detail_weapon_element$,0
@+id/detail_weapon_blade_special$,0
@+id/quests$quests,0
@+id/detail_weapon_slot$,0
Defense:$,1
@+id/quest$,0
@+id/detail_monster_label$,0
Buy:$,7
Creation Cost:$,1
@+id/rename$,2
@+id/detail_weapon_bowgun_special$,0
@+id/item_type$,0
@+id/detail_weapon_blade_note3$,0
@+id/skill$,0
@+id/map_image$,0
@+id/quest_location$,0
@+id/grid_monsters$,0
@+id/armor$,0
@+id/monsters$monsters,0
@+id/quest_unstable$,0
@+id/detail_weapon_rarity$,0
@+id/poison$,2
@+id/quantity_type$,0
@+id/input_search$,0
Element:$,0
@+id/reward$,0
Ammo$,0
@+id/grid_item_image$,0
@+id/detail_monster_unstable$,0
@+id/monster$,0
@+id/arrow$,9
@+id/sharpness$,0
Location:$,0
@+id/grid_home$,0
@+id/detail_weapon_blade_note2$,0
@+id/armors$armor,0
@+id/part$,0
@+id/detail_item_image$,0
@+id/element_area$Area,0
3$,0
@+id/subquest$,0
B Rank:$,0
Rarity:$,11
Upgrade Cost:$,0
@+id/rank$,0
@+id/detail_item_label$@+id/label,0
@+id/cut$,0
@+id/text$,10
@+id/detail_weapon_bowgun_steadiness$,0
@+id/extra$,0
# Players:$,0
@+id/detail_weapon_blade_special_value$,0
@+id/header3$Item 2,0
Charge 2:$,0
@+id/fire$,0
@+id/item_img3$,0
Fire Res:$,1
@+id/map_text$,0
@+id/drawer_text_item$,0
@+id/filler$,3
Name:$,1
@+id/header4$ Slot,0
@+id/method$,1
@+id/detail_weapon_bow_charge4$,0
@+id/location$,0
@+id/decorations$decorations,0
Level:$,0
@+id/s_rank$,0
@+id/detail_weapon_bowgun_reload$,0
@+id/item_text3$,0
@+id/map$,0
Sharpness:$,1
@+id/slot$,0
@+id/detail_weapon_upgrade$,0
@+id/grid_locations$,0
@+id/type$,0
1$,0
@+id/area$,0
@+id/detail_weapon_defense$,0
@+id/buy$,2
@+id/impact$,1
@+id/quest_name$,1
@+id/item_text1$,0
@+id/combining$combining,1
@+id/icon$,1
Charge 3:$,0
@+id/key$,0
@+id/level$,0
@+id/expandableListView$,0
@+id/point$,0
@+id/detail_weapon_type$,0
Charge 1:$,0
Quantity:$,1
@+id/name$,1
@+id/detail_weapon_bow_charge3$,0
@+id/fire_res$,0
@+id/rare$,0
@+id/item_image$,0
@+id/water_res$,2
@+id/image$,0
@+id/edit$,1
@+id/special$,0
@+id/defense$,2
@+id/item$,0
@+id/amount$,0
@+id/item_img1$,0
@+id/item_text2$,0
@+id/power$,3
Water Res:$,0
@+id/body_part$,0
@+id/items$items,0
@+id/description$,0
@+id/detail_weapon_bow_arc$,0
@+id/water$,1
Dragon Res:$,0
@+id/detail_weapon_bow_charge2$,0
@+id/locations$locations,0
@+id/awaken$,8
@+id/detail_weapon_blade_sharpness$,0
@+id/charge$,0
@+id/detail_weapon_bowgun_recoil$,0
Type$,0
@+id/extra_type$,0
Drg$,0
@+id/shot$,9
@+id/impact_area$Area,0
