# deletions,date,commit message
184,2014/8/17,Added SyncthingActivity to avoid code duplication.
47,2014/8/17,Avoid the same node being added multiple times (fixes #65).  When trying to add a node that already exists the existing node is edited instead.
4,2014/8/17,Fixed error text position in repository item layout (fixes #78).
2,2014/8/16,Bumped version to 0.4.7.
2,2014/8/16,Improve documentation
