# deletions,date,commit message
3,2016/1/27,Updated dependencies.
1,2016/1/23,Added notification for connection from unknown device
151,2016/1/23,Simplified event handling code.
5,2016/1/23,Improved handling for empty device IDs.
17,2016/1/23,Removed unused compatibility code.
1,2016/1/21,Check if JSON string is null before parsing.
1,2016/1/21,Display partial ID if device name is empty (fixes #419).
8,2016/1/21,Allow empty device names.
2,2016/1/21,Fixed crash if listener is null (fixes #482).
2,2016/1/18,Fixed forum URL in Google Play description (#ref 530).
2,2016/1/17,Bumped version to 0.7.6
1,2016/1/17,Updated syncthing to v0.12.15
200,2016/1/17,Improved delete folder/device strings (fixes #536).
