App,Store,App ID,Review ID,Country,Version,Rating,Date,Author,Subject,Body,Translated Subject,Translated Body
Syncthing,Google Play,com.nutomic.syncthingandroid,Z3A6QU9xcFRPRV9XbGY2MkZqM1hJNFZWbUljZmJvVldhZkoyRXBPSjBNY0pZUkVSaW1MNmY2MFI2WnhFckRnV0czWkZTYkhmc3FxVmUyT0x3RmtDMk13cUE,English,,1,2015-11-11,Dave Spedzia,Android 6,Fits not work with Android 6. Will not sync to external devices.,,
Syncthing,Google Play,com.nutomic.syncthingandroid,Z3A6QU9xcFRPRjNfOWpGa3JBUW44b2lXSnlIU3hWRk9oRWJVS294Qkx6bUZEcjFaY2FRME1TdHJBRmllbERpTGxaMWs4aW1nbzJHMTlud29QU1dpenBFb3c,English,,5,2015-11-11,Renato Alves,"",Still have a few problems keeping it running and syncing when running in the background. Also waiting for external SD support using the newer file permission API.,,
Syncthing,Google Play,com.nutomic.syncthingandroid,Z3A6QU9xcFRPSGwwaVpNLVdWbml5bnR4VGx1TDNpY0kxTG4tQnhNUzUxZWtJVW9mTzRCaEtEZktYMVVYcmgwYWhtRko2QWl6Ml8ycVFpa1lnUmkxOUtkdEE,English,,5,2015-11-10,Adolfo Brandes,Better than btsync,"I've been using this as a replacememt for btsync since v0.10.  It not only works much better than btsync, but it's also open source!",,
Syncthing,Google Play,com.nutomic.syncthingandroid,Z3A6QU9xcFRPRkxwSFVQbktGc1RqaEJqcWh4bUhHblpKdDVER3ZjZGdobVA2NElybkhPZEdpY1BBVE9rSjBPYmZGMDBjckZLRWFxcjVmUmRMZUVrUFJDemc,English,,5,2015-11-10,Nathan Morrison,"",Works quite well for a FOSS app,,
Syncthing,Google Play,com.nutomic.syncthingandroid,Z3A6QU9xcFRPSGVwT1JHQnhMb2ZHNlJPenlBRjhxT1NqQ2FtMExNZjgtTzNnRENJMDVSbEJtM21wOHBOaTk3eGdER0hjdExIclNudzdrSm1SV3EzRC0zcVE,English,,5,2015-11-09,Михаил Выдренко,5+,5+,,
Syncthing,Google Play,com.nutomic.syncthingandroid,Z3A6QU9xcFRPSGFsb3RnU2ktVHN1Yno0R2xSa3I5RUFkQzNpY0hOYWQ4Szh1dFFFWmhTckI3czVfM3loV2hzV1BuaWtENWh0SGROZXd0a09ZeWlLRU81enc,English,,5,2015-11-09,Ben Hamel,"Excellent app, better than all the rest",Beats all competitors and it's free!! Works immediately and automatically. Issues are fixed quickly.,,
Syncthing,Google Play,com.nutomic.syncthingandroid,Z3A6QU9xcFRPR2NuYkxiRmNOMktIUXF2UVRPQVMtU1dqTG13bUtVNVF1dTFXXzBXc2JoaXREV0xjWTVIZF9YTGl1M0FaTEpuOVQ0UzI3ZHZlX0RIbzZrVmc,English,,4,2015-11-09,Bryan Mickelson,It's really getting better now.,I've made the switch from the closed source alternative and it seems to work well. Read all of the docs. I wish the backward compatibility was better  from version to version though. In time...,,
Syncthing,Google Play,com.nutomic.syncthingandroid,Z3A6QU9xcFRPSEhHbF9HQ1NJNXFqSlhkTGNGOG03bTN2Vi02M3hfVXNiNkZkaFYyRmdfNlJEbGdoSmlFSzFvSlZJSjFaUm4wYUczd3RWTFNGOTEweTJwMWc,English,,5,2015-11-09,Eric Munson,Works really well,"Setup wasn't as seemless as it could have been, but it wasn't too hard either.  Has been working without me noticing it for several weeks.",,
Syncthing,Google Play,com.nutomic.syncthingandroid,Z3A6QU9xcFRPSGliZW5CZDctaGRwU0dBZkRuVW53V2RuNDJuUVNZbnpNYTI4VWVacDNYY2RjTEV3dzB4NDZZSVRBVXI0VVgwY3FDaWkzUl9UT1ZvUmFHeGc,Italian,,5,2015-11-09,Emanuele Bianco,Beeeello,Forse l'unica alternativa vera ai vari servizi di cloud,,
Syncthing,Google Play,com.nutomic.syncthingandroid,Z3A6QU9xcFRPRWhKQTdEYkpZN3Y5eG55T0c4Sm5iSGRUbWxxZml5d1dkQkFlTmd2Mi0xY2NOTUtMOHdZUHprdzhqc0Y1N05vcy1QenA2OUEwMXZaZFNVWlE,German,,5,2015-11-11,Oliver Harwardt,"",Great App! Thanks for the update!,,
Syncthing,Google Play,com.nutomic.syncthingandroid,Z3A6QU9xcFRPRnBCdnRCRHBoSmFkR1dSWUFHYWdiMDQxWkRZN1c5VFVuS1dMN2FSSkxIem9DNWN1Z1lzQjE2Yk93SzBBZnZQZkc1ejRYMkdMMEpiZG9WLWc,German,,5,2015-11-10,Matthias Schmidt,"","Ich bin mittlerweile sehr zufrieden mir der APP, deswegen volle Punktzahl",,
Syncthing,Google Play,com.nutomic.syncthingandroid,Z3A6QU9xcFRPR1R6RU9SbE9oZjhDa1pEdHVqWmswc0pOTDNXRXhRZGlFNnoyOEtYQUo5TjhIdnNCbUVES2JQVm1RcWx2alBJbXd6LXl2c0VWLVBtQzBZc1E,Russian,,5,2015-11-11,Николай Мельков,"",Авансом,,
Syncthing,Google Play,com.nutomic.syncthingandroid,Z3A6QU9xcFRPRWxKQ0YyOUFFb2dvLXFLS2xFM1J3dW53cWQ3d195U2ZTOUZ5cjQ3NVpPY3g3ekF0b0FkWGk1NzdPZzBkNmNZaDRqZ2FmQ091eDlWLXhwa3c,Spanish,,5,2015-11-11,Ricardo Malagon Jerez,Sólido,La interfaz no estorba para implementar accesos especiales como TOR.,,
Syncthing,Google Play,com.nutomic.syncthingandroid,Z3A6QU9xcFRPRmhjTktRMFVVX2pvVzZ6c195VloybkV5MzdUcGd4WlZnY0JzeF91eUxaazY3LXpza3M3aFdsRXRmTTduWkw3Y3BEWm9nRVYyY19DYVVhYkE,Spanish,,5,2015-11-11,Mauro Abramovich,Excelente. Superior a BtSync,La versión 12 mejoró mucho la performance. Muchas opciones para configurar las carpetas a sincronizar según tus necesidades. Recomendado.,,
Syncthing,Google Play,com.nutomic.syncthingandroid,Z3A6QU9xcFRPR3V1eWtxMExvZlFDa1RPVEU1TjR1MU5BS29hMHk4ejZyNUFINlA0Y1Njc3NpLW5oZTZRQmVjRXN0TlVGMVRYeE94NlQ3SVlWNm05UUZVcHc,Spanish,,5,2015-11-10,Edison Ibáñez,"",Simplemente genial,,
