App,Store,App ID,Review ID,Country,Version,Rating,Date,Author,Subject,Body,Translated Subject,Translated Body
Syncthing,Google Play,com.nutomic.syncthingandroid,Z3A6QU9xcFRPRVVKWFJPNGx2VHBYQkZjSmZsV3RvWWpyZ3UyRFlCWF96b0hWSkZiNGp3TGZFaHVTSExMbURmWVdxdFBqeF9KaDRVc0lMZjdhUnhTSU81dGc,English,,5,2014-12-07,Chris Bayot,Free and Open Source,"Now that proprietary and closed source Sync is ready to start charging for its service, Syncthing is perfect!",,
Syncthing,Google Play,com.nutomic.syncthingandroid,Z3A6QU9xcFRPSEVVZjRnQm9MNWxEMzgtX3FpekttNXhWLTRkYzZlYnRpaUtLU3d3MmsteGc0TnljaWpSLW1jUVNLSk5DeGx3QURFUmZLQ0RmOURIbDhmSEE,English,,4,2014-12-07,Mizie Nordin,Need better UI,Overall apps experience is great.. Face a some hiccups when binary crash... the experience would be better if the UI is clean... Prefer the webui more than the native Android UI... Would like to see how it look like with material design...,,
