App,Store,App ID,Review ID,Country,Version,Rating,Date,Author,Subject,Body,Translated Subject,Translated Body
Syncthing,Google Play,com.nutomic.syncthingandroid,Z3A6QU9xcFRPSHJFSlVTV0hhS2VjaEVXYkpJMlFXaTJjNDRkWDZNNUI3SFRYSERrQ21icHJlQkRRczUtc2dSWjVUdF82OWlFcnlpU1JndUgxOHVXd1kyZFE,English,,1,2014-10-11,vivekanand jha,Not able to add folder into this,Not able to add folder in this application,,
Syncthing,Google Play,com.nutomic.syncthingandroid,Z3A6QU9xcFRPR1N5bUkwSUxBeTdRcGN2dllvU3JlVUZsWGp0RHlyb1R3OEkwTkZoYTBKZ1ZGSFlJR0QxVUhBMlp1WXJQVFZDckhLbTlQbWpWMVNqbDM5cHc,English,,5,2014-10-10,Vital Fernández,Please continue,Two way sync is the most important thing for android,,
Syncthing,Google Play,com.nutomic.syncthingandroid,Z3A6QU9xcFRPRUpiWFhGbmg1N0tQdlNNaGpBZnJHbmRnRzRXU3hybDk5LUhmTEY1T3FuRHNWblVKcGVkLVV3OFpqV0NZa203VjlXSHJ2elFodk1qRlhUbmc,English,,4,2014-10-09,Tim Addison,"",After setting it up it just works. Turn it in and it syncs up my photos and music to my home network! No more messing with plugging in many phone to add music:-),,
Syncthing,Google Play,com.nutomic.syncthingandroid,Z3A6QU9xcFRPSFl6Zmt4VFF1eFN4ZWFWMDRVcW9jaWwxNXUtUjJfVXJ3QjA3eUxJZE9VaGR6eU5xSVZzM3dJSU5iTWJwRUZ5MzM2NFF5ajE5WllaMUtDWVE,French,,5,2014-10-08,Alexandre Guédou,"",Enfin un bittorrent sync en open source où l'on peut avoir confiance dans la confidentialité de ses données,,
Syncthing,Google Play,com.nutomic.syncthingandroid,Z3A6QU9xcFRPRkZxbTdmR2FhNGJpeFJjcFdoaUpHUThCcE1nTjRmeUU5VVgyTTlqalF2Tm1mTnFvUWQ5b2xpWEx0RlZtazRXS0ZIQ01Za2FlVnJWZ0lJb0E,Czech,,5,2014-10-10,Philip Fry,Jen tak dál.,Držím palce,,
Syncthing,Google Play,com.nutomic.syncthingandroid,Z3A6QU9xcFRPR2tUSEZwR1lsZWJJY0VMbXZrRnhjNkYwTEwxT0x3MkRhSUR3d2l3OWFZbnYwRDJQLXNOODZSOVVFdkVwb0VsZGFQRlMyRTlxNWt5VThMZFE,German,,3,2014-10-11,Calypso Banana Puffy-Sleeves,Falsche Beschreibung.,"Diese App ist nicht annähernd eine wirkliche Alternative zu Dropbox, da für die gleiche Funktionalität ein eigener Server angeschafft werden muss, der dann immer laufen muss. Oder man lässt alle Daten immer synchronisieren was eine extreme Speicherplatzverschwendung darstellt, da eine Kopie jeder Datei auf jedem Gerät gespeichert wird. Gerade bei großen Dateien ziemlich lästig. Für mich damit unbrauchbar. Bitte Beschreibung aktualisieren.",,
Syncthing,Google Play,com.nutomic.syncthingandroid,Z3A6QU9xcFRPRjhFNl9Na29qLVF3LTJLVV93Y0VlVVhNdE9qWlBkSmxRSTVUZmp4WFNKamU2TzdtTXIzVWpMT2ZfQmdRb3hwaXpzbWdZRXVsU01wMUgxalE,Spanish,,1,2014-10-11,Roberto P. Rubio,"",No capable to run anything!,,
