App,Store,App ID,Review ID,Country,Version,Rating,Date,Author,Subject,Body,Translated Subject,Translated Body
Syncthing,Google Play,com.nutomic.syncthingandroid,Z3A6QU9xcFRPR0hYbzIzclBtc3JvT3dJM3dBTEp3b2o5b000Mndqdnh6Y0RRaVRfZFN6b2owVEZFZXU1OWVRS3drUjNiOUxyajZQd1lmMUF4cm16R3NKUHc,French,,5,2014-05-16,Thomas DEBELLE,Super initiative,Je vais bientot pouvoir remplacer btsync qui ne se décide pas a ouvrir son code.,,
Syncthing,Google Play,com.nutomic.syncthingandroid,Z3A6QU9xcFRPRTNRY01pOVhqemEySnlOUFlCckFRLUZlZzdwQ0hfcTlLanhDWE9TRnczcEpyY25nV1h2Nm5kb1UyVVZubjB6enpsYzBDZUZYTmZHSEdNMlE,German,,5,2014-05-20,Nils Gerstner,Nice,This app shows a lot of promise. Keep up the good work :),,
