# deletions,date,commit message
2,2015/2/05,Fixed "Address validation failed" on hw wallets for subaccounts  0x80000000 is already included in getI()
26,2015/2/05,Encrypted NFC mnemonic support
2,2015/2/05,Encrypted passphrase support
2,2015/2/05,release 1.39 stability improvements
10,2015/2/05,remove unused imports
