App,Store,App ID,Review ID,Country,Version,Rating,Date,Author,Subject,Body,Translated Subject,Translated Body
KeepScore - Score Keeper,Google Play,com.nolanlawson.keepscore,Z3A6QU9xcFRPRV9PMWpwTWlObE5WVEFlb0Nlb18wTHlBdzdUajJabG9TcUJTcG0tU2xUaWd1NXF6TkdXbGZGc1JqY196NkF6Q0hPT2IyeVFyM0JuRWtBMHc,English,,1,2017-05-18,nour el din Abu khalifa,,it wa working fine for 2 now it crash i open a certain game i exported the game score to a file and recovered back my score and i put them back into a new now the new game crash too,,
KeepScore - Score Keeper,Google Play,com.nolanlawson.keepscore,Z3A6QU9xcFRPRV9PMWpwTWlObE5WVEFlb0Nlb18wTHlBdzdUajJabG9TcUJTcG0tU2xUaWd1NXF6TkdXbGZGc1JqY196NkF6Q0hPT2IyeVFyM0JuRWtBMHc,English,,1,2017-05-18,nour el din Abu khalifa,,whats wrong with this,,
KeepScore - Score Keeper,Google Play,com.nolanlawson.keepscore,Z3A6QU9xcFRPRTRkOGo4aDNNLXo1NFlRLW1GZ2lLdjVHSm9QS3pYbTBaZEpULWVlSVdYd1V1LUVqajlnaEJhTHRDbmI2aVlBX1lHRFo5V1J6U3EweTUtcGc,English,,5,2017-05-11,Michael Bowerman,,perfect,,
KeepScore - Score Keeper,Google Play,com.nolanlawson.keepscore,Z3A6QU9xcFRPRTRkOGo4aDNNLXo1NFlRLW1GZ2lLdjVHSm9QS3pYbTBaZEpULWVlSVdYd1V1LUVqajlnaEJhTHRDbmI2aVlBX1lHRFo5V1J6U3EweTUtcGc,English,,5,2017-05-11,Michael Bowerman,,le screen lock a easy to use and really intuitive,,
KeepScore - Score Keeper,Google Play,com.nolanlawson.keepscore,Z3A6QU9xcFRPSHdoeDVVN1M0SmwzcHRieUNHUGlaN1h5ZkwyNzZtUklBZHotTVNLRVZJSW5vODZteWl3SE5kQnM5SVJlSlYwVzRsWTVPNVBtTXdrX2VTQXc,English,,1,2017-04-30,James Stearns,,junk,,
KeepScore - Score Keeper,Google Play,com.nolanlawson.keepscore,Z3A6QU9xcFRPRWJTVVFXd204ZW1OemVWS1l5cGxuOENPZEZIT1ZOOENSVXNRUmlxV1hqNEFpMzI2SkZMWldLYXA0VTd6VTVBTF8zLWZsU2x0NUljc3FYOEE,English,,1,2017-04-23,Steven Johnson,,it crashed and i wa winning,,
KeepScore - Score Keeper,Google Play,com.nolanlawson.keepscore,Z3A6QU9xcFRPRWJTVVFXd204ZW1OemVWS1l5cGxuOENPZEZIT1ZOOENSVXNRUmlxV1hqNEFpMzI2SkZMWldLYXA0VTd6VTVBTF8zLWZsU2x0NUljc3FYOEE,English,,1,2017-04-23,Steven Johnson,,it did not save the score,,
KeepScore - Score Keeper,Google Play,com.nolanlawson.keepscore,Z3A6QU9xcFRPRXVvQWROUjhtZ0Zzcm03bEYwN1lILUdjVEhsWkluODhkRVlEdDdJWk5WSF9MYjZ2RlJTekQ2VGR6Y3pQUEJSRmY3eVlTSnl5MFZFSU1xWGc,English,,3,2017-04-20,Juan C. Suárez,,the idea is great but it crash from one moment to another losing the last two or three score,,
KeepScore - Score Keeper,Google Play,com.nolanlawson.keepscore,Z3A6QU9xcFRPRjNCZThpM3VXTzVBdWVHdlNJYVJPV3lUa0V0emJOVGRaeGVJTlE3aFN0TTUyaUFpLWEzS09WNVY0NmxFdWdROEJlZURiMWgzc21HRHE5LUE,English,,2,2017-03-21,Andrew Vernon,,i considered this to be a,,
KeepScore - Score Keeper,Google Play,com.nolanlawson.keepscore,Z3A6QU9xcFRPRjNCZThpM3VXTzVBdWVHdlNJYVJPV3lUa0V0emJOVGRaeGVJTlE3aFN0TTUyaUFpLWEzS09WNVY0NmxFdWdROEJlZURiMWgzc21HRHE5LUE,English,,2,2017-03-21,Andrew Vernon,,more recently i have consistently seen crash i open a game with 10 to 15 round in them,,
KeepScore - Score Keeper,Google Play,com.nolanlawson.keepscore,Z3A6QU9xcFRPRjNCZThpM3VXTzVBdWVHdlNJYVJPV3lUa0V0emJOVGRaeGVJTlE3aFN0TTUyaUFpLWEzS09WNVY0NmxFdWdROEJlZURiMWgzc21HRHE5LUE,English,,2,2017-03-21,Andrew Vernon,,it took me a to realize that i could recover the score by exporting the game to a which i suppose is a workaround,,
KeepScore - Score Keeper,Google Play,com.nolanlawson.keepscore,Z3A6QU9xcFRPRjNCZThpM3VXTzVBdWVHdlNJYVJPV3lUa0V0emJOVGRaeGVJTlE3aFN0TTUyaUFpLWEzS09WNVY0NmxFdWdROEJlZURiMWgzc21HRHE5LUE,English,,2,2017-03-21,Andrew Vernon,,i would really appreciate a real however,,
KeepScore - Score Keeper,Google Play,com.nolanlawson.keepscore,Z3A6QU9xcFRPRlhmaEEyTzJmenZmc3FYTUZuTTBhTjlCUlR2ZnNObTZJMUpqazd0dUVlaHZTVDNVZ3ctb3VkR1dYRDY4SUVCaFktbE8xYmptZzFZTVJROVE,English,,5,2017-03-17,Harish Kommaraju,,very user friendly interface,,
KeepScore - Score Keeper,Google Play,com.nolanlawson.keepscore,Z3A6QU9xcFRPRjRQLTFOeFM1OGRub0pXaXAtS2VtUW1aNVhmQUdCWkxIbzVjZ3FvZmI2NWVWdUJGdmFDdVZPZHFuMmZOamhRUnEtWGFqZVVGdmZ5NUtfb1E,English,,4,2017-03-07,Jay Yeung,,i would give this 5 star if there wa a setting button in a game for tablet,,
KeepScore - Score Keeper,Google Play,com.nolanlawson.keepscore,Z3A6QU9xcFRPRjRQLTFOeFM1OGRub0pXaXAtS2VtUW1aNVhmQUdCWkxIbzVjZ3FvZmI2NWVWdUJGdmFDdVZPZHFuMmZOamhRUnEtWGFqZVVGdmZ5NUtfb1E,English,,4,2017-03-07,Jay Yeung,,you make one of those for certain tablet and phone i will give this 5 star,,
KeepScore - Score Keeper,Google Play,com.nolanlawson.keepscore,Z3A6QU9xcFRPRjRQLTFOeFM1OGRub0pXaXAtS2VtUW1aNVhmQUdCWkxIbzVjZ3FvZmI2NWVWdUJGdmFDdVZPZHFuMmZOamhRUnEtWGFqZVVGdmZ5NUtfb1E,English,,4,2017-03-07,Jay Yeung,,but this is great,,
KeepScore - Score Keeper,Google Play,com.nolanlawson.keepscore,Z3A6QU9xcFRPSDFZUEVKc0hHNkY0MXpXQk9HVThGV003YWlXYnRBc25HUzFHZ0t0bzRNUTE3c0xuZVFSODBCRlhUTzJrZXpDSnIzR0F6ekQ4OEdpcUlsaVE,English,,1,2017-03-03,Mirek Interactive,,keep crashing,,
KeepScore - Score Keeper,Google Play,com.nolanlawson.keepscore,Z3A6QU9xcFRPRnNmV2JWMC16QktkMHk5dUpFS1BVZ3p1MzRISEtTaVIyTDNUSDdsSzI4c3NObUw0WUpLclJaejVwYjE2VE50ZTRmU1ZTUUtId2JlU2RHdFE,English,,4,2017-02-16,Ryan-1704,,great,,
KeepScore - Score Keeper,Google Play,com.nolanlawson.keepscore,Z3A6QU9xcFRPRnNmV2JWMC16QktkMHk5dUpFS1BVZ3p1MzRISEtTaVIyTDNUSDdsSzI4c3NObUw0WUpLclJaejVwYjE2VE50ZTRmU1ZTUUtId2JlU2RHdFE,English,,4,2017-02-16,Ryan-1704,,but you should be able to rank the highest to lowest to highest and order the contestant in alphabetical etc,,
KeepScore - Score Keeper,Google Play,com.nolanlawson.keepscore,Z3A6QU9xcFRPRnNmV2JWMC16QktkMHk5dUpFS1BVZ3p1MzRISEtTaVIyTDNUSDdsSzI4c3NObUw0WUpLclJaejVwYjE2VE50ZTRmU1ZTUUtId2JlU2RHdFE,English,,4,2017-02-16,Ryan-1704,,i would give a 5 you include a ranking system,,
KeepScore - Score Keeper,Google Play,com.nolanlawson.keepscore,Z3A6QU9xcFRPSHpPVE9sZWdUX0RiT1pPQnpIand1MWtjX0RaX2E2aFVrWHVfUDNYYV84S1oyTV9sbUZubXRBbXo1YmE0V3JqZEM2NHBoRE8wZEdMMFhISVE,English,,5,2017-02-16,Chandra Sekhar,,reduces work level and had great fun,,
KeepScore - Score Keeper,Google Play,com.nolanlawson.keepscore,Z3A6QU9xcFRPSDJReEVwcjhDejc2SV9oMTMxWm45RnR4RjhOc0dkUW1IT2FIRENBM2pyZUJtZVp0TDhjSkU4UmlWMFZaZ2taWGFxUVNQeDFHWnFvN0JBaFE,English,,1,2017-02-01,Zachary Maltbia,,keep on turning off and losing my score,,
KeepScore - Score Keeper,Google Play,com.nolanlawson.keepscore,Z3A6QU9xcFRPRjh0LXZkaEZRc0FzcGU3UEpTNW0tNGQzZkRsQk12NFg0Zk1McHJQMG5WRkNUUUQwT1ZCbGpmRmJRZ1VoNl8yOFFOeE1YbzZWSjJFY21oZmc,English,,2,2017-02-01,Stefan Pulpitel,,keep crashing on one,,
KeepScore - Score Keeper,Google Play,com.nolanlawson.keepscore,Z3A6QU9xcFRPRjh0LXZkaEZRc0FzcGU3UEpTNW0tNGQzZkRsQk12NFg0Zk1McHJQMG5WRkNUUUQwT1ZCbGpmRmJRZ1VoNl8yOFFOeE1YbzZWSjJFY21oZmc,English,,2,2017-02-01,Stefan Pulpitel,,multiple time per game,,
KeepScore - Score Keeper,Google Play,com.nolanlawson.keepscore,Z3A6QU9xcFRPSEc3Tm1RMXk2RzNpZVRiUWszczF5YWtMUmRYX1ctRjI3TjZuTnVULWp4RHBBaGhDeHlHaDVJV2xHdDNnczQyU29LV1Y2QXlfUFFEaG1oLXc,English,,5,2017-01-02,Andrew Chin,Great app,look great and ha great functionality to it,,
KeepScore - Score Keeper,Google Play,com.nolanlawson.keepscore,Z3A6QU9xcFRPSEc3Tm1RMXk2RzNpZVRiUWszczF5YWtMUmRYX1ctRjI3TjZuTnVULWp4RHBBaGhDeHlHaDVJV2xHdDNnczQyU29LV1Y2QXlfUFFEaG1oLXc,English,,5,2017-01-02,Andrew Chin,Great app,wish i could see turn it is also,,
KeepScore - Score Keeper,Google Play,com.nolanlawson.keepscore,Z3A6QU9xcFRPRnRRMWZ6Yl9ldm1OSms5S19NX3Q5WkVPUGZjMDhHUVRCbHdZWllBdWtHN0Z0X05VZ2Q0Tmljc2hka0lONUhNMEtmM2xTMlI4SG8yaU84TVE,English,,5,2017-01-02,Samuel Coker,,solid,,
KeepScore - Score Keeper,Google Play,com.nolanlawson.keepscore,Z3A6QU9xcFRPSGNWSEJNTklNRW53c2FVMmpieDFpdS03cDZZcDdaYW41dGdiWkdDQkNCY3M0R0lrdHNqZnhTc1kyZnZZUDZfX0p2WmJzTjZtX2V2a2xmU1E,English,,3,2016-12-30,Paul Watrobski,Crashes on Nexus 6P,i loved this scorekeeper so much,,
KeepScore - Score Keeper,Google Play,com.nolanlawson.keepscore,Z3A6QU9xcFRPSGNWSEJNTklNRW53c2FVMmpieDFpdS03cDZZcDdaYW41dGdiWkdDQkNCY3M0R0lrdHNqZnhTc1kyZnZZUDZfX0p2WmJzTjZtX2V2a2xmU1E,English,,3,2016-12-30,Paul Watrobski,Crashes on Nexus 6P,thankfully the score are but i make it almost unusable,,
KeepScore - Score Keeper,Google Play,com.nolanlawson.keepscore,Z3A6QU9xcFRPSGNWSEJNTklNRW53c2FVMmpieDFpdS03cDZZcDdaYW41dGdiWkdDQkNCY3M0R0lrdHNqZnhTc1kyZnZZUDZfX0p2WmJzTjZtX2V2a2xmU1E,English,,3,2016-12-30,Paul Watrobski,Crashes on Nexus 6P,i may have to look elsewhere which is sad,,
KeepScore - Score Keeper,Google Play,com.nolanlawson.keepscore,Z3A6QU9xcFRPRmVBbkJtRGR4TGRsQ0RfS3Q3YmFvb1lpODh0NXVReTN2M3FMSDBwTnh2UHhMNGpPMTVjMTRVR1BaQXdjQmMwSHpzZ3cwd19lVjQxMFIyNnc,English,,5,2016-12-26,Miles O'Reilly,Perfectly Simple,doe exactly what it need simply and nothing more,,
KeepScore - Score Keeper,Google Play,com.nolanlawson.keepscore,Z3A6QU9xcFRPRUJrYWloN056Z1VjN193cVZDX1ZrMTJGTF8yby1JRlFmUFZWQ1NKRjBuUmI0Q3NzM29aVUFfU09LMHo4aGxxT0xZaEdBc0FxeW4xOGJ5NFE,English,,1,2016-12-24,Brit R,Crash!,get it together,,
KeepScore - Score Keeper,Google Play,com.nolanlawson.keepscore,Z3A6QU9xcFRPRUJrYWloN056Z1VjN193cVZDX1ZrMTJGTF8yby1JRlFmUFZWQ1NKRjBuUmI0Q3NzM29aVUFfU09LMHo4aGxxT0xZaEdBc0FxeW4xOGJ5NFE,English,,1,2016-12-24,Brit R,Crash!,,,
KeepScore - Score Keeper,Google Play,com.nolanlawson.keepscore,Z3A6QU9xcFRPSDZKa2s3Sks3T3BpckQybXVlb081UlR0QTktaFVvWU9DZXRDZks0ZHU3dUpSdDNObFRSUUtReHVaUWE4RWdwR3hZVzJVd2t6UTlVaU5qR3c,English,,1,2016-12-05,Jeffrey DeMarie,Force closes almost every...,game played,,
KeepScore - Score Keeper,Google Play,com.nolanlawson.keepscore,Z3A6QU9xcFRPSDZKa2s3Sks3T3BpckQybXVlb081UlR0QTktaFVvWU9DZXRDZks0ZHU3dUpSdDNObFRSUUtReHVaUWE4RWdwR3hZVzJVd2t6UTlVaU5qR3c,English,,1,2016-12-05,Jeffrey DeMarie,Force closes almost every...,it seems happen at higher score,,
KeepScore - Score Keeper,Google Play,com.nolanlawson.keepscore,Z3A6QU9xcFRPSDZKa2s3Sks3T3BpckQybXVlb081UlR0QTktaFVvWU9DZXRDZks0ZHU3dUpSdDNObFRSUUtReHVaUWE4RWdwR3hZVzJVd2t6UTlVaU5qR3c,English,,1,2016-12-05,Jeffrey DeMarie,Force closes almost every...,galaxy tab s 105 are affected,,
KeepScore - Score Keeper,Google Play,com.nolanlawson.keepscore,Z3A6QU9xcFRPSDZKa2s3Sks3T3BpckQybXVlb081UlR0QTktaFVvWU9DZXRDZks0ZHU3dUpSdDNObFRSUUtReHVaUWE4RWdwR3hZVzJVd2t6UTlVaU5qR3c,English,,1,2016-12-05,Jeffrey DeMarie,Force closes almost every...,tried reinstalling on an lg and force close consistently on selecting number of player,,
KeepScore - Score Keeper,Google Play,com.nolanlawson.keepscore,Z3A6QU9xcFRPR0hxZjliRk1Ua0tIWmp2ckpGaEJNWFQwbENEdlVYTXVJdGFiZW9zN1NwTFMwazNCTmhlVDhFZEVGZzZEUkZVRkNSY2ctMk9tNFZVc1ZVMmc,English,,4,2016-12-01,Jon Krofchalk,Great app. Nice and simple,work but could the maker add a tally feature for cribbage,,
KeepScore - Score Keeper,Google Play,com.nolanlawson.keepscore,Z3A6QU9xcFRPRmNQdl9NNHl3alFDQnNST2ZXbjJHMGVjRGxwcEJad01TUXhjWlJtYTlHRGg5bXFCcHA3QUZONFNPLWdqc3JYcTJEblJJNG00U3J1R0dVekE,English,,2,2016-11-06,Michael Perkins,Crashes (S6 Edge),i like the functionality but it crash regularly 34 game,,
KeepScore - Score Keeper,Google Play,com.nolanlawson.keepscore,Z3A6QU9xcFRPRnYwblZWU01iNExtVS1fZV9zMkN6ZnR3M0R6alBXX0ZHanA0U1R0SXdWMmJnWERfN2pxX1pDS0wzU0xqQkNTTzcxTnhVRGhJYm5uV0VVWmc,English,,4,2016-11-05,steve groves,Keep Score,one of the best to keep score for numerous great,,
KeepScore - Score Keeper,Google Play,com.nolanlawson.keepscore,Z3A6QU9xcFRPR3g2azF3NVBqYzk2dDFqYm40a21MMVNVNXc1TVBkVDkxbE51d2NUQThTdUp3eV9ZMFF6MXpuQURiQloxbUoxTGRKME54bk5rRTVlTUdZUFE,English,,5,2016-10-22,Scott Beaudry,,best score,,
KeepScore - Score Keeper,Google Play,com.nolanlawson.keepscore,Z3A6QU9xcFRPRzFLSWxTeDZQRGxNMUtKR0cyRkw0RVJyWEJnMWV5a0UxRGw4azJXUjkzVlBaYlZNYkZ1QTJCSVIxUEx3Vi03Vlp2NEN1R3dKbjZROGlrV3c,English,,5,2016-10-12,Jeanne Begley,Great,very easy to use and work great with any game you need to keep score with,,
KeepScore - Score Keeper,Google Play,com.nolanlawson.keepscore,Z3A6QU9xcFRPR0ZOSGh4eDhqbFkxTXlONzBuS1lPSk9JM0p2TTRnTzJqQnhFNEtwS243cG1vRm1tWEhfRXB1Qm9oUV9jZlFTSERINmp2LVNlMlBPM0tLSFE,English,,2,2016-10-01,Steven Tan,,crash,,
KeepScore - Score Keeper,Google Play,com.nolanlawson.keepscore,Z3A6QU9xcFRPR0ZOSGh4eDhqbFkxTXlONzBuS1lPSk9JM0p2TTRnTzJqQnhFNEtwS243cG1vRm1tWEhfRXB1Qm9oUV9jZlFTSERINmp2LVNlMlBPM0tLSFE,English,,2,2016-10-01,Steven Tan,,would be great otherwise,,
KeepScore - Score Keeper,Google Play,com.nolanlawson.keepscore,Z3A6QU9xcFRPSFNtUGVUblVTTHVfWktGVER1UlJUVE9SbXpqUkxjRy02NzFOVzRXVTBJQURuX1pSMFhWaHVWSFpudFJ0SWRCeE1Wa29sZ2FuSzJDcXgtMUE,English,,5,2016-09-27,Gavin Reynolds,Scorer Great,it is the best,,
KeepScore - Score Keeper,Google Play,com.nolanlawson.keepscore,Z3A6QU9xcFRPR1VydFNLeG9IVHZ2cDRSTHYwOXphQlM4VTRFemZoWmlFeElELUh3ZnlTa2RmOGpwYjRfVjZwU1F3emZpUjdVUHAxeTJsZkZwRnRRX19lMHc,English,,5,2016-09-22,Trevor Kempthorne,Simple and Elegant,very easy to use and straightforward design,,
KeepScore - Score Keeper,Google Play,com.nolanlawson.keepscore,Z3A6QU9xcFRPR1VydFNLeG9IVHZ2cDRSTHYwOXphQlM4VTRFemZoWmlFeElELUh3ZnlTa2RmOGpwYjRfVjZwU1F3emZpUjdVUHAxeTJsZkZwRnRRX19lMHc,English,,5,2016-09-22,Trevor Kempthorne,Simple and Elegant,useful history of game and very fast to,,
KeepScore - Score Keeper,Google Play,com.nolanlawson.keepscore,Z3A6QU9xcFRPRnRpYkdYa0ZDY3hjcjlBcjVEMjJONHBIakZUaFdpOXdmRFBQQ2w0YXBBbU5tVkRIWFoxdnZGaS03X2tHeDFJUWl5YXZFMS1fMi1uQTFsZEE,English,,1,2016-09-19,Corey Perrigo,Crashes at Round 13 with 2 players,the although the game is still in the main trying to access it close the and the score are unobtainable,,
KeepScore - Score Keeper,Google Play,com.nolanlawson.keepscore,Z3A6QU9xcFRPRnRpYkdYa0ZDY3hjcjlBcjVEMjJONHBIakZUaFdpOXdmRFBQQ2w0YXBBbU5tVkRIWFoxdnZGaS03X2tHeDFJUWl5YXZFMS1fMi1uQTFsZEE,English,,1,2016-09-19,Corey Perrigo,Crashes at Round 13 with 2 players,ruined the first game i tried with it,,
KeepScore - Score Keeper,Google Play,com.nolanlawson.keepscore,Z3A6QU9xcFRPR1ZRNlNlNndqMEFRLW1QalQ5d3ltY2VsZ2ZYbzNuMW9GZnRqS2VxdDlCLVdQazhJLVZXaHBiOG5jZ0ZtOFdSdFRQNGU1aGZlMDFRTWF2ekE,English,,5,2016-09-15,Luis R. Arrangoiz,Nice Work,simple and easy to use,,
KeepScore - Score Keeper,Google Play,com.nolanlawson.keepscore,Z3A6QU9xcFRPR1ZRNlNlNndqMEFRLW1QalQ5d3ltY2VsZ2ZYbzNuMW9GZnRqS2VxdDlCLVdQazhJLVZXaHBiOG5jZ0ZtOFdSdFRQNGU1aGZlMDFRTWF2ekE,English,,5,2016-09-15,Luis R. Arrangoiz,Nice Work,handy,,
KeepScore - Score Keeper,Google Play,com.nolanlawson.keepscore,Z3A6QU9xcFRPRjFaY05SdWpPbHNDUlhPSFk0UUlmUXlfTkgyeV9MSlVwdVE0cEN5d2ZZQUpYLVFBaXdQVTYzck1tM0VNVXZLc3pvcXNraDFhRW0xU0pSQlE,English,,3,2016-09-07,Steph Clacksman,"Nice simple score app, but crashes",nice simple score would give a top but some save seem to get corrupted and crash every time they are opened an initial crash,,
KeepScore - Score Keeper,Google Play,com.nolanlawson.keepscore,Z3A6QU9xcFRPRjFaY05SdWpPbHNDUlhPSFk0UUlmUXlfTkgyeV9MSlVwdVE0cEN5d2ZZQUpYLVFBaXdQVTYzck1tM0VNVXZLc3pvcXNraDFhRW0xU0pSQlE,English,,3,2016-09-07,Steph Clacksman,"Nice simple score app, but crashes",this happens about 1 in 4 game on nexus,,
KeepScore - Score Keeper,Google Play,com.nolanlawson.keepscore,Z3A6QU9xcFRPRllRLWZpTHJYSXh4M1ZmTWVNdVJMSDM0TVN1dWZWZUN2VVNwcFFKZHFEekVUMFFNdmhMaU5zdE00VlNKYnNiZnMwS0djbVRaNmxVbE1zc3c,English,,5,2016-08-31,Jonathan Smith,Excellent!,ha what i and is easy to use,,
KeepScore - Score Keeper,Google Play,com.nolanlawson.keepscore,Z3A6QU9xcFRPRkRYcjZtMldURmtJX3hGY1lvZlZRU181akRCQnRrQTFEejRoaEF5cDg0dVByYTEzbFl4aFNldFVBeGlKYmwtNmRudl9uQUZiLXBBWTRhM2c,English,,4,2016-08-28,Alex Peterson,Not working on Android N,unfortunately this great is presently unusable,,
KeepScore - Score Keeper,Google Play,com.nolanlawson.keepscore,Z3A6QU9xcFRPRkQzbnlWN0h5b1g2SjV2LVM3REQzLWxFTjdEZjF1Vk4xa0FWc3kzZWVHWmJha2NOMllpUzFneDdTOGtCd2o1aEszNEplcnlCTzNHRXhodFE,English,,1,2016-08-25,Tony Safe,What a shame,perfect shame it keep crashing,,
KeepScore - Score Keeper,Google Play,com.nolanlawson.keepscore,Z3A6QU9xcFRPR3FtQk9uNHBKdndQcmpqeXhNUzdhTDl6akYybm5CTXRkbVc5Mk0zM2E0X1lsMmtJNXI4QmE2ZzNTaUdLcnpTcU5RTThLMkltWGhZakhSRXc,English,,5,2016-07-04,James Poole,,simple with a dark mode,,
KeepScore - Score Keeper,Google Play,com.nolanlawson.keepscore,Z3A6QU9xcFRPR3FtQk9uNHBKdndQcmpqeXhNUzdhTDl6akYybm5CTXRkbVc5Mk0zM2E0X1lsMmtJNXI4QmE2ZzNTaUdLcnpTcU5RTThLMkltWGhZakhSRXc,English,,5,2016-07-04,James Poole,,configurable on screen increment button,,
KeepScore - Score Keeper,Google Play,com.nolanlawson.keepscore,Z3A6QU9xcFRPR3FtQk9uNHBKdndQcmpqeXhNUzdhTDl6akYybm5CTXRkbVc5Mk0zM2E0X1lsMmtJNXI4QmE2ZzNTaUdLcnpTcU5RTThLMkltWGhZakhSRXc,English,,5,2016-07-04,James Poole,,work well for cribbage,,
KeepScore - Score Keeper,Google Play,com.nolanlawson.keepscore,Z3A6QU9xcFRPSEVELUtGUEJnX1JUdkhRbmwyV0FrRjZRbzFuU09qbXlNcm90a1RzMmJxLUJiak1ld3VCMGV1RnpiaTlzWUVkSzRWajJHbFE3MzVoa0ZGQWc,English,,3,2016-07-02,Leslie Duran,Good app for 10 rounds only,love the,,
KeepScore - Score Keeper,Google Play,com.nolanlawson.keepscore,Z3A6QU9xcFRPSEVELUtGUEJnX1JUdkhRbmwyV0FrRjZRbzFuU09qbXlNcm90a1RzMmJxLUJiak1ld3VCMGV1RnpiaTlzWUVkSzRWajJHbFE3MzVoa0ZGQWc,English,,3,2016-07-02,Leslie Duran,Good app for 10 rounds only,great for keeping track of card game with hp,,
KeepScore - Score Keeper,Google Play,com.nolanlawson.keepscore,Z3A6QU9xcFRPSEVELUtGUEJnX1JUdkhRbmwyV0FrRjZRbzFuU09qbXlNcm90a1RzMmJxLUJiak1ld3VCMGV1RnpiaTlzWUVkSzRWajJHbFE3MzVoa0ZGQWc,English,,3,2016-07-02,Leslie Duran,Good app for 10 rounds only,it crash at round 10 every time,,
KeepScore - Score Keeper,Google Play,com.nolanlawson.keepscore,Z3A6QU9xcFRPSEVELUtGUEJnX1JUdkhRbmwyV0FrRjZRbzFuU09qbXlNcm90a1RzMmJxLUJiak1ld3VCMGV1RnpiaTlzWUVkSzRWajJHbFE3MzVoa0ZGQWc,English,,3,2016-07-02,Leslie Duran,Good app for 10 rounds only,please fix this issue,,
KeepScore - Score Keeper,Google Play,com.nolanlawson.keepscore,Z3A6QU9xcFRPRXJic1RsUkQ1OWlDNG5xWXN5dnN3WE9EWTBRNVFQQ3k0dVN4MV8yZkUybkJpaGVzQTQtSnptcnFZRjdPYm9CYURPWk9PVWdhUHZWZFZiOEE,English,,5,2016-06-22,Michael Grankin,,application look but it is unmatched in term of functionality and is very simple to use,,
KeepScore - Score Keeper,Google Play,com.nolanlawson.keepscore,Z3A6QU9xcFRPR0k1MzktUkxsNXRhSExIYVM3YndpdTAwZWdWTllJbzZzaHV5WEtsVnB5eEZlQ2MxMWJiNjVqdGVST0pnNjlNWUt1SWVaTl83UmFxWkZjQkE,English,,2,2016-06-19,Scott Wilks,Crashes and then resets score.,if the sole purpose of the is to keep the there is no point to it crash and then reset the score you have,,
KeepScore - Score Keeper,Google Play,com.nolanlawson.keepscore,Z3A6QU9xcFRPRzU0T24yaFhLSHE2bVpvVEhFMmJJWWwwNDVKZE9MRGhHOGdsR0tvaUZFOU1WUGt4QmJjWHBadUNaT05PZXdKYnNxZmVhdTJNMHJFOW5HUVE,English,,5,2016-06-15,Ed,"I love it. Simple, easy, and perfect.",the interface is simple and intuitive,,
KeepScore - Score Keeper,Google Play,com.nolanlawson.keepscore,Z3A6QU9xcFRPRzU0T24yaFhLSHE2bVpvVEhFMmJJWWwwNDVKZE9MRGhHOGdsR0tvaUZFOU1WUGt4QmJjWHBadUNaT05PZXdKYnNxZmVhdTJNMHJFOW5HUVE,English,,5,2016-06-15,Ed,"I love it. Simple, easy, and perfect.",the is easy and,,
KeepScore - Score Keeper,Google Play,com.nolanlawson.keepscore,Z3A6QU9xcFRPRzU0T24yaFhLSHE2bVpvVEhFMmJJWWwwNDVKZE9MRGhHOGdsR0tvaUZFOU1WUGt4QmJjWHBadUNaT05PZXdKYnNxZmVhdTJNMHJFOW5HUVE,English,,5,2016-06-15,Ed,"I love it. Simple, easy, and perfect.",you can backup and restore your gaming score,,
KeepScore - Score Keeper,Google Play,com.nolanlawson.keepscore,Z3A6QU9xcFRPRzU0T24yaFhLSHE2bVpvVEhFMmJJWWwwNDVKZE9MRGhHOGdsR0tvaUZFOU1WUGt4QmJjWHBadUNaT05PZXdKYnNxZmVhdTJNMHJFOW5HUVE,English,,5,2016-06-15,Ed,"I love it. Simple, easy, and perfect.",more i hoped for,,
KeepScore - Score Keeper,Google Play,com.nolanlawson.keepscore,Z3A6QU9xcFRPRzU0T24yaFhLSHE2bVpvVEhFMmJJWWwwNDVKZE9MRGhHOGdsR0tvaUZFOU1WUGt4QmJjWHBadUNaT05PZXdKYnNxZmVhdTJNMHJFOW5HUVE,English,,5,2016-06-15,Ed,"I love it. Simple, easy, and perfect.",i love,,
KeepScore - Score Keeper,Google Play,com.nolanlawson.keepscore,Z3A6QU9xcFRPR2Fka0V4cFcwRnl2aFlLaDNkS2dSRXRTLUNTaEEtUmZTN3MycjVLUEJTdWZETERERnJzTkhtVElhbGNwQ05qT0NHSUF3NVhMSVRvXzF5VFE,English,,5,2016-06-03,Ayoob Habis,Totez was looking for it to redownload it,simple,,
KeepScore - Score Keeper,Google Play,com.nolanlawson.keepscore,Z3A6QU9xcFRPRnRickk5WDRBN0xVemJELWUxQVd2UGJ4R0VCeHpIcENlSlVwLTJfd0VMSGRJZnQ2MlhZZXZRM3RyOUVhZDJoLThyTTlxaEh1T1MyMjYtQ2c,English,,1,2016-05-22,Stuart Roskelley,Crashed on first use,adding zero score on round 11 the first time ever using this crashed the and lost all my score data,,
KeepScore - Score Keeper,Google Play,com.nolanlawson.keepscore,Z3A6QU9xcFRPSG1iUUMwbExTVkVFVXRQUW9nQkFwZm1sdU5EUGZ1eVZYaTItMnNleWthbk9qYVMyRmFUNXhvMkJrV0NNbnl6YlZjQUFoYXdFR0M4RmMtdkE,English,,5,2016-05-08,Axel B,Exactly what I needed,great and 230 player which is useful,,
KeepScore - Score Keeper,Google Play,com.nolanlawson.keepscore,Z3A6QU9xcFRPRXRQMGY1dm1zU21YYVJlTmxoNmhWTlRLUFpVWEIzcm5fMFRZZHBTUm5LSWxLb2FTUGtCSGVoVHZnZUR2Y1BPN3BsTjNjb25OZjJXTGhHNUE,English,,5,2016-05-03,Sami-Pekka Lehmuskoski,Great for Zombie Dice and Star Realms!,would you be ready to add some kind of customization option to keep track of nonlinear point,,
KeepScore - Score Keeper,Google Play,com.nolanlawson.keepscore,Z3A6QU9xcFRPRXRQMGY1dm1zU21YYVJlTmxoNmhWTlRLUFpVWEIzcm5fMFRZZHBTUm5LSWxLb2FTUGtCSGVoVHZnZUR2Y1BPN3BsTjNjb25OZjJXTGhHNUE,English,,5,2016-05-03,Sami-Pekka Lehmuskoski,Great for Zombie Dice and Star Realms!,would need a way to add multiple always visible column of number for each player and then a pointer to show which number each one is on currently,,
KeepScore - Score Keeper,Google Play,com.nolanlawson.keepscore,Z3A6QU9xcFRPR2ZTbTBMSURMSHpYODVLdFJSYXdFbGEyVGxPMzFLSnkwWHdYQ2JrTzJKRm01c2N2amJpZVhPRktZb2FUQnNteFI4SmtqNFlBR01EaTV5Mnc,English,,1,2016-04-13,Jim D.,,been using this for year,,
KeepScore - Score Keeper,Google Play,com.nolanlawson.keepscore,Z3A6QU9xcFRPR2ZTbTBMSURMSHpYODVLdFJSYXdFbGEyVGxPMzFLSnkwWHdYQ2JrTzJKRm01c2N2amJpZVhPRktZb2FUQnNteFI4SmtqNFlBR01EaTV5Mnc,English,,1,2016-04-13,Jim D.,,brilliant,,
KeepScore - Score Keeper,Google Play,com.nolanlawson.keepscore,Z3A6QU9xcFRPR2ZTbTBMSURMSHpYODVLdFJSYXdFbGEyVGxPMzFLSnkwWHdYQ2JrTzJKRm01c2N2amJpZVhPRktZb2FUQnNteFI4SmtqNFlBR01EaTV5Mnc,English,,1,2016-04-13,Jim D.,,why 1 star then,,
KeepScore - Score Keeper,Google Play,com.nolanlawson.keepscore,Z3A6QU9xcFRPR2ZTbTBMSURMSHpYODVLdFJSYXdFbGEyVGxPMzFLSnkwWHdYQ2JrTzJKRm01c2N2amJpZVhPRktZb2FUQnNteFI4SmtqNFlBR01EaTV5Mnc,English,,1,2016-04-13,Jim D.,,it ha not had an update for over a year,,
KeepScore - Score Keeper,Google Play,com.nolanlawson.keepscore,Z3A6QU9xcFRPR2ZTbTBMSURMSHpYODVLdFJSYXdFbGEyVGxPMzFLSnkwWHdYQ2JrTzJKRm01c2N2amJpZVhPRktZb2FUQnNteFI4SmtqNFlBR01EaTV5Mnc,English,,1,2016-04-13,Jim D.,,in the meantime i have updated my phone to marshmallow and now the crash all the time,,
KeepScore - Score Keeper,Google Play,com.nolanlawson.keepscore,Z3A6QU9xcFRPSHF1SXNqR3lCNEdhTzRtZEJyVy1Dam13Zl9OMGx6OXlWN3BfTGdEUDVMTWppTWlpRHN1QmRXTjlJOXJWYU12ZG85N3oxUTFJUE90TUNObnc,English,,5,2016-04-11,Brian Hosterman,,great simple,,
KeepScore - Score Keeper,Google Play,com.nolanlawson.keepscore,Z3A6QU9xcFRPSHF1SXNqR3lCNEdhTzRtZEJyVy1Dam13Zl9OMGx6OXlWN3BfTGdEUDVMTWppTWlpRHN1QmRXTjlJOXJWYU12ZG85N3oxUTFJUE90TUNObnc,English,,5,2016-04-11,Brian Hosterman,,exactly what i wa looking for,,
KeepScore - Score Keeper,Google Play,com.nolanlawson.keepscore,Z3A6QU9xcFRPSHF1SXNqR3lCNEdhTzRtZEJyVy1Dam13Zl9OMGx6OXlWN3BfTGdEUDVMTWppTWlpRHN1QmRXTjlJOXJWYU12ZG85N3oxUTFJUE90TUNObnc,English,,5,2016-04-11,Brian Hosterman,,my only small comment would be i wish the dark theme carried over to the main window and setting menu,,
KeepScore - Score Keeper,Google Play,com.nolanlawson.keepscore,Z3A6QU9xcFRPRllfM05rSzFDVkxoVTloY3JBcGdGbGFGVVRIOGJkYjk1dF9NMDdONzliaFk2NkdzclFhdzdSVE1ZcVMxOVFacjN0M0Q3dnh3anNGUjVrVmc,English,,4,2016-04-01,Paul Pannozzo,,great little,,
KeepScore - Score Keeper,Google Play,com.nolanlawson.keepscore,Z3A6QU9xcFRPRllfM05rSzFDVkxoVTloY3JBcGdGbGFGVVRIOGJkYjk1dF9NMDdONzliaFk2NkdzclFhdzdSVE1ZcVMxOVFacjN0M0Q3dnh3anNGUjVrVmc,English,,4,2016-04-01,Paul Pannozzo,,i use it a coach to keep score for our training,,
KeepScore - Score Keeper,Google Play,com.nolanlawson.keepscore,Z3A6QU9xcFRPRllfM05rSzFDVkxoVTloY3JBcGdGbGFGVVRIOGJkYjk1dF9NMDdONzliaFk2NkdzclFhdzdSVE1ZcVMxOVFacjN0M0Q3dnh3anNGUjVrVmc,English,,4,2016-04-01,Paul Pannozzo,,we divide the boy into 4 team and 1 team score they stay on and the other come of to be replaced by one team waiting to get in,,
KeepScore - Score Keeper,Google Play,com.nolanlawson.keepscore,Z3A6QU9xcFRPRllfM05rSzFDVkxoVTloY3JBcGdGbGFGVVRIOGJkYjk1dF9NMDdONzliaFk2NkdzclFhdzdSVE1ZcVMxOVFacjN0M0Q3dnh3anNGUjVrVmc,English,,4,2016-04-01,Paul Pannozzo,,if no one score after an amount of time then both team come off or if there is only 3 team then the team ha done a double shift come off,,
KeepScore - Score Keeper,Google Play,com.nolanlawson.keepscore,Z3A6QU9xcFRPRllfM05rSzFDVkxoVTloY3JBcGdGbGFGVVRIOGJkYjk1dF9NMDdONzliaFk2NkdzclFhdzdSVE1ZcVMxOVFacjN0M0Q3dnh3anNGUjVrVmc,English,,4,2016-04-01,Paul Pannozzo,,the thing this is missing is a count down timer and then it would be perfect,,
KeepScore - Score Keeper,Google Play,com.nolanlawson.keepscore,Z3A6QU9xcFRPRzBuN05NUkZwdVhMeHhVVEthWFFieV93SUt4aHJUdE9uaV8zcFNnNktsMjRoZnZXdVgzSkI2YTJFOHJIOFpWbTcyUzdfamkwS01RNFd4V1E,English,,5,2016-03-30,Elizabeth Strube,BEST EVER,i play card game on an almost daily basis and this is an indispensable tool for a relaxing night of family fun,,
KeepScore - Score Keeper,Google Play,com.nolanlawson.keepscore,Z3A6QU9xcFRPRzBuN05NUkZwdVhMeHhVVEthWFFieV93SUt4aHJUdE9uaV8zcFNnNktsMjRoZnZXdVgzSkI2YTJFOHJIOFpWbTcyUzdfamkwS01RNFd4V1E,English,,5,2016-03-30,Elizabeth Strube,BEST EVER,would definitely recommend and do all the time,,
KeepScore - Score Keeper,Google Play,com.nolanlawson.keepscore,Z3A6QU9xcFRPRVllV21XM1BFMDF2elo2bFNQNUZBb2RWVHAwRWkxeHE2UkFqX2RNd2dlS0FjNmh3T2Nxa2ZjTmhzb0FuZnR3anh6SW1fZU80aWFDc25RSHc,English,,5,2016-03-23,Tejinder Ahuja,Perfect..,leave nothing to be donate,,
KeepScore - Score Keeper,Google Play,com.nolanlawson.keepscore,Z3A6QU9xcFRPSG1RejNFTlFyZ0FXc1V5eXBoT0pjS3M5elVmRGFBTEhYX0tQQ1pRV21FM0pJeUJKaGtUVHNRM21ZWExxZEpNOG1mOFJwTVRLb2drNDRSaVE,English,,2,2016-03-20,John Slawson,,consistently crash 10 round,,
KeepScore - Score Keeper,Google Play,com.nolanlawson.keepscore,Z3A6QU9xcFRPR2NMa2phbHV3UUZ0WUpsUU55a2hrcjFCT1dZT25ocG8zZXozelJfRTlfTlNuTmdyLVZUTHF2eE5JSUUycy1WU1VUYjZ2b2E3ZkFpWmZQc3c,English,,2,2016-03-14,Will Fowler,Crashes every time in the middle of a game,doe not auto save,,
KeepScore - Score Keeper,Google Play,com.nolanlawson.keepscore,Z3A6QU9xcFRPR2NMa2phbHV3UUZ0WUpsUU55a2hrcjFCT1dZT25ocG8zZXozelJfRTlfTlNuTmdyLVZUTHF2eE5JSUUycy1WU1VUYjZ2b2E3ZkFpWmZQc3c,English,,2,2016-03-14,Will Fowler,Crashes every time in the middle of a game,would like to give more star but dy every time,,
KeepScore - Score Keeper,Google Play,com.nolanlawson.keepscore,Z3A6QU9xcFRPRWQtQ244T2xoVEc5T29pMjRKb2ppckw1bjV3UThybjY0dzVqY2V3dmRCZjhBMkN5bEhsZU80NDFlWGRmUktKNnZuSVRncE5USVpMTW5wWWc,English,,5,2016-03-06,Stuart Howard,Brilliant Scoring App,exactly what i wa looking developer ha done a great job,,
KeepScore - Score Keeper,Google Play,com.nolanlawson.keepscore,Z3A6QU9xcFRPRVNjTl9sUU9YMjU4TWd3OC10eWxORUJSZGZoRENYMlFVWjZ4bGFfV1MyZnBISllJSVQ1d1dlZnY4eE0yeTd2cG1GUVhKcE5mZVZ1NWFVd2c,English,,5,2016-02-22,Phil N,Simple but functional,give it 5 star it ha a chance to crash again and make me rate it lower,,
KeepScore - Score Keeper,Google Play,com.nolanlawson.keepscore,Z3A6QU9xcFRPRU5rMG1HYnlTdlpuQXI2LUlrWV9OWFc4VEtHVVd5aFpHc1k2NVUyYTh3eHZ4X2RtdW1BTmZ6bTY0bUN5THZYTVZDMllXQlp2VVZNYjV0UFE,English,,3,2016-02-14,Bil Bas,,nice but crash all the time,,
KeepScore - Score Keeper,Google Play,com.nolanlawson.keepscore,Z3A6QU9xcFRPRnpsOEtPOFoyTWpUdEJJbEE0b19mT1pITnV5M1hqMmNNQ1Y3Z2RxdWcwS3gtbzROZnIyNmRKNTBLdFlKN0tGQk5sdS0yUzVlb0xkMnNUZkE,English,,5,2016-01-26,Hari Lubovac,,cool,,
KeepScore - Score Keeper,Google Play,com.nolanlawson.keepscore,Z3A6QU9xcFRPRnpsOEtPOFoyTWpUdEJJbEE0b19mT1pITnV5M1hqMmNNQ1Y3Z2RxdWcwS3gtbzROZnIyNmRKNTBLdFlKN0tGQk5sdS0yUzVlb0xkMnNUZkE,English,,5,2016-01-26,Hari Lubovac,,need mode,,
KeepScore - Score Keeper,Google Play,com.nolanlawson.keepscore,Z3A6QU9xcFRPSF9tSGJnYWxJQVVTcTNod1pQMzktZzk4TERwU3dFakhzM2JWODY5WDU2MVBWQzdreDh5UTBYMzhaUXJnTVhrVWJzZlVkUFEwZjNBVElWTmc,English,,5,2016-01-23,Sreedhar MedaraMetla,,beautiful,,
KeepScore - Score Keeper,Google Play,com.nolanlawson.keepscore,Z3A6QU9xcFRPSF9tSGJnYWxJQVVTcTNod1pQMzktZzk4TERwU3dFakhzM2JWODY5WDU2MVBWQzdreDh5UTBYMzhaUXJnTVhrVWJzZlVkUFEwZjNBVElWTmc,English,,5,2016-01-23,Sreedhar MedaraMetla,,thing missing is to complete the game,,
KeepScore - Score Keeper,Google Play,com.nolanlawson.keepscore,Z3A6QU9xcFRPRThpTWJ0QUNZVDExMzkyejZmM3o4S1JsUkFCWUVNT1FWME1sQkZDTjRzMnJNRkRzOWpRU2ZpcXhVcFppZ3hvSm1WRTR6cXNqaHpybWJlZFE,English,,1,2015-12-26,Paul O'Brien,,not good for card game,,
KeepScore - Score Keeper,Google Play,com.nolanlawson.keepscore,Z3A6QU9xcFRPRnhxd3B6Nkc1LXlMMlh5a3hndGNqQVF4UU9kWnY4ZE51M2hBV2QtcHJJbmxyUjFJc0I3OE0zcEN0VUlVWGttZEN2UWFkNmhwSkNBRkR5MkE,English,,2,2015-12-25,Ben Leavett,"Crashed, lost scores",crashed without reason,,
KeepScore - Score Keeper,Google Play,com.nolanlawson.keepscore,Z3A6QU9xcFRPSG82ejIxd1R1RFVBSzlkU2lyc0FVVHBtaFE4c3k1bnZRVDItNmg2a0lnTWNVZ3dmMUs2WjZzOE5OcllWbWo3X0lOQ0pxWXVQeTBudmFpNnc,English,,5,2015-11-04,Levi Erdmann,Great app,this is simple and perfect for it purpose,,
KeepScore - Score Keeper,Google Play,com.nolanlawson.keepscore,Z3A6QU9xcFRPSG82ejIxd1R1RFVBSzlkU2lyc0FVVHBtaFE4c3k1bnZRVDItNmg2a0lnTWNVZ3dmMUs2WjZzOE5OcllWbWo3X0lOQ0pxWXVQeTBudmFpNnc,English,,5,2015-11-04,Levi Erdmann,Great app,well done,,
KeepScore - Score Keeper,Google Play,com.nolanlawson.keepscore,Z3A6QU9xcFRPRzBQaUxpeHk1M3NfRXB0QXlFZmZCMVNQVzU3VGU3SHhPTTA1OXZXRkVBWF82YXBLQ2NkUFBqcEhQbXpiMU1RS2VLVnlzODQ4UzI3Nm0wdVE,English,,5,2015-10-17,Frank Hartwig,THE best all around scoring app,keep score on most game,,
KeepScore - Score Keeper,Google Play,com.nolanlawson.keepscore,Z3A6QU9xcFRPRzBQaUxpeHk1M3NfRXB0QXlFZmZCMVNQVzU3VGU3SHhPTTA1OXZXRkVBWF82YXBLQ2NkUFBqcEhQbXpiMU1RS2VLVnlzODQ4UzI3Nm0wdVE,English,,5,2015-10-17,Frank Hartwig,THE best all around scoring app,very configurable,,
KeepScore - Score Keeper,Google Play,com.nolanlawson.keepscore,Z3A6QU9xcFRPRzBQaUxpeHk1M3NfRXB0QXlFZmZCMVNQVzU3VGU3SHhPTTA1OXZXRkVBWF82YXBLQ2NkUFBqcEhQbXpiMU1RS2VLVnlzODQ4UzI3Nm0wdVE,English,,5,2015-10-17,Frank Hartwig,THE best all around scoring app,easy to use,,
KeepScore - Score Keeper,Google Play,com.nolanlawson.keepscore,Z3A6QU9xcFRPRzBQaUxpeHk1M3NfRXB0QXlFZmZCMVNQVzU3VGU3SHhPTTA1OXZXRkVBWF82YXBLQ2NkUFBqcEhQbXpiMU1RS2VLVnlzODQ4UzI3Nm0wdVE,English,,5,2015-10-17,Frank Hartwig,THE best all around scoring app,can subtract,,
KeepScore - Score Keeper,Google Play,com.nolanlawson.keepscore,Z3A6QU9xcFRPRzBQaUxpeHk1M3NfRXB0QXlFZmZCMVNQVzU3VGU3SHhPTTA1OXZXRkVBWF82YXBLQ2NkUFBqcEhQbXpiMU1RS2VLVnlzODQ4UzI3Nm0wdVE,English,,5,2015-10-17,Frank Hartwig,THE best all around scoring app,keep running track of each score,,
KeepScore - Score Keeper,Google Play,com.nolanlawson.keepscore,Z3A6QU9xcFRPRzBQaUxpeHk1M3NfRXB0QXlFZmZCMVNQVzU3VGU3SHhPTTA1OXZXRkVBWF82YXBLQ2NkUFBqcEhQbXpiMU1RS2VLVnlzODQ4UzI3Nm0wdVE,English,,5,2015-10-17,Frank Hartwig,THE best all around scoring app,never lost a score or game,,
KeepScore - Score Keeper,Google Play,com.nolanlawson.keepscore,Z3A6QU9xcFRPRzBQaUxpeHk1M3NfRXB0QXlFZmZCMVNQVzU3VGU3SHhPTTA1OXZXRkVBWF82YXBLQ2NkUFBqcEhQbXpiMU1RS2VLVnlzODQ4UzI3Nm0wdVE,English,,5,2015-10-17,Frank Hartwig,THE best all around scoring app,backup available,,
KeepScore - Score Keeper,Google Play,com.nolanlawson.keepscore,Z3A6QU9xcFRPRmdxU056U0JFNXMzRmdGcnh1a3RFWUhvRGdpVU1sSG9KUzFoaGx3N3pqV3VRVHJuRjN2YUU5VFdiRWhJVWU1RzJPY2ZDUmxsTXZReWU2WVE,English,,2,2015-10-15,Troy Barnum,Almost perfect.,i need to be able to score a zero on some hand of the game we play,,
KeepScore - Score Keeper,Google Play,com.nolanlawson.keepscore,Z3A6QU9xcFRPRmdxU056U0JFNXMzRmdGcnh1a3RFWUhvRGdpVU1sSG9KUzFoaGx3N3pqV3VRVHJuRjN2YUU5VFdiRWhJVWU1RzJPY2ZDUmxsTXZReWU2WVE,English,,2,2015-10-15,Troy Barnum,Almost perfect.,you have negative but not zero,,
KeepScore - Score Keeper,Google Play,com.nolanlawson.keepscore,Z3A6QU9xcFRPRzJkRTF6cHZCaHRBdExhWWQ5M0FmRnU0SE1xVDNZSjRaTWhqOU53Vi0zRHdJWGVMbkU0M1Z3MjI5bWtxTGc3UGttU0tsREFUdW56Yklkb2c,English,,5,2015-10-15,Benji Tham,"Simple, no BS",this scorekeeper ha all the feature i and nothing annoying,,
KeepScore - Score Keeper,Google Play,com.nolanlawson.keepscore,Z3A6QU9xcFRPRzJkRTF6cHZCaHRBdExhWWQ5M0FmRnU0SE1xVDNZSjRaTWhqOU53Vi0zRHdJWGVMbkU0M1Z3MjI5bWtxTGc3UGttU0tsREFUdW56Yklkb2c,English,,5,2015-10-15,Benji Tham,"Simple, no BS",very quick to add adding and subtracting score is a clean player and player can drop in and out easily,,
KeepScore - Score Keeper,Google Play,com.nolanlawson.keepscore,Z3A6QU9xcFRPRWpCU0ZUaVhiQjBVVjc3NnNTaWxRQU52NmQ0QzNlSGlMOTUtNXFLanNrVi1kNUVmZDhRN3I2NjdPVHYwbngzYnVnOVlKOXlsaWxYb2tqV3c,English,,2,2015-10-09,Mayela Villarreal,Stopped working with Android 6.0,keep crashing i upgraded the android version,,
KeepScore - Score Keeper,Google Play,com.nolanlawson.keepscore,Z3A6QU9xcFRPRUZCWF9VRTRxUzR2clF0cDZ5aWxCc253YllFWkVYajVqVjFtX0xYb3JzdVE5QU9yR3hJTFBWSEpYTDhCS1NYcnFXbzBOMmZ1WllOUUVRd3c,English,,5,2015-09-20,Colin Nielson,Install it on every device!,it doe what it say on the tin,,
KeepScore - Score Keeper,Google Play,com.nolanlawson.keepscore,Z3A6QU9xcFRPRUZCWF9VRTRxUzR2clF0cDZ5aWxCc253YllFWkVYajVqVjFtX0xYb3JzdVE5QU9yR3hJTFBWSEpYTDhCS1NYcnFXbzBOMmZ1WllOUUVRd3c,English,,5,2015-09-20,Colin Nielson,Install it on every device!,family like to play game and this is a simple way to score many different kind of game,,
KeepScore - Score Keeper,Google Play,com.nolanlawson.keepscore,Z3A6QU9xcFRPSFU0RVNRZ2xPOWk5bnRnMmhJaTJXYnZVSFE2SHJGSmhaR0puVXJJNVUzMDJZTGVPVW50TFhqS0VrYlJSU2FaeWx3LTFpRFRPUlJ5QUh2NlE,English,,4,2015-09-06,Sandi Vargas,"A great score keeping app, but......",thank you for your great score keeping,,
KeepScore - Score Keeper,Google Play,com.nolanlawson.keepscore,Z3A6QU9xcFRPSFU0RVNRZ2xPOWk5bnRnMmhJaTJXYnZVSFE2SHJGSmhaR0puVXJJNVUzMDJZTGVPVW50TFhqS0VrYlJSU2FaeWx3LTFpRFRPUlJ5QUh2NlE,English,,4,2015-09-06,Sandi Vargas,"A great score keeping app, but......",please consider the adding the following option 1,,
KeepScore - Score Keeper,Google Play,com.nolanlawson.keepscore,Z3A6QU9xcFRPSFU0RVNRZ2xPOWk5bnRnMmhJaTJXYnZVSFE2SHJGSmhaR0puVXJJNVUzMDJZTGVPVW50TFhqS0VrYlJSU2FaeWx3LTFpRFRPUlJ5QUh2NlE,English,,4,2015-09-06,Sandi Vargas,"A great score keeping app, but......",2,,
KeepScore - Score Keeper,Google Play,com.nolanlawson.keepscore,Z3A6QU9xcFRPSFU0RVNRZ2xPOWk5bnRnMmhJaTJXYnZVSFE2SHJGSmhaR0puVXJJNVUzMDJZTGVPVW50TFhqS0VrYlJSU2FaeWx3LTFpRFRPUlJ5QUh2NlE,English,,4,2015-09-06,Sandi Vargas,"A great score keeping app, but......",the should declare which player or team reach the preselected final score and record the frequency of the victory,,
KeepScore - Score Keeper,Google Play,com.nolanlawson.keepscore,Z3A6QU9xcFRPR3RHZkIybUkxWHZaTGFhRUZIeUI3V2Fac1FQTU8xVzkwYzVQVG05bF81YWQza2VFTFNOSGZWbjhLaHBkOExSXzZTOTlMM3UwNGtzOVEwMnc,English,,5,2015-09-03,Julia Ahlgren,Awesome!,i use this for card game and it work great,,
KeepScore - Score Keeper,Google Play,com.nolanlawson.keepscore,Z3A6QU9xcFRPRjc5QlNOUWdxMmlEWk56M0cwSXdLMm4tU01RbXVYWTd2bDVOMjdxTk9TNGZFZEU5ZVE3TEQtdl9jTlBjUllVMmJsS3VTWEtxWWpXTnFKS1E,English,,5,2015-08-23,Mike Sanosuke,GREAT!,really help for tracking score in family game,,
KeepScore - Score Keeper,Google Play,com.nolanlawson.keepscore,Z3A6QU9xcFRPRUt6Tk9INEFxNlp0V3AtWm1XUFhPZnVHTjhJS00wTmRicERCY1I0a3lzOEd1ejdLaFdiMG4yUDd6bE5LRnlSbktpaE1hWVJ0d1NISFNOOGc,English,,3,2015-08-12,Dave Jeromy,Enter score?,could not figure out how to manually enter a score,,
KeepScore - Score Keeper,Google Play,com.nolanlawson.keepscore,Z3A6QU9xcFRPRUt6Tk9INEFxNlp0V3AtWm1XUFhPZnVHTjhJS00wTmRicERCY1I0a3lzOEd1ejdLaFdiMG4yUDd6bE5LRnlSbktpaE1hWVJ0d1NISFNOOGc,English,,3,2015-08-12,Dave Jeromy,Enter score?,button allow for and single digit increment,,
KeepScore - Score Keeper,Google Play,com.nolanlawson.keepscore,Z3A6QU9xcFRPRUt6Tk9INEFxNlp0V3AtWm1XUFhPZnVHTjhJS00wTmRicERCY1I0a3lzOEd1ejdLaFdiMG4yUDd6bE5LRnlSbktpaE1hWVJ0d1NISFNOOGc,English,,3,2015-08-12,Dave Jeromy,Enter score?,work well though,,
KeepScore - Score Keeper,Google Play,com.nolanlawson.keepscore,Z3A6QU9xcFRPRnhpVzdKemZKTHBIcGFtYU1lTy1Dc05OTkUySm5XSFJLLWN2ZlE3Wm1XWTdxbllsZGU3aTdKdVMxYUg5UUJwY0NGUUhtWnB0VnFvZmxWaXc,English,,5,2015-07-24,Lajos Szél,What a useful app!,i wa looking for like this,,
KeepScore - Score Keeper,Google Play,com.nolanlawson.keepscore,Z3A6QU9xcFRPRnhpVzdKemZKTHBIcGFtYU1lTy1Dc05OTkUySm5XSFJLLWN2ZlE3Wm1XWTdxbllsZGU3aTdKdVMxYUg5UUJwY0NGUUhtWnB0VnFvZmxWaXc,English,,5,2015-07-24,Lajos Szél,What a useful app!,thank you,,
KeepScore - Score Keeper,Google Play,com.nolanlawson.keepscore,Z3A6QU9xcFRPRS0tcW4zWUE4OVAtLUlzZ29vLThBVlVYVC04M1U4aVlVLWkzMUI1M0dIaGFMM25TRDlPck5UZlhIel9LeG0wS0VqU2ZCSmY1RVlzeTRPMnc,English,,5,2015-07-14,George Garrison,,clear and easy,,
KeepScore - Score Keeper,Google Play,com.nolanlawson.keepscore,Z3A6QU9xcFRPRmsyMmdqdmotclVibmVvZVVWQXNNX3IwbE91MFBwZkxFT1ozN1FYajZNVkxLaWdfRzJYdnZTREVma01fNmVNajgxNVdKcFB2VzF0UEhfdlE,English,,4,2015-07-14,Stephani Hren,,much cleaner and more efficient keeping score on a pad of paper,,
KeepScore - Score Keeper,Google Play,com.nolanlawson.keepscore,Z3A6QU9xcFRPR3FMckhydWpHdC1fbkFqMjkzRWR5bzE4MjZKQzd5aV96SmxMQWRJdzZ6MGFoU3FsOEhaWFhJR28yTHc1WHA0RXlvR20zNFZxWVFDLS1PNVE,English,,5,2015-05-26,Kévin Civy,AWESOME,easy to use and really nice,,
KeepScore - Score Keeper,Google Play,com.nolanlawson.keepscore,Z3A6QU9xcFRPR3FMckhydWpHdC1fbkFqMjkzRWR5bzE4MjZKQzd5aV96SmxMQWRJdzZ6MGFoU3FsOEhaWFhJR28yTHc1WHA0RXlvR20zNFZxWVFDLS1PNVE,English,,5,2015-05-26,Kévin Civy,AWESOME,good job,,
KeepScore - Score Keeper,Google Play,com.nolanlawson.keepscore,Z3A6QU9xcFRPSHYzd0NJNzBvcXAydWpWZzA1d016MXo4R2U4T0ZQd18xcGxnTWxZTkVaMTgtQWlrQjhXSFRVT1hjck1PbmxEMW55QVdJOV9CZkhBbVhLd2c,English,,4,2015-05-22,Andrew Horton,Broke on the Galaxy S5,doe not work on the galaxy,,
KeepScore - Score Keeper,Google Play,com.nolanlawson.keepscore,Z3A6QU9xcFRPSHYzd0NJNzBvcXAydWpWZzA1d016MXo4R2U4T0ZQd18xcGxnTWxZTkVaMTgtQWlrQjhXSFRVT1hjck1PbmxEMW55QVdJOV9CZkhBbVhLd2c,English,,4,2015-05-22,Andrew Horton,Broke on the Galaxy S5,it would be great to be able to set a finishing score for game like cribbage,,
KeepScore - Score Keeper,Google Play,com.nolanlawson.keepscore,Z3A6QU9xcFRPRk5rOTZFeEtEeHVNNTVrZjk0a0lCejlINGxLVE1ibWtrb3hyUkxqbVo0cmMxZC1OZGg2d01xLW10Ymdjb1I2ZVNwUG5nUEVnWF90V3hORGc,English,,5,2015-05-11,Krzysztof Rzymkowski,Very good,could think of any possible improvement,,
KeepScore - Score Keeper,Google Play,com.nolanlawson.keepscore,Z3A6QU9xcFRPRTZmZ0JiaWk0S2JzbmlFVE5ld0tnc0NDb0h0LUhuRzZMLS1wOThMV2lhRXVaOXlSVi1kaEQ5MUdWTUFuX1lHTXZvUEJKNEdhRlBJMkFVYXc,English,,5,2015-04-29,Blake Regehr,Flawless,perfect for any game,,
KeepScore - Score Keeper,Google Play,com.nolanlawson.keepscore,Z3A6QU9xcFRPRWhwMnQ4ek5yanRtcVFtUndhZTdUUEx0X1hEVzFadmJqbHdUN01STDhvV3NCbWtXbXQzNXJjQ0NhOXY2UE9pNWNMaEVqRWxORGxWc0E0U1E,English,,3,2015-04-23,Nicole Deering,Great scoring app,now,,
KeepScore - Score Keeper,Google Play,com.nolanlawson.keepscore,Z3A6QU9xcFRPRWhwMnQ4ek5yanRtcVFtUndhZTdUUEx0X1hEVzFadmJqbHdUN01STDhvV3NCbWtXbXQzNXJjQ0NhOXY2UE9pNWNMaEVqRWxORGxWc0E0U1E,English,,3,2015-04-23,Nicole Deering,Great scoring app,there is no way to undo a and i make a lot of mistake,,
KeepScore - Score Keeper,Google Play,com.nolanlawson.keepscore,Z3A6QU9xcFRPRWhwMnQ4ek5yanRtcVFtUndhZTdUUEx0X1hEVzFadmJqbHdUN01STDhvV3NCbWtXbXQzNXJjQ0NhOXY2UE9pNWNMaEVqRWxORGxWc0E0U1E,English,,3,2015-04-23,Nicole Deering,Great scoring app,,,
KeepScore - Score Keeper,Google Play,com.nolanlawson.keepscore,bGc6QU9xcFRPRTRJWDI4d2oxLTlSZlduWFhaY3B5YlBBV0hCNFlsRklWalRWVks4NENseTBPQjNPYU9kdU5RdEY4dWIxS3BYLThhUEswQ05WakJ6cXh5T3c,English,,5,2015-04-19,A Google User,,the best,,
KeepScore - Score Keeper,Google Play,com.nolanlawson.keepscore,Z3A6QU9xcFRPSEpkdDg4ZXpVM0pYWnNiZGZWM01uWGFadXk4ZXFFLXVNZzRndnU4Ym5fZGtqbkZIZDZ4VTZOOUp4YVlIM2g1STVJLXAxYXpmR2ZEM2EySmc,English,,1,2015-03-29,Aman Bhargava,You had one job,i switched to another during a game and switched back to see all score were reset to zero,,
KeepScore - Score Keeper,Google Play,com.nolanlawson.keepscore,Z3A6QU9xcFRPR21MYzhDVkxKYy13YTFBTU5kaGFSY2tzTGdLVkNfUGxrbDJ6REtSb05MeWdTc08xR1J0eHlsVE04eXpwWDBpV2dreE1Ea2pWNmFiTkV6YVE,English,,5,2015-03-23,Francisco Demartino,,and 0 permission,,
KeepScore - Score Keeper,Google Play,com.nolanlawson.keepscore,Z3A6QU9xcFRPSFpybUduNzVhUjJsYjRXWHdiOXhVOVZqckVJbkpILWEyVWJYaU8zUE92QnFXejk2dGFxd19Vd0N0d2lMdlJYREVwcGI4ZW0zU3k5aERFT3c,English,,3,2015-03-11,Markus Kraus,Force closes a lot,i love the way the work but on a regular basis it force close during s game and loses the score which is obviously just about the worst thing a score keeping can do,,
KeepScore - Score Keeper,Google Play,com.nolanlawson.keepscore,Z3A6QU9xcFRPRjhHZW5ISExycE14eS1CRHJEWldDZkNDTmVuYkhSZHlWUl9uWnFVWmVjdkt6RzFRQ0VDV2hfWGlUbjVGUml0VkM4enl5NktPRjRpTzlsVUE,English,,5,2015-02-26,Khalid Adisendjaja,,simplicity,,
KeepScore - Score Keeper,Google Play,com.nolanlawson.keepscore,Z3A6QU9xcFRPRjhHZW5ISExycE14eS1CRHJEWldDZkNDTmVuYkhSZHlWUl9uWnFVWmVjdkt6RzFRQ0VDV2hfWGlUbjVGUml0VkM4enl5NktPRjRpTzlsVUE,English,,5,2015-02-26,Khalid Adisendjaja,,said,,
KeepScore - Score Keeper,Google Play,com.nolanlawson.keepscore,Z3A6QU9xcFRPR19iUTA1clFoSFJQd3dVaGdGNmRUb3FDQkxieXRtYmdfdlBtLTRkZ1RJSmFKc0s1Q184c3V4Wm5JNEhOWTlYSXB6bUNMMGZiNHFKYnNOa2c,English,,5,2015-02-03,Brent Papenfuss,No better scorekeeping app!,updating my previous review from 2 to 4 star,,
KeepScore - Score Keeper,Google Play,com.nolanlawson.keepscore,Z3A6QU9xcFRPR19iUTA1clFoSFJQd3dVaGdGNmRUb3FDQkxieXRtYmdfdlBtLTRkZ1RJSmFKc0s1Q184c3V4Wm5JNEhOWTlYSXB6bUNMMGZiNHFKYnNOa2c,English,,5,2015-02-03,Brent Papenfuss,No better scorekeeping app!,the reached out to me and let me know that leaving the game are saved in the list of saved so the score preserve,,
KeepScore - Score Keeper,Google Play,com.nolanlawson.keepscore,Z3A6QU9xcFRPR19iUTA1clFoSFJQd3dVaGdGNmRUb3FDQkxieXRtYmdfdlBtLTRkZ1RJSmFKc0s1Q184c3V4Wm5JNEhOWTlYSXB6bUNMMGZiNHFKYnNOa2c,English,,5,2015-02-03,Brent Papenfuss,No better scorekeeping app!,seriously is a very useful,,
KeepScore - Score Keeper,Google Play,com.nolanlawson.keepscore,Z3A6QU9xcFRPSHpHWEp2eXl0WmxURjRnRlZKckw1T2ttY1M2VGNtdUUyM1QzVDRzcU5pVllBUnZWWHpRVFBqRDdablZpc01WbmoxZTlrbFBrWmpVYmM4aFE,English,,5,2015-01-24,Pete Frerichs,Well made,a great visual aid to describe exactly you went wrong during a game,,
KeepScore - Score Keeper,Google Play,com.nolanlawson.keepscore,Z3A6QU9xcFRPSHpHWEp2eXl0WmxURjRnRlZKckw1T2ttY1M2VGNtdUUyM1QzVDRzcU5pVllBUnZWWHpRVFBqRDdablZpc01WbmoxZTlrbFBrWmpVYmM4aFE,English,,5,2015-01-24,Pete Frerichs,Well made,it keep a detailed record of game past for reminiscence,,
KeepScore - Score Keeper,Google Play,com.nolanlawson.keepscore,Z3A6QU9xcFRPR2Vvck95QnZGVFh5aHplMFprZ2dhWEZQQnI3OXdJX3pfcVdQdThWbHJYVWd5cTBROEN3ZXdtcFljeHJVdU5MTkpfV2JUNXZxalBZV2ljQ1E,English,,5,2015-01-06,Kamil Páral,Universal and helpful,simple to yet powerful enough to help you with most of your game,,
KeepScore - Score Keeper,Google Play,com.nolanlawson.keepscore,Z3A6QU9xcFRPR2Vvck95QnZGVFh5aHplMFprZ2dhWEZQQnI3OXdJX3pfcVdQdThWbHJYVWd5cTBROEN3ZXdtcFljeHJVdU5MTkpfV2JUNXZxalBZV2ljQ1E,English,,5,2015-01-06,Kamil Páral,Universal and helpful,open source,,
KeepScore - Score Keeper,Google Play,com.nolanlawson.keepscore,Z3A6QU9xcFRPR2Vvck95QnZGVFh5aHplMFprZ2dhWEZQQnI3OXdJX3pfcVdQdThWbHJYVWd5cTBROEN3ZXdtcFljeHJVdU5MTkpfV2JUNXZxalBZV2ljQ1E,English,,5,2015-01-06,Kamil Páral,Universal and helpful,what else to ask for,,
KeepScore - Score Keeper,Google Play,com.nolanlawson.keepscore,Z3A6QU9xcFRPRi1XZ0xELTNuU0U0d1BXLVJFbThGX3NzQXk3QkVlMlRuZTFKb2thY1pSdDNkdS1TNkRQSVBjd2RkakFxX2FKQTNkSHJSZVdQZHVPOUdvcUE,English,,5,2015-01-04,Les Sutherland,,great for card,,
KeepScore - Score Keeper,Google Play,com.nolanlawson.keepscore,Z3A6QU9xcFRPRy1FT1gwYjM2dk4tRU5ZTXMxdzZQcWNPZlozUWd2Tzlxa0Frb2M3WkJzU3VrdXVYSHFSb0hPc29BWEZWU0lWLXN0M2d6cmk3Y0tCU0hhbWc,English,,4,2014-12-31,Zack Wise,Amazing app,this doe exactly what it say it doe and more,,
KeepScore - Score Keeper,Google Play,com.nolanlawson.keepscore,Z3A6QU9xcFRPRS1YNkZoRjB4d0s0XzJGYTJWWC1vRU5nZ21EOHhPNjZQZVcyRnBwZUMzc3U5Y1hicHdVUkZWRTZFZFZ3OVVVUzVfcUtRQjMzZjZYUkE2NHc,English,,4,2014-12-26,Brycen Hale,"Great app, needs work",the is great except for entering large you have to click on too many thing,,
KeepScore - Score Keeper,Google Play,com.nolanlawson.keepscore,Z3A6QU9xcFRPRS1YNkZoRjB4d0s0XzJGYTJWWC1vRU5nZ21EOHhPNjZQZVcyRnBwZUMzc3U5Y1hicHdVUkZWRTZFZFZ3OVVVUzVfcUtRQjMzZjZYUkE2NHc,English,,4,2014-12-26,Brycen Hale,"Great app, needs work",change it so a click on the player score open the entry box with an active cursor,,
KeepScore - Score Keeper,Google Play,com.nolanlawson.keepscore,Z3A6QU9xcFRPRS1YNkZoRjB4d0s0XzJGYTJWWC1vRU5nZ21EOHhPNjZQZVcyRnBwZUMzc3U5Y1hicHdVUkZWRTZFZFZ3OVVVUzVfcUtRQjMzZjZYUkE2NHc,English,,4,2014-12-26,Brycen Hale,"Great app, needs work",this would make the much better,,
KeepScore - Score Keeper,Google Play,com.nolanlawson.keepscore,Z3A6QU9xcFRPRS1YNkZoRjB4d0s0XzJGYTJWWC1vRU5nZ21EOHhPNjZQZVcyRnBwZUMzc3U5Y1hicHdVUkZWRTZFZFZ3OVVVUzVfcUtRQjMzZjZYUkE2NHc,English,,4,2014-12-26,Brycen Hale,"Great app, needs work",otherwise i love the feature and it is very easy to use,,
KeepScore - Score Keeper,Google Play,com.nolanlawson.keepscore,Z3A6QU9xcFRPSFVkdUtZdTFCYndpczRUdnRobDc3V2lqd2hFZGpYRXRjM001amtOcmxEaFEtWXNGYW1URVpBcEE1RUw4Y0dlYzROVFI3eVdsZlVjYzdLQ0E,English,,5,2014-12-21,Lucas Guasso,The best ever!,i have tried several like this and none would be good and functional a,,
KeepScore - Score Keeper,Google Play,com.nolanlawson.keepscore,Z3A6QU9xcFRPSFVkdUtZdTFCYndpczRUdnRobDc3V2lqd2hFZGpYRXRjM001amtOcmxEaFEtWXNGYW1URVpBcEE1RUw4Y0dlYzROVFI3eVdsZlVjYzdLQ0E,English,,5,2014-12-21,Lucas Guasso,The best ever!,the is fantastic,,
KeepScore - Score Keeper,Google Play,com.nolanlawson.keepscore,Z3A6QU9xcFRPSFhISmFNUVdvSDlZYWJSWjJVOWlQVzVSTjZyeE82bEtubVY5c05tWEE5cElWVVJZZ1FzLW9ZZl9KZWNEaXpLbjUxV0JqSXllQkp6bU9tcWc,English,,5,2014-12-06,André Capers,Awesome score keeper,quick and efficient entry,,
KeepScore - Score Keeper,Google Play,com.nolanlawson.keepscore,bGc6QU9xcFRPRkVtREhBZlRkNkphdVRNZjVjM0s4N0ZRaVF2R1FvTDE3cjdzam03Q3Z6dDZ0MUpFaTRTSkNfLXNLMUZWRW1pZ3RpUExUMjFpN3VmOGRlMVE,English,,5,2014-12-04,A Google User,,fantastic best it kind on the market,,
KeepScore - Score Keeper,Google Play,com.nolanlawson.keepscore,Z3A6QU9xcFRPRk1CR2U0Qzh5MXotWThxcXBUd0xUb19EUDFqNHpxaDFrUnpfLWdLVXlla1ROTWdGd2xld045TlYwek5fWGN3V1NRMWpHSERLQ1gtMEoyNVE,English,,2,2014-11-27,Richard D. Thompson II,Needs improvement,used to work now it crash on my nexus 5,,
KeepScore - Score Keeper,Google Play,com.nolanlawson.keepscore,Z3A6QU9xcFRPRk1CR2U0Qzh5MXotWThxcXBUd0xUb19EUDFqNHpxaDFrUnpfLWdLVXlla1ROTWdGd2xld045TlYwek5fWGN3V1NRMWpHSERLQ1gtMEoyNVE,English,,2,2014-11-27,Richard D. Thompson II,Needs improvement,very sad to lose the score,,
KeepScore - Score Keeper,Google Play,com.nolanlawson.keepscore,Z3A6QU9xcFRPSFJoYXRCSG5tWHRPRng4cnZiX0xZSDBRekk2UGxsVkRubDAxUUI5TjZPeWUxWmtXZjVSVXVOTVBPVGRkb1BtWjNRTkFHeTN3eTUwS00zb3c,English,,5,2014-11-15,Lucas Choate,Great for game time,only trouble is we pay pas the pig and 0 is a score,,
KeepScore - Score Keeper,Google Play,com.nolanlawson.keepscore,Z3A6QU9xcFRPSFJoYXRCSG5tWHRPRng4cnZiX0xZSDBRekk2UGxsVkRubDAxUUI5TjZPeWUxWmtXZjVSVXVOTVBPVGRkb1BtWjNRTkFHeTN3eTUwS00zb3c,English,,5,2014-11-15,Lucas Choate,Great for game time,will you allow,,
KeepScore - Score Keeper,Google Play,com.nolanlawson.keepscore,Z3A6QU9xcFRPSFJoYXRCSG5tWHRPRng4cnZiX0xZSDBRekk2UGxsVkRubDAxUUI5TjZPeWUxWmtXZjVSVXVOTVBPVGRkb1BtWjNRTkFHeTN3eTUwS00zb3c,English,,5,2014-11-15,Lucas Choate,Great for game time,thanks,,
KeepScore - Score Keeper,Google Play,com.nolanlawson.keepscore,Z3A6QU9xcFRPRWI0NGhsT3pQdlNhWk9XQWNadzNkc0ZGV1NLYzd0d25EcHoxamRFQWJqaEtld29KOXRaVndHeXJVMFlXS0k1ZXphWTJrRDBaUEtYZEttUGc,English,,5,2014-11-02,Daniel Chappell,Excellent scorekeeping app!,you like to play board but keeping score with pen and paper is 20th then this is the for you,,
KeepScore - Score Keeper,Google Play,com.nolanlawson.keepscore,Z3A6QU9xcFRPRWI0NGhsT3pQdlNhWk9XQWNadzNkc0ZGV1NLYzd0d25EcHoxamRFQWJqaEtld29KOXRaVndHeXJVMFlXS0k1ZXphWTJrRDBaUEtYZEttUGc,English,,5,2014-11-02,Daniel Chappell,Excellent scorekeeping app!,customizable default point amount are a plus,,
KeepScore - Score Keeper,Google Play,com.nolanlawson.keepscore,Z3A6QU9xcFRPRWI0NGhsT3pQdlNhWk9XQWNadzNkc0ZGV1NLYzd0d25EcHoxamRFQWJqaEtld29KOXRaVndHeXJVMFlXS0k1ZXphWTJrRDBaUEtYZEttUGc,English,,5,2014-11-02,Daniel Chappell,Excellent scorekeeping app!,highly recommend this,,
KeepScore - Score Keeper,Google Play,com.nolanlawson.keepscore,bGc6QU9xcFRPRlNkMmtBWHlJVmNiNVo0U2ZpM2E3MWZsdDB5ZkxCZjlKX1FVaS1MX2czWnQyM3NTdG85Tk94UkVRQ0dhRVNzWVUwWjc1RzlPXzNqS3ROMnc,English,,5,2014-10-29,A Google User,I love this app,ever i installed it the first time i have loved it,,
KeepScore - Score Keeper,Google Play,com.nolanlawson.keepscore,bGc6QU9xcFRPRlNkMmtBWHlJVmNiNVo0U2ZpM2E3MWZsdDB5ZkxCZjlKX1FVaS1MX2czWnQyM3NTdG85Tk94UkVRQ0dhRVNzWVUwWjc1RzlPXzNqS3ROMnc,English,,5,2014-10-29,A Google User,I love this app,down side is the phone themselves,,
KeepScore - Score Keeper,Google Play,com.nolanlawson.keepscore,bGc6QU9xcFRPRlNkMmtBWHlJVmNiNVo0U2ZpM2E3MWZsdDB5ZkxCZjlKX1FVaS1MX2czWnQyM3NTdG85Tk94UkVRQ0dhRVNzWVUwWjc1RzlPXzNqS3ROMnc,English,,5,2014-10-29,A Google User,I love this app,always need to play near a power outlet my phone is never charged at the right time,,
KeepScore - Score Keeper,Google Play,com.nolanlawson.keepscore,Z3A6QU9xcFRPRlFEZ18xR1M1LUxlaWNKV21TWHRCRDdWTWJ2dWVwWmF4UU1Da0hOZGh1dXJSdUxKSzg3MmFEWVRyMUpMUXJrblh3NUZDZ1ppOS1Tc1hyRkE,English,,5,2014-10-21,Alan O'Kelly,,great,,
KeepScore - Score Keeper,Google Play,com.nolanlawson.keepscore,Z3A6QU9xcFRPRURwYUZTcVRKUGlDZ1JqVG9aUjBiX3RjYWpieUNBTll0ajRyYWR0RGRHczhUWWhnS1FPSGdvUHZtcDdqbV9WWHUyWm1VNXhaSlZHNDJwLVE,English,,3,2014-10-15,Bugui Lee,"Great app, but unstable",the only issue is the randomly crash multiple time per game,,
KeepScore - Score Keeper,Google Play,com.nolanlawson.keepscore,Z3A6QU9xcFRPRURwYUZTcVRKUGlDZ1JqVG9aUjBiX3RjYWpieUNBTll0ajRyYWR0RGRHczhUWWhnS1FPSGdvUHZtcDdqbV9WWHUyWm1VNXhaSlZHNDJwLVE,English,,3,2014-10-15,Bugui Lee,"Great app, but unstable",would rate 5 the issue were fixed,,
KeepScore - Score Keeper,Google Play,com.nolanlawson.keepscore,Z3A6QU9xcFRPRTNoVEVlaWRBZEtfd2Zabk4yMVdYbktWbGVNY3I3XzhZZkk3bzdjMldYY25rSlZyTV92bFNidFp3VnRjOXRTcW9ralNUWGJabkNNU0puQnc,English,,5,2014-09-11,Chris N.,Perfect,i just downloaded this and i love it,,
KeepScore - Score Keeper,Google Play,com.nolanlawson.keepscore,Z3A6QU9xcFRPRTNoVEVlaWRBZEtfd2Zabk4yMVdYbktWbGVNY3I3XzhZZkk3bzdjMldYY25rSlZyTV92bFNidFp3VnRjOXRTcW9ralNUWGJabkNNU0puQnc,English,,5,2014-09-11,Chris N.,Perfect,"ha every option i wanted like keeping track of score for more one game with different number of adding point by 5,1 and even able to customize those button",,
KeepScore - Score Keeper,Google Play,com.nolanlawson.keepscore,Z3A6QU9xcFRPR3lpaHFKOG05ZUxwVjFIblBPVldJUFhpUEJ0V1I5M2NUYlI0ZnBSMmFUQTNfX3d1WG9fQ3Vkek9JRmZMa1I0NVhBMTU5bWM4d01wMGFZd1E,English,,5,2014-08-25,alfista88,Ottima e versatile,per la a fa,,
KeepScore - Score Keeper,Google Play,com.nolanlawson.keepscore,Z3A6QU9xcFRPR3lpaHFKOG05ZUxwVjFIblBPVldJUFhpUEJ0V1I5M2NUYlI0ZnBSMmFUQTNfX3d1WG9fQ3Vkek9JRmZMa1I0NVhBMTU5bWM4d01wMGFZd1E,English,,5,2014-08-25,alfista88,Ottima e versatile,tutti i e a,,
KeepScore - Score Keeper,Google Play,com.nolanlawson.keepscore,Z3A6QU9xcFRPR3lpaHFKOG05ZUxwVjFIblBPVldJUFhpUEJ0V1I5M2NUYlI0ZnBSMmFUQTNfX3d1WG9fQ3Vkek9JRmZMa1I0NVhBMTU5bWM4d01wMGFZd1E,English,,5,2014-08-25,alfista88,Ottima e versatile,dire,,
KeepScore - Score Keeper,Google Play,com.nolanlawson.keepscore,Z3A6QU9xcFRPR2Z5N0txUUdIeXU4QkFwZDVNZ19xUzJ3UldJcXU0YTBkOEhCbHlXUTlYa0hOdUd1OF93TURPaGRwT0pKcjA2LTRvNVBPQkJxZEhyRjR6Tmc,English,,5,2014-08-07,Kevin Humphreys,Just perfect,just what i wa looking for,,
KeepScore - Score Keeper,Google Play,com.nolanlawson.keepscore,Z3A6QU9xcFRPR2Z5N0txUUdIeXU4QkFwZDVNZ19xUzJ3UldJcXU0YTBkOEhCbHlXUTlYa0hOdUd1OF93TURPaGRwT0pKcjA2LTRvNVBPQkJxZEhyRjR6Tmc,English,,5,2014-08-07,Kevin Humphreys,Just perfect,cant even think of any feature it really need,,
KeepScore - Score Keeper,Google Play,com.nolanlawson.keepscore,Z3A6QU9xcFRPR2Z5N0txUUdIeXU4QkFwZDVNZ19xUzJ3UldJcXU0YTBkOEhCbHlXUTlYa0hOdUd1OF93TURPaGRwT0pKcjA2LTRvNVBPQkJxZEhyRjR6Tmc,English,,5,2014-08-07,Kevin Humphreys,Just perfect,it ha everything,,
KeepScore - Score Keeper,Google Play,com.nolanlawson.keepscore,Z3A6QU9xcFRPR2Z5N0txUUdIeXU4QkFwZDVNZ19xUzJ3UldJcXU0YTBkOEhCbHlXUTlYa0hOdUd1OF93TURPaGRwT0pKcjA2LTRvNVBPQkJxZEhyRjR6Tmc,English,,5,2014-08-07,Kevin Humphreys,Just perfect,superb any family game player need,,
KeepScore - Score Keeper,Google Play,com.nolanlawson.keepscore,Z3A6QU9xcFRPR3MzUjdBa2FQcXRBMjQ3OXI5ekU4bTRtT1gxUDdxWkNVSjVPYm0zaVNNa1FEQUxPTm1hb1lSYzA0UWNJaVhkWkplZldIMHcwNXdEa0k0Rmc,English,,4,2014-07-09,Jack Lam,Scrabble game score keep,i use it to track scrabble game score,,
KeepScore - Score Keeper,Google Play,com.nolanlawson.keepscore,Z3A6QU9xcFRPR3J1VFBQOUh6N19sZHhYdk9NSzNySGpnRTE4OG4wZW43N0N2aURMQVVoWXZCQnh5UUFPMHhpMWJxNHRkcER4eXBoNXl3LXlUcnlhTnEwU1E,English,,5,2014-06-24,Vishram Boodoo,,great help,,
KeepScore - Score Keeper,Google Play,com.nolanlawson.keepscore,Z3A6QU9xcFRPRmUxZDUtZUVjdzIyanFrUnNZT0xQT28xR2wxQWI4N1NzRnZHb0tMYjd3RVBFYV9BSDdJcFRGVDg1MjdISG5XcEF4QXNkTVZfOGhwcklKb2c,English,,5,2014-06-08,Rick Langley,Great app.,just played a game with 11 people,,
KeepScore - Score Keeper,Google Play,com.nolanlawson.keepscore,Z3A6QU9xcFRPRmUxZDUtZUVjdzIyanFrUnNZT0xQT28xR2wxQWI4N1NzRnZHb0tMYjd3RVBFYV9BSDdJcFRGVDg1MjdISG5XcEF4QXNkTVZfOGhwcklKb2c,English,,5,2014-06-08,Rick Langley,Great app.,would love to have a quick button like history to show a full leader board,,
KeepScore - Score Keeper,Google Play,com.nolanlawson.keepscore,Z3A6QU9xcFRPRmUxZDUtZUVjdzIyanFrUnNZT0xQT28xR2wxQWI4N1NzRnZHb0tMYjd3RVBFYV9BSDdJcFRGVDg1MjdISG5XcEF4QXNkTVZfOGhwcklKb2c,English,,5,2014-06-08,Rick Langley,Great app.,maybe thing to add photo to people to see who is who,,
KeepScore - Score Keeper,Google Play,com.nolanlawson.keepscore,Z3A6QU9xcFRPSEdsTERsTXpfY29UU3dKSWRtcFA5MmZ1VTZibGFWWmg0N0ZDdVdwTjJtcWRMRlhJUDdZYmJQdHRTMmtySV95RUNnM3lhZkF6VGpuUVVJUnc,English,,5,2014-05-21,Gabriel Burca,Perfect,it doe everything it need to,,
KeepScore - Score Keeper,Google Play,com.nolanlawson.keepscore,Z3A6QU9xcFRPSEdsTERsTXpfY29UU3dKSWRtcFA5MmZ1VTZibGFWWmg0N0ZDdVdwTjJtcWRMRlhJUDdZYmJQdHRTMmtySV95RUNnM3lhZkF6VGpuUVVJUnc,English,,5,2014-05-21,Gabriel Burca,Perfect,nice and clean interface,,
KeepScore - Score Keeper,Google Play,com.nolanlawson.keepscore,Z3A6QU9xcFRPSEdsTERsTXpfY29UU3dKSWRtcFA5MmZ1VTZibGFWWmg0N0ZDdVdwTjJtcWRMRlhJUDdZYmJQdHRTMmtySV95RUNnM3lhZkF6VGpuUVVJUnc,English,,5,2014-05-21,Gabriel Burca,Perfect,no ad,,
KeepScore - Score Keeper,Google Play,com.nolanlawson.keepscore,Z3A6QU9xcFRPSEdsTERsTXpfY29UU3dKSWRtcFA5MmZ1VTZibGFWWmg0N0ZDdVdwTjJtcWRMRlhJUDdZYmJQdHRTMmtySV95RUNnM3lhZkF6VGpuUVVJUnc,English,,5,2014-05-21,Gabriel Burca,Perfect,no limitation,,
KeepScore - Score Keeper,Google Play,com.nolanlawson.keepscore,Z3A6QU9xcFRPSEdsTERsTXpfY29UU3dKSWRtcFA5MmZ1VTZibGFWWmg0N0ZDdVdwTjJtcWRMRlhJUDdZYmJQdHRTMmtySV95RUNnM3lhZkF6VGpuUVVJUnc,English,,5,2014-05-21,Gabriel Burca,Perfect,i love it,,
KeepScore - Score Keeper,Google Play,com.nolanlawson.keepscore,Z3A6QU9xcFRPSHlyV0EwN2hxbW5IMTVSRmRfWWUtS3JZUm5NcG1HSWRKVVdaX1NxN0t3SHJuWV9yYW5xUUxDUjY2aEQ0amc0MDFkb281dU5CdnR2dmVPWGc,English,,5,2014-05-20,ClarK Wang,Perfect for table games!,this is a must have,,
KeepScore - Score Keeper,Google Play,com.nolanlawson.keepscore,bGc6QU9xcFRPR0RrbHBkVG1KVVBiTUtKUUFFLThKY2R0Q3dQOU94UExaMjBxUzZQOEtnVUt4SVJRNXBVVU5hMmw0U1dwalM2bExSVkp5QVloY3F2b1NyX0E,English,,5,2014-05-13,A Google User,Works great,doe everything i want it to do,,
KeepScore - Score Keeper,Google Play,com.nolanlawson.keepscore,Z3A6QU9xcFRPRXN3a3Fac1JoekFnRTU3OE5TZVlYX294N2RsRzdRNWRxcDI1OWxNN0xnZlQ4YXNmUnFzQkhvbnJVd21SQmlOODM4bVVJcTNQSjdPUzltUFE,English,,5,2014-05-06,Patrick Mosley,Just what I was looking for to track family games,this wa perfect for my need,,
KeepScore - Score Keeper,Google Play,com.nolanlawson.keepscore,Z3A6QU9xcFRPRXN3a3Fac1JoekFnRTU3OE5TZVlYX294N2RsRzdRNWRxcDI1OWxNN0xnZlQ4YXNmUnFzQkhvbnJVd21SQmlOODM4bVVJcTNQSjdPUzltUFE,English,,5,2014-05-06,Patrick Mosley,Just what I was looking for to track family games,needed something i could easily keep score in various game and customize the value so that it wa quick and easy to use and get rid of paper pen,,
KeepScore - Score Keeper,Google Play,com.nolanlawson.keepscore,Z3A6QU9xcFRPRXN3a3Fac1JoekFnRTU3OE5TZVlYX294N2RsRzdRNWRxcDI1OWxNN0xnZlQ4YXNmUnFzQkhvbnJVd21SQmlOODM4bVVJcTNQSjdPUzltUFE,English,,5,2014-05-06,Patrick Mosley,Just what I was looking for to track family games,this did and it had what it needed to do it well,,
KeepScore - Score Keeper,Google Play,com.nolanlawson.keepscore,Z3A6QU9xcFRPRXN3a3Fac1JoekFnRTU3OE5TZVlYX294N2RsRzdRNWRxcDI1OWxNN0xnZlQ4YXNmUnFzQkhvbnJVd21SQmlOODM4bVVJcTNQSjdPUzltUFE,English,,5,2014-05-06,Patrick Mosley,Just what I was looking for to track family games,thing like keeping the screen and also being smart enough if i hit 500 100 that i wa saying 700 for that person for a turn,,
KeepScore - Score Keeper,Google Play,com.nolanlawson.keepscore,Z3A6QU9xcFRPRXN3a3Fac1JoekFnRTU3OE5TZVlYX294N2RsRzdRNWRxcDI1OWxNN0xnZlQ4YXNmUnFzQkhvbnJVd21SQmlOODM4bVVJcTNQSjdPUzltUFE,English,,5,2014-05-06,Patrick Mosley,Just what I was looking for to track family games,work perfectly,,
KeepScore - Score Keeper,Google Play,com.nolanlawson.keepscore,Z3A6QU9xcFRPRXN3a3Fac1JoekFnRTU3OE5TZVlYX294N2RsRzdRNWRxcDI1OWxNN0xnZlQ4YXNmUnFzQkhvbnJVd21SQmlOODM4bVVJcTNQSjdPUzltUFE,English,,5,2014-05-06,Patrick Mosley,Just what I was looking for to track family games,now my 3 thing i would love to see to make this even better,,
KeepScore - Score Keeper,Google Play,com.nolanlawson.keepscore,Z3A6QU9xcFRPRXN3a3Fac1JoekFnRTU3OE5TZVlYX294N2RsRzdRNWRxcDI1OWxNN0xnZlQ4YXNmUnFzQkhvbnJVd21SQmlOODM4bVVJcTNQSjdPUzltUFE,English,,5,2014-05-06,Patrick Mosley,Just what I was looking for to track family games,1,,
KeepScore - Score Keeper,Google Play,com.nolanlawson.keepscore,Z3A6QU9xcFRPRXN3a3Fac1JoekFnRTU3OE5TZVlYX294N2RsRzdRNWRxcDI1OWxNN0xnZlQ4YXNmUnFzQkhvbnJVd21SQmlOODM4bVVJcTNQSjdPUzltUFE,English,,5,2014-05-06,Patrick Mosley,Just what I was looking for to track family games,exporting to find a way to export all that same information that you can see in the game history like in the,,
KeepScore - Score Keeper,Google Play,com.nolanlawson.keepscore,Z3A6QU9xcFRPRXN3a3Fac1JoekFnRTU3OE5TZVlYX294N2RsRzdRNWRxcDI1OWxNN0xnZlQ4YXNmUnFzQkhvbnJVd21SQmlOODM4bVVJcTNQSjdPUzltUFE,English,,5,2014-05-06,Patrick Mosley,Just what I was looking for to track family games,then you can make nice in excel with the data and see the nice layout,,
KeepScore - Score Keeper,Google Play,com.nolanlawson.keepscore,Z3A6QU9xcFRPRXN3a3Fac1JoekFnRTU3OE5TZVlYX294N2RsRzdRNWRxcDI1OWxNN0xnZlQ4YXNmUnFzQkhvbnJVd21SQmlOODM4bVVJcTNQSjdPUzltUFE,English,,5,2014-05-06,Patrick Mosley,Just what I was looking for to track family games,2,,
KeepScore - Score Keeper,Google Play,com.nolanlawson.keepscore,Z3A6QU9xcFRPRXN3a3Fac1JoekFnRTU3OE5TZVlYX294N2RsRzdRNWRxcDI1OWxNN0xnZlQ4YXNmUnFzQkhvbnJVd21SQmlOODM4bVVJcTNQSjdPUzltUFE,English,,5,2014-05-06,Patrick Mosley,Just what I was looking for to track family games,the 4 on screen button are by far the most important for me playing game with high point value,,
KeepScore - Score Keeper,Google Play,com.nolanlawson.keepscore,Z3A6QU9xcFRPRXN3a3Fac1JoekFnRTU3OE5TZVlYX294N2RsRzdRNWRxcDI1OWxNN0xnZlQ4YXNmUnFzQkhvbnJVd21SQmlOODM4bVVJcTNQSjdPUzltUFE,English,,5,2014-05-06,Patrick Mosley,Just what I was looking for to track family games,i wa able to work with just 4 but it would be nice you could customize to add a few more if desired,,
KeepScore - Score Keeper,Google Play,com.nolanlawson.keepscore,Z3A6QU9xcFRPRXN3a3Fac1JoekFnRTU3OE5TZVlYX294N2RsRzdRNWRxcDI1OWxNN0xnZlQ4YXNmUnFzQkhvbnJVd21SQmlOODM4bVVJcTNQSjdPUzltUFE,English,,5,2014-05-06,Patrick Mosley,Just what I was looking for to track family games,3,,
KeepScore - Score Keeper,Google Play,com.nolanlawson.keepscore,Z3A6QU9xcFRPRXN3a3Fac1JoekFnRTU3OE5TZVlYX294N2RsRzdRNWRxcDI1OWxNN0xnZlQ4YXNmUnFzQkhvbnJVd21SQmlOODM4bVVJcTNQSjdPUzltUFE,English,,5,2014-05-06,Patrick Mosley,Just what I was looking for to track family games,i have not made a mistake yet but i know i will especially with drinking game,,
KeepScore - Score Keeper,Google Play,com.nolanlawson.keepscore,Z3A6QU9xcFRPRXN3a3Fac1JoekFnRTU3OE5TZVlYX294N2RsRzdRNWRxcDI1OWxNN0xnZlQ4YXNmUnFzQkhvbnJVd21SQmlOODM4bVVJcTNQSjdPUzltUFE,English,,5,2014-05-06,Patrick Mosley,Just what I was looking for to track family games,meaning do the opposite of a button value to fix mistake,,
KeepScore - Score Keeper,Google Play,com.nolanlawson.keepscore,Z3A6QU9xcFRPRWpyX3BSbDhVTmxWVGEzSWFndlZZNFZPODNRNk00OGVvZ3I5S1RLTGJGLWFHX0hHNmJabTctY0tFTFlmUXZkZ0Q0cDFUdjJRMGNQa1RZMWc,English,,5,2014-04-20,Brian Sommer,,great,,
KeepScore - Score Keeper,Google Play,com.nolanlawson.keepscore,Z3A6QU9xcFRPRzlmTUQzMnRpQWo3VlRTQ2RRY3JTMmNrLW9pLVM2Y0xuUlJmM1k4T1lXdmlBQVVQZGpCVjZqSks1YVRkRmMxSmZJSG5RTl9HZjBqZXBqR0E,English,,5,2014-03-31,Niko Janceski,Great for impromptu games out,great for any game score keeping,,
KeepScore - Score Keeper,Google Play,com.nolanlawson.keepscore,Z3A6QU9xcFRPRzlmTUQzMnRpQWo3VlRTQ2RRY3JTMmNrLW9pLVM2Y0xuUlJmM1k4T1lXdmlBQVVQZGpCVjZqSks1YVRkRmMxSmZJSG5RTl9HZjBqZXBqR0E,English,,5,2014-03-31,Niko Janceski,Great for impromptu games out,excellent design,,
KeepScore - Score Keeper,Google Play,com.nolanlawson.keepscore,Z3A6QU9xcFRPR0dDOWh6SzNQeVJxQnRuUjBzZ0RmTUJOa3ZUVG5GUThDS3dRNXVkRnpZQnRnOFhJQjZodVRhVHh4ZEtzS3ZLZF9GczNGdjdTd1dFRnhENkE,English,,5,2014-03-21,Rockabilly Bird,Just one suggestion...,my husband want to boast he beat me,,
KeepScore - Score Keeper,Google Play,com.nolanlawson.keepscore,Z3A6QU9xcFRPR0dDOWh6SzNQeVJxQnRuUjBzZ0RmTUJOa3ZUVG5GUThDS3dRNXVkRnpZQnRnOFhJQjZodVRhVHh4ZEtzS3ZLZF9GczNGdjdTd1dFRnhENkE,English,,5,2014-03-21,Rockabilly Bird,Just one suggestion...,to upload score to social medium,,
KeepScore - Score Keeper,Google Play,com.nolanlawson.keepscore,Z3A6QU9xcFRPR0dDOWh6SzNQeVJxQnRuUjBzZ0RmTUJOa3ZUVG5GUThDS3dRNXVkRnpZQnRnOFhJQjZodVRhVHh4ZEtzS3ZLZF9GczNGdjdTd1dFRnhENkE,English,,5,2014-03-21,Rockabilly Bird,Just one suggestion...,other that perfection,,
KeepScore - Score Keeper,Google Play,com.nolanlawson.keepscore,Z3A6QU9xcFRPR0dDOWh6SzNQeVJxQnRuUjBzZ0RmTUJOa3ZUVG5GUThDS3dRNXVkRnpZQnRnOFhJQjZodVRhVHh4ZEtzS3ZLZF9GczNGdjdTd1dFRnhENkE,English,,5,2014-03-21,Rockabilly Bird,Just one suggestion...,will buy the version,,
KeepScore - Score Keeper,Google Play,com.nolanlawson.keepscore,Z3A6QU9xcFRPRUdtWWtzaHZmdy1EdWJMUlQzenJCenl4SldvaVlrWjFSRUp2VVlHSU9PMERhRnQ3dHNmV0ZkWWVPWDJ5OW9NVkw2Q3ZWRWoxcjBXalR5NWc,English,,5,2014-03-15,Michal Stárek,The best scoring out there.,kudos to the author,,
KeepScore - Score Keeper,Google Play,com.nolanlawson.keepscore,Z3A6QU9xcFRPSDlCWHB1S3pVdDFWbGVNajBzbFNsWTVsSmNjQTYzbUFRNHZoT2tMMUI4d095OGMwamlrZ3owNmlwa21lOE5QbUhWeTlRbDlnLWhnVzFpV1E,English,,5,2014-03-13,Alex Lougheed,A Great App by a Great Guy,built in part to help track our 24 minute long dominion game,,
KeepScore - Score Keeper,Google Play,com.nolanlawson.keepscore,Z3A6QU9xcFRPSDlCWHB1S3pVdDFWbGVNajBzbFNsWTVsSmNjQTYzbUFRNHZoT2tMMUI4d095OGMwamlrZ3owNmlwa21lOE5QbUhWeTlRbDlnLWhnVzFpV1E,English,,5,2014-03-13,Alex Lougheed,A Great App by a Great Guy,i recently used it to track a 5 team game of disc golf,,
KeepScore - Score Keeper,Google Play,com.nolanlawson.keepscore,Z3A6QU9xcFRPSDlCWHB1S3pVdDFWbGVNajBzbFNsWTVsSmNjQTYzbUFRNHZoT2tMMUI4d095OGMwamlrZ3owNmlwa21lOE5QbUhWeTlRbDlnLWhnVzFpV1E,English,,5,2014-03-13,Alex Lougheed,A Great App by a Great Guy,is basically the best,,
KeepScore - Score Keeper,Google Play,com.nolanlawson.keepscore,Z3A6QU9xcFRPSDJCVF9OQVVOMUxsNmJFWXkxbkVsSDVjeTVsUnM3ZlBsM0lCWGVKVHktZlFpVVp2aXNnZzVMS1lxZUxTMzB0MFBFRWxtaWEzQlQ5TnROTGc,English,,4,2014-03-09,Rick Hunnicutt,Does exactly what it should.,one of my goto,,
KeepScore - Score Keeper,Google Play,com.nolanlawson.keepscore,Z3A6QU9xcFRPSDJCVF9OQVVOMUxsNmJFWXkxbkVsSDVjeTVsUnM3ZlBsM0lCWGVKVHktZlFpVVp2aXNnZzVMS1lxZUxTMzB0MFBFRWxtaWEzQlQ5TnROTGc,English,,4,2014-03-09,Rick Hunnicutt,Does exactly what it should.,new calculator feature ha issue,,
KeepScore - Score Keeper,Google Play,com.nolanlawson.keepscore,Z3A6QU9xcFRPSDJCVF9OQVVOMUxsNmJFWXkxbkVsSDVjeTVsUnM3ZlBsM0lCWGVKVHktZlFpVVp2aXNnZzVMS1lxZUxTMzB0MFBFRWxtaWEzQlQ5TnROTGc,English,,4,2014-03-09,Rick Hunnicutt,Does exactly what it should.,love the history feature,,
KeepScore - Score Keeper,Google Play,com.nolanlawson.keepscore,Z3A6QU9xcFRPSExMXzR2T0h3a1JvektFZEtJQ1pfSUhTZTAtRVhqdVc3eGtzT01zczNqejg1ZlR4OEF2a2lSMzJZaG9BUm9qS2E3MWk1blNMazZvVVRuSnc,English,,5,2014-03-07,Michael Chan,Great App,this always come out during board game night,,
