Topic Index 1,Topic Index 2,Topic Similarity
11,1,3.0
0,5,2.0
5,14,2.0
12,6,2.0
15,13,2.0
1,0,1.0
2,7,1.0
3,10,1.0
4,8,1.0
6,3,1.0
7,9,1.0
8,16,1.0
10,2,1.0
13,18,1.0
18,17,1.0
9,4,0.0
14,11,0.0
16,12,0.0
17,15,0.0
19,19,0.0
