presentation action bar extracted this address 164,b,2014/1/16,,
graphic imported revised icon,b,2014/1/12,,
bumped version,f,2013/12/27,,
presentation model added duration off setting this close 179,b,2013/12/27,,
presentation go to the list activity no extra for intent this close 181,f,2013/12/27,,
change,b,2013/12/27,,
