no repeating must be set,f,2013/12/09,,
it cannot be received by a broadcast receiver,b,2013/12/06,,
this is for 144,o,2013/12/06,,
bumped version,f,2013/12/03,,
amend existing alarm if name match added required for this close 144,b,2013/12/03,,
this close 144,b,2013/12/01,,
external added a stub for,f,2013/11/23,,
closed 134 database retry is required,b,2013/10/20,,
database retry,f,2013/10/20,,
closed 113 alarm are often cannot be resolved removed exception in future we will completely migrate to guava bus which will never sent outdated alarm,b,2013/10/20,,
