add support for the newer,f,2013/12/08,,
on connected,b,2013/12/06,,
update list support for my cloud player,b,2013/6/05,,
update explaining the status of this project,b,2013/5/15,,
bump version to 145,b,2013/3/03,,
minor fix for lg receiver,b,2013/3/03,,
fix issue with,b,2013/2/22,,
update listed supported,b,2012/11/23,,
update,b,2012/10/27,,
version bump and,b,2012/10/20,,
misc,o,2012/10/20,,
code cleanup,b,2012/10/20,,
add cooper contributor and player,f,2012/10/20,,
update,b,2012/8/20,,
bumped version and,f,2012/8/06,,
issue 30 put and db under one object so a lock both at the same time,b,2012/8/06,,
bumped version to 142,f,2012/8/05,,
30 fixed database race condition thanks to for his suggestion,b,2012/8/05,,
use for playtime for 38,o,2012/8/04,,
remove optimization proved to cause a bug in the way the database is accessed,b,2012/8/03,,
issue 38 remove usage of local time use,b,2012/8/03,,
bumped version to 141,f,2012/8/03,,
update added,b,2012/8/03,,
forgot to update log message tag,b,2012/8/03,,
address issue 30 move the database under an singleton,b,2012/8/03,,
address issue 30 move the database under an singleton,b,2012/8/03,,
update,b,2012/8/02,,
added test for,b,2012/8/02,,
update,b,2012/8/02,,
fixed null pointer exception trying to reset stats,b,2012/8/01,,
now inflates the menu for due to change in how work in 30 and above,b,2012/8/01,,
update,b,2012/7/30,,
updated proper headline,f,2012/7/30,,
added list of contributor to,f,2012/7/30,,
update,b,2012/7/30,,
added support for,b,2012/7/28,,
fix 13,b,2012/7/28,,
update and to include update manifest to a new version code,b,2012/7/28,,
update fix to consolidate code using a helper function,b,2012/7/28,,
updated to have better contrast on 40 phone,b,2012/4/21,,
updated to use an menu,b,2012/4/21,,
now support 7 and up still around 99,b,2012/4/21,,
now also us an for it main menu,b,2012/4/21,,
added upscaled icon,b,2012/4/21,,
bumped version to,f,2012/4/21,,
updated link to point to,b,2012/4/21,,
fixed some typo in,b,2012/4/21,,
some kind of automatic update of,b,2012/4/20,,
now us an menu,b,2012/4/11,,
other stuff well,o,2012/4/11,,
updated manifest to target needed to modify the tag,f,2012/4/11,,
updated test project to refer to properly,b,2012/4/11,,
updated to remove build error,b,2012/2/08,,
forgot to update,b,2012/2/01,,
with support for mobile phone thanks to mark,b,2012/2/01,,
added some a supported will remove whitespace from logging in,b,2011/10/12,,
not enough,o,2011/7/13,,
small cleanup in,b,2011/6/19,,
deleted created a package the reside instead,b,2011/6/19,,
big logo,b,2011/6/19,,
forgot this is,b,2011/3/07,,
disabled support for android work,b,2011/3/07,,
now support and the android fixed some error that came up i have done nothing,b,2011/3/07,,
final change for fixed some issue,b,2010/3/08,,
reformatted and stuff some layout file,o,2010/3/08,,
version for 130,f,2010/3/08,,
added some field for the,b,2010/3/07,,
added the ability to change the sort order viewing the local cache,b,2010/3/07,,
fixed some bug in the code and added option for the phone is roaming,b,2010/3/06,,
better handling of network and waking up waiting on them,b,2010/3/06,,
ready for 127,b,2010/2/28,,
forgot to mention in the about text,b,2010/1/27,,
version 125 with new icon by,b,2010/1/27,,
some including the icon by,b,2010/1/27,,
for release 123,f,2010/1/23,,
comment on how handle password,b,2010/1/23,,
lot of documentation added link to profile page in status activity,f,2010/1/23,,
class,o,2010/1/20,,
121 fixed length limitation changed the wording of the point text,b,2009/12/18,,
much refactoring moving code between class,o,2009/12/05,,
version 1110 fixed crash on unmount advanced option to always submit connected to a power source,b,2009/11/25,,
version 119 now done this commit small more testing,f,2009/9/27,,
almost done can now view cache for all website simultaneously,b,2009/9/26,,
and now ha a much simpler,b,2009/9/26,,
now the layout for cache view row work,b,2009/9/26,,
yet again just saving,b,2009/9/26,,
can now sort,b,2009/9/26,,
view cache work but not really,b,2009/9/24,,
just to save change,b,2009/9/24,,
removed dot from d,o,2009/9/22,,
version 117,f,2009/9/22,,
updated how with is displayed,f,2009/9/22,,
prevent many from spawning on network down,b,2009/9/22,,
minor refactoring,b,2009/9/22,,
into smaller class much better visibility,o,2009/9/21,,
some refactoring,o,2009/9/21,,
added advanced option,f,2009/9/20,,
not yet complete some question remain,f,2009/9/20,,
version for 115,f,2009/9/18,,
support for multiple website to,b,2009/9/18,,
version for 11,f,2009/9/14,,
fixed network waiter and some overzealous final,b,2009/9/14,,
made some stuff final,o,2009/9/14,,
cleaned up and now get updated during sleep,f,2009/9/14,,
the stuff for,o,2009/9/14,,
for release 102,f,2009/9/12,,
fixed a bug would crash on,b,2009/9/12,,
,o,2009/8/30,,
release 101,f,2009/8/27,,
release 101 beta,f,2009/8/25,,
the way different music player were handled now it is quite beautiful,o,2009/8/25,,
release 10,f,2009/8/24,,
got fixed icon,b,2009/8/24,,
removed needle debugging info,b,2009/8/23,,
check for incompatible,b,2009/8/23,,
some renaming and copying,b,2009/8/21,,
renamed,o,2009/8/21,,
comment sleeping retry some unfortunate code bloating,b,2009/8/21,,
added the ability for other to via,f,2009/8/20,,
test,b,2009/8/20,,
