# deletions,date,commit message
212,2014/10/25,it becomes supported we can use
212,2014/10/25,we may need to manually give it a just like in the main activity
212,2014/10/25,
11,2014/10/25,face detection in lead image
11,2014/10/25,a few note far on my test device detection take between 05 and 3 second
11,2014/10/25,may end up being too slow on other device
11,2014/10/25,fortunately this will be easy to necessary
11,2014/10/25,research a better way of passing the bitmap from directly to the
11,2014/10/25,right now we have to create an intermediate bitmap the requires a 565 bitmap to work properly
11,2014/10/25,
12,2014/10/29,hide recent search in production
4,2014/10/29,disable search for production
1,2014/10/29,bump
43,2014/10/29,manual import of translation from
201,2014/10/29,add custom channel and package add ability to specify a custom channel and package name for channel partner
201,2014/10/29,removed obsolete script
201,2014/10/29,
5,2014/10/28,allow the user to delete individual history entry borrows a lot of code from saved page
2,2014/10/27,you tap on that result in the it run a new full text search query with that term
2,2014/10/27,
2,2014/10/28,
5,2014/10/28,using fixed value instead
5,2014/10/28,ideally the image should be exactly square
5,2014/10/28,in a later patch the image could be adjusted from to
5,2014/10/28,bug 72595
4,2014/10/28,bug 72605
4,2014/10/28,avoid invisible search icon in dark mode bug 72630
67,2014/10/25,handling of shared preference and feature install id
67,2014/10/25,presently class extending funnel interact directly with the preference manager to get feature install id and that should probably be handled centrally in rather in each class
67,2014/10/25,this patch make the of the a field in
67,2014/10/25,instantiates the field in the constructor
67,2014/10/25,change retrieval of the to use the field instead
67,2014/10/25,creates generic retrieval method for install id in
67,2014/10/25,creates method for the install id which use the generic method
67,2014/10/25,change class extend funnel to use the install id method
67,2014/10/25,
1,2014/10/27,
43,2014/10/27,manual import of translation from
67,2014/10/24,add description to full text result switch to search generator we can get the id
67,2014/10/24,also updated the item layout for full text search result to not cut off the description
67,2014/10/24,
11,2014/10/24,only check header for requires updated since we now use the to disable header checking we go to
11,2014/10/24,split the patch into two this need to be merged asap a to not break the build
11,2014/10/24,
2,2014/10/24,fix the interface changed this test did not compile anymore
2,2014/10/24,
12,2014/10/24,
9,2014/10/24,fix directionality of edit preview fixed directionality inside the fixed margin of cc icon and preview text fixed our custom to support bug 72476
356,2014/10/24,refresh of bundled style from
356,2014/10/24,take care of among other thing bug 66322
2,2014/10/23,implement remote for disabling search
2,2014/10/23,
12,2014/10/23,catch remaining case of
12,2014/10/23,
30,2014/10/23,
11,2014/10/23,make sure fragment use a loader have unique id
11,2014/10/23,otherwise thing crash
11,2014/10/23,
0,2014/10/23,update hamburger icon for
0,2014/10/23,were still using the old icon which look weird
0,2014/10/23,
34,2014/10/23,fix possible crash fetching edit token
34,2014/10/23,also cleaned up redundant catching of and spelling
34,2014/10/23,bug 71331
32,2014/10/21,recent search store recent search string in a db table and display them most recently used appearing first
32,2014/10/21,
1,2014/10/22,fix test
99,2014/10/22,manual import of translation from
602,2014/10/20,ability to switch between prefix and search
602,2014/10/20,not using any kind of or tab component just the two fragment overlaid in a making the code somewhat simpler
602,2014/10/20,made the size of list item consistent between title and full search
602,2014/10/20,
3,2014/10/21,
22,2014/10/21,support colorized prior to this patch always had a green background with black text
22,2014/10/21,now the will have background and foreground color established through configuration by the partner team and eventually by self service operator
22,2014/10/21,
2,2014/10/21,catch exception an unknown is in our intent
2,2014/10/21,bug 72283
31,2014/10/21,fix intermittent in
31,2014/10/21,this required patching one of the component in the actual support library
31,2014/10/21,bug 67808
1,2014/10/20,this mean that if the user close the and leaf it in the background for a long time the event is fired again they reopen the
1,2014/10/20,this should track on a basis this is actually pointless
1,2014/10/20,way we can get closer to figuring out the true bounce rate
1,2014/10/20,
4,2014/10/20,fix
1,2014/10/17,rephrase the string this string appears there is no network connection
1,2014/10/17,there is no reason to show it in the past tense the problem is current
1,2014/10/17,
1,2014/10/20,bump
1,2014/10/20,minor translation fix parameter syntax in pa string resource
1,2014/10/20,
35,2014/10/20,
4,2014/10/17,since we moved to an action bar can be overlaid those were a bit too low showing a gap between the action bar and the top of the
4,2014/10/17,also added missing in layout file
4,2014/10/17,
4,2014/10/17,avoid meltdown in initialize warp stabilizer
4,2014/10/17,
9,2014/10/17,alpha updater update
9,2014/10/17,
10,2014/10/17,bridge
10,2014/10/17,it look like and were not necessary and were actually causing some strange behavior
10,2014/10/17,
22,2014/10/17,update prefix search query to be consistent with mobile web
22,2014/10/17,ensures the prefix result appear in the correct order
28,2014/10/16,use inside the loading page
28,2014/10/16,replaces the old progress bar centered in the screen
28,2014/10/16,
260,2014/10/16,i would have preferred to just call but unfortunately this is deprecated and not available on
260,2014/10/16,
2655,2014/10/15,fix and update icon for night mode
2655,2014/10/15,also modified the convert script to pas each through saving about from the total size
2655,2014/10/15,modified the color and opacity of to comply with android design guideline and have consistent color in history saved page main activity etc
2655,2014/10/15,removed for the hamburger icon
2655,2014/10/15,committing all updated were affected by this
2655,2014/10/15,
2,2014/10/16,catch more general in nearby task
2,2014/10/16,
3,2014/10/16,fix bus balance
3,2014/10/16,
5,2014/10/15,fix top margin in fragment to account for overlay
5,2014/10/15,
57,2014/10/15,update zero hint in and a bit of cleanup
57,2014/10/15,
25,2014/10/15,hygiene back to using to avoid code duplication
25,2014/10/15,moved setting of the icon into so the icon is set on device for other activity a well
25,2014/10/15,
9,2014/10/15,force overflow menu icon to be shown
9,2014/10/15,even on device have a physical menu button
9,2014/10/15,note doe not work on 23 device
9,2014/10/15,also removed key handler for the menu button to bring up the menu so user with 23 may access overflow item
9,2014/10/15,
5,2014/10/15,highlight the list item is currently shown
5,2014/10/15,
24,2014/10/14,use constant file name in build we used to have the build use time stamp in the name
24,2014/10/14,having changing name cause weird issue in the
24,2014/10/14,multiple people have seen case android studio complained about the file path not being present
24,2014/10/14,also updated the release script to do the renaming of the file name and to update the doc
36,2014/10/14,fix crash in sorting of nearby page comparison method violates it general contract bug 72066
1,2014/10/14,bump
103,2014/10/14,manual import of translation from
