# deletions,date,commit message
36,2014/6/17,fix test and failed run several time withing a short period of time
36,2014/6/17,not sure why we sometimes get success result instead of
36,2014/6/17,just need cumbersome setup
36,2014/6/17,it still can be run individually
36,2014/6/17,needed a small adjustment for the number of in the expected result
36,2014/6/17,had some code
36,2014/6/17,fixed some code inspection issue
3,2014/7/18,support identification of channel distribution
3,2014/7/18,for and
3,2014/7/18,the will get updated channel descriptor present
3,2014/7/18,see comment for further information
3,2014/7/18,a patch should enhance to update manifest for
3,2014/7/18,
5,2014/7/22,support kindle text size change
5,2014/7/22,
81,2014/7/17,category design constant for animation and preference key
81,2014/7/17,introduced new class but tried to keep the refactoring step small and manageable
81,2014/7/17,
3,2014/7/21,remove color from within table in night mode
1,2014/7/18,make beta script also change the label
8,2014/7/17,update packaged asset from
8,2014/7/17,
8,2014/7/17,fix crash in the
8,2014/7/17,it wa our extends but keep the hidden
8,2014/7/17,make the use the true
8,2014/7/17,bug 68166
95,2014/7/17,add progress indicator changing font size
95,2014/7/17,
3,2014/7/17,category coding
25,2014/7/17,category coding
4,2014/7/17,bug 68171
2,2014/7/16,change beta script to git tag release optional 2nd step push tag to
2,2014/7/16,
2,2014/7/16,fix icon replacement in beta script
1,2014/7/16,change theme chooser menu title to font and theme
20,2014/7/14,update overflow menu text saved page are
20,2014/7/14,
14,2014/7/16,final design refinement for chooser
14,2014/7/16,tweaked margin between text and button
14,2014/7/16,updated background of overflow menu in dark mode
14,2014/7/16,
1,2014/7/16,fix action bar color in 23
1,2014/7/16,set correct link color in have link
1,2014/7/16,
353,2014/7/14,manual import of translation from also removed unnecessary text attribute setting in preview fragment it is being set in code
65,2014/7/15,various category remove unused code
106,2014/7/15,updated to include step how to install and configure the to use our file
106,2014/7/15,
51,2014/7/15,category coding
2,2014/7/16,license string corrected correct license is cc 30
1,2014/7/14,shorter menu item for setting
2,2014/7/15,minor reference pane adjustment per design more padding bigger font more spacing between line same link color for dark mode
930,2014/7/15,category naming also updated the to explain how to generate the file
930,2014/7/15,removed unused method
930,2014/7/15,
19,2014/7/15,add search to saved page
19,2014/7/15,
64,2014/7/14,show reference in a pane at the bottom of the let people see reference without having to scroll
64,2014/7/14,
2,2014/7/15,category block
59,2014/7/15,category whitespace
9,2014/7/15,category
2,2014/7/15,category modifier
29,2014/7/15,category import
9,2014/7/15,order saved page alphabetically instead of by date
9,2014/7/15,bug 67028
5,2014/7/14,slightly better event for unregistering from bus
5,2014/7/14,
3,2014/7/14,make sure overflow menu get properly unregistered from bus
3,2014/7/14,bug 67947
2,2014/7/14,adapt handler to night mode
2,2014/7/14,
1,2014/7/11,fix possible crash returning to preview after login
1,2014/7/11,
2,2014/7/13,fix typo
20,2014/7/11,a couple more tweak from designer
20,2014/7/11,update link color for dark theme
20,2014/7/11,make background of be the same color put a thin border on the edge of
16,2014/6/30,during edit save describe edit and offer login appropriate
16,2014/6/30,
9,2014/7/11,fix bug on device like to preserve intent extra
9,2014/7/11,bug 67854
662,2014/7/07,implement chooser
662,2014/7/07,rework the theme and remove unused
662,2014/7/07,add dark theme
662,2014/7/07,add selector to switch between theme
662,2014/7/07,add selector to font size
662,2014/7/07,properly apply night mode to preview
14,2014/7/10,strip text formatting pasting into text field
14,2014/7/10,bug 65606
22,2014/7/10,add graphic and explanation for history and saved page
22,2014/7/10,
8,2014/7/10,
2,2014/7/10,fix concurrency issue saving page image
2,2014/7/10,bug 67809
17,2014/7/10,make more generic
169,2014/7/10,fix possible crash looking up page alias data
2,2014/7/10,fix potential crash in
32,2014/7/07,skip logging we go straight to
32,2014/7/07,
88,2014/7/07,remove dead code from previous saved page implementation
76,2014/6/27,implement night mode for content switched via a item in the overflow menu
76,2014/6/27,should be switched to a proper in another commit
76,2014/6/27,bug 35251
3,2014/7/08,break infinite loop of login and create account activity we always start from we can just finish to get back to
3,2014/7/08,
5,2014/6/26,adjust font size based on system setting something to consider allow user to zoom via gesture replace zoom control but also allow for image resizing
40,2014/6/30,change in edit
40,2014/6/30,new icon and verbiage for notification
40,2014/6/30,updated instrumentation
14,2014/6/30,add screen shown the first time the user open a page if not logged in at time
14,2014/6/30,
2,2014/7/04,hide edit pencil for file page
2,2014/7/04,add function to test a page is a file page
2,2014/7/02,bump version for release
1,2014/6/30,make highlight consistent with other highlight
1,2014/6/30,
4,2014/6/30,add link from create account to login
2,2014/7/01,fix possible crash related to
1,2014/6/26,add credit to translator
1,2014/6/30,change edit licensing text to include a link to the term of use per a legal requirement
1,2014/6/30,
45,2014/6/28,and renamed it into a file to make it look prettier on
45,2014/6/28,
42,2014/6/26,improve appearance of edit on 23 bug 67135
1,2014/6/25,use release version for 10
2,2014/6/26,add to the credit made important work to support the android file format in he should be in the credit
2,2014/6/26,
6,2014/6/25,need a message bug 67112
1,2014/6/25,last updated link go to mobile view
2,2014/6/25,bump version number for 20140625
2,2014/6/25,use on 23 device
2,2014/6/25,bug 66263
25,2014/6/25,force locale parsing date to avoid parsing error
25,2014/6/25,also a bit of cleanup
3,2014/6/25,
71,2014/6/25,manual translation update from
1,2014/6/25,bump schema for edit funnel no actual change just a documentation change in the schema itself
1,2014/6/25,updating to avoid confusion for analyst
1,2014/6/25,
1,2014/6/24,change version string to due to it already switched
2,2014/6/24,bump version for release
3,2014/6/25,switch to production bit
2,2014/6/24,bump version for release
5,2014/6/25,use for logging editing event sends 1 in case we have a but not a
2,2014/6/24,update logging to reflect new edit update schema log edit summary tap log save attempt
1,2014/6/24,implement error handling fetching preview
1,2014/6/24,bug 67038
57,2014/6/24,properly handle
57,2014/6/24,bug 67019
1,2014/6/24,make background lighter in site selection list item on gingerbread the text wa black on black
1,2014/6/24,also there wa no padding on the side
1,2014/6/24,
1,2014/6/24,add error handler for fetching page image
1,2014/6/24,bug 67039
1,2014/6/24,guard against in bug 67034
9,2014/6/23,adjust random item in for on my gingerbread device the random icon wa shifted to the left
9,2014/6/23,also marked the a not needing a the label are provided by the nearby
9,2014/6/23,
2,2014/6/23,bump version for release
4,2014/6/23,fixed parameter string for in
1,2014/6/24,send crash report to different queue make the original queue clearer and easier for volunteer to access respond
1,2014/6/24,
21,2014/6/17,reorder button on find in page also make them bold and change background
3,2014/6/20,log recoverable connection error
3,2014/6/20,
16,2014/6/23,logging get both network and
16,2014/6/23,there can be mismatch
16,2014/6/23,roaming
16,2014/6/23,this will be a server code is updated
16,2014/6/23,no dependency
16,2014/6/23,
176,2014/6/22,login and create account button also made both layout scrollable
70,2014/6/23,
1,2014/6/21,consistent capital
652,2014/6/21,manual translation update from
1,2014/6/21,this make the message clearer
1,2014/6/21,
1,2014/6/21,
7,2014/6/20,login and create account change added a few new string they can get translated sooner
12,2014/6/17,handle connection error better
12,2014/6/17,
6,2014/6/19,immediately update state in on state transition
6,2014/6/19,currently the state may reflect if the user go to more for example
6,2014/6/19,this should help the situation
6,2014/6/19,
8,2014/6/20,make all message containing link use these string actually using them at runtime
8,2014/6/20,import string into
11,2014/6/19,updating on and off dialog box to not have title
11,2014/6/19,asked to have the title in the message area for transition
11,2014/6/19,also got rid of dead method
11,2014/6/19,
4,2014/6/19,hide keyboard link selected
4,2014/6/19,bug 66817
49,2014/6/18,per feedback relabel button always show off
49,2014/6/18,button and some have new label
49,2014/6/18,going from on to off always yield a dialog box now
49,2014/6/18,shown at same juncture before
49,2014/6/18,
2,2014/6/20,add doc to script
15,2014/6/19,handle the love triangle of and activity
15,2014/6/19,should fix crash an think a is still shown
24,2014/6/19,remove from random handler
24,2014/6/19,
6,2014/6/19,move into view
2,2014/6/18,bump version for release
69,2014/6/18,updated icon for
33,2014/6/19,perform data migration in a background thread
0,2014/6/18,make the cc icon
0,2014/6/18,
4,2014/6/18,bug 64077
4,2014/6/18,fix crash opening in environment
4,2014/6/18,bug 66794
25,2014/6/18,cause all audio playback to pause not just from the
25,2014/6/18,
1,2014/6/17,fix translation issue wrong parameter format in danish
2,2014/6/17,tweak to edit
2,2014/6/17,bump version number for
8,2014/6/17,add instrumentation for saved page action
2,2014/6/17,fix crash saving page after restoring activity from parcel
2,2014/6/17,bug 66716
5,2014/6/12,add basic find in page functionality
335,2014/6/15,implement new edit
335,2014/6/15,remove title from edit activity change button to be remove icon from button implement edit summary tag show edit summary license and preview on one screen remove to sign in saving
2,2014/6/17,bug 66532 for the localization
14,2014/6/17,remove unused about file unsure how it managed to survive long
1,2014/6/17,script document what the is acronym are evil so avoid them possible
1,2014/6/17,documentation tweak no functional change here
1,2014/6/17,
2,2014/6/17,grammar visit
413,2014/6/17,
2,2014/6/16,bump version for release
63,2014/6/16,parallel image download for saved page
30,2014/6/13,save image of saved page image are stored in the same directory the saved page
30,2014/6/13,no extra code for tracking needed and better for consistency v the database approach
30,2014/6/13,another plus is that we delete the saved page the associated image are removed automatically
30,2014/6/13,parsing of is done using with a custom
30,2014/6/13,this us tag p internally so no need to include an parsing library
30,2014/6/13,a saved page is loaded the get replaced by file pointing to the saved image file
30,2014/6/13,
2,2014/6/12,bump version number for
20,2014/6/05,bring back behavior for search bar
1,2014/6/12,fix possible crash with device opening more
1,2014/6/09,correctly set email subject sharing page
1,2014/6/09,
15,2014/6/09,save full text of page to
15,2014/6/09,the user click edit on a saved page ask to refresh the page
15,2014/6/09,the user agrees reload the page from the web update the saved copy and allow editing
15,2014/6/09,deletes folder appropriately saved page is deleted
2,2014/6/09,bump version number for
8,2014/6/09,
2,2014/6/09,also handle global block
2,2014/6/06,bump version number for
43,2014/6/06,
1,2014/6/06,catch more error fetching section
1,2014/6/06,
4,2014/6/06,
2,2014/6/06,use simpler formatting for all message translator were getting confused with the more specific syntax and we were using it in one place anyway
5,2014/6/05,add going through all locale we have and trying to print all string resource
5,2014/6/05,bug 66241
15,2014/6/05,show confirmation about to discard edit change
15,2014/6/05,bug 66195
3,2014/6/05,fix crash unknown language wa used
3,2014/6/05,consequence of fixing bug 66140
3,2014/6/05,var text in wa null
3,2014/6/05,but then also the primary site wa invalid there is no for example
3,2014/6/05,bug 66213
27,2014/6/05,add page to history
27,2014/6/05,
1,2014/6/05,make clicking header go to top of page
1,2014/6/05,bug 64890
1,2014/6/05,enrich object with on
1,2014/6/05,just in case
1,2014/6/05,
2,2014/6/05,bump version number for
1,2014/6/05,fix of about text
1,2014/6/05,
1,2014/6/05,hide keyboard leaving history selection
1,2014/6/05,
3,2014/6/05,fix discarding of edit content clicking link in preview
3,2014/6/05,also fix opening new page from external intent
3,2014/6/05,bug 66186 bug 66194
1,2014/6/05,everyone love the
1,2014/6/05,bug 66140
1,2014/6/05,allow moving to external storage
2,2014/6/05,hide all from external link window
3,2014/6/04,searching for or caused crash bug 66151
3,2014/6/05,shorten message in the overflow menu
2,2014/6/04,version bump for
1,2014/6/04,always use bundled style 17th change that we depend on have not been deployed yet
1,2014/6/04,they are in master and not even in
1,2014/6/04,a result we get older styling for anything past the first page
1,2014/6/04,these change will be in which will be branched on 5th on to and will be on 12th
1,2014/6/04,setting this to 17th u a few more day to fix thing in the cluster before it go live issue exist
1,2014/6/04,this remove the ability to modify the style in place for the first two week of the beta release but i think that is better broken style or trying to swat the change
1,2014/6/04,
128,2014/6/04,update bundled to include style
90,2014/6/04,optimize import for test well
534,2014/6/04,rearrange import to not use import done by
534,2014/6/04,moving to import first wa a mistake and keeping these on seems to keep giving up issue
2,2014/6/04,bump version number for
1,2014/6/04,fix stray entry
98,2014/6/03,send session id with rather using el this doe not kill the server
98,2014/6/03,
38,2014/6/03,license text on every edit increased line height so the two link are separated a bit more
38,2014/6/03,prompt leaving
38,2014/6/03,
1,2014/6/03,make downloading style more robust
4,2014/6/03,update to fetch from new module name
21,2014/6/01,load selected item in the same fragment
21,2014/6/01,
2,2014/6/03,top left icon now slide exactly like
9,2014/6/03,tweak background in menu and search bar
9,2014/6/03,
3,2014/6/02,add feedback link to about page
3,2014/6/02,
33,2014/5/31,add about page list contributor alphabetically ha and privacy policy link mention the current build info accessible from setting
146,2014/5/27,implement tweak
1,2014/6/02,
2,2014/6/02,bump version for release
11,2014/5/28,replace floppy disk and trash icon on editing history and bookmark screen
11,2014/5/28,
5,2014/5/30,hide edit icon in main page this also let u have different behavior on the main page in the future
5,2014/5/30,
2,2014/5/30,make history search case insensitive fully matching bug 65930
255,2014/5/28,stop using switch back to default font also fix minor unrelated issue would be otherwise a pain to remove styled class since they are no longer used
1,2014/5/29,remove external link styling from cc link doe not make sense here this is by nobody external link styling looked rather odd according to a bunch of people and hence removed
1,2014/5/02,add per session on cellular
3,2014/5/28,update converting to
1,2014/5/28,remove unnecessary import
11,2014/5/28,make sure is cl a sorting order wa wrong and hence the binary search skipped right past it
11,2014/5/28,bug 64420
14,2014/5/27,display message about protection status editing
79,2014/5/28,update to latest style
2,2014/5/26,bump version number for
211,2014/5/23,update packaged style to latest version
1,2014/5/23,add proper
1,2014/5/23,fix activity is destroyed
1,2014/5/23,bug 65505
2,2014/5/23,fix crash loading page with no network
2,2014/5/23,
19,2014/5/22,stabilize automated test needed a potential retry with new login needed to clear token cooky for anonymous editing
2,2014/5/23,bump version number for
50,2014/5/16,keep a limited number of in memory
50,2014/5/16,bug 64450
8,2014/5/22,minor fix to the structure this help u reuse style which is coming a separate patch to soon
6,2014/5/20,fix crash after switching language return null the activity is recreated
6,2014/5/20,using thread handler instead of
6,2014/5/20,could be null i added another way to get to it
6,2014/5/20,bug 65539
2,2014/5/21,bump version number for
85,2014/5/20,update packaged style to latest
3,2014/5/20,had to make sure wa called in this case a well
3,2014/5/20,bug 65499
4,2014/5/20,remove unused import bug 63742
2,2014/5/20,use array bracket convert array bracket to bracket bug 63742
28,2014/5/20,move symbol to the next line
28,2014/5/20,this will fix the warning
28,2014/5/20,bug 63742
9,2014/5/20,fix whitespace issue bug 63742
1,2014/5/20,
19,2014/5/20,fix crashing handling an external link bug 64424
2,2014/5/19,bump version number for
39,2014/5/18,this is consistent with how browser treat reading history well
39,2014/5/18,
4,2014/5/19,improve appearance of language in language selection
4,2014/5/19,
16,2014/5/19,
10,2014/5/14,i also accessed some field directly instead of the getter the getter wa trivial
10,2014/5/14,
376,2014/5/16,remove source le file from the are now in is kept here we bundle the font image removed since they are embedded in add script to update the bundled from server use for everything for now
23,2014/5/17,make history list
1,2014/5/16,make task handler test play more nicely
1,2014/5/16,
6,2014/5/15,load style via a this will let u load either bundled style in or dynamic style
6,2014/5/15,we encountered a hash at the end of the string we tried to access
6,2014/5/15,boom
6,2014/5/15,
2,2014/5/15,fix the server response now includes more class icon enabled
1,2014/5/14,
2,2014/5/14,bump version number to
13,2014/5/08,update table of content editing page
13,2014/5/08,bug 64447
1,2014/5/13,fixed to work with all device
1,2014/5/13,bug 65275
1,2014/5/12,fixed crash fragment is detached from activity
1,2014/5/12,bug 64493
23,2014/5/12,
2,2014/5/10,bump version to 47
7,2014/5/10,add instrumentation for usage
2,2014/5/09,version bump to
15,2014/5/07,fixed clicking on link have inner tag
15,2014/5/07,
15,2014/5/07,
7,2014/5/08,bug 64136
3,2014/5/08,better scrolling editing section
3,2014/5/08,
471,2014/5/08,
2,2014/5/07,bump version number to
1,2014/5/06,
1,2014/5/06,properly handle link to article title with character
1,2014/5/06,bug 64987
76,2014/5/06,changed to be a sliding drawer from the right edge
76,2014/5/06,fix horizontal scrolling issue in the
76,2014/5/06,bug 63526 bug 63133
2,2014/5/06,bump version for release
19,2014/5/05,
1,2014/5/05,bug 64827
4,2014/5/05,ensuring that the search bar is visible back is pressed
4,2014/5/05,bug 64913
3,2014/5/05,hide the drawer is opened
3,2014/5/05,
1,2014/5/06,add missing curly brace
1,2014/5/02,fixed action bar icon title in bookmark and create account
4,2014/5/03,fix detection to work properly
0,2014/5/03,made the w search icon
31,2014/5/03,treat empty title pointing to the main page bug 64384
2,2014/5/03,bumped version number for
3,2014/5/02,restricting the and to a reasonable width
3,2014/5/02,bug 64341 64667
26,2014/5/03,add class injection method to moved all bridge functionality to bridge package remove tag in add class let u load packaged this should make it easy to load from other part of the later on and also switch between them easily
26,2014/5/03,
1,2014/5/02,hiding page fragment obscured by a new page
1,2014/5/02,fix rendering issue the page fragment stack fill up
1,2014/5/02,bug 64762
1,2014/5/02,for compatibility
1,2014/5/02,
4,2014/5/02,rename to
11,2014/5/02,navigate to main page user change content language bug 64736
2,2014/5/02,setting dialog title correctly
2,2014/5/02,
2,2014/5/02,bump version to
1,2014/5/02,tweak verbiage on language setting
352,2014/5/02,kill saved page make them just bookmark die saved page
20,2014/5/01,rename saved page to bookmark part of an effort to deemphasize the locally saving page aspect of this feature
20,2014/5/01,
1,2014/5/01,show in search result bug 64688
2,2014/5/01,upgrade android improves email validation bug 64615
0,2014/5/01,update resource file with newer version of
2,2014/5/01,bump version number for
2,2014/4/30,fixed crashing on red link
2,2014/4/30,bug 64423
2,2014/4/30,fixed date text in history and saved page bug 64675
1,2014/4/30,make alpha launcher icon the alpha launcher icon should have a separate icon for the w well
3,2014/4/30,bounce special page to external browser
3,2014/4/30,
2,2014/4/30,add simple way to generate data
3,2014/4/30,in the generated data set
13,2014/4/30,minor consistency fix for make sure everything is always use double quote use print a function ideally at some point all script should be ported to python 340
2,2014/4/30,add script to generate main page name for all
16,2014/4/28,fixed crash on nonexistent page
16,2014/4/28,also disables for nonexistent page also seems to fix the bar appearing tapping during error or loading
16,2014/4/28,bug 62639
307,2014/4/30,remove second copy of these are copied over to by grunt
6,2014/4/30,change page title to 333 a designer told me to
6,2014/4/30,
2,2014/4/30,bump version number for
2,2014/4/26,also fix annoying intermittent scrollbar
2,2014/4/26,
11,2014/4/25,no longer showing button selecting language
11,2014/4/25,bug 64422
6,2014/4/26,fix broken test for still broken but at least it
27,2014/4/26,hide my contribution list for is not complete not on product need view to be useful need network should also have a way to view page history leaving the code in to prevent u from being in hell later on
27,2014/4/26,
10,2014/4/26,fix crash link are clicked in preview pane bug 64418
1,2014/4/24,proper back button functionality no article is loaded
1,2014/4/24,
25,2014/4/24,navigation pullout menu no longer occludes search bar
25,2014/4/24,bug 63812
3,2014/4/25,remove spurious whitespace in the string
12,2014/4/25,use returned from create account call this ensures we locally store and use the canonical
12,2014/4/25,bug 64409
5,2014/4/25,minor style fix for filter in language
5,2014/4/25,fix language link filter styling bug 64342
2,2014/4/25,bump version for release
1,2014/4/24,amend crash report dialog text to be le cute
4,2014/4/24,fix crash number of section change between edits bug 64282
1,2014/4/24,make crash reporter use theme still look terrible but way le terrible before
1,2014/4/24,
13,2014/4/24,update icon to latest version this one ha shadow
13,2014/4/24,
21,2014/4/23,update launcher icon
3,2014/4/23,bump version for new alpha release
1,2014/4/23,make script python 30 compatible
1,2014/4/23,add new icon bug 61259
1,2014/4/22,update remote to stable production version
1,2014/4/22,switch to prod for remote
59,2014/4/21,make log out log out user from this device call to log you out from all your session including one on desktop
59,2014/4/21,this is rather painful
59,2014/4/21,now it just clear the local cooky and token and hence log the user out on this particular device
59,2014/4/21,bug 64177
1,2014/4/21,add el for login funnel
40,2014/4/17,add for edit funnel fix el to actually work send properly
1,2014/4/19,
14,2014/4/19,make sure is not hidden by preview window
8,2014/4/18,fix crash only one section is in a page
1,2014/4/16,fix to provide info also change name to let parse it
1,2014/4/16,
2,2014/4/16,fix broken test for page property
45,2014/4/16,make magic number still some left
45,2014/4/16,need more careful handling
45,2014/4/16,bug 63742
2,2014/4/15,bump alpha to
2,2014/4/15,
12,2014/4/16,fix warning turn off warning for bug 63742
6,2014/4/16,
2,2014/4/16,bug 63963
7,2014/4/16,make sure the search progress bar doe not overlap text
1,2014/4/16,refine magic number detection to ignore common number bug 63742
4,2014/4/16,mark some cl e a final bug 63742
1,2014/4/16,ignore setter and constructor for wa generating a lot of noise
1,2014/4/16,bug 63742
2,2014/4/16,fix account creation test they still run
3,2014/4/16,make sure all switch have a default case bug 63742
1,2014/4/16,fix ordering of class definition modifier bug 63742
20,2014/4/16,add space required to match
20,2014/4/16,nowhere spaced out a is
20,2014/4/16,bug 63742
1,2014/4/16,bug 63742
1,2014/4/16,do not enforce spacing around curly brace wa causing way too many false positive
1,2014/4/16,bug 63742
41,2014/4/16,moved search handler to it own class
7,2014/4/15,fix crash loading unreachable image also fix crash that happen when using saved page with image that are not in the cache bug 63890
83,2014/4/15,fix account creation not working
5,2014/4/15,fix keyboard not hiding it should bug 63493
14,2014/4/14,
2,2014/4/11,bump version for alpha
2,2014/4/11,
1,2014/4/11,
2,2014/4/11,add ability to read parameter from a is refreshed a day exposed a object stored in
20,2014/4/10,disable in edit summary leaving it on for and later just disabling the on gingerbread by not setting the adapter
20,2014/4/10,for some reason the view crash on gingerbread
20,2014/4/10,this call in end up failing because seems to be null instead of an expected drawable and that end up failing used
1,2014/4/10,allow conditionals
2,2014/4/10,fix visibility bug 63742
1,2014/4/10,neuter stray whitespace semicolon bug 63742
14,2014/4/10,fix static variable name add some missing final qualifier removed some unused variable bug 63742
1,2014/4/10,fix to allow underscore in static var name bug 63742
1,2014/4/10,check static variable are always all cap even if they are not final
1,2014/4/10,bug 63742
4,2014/4/10,remove stray space inside parenthesis bug 63742
36,2014/4/10,ensure all constant are named bug 63742
7,2014/4/10,remove redundant public and static modifier all interface defined part of a class are static all method a part of an interface are public bug 63742
8,2014/4/10,make sure all member variable are bug 63742
23,2014/4/10,properly format boolean check to be more consistent also contains import formatting bug 63742
11,2014/4/10,use style array declaration c style also contains import optimization bug 63742
2,2014/4/10,explicitly use brace everywhere bug 63742
14,2014/4/10,organize import remove a redundant import bug 63742
5,2014/4/10,ensure there is always a space after a comma never before
5,2014/4/10,bug 63742
14,2014/4/10,fix ordering of visibility modifier to match bug 63742
6,2014/4/10,remove sole tab character tab should die in a fire
6,2014/4/10,bug 63742
2,2014/4/09,bump version number for alpha update
1,2014/4/07,
9,2014/4/03,turn zero toast to
9,2014/4/03,
2,2014/4/09,fix to have appropriate for ignore they sometimes have python
2,2014/4/03,
2,2014/4/09,make python file almost compliant except the 80 char line length limit
2,2014/4/09,boo to that
2,2014/4/09,also add file
2,2014/4/09,should setup job soon
2,2014/4/09,
2,2014/4/09,tag new alpha
3,2014/4/09,but this is faster and give user a more uninterrupted experience so we should do this
3,2014/4/09,
14,2014/3/31,get more thing using the support version of the action bar accessors
12,2014/3/31,partial animation fix using
1,2014/3/31,work around lack of
4,2014/4/08,fix issue with display in drawer
8,2014/4/08,fix margin for saved page history icon in language
180,2014/4/08,added and fixed warning
2,2014/4/08,make new alpha release
20,2014/4/06,
207,2014/4/04,add is unconditionally loaded for now should be 23 later on
207,2014/4/04,
1,2014/4/01,make produce flipped version of image too
2,2014/4/01,set text direction of edit summary field for language properly bug 63266
17,2014/3/31,make license footer display with directionality add way to access the directionality of content language and language separately in the
17,2014/3/31,bug 39048
12,2014/4/02,
1,2014/3/31,use library version of
1,2014/3/31,update the manifest to build for android 233 stuff crash
1,2014/3/31,this series of patch is work in progress not counting level 9 since ha negligible usage
1,2014/3/31,
43,2014/3/31,
1,2014/3/27,handle title need normalization
6,2014/3/26,show option to log in or save anonymously not logged in
1,2014/3/27,handle page redirects properly bug 63179
9,2014/3/24,feature flag the zero detection instead of setting preference
9,2014/3/24,for testing email to have your individual added to a
9,2014/3/24,
2,2014/3/27,make new alpha release
1,2014/3/25,
2,2014/3/24,direct feedback email to the queue
1,2014/3/24,fix missing on displaying title add test done with a view of the beautiful sweet lake at
10,2014/3/21,add my contribution logout to left menu
1,2014/3/21,add user contribution page activated by tapping on user name logged in
1,2014/3/21,need to find alternate location for logout
51,2014/3/20,simplify constructor boilerplate
51,2014/3/20,added a constructor just take the number of thread to allocate for this type of task
51,2014/3/20,
33,2014/3/20,simplified new flow for logging in creating account this show create account error in create account activity login error in login activity copy text might need to be tweaked
3,2014/3/21,added new bookmark icon for saved page
2,2014/3/17,restore zero status in left side
2,2014/3/17,
1,2014/3/20,fix position of logged in icon on
3,2014/3/19,
50,2014/3/19,remove attribution from bundle do not need it
6,2014/3/18,tweak based on review translating the application
6,2014/3/18,
7,2014/3/18,
3,2014/3/18,reverting pending discussion about using v a group
3,2014/3/18,this reverts commit
3,2014/3/18,
1,2014/3/18,workarounds for deprecated language code for and id bug 62720
3,2014/3/17,
1,2014/3/18,fix back button not working
2,2014/3/18,bump version number to using new release numbering system that say it wa released
2,2014/3/18,
7,2014/3/18,handle case android disagree on language code
7,2014/3/18,currently handle
7,2014/3/18,should expand we find more
7,2014/3/18,bug 62720
22,2014/3/17,add icon to left icon for saved page not used
22,2014/3/17,need to be redone
11,2014/3/17,add python script that generates from requires and the python sh module ha in of the name of the is taken to be the size of the icon in also add support
11,2014/3/17,8 of device and it is trivial for u to support anyway maintains aspect ratio by fixing height
25,2014/3/17,get rid of old and it to
1,2014/3/17,display previous search result search bar with text is tapped
15,2014/3/17,move code hide search result into own method
9,2014/3/15,if drawer is open back is pressed hide it
1,2014/3/15,indicate currently selected section in
2,2014/3/13,set custom for rebooted android
2,2014/3/13,allows to identify itself
2,2014/3/13,dependency
2,2014/3/13,for the android share feature do not show always option
2,2014/3/13,user are likely to use multiple for sharing thing
2,2014/3/13,this change prevents accidental selection of one sharing for eternity
2,2014/3/13,also added some hint above and beyond stuff
2,2014/3/13,
28,2014/3/14,design tweak can see by swiping
28,2014/3/14,show drawer
164,2014/3/14,design tweak for drawer designer are experimenting with the color search bar is hidden well zero indicator have been removed
164,2014/3/14,need to be redone doe not use a anymore
164,2014/3/14,not customizable enough
164,2014/3/14,need to add icon
2,2014/3/13,update version to prep for play alpha release
5,2014/3/13,display version string prominently in the will be taken out for final release
8,2014/3/11,random article
8,2014/3/11,android like it too
8,2014/3/11,
4,2014/3/13,show edit summary field after preview is fetched
59,2014/3/12,add support for with a also add support for upgrading db version gracefully
14,2014/3/12,
48,2014/3/12,
1,2014/3/12,update to account for new package name
16,2014/3/11,add simple edit summary option to preview window
1,2014/3/11,use equal not for comparing string
1,2014/3/07,
7,2014/3/04,remove stray whitespace from
6,2014/3/04,need a better longer term memory management solution instead
6,2014/3/04,this reverts commit
6,2014/3/04,
2,2014/3/03,
6,2014/2/28,bug 62016
26,2014/2/27,make sure sidebar say log in if user is logged out
18,2014/2/27,make sure attribute is set on page bug 61867
2,2014/2/24,
2,2014/2/24,added a check for which seems to resolve it
2,2014/2/24,bug 60696
17,2014/2/24,add event handler after edit we may reload multiple time this wa causing multiple call to section
17,2014/2/24,
1,2014/2/25,hide in preview
3,2014/2/25,make the preview task post
10,2014/2/24,this might be changed in the future
4,2014/2/24,fix crash rotating phone with multiple page this stop replacing fragment and just add them
4,2014/2/24,this must be fixed at some point otherwise it will lead to unreasonable memory pressure
4,2014/2/24,
122,2014/2/23,small renamed and to and to be consistent the constructor for all of the styled class to ease maintenance changed instance of were used to access static class method simplified an instance where a boolean return value wa checked before returning it to simple return the result of the function call itself
12,2014/2/22,fix the thrown exception the styled view can be properly previewed in
83,2014/1/23,add zero detection and feature
83,2014/1/23,on zero participating carrier toast and update chrome
83,2014/1/23,status off toast and update chrome
83,2014/1/23,display dialog box first time on and first time off
83,2014/1/23,not again though
83,2014/1/23,update search bar appropriate
83,2014/1/23,intercept link but offer setting to opt out of feature
83,2014/1/23,note general handling of link worth pas in different
83,2014/1/23,show latest status within drawer context clue
83,2014/1/23,this version us uniform off verbiage get carrier banner from
83,2014/1/23,future align on approach
83,2014/1/23,refer to for the version
83,2014/1/23,conflict manually resolved
1,2014/2/22,persist account creation status info across rotates
1,2014/2/22,handle minimal in heading in
1,2014/2/22,handle back button properly overlay is open bug 61722
5,2014/2/22,hide search result drawer is opened bug 61717
1,2014/2/21,handle user account creation error
4,2014/2/21,treat title a rather text bug 61728
2,2014/2/21,display error in login form well
1,2014/2/21,use for validation submitting
1,2014/2/21,add repeat password to create account
78,2014/2/20,update to remove outdated information
86,2014/2/21,actually create the account might inconsistently fail on see bug 61663 will crash you do wrong
86,2014/2/21,fix in future commit
14,2014/2/20,out code did nonempty validation
95,2014/2/20,handling into it own handler
46,2014/2/20,separate layout into own file
22,2014/2/20,add a task to do preflight request for account creation test
1,2014/2/19,add stub create account activity
1,2014/2/18,hide search result emptied bug 60711
772,2014/2/18,cleanup import to prefer
772,2014/2/18,import
3,2014/2/18,show a message no item are present in history
3,2014/2/18,display message no saved page exist bug 60708
5,2014/2/17,hide keyboard edit activity exit bug 61326
1,2014/2/14,do not crash user ha changed password
1,2014/2/17,hide keyboard login screen exit in a sane system there must exist another way of doing this
1,2014/2/17,i hope android is sane bug 61325
7,2014/2/14,fix crash with running in strict mode
34,2014/2/14,do not keep recreating fragment we rotate phone
13,2014/2/13,
2,2014/2/12,display action properly in edit window
5,2014/2/12,fix compilation error due to change
13,2014/2/12,fix cookie handling to support cooky this make work you can login on any and then just edit on any other
13,2014/2/12,
1,2014/2/11,handle back button properly no more page are left
4,2014/2/11,
3,2014/2/07,handle login error returned logging in use to display error message
39,2014/2/07,do not show article text in other language page bug 60714
1,2014/1/16,add basic zero detection
1,2014/1/16,on zero participating carrier toast at startup
1,2014/1/16,subsequent add or drop of network connection cause toast only critical
1,2014/1/16,this version us uniform on off verbiage
1,2014/1/16,future align on approach
1,2014/1/16,future iterate on how to show carrier text from system
1,2014/1/16,future intercept link in mode
1,2014/1/16,future show mini tutorial dialog first 3 time for link in mode
1,2014/1/16,show link
1,2014/1/16,show current status plus link
1,2014/1/16,
1,2014/2/04,add check for
3,2014/2/04,add a cookie store backed by doe not respect cookie expiry doe not respect path restriction domain restriction need to have a way to tell the to not send cooky
47,2014/2/03,make into it own module make reuse easier
12,2014/2/03,
153,2014/2/01,get rid of tab in the file to be consistent with rest of the project which us 4 space also tab suck
24,2014/2/01,use for everywhere a small step towards making this work on android 23
53,2014/2/03,bug 60745
1,2014/2/01,normalize site domain make a failing unit test pas
1,2014/2/01,
29,2014/2/01,fix maven dependency us repository hosted on install now run test appropriately one test fails is fixed in later commit
2,2014/2/01,add login activity link from left simple stub doe not do anything also add
4,2014/1/31,fix minor warning
6,2014/1/31,clear all styling from warning message they are at least readable now
6,2014/1/31,
67,2014/1/31,make the transformer a proper extensible module
7,2014/1/30,handle reload appropriately
11,2014/1/30,also make sure cooky are persisted across request
8,2014/1/28,make depend on id
8,2014/1/27,fix loading spinner not spinning weird since i remember this used to work without the prefix being required
8,2014/1/27,
5,2014/1/27,handle returned editing need to be scaled up
1,2014/1/24,add a with data about the also add a test trigger a
1,2014/1/24,
10,2014/1/24,start using an object hierarchy to deal with edit result next commit add eventually will add and forth
10,2014/1/24,i wish had proper algebraic data type
126,2014/1/24,remove superfluous file in asset
10,2014/1/21,minor stylistic fix to make use of le feature
9,2014/1/21,use for primary content this doe not adversely affect performance we are loading the font locally
47,2014/1/21,make fully asynchronous remove ability to return from message this is we use prompt to communicate from but prompt block
47,2014/1/21,this still break saved page they use to calculate
47,2014/1/21,fixed in later commit
7,2014/1/21,start using le instead of directly no le feature being used yet
7,2014/1/21,grunt by default now doe le compilation too
272,2014/1/20,moved section display code to it own file
26,2014/1/20,organize file into and directory
8,2014/1/20,
15,2014/1/20,move file to separate directory everything in is included by default
15,2014/1/20,this make sure only the file that are actually needed are in the folder
15,2014/1/20,a grunt copy task is defined to do that
15,2014/1/20,is updated with new direction for updating these file
15,2014/1/20,
3,2014/1/20,moved link related action to a separate file
72,2014/1/20,add support fix error slightly modified version of the file from
217,2014/1/20,start using for the contains to do the compilation step unit test have been separated out into add to help people get setup easily add direction to on how to run this
8,2014/1/18,display message no search result are found
2,2014/1/18,minor tweak to scrolling to a section from make sure the space from the search bar to the heading is the same a space from left of screen to heading
1,2014/1/18,minor modification to body background based on feedback from designer
2,2014/1/18,switch section header to
2,2014/1/18,also specify size
1,2014/1/18,increase default search count to 12 based off designer feedback
4,2014/1/17,hit the on an instead of a desktop
4,2014/1/17,zero extension eligibility check is on for foreseeable future
4,2014/1/17,behavior generally the same otherwise is okay instead of desktop
4,2014/1/17,other aspect of the system still use the originally provided desktop domain
4,2014/1/17,
14,2014/1/17,implement a rough accessed from overflow menu tap each section to go to it section level 1 and 2 are shown also add fadeout utility method
94,2014/1/16,simplify section to be not nested we were them in multiple place anyway
94,2014/1/16,this also mean each individual section get sent to the individually
94,2014/1/16,this increase the number of call but reduces the size of each of them
94,2014/1/16,will need to verify which one is better later on
94,2014/1/16,
3,2014/1/16,handle internal page link properly
9,2014/1/15,show error message saving fails offer to retry also introduce to handle case of exception
9,2014/1/15,
1,2014/1/14,prevent race condition causing marshaller to not be registered happens sometimes and only on super fast phone
1,2014/1/14,
18,2014/1/14,load section asynchronously in the make for le stutter
106,2014/1/14,make section be backed by all the time this let u p section into the a directly and then we can construct the there a we wish
106,2014/1/14,
1,2014/1/13,use for request depends on
1,2014/1/13,add an in edit test to test for appropriate encoding requires
7,2014/1/10,refresh page an edit successfully completes
1,2014/1/10,implement actually saving a section
1,2014/1/10,
1,2014/1/10,minor formating fix
1,2014/1/10,make it possible for subclass to override the method
8,2014/1/10,add pencil edit icon tapping which open edit section also added way to have different link trigger different action in cleanup misunderstanding stupidity of regarding attribute
1,2014/1/09,resize edit activity keyboard is shown
2,2014/1/09,remove section name from title of edit preemptively abort
2,2014/1/09,
10,2014/1/09,handle error show progress for edit section
2,2014/1/09,show for section header is tapped to do need an icon to trigger the editing should properly work even before the entire page ha been loaded
5,2014/1/08,modify language generation script to make for
22,2014/1/07,move page search related thing into a package
4,2014/1/07,tapping language link now open appropriate article
2,2014/1/07,setup label for the setting activity
270,2014/1/07,
5,2014/1/07,show other language link for current article
2,2014/1/07,vary the search result cache across language too
6,2014/1/06,
22,2014/1/05,rename id to use underscore file cannot have cap in them we must use underscore there
22,2014/1/05,
22,2014/1/05,is just the name of the file and they are all underscore separated use underscore separation for id too
22,2014/1/05,
5,2014/1/02,update for build requirement
5,2014/1/02,
6,2013/12/26,show network error if it is actually a network error throw a runtime exception otherwise
1,2013/12/26,increase number of thread for searching improves apparent performance someone is typing slowly
1,2013/12/26,
12,2013/12/25,transition animation code to avoid duplicate
20,2013/12/25,display attribution license text at the bottom of each page also ha a bunch of other major change changed the way how work to make it possible for child class to override the being sent to the server added a object contains property related to a page
20,2013/12/25,currently last modified time but infrastructure exists to make it have more thing in the future
20,2013/12/25,fix bug in external link handling that tried to open all page rather just page internally add function for relative formatting of time
1,2013/12/24,move to just below first paragraph rather lead
26,2013/12/24,prevent rotating phone explanation for what wa causing the crash in the large comment block that wa removed in this commit
26,2013/12/24,
2,2013/12/24,perform at the same rate scrolling
21,2013/12/23,this is a much simpler version just continuously slide it around
21,2013/12/23,the discrete version requires some mechanic
21,2013/12/23,
1,2013/12/23,bump to not honeycomb nobody really ha honeycomb anyway and we can simply consider them to be getting the experience
1,2013/12/23,
6,2013/12/21,actually use the saved page layout in the saved page activity
1,2013/12/20,do not download duplicate or image
2,2013/12/20,loading image fails fall back to loading them from storage
11,2013/12/20,
3,2013/12/20,use for generating image save
2,2013/12/20,add missing toast string
4,2013/12/20,clear bridge listener they are no longer used
7,2013/12/20,
36,2013/12/19,cleanup state handling in
3,2013/12/18,load the saved page pointed to from the saved page activity need to
3,2013/12/18,the state management is becoming a little
4,2013/12/18,add method test to bring back value object from
1,2013/12/18,make documentation slightly more accurate
4,2013/12/17,kill some noisy log message are no longer useful
1,2013/12/15,increase line height for the page title
1,2013/12/15,minor fix fixing the drawer indicator icon requires we flip the image itself
1,2013/12/15,can be done at a future point
1,2013/12/15,
1,2013/12/15,reduce gap between search spinner overflow menu button
3,2013/12/15,setup appropriate string for clearing saved page
3,2013/12/14,handle page state change event to keep page action state in sync
3,2013/12/13,request only the section we really want remove hack in place for bug in returned all section even if we just asked for some
3,2013/12/13,
3,2013/12/11,ensure always ha a valid projection only one projection is supported
3,2013/12/11,
2,2013/12/11,run the history clearer every day
11,2013/12/11,add thumbnail storage support display thumbnail in history view history content provider join table with page image saved a history entry is made
11,2013/12/11,will change in the future to get the data with the request itself and avoid the extra request
1,2013/12/10,implement a variant of delete will need to add test for this entire thing later
1,2013/12/10,
6,2013/12/07,add retry button to network failure view
3,2013/12/06,fix icon for higher resolution using instead of convert added note to main about how to run it added output
3,2013/12/06,
16,2013/12/06,factor function into own static method in
19,2013/12/06,add newer darker icon from the designer
4,2013/12/05,add error reporting
2,2013/12/05,add minimal styling to the content note the style should be extracted out into the extension at some point
2,2013/12/05,
5,2013/12/05,add icon indicating the source of the history entry also add convert the image source to appropriately sized
5,2013/12/05,need more work to be fully general
5,2013/12/05,
27,2013/12/05,make use a and thus we get free click feedback
27,2013/12/05,
1,2013/12/04,exit back is pressed with only one page in the
13,2013/12/04,do not reload first page is called intent action should always be on
13,2013/12/04,this also modifies the bus behavior to have it on then on but if it is null which is set if ha run
13,2013/12/04,this ensures we do not double register
13,2013/12/04,
2,2013/12/04,prevent crash rotating device without page open
1,2013/12/03,bump min version to 11 prevents warning in 13
1,2013/12/03,
1,2013/12/03,add helper script to pull data from device
5,2013/11/27,object and related test
5,2013/11/27,
7,2013/11/27,fix spacing for
8,2013/11/26,ensure we have a title before using it
8,2013/11/26,
1,2013/11/23,stagger message to restarting a
1,2013/11/23,still not the ideal
1,2013/11/23,
8,2013/11/23,add a level of indirection sending message to since apparently just loading a is a blocking operation and also quite slow when passing in a large amount of data we just pas in a pointer and then use another method to the data
8,2013/11/23,this is known to fail in some 23 device with low memory and also in 23 emulator
8,2013/11/23,but the performance boost that we get from this is significant enough to risk it and i think in the future if necessary we can implement a in the case this method of communication doe not work
8,2013/11/23,
22,2013/11/23,display entire page than just first section note ha workarounds for a bug in that need to be removed that get fixed
22,2013/11/23,note the current bridge is showing trouble transferring large amount of data
22,2013/11/23,will be fixed in a separate patch
23,2013/11/17,split inside of class test
5,2013/11/16,allows to remain in the going to an other language
11,2013/11/14,make code site relative allows to open and brow non default site page
1,2013/11/21,make fetching adjust to screen density
28,2013/11/21,rename to also fix test
28,2013/11/21,also change the to an explicit state based system rather an one based on which variable are null
28,2013/11/21,
51,2013/11/21,fix error in the also make the consistent
51,2013/11/21,constructor should take in directly the thing they need to do their job and not just take context
51,2013/11/21,
36,2013/11/21,redo image fetching to be le linear
36,2013/11/21,also locally cache the result of the call
36,2013/11/21,
12,2013/11/21,make support string a value class is written a if ha no generic support
12,2013/11/21,that is because pretend to have generic support not actually giving a shit
12,2013/11/21,
3,2013/11/21,remove excess padding in search result
16,2013/11/21,do not reinvent
2,2013/11/20,fix for missing entry
1,2013/11/20,for consistency use o for the static case a well
9,2013/11/15,search thumbnail for android abstract query class to fetch data to fetch page image specifically fetching image with mostly work
9,2013/11/15,sometimes seems to update the wrong image view
9,2013/11/15,
22,2013/11/15,to produce a base also work around broken
23,2013/11/20,delay typeahead by get rid of the clumsy cancellation code and behaves i a user would expect
23,2013/11/20,best way to cancel stuff is to not run them in the first place
23,2013/11/20,
1,2013/11/16,exit the activity there is no page left to pop
1,2013/11/16,
2,2013/11/12,allow to open page directly in the
2,2013/11/11,fix order of operation in event registration
1,2013/11/14,should also speed up the fetch
1,2013/11/14,
1,2013/11/13,handle pressing back search result are displayed
31,2013/11/13,make the search bar according to discussion with design
31,2013/11/13,
31,2013/11/13,
35,2013/11/13,extracted the search result adapter into an inner class made it a static inner class so dependency are explicit
35,2013/11/13,
8,2013/11/13,remove unused functionality
5,2013/11/13,make the search box lose focus the user go to an article
8,2013/11/13,do not trigger search if search text ha not changed happens you were reading something and then the screen
8,2013/11/13,also handle the case you have the search suggestion open and then rotate the screen
8,2013/11/13,
15,2013/11/13,rewrite to use doe not create a lot of large string are then just discarded
15,2013/11/13,
5,2013/11/13,add test for also made the more robust fixing some crash found by failing test
5,2013/11/13,
1,2013/11/13,cache last 4 search result also use a custom implementation of the cache to make sure the cached response survive rotation
1,2013/11/13,
5,2013/11/12,make the number of thread available for a task customizable also give search task 2 thread by default
5,2013/11/12,
17,2013/11/12,create a new package for event object
2,2013/11/12,register and the bus properly this prevents random happen
2,2013/11/12,
1,2013/11/12,localize all used string
29,2013/11/12,set name to kill unused menu
1,2013/11/10,fix bug in implementation for page class found fixed with help of test which will be added in a future commit
1,2013/11/10,
1,2013/11/10,properly put a section into a wa causing crash recreating a loaded page with section after restarting an activity
1,2013/11/10,fixed writing test for which will follow shortly
1,2013/11/10,
8,2013/11/05,also subtly animate the switch between the progress animation and the actual content of the page
8,2013/11/05,test on 23 device
52,2013/11/05,add site object make it part of
4,2013/11/04,move initialization into the bridge code bridge cannot work these setting anyway
2,2013/11/04,add static method to parse out from an internal link also added test for the same
2,2013/11/04,doe not handle fragment yet but it is extracted out anyway
2,2013/11/04,also doe not handle encoding which i think is best handled by doing it on the side
2,2013/11/04,
12,2013/11/04,the internals are different
12,2013/11/04,this doe almost no normalization letting the server side take care of that
1,2013/11/03,handle external link
1,2013/11/03,we might want to discard them after some depth to preserve memory but can come later
1,2013/11/03,
11,2013/11/03,handle link being clicked us for communication between activity
11,2013/11/03,much cleaner
11,2013/11/03,
2,2013/11/03,implement a bridge
2,2013/11/03,two way message sending and receiving on both end
2,2013/11/03,bridge make sure event are fired
2,2013/11/03,load page by injecting data via into an empty page just injecting directly into the
2,2013/11/03,set in the base page so image load only the lead section of article
2,2013/11/03,default page loaded from disk
1,2013/11/03,check for lead section properly section with will always be treated the lead
41,2013/11/01,add basic fragment and can show a stack of page
2,2013/11/01,implement on page and section object
2,2013/10/31,make object
1,2013/10/31,make default implementation of throw an exception since otherwise exception are silently swallowed you explicitly catch them
1,2013/10/31,
6,2013/10/30,rename the new to be le of a mouthful
28,2013/10/30,make all based test run on the thread apparently doe not work reliably called from non thread
28,2013/10/30,this make sure the execute method is always called from the thread
28,2013/10/30,
4,2013/10/30,add test for thread affinity of safe this ensures method that be running on the thread are running on the thread and method that should not be are not running on the thread
4,2013/10/30,the test case class now inherits from because need to be started from the thread not the method is not run
4,2013/10/30,known
4,2013/10/30,
12,2013/10/30,this randomly cause test to fail at runtime because of not being able to locate the resource in project
12,2013/10/30,
2,2013/10/30,remove random cruft should never have been
