Topic Index 1,Topic Index 2,Topic Similarity
14,17,0.3431
5,8,0.2429
19,2,0.1845
2,15,0.16049999999999998
10,12,0.1045
7,5,0.10200000000000001
11,18,0.09380000000000001
0,14,0.0901
15,19,0.08800000000000001
3,9,0.078
8,6,0.0714
1,0,0.0
4,1,0.0
6,3,0.0
9,4,0.0
12,7,0.0
13,10,0.0
16,11,0.0
17,13,0.0
18,16,0.0
