# deletions,date,commit message
2,2013/1/25,update version to 0840
10,2013/1/21,make it work with chrome which doe not seem to accept the result from the recognizer probably expecting it to perform the web search itself
11,2013/1/21,some fix
2,2013/1/20,update version to 0838
24,2013/1/20,fix bug related to autostart and setting
45,2013/1/20,improve
3,2013/1/20,small improvement to how many result to deliver
8,2013/1/19,show 5 best result in list dialog and let the user to choose which result is sent on to web search
8,2013/1/19,this is the in case there is no calling activity
10,2013/1/19,stop recognizer setting is launched
4,2013/1/14,add minor change
31,2013/1/14,rearrange the preference activity
1,2013/1/13,this is not backwards compatible with situation people use a locale and an that doe not explicitly set the input language
9,2013/1/13,clarify the exported part of
10,2013/1/13,improve input language selection
8,2013/1/13,minor cleanup
14,2013/1/13,improve about page
32,2013/1/06,other change communicate the value of to the server fix regression from previous commit more logging
102,2012/12/30,set default server by single tap the previous solution wa too complicated
25,2012/12/30,return complete transcription data to caller this includes for each hypothesis raw utterance list of
2,2012/10/14,update version number to 0830
17,2012/10/14,fix potential memory leak minor improvement in response to lint
12,2012/10/01,now using only one file to avoid confusion this fix the recent regression the default recognizer service could not be overridden
29,2012/9/15,some cleanup
238,2012/9/10,some cleanup update to latest
5,2012/8/04,fix server connection wa not properly closed defensively checking the audio byte array is nonempty meant that occasionally the final chunk wa not sent and thus the server connection wa not closed properly
5,2012/8/04,the user could observe this a occasionally the transcription wa not returned for no apparent reason
13,2012/8/01,lower the value of chunk sending
61,2012/4/26,add error condition check cleaner vol measure
47,2012/4/26,remove maybe this make recording work on the problematic device
7,2012/4/25,check return code
60,2012/4/23,improve detection of failed recording minor cleanup
53,2012/3/24,cleanup based on lint
97,2012/3/04,fix some crash and general cleanup crash related to dropping network connection using the
56,2012/3/04,add volume level indicator to the level image originate from the project
56,2012/3/04,also fix rare stopping the recorder
9,2012/3/04,more responsive meter
74,2012/3/03,fix grammar could not be assigned to some like iris and dolphin browser use the speech recognizer via and nicely set the
74,2012/3/03,otherwise minor cleanup
1,2012/2/15,fix typo
6,2012/2/14,add more meaningful comment
5,2012/2/14,update version number
1,2012/2/12,add support for action the nice thing is translate now display the microphone button next to the input box
1,2012/2/12,however it doe not display the microphone button for any other language anymore even voice search is set to be the default
1,2012/2/12,this look like a bug in translate
3,2012/2/10,now package name end up in
3,2012/2/10,update version number to 0818
52,2012/2/10,add support for update to
52,2012/2/10,plus some cleanup of how the comment is compiled
13,2012/2/08,inspect all extra for a possible caller name
17,2012/2/07,improve documentation
2,2012/2/07,remove recording option this is known to result in low quality transcription
11,2012/2/07,improve help page fix some spelling mistake which the eclipse had created removing the first character of some string
11,2012/2/07,describe a possible use case for speech recognition
163,2012/2/05,several a few waveform disappeared on orientation change add prompt for web search add explicit state check handling max recording time
55,2012/2/04,improve error management
86,2012/2/04,some more fix and cleanup add service state diagram add error sound
83,2012/2/03,some fix
25,2012/2/03,add launcher which performs there is now a launcher icon
25,2012/2/03,clicking on it will open the recognizer but the recognition result are passed to the standard
67,2012/2/02,some fix cleanup
54,2012/2/01,some cleanup
284,2012/1/28,make a separate service to make it possible to rotate the device during
66,2012/1/21,handle within the instead of returning it to the caller
87,2012/1/17,improve the performance of the recorder there is much le array copying now
87,2012/1/17,longer recording on wildfire work better now but low level recorder buffer overflow still remain unsolved
15,2012/1/06,simplify setting of recorder and period buffer size is now always calculated on the basis of the minimal buffer size
15,2012/1/06,this maybe improves compatibility with different device
4,2012/1/05,hide is enabled this should make the more clear
37,2012/1/01,make sample rate configurable
35,2011/12/30,some cleanup of the recorder code
24,2011/12/25,search widget is unfortunately locked to use voice search
24,2011/12/25,also did some minor cleanup in the demo code
