# deletions,date,commit message
13,2016/4/06,improve wording of error message
2,2016/3/30,add permission requesting to
5,2016/3/28,improve string
10,2016/3/05,improve vector drawable path this caused a crash on android
14,2016/2/16,some refactoring
16,2016/2/12,finish voice search panel is launched
1,2016/2/12,fix regression broken link to setting
3,2016/2/12,hide 2 experimental feature from preference
57,2016/2/02,minor fix
334,2016/1/30,optionally return error to the caller
8,2016/1/29,update
325,2016/1/28,add link to recognizer setting refactoring of the preference code
3,2016/1/24,change the setting button
26,2016/1/24,avoid calling 2 time in a row
4,2016/1/24,improve layout on
6,2016/1/24,cleanup the demo sentence
29,2016/1/23,improve permission requesting
25,2016/1/22,restart recognition change restarting seems more confusing
97,2016/1/21,fix showing of current in setting rewrite deprecated preference code use in
10,2016/1/20,allow switching recognizing keep button always enabled pressing on the button while recognizing call and restarts once result come in
85,2016/1/20,take from
69,2016/1/16,add audio encoding to service improve string cleanup
134,2016/1/13,small change finish there are no extra reordering in the service menu localize new string cleanup
142,2016/1/12,add encoder setting for both service improve encode demo
4,2016/1/11,add component diagram to
55,2016/1/06,use encoded speech recorder from
107,2015/12/30,take extra from
7,2015/12/30,cleanup code
13,2015/12/29,replace icon with vector drawable
234,2015/12/29,move to
58,2015/12/29,update
35,2015/12/24,apply utterance rewriter also in voice search
13,2015/12/18,send 0 byte recorded this in some device
13,2015/12/18,nexus 9
