Topic,Words
0,0.597*mi,0.403*in
1,0.965*in,0.035*mi
2,0.783*in,0.217*mi
3,0.725*mi,0.275*in
4,0.811*mi,0.189*in
5,0.590*in,0.410*mi
6,0.977*in,0.023*mi
7,0.826*in,0.174*mi
8,0.996*mi,0.004*in
9,0.519*mi,0.481*in
10,0.807*in,0.193*mi
11,0.925*mi,0.075*in
12,0.674*mi,0.326*in
13,0.889*mi,0.111*in
14,0.551*in,0.449*mi
15,0.700*in,0.300*mi
16,0.793*mi,0.207*in
17,0.742*in,0.258*mi
18,0.514*mi,0.486*in
19,0.665*mi,0.335*in
