number one for cache battery consumption zero consumption,b,2014-10-06,Shyam Ayalani,5
doe the job but there are better out there,o,2014-10-06,Aimz m,4
god,o,2014-09-16,Sadegh Safare,5
helpful,o,2014-09-15,georgiana elly,4
best ever excellent,o,2014-08-30,Legend Akha,5
great for old device who run out free space,b,2014-08-19,Ryan Nayr,5
very good i can increase,b,2014-08-18,Munier Hassan,5
