great and expect for cleaning external cache,b,2016-04-22,Ernest Chung,5
no this is real i 3 and make loved it,b,2016-04-09,mas soegi,5
444,o,2016-04-03,Boris Jovanovski,5
work perfect job no ad,o,2016-04-03,Milan Labudovic,5
still have to clean one by one 190 any solution,o,2016-03-20,euri pides,1
got to be the best for non root phone,b,2016-03-09,Alem Jamir,5
love it,o,2016-03-09,Alem Jamir,5
work like a champ,o,2016-03-06,Iron Spring,5
doe it job and doe it well fast no stinking ad,o,2016-03-06,Iron Spring,5
thanks author for doing it right 5 star not enough,o,2016-03-06,Iron Spring,5
it doe an job however,o,2016-03-06,,4
love open source,o,2016-03-01,Folyd Dur,5
awesome,o,2016-01-16,Iftikhar Baqir,5
i tried at least 12 for cache cleaning and this one is by far the instead of clean similar are expert in misleading and deceiving,b,2016-01-06,Nacho Vidales,5
it would be nice to make it perfect to include custom for ignore and clipboard cleaning,o,2016-01-06,Nacho Vidales,5
can you improve the dolphin browser cleaning,b,2016-01-06,Nacho Vidales,5
tank you again,o,2016-01-06,Nacho Vidales,5
please,f,2015-12-19,Arman Niño,5
cool,o,2015-12-04,Haseeb Hiraki,5
say it doe but leaf all my browser,b,2015-11-15,Cool Name,1
bug fix,b,2015-11-14,Zeref Dragneel,2
,o,2015-11-11,Sow Hussein,5
