bump target version to version 20,b,2014/10/10,,
use instead of,b,2014/10/10,,
update to the latest version,b,2014/10/09,,
fix build error,b,2014/10/09,,
improve performance scanning get the list of application in background thread instead of thread,o,2014/10/08,,
cleaning performance improvement,f,2014/10/08,,
improve performance use for sorting and filtering,b,2014/10/08,,
improve updating of storage usage,o,2014/10/07,,
improve and clean code,b,2014/10/06,,
fix potential null pointer exception,b,2014/10/06,,
fix locale,b,2014/10/01,,
update translation,b,2014/9/29,,
close 6,b,2014/9/29,,
update and locale,b,2014/9/28,,
improve performance use view holder do not recreate listener on every and set stable id,b,2014/9/20,,
remove unnecessary and unsupported code,o,2014/9/20,,
cache cleaner,b,2014/8/18,,
