construct new task on trigger,f,2014/1/10,,
cache cleaner,b,2014/1/09,,
add show number of scanned in progress bar,f,2014/1/09,,
fix of potential bug,b,2014/1/09,,
use instead of thread for better performance,b,2014/1/09,,
state should be changed calling,b,2014/1/09,,
small performance improvement,f,2014/1/09,,
update storage usage more often,b,2014/1/09,,
