App,Store,App ID,Review ID,Country,Version,Rating,Date,Author,Subject,Body,Translated Subject,Translated Body
Book Catalogue,Google Play,com.eleybourn.bookcatalogue,Z3A6QU9xcFRPRmJmbFRxemhIR1ctd0I3WlNITnFId3N6Ukx6dTEwMjNud09ZUE94bk1BQkwwUDU4SExlYVRoQjh4ZFgtcVpkQW45eEJGSzM2VnNwNHl5cXc,English,,5,2013-02-27,,Fantastic!,great,,
Book Catalogue,Google Play,com.eleybourn.bookcatalogue,Z3A6QU9xcFRPRmJmbFRxemhIR1ctd0I3WlNITnFId3N6Ukx6dTEwMjNud09ZUE94bk1BQkwwUDU4SExlYVRoQjh4ZFgtcVpkQW45eEJGSzM2VnNwNHl5cXc,English,,5,2013-02-27,,Fantastic!,developer are really good i got a reply to a request for help within a few hour on a and now my nexus 7 can scan properly using the scanner instead of the based scanner which need the camera the nexus is missing,,
Book Catalogue,Google Play,com.eleybourn.bookcatalogue,Z3A6QU9xcFRPRmJmbFRxemhIR1ctd0I3WlNITnFId3N6Ukx6dTEwMjNud09ZUE94bk1BQkwwUDU4SExlYVRoQjh4ZFgtcVpkQW45eEJGSzM2VnNwNHl5cXc,English,,5,2013-02-27,,Fantastic!,5 star all the way,,
Book Catalogue,Google Play,com.eleybourn.bookcatalogue,Z3A6QU9xcFRPRUFzUzNTaUtWNkh0eVlKeGxKclNDVkJjTzhxbFZGYnhvVnd6cGQ3WnJWUDRfMWtRREF2bVRYajIzejhkdGNvLUR2UzNxS3ZMenAzc2ZleXc,English,,5,2013-02-26,Lady Gadgets,Brilliant - more than 5 stars,ask the developer first for a they have helped me twice now extremely quickly,,
Book Catalogue,Google Play,com.eleybourn.bookcatalogue,Z3A6QU9xcFRPRUFzUzNTaUtWNkh0eVlKeGxKclNDVkJjTzhxbFZGYnhvVnd6cGQ3WnJWUDRfMWtRREF2bVRYajIzejhkdGNvLUR2UzNxS3ZMenAzc2ZleXc,English,,5,2013-02-26,Lady Gadgets,Brilliant - more than 5 stars,now have all book logged and saved through various method i do not want to redo them again,,
Book Catalogue,Google Play,com.eleybourn.bookcatalogue,Z3A6QU9xcFRPRUFzUzNTaUtWNkh0eVlKeGxKclNDVkJjTzhxbFZGYnhvVnd6cGQ3WnJWUDRfMWtRREF2bVRYajIzejhkdGNvLUR2UzNxS3ZMenAzc2ZleXc,English,,5,2013-02-26,Lady Gadgets,Brilliant - more than 5 stars,absolutely love the flick feature,,
Book Catalogue,Google Play,com.eleybourn.bookcatalogue,Z3A6QU9xcFRPRUFzUzNTaUtWNkh0eVlKeGxKclNDVkJjTzhxbFZGYnhvVnd6cGQ3WnJWUDRfMWtRREF2bVRYajIzejhkdGNvLUR2UzNxS3ZMenAzc2ZleXc,English,,5,2013-02-26,Lady Gadgets,Brilliant - more than 5 stars,will there be any other feature in the future i wonder,,
Book Catalogue,Google Play,com.eleybourn.bookcatalogue,Z3A6QU9xcFRPRUFzUzNTaUtWNkh0eVlKeGxKclNDVkJjTzhxbFZGYnhvVnd6cGQ3WnJWUDRfMWtRREF2bVRYajIzejhkdGNvLUR2UzNxS3ZMenAzc2ZleXc,English,,5,2013-02-26,Lady Gadgets,Brilliant - more than 5 stars,very easy to get from amazon book not in stock,,
Book Catalogue,Google Play,com.eleybourn.bookcatalogue,Z3A6QU9xcFRPRUFzUzNTaUtWNkh0eVlKeGxKclNDVkJjTzhxbFZGYnhvVnd6cGQ3WnJWUDRfMWtRREF2bVRYajIzejhkdGNvLUR2UzNxS3ZMenAzc2ZleXc,English,,5,2013-02-26,Lady Gadgets,Brilliant - more than 5 stars,keep up the good work guy,,
Book Catalogue,Google Play,com.eleybourn.bookcatalogue,Z3A6QU9xcFRPRktLbDVjNGpzaDE2R1EzNFBIY2pfb0UxNWUzVzVKbmdmYzhuemRPR1VlbTlReFBCcU13dHVjTWxPWTJSWGcyQ0lTMDd1OEhHemNVeXpvVlE,English,,5,2013-02-25,Jean Boileau,Great app.,i wish more would be like this,,
Book Catalogue,Google Play,com.eleybourn.bookcatalogue,Z3A6QU9xcFRPRktLbDVjNGpzaDE2R1EzNFBIY2pfb0UxNWUzVzVKbmdmYzhuemRPR1VlbTlReFBCcU13dHVjTWxPWTJSWGcyQ0lTMDd1OEhHemNVeXpvVlE,English,,5,2013-02-25,Jean Boileau,Great app.,easy to use and doe exactly what it say,,
Book Catalogue,Google Play,com.eleybourn.bookcatalogue,Z3A6QU9xcFRPRktLbDVjNGpzaDE2R1EzNFBIY2pfb0UxNWUzVzVKbmdmYzhuemRPR1VlbTlReFBCcU13dHVjTWxPWTJSWGcyQ0lTMDd1OEhHemNVeXpvVlE,English,,5,2013-02-25,Jean Boileau,Great app.,great job and thank you for making it easy to my book library,,
