dimension fix for,b,2014/12/03,,
fix for preference dialog,b,2014/12/03,,
little performance fix for drawer includes picker intent filter,b,2014/12/03,,
fixed hiding property,b,2014/12/02,,
minor layout improvement,f,2014/11/30,,
fix in and layout fix,b,2014/11/30,,
themed preference dialog many improvement and fix,b,2014/11/30,,
some performance improvement,f,2014/11/30,,
many fix,b,2014/11/30,,
minor improvement for moving file,f,2014/11/30,,
back pressed implementation,o,2014/11/30,,
minor improvement,f,2014/11/29,,
fixed all dialog,b,2014/11/29,,
themed search dialog,b,2014/11/29,,
fixed list dialog,b,2014/11/29,,
themed some dialog,o,2014/11/29,,
minor improvement,f,2014/11/29,,
improvement in root list loading,b,2014/11/29,,
improving root list and minor fix,b,2014/11/29,,
minor fix,b,2014/11/29,,
trimmed overflow and some useless code removed,o,2014/11/29,,
option to,f,2014/11/29,,
fixed,b,2014/11/29,,
fixed drawer bookmark,b,2014/11/29,,
minor icon fix,b,2014/11/29,,
improved drawer icon,b,2014/11/29,,
bookmark in drawer fixed bookmark manager too,b,2014/11/29,,
minor fix for and,b,2014/11/28,,
fix for,b,2014/11/28,,
file opening implementation includes cut paste fix and backup fix,b,2014/11/27,,
updated translation some minor fix and improvement to the existing translation,b,2014/11/24,,
changed some word,b,2014/11/24,,
corrected some accent and word in the string,o,2014/11/24,,
partially working lot of other fix here and there,b,2014/11/23,,
grid view color filter fix,b,2014/11/21,,
various fix across,b,2014/11/21,,
minor fix,b,2014/11/20,,
minor fix,b,2014/11/20,,
added video thumbnail,b,2014/11/20,,
minor fix for dialog,b,2014/11/20,,
fixed and added missed translation for,b,2014/11/20,,
fix for backup on l might have bug,b,2014/11/20,,
fixing material dialog,b,2014/11/19,,
improved search result,b,2014/11/19,,
added sort by type,b,2014/11/19,,
added sort by type option and minor fix,b,2014/11/19,,
minor view fix,b,2014/11/19,,
fix for icon and doc opening,b,2014/11/19,,
update correcting and upgrading of the language,b,2014/11/18,,
switched to,b,2014/11/18,,
add ability to delete system,f,2014/11/17,,
minor interaction tweak prevent showing some toast,b,2014/11/16,,
update translation,b,2014/11/16,,
added and thanks to the contributor will add their name to,f,2014/11/17,,
minor fix,b,2014/11/16,,
added material designed dialog list dialog still need be themed,f,2014/11/16,,
option to show hidden file,f,2014/11/16,,
removed remaining string now completely ready for translation,b,2014/11/16,,
added option to hide file,f,2014/11/15,,
preference fix,b,2014/11/15,,
minor fix,b,2014/11/15,,
adjustable column,o,2014/11/15,,
string fix in preference,b,2014/11/15,,
removed string,b,2014/11/14,,
small fix in array,b,2014/11/14,,
icon for,b,2014/11/14,,
a fix and changed default skin to light blue,b,2014/11/14,,
removed shadow and minor fix,b,2014/11/14,,
improved date need better alignment,b,2014/11/14,,
initial release change lot of change for the initial release,f,2014/11/12,,
