minor fixed,b,2015/3/08,,
version change,b,2015/3/08,,
fix manager selection ripple,b,2015/3/08,,
extract fix and other minor fix,b,2015/3/08,,
update and minor fix,b,2015/3/08,,
added,b,2015/3/08,,
fully fixed,b,2015/3/08,,
fixed header extraction,b,2015/3/08,,
