great material file explorer without ad and all the feature you need,o,2015-07-30,Zack Westlie,5
two thumb up,o,2015-07-30,Zack Westlie,5
day this getting close to replace e file explore in my phone,b,2015-07-29,Dario Mehdi,5
keep up the good work guy,o,2015-07-29,Dario Mehdi,5
i find this to be the best file manager for i used other but this is the best and it is free,o,2015-07-29,Mostafa Nazar,5
the file manager who really embrace all the capability of material design,o,2015-07-29,Berly Tannyono Putra,5
after newest update force closed i select image in the tab,b,2015-07-29,Berly Tannyono Putra,5
just directly emailed the seems like now the bug is solved,b,2015-07-29,Berly Tannyono Putra,5
look great,o,2015-07-28,Harry Carson,5
and theme,f,2015-07-28,Harry Carson,5
search etc,b,2015-07-28,Harry Carson,5
all management and load more,b,2015-07-28,Harry Carson,5
top,o,2015-07-28,Harry Carson,5
not sure i like the addition of support to this otherwise small and fast file but the rest of the functionality is great,b,2015-07-28,Scott Ellis,4
please add copy move window animation,f,2015-07-25,Karan Jaiswal,4
the best material file but please add system,f,2015-07-24,Michal Malčovský,4
thanks,o,2015-07-24,Michal Malčovský,4
problem in hiding multiple file or folder suppose i have following folder,f,2015-07-21,Tirth Patel,4
fix it otherwise everything is just trust me,b,2015-07-21,Tirth Patel,4
crash you try to leave zip archive,b,2015-07-17,Jason Hyde,4
the very first file manager made me speechless,o,2015-07-17,vishnu vardhan,5
and open source,o,2015-07-17,William Reed Kerr,5
highly recommended,o,2015-07-17,William Reed Kerr,5
yet the absence of cloud support drive me off,b,2015-07-16,Innokentiy Sokolov,3
it ha everything you need,b,2015-07-15,Bill DAwesome,5
is good but how to set in,f,2015-07-15,anuj chauhan,4
very nice made file add an option to disable root folder access which is always showing then i will give 5 star,f,2015-07-14,KARAN SINGH,4
great material design implementation zero ad,b,2015-07-14,Jishnu Dey,5
nice,o,2015-07-10,vishal verma,5
please learn from solid file explorer,f,2015-07-07,sukumar duvvuru,2
thanks,o,2015-07-06,Manan Tank,5
developer,b,2015-07-06,Manan Tank,5
doe not support cloud send and,b,2015-07-05,Amit Lele,4
truly amazing,o,2015-07-04,Siddharth Kumar Sahoo,5
cannot find the delete file in menu file is selected,o,2015-07-02,Brennen Murphy,5
love the material design,o,2015-07-02,Christopher Wortman,5
love the simplicity and power,o,2015-07-02,Christopher Wortman,5
it need support for drive and,b,2015-06-29,M NP,4
finally had been waiting for the materialized ever i started using this file manager,o,2015-06-28,Tejas Jain,5
thank you much,o,2015-06-28,Tejas Jain,5
there are still some trouble with the zip and extension,b,2015-06-28,Oliva Raiders Chhin,2
it cannot open or extract file properly,o,2015-06-28,Oliva Raiders Chhin,2
it will show the parse is but you use other it is working fine,o,2015-06-28,Oliva Raiders Chhin,2
slow progress and function are and forth,b,2015-06-28,Oliva Raiders Chhin,2
i recommend try other manager for the time being,o,2015-06-28,Oliva Raiders Chhin,2
this is definitely one of my favorite file manager,o,2015-06-27,Eva Alvarez,4
file manager yang material,o,2015-06-26,Pranidimas Pratama,5
i love it,o,2015-06-24,Brian Staruk,5
perfect,o,2015-06-24,Brian Staruk,5
nexus 5,o,2015-06-24,Amir Oraiee,5
a beautiful modern feel and a solid foundation with plenty of customization and feature,o,2015-06-22,Tim. De9,5
yep this file manager is my favorite and i have tried just about all of them,o,2015-06-22,Tim. De9,5
i appreciate your hard work to make such a great,b,2015-06-22,Tim. De9,5
work well and ha by for the best looking interface of them all,o,2015-06-22,,5
very clean,o,2015-06-21,Steve Brown,5
folder creation work,f,2015-06-21,Steve Brown,5
,o,2015-06-21,Steve Brown,5
please add networked access to,f,2015-06-21,Steve Brown,5
,o,2015-06-21,Steve Brown,5
please add option to allow changing the directory location for main menu item open source,f,2015-06-21,Steve Brown,5
no access to or even with root access and a restart,b,2015-06-21,Steve Brown,5
the design and interface feel exceedingly fluid but the lack many feature,o,2015-06-21,Rajat Verma,4
consider adding feature like system gesture swipe for option etc,f,2015-06-21,Rajat Verma,4
bug found,b,2015-06-20,Bayu Laksana,5
please try changing the below,b,2015-06-20,Prasath Pitchaimuthu,4
1,o,2015-06-20,Prasath Pitchaimuthu,4
unable to share the folder,o,2015-06-20,Prasath Pitchaimuthu,4
2,o,2015-06-20,Prasath Pitchaimuthu,4
please make cut copy paste simple,f,2015-06-20,Prasath Pitchaimuthu,4
very clean and neat material design look,o,2015-06-20,Aneesh Arora,5
able to read and no ad,b,2015-06-20,Aneesh Arora,5
perfect,o,2015-06-20,Aneesh Arora,5
,o,2015-06-19,庄引,3
thanks for putting,o,2015-06-17,Tavo,5
to,o,2015-06-17,Aman singla,5
ed,o,2015-06-17,Gabriele Di Matteo,5
overall material design is all done we need more feature it can be for thanks 4 developing this,o,2015-06-15,Riyad Rijvi,4
cool better all the other,o,2015-06-14,Aakhil Ahammed K P,5
keep up the good work team amaze,o,2015-06-14,Aakhil Ahammed K P,5
and keep amazing others,o,2015-06-14,Aakhil Ahammed K P,5
another great open source,o,2015-06-13,Paul Johnston,5
one of the best n awesome in my life,o,2015-06-13,martin cooper,5
right the lack storage write is available on lollipop the collapsible bar need a revamp and much more,f,2015-06-13,Savez Siddiqui,4
i know the are going to add a lot more with time,f,2015-06-13,Savez Siddiqui,4
but for l will hope time come soon,o,2015-06-13,Savez Siddiqui,4
no feature for access,f,2015-06-13,Rendy Darmawan,4
please make swipe dual tab look like root browser,b,2015-06-12,Franken Stein,3
functional and can be customized,b,2015-06-12,Gray Fox,5
1 star you started asking for identity permission,o,2015-06-12,,4
no option,f,2015-06-12,uddipta das,1
a solid with constant update and getting better every time,b,2015-06-10,Brian Ferguson,5
