Topic,Words
0,0.026*my,0.022*comments,0.021*post,0.021*thing,0.015*very,0.014*do,0.013*displayed,0.013*have,0.013*functions,0.013*android
1,0.025*get,0.019*is,0.018*analytics,0.015*hook,0.014*anywhere,0.014*this,0.014*the,0.013*installed,0.013*stats,0.012*fact
2,0.020*option,0.019*developers,0.018*keep,0.016*least,0.016*go,0.015*that,0.015*notification,0.013*won't,0.012*little,0.012*thank
3,0.029*months,0.026*should,0.021*displayed,0.017*only,0.015*the,0.015*been,0.015*thing,0.013*never,0.013*please,0.013*more
4,0.024*so,0.023*had,0.019*recommend,0.015*to,0.014*adjust,0.014*be,0.013*show,0.013*saying,0.013*of,0.013*two
5,0.025*cannot,0.017*displayed,0.016*update,0.015*add,0.014*already,0.014*bit,0.014*rid,0.013*fix,0.013*layout,0.013*little
6,0.021*too,0.016*please,0.016*if,0.016*been,0.015*i,0.014*because,0.014*anything,0.014*good,0.014*cannot,0.014*should
7,0.024*as,0.020*please,0.019*out,0.015*delete,0.014*two,0.014*x,0.014*make,0.014*stick,0.014*allows,0.014*text
8,0.028*god,0.021*nice,0.019*this,0.016*wow,0.015*couple,0.015*crashes,0.014*application,0.013*customize,0.013*needs,0.012*first
9,0.024*bit,0.022*saying,0.016*mistake,0.015*why,0.014*months,0.014*showing,0.014*least,0.013*select,0.013*like,0.012*thing
10,0.027*save,0.021*sucks,0.018*since,0.017*great,0.015*cannot,0.015*other,0.015*knew,0.014*first,0.014*they,0.014*able
11,0.021*monitor,0.019*reply,0.018*easy,0.018*god,0.016*give,0.015*wanted,0.014*anything,0.014*they,0.013*fun,0.013*dashboard
12,0.028*couple,0.022*god,0.021*alignment,0.019*functions,0.017*window,0.014*since,0.014*able,0.013*that,0.012*moderate,0.012*other
13,0.018*this,0.018*enable,0.017*wont,0.016*version,0.016*with,0.014*its,0.014*guys,0.014*great,0.013*handy,0.013*user's
14,0.023*of,0.019*using,0.018*guys,0.015*android,0.014*fix,0.014*confer,0.014*reply,0.013*been,0.013*looks,0.013*have
15,0.026*button,0.022*having,0.021*and,0.019*fun,0.015*saved,0.015*wanted,0.015*functions,0.015*post,0.014*shouldn't,0.014*web
16,0.018*other,0.017*since,0.017*in,0.016*already,0.015*it's,0.014*that,0.014*displayed,0.014*really,0.013*functionalities,0.012*user
17,0.022*things,0.017*select,0.016*sucks,0.016*show,0.015*add,0.013*awesome,0.013*will,0.012*have,0.012*they,0.012*within
18,0.022*the,0.022*thank,0.017*notification,0.016*are,0.016*those,0.016*god,0.016*makes,0.015*option,0.014*showing,0.014*been
19,0.021*application,0.020*please,0.019*stats,0.018*from,0.016*without,0.015*while,0.013*love,0.013*other,0.012*show,0.012*which
