Topic,Words
0,0.015*intuitive,0.013*easily,0.013*about,0.012*it's,0.012*seem,0.011*worked,0.011*once,0.011*cant,0.011*was,0.010*nothing
1,0.014*asap,0.014*download,0.012*images,0.012*stars,0.012*hierarchy,0.010*combinations,0.010*about,0.010*test,0.010*daily,0.009*else
2,0.015*fault,0.015*much,0.014*ones,0.012*hitting,0.012*try,0.011*concept,0.011*once,0.010*will,0.010*application,0.009*in
3,0.012*hitting,0.012*u,0.012*for,0.011*check,0.011*impressively,0.011*too,0.011*adding,0.011*sites,0.010*fault,0.010*websites
4,0.019*straight,0.014*purposes,0.012*bummer,0.012*altogether,0.011*d,0.011*manage,0.010*glance,0.010*refresh,0.010*10,0.009*rolling
5,0.014*in,0.013*annoyance,0.013*willing,0.011*routine,0.011*awful,0.010*please,0.010*so,0.010*cut,0.009*didn't,0.009*can't
6,0.018*annoyance,0.016*the,0.013*allows,0.010*time,0.010*sailing,0.010*interface,0.009*since,0.009*combinations,0.009*application,0.009*love
7,0.012*please,0.011*d,0.011*you,0.010*i,0.010*a,0.009*interface,0.009*navigational,0.009*bummer,0.009*connection,0.009*video
8,0.022*self,0.018*me,0.015*working,0.012*view,0.011*2,0.011*d,0.011*write,0.010*no,0.010*refresh,0.009*saves
9,0.015*there,0.014*daily,0.013*how,0.012*cause,0.011*homeless,0.010*forever,0.010*links,0.010*in,0.010*works,0.009*guess
10,0.018*how,0.016*via,0.014*check,0.014*wouldn't,0.010*looks,0.010*cause,0.009*manage,0.009*awful,0.009*registered,0.009*also
11,0.016*asap,0.013*only,0.012*esp,0.012*is,0.011*that's,0.010*no,0.010*site,0.010*on,0.010*images,0.009*application
12,0.015*comments,0.014*forums,0.012*community,0.012*difficult,0.011*why,0.011*log,0.011*know,0.010*constantly,0.010*willing,0.010*check
13,0.012*links,0.012*still,0.012*video,0.011*click,0.010*away,0.009*routine,0.009*set,0.008*network,0.008*hr,0.008*that's
14,0.014*comments,0.013*of,0.011*writing,0.010*reported,0.010*everything,0.009*almost,0.009*categories,0.009*i,0.009*were,0.008*wish
15,0.020*since,0.014*15,0.014*awful,0.014*buttery,0.013*without,0.013*editing,0.011*nothing,0.010*well,0.009*10,0.009*working
16,0.015*forever,0.015*reader,0.015*top,0.013*self,0.012*forums,0.012*anymore,0.012*hierarchy,0.011*responses,0.011*at,0.011*constantly
17,0.018*working,0.016*as,0.013*write,0.013*help,0.012*purposes,0.011*easier,0.011*list,0.011*asap,0.010*embed,0.009*install
18,0.015*young,0.013*has,0.012*administrating,0.012*it,0.012*routine,0.011*categories,0.011*scroll,0.011*is,0.010*latest,0.010*however
19,0.016*images,0.015*many,0.015*excellent,0.014*websites,0.013*wouldn't,0.013*load,0.012*display,0.011*type,0.010*like,0.010*bummer
