Topic,Words
0,0.010*things,0.009*never,0.009*guys,0.009*once,0.008*set,0.007*writers,0.007*severe,0.007*add,0.007*included,0.006*start
1,0.011*like,0.010*recommend,0.010*dis,0.009*else,0.009*media,0.009*into,0.008*1,0.008*little,0.008*most,0.008*a
2,0.012*writers,0.012*serious,0.012*frequently,0.010*questions,0.009*help,0.008*versions,0.008*know,0.008*set,0.008*reset,0.008*helps
3,0.011*forgot,0.010*learned,0.009*data,0.009*5,0.008*content,0.008*pages,0.008*never,0.008*just,0.007*download,0.007*edit
4,0.013*normally,0.012*lost,0.011*professional,0.010*recognize,0.010*changes,0.009*upload,0.008*photo,0.008*working,0.008*mine,0.008*solve
5,0.011*data,0.011*excellent,0.011*who,0.011*change,0.011*info,0.010*point,0.010*keep,0.009*deleted,0.008*been,0.008*automatically
6,0.014*help,0.013*downloading,0.012*published,0.010*justified,0.010*great,0.010*nice,0.009*cell,0.009*clean,0.008*will,0.008*actually
7,0.012*consuming,0.012*featured,0.012*view,0.009*still,0.009*but,0.009*option,0.008*helpfully,0.008*functions,0.008*lose,0.007*work
8,0.015*defies,0.013*died,0.010*everyone,0.009*navigation,0.009*them,0.008*at,0.007*problems,0.007*exit,0.007*cell,0.007*hope
9,0.012*version,0.011*changes,0.011*quickly,0.010*features,0.009*except,0.008*me,0.008*while,0.008*justified,0.008*editing,0.007*someone
10,0.013*missing,0.010*fast,0.009*if,0.009*things,0.008*has,0.008*sub,0.008*approve,0.008*copy,0.008*simple,0.007*whole
11,0.015*one,0.011*shouldn't,0.011*recent,0.011*hour,0.010*and,0.009*seem,0.008*occasionally,0.008*website,0.008*home,0.008*slow
12,0.011*had,0.010*early,0.010*helps,0.009*posted,0.009*you,0.009*overall,0.009*recent,0.009*why,0.008*understand,0.008*moments
13,0.012*find,0.012*included,0.011*remove,0.010*early,0.009*why,0.009*days,0.009*personal,0.008*option,0.008*both,0.008*back
14,0.014*whole,0.012*note,0.011*helps,0.010*dis,0.009*better,0.007*error,0.007*wont,0.007*generally,0.007*runs,0.007*extremely
15,0.011*died,0.010*free,0.010*small,0.009*article,0.008*done,0.008*key,0.008*comments,0.008*pages,0.007*website,0.007*far
16,0.012*featured,0.010*writing,0.009*windows,0.009*data,0.009*your,0.009*while,0.009*updated,0.008*everything,0.008*for,0.007*unable
17,0.013*get,0.011*updates,0.010*why,0.009*page,0.009*seem,0.009*still,0.009*well,0.007*reset,0.007*become,0.007*stopped
18,0.015*idea,0.012*windows,0.009*some,0.008*cover,0.008*let's,0.008*getting,0.007*most,0.007*facing,0.007*remove,0.007*but
19,0.015*able,0.012*download,0.010*slow,0.009*featured,0.008*tried,0.008*10,0.008*through,0.008*approve,0.008*comment,0.008*which
