Topic,Words
0,0.005*rewrite,0.004*effect,0.004*than,0.004*deletes,0.004*pathetic,0.004*why,0.004*know,0.004*repair,0.004*deleted,0.003*various
1,0.007*is,0.006*crappy,0.005*but,0.004*so,0.004*the,0.004*ruined,0.004*formatting,0.004*a,0.004*purchase,0.004*hour
2,0.008*and,0.007*the,0.006*i,0.005*to,0.005*at,0.004*notifications,0.004*constantly,0.004*my,0.003*exist,0.003*focus
3,0.005*holes,0.004*word,0.004*website,0.004*again,0.004*far,0.004*liked,0.003*really,0.003*purpose,0.003*do,0.003*anything
4,0.005*could,0.005*why,0.004*upgraded,0.004*destroyed,0.004*done,0.004*viewing,0.004*swiftly,0.004*folks,0.003*watching,0.003*paragraph
5,0.007*overall,0.005*hang,0.005*black,0.005*view's,0.004*wish,0.004*services,0.004*account,0.004*point,0.004*browsing,0.004*settings
6,0.004*they've,0.004*uploading,0.004*it,0.004*different,0.004*setup,0.004*images,0.004*locked,0.004*occurred,0.004*memories,0.003*m
7,0.004*service,0.004*liked,0.004*application,0.004*last,0.003*majority,0.003*still,0.003*media,0.003*harmful,0.003*inserting,0.003*no
8,0.005*stars,0.005*worked,0.005*posted,0.004*attaching,0.004*external,0.004*clearly,0.004*disaster,0.004*wrong,0.003*whole,0.003*freeze
9,0.007*simply,0.006*doesn't,0.006*good,0.006*now,0.005*up,0.005*happy,0.004*48,0.004*lighter,0.004*allowing,0.003*follow
10,0.005*attention,0.005*message,0.005*record,0.004*we've,0.004*nobody,0.004*additional,0.004*changes,0.004*disconnects,0.004*rate,0.004*best
11,0.005*elements,0.005*memories,0.005*sitting,0.005*degrees,0.004*feel,0.004*famous,0.004*viewer,0.004*48,0.004*minutes,0.004*until
12,0.005*home,0.005*feature,0.005*control,0.004*using,0.004*font,0.004*march,0.004*will,0.004*associated,0.004*harmful,0.004*can't
13,0.005*spot,0.004*year,0.004*comes,0.004*loved,0.004*affecting,0.004*kudos,0.004*asking,0.004*hang,0.003*place,0.003*resolve
14,0.005*focus,0.004*know,0.004*disgusting,0.004*consuming,0.004*booting,0.004*where,0.003*updated,0.003*causing,0.003*start,0.003*soon
15,0.006*attached,0.005*else,0.005*botched,0.005*cheers,0.004*brought,0.004*resolved,0.004*complete,0.004*such,0.003*voice,0.003*while
16,0.005*lobed,0.005*arms,0.005*spent,0.004*oversimplified,0.004*legit,0.004*served,0.004*moved,0.004*resulting,0.004*supporting,0.004*the
17,0.005*rare,0.004*posts,0.004*non,0.004*original,0.004*feel,0.003*three,0.003*wants,0.003*convenience,0.003*necessary,0.003*sure
18,0.005*literally,0.004*little,0.004*too,0.003*successful,0.003*elements,0.003*saver,0.003*self,0.003*taste,0.003*left,0.003*beside
19,0.005*parent,0.004*caption,0.004*ability,0.004*within,0.004*views,0.004*posts,0.003*one,0.003*hasn't,0.003*handing,0.003*hated
