topic index,package,release,UI element,words
0,ca.rmen.android.poetassistant,release-1.7.3,@+id/tv_poet_assistant_license$about_license_app,0.014*tap,0.014*helpful,0.009*mwa,0.009*every,0.008*brilliant,0.008*app,0.007*smoother,0.007*pure,0.007*never,0.007*back
1,ca.rmen.android.poetassistant,release-1.7.3,@+id/tv_poet_assistant_license$about_license_app,0.013*league,0.012*synonyms,0.010*splendid,0.010*companion,0.010*information,0.009*star,0.009*rest,0.009*button,0.008*fab,0.008*feel
2,ca.rmen.android.poetassistant,release-1.7.3,@+id/tv_poet_assistant_license$about_license_app,0.012*lover,0.012*might,0.011*people,0.011*struck,0.010*india,0.010*lile,0.008*class,0.008*soon,0.007*download,0.007*imho
3,ca.rmen.android.poetassistant,release-1.7.3,@+id/tv_poet_assistant_license$about_license_app,0.016*really,0.015*loyal,0.010*readingshe,0.010*computer,0.009*develop,0.009*stick,0.008*though,0.008*carmen,0.007*art,0.007*fix
4,ca.rmen.android.poetassistant,release-1.7.3,@+id/tv_poet_assistant_license$about_license_app,0.010*rockstar,0.010*suppose,0.009*brain,0.008*half,0.008*device,0.008*everything,0.008*loyal,0.008*fine,0.008*care,0.007*future
5,ca.rmen.android.poetassistant,release-1.7.3,@+id/tv_poet_assistant_license$about_license_app,0.013*english,0.012*something,0.011*suggestion,0.010*advance,0.010*either,0.009*continuously,0.009*send,0.009*amp,0.008*book,0.008*plus
6,ca.rmen.android.poetassistant,release-1.7.3,@+id/tv_poet_assistant_license$about_license_app,0.011*hyperbolic,0.010*keep,0.010*literally,0.009*fab,0.009*free,0.009*helpful,0.009*every,0.008*focused,0.008*perhaps,0.008*expound
7,ca.rmen.android.poetassistant,release-1.7.3,@+id/tv_poet_assistant_license$about_license_app,0.012*future,0.011*strict,0.010*installed,0.009*fe,0.009*nut,0.009*lot,0.009*get,0.009*require,0.009*bar,0.009*quality
8,ca.rmen.android.poetassistant,release-1.7.3,@+id/tv_poet_assistant_license$about_license_app,0.013*gud,0.010*close,0.010*friend,0.010*lile,0.009*open,0.009*expand,0.008*emerge,0.008*stirrup,0.008*utility,0.007*kudos
9,ca.rmen.android.poetassistant,release-1.7.3,@+id/tv_rhymer_license$about_license_rhyming_dictionary,0.018*hide,0.018*people,0.018*seem,0.017*poetry,0.016*almost,0.015*hyperbolic,0.015*nearly,0.013*miss,0.013*ever,0.013*term
10,ca.rmen.android.poetassistant,release-1.7.3,@+id/tv_rhymer_license$about_license_rhyming_dictionary,0.019*whatever,0.018*back,0.017*composition,0.017*computer,0.017*poetry,0.016*unnecessary,0.015*user,0.014*since,0.014*much,0.014*hard
11,ca.rmen.android.poetassistant,release-1.7.3,@+id/tv_rhymer_license$about_license_rhyming_dictionary,0.026*syllablecount,0.024*know,0.018*word,0.015*hard,0.014*space,0.014*incomplete,0.014*expand,0.013*hear,0.013*still,0.013*serve
12,ca.rmen.android.poetassistant,release-1.7.3,@+id/tv_rhymer_license$about_license_rhyming_dictionary,0.033*space,0.019*poetry,0.018*phone,0.015*tool,0.014*number,0.012*handy,0.012*rare,0.012*additionally,0.012*smooth,0.011*doubt
13,ca.rmen.android.poetassistant,release-1.7.3,@+id/tv_rhymer_license$about_license_rhyming_dictionary,0.023*awesome,0.018*book,0.017*much,0.017*line,0.016*beautiful,0.015*guide,0.014*pronunciation,0.014*say,0.014*still,0.014*man
14,ca.rmen.android.poetassistant,release-1.7.3,@+id/word_type$@{entry.partOfSpeech},0.020*bit,0.018*make,0.014*integrity,0.012*apps,0.012*clutter,0.012*excellent,0.012*english,0.011*mic,0.011*spot,0.011*edit
15,ca.rmen.android.poetassistant,release-1.7.3,@+id/word_type$@{entry.partOfSpeech},0.023*saw,0.023*better,0.016*website,0.016*dumb,0.014*literally,0.014*carmen,0.014*close,0.012*brawny,0.011*list,0.011*fine
16,ca.rmen.android.poetassistant,release-1.7.3,@+id/word_type$@{entry.partOfSpeech},0.023*everyone,0.018*absolutely,0.016*go,0.016*memory,0.014*hear,0.013*nut,0.012*mostly,0.012*time,0.012*literally,0.011*maker
17,ca.rmen.android.poetassistant,release-1.7.3,@+id/word_type$@{entry.partOfSpeech},0.027*assisthence,0.027*poem,0.018*absolutely,0.018*bring,0.016*push,0.015*two,0.015*ability,0.014*even,0.014*recently,0.013*big
18,ca.rmen.android.poetassistant,release-1.7.3,@+id/word_type$@{entry.partOfSpeech},0.027*thorny,0.024*still,0.022*depend,0.017*flaw,0.016*boy,0.016*rhyme,0.013*rule,0.013*best,0.012*continuously,0.012*lile
19,ca.rmen.android.poetassistant,release-1.7.3,@id/btn_thesaurus$,0.063*do,0.035*10,0.027*like,0.027*friendly,0.024*notepad,0.023*rhyme,0.023*phone,0.022*thanks,0.022*pat,0.020*lifesaver
20,ca.rmen.android.poetassistant,release-1.7.3,@id/btn_thesaurus$,0.043*comprehensive,0.030*3,0.030*give,0.028*download,0.027*word,0.023*hyperbolic,0.020*lot,0.020*flow,0.018*app,0.017*need
21,ca.rmen.android.poetassistant,release-1.7.3,@id/btn_thesaurus$,0.037*reallt,0.029*function,0.029*dream,0.026*story,0.024*rapper,0.023*word,0.022*inconvenient,0.021*writer,0.020*flow,0.019*lifesaver
22,ca.rmen.android.poetassistant,release-1.7.3,@id/btn_thesaurus$,0.040*definitely,0.036*rhymer,0.033*nice,0.030*download,0.029*punchline,0.027*notepad,0.023*lifesaver,0.021*app,0.020*hyperbolic,0.018*comprehensive
23,ca.rmen.android.poetassistant,release-1.7.3,@id/btn_thesaurus$,0.046*definitely,0.040*story,0.040*another,0.038*devs,0.037*english,0.025*antonym,0.024*nearly,0.023*start,0.022*helpful,0.022*write
24,ca.rmen.android.poetassistant,release-1.7.3,@id/btn_dictionary$,0.030*time,0.023*ordinary,0.022*extremely,0.021*bravo,0.021*supply,0.020*absolutely,0.019*smooth,0.017*unnecessary,0.017*common,0.017*3
25,ca.rmen.android.poetassistant,release-1.7.3,@id/btn_dictionary$,0.027*supply,0.021*flow,0.021*use,0.021*thesaurus,0.021*full,0.020*provide,0.018*people,0.015*one,0.015*nearly,0.015*minute
26,ca.rmen.android.poetassistant,release-1.7.3,@id/btn_dictionary$,0.022*never,0.021*function,0.020*heaven,0.019*think,0.017*none,0.017*google,0.016*pronunciation,0.016*throughout,0.016*thrown,0.014*five
27,ca.rmen.android.poetassistant,release-1.7.3,@id/btn_dictionary$,0.038*poems,0.024*device,0.023*back,0.019*stuff,0.018*haha,0.017*1000,0.016*10,0.015*developer,0.015*rapper,0.015*everything
28,ca.rmen.android.poetassistant,release-1.7.3,@id/btn_dictionary$,0.025*song,0.021*minute,0.019*simple,0.019*poem,0.019*developer,0.019*none,0.018*recently,0.017*start,0.016*best,0.016*lot
29,ca.rmen.android.poetassistant,release-1.7.3,@+id/tv_thesaurus_license$about_license_thesaurus,0.034*never,0.033*free,0.028*get,0.026*start,0.025*thank,0.025*nice,0.025*omg,0.025*even,0.024*poet,0.023*haha
30,ca.rmen.android.poetassistant,release-1.7.3,@+id/tv_thesaurus_license$about_license_thesaurus,0.033*amp,0.030*notepad,0.030*educator,0.027*offline,0.026*antonym,0.024*none,0.021*work,0.020*bravo,0.020*devs,0.019*lifesaver
31,ca.rmen.android.poetassistant,release-1.7.3,@+id/tv_thesaurus_license$about_license_thesaurus,0.038*book,0.031*writer,0.028*function,0.027*reallt,0.027*dictionary,0.026*search,0.024*notepad,0.021*download,0.021*dream,0.020*verseperfect
32,ca.rmen.android.poetassistant,release-1.7.3,@+id/tv_thesaurus_license$about_license_thesaurus,0.039*lot,0.036*write,0.036*think,0.030*poems,0.028*phone,0.028*hyperbolic,0.023*provide,0.022*smoother,0.021*great,0.018*want
33,ca.rmen.android.poetassistant,release-1.7.3,@+id/tv_thesaurus_license$about_license_thesaurus,0.038*brilliant,0.028*search,0.026*rhymer,0.024*nearly,0.021*send,0.020*never,0.020*ease,0.020*writer,0.019*idea,0.018*thrown
34,ca.rmen.android.poetassistant,release-1.7.3,@+id/tv_dictionary_license$about_license_dictionary,0.025*dictionary,0.024*serve,0.023*get,0.022*sweet,0.021*guide,0.019*3,0.019*haiku,0.018*book,0.017*lifesaver,0.016*seem
35,ca.rmen.android.poetassistant,release-1.7.3,@+id/tv_dictionary_license$about_license_dictionary,0.027*function,0.025*focus,0.023*bravo,0.023*do,0.020*rapper,0.018*forth,0.018*device,0.017*coz,0.017*manual,0.017*supply
36,ca.rmen.android.poetassistant,release-1.7.3,@+id/tv_dictionary_license$about_license_dictionary,0.024*suppose,0.022*dream,0.022*concern,0.020*know,0.018*haha,0.018*feel,0.018*word,0.017*pat,0.016*perfect,0.016*consume
37,ca.rmen.android.poetassistant,release-1.7.3,@+id/tv_dictionary_license$about_license_dictionary,0.044*lifesaver,0.023*one,0.023*notepad,0.021*definition,0.020*serve,0.020*scheme,0.019*take,0.017*leave,0.016*inconvenient,0.015*focus
38,ca.rmen.android.poetassistant,release-1.7.3,@+id/tv_dictionary_license$about_license_dictionary,0.022*potential,0.020*send,0.019*simpler,0.017*replaced,0.016*love,0.016*thing,0.015*would,0.015*start,0.014*never,0.014*feel
39,ca.rmen.android.poetassistant,release-1.7.3,@id/btn_web_search$,0.051*thing,0.043*another,0.039*accidentally,0.038*10,0.031*fix,0.027*instead,0.027*example,0.027*button,0.026*page,0.026*though
40,ca.rmen.android.poetassistant,release-1.7.3,@id/btn_web_search$,0.050*push,0.047*well,0.038*rhyme,0.033*want,0.030*title,0.028*perhaps,0.025*awesome,0.025*better,0.023*search,0.022*might
41,ca.rmen.android.poetassistant,release-1.7.3,@id/btn_web_search$,0.036*half,0.033*minor,0.028*developer,0.026*synonym,0.025*10,0.025*prettier,0.022*possibility,0.021*memory,0.020*thing,0.020*glass
42,ca.rmen.android.poetassistant,release-1.7.3,@id/btn_web_search$,0.039*thesaurus,0.036*easy,0.034*way,0.032*due,0.029*back,0.025*able,0.024*page,0.023*want,0.022*might,0.022*could
43,ca.rmen.android.poetassistant,release-1.7.3,@id/btn_web_search$,0.046*tool,0.043*synonym,0.040*better,0.034*half,0.031*shuffle,0.031*instead,0.029*remember,0.026*magnify,0.026*either,0.023*give
44,ca.rmen.android.poetassistant,release-1.7.3,@+id/txtVersion$,0.164*first,0.095*soft,0.067*lot,0.058*rating,0.057*something,0.048*forward,0.041*see,0.041*scar,0.040*good,0.038*concern
45,ca.rmen.android.poetassistant,release-1.7.3,@+id/txtVersion$,0.120*little,0.108*something,0.106*take,0.101*good,0.077*rating,0.071*4stars,0.056*hope,0.039*concern,0.038*love,0.038*first
46,ca.rmen.android.poetassistant,release-1.7.3,@+id/txtVersion$,0.109*poem,0.096*angry,0.093*better,0.063*concern,0.061*seek,0.060*voilent,0.056*first,0.046*good,0.045*sht,0.041*feedback
47,ca.rmen.android.poetassistant,release-1.7.3,@+id/txtVersion$,0.169*time,0.122*feature,0.075*like,0.073*angry,0.051*see,0.051*hope,0.049*poem,0.036*forward,0.031*colourful,0.029*sht
48,ca.rmen.android.poetassistant,release-1.7.3,@+id/txtVersion$,0.096*feedback,0.091*take,0.072*better,0.069*scar,0.060*time,0.057*good,0.055*first,0.041*romantic,0.039*honestly,0.038*version
49,ca.rmen.android.poetassistant,release-1.7.3,@android:id/edit$,0.092*update,0.086*also,0.079*spot,0.063*edit,0.060*say,0.059*promised,0.055*expand,0.048*seem,0.046*random,0.037*want
50,ca.rmen.android.poetassistant,release-1.7.3,@android:id/edit$,0.131*update,0.114*app,0.067*thanks,0.065*generator,0.060*amp,0.060*much,0.054*word,0.045*promised,0.040*say,0.038*great
51,ca.rmen.android.poetassistant,release-1.7.3,@android:id/edit$,0.116*app,0.087*day,0.059*edit,0.057*impressed,0.054*seem,0.054*update,0.048*great,0.048*love,0.045*downside,0.038*look
52,ca.rmen.android.poetassistant,release-1.7.3,@android:id/edit$,0.079*spot,0.077*thanks,0.068*update,0.061*word,0.053*carmen,0.051*vocabulary,0.049*forward,0.041*look,0.039*future,0.038*edit
53,ca.rmen.android.poetassistant,release-1.7.3,@android:id/edit$,0.103*use,0.094*though,0.072*also,0.059*download,0.054*would,0.050*edit,0.044*promised,0.044*seem,0.041*random,0.036*update
54,ca.rmen.android.poetassistant,release-1.7.3,@+id/tv_title$,0.139*tool,0.075*app,0.070*page,0.065*screen,0.064*cut,0.059*fast,0.056*extremely,0.052*give,0.046*could,0.042*good
55,ca.rmen.android.poetassistant,release-1.7.3,@+id/tv_title$,0.150*work,0.107*good,0.065*page,0.047*app,0.046*glass,0.041*give,0.040*could,0.040*prettier,0.036*without,0.033*cut
56,ca.rmen.android.poetassistant,release-1.7.3,@+id/tv_title$,0.118*organize,0.087*support,0.079*search,0.075*magnify,0.069*half,0.066*button,0.066*give,0.042*work,0.034*way,0.030*app
57,ca.rmen.android.poetassistant,release-1.7.3,@+id/tv_title$,0.175*magnify,0.071*please,0.061*space,0.048*good,0.048*useful,0.045*effort,0.045*way,0.042*search,0.040*support,0.036*example
58,ca.rmen.android.poetassistant,release-1.7.3,@+id/tv_title$,0.100*space,0.100*work,0.088*screen,0.069*effort,0.054*glass,0.052*float,0.044*area,0.043*way,0.042*minor,0.041*introduce
59,ca.rmen.android.poetassistant,release-1.7.3,@+id/tv_list_header$,0.086*cut,0.061*word,0.052*leave,0.051*introduce,0.050*right,0.050*list,0.036*tool,0.032*fine,0.031*search,0.030*fast
60,ca.rmen.android.poetassistant,release-1.7.3,@+id/tv_list_header$,0.080*area,0.078*work,0.063*title,0.056*header,0.053*fine,0.050*support,0.048*half,0.045*list,0.042*every,0.038*leave
61,ca.rmen.android.poetassistant,release-1.7.3,@+id/tv_list_header$,0.120*screen,0.068*useful,0.057*well,0.052*page,0.050*way,0.044*list,0.042*cut,0.041*introduce,0.033*extremely,0.030*sliding
62,ca.rmen.android.poetassistant,release-1.7.3,@+id/tv_list_header$,0.118*keep,0.077*cut,0.051*example,0.051*clutter,0.043*title,0.039*area,0.038*every,0.036*fast,0.033*app,0.031*get
63,ca.rmen.android.poetassistant,release-1.7.3,@+id/tv_list_header$,0.077*example,0.067*smooth,0.061*list,0.045*magnify,0.044*page,0.043*extremely,0.041*half,0.039*word,0.034*glass,0.033*button
64,ca.rmen.android.poetassistant,release-1.7.3,@+id/btn_play$,0.101*read,0.095*poet,0.080*play,0.071*rhyme,0.067*best,0.057*word,0.054*besides,0.053*tool,0.053*poem,0.051*line
65,ca.rmen.android.poetassistant,release-1.7.3,@+id/btn_play$,0.141*wonderful,0.097*let,0.093*work,0.093*free,0.061*love,0.049*except,0.048*best,0.045*excellent,0.043*play,0.036*app
66,ca.rmen.android.poetassistant,release-1.7.3,@+id/btn_play$,0.170*read,0.116*tool,0.081*rhyme,0.065*free,0.062*line,0.055*app,0.050*excellent,0.048*completely,0.045*real,0.030*poem
67,ca.rmen.android.poetassistant,release-1.7.3,@+id/btn_play$,0.144*ad,0.139*let,0.080*poet,0.070*completely,0.069*wonderful,0.065*play,0.056*still,0.053*word,0.041*rhyme,0.036*say
68,ca.rmen.android.poetassistant,release-1.7.3,@+id/btn_play$,0.117*let,0.101*app,0.096*play,0.080*tool,0.066*besides,0.061*real,0.053*still,0.039*love,0.039*get,0.036*press
69,ca.rmen.android.poetassistant,release-1.7.3,@id/btn_play$,0.107*play,0.104*app,0.099*completely,0.083*ad,0.067*read,0.059*wonderful,0.059*excellent,0.052*set,0.051*tool,0.048*poet
70,ca.rmen.android.poetassistant,release-1.7.3,@id/btn_play$,0.111*let,0.080*voice,0.070*love,0.070*poem,0.069*best,0.067*set,0.049*real,0.048*completely,0.046*tool,0.039*except
71,ca.rmen.android.poetassistant,release-1.7.3,@id/btn_play$,0.140*wonderful,0.120*tool,0.098*completely,0.097*get,0.091*ad,0.049*rhyme,0.048*let,0.035*real,0.035*work,0.033*app
72,ca.rmen.android.poetassistant,release-1.7.3,@id/btn_play$,0.116*poem,0.110*besides,0.102*still,0.092*word,0.064*wonderful,0.062*line,0.056*tool,0.053*voice,0.038*rhyme,0.037*real
73,ca.rmen.android.poetassistant,release-1.7.3,@id/btn_play$,0.133*play,0.131*poem,0.114*except,0.065*excellent,0.059*completely,0.052*set,0.050*poet,0.050*wonderful,0.047*real,0.033*press
74,ca.rmen.android.poetassistant,release-1.7.3,@id/btn_rhymer$,0.108*recently,0.092*send,0.083*apps,0.055*really,0.047*helpful,0.042*one,0.037*synonym,0.034*switch,0.033*book,0.031*writer
75,ca.rmen.android.poetassistant,release-1.7.3,@id/btn_rhymer$,0.083*inconvenient,0.077*switch,0.065*app,0.061*find,0.061*listen,0.055*song,0.052*one,0.050*amp,0.049*punchline,0.045*badly
76,ca.rmen.android.poetassistant,release-1.7.3,@id/btn_rhymer$,0.087*reallt,0.073*write,0.060*rhymer,0.058*comprehensive,0.052*love,0.051*dict,0.040*book,0.039*listen,0.037*apps,0.036*song
77,ca.rmen.android.poetassistant,release-1.7.3,@id/btn_rhymer$,0.126*haha,0.082*dict,0.073*badly,0.048*apps,0.043*coz,0.041*need,0.040*one,0.039*poem,0.038*definitely,0.036*reallt
78,ca.rmen.android.poetassistant,release-1.7.3,@id/btn_rhymer$,0.080*coz,0.067*one,0.054*poem,0.053*inconvenient,0.050*listen,0.049*amp,0.049*best,0.048*book,0.042*heaven,0.041*notepad
79,ca.rmen.android.poetassistant,release-1.7.3,@+id/tv_license_text$,0.243*haiku,0.110*respelling,0.092*guide,0.066*common,0.065*show,0.061*simple,0.056*pronunciation,0.055*also,0.047*write,0.034*scheme
80,ca.rmen.android.poetassistant,release-1.7.3,@+id/tv_license_text$,0.271*perfect,0.164*pronunciation,0.110*base,0.103*common,0.092*haiku,0.090*dictionary,0.043*nice,0.029*respelling,0.028*simple,0.025*text
81,ca.rmen.android.poetassistant,release-1.7.3,@+id/tv_license_text$,0.169*dictionary,0.150*perfect,0.131*number,0.113*text,0.082*almost,0.067*scheme,0.057*write,0.039*show,0.035*guide,0.034*nice
82,ca.rmen.android.poetassistant,release-1.7.3,@+id/tv_license_text$,0.166*haiku,0.162*write,0.136*show,0.118*nice,0.095*scheme,0.076*simple,0.048*number,0.042*dictionary,0.040*almost,0.028*syllabus
83,ca.rmen.android.poetassistant,release-1.7.3,@+id/tv_license_text$,0.163*guide,0.143*syllabus,0.106*simple,0.102*nice,0.092*text,0.068*dictionary,0.066*common,0.061*almost,0.048*base,0.040*haiku
84,ca.rmen.android.poetassistant,release-1.7.3,@+id/tv_text$,0.199*simple,0.130*scheme,0.088*almost,0.087*write,0.065*haiku,0.065*perfect,0.061*also,0.055*common,0.049*base,0.045*text
85,ca.rmen.android.poetassistant,release-1.7.3,@+id/tv_text$,0.205*common,0.148*number,0.140*syllabus,0.126*haiku,0.111*almost,0.068*respelling,0.055*show,0.030*dictionary,0.027*perfect,0.025*simple
86,ca.rmen.android.poetassistant,release-1.7.3,@+id/tv_text$,0.404*base,0.185*also,0.093*text,0.055*pronunciation,0.049*nice,0.046*dictionary,0.046*respelling,0.045*scheme,0.017*common,0.017*show
87,ca.rmen.android.poetassistant,release-1.7.3,@+id/tv_text$,0.165*common,0.130*haiku,0.099*perfect,0.095*dictionary,0.088*almost,0.063*base,0.053*scheme,0.053*number,0.046*also,0.045*write
88,ca.rmen.android.poetassistant,release-1.7.3,@+id/tv_text$,0.230*common,0.102*text,0.092*number,0.089*show,0.080*also,0.057*guide,0.057*base,0.048*scheme,0.045*haiku,0.044*almost
89,ca.rmen.android.poetassistant,release-1.7.3,@+id/definition$@{entry.definition},0.178*fe,0.170*adin,0.130*app,0.102*broken,0.099*exceptional,0.065*synonym,0.042*love,0.031*definition,0.030*excels,0.028*free
90,ca.rmen.android.poetassistant,release-1.7.3,@+id/definition$@{entry.definition},0.253*completely,0.163*synonym,0.150*free,0.086*excels,0.072*exceptional,0.060*result,0.051*work,0.034*dictionary,0.028*thank,0.027*love
91,ca.rmen.android.poetassistant,release-1.7.3,@+id/definition$@{entry.definition},0.437*result,0.106*adin,0.065*work,0.063*thank,0.054*exceptional,0.051*love,0.050*fe,0.049*broken,0.048*dictionary,0.025*excels
92,ca.rmen.android.poetassistant,release-1.7.3,@+id/definition$@{entry.definition},0.208*free,0.156*adin,0.148*fe,0.138*thank,0.059*dictionary,0.057*completely,0.055*broken,0.053*exceptional,0.037*love,0.026*app
93,ca.rmen.android.poetassistant,release-1.7.3,@+id/definition$@{entry.definition},0.210*free,0.129*synonym,0.119*dictionary,0.110*app,0.105*love,0.087*exceptional,0.060*completely,0.042*broken,0.028*adin,0.027*work
94,ca.rmen.android.poetassistant,release-1.7.3,@+id/tv_event_bus_license$about_license_event_bus,0.223*often,0.131*continuously,0.128*word,0.107*ridiculous,0.095*day,0.081*nut,0.066*start,0.032*go,0.031*stop,0.030*altogether
95,ca.rmen.android.poetassistant,release-1.7.3,@+id/tv_event_bus_license$about_license_event_bus,0.254*often,0.125*day,0.110*counter,0.105*app,0.061*continuously,0.060*go,0.054*give,0.047*ridiculous,0.044*stop,0.041*random
96,ca.rmen.android.poetassistant,release-1.7.3,@+id/tv_event_bus_license$about_license_event_bus,0.193*stop,0.174*random,0.170*nut,0.082*counter,0.068*would,0.067*often,0.048*go,0.045*continuously,0.043*word,0.034*give
97,ca.rmen.android.poetassistant,release-1.7.3,@+id/tv_event_bus_license$about_license_event_bus,0.159*app,0.122*often,0.107*ridiculous,0.104*continuously,0.103*random,0.097*useful,0.093*counter,0.057*word,0.038*would,0.026*start
98,ca.rmen.android.poetassistant,release-1.7.3,@+id/tv_event_bus_license$about_license_event_bus,0.194*counter,0.158*event,0.122*app,0.102*often,0.093*day,0.076*random,0.064*give,0.052*useful,0.036*continuously,0.025*would
99,ca.rmen.android.poetassistant,release-1.7.2,@+id/tv_poet_assistant_license$about_license_app,0.232*think,0.106*free,0.096*lot,0.084*thanks,0.082*cant,0.071*casual,0.064*perfect,0.063*time,0.043*great,0.039*believe
100,ca.rmen.android.poetassistant,release-1.7.2,@+id/tv_poet_assistant_license$about_license_app,0.170*great,0.110*poet,0.095*right,0.095*permission,0.085*app,0.083*word,0.069*lot,0.057*believe,0.050*time,0.040*free
101,ca.rmen.android.poetassistant,release-1.7.2,@+id/tv_poet_assistant_license$about_license_app,0.154*think,0.137*free,0.097*thanks,0.091*right,0.076*great,0.073*permission,0.063*love,0.061*app,0.054*lot,0.052*believe
102,ca.rmen.android.poetassistant,release-1.7.2,@+id/tv_poet_assistant_license$about_license_app,0.214*app,0.192*word,0.124*casual,0.085*thanks,0.074*love,0.067*cant,0.050*right,0.044*lot,0.032*think,0.024*believe
103,ca.rmen.android.poetassistant,release-1.7.2,@+id/tv_poet_assistant_license$about_license_app,0.190*lot,0.135*thanks,0.121*casual,0.098*believe,0.077*right,0.066*think,0.062*word,0.055*app,0.051*perfect,0.050*great
104,ca.rmen.android.poetassistant,release-1.7.2,@+id/word_type$,0.301*think,0.293*thanks,0.135*poet,0.102*time,0.037*casual,0.037*perfect,0.034*word,0.023*lot,0.020*love,0.016*app
105,ca.rmen.android.poetassistant,release-1.7.2,@+id/word_type$,0.273*poet,0.204*app,0.191*think,0.103*thanks,0.065*casual,0.059*right,0.057*lot,0.026*word,0.010*perfect,0.010*love
106,ca.rmen.android.poetassistant,release-1.7.2,@+id/word_type$,0.245*time,0.180*think,0.151*perfect,0.128*word,0.079*right,0.072*app,0.055*lot,0.050*casual,0.022*thanks,0.010*poet
107,ca.rmen.android.poetassistant,release-1.7.2,@+id/word_type$,0.299*love,0.159*poet,0.093*lot,0.088*right,0.085*casual,0.077*thanks,0.072*time,0.066*think,0.028*perfect,0.027*word
108,ca.rmen.android.poetassistant,release-1.7.2,@+id/word_type$,0.372*app,0.173*lot,0.150*word,0.074*casual,0.073*right,0.052*love,0.038*thanks,0.027*poet,0.021*time,0.013*think
109,ca.rmen.android.poetassistant,release-1.7.0,@+id/tv_poet_assistant_license$about_license_app,0.267*thanks,0.216*believe,0.170*cant,0.146*free,0.105*app,0.057*great,0.039*permission
110,ca.rmen.android.poetassistant,release-1.7.0,@+id/tv_poet_assistant_license$about_license_app,0.408*permission,0.162*free,0.159*great,0.158*cant,0.066*believe,0.039*thanks,0.008*app
111,ca.rmen.android.poetassistant,release-1.7.0,@+id/tv_poet_assistant_license$about_license_app,0.256*free,0.248*great,0.154*cant,0.122*permission,0.105*believe,0.075*thanks,0.039*app
112,ca.rmen.android.poetassistant,release-1.7.0,@+id/tv_poet_assistant_license$about_license_app,0.305*free,0.240*app,0.201*great,0.140*permission,0.084*cant,0.018*thanks,0.012*believe
113,ca.rmen.android.poetassistant,release-1.7.0,@+id/tv_poet_assistant_license$about_license_app,0.324*cant,0.231*free,0.195*app,0.092*thanks,0.090*permission,0.061*believe,0.006*great
114,ca.rmen.android.poetassistant,release-1.6.5,@id/btn_rhymer$,0.290*dict,0.284*rhymer,0.263*poem,0.081*helpful,0.026*comprehensive,0.022*thesaurus,0.017*reallt,0.015*listen,0.001*really
115,ca.rmen.android.poetassistant,release-1.6.5,@id/btn_rhymer$,0.542*thesaurus,0.102*poem,0.085*rhymer,0.073*dict,0.067*comprehensive,0.059*really,0.040*helpful,0.025*listen,0.008*reallt
116,ca.rmen.android.poetassistant,release-1.6.5,@id/btn_rhymer$,0.262*rhymer,0.157*comprehensive,0.111*reallt,0.111*dict,0.105*helpful,0.076*listen,0.069*thesaurus,0.057*really,0.052*poem
117,ca.rmen.android.poetassistant,release-1.6.5,@id/btn_rhymer$,0.398*dict,0.175*really,0.169*reallt,0.102*comprehensive,0.084*rhymer,0.025*listen,0.022*thesaurus,0.016*helpful,0.009*poem
118,ca.rmen.android.poetassistant,release-1.6.5,@id/btn_rhymer$,0.427*dict,0.194*rhymer,0.115*reallt,0.100*thesaurus,0.051*comprehensive,0.039*listen,0.034*poem,0.022*really,0.019*helpful
119,ca.rmen.android.poetassistant,release-1.6.5,@+id/tv_rhymer_license$about_license_rhyming_dictionary,0.316*helpful,0.251*comprehensive,0.224*listen,0.052*thesaurus,0.045*reallt,0.043*poem,0.031*rhymer,0.023*really,0.016*dict
120,ca.rmen.android.poetassistant,release-1.6.5,@+id/tv_rhymer_license$about_license_rhyming_dictionary,0.243*really,0.200*rhymer,0.167*listen,0.159*thesaurus,0.094*comprehensive,0.067*helpful,0.031*poem,0.021*reallt,0.018*dict
121,ca.rmen.android.poetassistant,release-1.6.5,@+id/tv_rhymer_license$about_license_rhyming_dictionary,0.247*poem,0.160*dict,0.158*rhymer,0.124*comprehensive,0.123*helpful,0.073*really,0.051*listen,0.037*reallt,0.026*thesaurus
122,ca.rmen.android.poetassistant,release-1.6.5,@+id/tv_rhymer_license$about_license_rhyming_dictionary,0.316*poem,0.226*comprehensive,0.158*helpful,0.115*rhymer,0.067*thesaurus,0.043*really,0.033*dict,0.023*listen,0.018*reallt
123,ca.rmen.android.poetassistant,release-1.6.5,@+id/tv_rhymer_license$about_license_rhyming_dictionary,0.430*comprehensive,0.226*thesaurus,0.126*really,0.058*listen,0.057*reallt,0.047*rhymer,0.023*poem,0.021*helpful,0.011*dict
124,ca.rmen.android.poetassistant,release-1.6.2,@id/btn_thesaurus$,0.520*dict,0.189*listen,0.091*rhymer,0.075*reallt,0.068*comprehensive,0.033*thesaurus,0.024*poem
125,ca.rmen.android.poetassistant,release-1.6.2,@id/btn_thesaurus$,0.297*rhymer,0.225*listen,0.169*thesaurus,0.138*reallt,0.093*dict,0.044*poem,0.034*comprehensive
126,ca.rmen.android.poetassistant,release-1.6.2,@id/btn_thesaurus$,0.418*thesaurus,0.157*listen,0.136*poem,0.129*rhymer,0.076*dict,0.074*comprehensive,0.010*reallt
127,ca.rmen.android.poetassistant,release-1.6.2,@id/btn_thesaurus$,0.233*reallt,0.227*listen,0.142*thesaurus,0.140*rhymer,0.129*poem,0.084*comprehensive,0.046*dict
128,ca.rmen.android.poetassistant,release-1.6.2,@id/btn_thesaurus$,0.380*reallt,0.327*dict,0.201*thesaurus,0.037*comprehensive,0.022*rhymer,0.019*listen,0.013*poem
129,ca.rmen.android.poetassistant,release-1.6.2,@id/btn_rhymer$,0.314*comprehensive,0.254*reallt,0.117*rhymer,0.103*poem,0.088*listen,0.065*dict,0.059*thesaurus
130,ca.rmen.android.poetassistant,release-1.6.2,@id/btn_rhymer$,0.346*rhymer,0.301*listen,0.152*thesaurus,0.080*reallt,0.060*poem,0.054*comprehensive,0.006*dict
131,ca.rmen.android.poetassistant,release-1.6.2,@id/btn_rhymer$,0.237*poem,0.213*rhymer,0.204*dict,0.189*listen,0.095*thesaurus,0.060*reallt,0.001*comprehensive
132,ca.rmen.android.poetassistant,release-1.6.2,@id/btn_rhymer$,0.370*reallt,0.306*comprehensive,0.173*thesaurus,0.084*poem,0.038*listen,0.021*rhymer,0.008*dict
133,ca.rmen.android.poetassistant,release-1.6.2,@id/btn_rhymer$,0.439*poem,0.292*thesaurus,0.199*reallt,0.050*dict,0.011*listen,0.008*rhymer,0.002*comprehensive
134,ca.rmen.android.poetassistant,release-1.6.2,@+id/tv_rhymer_license$about_license_rhyming_dictionary,0.303*comprehensive,0.256*reallt,0.243*rhymer,0.098*dict,0.069*listen,0.030*thesaurus,0.000*poem
135,ca.rmen.android.poetassistant,release-1.6.2,@+id/tv_rhymer_license$about_license_rhyming_dictionary,0.326*thesaurus,0.272*reallt,0.162*dict,0.091*poem,0.079*rhymer,0.070*comprehensive,0.001*listen
136,ca.rmen.android.poetassistant,release-1.6.2,@+id/tv_rhymer_license$about_license_rhyming_dictionary,0.314*dict,0.186*comprehensive,0.181*rhymer,0.114*poem,0.085*reallt,0.075*thesaurus,0.046*listen
137,ca.rmen.android.poetassistant,release-1.6.2,@+id/tv_rhymer_license$about_license_rhyming_dictionary,0.582*dict,0.278*poem,0.086*listen,0.047*rhymer,0.006*thesaurus,0.001*reallt,0.001*comprehensive
138,ca.rmen.android.poetassistant,release-1.6.2,@+id/tv_rhymer_license$about_license_rhyming_dictionary,0.344*thesaurus,0.207*listen,0.131*reallt,0.118*rhymer,0.097*dict,0.062*poem,0.040*comprehensive
139,ca.rmen.android.poetassistant,release-1.6.2,@+id/tv_thesaurus_license$about_license_thesaurus,0.335*dict,0.284*reallt,0.173*poem,0.109*thesaurus,0.050*rhymer,0.042*comprehensive,0.006*listen
140,ca.rmen.android.poetassistant,release-1.6.2,@+id/tv_thesaurus_license$about_license_thesaurus,0.287*comprehensive,0.186*dict,0.158*reallt,0.150*thesaurus,0.120*poem,0.073*listen,0.026*rhymer
141,ca.rmen.android.poetassistant,release-1.6.2,@+id/tv_thesaurus_license$about_license_thesaurus,0.302*thesaurus,0.284*comprehensive,0.142*dict,0.125*listen,0.072*reallt,0.051*rhymer,0.024*poem
142,ca.rmen.android.poetassistant,release-1.6.2,@+id/tv_thesaurus_license$about_license_thesaurus,0.250*comprehensive,0.223*rhymer,0.192*dict,0.181*thesaurus,0.059*listen,0.050*reallt,0.045*poem
143,ca.rmen.android.poetassistant,release-1.6.2,@+id/tv_thesaurus_license$about_license_thesaurus,0.286*listen,0.268*comprehensive,0.170*poem,0.102*reallt,0.082*rhymer,0.082*thesaurus,0.010*dict
144,ca.rmen.android.poetassistant,release-1.5.2,@string/about_license_app$,0.179*please,0.130*show,0.127*app,0.127*help,0.113*could,0.086*vocabulary,0.068*useful,0.061*amaze,0.056*expand,0.027*look
145,ca.rmen.android.poetassistant,release-1.5.2,@string/about_license_app$,0.254*show,0.156*vocabulary,0.099*expand,0.098*litterateur,0.073*useful,0.068*keep,0.061*could,0.053*create,0.038*look,0.032*help
146,ca.rmen.android.poetassistant,release-1.5.2,@string/about_license_app$,0.464*could,0.089*app,0.065*amaze,0.055*show,0.052*useful,0.050*poem,0.046*keep,0.046*help,0.035*look,0.035*expand
147,ca.rmen.android.poetassistant,release-1.5.2,@string/about_license_app$,0.285*keep,0.171*help,0.108*poem,0.079*vocabulary,0.075*show,0.063*useful,0.055*litterateur,0.038*look,0.036*could,0.029*create
148,ca.rmen.android.poetassistant,release-1.5.2,@string/about_license_app$,0.195*show,0.147*look,0.112*amaze,0.105*litterateur,0.093*vocabulary,0.088*useful,0.086*could,0.056*help,0.049*poem,0.035*keep
