App,Store,App ID,Review ID,Country,Version,Rating,Date,Author,Subject,Body,Translated Subject,Translated Body
Password Store (beta),Google Play,com.zeapo.pwdstore,Z3A6QU9xcFRPR0FPUVZmSzNTTkxMYTFjaTBJU3FnNW4wRUV1cDRJaXlJT3hmck5CLVc3TW53UFYtcnE5TGNwa01mcVgtdVk3S1Q2QTNrNGYwYmt0SUJ5NVhV,English,,3,2015-09-15,daniël bosold,,setup is in no way ready for prime time,,
Password Store (beta),Google Play,com.zeapo.pwdstore,Z3A6QU9xcFRPR0FPUVZmSzNTTkxMYTFjaTBJU3FnNW4wRUV1cDRJaXlJT3hmck5CLVc3TW53UFYtcnE5TGNwa01mcVgtdVk3S1Q2QTNrNGYwYmt0SUJ5NVhV,English,,3,2015-09-15,daniël bosold,,definitely this,,
Password Store (beta),Google Play,com.zeapo.pwdstore,Z3A6QU9xcFRPRWNuNWgyZDgzVTlQdFlNZWRnczFLS0NLVkpQdmE1NnRTWlZodVFXOWNPVkVjcTRYdDRDSUxnVElGdmQ0dHptcWRjaURqX29BUzlVdV90WnFZ,English,,5,2015-09-11,Patrick Fain,I love it!,work great,,
Password Store (beta),Google Play,com.zeapo.pwdstore,Z3A6QU9xcFRPRWNuNWgyZDgzVTlQdFlNZWRnczFLS0NLVkpQdmE1NnRTWlZodVFXOWNPVkVjcTRYdDRDSUxnVElGdmQ0dHptcWRjaURqX29BUzlVdV90WnFZ,English,,5,2015-09-11,Patrick Fain,I love it!,now all my password are synced between all my device and,,
Password Store (beta),Google Play,com.zeapo.pwdstore,Z3A6QU9xcFRPRU9Hb1lsSFNJaHo5RE9SSnNyRnNTNWxVOGZBNjdmMkdtNmtEY1Q3Q3F6bkUzeG1PN0xNRjE5Q3ZqZ3p0OUczaVV0TC1rWmtJX2VLRjNXQ25v,English,,3,2015-09-02,Carl Bingel,,work a little counter intuitive setup procedure but once is completed it work fine,,
Password Store (beta),Google Play,com.zeapo.pwdstore,Z3A6QU9xcFRPRU9Hb1lsSFNJaHo5RE9SSnNyRnNTNWxVOGZBNjdmMkdtNmtEY1Q3Q3F6bkUzeG1PN0xNRjE5Q3ZqZ3p0OUczaVV0TC1rWmtJX2VLRjNXQ25v,English,,3,2015-09-02,Carl Bingel,,what is really missing is the possibility to edit already existing,,
Password Store (beta),Google Play,com.zeapo.pwdstore,Z3A6QU9xcFRPRU9Hb1lsSFNJaHo5RE9SSnNyRnNTNWxVOGZBNjdmMkdtNmtEY1Q3Q3F6bkUzeG1PN0xNRjE5Q3ZqZ3p0OUczaVV0TC1rWmtJX2VLRjNXQ25v,English,,3,2015-09-02,Carl Bingel,,people do change password occasionally,,
Password Store (beta),Google Play,com.zeapo.pwdstore,Z3A6QU9xcFRPR2hsUjAtc2FzeFdSUVFjbzlBYlNfQk1nbjI4YTBuVGhvM00xX2FZX2lPWnpTOFdWdWFldXlOYWJZTGZSYTZOWWw0OFdLTmtLZUZLUHYyMnlF,English,,1,2015-08-14,Arron Finnon,"Wow, fubar",how did you manage to screw your nice and easy to use into a mess of confusion,,
Password Store (beta),Google Play,com.zeapo.pwdstore,Z3A6QU9xcFRPR2hsUjAtc2FzeFdSUVFjbzlBYlNfQk1nbjI4YTBuVGhvM00xX2FZX2lPWnpTOFdWdWFldXlOYWJZTGZSYTZOWWw0OFdLTmtLZUZLUHYyMnlF,English,,1,2015-08-14,Arron Finnon,"Wow, fubar",constructively you need to simplify the process,,
Password Store (beta),Google Play,com.zeapo.pwdstore,Z3A6QU9xcFRPR2hsUjAtc2FzeFdSUVFjbzlBYlNfQk1nbjI4YTBuVGhvM00xX2FZX2lPWnpTOFdWdWFldXlOYWJZTGZSYTZOWWw0OFdLTmtLZUZLUHYyMnlF,English,,1,2015-08-14,Arron Finnon,"Wow, fubar",connect to existing remote nice an simple button,,
Password Store (beta),Google Play,com.zeapo.pwdstore,Z3A6QU9xcFRPR2hsUjAtc2FzeFdSUVFjbzlBYlNfQk1nbjI4YTBuVGhvM00xX2FZX2lPWnpTOFdWdWFldXlOYWJZTGZSYTZOWWw0OFdLTmtLZUZLUHYyMnlF,English,,1,2015-08-14,Arron Finnon,"Wow, fubar",none of this clone rubbish,,
