Topic Index 1,Topic Index 2,Topic Similarity
10,11,0.030000000000000002
15,8,0.028900000000000002
17,3,0.021599999999999998
7,13,0.0208
2,2,0.016499999999999997
6,10,0.0162
4,12,0.014299999999999998
5,5,0.012
16,18,0.012
0,15,0.011699999999999999
9,4,0.0112
11,16,0.008400000000000001
1,0,0.0
3,1,0.0
8,6,0.0
12,7,0.0
13,9,0.0
14,14,0.0
18,17,0.0
19,19,0.0
