Topic Index 1,Topic Index 2,Topic Similarity
15,17,0.27270000000000005
2,11,0.24550000000000002
9,19,0.23800000000000007
7,0,0.22270000000000004
4,1,0.207
10,12,0.19399999999999998
17,9,0.1839
11,5,0.1805
18,13,0.1748
0,16,0.1457
16,14,0.1444
6,15,0.13499999999999998
3,18,0.09280000000000001
14,7,0.072
1,2,0.0
5,3,0.0
8,4,0.0
12,6,0.0
13,8,0.0
19,10,0.0
