Topic Index 1,Topic Index 2,Topic Similarity
6,19,0.044000000000000004
9,1,0.041
4,0,0.036899999999999995
5,3,0.034999999999999996
12,2,0.0349
3,9,0.0315
14,18,0.0299
7,14,0.0288
15,4,0.027200000000000005
16,13,0.0243
1,6,0.022
18,7,0.022
10,8,0.0209
2,15,0.018
11,10,0.0176
0,16,0.0144
8,5,0.0
13,11,0.0
17,12,0.0
19,17,0.0
