Topic Index 1,Topic Index 2,Topic Similarity
4,0,5.263157894736842
6,2,5.263157894736842
7,3,5.263157894736842
9,1,5.263157894736842
12,5,5.263157894736842
15,4,5.263157894736842
17,6,5.263157894736842
0,7,0.0
1,8,0.0
2,9,0.0
3,10,0.0
5,11,0.0
8,12,0.0
10,13,0.0
11,14,0.0
13,15,0.0
14,16,0.0
16,17,0.0
18,18,0.0
19,19,0.0
