package,release ID,UI element,related topic,average polarity,# reviews,average rating,average objectivity,# uninstalls,delta rating,element deleted next release
org.addhen.smssync,v2.8.0,@+id/sync_data_format$,450,0.25,1,2.0,0.49000000000000005,0,-1.1785714285714284,0
org.addhen.smssync,v2.8.0,@+id/sync_kDeviceID$,457,0.25,1,2.0,0.49000000000000005,0,-1.1785714285714284,0
org.addhen.smssync,v2.8.0,@+id/sync_title$,464,0.25,1,2.0,0.49000000000000005,0,-1.1785714285714284,0
org.addhen.smssync,v2.8.0,@+id/sync_kMessage$,466,0.25,1,2.0,0.49000000000000005,0,-1.1785714285714284,0
org.addhen.smssync,v2.8.0,@+id/sms_portal_prompt_view$description,470,0.25,1,2.0,0.49000000000000005,0,-1.1785714285714284,0
org.addhen.smssync,v2.8.0,@string/sync_scheme_data_format$,475,0.25,1,2.0,0.49000000000000005,0,-1.1785714285714284,0
org.addhen.smssync,v2.8.0,@+id/sync_url$,480,0.25,2,2.0,0.49000000000000005,0,-1.1785714285714284,0
org.addhen.smssync,v2.8.0,@+id/sync_button$sync,485,0.25,1,2.0,0.49000000000000005,0,-1.1785714285714284,0
org.addhen.smssync,v2.8.0,@+id/sync_secret$,490,0.25,1,2.0,0.49000000000000005,0,-1.1785714285714284,0
org.addhen.smssync,v2.8.0,@+id/details_sync_progress$,498,0.25,1,2.0,0.49000000000000005,0,-1.1785714285714284,0
org.addhen.smssync,v2.8.0,@+id/sync_url_keyword$,501,0.25,1,2.0,0.49000000000000005,0,-1.1785714285714284,0
org.addhen.smssync,v2.8.0,@string/sync_scheme_keys$,509,0.25,1,2.0,0.49000000000000005,0,-1.1785714285714284,0
org.addhen.smssync,v2.8.0,@+id/start_checkbox$chk_enable_sms_sync,512,0.25,1,2.0,0.49000000000000005,0,-1.1785714285714284,0
org.addhen.smssync,v2.8.0,@+id/sync_kMessageID$,519,0.25,1,2.0,0.49000000000000005,0,-1.1785714285714284,0
org.addhen.smssync,v2.8.0,@+id/appwidget_settings$,523,0.25,1,2.0,0.49000000000000005,0,-1.1785714285714284,0
org.addhen.smssync,v2.8.0,@+id/sync_method$,525,0.25,1,2.0,0.49000000000000005,0,-1.1785714285714284,0
org.addhen.smssync,v2.8.0,@string/sync_scheme_method$,530,0.25,1,2.0,0.49000000000000005,0,-1.1785714285714284,0
org.addhen.smssync,v2.8.0,@+id/sync_checkbox$,535,0.25,1,2.0,0.49000000000000005,0,-1.1785714285714284,0
org.addhen.smssync,v2.8.0,@+id/sync_url_secret$,544,0.25,1,2.0,0.49000000000000005,0,-1.1785714285714284,0
org.addhen.smssync,v2.8.0,@+id/sync_kSentTimestamp$,548,0.25,1,2.0,0.49000000000000005,0,-1.1785714285714284,0
org.addhen.smssync,v2.8.0,@+id/details_sync_label$,550,0.25,1,2.0,0.49000000000000005,0,-1.1785714285714284,0
org.addhen.smssync,v2.8.0,@+id/sync_kSentTo$,555,0.25,1,2.0,0.49000000000000005,0,-1.1785714285714284,0
org.addhen.smssync,v2.8.0,@+id/sync_keyword$,561,0.25,1,2.0,0.49000000000000005,0,-1.1785714285714284,0
org.addhen.smssync,v2.8.0,@+id/sync_kSecret$,565,0.25,1,2.0,0.49000000000000005,0,-1.1785714285714284,0
org.addhen.smssync,v2.8.0,@+id/sync_url_title$,570,0.25,1,2.0,0.49000000000000005,0,-1.1785714285714284,0
org.addhen.smssync,v2.8.0,@+id/sync_kFrom$,577,0.25,1,2.0,0.49000000000000005,0,-1.1785714285714284,0
