App,Store,App ID,Review ID,Country,Version,Rating,Date,Author,Subject,Body,Translated Subject,Translated Body
MIFARE Classic Tool - MCT,Google Play,de.syss.MifareClassicTool,Z3A6QU9xcFRPRkFRcWlwQ09zcHlhckJ6dDRuaGpkcUItWGdsVlZlanVlQndIdndQVWlPUW5ZWXo3MWVCcTdLVjNQeWhrbXYyMGVlT1lpR2VjNk9hWXJJa3c,English,,3,2017-04-25,Makoi Monserrat,,at first it work fine,,
MIFARE Classic Tool - MCT,Google Play,de.syss.MifareClassicTool,Z3A6QU9xcFRPRkFRcWlwQ09zcHlhckJ6dDRuaGpkcUItWGdsVlZlanVlQndIdndQVWlPUW5ZWXo3MWVCcTdLVjNQeWhrbXYyMGVlT1lpR2VjNk9hWXJJa3c,English,,3,2017-04-25,Makoi Monserrat,,i can data then all of a sudden l tried to increment value,,
MIFARE Classic Tool - MCT,Google Play,de.syss.MifareClassicTool,Z3A6QU9xcFRPRkFRcWlwQ09zcHlhckJ6dDRuaGpkcUItWGdsVlZlanVlQndIdndQVWlPUW5ZWXo3MWVCcTdLVjNQeWhrbXYyMGVlT1lpR2VjNk9hWXJJa3c,English,,3,2017-04-25,Makoi Monserrat,,then after that i try to read or clone from dump it always show the same message,,
MIFARE Classic Tool - MCT,Google Play,de.syss.MifareClassicTool,Z3A6QU9xcFRPRnl1NldfQmdvcC1Va05oN1lsT1BEVmxKaE12OHlPVGxwQ3k5aXJqSTFXZmxubTV5TDNMM1p1U2hQODRubS1vaDBuaFJoSkdJNy1ma2dqWnc,English,,5,2016-10-13,Smb Smth,Excellent,work described,,
MIFARE Classic Tool - MCT,Google Play,de.syss.MifareClassicTool,Z3A6QU9xcFRPRnl1NldfQmdvcC1Va05oN1lsT1BEVmxKaE12OHlPVGxwQ3k5aXJqSTFXZmxubTV5TDNMM1p1U2hQODRubS1vaDBuaFJoSkdJNy1ma2dqWnc,English,,5,2016-10-13,Smb Smth,Excellent,are there difference between mobile and dedicated reader,,
MIFARE Classic Tool - MCT,Google Play,de.syss.MifareClassicTool,Z3A6QU9xcFRPRTFEc3k0emVFZ3Yya3pQTFBaYnk0YnZzbFRZSVRVeFRrRWFOT2RxckVxVVY3UDZzeFBFbXZONkN4SS1ZQUNaM0hFMEhpVjlXS3p2cGhVN0E,English,,5,2016-03-21,PP MM,,great,,
MIFARE Classic Tool - MCT,Google Play,de.syss.MifareClassicTool,Z3A6QU9xcFRPSHJPY3ViblVUZEtRbnFSSnBKOTYzbFBmRHN6MXVvZml3ZjdHZDR6TU5qNXIzOGQ2Yk5iNUkzVjlFY2twZm9GOG1jMER4NW5HVnJpWHlISHc,English,,2,2016-03-11,Jacopo Volpin,It shows the mifare classic tag,using galaxy mini,,
MIFARE Classic Tool - MCT,Google Play,de.syss.MifareClassicTool,Z3A6QU9xcFRPSHJPY3ViblVUZEtRbnFSSnBKOTYzbFBmRHN6MXVvZml3ZjdHZDR6TU5qNXIzOGQ2Yk5iNUkzVjlFY2twZm9GOG1jMER4NW5HVnJpWHlISHc,English,,2,2016-03-11,Jacopo Volpin,It shows the mifare classic tag,i kept trying to read the tag now the is not recognizing anymore the card,,
MIFARE Classic Tool - MCT,Google Play,de.syss.MifareClassicTool,Z3A6QU9xcFRPR3lPazlSV1Y0Z1VXYnJxVVF5M2tzX1gyRG16aHBzYWRYSGZvdHRLWG5hUVVuS0hDYkp5UVg4cjNJdFc1UV8wdmUySjR5WXhGdGt0V1RMREE,English,,5,2016-03-11,Peedor Vlad,Works like a charn,thank you for the great,,
MIFARE Classic Tool - MCT,Google Play,de.syss.MifareClassicTool,Z3A6QU9xcFRPR3lPazlSV1Y0Z1VXYnJxVVF5M2tzX1gyRG16aHBzYWRYSGZvdHRLWG5hUVVuS0hDYkp5UVg4cjNJdFc1UV8wdmUySjR5WXhGdGt0V1RMREE,English,,5,2016-03-11,Peedor Vlad,Works like a charn,very powerful tool and no ad,,
MIFARE Classic Tool - MCT,Google Play,de.syss.MifareClassicTool,Z3A6QU9xcFRPR3lPazlSV1Y0Z1VXYnJxVVF5M2tzX1gyRG16aHBzYWRYSGZvdHRLWG5hUVVuS0hDYkp5UVg4cjNJdFc1UV8wdmUySjR5WXhGdGt0V1RMREE,English,,5,2016-03-11,Peedor Vlad,Works like a charn,great work,,
