Topic Index 1,Topic Index 2,Topic Similarity
3,5,11.11111111111111
6,0,11.11111111111111
0,16,5.263157894736842
1,1,5.263157894736842
4,2,5.263157894736842
7,15,5.263157894736842
11,12,5.263157894736842
12,10,5.263157894736842
17,6,5.263157894736842
18,11,5.263157894736842
19,7,5.263157894736842
2,3,0.0
5,4,0.0
8,8,0.0
9,9,0.0
10,13,0.0
13,14,0.0
14,17,0.0
15,18,0.0
16,19,0.0
