Topic Index 1,Topic Index 2,Topic Similarity
0,10,17.647058823529413
2,5,11.11111111111111
6,18,11.11111111111111
9,7,11.11111111111111
15,0,11.11111111111111
1,2,5.263157894736842
3,13,5.263157894736842
4,15,5.263157894736842
5,8,5.263157894736842
7,1,5.263157894736842
8,6,5.263157894736842
10,17,5.263157894736842
12,12,5.263157894736842
13,16,5.263157894736842
16,3,5.263157894736842
17,19,5.263157894736842
11,4,0.0
14,9,0.0
18,11,0.0
19,14,0.0
