Topic Index 1,Topic Index 2,Topic Similarity
0,16,17.647058823529413
1,0,17.647058823529413
3,13,11.11111111111111
6,5,11.11111111111111
7,12,11.11111111111111
8,3,11.11111111111111
9,7,11.11111111111111
12,15,11.11111111111111
18,19,11.11111111111111
2,4,5.263157894736842
5,10,5.263157894736842
10,1,5.263157894736842
11,8,5.263157894736842
13,2,5.263157894736842
14,6,5.263157894736842
15,14,5.263157894736842
17,17,5.263157894736842
19,9,5.263157894736842
4,11,0.0
16,18,0.0
