Topic Index 1,Topic Index 2,Topic Similarity
0,2,11.11111111111111
1,8,11.11111111111111
2,15,11.11111111111111
3,19,11.11111111111111
4,0,11.11111111111111
10,16,11.11111111111111
11,11,11.11111111111111
5,3,5.263157894736842
6,18,5.263157894736842
8,4,5.263157894736842
12,5,5.263157894736842
15,10,5.263157894736842
17,14,5.263157894736842
18,17,5.263157894736842
7,1,0.0
9,6,0.0
13,7,0.0
14,9,0.0
16,12,0.0
19,13,0.0
