Topic Index 1,Topic Index 2,Topic Similarity
0,2,5.555555555555555
1,8,5.555555555555555
2,9,5.555555555555555
3,12,5.555555555555555
4,16,5.555555555555555
5,0,0.0
6,1,0.0
7,3,0.0
8,4,0.0
9,5,0.0
10,6,0.0
11,7,0.0
12,10,0.0
13,11,0.0
14,13,0.0
15,14,0.0
16,15,0.0
17,17,0.0
18,18,0.0
19,19,0.0
