Topic Index 1,Topic Index 2,Topic Similarity
6,3,17.647058823529413
9,4,17.647058823529413
13,6,17.647058823529413
15,11,17.647058823529413
0,7,11.11111111111111
3,14,11.11111111111111
4,8,11.11111111111111
7,13,11.11111111111111
12,12,11.11111111111111
16,1,11.11111111111111
5,5,5.263157894736842
10,0,5.263157894736842
17,16,5.263157894736842
18,15,5.263157894736842
19,2,5.263157894736842
1,9,0.0
2,10,0.0
8,17,0.0
11,18,0.0
14,19,0.0
