Topic Index 1,Topic Index 2,Topic Similarity
3,0,17.647058823529413
13,4,17.647058823529413
17,10,17.647058823529413
0,1,11.11111111111111
1,19,11.11111111111111
5,8,11.11111111111111
10,2,11.11111111111111
14,14,11.11111111111111
2,6,5.263157894736842
4,7,5.263157894736842
6,18,5.263157894736842
7,3,5.263157894736842
11,16,5.263157894736842
12,11,5.263157894736842
15,12,5.263157894736842
18,13,5.263157894736842
8,5,0.0
9,9,0.0
16,15,0.0
19,17,0.0
