or in curry,o,2015-01-03,Phantom Haranguer,2
doe not work with feed,b,2015-01-03,Florian Franzen,1
no image shown,b,2015-01-03,Florian Franzen,1
the new icon are huge,b,2015-01-03,Benjamin Long,4
feed are preloaded so you can read even going,f,2015-01-03,Ingo Steinke,4
update new list icon annoy on small screen,b,2015-01-03,Ingo Steinke,4
simple and effective,o,2015-01-03,Kenny Ranerup,5
