changed translation added missing string,b,2014/9/29,,
fix possible but rare crash,b,2014/9/28,,
adapt localization to reflect name change,b,2014/9/27,,
,o,2014/9/27,,
change name into,b,2014/9/27,,
fix error,b,2014/9/27,,
update,b,2014/9/27,,
change name into,b,2014/9/27,,
change name into,b,2014/9/27,,
