Topic Index 1,Topic Index 2,Topic Similarity
7,1,0.1186
13,0,0.0714
15,17,0.0712
14,9,0.06020000000000001
1,2,0.051000000000000004
4,4,0.0495
8,13,0.0437
10,6,0.042
11,7,0.0414
12,11,0.037399999999999996
18,16,0.0361
0,18,0.032
5,15,0.032
6,10,0.0247
2,3,0.0
3,5,0.0
9,8,0.0
16,12,0.0
17,14,0.0
19,19,0.0
