add cropping to,v2.0.2,2014/12/27,,
add external contribution to about body,v2.0.2,2014/12/19,,
however by utilizing we can retrieve the current width and height prior to allowing u to move the scaling from,v2.0.2,2014/12/18,,
use for fling animation by default slows down the fling it approach the end point,v2.0.2,2014/11/30,,
this also enables a separate file for wearable and add proper support,v2.0.2,2014/11/24,,
make some space for scrollbars in the archive site,v2.0.2,2014/11/23,,
a bunch more archive improvement almost there,v2.0.2,2014/11/23,,
ensure wear action are marked a not available action that trigger on the should be marked a unavailable the wear device is unattached,v2.0.2,2014/11/12,,
add basic support to layout replaces instance of with to declare initial support for layout,v2.0.2,2014/10/12,,
add swipe to archive,v2.0.2,2014/7/03,,
minor improvement,v2.0.2,2014/7/03,,
archive,v2.0.2,2014/6/19,,
for activate button,v2.0.2,2014/2/13,,
only create the recomputing,v2.1.1,2015/9/01,,
