i downloaded it on my and now on my phone,b,2014-06-22,Jodi Euchner,5
nice,o,2014-06-22,Jodi Euchner,5
update the this is hard to use,b,2014-06-22,Yarn Nutt,4
size also effect the project page,b,2014-06-22,Yarn Nutt,4
save etc button are hard to see,b,2014-06-22,Yarn Nutt,4
this is a great,o,2014-06-22,Yarn Nutt,4
thanks for this,o,2014-06-22,Yarn Nutt,4
