small code cleanup,b,2014/6/19,,
close counting activity in case of database error,b,2014/6/19,,
fixed crash caused by failure to enter alert value modified landscape layout for counting to give greater weight to count,b,2014/6/19,,
added missing save button to count option landscape layout,f,2014/6/19,,
added save message fixed zero hint,b,2014/6/19,,
the plus and minus sign on the count button have been made clearer,b,2014/6/19,,
