move and to screen,b,2016/5/28,,
,o,2016/5/28,,
fix bug caused not to update sometimes,b,2016/5/27,,
create and move most code from fragment to it,b,2016/5/27,,
and preference,o,2016/5/26,,
reorganize file tree according to feature,o,2016/5/26,,
bump version to 154,b,2016/5/25,,
update sync protocol,b,2016/5/22,,
update translation,b,2016/5/22,,
remove associated preference deleting widget,b,2016/5/22,,
remove field from this caused a bug multiple widget had different size,b,2016/5/22,,
the size of the last widget would be used in all of them,b,2016/5/22,,
fix crash habit with reminder have short name fix 109,b,2016/5/22,,
bump version to 153,b,2016/5/22,,
update test,b,2016/5/19,,
update,b,2016/5/19,,
update translation,b,2016/5/19,,
trim habit name on log file,b,2016/5/19,,
fix on,b,2016/5/19,,
send bug report on the body of email instead of attachment,b,2016/5/19,,
bump version to 152,b,2016/5/19,,
emit object instead of string,b,2016/5/19,,
update version and,b,2016/5/17,,
use encrypted connection to server,b,2016/5/16,,
persist pending event to database,f,2016/5/16,,
fetch command last sync,b,2016/5/14,,
sync remaining command,b,2016/5/14,,
sync command,b,2016/5/14,,
first version of sync feature,b,2016/5/14,,
update,b,2016/5/15,,
update view test,b,2016/5/15,,
remove this wa causing problem some launcher completely ignore minimum widget size,b,2016/5/15,,
widget were too small the text started to overflow,b,2016/5/15,,
bump version to 150,b,2016/5/13,,
minor change to widget color,b,2016/5/13,,
update,b,2016/5/13,,
update introduction,b,2016/5/13,,
keep name of the consistent across translation,b,2016/5/13,,
add new translation and update list of contributor,f,2016/5/13,,
update translation,b,2016/5/13,,
ignore some branch,f,2016/5/13,,
fix up navigation opening the from widget fix 94,b,2016/5/11,,
install compiling,b,2016/5/08,,
make frequency text more natural,o,2016/5/08,,
increase default amount of memory for,b,2016/5/08,,
update version,b,2016/5/08,,
make use custom interval also on widget,b,2016/5/01,,
show larger ripple toggling check mark close 78,b,2016/5/01,,
small change to,b,2016/4/30,,
fix widget color and size,b,2016/4/30,,
update,b,2016/4/30,,
update test,b,2016/4/30,,
bump version,b,2016/4/26,,
minor change,b,2016/4/29,,
fix icon color and remove some warning,b,2016/4/29,,
show more information on score overview,o,2016/4/29,,
alternative design for header bar,b,2016/4/29,,
fix some crash on widget,b,2016/4/27,,
bump version,b,2016/4/26,,
update widget preview,b,2016/4/26,,
fix transparency on widget,b,2016/4/25,,
tweak transparency and color,f,2016/4/25,,
use dark theme for widget color,f,2016/4/22,,
show multiple line on check mark widget,b,2016/4/22,,
fix test for setting screen,b,2016/4/24,,
switch to fix test,b,2016/4/24,,
extract some move definition to correct file fix 81,b,2016/4/21,,
fix failed view test,b,2016/4/20,,
customize action mode color,f,2016/4/20,,
switch to and fragment,b,2016/4/19,,
fix spinner on,b,2016/4/19,,
fix border on,b,2016/4/19,,
show shadow on,o,2016/4/19,,
improve setting screen,b,2016/4/19,,
fix dialog border,b,2016/4/19,,
switch to,b,2016/4/13,,
use instead of,b,2016/4/13,,
update padding on widget,b,2016/4/16,,
minor layout improvement for,f,2016/4/16,,
fix blinking updating widget,b,2016/4/16,,
draw separate widget for landscape and portrait mode fix 76,b,2016/4/16,,
remove debug message,b,2016/4/16,,
add for night mode,f,2016/4/15,,
remove warning palette cannot be found,b,2016/4/15,,
minor typo,b,2016/4/15,,
fix invisible text on widget,b,2016/4/15,,
replace icon with material icon fix 9,b,2016/4/15,,
fix action icon,b,2016/4/15,,
add option for night mode,f,2016/4/13,,
add fade transition switching theme,f,2016/4/13,,
update test for custom view,b,2016/4/12,,
code cleanup,b,2016/4/12,,
do not use habit color primary color on dark theme,f,2016/4/10,,
fix ripple on,b,2016/4/10,,
update,b,2016/4/09,,
widget show error message instead of crashing,b,2016/4/09,,
bump version to 141,b,2016/4/09,,
update translation,b,2016/4/09,,
