update widget in background,b,2016/3/11,,
fix test on device,b,2016/3/11,,
test habit,b,2016/3/11,,
implement basic user interface test,b,2016/3/11,,
use white background on instead of ripple,b,2016/3/11,,
remove hack,b,2016/3/11,,
show color button even for a single habit,f,2016/3/11,,
rename header to update translation,b,2016/3/10,,
fix timezone rename class to,b,2016/3/10,,
update,b,2016/3/09,,
add broadcast receiver to,f,2016/3/08,,
refresh also main activity history editor close,b,2016/3/08,,
handle configuration change,b,2016/3/08,,
refresh data closing history editor,b,2016/3/08,,
make history editor functional,b,2016/3/08,,
update copyright notice in all file,b,2016/3/07,,
simplify list adapter,f,2016/3/07,,
move more method to helper,b,2016/3/07,,
update translation,b,2016/3/07,,
remove setting menu from,b,2016/3/06,,
implement about screen,b,2016/3/06,,
move method to helper,b,2016/3/05,,
further simplify,o,2016/3/05,,
minor formatting,b,2016/3/05,,
use equal instead of operator,b,2016/3/05,,
throw exception trying to undo deletion of habit,b,2016/3/05,,
bump version to 120,b,2016/3/04,,
fix position for new habit,b,2016/3/04,,
fix card background,b,2016/3/04,,
show action icon on,b,2016/3/04,,
fix data export on older device,b,2016/3/04,,
add padding to,f,2016/3/04,,
update widget and reminder on faster startup,b,2016/3/04,,
fix incorrect streak,b,2016/3/04,,
