append git commit id to,f,2015/9/16,,
translation updated,f,2015/9/16,,
cleaning abbreviated name of variable expanded to be more clear for source code reader,b,2015/9/16,,
version name incremented to 193 all user including beta tester will clearly see a difference between release,b,2015/9/16,,
second step of renaming completed,o,2015/9/12,,
version incremented for the next release,f,2015/9/12,,
199 fixed ongoing event show wrong start time,b,2015/9/12,,
translation updated,f,2015/9/03,,
version incremented,f,2015/9/03,,
test fixed,b,2015/9/03,,
177 remove magic constant,o,2015/9/01,,
refactoring calendar event separated from widget entry,b,2015/9/01,,
supposedly fixed 184 188 and 194,b,2015/9/01,,
all test passed,b,2015/9/01,,
three bug are reproduced by test 186 188 and 194,b,2015/8/31,,
fix spelling for,b,2015/8/27,,
correct link to,b,2015/8/26,,
update to reflect current development,b,2015/8/26,,
bump version name to 191 and version code to 27,b,2015/8/26,,
191 fixed for recurring event one occurrence wa shown,b,2015/8/26,,
180 fixed potential using,b,2015/8/26,,
