i like this simple and good,o,2015-08-25,Yuvraj Rajguru,4
now this ha a for all task for both background n text,b,2015-08-25,Yuvraj Rajguru,4
if you provide to select background n text for each task creating a new it will be more effective n easy to identify task by,o,2015-08-25,Yuvraj Rajguru,4
also need sticker same are in my calendar,o,2015-08-25,Yuvraj Rajguru,4
then it will be a great,o,2015-08-25,Yuvraj Rajguru,4
i like this widget,b,2015-08-25,Perry Dick,3
i am not sure if it changed or i never noticed but there is one thing doe not work for me,b,2015-08-25,Perry Dick,3
i do not see it on the or following day,o,2015-08-25,Perry Dick,3
my favorite widget ever the update broke recurring event,b,2015-08-25,Erica Paige,1
please fix,b,2015-08-25,Erica Paige,1
please fix this,b,2015-08-25,Ignasius David,3
i lived off of it,f,2015-08-24,Kathya Alvarenga,1
will change rating once it get but might go out searching for the runner up,b,2015-08-24,Kathya Alvarenga,1
loved the recent update,b,2015-08-24,Sarah Morgan,2
please fix asap,b,2015-08-24,Sarah Morgan,2
i switched phone and missed my calendar widget wa the weekly agenda,b,2015-08-24,Alexandra H,5
this widget is better the one i had,b,2015-08-24,Alexandra H,5
and it work with the calendar no worry there,o,2015-08-24,Alexandra H,5
best minimal calendar,b,2015-08-24,Joey Silva,5
why pay for a calendar widget you can get this beauty,b,2015-08-24,Elina Jansezian,5
i love it,o,2015-08-24,Elina Jansezian,5
i just needed something to see my whole weekly schedule and this doe just looking great,o,2015-08-23,Coyote Strider,4
is there a way to change this,b,2015-08-23,Coyote Strider,4
requesting for an option to turn off the past event,f,2015-08-23,Venkatesh Velmani,4
it broke,b,2015-08-23,Darren Page,3
unfortunately for you i have no and done,b,2015-08-23,Darren Page,3
fix the reoccurring event mess in the widget,b,2015-08-23,all adam,1
really like this,o,2015-08-23,Terry Watts,5
the layout is exactly what i wanted,o,2015-08-23,Terry Watts,5
,o,2015-08-23,Terry Watts,5
can we also have an option of entire event background being colored in the event color please,f,2015-08-22,Vivek Srivastav,4
everything work perfect,o,2015-08-22,Zilla Visuals,4
except the update,b,2015-08-22,Zilla Visuals,4
with the new version you added the refresh which is,b,2015-08-22,Zilla Visuals,4
but the update should be i think the widget must hear some broadcast sent by android indicating calendar update and in case update the widget,b,2015-08-22,Zilla Visuals,4
really like this calendar widget but for a event it now show an entry for it on the past start date,b,2015-08-22,Jeff Llewellyn,4
i can change the highlighting but cannot see how to it completely,b,2015-08-22,Jeff Llewellyn,4
better any widget from or,b,2015-08-21,Chris Fischer,5
work with all my calendar,o,2015-08-21,Chris Fischer,5
great update,b,2015-08-21,David Newman,5
thanks,o,2015-08-21,David Newman,5
the last update added the functionality i wa missing,b,2015-08-21,Antonios Roussos,5
this widget is great,b,2015-08-20,Joshua Akins,5
i love it simple sleek design,o,2015-08-20,Joshua Akins,5
it recently ha an update it hide repeating but can show and indicator that it repeat,b,2015-08-20,Joshua Akins,5
i actually liked being able to see all of the one repeated,o,2015-08-20,Joshua Akins,5
could there be an on and off switch for something like that,b,2015-08-20,Joshua Akins,5
