Topic Index 1,Topic Index 2,Topic Similarity
4,13,2.0
19,17,2.0
0,19,1.0
1,3,1.0
2,0,1.0
3,15,1.0
8,5,1.0
10,12,1.0
11,4,1.0
12,9,1.0
13,7,1.0
14,14,1.0
15,11,1.0
16,1,1.0
5,2,0.0
6,6,0.0
7,8,0.0
9,10,0.0
17,16,0.0
18,18,0.0
