Topic,Words
0,0.075*jag,0.063*55,0.058*man,0.056*otherwise,0.049*all,0.040*the,0.035*hr,0.030*fr,0.030*transactions,0.028*can
1,0.107*show,0.060*o,0.059*55,0.053*if,0.048*trying,0.044*d,0.042*med,0.039*blame,0.038*en,0.037*den
2,0.063*good,0.060*up,0.056*med,0.053*trying,0.051*show,0.048*till,0.043*refresh,0.036*var,0.033*fr,0.032*the
3,0.098*men,0.077*man,0.061*otherwise,0.049*blame,0.039*security,0.037*banks,0.037*bank,0.032*en,0.032*a,0.032*crashes
4,0.090*a,0.075*s,0.068*geared,0.062*d,0.051*om,0.050*gr,0.037*hr,0.035*tighten,0.035*when,0.035*fr
5,0.079*jag,0.071*here,0.067*gr,0.048*not,0.046*mer,0.045*refresh,0.045*d,0.045*s,0.039*man,0.036*trying
6,0.073*cause,0.071*when,0.061*55,0.045*trying,0.043*dock,0.041*den,0.037*crashes,0.033*i,0.032*jag,0.032*g
7,0.148*banks,0.063*refresh,0.052*to,0.047*transactions,0.045*hr,0.042*up,0.039*a,0.039*very,0.039*men,0.037*trying
8,0.074*good,0.063*55,0.059*cause,0.046*refresh,0.044*o,0.044*s,0.043*to,0.042*med,0.041*of,0.041*very
9,0.145*o,0.097*den,0.054*to,0.052*en,0.050*fr,0.043*till,0.042*bank,0.034*blame,0.033*the,0.031*crashes
10,0.088*fr,0.077*when,0.065*a,0.061*here,0.061*man,0.044*very,0.041*g,0.039*mer,0.037*d,0.036*security
11,0.078*en,0.072*man,0.071*blame,0.068*can,0.066*cause,0.054*till,0.049*fr,0.045*bank,0.045*55,0.034*security
12,0.091*all,0.066*till,0.061*good,0.061*security,0.055*g,0.052*55,0.045*var,0.045*jag,0.041*o,0.041*show
13,0.102*all,0.079*when,0.059*g,0.054*crashes,0.048*man,0.043*var,0.038*not,0.036*the,0.035*very,0.035*if
14,0.074*banks,0.073*a,0.062*of,0.046*mer,0.044*o,0.040*good,0.037*otherwise,0.036*bank,0.035*var,0.035*up
15,0.073*den,0.062*all,0.055*of,0.053*good,0.050*gr,0.050*o,0.045*bank,0.043*banks,0.041*cause,0.032*mer
16,0.078*den,0.073*to,0.069*s,0.059*can,0.055*med,0.054*changes,0.046*men,0.040*otherwise,0.037*be,0.036*security
17,0.067*d,0.059*good,0.053*trying,0.049*changes,0.045*of,0.042*en,0.041*otherwise,0.041*var,0.040*55,0.039*dock
18,0.083*banks,0.081*gr,0.056*otherwise,0.052*refresh,0.043*the,0.041*security,0.040*good,0.035*s,0.035*fr,0.035*men
19,0.060*hr,0.058*med,0.058*man,0.053*otherwise,0.049*blame,0.047*fr,0.039*not,0.039*o,0.034*local,0.030*all
