Topic,Words
0,0.114*i,0.041*days,0.038*error,0.038*be,0.030*stop,0.029*r,0.025*crashes,0.025*nor,0.023*of,0.021*banks
1,0.045*play,0.044*galaxy,0.035*changes,0.031*with,0.030*of,0.030*developer,0.029*i,0.028*men,0.024*anymore,0.022*stop
2,0.051*null,0.044*open,0.041*you,0.033*widgets,0.030*used,0.030*but,0.028*an,0.027*their,0.026*use,0.025*not
3,0.060*last,0.047*now,0.043*en,0.042*stopped,0.037*awesome,0.036*till,0.035*stop,0.035*since,0.034*days,0.028*do
4,0.052*use,0.038*jag,0.035*tills,0.033*had,0.031*unfortunately,0.030*stop,0.029*store,0.026*a,0.025*error,0.024*when
5,0.097*widgets,0.050*but,0.047*works,0.041*says,0.028*fr,0.028*i,0.027*few,0.027*account,0.027*with,0.026*store
6,0.052*jag,0.047*now,0.045*whenever,0.041*it,0.041*you,0.040*widget,0.032*their,0.032*not,0.031*or,0.029*nor
7,0.041*i,0.039*s,0.034*null,0.032*last,0.031*it,0.031*crashes,0.030*stopped,0.029*can't,0.026*now,0.025*connect
8,0.038*widgets,0.036*nor,0.033*r,0.032*no,0.031*do,0.030*its,0.028*click,0.027*whenever,0.026*as,0.024*not
9,0.059*but,0.053*s,0.049*with,0.039*r,0.038*and,0.035*of,0.032*its,0.029*unstable,0.028*whenever,0.027*as
10,0.037*change,0.036*is,0.035*widget,0.034*doesn't,0.033*as,0.030*their,0.029*says,0.028*no,0.027*be,0.026*play
11,0.047*nu,0.042*right,0.042*jag,0.035*anymore,0.031*for,0.029*or,0.027*doesn't,0.025*stopped,0.025*their,0.023*a
12,0.066*doesn't,0.049*their,0.045*click,0.045*used,0.038*nu,0.036*widgets,0.035*do,0.033*lately,0.032*not,0.028*connect
13,0.076*of,0.050*widget,0.049*open,0.031*developer,0.029*a,0.028*longer,0.026*to,0.026*tills,0.025*r,0.025*bad
14,0.052*work,0.052*when,0.050*too,0.039*use,0.037*until,0.036*or,0.035*stopped,0.029*anymore,0.027*says,0.027*mer
15,0.043*an,0.042*lately,0.040*or,0.038*quick,0.033*be,0.031*nor,0.029*under,0.028*when,0.028*jag,0.027*whenever
16,0.048*to,0.044*problem,0.034*details,0.033*or,0.030*when,0.028*now,0.027*update,0.025*error,0.023*connect,0.023*anymore
17,0.069*doesn't,0.045*play,0.037*en,0.037*connect,0.036*since,0.032*used,0.031*cant,0.030*s,0.029*quick,0.027*until
18,0.073*change,0.065*when,0.050*tills,0.048*can't,0.040*details,0.032*p,0.030*as,0.029*connect,0.028*or,0.028*open
19,0.067*its,0.039*error,0.037*stopped,0.033*widget,0.032*open,0.031*is,0.030*click,0.029*days,0.024*quick,0.024*working
