Topic,Words
0,0.041*with,0.038*works,0.037*flashing,0.035*so,0.029*just,0.029*even,0.028*tomorrow,0.026*add,0.025*screen,0.022*of
1,0.039*will,0.034*setting,0.026*is,0.024*generic,0.023*money,0.023*option,0.022*very,0.021*just,0.021*on,0.020*but
2,0.046*you,0.045*notices,0.044*med,0.036*but,0.033*have,0.031*problem,0.026*money,0.019*home,0.018*fixed,0.018*will
3,0.046*for,0.043*money,0.031*icon,0.029*tomorrow,0.028*now,0.027*can,0.024*always,0.024*per,0.022*notifications,0.021*useful
4,0.042*problem,0.036*get,0.030*up,0.030*also,0.027*really,0.026*on,0.026*longer,0.024*all,0.024*changed,0.023*how
5,0.037*donation,0.032*no,0.030*generic,0.028*positive,0.027*logging,0.026*removed,0.026*great,0.025*seems,0.024*fixed,0.023*so
6,0.031*add,0.031*new,0.030*seems,0.029*bank,0.025*the,0.025*after,0.022*and,0.019*no,0.019*updating,0.019*some
7,0.061*per,0.030*me,0.027*be,0.027*that,0.026*fr,0.026*positive,0.025*get,0.025*thing,0.024*recently,0.023*right
8,0.061*have,0.037*the,0.033*really,0.032*free,0.029*money,0.024*great,0.019*got,0.019*changed,0.018*option,0.018*as
9,0.036*even,0.035*is,0.031*i,0.031*useful,0.027*when,0.024*accounts,0.023*install,0.023*banker,0.023*money,0.023*overrides
10,0.042*till,0.036*right,0.027*very,0.025*banker,0.025*recently,0.023*got,0.022*work,0.021*tomorrow,0.021*your,0.021*so
11,0.041*flashing,0.037*up,0.033*would,0.033*might,0.032*there,0.031*useful,0.029*moments,0.027*have,0.027*en,0.026*for
12,0.048*problem,0.033*logging,0.029*bank,0.028*changed,0.027*maybe,0.025*a,0.022*great,0.021*seems,0.020*that,0.020*but
13,0.034*man,0.033*might,0.032*icon,0.032*sent,0.032*moments,0.024*bra,0.024*know,0.023*for,0.023*right,0.022*have
14,0.046*would,0.034*seems,0.032*certificate,0.026*useful,0.025*install,0.024*is,0.023*overrides,0.021*now,0.020*new,0.019*moments
15,0.036*overrides,0.028*will,0.027*logos,0.025*salary,0.023*sent,0.021*me,0.021*as,0.021*server,0.020*generic,0.020*that
16,0.042*flashing,0.039*how,0.037*useless,0.029*positive,0.028*not,0.024*i,0.023*doesn't,0.022*they,0.022*useful,0.021*install
17,0.052*got,0.041*salary,0.027*recently,0.021*useful,0.021*for,0.021*trusted,0.020*maybe,0.020*have,0.019*that,0.019*i
18,0.043*tomorrow,0.041*you,0.039*salary,0.028*me,0.028*logging,0.028*that,0.026*log,0.025*there,0.024*bank,0.019*really
19,0.042*flawless,0.039*it,0.035*recently,0.030*also,0.028*donating,0.026*sent,0.026*flashing,0.023*good,0.022*even,0.020*sf
