Topic,Words
0,0.033*work,0.032*something,0.031*of,0.028*with,0.025*much,0.024*again,0.022*it,0.022*get,0.021*is,0.020*functioning
1,0.039*almost,0.034*than,0.025*week,0.024*sync,0.023*past,0.022*get,0.021*fr,0.020*continue,0.018*they,0.018*makes
2,0.033*remove,0.025*works,0.024*do,0.023*incredible,0.023*good,0.023*as,0.022*fr,0.021*keep,0.020*changing,0.019*stars
3,0.047*p,0.043*while,0.036*not,0.029*layout,0.028*of,0.025*been,0.021*stopped,0.021*week,0.020*message,0.020*else
4,0.042*me,0.039*since,0.032*from,0.030*often,0.026*now,0.025*remove,0.024*either,0.022*in,0.021*gave,0.019*which
5,0.033*users,0.028*since,0.027*connection,0.025*program,0.025*use,0.024*been,0.023*now,0.022*disabled,0.020*ha,0.019*so
6,0.034*available,0.031*marshmallow,0.027*good,0.024*since,0.023*knowing,0.022*fr,0.022*do,0.019*in,0.019*must,0.019*password
7,0.033*gave,0.031*flawlessly,0.025*else,0.023*server,0.021*in,0.021*something,0.019*automatic,0.019*fr,0.019*message,0.018*as
8,0.040*useless,0.027*has,0.024*up,0.023*love,0.022*else,0.020*flawlessly,0.019*my,0.019*does,0.019*problem,0.019*updated
9,0.037*used,0.032*connection,0.031*gets,0.031*r,0.027*of,0.026*often,0.025*sadly,0.022*weeks,0.021*own,0.020*how
10,0.052*an,0.031*and,0.025*about,0.025*past,0.023*stopped,0.023*remove,0.022*gave,0.022*beginning,0.022*often,0.021*their
11,0.032*but,0.028*past,0.026*an,0.024*from,0.023*forth,0.022*as,0.021*remove,0.021*faster,0.019*with,0.018*useless
12,0.039*way,0.035*awesome,0.031*their,0.026*updated,0.024*better,0.022*continue,0.021*sadly,0.020*be,0.019*from,0.018*often
13,0.032*a,0.026*program,0.026*the,0.025*down,0.024*to,0.022*personal,0.022*used,0.020*two,0.019*marshmallow,0.018*about
14,0.052*connection,0.030*it,0.029*since,0.028*sync,0.024*would,0.023*broken,0.022*makes,0.022*program,0.021*method,0.020*login
15,0.035*available,0.033*knowing,0.030*either,0.030*been,0.024*couple,0.023*about,0.022*functioning,0.022*sadly,0.020*again,0.019*preventing
16,0.051*better,0.051*perfectly,0.036*past,0.024*in,0.021*must,0.021*works,0.020*makes,0.020*continue,0.018*gets,0.018*gave
17,0.031*use,0.031*account,0.026*as,0.025*and,0.024*for,0.023*to,0.021*keep,0.020*own,0.019*faster,0.019*if
18,0.032*knowing,0.029*gave,0.022*changing,0.022*work,0.022*since,0.021*works,0.021*in,0.020*doesn't,0.018*method,0.018*so
19,0.032*much,0.032*than,0.026*worked,0.022*av,0.019*better,0.019*back,0.019*med,0.018*doesn't,0.018*different,0.018*almost
