,o,2013/9/01,,
add dark theme preference to support both theme,f,2013/9/01,,
fixed empty clipboard crash,b,2013/9/01,,
add to,f,2013/6/02,,
update project,b,2013/6/02,,
add,f,2013/6/02,,
,o,2013/5/14,,
fix white space in the file path,b,2013/5/14,,
