App,Store,App ID,Review ID,Country,Version,Rating,Date,Author,Subject,Body,Translated Subject,Translated Body
Sky Map,Google Play,com.google.android.stardroid,Z3A6QU9xcFRPRVlqXzFpZ2JOaDhOcHdfR1pSNmluSmFVc041MjNkZ3NRbUNUaExEQ3ZEbXJSZWlNM0lEVE94YU5udDdiMVdnbDc5dk5SRG4zNDJ6YWpNOGVz,English,,5,2016-07-11,Ramesh Kumar,"",Loved it,,
Sky Map,Google Play,com.google.android.stardroid,Z3A6QU9xcFRPRzY1UVN3b185R3VCYmEwYlAxZ1BGTW1GTFhjbWJZcDlhUTEzT0lrbHhscExPNl9JamtpSl9tY01IS3poYkQ0engyamQ5ODBqLWl0NWxhd1NJ,English,,4,2016-07-11,Gen Gen Doee,Need to add,"There has been declared that there are 3-4 new planets, please add these and there are 2-3 darf planets. Please add",,
Sky Map,Google Play,com.google.android.stardroid,Z3A6QU9xcFRPSC1iT0NMRFJldDIzUDdHVjdodXFnZVNsS0d6UHdKcEoweF9Cd1hLRVlyN2lWajN1TkR0OVRzdkZlclJLTkc4OGNldlBxV3BPVjJXRFdqNXNV,English,,1,2016-07-11,Johnny Rico,Garbage,Does not work.  My kids were sad,,
Sky Map,Google Play,com.google.android.stardroid,Z3A6QU9xcFRPSGlhM24xZF9KYmNfU04yU0h4ODJuN2dHNXJHNjlfM1JHSnlfY0NjUGNhMXlBMHBpS3ZwSFh6N1BEblVLOU9yRHg3UDhIbG9ydFJaM3pNbFpB,English,,5,2016-07-11,Margarita Rivera,Helpful,Great way to know what stars I'm looking at,,
Sky Map,Google Play,com.google.android.stardroid,Z3A6QU9xcFRPRkNRajNLODg1ZTBIaTdVMjhfWlREejhqcGE1VnotdXZqbm5FcFR3YWROTTI0SzhnWEE1djZSNmV6VkVRMGlNY1lFM0ZEc2lYRHVkRDhvYkFF,English,,1,2016-07-11,Nancy Heny,Ring places,Not calidraded,,
Sky Map,Google Play,com.google.android.stardroid,bGc6QU9xcFRPRkZnME04Rm1MNG9IX3JTZ2hJM2hjOHhnLXpZYnpsMGYwbnR2eWFsNFp3MDlyaHlPOXA0UTZXSzY5elhtYzhKeVc1VERCUkJoWldGRXAzSG1r,English,,5,2016-07-11,A Google User,"",A gyroscope functionality works great!,,
Sky Map,Google Play,com.google.android.stardroid,Z3A6QU9xcFRPRUFKZHpiRUtQWExjWmhrcXBzTV9CcEhjdHdQenpMZVZmOWRCakZnMEJWNGNWUXYwSjZhNjNKdkxLdThTeFdGOGotT04tWVl5NUh5NTB3aUN3,English,,5,2016-07-11,William Hester,Feature request,Search for coods etc so can find an object not in the database.,,
Sky Map,Google Play,com.google.android.stardroid,Z3A6QU9xcFRPR2Z5aFJVR0ZCOHVQc1BuOEtHU1EyN21Cb3dYejBYNnZwUUpfX2VFVWYtNmk5RUtYYUNvNWdvY0IxQnRGLTQwWjM2eUZGRnFEYzNCZ1RNd193,English,,5,2016-07-11,Charles Ball,Wow!  Gyro really helps!,Vast improvement.,,
Sky Map,Google Play,com.google.android.stardroid,Z3A6QU9xcFRPSDByaG9kWlRISHVWRktjUUNjYnpVZUN2TU41VnFabXlvWlZBY2R6U2Z3U3ZOT1VTZXBCQVFuay0zZENPd0RhZlhFTFBkVnNtaTZpaW5LbVBz,English,,1,2016-07-11,David Garner,WTF ?!,Have used this app forever without issue but since the last update it doesn't work at all. Compass won't calibrate no matter how long you work at it. Useless now.  So long Sky Map.,,
Sky Map,Google Play,com.google.android.stardroid,Z3A6QU9xcFRPRkZVb3BQdjR0bU96ZS0yQzhndU4zSHFseEkwSE1PUUR3V3lQb0hzenlaQ3pmcjJmYTkxS3UxNjJhUnV3dmRwSkRtR2xYQVVQTERDRVBHLUVN,English,,5,2016-07-11,Mark Eastaugh,Excellent!!!,"Wonderfully simple. Look up, spot the planet or star you want to identify, face your phone towards that part of the sky with the screen towards you... and everything is instantly identified on the screen. You can also 'look' below the horizon and see where currently hidden stars, planets etc are. Obviously it needs a correct time, compass, orientation sensors and GPS location to do all this. It is quite astonishing to consider the amount of computing going into this. It works perfectly on my Note 4.",,
Sky Map,Google Play,com.google.android.stardroid,Z3A6QU9xcFRPSGxWeU81cFg2RGxMZ29NaVp2Nmp6RnNxWXloWG5KdWVkdU96UV9nQmtyTDBDTFFVSWZxQm9CSkZXTnhMTzIwV0JUZnN3dGhVWm5yTnhzUkpz,English,,2,2016-07-11,norche thompson,New home,DON'T leave home with out it.,,
Sky Map,Google Play,com.google.android.stardroid,Z3A6QU9xcFRPSGl1enYxQUdQa0JYeHhtOVd5ZVNkXzEwalp5dXlpVmNZZF9vWDFtLTFOWWN3Z25zMzEzV1BkY3EyTTVkNkxUeUVWLS1aZFNKMmpjUHpibTg0,English,,3,2016-07-10,Tim Clark,Samsung J5,Doesn't work automatically. I have to manually orientate it on the screen. Why? :-(                            Thank you for the reply. Oh bugg@r!!!,,
Sky Map,Google Play,com.google.android.stardroid,Z3A6QU9xcFRPRUM3ZklraU5BMGhvMS1zNVI0V1VlQWhqVmJLUDljUjNqa3VXcGNMQkdDeVFHVkJsSTJReGV0OGlFSmFralhzaUJfV0lBZjlRcVotekVCVHpn,English,,5,2016-07-10,Dean Hamlin,used it now and its good,I haven't used it yet i just had to reply to Brandon. Apps like these dont use your camera! The reason why it 'sees through walls' is because its using your location data. If you point your phone to the ground it will see through the planet lol. Try to understand things before you score them Incorrectly.,,
Sky Map,Google Play,com.google.android.stardroid,Z3A6QU9xcFRPRkJERFpVLUVEeTdvZmxsSnphMWxUa21UUHV1NEJtMkw3c20tb0dnVWNwWnRFOEJ5UW9INnZseDU1cnhsRzVldlEySGVQWm5ENnZqZ2VRcG04,English,,5,2016-07-10,Malik Blunt,Best space app ever,I didnt know where the moon was in the sky and it led me to it and it was actually right my moon was there,,
Sky Map,Google Play,com.google.android.stardroid,Z3A6QU9xcFRPR0NEc29pdElXcUlxLUdhdDFmaFZ6dFlwa1NpbTlQMG9JRkhQZU9QV0N4Wk1zVEUtMk10TzR0dU5yMm9rc3lEYnBqaGdiVElzNEtLQnI0Rm44,English,,5,2016-07-10,Jaylee Perkins,Love it!,Beautiful and all in all a great app.,,
Sky Map,Google Play,com.google.android.stardroid,Z3A6QU9xcFRPSHZhUl9odXRhY2NYeS1UVVExd2JjMWlzZUpOWFVhQWM0bFRDN2xCVGRFNllTdGFoT0NfQ01YYWcwbWV1YlBhRHB3YnhiN0gzbDFVVWtJZzJv,English,,5,2016-07-10,jeanette degregorio,Great app,Galaxy map,,
Sky Map,Google Play,com.google.android.stardroid,Z3A6QU9xcFRPR01WNGY4cWtOMmNJR3RVMWl2eWx6OFMwdmxlNFJINE1WTmEyVjRTUkVZdWFnY3oxTU1GZXpVR1JMTHN6TlNtWFdSSTdrTmQwSlhJeXdBM2NF,English,,5,2016-07-10,Ts Oknenxavi,MSc,Hermosa aplicacion.,,
Sky Map,Google Play,com.google.android.stardroid,Z3A6QU9xcFRPSEg1T2xJdC1Wd043Q1dBVnBwNDlrazg1SDhDSzQtQ2pkTFA5b21FandHczgwQ0hJU0xqSXpyN1FydVZTYW1ybE5HdEgxZWNJa3k5SGpyTy1B,English,,5,2016-07-10,Mamta Prajapti,"",Good educational,,
Sky Map,Google Play,com.google.android.stardroid,Z3A6QU9xcFRPSEVmM2k3djFGOGQya1gtZzljMEJ3U1ItT21xX0JxVHFNelVsRE5jbVI0XzZyQ21oZDB5cVloakpPbnhUTUlQYzVqNmhaZHExdDY4d2x6Ri1v,English,,5,2016-07-10,DONESONZ,Fantastic!,A must have app,,
Sky Map,Google Play,com.google.android.stardroid,Z3A6QU9xcFRPRVI1THg0VUNIWExLeE9Mdm5GSW1mM3lQZi0xb3Z5a3d5WmZ1V3FhVjZ5bWJlS3JZa1g1YUduSUtoOEZaTVhlWDJnTlg4eFJYdFdzODU5bk93,English,,2,2016-07-10,Siddhant Naik,boring,very boring.,,
Sky Map,Google Play,com.google.android.stardroid,Z3A6QU9xcFRPR0dtUUdFT2xEaDR0Z29yejctOVZYbzB0X1VuSlp1TUpRelBQUFpJTXRlclM3bWVFakNDU29FYl95Uk1nN1RuN3lpaVllaWFXSThBbTREZEkw,French,,5,2016-07-10,nail pitois,Trés très bien,Surtout quand on veut changer la vue on change de position,,
Sky Map,Google Play,com.google.android.stardroid,Z3A6QU9xcFRPR2lWVldYVnQ3T3k1Y1ZtNHNUbzRTWEV4NW9vOHJpSlBGZndWa0hseEVTcWFqc0YxaVItTkd0OExFSjFuVXpGMmtqNlloTG1ZTUR4Wnd6VUkw,French,,3,2016-07-10,alexei vostrikov,"",Ce jeu  est  pas mal  ! Mais se n'est  pas  preci  ce n'est  pas  exacte . Mais  c'est  vraiment  pas  mal  !👍,,
Sky Map,Google Play,com.google.android.stardroid,Z3A6QU9xcFRPSFpCa0o5LUlOVXMwYWl4WHkxMENlQlA3MWpvNWljVGl3UFVVbGpaTTFDR0JVMUE3aE50OFNtQjFjbUkxYUhicDh3QnJQZVVTSkxLQXdlUFBR,Italian,,4,2016-07-10,cinzia di credico,Puntare il telefonino al cielo .,Non riesco a capire come funziona questa applicazione. ...come si fa a puntare il telefonino al cielo e vedere le stelle...?,,
Sky Map,Google Play,com.google.android.stardroid,Z3A6QU9xcFRPR214LTc1LThTaVQxdDB5TnA5NVFleE8tY0xWOEpCTF8tUDVLWHBTTndpdEZHeHJRRm1RYWJQekV3aTh2RTZPWHVtM0I3TkktTGw0S2E4ZVIw,Italian,,3,2016-07-10,SamuRay,"",buono,,
Sky Map,Google Play,com.google.android.stardroid,Z3A6QU9xcFRPRzVfTUxBSWkzN3EyWlpjMXdGeDdZamlsU1pSUm5lMnhyQlJHQ3JITDkyMHR1YkswQVFkNUZCU3VsdE15SlZ5LW9KbDFIUU1Dc0llek5SS1FZ,Croatian,,5,2016-07-10,Elma Gadzun,"",Extraaa,,
Sky Map,Google Play,com.google.android.stardroid,Z3A6QU9xcFRPSE11S3NudndXbWhPSk9Rci1zdDhKQ1U2cmsybmR2alpZMUFfcWhJN3UyVGNmZE9Sd3RucEtwOWZnTk84aXlUMVZUSDhQU1pORk9PbDFSd0xF,German,,5,2016-07-11,Michael Ritter,Nachthimmel,Hervorragende Auflösung auch nach dem update sehr zu empfehlen,,
Sky Map,Google Play,com.google.android.stardroid,Z3A6QU9xcFRPRjg4Q3hlckpyWVRBSEZNRXNIREY3M2wwVHBWTGVJdWJVVnlFOFludElkbGpZbEpaZm1HMmJOOW80dlp1ZjZqUXN0SVF4bEotWDhSOEtzVGdB,German,,1,2016-07-11,Th K,"",war mal gut.seit langer zeit soll immer beim start der app kalibriert werden.hält nur bis zum nächsten start .fehler sofort beheben.sonst wird deinstalliert.,,
Sky Map,Google Play,com.google.android.stardroid,Z3A6QU9xcFRPSE9XcUUyaWh1NTNGRjI2a3lVZlRPbUlfYUJRUzdrdWUwR3dSVnFYTElmOUJORFJ4d2VENGNwZktiUndOTlhGc2RPUXFMTk90QVA2QWk3RF80,German,,5,2016-07-10,Alina Kruse,Klasse!!,Der Wahnsinn 👌💪,,
Sky Map,Google Play,com.google.android.stardroid,Z3A6QU9xcFRPRTg2TWhCLUFCSGxwTHdVdjVFQ2RDVWZhenFpX2Q1cDdtMHFDejVYQzFIMGgwREdMSy1DTENZMnZaeXY0RE9lQU9ySnFZcjVaTWhUeldRejlZ,Malay,,5,2016-07-10,Erma Ima,✌suami istri(👌orang anak),✌👌👍✌👌👍,,
Sky Map,Google Play,com.google.android.stardroid,Z3A6QU9xcFRPRUJ1bXhETmp4ZzlZZTVSbWIyU0NFcEd2Y1ZzU09Mc21kMDNWdy1RZzNGQWlucEtMZ1V0a0dBWDI5bm9NWmRDODZDX1RaaXMyelVTRVJCUVRn,Portuguese,,5,2016-07-11,tente não cair Pimentel,"",Chato,,
Sky Map,Google Play,com.google.android.stardroid,Z3A6QU9xcFRPR0swUmdFdWpFckctbGVUaEVvYlU0b29jN2ZnS21lR2F0WlFXV1ZFWWdNWkZuQU5XdEhLcXMzV3VtTFNrQkNIUElTdGRCeWtTT0FFanM0S09v,Portuguese,,5,2016-07-11,Julia Dutra,Otimo,Adorei vo abaixai o sky mapa +pra ve se e legal tambem,,
Sky Map,Google Play,com.google.android.stardroid,Z3A6QU9xcFRPSDhpQS1PVzBYYVhLaDJTVEg1YmE5UkE5UERVNUxsYy14N3FNaGpZeTEtQ3FTaHBNWUxyakZnSU0xMjFLUUp6T3ZFS0pFMlh1T0p1dS1qcTg0,Portuguese,,5,2016-07-11,Danilo Ataide,"",Muito bom,,
Sky Map,Google Play,com.google.android.stardroid,Z3A6QU9xcFRPR1ludW5sVVMta3VIZXhQRVJhdDc4Vlo5TmNtXzhsZW1fMjlWUWFoR1ZYVDVZMjBsUThkUFVuRHhlVlB5RWpyM0laQ3FiVjV0ZVFwVTg2bm1v,Portuguese,,1,2016-07-11,Rodrigo Felix,"",Agr só da pra usar o modo manual. Uma mensagem diz que está faltando um sensor mas antes estava funcionando. Alguém envolvido pode me ajudar?,,
Sky Map,Google Play,com.google.android.stardroid,Z3A6QU9xcFRPR2RBY0VwNkNvemN4MEZuS2Z5RzlJdEl6a1QxZnB6WUJzRTZxdmJxXzdoQ2FvNF9MY3BJWlFkNzRUVGp2bm1JNmsyTXdIa0drQVk4WUx5QXlR,Portuguese,,2,2016-07-11,Lhama Carioca,Negativo,Bad news! O app está sem direção. Usar no modo manual não adianta muito.,,
Sky Map,Google Play,com.google.android.stardroid,Z3A6QU9xcFRPSFlGRFVLb0x4Vl9QeFlyQXJ0bk1qQ2FNeHNTdno5NEVjZGNETUtRdWN6VXBCRHRValk3dWVobE1SNF9OZUpJYjZGV0RoOWdhQXhGMVBMQXFr,Portuguese,,4,2016-07-11,Claudio Santana,"","Sera q é só o meu? No meu LG G3 algumas constelações estão con tarja rosa, tipo como se estivesse censurado",,
Sky Map,Google Play,com.google.android.stardroid,Z3A6QU9xcFRPSFg2T3BxNm9CSlJGdjR4WmkwaVpPdFlCZWk5Yk1PbFF6VzZ2UnB1dEYyeDh1d1ptbkttMGtXakVIZ2YzREVpbi0wcGV6cGZzS0FnbDZicko4,Portuguese,,4,2016-07-10,Ana R,"",Amo,,
Sky Map,Google Play,com.google.android.stardroid,Z3A6QU9xcFRPR0pkemxjYm1qbnFsN0dqOGE2aGJ6andUZ0w4c0VHVFBNMHVUZWdTaVhfTjZQLUdvNFJobGNBblptX2hhd3JObTIwdloyY04tNWtIM0FRcTlz,Portuguese,,2,2016-07-10,Rita de Cássia Oliveira,Problemático!!!,"Baixei e a bad news é que não estou com direção no app. No modo manual funciona, mas não é  o mesmo resultado. Estou insatisfeita!",,
Sky Map,Google Play,com.google.android.stardroid,Z3A6QU9xcFRPSG1qR2lBSDVGcHFqcC1LSTdXRGlwSm40ZUt1TzJTLTY0dmpqWUxuUjVXV2FrMkdMY3hsV21BRE5RZy1lckZvVXdobVlpaUhxOWoyWlQ3RFZj,Portuguese,,5,2016-07-10,Andreia Lopes,Muito bom,Meus filhos amaram,,
Sky Map,Google Play,com.google.android.stardroid,Z3A6QU9xcFRPRkpCV1U5M1NoYy1pWWdteUVJbWRDQ2RTMEpUX2RWUTV3dmUzQmR5MHdRQ1ZKRWxNSEhqOUZ3aG00dUpmSHdNSm9hdkZadExDOFhyQnZZaXZJ,Portuguese,,1,2016-07-10,Luigi Pieroni,"",Horrível,,
Sky Map,Google Play,com.google.android.stardroid,Z3A6QU9xcFRPSDhIcXgtOVowRlp6dmNkaTJMTkhYZ2RiYlBBa1RQbjUxWEphdmF2bk1veWxEQmFRYWZxNnB0NWd3bnJ4YzVsbUdERlpTOWhRdk5iZGdfbzU4,Portuguese,,5,2016-07-10,Maurício PC,Ótimo App,Ótimo App Para Quem AMA Astronomia,,
Sky Map,Google Play,com.google.android.stardroid,Z3A6QU9xcFRPRW43Y3UzdmFRNjZ6U3FyLXBzYk1pUzBkYUZBc2J3dFZ5VVRGTVFpaTJRbWc5XzV3Q2xCamdGNXhJR0Y5aldNbkdmb1c4NkQ5cnBjZ0FEYjBr,Russian,,1,2016-07-11,MC Fan,Не работает. Жаль(((,"Когда-то ставил себе это приложение, Всё было отлично. Глядя сегодня на небо, решил снова поставить. Не работает ничего. Жаль, было классное приложение. Пользовался долго и с удовольствием",,
Sky Map,Google Play,com.google.android.stardroid,Z3A6QU9xcFRPRURjTEhYOW5DTEd2UGRqbVlfeVVfbmY3RW5ORV9PX1RMQUl4S1MyRDB6aFVGVDd3UmZhOGpWdDFXcUYtVGFZZ0pwamNTLXZzb0ljdFpMV2dr,Russian,,5,2016-07-10,"Здаров, эт я",;),👍,,
Sky Map,Google Play,com.google.android.stardroid,Z3A6QU9xcFRPRU5DTUdxM1lQMkROSnljbzNhci1Fa1p2d0FoNHhRNDFBUmlzb01RSnhjY1dLeFl1YWY5MV9YTzVVQU9ZMEVuX0JpZjlaLXg3S2Joa1F2NEcw,Slovenian,,5,2016-07-10,Špela Rožman,☺,☺,,
Sky Map,Google Play,com.google.android.stardroid,Z3A6QU9xcFRPRkxsUlRwV0N4ZllnckhQNmdTMUItNzhyX284YWh5dE5Ra01oMExCWTBPQ2VST2hYQkpWY1dmOWlkcGFGb01HOFRQMldSVVl0cjJUcDhKNDRZ,Spanish,,5,2016-07-11,Oscar Reynaldo Melgar Giuggiolini,Sky maps,Es una maravilla !!!!!,,
Sky Map,Google Play,com.google.android.stardroid,Z3A6QU9xcFRPRTVpZDdad3d5YnBJNkc0YXB0M21VN3RpWXRrM2hOWXEzYUFIWHNtSXFBdkJGU2hLZ0o0YWJlMmYxd1ZLVUFuMjVOczQzQ09ET0ZuY19yaGRF,Spanish,,5,2016-07-11,Blanca Lucy Zuluaga Ballejo,"",Espacio estelar hermoso,,
Sky Map,Google Play,com.google.android.stardroid,Z3A6QU9xcFRPR2FqV0M1UEY0WmpEelQ1ODk1VU1fNHJuOW5QV1BQYm51VjRxUTBabVQ1ODFuRFZROWRkMDBJaEpvT05oRno3YWNSRVVZemlXLV81SndURW1V,Spanish,,4,2016-07-11,cami mv,Buena,"Gran herramienta para reconocer los objetos del cielo. Fiable, ahora mismo me señala Marte en frente y ahí está perfecto. La única pega que a veces se descontrola pero enseguida se arregla",,
Sky Map,Google Play,com.google.android.stardroid,Z3A6QU9xcFRPR0h3R3BpRlUtQXZWVEhxWWgyanlnbHJCWWQxS3FmRVk3bEh5TDI3TW4tN0dwRWk2VG81NWZQMkdhLTZBbzVXV1NTcWlNV0RjbkltemhxNU53,Spanish,,4,2016-07-11,Francisco Jose Jimenez Mendez,Me gusta mucho,Me encanta utilizarla a campo abierto en una noche estrellada sin nubes. Muy buena aplicación para obtener una información provechosa acerca de lo que estás viendo en el cielo nocturno.,,
Sky Map,Google Play,com.google.android.stardroid,Z3A6QU9xcFRPSE82U3RrMnpka2VFN1FxRk83QU1pWVZNYWRuLXFxVG1GUEJYQTA5aDBteHZ6bHUtVmpsc2lZaGY5WWJTVWhBMVpxYnhuOW02eEdoT1RjTzZv,Spanish,,5,2016-07-10,Ed Car,Excelente,Muy buena app,,
Sky Map,Google Play,com.google.android.stardroid,Z3A6QU9xcFRPRWd0MFd6WUN5Y0JhbUppY1V2a1ZZeUo3alVKMnNsREk1ZncwUGJlY0lyNGdzXzhObHNINWJWR2VRcG45SkJBY3hHWjBiRmczOWhmbmpkUm5N,Spanish,,5,2016-07-10,Edgar Ruiz Franco,"",Exelente,,
Sky Map,Google Play,com.google.android.stardroid,Z3A6QU9xcFRPR3QwMm1raXM4cGxmNTVrZ2V1cjFVbzZQbGdfV0JhaGJ4SmtGUC1CV2RjZy15NFRUVFZTdWcyZU1xLW11ZVdILVlDUmFHXzlhUWwzcnh2UnJ3,Spanish,,5,2016-07-10,Wilford Giuseppe Camargo Quesada,Sencillamente fantástica,Funciona excelente en el Xperia z5,,
Sky Map,Google Play,com.google.android.stardroid,Z3A6QU9xcFRPR3pJcDVINldSTTRfX0E2ZkticDF2NjFZVWhtai1iVkxDSlhMUTRvV0JQSUJrS3JTRmpIR25zeHZWbTJyc3owN2M2eDhwMnNxMjlvblgxY3Aw,Spanish,,1,2016-07-10,Juan Gutiérrez,La aplicación no me funciona correctamente,"Tengo un moto e 2da generación, y hoy baje la app porque a las 3 de la mañana se ven diferentes  constelaciones, y al momento de iniciar la app y configurar el gps y todo eso, no me muestra correctamente a donde apunto, por ejemplo si apunto al oeste me sale el este, es problema de la app o de mi celular?",,
