Topic Index 1,Topic Index 2,Topic Similarity
17,8,0.2584
7,13,0.2197
2,12,0.2094
3,19,0.2073
18,1,0.18560000000000001
9,4,0.1793
6,5,0.1734
4,17,0.1716
13,16,0.1702
14,15,0.1643
0,14,0.1633
10,10,0.10119999999999998
8,18,0.0912
16,11,0.0702
11,9,0.0697
1,2,0.0696
19,0,0.059199999999999996
5,3,0.0
12,6,0.0
15,7,0.0
