# deletions,date,commit message
1,2015/5/10,Use gradle 2.4
2,2015/5/09,Bump version to 1.6
36,2015/5/09,Initial polling ( for old firmwares )
5,2015/5/09,Extract var
1,2015/5/09,Add  @Override s
256,2015/5/09,Introduce interface for Communicator and Crafty as one impl
9,2015/5/09,Seperate UUIDs
1,2015/5/09,Cover nulls here
