Topic Index 1,Topic Index 2,Topic Similarity
1,3,2.0
3,12,2.0
4,4,2.0
6,10,2.0
9,13,2.0
18,2,2.0
0,0,1.0
2,1,1.0
5,6,1.0
7,11,1.0
8,9,1.0
10,14,1.0
11,17,1.0
12,18,1.0
13,19,1.0
19,5,1.0
14,7,0.0
15,8,0.0
16,15,0.0
17,16,0.0
