updated database,f,2015/12/31,,
updated dependency,f,2015/12/31,,
formatting,b,2015/12/25,,
removed logging from code i imported age ago,b,2015/12/24,,
fixed a bug multiple pager adapter would improperly manage the when viewing a card,b,2015/12/24,,
delete is better,b,2015/12/21,,
updated build dependency removed unused module updated project setting,b,2015/12/21,,
updated dependency,f,2015/12/09,,
update all the dependency,b,2015/12/03,,
formatting,b,2015/12/03,,
replaced all with,b,2015/12/02,,
added null check for moved catch log writing for within updater function to elegantly close connection,b,2015/12/02,,
added database with alt art,f,2015/11/23,,
formatting,b,2015/11/22,,
bumped support library added for marshmallow permission,b,2015/10/25,,
use official button,f,2015/10/08,,
added release,f,2015/10/04,,
reduced database read to one updating card changed the notification to show through the entire update process a little more logging,b,2015/10/03,,
updated db with latest banned restricted,b,2015/10/03,,
