updated database with latest,f,2015/4/22,,
fixed deprecated usage fixed string,b,2015/4/22,,
added set name to index page title formatting,b,2015/4/20,,
this make it possible to directly exit from deep link rather go to any activity on the back stack fixed clarity,b,2015/4/19,,
fixed deep link issue,b,2015/4/18,,
added deep link made sure all database open close are balanced no longer us the singleton database for it is unbalanced by nature,b,2015/4/17,,
removed thing i forgot,b,2015/3/23,,
removed trace of preference based set export,f,2015/3/23,,
added release,f,2015/3/23,,
version bump,b,2015/3/23,,
