App,Store,App ID,Review ID,Country,Version,Rating,Date,Author,Subject,Body,Translated Subject,Translated Body
Transportr,Google Play,de.grobox.liberario,Z3A6QU9xcFRPRzdVWGpkOXFTTEpBWGhSNkp2bWl2R2NMTHhiQ1lLUHYwNHZyTUFSTmJDMWxUY0loMlRjR1NfY3FjOWdmNjlmeTQ4ZVdqSXZFeTZYT3JieElF,English,,5,2013-10-02,Tobias Kuban,A really nice public transport buddy,keep the good work,,
Transportr,Google Play,de.grobox.liberario,Z3A6QU9xcFRPRzdVWGpkOXFTTEpBWGhSNkp2bWl2R2NMTHhiQ1lLUHYwNHZyTUFSTmJDMWxUY0loMlRjR1NfY3FjOWdmNjlmeTQ4ZVdqSXZFeTZYT3JieElF,English,,5,2013-10-02,Tobias Kuban,A really nice public transport buddy,nice open source alternative for other proprietary solution like db navigator,,
Transportr,Google Play,de.grobox.liberario,Z3A6QU9xcFRPRzdVWGpkOXFTTEpBWGhSNkp2bWl2R2NMTHhiQ1lLUHYwNHZyTUFSTmJDMWxUY0loMlRjR1NfY3FjOWdmNjlmeTQ4ZVdqSXZFeTZYT3JieElF,English,,5,2013-10-02,Tobias Kuban,A really nice public transport buddy,very responsive user interface,,
