App,Store,App ID,Review ID,Country,Version,Rating,Date,Author,Subject,Body,Translated Subject,Translated Body
Hacker Live Wallpaper,Google Play,com.gulshansingh.hackerlivewallpaper,Z3A6QU9xcFRPRTloUFQ1Y1ZIc1d5ZEpWZ2EzM3ZIeHRNOWd4QkozVk03TU5neU9JeDRaNkVlNm9iRDNGSDFuaTB1UlRJRFZ4UUJWNUlvZkNyV3VJMjRFejBJ,English,,5,2014-12-27,Roy Mantel,Simple & great,the flow and feeling is really nice,,
Hacker Live Wallpaper,Google Play,com.gulshansingh.hackerlivewallpaper,Z3A6QU9xcFRPRTloUFQ1Y1ZIc1d5ZEpWZ2EzM3ZIeHRNOWd4QkozVk03TU5neU9JeDRaNkVlNm9iRDNGSDFuaTB1UlRJRFZ4UUJWNUlvZkNyV3VJMjRFejBJ,English,,5,2014-12-27,Roy Mantel,Simple & great,almost an understatement,,
