App,Store,App ID,Review ID,Country,Version,Rating,Date,Author,Subject,Body,Translated Subject,Translated Body
Hacker Live Wallpaper,Google Play,com.gulshansingh.hackerlivewallpaper,Z3A6QU9xcFRPRlRfNnhoeDd3Zk5GVWQ3Z2dkYTl1YW1xbzFFeUxVcXFMY1JTVlUwWHFpcnhJZHR5cmxKeE5UTnJlR1RMdjEybEcxd1lCXzMtZGswUmxVTjFN,English,,5,2013-05-11,Jihad Hayder,,like,,
Hacker Live Wallpaper,Google Play,com.gulshansingh.hackerlivewallpaper,Z3A6QU9xcFRPSFhOQmVQdXBwUzJFRi1TWkpFM3dfVzFHNHFmbjZXcjgzRUdMZThpLUVEWGl0WVRzSDJhWlhvUFdqZFlmTXd4SmROOUl1WmNYdUI4TXpHTWFv,English,,5,2013-04-13,Oscar Vargas,Very nice,now it just crashed 1 or 2 time but it all good now,,
Hacker Live Wallpaper,Google Play,com.gulshansingh.hackerlivewallpaper,Z3A6QU9xcFRPSEhtQThzcFhkRlBZT01YT2MzdE5sOFkzMnp5VWZqLUlDSUh3N1lqdDMyaVc1c2ItUUEwVkhFU0pxQURLOFZTX0R2RDNHcVdhMlp4b1Y4bmJN,English,,5,2013-03-13,Samir Mh,,nice,,
