# deletions,date,commit message
2,2014/6/09,reject name that are shorter 2 character
1,2014/6/09,delete any space in the adding a this should probably use an but is good enough for now
4,2014/6/09,try to guess a better name for new profile currently we just set the profile name to the same string the
4,2014/6/09,this commit try to generate a more name by applying some simple heuristic try to find the first private part of the domain name
4,2014/6/09,for string 4 char assume it is an abbreviation and capitalize all character
2,2014/6/09,this avoids pushing uptime off the right side of the screen
4,2014/6/02,enable character in the entry
