# deletions,date,commit message
3,2016/1/16,Roll back to targetSdkVersion 22  This turns "bmgr fullbackup net.pmarks.chromadoze" into a no-op which will hopefully fix the bug where Android 6.0 kills the service in the middle of the night.
7,2016/1/15,Fix some warnings.
7,2016/1/15,Add a simple BackupAgent.  Hopefully this will prevent Android 6.0 from killing the service in the middle of the night.
2,2016/1/10,Set version to 3.5.2
3290,2016/1/10,Update to JTransforms 3.1  To reduce third-party dependencies all parts of this library not required for float IDCT have been deleted.
24,2016/1/10,Update to targetSdkVersion 23
36,2016/1/10,Use START_REDELIVER_INTENT so Android will restart the service if the kernel decides to kill it for whatever reason.  Whenever the service is stopped or restarted add some text to the main interface indicating why.
