Topic,Words
0,0.007*the,0.005*it,0.005*to,0.004*and,0.004*i,0.004*if,0.003*when,0.003*billing,0.003*now,0.003*except
1,0.005*properly,0.005*the,0.004*my,0.004*additional,0.003*brilliant,0.003*fulfill,0.003*timer,0.003*happily,0.003*needed,0.003*set
2,0.010*it,0.009*the,0.007*to,0.007*i,0.006*my,0.005*discuss,0.005*and,0.004*this,0.004*large,0.004*on
3,0.004*i,0.004*the,0.004*bother,0.004*to,0.003*a,0.003*platform,0.003*not,0.003*either,0.003*responds,0.003*data
4,0.005*smart,0.004*the,0.004*cost,0.004*effort,0.003*optimize,0.003*else,0.003*wondering,0.003*slider,0.003*sepia,0.003*is
5,0.004*i,0.004*paid,0.003*install,0.003*file,0.003*family,0.003*shown,0.003*s,0.003*base,0.003*shorter,0.003*save
6,0.006*oh,0.004*lot,0.003*my,0.003*whether,0.003*surprised,0.003*pick,0.003*design,0.003*nowhere,0.003*bugging,0.003*related
7,0.004*picks,0.004*free,0.003*arrowheads,0.003*sometimes,0.003*wallpapering,0.003*overrated,0.003*disable,0.003*pick,0.003*did,0.003*flickers
8,0.004*complex,0.004*widget,0.003*deep,0.003*cool,0.003*you,0.003*occasionally,0.003*the,0.003*fingerprint,0.003*computing,0.003*available
9,0.004*sorting,0.004*figured,0.003*such,0.003*wonderful,0.003*folders,0.003*would've,0.003*bugging,0.003*manages,0.003*knockoff,0.003*functionality
10,0.005*there's,0.004*cut,0.004*national,0.004*seamlessly,0.003*ins,0.003*11,0.003*reader,0.003*another,0.003*solution,0.003*till
11,0.004*swipe,0.003*wider,0.003*shines,0.003*update,0.003*seemed,0.003*highly,0.003*considered,0.003*blurs,0.003*choices,0.003*covered
12,0.004*markedly,0.004*personalize,0.004*their,0.004*friends,0.004*20,0.004*effect,0.003*rarely,0.003*bit,0.003*detected,0.003*wants
13,0.003*access,0.003*notifications,0.003*are,0.003*mobile,0.003*close,0.003*asks,0.003*revealing,0.003*surprised,0.003*excellent,0.003*filters
14,0.005*hobbyists,0.005*listen,0.004*system,0.004*presented,0.003*crash,0.003*stopped,0.003*tab,0.003*capabilities,0.003*splash,0.003*free
15,0.005*improved,0.004*the,0.004*crystal,0.004*remain,0.003*saved,0.003*downright,0.003*starts,0.003*ran,0.003*slowed,0.003*pixel
16,0.004*carrier,0.004*fails,0.004*clearly,0.003*following,0.003*bought,0.003*requiring,0.003*second,0.003*shocks,0.003*he,0.003*skip
17,0.004*useful,0.004*pure,0.003*shuffler,0.003*garbage,0.003*handy,0.003*same,0.003*reduce,0.003*broke,0.003*beautifully,0.003*plug
18,0.007*the,0.004*ultimately,0.004*intensive,0.004*possibility,0.004*folders,0.003*unfortunately,0.003*repeat,0.003*what,0.003*distracting,0.003*confusing
19,0.005*cannot,0.004*very,0.004*star,0.003*appears,0.003*kind,0.003*actively,0.003*favorites,0.003*my,0.003*hello,0.003*tray
