# deletions,date,commit message
56,2013/12/21,- Fix crash when downloading library. - Do not check if external memory is mounted (doesn't work on some devices) - Show proper error message when library could not be downloaded.
1,2013/12/20,Catch errors when optimizing database.
1,2013/12/20,Fix crash in downloads fragment.
63,2013/12/20,- Fix nullpointer on start. - Remove Android Studio files
76,2013/12/20,Revert "Show progressbar in emptyview instead of progressdialog in library view."  This reverts commit b8e550710cc1d754a2ef63a14b015cd270dbbcc1.
8,2013/12/17,Fix crash when resuming player on tables.
67,2013/12/17,Show progressbar in emptyview instead of progressdialog in library view.
1,2013/12/16,Bump version name.
5,2013/12/16,- Hopefully fix strage crash in playlist. - Bump version.
