Topic Index 1,Topic Index 2,Topic Similarity
1,0,17.647058823529413
0,6,11.11111111111111
2,16,11.11111111111111
4,1,11.11111111111111
5,2,11.11111111111111
9,18,11.11111111111111
13,9,11.11111111111111
15,3,11.11111111111111
19,11,11.11111111111111
3,12,5.263157894736842
6,4,5.263157894736842
7,8,5.263157894736842
10,13,5.263157894736842
12,17,5.263157894736842
14,7,5.263157894736842
18,14,5.263157894736842
8,5,0.0
11,10,0.0
16,15,0.0
17,19,0.0
