Topic Index 1,Topic Index 2,Topic Similarity
0,3,7.6923076923076925
1,9,7.6923076923076925
2,14,7.6923076923076925
3,19,7.6923076923076925
4,0,0.0
5,1,0.0
6,2,0.0
7,4,0.0
8,5,0.0
9,6,0.0
10,7,0.0
11,8,0.0
12,10,0.0
13,11,0.0
14,12,0.0
15,13,0.0
16,15,0.0
17,16,0.0
18,17,0.0
19,18,0.0
