Topic,Words
0,0.155*from,0.100*to,0.097*open,0.096*killed,0.096*restarts,0.075*so,0.069*silk,0.063*the,0.062*great,0.050*requires
1,0.153*requires,0.123*killed,0.122*to,0.107*silk,0.106*back,0.090*source,0.069*moved,0.048*and,0.041*so,0.032*from
2,0.168*back,0.147*requires,0.118*so,0.116*great,0.091*moved,0.060*to,0.044*killed,0.041*open,0.040*and,0.036*the
3,0.192*source,0.123*moved,0.114*open,0.105*the,0.089*just,0.074*so,0.073*restarts,0.052*silk,0.051*back,0.031*from
4,0.195*silk,0.165*back,0.095*just,0.089*to,0.083*and,0.082*requires,0.067*restarts,0.048*moved,0.045*source,0.043*killed
5,0.201*moved,0.129*great,0.106*silk,0.101*and,0.100*just,0.096*restarts,0.087*source,0.043*requires,0.036*so,0.023*to
6,0.224*so,0.169*threading,0.122*and,0.107*back,0.068*open,0.050*great,0.047*just,0.045*requires,0.044*killed,0.029*to
7,0.187*just,0.185*moved,0.146*source,0.099*restarts,0.074*from,0.067*so,0.043*killed,0.037*great,0.032*silk,0.030*threading
8,0.311*killed,0.169*requires,0.136*source,0.132*restarts,0.062*just,0.045*open,0.032*to,0.029*threading,0.024*and,0.018*great
9,0.164*silk,0.155*to,0.145*requires,0.113*just,0.087*and,0.061*from,0.057*restarts,0.051*back,0.041*threading,0.031*so
10,0.175*back,0.140*to,0.130*the,0.128*silk,0.113*requires,0.065*source,0.057*restarts,0.053*great,0.052*killed,0.035*moved
11,0.229*back,0.212*and,0.095*open,0.074*restarts,0.063*threading,0.056*great,0.055*so,0.052*from,0.041*just,0.023*the
12,0.136*moved,0.133*silk,0.123*great,0.106*source,0.099*requires,0.074*restarts,0.059*and,0.056*back,0.045*to,0.041*so
13,0.191*killed,0.129*silk,0.124*to,0.101*and,0.098*great,0.085*moved,0.066*back,0.038*restarts,0.034*source,0.032*the
14,0.315*great,0.181*source,0.134*so,0.085*from,0.080*threading,0.038*killed,0.036*to,0.033*restarts,0.028*and,0.021*the
15,0.202*just,0.174*great,0.141*and,0.073*open,0.070*restarts,0.067*killed,0.055*the,0.048*back,0.042*silk,0.036*requires
16,0.222*silk,0.176*just,0.134*and,0.089*source,0.081*restarts,0.058*threading,0.051*great,0.036*from,0.021*moved,0.021*so
17,0.194*silk,0.158*and,0.124*great,0.116*just,0.089*open,0.068*back,0.067*from,0.065*the,0.030*killed,0.022*threading
18,0.210*source,0.111*silk,0.098*requires,0.093*and,0.088*just,0.085*great,0.058*open,0.048*restarts,0.047*so,0.047*back
19,0.255*killed,0.121*silk,0.089*great,0.089*and,0.086*to,0.082*moved,0.073*restarts,0.063*threading,0.034*source,0.034*so
