Topic,Words
0,0.157*source,0.147*home,0.132*great,0.081*i,0.078*android,0.069*run,0.060*and,0.043*now,0.041*to,0.041*it
1,0.248*and,0.139*the,0.091*it,0.078*to,0.061*5,0.052*android,0.049*home,0.043*start,0.043*said,0.028*open
2,0.170*source,0.104*now,0.097*an,0.071*said,0.059*run,0.057*and,0.057*all,0.056*great,0.050*home,0.041*open
3,0.151*an,0.128*to,0.095*said,0.076*i,0.069*port,0.047*home,0.046*now,0.043*source,0.040*it,0.040*run
4,0.197*5,0.125*source,0.111*start,0.097*run,0.065*said,0.057*port,0.054*an,0.051*all,0.050*great,0.028*on
5,0.147*port,0.135*said,0.120*now,0.097*great,0.087*open,0.077*run,0.062*5,0.043*an,0.039*all,0.032*it
6,0.154*5,0.118*now,0.101*nexus,0.087*of,0.079*start,0.066*source,0.054*to,0.049*it,0.044*on,0.043*and
7,0.111*open,0.101*android,0.095*i,0.093*an,0.085*terrific,0.082*it,0.077*now,0.056*home,0.046*5,0.045*of
8,0.133*it,0.130*great,0.124*open,0.116*home,0.047*port,0.037*nexus,0.037*on,0.035*said,0.032*and,0.032*terrific
9,0.123*on,0.123*port,0.119*the,0.115*now,0.113*run,0.072*start,0.051*5,0.048*and,0.033*i,0.033*of
10,0.140*nexus,0.137*5,0.111*home,0.092*terrific,0.092*all,0.087*android,0.060*it,0.055*source,0.043*now,0.035*i
11,0.176*run,0.115*it,0.104*android,0.091*now,0.070*to,0.063*5,0.053*terrific,0.046*start,0.039*great,0.038*open
12,0.196*and,0.104*to,0.092*it,0.090*on,0.087*the,0.075*home,0.055*nexus,0.054*of,0.050*open,0.045*5
13,0.124*open,0.092*5,0.090*of,0.087*said,0.083*to,0.066*home,0.059*all,0.059*now,0.056*i,0.049*start
14,0.139*to,0.098*home,0.083*source,0.075*it,0.074*5,0.072*of,0.071*android,0.058*all,0.052*run,0.050*start
15,0.196*nexus,0.089*home,0.083*i,0.080*great,0.074*start,0.072*on,0.060*to,0.053*an,0.052*run,0.038*open
16,0.160*nexus,0.155*android,0.112*great,0.098*port,0.072*start,0.066*source,0.040*open,0.039*said,0.037*run,0.036*i
17,0.147*start,0.105*all,0.098*run,0.094*the,0.067*source,0.059*home,0.059*great,0.058*nexus,0.053*on,0.046*terrific
18,0.168*to,0.159*nexus,0.118*the,0.110*terrific,0.067*an,0.055*source,0.040*said,0.040*start,0.039*of,0.039*on
19,0.157*an,0.106*terrific,0.095*5,0.085*to,0.074*nexus,0.058*all,0.058*of,0.055*great,0.051*the,0.038*start
