Topic,Words
0,0.058*a,0.049*material,0.044*nothing,0.042*for,0.041*the,0.037*upgrading,0.033*latest,0.033*ideas,0.033*files,0.029*bug
1,0.080*backing,0.071*such,0.047*also,0.033*since,0.031*be,0.030*problem,0.028*bit,0.028*here,0.027*long,0.025*still
2,0.044*very,0.044*early,0.044*tracker,0.043*it's,0.043*the,0.039*developer,0.038*solutions,0.038*up,0.034*having,0.031*use
3,0.076*it's,0.059*towards,0.043*the,0.043*which,0.042*also,0.037*glitches,0.036*expected,0.036*way,0.032*software,0.032*fixed
4,0.093*little,0.085*towards,0.059*ideas,0.059*which,0.055*and,0.037*suggesting,0.037*way,0.036*100,0.033*material,0.030*design
5,0.108*very,0.078*long,0.062*up,0.039*i,0.037*a,0.035*little,0.028*and,0.028*way,0.028*till,0.026*have
6,0.083*tracker,0.053*me,0.041*helpful,0.034*software,0.034*easy,0.033*is,0.031*had,0.029*very,0.028*great,0.028*battery
7,0.088*developer,0.061*problem,0.059*a,0.052*since,0.042*had,0.042*also,0.037*it's,0.035*tracker,0.034*design,0.033*still
8,0.071*fixed,0.070*early,0.047*and,0.035*was,0.034*still,0.033*but,0.033*the,0.031*i,0.029*it's,0.029*here
9,0.103*is,0.066*battery,0.046*fixed,0.042*early,0.037*suggesting,0.034*too,0.033*long,0.031*upgrading,0.027*problem,0.026*fantastic
10,0.072*which,0.060*ideas,0.058*developer,0.048*really,0.042*material,0.041*but,0.038*critical,0.038*here,0.038*early,0.036*i
11,0.063*100,0.063*that,0.053*really,0.044*towards,0.039*upgrading,0.038*glitches,0.038*easy,0.036*material,0.036*little,0.035*with
12,0.092*bug,0.074*100,0.064*too,0.058*software,0.034*developer,0.033*to,0.032*up,0.029*till,0.027*design,0.026*battery
13,0.058*also,0.055*bug,0.049*is,0.046*files,0.038*helpful,0.038*a,0.033*material,0.032*to,0.030*developer,0.029*i
14,0.072*files,0.068*that,0.066*backing,0.051*such,0.050*software,0.049*me,0.047*material,0.041*really,0.032*here,0.031*upgrading
15,0.078*ideas,0.070*with,0.056*files,0.050*also,0.041*expected,0.041*me,0.040*is,0.038*solutions,0.036*that,0.034*nothing
16,0.062*towards,0.055*and,0.054*suggesting,0.039*upgrading,0.035*nothing,0.035*with,0.031*design,0.031*long,0.030*which,0.029*expected
17,0.062*have,0.053*tracker,0.044*really,0.043*me,0.040*problem,0.040*fantastic,0.039*open,0.039*material,0.030*extra,0.028*latest
18,0.075*which,0.071*the,0.050*100,0.050*i,0.039*material,0.037*very,0.037*tracker,0.030*here,0.026*till,0.026*developer
19,0.108*use,0.081*a,0.059*which,0.050*files,0.043*pointing,0.036*to,0.033*for,0.032*design,0.031*really,0.028*it's
