1) Number of Reviews Discarded,860
1) Percentage of Reviews Kept,29.04%
1) Total Number of Commits,82
1) Total Number of Reviews,1212
2) Commits Classified as Bugs,44
2) Commits Classified as Features,13
2) Commits Classified as Neither,10
2) Commits Not Classified,14
2) Commits Sentences Analyzed,81
2) Reviews Classified as Bugs,197
2) Reviews Classified as Features,10
2) Reviews Classified as Neither,192
2) Reviews Not Classified,86
2) Reviews Sentences Analyzed,485
