Topic Index 1,Topic Index 2,Topic Similarity
1,16,2.0
5,15,2.0
8,0,2.0
0,6,1.0
2,11,1.0
3,2,1.0
4,3,1.0
6,8,1.0
7,13,1.0
9,18,1.0
11,19,1.0
10,1,0.0
12,4,0.0
13,5,0.0
14,7,0.0
15,9,0.0
16,10,0.0
17,12,0.0
18,14,0.0
19,17,0.0
