Topic Index 1,Topic Index 2,Topic Similarity
1,0,11.11111111111111
5,2,11.11111111111111
6,9,11.11111111111111
8,18,11.11111111111111
12,16,11.11111111111111
15,3,11.11111111111111
0,13,5.263157894736842
2,6,5.263157894736842
7,7,5.263157894736842
10,1,5.263157894736842
13,8,5.263157894736842
14,4,5.263157894736842
16,14,5.263157894736842
18,5,5.263157894736842
19,11,5.263157894736842
3,10,0.0
4,12,0.0
9,15,0.0
11,17,0.0
17,19,0.0
