Topic Index 1,Topic Index 2,Topic Similarity
8,10,11.11111111111111
10,0,11.11111111111111
17,18,11.11111111111111
19,15,11.11111111111111
0,1,5.263157894736842
1,5,5.263157894736842
2,3,5.263157894736842
3,2,5.263157894736842
4,8,5.263157894736842
5,9,5.263157894736842
6,19,5.263157894736842
7,4,5.263157894736842
9,13,5.263157894736842
14,14,5.263157894736842
15,11,5.263157894736842
16,7,5.263157894736842
18,17,5.263157894736842
11,6,0.0
12,12,0.0
13,16,0.0
