Topic Index 1,Topic Index 2,Topic Similarity
0,9,11.11111111111111
2,17,11.11111111111111
9,3,11.11111111111111
1,8,5.263157894736842
3,2,5.263157894736842
4,11,5.263157894736842
5,1,5.263157894736842
6,6,5.263157894736842
7,4,5.263157894736842
8,13,5.263157894736842
10,16,5.263157894736842
11,12,5.263157894736842
14,15,5.263157894736842
15,0,5.263157894736842
16,19,5.263157894736842
19,7,5.263157894736842
12,5,0.0
13,10,0.0
17,14,0.0
18,18,0.0
