# deletions,date,commit message
2,2015/4/30,enabled material design for android 5 had to update target android version for that
3,2015/4/24,removed unused imports
28,2015/4/23,Fixed multiple activities opening while exiting preferences problem
5,2015/4/04,removed unused string 'exit'
21,2015/4/04,refactored usage of activity lifecycle methods to make sure re-printing of tables is done only once
9,2015/3/31,Update spanish translation
2,2015/3/29,set announce pref default to false as it may cause crashes
41,2015/3/29,now using loglevel verbose/trace for filesystem classes
9,2015/3/29,added logging to analyze crashes and bonjour problems -> they belong together. Updated preferences text to tell users that bonjour may cause crashes.
29,2015/3/27,cleaned up display of key fingerprints was confused as 'scp' shows different fingerprints then other tools/clients
26,2015/3/17,now letting users choose which servers to start
16,2015/3/14,made wakelock static synchronized and configurable
29,2015/3/01,now showing state for each port
29,2015/3/01,now showing state for each port
68,2015/3/01,now using a PreferencesChangedListener to display toast that server must be restarted now more overriding of equals required. Currently toast is shown even when server not running.
68,2015/3/01,now using a PreferencesChangedListener to display toast that server must be restarted now more overriding of equals required. Currently toast is shown even when server not running.
12,2015/3/01,a little renaming
12,2015/3/01,a little renaming
32,2015/3/01,improved display of key fingerprints: using monospace font encoding keys like ssh does (and other clients still not done) before fingerprinting switched back to pubkey fingerprint added text to explain fingerprint encoding little reformatting and refactoring
32,2015/3/01,improved display of key fingerprints: using monospace font encoding keys like ssh does (and other clients still not done) before fingerprinting switched back to pubkey fingerprint added text to explain fingerprint encoding little reformatting and refactoring
11,2015/2/22,updated display of key fingerprints
11,2015/2/22,updated display of key fingerprints
1,2015/2/22,removed unused import
1,2015/2/22,removed unused import
7,2015/2/22,refactored: own package for prefs moved NotificationUtil to util package
7,2015/2/22,refactored: own package for prefs moved NotificationUtil to util package
185,2015/2/22,not using certificates anymore but just public/private key pair replaced the term cert with keys
185,2015/2/22,not using certificates anymore but just public/private key pair replaced the term cert with keys
15,2015/2/22,outcommented logging again (due to google play guidelines)
15,2015/2/22,outcommented logging again (due to google play guidelines)
120,2015/2/22,several changes regarding sftp: - writing private key to own file - fixed loading of own keys on server start - implemented some missing methods of SshFile (-SystemView) e.g. reading of attributes - updated ports and service names for bonjour
120,2015/2/22,several changes regarding sftp: - writing private key to own file - fixed loading of own keys on server start - implemented some missing methods of SshFile (-SystemView) e.g. reading of attributes - updated ports and service names for bonjour
34,2015/2/22,added 2 dialogs for certificate generation: one to ask user if he wants to generate a cert an another to indicate progress of generation
34,2015/2/22,added 2 dialogs for certificate generation: one to ask user if he wants to generate a cert an another to indicate progress of generation
47,2015/2/15,removed old certificate/keystore file which are not required anymore
47,2015/2/15,removed old certificate/keystore file which are not required anymore
220,2015/2/15,Implemented certificate generation. Updated display of fingerprints and other certificate info providing icon to re-generate certificate. Using own cert in SshServer removed comments from FtpServer updated texts.
220,2015/2/15,Implemented certificate generation. Updated display of fingerprints and other certificate info providing icon to re-generate certificate. Using own cert in SshServer removed comments from FtpServer updated texts.
87,2015/2/08,now using SshServerService: added it to manifest added it to activity enabled port preference renamed pref as it is not ssl anymore (text keys too) fixed classpath to allow eclipse to show src of jars added bountrycaslte jars as they are required by sshd-jar added sample cert (will be removed) a little cleanup and refactoring.
87,2015/2/08,now using SshServerService: added it to manifest added it to activity enabled port preference renamed pref as it is not ssl anymore (text keys too) fixed classpath to allow eclipse to show src of jars added bountrycaslte jars as they are required by sshd-jar added sample cert (will be removed) a little cleanup and refactoring.
111,2015/2/08,basic impl of ssh server not tested just compilable
111,2015/2/08,basic impl of ssh server not tested just compilable
308,2015/2/08,refactored service functionality to be reused by other servers like ssh/sftp
308,2015/2/08,refactored service functionality to be reused by other servers like ssh/sftp
2,2015/2/08,updated mina to 2.0.9
2,2015/2/08,updated mina to 2.0.9
2,2014/6/15,set version to 2.4-alpha and code to 9
2,2014/6/15,set version to 2.4-alpha and code to 9
1,2014/6/15,set version to 2.3
1,2014/6/15,set version to 2.3
