App,Store,App ID,Review ID,Country,Version,Rating,Date,Author,Subject,Body,Translated Subject,Translated Body
Ringdroid,Google Play,com.ringdroid,Z3A6QU9xcFRPRm01QTNCcm1JQ3JicUJPRU9WSEhsY0NCZGQxM2RqTUc5TmFXMi1YSWo4c0ZFWXRNeS1yQWlVdm9lY3R4U1FVNDhBaWRGNDBwME9ieXdD,English,,3,2015-06-09,tori p,,just about the only worked on my old phone,,
Ringdroid,Google Play,com.ringdroid,Z3A6QU9xcFRPRm01QTNCcm1JQ3JicUJPRU9WSEhsY0NCZGQxM2RqTUc5TmFXMi1YSWo4c0ZFWXRNeS1yQWlVdm9lY3R4U1FVNDhBaWRGNDBwME9ieXdD,English,,3,2015-06-09,tori p,,i play the song in my music it will play from beginning to end,,
Ringdroid,Google Play,com.ringdroid,Z3A6QU9xcFRPRm01QTNCcm1JQ3JicUJPRU9WSEhsY0NCZGQxM2RqTUc5TmFXMi1YSWo4c0ZFWXRNeS1yQWlVdm9lY3R4U1FVNDhBaWRGNDBwME9ieXdD,English,,3,2015-06-09,tori p,,but if i try to make a out of it in it show the first 6 second of the song,,
Ringdroid,Google Play,com.ringdroid,Z3A6QU9xcFRPRm01QTNCcm1JQ3JicUJPRU9WSEhsY0NCZGQxM2RqTUc5TmFXMi1YSWo4c0ZFWXRNeS1yQWlVdm9lY3R4U1FVNDhBaWRGNDBwME9ieXdD,English,,3,2015-06-09,tori p,,i have replaced it several time with no success,,
Ringdroid,Google Play,com.ringdroid,Z3A6QU9xcFRPRm01QTNCcm1JQ3JicUJPRU9WSEhsY0NCZGQxM2RqTUc5TmFXMi1YSWo4c0ZFWXRNeS1yQWlVdm9lY3R4U1FVNDhBaWRGNDBwME9ieXdD,English,,3,2015-06-09,tori p,,other song from the same album and set up work just fine,,
Ringdroid,Google Play,com.ringdroid,Z3A6QU9xcFRPR3phUEhxdElHX3hJWDN3NDZsbWZhMXVDSnVKRjQ3N2x3bF9tRy05WjRQYVB0VENGMC1YUWJXRDdqUndxWkE0blRFYUN0a19hbjV6VW8z,English,,5,2015-06-09,Joseph Benson,Ringdroid,thanks a lot,,
Ringdroid,Google Play,com.ringdroid,Z3A6QU9xcFRPRjZId3FsSDUtclhtV0diSWlJWFJzVFlxMl9pWmU0RGs3ZXM2ZlV0YUR5WFBrRFJyMXl4dGFuTmxsYTVRY1p4VnhPQXVKQjNNOGZSbzNM,English,,3,2015-06-09,p wilcox,Note 4.lollipop ...loved it before...,soon i open it shut down,,
Ringdroid,Google Play,com.ringdroid,Z3A6QU9xcFRPRjZId3FsSDUtclhtV0diSWlJWFJzVFlxMl9pWmU0RGs3ZXM2ZlV0YUR5WFBrRFJyMXl4dGFuTmxsYTVRY1p4VnhPQXVKQjNNOGZSbzNM,English,,3,2015-06-09,p wilcox,Note 4.lollipop ...loved it before...,re thing happens,,
Ringdroid,Google Play,com.ringdroid,Z3A6QU9xcFRPRjZId3FsSDUtclhtV0diSWlJWFJzVFlxMl9pWmU0RGs3ZXM2ZlV0YUR5WFBrRFJyMXl4dGFuTmxsYTVRY1p4VnhPQXVKQjNNOGZSbzNM,English,,3,2015-06-09,p wilcox,Note 4.lollipop ...loved it before...,fix,,
Ringdroid,Google Play,com.ringdroid,Z3A6QU9xcFRPRzAxd3JKYTZuQlo5NGRIdk54MWw4RkJacTNodk8zMzFUVXpubHg4MXlxVGlIQmxGbzZCQ1REOERRbzdTWmpaYW5WdWthbkVKNElYc256,English,,5,2015-06-09,Ernest Snyder,,it ready,,
Ringdroid,Google Play,com.ringdroid,Z3A6QU9xcFRPR0JsWjk5OHRsczcyamg3ZXg2eVFTUGpDcDFVNHIzZ0JyX2dicmlUVDlocUVMRnFydlRHM2JZTEZHbG5NNU9fTUFuZEc4UW5aaXpxRWxZ,English,,5,2015-06-09,M Vazquez,!!!THE BEST!!!,i would recommend this to everybody maker is awesome for all need,,
Ringdroid,Google Play,com.ringdroid,Z3A6QU9xcFRPR0JsWjk5OHRsczcyamg3ZXg2eVFTUGpDcDFVNHIzZ0JyX2dicmlUVDlocUVMRnFydlRHM2JZTEZHbG5NNU9fTUFuZEc4UW5aaXpxRWxZ,English,,5,2015-06-09,M Vazquez,!!!THE BEST!!!,i would like to get the full version of it,,
Ringdroid,Google Play,com.ringdroid,Z3A6QU9xcFRPR0JsWjk5OHRsczcyamg3ZXg2eVFTUGpDcDFVNHIzZ0JyX2dicmlUVDlocUVMRnFydlRHM2JZTEZHbG5NNU9fTUFuZEc4UW5aaXpxRWxZ,English,,5,2015-06-09,M Vazquez,!!!THE BEST!!!,so please respond to me you get a chance guy or gal,,
Ringdroid,Google Play,com.ringdroid,Z3A6QU9xcFRPR0JsWjk5OHRsczcyamg3ZXg2eVFTUGpDcDFVNHIzZ0JyX2dicmlUVDlocUVMRnFydlRHM2JZTEZHbG5NNU9fTUFuZEc4UW5aaXpxRWxZ,English,,5,2015-06-09,M Vazquez,!!!THE BEST!!!,easy fix issue turn your unit off on then might respond better not then reinstall it,,
Ringdroid,Google Play,com.ringdroid,Z3A6QU9xcFRPR1JYVzBQdEFkTUVIZmVDdU5ROW45N2FPeUNRaWMtTGYwMVJvbTNBaEJXcWsxa21COGFuQndQTTJEdTYwc0dyblpyQTM2UzB2dmRQR0FD,English,,1,2015-06-09,Tameka McNeill,Doesn't work anymore won't save!,,,
Ringdroid,Google Play,com.ringdroid,Z3A6QU9xcFRPRlAxY3AyUnFmTVRzYjI2ZlNmM05jcU9BQjFzWXp0eTFmcnc4Y05xYzdNN1p4LWxSeFNhVFFxb2ZoRFd0bTdHRmZDTFZVcFR1dGhFU3pv,English,,1,2015-06-08,tarun patel,Worst app ever i used ..,it got crashed i make and select a default,,
Ringdroid,Google Play,com.ringdroid,Z3A6QU9xcFRPRzZHUUJqR0JIZTQ5eUp2NDk4T3ZqaTlGMVdtQnRsQm83SklUYk11WEZwY1lEOG5fZGp1ZWhPWmtOQmNPM283R2w2YnBHSXhqTExJVGZY,English,,5,2015-06-08,King David 314,,good,,
Ringdroid,Google Play,com.ringdroid,Z3A6QU9xcFRPRjBrN3Y1MFBhZVBSc1ZrYTBhZFBtbU9qdU5EYTN0NGhZRU9fS2tqYWJHR1M4Tl96RGtWTG1HeVpqN2NtcTU0TFNfSE5UZmpuZ3J1LUlt,English,,5,2015-06-08,Traa Airi,5,galaxy note 2,,
Ringdroid,Google Play,com.ringdroid,Z3A6QU9xcFRPRlBuUkh1QlBQQ3dUZkNFR28tbjVscXNDZVp4TVJUa0VGWnpGLUlFZi1TQ3lmODcySVg1UEFPb1p3Z3J4cjBtTlRKdzVNSWVfa2lHZDVE,English,,5,2015-06-08,William Litton,Great App!,easy to use,,
Ringdroid,Google Play,com.ringdroid,Z3A6QU9xcFRPRVFSU2stT01rZUdRdDFCZ0FhMzFzN0VxdnZ6VEt3aEoyNjVMYTZwcE9CbXVhdDJrV1FEQlRLaUJDd3lfb2hlb0JFZWNnUHNNVkZmY0ZC,English,,4,2015-06-07,james c,Good but it needs one more thing...,this would be a five star rating it had support for file type,,
Ringdroid,Google Play,com.ringdroid,Z3A6QU9xcFRPRWotNDEtQ01GeEZoSEs0YlRqdFl5RGlWV2Z1OF94WnphclhoRWNxSl90M3ozUExDaG11dE5VcWZYbEN4Y2dHaUxUT09tenFJWkNTbVdS,English,,5,2015-06-07,Muhd Khairi,,good,,
Ringdroid,Google Play,com.ringdroid,Z3A6QU9xcFRPR1hFR3BCOXhma1R6clNUZEZCM3JLNFNxdG5ueFJiRDFKcjZKVVhrdHlpNVRwbGdWcnNrNHNEal8ySWhnLU5pY2dzMTJ6bEdndjZZMFZh,English,,1,2015-06-07,Sagar Ladva,,force closing,,
Ringdroid,Google Play,com.ringdroid,Z3A6QU9xcFRPRzNSNTFXcl9nWG9LXzlNS0FUdGd5cjAzclkzdTFlZUdDLU1NUmc5UF9tZ1FZNHozYTBGdVp4cXJVMThEV2ZsNmZFMlZBbVFXWWw5RjJs,English,,2,2015-06-06,Shailesh Mulashiya,Super,s,,
Ringdroid,Google Play,com.ringdroid,Z3A6QU9xcFRPRml0cU0wb3ZMMWZhZXNBZXpUS2JjZEtUU3YwYmpwQ05PVlRweDZ0UFEyZmVubm5oemRDUE5TRlpxdHJ2UmQ0ZVpaa19valltdU5VYVV3,English,,4,2015-06-06,Thurgavaty Selvalingam,,nice,,
Ringdroid,Google Play,com.ringdroid,Z3A6QU9xcFRPR21xcTVNdnVPd3NlSG82Y251cldtRHd6Y1RfZmtHVTg3VDVROHhPR0xMWnUxb080a3NFVzkxZDJ5VTIyRFlMRThFd3pZTTZEV3FTX2Jh,English,,5,2015-06-06,edwin rivera,,,,
Ringdroid,Google Play,com.ringdroid,Z3A6QU9xcFRPRTlqT3RELXhVb0I2TDR2RXBqeFRoeFNWdVRHUlBHR05za2ZFQno3NDRKdEJ1a0M3bDhZa2xXZS11NkZGUTZYenV6UW4zU1VUTEVnSVNo,English,,5,2015-06-06,Mars Aquino,Great,great,,
Ringdroid,Google Play,com.ringdroid,Z3A6QU9xcFRPR0cydWpXeTBBNEdxYk1JLXVJZEt1X2IyRHN2S1ZOV3FJSi1DejhfZFZFa19waXlHUWJ5d3lNaDItNmhMSzBoNnVGakltQkgyQ0R3SW02,English,,1,2015-06-06,Mohd Ikhwan,Worse,cannot open the file,,
Ringdroid,Google Play,com.ringdroid,Z3A6QU9xcFRPR0cydWpXeTBBNEdxYk1JLXVJZEt1X2IyRHN2S1ZOV3FJSi1DejhfZFZFa19waXlHUWJ5d3lNaDItNmhMSzBoNnVGakltQkgyQ0R3SW02,English,,1,2015-06-06,Mohd Ikhwan,Worse,fix it,,
Ringdroid,Google Play,com.ringdroid,Z3A6QU9xcFRPR2hjaGlCNk1zVWxPcE1CZGItZUItV2RDREdNWjg1aDVzRU5Na1VyOHBYTTN1ZWN5b1VSWHNfX0FCVVMyV1h5MWU2OVgzLUtZSzQtQ29v,English,,1,2015-06-05,Ahmad A-Kareem,,always force close message,,
Ringdroid,Google Play,com.ringdroid,Z3A6QU9xcFRPSG9zUjhJVmhmN0RmQkp4T3NidFdSX1drLTlrbW90RW9DMUFYOTV0andQa01lbWZqaGdRYWFxR1dWbjlyRWozQmFyWGtudEpaZVRsUWYw,English,,5,2015-06-04,saturday girl,,good application,,
Ringdroid,Google Play,com.ringdroid,Z3A6QU9xcFRPRXlaY1hTeDdpcHdia2puaEprYmEtUFZxWXJwMVdQNDNSaTdLSzJ6blY4X052bzRON0VBQUM2NEFLVVZETEhkMFZIU1ZkRU1jRDY5UUNL,English,,5,2015-06-04,kyawsoewin kyaw soe win,good,good,,
Ringdroid,Google Play,com.ringdroid,Z3A6QU9xcFRPR2VmT2xPcV91QllNa1lPaWgyOEtOX284eVZjVU9NVWZ3LVVDZE9lX191aGgwaUZUc1pBeGVWV09uUUdDZ0Ytd0xpdjRqT3U5QnVjbzgw,English,,1,2015-06-04,Doug Allen,Asks for TOO Many Permissions,it asks for too many permission,,
Ringdroid,Google Play,com.ringdroid,Z3A6QU9xcFRPR2VmT2xPcV91QllNa1lPaWgyOEtOX284eVZjVU9NVWZ3LVVDZE9lX191aGgwaUZUc1pBeGVWV09uUUdDZ0Ytd0xpdjRqT3U5QnVjbzgw,English,,1,2015-06-04,Doug Allen,Asks for TOO Many Permissions,time to delete the,,
Ringdroid,Google Play,com.ringdroid,Z3A6QU9xcFRPSE8yaWx0TzVFVlR2VUpSQ1h3SlFQTDB3bXRaQ1d6Q05CQjZoUGVXaHNvMlphV3d2b2dWTnZiTW9nMVVnYTF3ZGNOLVZKdlZ2MEsweE4w,English,,2,2015-06-04,pandaphung NP,Worse after update,can you fix it,,
Ringdroid,Google Play,com.ringdroid,Z3A6QU9xcFRPSE8yaWx0TzVFVlR2VUpSQ1h3SlFQTDB3bXRaQ1d6Q05CQjZoUGVXaHNvMlphV3d2b2dWTnZiTW9nMVVnYTF3ZGNOLVZKdlZ2MEsweE4w,English,,2,2015-06-04,pandaphung NP,Worse after update,and i like to save to more too,,
Ringdroid,Google Play,com.ringdroid,Z3A6QU9xcFRPR3N2ZktzSWtESFFIbXV5bWotRXFERFJmM3YxUFpudXViQjZRMzdFZVFaTS1wcFNsaThlWnRVMHpoYkgxSUh2QWRrNWVSWmdMczIzaXJB,English,,4,2015-06-03,Quincey Stohs,,simple but effective interface to edit sound byte and into appropriate size for and notification,,
Ringdroid,Google Play,com.ringdroid,Z3A6QU9xcFRPR3N2ZktzSWtESFFIbXV5bWotRXFERFJmM3YxUFpudXViQjZRMzdFZVFaTS1wcFNsaThlWnRVMHpoYkgxSUh2QWRrNWVSWmdMczIzaXJB,English,,4,2015-06-03,Quincey Stohs,,and my recognizes them applicable,,
Ringdroid,Google Play,com.ringdroid,Z3A6QU9xcFRPRW9nS2RFYVZYcWh5cXlwQ0s4aGtqSVpxZzZJTE9RNW1YME5iRTlSRmFpbFctZUN2alVsMkpNOWtEZ3pBbHp4MlpVZnZiekMtRk9pMEFZ,English,,1,2015-06-03,JT Hudson,Erased my memory stick,i down loaded this to convert some file for a i knew it can not convert window,,
Ringdroid,Google Play,com.ringdroid,Z3A6QU9xcFRPRW9nS2RFYVZYcWh5cXlwQ0s4aGtqSVpxZzZJTE9RNW1YME5iRTlSRmFpbFctZUN2alVsMkpNOWtEZ3pBbHp4MlpVZnZiekMtRk9pMEFZ,English,,1,2015-06-03,JT Hudson,Erased my memory stick,save yourself the trouble,,
Ringdroid,Google Play,com.ringdroid,Z3A6QU9xcFRPRVVJa0p1alp2QTZTNGhDeXhxV3M5Y21URmgwMVItNmxmenpMRWYtN042Y2lidk1GNHhoaFVhMlM0RWZWUzlNUjBwbHpKSnRkd01MeVFV,English,,5,2015-06-03,Donggun Kim,,solid,,
Ringdroid,Google Play,com.ringdroid,Z3A6QU9xcFRPR3VxcVdOTmZ2NGIzNXkzaDdsa2RFNXNMTUZveFBhNHctVFdjQ0Jsdm1RWHdDMWwyVy1yc3B5ZFp6NWNwTUNLaWVDWHdWdkFpUV8tN1ZQ,English,,1,2015-06-02,Al Xe,suck!!,always stop to set,,
Ringdroid,Google Play,com.ringdroid,Z3A6QU9xcFRPRUdxZF9ZZ1IxdnVGUTREM1VvT0twQnJURjBJb09FZ2ExUkVRN0N3N0tSa3ZVdHltTk5TWXlzWlh6czd2c1BVNk1Xd0s1YXJfMGpxYWRS,English,,1,2015-06-02,R Bryant,,new update bad idea,,
Ringdroid,Google Play,com.ringdroid,Z3A6QU9xcFRPR1l0ZXYwLVlxVlRsVGZfRXhocGZKLWlreUk2NEZsRFJjT3BfZmdGbUc3dmZRM2trdWw4Um5pT2cxVFZIWV95OWQ1U3V4eF9rdUJIeEZY,English,,4,2015-06-02,zayaung lin,,special,,
Ringdroid,Google Play,com.ringdroid,Z3A6QU9xcFRPRlVpQ3ZsZHRELTNLTE1MV1JCWmQ0Y3RpTzk5WGpvb2lQMG5NTC1WZUtmSlpaQWI3VFd2WXlWLXNjdmMtZEJIQWhNaVdaMWhFalNxNENu,English,,4,2015-06-02,,Update,need an update,,
Ringdroid,Google Play,com.ringdroid,bGc6QU9xcFRPRm9FXzBwZHNXYXFuTkJTdF84S09YNTJHR1hubVJTMXZDUXV1QkZKcFUwcWx1Y2xmTUNETXZIbjUwZExzdlhsZ011YXF3VGJZSU9SZDk1,English,,5,2015-06-02,A Google User,Superb,mast,,
Ringdroid,Google Play,com.ringdroid,Z3A6QU9xcFRPRmhaajdERV9kSVlJNWFDN3lvSUo2X1VTaVA2bHVjTWNTWkRmNkxrdTBEMlpNOGM2a2ZMVWN6bEMwdm1YR2gyUlNYWWRqT2E3WExJd2d1,English,,5,2015-06-02,Khaleefa Anas,Nice,great,,
Ringdroid,Google Play,com.ringdroid,bGc6QU9xcFRPRTNCWENtSmRiakNPakhLOF83SldCbUlyWXV3T1RrM0dsczM3MDdiYUdYbWQtcXFYZ2k2RVU0OVpkQi1YTDJraG9mSVYyN3E0UW5UY0tm,English,,3,2015-06-01,A Google User,,is the coolest way to make your own out of any sound on your phone,,
Ringdroid,Google Play,com.ringdroid,Z3A6QU9xcFRPRTBXSl96akhzZDIwbHhNbUEwT28zNzlVTVBLRDdFQmdyYk1vbHhnVmlhTlJQRDcwZGpPVnBabEZWbFVKTzRXUEFCeTZzWE9fUEpOWlhO,English,,5,2015-06-01,Elijah Dyer,Amazing,work super well,,
Ringdroid,Google Play,com.ringdroid,Z3A6QU9xcFRPR0dQQTJOR3lCeGd6TGR4bWNwY0VqZEZJeVQ4NzFFNjlQdTdFUDlLcmhpVWk4UVVCR3FDYm5HTWlpLUFhbDl0d081YmVLLWU3SElNakpC,English,,1,2015-05-31,pasxis luong,Suck right now,it s totally crashed update,,
Ringdroid,Google Play,com.ringdroid,Z3A6QU9xcFRPR0dQQTJOR3lCeGd6TGR4bWNwY0VqZEZJeVQ4NzFFNjlQdTdFUDlLcmhpVWk4UVVCR3FDYm5HTWlpLUFhbDl0d081YmVLLWU3SElNakpC,English,,1,2015-05-31,pasxis luong,Suck right now,wrong with u guy,,
Ringdroid,Google Play,com.ringdroid,Z3A6QU9xcFRPR0dQQTJOR3lCeGd6TGR4bWNwY0VqZEZJeVQ4NzFFNjlQdTdFUDlLcmhpVWk4UVVCR3FDYm5HTWlpLUFhbDl0d081YmVLLWU3SElNakpC,English,,1,2015-05-31,pasxis luong,Suck right now,why make a good currently become an useless,,
Ringdroid,Google Play,com.ringdroid,Z3A6QU9xcFRPR0dQQTJOR3lCeGd6TGR4bWNwY0VqZEZJeVQ4NzFFNjlQdTdFUDlLcmhpVWk4UVVCR3FDYm5HTWlpLUFhbDl0d081YmVLLWU3SElNakpC,English,,1,2015-05-31,pasxis luong,Suck right now,make it right please team,,
Ringdroid,Google Play,com.ringdroid,Z3A6QU9xcFRPRjd5RkUweWU5a2NsRUxHcTY4VlF4NXFjQTRJUkNGS0lrQ18wV2F2SkhRU1ljcGJqSTM2OXR4NGdBd3JmWl9SMVdFMlF5OUxaZ3ppVjdk,English,,5,2015-05-31,travis roberts,,amazing,,
Ringdroid,Google Play,com.ringdroid,Z3A6QU9xcFRPR2JqYnZUT3V1WWVzbE5ibzFLTC1fU21OSS1WU1hqaUFBNk56VG92ZVRZSTE3LXRIY2RYaWV5NU9kNE81WEJCQm05UmRrYW5vY2d6SThR,English,,4,2015-05-31,Cynthia L. Mata,,fast,,
Ringdroid,Google Play,com.ringdroid,Z3A6QU9xcFRPRkliWGxWUkRzQWJUUWttMFIxb0xXaFlYbi1IVTJ5VFN5V2hxSjAyR2s0WUJxejNlZ1dtZEhCSnJ0dDFReTQ1MWlVYkVGOWFGZV84TW1J,English,,5,2015-05-31,Ko Ye Wint Aung,,the best,,
Ringdroid,Google Play,com.ringdroid,Z3A6QU9xcFRPR3JLUHVuemJBcXMtd0xnZ0tNdU5DZ2h0RlJxM2dUd3pnWGd3ZFJEcTZBSUp2VHBlbURCdzNmaGE2TWVqM3dWVG1aS21zbERHaXJPX1Jo,English,,5,2015-05-30,Paris Lane,,best ever,,
Ringdroid,Google Play,com.ringdroid,Z3A6QU9xcFRPSFpQUFowVndmbHh3QlJXV1oxQXhBcW1iTlNqTV9SdWd1czZ4SWxLdzJGQ19Sb09oWDVySEZHcW5UVFpjdDk2bDc3cGZrODRZN3ZlWEot,English,,1,2015-05-30,Perow Gourlay,Samsung Galaxy Ace 3,but the last update ha made the faulty,,
Ringdroid,Google Play,com.ringdroid,Z3A6QU9xcFRPSFpQUFowVndmbHh3QlJXV1oxQXhBcW1iTlNqTV9SdWd1czZ4SWxLdzJGQ19Sb09oWDVySEZHcW5UVFpjdDk2bDc3cGZrODRZN3ZlWEot,English,,1,2015-05-30,Perow Gourlay,Samsung Galaxy Ace 3,i could use this on all music tone with no problem,,
Ringdroid,Google Play,com.ringdroid,Z3A6QU9xcFRPRjhwZjdZdjF4S2RDWXRfeDZJek92M2ozWUlDY0J0bVFpbTRweUlwcUkwN25KdG1YTXdSaThyZktTRmhCbDV1VldsWjFLazAtZzA0ZmpF,English,,1,2015-05-30,anne adoga,Hate it,it always day had stopped i try to save a,,
Ringdroid,Google Play,com.ringdroid,Z3A6QU9xcFRPRktGUXRfWHJhMjBzcC1xUDFoczhtUmJEQklSalppR0ROYW5IaE8tYTJ3dHJWYUZfS1o2WURMYm1Ld0tnTXpMWGhlWkthT2tLUWM5N3hX,English,,5,2015-05-30,Marcus Kaczmarek,Sweeeeeet,thanks for updating to lollipop,,
Ringdroid,Google Play,com.ringdroid,Z3A6QU9xcFRPRmVmVzNSelNlLTVoVl9GYUFJSGV2LVcwVUpFaEhuVTNKUEhWQ1N2UTRPeWNKU1NuYnNBQ1RhQVlpMEsyZEtzSjN0SkltWUZELUJoVGtN,English,,1,2015-05-30,Ambuj Chaurasia,Best,very cute,,
Ringdroid,Google Play,com.ringdroid,Z3A6QU9xcFRPRXR0cUtHZFpYaTdGTWhuS1lUaFZhWDBUSWdaT21mdFlfZ0pIc05KWnlaeGFQLVo1a2R3cXRLNDh4UnNTcUczR0pzeHdHUXdad2pFR19k,English,,1,2015-05-29,Shelly Reeves,update makes it force close,used to be fantastic now,,
Ringdroid,Google Play,com.ringdroid,Z3A6QU9xcFRPSFVLWHhJNm9BdzR3Ukl1d081WXBweV9OX211S1haS25Sejd0VXhqbmZfUC1lR0VXZ3JJazl2N2JzZWN3bGhIdUZvZ19mUldQMFl5YjUx,English,,1,2015-05-29,Macy Taylor,Horrible,total waste of space,,
Ringdroid,Google Play,com.ringdroid,Z3A6QU9xcFRPSFVLWHhJNm9BdzR3Ukl1d081WXBweV9OX211S1haS25Sejd0VXhqbmZfUC1lR0VXZ3JJazl2N2JzZWN3bGhIdUZvZ19mUldQMFl5YjUx,English,,1,2015-05-29,Macy Taylor,Horrible,you do not want this it is horrible,,
Ringdroid,Google Play,com.ringdroid,Z3A6QU9xcFRPRlNfVjBVMWtIc3pja1lkUld5VzJDMTBzdnRlYjNEZjB4VDRUZmtNWUx5a0x2NmtKSU9BNEFTelIyMjY5bVZxNUFaY2VfUG1UNXB2RElF,English,,5,2015-05-29,Ariella Pardo,Amazing,love it,,
Ringdroid,Google Play,com.ringdroid,Z3A6QU9xcFRPRUNvR1NFRV8wQmxWajZuVG5PYXlXNlBMcFIyenp1cmM5OFhFN2NsQlp6OF9zR0xaUkYxeU54emJBSXZjcWFjZ3REQWhlN3Jac1NKUkhF,English,,1,2015-05-29,Ryan Roeser,Permissions,why would this need access to contact,,
Ringdroid,Google Play,com.ringdroid,Z3A6QU9xcFRPSGx6NGtoa2hzQzJtbzB2MEJ5YmpNZU5QTmNHWUZqbW1HTUJYemt3b0lGZDFKX1FfZkp2bWRCMmhTSW1UM2pfUGFhU002S2hSLWlDQ3JY,English,,5,2015-05-29,Deasel BossBandzz,,raw,,
Ringdroid,Google Play,com.ringdroid,Z3A6QU9xcFRPSDhueWxuMWNxTkRVUU5iYUMwY3cwMk0wWVFpSFJPSVlhcy1kRlJmOUhIX0lDS1hPWGdGc2pIbmxIVDBhWkZaQnJUbk5wU1FBQ2lFX1Iy,English,,5,2015-05-28,Yash Patel,Awesome,superb,,
Ringdroid,Google Play,com.ringdroid,Z3A6QU9xcFRPRjItR1dDRFN6S0hHdW1iSVYtalo5TG05THpnQ3BNRjU3TEhxb01xVjJoN2JnQm83eW1vTFdvX1ZkTUdES253Ujlrb3h5QkxPMkdRRVk0,English,,5,2015-05-28,jaynool abdool,Music pro,fantastic application,,
Ringdroid,Google Play,com.ringdroid,Z3A6QU9xcFRPSGdaUDZzUlhWNGRvak1nY1g0ajZwYWxSQkRsMXJYSy1NUEV6ZHNTWkpHYWtHNkNMOEhWX3BQWjdqSkVsUUlZTGxuVjl0a0MtLVhtLXhf,English,,5,2015-05-27,Jen,,perfect,,
Ringdroid,Google Play,com.ringdroid,Z3A6QU9xcFRPRkJhQ3JfSE0wSHhGSDUtUkdxSmZjVEFRbE9zYmhnYjV5YV9hUi1BYU4wUndScEZjVENIV1ppN2UwZmZkc0J6ZlRXZWkxLXhDWUpOSXFI,English,,2,2015-05-27,S McCray,Not happy!,wa great but it now customizes all my to 15 the previous one that were longer that,,
Ringdroid,Google Play,com.ringdroid,Z3A6QU9xcFRPRXBQNnZyNWp0RGxsM1NVNkhZcnpPd0dZbXVtSTdyVVZxWENqME1uaVd3TGpvckZVbXhUNTU2Y19IMTVVM1VFZmE3TEI5V3ZnM3laTWpn,English,,5,2015-05-27,Chelsea Mcm,Goodwood,just is,,
Ringdroid,Google Play,com.ringdroid,Z3A6QU9xcFRPSEEyUWZ0Qmx0bVlpTWpQcXJfZ1hvbG9MYldOUGRwc2pTc1dhQTBvT2tQUjFfREpyS0w4Rk93Y21RTWV0eWUtNWFxZ2wyRHFVMXF1b2hY,English,,5,2015-05-27,Krishna chandar,Good,,,
Ringdroid,Google Play,com.ringdroid,Z3A6QU9xcFRPRnhBY1hRQ1Ywa1dhZjJKX0tGaVhEZUczNG1TSVBjLURvbFotaVV1ZzFsX2FLVVlpMTFFZ2hrTG84b29YbkxMN1JNalo5Q3RaT240Qmpa,English,,5,2015-05-26,Michelle Simpson,User Since 2009,this is a great,,
Ringdroid,Google Play,com.ringdroid,Z3A6QU9xcFRPRnhyMXJwQVltRGl0MU5GQmdCZzNsNnYtNzFtR0tDaVJWeUFjMU5mR3FZNDVwMWFHQWVpR3dKZ2lKTlRKTzZ2SGtXNWp2VDZNNnNmakZZ,English,,4,2015-05-26,A N ASHRAFUL ISLAM,,,,
Ringdroid,Google Play,com.ringdroid,Z3A6QU9xcFRPRzk0XzdNR0VrQ0JfS2RINzNoTmhJRk9NM054d3NCUXhiTnh3U0xZSGFKbmUwV3kyUHpHd0VuUVFTWUlNNVl3Vm5mMlkzbHJTNm9idTVt,English,,1,2015-05-26,Darren Ponton,Doesn't work anymore,it offer reporting it to but clicking say play ha stopped,,
Ringdroid,Google Play,com.ringdroid,Z3A6QU9xcFRPR2tKUWNwd24zVTJwak1MTjY3V2Ixd25UWWRERHM2TGFfb0tGMXBIMkxVS0ljb2xFQVZuOXFvS29aR0pvenFzTkZOZW81QlhoSjdITV9V,English,,1,2015-05-25,Tay Wright,Not happy,been having this for and today i went to try to make a and it not letting me it start that i did a update please fix unhappy right now,,
Ringdroid,Google Play,com.ringdroid,Z3A6QU9xcFRPRWlLRjI3M2dpMFFiUkxpTkNWVVZGNkR3WWhWN0tlbGdESmR4MUUtM0NPN1BuTGVHMURnZnRDaW9ld0t1LVJJTkFZeDAwLVRKUEgyckZr,English,,1,2015-05-25,Paul Walsh,Crashes,suck,,
Ringdroid,Google Play,com.ringdroid,Z3A6QU9xcFRPSFY1akZPYmlCVVRvak9LSVBqSi1NczA4VUoxU1JFZ2JINVAwYWlLR21DUU53NjhtVy1MSHM2aEIyU1ZVOFNOMWo3b2N1czk0NUg5MFVZ,English,,5,2015-05-25,Karuppa samy,,super,,
Ringdroid,Google Play,com.ringdroid,Z3A6QU9xcFRPR0FKT1FGUUZRdE9GSy1lUm9nSnBhSUZBZlNwT3NtTnp1RFExR3NMOEExXzBCQ1FOeVNFOXVzX2VLTlJPZm9BdWlrd3MtZWRGR0xibjA5,English,,1,2015-05-24,Shontaye Atwood,Too bad.,i loved this until about 5 minute ago every time i made a the forced closed on the save,,
Ringdroid,Google Play,com.ringdroid,Z3A6QU9xcFRPR0FKT1FGUUZRdE9GSy1lUm9nSnBhSUZBZlNwT3NtTnp1RFExR3NMOEExXzBCQ1FOeVNFOXVzX2VLTlJPZm9BdWlrd3MtZWRGR0xibjA5,English,,1,2015-05-24,Shontaye Atwood,Too bad.,,,
Ringdroid,Google Play,com.ringdroid,Z3A6QU9xcFRPRnRUS280c3o3N3lRR3F5WHJBZzJEVk11OHM1MTVUS3JXdTY3QkhnMThOemdlS2xCRlB3U00zUVoxcnBZN0lIdm9GZ2lZOHNJTXRYcUh5,English,,3,2015-05-24,Robin Hewitt,Update downgraded app,and now it take untold second for the song to load before they played instantly,,
Ringdroid,Google Play,com.ringdroid,Z3A6QU9xcFRPRnRUS280c3o3N3lRR3F5WHJBZzJEVk11OHM1MTVUS3JXdTY3QkhnMThOemdlS2xCRlB3U00zUVoxcnBZN0lIdm9GZ2lZOHNJTXRYcUh5,English,,3,2015-05-24,Robin Hewitt,Update downgraded app,the functionality seems to be nonexistent,,
Ringdroid,Google Play,com.ringdroid,Z3A6QU9xcFRPRnRUS280c3o3N3lRR3F5WHJBZzJEVk11OHM1MTVUS3JXdTY3QkhnMThOemdlS2xCRlB3U00zUVoxcnBZN0lIdm9GZ2lZOHNJTXRYcUh5,English,,3,2015-05-24,Robin Hewitt,Update downgraded app,,,
Ringdroid,Google Play,com.ringdroid,Z3A6QU9xcFRPSHF5YmEwVGhXUFhGMEoyV1hMeEZtVm4zRWxkZzZtYjN0a0g4MDJ3cTJuZy04SXNNSUpBOVJjZEVhcUdnY0RCWVdXZWw4clE3aHNCbEND,English,,1,2015-05-24,yogesh pant,Best app for custom ringtone but,best for custom maker but still not supportive on android l third class giving 1 star,,
Ringdroid,Google Play,com.ringdroid,Z3A6QU9xcFRPR192LXVKdEhEdWtCaXQwTmdQTW9VWjBpZGQwUVJmSFRkdjlHWTRZc1UtdG1MTUstUkpIV3B6MENJOGtLMGFZV0dqS014SW1RbmNQWmM5,English,,3,2015-05-23,Giant GreenDinosaur,Hmmm,i loved this i found out it cannot edit type file,,
Ringdroid,Google Play,com.ringdroid,Z3A6QU9xcFRPR192LXVKdEhEdWtCaXQwTmdQTW9VWjBpZGQwUVJmSFRkdjlHWTRZc1UtdG1MTUstUkpIV3B6MENJOGtLMGFZV0dqS014SW1RbmNQWmM5,English,,3,2015-05-23,Giant GreenDinosaur,Hmmm,obviously many of my song are i use window medium player,,
Ringdroid,Google Play,com.ringdroid,Z3A6QU9xcFRPR192LXVKdEhEdWtCaXQwTmdQTW9VWjBpZGQwUVJmSFRkdjlHWTRZc1UtdG1MTUstUkpIV3B6MENJOGtLMGFZV0dqS014SW1RbmNQWmM5,English,,3,2015-05-23,Giant GreenDinosaur,Hmmm,thus i cannot make all the song i want which suck other and it a five star to me,,
Ringdroid,Google Play,com.ringdroid,bGc6QU9xcFRPRldxQVF1aFUxbEtiZEJHUVJyMUgzakhNNWpaUWxCV2xLelZsZW0xalFMZE9sT2xTRHlmQUIyRjlJbUNFRzEyV2VzSUtyQnIyRVJVM0M3,English,,5,2015-05-23,A Google User,,really good,,
Ringdroid,Google Play,com.ringdroid,bGc6QU9xcFRPRldxQVF1aFUxbEtiZEJHUVJyMUgzakhNNWpaUWxCV2xLelZsZW0xalFMZE9sT2xTRHlmQUIyRjlJbUNFRzEyV2VzSUtyQnIyRVJVM0M3,English,,5,2015-05-23,A Google User,,i like how e it to chop up the song and play the part i want a,,
Ringdroid,Google Play,com.ringdroid,Z3A6QU9xcFRPR2h3aWlFVXhwZzVUaVYxV3FmQUlqeDVZQmNoM3doQTFyRXBMdDNlaG00U01sRjBPbnhYYkJXczVvRTVIc2hZM0x4QmZOcVFqTTl4dmxz,English,,5,2015-05-23,Anthony Gaddy,Lol,i do not make but i made my own song,,
Ringdroid,Google Play,com.ringdroid,Z3A6QU9xcFRPR2p6MWNTUGRkZTlzQjV6YWRTM1J1YmtEOVlhQ1dZNWdBRlpyVzJSeWxTMi1iNTFjTTlLMWtoaW9oTVA1ZlA3azVVWnN2SmhmNlE0dlVl,English,,5,2015-05-23,D'Ana Schweinberg,Good,took me all morning to get the ring tone i wanted,,
Ringdroid,Google Play,com.ringdroid,Z3A6QU9xcFRPR2p6MWNTUGRkZTlzQjV6YWRTM1J1YmtEOVlhQ1dZNWdBRlpyVzJSeWxTMi1iNTFjTTlLMWtoaW9oTVA1ZlA3azVVWnN2SmhmNlE0dlVl,English,,5,2015-05-23,D'Ana Schweinberg,Good,how to get music to play on new and finally found this,,
Ringdroid,Google Play,com.ringdroid,Z3A6QU9xcFRPR2p6MWNTUGRkZTlzQjV6YWRTM1J1YmtEOVlhQ1dZNWdBRlpyVzJSeWxTMi1iNTFjTTlLMWtoaW9oTVA1ZlA3azVVWnN2SmhmNlE0dlVl,English,,5,2015-05-23,D'Ana Schweinberg,Good,i literally have been trying all morning copied my old ring tone into many folder trying to get something to register,,
Ringdroid,Google Play,com.ringdroid,Z3A6QU9xcFRPR2p6MWNTUGRkZTlzQjV6YWRTM1J1YmtEOVlhQ1dZNWdBRlpyVzJSeWxTMi1iNTFjTTlLMWtoaW9oTVA1ZlA3azVVWnN2SmhmNlE0dlVl,English,,5,2015-05-23,D'Ana Schweinberg,Good,none of the i installed did,,
Ringdroid,Google Play,com.ringdroid,Z3A6QU9xcFRPRWlaUHZDZEt6VnBLWlU5dDhXNnRrdkxnU2lhTHdvNDBNd09lMW1zYWo1MHZwQjByWFJ6UEpiYzVPV0NsaHJOcUxQaG91YTFKZzhIYmpk,English,,5,2015-05-23,S Brooks,kool,,,
Ringdroid,Google Play,com.ringdroid,Z3A6QU9xcFRPSDFtd0JQY0E4TjYzaS1OS2x0Z1dSVnh5RlNaaTFYd2xOREhxMkI3dXhJSjRJMVZaMVVUYVkyNHF5dGZZREtVa2V0dURSVFdSZGJIVW5B,English,,1,2015-05-23,XM Gatsu V,???,and it not just but it hundred,,
Ringdroid,Google Play,com.ringdroid,Z3A6QU9xcFRPSDFtd0JQY0E4TjYzaS1OS2x0Z1dSVnh5RlNaaTFYd2xOREhxMkI3dXhJSjRJMVZaMVVUYVkyNHF5dGZZREtVa2V0dURSVFdSZGJIVW5B,English,,1,2015-05-23,XM Gatsu V,???,this is stupid,,
Ringdroid,Google Play,com.ringdroid,Z3A6QU9xcFRPSDFtd0JQY0E4TjYzaS1OS2x0Z1dSVnh5RlNaaTFYd2xOREhxMkI3dXhJSjRJMVZaMVVUYVkyNHF5dGZZREtVa2V0dURSVFdSZGJIVW5B,English,,1,2015-05-23,XM Gatsu V,???,fix this and you will get your five star back,,
Ringdroid,Google Play,com.ringdroid,Z3A6QU9xcFRPR2FlYnM0THk3bFl1VlhQUURReHh6Y0RBZmREWHo5Z0Y2TkVlSE9fSWdabVRnM2ZkVDhxZDVzLUJfdy1jSVpXQW1yTTZoMklmZnlGMUUx,English,,2,2015-05-22,Qamar Toor,Bad impression,i tried to save my trim file,,
Ringdroid,Google Play,com.ringdroid,Z3A6QU9xcFRPR2FlYnM0THk3bFl1VlhQUURReHh6Y0RBZmREWHo5Z0Y2TkVlSE9fSWdabVRnM2ZkVDhxZDVzLUJfdy1jSVpXQW1yTTZoMklmZnlGMUUx,English,,2,2015-05-22,Qamar Toor,Bad impression,i ha shown a error and ha,,
Ringdroid,Google Play,com.ringdroid,Z3A6QU9xcFRPR2FlYnM0THk3bFl1VlhQUURReHh6Y0RBZmREWHo5Z0Y2TkVlSE9fSWdabVRnM2ZkVDhxZDVzLUJfdy1jSVpXQW1yTTZoMklmZnlGMUUx,English,,2,2015-05-22,Qamar Toor,Bad impression,please fix this,,
Ringdroid,Google Play,com.ringdroid,Z3A6QU9xcFRPRnVxUGpwb0dBUlpReWF3aGpXUTFwSWhfZVR6eUdJeEg5VnBlNUpneE5zbDFYY2NwV05JNWRRTUx4YmRxTTdsYlZmMmpsandNd0Z3YkVI,English,,4,2015-05-22,,A tip,i hope you add a feature make you cut the song from the middle of it,,
Ringdroid,Google Play,com.ringdroid,Z3A6QU9xcFRPRktPYlhkSE1CYVZ1TEJxY3hIcENERFRJdm1tcEFFVXFrSzU0VUxZaFdWR3EwNi13YVpvakRzMHlaNC1fbW9CV19hQUNTaUZmOGY5S3FB,English,,1,2015-05-22,Mike Hammond,New permission? UNINSTALLED,,,
Ringdroid,Google Play,com.ringdroid,Z3A6QU9xcFRPRktPYlhkSE1CYVZ1TEJxY3hIcENERFRJdm1tcEFFVXFrSzU0VUxZaFdWR3EwNi13YVpvakRzMHlaNC1fbW9CV19hQUNTaUZmOGY5S3FB,English,,1,2015-05-22,Mike Hammond,New permission? UNINSTALLED,please explain why you need access to my microphone in the change log,,
Ringdroid,Google Play,com.ringdroid,Z3A6QU9xcFRPRktPYlhkSE1CYVZ1TEJxY3hIcENERFRJdm1tcEFFVXFrSzU0VUxZaFdWR3EwNi13YVpvakRzMHlaNC1fbW9CV19hQUNTaUZmOGY5S3FB,English,,1,2015-05-22,Mike Hammond,New permission? UNINSTALLED,i rarely use this application but i do it work like a charm,,
Ringdroid,Google Play,com.ringdroid,Z3A6QU9xcFRPRktPYlhkSE1CYVZ1TEJxY3hIcENERFRJdm1tcEFFVXFrSzU0VUxZaFdWR3EwNi13YVpvakRzMHlaNC1fbW9CV19hQUNTaUZmOGY5S3FB,English,,1,2015-05-22,Mike Hammond,New permission? UNINSTALLED,i will downgrade to 1 star and on no change had been made to the permission or the change log,,
Ringdroid,Google Play,com.ringdroid,Z3A6QU9xcFRPRktPYlhkSE1CYVZ1TEJxY3hIcENERFRJdm1tcEFFVXFrSzU0VUxZaFdWR3EwNi13YVpvakRzMHlaNC1fbW9CV19hQUNTaUZmOGY5S3FB,English,,1,2015-05-22,Mike Hammond,New permission? UNINSTALLED,i would suggest other user to do the same,,
Ringdroid,Google Play,com.ringdroid,Z3A6QU9xcFRPRktPYlhkSE1CYVZ1TEJxY3hIcENERFRJdm1tcEFFVXFrSzU0VUxZaFdWR3EwNi13YVpvakRzMHlaNC1fbW9CV19hQUNTaUZmOGY5S3FB,English,,1,2015-05-22,Mike Hammond,New permission? UNINSTALLED,thank you,,
Ringdroid,Google Play,com.ringdroid,Z3A6QU9xcFRPRUdISXZTT25TdXVHaGpHWmM4cjFaWEx2b3ZMUjRPRDB1RTdFV0I2VzBCVHZLd2ZZV3RfRkJaZUVzYVVKVzVJSWFYelhZdTItT1JaV01I,English,,5,2015-05-22,sal gall,Best ringtone maker,i have a note edge and i tried many none of them work but,,
Ringdroid,Google Play,com.ringdroid,Z3A6QU9xcFRPRmM1WmZzV1owU2wxT1ZLZUFuVzl6VWRoZmhoWkdHOWpkWjk1TVhFVG5YM1EtamRFY3NYY1o1SER2Tk5QbGxSdFR1cDhrX2QwUTRIOUgz,English,,5,2015-05-21,FATBRO'S TV,Great,this ha always been the best,,
Ringdroid,Google Play,com.ringdroid,Z3A6QU9xcFRPSC1CVnl2MWZDRmtfWUpLcnhDdVFRWUtlLWh0MGl5S3N2LWFPbHUtb1FHd3ViMkMteDU0X0IySnZmZWprbHFteWVoczMwRVRKWHR2TEty,English,,5,2015-05-21,Blake Jefferson,,work great for me,,
Ringdroid,Google Play,com.ringdroid,Z3A6QU9xcFRPRlVEMFhZVWpHRUhnUXQ4emJLNTY4UTNneXpWeWMwdUt3NFhER3dCSFd5b0pTVGJvbklBNERGZjItVDIwa1VVRkx4amNKd0d3clc2eDFh,English,,5,2015-05-21,Gaurav Singla,,it very good,,
Ringdroid,Google Play,com.ringdroid,Z3A6QU9xcFRPRllCUDQyUHFfNXYzNmNZXzZZSHpkTk5Xa3h0SnRFcDR2ZWR2Y1VhZnNpRXo0M050STQ0OE5sQ2FBY0ViTFBrUWt6RFlaOThzbEpLbnRi,English,,5,2015-05-21,Wai Yan,,very good,,
Ringdroid,Google Play,com.ringdroid,Z3A6QU9xcFRPRVNhRk9KNlZOaHRCLWJpTTA3cmZNM1dHekhZRzcwVHlvZXFOcVBIOEtFaEpfUlNpUnZOazZVN0U4Nk9rSEwwSG5ZVU9uLTJraEVsU1Zi,English,,5,2015-05-21,ENGR. AJEIGBE RASAQ USMAN,,best of the best,,
Ringdroid,Google Play,com.ringdroid,Z3A6QU9xcFRPRWk1SmlJOEpWdG9tcnlsU1EtUFFrUDJQM1VvVzBLSVYxd2JjRzloZkJjSVREaTNpblltb0NUalJ3bGZyQVBvb1lOeFJZZkp2cmloeTR0,English,,5,2015-05-20,Bina Waiba,,,,
Ringdroid,Google Play,com.ringdroid,Z3A6QU9xcFRPRzRCVHYtQXJfc3pxZnJ5LUdyVWNZMllpc2dMTXRUelpjRldRbHpVODE4c1BXem15MndYZGk4bzQzNGJkTnlCSU94S1NOMHZ4MFJ3YzM1,English,,5,2015-05-20,Kenneth Warford,The best and smallest editor & no ads,lot of but full of ad between every single step plus they were 5 to 10 time larger using phone memory,,
Ringdroid,Google Play,com.ringdroid,Z3A6QU9xcFRPRzRCVHYtQXJfc3pxZnJ5LUdyVWNZMllpc2dMTXRUelpjRldRbHpVODE4c1BXem15MndYZGk4bzQzNGJkTnlCSU94S1NOMHZ4MFJ3YzM1,English,,5,2015-05-20,Kenneth Warford,The best and smallest editor & no ads,they updated this and got it working again i dumped the others with great joy,,
Ringdroid,Google Play,com.ringdroid,Z3A6QU9xcFRPRzU2Qm5wMGhxU2F1NE1PMWJqRTZ2OHJUTW42T3ZsOTRzMHNKMWYtVDV1MURzcmxoeFRhQ05jSmdBbi12d1VJYVRnXzdVbURyNUJzb0lx,English,,2,2015-05-20,Colby Rainey,,worked for year but not anymore,,
Ringdroid,Google Play,com.ringdroid,Z3A6QU9xcFRPSDJsek0yU25oYnp2N0laQXZZVlFRQloyZEZZT1pFOGFfNHZRSkJRMEMtaWYwSE9HVnBpUHlqYXJpaFFvV2JjSk5JU3RlaUhmYTYwOG0x,English,,2,2015-05-20,Jane Allyson,Will only load in 11.8 seconds,stupid,,
Ringdroid,Google Play,com.ringdroid,Z3A6QU9xcFRPSDJsek0yU25oYnp2N0laQXZZVlFRQloyZEZZT1pFOGFfNHZRSkJRMEMtaWYwSE9HVnBpUHlqYXJpaFFvV2JjSk5JU3RlaUhmYTYwOG0x,English,,2,2015-05-20,Jane Allyson,Will only load in 11.8 seconds,will load in 118 second of any after the first use,,
Ringdroid,Google Play,com.ringdroid,Z3A6QU9xcFRPSDJsek0yU25oYnp2N0laQXZZVlFRQloyZEZZT1pFOGFfNHZRSkJRMEMtaWYwSE9HVnBpUHlqYXJpaFFvV2JjSk5JU3RlaUhmYTYwOG0x,English,,2,2015-05-20,Jane Allyson,Will only load in 11.8 seconds,useless,,
Ringdroid,Google Play,com.ringdroid,Z3A6QU9xcFRPRkJXWVVsM0VmVkxMZDZxOGZzQTdwcUZHNWR4Z2pUVnh6QmpzNTlOQk9DcGlCZGJsMW5kdDQzTGtieWFneXh4cm45YnB5WVZ1VVcyVjFZ,English,,5,2015-05-19,Justin Childs,Great,it amazing how it ha worked on all of my android phone my first one with no lag and smooth and fluid action and still continues to do the same today even on my android lollipop phone,,
Ringdroid,Google Play,com.ringdroid,Z3A6QU9xcFRPRnVQaTRRWVFkQ1BpQUFac2p1dzZHeW5mUWZPU0IwQ01pU1dVcUFWLTlmSUVxNVZEdlRtcjNCa0VrcUp5anB6VlBjT3VxSENjR1FmS2lY,English,,4,2015-05-19,Michael Perez,Cisco kid,cal,,
Ringdroid,Google Play,com.ringdroid,Z3A6QU9xcFRPRnM1Z0w3WUJjczRqajJlSUJkSnRVM1RpaHI4TENWZnRNVG1EdmhGWjl3dFJpZ2laVWFKa1A2RjViVW4wN2laVGROcEt3X1U3SzRDVUI5,English,,5,2015-05-19,Satender Kumar,Best,great work thumb up to developer nice work,,
Ringdroid,Google Play,com.ringdroid,Z3A6QU9xcFRPRVQ4dFRPdjMzVW5xdmdQTU9MbExpTEVsN1ZxUkJ0S1luYlk1eW0yOWNaVW9pQnNHekYwVFcxSExQU1dMM3YzZkJfM2xkcXVwWHVRNTNM,English,,5,2015-05-19,kari hall,Best app by far,never used an wa this good,,
Ringdroid,Google Play,com.ringdroid,Z3A6QU9xcFRPRXBlNUFiTi03b1ZRTzZ2MUJuOGFiSTM3ZkJVdmx0c2lSYmRsTWp6MHRYSEdZbnNwSGhsa0tWN252c1B6dGI1MGJibnFzdXMtaExhM3Y5,English,,2,2015-05-19,April Robbins,Why,i loved this i had no problem with it now,,
Ringdroid,Google Play,com.ringdroid,Z3A6QU9xcFRPRXBlNUFiTi03b1ZRTzZ2MUJuOGFiSTM3ZkJVdmx0c2lSYmRsTWp6MHRYSEdZbnNwSGhsa0tWN252c1B6dGI1MGJibnFzdXMtaExhM3Y5,English,,2,2015-05-19,April Robbins,Why,please help,,
Ringdroid,Google Play,com.ringdroid,Z3A6QU9xcFRPRkZMamlrSjVMU2w3UTNXX2prUTN2TGtHQUtWQmc2dHFMaGJOTFpNV2l0d3hLUmpEcXV0RGlpR256NHdiRTBQZUE2OFRwdGRsZ3F4d1di,English,,5,2015-05-18,Jamaal Abegaz,Good App,good work promised,,
Ringdroid,Google Play,com.ringdroid,Z3A6QU9xcFRPRnVyVXhkMGIwTWpzbVZOVkpWVm1iVU5Pa2I4OHpzS3o5MWJMdm5sM1ZpaEpoUi1BMDR6WnIxZURESkhSMUR0TVZHelNibGhJcUVWdHVp,English,,5,2015-05-18,Adarsh Reddy,,nice,,
Ringdroid,Google Play,com.ringdroid,Z3A6QU9xcFRPRkpwYkNJalNVLUdYdlhzOXFscUpiY00waWtRTEoxZzEyR1pOQXNaZ1RudEJ2bDNhblhBa2k5R3VmQWNxaXRPd2VMX3hhMmVKVVlzRjEx,English,,2,2015-05-18,meghna sarkar,Not working,i mean to say it is easy to cut and i can listen it too but i try to save it,,
Ringdroid,Google Play,com.ringdroid,Z3A6QU9xcFRPRkpwYkNJalNVLUdYdlhzOXFscUpiY00waWtRTEoxZzEyR1pOQXNaZ1RudEJ2bDNhblhBa2k5R3VmQWNxaXRPd2VMX3hhMmVKVVlzRjEx,English,,2,2015-05-18,meghna sarkar,Not working,it say unfortunately it ha stopped working,,
Ringdroid,Google Play,com.ringdroid,Z3A6QU9xcFRPSEZkWGZkeE0xVEM1b2ZWaVdPdno1cEg2empEVG5RczRoR0xzd2oxTjFSaVhTRzAwaTdPMzN4TXVaVTN1NkNTeFpEd1dtTWY1Qk1yOHZT,English,,1,2015-05-18,WONDER WOMAN,KEEPS CRASHING,each time from the moment i downloaded it,,
Ringdroid,Google Play,com.ringdroid,Z3A6QU9xcFRPRTZwbldLN2tieEFQbTVWOE5rdk9EeTZuNEJMOWpoSXVRUGNYazQyVHBSenFZTkZfaWFwYU5qNHJVQ2l5RWEzMDFtaDV0a0xYQkUzRUZO,English,,5,2015-05-17,,Best one,i have used it for a couple of year and it is great,,
Ringdroid,Google Play,com.ringdroid,Z3A6QU9xcFRPRTZwbldLN2tieEFQbTVWOE5rdk9EeTZuNEJMOWpoSXVRUGNYazQyVHBSenFZTkZfaWFwYU5qNHJVQ2l5RWEzMDFtaDV0a0xYQkUzRUZO,English,,5,2015-05-17,,Best one,nothing bad to say about it at all,,
Ringdroid,Google Play,com.ringdroid,Z3A6QU9xcFRPRlRxVHRsaUNSdGd2TGtYMVJaV2pQdUFEUDZnXzFkNURMalFBbGZILWhhVlAtU3kyc1VjQ1Q1LVlSLUlBSTg5RmQ4V3NSbzIxU2p1US00,English,,5,2015-05-17,Nuwan Abewardana,ගොඩක් හොද අැප්සි එකක්,very good,,
Ringdroid,Google Play,com.ringdroid,Z3A6QU9xcFRPRm1JNUJFTGlULXFRdUkzOTB5b1ZoeDZfbmlBb1pWZjhNTlJJTFZmYS1QR0l0ZllxS09WNnVidkNKRG9VQ0o2N0cwZm9FOHRhQTRTMzNi,English,,2,2015-05-17,V'da Travis,,used to be good,,
Ringdroid,Google Play,com.ringdroid,Z3A6QU9xcFRPRm1JNUJFTGlULXFRdUkzOTB5b1ZoeDZfbmlBb1pWZjhNTlJJTFZmYS1QR0l0ZllxS09WNnVidkNKRG9VQ0o2N0cwZm9FOHRhQTRTMzNi,English,,2,2015-05-17,V'da Travis,,forecloses a lot,,
Ringdroid,Google Play,com.ringdroid,Z3A6QU9xcFRPSEIxYU84c0pHaFpWTXlWYWIxTTRQTnBDRVFheUxYVkpOOVhDNTRzNXVpbE9Uc2hiOWxVVDJNdjVPVFRINzl2S1V4MWVLX2w2UUlsOWha,English,,3,2015-05-17,Daniel King,Access to contacts in the latest update,great but i see no reason it need to snoop personal info like that,,
Ringdroid,Google Play,com.ringdroid,Z3A6QU9xcFRPRXFGU2l5eVdsTUdJQkwyd3lyb09vNW15NFA1bXRrdFhFRV9vQW1nMTNFcWdtMXI0SGQ3ZUk3Wm12aDdmaENJSUF4dXdMRUhRYjNydDdF,English,,5,2015-05-17,IDV357,Perfect app,wa so good i got my new phone had to get it again,,
Ringdroid,Google Play,com.ringdroid,Z3A6QU9xcFRPR2tEZEMzWjNnVEZNbHlhU2pvQUh4SWJOMWlWd05lZjBNMTExUkRqcm9fMUF5X0ZRQzJZNm4yWkpvek81TU8zTVU1Z0NJcTA5MmlHTmt0,English,,5,2015-05-17,nihar subudhi,Helps in all d way,would be happy additional joiner would b provided by it,,
Ringdroid,Google Play,com.ringdroid,Z3A6QU9xcFRPR0syQXQwaXo3dE1Bd3R4SUlUcmVjcC1MZGVRdUZKdHlHNjVKZ1k4cXl5eW9Ta2g0N1ZmU3U2Q0M0QUVBUGZEaGJib05EcmxPN05raWcz,English,,5,2015-05-17,Md Bazir,,very smart,,
Ringdroid,Google Play,com.ringdroid,Z3A6QU9xcFRPRVdRSnhXa2YtNVdnRVczZEYxbUxZZU5qbkNIczRUMTRyQWRSNmVuTG9pRWI5N0o2Xy13cktZa1FQRU5rRzhMTG44OUNkWG9hWnkzU3F4,English,,5,2015-05-16,Kathy Raymer,,easy,,
Ringdroid,Google Play,com.ringdroid,Z3A6QU9xcFRPRlNKV3NGZlhqZjd5a3d5bEdldUZZVjkwYl9wZGJINkV0b01WSnJ4ZmNqSi1xYWlDOHVoUzZUWmRYMEZQMjBoRkVlelA3cjlJaVo4a0ZU,English,,5,2015-05-16,Maharaj Naufal,BEST BEST BEST,i will get you five star because this easier to use n work whistle,,
Ringdroid,Google Play,com.ringdroid,Z3A6QU9xcFRPRlNKV3NGZlhqZjd5a3d5bEdldUZZVjkwYl9wZGJINkV0b01WSnJ4ZmNqSi1xYWlDOHVoUzZUWmRYMEZQMjBoRkVlelA3cjlJaVo4a0ZU,English,,5,2015-05-16,Maharaj Naufal,BEST BEST BEST,very recommended,,
Ringdroid,Google Play,com.ringdroid,Z3A6QU9xcFRPRlNKV3NGZlhqZjd5a3d5bEdldUZZVjkwYl9wZGJINkV0b01WSnJ4ZmNqSi1xYWlDOHVoUzZUWmRYMEZQMjBoRkVlelA3cjlJaVo4a0ZU,English,,5,2015-05-16,Maharaj Naufal,BEST BEST BEST,i it,,
Ringdroid,Google Play,com.ringdroid,Z3A6QU9xcFRPSEd3UjJYLXBxd0RlOGxZNUJEYVIxOUx6R1FxV2VkWGJKZldPTVM3elh4bndwd0w3RER1UEpyb1VjZUROUUJRRVZaYmdUa04zLXNFUUll,English,,5,2015-05-16,muhd izhar,,,,
Ringdroid,Google Play,com.ringdroid,Z3A6QU9xcFRPSHV0d1Zpb3FZTGVzU0pOUEhNaUgwcUJ3WWV4bXJXLThITGpCbkY5bWdneG5kajg0Q2dQVUZlRkF5N1pFTl84NE5OU0lnU3VSN0JEbk1q,English,,5,2015-05-16,bobb4752 jimbob,,like,,
Ringdroid,Google Play,com.ringdroid,Z3A6QU9xcFRPSFQ1RVJEOWV6b095YTZhc290b3RNaVpEd0RWc2x4Y2tNQ0JrNzB4alhyempkYlhPSi10UXFwdDBCRHFrY0lXVk1kUVVBNEZfUVZMWXh1,English,,5,2015-05-16,Koba Gogitidze,Cool,good,,
Ringdroid,Google Play,com.ringdroid,Z3A6QU9xcFRPSFhOeGMyOXA2T1o3OGxlM2NvY3hjbU55NXJYQ1NITlpRVlBmRG9EbzAxdFhkYlV1Y2JEOUtEb2YxaE5mWWkyM2s3TnM0NjJfLXVOUl84,English,,5,2015-05-16,Jay May,The one!,best,,
Ringdroid,Google Play,com.ringdroid,Z3A6QU9xcFRPR1JsSFlhejdzaktXQldmcXR5VWtlY2NYSFBQNWp6MFhmM1NhNUd4NzVUQjh2RjVINk1nMmhQcHZ3ZVVQWkpLTnhPdWtTR1ktOUNNM2ZK,English,,5,2015-05-16,Pooja Singh,,i it,,
Ringdroid,Google Play,com.ringdroid,Z3A6QU9xcFRPR1JsSFlhejdzaktXQldmcXR5VWtlY2NYSFBQNWp6MFhmM1NhNUd4NzVUQjh2RjVINk1nMmhQcHZ3ZVVQWkpLTnhPdWtTR1ktOUNNM2ZK,English,,5,2015-05-16,Pooja Singh,,,,
Ringdroid,Google Play,com.ringdroid,Z3A6QU9xcFRPRTA1cFA2b050SDRxbUg5ckNCd0ZwODVwVXNueExqOHkyWlJrcXZuRFBQcmFzblp0VTFyc1M0V1RWNFhiUDJrdElWSWFFaS1iRktKcWpI,English,,5,2015-05-15,Crystal Wilsey,Love it!,best ring tone maker out there,,
Ringdroid,Google Play,com.ringdroid,Z3A6QU9xcFRPRTA1cFA2b050SDRxbUg5ckNCd0ZwODVwVXNueExqOHkyWlJrcXZuRFBQcmFzblp0VTFyc1M0V1RWNFhiUDJrdElWSWFFaS1iRktKcWpI,English,,5,2015-05-15,Crystal Wilsey,Love it!,highly recommended for everyone,,
Ringdroid,Google Play,com.ringdroid,Z3A6QU9xcFRPRUhZYnp3RzVtTTA3b0RhNmgyU1hlV05mMFo0cHV0OXN5VHZucVVUTGZ6dHRialJxcVpDcFppc0MwQU12N1d0d1V5M0Q5dTUyOW1MVG1I,English,,1,2015-05-15,Portia Marks,,always force stop searching for file,,
Ringdroid,Google Play,com.ringdroid,Z3A6QU9xcFRPSHJCTzZPSnBmeXd0U0tuRHBfUE1MdkQzT2xRbzJDcXpxcmY0c0RMWHd6UGs5N3pTLVUxb19VeFJ6d0U3UjU5OVZuVUo5TDFKMzJ3WWI3,English,,5,2015-05-15,Doniele Smartt,,fresh,,
Ringdroid,Google Play,com.ringdroid,Z3A6QU9xcFRPRUloX1NvLUFpQks2WlhWRFlfUmY0YzdfUzBOdWs3WVg0bW5mSFhiRWNUbjhFV05IRksxY1IxSERFdEtjVllFRk1oOWJYbl84WDBsQVNw,English,,5,2015-05-15,Donnestia Rivers,,awesome,,
Ringdroid,Google Play,com.ringdroid,Z3A6QU9xcFRPRUloX1NvLUFpQks2WlhWRFlfUmY0YzdfUzBOdWs3WVg0bW5mSFhiRWNUbjhFV05IRksxY1IxSERFdEtjVllFRk1oOWJYbl84WDBsQVNw,English,,5,2015-05-15,Donnestia Rivers,,excellent,,
Ringdroid,Google Play,com.ringdroid,Z3A6QU9xcFRPRUloX1NvLUFpQks2WlhWRFlfUmY0YzdfUzBOdWs3WVg0bW5mSFhiRWNUbjhFV05IRksxY1IxSERFdEtjVllFRk1oOWJYbl84WDBsQVNw,English,,5,2015-05-15,Donnestia Rivers,,great,,
Ringdroid,Google Play,com.ringdroid,Z3A6QU9xcFRPRUloX1NvLUFpQks2WlhWRFlfUmY0YzdfUzBOdWs3WVg0bW5mSFhiRWNUbjhFV05IRksxY1IxSERFdEtjVllFRk1oOWJYbl84WDBsQVNw,English,,5,2015-05-15,Donnestia Rivers,,love it,,
Ringdroid,Google Play,com.ringdroid,Z3A6QU9xcFRPRjRZV1REV1NNSnhrR0h3WUlYLXcwZk5HcDBVLVdENWFrT0VaRE9ZMzg5dnpXMjFDaUNTa3JRSktYMXRhTGZHbnNNWE1fMnI1R2hCamRE,English,,5,2015-05-15,Thiha Zaw,,good,,
Ringdroid,Google Play,com.ringdroid,Z3A6QU9xcFRPSGcxem9vaGlBMWcwRElHUUZDZmoxcGFSZ2twbVNwaEdaTE85QmtORVgyNFFzdVJQSnNIOU9hcmFpcENRNndvOF9pdWJlOUpmdlRPTHll,English,,5,2015-05-15,John Christopher Estinor,,the best ever,,
Ringdroid,Google Play,com.ringdroid,Z3A6QU9xcFRPSFdQakZ6V1RoS2dCMHpnWFFwTFczOGZEb0l2ekEyM3BrWFZGOVliZWFtM2JtTm4xUW1ETUdFS05uR1pDdFhyVUNqMExtUGJpZVNGNXQ4,English,,4,2015-05-15,Sumit Sangwan,,good at all,,
Ringdroid,Google Play,com.ringdroid,bGc6QU9xcFRPRXJkNkR5VG12c2M0aGpKLVEtVjN4ZUxxSDlZcXN4RlEwN3JJaHgtTmlEeG80dkFNaXpLZVF0UnJJYWVHc1QweE5TME5VZFhRbVpld1Bj,English,,4,2015-05-15,A Google User,This is great,dis really work,,
Ringdroid,Google Play,com.ringdroid,Z3A6QU9xcFRPRTN4Z25USFdIZ2JLcnRnMmhPcE56RW1IeGNjUU1aRjFvN0tBMTN0ZlZCSG9QWTdHbmtxckt1OVY5Q3NRUUJGVl9CWnk1Q0E0ZlZJdDBH,English,,5,2015-05-15,Jeremy Kane,Best,easy cut and reliable,,
Ringdroid,Google Play,com.ringdroid,Z3A6QU9xcFRPRTN4Z25USFdIZ2JLcnRnMmhPcE56RW1IeGNjUU1aRjFvN0tBMTN0ZlZCSG9QWTdHbmtxckt1OVY5Q3NRUUJGVl9CWnk1Q0E0ZlZJdDBH,English,,5,2015-05-15,Jeremy Kane,Best,nailed it,,
Ringdroid,Google Play,com.ringdroid,Z3A6QU9xcFRPSHh5dlViU05zLWpkWFZZNnNqVFZ5eFQyZ1ZwSzNFY3Vfa1ZsU0wwQmF2Z2FmbDNTWXFkVVMySWp1d0lzZXViOEh3OUZMdjlrblFUQk9r,English,,5,2015-05-15,Darren Sandy,,from inspire to been with me,,
Ringdroid,Google Play,com.ringdroid,Z3A6QU9xcFRPRUR3eU9IMWloLS1US3AxbXZ4TmM2Smg5UHlmTDNfUjVoUzFpZ3RZYXo1NGtHQ0tYRGVGM3d6MFFNSmZEdHhvd011aUxwSlRJclEyZW40,English,,5,2015-05-15,chandu chandu,Love the app,superb,,
Ringdroid,Google Play,com.ringdroid,Z3A6QU9xcFRPRnRQOGpLZnE2Mk53VmxWNHBnRlphdW9mUy1iWEJFaEJyVXdOLUNyUXNkc3ZlMGpqd0RYQ1hTN3gwbDhOU3lHRUprbU9ZNDl1MHFLNVJU,English,,5,2015-05-14,Susan Marie Carlisle,Works Great!,no hassle,,
Ringdroid,Google Play,com.ringdroid,Z3A6QU9xcFRPRnRQOGpLZnE2Mk53VmxWNHBnRlphdW9mUy1iWEJFaEJyVXdOLUNyUXNkc3ZlMGpqd0RYQ1hTN3gwbDhOU3lHRUprbU9ZNDl1MHFLNVJU,English,,5,2015-05-14,Susan Marie Carlisle,Works Great!,take a few second to install,,
Ringdroid,Google Play,com.ringdroid,Z3A6QU9xcFRPRnRQOGpLZnE2Mk53VmxWNHBnRlphdW9mUy1iWEJFaEJyVXdOLUNyUXNkc3ZlMGpqd0RYQ1hTN3gwbDhOU3lHRUprbU9ZNDl1MHFLNVJU,English,,5,2015-05-14,Susan Marie Carlisle,Works Great!,easy and convenient for a free,,
Ringdroid,Google Play,com.ringdroid,Z3A6QU9xcFRPRnRQOGpLZnE2Mk53VmxWNHBnRlphdW9mUy1iWEJFaEJyVXdOLUNyUXNkc3ZlMGpqd0RYQ1hTN3gwbDhOU3lHRUprbU9ZNDl1MHFLNVJU,English,,5,2015-05-14,Susan Marie Carlisle,Works Great!,thank you very much creator of,,
Ringdroid,Google Play,com.ringdroid,Z3A6QU9xcFRPR0J0bjYwWlQ1UnJrN1FHVWFLVTN2ek53Yi1SYkxqeldEcVJvYkF3SmpYTm85eE5KY3dKX0VFVjlNaFFqMjhEZ1ZkNnZzRzkyaHpNVE9w,English,,5,2015-05-14,Trevor Darnell,,,,
Ringdroid,Google Play,com.ringdroid,Z3A6QU9xcFRPRXFUZ29qSUU5bFY5blZfbXN2WjNCcWFQYUhfUU5iZmQtRHg2SjcxQWRvc19EeC1yVm9DSmhuWmZfQ1pzTEdfa281U0tWWm5yZHNEa2Jw,English,,4,2015-05-14,Ankur Pandey,,good,,
Ringdroid,Google Play,com.ringdroid,Z3A6QU9xcFRPRkN1aDZYdzVsR2g1RUl3SDRIWXlEdFNKUTZZdEdCOVp3Y3NybkxhTWFIZlRRdFBneE9ZVTZoemFVUTcxQkJ3MHRhTjRpaHZOZWVlLTFR,English,,1,2015-05-14,Clare Baird,Not working 😞,i go 2 save,,
Ringdroid,Google Play,com.ringdroid,Z3A6QU9xcFRPRkN1aDZYdzVsR2g1RUl3SDRIWXlEdFNKUTZZdEdCOVp3Y3NybkxhTWFIZlRRdFBneE9ZVTZoemFVUTcxQkJ3MHRhTjRpaHZOZWVlLTFR,English,,1,2015-05-14,Clare Baird,Not working 😞,it come up ha stopped never had problem,,
Ringdroid,Google Play,com.ringdroid,Z3A6QU9xcFRPRWNKdkhLaFZ4RERhbVZYbTJBMHMyU21Nb211ajNhU1lSZGZuQ19QcHJ4MWU2SXhON0pYdHRmamEtdm1kVEZYY2lNeVM5SFhNSG13OEg2,English,,5,2015-05-14,kalai chelvan,,it is gorgeous,,
Ringdroid,Google Play,com.ringdroid,Z3A6QU9xcFRPR3ZXel9yNGp5cnVObnpTaWdHcnQ4YTloMEFEVlhrc095TjNKOWNuNDlkaHA0am05SkZNNGQtWjk5TmF5c3luNm52emFNbWFvMEEtMDRS,English,,5,2015-05-13,charanteja ramenani,,excellent it will be better you add a song mixer in this,,
Ringdroid,Google Play,com.ringdroid,Z3A6QU9xcFRPR3NTT29YR05CYTBwXy0zVFNIbkp5RkVsRW8yM2ZlV0dpUnJrWld2Mmh3ajlWS3plUjM0MlRURmFaeTlhN1hyN2dUemFZXzNSQ1IxVnY4,English,,5,2015-05-13,Will Chandler,Easy to use,easy to use and very complete,,
Ringdroid,Google Play,com.ringdroid,Z3A6QU9xcFRPRWhaeWQtb3RlWTd4RmEtSGhCZlFXQlFuWEwxaHZRMENBVHhJeXVoSFpZRHQwOUI2cVlDdnVicTJuTkgxeHdWSXhrTEZ3U0w3OTdxSXJC,English,,1,2015-05-13,Sai Praveen,Worst,it always not working,,
Ringdroid,Google Play,com.ringdroid,Z3A6QU9xcFRPRmYzVG9qWl9WbW1TXzZYczkzN3p4OTZ0bzIwLWY3SGg0bTVjTWtOV3h6MlBUcmhYTzA1VE9aWTMzb3hscTJDYURyY3lYYjRXY1MwWFM1,English,,5,2015-05-13,Ahmed Eno,That a best to me,fantastic,,
Ringdroid,Google Play,com.ringdroid,Z3A6QU9xcFRPRkRweElUZzcyZHV4NkJtZk80OEVkUjZjZkJOdkRJWUVXeDN1Y2dZbjFGLUJJNzhRODluS18xQ3NXVmRONG0yVk1kaFl3eFBFT2xVOU9w,English,,2,2015-05-13,Doris Andjelkovic,Bad,it a lot and it take really long time for it to read a song,,
Ringdroid,Google Play,com.ringdroid,Z3A6QU9xcFRPSEF4dHNvMGJ4S3A2cWlGdy1COFBhT1hDenB0bFBibUMzNDBKZnBFNW1lZ19JM0VNanFTdkdMRmdLdTVxS2I0d3ZnTmhScUVvWXNXUFZf,English,,4,2015-05-13,SnowNynja,Still my goto ringtone app,been using this it first released in early android,,
Ringdroid,Google Play,com.ringdroid,Z3A6QU9xcFRPSEF4dHNvMGJ4S3A2cWlGdy1COFBhT1hDenB0bFBibUMzNDBKZnBFNW1lZ19JM0VNanFTdkdMRmdLdTVxS2I0d3ZnTmhScUVvWXNXUFZf,English,,4,2015-05-13,SnowNynja,Still my goto ringtone app,every other just copied,,
Ringdroid,Google Play,com.ringdroid,Z3A6QU9xcFRPSEF4dHNvMGJ4S3A2cWlGdy1COFBhT1hDenB0bFBibUMzNDBKZnBFNW1lZ19JM0VNanFTdkdMRmdLdTVxS2I0d3ZnTmhScUVvWXNXUFZf,English,,4,2015-05-13,SnowNynja,Still my goto ringtone app,doe exactly what i need,,
Ringdroid,Google Play,com.ringdroid,Z3A6QU9xcFRPSEF4dHNvMGJ4S3A2cWlGdy1COFBhT1hDenB0bFBibUMzNDBKZnBFNW1lZ19JM0VNanFTdkdMRmdLdTVxS2I0d3ZnTmhScUVvWXNXUFZf,English,,4,2015-05-13,SnowNynja,Still my goto ringtone app,request 1,,
Ringdroid,Google Play,com.ringdroid,Z3A6QU9xcFRPSEF4dHNvMGJ4S3A2cWlGdy1COFBhT1hDenB0bFBibUMzNDBKZnBFNW1lZ19JM0VNanFTdkdMRmdLdTVxS2I0d3ZnTmhScUVvWXNXUFZf,English,,4,2015-05-13,SnowNynja,Still my goto ringtone app,more option for audio list,,
Ringdroid,Google Play,com.ringdroid,Z3A6QU9xcFRPSEF4dHNvMGJ4S3A2cWlGdy1COFBhT1hDenB0bFBibUMzNDBKZnBFNW1lZ19JM0VNanFTdkdMRmdLdTVxS2I0d3ZnTmhScUVvWXNXUFZf,English,,4,2015-05-13,SnowNynja,Still my goto ringtone app,2,,
Ringdroid,Google Play,com.ringdroid,Z3A6QU9xcFRPSEF4dHNvMGJ4S3A2cWlGdy1COFBhT1hDenB0bFBibUMzNDBKZnBFNW1lZ19JM0VNanFTdkdMRmdLdTVxS2I0d3ZnTmhScUVvWXNXUFZf,English,,4,2015-05-13,SnowNynja,Still my goto ringtone app,option to stay on current project saving new,,
Ringdroid,Google Play,com.ringdroid,Z3A6QU9xcFRPSEF4dHNvMGJ4S3A2cWlGdy1COFBhT1hDenB0bFBibUMzNDBKZnBFNW1lZ19JM0VNanFTdkdMRmdLdTVxS2I0d3ZnTmhScUVvWXNXUFZf,English,,4,2015-05-13,SnowNynja,Still my goto ringtone app,great and great work,,
Ringdroid,Google Play,com.ringdroid,Z3A6QU9xcFRPSEF4dHNvMGJ4S3A2cWlGdy1COFBhT1hDenB0bFBibUMzNDBKZnBFNW1lZ19JM0VNanFTdkdMRmdLdTVxS2I0d3ZnTmhScUVvWXNXUFZf,English,,4,2015-05-13,SnowNynja,Still my goto ringtone app,thanks,,
Ringdroid,Google Play,com.ringdroid,Z3A6QU9xcFRPRzdwcG82NDd5WU5XZzB1VzVMRDRlQXZKMnAzaVJ3Nmd2LUd3T1B2cm5QcjZ3RUEwSG5wb3BlOVVwVFhaek5iaVgwNEhrOUhaZmdYUnNQ,English,,4,2015-05-13,Tariq Anwar,See,she here the and think,,
Ringdroid,Google Play,com.ringdroid,Z3A6QU9xcFRPRzBhZ1pHWUswVXVvdXJra3ZjYTF5VktvU0liMmJvVzdvcmx3NFJqU2VVV1FDSUZDbHdsM0V4cTJiYlg0XzFSTk1CWmdrUjdaRHk0QUNo,English,,5,2015-05-13,Gustavo Sanchez,Works and easy to use,simplistic,,
Ringdroid,Google Play,com.ringdroid,Z3A6QU9xcFRPR1VPZFNERFFteTZUb3hkU01uRkIzYW9uLW1aMWFXRWJKNHc4VlNkVGlRTnpfN2JqQjZOWk1GMkNfOHJpS3lNS3piWmxRNUd5dkRCMEZy,English,,5,2015-05-13,Stefan Baltov,Great app!!!,very highly recommended,,
Ringdroid,Google Play,com.ringdroid,Z3A6QU9xcFRPRkxwVWdQZnktRVpYSTJsdnVXWnd2YlppMlBPT29jclFQQTJLdzdGYWRjWC1RQTZlNDU4ZFFfU1dPVEpkMDVKRmR4NFpOMjJUOG1QVTFK,English,,4,2015-05-13,jacob walls,,work great,,
Ringdroid,Google Play,com.ringdroid,Z3A6QU9xcFRPRWhRQ0NUb0JJcmJCUzNOSjBEU2pGN2hrRjhUNm13NFZaSHc5S1EyUHJlLU9oWWNhUXBpa3h5MS1DLWVTVXZSOUtMVUxaSnFJdjFHZ3hG,English,,5,2015-05-13,Annie Mcmillian,Great.,had it loved it,,
Ringdroid,Google Play,com.ringdroid,Z3A6QU9xcFRPRUlYM0JSSGNsNjFvRE5tbEE3NVNUNXlLLUNpd04tTS1zWWtUOTl1ZFY5U3M1RjVaVnNrNkJ2bmpEQnU1U3AzWjBjMm1NQUtGUWlfeWJL,English,,5,2015-05-12,Lirar LILU,,good,,
Ringdroid,Google Play,com.ringdroid,Z3A6QU9xcFRPSHRyNmtoU1ppWGJfVzBpMWJiRkk5X3AwbHo2cVk5QVl0ZG5XS2VLVUpHWW1MN1F6TnJlMlJFcUE3ZS1VUk9YcGlXNmZYQVJqWDRjU1pQ,English,,5,2015-05-12,Tommy Archer,,great,,
Ringdroid,Google Play,com.ringdroid,Z3A6QU9xcFRPRXJzZkVKRXZ6NTNlUy1ObkFPUUZmUUtVOXRMOGtzS01ORElxMXRza0Y2OG5meU1ndVl6S1h2MVU3YWZhN1dZU3R4S1JycU1WaVU0cWNt,English,,5,2015-05-12,Randy H,,perfect,,
Ringdroid,Google Play,com.ringdroid,Z3A6QU9xcFRPSE56VmJ1bVpaLUF2aVgwbVkwMmJIWlFZTWNCQ0ItaExSdUZrYlp6RGNqWUhBeU9aUTY0eDZyOWFCOHRSUldPU0dCSUhYeE4zWUZVS25q,English,,4,2015-05-12,WIDELINE ANESTOR,,work great 4 me,,
Ringdroid,Google Play,com.ringdroid,Z3A6QU9xcFRPSDEtMktyZE9uMndKMzhkckkyNUZwR1ZEOXhaTERYYXFqcFVQak5UUmxacGZHcm5HYzktajFobE93cWM1MlhMT3hRUGc4XzFiUGYwdWgt,English,,5,2015-05-12,Leanne Nielsen,Leanne,love this and have used it for year with no issue,,
Ringdroid,Google Play,com.ringdroid,bGc6QU9xcFRPRzg2TEdHNGtIRnFTbUE3ZDNTcmVySTN5UzFQV29LY01BazVfSGpBT3BCbmdPeEFseWFlRVhXUGttQTBPRWpmTkNob0NmTUxDRWpmTnZU,English,,5,2015-05-12,A Google User,Original and still the best after all these years.,best maker period,,
Ringdroid,Google Play,com.ringdroid,Z3A6QU9xcFRPRW5XYlRMTm1fTGxPcVF6aDVBYkhrdUJ1RU9PQkY3Y1F1Yi1XSVNLTmd6YUdaVDU5MHZvckl3ejUtSVVPZEFfZXA3bDJuaEN3dENvaDBl,English,,5,2015-05-12,Michelle Lucas,It's the best,i can trim any song i want to,,
Ringdroid,Google Play,com.ringdroid,Z3A6QU9xcFRPR3poX2FwS2QwYW45TFlidUtFR2RYWHJPaXBxOHJoUmUxOGl1bHhVUy1ZZE1GY0kycmp1YmFWT2FhaGpEdXJKRGJxcy03cUd4Z2ZwWFRa,English,,5,2015-05-12,Jacki Scott,When I'm with you,love song by tony terry,,
Ringdroid,Google Play,com.ringdroid,Z3A6QU9xcFRPRVlfd3RXR3pMeTRyZnJtUWdlWVo1WE02NU5GeE45SEl0QlFneU1seU4zN0FyR25RNG9oQlZ3Q2hYVk12cFh2MG52ZTd1YVpqTXZjY0Fl,English,,5,2015-05-12,Balan X,No special permisions required.,i love it,,
Ringdroid,Google Play,com.ringdroid,Z3A6QU9xcFRPRVlfd3RXR3pMeTRyZnJtUWdlWVo1WE02NU5GeE45SEl0QlFneU1seU4zN0FyR25RNG9oQlZ3Q2hYVk12cFh2MG52ZTd1YVpqTXZjY0Fl,English,,5,2015-05-12,Balan X,No special permisions required.,most fun to use to create,,
Ringdroid,Google Play,com.ringdroid,Z3A6QU9xcFRPR2dhbTRBLURhNHdKZm9NX0F5ODQxZkVJZDM2U2tnSnI0cUQ4VXRmRm5CRU5yUDh1ZkxZZDlRWk1aT1NqamZvV1FUVEV6LS1pQTk5NUFz,English,,5,2015-05-12,,Motoman,had my 1st,,
Ringdroid,Google Play,com.ringdroid,Z3A6QU9xcFRPR2dhbTRBLURhNHdKZm9NX0F5ODQxZkVJZDM2U2tnSnI0cUQ4VXRmRm5CRU5yUDh1ZkxZZDlRWk1aT1NqamZvV1FUVEV6LS1pQTk5NUFz,English,,5,2015-05-12,,Motoman,on a now,,
Ringdroid,Google Play,com.ringdroid,Z3A6QU9xcFRPR2dhbTRBLURhNHdKZm9NX0F5ODQxZkVJZDM2U2tnSnI0cUQ4VXRmRm5CRU5yUDh1ZkxZZDlRWk1aT1NqamZvV1FUVEV6LS1pQTk5NUFz,English,,5,2015-05-12,,Motoman,still have all the same old,,
Ringdroid,Google Play,com.ringdroid,Z3A6QU9xcFRPRVE3TXVnOUJlbmQ4V3BudEwzSVB0Zko5Qm8wMTdieFVKSmw3RUgxZE5lVHlWRDM0RzlXUjBybENhRTdZbjJrY0ZzWUs2S1dyYWNBby1p,English,,1,2015-05-12,sbi sbi,You have your hands in my pants,why would you need to look into my contact,,
Ringdroid,Google Play,com.ringdroid,Z3A6QU9xcFRPRVE3TXVnOUJlbmQ4V3BudEwzSVB0Zko5Qm8wMTdieFVKSmw3RUgxZE5lVHlWRDM0RzlXUjBybENhRTdZbjJrY0ZzWUs2S1dyYWNBby1p,English,,1,2015-05-12,sbi sbi,You have your hands in my pants,how would help making ring tone,,
Ringdroid,Google Play,com.ringdroid,Z3A6QU9xcFRPRVE3TXVnOUJlbmQ4V3BudEwzSVB0Zko5Qm8wMTdieFVKSmw3RUgxZE5lVHlWRDM0RzlXUjBybENhRTdZbjJrY0ZzWUs2S1dyYWNBby1p,English,,1,2015-05-12,sbi sbi,You have your hands in my pants,get out those are then i might update,,
Ringdroid,Google Play,com.ringdroid,Z3A6QU9xcFRPRXdZakZpY2V1VFRFdEZ3T2ZRSXlLWHZzeGdSY0hBNWI5S1RJU1dsWVBJdzN1S3F3SDBjSW0wM3ZuSUU0OGVBR0EtYmVTX3hZODhMM3Fx,English,,2,2015-05-12,Julie Perkins,,very disappointed,,
Ringdroid,Google Play,com.ringdroid,Z3A6QU9xcFRPSEVyRTBqWTdkbzVxdkhIUmdzTU44ZVcyX1JLQVpuNk42eDdsVnRFUXhhRkwwa3NYSXhPUUdlS3lMSHgwVGM3YU9YUXBWcUdLWU1Sb0xv,English,,5,2015-05-12,Donna Carleone,Favorite Ringtone maker,my goto i want a personalized or alarm,,
Ringdroid,Google Play,com.ringdroid,Z3A6QU9xcFRPSEVyRTBqWTdkbzVxdkhIUmdzTU44ZVcyX1JLQVpuNk42eDdsVnRFUXhhRkwwa3NYSXhPUUdlS3lMSHgwVGM3YU9YUXBWcUdLWU1Sb0xv,English,,5,2015-05-12,Donna Carleone,Favorite Ringtone maker,love the ease of use,,
Ringdroid,Google Play,com.ringdroid,Z3A6QU9xcFRPR1l1ZG0yLUdLY0ZZc2ttZmw1bjNtWVo0LXBNUzhHZXlzUnE0QjVKOVFaZGxkMTdXTDIyeFpzWnpJbEY1YVAtanpjZ1pWNWU3SGJaVlJN,English,,5,2015-05-12,Gregory Opera,Works well and highly recommended!,i went searching for an application to make alert tone i used such an application on my palm and this is the perfect solution,,
Ringdroid,Google Play,com.ringdroid,Z3A6QU9xcFRPR1l1ZG0yLUdLY0ZZc2ttZmw1bjNtWVo0LXBNUzhHZXlzUnE0QjVKOVFaZGxkMTdXTDIyeFpzWnpJbEY1YVAtanpjZ1pWNWU3SGJaVlJN,English,,5,2015-05-12,Gregory Opera,Works well and highly recommended!,with an this application is highly recommended for anyone wishing to create their personalized alert tone,,
Ringdroid,Google Play,com.ringdroid,Z3A6QU9xcFRPSFozaEFmSThJdmFEbGxJYWc1ekFCbklhTmh4MWtBQWpRVnFwWWQ4S2t5ejJhMmptTVJVYWdMLTR5WmtzNktWek9lR1BnX19kSG85QkZi,English,,4,2015-05-11,Đại Nguyễn Thế,Flac file,please make it be able to run,,
Ringdroid,Google Play,com.ringdroid,Z3A6QU9xcFRPRUczcDNhaTAtSlg2d3N5elhHT24xY2RlLVdtZldYdjNnYU5kZ1ktOW9UV1BmSDNzVnFCclZmYXR3akR5VzVyLUJBclZFSWNldi1HT0Y5,English,,1,2015-05-11,AARON ELViN,,it crash,,
Ringdroid,Google Play,com.ringdroid,Z3A6QU9xcFRPRUczcDNhaTAtSlg2d3N5elhHT24xY2RlLVdtZldYdjNnYU5kZ1ktOW9UV1BmSDNzVnFCclZmYXR3akR5VzVyLUJBclZFSWNldi1HT0Y5,English,,1,2015-05-11,AARON ELViN,,please help me,,
Ringdroid,Google Play,com.ringdroid,Z3A6QU9xcFRPSGJjWHNueUhKbXlIbjE3MjV2ZEN4cDZkbE8zZnFjYk1ydzJVV2JmYXpTcldvcV94M1JXSFFBc1N6dG5pWjh6Rmx4eVExU3E4aHl3UWdy,English,,5,2015-05-11,Sarah,,rock,,
Ringdroid,Google Play,com.ringdroid,Z3A6QU9xcFRPRmptV2N6NFJtYUxJYTBNS2hQN2NUdXBrX0NBWE9DUVA3VWRoM3pqSFdUOUJ2Qjc2aWxxMXQ0SHJaMllTeURRMnFRMU5pTlFkZmRaY2lf,English,,5,2015-05-11,Kyle McLain,,awesome,,
Ringdroid,Google Play,com.ringdroid,Z3A6QU9xcFRPR2Q3M21kWlY4c0RxZ1pjSVRNMXduVllPMXFNOExFX1J3RE56X2NJbkxkRFhncC1xc1YzeDNOeVpaTGhCVEVrRUYyLXRvODlMdWdXaFhs,English,,4,2015-05-11,Shannon Ramay,Fun,it wa easy to use,,
Ringdroid,Google Play,com.ringdroid,Z3A6QU9xcFRPR2Q3M21kWlY4c0RxZ1pjSVRNMXduVllPMXFNOExFX1J3RE56X2NJbkxkRFhncC1xc1YzeDNOeVpaTGhCVEVrRUYyLXRvODlMdWdXaFhs,English,,4,2015-05-11,Shannon Ramay,Fun,i had to cause i filled my phone with and each cut you create ad more space,,
Ringdroid,Google Play,com.ringdroid,Z3A6QU9xcFRPR2Q3M21kWlY4c0RxZ1pjSVRNMXduVllPMXFNOExFX1J3RE56X2NJbkxkRFhncC1xc1YzeDNOeVpaTGhCVEVrRUYyLXRvODlMdWdXaFhs,English,,4,2015-05-11,Shannon Ramay,Fun,but i wa very with this,,
Ringdroid,Google Play,com.ringdroid,Z3A6QU9xcFRPR2ZBTEUwWGtPVGI3NDVwaHZOWnlYMmpIZ1pBdGhhcUp1UFFCYVBHamtVSVdDX3JXejl6R2NmNHhjR3pJVzZXcUNQSDcwNzJzZDdma3Bq,English,,5,2015-05-11,Vince Ellis,Ringdroid,awesome and work unconditionally great,,
Ringdroid,Google Play,com.ringdroid,Z3A6QU9xcFRPR2ZBTEUwWGtPVGI3NDVwaHZOWnlYMmpIZ1pBdGhhcUp1UFFCYVBHamtVSVdDX3JXejl6R2NmNHhjR3pJVzZXcUNQSDcwNzJzZDdma3Bq,English,,5,2015-05-11,Vince Ellis,Ringdroid,i can make a out of any song and any part of the song,,
Ringdroid,Google Play,com.ringdroid,Z3A6QU9xcFRPR2ZBTEUwWGtPVGI3NDVwaHZOWnlYMmpIZ1pBdGhhcUp1UFFCYVBHamtVSVdDX3JXejl6R2NmNHhjR3pJVzZXcUNQSDcwNzJzZDdma3Bq,English,,5,2015-05-11,Vince Ellis,Ringdroid,love this have had it on all 4 of my previous android phone plus this one,,
Ringdroid,Google Play,com.ringdroid,Z3A6QU9xcFRPR2ZBTEUwWGtPVGI3NDVwaHZOWnlYMmpIZ1pBdGhhcUp1UFFCYVBHamtVSVdDX3JXejl6R2NmNHhjR3pJVzZXcUNQSDcwNzJzZDdma3Bq,English,,5,2015-05-11,Vince Ellis,Ringdroid,i recommend this to everyone,,
Ringdroid,Google Play,com.ringdroid,bGc6QU9xcFRPRVM5ZGVBQnd2azVGX0MwNVhacFV0eU1xMW1LVFR3elRDRHVvaXd4UF9hMW90R19iT3R2N0xLal9COUY1aFRZN1FXbFFYaWpTVmV0SEdH,English,,2,2015-05-11,A Google User,I have this app since 2010,but now it i have huge problem to download it always the same version 24,,
Ringdroid,Google Play,com.ringdroid,bGc6QU9xcFRPRVM5ZGVBQnd2azVGX0MwNVhacFV0eU1xMW1LVFR3elRDRHVvaXd4UF9hMW90R19iT3R2N0xLal9COUY1aFRZN1FXbFFYaWpTVmV0SEdH,English,,2,2015-05-11,A Google User,I have this app since 2010,all my been deleted,,
Ringdroid,Google Play,com.ringdroid,bGc6QU9xcFRPRVM5ZGVBQnd2azVGX0MwNVhacFV0eU1xMW1LVFR3elRDRHVvaXd4UF9hMW90R19iT3R2N0xLal9COUY1aFRZN1FXbFFYaWpTVmV0SEdH,English,,2,2015-05-11,A Google User,I have this app since 2010,can someone fix the crash,,
Ringdroid,Google Play,com.ringdroid,bGc6QU9xcFRPRVM5ZGVBQnd2azVGX0MwNVhacFV0eU1xMW1LVFR3elRDRHVvaXd4UF9hMW90R19iT3R2N0xLal9COUY1aFRZN1FXbFFYaWpTVmV0SEdH,English,,2,2015-05-11,A Google User,I have this app since 2010,thanks,,
Ringdroid,Google Play,com.ringdroid,Z3A6QU9xcFRPRTdldTB4ZDVQS3JMaDNjSGwtQ0hNdThoOExxYnFIV0F6eElCU3NlWC16ZEVMbGpSOVNER0VHZHlhal9CR3RkeGpEdmI3eExRd0UyV0ty,English,,5,2015-05-11,Ehab AL Nimri,Cool,cool,,
Ringdroid,Google Play,com.ringdroid,Z3A6QU9xcFRPRmJrdUhNNWZ5QkxOb0RvNGg0MUVWQ21rYkVtM0Y0SVdRcGIwODJWLURWUHZKMjJXYzFEZUpsbmczU2pqLW5MaXMyMmFOZUViU1B5QkNV,English,,5,2015-05-10,moearkar 032,yuyuyi,good,,
Ringdroid,Google Play,com.ringdroid,Z3A6QU9xcFRPRzlURFBzNWdsXzlQQks2R3JjSjdWMVhWUHhyRzZtNlRRQXgteU4xUW5LbXFOQ0FVRkZ5Y1RfdFJKMWpnR3ZGQjJXa3FMVVRPTEJaYkVu,English,,5,2015-05-10,Prashanthi Shankar,Totally assume,it,,
Ringdroid,Google Play,com.ringdroid,Z3A6QU9xcFRPSHMzbC0yMm9aUlMybEk0dU1TYlV0ZkEwcWV4QzhEaVlvd1dpWEdrdVFJLWt2VXh3WWNoVTRPNzh1YVRRYllJVWxFNGJtNWJGSTctYWF4,English,,5,2015-05-10,kaushik guna,Great app!!!,and,,
Ringdroid,Google Play,com.ringdroid,Z3A6QU9xcFRPRjM1ZmNpTWVVX25SQTI1UXBCMDdjeTc0aTFWR2pIYmRCdW1abk9XS3ptejRBclBZOVI1ZDVqdllPTGJvQmptSUlxanJDaC03cUlQVU5B,English,,5,2015-05-10,Ricki Lebowski,The best,used this the and refuse to use any other,,
Ringdroid,Google Play,com.ringdroid,Z3A6QU9xcFRPSFFCYVZlUjZ3bFRGWk5YNV9mZnpfXzlRWVBwY1lzV25Lbm9VSWI0YTI3VjRHY0RYamRRRTBrc3piYkNuMHFHSFJzYnpaWWdxMXpMSGJt,English,,1,2015-05-10,Alen Brabec,,keep crashing on 44,,
Ringdroid,Google Play,com.ringdroid,Z3A6QU9xcFRPRnZMSWZGSnE1WVpQQXhfRG5VWnlxTVZ4d3pyTU4tN3VUMVFDQkFVRnpzaGRjemtQNzFHazZVaUk5RVlrQzdZbWdDMGk1MmFkbEJuVTNz,English,,5,2015-05-10,Blair Michaels,Awesome!,love that i can splice a song just i want it to be for any of my contact,,
Ringdroid,Google Play,com.ringdroid,Z3A6QU9xcFRPRnZMSWZGSnE1WVpQQXhfRG5VWnlxTVZ4d3pyTU4tN3VUMVFDQkFVRnpzaGRjemtQNzFHazZVaUk5RVlrQzdZbWdDMGk1MmFkbEJuVTNz,English,,5,2015-05-10,Blair Michaels,Awesome!,highly recommend getting this,,
Ringdroid,Google Play,com.ringdroid,Z3A6QU9xcFRPR2E5UjhLUURZNms0MFBKdFRjWXRyOTZIUEczNWxCOG1MNWxlWG11QlhMTGVpRTRNUy1Sd2R3NVh5QWxteC1NY1ZYRXQzRERZUHZ1Wjhy,English,,2,2015-05-10,JJ Budd,If it would work. . .,the premise behind this is awesome,,
Ringdroid,Google Play,com.ringdroid,Z3A6QU9xcFRPR2E5UjhLUURZNms0MFBKdFRjWXRyOTZIUEczNWxCOG1MNWxlWG11QlhMTGVpRTRNUy1Sd2R3NVh5QWxteC1NY1ZYRXQzRERZUHZ1Wjhy,English,,2,2015-05-10,JJ Budd,If it would work. . .,will update with better rating this get fixed,,
Ringdroid,Google Play,com.ringdroid,Z3A6QU9xcFRPR1l2UWNTbEliT2NORkcyY0ZXZkozNTB1cTlRYndJWWlZTHpUbnpZd25XWXJJQ2Nwc2Q1Sjd2NjZTUEJCRlltZjJ4TDJVVTFmeVdaTUtU,English,,4,2015-05-10,Uzi Santa,Nice,very tool for editing large downloads,,
Ringdroid,Google Play,com.ringdroid,Z3A6QU9xcFRPRzliUVhqdU1OMUI5R0lUNHRrcERQVDV4MHhidGVzeWg0LTdaUkJ3eUc2bFM0VGVNcG1maklvR2JUSHNyTEtKWkxZT0RBd3BjRjRqZi1v,English,,5,2015-05-09,,,best,,
Ringdroid,Google Play,com.ringdroid,Z3A6QU9xcFRPR1NsdFo1RkljZ0NnU2U2OG9DNnBQa3VjTEFrWGotS2laSzBFSnlqWFNnTTJuV1ppRFBKQ1g5dWVKdWVwWnZPc1AwcjlTZG5BYi0wVEFl,English,,5,2015-05-09,Max Gay,What an phone app should be.,doe what it say no problem,,
Ringdroid,Google Play,com.ringdroid,Z3A6QU9xcFRPR1NsdFo1RkljZ0NnU2U2OG9DNnBQa3VjTEFrWGotS2laSzBFSnlqWFNnTTJuV1ppRFBKQ1g5dWVKdWVwWnZPc1AwcjlTZG5BYi0wVEFl,English,,5,2015-05-09,Max Gay,What an phone app should be.,good on you guy,,
Ringdroid,Google Play,com.ringdroid,Z3A6QU9xcFRPRXBiLUM2dkhTNGc1ZmxiWEtkaFpQRlNIQjdReGlBcUJmclhQV2Zsel9TTkN4RURFSGpFWFBkX2JrdHlfOVVpRWF6allOQVVjaWk1Ykh4,English,,4,2015-05-09,mani kandan,Not bad,easy to crop music,,
Ringdroid,Google Play,com.ringdroid,bGc6QU9xcFRPSFNuQzBaejZHbDNocThndmY0OHNuSjJlLUktZDhlZ2wwRlh6RTVZaGc5M1dsbXRJbGQwWGxGN2RvRGpGZ3VTN3JqdV9MSjFYdUVvSG1T,English,,5,2015-05-09,A Google User,,like it a lot,,
Ringdroid,Google Play,com.ringdroid,bGc6QU9xcFRPSFNuQzBaejZHbDNocThndmY0OHNuSjJlLUktZDhlZ2wwRlh6RTVZaGc5M1dsbXRJbGQwWGxGN2RvRGpGZ3VTN3JqdV9MSjFYdUVvSG1T,English,,5,2015-05-09,A Google User,,snipping the part y want is we could snip two different part and put it together would be a great addition,,
Ringdroid,Google Play,com.ringdroid,bGc6QU9xcFRPSFNuQzBaejZHbDNocThndmY0OHNuSjJlLUktZDhlZ2wwRlh6RTVZaGc5M1dsbXRJbGQwWGxGN2RvRGpGZ3VTN3JqdV9MSjFYdUVvSG1T,English,,5,2015-05-09,A Google User,,2015 comment would like to see a filtering option to separate music from ring tone and not cation instead if having to scroll through a long list,,
Ringdroid,Google Play,com.ringdroid,Z3A6QU9xcFRPSHlra0lxZ05fLUhDNFR4NkdHdlBmWTRsQU1yS0xJOWY5Rm1uOHl4cTNnNHBlTXdKM09PMTA0Nm5tbWVBN1pIc3BJdzYycmljb3FZb01a,English,,1,2015-05-09,Maria Love,Bad,is bad with the last,,
Ringdroid,Google Play,com.ringdroid,Z3A6QU9xcFRPRzhQWEZQSE1VNWV1Uk1XZXhURFU0elZMYnA5V2J5X01UaGlBb3FLWlh3X3UwQzByTms4UDZxNS01LVE2ZDZyUkVHdnVBbmRYNzdjZ2VF,English,,5,2015-05-09,Angel Navarro,Fast and simple,all i needed to do after downloading these thing i wa able to change thing are only to a notification,,
Ringdroid,Google Play,com.ringdroid,Z3A6QU9xcFRPRU5pS1R6Mm5HWXlSb0pPbHc3aVlQeGVNRDBfMG5NVVJpOHNxZ3hYUzNWYUE0WE5Ienc2b2RtZ19Yd3MwX2NDa3U5S0F2ZUh3RlYyRGs2,English,,5,2015-05-08,Kiara Backus,,been using this my galaxy,,
Ringdroid,Google Play,com.ringdroid,Z3A6QU9xcFRPRU5pS1R6Mm5HWXlSb0pPbHc3aVlQeGVNRDBfMG5NVVJpOHNxZ3hYUzNWYUE0WE5Ienc2b2RtZ19Yd3MwX2NDa3U5S0F2ZUh3RlYyRGs2,English,,5,2015-05-08,Kiara Backus,,never have any problem,,
Ringdroid,Google Play,com.ringdroid,Z3A6QU9xcFRPRWVfSzBmWFd5eTNkbTZSelBLcEVrNTE1dDFmOVpxLWJfZ2F4UzFtQlowV1ZQRWlRWTEzM01FbTB5Tlg0QVlQS2FiTFdSWUJxVUpsTGFf,English,,5,2015-05-08,Krista Burks,Awesome,a must need for anyone who want their own ring tone,,
Ringdroid,Google Play,com.ringdroid,Z3A6QU9xcFRPRWVfSzBmWFd5eTNkbTZSelBLcEVrNTE1dDFmOVpxLWJfZ2F4UzFtQlowV1ZQRWlRWTEzM01FbTB5Tlg0QVlQS2FiTFdSWUJxVUpsTGFf,English,,5,2015-05-08,Krista Burks,Awesome,this is the best,,
Ringdroid,Google Play,com.ringdroid,Z3A6QU9xcFRPRjZzUWZlRjI5SS0xZ3RjQjRJTEx4bEl4M0FyU0MtRTdzYl9JRW9WTnFKZXdkc2h2UmVkWGhuTXI1cjlPX0RkNHRVNEZxODA0TjFsRThn,English,,5,2015-05-08,Christina Chafin,Love it!,love this,,
Ringdroid,Google Play,com.ringdroid,Z3A6QU9xcFRPRjZzUWZlRjI5SS0xZ3RjQjRJTEx4bEl4M0FyU0MtRTdzYl9JRW9WTnFKZXdkc2h2UmVkWGhuTXI1cjlPX0RkNHRVNEZxODA0TjFsRThn,English,,5,2015-05-08,Christina Chafin,Love it!,easy to use too,,
Ringdroid,Google Play,com.ringdroid,Z3A6QU9xcFRPRXdjSXc4UGZJVjBsamNyZzBsTmR6YTEyT21IdkZUN0NJN0pfbUluN2oxVDJQT0JiZnh1ejFkUjVpcFpJaVpPRHlyZndyNzY4R2xMU0J1,English,,5,2015-05-08,Norm McClelland,Does exactly what I want it too!,very happy with this,,
Ringdroid,Google Play,com.ringdroid,Z3A6QU9xcFRPRWxRM0hpYWxxMU9hV2pRWUtZbEtiYVBvVnJTcE5MLW4xbVVPbWRxQ1hjRjQ5UXpsV0F6Uzc3N3Y5Y1QzSUxKNFRHSFRJVzRkS3FnNGYx,English,,1,2015-05-08,Rob Lee,???,why do you need access to my microphone,,
Ringdroid,Google Play,com.ringdroid,Z3A6QU9xcFRPRmFlMHBub0Ntc1pCaWNJX0xweGhjOWRtNHAzYmtmVTE3OGlLOXJTM2JhTDY5bWJ4ZU8xa3FRWG9UWFpkdjFGOHdRUng3QWVseGxRWkNB,English,,5,2015-05-08,Cherelle Norris,,best ever,,
Ringdroid,Google Play,com.ringdroid,Z3A6QU9xcFRPRzJPdVhuR050c0NKbThfTkczS0R1ZUZoVFQ1dzhlU3oxNmF3c2tNLWM3VzFKN0xzUEVZU2dOSjJiODQ3SWdwbmdBRmRmUkVITmxDT0NY,English,,5,2015-05-08,skyraksmey chhea,,i like,,
Ringdroid,Google Play,com.ringdroid,Z3A6QU9xcFRPR3d3WHdJaUl5R19QWmVEdzJpZ091aVUtZ2RpaU0zREJaeWxQTnVrbkZYbndFenFqY0tMN212LU9CU3VVcGFUQ05OMDNUMXRFNGdhUGM4,English,,5,2015-05-08,nisa ban botrey,Can't live without it!,thank u much,,
Ringdroid,Google Play,com.ringdroid,Z3A6QU9xcFRPRWJ5Q0o0RF9JWTRnYnBwVmJfUUg4ajNSNXlWdVFsWE9hbkRyY3d6T1YtMVRPdHFKeTMtb3RmRld2aDZIMHBHcmtOWVBnWTFxNnViQzFI,English,,5,2015-05-08,Mathew Dhlumo,Great app,best,,
Ringdroid,Google Play,com.ringdroid,Z3A6QU9xcFRPRm1HX193TGowbDJDNFlrZVFEZ1c1S0ROcE8zNjd0X2F3VkZfQlFnY2RnZU9RZVJpRnh5cXlrcUFKanFHT2E5dTl6bW41N3p2a0cxVFBD,English,,5,2015-05-08,Raad Azzam,Great,the best for cut my favorite ring tone,,
Ringdroid,Google Play,com.ringdroid,Z3A6QU9xcFRPSFhJOXdLRmNGT3U0c1M2c1d5Y0gtWlM2SWtSaFVjX2E4THo4MFYzMVlVSXkzNWhGNnBfWmJubzIwZzlaVUVWdDVTbUhGdEtyQk5MbkhC,English,,4,2015-05-08,ang ela,Thanks,i love this make everything earlier for me i want to change a,,
Ringdroid,Google Play,com.ringdroid,Z3A6QU9xcFRPRTFTTzNxVXk5dWpRcnZRTHdzZFpGa0NfMlRhWU95ejlnVEc5QUtvQWhzLXJEellQU2p6Sm9CZ3NaRnhGb0s0U2ZRSzBpR2h0QVdEMVF1,English,,5,2015-05-08,Nick Beckman,Me and you go way back,great a must have for android user,,
Ringdroid,Google Play,com.ringdroid,Z3A6QU9xcFRPR2xDZmlEa20yOU1BOW1tUzVtVHJad0dIeXlUcWlIWmo2NER3dHUzakRzMEo5aHJhN1lHTGJLX0JfSmE4MzM5ajA1a0huRFJ0WHlsdEdG,English,,4,2015-05-07,Anita J,S5,very useful and just what i needed,,
Ringdroid,Google Play,com.ringdroid,Z3A6QU9xcFRPR2l6ZHVGOHZSTTFTaGh3aVQ2TE9Ha2xnd3haanNiOUFSOU8wVlFGVHlmQVU5aUw3QzVsTXlDMmwzYTZ2ZUg5b01TUmFCeV9YRTdCVHZ1,English,,5,2015-05-07,Farhaan Islam,Very Out-dated UI,but it work,,
Ringdroid,Google Play,com.ringdroid,Z3A6QU9xcFRPR2l6ZHVGOHZSTTFTaGh3aVQ2TE9Ha2xnd3haanNiOUFSOU8wVlFGVHlmQVU5aUw3QzVsTXlDMmwzYTZ2ZUg5b01TUmFCeV9YRTdCVHZ1,English,,5,2015-05-07,Farhaan Islam,Very Out-dated UI,longer song are a pain to but work like a charm,,
Ringdroid,Google Play,com.ringdroid,Z3A6QU9xcFRPR2l6ZHVGOHZSTTFTaGh3aVQ2TE9Ha2xnd3haanNiOUFSOU8wVlFGVHlmQVU5aUw3QzVsTXlDMmwzYTZ2ZUg5b01TUmFCeV9YRTdCVHZ1,English,,5,2015-05-07,Farhaan Islam,Very Out-dated UI,5 out of 5 every time,,
Ringdroid,Google Play,com.ringdroid,Z3A6QU9xcFRPR2l6ZHVGOHZSTTFTaGh3aVQ2TE9Ha2xnd3haanNiOUFSOU8wVlFGVHlmQVU5aUw3QzVsTXlDMmwzYTZ2ZUg5b01TUmFCeV9YRTdCVHZ1,English,,5,2015-05-07,Farhaan Islam,Very Out-dated UI,being using this 23 gingerbread,,
Ringdroid,Google Play,com.ringdroid,Z3A6QU9xcFRPSHA1dElhUms5MGJqOXhSS2NVRnNBQjFWODlRa1BWVzVxcHpPbTNJNzI3UW95THM5QTlRcFJuWmVIZFE5bG9HQ3BJN3F1NWRsS29rVHlH,English,,3,2015-05-07,Lola Effah,Lol,who care,,
Ringdroid,Google Play,com.ringdroid,Z3A6QU9xcFRPRTMyOGZ6R3l5amgya0VXRmdEM2l4eFZQWXZLOEhSeUlObzRMc0hFQ3JJeTdTU0NOWXZiSnlQcGtLWmZCbWtTTXk0clRsYjlnNk9UTklr,English,,4,2015-05-07,Narender singh,,,,
Ringdroid,Google Play,com.ringdroid,Z3A6QU9xcFRPRXI0R05YRFBBZ0FTYU9OdnI3OHBVajFKYkFsYjBWM3BfbUYyTUxnNGVGSFV4bGNTRThDS1U5V09fcF9JUmZPdVBsaWlxRlByeG5ZY3hf,English,,4,2015-05-07,Josh Biddle,Awesome,work great for making fast ring or text tone,,
Ringdroid,Google Play,com.ringdroid,Z3A6QU9xcFRPRVlac2w2TUVlVzd5bzEteEZCa0pJSHpJUkh3cHBJWGU1c1RFOVNGc0RvWWVUR2FZSEIwS1NtZmgwMHYxR19hSUdmTmpzSU1ZYVcyNm5v,English,,5,2015-05-07,Tanya G,Perfect,have been using my very first,,
Ringdroid,Google Play,com.ringdroid,Z3A6QU9xcFRPRVlac2w2TUVlVzd5bzEteEZCa0pJSHpJUkh3cHBJWGU1c1RFOVNGc0RvWWVUR2FZSEIwS1NtZmgwMHYxR19hSUdmTmpzSU1ZYVcyNm5v,English,,5,2015-05-07,Tanya G,Perfect,love it,,
Ringdroid,Google Play,com.ringdroid,Z3A6QU9xcFRPSG1KQ3U3QTlGRFNfREtldWF4QW4xS3JkVlNOelVrM04zelBHc2s1aEpuVVR3S25NbllvTVpYTEViNlpic2hQMFF6M0JOaUJ3ZWtRejh6,English,,5,2015-05-07,Anadi Mishra,Best,best to convert,,
