# deletions,date,commit message
30,2015/12/22,Update translations  * Bulgarian - ddmdim96 * Italian - dfdario * Japanese - naofumi * Russian - markant139 @uryevich
431,2015/12/22,Use built-in google play services place picker  Closes #299
101,2015/12/20,Prevent duplicate tag creation  Closes #163
13,2015/12/19,TLA doesn't need to implement OnPageChangeListener
5,2015/12/18,Gradle 2.9 Google Play Services 8.4.0
57,2015/12/17,Show analytic snackbar from task list activity
8,2015/12/17,Add request code for upgrades
83,2015/12/17,Remove static BuiltInFilterExposer methods
15,2015/12/17,Set defaults on upgrade
