# deletions,date,commit message
11,2016/2/06,Track repeat snackbar exception
121,2016/2/06,Apply task edit controls in specific order
137,2016/2/06,Don't access task edit fragment views when saving
6,2016/2/05,Switch filter after closing drawer
72,2016/2/05,Fix layouts and discard bug  * Consistent clear button size * Implement Geofence.equals * Align text and icons to toolbar keylines
2,2016/2/04,Update translations  * Bulgarian - ddmdima96 * Italian - dfdario
5754,2016/2/04,Tweak launcher icon
155,2016/2/04,Save task before switching filter
11117,2016/2/04,Update launcher icon
95,2016/2/03,Update widget
2,2016/2/03,Remove baselineAligned
90,2016/2/03,Update beast mode layout
2,2016/2/03,Fix empty task list view
15,2016/2/03,Fix date picker bug
731,2016/2/02,Dual toolbars
21,2016/2/02,Only save if task changed
17,2016/2/02,Fix launching task from widget with custom intent
55,2016/2/02,Fix shortcut widget (again)
131,2016/2/02,Confirm before discard home saves back discards  Closes #106
1,2016/2/02,Update translations  * Bulgarian - ddmdima96 * Dutch - revdbrink * German - bsty * Italian - dfdario * Japanese - naofumi * Russian - @uryevich
38,2016/2/02,Remove "Clearing completed tasks" progress dialog
3,2016/2/02,Use material checkmark for notifications
214,2016/2/01,Fixing some lifecycle issues
35,2016/2/01,Save TagData
45,2016/2/01,Remove TOKEN_SWITCH_TO_FILTER
4,2016/2/01,Inject SyncActionHelper
22,2016/2/01,Update widget extras
13,2016/2/01,Set title when loading fragment
110,2016/2/01,Remove QuickAddBar
48,2016/2/01,Remove REFRESH flag
6,2016/1/31,Fix crash on save after rotating manual lists
89,2016/1/29,Cleanup unused code save isNewTask in edit frag
1207,2016/1/28,Single master/detail activity  Closes #301 Closes #280
20,2016/1/25,Remove isPlayStoreAvailable
1,2016/1/25,Update README.md
1,2016/1/21,Fix lint error
2,2016/1/20,Fix test compile
6,2016/1/20,Dont move completed to end of manual ordered list
42,2016/1/15,Remove anonymous usage snackbar
2738,2016/1/14,Convert TaskEditControlSets to fragments
32,2016/1/17,ShareLinkActivity does not extend AstridActivity
56,2016/1/12,Rename DeviceInfo to Device
32,2016/1/12,Remove setting to disable geofences
1,2016/1/12,Exclude deleted tasks in recently modified filter
35,2016/1/12,Large inbox icon for empty list
82,2016/1/08,Misc updates
2,2016/1/07,Fix repeat control
4,2016/1/07,Bump version
92,2016/1/07,Remove date caching
14,2016/1/07,Tweak widget row layout
67,2016/1/07,Add clear button to repeat control set
86,2016/1/07,Add control_set_clear_button
353,2016/1/07,Use radio buttons for importance control set
0,2016/1/06,Remove checkbox drawables
8,2016/1/06,Don't move completed items to bottom of list  Closes #267
1,2016/1/06,Fix NPE
118,2016/1/06,Use material checkboxes
24,2016/1/06,Material icons for timer
2,2016/1/06,Update proguard for samsung 4.2 crashes
2,2016/1/06,Replace inbox icon
81,2016/1/05,Run geofence & reminder schedulers on pref change
240,2016/1/04,Misc cleanup
66,2016/1/04,Remove date formatting that always includes year
371,2016/1/04,Update hide until strings
42,2016/1/04,Add clear button to hide until control set
42,2016/1/04,Remove hide until and choose calendar titles
68,2016/1/04,Add HiddenTopArrayAdapter
10,2016/1/03,Fix more time picker crashes update translations  * Dutch - revdbrink * Ukrainian - kuzyasun
