# deletions,date,commit message
175,2015/1/06,Dark theme  Closes #197
9,2015/1/05,Refresh after empty tag deletion
58,2015/1/05,Refresh after filter deletion
92,2015/1/05,Update translations  * French - mdubois * Greek languages - notis
9,2015/1/01,Fix task creation in landscape tablet mode
7,2015/1/01,Add printTimestamp method
23,2014/12/28,Update translations  * Bulgarian - ddmdima96 * sergiomarques - Portuguese
1,2014/12/24,Bump version
1,2014/12/24,Update joda to resolve deadlock
5,2014/12/24,fix tests
198,2014/12/24,Remove ContextManager
127,2014/12/24,Remove TaskKiller help
406,2014/12/24,Remove AbstractDatabase let android lock sqlite
36,2014/12/23,FAB does not use quick add bar
1,2014/12/23,Replace placeholders when creating task
3,2014/12/23,New travis infrastructure
23,2014/12/23,Show deleted tasks on task list for one minute
331,2014/12/22,Add FilterProvider
102,2014/12/22,Remove DatabaseDao subclasses
127,2014/12/22,GtasksList wraps StoreObject
46,2014/12/20,Only sync gtask lists with updates
27,2014/12/17,Stop scrollable widget update service
209,2014/12/16,Convert gtask background service to intent service  Closes #177
1,2014/12/16,Fix widget intent filter
630,2014/12/16,Working on background services  * Backup intent service runs at midnight - closes #109 * Broadcast refresh at midnight - closes #100 * Task list listens for refreshes - see #189 * Reschedule everything on app upgrade
4,2014/12/12,Build tools 21.1.2 support repository rev 10
23,2014/12/09,Add android version checks
22,2014/12/09,Show keyboard in onResume
2,2014/12/08,Fix lint errors
120,2014/12/08,Change description control to EditText
1,2014/12/08,Android Studio 1.0
2,2014/12/08,Removing user column broke existing widgets
