# deletions,date,commit message
2,2016/3/23,Fix filter selection dialog
67,2016/3/23,Task list menu cleanup
385,2016/3/23,Remove FilterWithCustomIntent
203,2016/3/22,Remove ShortcutActivity
150,2016/3/22,Replace filter with filter ID in widgets
174,2016/3/22,Remove DonationActivity
80,2016/3/22,Fix date and time dialog backgrounds
3,2016/3/21,Update translations bump version  * Bulgarian - ddmdima96 * Farsi - hoseinit * Japanese - naofumi * Spanish - i2nm7s * Swedish - agne987
10,2016/3/21,Update IAB tracking
1,2016/3/21,Fix IllegalArgumentException in IabHelper.dispose
