App,Store,App ID,Review ID,Country,Version,Rating,Date,Author,Subject,Body,Translated Subject,Translated Body
Tasks: Astrid To-Do List Clone,Google Play,org.tasks,Z3A6QU9xcFRPRnl3bzBfUHdHbXRyMzM5eWhIQ2hLRXV0UmtCMFBJaEVwelVsY0w2MGtyYVN2Z2xKcUtlT3VNa3djdzNHcHNTWTRzbWtFNWo5NnRzXzNyaVpV,English,,5,2015-03-12,Nicholas Freedman,Yes!,The BEST task manager. Astrid lives! And is getting better.,,
Tasks: Astrid To-Do List Clone,Google Play,org.tasks,Z3A6QU9xcFRPR29UUnNFNG4tSUo1cWsxaGwtQTBSQnNPMU82YUtwNGwtYmozeFZXaU8yX3ZpckxmX0lSUE5GMzRqaXg2UkdiZkI2WG9CM1ZyS3Rpc05tUFdz,English,,5,2015-03-11,Jothi Prasad,Good app,Love the UI,,
Tasks: Astrid To-Do List Clone,Google Play,org.tasks,Z3A6QU9xcFRPR3ZWUXZnb0NiWjlhd2tVZ3pNTEc2YkxQT0pyVjBZbGFWMUFwVjhNS2dNdUh5UU9XZFV6S2xjTFBwQVF5YTNNR2FuY1NEYWxlcEV6cGp4eFF3,English,,4,2015-03-10,Dirk Eisenacher,"Great app, great design","if only it could sync with other cloud services/caldav, too.",,
Tasks: Astrid To-Do List Clone,Google Play,org.tasks,Z3A6QU9xcFRPR2RSdzRFaVJBTlhIVWRKcXk5SUhhZEo1SVE3WXFRejBzZ2dHc0tpUnRQbmRGLTJ4d3RyNXFvVnFNaFl6dUYyTlVPZElURzVaQ21DQS1tRll3,English,,4,2015-03-09,Ricardo Nascimento,Almost perfect,"I really like the Astrid To-Do List, but like all the task lists I've tried it lacks a location feature. Not a tag that will remind you when you're near the location, but simply a location tag as the Google Calendar have, that allows you to set the location where the task will be performed. In example:  List of restaurants to check: - Restaurant A - Restaurant B  If there was a location attribute I could easily put the restaurants address and manage to navigate to my GPS Application. I made an example with Restaurants to check, but it's also useful with a large number of to do's. With this improvement it would be 5 stars to me, nevertheless is an amazing application.",,
Tasks: Astrid To-Do List Clone,Google Play,org.tasks,Z3A6QU9xcFRPR183c3FDTWdyclZfRERBVTJFcTBmV2xFLVdZRVlmaEx4OWo4NklHaTlmeldjczdtRTltS2N5WmFwTTZFaGo0cEQxbGw5aUY3aEg2R3VFYzFV,English,,5,2015-03-04,Quinn Farol,"Replacing another ""Tasks"" program I've been using for years!","Very robust task manager that seems to be regularly improved by the developer (unlike my old one). Love clean syncing to Google Tasks...thanks for that. A few things to potentially improve an amazing app. First, allow Google Tasks to sort list names alphabetically/numerically (currently comes in haphazard numerically). Second, show task list name clearly in upper left (""Google Tasks:"" not necessary info here). Third, allow swiping screen left and right to move from one list to another. Love your app!",,
Tasks: Astrid To-Do List Clone,Google Play,org.tasks,Z3A6QU9xcFRPR3RGWHBwZzJvZFRMWnpBc2lxMkFWakt4MHIzVFVKeXQweXBGYUVweUlKbjJ3VVR2VnNJb1FzTFJGNENBSmJ6VGZjTUswYmxEYUw2UDhBZzNV,English,,5,2015-03-03,Eric Slacktish,Just what I was looking for,"So glad to find this app. Has everything I want and nothing I don't. Things  I love: - Fast - Simple widget that works well - Very flexible repeating reminders - The ability to hide the repeating reminders until near the due date - Notifications - Material design - Syncs with Google Tasks  Seriously, I couldn't ask for a better To-Do app (I've tried just about all of them), and it's FREE! (Many of the other apps charge a subscription for some of the features you get for free here).",,
Tasks: Astrid To-Do List Clone,Google Play,org.tasks,Z3A6QU9xcFRPRXp3X3dTQWlLc2NXanNzV2NSSDFkWWZaTnJWNW9aY1gzeVJhMW5sbjRDWVhnVzBvNzBxdEVNYmU5SlVCV2k5YlRxMENLdkh3eXNmS3lHdTFn,English,,5,2015-03-03,Dr. Assem Hossam,A must have app,Can there be a widget with monthly calendar showing tasks??,,
Tasks: Astrid To-Do List Clone,Google Play,org.tasks,Z3A6QU9xcFRPRk8tQ3Y5STVkUm9NLU9zbHRJRVAxNVQ4Z3pyY2x3ckRfSlNDRzJvUmR0cHh1LUFfaGJQb3c0ZWNSaHBGMmRPY0FTbVliQjk5cUQ1OEtwSUhv,English,,4,2015-03-02,yakky tory,One important feature missing...,"In the old ASTRID, one could assign a task to someone else via email . If you could bring this feature back that would really bring back the old experience. Thanks for all the work so far",,
Tasks: Astrid To-Do List Clone,Google Play,org.tasks,Z3A6QU9xcFRPSF8ydk5EX0gyaXpUQm5hQlpCMm5rS0JVa0NHd3VJblR5cXZWLUFZMUx3MndWa0hIZ0FQV1hfSlRMTUxqNHBHekYwTjFuRzVENGFmVGhNYWlN,English,,5,2015-02-28,Milan Aftanas,Exactly what I want,"Open-source, light and dark theme, minimalistic design, fast, synchronization with Google tasks. It does exactly what it should. Thanks!",,
Tasks: Astrid To-Do List Clone,Google Play,org.tasks,Z3A6QU9xcFRPRjRyY3F3cHE3Q09EYXpFM3hWNkYtWFRHYnlDUW9MaWlXWlFyREpPRUhzaHVUMWNMQjhyNmVJd0JPMFFicnRzNVE5OURaMkZNUmVNb3ZLZkNF,English,,5,2015-02-25,Swami Tadvratananda,Terrific but fails to sync lists with google tasks.,"Just one gripe, it fails to sync lists with google tasks. So I use the app independently of google tasks. It would be terrific if it syncs flawlessly with google tasks. Nevertheless, I find it simple and complete in other respects.",,
Tasks: Astrid To-Do List Clone,Google Play,org.tasks,Z3A6QU9xcFRPRUdNLVpQSjdlUFBnNnhQUTcwOEZvYjdzT0prVVN2Rm12ZmF3ejZ4ZnRrbnV3dTEzSDhCdjMzTExTUXdrdGtrenRXTm5NdnYyY1RlNENuWGow,English,,4,2015-02-25,Meir Edrey,Great app BUT...,I find that its really missing a better alarm-like functions. It would be nice to be able to use it as a one app for all my daily tasks including waking up,,
Tasks: Astrid To-Do List Clone,Google Play,org.tasks,Z3A6QU9xcFRPSFBlVmFleDJCcVJWdTFsLWpIaTFkTUxYNjByRW5VTG5faXBmSVB2aXcyN0dWanhGTHZSc1ZMSXE1NENTbmhwb3Q0Q3p0enpwX0xxUkctZkxN,English,,5,2015-02-22,Danny Kong,Thanks,"Finally, I go this one for my task management, after the astrid.  Thanks a lot",,
Tasks: Astrid To-Do List Clone,Google Play,org.tasks,Z3A6QU9xcFRPSFliNk1TbU1XQUU4TDMxelFRQmpiZlI3QXVWWkVIM3h1VmMxTnpKc0p3d3c4anZob2c4bnZwdDgxT3N4bk43X1Nhc0RjUFZBNDd3WVNuQl8w,English,,4,2015-02-19,Flatliner s,"Great, just need one improvement on widget",Works great so far.  Only thing I miss is on widget if it could match the look of when you open.  I really need to see the due dates on the widget :),,
Tasks: Astrid To-Do List Clone,Google Play,org.tasks,Z3A6QU9xcFRPSHg0LWdpWl9IUFdodWpibWxlRnZuQ1pXeS1Gcm9RTmtPSTNfeGwtS0EtdHVFbmQwbUlrRENfblZlczE2YU9yX1g4aUROMzdMX3B0V1VJQV80,English,,5,2015-02-15,Ken Howard,I loved Astrid,I was super bummed that Astrid was not going to be supported one Yahoo acquired them. I've tried any.do since then and it has been terrible. This is just how I remembered it!,,
Tasks: Astrid To-Do List Clone,Google Play,org.tasks,Z3A6QU9xcFRPRXh3d1h2OExOeXNPSWJ3RUtxdmhkbkhiX2FEQW1uWXFhQ09ic1hDSHRjTmhHSVFxM2JCMHFLLUtXRmZlSDJRQ185SnlxRjBPc0JHNmRlbkpr,English,,5,2015-02-15,Jose Porras,"",Love dark theme,,
Tasks: Astrid To-Do List Clone,Google Play,org.tasks,Z3A6QU9xcFRPRS1VMm5WY2ZfODA1UjkyNmJMaUR1LURHMTRmZEZzZ2ZYQUpweWtsQzNsZWs3X0FjUElpMWN2N2JyS3NWYzhzTHZ0R1o5VDh5dEo1VlBBSXgw,English,,5,2015-02-13,Bob Crosbee,The best,I've used many to-do apps and this is the one I always go back to. It's got the most flexible alarm settings and there are no in app extras like some others.,,
Tasks: Astrid To-Do List Clone,Google Play,org.tasks,Z3A6QU9xcFRPSDY2cmlaV19tYVVsZnFfYlBXWkJoZW9QZ09CSmdOZ0w2Z0RtcGtLWm9pZVJ3Y1BzSDRTYUlpTzJDOUhvdENSOEl0SkZsMm5hUjZtUjdqOTdB,English,,5,2015-02-09,Mustafa N.,PERFECT,"This app is amazing! Nice and simple, but has all the features I need. The widget is great the design is great. These days all the mainstream to do list apps have all these extra features that not a single soul uses. This app is light but has everything an average person would need.",,
Tasks: Astrid To-Do List Clone,Google Play,org.tasks,Z3A6QU9xcFRPRzhzZm11RVVrazljQk01VnRpWWVUQmh1UTVlQXFuOE1Ia0I3eVNRWUJLeUZjX3VuRkplSUtoX1pnYW5QNUs5SEE2OUJHZXZnbnlheDd5bms0,English,,5,2015-02-09,Sorawee Porncharoenwase,"",I love it,,
Tasks: Astrid To-Do List Clone,Google Play,org.tasks,Z3A6QU9xcFRPRkJNQmp5bnVOQmVLZi1lT3R4eHVyR2NrTVNKeVk5dWtjQksxWktQZWVONmhyYkplRzhCN08zUmRSS1R1WFdNOUJjeDFyNGFPYmJqaFBDMnkw,English,,4,2015-02-08,Council Clarkson,Android wear for 5th star!,"I've finally found peace in this task management arena! Just one request, make it work for Android Wear.",,
Tasks: Astrid To-Do List Clone,Google Play,org.tasks,Z3A6QU9xcFRPSGVPNldISXZWazFzR3V3T05rVTUxMks1ZU5sSE5MdVV4WUtMZ1ZVQ0hrNk94N0Q5a1BPM2VLaU5aSGZFRjZ6V19yUDJfeDE0eG04R2FnQndz,English,,4,2015-02-07,Irvin Christopher,YES! THANK YOU!!!,"THANK YOU!!! After Tastrid got bought out by Yahoo, I kept the app on my phone because it was the best task app I knew. Well after using it for a long time, I had to reset my phone. When installing all my apps back, I couldn't find it!!! Smh. Needles to say I was scared. But I eventually found this app!!! It is JUST like the old app but with the ""Material Design"" look and feel. Great job!",,
Tasks: Astrid To-Do List Clone,Google Play,org.tasks,Z3A6QU9xcFRPR0E3RGRoZkZjQXpBT1lNTU01eURDTzJ3YVNNQy1VN2JCNlN0UHZXVUZBZGFwQXc1OGdXQ3pjSC1iNVRSUG5HLS11OHlmb242bDloZ20yelNZ,English,,5,2015-02-06,Chandana Weerakoon,Brilliant App.,Task functionality is great. But I also  love the little productovity tricks and things it does for you automatically and intuitively. A lot Better than most paid ones.,,
Tasks: Astrid To-Do List Clone,Google Play,org.tasks,Z3A6QU9xcFRPSG8wYk90LW5VWWRzbjZralF3UkkzNVdjRldvdXdMVC1lalRmdExBUG1PVGd1Z0RISzF3bkhlNzByVUNESWZMR2lUR1U1S2dMZ2RkdjgwR0J3,English,,3,2015-02-01,Marlena Hare,Liked it more when I could sync it to my tablet,Why does the app no longer have the option of synchronizing to other devices? If this is not fixed I will have to find another task app.,,
Tasks: Astrid To-Do List Clone,Google Play,org.tasks,Z3A6QU9xcFRPSDUzQVhtMnZhNUJVbDZHODJLdllqYTM5T3lzWmpHR3JEdDk5bzBCQnFFb3EzS0pWcWhvMFdNTUFKSHB3dldvc2MtR0pXWUVBU2hsNktlOVZz,English,,5,2015-02-01,Pattanasak Dusadenoad,"",Great app!,,
Tasks: Astrid To-Do List Clone,Google Play,org.tasks,Z3A6QU9xcFRPRTlJUVViYzdFZ2NBQ05qQ1dnazRWOXVsNlN3TFNFWlc4bk9DSWVlX24yU3NmNlhzNzh2R3pwNnNQV2oydVNvX2JFZnVxYUgyTkppR19idWFZ,English,,3,2015-01-31,Lynn Tassos,Good start,Would love to have the ability to add subtasks.  This would make it more useful for my needs.,,
Tasks: Astrid To-Do List Clone,Google Play,org.tasks,Z3A6QU9xcFRPRzNuWmJKOEl2QVhOYkZtMHJQM0JYcm5aS0taQ0ZpdlI5bXZtLXZMd2hlU0FCbFNKYlhVaHNxNjgxNVdJUlRFb1VjTEx4SGFvVEFxaTdPbTU0,English,,4,2015-01-31,Cameron Rothlisberger,"","Great to do list app with recurring tasks.   One request:  the ability to show the due dates in the widget or ""today"",  ""tomorrow"",  etc. Also an android wear widget would be nice.",,
Tasks: Astrid To-Do List Clone,Google Play,org.tasks,Z3A6QU9xcFRPRnY3Mm1VVExmZERnN2VjR3ZfOWFCN2tNbVE5aldhTV9jVVQwVWpid0tSVDRJYXhvSjQyRkxjWDBZUXBqMEpNZ19rWjA0UVJQMG5PRDd2V1lZ,English,,4,2015-01-30,Valerie Konkel,Just as good as Astrid,"I still have and use astrid, but I wanted to use this app to see if it had some features I thought were missing in astrid.  Sadly, these features aren't here either.  In my opinion, this app would be better if it could do two things: 1. Sync across multiple devices (astrid used to do this before it was bought out) 2. Show the last day/time a task was completed.  Sometimes I want to look if I completed a task and when, but I don't see anywhere to get historical data.    Other than that, it works just like my astrid, which I've always loved.",,
Tasks: Astrid To-Do List Clone,Google Play,org.tasks,Z3A6QU9xcFRPRzRXRkpIWDJtYm1uYUQ1ZVE0Vm14ZENqbHYzVWlSU0J0RGc0cUJfZkItMTVqNE5ULXl3T01CUGhLWDFxOHZNMzRpY2JPYVM4d082ZmpSZWVF,English,,5,2015-01-29,Mark Wiley,Very nice!,Works great. Great integration with Google Calendar / Tasks. Easy to add / change tasks. Lots of setup options to adjust the application to your style. I've been using this for over a year and it really integrates with Google tasks and Google calendar. I love it.,,
Tasks: Astrid To-Do List Clone,Google Play,org.tasks,Z3A6QU9xcFRPR2pPNDVKWjM4Y2NMUW9rclFWbUlEMkJUSmxyZTNLdi16eHA1Wk0zUWxOLTZpQVVTMnNHM1dwQzFBT2hfZEtSSDVYSkpFNnVIYy1hdC04YnBV,English,,5,2015-01-26,2017 gg,I love it,유용하게 잘 씁니다^^,,
Tasks: Astrid To-Do List Clone,Google Play,org.tasks,Z3A6QU9xcFRPSFJQQmlLVU5mQUVyNVgzOHlBNExzbndZOFBTS3hRbWVYSnl5a2lkZEJQWm9waUZ4R1B4SkMzVW5UWVN3Y2daaFdNd1J5RFl0Rm9hVHpBX3F3,English,,5,2015-01-26,Vahid Mardani,Excellent,The best todo list management software that i seen ever,,
Tasks: Astrid To-Do List Clone,Google Play,org.tasks,Z3A6QU9xcFRPRmpIZTZWeS1fYkkybHdhWkxYS2pZd0xSc3hHNGpQaFFTVThaV3dSRnZ0LU5QUEtPX2lpRVRBREZsMkJFZGo5OERUaGpwNU1MVy1PaTNYTWQ4,English,,5,2015-01-26,Malcolm Mielle,Great app,"It's a great app thanks for the work. Best planner ever. Although, the dark theme is not very good looking on big screen (the circle on the bottom right got a bad resolution)",,
Tasks: Astrid To-Do List Clone,Google Play,org.tasks,Z3A6QU9xcFRPRnRPZmhDWEZhY0VPTktVSmhXNFpxZEliWGlJMWQtY0t4UUZoV3FhUi1PaEVkbFdMUTRfOVdCTjFEVXdmWVRnRElRX0hncEw4ekNzMlFfOHY4,English,,2,2015-01-24,Rimzy Riza,Excellent app,Would love to use it but the app isn't smooth (feels buggy) and some ui within the app is so outdated and ugly. Please fix.,,
Tasks: Astrid To-Do List Clone,Google Play,org.tasks,Z3A6QU9xcFRPRUxmTDRiSnBlR2NnRW8xOVl4cFl4UE1Vb3lpQzJFVnZiVi1QN282QWxwMWdGSnRyTUg0dUc1Nlp0ZkM0cS1BY1BaMUxCdkNyTDJ2ZHRoaW5Z,English,,3,2015-01-24,Mike Parker,So close; missing important features,"It was a close toss-up between this app and GTasks, but I ended up with GTasks because Tasks: ATDLC is missing some key features that are important to me: * Tasks sync between devices, but notifications don't. If I set a reminder on a task on my phone, the task appears on my tablet with the due date but no reminder. * The categories appear to be internal to Tasks, not to Google Tasks. When I sync'ed my tasks from Google, I could see the categories in the left-hand menu, but there doesn't appear to be a way to change them or add new tasks to the existing categories. * Recurring tasks (as has been noted) don't sync across devices. GTasks can do this; what's keeping Tasks from doing the same thing? * I realize Tasks is open-source and free, so I expect a little less ""polish"" than paid apps, but the old Android v2 settings menu is kind of jarring. I applaud Tasks and hope to see more improvements as time goes on, but right now GTasks is slightly superior.",,
Tasks: Astrid To-Do List Clone,Google Play,org.tasks,Z3A6QU9xcFRPSG1NaTBDTkxxLTdPY211UFBoMGdMSlZHajFza1pwczhlYWRjNnJ5RzZtRTIwbXlJbGtRQmlNSUhuWVZ4Nk9yQ2VGVUZGSXZjZFpxMlR0TllF,English,,5,2015-01-23,Android Android,"",Loved it,,
Tasks: Astrid To-Do List Clone,Google Play,org.tasks,Z3A6QU9xcFRPR05fM0Ryd1FaQlpnRWd2R1BtbHFXLUFKWGtlNXJrNUFLTHhXNHl6TFViQ0t2WDFZdmhVbDAxSml4OEhYRjY5dWMwTVFJUmhycUhnY2kzYlBz,English,,4,2015-01-23,Kai shred,Almost there.,"Looks nice. Works well, especially calendar sync. Has a few issues, ideally, would be nice to be able to move a task by long press.and was unable to move tasks between folders...so had to move to another app for now.",,
Tasks: Astrid To-Do List Clone,Google Play,org.tasks,Z3A6QU9xcFRPRUJ1NWtqMkN5ckQzN3FQLWxBb3pWU2dGUUJxbGtXekhYU1Z0QjRnRVFIVU1lclNxSldDenFRWDRSZ2pPTE94UTNaVGlaVWhaSGRVdVRkWnBj,English,,5,2015-01-23,Rupak Mitra,Excellent !!!,"The design and the concept is praiseworthy. Just one request, can u make the sorting of tasks lil more smooth. When we drag the tasks its not very smooth.",,
Tasks: Astrid To-Do List Clone,Google Play,org.tasks,Z3A6QU9xcFRPRTlfQkhjc0xRNGhEc2R1RFdkOHBmUGtoUU15UC1RX0V0UGQ2bGUzd2k4NE52VDFBSG1yX29iWFJjM2UyYmJXYWdia3NzSFlkME43Z3RMZlpj,English,,4,2015-01-22,Ryan Sorbo,"Perfect in every way, except for ONE feature","The way to sort these is BEAUTIFUL, and I'll give 5 stars when you add in ONE FEATURE that is CLAWING AT ME whenever I remember it's not there: ability to DECIDE THE LOCATION OF A NEW TASK (i.e. If I want to add a task, I want to be able to have it added to the TOP by default, or position it depending on PRIORITY)",,
Tasks: Astrid To-Do List Clone,Google Play,org.tasks,Z3A6QU9xcFRPRm54V1J3TlQyY2tacGxScHdLelR6VXNfa3J6QXViMmFMN3NTUHU1akhzaXQxMVJOMDlVNWp1aXBMWmQ5ZkZSVzhSYTlJeGxFY21pNTZuaktB,English,,1,2015-01-21,Alexandre Schaad,"","Why do U need access to Id, phone Id and call info, for a task manager?",,
Tasks: Astrid To-Do List Clone,Google Play,org.tasks,Z3A6QU9xcFRPRXlwa3NtMDBicFFhRVNocTY0VWE5Mm4taVlfT3ZLVnlsTmJ4ZmJ6TjZzekJlb0JST2ptczluVWhJaFpSMHg2aHVrMTJmc1RidkwtdzMzdUs0,English,,5,2015-01-20,Deepak Sharma,Excellent App,Found it very useful and powerful. Its easy to use and sort. I like it.,,
Tasks: Astrid To-Do List Clone,Google Play,org.tasks,Z3A6QU9xcFRPRTQ2b04xME1Hc21yVHh6aGlmS1JjRU54Y2Zhc3NydlZQU1hHWFUwODFpWlBCajQ4T0tmZjBlM2pUZ1YzVVk0QlNhcUYteml5WlNoZHFqMW9N,English,,3,2015-01-18,Natalia Hasbun,Great app with Room for improvement.,"So far this app is nice for keeping things right there &amp; in order. However I would like the option to edit the comments portion on the tasks, change the check box colors, add things like grocery lists &amp; memos so everything is in one spot. I'd also really like to be able to import appointments &amp; scheduled things from my calender so I don't have to duplicate it. Would be great to just click on an import button &amp; poof there are all my scheduled tasks that were setup in my calendar already.",,
Tasks: Astrid To-Do List Clone,Google Play,org.tasks,Z3A6QU9xcFRPRXg1ZUF0U2cwTTRIVkdnSlBsZUg3MFNpV0E3UEZFc3J6V2xLOHhxdUFWWHpCZTJDX1JmYWJRSy0ycE5KTmhpd0VxdF9xSHRfY3pJWmU4STdr,English,,5,2015-01-16,Daniel DeBroux,Even better than Astrid,"I like the improvements.  I was disappointed when Yahoo did whatever it was they did to Astrid, and have not ever found a good replacement.  Trust me, I have tried!",,
Tasks: Astrid To-Do List Clone,Google Play,org.tasks,Z3A6QU9xcFRPR1VrMEgzcDVWdkN3QV85WU1lTnpvZTM3Y0hPcHQ0bXQzMEs4eGFERkNnSzBNeGp3amNtbnpkcUNMdkJ1b1NFTGlhOXJHb0RCZi1LLTlHRXZ3,English,,5,2015-01-13,David Tan,Love the new lollipop look,"Have been using Astrid for years and I am glad you picked up where it left off. Just one more improvement in the Task Description if I may suggest. When there is a lot of text, say 100 lines of 15 characters, text entry starts to slow down to a crawl, and gets much worse with the increasing number of lines (I write around 300 lines in a year). If this can be fixed, it will help to reduce frustration :) (Edited on Jan 2015) Text entry problem fixed. Five stars!",,
Tasks: Astrid To-Do List Clone,Google Play,org.tasks,Z3A6QU9xcFRPRTRCRUpmRGp5c3lORXBZZ2RfUHNMRm1xMGJmN0ZwVkNybHpXRVBXdlk1X2NjckM3Uzd0X2hnelVHRE95TXRsRkd4MHJDUjIxenFiZFRUQmNj,English,,5,2015-01-13,Peter Castillo,Great app,"Have tried many others, but this one is the best. Simple and effective. Thanks for the app.",,
Tasks: Astrid To-Do List Clone,Google Play,org.tasks,Z3A6QU9xcFRPRWVwanlVV1dlYm1DcVFQd1NrXzJ2OGtqV2RHWDNkZzdCX0R1MV84ZjBFcHhUREJvc3BMWnl0b3l5b20ydHFUVHNJSTNKV0xYSlU0cGdqQmxn,English,,5,2015-01-13,Gautam Natraj,excellent software better than original thanks,very responsive Super Smooth,,
Tasks: Astrid To-Do List Clone,Google Play,org.tasks,Z3A6QU9xcFRPSGtIQl9wS1JFaVVkYXZfMUZlNVdlYVQteXl6R09RQlplUTNSdGVXU0N3cERMa0ZlejkwdjdZUVg0ODdJcjRZSVluZXl3OXNLaGE2eTNEbHEw,English,,5,2015-01-12,Mark Dziamski,"",Thank you for bringing back the dark theme,,
Tasks: Astrid To-Do List Clone,Google Play,org.tasks,Z3A6QU9xcFRPRThSTENOS3dacXV4bTdoZkRLdWstLVh2bFJpbllvZVdzSGhrNVdZWkZFakNuQXZ6Q0pzS1ZHa0lyeGJ1emVrTTZaN2o1NG1FREpaaHpYX0hR,English,,5,2015-01-12,Anthony Crisci,Love it.,"I was bummed to see Astrid go, but this clone is just as good, if not better!",,
Tasks: Astrid To-Do List Clone,Google Play,org.tasks,Z3A6QU9xcFRPSElqMkk3SGl6Nl9FSTJMWGR2T0VzaXhUX3lQdkgyTjk4bkh5VnFhZmZ0aEx1MVlMRmFPVW40TEt4SDNyQUtVS3ZwYmJNWjNITFRwNGdfQzVz,English,,5,2015-01-12,Matt Mendez,PERFECTION,Dark theme = This app has reached critical perfection. I use it everyday. Love it so much,,
Tasks: Astrid To-Do List Clone,Google Play,org.tasks,Z3A6QU9xcFRPRkp3dDlQNFp4QzZfT2l0LU1HbTg4RzRfMnNxV0QtbDJuV1lYWnYyd0pWN0hpRkRsOGdwbWtyXzhZbGtrdTdSbFh4SHJ5N0JqUkdqam5zcVNj,English,,4,2015-01-12,Risika Nyx,Best planner so far,If you could add a calendar that is synced with Google this app could replace my daily planner.,,
Tasks: Astrid To-Do List Clone,Google Play,org.tasks,Z3A6QU9xcFRPRndkNkt6aGcwSlo3WnJ2THBYc1ZwVEt5M05rdXpqVmhwbGNCMVUwLTFZTTJMampyQWttdmZNX1BiZVhMNjhCcUJmeDBPVS1TdjFvd3YzZENR,English,,4,2015-01-12,Brad Stewart,Love it,"The only thing I'd like to see is the ability to move tasks between lists. Other than that, it does everything I need.",,
Tasks: Astrid To-Do List Clone,Google Play,org.tasks,Z3A6QU9xcFRPR3NtLTVjOU9GbU1PZmp1YXg4cFYxaGpMTkdSdktYbGphWVp2R2Nsd3RJai1KV2FuaEE0QzN2LWZoblk5WWZUcVpwcGlraVJfUjM0LVZFR2Qw,English,,5,2015-01-12,Geir Sagberg,Bringing the best from Astrid,The best to-do app I've found for android,,
Tasks: Astrid To-Do List Clone,Google Play,org.tasks,Z3A6QU9xcFRPRkZKc0hUSVRuaF9mZFZXMEdfclY5b2lfUHBhWFU0SERXSnlHbnR4a0VMM0FGVE4zT1dvVVdfVm1qWWoyOEhUczhwd3V6Sks3Z3JibFpZLU5J,English,,5,2015-01-12,Mike R,"Love Astrid, love this",Love that this is still going. One suggestion - android wear support.,,
Tasks: Astrid To-Do List Clone,Google Play,org.tasks,Z3A6QU9xcFRPRjZMMllWTS1wck5qX3MyRlVaMG5vVkhDNU1DdVZjdDZhQi1hdWJzck9qSmNDVGxWWTlzVDUxVGxkdWVtYXlTMDRNTmdjOVMtVS1IVWFnbFpB,English,,5,2015-01-11,Tuệ Trần,Fit for me,"This is an easy to handle to do app. I love its appearance, but there should be some developes for the widget. I want to sort item in my widget by catelogy and also show my completed task (with the crossline). There is some weird react anytime when I make my task repeat. Should fit it.",,
Tasks: Astrid To-Do List Clone,Google Play,org.tasks,Z3A6QU9xcFRPSDRhTGVOZ05Damp3a21nQXphbWVMbU1aYlZubUZDTWpZN041UGI0cEVVV3hQWUNRY2ZnNUxNeWFLTHhYcnNSTVRlSjlYN1BXbVZrTG0yZnpn,Korean,,5,2015-02-24,윤준경,아스트리드 최고 ㅋ,야후로 넘어가서 사용을 않했는데 부활을 했네요^^,,
Tasks: Astrid To-Do List Clone,Google Play,org.tasks,Z3A6QU9xcFRPR2VQN0JVS0FWSGNzVFlnand3UmhuRHc0RG9rUHFUQkVGYVhXZWE1TFZ4dVk1TW1sVVVYdnA2WTNzTVFYajVtWWxtUlM0WV9JQUhld2d5MThZ,Korean,,5,2015-01-11,김지원,please transparent skin & widget,this is  great app!,,
Tasks: Astrid To-Do List Clone,Google Play,org.tasks,Z3A6QU9xcFRPRkdWdldqQmhQS1c5UTFVN2VFN2w3cWJpMHBZenFkaE9BYkJJUWZMcU9WYUFYVVQ0ZHJXdFU0OEk3UFdqS3lPZDIycWJoUi1QZl9zYWU4UWkw,Korean,,5,2015-01-11,Jun young Kim,I like this app,"What a great todo app. Other todo apps have reminder, label function only in premium version... But this app has a lot of features by free.. Simple design is so good as well.. But I want this app‘s dashclock extension..",,
Tasks: Astrid To-Do List Clone,Google Play,org.tasks,Z3A6QU9xcFRPR2hteDJCZk9uZHJsdGR2R21MMDJmVHdybmtJY2RVRUQzU1BKRDhPSjBtZXdfTmFmTHYweEQ3NXpoeUFRRTdoZENqY0p1Mms1WUljdjNSNkJr,Italian,,5,2015-02-11,Livio Gore,Perfetto,Peccato non esista una versione desktop,,
Tasks: Astrid To-Do List Clone,Google Play,org.tasks,Z3A6QU9xcFRPRjY3dWRSc2VacDZEcmI0V1Jrb3gwODNkcVd4RUQxXzYtbU02SGxhZUhkQThWNHdGWE4zVTBTRDBGWm5XTGlQazJEcExWZVZtdFZ6S1dicWlz,Italian,,2,2015-01-27,Silvio Di Palma,Traduzione pessima,"Traduzione veramente pessima, si fa fatica a capire cosa si stia impostando visto che è anche un'operazione abbastanza macchinosa. Per citare Piccinini: Non va!",,
Tasks: Astrid To-Do List Clone,Google Play,org.tasks,Z3A6QU9xcFRPSFkzczFSYzItcmppeVBUc3I3Zzh3TENGT2t4SjIyZWY1ZGxaWEtZS3p3MW1WNDVVSkdjdUp1eVBZQ1A1MmtrYUJ2LUl4azA1Tm1yRlhVS05J,Chinese (Traditional),,4,2015-02-11,Meng Tsung Lee,"",I want my little octopus back.Q_Q,,
Tasks: Astrid To-Do List Clone,Google Play,org.tasks,Z3A6QU9xcFRPRkRWd3ZwTGRwTkRXRmI5eVNLZEluQk5fX0JHWlNCb28wZnR3aWR1VjRRRTZJcmxzOU01UDhHYjNteFJqQW5jck9saUFOYWNOYnVsV3k4b0dZ,German,,5,2015-02-23,Andreas Kuehnlein,"",Top,,
Tasks: Astrid To-Do List Clone,Google Play,org.tasks,Z3A6QU9xcFRPR3dzVGdFWVBYX3g4NU9HZGYtbWU2UGF5bGhKbFVyN3c2MTlMMXlCVDNDSFBNTVpxWm1IQnlnMHprNE9CMFc4OFlzaFhTX09JV1BkemstMU5B,German,,5,2015-02-19,Benny Weiss,Endlich,Astrid ist zurück und viel schöner und besser als je zuvor.,,
Tasks: Astrid To-Do List Clone,Google Play,org.tasks,Z3A6QU9xcFRPRU1kS0ZLLTJMLXdYSXIxeGZXOHdsSUE4cmFCTmMweHF4bzNEaGlNcWJWSWJsMFZaTzZPNjZLcmdkY08yN3llZHJESVBhVUpIelJwVm4tMjNZ,German,,4,2015-02-12,Jörg Serries,Top Aufgabenverwaltung,Funktion top - Design sehr schön..Die Synchronisierung mit Google tasks ist sehr zuverlässig. Das Design des Widgets sollte mehr Anpassungen bieten (Transparenz) und die Fälligkeit anzeigen,,
Tasks: Astrid To-Do List Clone,Google Play,org.tasks,Z3A6QU9xcFRPSDhZQzE0cVVIUnZyUjFtTzZVNGxOckxUVHN0OXF1bV9paTRJSG1iQ3BjaFFNaUdpeXlqUk1lOXFweUJPZU1hdGxHQ1JBUXFDX0FvLTNVX3NF,German,,4,2015-02-10,Andy Vo,"",Passwortschutz wäre noch toll.,,
Tasks: Astrid To-Do List Clone,Google Play,org.tasks,Z3A6QU9xcFRPSGJvclRHXzNaYUJrLWNrakV2bEtyMmRNNklrcllZUzBNUzl5NDZNQjRKaTlsUW1xdDh2bUVXUk1OVjE1VFNDd3hNZU12bXBwbV9RLVNKTnMw,German,,5,2015-01-12,Simon Gaugler,Schöne ASTRID-Fortsetzung,Funktioniert ebenso perfekt und sieht im MD Klasse aus :),,
Tasks: Astrid To-Do List Clone,Google Play,org.tasks,Z3A6QU9xcFRPRlZWY0NSa1BZWUc0Q3NrUnp5RU5yeWh4NjljNk9LVUpVVnJiSmp2OF9CV3ZwR1g4aXFZUm1jc29pVDkxLUdIdXdsM0Vndm9QdXptcVNNOUtV,German,,5,2015-01-11,Stephan Schütter,Absolut überzeugend,"Habe einige Apps dieser Art getestet und finde diese überragend. Bitte noch das Design auf Einstellungsebene anpassen, dann ist es perfekt.",,
Tasks: Astrid To-Do List Clone,Google Play,org.tasks,Z3A6QU9xcFRPRWZuakQ5aDY0WUItYVcwUE1HM25hM2NUbFlEUmE5Z3VFbzhLYUE0cWd0bHl5MFk1Y3RNZGc0TkVQeEk0bHFFWE02dEVFNWhRUnpVUTJmV2J3,Polish,,4,2015-01-20,Remigiusz K,Było lepiej,Po aktualizacji zniknęła funkcja zamiany mowy na tekst w opisie notatki!!!,,
Tasks: Astrid To-Do List Clone,Google Play,org.tasks,Z3A6QU9xcFRPRkYtM3NLMjA3dFh6azdmTU9oVmhIcjVpcmFBSkFTZ1RwdlRRSDJTUE1ZeWlvTmkzYkltemc4anpwbmhUR2lfNGxqV1p0SXFZNDA5SXd3dlpZ,Portuguese,,4,2015-02-08,Leonardo César,"Muito bom, só precisa de uma adaptação","Muito bom, só precisa de uma adaptação. O App e melhor que o original Astrid, só precisa de uma adaptação no ícone de notificação. Sugiro um ícone diferente deste ""V"" e de preferência colorido em vermelho parecido com o ícone do Astrid, assim ficaria mais nítido e visível.",,
Tasks: Astrid To-Do List Clone,Google Play,org.tasks,Z3A6QU9xcFRPSDFzckxqX1RaamV2QmFvUVpjUjdFejFnaExnaFNWdVlBMkM5X0Nmc2l4WmotM042aEh1VldXTGtSYlYtWVhOc1BEU2pHYS15bndOaDdNQ2Zj,Portuguese,,4,2015-01-31,Sara Machado Alves,"",Eficiente,,
Tasks: Astrid To-Do List Clone,Google Play,org.tasks,Z3A6QU9xcFRPSE96bmFFWmlucXJCTzdOTkpaQjJOcFRlZlpIYTlPQjZfRHd5b2lZYVpPUXNNN2Fib0FrTy1TU0IyMGZxODdNRGhSTHJPbDJGSnNrbHpPTU80,Russian,,5,2015-02-21,John Doe,Good,"Please add more options for filtering tasks. For example i need view fineshed tasks for week, month and three month",,
Tasks: Astrid To-Do List Clone,Google Play,org.tasks,Z3A6QU9xcFRPR2txR1kyUWF5cUZmamRjY3l1NnVhOXVNNVFOeDZWQUZPQVVMUXY5TXZPZEwzVEh6WnpVUEpjbk82NThPcmhBal9SNjVNeGM4cF8zRjVoYl9n,Russian,,5,2015-02-20,Георгий Малышев,"","Лучший планировщик!   Но обнаружил критичную для использования ошибку: при попытке выбрать список, в который я хочу добавить или переместить задачу, оказывается ,что выбирать не из чего, можно лишь написать имя нового списка. Как бы это исправить?",,
Tasks: Astrid To-Do List Clone,Google Play,org.tasks,Z3A6QU9xcFRPRkdRV09lcGxDMmdIOFQ3SFE5dHppRzZBMDdRZWZFVDIwdWVvcUUzMTBkbi1LR21CN05FZTdSMXJsM3NlNDdEUHhIRXlpb09iOWpFS0hKWHlV,Russian,,5,2015-02-19,Roman Ionov,Great!,Thanks for your job!,,
Tasks: Astrid To-Do List Clone,Google Play,org.tasks,Z3A6QU9xcFRPRTY0a2h5MzFwZjNIRS1qaTVfaWZIRjdRSTMzUFhhRVJCb3JiSmVMOEVpc1FCbHlmZzFGOGJDN1cwZUM4dlAtV2xzQnItWWFMaUVYeGRxSzRn,Russian,,5,2015-02-08,Павел Протасов,Tasker integration,"Hi!  Original Astrid had Tasker integration. Please, add it to you program.",,
Tasks: Astrid To-Do List Clone,Google Play,org.tasks,Z3A6QU9xcFRPRWdCbnRMaWhZVU80TExEWjRyN0ZCZzQxZUdtbXI3WDFrM0pRTzNaMUJ6SDZvdzR5dnZ2eWdhUG9faUFZUlV2OGhOdkc2NExLdnZEZ2ZRM0gw,Russian,,4,2015-01-26,Xibodoh Ls,previous versions were better,1.  Quick add panel disappeared. 2. Links (aka urls) in task description are not clickable anymore,,
Tasks: Astrid To-Do List Clone,Google Play,org.tasks,Z3A6QU9xcFRPSE9ZYXgwYXBGM0ZIOFV4VXFrd1FDUENlSnJGb2RtZHNNTzFBLVVKMHVERl9TQk1jQUlWLXRObmkwRXRINE1mempXNGF4dEFPbW5rWFVycjdn,Russian,,5,2015-01-13,Ardez,Astrid clone,Спасибо за исправление! Это лучше приложение списка задач!,,
Tasks: Astrid To-Do List Clone,Google Play,org.tasks,Z3A6QU9xcFRPR2ctSWlLZmp3UXpVQUVTY25HWlk5ODdPdlN6Qi1seU5PbEdaTnhfZ0RqTTI3dUw3QmlqYlVGem5qaXFyYnRkMDdNTmExYnBBZ0RvV3B6WXBz,Spanish,,4,2015-03-11,Jesús Lameda,No permite compartir listas por el momento,"Hace solo lo que cualquier App del tipo ""to do list"" puede hacer. A diferencia de Astrid esta aplicación no permite compartir listas, que es la razón por la cual la instalé. Espero que sigan mejorando. Congrats to the programers i hope can improve this even more",,
Tasks: Astrid To-Do List Clone,Google Play,org.tasks,Z3A6QU9xcFRPRm9UM3FOeTZMUkZYSGVqajV0bmRUVHFOd3dHaE5iVkVNZDlCbW1uVEdGaEsxOFVQZ2xnSHhQZTk2VHBDVlhCYXlfRWRxWEJpOFNIVXdBTzlr,Spanish,,5,2015-02-26,José Luis Galván Hernández,Excelente,"Siendo un clon de Astrid, no hay más que pedir!!!!",,
Tasks: Astrid To-Do List Clone,Google Play,org.tasks,Z3A6QU9xcFRPRUx3T2tDbFdjWF9hUUtfSU5rY2tPNzcxQXNJZ1I3NEJXdFRYaXNsNGtpMEd6OXVPVVdocm8wcXBuN1NKMUhyMnNkaF9vWU5KN3ZBcXlmZU44,Spanish,,4,2015-02-17,Dany Alaba,Exelente,"Muy buena, le falta el compartir tareas a otros medios y deslizarte entre listas pero si te organizas.",,
Tasks: Astrid To-Do List Clone,Google Play,org.tasks,Z3A6QU9xcFRPRUxkRFdZQ2NTMG16eE9ZU2QyNWxQSkdnQXBpQTdUZjNmdnlEeE5ZSzgtcHpuRzhCM1dSa1hRb0xzX2lleXZDMUdoOEdrSkJob09mNnZSQmx3,Spanish,,5,2015-02-17,Oscar Romero,"",Simplemente funcional al 100,,
Tasks: Astrid To-Do List Clone,Google Play,org.tasks,Z3A6QU9xcFRPRkNXaTRVekRsdm82eHZMOGZ4bVZMUENreDR3Qm00eDU2SXJWWk9QVmFqMWlENDl2RnNieGR1cEFWOWl6Q0VweEk2MFFGMjgxVmVEOUt0Y0pN,Spanish,,5,2015-02-13,GIO Z.,"",El mejor gestor de tareas de google task,,
Tasks: Astrid To-Do List Clone,Google Play,org.tasks,Z3A6QU9xcFRPR1ktRG9iak02MExVOXFuWk80bU5CMDgxZzl6emVMMG4yYTN4T19VVHhiWVB6N0FOYTZoeFNzcmJsa2ZQTXNlbVFyQTRISjFfSFpzckdPel8w,Spanish,,5,2015-01-18,Ricardo Guevara,Excelente,Muy buena App con muchas opciones y sincronizada con el calendario de Google y gratuita que más se puede pedir wow,,
Tasks: Astrid To-Do List Clone,Google Play,org.tasks,Z3A6QU9xcFRPSFV3U0cxNnhkaVFERnZtM2RrVzVjQUVnQ0tiai1VVkZPRW9QM3BGVVBlOUJZQ1ZrREl4RkJSNV9pVlFtc3NBeWFILWxYY1E4ejE4bElTaFhv,Spanish,,5,2015-01-11,David Fernandez,Igual que Astrid,Muy bueno para los que usábamos Astrid,,
