Topic Index 1,Topic Index 2,Topic Similarity
7,12,11.11111111111111
14,14,11.11111111111111
15,19,11.11111111111111
19,11,11.11111111111111
0,7,5.263157894736842
1,15,5.263157894736842
3,2,5.263157894736842
4,1,5.263157894736842
5,6,5.263157894736842
6,10,5.263157894736842
8,3,5.263157894736842
11,16,5.263157894736842
12,5,5.263157894736842
18,8,5.263157894736842
2,0,0.0
9,4,0.0
10,9,0.0
13,13,0.0
16,17,0.0
17,18,0.0
