# deletions,date,commit message
3,2013/11/10,Cleaned up manifest file
5,2013/11/10,Adjusted level end layout
31,2013/11/10,Adjusted level end layout
20,2013/11/10,Added pause button and linked it into the pause functionality
14,2013/11/10,Added a pause screen when the menu button is pressed. TODO: add a pause button to the game's interface
1,2013/11/10,Congratulations screen finishes as soon as it's hidden to prevent out of memory errors. Fewer OOM errors were seen on the emulator but they still happened occasionally. Can't reproduce on a physical device (Tested on XPeria Miro Nexus 7 Galaxy S3)
3,2013/11/10,Removed debugging code. Levels don't complete themselves any more
1,2013/11/10,Congratulations background fills any screen
11,2013/11/10,Congraltuations screen is complete. Currently levels are automatically won for testing purposes
14,2013/11/09,Exits the congratulations screen only after a delay. Back button also exits the screen.
39,2013/11/09,Congratulations screen layout and animation is complete
7,2013/11/09,Made balloons follow each other up faster
2,2013/11/09,Removed unnecessary fillAfter
22,2013/11/09,Finished balloon animations and screen layout of congratulations screen
28,2013/11/09,Congratulations screen has animated balloons and a title. Needs balloons hiding before they're animated title cenetered and more balloons.
2,2013/11/09,Added background image to congratulations screen
78,2013/11/09,Swapped contents of level_select_styles and start_screen_styles because they were in the wrong place. Added a background image to the congratulations screen but it still needs a style
6,2013/11/04,Initial commit of the Congratulations screen with floating balloon.
11471,2013/10/28,More javadoc
12,2013/10/28,More JavaDoc and removed unnecessary exceptions
75,2013/10/27,Started filling out JavaDoc and added resulting HTML files
55,2013/10/27,Pulled out a longer part of the addMeerkat method into another method
38,2013/10/27,Grouped classes into cohesive packages
12,2013/10/23,Renamed activity package and updated the manifest
168,2013/10/23,Organised packages and classes under the game package
6,2013/10/22,Standardised bundle key names
14,2013/10/22,Every activity in the game now controls the STREAM_MUSIC volume. This is because they extend the new VolumeControlActivity
3,2013/10/22,Size of Go button was too wide on Nexus 7. Now it has a fixed size.
9,2013/10/22,Separated style from layout and renamed the main activitys layout
8,2013/10/22,Removed style from a layout and reinstated level 6s proper time limit
335,2013/10/22,StartScreen and LevelSelectScreen now have all styles in a separate XML file
1,2013/10/21,Removed capital B
1,2013/10/21,Further documentation updates
1,2013/10/21,Fixed a documentation grammatical error
16,2013/10/21,Further refactoring of styles.
55,2013/10/21,Further refactoring of styles.
78,2013/10/21,Removed duplicate styles from styles.xml
1,2013/10/21,Moved all styles for the start and end level screens from styles.xml into level_info_styles.xml
25,2013/10/18,Finish the gameactivity whenever it is hidden (in onStop) to avoid out of memory errors
188,2013/10/16,Tidied Game Creation up (using GameBuilder and GameBuilderDirector). Still more to refactor there. Added a gentle gradient to level select buttons
215,2013/10/15,Removed game class as it was tightly tying other classes together
133,2013/10/15,Started to separate MeerkatFactory GameFactory and GameActivity. Still a lot to do
2,2013/10/13,Added hole picture underneath meerkat
4,2013/10/13,Removed references to Meerkat where its been abstracted away
16,2013/10/13,Cleaned up comments and removed unused code
70,2013/10/13,Smoothed the transition between level select and the game screen.
22,2013/10/13,Added animations thanks to Mokasocial.com and implemented them bewteen activities. Removed unused animations
44,2013/10/13,1. Game header is now relatvie to screen size. 2. Game no longer finishes immediately if the start screen is visible for longer than the level time. Game loop was being paused and unpaused twice. Reduced this to once and made sure it happens only after the timer has been unpaused. 3. Updated comments to stop referring to Meerkat. 4. Removed code from Timer that was used to draw it back when it was a VisibleTimer. 5. Renamed GameLoop.registerStop to registerStopCondition for clarity. 6. Meerkat only registers a hit if the game is unpaused. 7. Added some missing super calls in activity lifecycle methods.
1,2013/10/12,Increased Meerkat size
174,2013/10/12,Harmonized colours new decorated header
10,2013/10/12,Added a sound effect when a meerkat is hit
262,2013/10/10,Added new level start and end screens refactored package names and some class locations
231,2013/10/09,Now using the bouncy start level screen to start a level. Need to do the same for the end level screen. Have introduced a bug where the retry button no longer works
12,2013/10/06,Added the new background for the level select screen
10,2013/10/06,Added the new start screen and removed the code that started the game at level 5 each time for debugging
192,2013/10/06,Game can be paused using the menu button
62,2013/10/06,Finished the bounce start level screen. Next stage is to replace the non-bounce start screen with this one
26,2013/10/05,Started to fill the bouncing level info screen
124,2013/10/05,Finalised layout for the start level bounce screen. Now it needs filling with content
13,2013/10/05,Used an interpolator to bounce the view in
24,2013/9/22,Added test code for a transparent animated activity. This will in time be the start level activity  hovering over a paused game board.
122,2013/9/22,Removed animation testing code
9,2013/9/16,Created a custom alertdialog to show the level start info. For debugging this the app now starts on the level start screen. This isnt permanent.
1,2013/9/15,Fixed a bug where completing an already completed level would set the user's progress back to that point
59,2013/9/11,More refactoring renaming of classes tweaking of level 6s difficuly and setting the back button behavior
16,2013/9/11,Added a level select screen. Needs some cleaning up and need to update the start and end level screens
2,2013/9/09,Removed theme because it had unexpected side effects on the level start screen. Set the app name correctly for all activities
43,2013/9/09,Replaced standard font titles on the start screen with a high quality custom font based image
5,2013/9/09,Added a start screen
7,2013/9/08,Removed debugging code
9,2013/9/08,Fixed a bug where hitting a meerkat before it fully pops up causes it to be half drawn in future
139,2013/9/08,Refactored package names and show meerkats at a random interval after the game starts
8,2013/9/08,Fixed a bug where the meerkats were more frequently placed at the bottom right end of the board.
5,2013/9/08,Fixed a nullpointerexception when a not yet placed meerkat could receive an input event. The meerkat now checks whether its visible before responding to user input
166,2013/9/08,Further refactoring of Actor removing dependency on gameBoard
63,2013/9/08,Untied the on show and on hide parts of the sprite
8,2013/9/08,Renamed meerkat to sprite
73,2013/9/08,Added RandomPlacer and abstracted it behind an interface
20,2013/9/08,Introduced the Showable interface and implemented it in Actor
24,2013/9/08,Removed unused interface
55,2013/9/08,Started refactoring of Meerkat and Mover. Factored out detecting a touch hit into a reusable composable class (TouchHitDetector) and a number of interfaces to allow easy future extension
6,2013/9/08,Fixed the animator and animated interfaces to remove duplication
107,2013/9/08,Many smaller fixes should have been separate commits. Some refactoring of meerkat and popupbehavior fixed a synchronization bug with meerkat animation
1,2013/9/07,Added contact details
41,2013/9/07,removed more android framework metadata
142,2013/9/07,removed more android stuff
0,2013/9/07,removed class files
1,2013/9/07,Updated enabling button delay to 700 ms. Now uses a constant
9,2013/9/07,Removed debugging levels now start at 1
