i wish we could change the color of the constellation and etc,f,2016-04-02,Micah Sexton,4
much fun to see the constellation through your phone,b,2016-04-02,MeLinda Jeffress,5
suck,o,2016-04-02,Jayo Valentine,1
trouble is orion ha a few hour it set here,o,2016-04-02,Matt Hall,3
the sensitivity seems to be exceptionally high,o,2016-04-02,Darren Steyn,3
changed all the setting and nothing help,o,2016-04-02,Darren Steyn,3
this is amazing my teacher coach smith gave u the idea of getting this,o,2016-04-02,Lizbeth Olivas,5
great,o,2016-04-02,Emilio Marquez,5
i have get lot of study,o,2016-04-02,bathish pk,5
it a very useful for sky,o,2016-04-02,Rushikesh Dave,5
love this map,o,2016-04-01,Alicia Gorsen,5
map,f,2016-04-01,Patti Magoon,5
it good,o,2016-04-01,Denis Weszer,4
love it,o,2016-04-01,Judy M,5
night sky with sky,b,2016-04-01,Mahesh Pujala,5
,o,2016-04-01,A Google User,5
wow,o,2016-04-01,Byron Kenard,4
i had this my cousin showed it to me on his phone about a year or two ago i got it and now i have it back on my phone my new note 5,b,2016-04-01,Chububba Lee,5
a really good for the like of me starting to discover the sky above u,f,2016-04-01,Richard De Boer,5
this is but it would be even better we could see satellite such a the to try to find them outside,b,2016-03-31,Aidan Bennett,4
is date i know yet,b,2016-03-31,Ruben Velasco,4
update everything is fine again,b,2016-03-31,Dimitris Karagiannis,5
quality being free is a bonus,o,2016-03-31,stevie D,5
everything is more or le aligned spot on,o,2016-03-31,stevie D,5
i had trouble on first use with the sun in the wrong in the sky at but set my location manually and everything wa fine,b,2016-03-31,Mart Cook,5
pinpointed mar tonight with no problem,o,2016-03-31,Mart Cook,5
thanks for a fascinating,o,2016-03-31,Mart Cook,5
help me a lot for stargazing,o,2016-03-31,Madhura Korantak,5
but in some the star or messier object come upon each other and hence the clarity drop down,o,2016-03-31,Madhura Korantak,5
great,o,2016-03-30,Mark Walther,5
love it,o,2016-03-30,Mark Walther,5
team responded to the review i just accidentally deleted,f,2016-03-30,Mark Walther,5
marshmallow requires you to authorize location permission,b,2016-03-30,Mark Walther,5
did and the work fantastic,o,2016-03-30,Mark Walther,5
i would be happy to beta test and contribute to this awesome project,o,2016-03-30,Mark Walther,5
took a little to figure out the auto navigation v and now i love it,o,2016-03-30,Bryan Holder,5
not smooth at all,b,2016-03-30,Randy Glaus,2
why no on the map search,b,2016-03-30,Edrus Avie,3
showing sun on ground in morning and moon in sky and in night vice versa already calibrated the writing this using mi phone and it had and facing same problem in g,b,2016-03-29,vijay sahu,1
thanks to prompt all my concern were dealt with quickly,o,2016-03-29,E M Moran,5
it doe not it say my phone doe not support it but it did,b,2016-03-29,Komanti Jose Talamantes,3
work now with thanks,o,2016-03-29,Komanti Jose Talamantes,3
thought you would debug this stuff,o,2016-03-29,GREG MOTOROLA,3
no problem with compass,f,2016-03-29,GREG MOTOROLA,3
but it shake,o,2016-03-29,GREG MOTOROLA,3
it i use my shake not freeze and i know why you give a new layout for it,b,2016-03-29,GREG MOTOROLA,3
my phone the problem is in the code,b,2016-03-29,GREG MOTOROLA,3
i the first release of this were quite fantastic,f,2016-03-29,GREG MOTOROLA,3
d thanks,o,2016-03-29,GREG MOTOROLA,3
very good application,o,2016-03-29,nitin patel,5
awesome,o,2016-03-29,ashish sinha,5
but some constellation are messed up like major and,b,2016-03-29,Kanu Lipiec,4
the star in constellation are connected in the wrong way,o,2016-03-29,Kanu Lipiec,4
i hope you can fix it cause this mean everything to me,b,2016-03-29,Kanu Lipiec,4
thank you,o,2016-03-29,Kanu Lipiec,4
it took a little time to adjust and get an accurate other then it worked well,o,2016-03-29,Leinani Cambra,4
i love it very much,o,2016-03-29,Madhur Gabhane,5
showing accurate position,o,2016-03-29,Madhur Gabhane,5
must have for star gazers for exploring the night time celestial showcase,o,2016-03-29,Madhur Gabhane,5
not accurate also even calibration of compass,f,2016-03-29,Steve MaynardSmith,1
removing the,o,2016-03-29,Steve MaynardSmith,1
since i have a new galaxy and is a bunch of greedy sack of my tablet lack a i cannot use it,b,2016-03-28,Human Humanson,5
however i used it recently having not done for a few week,b,2016-03-28,Ian Warrington,2
what have you done,o,2016-03-28,Ian Warrington,2
new sky map graphic i open it,f,2016-03-28,Ian Warrington,2
then all i get is the number of star,o,2016-03-28,Ian Warrington,2
no line joining up constellation or planet named,b,2016-03-28,Ian Warrington,2
absolutely fantastic,o,2016-03-28,Veerabhadraiah A S,5
all you need to do it to set the longitude and latitude properly according to your location,b,2016-03-28,Veerabhadraiah A S,5
conquers all aspect amazingly,f,2016-03-27,,3
maybe it need to improve it view plane and give it more stability,f,2016-03-27,,3
always loved it but now with time traveling feature and traveling through the time travel neat,o,2016-03-27,Bobbie Caballero,4
totally inaccurate on note 5,b,2016-03-27,Brandon Saunders,1
i can learn the name of the star,o,2016-03-27,dila muliasari,5
really help,o,2016-03-27,dila muliasari,5
love it,o,2016-03-27,troy ostermann,5
awesome,o,2016-03-27,Rebecca Roberts,5
accurate and awesome,o,2016-03-26,TORBOT 626,5
great for navigation,o,2016-03-26,TORBOT 626,5
i wa in the car and i saw star and i downloaded this i give it 5 star,o,2016-03-26,Benjamin Stevens,5
no horizontal movement,f,2016-03-26,Mark Poulsen,1
nice,o,2016-03-26,Manoj Kumar,5
it work perfectly on my tablet,b,2016-03-26,Adelson Santos,5
i love this,o,2016-03-25,Elaine Duenas,5
love using it traveling at night,o,2016-03-25,Elaine Duenas,5
love the latest update,o,2016-03-25,Elaine Duenas,5
very fun,o,2016-03-25,Elaine Duenas,5
the automatic mode ha become to shaky to be of any use,b,2016-03-25,Ricky Gallagher,2
useful,o,2016-03-25,Sanjeev Baihandoo,5
great,o,2016-03-25,A Google User,5
very educational,o,2016-03-25,A Google User,5
the whole universe is in my pocket,o,2016-03-25,chethan bc sharma,5
wonderful,o,2016-03-25,William Simms Jr.,5
wildly inaccurate,b,2016-03-25,A Google User,1
kidnapped by,o,2016-03-25,muhammad N Abdullah,5
really an excellent,o,2016-03-25,pravesh shrestha,5
see sky,o,2016-03-24,Angela Astuto,4
downloaded the last night for sky gazing with my 10 year old daughter,o,2016-03-24,Sadiq Pasha,5
is lovely and we had good time spotting orion belt and the two bright star near orion belt,o,2016-03-24,Sadiq Pasha,5
we are going to use it more often,o,2016-03-24,Sadiq Pasha,5
spotting mar and just dawn is in our thing to do with the,o,2016-03-24,Sadiq Pasha,5
thanks for the,o,2016-03-24,Sadiq Pasha,5
i highly recommend everyone to try this out,o,2016-03-24,Sarbasree Dasgupta,5
the coolest thing in the business,b,2016-03-23,Ashley Beach,5
very good,o,2016-03-23,navindran navin,5
confusing,b,2016-03-23,Lerize Viljoen,1
worked great on my,o,2016-03-23,Mike Mahnken,5
hope they fix it,b,2016-03-23,Mike Mahnken,5
update location on sky map is disabled on the by default,b,2016-03-23,Mike Mahnken,5
i had to go into application sky permission and turn location on,o,2016-03-23,Mike Mahnken,5
work fine now,o,2016-03-23,Mike Mahnken,5
night vision camera much like the light of guide in dark too will your homemade night vision camera be your guiding beacon,b,2016-03-23,Jose Alberto Mendoza,5
whether out in the wood camping with capturing that elusive glimpse of a or on a top secret spy this special camera capture even the most difficult shot in light photographic brilliance,b,2016-03-23,Jose Alberto Mendoza,5
step 1 go get stuff you will need digital camera in,o,2016-03-23,Jose Alberto Mendoza,5
awesome,o,2016-03-23,Kimberly Lundy,5
need updating,b,2016-03-22,Matt Watson-Power,2
fuzzy graphic,o,2016-03-22,Matt Watson-Power,2
on a brand new,o,2016-03-22,Matt Watson-Power,2
i had to change some setting and then it work fine,b,2016-03-22,A Google User,4
it should just work immediately though,b,2016-03-22,A Google User,4
how ever,o,2016-03-22,harold gillespie,5
i would like to add a feature to the single layered filter,f,2016-03-22,harold gillespie,5
for example just the planet are visible let u tap a planet for more info in a mini window,f,2016-03-22,harold gillespie,5
or the star or constellation,o,2016-03-22,harold gillespie,5
great idea with the tap to navigate of layer,b,2016-03-22,harold gillespie,5
the search tool is really easy,o,2016-03-22,harold gillespie,5
amazing,o,2016-03-22,Prasad Deshpande,4
if you want to know astronomy or to point your this is the for you,o,2016-03-22,Harry Evett,5
the best way to check it is accurate is to point it at the moon and see if it show up on screen,b,2016-03-22,Harry Evett,5
this is one of the few astronomy work,o,2016-03-22,Harry Evett,5
thank you,o,2016-03-22,Harry Evett,5
for my amateur astronomy hobby,o,2016-03-22,A Google User,5
it work very well,o,2016-03-22,A Google User,5
i wa having some trouble with permission in android 60 causing location but the developer wa very responsive in helping me resolve the problem quickly,b,2016-03-22,A Google User,5
low accurate,o,2016-03-22,Norman Stansfield,2
no close to the real thing,b,2016-03-22,iman Beh,1
any chance to calibrate sensor,o,2016-03-21,ufo mesh,2
there is still a great mismatch between the map and sky,f,2016-03-21,ufo mesh,2
it seems other navigation work fine for me,o,2016-03-21,ufo mesh,2
i know the i used it on other it worked good,o,2016-03-21,ufo mesh,2
great,o,2016-03-21,Blake Harrison,5
very educational and easy to use,o,2016-03-21,Blake Harrison,5
except for the in image,b,2016-03-21,Rafa Hell,4
nominee,o,2016-03-21,Trap Latino,5
sky is the best,o,2016-03-21,Cindy Nez,5
e,b,2016-03-21,Felipe Ramírez,5
para,o,2016-03-21,Felipe Ramírez,5
cause compass on nexus 7 android m to flip east to west,o,2016-03-21,Hal DeVore,1
took tablet out of calibrated wa,b,2016-03-21,Hal DeVore,1
opened sky manual set flip,f,2016-03-21,Hal DeVore,1
exit calibrate open close and open flip,b,2016-03-21,Hal DeVore,1
,o,2016-03-21,Hal DeVore,1
just wanted to say thank you for making such a legit,o,2016-03-21,Nathan Tanner-Ellis,5
awesome,o,2016-03-21,Eric Hackley,5
unfortunate,b,2016-03-20,Jon Ellard,3
the compass is well calibrated and work good with other it show and all star in other direction the correct one,o,2016-03-20,Andres Baena,2
the,o,2016-03-20,Johnny Day,5
not accurate,f,2016-03-20,Brad Lee,1
i downloaded the i went to new,o,2016-03-20,Douglas Terry,1
it may know what it is doing in but in new i grew exasperated,o,2016-03-20,Douglas Terry,1
will any of these realize part of the world is upside right,o,2016-03-20,Douglas Terry,1
this is really now when i go out side at i know mar and most of the star it so much ever since i got this cause my bro and i always when he say that is and i say no that is mar,o,2016-03-20,Seanka Gounden,5
thank you u helped me win fight against my i love this u guy are awe,o,2016-03-20,Seanka Gounden,5
useful for time travel to see the way thing worked in the past,o,2016-03-20,Arthur McKendry,5
one of the most entertaining ever,o,2016-03-20,,5
not at all helpful,o,2016-03-20,Alistair Mac Pherson,1
bounce around and reflects sky upside down at time,o,2016-03-20,Alistair Mac Pherson,1
very educational,o,2016-03-20,Dhrupad Sah,5
it is cool,o,2016-03-20,Alan Dash,5
,o,2016-03-20,Dmitri Nesterov,5
work well on the really like the night mode feature prevents you losing night vision,f,2016-03-20,Steven Sandner,5
this wa one of the first i downloaded on my first smart phone,b,2016-03-19,Emily Smith,5
i wa awestruck how easy it could be to look at the star and know their name or which are planet without pulling out ye star chart,o,2016-03-19,Emily Smith,5
the bright object settling in the east last night wa too bright to and i downloaded this again,b,2016-03-19,Emily Smith,5
did you know wa bright,o,2016-03-19,Emily Smith,5
i love this,o,2016-03-19,Emily Smith,5
thank you for making it,o,2016-03-19,Emily Smith,5
there is no other alternative for this,b,2016-03-19,Pilotm Thesniper,5
being a science this is very useful to explain the sky and the solar system,o,2016-03-19,Johnson Varghese,5
thanks very much to all who worked for this great,o,2016-03-19,Johnson Varghese,5
the search system is really useful to find any particular body in the sky and show it to an eager student,o,2016-03-19,Johnson Varghese,5
my student are it in their device very thankful to you all,b,2016-03-19,Johnson Varghese,5
this is awesome,o,2016-03-19,patrick fitzsimmons,5
i can each and every thing with the help of this,o,2016-03-19,Sharwan Choudhary,5
amazing,o,2016-03-18,Prachi Choudhari,5
thing ever used in my whole android n i m using android for past six year this is an amazing n u should install it u love astronomy,o,2016-03-18,aniket shukla,5
,o,2016-03-18,Stef Hellen,5
back i had the first and this belonged to it used to work beautifully,b,2016-03-17,Jason Johnston,3
no other needed calibration or setting to tamper with,b,2016-03-17,Jason Johnston,3
one of the best i have very helpful can not fault it at all,o,2016-03-17,Gary Quigley,5
i love it,o,2016-03-17,Dennis Chew,5
for example fined star,o,2016-03-17,adel othman,5
there is no information about how far the star and other information just only name hope next update,b,2016-03-17,adel othman,5
if you guy can add iridium flare would be great,f,2016-03-17,Nilesh Jaybhaye,5
this is a wonderful,o,2016-03-17,Steven Hailstone,5
the accelerometer in my nexus 7 appears to have gone and this no longer work,o,2016-03-17,Steven Hailstone,5
very good,o,2016-03-17,Sourav Sahoo,5
ever the latest it no longer work on my phone,b,2016-03-17,LJG0621,1
very upset,o,2016-03-17,LJG0621,1
great,o,2016-03-17,Omar Herrera,5
great for a bomb fire,o,2016-03-17,Omar Herrera,5
love it,o,2016-03-17,Omar Herrera,5
cool,o,2016-03-16,Tech 20,5
one of my,o,2016-03-16,milos milenkovic,5
nice,o,2016-03-16,Scott Reeves,5
but like the accuracy is not the best,b,2016-03-16,Albert Guevara,4
love it,o,2016-03-16,Jamie Guinn,5
it is a beginner paradise,o,2016-03-15,Sameer Nikalje,5
very informative,o,2016-03-15,Steve Davidson,5
replaced with an work,b,2016-03-15,Steve Butler,1
this is way off and useless,o,2016-03-15,Brian Ellis,1
excellent,o,2016-03-15,Fahimi Mustafar,5
fantastic,o,2016-03-15,Akshay Shirsath,5
for study,b,2016-03-15,Rinko Kikuchi,5
good,o,2016-03-15,PENGETUA SMK BANDAR BANTING,4
the ultimate stargazing,o,2016-03-14,Gad Meyer,5
easy to very rich,o,2016-03-14,Gad Meyer,5
definitely recommended,o,2016-03-14,Gad Meyer,5
deleting,b,2016-03-14,Naf Nikufesin,1
love e to use a well,o,2016-03-14,Nigel Belmont,5
very educational and informative,o,2016-03-13,Emilie Chaves,5
is certainly not on the horizon this show,o,2016-03-13,Harry Blake,1
weird,b,2016-03-13,Harry Blake,1
best ever,o,2016-03-13,Serg Dialerov,5
this is actually a good,o,2016-03-13,Rebel Weaver,4
it help me find planet etc with my telescope,o,2016-03-13,Rebel Weaver,4
which is main reason i downloaded this,o,2016-03-13,Rebel Weaver,4
it doe the job i wanted more,o,2016-03-13,Rebel Weaver,4
it can be a little but seems to stop,b,2016-03-13,Rebel Weaver,4
i found right no problem,b,2016-03-13,Rebel Weaver,4
please add the planet moon etc,f,2016-03-13,Rebel Weaver,4
thanks for a good,o,2016-03-13,Rebel Weaver,4
,o,2016-03-13,Amir Haziq Zainal Abidin,5
nice for beginner,o,2016-03-12,gerard Thijsen,5
as hole,o,2016-03-12,prasanna gowda,1
this give a view of the night sky you point it,b,2016-03-12,Becky T,4
a bit too but fun to use for amateur astronomer,o,2016-03-12,Becky T,4
work great,o,2016-03-11,Floris van der Zwaard,4
highly recommended for everyone,o,2016-03-11,Doodle Jordie,5
it just bobble around a lot,o,2016-03-11,Joe Becraft,3
i have a galaxy mini,o,2016-03-11,Joe Becraft,3
fix,b,2016-03-11,Joe Becraft,3
vary nice,o,2016-03-11,Sumon Mahmud,5
i can say,o,2016-03-11,Juan Carlos Asturia,5
it work,o,2016-03-11,Juan Carlos Asturia,5
and a basic tool for searching star,o,2016-03-11,Juan Carlos Asturia,5
my setting allow for updating over the cell data connection,b,2016-03-11,A Google User,3
have used it for a long time on my phone and ha always performed well,b,2016-03-11,Matt Soukup,4
seems to be jumpier with the latest update i remember,b,2016-03-11,Matt Soukup,4
recently installed it on my galaxy tab,b,2016-03-11,Matt Soukup,4
work long a i keep the magnet in the case away from the back of the tablet,b,2016-03-11,Matt Soukup,4
have the same problem with all compass,f,2016-03-11,Matt Soukup,4
it is also rather jumpy on the tablet,b,2016-03-11,Matt Soukup,4
love this but it could use device specific customizations it is rarely very accurate on the galaxy and now on my i have similar accuracy issue,o,2016-03-11,Jeremy McGrath,4
calibration help slightly but without much gain in accuracy,o,2016-03-11,Jeremy McGrath,4
thanks to the developer for this great and the response to concern and issue,b,2016-03-11,Jeremy McGrath,4
thanks for your hard work,o,2016-03-11,Jeremy McGrath,4
for updating the had to stop using it,b,2016-03-11,A Google User,5
for not giving up on it,b,2016-03-11,A Google User,5
neat,o,2016-03-11,Etaenryu117,5
very impressive,o,2016-03-11,Peter White,5
what more doe a science crazy geek like me need,o,2016-03-11,Akhil Vijendra,5
very useful,o,2016-03-11,Gjon Delhysa,5
even taking advice and resetting compass,b,2016-03-11,Ian Baxendale,2
the work on map and my status but not this,f,2016-03-11,Ian Baxendale,2
highly cool,o,2016-03-11,Arnav Katgeri,5
please add the ability to view satellite too,f,2016-03-10,Supral Raj Joshi,4
thanks,o,2016-03-10,Supral Raj Joshi,4
installed on,b,2016-03-10,steven chatfield,1
remained locked on view north,b,2016-03-10,steven chatfield,1
,o,2016-03-10,steven chatfield,1
none of these star map work,o,2016-03-10,Franco Fernandez,1
same planet in every direction,o,2016-03-10,Franco Fernandez,1
suck,o,2016-03-10,Franco Fernandez,1
it no longer change direction,b,2016-03-10,Shauna H,3
i have to do it manually,b,2016-03-10,Shauna H,3
excellent,o,2016-03-10,Manju Arya,5
eye candy and an education in one,o,2016-03-10,Sandra Elizabeth Belfon,5
thank you,o,2016-03-10,Sandra Elizabeth Belfon,5
a new update 5 year,b,2016-03-10,Shiv Kokroo,5
amazing,o,2016-03-10,Shiv Kokroo,5
upgraded rating developer is super quick to respond and fix the issue,b,2016-03-10,Tanveer Bindra,5
appreciate your assistance,f,2016-03-10,Tanveer Bindra,5
am having some weird issue with the sky map,b,2016-03-10,Tanveer Bindra,5
i switch on sky it point 180 degree in the wrong direction,b,2016-03-10,Tanveer Bindra,5
also i rotate the instead of the sky moving in the opposite it move in the direction of the phone rotation,b,2016-03-10,Tanveer Bindra,5
i have calibrated the compass and have also switched off magnetic correction but it ha not helped,f,2016-03-10,Tanveer Bindra,5
gave this another look to see how it ha progressed,o,2016-03-10,A Google User,4
significant improvement from older version,f,2016-03-10,A Google User,4
still a little shaky on but much more usable now,o,2016-03-10,A Google User,4
cool for date,o,2016-03-10,Rahul Pratap,4
simply brilliant,o,2016-03-10,A Google User,5
can you developer use material design on sky,b,2016-03-10,Olverge,5
easy to use,o,2016-03-10,Jonathan Bigler,5
point and scan,f,2016-03-10,Jonathan Bigler,5
,o,2016-03-10,NIVED KRISHNA,5
finally i can identify thing thanks developer,o,2016-03-10,Surjith Shankar,5
often have to change it from automatic to manual,b,2016-03-10,Matt Smith,5
it would be nice it had and,o,2016-03-10,Matt Smith,5
edit thanks for the info d,o,2016-03-10,Matt Smith,5
unacceptable,b,2016-03-10,Anna Alfeldi,2
the sky map previous to this update jumped around wildly at any movement of the phone and consistently failed to even point to etc,b,2016-03-10,Anna Alfeldi,2
with any kind of accuracy,b,2016-03-10,Anna Alfeldi,2
such a shame,b,2016-03-10,Anna Alfeldi,2
excellent and accurate sky view,o,2016-03-09,Prakash Varkhedkar,5
easy to recommended,o,2016-03-09,Richard Robles,5
work well,o,2016-03-09,Hamish Norton,5
,o,2016-03-09,A Google User,4
not working on my phone,b,2016-03-09,Chandru G,4
love this like forever,o,2016-03-09,Sanatan Upmanyu,5
my favorite ever,o,2016-03-09,Luisy GoProGirlMiami,5
eye in the sky anytime,o,2016-03-09,Luisy GoProGirlMiami,5
simply awesome,o,2016-03-09,Mike H,5
easy to very cool and fun,o,2016-03-09,R Silva,5
a event,o,2016-03-09,Peter Donnelly,5
there are now many other stargazing out but none give better value for money,b,2016-03-09,Peter Donnelly,5
wonderful information and guidance,o,2016-03-09,Michael Heydon,5
this need to be redesigned,o,2016-03-09,7ODA,4
enjoy using,o,2016-03-09,A Google User,5
need and other calibration better night mode,b,2016-03-09,A Google User,5
the sky map,f,2016-03-09,A Google User,5
this is amazing,o,2016-03-09,espion 55,5
thank you for listening to all of u,o,2016-03-09,Matt Kezele,4
major improvement are included with the update,b,2016-03-09,Matt Kezele,4
well done,o,2016-03-09,Matt Kezele,4
a perfect astronomical experience,o,2016-03-09,Jeet Ambole,4
i used to love this but it is too jittery on the nexus to use,o,2016-03-09,Randall Hodgson,2
glad to see this finally getting some love,o,2016-03-09,Matthew Merrick,4
love it,o,2016-03-09,A Google User,5
how will it be we are able to locate in this,f,2016-03-09,Thirulok Chandar,5
cool,o,2016-03-09,Nafis Shams,5
doe what it say on the tin,o,2016-03-09,Mark Peazold,5
great shot of,b,2016-03-09,Mark Peazold,5
quite useful,o,2016-03-09,NewMelchizedec sundararaj,5
easy to learn for amateur,o,2016-03-09,NewMelchizedec sundararaj,5
my go to sky map the inception of the,f,2016-03-09,Mauni Mehrizi,5
is good,o,2016-03-09,Ranganath Narayana Rao,4
very useful,o,2016-03-09,A Google User,5
awesome,o,2016-03-09,bhekti primasari,4
i am almost unable to use this at all,b,2016-03-09,Ryan Moody,2
it twitch around no matter how i set the sensitivity,o,2016-03-09,Ryan Moody,2
north point to south,f,2016-03-09,Skroeder Skroder,2
thanks for picking up the again and providing update,b,2016-03-09,Peter Hauler,4
all we need is a overhaul sometime in the future and we got an amazing,o,2016-03-09,Peter Hauler,4
keep it up guy,o,2016-03-09,Peter Hauler,4
help to search any planet,o,2016-03-09,anuj bunde,4
love,o,2016-03-09,Keira Welsh,5
hope you will look into this,o,2016-03-09,ashish puranik,3
the compass on my lg work inside or but with this the alignment with the sun is around 45 out,b,2016-03-09,Steve C,3
very odd,o,2016-03-09,Steve C,3
thank you team and thanks for reply,o,2016-03-09,Jyubil Chaudhari,5
awesome,o,2016-03-09,Jyubil Chaudhari,5
best on tap,b,2016-03-08,/\ /\D4J4R,5
very lightweight and responsive,b,2016-03-08,Daniel Tomek,5
useful and ad free,o,2016-03-08,BA Goh,5
amazing time today,o,2016-03-08,Hape Keren,5
may be you can add to popular date in time travel,f,2016-03-08,Hape Keren,5
using a e android 51,b,2016-03-08,,4
map is unsteady enough to make your eye cross,f,2016-03-08,,4
sad,o,2016-03-08,,4
it used to be a really good little,o,2016-03-08,,4
update and with the developer explanation i find my perception correct it is just my phone,b,2016-03-08,,4
not good a it use to everything about it is way off,o,2016-03-08,Raushana Dupree,1
galaxy note 4,b,2016-03-08,Andy Elliott,3
unfortunately the is really jittery now and far too sensitive,b,2016-03-08,Andy Elliott,3
even the smallest movement translates to the object jumping about on screen and random flickering between position,b,2016-03-08,Andy Elliott,3
this is despite any variation of sensor speed or dampening,b,2016-03-08,Andy Elliott,3
still a great that doe it job really well,o,2016-03-08,Andy Elliott,3
great to see sky map is still being developed,f,2016-03-08,Inderjeet Wilkhu,5
very nice for star and sky lover,o,2016-03-08,Vikas Jadhav,5
how about a material designed icon now this is being updated again,b,2016-03-08,Jeremy Blackwell,5
had it for year but the dampening is awful,b,2016-03-08,Richard Hanney,3
work very well,o,2016-03-08,Monk Livelong,5
no matter what i do or what direction this always show east,b,2016-03-08,Steve Homer,1
it a shame it look like a great,b,2016-03-08,Steve Homer,1
i move in a circle and my object stay in center of the screen,b,2016-03-08,Paula Gades,1
jump around like crazy well,o,2016-03-08,Paula Gades,1
how pointless,b,2016-03-08,Paula Gades,1
