this really help me to teach my daughter,o,2016-03-07,J Brcich,5
it also help me to identify the planet,o,2016-03-07,J Brcich,5
work well enough for location,b,2016-03-07,Stephen Brewer,3
my guide to stargazing,o,2016-03-07,Yvette Alvin,5
seems to work just fine,o,2016-03-07,Anton Burger,5
how about linking different etc with page,b,2016-03-07,Anton Burger,5
you notice an interesting star on other heavenly body you can click on it and it directs you to the page,o,2016-03-07,Anton Burger,5
and you really want to step it how about tracking in the sky,o,2016-03-07,Anton Burger,5
would be amazing,o,2016-03-07,Anton Burger,5
but thanks for an amazing great job,o,2016-03-07,Anton Burger,5
fine interesting,o,2016-03-07,பாலசந்தர் கிருபாகரன்,5
it work very accurate and simple to i can known what planet and star seeing on the night sky,o,2016-03-07,Raj Mohan,5
amazing,o,2016-03-07,parbat zapada,5
first time setting up a telescope and managed to find a nice shot of,o,2016-03-07,matthew cooper,5
on is e problem with image is still so this mode is unusable,b,2016-03-07,Tomas Kozak,2
middle of the night and it ha the sun in the sky,b,2016-03-07,,1
great work great on my lite,f,2016-03-07,Basit Nizam,5
lovely,o,2016-03-06,rafly supyani,5
this is just cool,o,2016-03-06,Horace Allen,5
love watching this sitting on terrace enjoying the sky,o,2016-03-06,Dinesh D,5
great,o,2016-03-06,Barrie Squires,5
alien,o,2016-03-06,rijal jalu ismoyo,5
it get fixed let me know,b,2016-03-05,Chris,2
nice,o,2016-03-05,priyansh mahalka,5
wow,o,2016-03-05,Archana Singaravel,5
this is a very shaky with a limited field of no built in and a difficult interface,b,2016-03-05,Glen Garner,2
the window phone pro is shockingly better,b,2016-03-05,Glen Garner,2
i honestly just hope the company made the window phone version make an android it wa the best 2 i ever spent,b,2016-03-05,Glen Garner,2
i like the but wish the music would play,f,2016-03-04,Mino Wana,2
used to work great on my previous,b,2016-03-04,Grant Parsons,1
galaxy,o,2016-03-04,Grant Parsons,1
it would be greater and unique if includes time control in which an object is fixed in the sky others move relative to them on large time scale,b,2016-03-04,Ali MJ An-Nasrawy,4
doe this even know what part earth i am on,o,2016-03-04,Phillip zane,1
,o,2016-03-04,Aditya Ramadani,5
of i had found orion,b,2016-03-04,trixie han,5
sky map,f,2016-03-03,Julz Gentillon,5
excellent program,o,2016-03-03,A Google User,5
it would be great you had the ability to tap the screen and get coordinate like right ascension and declination,b,2016-03-03,A Google User,5
it work again the update,b,2016-03-03,Danielle Ramsey,4
happy to have this back,o,2016-03-03,Danielle Ramsey,4
,o,2016-03-03,savio catuara,5
i always had a hard time finding anything with my telescope i had this,b,2016-03-03,Steven Pearson,5
now stargazing is much more fun,o,2016-03-03,Steven Pearson,5
love it,o,2016-03-03,musa saeed,5
the sensor behavior went crazy,o,2016-03-03,A Google User,5
then restarted the work fine now,o,2016-03-03,A Google User,5
,o,2016-03-03,amc marie,5
i used to really love this but the last couple version of this have not work on the last couple of phone i have had,o,2016-03-03,Charlie Groff,1
the map never point in the right and the display is always jittery and jumping around in manual mode,f,2016-03-03,Charlie Groff,1
usually i can turn in a complete 360 degree circle in the map hardly change direction more a couple of degree,b,2016-03-03,Charlie Groff,1
the compass,f,2016-03-03,Charlie Groff,1
very helpful for amateur,o,2016-03-03,Aditya Anand,5
one please give notification about upcoming meteor also,f,2016-03-03,Aditya Anand,5
used to work but on my the gyro is all over the place,o,2016-03-03,Alin Baciu,3
if i turn the phone it jump around and after a it sorta but a soon a i move it jump around,b,2016-03-03,Alin Baciu,3
a dream for star gazing professional,o,2016-03-02,Mohit Padhiar,5
a must have you relate to nature at all,o,2016-03-02,Mohit Padhiar,5
love laying under the sky exploring the universe with my son and this is the ultimate tool,o,2016-03-02,william gorjup,5
it used to be a great they worked on unfortunately after the latest update it broken on my,b,2016-03-02,Chris Jordan,2
gyroscope doe not function cannot look around,o,2016-03-02,Chris Jordan,2
really cool,o,2016-03-02,Brad May,5
and it work,o,2016-03-02,Brad May,5
work well,o,2016-03-02,Brian March,5
calibration of your compass seems to be key,o,2016-03-02,Brian March,5
no matter i point it show the same spot,o,2016-03-02,Eddie Moran,1
it used to work,o,2016-03-02,Eddie Moran,1
best in existence,o,2016-03-02,Andrew Hsu,5
it show a being 2 hour below the horizon in fact it is 1 hour above,o,2016-03-02,Nicholas Bedworth,4
apparently other planetarium software have the same problem on the,b,2016-03-02,Nicholas Bedworth,4
nice otherwise,o,2016-03-02,Nicholas Bedworth,4
would also like to get wider field of view for initial orientation,b,2016-03-02,Nicholas Bedworth,4
my kid like it,o,2016-03-02,Taras Kashyntsev,5
u want the moon and the this is the right,f,2016-03-02,Lisa Hoddinott,5
the best out there,o,2016-03-02,Lisa Hoddinott,5
almost anything,o,2016-03-01,Suisan Ratliff,4
would love to see tracking well a iridium tracking on here,o,2016-03-01,Suisan Ratliff,4
sky map give an update i wonder which new planet or star or constellation ha been added,b,2016-03-01,kanishek varshney,4
,o,2016-03-01,kanishek varshney,4
and hell,b,2016-03-01,Matt Chung,1
orientation sensor is not sensitive enough,f,2016-03-01,A Google User,2
added gyroscope support it got really good,b,2016-03-01,A Google User,2
sky map need the same thing,f,2016-03-01,A Google User,2
very nice for star watching lover,o,2016-03-01,Ricky Mok,5
i use it surprisingly often,o,2016-03-01,Robert McDonald,5
awesome,o,2016-03-01,A Google User,5
awesome,o,2016-03-01,James G. Jemilo,5
you give you cannot thanks bye,o,2016-03-01,Diddy Elliott,1
just make it a good a the cardboard and i will be real the wa amazing it worked,o,2016-03-01,Viktor Kongskov,3
the sun the moon the planet and star all at your fingertip for free who could want anything more,o,2016-03-01,AdMan The Lab Rat,5
excellent,o,2016-03-01,Jose Yepez,5
really nice,o,2016-03-01,Leo Ganguly,5
turned some kid on to this on night,o,2016-03-01,kathleen magness,5
this application is awesome everybody try it mini pro ya now in my,o,2016-03-01,A Google User,5
etc and all this after almost 4 year,b,2016-03-01,Miha Kukovec,1
been a guy,o,2016-03-01,Jens Kunst,5
awesome too see this get some more love,o,2016-03-01,Jens Kunst,5
very helpful,o,2016-03-01,Sallum Andaya,4
need improvement,f,2016-03-01,Aalok Sathe,5
to good,o,2016-03-01,Sudarshan Dhamal,5
one of the most beautiful from the early day of android,o,2016-03-01,Mihir Modi,5
glad to see an there is still some hope,o,2016-03-01,Mihir Modi,5
light required by anybody interested in star,o,2016-03-01,Ishita Bhattacharya,5
this is an amazing,o,2016-03-01,Lion Kiss,5
worked on older phone and tablet,b,2016-03-01,Jeremy West,1
notice last update on 2011,b,2016-03-01,Jeremy West,1
love this,o,2016-03-01,Patrick Gould,5
i loved this but in comparison to some others it could be smoother and more dedicate in presenting constellation,o,2016-03-01,Warren Tolley,3
all position are wrong,o,2016-03-01,Gopal Chehal,1
it is showing around earlier position,o,2016-03-01,Gopal Chehal,1
even update please help,b,2016-03-01,Gopal Chehal,1
great for learning about the star,o,2016-03-01,Colin McKay,4
work well is working,o,2016-03-01,Colin McKay,4
excellent especially for easy to operate,o,2016-03-01,Thomas Regan,5
highly recommend it,o,2016-03-01,Thomas Regan,5
really superb,o,2016-03-01,Kanikumar Subburam,5
great for student,o,2016-03-01,Enorense Osarodion,5
most thing on these device are this is bye far most intriguing,b,2016-03-01,Michael holle,4
thanks for helping me learn about star,o,2016-03-01,Dimas Oryza,5
i hope this can help more amateur astronomer like me,o,2016-03-01,Dimas Oryza,5
hooray,o,2016-02-29,Gary,5
very use full,o,2016-02-29,Yasar Ammar,4
now you can find out instantly what is,b,2016-02-29,B Ferg,5
an upgrade two year of inactivity,b,2016-02-29,Marco Mendoza,5
great job,o,2016-02-29,Marco Mendoza,5
one of my favorite,o,2016-02-29,Nadine Brubaker Howell,5
even it day time people say wow,o,2016-02-29,A Google User,5
a must have if have a desire to know what bright twinkle thing over your house is,o,2016-02-29,Stephen Clarke,5
if you wonder is around midnight on a,b,2016-02-29,Stephen Clarke,5
then this is the for you,o,2016-02-29,Stephen Clarke,5
thank you,o,2016-02-29,Ed Schreiner,5
a new update,b,2016-02-29,Stephanie Horvath,5
easy to ha everything you need,o,2016-02-29,Jerry Lohr,5
unique,o,2016-02-29,Felipe Cardona,5
i thought you guy gave up on this great,o,2016-02-29,A Google User,5
nice,o,2016-02-29,A Google User,5
work educational and fun,o,2016-02-29,A Google User,5
great,o,2016-02-29,Lynwood Thorpe,5
this is a with the kid,o,2016-02-29,Mac Krzysik,5
love it,o,2016-02-29,Mac Krzysik,5
great,o,2016-02-29,Max Soh,5
see the star and know their name,b,2016-02-29,Max Soh,5
love to know what a star or constellation is and now i can,o,2016-02-29,Kristina E. Bergman,5
you like looking at star and finding out what they are called this is very useful,o,2016-02-29,andrew cowie,5
out on deck at a calm anchorage a good with a cold beer in one hand and on my phone in the other,b,2016-02-29,Bob Buick,5
what more could you want,o,2016-02-29,Bob Buick,5
i thought it had been abandoned but kept it one of my,b,2016-02-29,Arnaud Amiel,5
will keep it for many year,o,2016-02-29,Arnaud Amiel,5
excellent,o,2016-02-29,Giuliani Mahfoud,5
had this for one of the first i installed,b,2016-02-29,Bill Rowland,5
it ha never let me down,b,2016-02-29,Bill Rowland,5
whether naming or finding the this is awesome,o,2016-02-29,Bill Rowland,5
used to work but now it is way off,o,2016-02-29,Brian a,3
please fix,b,2016-02-29,Brian a,3
best ever,o,2016-02-29,Christian Gaviria,5
for any sky watcher this is the best,o,2016-02-29,VickThor,5
but compass still off,f,2016-02-29,Adam Harvey,3
first update in year,b,2016-02-29,Josiah De La Torre,5
kudos to the,o,2016-02-29,Josiah De La Torre,5
a long time it getting update,b,2016-02-29,A Google User,5
thanks,o,2016-02-29,A Google User,5
amazing,o,2016-02-29,glitchman161,5
awesome,o,2016-02-29,Atanu Mandal,5
fun and educational,o,2016-02-29,Pedro Cipriano,5
still trying all though,b,2016-02-29,Pedro Cipriano,5
,o,2016-02-29,Aziz Ahmed Qureshi,5
this is awesome,o,2016-02-29,Mark Messiha,5
first i downloaded on my first smart and it been with me ever since,o,2016-02-29,Mark Messiha,5
great night sky thanks,o,2016-02-29,Chris M79,5
would be neat to see satellite and,o,2016-02-29,Justin Cross,4
unpleasant to use,b,2016-02-29,Adam Smith,2
doe it really need to be sensitive to motion,f,2016-02-29,Adam Smith,2
very useful for who love watching the sky very smart,o,2016-02-29,sanad dufan,4
i love this my favorite overall,o,2016-02-29,A Google User,5
any possible update any time soon,b,2016-02-29,A Google User,5
now i can thank you,o,2016-02-29,Owen Ltd,5
thanks for keeping this alive,o,2016-02-29,Johnny Ace Okeke,5
,o,2016-02-29,Johnny Ace Okeke,5
great sky map,f,2016-02-29,Oscar Larrea-Marion,5
thank you guy for this update such a long time,b,2016-02-29,Martin B.,5
new update will come shortly,b,2016-02-29,Martin B.,5
cool,o,2016-02-29,Hardik Shah,5
nice to see you guy back at it,o,2016-02-29,Bugside almighty,5
suggestion in the gallery you should consider updating the image from blurry mess,b,2016-02-29,Bugside almighty,5
the universe,o,2016-02-29,Jack Helvie,5
a free which make you feel a professional,o,2016-02-29,Umit Sayman,5
quick and easy to use,o,2016-02-29,A Google User,5
just fantastic,o,2016-02-29,A Google User,5
compass seems to be non functional,f,2016-02-29,Jayme Baith,1
wa waiting for a tool like this for decade,f,2016-02-29,A Google User,5
superb,o,2016-02-29,Dinesh Babu K G,5
i have been using it wa first released,b,2016-02-29,A Google User,5
however it ha shown it age since it wa developed back on android single core phone were the norm,b,2016-02-29,A Google User,5
thank you for bringing it up date,o,2016-02-29,A Google User,5
i love it,o,2016-02-29,Tazeen Khalid,5
i like this very much,o,2016-02-29,Mehul Mehta,5
he had would have been known a united state of,o,2016-02-29,andy hanks,1
i find this endlessly fascinating,b,2016-02-29,Neill Shenton,5
it work great on my device,b,2016-02-28,A Google User,5
amateur of astronomy will love it,o,2016-02-28,Youssef Alaoui,5
what can i tell ya,o,2016-02-28,A Google User,5
premium,b,2016-02-28,Mein Vieg,5
highly recommended,o,2016-02-28,David Zechiel,5
this wa the year ago got me to switch from blackberry to android,b,2016-02-28,Stephen McLaughlin,5
calibration,o,2016-02-28,Chris Crowley,2
not available,f,2016-02-28,Chris Crowley,2
setting,b,2016-02-28,Chris Crowley,2
not available,f,2016-02-28,Chris Crowley,2
using with lollipop,f,2016-02-28,Chris Crowley,2
funny how people ask for a refund on a free,o,2016-02-28,Chris Crowley,2
always loved the night sky,o,2016-02-28,bazrazin1,5
my best friend doing,o,2016-02-28,Krane Banger,5
this is very good for all who would like to learn about sky,o,2016-02-28,Hari Kumar Thapa Chhetri,5
no option on the lg,f,2016-02-28,Mark Anthony Byrne,1
which mean i have no search function or calibration,b,2016-02-28,Mark Anthony Byrne,1
this is addressed i would give 5 star,o,2016-02-28,Mark Anthony Byrne,1
i can clearly see orion above me can not find it on star map unless i point down what good id looking down when you trying to star gaze,o,2016-02-27,Sean Donovan,3
no other compass or map i use on ha,f,2016-02-27,Sean Donovan,3
this bad this is delete this and never download it ever,o,2016-02-27,Oscar Jimenez,1
love it,o,2016-02-27,Mindy Hawley,5
would be but it would not readjust to my direction,o,2016-02-27,S. Walker,1
kept giving orion but in the wrong direction,b,2016-02-27,S. Walker,1
it,o,2016-02-27,Steven Tucker,5
not bad,o,2016-02-27,Paras Modi,3
good,o,2016-02-27,Mizanur Rahman,5
useless just like all th other review say it is,o,2016-02-27,Steven Collins,1
revolutionary,o,2016-02-26,Luca Igansi,5
from identifying constellation to guiding your it extremely useful and resourceful to deal with the night sky,o,2016-02-26,Luca Igansi,5
work on galaxy edge,o,2016-02-26,Alin Lechintan,5
always wanted to be able to point out the planet,f,2016-02-26,Sergio Garcia,5
very disappointing,b,2016-02-26,Subramanian C A,5
doe not work anymore,b,2016-02-26,Brett Johnson,1
