# deletions,date,commit message
1,2014/7/22,hopefully this fixes the auto opening of keyboard :|
1,2014/7/22,automatically opening keyboard is annoying - could be added as an option later
3,2014/7/22,change the title tV margin from 32 to 16dp (looks better I think)
4,2014/7/22,a few small touches + removing android:fontFamily from Lines (will be added for  >API16)
20,2014/7/22,update my email address in source files
199,2014/7/22,wrap lines fragment in a scroll view
1,2014/7/22,system will slightly push the content activity layout to keep the input on screen (along with keyboard) if necessary
33,2014/7/22,update code for lines fragment to match new layout
4,2014/7/22,update domain in different places
61,2014/7/22,REFACTOR: rename com.aminbandali.* to org.aminb.*
1,2014/7/21,exclude ContentActivity when doing the fancy actionbar bottom shadow because of the tab strip
28,2014/7/21,work on app menus
27,2014/7/21,correct names for Projection fragment
198,2014/7/21,New layout for Lines fragment
2,2014/7/21,Not actually using PagerSlidingTabStrip anymore so remove it in about dialog
1,2014/7/20,smaller and whiter "version" in about dialog
1,2014/7/20,initial release version will be 0.1
24,2014/7/20,surround calculations with try to eliminate "-" edge case
54,2014/7/20,improved product and projection layouts
12,2014/7/20,use axayaz;bxbybz instead of x1y1z1;x2;y2;z2 in prd/prj fragments
5,2014/7/20,Correct "Up" behaviour for FeedbackActivity
6,2014/7/20,Don't set ActionBar subtitle
1,2014/7/20,"Planes" won't be part of the initial release
2,2014/7/20,Provide a 'tolerance' to Line class to avoid deprecated constructor
9,2014/7/19,vector projections done :)
189,2014/7/19,Update projections fragment with latest code from products
20,2014/7/19,slight improvement in flow of switching dimensions
3,2014/7/18,Properly format and display dot & cross products
196,2014/7/18,Comment out Line3D for now due to some errors
36,2014/7/18,Change up VectorHelpers to use Lists + progress
272,2014/7/18,delete and ignore .idea/ from git
40,2014/7/17,grey out geometry trigonometry and calculus
4,2014/7/17,Thank Michael Cook in about dialog 😊
6,2014/7/17,change to MATHTools and add logo to README
3,2014/7/17,change MATHTools to MathTools in README  at least for now have to think about it later
14,2014/7/17,more work on products fragment  work on showing “result” and clear button functionality
2,2014/7/17,use the new duplicate fragments (prjs & lines)
46,2014/7/17,cleaning continued  missing things from last commit
124,2014/7/17,clean unneeded stuff from products
1,2014/7/17,fix small typo
55,2014/7/17,a bit of cleanup and further progress
8,2014/7/17,move Line{23}D and VectorHelpers to ‘math’ dir
66,2014/7/14,Remove the Analyze (or Calculate) button / Setup the TextWatcher for EditTexts
3,2014/7/12,misc
53,2014/6/30,rename Lines->Products Fragment + some experiments
2,2014/6/26,Correct the name of the products fragment
2,2014/6/22,Rename vecFunctions to VectorHelpers
19,2014/6/22,Add Apache Math lib Line{23}D and vecFunctions classes and organize utils
16,2014/6/22,Some previous work + first commit after opening the project in AS on OSX
21,2014/6/13,Changes due to upgrading studio to 0.6.1
3,2014/6/11,Changes due to upgrading android studio from 0.5.9 to 0.6.0
73,2014/6/06,Delete the old VectorsFragment and rename the PlaceholderFragment to LinesFragment
560,2014/6/06,Category list items now all launch ContentActivity  TODO: implement respective fragments
3,2014/6/06,A bit of re-factoring and adding more layout elements to vectors fragment
1,2014/6/06,About dialog title background  now uses mathtoolstheme_color
10,2014/6/06,Update Iconify from 1.0.5 to 1.0.6
3,2014/6/04,Import the project in my luna installation
1,2014/6/02,Switch back to default 3-dot menu icon  The squares look better with the rigid actionbar bottom border. Might have to look into transparency though.
15,2014/6/01,Pass in the "titleId" and "titles" to ContentActivity  via use of Bundles
82,2014/6/01,Move the temporary PlaceholderFragment into its own file
258,2014/6/01,Continuation of experiments. A basic layout for PlaceholderFragment
30,2014/5/31,Add an experimental activity that uses actionbar tabs (w some placeholder content)
55,2014/5/31,Add BaseActivity to handle actionbar changes using changeColor (mainly for adding the bottom border)
447,2014/5/31,Remove previous theme use a new theme (similar in color) and delete a lot of [currently] unnecessary things
9,2014/5/30,Add old layout for lines fragment
2,2014/5/30,Don't run changeColor on first onResume of MainFragment
1,2014/5/28,actionbar overflow icon (3 dots) now has a non-transparent foreground (pure white)
5,2014/5/28,All Cards now have listeners (all use VectorsFragment as a placeholder for now)
2,2014/5/28,ActionBar now changes color when opening ContentFragment
31,2014/5/28,Move VectorsFragment class to a separate file
5,2014/5/28,Use a native icon for cheat sheet (instead of font-awesome)
1,2014/5/28,Change the version color in about dialog
1,2014/5/28,Style the about dialog to match the blue app theme more
48,2014/5/28,Use @OnItemClick in FeedbackFragment
4,2014/5/28,Use ButterKnife in ContentFragment (tabs and pager for now)
1,2014/5/27,Cards in MainFragment now look much better
5,2014/5/26,Add Butter Knife and try it out on Main and Feedback fragments
8,2014/5/26,Revert "FeedbackActivity now uses AndroidAnnotations as well"  This reverts commit 2738712250c91f831503c1bfb8c7347cbd01e75e.
25,2014/5/26,Revert "Adds AndroidAnnotations library. Trying it out on MainActivity"  This reverts commit 0abd754692816ea9032687bd4f80a50093b7637d.
17,2014/5/25,License all java files (GPLv3)
14,2014/5/25,FeedbackActivity now uses AndroidAnnotations as well
1,2014/5/25,Use muzei's actionoverflow icon. Should make the 3 dots non-transparent to match other actionbar icons
3,2014/5/25,Adds AndroidAnnotations library. Trying it out on MainActivity
2,2014/5/24,changing up overflow and cheat sheet icons
1,2014/5/24,brand new app theme (blue)
1,2014/5/24,trying out a new ab_overflow with darkactionbar theme
4,2014/5/23,Fragment transition animations now have a duration of shortAnimTime
13,2014/5/23,Fixes ContentFragment menu issues (at least on kitkat)
1,2014/5/22,Add the fragment to backstack and override onbackpressed
1,2014/5/21,Basic scaffolding of ContentFragment Transitions should be added (when switching fragments) and the menu should be revised. Needs lots of cleanup.
4,2014/5/18,MainActivity now uses a FrameLayout instead of a Fragment Object
3,2014/5/17,BaseFragment now extends the support library Fragment class. FeedbackFragment now extends from BaseFragment.
1,2014/5/17,removes unnecessary import statement from MainActivity
2,2014/5/17,Adds About dialog
5,2014/5/17,Move MainActivity to activity folder
2,2014/5/17,Adds Feedback screen
1,2014/5/17,Adds Feedback and About options in menu (not implemented yet)
22,2014/5/17,Adds Iconify so now MainFragment uses font awesome icons
11,2014/5/17,Setup a  foundation and some basic stuff for Main screen
