App,Store,App ID,Review ID,Country,Version,Rating,Date,Author,Subject,Body,Translated Subject,Translated Body
ownCloud Notes,Google Play,it.niedermann.owncloud.notes,Z3A6QU9xcFRPRXU0U3pmaHE1QUhQLTEwekdteW4wVVdFaHVRUlBfOWFZbS0wSUlGQmJVbl9IaGV6VV9UT1NvOGZMZHFkaUlwQ3gwRHFheFVMSFBMem1Ld3c,German,,5,2016-02-05,Oliver Pifferi,Super Start...,... mit einer tollen Idee - ergänzt den vorhandenen OwnCloud-Client perfekt.  Weiter so!,,
ownCloud Notes,Google Play,it.niedermann.owncloud.notes,Z3A6QU9xcFRPRmtQN2w0Q0ZhdndvTHNicWw0MWZ0anhRY0NwdndpT3BzZmlSb0hsOHBudlVrV2xsb3paNzdJYmYtajdnaVplNnpQNTJTamFSeGFIQUVVUmc,German,,5,2016-02-05,Kater Karlo,Vielversprechend,Guter Anfang. Bitte weiter entwickeln :-),,
