Topic,Words
0,0.130*worked,0.073*my,0.063*proxy,0.057*filtering,0.044*3,0.044*signed,0.042*this,0.040*is,0.036*day,0.031*works
1,0.086*the,0.053*a,0.051*out,0.049*one,0.047*certificate,0.043*server,0.036*first,0.036*of,0.035*whole,0.035*with
2,0.108*like,0.083*3,0.070*and,0.057*charm,0.052*i,0.050*figure,0.042*personal,0.038*router's,0.036*this,0.036*spent
3,0.167*worked,0.075*this,0.056*whole,0.041*with,0.041*proxy,0.040*self,0.038*solution,0.037*first,0.036*signed,0.027*day
4,0.077*solution,0.071*router's,0.068*day,0.052*like,0.047*filtering,0.047*with,0.045*charm,0.038*proxy,0.038*trying,0.037*this
5,0.162*transparent,0.081*to,0.064*works,0.051*out,0.050*signed,0.045*router's,0.039*this,0.038*great,0.037*server,0.035*figure
6,0.056*day,0.053*how,0.051*to,0.050*solution,0.050*transparent,0.049*i,0.047*for,0.046*and,0.042*the,0.038*worked
7,0.104*worked,0.094*out,0.069*charm,0.055*how,0.050*have,0.043*whole,0.042*very,0.036*trying,0.035*personal,0.033*figure
8,0.090*easiest,0.081*is,0.079*have,0.075*and,0.048*transparent,0.040*using,0.037*proxy,0.037*squid,0.034*charm,0.033*out
9,0.082*out,0.069*first,0.063*one,0.059*on,0.050*to,0.043*certificate,0.043*my,0.039*i,0.039*using,0.038*filtering
10,0.097*certificate,0.072*worked,0.067*great,0.066*using,0.061*easiest,0.048*clean,0.044*whole,0.039*charm,0.037*to,0.036*one
11,0.076*trying,0.061*router's,0.059*like,0.057*filtering,0.051*i,0.050*on,0.049*server,0.042*and,0.042*figure,0.036*one
12,0.069*using,0.067*on,0.066*this,0.060*securely,0.054*out,0.048*great,0.043*like,0.042*signed,0.039*easiest,0.038*is
13,0.071*easiest,0.063*of,0.059*squid,0.057*trying,0.054*one,0.048*whole,0.041*solution,0.040*i,0.039*transparent,0.037*and
14,0.080*this,0.062*clean,0.059*of,0.059*my,0.042*using,0.040*proxy,0.036*out,0.034*for,0.033*securely,0.032*first
15,0.130*worked,0.074*charm,0.058*easiest,0.051*signed,0.045*connect,0.038*day,0.037*whole,0.035*my,0.034*self,0.032*securely
16,0.074*have,0.063*one,0.061*works,0.055*on,0.053*signed,0.049*router's,0.047*securely,0.046*of,0.045*out,0.039*how
17,0.099*charm,0.076*proxy,0.069*how,0.065*server,0.057*and,0.049*spent,0.045*filtering,0.034*on,0.033*worked,0.031*to
18,0.077*filtering,0.058*day,0.055*3,0.051*for,0.050*have,0.046*solution,0.044*great,0.043*server,0.037*securely,0.036*using
19,0.075*how,0.061*certificate,0.061*my,0.058*and,0.050*on,0.045*i,0.043*spent,0.042*securely,0.036*works,0.036*worked
