no clean and easy brilliant,o,2014-07-06,Yann Bee,5
best alarm thats all,f,2014-07-06,Nageswarao Kamadi,5
simple and easy to use,o,2014-07-02,Jerry Oblego,5
like this one a lot it actually work like is stated,b,2014-07-01,koala pizza,5
amazing,o,2014-06-29,Megan Copley,5
love wake me up every morning,o,2014-06-29,Megan Copley,5
good,o,2014-06-26,yash jhamar,5
all work perfectly,b,2014-06-24,John Orourke,5
great best alarm,o,2014-06-17,Paul Glyndwr Jones,5
always work,o,2014-06-17,Paul Glyndwr Jones,5
everyone ha a great alarm just downloaded will test could be 5 star could be the best ever you could select the date galaxy,b,2014-05-26,Donald Smith,4
update 26 would be perfect i could enter a date,b,2014-05-26,Donald Smith,4
it would like to see something on top bar of phone to see alarm is activated,f,2014-05-21,Jack Burton,4
love it,o,2014-05-18,Jim W,5
run for a whole minute,b,2014-05-15,Libby Mitchell,1
hate this,o,2014-05-15,Libby Mitchell,1
useless you cannot cut it off,b,2014-05-15,Libby Mitchell,1
this is cool,o,2014-05-02,Kyleglen Shults,5
man,o,2014-04-30,John Koensgen,1
it worked for some time then started to ring early,b,2014-04-30,John Koensgen,1
too bad,o,2014-04-30,John Koensgen,1
goodbye,b,2014-04-30,John Koensgen,1
do not play is it piece a crap player yes play bee,b,2014-04-20,Juan Hernandez,1
i tried about 5 alarm i found this doe what i want with no simple and elegant with excellent function,o,2014-04-11,Brian Z,5
zero ad thus far and layout is far simpler some of the ridiculous alarm seen,f,2014-04-03,Janos Lindsay,5
one small default alarm and this battle deciding who will display the active alarm icon in the notification panel,f,2014-04-03,Janos Lindsay,5
even 2 alarm are set say 5 apart,f,2014-04-03,Janos Lindsay,5
i really like this,o,2014-03-31,,5
work a treat,o,2014-03-31,,5
out of the 15 alarm i have this one is the winner,o,2014-03-31,michal devetsedm,5
everything accessible in one click,b,2014-03-31,michal devetsedm,5
the most alarm time setting with numeric keypad,b,2014-03-31,michal devetsedm,5
wonderful,o,2014-03-31,michal devetsedm,5
thanks,o,2014-03-31,michal devetsedm,5
it woke me up in time for school and for other stuff,o,2014-03-12,,5
make more great thanks for making this,o,2014-03-12,,5
great job,o,2014-03-07,Brandin Wilber,5
love the would love to see some more information like weather,f,2014-03-07,Brandin Wilber,5
keep up the great development,o,2014-03-07,Brandin Wilber,5
it doe what i need,o,2014-03-03,Jacob Galaxy,5
nothing fancy just an alarm,f,2014-03-03,Jacob Galaxy,5
excellent,o,2014-03-03,Jacob Galaxy,5
,o,2014-02-27,Jason Ramsey,5
work well and is simple to use,o,2014-02-26,,4
i would like the ability to control the volume of the or some other way to create an alarm only vibrates,f,2014-02-26,,4
look no further for the ultimate alarm,o,2014-02-23,Paimon Dehghanian,5
simple and effective,o,2014-02-23,Paimon Dehghanian,5
much better some bundled alarm,f,2014-02-23,Paimon Dehghanian,5
highly recommended,o,2014-02-23,Paimon Dehghanian,5
sorry for the poor review i realize the failure of this is not your fault,o,2014-02-19,Kieron O'Meara,1
the reason i leave this review here is for the benefit of other user,b,2014-02-19,Kieron O'Meara,1
minus point always display clock icon in status bar,b,2014-02-06,Shyam Ayalani,5
this alarm doe everything i need it but nothing i do not want it to,o,2014-02-05,james ogden,5
it is easy to and not overly complicated like most other alarm,o,2014-02-05,james ogden,5
why is that,o,2014-02-05,Ali Muzeini,1
this is what usually doe,o,2014-02-05,Ali Muzeini,1
it never go only i take my phone off hold,b,2014-02-01,Helen R,1
,o,2014-02-01,Helen R,1
