added label to the dialog this close 194,f,2014/5/06,,
update,b,2014/4/24,,
klaxon added handling to the call state this is required we get notified after we register and we are calling there,b,2014/3/01,,
this is not supposed to be this way,o,2014/3/01,,
i added a differ,b,2014/3/01,,
this fix 199,b,2014/3/01,,
vibration an issue vibration start after alarm is canceled,f,2014/2/25,,
this is from 196,o,2014/2/25,,
klaxon fixed this fix something for 198,b,2014/2/24,,
klaxon added call state listener this close 198,f,2014/2/23,,
presentation added call handling to this close 196,f,2014/2/23,,
bumped version,f,2014/2/23,,
i need some hook for this,o,2014/2/23,,
bumped version,f,2014/1/18,,
presentation action menu moved from setting to the main activity this close 164,b,2014/1/18,,
