work great with it too,o,2015-05-02,Chris Frisby,5
it just always make my phone lag,b,2015-05-02,Anthony Evans,2
i have an one,o,2015-05-02,Anthony Evans,2
should have the ability to set custom and time info always visible,b,2015-05-02,Pradyumna Banakar,4
over all i really liked it,o,2015-05-02,Pradyumna Banakar,4
i use this with my nexus 6,o,2015-05-02,Tim Kirkpatrick,5
much better ambient display,f,2015-05-02,Tim Kirkpatrick,5
343 will not work with crash trying to display album cover,b,2015-05-02,Joel Alfredsson,5
this ha come a long way and really work nicely,o,2015-05-02,Stef P,4
smooth silk faced a bit sudden failure trouble but all fine after the update,b,2015-05-02,Saurabh Mukherjee,5
just give me a pattern lock for icing on the cake,b,2015-05-02,Saurabh Mukherjee,5
love using this,o,2015-05-02,Wei Enn,5
but is there a way to bypass the need to double swipe to unlock the screen for lollipop user,b,2015-05-02,Wei Enn,5
the most used of all time for me,o,2015-05-02,Maha Khan,5
simple clean and perfect,o,2015-05-02,Maha Khan,5
,o,2015-05-01,Reza Arcagia,5
really a great and help to save a lot of time,o,2015-05-01,Laser Waves,4
fix the unlock i press the home button,b,2015-05-01,Wilson Rodriguez,3
great and constant update,b,2015-05-01,Adrian Bătăcui,5
the is great and simply a pleasure to use,o,2015-05-01,Adrian Bătăcui,5
keep saying it stopped,b,2015-05-01,Maykel Contreras,4
everything is perfect with this locker except from one thing,o,2015-05-01,artemis val,5
please fix it,b,2015-05-01,artemis val,5
bogged down my took forever to send message and immediately install froze up my phone,b,2015-05-01,Chelsea Wagner,1
still waiting on it to also taking forever,b,2015-05-01,Chelsea Wagner,1
one cool,o,2015-05-01,Avi Pawar,5
no problem highly,o,2015-05-01,Ev Grusz,5
swipe to unlock is not smooth,b,2015-05-01,Muhammad Abdullah,5
