i have used for a time and i love it more with time,o,2015-05-04,Kirsten Huculiak,5
thank you,o,2015-05-04,Kirsten Huculiak,5
i love the how the stay out of the but get what you need done,o,2015-05-04,Eric Ng,4
also would love to set my own for the corner and the blacklist is still done in a kit despite the material design everywhere else,o,2015-05-04,Eric Ng,4
i wanted to keep this lock screen my daily driver but it cause above avg battery drain,b,2015-05-04,Manolo Escobar,1
why doe a notification constantly stay in my notification tray,b,2015-05-04,TravvyTops,3
lg running,b,2015-05-04,TravvyTops,3
thanks d,o,2015-05-04,Reinaldo Arifin,4
i just hope it can disable the home button it is working,f,2015-05-04,Kenneth Roi Villanueva,4
best lock screen period,b,2015-05-04,Vinayak Ravichandran,4
i used this for close to 9 month and loved it,b,2015-05-04,Michael Caramanico,2
update it began to slow my phone down significantly,b,2015-05-04,Michael Caramanico,2
my buttery smooth transition turned to rubbish,b,2015-05-04,Michael Caramanico,2
i deleted and my phone is running like a dream,b,2015-05-04,Michael Caramanico,2
in the notification on the lock screen stopped coming up and i missed some really important info for work,b,2015-05-04,Michael Caramanico,2
good for a long but not even decent anymore,b,2015-05-04,Michael Caramanico,2
i can i will give you 100 great you,o,2015-05-04,Denitsa Pavlova,5
i have been using it for over 8 month now,b,2015-05-04,Ravi Ranjan,5
the feature to wake up the screen with icon which had generated notification is very useful,b,2015-05-04,Ravi Ranjan,5
it an absolute must have for any phone,b,2015-05-04,Bee HP,5
in you should make this for a well possible,o,2015-05-04,Bee HP,5
it much of an inconvenience to use any phone without it,b,2015-05-04,Bee HP,5
absolutely love it,o,2015-05-04,Bee HP,5
keep up the great,o,2015-05-04,Avirup Das,5
add pattern lock for and also unlocking with motion like ambient display,f,2015-05-03,Vinay S Pujari,5
great,o,2015-05-03,Peter B,5
well done,o,2015-05-03,Andrew Bernath,5
the addition of is great,o,2015-05-03,Andrew Bernath,5
very,o,2015-05-03,Luthfian Noor Hidayat,5
the wave feature seems not working,f,2015-05-03,Goblin Tech,5
at it this is a great lock screen replacement,b,2015-05-03,Matthew Aguilar,4
received notification from all however the notification working,b,2015-05-03,Jonathan A,4
checked the blacklist and notification hidden or on silent could you fix it the notification work please,b,2015-05-03,Jonathan A,4
thanks,o,2015-05-03,Jonathan A,4
one of my go to on every device,b,2015-05-03,James Carmine,5
best thing ever,o,2015-05-03,Leon Tai,5
you can reply directly from the without opening the,b,2015-05-03,Rodrigo,5
you can also preview and dismiss notification,b,2015-05-03,Rodrigo,5
galaxy and the active mode will not work no matter what or phone setting i apply,b,2015-05-03,Edward Altus,4
looking forward for new update,b,2015-05-03,Aayush Mohta,5
i love it simple and easy to use and my friend have no clue on how to open my phone,o,2015-05-03,Sheetal Bhatt,5
i have one downside you press the home button it exists the lock screen,b,2015-05-03,Sheetal Bhatt,5
could you fix this issue,b,2015-05-03,Sheetal Bhatt,5
1,o,2015-05-03,Siddarth Jain,5
using sometimes it take me to my launcher when i press home button,b,2015-05-03,Siddarth Jain,5
i guess it skip the,b,2015-05-03,Siddarth Jain,5
what is the need for module,o,2015-05-03,Siddarth Jain,5
overall nice,o,2015-05-03,Siddarth Jain,5
simply,o,2015-05-03,shivam trivedi,4
,o,2015-05-03,shivam trivedi,4
