Topic Index 1,Topic Index 2,Topic Similarity
18,14,0.4619
16,18,0.44200000000000006
10,6,0.2836
15,9,0.2677
0,7,0.24100000000000002
12,16,0.22050000000000003
8,3,0.20400000000000001
7,10,0.12500000000000003
4,5,0.12000000000000001
3,1,0.11
6,11,0.104
9,8,0.1
19,4,0.09450000000000001
1,15,0.0931
2,19,0.078
5,0,0.0
11,2,0.0
13,12,0.0
14,13,0.0
17,17,0.0
