update to production mode and add final signed release,v1.5,2014/8/16,,
white light full control now working with improved jog dial work,v1.6,2015/1/20,,
add warmth and brightness jog dial wired up yet,v1.6,2015/1/12,,
changed to white command merged branch into my master,v1.6,2015/1/04,,
have 1 button can control a light zone,v1.6,2015/1/04,,
add most main application component for white bulb control,v1.6,2014/12/21,,
improved brightness control,v1.6,2014/11/25,,
prep for play store release,v1.6,2014/11/02,,
add new preference to disable auto discovery,v1.7,2015/8/10,,
add percentage display for brightness in android wear,v1.7,2015/3/18,,
add night mode for bulb,v1.7,2015/3/18,,
add new to wear and begin adding for turning light off and getting zone name,v1.7,2015/3/04,,
