upgrade android studio to,b,2016/4/10,,
active transport are not disabled switching scheme in the case route start is selected,b,2016/4/09,,
test release 0015,f,2016/4/07,,
fixed appearing of ghosting route end station is not reachable,b,2016/4/05,,
fixed appearing of ghosting route map of different transportation are switched,b,2016/4/05,,
fixed displaying of time for unreachable station and fixed building of route in the case some transport are not active,b,2016/4/04,,
minor fix of,b,2016/4/04,,
fixed crash were caused by multiple thread accessing object fixed bug that happened after changing of waiting time and available transportation,b,2016/4/04,,
simplified path finding by restricting it to one start node and one end node by adding extra node to each station,b,2016/3/18,,
refactoring class,o,2016/3/18,,
moved creating of shortest path from into graph,b,2016/3/18,,
split graph class to separate graph operation and conversion from node to,o,2016/3/17,,
removed public field from class replacing them with method,o,2016/3/16,,
performance optimization of path finding,o,2016/3/16,,
fixed bug starting point wa not included in route,b,2016/3/14,,
fixed bug with routing in the case multiple driving are available,b,2016/3/14,,
implemented making of route by using precomputed value from shortest path search,b,2016/3/14,,
rewrite from scratch to use algorithm,b,2016/3/14,,
update,b,2016/3/11,,
map path changed,b,2016/3/08,,
