release 111,f,2015/2/16,,
switched edit and delete action in action bar fixed on duplicated delete of a task in two pane view,b,2015/2/16,,
provided bug fix for lg 41 device,b,2015/2/16,,
fixed crash on android,b,2015/2/16,,
