# deletions,date,commit message
15,2015/9/27,handle deprecated Build constants
2,2015/9/27,getResources() is deprecated  ... as of API level 22 - use ContextCompat version instead.
1,2015/9/29,Update README.md  changed build status icon to new travis url
1,2015/9/29,Update README.md  travis test
2,2015/9/29,Update compileSdkVersion to v.22.
2,2015/9/28,Update Gradle wrapper to v.2.5.
1,2015/9/28,Downgrade support-v4 to v.22.2.1. to ensure compatibility with SDK version.
2,2015/9/28,Update build tools to v.23.0.1.
1,2015/9/28,Update Gradle plugin to v.1.3.1.
1,2015/9/26,Update README.md
3,2015/9/26,Use android logging in PullServerHandler  should fix #42
8,2015/9/23,Fix memory leak due to osmbonuspack bug  The Marker class holds a static reference to a DefaultInfoWindow instance which in turn holds a reference to the MapView. Thus it leaks the entire view hierarchy when the fragment is detached. Work around this by sub classing marker and implementing Overlay's onDetach() method to null out the static references there. Also move common initialization code to the subclass.
2,2015/9/19,release 2.0.4
1,2015/9/19,fix memory leak
