Topic Index 1,Topic Index 2,Topic Similarity
14,10,0.0472
16,2,0.039
5,17,0.0351
9,4,0.033299999999999996
4,12,0.030600000000000002
0,11,0.025599999999999998
11,13,0.018
18,15,0.018
19,3,0.018
1,14,0.0176
10,9,0.0144
15,16,0.012799999999999999
2,0,0.0
3,1,0.0
6,5,0.0
7,6,0.0
8,7,0.0
12,8,0.0
13,18,0.0
17,19,0.0
