Topic Index 1,Topic Index 2,Topic Similarity
9,2,0.016800000000000002
17,5,0.0125
11,14,0.011699999999999999
13,11,0.008
2,3,0.007000000000000001
4,9,0.006599999999999999
16,18,0.0063
14,1,0.006
19,8,0.006
0,12,0.0056
3,0,0.0056
5,17,0.0056
10,16,0.0056
7,7,0.005399999999999999
18,10,0.0048000000000000004
1,4,0.0
6,6,0.0
8,13,0.0
12,15,0.0
15,19,0.0
