App,Store,App ID,Review ID,Country,Version,Rating,Date,Author,Subject,Body,Translated Subject,Translated Body
Mirakel,Google Play,de.azapps.mirakelandroid,Z3A6QU9xcFRPRXk5bENNUVNGZnBVbVN3cGNuanNXRkFkRm8xZDZmQXFUelYwQkxENENKWXdWNEx6Wl9MUXV0RFR4emFtRU5IWXdmRlB2b0pMNkIxZ1lPVGdj,English,,5,2014-06-26,Martijn Beekhuis,Awesome when used correctly,on my own box,,
Mirakel,Google Play,de.azapps.mirakelandroid,Z3A6QU9xcFRPRXk5bENNUVNGZnBVbVN3cGNuanNXRkFkRm8xZDZmQXFUelYwQkxENENKWXdWNEx6Wl9MUXV0RFR4emFtRU5IWXdmRlB2b0pMNkIxZ1lPVGdj,English,,5,2014-06-26,Martijn Beekhuis,Awesome when used correctly,awesome to have it all working with my phone well,,
Mirakel,Google Play,de.azapps.mirakelandroid,Z3A6QU9xcFRPRTdDSlBvWEtFTmZ6dXFIa0VXZEVTeFdMUUp0SVJySEZXV3VPLTJCNUhqVDJmbGJRMTNCMmtoN18tV2VfOHN4SU5hLUlRd0g2X2JMQVp0RXF3,English,,5,2014-05-13,vijay karthik,Mirakel,this is awesome,,
