App,Store,App ID,Review ID,Country,Version,Rating,Date,Author,Subject,Body,Translated Subject,Translated Body
Mirakel,Google Play,de.azapps.mirakelandroid,Z3A6QU9xcFRPRnRYZUhaaWRFeUJyWm1mMFpLWUdrN2JmT1Z5cUUwZ3NhQWNJMXVZbW9RUmhvdkhGb1c4S2F4eTI3Y19IUXZzUUR2YXMyQVZ2U1o5aEwweFMw,English,,3,2014-01-29,Misty Fox,Okay,i try to delete they still show up,,
Mirakel,Google Play,de.azapps.mirakelandroid,Z3A6QU9xcFRPRnRYZUhaaWRFeUJyWm1mMFpLWUdrN2JmT1Z5cUUwZ3NhQWNJMXVZbW9RUmhvdkhGb1c4S2F4eTI3Y19IUXZzUUR2YXMyQVZ2U1o5aEwweFMw,English,,3,2014-01-29,Misty Fox,Okay,i like task list clone better it ha a better synchronization is not a and it allows timer for task,,
Mirakel,Google Play,de.azapps.mirakelandroid,Z3A6QU9xcFRPRnRYZUhaaWRFeUJyWm1mMFpLWUdrN2JmT1Z5cUUwZ3NhQWNJMXVZbW9RUmhvdkhGb1c4S2F4eTI3Y19IUXZzUUR2YXMyQVZ2U1o5aEwweFMw,English,,3,2014-01-29,Misty Fox,Okay,the only thing i like better with this is it allows task to be repeated by day of the week,,
Mirakel,Google Play,de.azapps.mirakelandroid,Z3A6QU9xcFRPSHNpWkdFS25kb2tCNzBTS01BWmZKcjB6ZWp1ai00dTFOOXZTZ3JlTzBqNmhkYUtJVWtrbDhoSkQ0Y2RJRDNKTW44QUF5S1NKR0RBa09nbEQ0,English,,1,2014-01-27,Alexey Bazhin,It trashed taskd data twice,it trashed data twice,,
Mirakel,Google Play,de.azapps.mirakelandroid,Z3A6QU9xcFRPR0lJZC0zX2JyNTl1WGx6OFNURU5Yekd4dFhWbmFTWHRjTjlackZwUTZMbmN2d19HVVVFNmdBd3NqcEJwMnFKc0NERE9iRl9HR2pjZDdKQTBR,English,,1,2014-01-26,Alexander Shabalin,Mutilated task list on my taskwarrior server,used this on my phone and tablet and regular on my laptop,,
Mirakel,Google Play,de.azapps.mirakelandroid,Z3A6QU9xcFRPSHRfT3l6ZzdBQ3JEVGtQdUhVZHdHLXI2bjd6YzI5TE1UZDBTcHREekl2TkRWZDUzQlpBRjBVZlV4WHBORFh1S2lDbWEtRWEwSkNCbGVDUERF,English,,5,2014-01-18,Gumb148,Great app,the first thing i like about this is that it is open source,,
Mirakel,Google Play,de.azapps.mirakelandroid,Z3A6QU9xcFRPSHRfT3l6ZzdBQ3JEVGtQdUhVZHdHLXI2bjd6YzI5TE1UZDBTcHREekl2TkRWZDUzQlpBRjBVZlV4WHBORFh1S2lDbWEtRWEwSkNCbGVDUERF,English,,5,2014-01-18,Gumb148,Great app,then it ha huge chunk load of feature to choose from,,
Mirakel,Google Play,de.azapps.mirakelandroid,Z3A6QU9xcFRPSHRfT3l6ZzdBQ3JEVGtQdUhVZHdHLXI2bjd6YzI5TE1UZDBTcHREekl2TkRWZDUzQlpBRjBVZlV4WHBORFh1S2lDbWEtRWEwSkNCbGVDUERF,English,,5,2014-01-18,Gumb148,Great app,and since it is being developed bug are being removed pretty rapidly,,
Mirakel,Google Play,de.azapps.mirakelandroid,Z3A6QU9xcFRPRVlGTDRCTTU3eVF0QTBqVENXRlY0VnJscTI4Y0tUSzRBQjh4b3M3dmFIUGQ4cW1ERHcxckNOcUdIdThMNGxVQjNtLThHN1dvS2VWb2w4Q3c0,English,,4,2014-01-03,Daniel Morris,Great app under rapid  development,is great and improving quickly,,
Mirakel,Google Play,de.azapps.mirakelandroid,Z3A6QU9xcFRPRVlGTDRCTTU3eVF0QTBqVENXRlY0VnJscTI4Y0tUSzRBQjh4b3M3dmFIUGQ4cW1ERHcxckNOcUdIdThMNGxVQjNtLThHN1dvS2VWb2w4Q3c0,English,,4,2014-01-03,Daniel Morris,Great app under rapid  development,looking forward to task warrior sync,,
