App,Store,App ID,Review ID,Country,Version,Rating,Date,Author,Subject,Body,Translated Subject,Translated Body
Mirakel,Google Play,de.azapps.mirakelandroid,Z3A6QU9xcFRPRURaUDJOY2djMGJUemR1WmdhdDl2b3pwTGwxdW5EUk9uN25XYTliZ2ItZFFqS25FeW5VWGZXeklGd1RhLWpLR1JCeldVaHRQbElubDBmc2Rr,English,,5,2015-07-26,Craig Inches,Great app,love it syncs with,,
Mirakel,Google Play,de.azapps.mirakelandroid,Z3A6QU9xcFRPSHJnYm1ncklWdTNqYXkxb1hjUEhMcVhsZ0xyNmFJUEtDdy1KdGNBblRZVzVxRjllN3RadUtTTGI3MVBrSVB2VzVOZHZka243dkg0MUpaVFF3,English,,2,2015-04-07,Drew Northup,"Great Potential, Taskwarrior Support not Quite Ready for the Big Time",it ha serious problem,,
Mirakel,Google Play,de.azapps.mirakelandroid,Z3A6QU9xcFRPSHJnYm1ncklWdTNqYXkxb1hjUEhMcVhsZ0xyNmFJUEtDdy1KdGNBblRZVzVxRjllN3RadUtTTGI3MVBrSVB2VzVOZHZka243dkg0MUpaVFF3,English,,2,2015-04-07,Drew Northup,"Great Potential, Taskwarrior Support not Quite Ready for the Big Time",upon sync task were marked complete from an actual instance get marked a pending,,
Mirakel,Google Play,de.azapps.mirakelandroid,Z3A6QU9xcFRPSHJnYm1ncklWdTNqYXkxb1hjUEhMcVhsZ0xyNmFJUEtDdy1KdGNBblRZVzVxRjllN3RadUtTTGI3MVBrSVB2VzVOZHZka243dkg0MUpaVFF3,English,,2,2015-04-07,Drew Northup,"Great Potential, Taskwarrior Support not Quite Ready for the Big Time",also rewrite all and annotation data whether it wa changed in the or serious,,
Mirakel,Google Play,de.azapps.mirakelandroid,Z3A6QU9xcFRPSHJnYm1ncklWdTNqYXkxb1hjUEhMcVhsZ0xyNmFJUEtDdy1KdGNBblRZVzVxRjllN3RadUtTTGI3MVBrSVB2VzVOZHZka243dkg0MUpaVFF3,English,,2,2015-04-07,Drew Northup,"Great Potential, Taskwarrior Support not Quite Ready for the Big Time",removing,,
Mirakel,Google Play,de.azapps.mirakelandroid,Z3A6QU9xcFRPRkJZVFNrcUZoWkl4MWZESEtXUkV0RGRPVENLRVJSTHNpblcyYm9Ob3V3OFMtR0VTWDZOdVRfc2djVks3eF9PMDNDb0g4YkdIWHJtdWtjZ2R3,English,,5,2015-02-14,Ankur Sinha,Nice!,really handy tool to use with task warrior,,
Mirakel,Google Play,de.azapps.mirakelandroid,Z3A6QU9xcFRPRWpXakJ4YWE4dVQxTXJRSG95R2l3RXRvd1U4U3R1cHQwZjE2bl9mdGhlMWJhcFcyalVCY0lLRHpydFhlUnlBQUNoYm96bWdhSi1xWlNvTzE4,English,,5,2015-01-26,md.samiul sadik,,i am a fan of,,
Mirakel,Google Play,de.azapps.mirakelandroid,Z3A6QU9xcFRPRWpXakJ4YWE4dVQxTXJRSG95R2l3RXRvd1U4U3R1cHQwZjE2bl9mdGhlMWJhcFcyalVCY0lLRHpydFhlUnlBQUNoYm96bWdhSi1xWlNvTzE4,English,,5,2015-01-26,md.samiul sadik,,i loved it,,
Mirakel,Google Play,de.azapps.mirakelandroid,Z3A6QU9xcFRPSGRrRUxfd3pRaWtSMWN4Qld5OGJtWmY1emNtaGdxT0d5YS1wamYwQ0lWM3JYUC00N3ZpY1NPblNMNVI4ak5HanRuNVVaMnUxWUVyVmhXcFJZ,English,,5,2015-01-24,ericwcc630,Best task list for owncloud,thank you much for the great,,
Mirakel,Google Play,de.azapps.mirakelandroid,Z3A6QU9xcFRPSGRrRUxfd3pRaWtSMWN4Qld5OGJtWmY1emNtaGdxT0d5YS1wamYwQ0lWM3JYUC00N3ZpY1NPblNMNVI4ak5HanRuNVVaMnUxWUVyVmhXcFJZ,English,,5,2015-01-24,ericwcc630,Best task list for owncloud,i love it,,
Mirakel,Google Play,de.azapps.mirakelandroid,Z3A6QU9xcFRPSGRrRUxfd3pRaWtSMWN4Qld5OGJtWmY1emNtaGdxT0d5YS1wamYwQ0lWM3JYUC00N3ZpY1NPblNMNVI4ak5HanRuNVVaMnUxWUVyVmhXcFJZ,English,,5,2015-01-24,ericwcc630,Best task list for owncloud,best the widget date is shorter or le prominent for schedule for sync,,
Mirakel,Google Play,de.azapps.mirakelandroid,Z3A6QU9xcFRPRzhIbC13RFlkYjBJd25tb0UyQ2swZkpweUE2QldhTkh1LUdCMWc5NzRIRm1VaGRTTnk3M1kyMFZTajNVRU03a3NTU2RBZW1HVmZDUmdqamtB,English,,4,2014-12-30,Dennis Bong,Note taking,any chance of using s pen for note user to draw or having quick writing on the go,,
