package,release ID,UI element,related topic,average polarity,# reviews,average rating,average objectivity,# uninstalls,delta rating,element deleted next release
org.dmfs.tasks,1.1.2,@+id/button_add_one_day$button_add_one_day,730,0.3203512396694215,2,5.0,0.3591253443526171,0,0.9523809523809526,0
org.dmfs.tasks,1.1.2,@+id/button_add_one_day$button_add_one_day,728,-0.13,1,2.0,0.38,0,-2.0476190476190474,0
org.dmfs.tasks,1.1.2,@+id/task_list_color$,731,0.18236914600550963,2,5.0,0.4265840220385675,0,0.9523809523809526,0
org.dmfs.tasks,1.1.2,@+id/task_list_color$,735,-0.13,2,2.0,0.38,0,-2.0476190476190474,0
org.dmfs.tasks,1.1.2,@+id/task_list_color$,732,0.10833333333333334,2,4.0,0.5083333333333334,0,-0.04761904761904745,0
org.dmfs.tasks,1.1.2,@+id/synced_task_list_button$synced_task_lists,737,0.18236914600550963,1,5.0,0.4265840220385675,0,0.9523809523809526,0
org.dmfs.tasks,1.1.2,@+id/synced_task_list_button$synced_task_lists,739,-0.13,1,2.0,0.38,0,-2.0476190476190474,0
org.dmfs.tasks,1.1.2,@+id/synced_task_list_button$synced_task_lists,736,0.10833333333333334,1,4.0,0.5083333333333334,0,-0.04761904761904745,0
org.dmfs.tasks,1.1.2,@+id/task_time_picker$,745,0.026184573002754813,2,3.5,0.40329201101928375,0,-0.5476190476190474,0
org.dmfs.tasks,1.1.2,@+id/task_time_picker$,742,0.10833333333333334,1,4.0,0.5083333333333334,0,-0.04761904761904745,0
org.dmfs.tasks,1.1.2,@+id/task_priority_view_low$,748,0.14535123966942148,2,4.5,0.46745867768595045,0,0.45238095238095255,0
org.dmfs.tasks,1.1.2,@+id/task_priority_view_low$,750,-0.13,1,2.0,0.38,0,-2.0476190476190474,0
org.dmfs.tasks,1.1.2,@+id/task_due_image$,751,0.18236914600550963,1,5.0,0.4265840220385675,0,0.9523809523809526,0
org.dmfs.tasks,1.1.2,@+id/task_due_image$,754,-0.13,1,2.0,0.38,0,-2.0476190476190474,0
org.dmfs.tasks,1.1.2,@+id/task_due_image$,755,0.10833333333333334,1,4.0,0.5083333333333334,0,-0.04761904761904745,0
org.dmfs.tasks,1.1.2,@+id/task_start_image$,757,0.18236914600550963,1,5.0,0.4265840220385675,0,0.9523809523809526,0
org.dmfs.tasks,1.1.2,@+id/task_start_image$,758,-0.010833333333333334,2,3.0,0.4441666666666667,0,-1.0476190476190474,0
org.dmfs.tasks,1.1.2,@+id/task_priority_view_medium$,761,0.14535123966942148,2,4.5,0.46745867768595045,0,0.45238095238095255,0
org.dmfs.tasks,1.1.2,@+id/task_priority_view_medium$,762,-0.13,1,2.0,0.38,0,-2.0476190476190474,0
org.dmfs.tasks,1.1.2,@+id/task_due_date$,767,0.18236914600550963,1,5.0,0.4265840220385675,0,0.9523809523809526,0
org.dmfs.tasks,1.1.2,@+id/task_due_date$,768,-0.13,1,2.0,0.38,0,-2.0476190476190474,0
org.dmfs.tasks,1.1.2,@+id/task_due_date$,770,0.10833333333333334,1,4.0,0.5083333333333334,0,-0.04761904761904745,0
org.dmfs.tasks,1.1.2,@+id/task_title$,773,0.14535123966942148,2,4.5,0.46745867768595045,0,0.45238095238095255,0
org.dmfs.tasks,1.1.2,@+id/task_title$,772,-0.13,1,2.0,0.38,0,-2.0476190476190474,0
org.dmfs.tasks,1.1.2,@+id/visible_task_list_checked$,776,0.18236914600550963,1,5.0,0.4265840220385675,0,0.9523809523809526,0
org.dmfs.tasks,1.1.2,@+id/visible_task_list_checked$,778,-0.010833333333333334,2,3.0,0.4441666666666667,0,-1.0476190476190474,0
org.dmfs.tasks,1.1.2,@+id/fling_reveal_left$fling_task_complete,783,0.026184573002754813,2,3.5,0.40329201101928375,0,-0.5476190476190474,0
org.dmfs.tasks,1.1.2,@+id/fling_reveal_left$fling_task_complete,784,0.10833333333333334,1,4.0,0.5083333333333334,0,-0.04761904761904745,0
org.dmfs.tasks,1.1.2,@+id/task_list_spinner$,790,0.18236914600550963,1,5.0,0.4265840220385675,0,0.9523809523809526,0
org.dmfs.tasks,1.1.2,@+id/task_list_spinner$,789,-0.010833333333333334,2,3.0,0.4441666666666667,0,-1.0476190476190474,0
org.dmfs.tasks,1.1.2,@+id/task_list_account_name$,794,0.18236914600550963,1,5.0,0.4265840220385675,0,0.9523809523809526,0
org.dmfs.tasks,1.1.2,@+id/task_list_account_name$,792,-0.010833333333333334,2,3.0,0.4441666666666667,0,-1.0476190476190474,0
org.dmfs.tasks,1.1.2,@+id/task_start_date$,797,0.18236914600550963,1,5.0,0.4265840220385675,0,0.9523809523809526,0
org.dmfs.tasks,1.1.2,@+id/task_start_date$,800,-0.13,1,2.0,0.38,0,-2.0476190476190474,0
org.dmfs.tasks,1.1.2,@+id/task_start_date$,796,0.10833333333333334,1,4.0,0.5083333333333334,0,-0.04761904761904745,0
org.dmfs.tasks,1.1.2,@+id/fling_reveal_right$fling_task_edit,804,0.026184573002754813,2,3.5,0.40329201101928375,0,-0.5476190476190474,0
org.dmfs.tasks,1.1.2,@+id/fling_reveal_right$fling_task_edit,805,0.10833333333333334,1,4.0,0.5083333333333334,0,-0.04761904761904745,0
org.dmfs.tasks,1.1.2,@+id/task_time_picker_remove$,807,0.18236914600550963,1,5.0,0.4265840220385675,0,0.9523809523809526,0
org.dmfs.tasks,1.1.2,@+id/task_time_picker_remove$,808,-0.010833333333333334,2,3.0,0.4441666666666667,0,-1.0476190476190474,0
org.dmfs.tasks,1.1.2,@+id/task_list_name$,812,0.18236914600550963,1,5.0,0.4265840220385675,0,0.9523809523809526,0
org.dmfs.tasks,1.1.2,@+id/task_list_name$,811,-0.010833333333333334,2,3.0,0.4441666666666667,0,-1.0476190476190474,0
org.dmfs.tasks,1.1.2,@+id/task_list_account$,820,0.18236914600550963,1,5.0,0.4265840220385675,0,0.9523809523809526,0
org.dmfs.tasks,1.1.2,@+id/task_list_account$,819,-0.010833333333333334,2,3.0,0.4441666666666667,0,-1.0476190476190474,0
org.dmfs.tasks,1.1.2,@+id/task_priority_view_high$,823,0.026184573002754813,2,3.5,0.40329201101928375,0,-0.5476190476190474,0
org.dmfs.tasks,1.1.2,@+id/task_priority_view_high$,822,0.10833333333333334,1,4.0,0.5083333333333334,0,-0.04761904761904745,0
org.dmfs.tasks,1.1.2,@+id/task_date_picker$,827,0.18236914600550963,1,5.0,0.4265840220385675,0,0.9523809523809526,0
org.dmfs.tasks,1.1.2,@+id/task_date_picker$,829,-0.010833333333333334,2,3.0,0.4441666666666667,0,-1.0476190476190474,0
org.dmfs.tasks,1.1.2,@+id/button_add_one_hour$button_add_one_hour,835,0.18236914600550963,1,5.0,0.4265840220385675,0,0.9523809523809526,0
org.dmfs.tasks,1.1.2,@+id/button_add_one_hour$button_add_one_hour,834,-0.13,1,2.0,0.38,0,-2.0476190476190474,0
org.dmfs.tasks,1.1.2,@+id/visible_task_list_color$,838,0.18236914600550963,1,5.0,0.4265840220385675,0,0.9523809523809526,0
org.dmfs.tasks,1.1.2,@+id/visible_task_list_color$,839,-0.13,1,2.0,0.38,0,-2.0476190476190474,0
org.dmfs.tasks,1.1.2,@+id/visible_task_list_color$,836,0.10833333333333334,1,4.0,0.5083333333333334,0,-0.04761904761904745,0
org.dmfs.tasks,1.1.2,@id/android:empty$task_list_selection_empty,842,0.10833333333333334,1,4.0,0.5083333333333334,0,-0.04761904761904745,0
org.dmfs.tasks,1.1.2,@+id/integer_choice_item_text$,846,0.10833333333333334,1,4.0,0.5083333333333334,0,-0.04761904761904745,0
org.dmfs.tasks,1.1.2,@+id/integer_choice_item_image$,855,0.10833333333333334,1,4.0,0.5083333333333334,0,-0.04761904761904745,0
