Topic Index 1,Topic Index 2,Topic Similarity
0,12,2.0
4,17,2.0
1,11,1.0
2,0,1.0
3,7,1.0
5,1,1.0
6,2,1.0
7,10,1.0
8,4,1.0
9,16,1.0
10,13,1.0
11,18,1.0
16,19,1.0
12,3,0.0
13,5,0.0
14,6,0.0
15,8,0.0
17,9,0.0
18,14,0.0
19,15,0.0
