Topic Index 1,Topic Index 2,Topic Similarity
16,15,3.0
0,3,2.0
4,0,2.0
5,5,2.0
6,9,2.0
7,2,2.0
8,18,2.0
11,16,2.0
1,1,1.0
3,7,1.0
10,8,1.0
12,10,1.0
13,4,1.0
14,17,1.0
15,6,1.0
17,11,1.0
18,12,1.0
2,13,0.0
9,14,0.0
19,19,0.0
