Topic Index 1,Topic Index 2,Topic Similarity
1,1,2.0
5,3,2.0
7,6,2.0
9,19,2.0
12,5,2.0
13,4,2.0
15,10,2.0
0,2,1.0
3,17,1.0
4,13,1.0
6,8,1.0
8,15,1.0
11,9,1.0
14,7,1.0
17,0,1.0
18,11,1.0
19,12,1.0
2,14,0.0
10,16,0.0
16,18,0.0
