this way the cannot collect data i force on the lock by using another and put stumbler in background,b,2014-12-07,,5
please fix,b,2014-12-07,,5
help to cover the world,o,2014-12-07,Olivier Sessink,5
on order for it to i have to restart the,b,2014-12-02,Chris Rawson,3
thank you for creating an open location platform for future,o,2014-11-28,Debarun Banerjee,5
you care about open source being location we need this,b,2014-11-28,Aryan Ameri,5
please download and support,b,2014-11-28,Aryan Ameri,5
