Topic Index 1,Topic Index 2,Topic Similarity
10,0,0.040499999999999994
16,1,0.0115
19,9,0.01
8,10,0.009899999999999999
3,4,0.008400000000000001
13,12,0.008
1,5,0.0078
7,6,0.0051
18,17,0.0045
4,2,0.004200000000000001
0,8,0.0028
2,3,0.0
5,7,0.0
6,11,0.0
9,13,0.0
11,14,0.0
12,15,0.0
14,16,0.0
15,18,0.0
17,19,0.0
