Topic Index 1,Topic Index 2,Topic Similarity
6,0,3.0
11,1,3.0
1,2,2.0
12,3,2.0
0,4,1.0
4,5,1.0
7,6,1.0
9,7,1.0
13,8,1.0
14,9,1.0
15,10,1.0
16,11,1.0
18,12,1.0
19,13,1.0
2,14,0.0
3,15,0.0
5,16,0.0
8,17,0.0
10,18,0.0
17,19,0.0
