Topic Index 1,Topic Index 2,Topic Similarity
0,0,3.0
7,11,3.0
1,6,2.0
2,9,2.0
13,17,2.0
14,14,2.0
16,16,2.0
18,2,2.0
3,5,1.0
4,3,1.0
5,12,1.0
6,13,1.0
9,18,1.0
11,4,1.0
12,19,1.0
8,1,0.0
10,7,0.0
15,8,0.0
17,10,0.0
19,15,0.0
