Topic Index 1,Topic Index 2,Topic Similarity
14,4,4.0
3,2,3.0
10,12,3.0
16,0,3.0
2,9,2.0
4,14,2.0
6,3,2.0
7,17,2.0
8,18,2.0
9,5,2.0
15,8,2.0
18,16,2.0
0,11,1.0
1,13,1.0
5,1,1.0
12,19,1.0
13,6,1.0
19,7,1.0
11,10,0.0
17,15,0.0
