Topic Index 1,Topic Index 2,Topic Similarity
0,13,4.0
9,9,3.0
16,12,3.0
1,6,2.0
4,1,2.0
5,0,2.0
6,7,2.0
10,10,2.0
11,19,2.0
12,16,2.0
13,3,2.0
14,15,2.0
2,4,1.0
3,17,1.0
7,18,1.0
17,5,1.0
18,11,1.0
8,2,0.0
15,8,0.0
19,14,0.0
