Topic Index 1,Topic Index 2,Topic Similarity
14,17,1.7049999999999998
16,1,1.4313
7,11,1.3409
3,4,0.9138000000000001
12,6,0.7829999999999998
6,9,0.7387
13,0,0.5761999999999999
18,5,0.47600000000000015
9,15,0.44999999999999996
17,10,0.3637
11,7,0.3172
19,18,0.2537
15,13,0.20639999999999997
8,8,0.1664
0,2,0.0
1,3,0.0
2,12,0.0
4,14,0.0
5,16,0.0
10,19,0.0
