App,Store,App ID,Review ID,Country,Version,Rating,Date,Author,Subject,Body,Translated Subject,Translated Body
PinDroid,Google Play,com.pindroid,Z3A6QU9xcFRPRzZLaUlkanhzLUlyUTdhRDdISVlWRXNrenZXV2tJekFRcE9uMVJYNVJqdnh1QjNGNTZVTzFIZHB3WVNPdE5UZF82SG9Fc211Nk12MldVM0E,English,,5,2013-04-21,Paul Leclerc,Best Pinboard app on any platform,"I have tried other Pinbaord apps on on devices (iOS, Win8, Android) and this app is the best of all of them. Tag completion, stability, integration... all done excellently!",,
PinDroid,Google Play,com.pindroid,Z3A6QU9xcFRPSHpJNWJyZDMzT1BkN2ZwUWxQVnNYdkNxWmhrbHAycUNlRDFxRzUtYy11YS1ZWHlSSE1nbGxxWmxWM2lkekJqVmNwU0VsUjU1YWNuUV9Scmc,English,,4,2013-04-20,Sadie Gecke,"Very convenient, useful.","Truly appreciate this app. Thank you. Please, continue the updates.",,
PinDroid,Google Play,com.pindroid,Z3A6QU9xcFRPRU9CbEJXRTJsUVJkSEpQSWVQdGtVLWJlZnBrMW1LZGQtQnRDbmxyUTIxdnRjRUl5dDBOMzhmV2I2MzNuUkRLZVEzNFpRRnNNd1IxN044bFE,English,,5,2013-04-19,Demetris Kikizas,I like it!,"I use PinDroid lightly, mainly to bookmark stuff when I am on my tablet, but I like it because it is transparent. I does its job without getting in your way — sometimes I forget I have an extra app for Pinboard.",,
