Topic Index 1,Topic Index 2,Topic Similarity
2,13,1.9223999999999999
9,5,1.4620000000000002
7,4,0.6890000000000001
13,11,0.6656
0,0,0.0
1,1,0.0
3,2,0.0
4,3,0.0
5,6,0.0
6,7,0.0
8,8,0.0
10,9,0.0
11,10,0.0
12,12,0.0
14,14,0.0
15,15,0.0
16,16,0.0
17,17,0.0
18,18,0.0
19,19,0.0
