# deletions,date,commit message
25,2014/3/18,fix bug with presences with no resource attached
1,2014/3/18,sub module to migrated to upstream
15,2014/3/16,bug fixes with leaving muc on connection loss.
2,2014/3/15,prepared release
59,2014/3/15,better muc invitations. clearified the creation of ad hoc mucs with an alert dialog
81,2014/3/15,muc invites in conference details
51,2014/3/15,muc creation
58,2014/3/15,changed layout a bit in messages
37,2014/3/15,added security indicator on every single message
31,2014/3/14,renaming conferences over conference details
69,2014/3/14,use conference subject to identiy room
16,2014/3/14,added display of own fingerprint
2,2014/3/14,fixed logic bug with cleaning of presences
4,2014/3/14,nick name more persistant than ever before
1,2014/3/14,workaround for some weird clients sending empty string over otr
40,2014/3/14,fixed problem with null messages. added ask again button
1,2014/3/13,removed log output
7,2014/3/13,bug fix
67,2014/3/13,sharing text
1,2014/3/13,fixed logic bug where presences where cleared to early
29,2014/3/13,start converstaion from address book (sendto)
15,2014/3/13,finished registration
1,2014/3/13,merged openkeychain
16,2014/3/13,removed unnecessary uihelper method
1,2014/3/13,fixed bug where one couldnt short click to edit in the account list
12,2014/3/13,ui for registry.
132,2014/3/13,contact picture generation centralized + basic registry stuff
40,2014/3/12,added server info and deal with thi 'connecting...' bug
16,2014/3/12,fixed #9
2,2014/3/12,fix for otr problems
18,2014/3/12,make conference notificaton optional
6,2014/3/11,display contact picture in notification
1,2014/3/11,possible fix for #9
3,2014/3/11,fixed bug with disabling accounts
13,2014/3/11,cleaner/better logging
186,2014/3/11,ping stuff
122,2014/3/10,basic stream managment functionality
3,2014/3/11,cleanup
1,2014/3/10,fixed null pointer
11,2014/3/10,another possible fix for notificationgate
1,2014/3/09,merged new openpgp-lib
27,2014/3/09,cleanup
3,2014/3/09,possible null pointer fix
12,2014/3/08,couple of otr related bug fixes and basic ping
1,2014/3/08,fixed #4 - this happend when you would archive (leave) the last conversation
61,2014/3/08,last part. update notification if user reads them
17,2014/3/08,step two towards nicer notifications. mark read if carbon arrives
22,2014/3/08,first step towards nicer notifications
4,2014/3/08,roster version bug
2,2014/3/08,default notification sound
3,2014/3/08,cleanup
2,2014/3/08,updated openpgp api
27,2014/3/08,fixed #3
14,2014/3/08,fixed a couple of pgp bugs
20,2014/3/07,ported subscription stuff from old contact dialog
13,2014/3/07,made untrust certificate warning more beautified
12,2014/3/07,ui fixes for tablets
39,2014/3/07,tls exceptions for untrusted certs
3,2014/3/06,api updated
8,2014/3/06,ssl shit
1,2014/3/06,display keys in contact details
1,2014/3/06,api bug fix
28,2014/3/06,more details connection error messages
13,2014/3/06,bug fixes
32,2014/3/06,bug fixes. stuff more smoother
113,2014/3/06,user alarmmanager to reschedule wakeups instead of just sleeping
13,2014/3/06,start service on boot
1,2014/3/05,merged open-keychain
2,2014/3/05,two bugs on tablet fixed
1,2014/3/05,rename in project file
239,2014/3/05,remove gen dir
2,2014/3/05,antifizieren
23,2014/3/05,added files to gitignore
398,2014/3/05,reworked contact details
1,2014/3/04,leaving mucs works
51,2014/3/04,more workaroud for ejabberd bugs
216,2014/3/04,Muc Options even more awesome
33,2014/3/03,avoid some null pointers when pgp api is not installed
127,2014/3/03,api changes. muc options
23,2014/3/01,hover effect
7,2014/2/28,updated readme as well
278,2014/2/28,rebranding
15,2014/2/28,fixed a small graphic glitch
54,2014/2/28,made pgp decrypt stuff a little bit more bearable
77,2014/2/28,basic pgp support.
75,2014/2/23,add contact to roster if a new conversation is created
2,2014/2/23,updated readme
12,2014/2/22,bug fixes for faulty roster fetch and otr bug between two sc instances
34,2014/2/21,subscription mgmt works
2,2014/2/21,fixed broken bitsets
79,2014/2/20,adding and removing roster items now possible. basic error display on error messages
25,2014/2/19,more speed optimizations
289,2014/2/19,roster versioning. roster updates on air. performance fixes in conversation listview
48,2014/2/16,made presences chooser. raw draft. just kinda works
176,2014/2/16,show unknown otr fingerprint warining
113,2014/2/13,basic otr support
46,2014/2/11,offline messages
7,2014/2/11,conference histories are now working. only the actually needed history is queried
3,2014/2/10,small bugfix. messages were not marked as read when conversation was open
37,2014/2/10,reworked notification a bit
55,2014/2/10,fixed a bug where account options where toggled instead of set off. fixed null pointer for missing selfi. made sefli optional
136,2014/2/10,contact badges
94,2014/2/09,carbons
7,2014/2/09,center status
86,2014/2/09,made contact details a little bit more pretty. more colors
6,2014/2/09,send messages in mucs are no longer displayed twice
116,2014/2/09,presences are now somewhat stored and displayed to the user via the contact details action.
100,2014/2/07,reworked new conversation activity again. less asking more knowing. mucs are now connected on creation of the conversation. no reconnect required
2,2014/2/07,wrote the scariest code ever to fetch srv records from dns. todo use real dns servers and dont hard code 8.8.8.8
86,2014/2/07,refresh contact list
176,2014/2/05,basic muc support. reworked contact list stuff
161,2014/2/04,reworked edit account dialog. advanced options are now gone. tls option available instead
44,2014/2/04,delete account code now accessible again
33,2014/2/04,allow to temporarily disable accounts
159,2014/2/04,reworked account managment. now status display actually works
237,2014/2/03,basic notifications
8,2014/2/03,fixed a bug in xml parsing
60,2014/2/02,tls is no optional
3,2014/2/02,will update messages on conversation update as well
75,2014/2/02,fetching roster. fixed sending messages as type chat
64,2014/2/01,more cleanup. more listeners
113,2014/2/01,more code cleanup for xmpp parser. more eventy. nice unknown contact pictures
13,2014/1/31,parser works but some stuff still needs some refactoring
1,2014/1/30,first draft on xml parser and communication. a long way to go. code definitly not perfect. will refactor asap
26,2014/1/29,added foreign keys constrains. old conversation will actually be removed now like the ui claims
37,2014/1/28,ui flow for first startup with no existing account
259,2014/1/28,refactored newconversationactivty to use array adapter
81,2014/1/28,account management
116,2014/1/27,conversation archiveable. new conversation will find or restart old conversations
79,2014/1/26,chat bubbles. yeah
273,2014/1/25,all access to the persistance layer is now done via the new xmppservice
160,2014/1/24,basic persistance layer. refactor some parts of the conversation activity
52,2014/1/24,clean up
1,2014/1/24,removed some files
93,2014/1/24,removed unneeded files
162,2014/1/24,some history fixes
