# deletions,date,commit message
8,2016/6/19,display toast on pgp error
1,2016/6/19,remove ascii control chars when creating xml
0,2016/6/17,updated screenshots in README. fixes #1580
3,2016/6/16,don't fail on missing jid in bookmarks
1,2016/6/16,don't handle chat states in muc or from archive
1,2016/6/16,show toast when connection to openkeychain could not be made
1,2016/6/16,log download failure caused by missing content length
4,2016/6/16,mark used otr fingprint in contact details and highlight pgp
68,2016/6/16,synchronize message body changes for message correction
1,2016/6/16,extract relevant extension from file name when processing share intent
1,2016/6/15,pulled translations from transifex
9,2016/6/15,only dismiss sent message after encryption
22,2016/6/15,delay notification until after pgp decryption
5,2016/6/15,log all fail reasons
1,2016/6/15,show xep-0172 nick only for contacts with mutual presence subscription
1,2016/6/14,clear muc tiles when avatar of member changes
9,2016/6/14,sort muc users by affiliation name. fixes #1913
21,2016/6/14,synchronize access to stanza queue
4,2016/6/13,remove messages from decryption queue when trimming a conversation
19,2016/6/13,make sure tagwriter is clear before force closing socket
340,2016/6/13,refactored pgp decryption
2,2016/6/13,version bump to 1.13.1 + changelog
