# deletions,date,commit message
5,2016/4/09,introduced setting to turn of notification led
4,2016/4/09,update gradle and gradle plugin
13,2016/4/09,use startdate as lower bound when querying archive with after=x
1,2016/4/09,don't show contact details when in conversations with self
7,2016/4/09,use last received message id when querying archive
6,2016/4/09,transform nimbuzz workaround into a more general 'waitForDisco' condition
1,2016/4/08,add required disco#items query to timeout list
1,2016/4/08,increase version code to fix nasty bug in 1.11.5 beta
3,2016/4/08,removed ernoexception in exchange for a regular exeption to prevent verify error on <5.0
2,2016/4/08,version bump to 1.11.5 + changelog
3,2016/4/08,pulled translations from transifex
