# deletions,date,commit message
2,2015/2/12,version bump to 1.0.3
2,2015/2/12,load messages asynchronously
5,2015/2/12,use time instead of uptime for unmute
1,2015/2/10,added actions to error notification
6,2015/2/10,strip fractional seconds from timestamp before parsing
2,2015/2/09,version bump to 1.0.2
1,2015/2/09,disabled cipher logging
6,2015/2/09,always add a non resolved SRV record to the list
1,2015/2/09,made delay timestamp parser accept nano seconds
3,2015/2/07,sort users in muc
3,2015/2/07,trim message bodys on display
82,2015/2/07,refactored how snackbar is displayed
9,2015/2/02,Use platform ciphers as well just prefer ours
2,2015/2/02,version bump
3,2015/2/02,don't disable any ciphers
1,2015/2/02,added more ciphers for old openssl versions
