# deletions,date,commit message
4,2015/4/29,added config option to be a bit more verbose about stanza counts
1,2015/4/29,pulled translations from transifex
2,2015/4/28,version bump to 1.3.0-beta
3,2015/4/28,npe check after reading image uri
0,2015/4/28,adjust dimens slightly to work with v21+ (v21 doesn't count the navigation bar)
7,2015/4/28,increased padding on image buttons on v21 to match material guidelines
20,2015/4/28,made material icons smaller (24dp)
4,2015/4/28,fixed npe when rotating screen in contact details activity
6,2015/4/28,print stack trace on io error
1,2015/4/28,escape nick in highlight regex pattern
1,2015/4/28,revert undo timeout to a more reasonable value
2,2015/4/27,increased padding around switches in manage accounts
4,2015/4/26,use xmppserviceconnection to send iq packets in jingle connection
2,2015/4/26,hard code bitmap configs
23,2015/4/26,added changelog. removed deprecated todo list
2,2015/4/26,version bump to 1.3.0-beta
3,2015/4/26,pulled translations from transifex
30,2015/4/25,fixed service discovery by properly storing and checking identities
71,2015/4/25,cleaned up file handling
6,2015/4/21,OTR: Fix onContactStatusChanged & dont archive OTR  - Fix session handling on contact status change: Do not reset potentially active sessions; check peer's OTR-resource on disconnect - use no-permanent-store hint instead of no-store to ensure finished messages are delivered to offline/disconnected clients - add no-permanent-store to ask compliant servers not to archive OTR messages
12,2015/4/21,fixed direct invites
8,2015/4/21,added missing translations from transifex
3,2015/4/20,pulled latest translations from transifex
1,2015/4/20,added reference to the location plugin to README
1,2015/4/20,added amazon app store link (us store)
19,2015/4/20,removed some dead code
3,2015/4/20,fixed weird touch on snackbar switched conversation bug when touching the border of the snackbar or more precisely the space between the input field and the snackbar Conversations would switch into a random conversation for yet unknown reasons.
4,2015/4/19,some code clean up to fix some rare NPE’s
5,2015/4/19,Add option to remove manually approved certificates  - "Remove certificates" option brings up a dialog that allows to delete certificates from MemorizingTrustManager's keystore - Reconnect active accounts when certificate-settings are changed - new preference category "Certificate options"
1,2015/4/17,increased undo delay
2,2015/4/16,fixed a bug in DNS helper code. fixes #1130
2,2015/4/16,fixed a bug in DNS helper code. fixes #1130
2,2015/4/15,bumped version to 1.3.0-alpha
1,2015/4/15,some bug fixes concerning 0byte files. fixes #1126
18,2015/4/14,maintain state when rotating settings activity
5,2015/4/14,always show save button when account info was modified. fixes #918
8,2015/4/13,fixed disable account when sliding and not clicking the toggle
2,2015/4/13,fixed typos
10,2015/4/13,Bugfix for issue #1121  check with lowercase to also match JPEG JPeg ...  changed image url in comment
1,2015/4/13,Maintain private chat on MUC. fixes #1097
13,2015/4/13,fixed regression where the selected conversation wasn't highlighted anymore on tabled layout
4,2015/4/02,Add option to use MTM without default TrustManager  Add a new "Don't trust system CAs" preference under advanced options that will change the behaviour of the MemorizingTrustManager. All formerly unknown certificates will raise a warning if checked.
59,2015/4/11,allow sharing multiple images at once. fixes #1090
7,2015/4/09,don't resume old session when changing resource
71,2015/4/03,Enable end-conversation by swipe gesture  Add EnhancedListView library de.timroes.android:EnhancedListView:0.3.4 to enable swipe-out for ListViews  Re-enable selectableItemBackground  Dont end selectedConversation on swipe  Call mConversationFragment.reinit() instead. Add separate undo string for swipe MUC.  Add blacklistedConversation for undo swipe  Update title_undo_swipe_* strings  Fix undo() rename blacklistedConversation  Fix discardUndo(); re-init selectedConversation  maintain scroll position after undo  clear notification when dismissing a conversation  modified / simplified maintain scroll position code  simplify handling of selectedConversation  change undo_muc string remove notifyDataSetChanged()
1,2015/4/01,do not overlap account title and switch
15,2015/4/01,pulled translations from transifex
18,2015/4/01,Fix OTR-Error messages  Send out OTR-Errors on unreadableMessageReceived() as well not only on messageFromAnotherInstanceReceived
16,2015/4/01,Add toggle account-state switch  Add a switch to AccountAdapter that allows self-contained enabling/disabling of accounts without the need to bring up the context-menu
2,2015/3/22,bump version code
