App,Store,App ID,Review ID,Country,Version,Rating,Date,Author,Subject,Body,Translated Subject,Translated Body
Conversations (Jabber / XMPP),Google Play,eu.siacs.conversations,Z3A6QU9xcFRPRllZdnljbVNZVDFpVkh2UTY3MW5uQV9BMWxDUzFCTFNhZHhJYlNkcDlCQS1yWFUzMUduZ21CUG45c2F6cElPb2NjaWpaaEE3WlhtYy1lZ0E,English,,5,2014-09-22,Tobi,"",Great App,,
Conversations (Jabber / XMPP),Google Play,eu.siacs.conversations,Z3A6QU9xcFRPR1ZJNWc0RjRKRnJrZ2xiN3YwbWJ1RXNEc25vSmNubGRZN3c0R3RaWmFBeU9iZzRHQzgwa01XNXc4WVdOQzBlR3h5VE9WSTFuemY4RGlvRWc,German,,2,2014-09-18,Alexander Skwar,Kein Aus? Fehlt noch etliches. Bad attitude of dev.,"Sieht nett aus, das war's aber im Grunde auch schon. Es fehlt die Möglichkeit, den Client richtig zu beenden. Es fehlt die Möglichkeit, Online Status zu setzen - zwar gibt es sowas wie Carbon Messages, aber das ist keineswegs ausreichend. Auch kann man keine ""Priorities"" für die einzelnen Stati setzen. Durch all das wird das Zusammenspiel mit anderen Clients, die man vlt. noch nutzen mag, extrem erschwert. Also, da fehlt noch so einiges..  Und besonders erschwert wird all das auch noch durch das besserwisserische Gehabe des Dev.. Schert sich nicht wirklich um solche Use Cases und glaubt, besser zu wissen, wie Leute ein solches Werkzeug einsetzen möchten.   Bei all dem hilft das gefällige Aussehen nicht wirklich weiter.",,
Conversations (Jabber / XMPP),Google Play,eu.siacs.conversations,Z3A6QU9xcFRPSEhkV01vMkVCM1RJTmxtUlBIR2ZjSGttaGJtYWdXYWY0X012dWdrM1dTODhRSXBkc2FEWmZwZF80RUN1YXdEQnVEYVc5NzJIa0dkYnRjRXc,German,,5,2014-09-14,Peter Schlager,Wird immer besser,"Rein optisch und funktional unter den besten XMPP Clients die verfügbar sind. Läuft tadellos ""always-on"" in Hintergrund und ist auch von mehrmaligen Netz Wechsel und Abbrüchen nicht zur Aufgabe zu bewegen. Dadurch perfekt für nicht so Technik affine Benutzer geeignet. Username und Passwort eingeben und danach nur mehr sorglos chatten. Perfekt wäre noch Integration von Bild Transfer zu nicht Conversations Clients beziehungsweise ohne OTR Data.",,
