App,Store,App ID,Review ID,Country,Version,Rating,Date,Author,Subject,Body,Translated Subject,Translated Body
Conversations (Jabber / XMPP),Google Play,eu.siacs.conversations,Z3A6QU9xcFRPRUdfdW9NZ0NCVFRyV25TNVU1Skc4clVJY2gxSzZ2dFNQLUtROU9VNUFCRGd0ZDFBZ203d3kwa1dWRHBMZGVZSk04VXdzU19VQ050bFFXN2c,English,,5,2014-09-10,Filias Heidt,Finally!,Finally a great and usable XMPP-Client. And its even OpenSource! Thank you so mich for making Theiß!,,
Conversations (Jabber / XMPP),Google Play,eu.siacs.conversations,Z3A6QU9xcFRPRlY1N1FTMkZUSlEwUUFzaDB5YWU2ODFhRmI4blZXbkJJWWlTNUhBVEZHblhkbTE1d3Z0SnF3NnNPYm1PWkQyeXBpZzRlSWkyNDVLZVlhTnc,English,,3,2014-09-09,Erin Conn,"Shows promise, but missing key features","Joining conferences works better in this app than any other android XMPP client I've tried, but I'm missing the ability to sign out, manually set my own presence, and use my server-side contact groups. I'd also like the option to NOT have the app start on boot. I use this to connect to my work IM on my personal phone and I don't want to appear online outside my work hours.",,
Conversations (Jabber / XMPP),Google Play,eu.siacs.conversations,Z3A6QU9xcFRPRmxYN3BjVVdqeFA1VS1CU244VHJVcUxtWnp5dVduSWoyejBQd2RQcE1qUk92dDRMQk9sUlFWZmxIY2NwSkxESDJaVmJhd2pUZjB0NG1ub3c,German,,4,2014-09-09,Tobias Rohde,Super App,Klasse XMPP Client. Lieder sieht man aber nicht den Onlinestatus der Kontakte.,,
