App,Store,App ID,Review ID,Country,Version,Rating,Date,Author,Subject,Body,Translated Subject,Translated Body
Conversations (Jabber / XMPP),Google Play,eu.siacs.conversations,Z3A6QU9xcFRPRzc0Uk5WeWJUbkphQkVQZUQ5WXBfMDJiUVB3Qy1PYi10bUkwOWZ0a2NfRHFhWG04T0RsYVhXVnZ6b1dzQ0NISkZHOUlkbG1LT081WWtZX3c,English,,4,2014-03-26,Mike Hamilton,Looks great,"Looks and works great!  It would be nice to have the ability to strip html formatting from incoming messages.  Some other clients send it by default and it's a horrible mess of raw html in Conversations.  I'd also like to be able to send pictures, preferably with the image being encrypted as well (not sure how that works with OTR, though)",,
Conversations (Jabber / XMPP),Google Play,eu.siacs.conversations,Z3A6QU9xcFRPSHZnS21teDM2WDc2aTI0MnFPamxBcHlQdHQ2YU1jTElwM19SV1pWUnFZQnkzMk5wZmE3VHpocVMyemNFM3A2SW85TjI4LTM5TEY4N00xYmc,English,,5,2014-03-26,Ryan Revels,Great UI and nice features,"The support for message carbons is huge! The UI is great (though can we request a dark theme?). Also, is there a way to group the contact list by status and/or roster group?",,
