App,Store,App ID,Review ID,Country,Version,Rating,Date,Author,Subject,Body,Translated Subject,Translated Body
Conversations (Jabber / XMPP),Google Play,eu.siacs.conversations,Z3A6QU9xcFRPRmtsLWptMkt6ZmU3MVNCZ0MtTFNiUkkxUEhYaldMS2V4TEhhYzA3RjVWeFdpRU02b0pPcW9ZMG1WOGNlS0t5Qm03U1ZtMF9mUlpITUhWLWc,English,,5,2015-08-28,"",Wonderful,Great design and use of the XMPP protocol. I wish there were more clients like this.,,
Conversations (Jabber / XMPP),Google Play,eu.siacs.conversations,Z3A6QU9xcFRPRVNNU1hCOE5zZ3VYV3p6MUdfRnBZUl82VmFvVldvYnEzVmFKbVlWX2hTUVlvTXBQelpMNm55U2tJYmpybnBYOERISFViT3R2REpVVjNZMUE,English,,5,2015-08-28,"","",Best Client Ever,,
Conversations (Jabber / XMPP),Google Play,eu.siacs.conversations,Z3A6QU9xcFRPSDdFa2FFZzlRVDMzZ3NkUTV1a0xyY1U2X0hRUk9NNmwzTWdOYkc2U2UtY2ZSMHhlcjVZMHVVeC1JT1ltdllmVTBPN3FKQlhFQXBNQlFIaUE,Finnish,,5,2015-08-28,Nita Vesa,"",No real complaints. I just wish it supported gif-animations. Those are great for making chats a bit livelier.,,
Conversations (Jabber / XMPP),Google Play,eu.siacs.conversations,Z3A6QU9xcFRPSFBjcGxNUllDOHFIbmdzRmN2cVpjZFk4XzFGcnMySXR2RGkwVUZFNkVMTUloY1FRNVVQM3ZiNGRpMWVvaXBNZXExTGtGclU5WUlyQkRDdFE,German,,5,2015-08-31,Dennis Groß,Der beste XMPP-Client für Android,Mit passendem XMPP-Server sehr Akkuschonend. (ejabberd 15.07 mit Stream Management und Client State Indication) Der Versuch mit OpenFire war eher eine Katastrophe was den Energieverbrauch angeht.,,
