Topic,Words
0,0.116*the,0.096*version,0.087*browse,0.083*how,0.077*you,0.076*to,0.074*previous,0.065*good,0.063*later,0.056*do
1,0.244*just,0.167*in,0.145*the,0.080*version,0.070*to,0.061*from,0.056*good,0.053*you,0.032*browse,0.021*update
2,0.219*how,0.122*forums,0.106*later,0.094*previous,0.074*posts,0.074*update,0.053*good,0.053*you,0.046*in,0.041*the
3,0.256*to,0.146*from,0.136*good,0.096*you,0.081*version,0.063*previous,0.059*do,0.058*update,0.024*how,0.016*browse
4,0.187*you,0.177*forums,0.129*previous,0.100*how,0.096*good,0.059*version,0.057*do,0.049*from,0.038*update,0.037*in
5,0.175*version,0.154*you,0.149*to,0.097*forums,0.072*from,0.064*how,0.053*update,0.049*later,0.040*in,0.038*just
6,0.247*posts,0.156*how,0.149*later,0.132*to,0.078*just,0.074*in,0.056*update,0.056*from,0.015*good,0.012*browse
7,0.265*version,0.106*you,0.098*forums,0.073*how,0.072*to,0.070*previous,0.068*the,0.058*in,0.050*from,0.035*posts
8,0.219*version,0.212*you,0.117*do,0.068*from,0.067*how,0.067*the,0.056*just,0.052*update,0.046*previous,0.034*browse
9,0.237*update,0.140*the,0.096*browse,0.093*version,0.090*from,0.066*later,0.048*do,0.046*in,0.045*just,0.031*forums
10,0.224*to,0.162*forums,0.122*later,0.111*just,0.070*you,0.068*in,0.045*the,0.034*how,0.031*browse,0.027*previous
11,0.194*previous,0.157*to,0.143*the,0.108*version,0.087*in,0.077*forums,0.055*update,0.052*how,0.035*browse,0.032*from
12,0.173*to,0.173*do,0.099*the,0.092*good,0.083*previous,0.079*just,0.050*posts,0.049*you,0.043*in,0.040*browse
13,0.111*previous,0.109*update,0.086*to,0.083*do,0.081*good,0.076*posts,0.072*later,0.067*just,0.058*you,0.052*the
14,0.273*version,0.245*to,0.091*update,0.063*good,0.060*forums,0.050*browse,0.040*just,0.037*posts,0.027*in,0.022*from
15,0.179*do,0.115*you,0.115*browse,0.101*to,0.091*from,0.083*good,0.069*forums,0.053*previous,0.038*the,0.037*version
16,0.212*browse,0.099*forums,0.097*from,0.077*previous,0.075*do,0.075*good,0.067*how,0.067*later,0.064*version,0.063*you
17,0.239*previous,0.195*do,0.147*to,0.072*from,0.061*version,0.060*browse,0.053*forums,0.048*later,0.037*you,0.029*the
18,0.490*you,0.081*posts,0.049*forums,0.047*to,0.046*how,0.045*from,0.045*the,0.039*browse,0.038*in,0.033*good
19,0.214*version,0.147*browse,0.115*how,0.103*the,0.092*previous,0.084*forums,0.065*update,0.044*do,0.041*in,0.037*just
