# deletions,date,commit message
6,2013/6/05,Updating aphabetise_tasks pref to default false  To avoid having the app update rearrange tasks.
2,2013/6/02,Add: getting the ID of the first task should also consider sort
1,2013/6/01,(not sure what this does so on a separate commit)
7,2013/6/01,Add: use preference in Database.getTasks(boolean)
75,2011/10/22,Update to Android 2.1; Adding hours count
0,2011/1/12,Adding 'high-res' icon
41,2011/1/12,Adding version to AndroidManifest.xml; update for new sdk
39,2011/1/05,Adding Send Email option
18,2010/12/07,Adding comment
1,2010/12/06,Bug fix
3,2010/7/21,Fix for initial load with no data
28,2010/7/21,Changing license to GPLv2
8,2010/7/21,Fix to center text
39,2010/3/18,Adding preferences and export  Added preferences for start of work week and whether to show only billable tasks.  Also added Export to CSV menu option which writes to the SD card.
30,2010/3/10,Added preference for start of week
7,2010/2/13,Initial Task Edit functionality.  Written on a plane untested.
1,2009/10/21,Changes to about box
16,2009/10/21,Added icons bug fixes
44,2009/10/14,Fixed weekly layout
1,2009/10/13,Bug fix
188,2009/10/09,Initial MergeAdapter work; com.aaronbrice -> com.tastycactus
30,2009/10/05,Hide tasks instead of deleting if there are time entries for the task
139,2009/9/28,Added totals view
83,2009/9/22,Initial weekly data view
2,2009/9/12,Added short-click time entry edit
7,2009/9/09,Fixes for editting time entries
33,2009/8/26,Initial time entry edit support
4,2009/8/10,Cleaned up imports
29,2009/8/05,Preliminary help page
5,2009/7/31,Initial working week display
6,2009/7/25,On a plane; no ant; can't test
20,2009/5/30,Changed time entries to TabActivity; Added button to select day on By Day tab.
31,2009/5/25,Linked task list selections to new time entries
8,2009/5/23,Added Activities for displaying and adding time entries
7,2009/5/10,Added TimesheetActivity TaskEditActivity TimesheetDatabase.  Working application for selecting a task adding new tasks and deleting tasks.
10,2009/5/10,Removed local.properties
