App,Store,App ID,Review ID,Country,Version,Rating,Date,Author,Subject,Body,Translated Subject,Translated Body
Battery Indicator,Google Play,com.fulminesoftware.batteryindicator,bGc6QU9xcFRPRmptQlpUTF8yRzRhX2lsaVhqRkJndWh1UzljNno3cTI4Y0gxbHhzY2VpN29mSGdzSnJLN0ROMU9NMkxvVlI5VEZpZy1CS3hZeERyLXhEbFp3,English,,5,2015-04-30,A Google User,Battery app,Good looking app. Nice!,,
Battery Indicator,Google Play,com.fulminesoftware.batteryindicator,Z3A6QU9xcFRPRlh0bjZnUmlzZURwUXNkVmpTdGt5LWRCZFJkV2EteGYwaDBoMS05cjRFMkJrTURjRUxpOVBqLVotcVNQNHZfVm9BSlZqQ0pKZUFGRGRoRDl3,English,,5,2015-04-30,Chris Rackham,Love it,"Awesome app, very cool graphics, and has all the info you need regarding the status of your battery, the lifeline of your device!",,
Battery Indicator,Google Play,com.fulminesoftware.batteryindicator,Z3A6QU9xcFRPRnZ3ZmZuU2U5SDh6TlhvMUlBU0I3ejl5SGJRTXR3OUdtLTVlcjNBMXRlS01fSjY1cWlnTGs5dmZpOTZZdFFLV29pSlo3VDRGejh0M29qNUF3,English,,5,2015-04-29,murali .s,samsung galaxy s2,its not jus a app its battery indicator,,
Battery Indicator,Google Play,com.fulminesoftware.batteryindicator,Z3A6QU9xcFRPRjFJRzFCOEY2WGNCaTVyOEhWU2syS1lsX1RiSTlJd29oUGNjQ3lJUkFhbGdhNkxJdktVSy1nMGRGVUZRM2RrVE5nR2pOMGJ1UkJSYjdGTWJF,English,,5,2015-04-26,TAREK KILANI,"",I have been waiting long time for such app.it's really what I want amazing...,,
Battery Indicator,Google Play,com.fulminesoftware.batteryindicator,Z3A6QU9xcFRPRXlRRHV5alRGd2JidTRoSlhyOGE3OTNZY0oxYlFGLTktQUZRSUNzTWRLOC1RR2FxMjR1Qm9BMVZ4RjIwOS1yTTY5dUFHb2ZEM2dwVGdtS1Uw,English,,5,2015-04-25,جمشید کاویان,"","",,
Battery Indicator,Google Play,com.fulminesoftware.batteryindicator,Z3A6QU9xcFRPR1BiV1lrWFJzYlFoc2stYkdZOVZpcXBoZWxzSDd0RjY0Z2k0YTNrenIwUjR6UUc5SWpkWUYyNGU4SWsyNkk1YmZqSy1oNVl2d1hwN3V1U0RJ,English,,5,2015-04-25,LilMarthaann Moore,"",It's a very good app,,
Battery Indicator,Google Play,com.fulminesoftware.batteryindicator,Z3A6QU9xcFRPRXItaHl2UWlscTkwQlplb2hNOTJyMmp1YjhnYUozX1JDMnhuWHJUQUdCYlF0MWtNOUZnczVZLTFrdWx2WTc0LVZ1Nl9BUzFMYXpOajdMaTd3,English,,5,2015-04-24,Irina Heeres,Beste app aller tijden!!!,"Geweldig hoe je met deze app alles kan aanpassen naar eigen wens/smaak, kleuren en niveaus aanpassen van batterij informatie, veel ondersteunde talen, informatie in de statusbalk!! Alles aan deze app is geweldig!!! Als ik 10 sterren kon geven, deed ik het!! Dus bij deze 10 sterren waardering van mij!!",,
Battery Indicator,Google Play,com.fulminesoftware.batteryindicator,Z3A6QU9xcFRPRW5OOHl3RVc1d2ZScGRNODZuRlRoMEpBR0EtbE84blhIbkhpU0RfdVoxSmdXN3FwTlUzNFNoX0ZzSHdZVU9rVGhETDNDQnNtbXlzeWM4ZVV3,English,,4,2015-04-24,Tom Bowman,"",Works great.  Never have a problem.,,
Battery Indicator,Google Play,com.fulminesoftware.batteryindicator,Z3A6QU9xcFRPSEYyMV9FRzZkTFgycFVBc09maE5GUzJma2hYQjM4QjJVSFh2eEtBT2I4Q0JGNHBFWlVTek5PMi05MjBZYS1BbHVZeE1GTzBwY2hVSGlnOUNr,English,,4,2015-04-24,B K Naulakha,"",Good,,
Battery Indicator,Google Play,com.fulminesoftware.batteryindicator,Z3A6QU9xcFRPRmE0M05ydkVWeUhzbWc0QnFreGhGWWk2MEpET3hQNDR4LWV0azRXZThUMHgzbHpGNktWNUNoUm5uS2FXTVk3Tk5VRFJ4Zk1qeXpEekNkZkhZ,English,,5,2015-04-24,Henrique Gomes,Very Good,Perfect,,
Battery Indicator,Google Play,com.fulminesoftware.batteryindicator,bGc6QU9xcFRPRjk3RXpGLUhiQkRKd0NrNE1wRHVhYW9rVGJmT1p6Vkh5RDJwZG1XQmpvVkZzd3FBY2NXSURHU1c0TVJmcmNldVlYZW9DRWxzVG1KbGJ0QUtN,English,,5,2015-04-23,A Google User,Works great on Razr MAXX,Love that it's so easy to customize!,,
Battery Indicator,Google Play,com.fulminesoftware.batteryindicator,Z3A6QU9xcFRPR0FpLVNENl9CakItZGhCcEViSmZJRFJDU2tjakZMd3pZWWh0dDU5Q3AwRGdFWXl2dFBjazdLeHJlR0dYRmpzSlRaN28yV2tYeTl5a3lZZmc0,English,,5,2015-04-22,Rusty Smith,"",Carpet sales,,
Battery Indicator,Google Play,com.fulminesoftware.batteryindicator,Z3A6QU9xcFRPRlZkUkZrU05BMlNEanBFRkhPZ1VlX3BOcmUyX1pTYTU3WlptOEN2VjNkQ2tlSHltcVJHdlI2MVVtVXg1dnlWTlFHRS1oOE8zUm51UjdDOENV,English,,5,2015-04-22,Deusthor Optimus,"",Good,,
Battery Indicator,Google Play,com.fulminesoftware.batteryindicator,Z3A6QU9xcFRPSFFPcEFJM1lJbzR0QUFYcnhKeDBHSU9mbFNqNjNTNlNPaDVub0lfSERueldJcEVzMF9weWVvQ3gtWUFrOEpsY21SblFSZjFyTW9tSmhVU1Nn,English,,5,2015-04-21,Phillip Price,Top Rate.,"This a first rate app and it shows all the relevant information about your tablet battery, this app is certainly worth adding to your tablet or phone.",,
Battery Indicator,Google Play,com.fulminesoftware.batteryindicator,Z3A6QU9xcFRPR21nel9nTjZGZk8tenFBWmNjU2RreGxIX3plMzViOTgtaV9pRERNbHdXM1hJdTMwZURlNTByYXRLYjh1WVZ0N1puQ1BTeldTeWR1MHdXQThr,English,,1,2015-04-21,Heather Fast,Do not download!,"This had good reviews, and I wanted something small to show me how much battery time I have left. As soon as I installed it, things went wrong. All my widgets on my home screen stopped working. I restarted the phone, but it didn't help. Now each time I restart my phone, everything resets and I have to do redo it. I uninstalled it immediately!",,
Battery Indicator,Google Play,com.fulminesoftware.batteryindicator,Z3A6QU9xcFRPRmM0Unp5RU1zeXEwdjhxSU1HYVFIX0FiV19LN0pGWU1uUmlMaUtLdDBWRVl3bG1NSFg5bDZvTGFnd0hvN2FxOHNYemVfMkhrQWRlVnU4RXE4,English,,5,2015-04-19,J.p. Gurjar,Nice,Brileant app,,
Battery Indicator,Google Play,com.fulminesoftware.batteryindicator,Z3A6QU9xcFRPRkNKazZVQ2Z1Zm1BaHZyeUlfZTJHeV9NMWVfVXpQUkoxdnh2VHprU2FnQ3BiVU4wMHVwSmVhYmZRTzhJcldWNnM0OGlLSC05OUZTbFRpdDBz,English,,3,2015-04-18,Marcya Nook,I like it,Quick glance tells me f I need to recharge. Good app!,,
Battery Indicator,Google Play,com.fulminesoftware.batteryindicator,Z3A6QU9xcFRPRXd5cmxIRUUyaWkyVld3R3dJcnVzVVRhd0F1NV9HUDhrcmZTVFJCalhVbFRxT1M2bE9WaHQzdEdrU1lqbUhlSUdtZlhiZ1hoR25kaDlLUUQ4,Korean,,4,2015-04-29,박기성,좋아요,기능이 간단편해서,,
Battery Indicator,Google Play,com.fulminesoftware.batteryindicator,Z3A6QU9xcFRPRzNZcWdwSWZMUkdGYVVkR1lFZG1ENDlJY3duV3IzeGZJUy1DeGJCV20zUXIxX2s2QTRKVkpKVm9nU2t0QmxwTTJOWnJxMkdURUhEaUxEUjI4,Korean,,5,2015-04-26,김선우,좋은 어플,굿,,
Battery Indicator,Google Play,com.fulminesoftware.batteryindicator,Z3A6QU9xcFRPRWhKLUNpQVJ6V0doTjl1ZDAza0xUeDJlV05HcDJmWkdqVWlCOUItWmcxQk1QZ1pqbmRTb2NpMDJmWkNvWFpwZnptNDE1VXZORWlUVHJTNGRR,French,,5,2015-04-27,D.M LM,Excellent,Excellente. La meilleure permis tant d'autres.,,
Battery Indicator,Google Play,com.fulminesoftware.batteryindicator,Z3A6QU9xcFRPRnhmNVFOaUR5UmVvRnR1ZWtmdkRwaHZKMWJybndQZm0wLVhfZm9UYVFYY2NjUlZ6dVZKVk9FbllOSk9qam8yRWhfTlBCYnVXSnk4Vl9IWjBN,French,,5,2015-04-26,Khaled Mahouachi,"",Cool,,
Battery Indicator,Google Play,com.fulminesoftware.batteryindicator,Z3A6QU9xcFRPR1RzVVk1cUxidDhmZW8wRjNqRC1hMmdBUmFRd2I5T2prbkNEeU1iLU5QNXlJdFBTR0hoREc1MTNXWnpUSDBWaXBKd0pSSGZOS2dOZlU4T3NV,Italian,,4,2015-04-22,Silvano Blandino,"",Comoda e ben fatta,,
Battery Indicator,Google Play,com.fulminesoftware.batteryindicator,Z3A6QU9xcFRPRmdjWWpDa1NkZmxsOTZ1WEU5Zlp5dnJoMV91R0xVRmdBQnRadjdUMF9LTzlOa0ZnRm5iTElFYWVodE5HZ0dsZjJubTV1R20tOExlZWRGclRB,Italian,,5,2015-04-18,Piergiacomo Nepote,"",Ottima  !,,
Battery Indicator,Google Play,com.fulminesoftware.batteryindicator,Z3A6QU9xcFRPRkp5NU5NeEFYRzFrWEZ2dWpWamhfUXdLSmJmRGphel8yc0F0bE5mY1FOWkpvMDNjcjRvZnVsTWdLVEcyWHJyY2J2RzRZTVRvOEhDZmN5RFFN,Czech,,5,2015-04-30,Daniel Mudry,Ok,Ok,,
Battery Indicator,Google Play,com.fulminesoftware.batteryindicator,Z3A6QU9xcFRPSDdsaVhSckpXNEZJdUNhV3ZBUGNJOHZZeXhKb1lTRXcyelFzS3NVQURrS21pZ3ZBZ3VwSnZWNzIyVXB2ZVc5SUQzQjlHVkx1LVdnUEQ3M1NN,Czech,,5,2015-04-26,David Borovička,Doporučuji,Funguje tak jak má ✅,,
Battery Indicator,Google Play,com.fulminesoftware.batteryindicator,Z3A6QU9xcFRPSE80dWZSeENTV2FGRFVucFBkR3hYZVZGVXpHRGVXNHhDeHdfMDdoV1VaV3RtdXRZZTVuN3ctdk4xMWJtck5KZmktdkpWa3V2TmRtb2s4c1NB,Czech,,4,2015-04-18,Max Rauch,"",Chybí regulovatelná zvuková indikace dobití..jináč to jde.,,
Battery Indicator,Google Play,com.fulminesoftware.batteryindicator,Z3A6QU9xcFRPRVIxbjRvZHBCTTNfZ0ZSNFd6V2xTaGVnOVBRNUY4RW1raTlDUFp1MTBJeEd1d3k1WmE5WGQ2bkFzRVlKTDg3bTJBblEzcG9MbG5wRXJHUm9n,German,,3,2015-04-30,Saskia G.,"",Leider habe ich ziemlich schnell sehr wenig Speicherplatz auf dem aber sonst ist die App richtig gut,,
Battery Indicator,Google Play,com.fulminesoftware.batteryindicator,Z3A6QU9xcFRPRmlWOE9IaFhYUlRaZDZySXY2dC11aFpzbENDQWhpb2VvYzJZTWlqd0I2X1laZWdpODZiYnVUQTIxdFNwQzFadTVrbXNZUV9vNnA3YTQxN0hj,German,,5,2015-04-29,Guenter Schmeissner,Tolle App,Haelt was sie verspricht !!!Super geil.!!!!,,
Battery Indicator,Google Play,com.fulminesoftware.batteryindicator,Z3A6QU9xcFRPSG5GY0dLN0QyV2FBdGFUR0pneVZONmlBb1pUVTZHYnI5OWRMNFF4dnktdWVmMXRlMndYZHZnS0tYOU1SOEZYdWZqcVRrbU1ZOXZBR21kN3hJ,German,,5,2015-04-18,Jordan Letzner,"",Geile Sache,,
Battery Indicator,Google Play,com.fulminesoftware.batteryindicator,Z3A6QU9xcFRPRU1FdkwwRlpaLTNZRzRoWk1Sd19VX0VGUlpMZXFuaUhEQlU1aF9SWkJrWnQzMExwZEJYQmRIeTYzbGZJTEJ6YnRVeWFwVGlTWHM3OHFISFdr,Indonesian,,5,2015-04-30,Warcim Jr,"",Oke,,
Battery Indicator,Google Play,com.fulminesoftware.batteryindicator,Z3A6QU9xcFRPRVhfZnBHMllzWjY5cmtjMVN6dzZBUmpYY29YUV9fSHQtSnFaV0YwVmppbkZob1RvZXhaMXpXcGgzUjd3U3VhY0NwTDltdzhUemozY212WlBz,Indonesian,,5,2015-04-25,Mady Mady,"",Keren banget...ringan,,
Battery Indicator,Google Play,com.fulminesoftware.batteryindicator,Z3A6QU9xcFRPSHBwRXdOTXZycmFHd2xSZzhQNG9valItRzl2dmRGSkF3RU81Z2ZuWTFZSGdNZmtuWkRQQlF0U1JpOGtSalBHMGl3QkNKUDNjYVRZZlpWYkNR,Polish,,5,2015-04-26,robak 66,"",Dobra,,
Battery Indicator,Google Play,com.fulminesoftware.batteryindicator,Z3A6QU9xcFRPRzVLaTN2UDFBSFpTYWFibmxvUVFnamRJdHc2NXBRU0Z4aFR6RTBMdDEtenl2b0tHNmFEb0JMZWQ2b3FSRFZ4TVJVYkJ3NlVmdWRRcFlOTzRz,Polish,,5,2015-04-24,marek1120,Działa  jak trzeba.,"Robi co ma robić, pokazuje co ma pokazywać , nic dodać nic ująć.",,
Battery Indicator,Google Play,com.fulminesoftware.batteryindicator,Z3A6QU9xcFRPSGFsUnZOQ3puOFVaTldZbUxsakVzTl9ENGwzNTl0SHdrbXkzXzBidlF4T0NMWVowUFVyalFfOWxENjJ0UEtfc3pQeFhFaTA2VTFQMDhwUlhr,Polish,,4,2015-04-22,Wiesław Sieniuć,Wskaźnik baterii,Działa bez zbędnych dodatków,,
Battery Indicator,Google Play,com.fulminesoftware.batteryindicator,Z3A6QU9xcFRPSG8teHFJWGJNcUptLVM1OGRCemprTEJfQ0dGTWhSdGw5eV8wZm54U0F3X045VUdfOW5fN2NJYjNSMU45aktac1NmVklOdHBOUE5NeVBLUmRB,Polish,,5,2015-04-21,Klaudia Kupis,"",Polecam,,
Battery Indicator,Google Play,com.fulminesoftware.batteryindicator,Z3A6QU9xcFRPSG5aZVhhSlZIWk9vTzRQNlNfSE9ZbmtSLVd3Mjh0ZXBRNGxDS196ZHlzNllSNHRvdzFuRkVJUFVDTkExZGxtWE9sMEUtVUptcnVlcVRHd2lr,Polish,,2,2015-04-20,Danuta Lechicka,"",Bateria szybko się rozładowuje,,
Battery Indicator,Google Play,com.fulminesoftware.batteryindicator,Z3A6QU9xcFRPR1NGUzZLV0QxSjk1YThzamRHRG9EeEl6eU5tQ014eU1DVGZHa1BmRHczNGxrYjFBV1BJYWFlUnBpdmk3UnlPdzVWU0hKSzk0RkE5SFFUNmxR,Portuguese,,2,2015-04-30,Erica Amaral,"",Se for bom dou mais estrelas,,
Battery Indicator,Google Play,com.fulminesoftware.batteryindicator,Z3A6QU9xcFRPRW9fTW84QmdwZndJQjEtRjlOM0llTEpoZjRhdV9CTDY5aHpLWDUzeTIwVHRLXzZqcGFaWlNiMlBkbXlxVWFoRUY5c3pwaFh4X3hkZ3dUTWdZ,Portuguese,,5,2015-04-29,Cesar Ramirez,"",Realmente é muito bom,,
Battery Indicator,Google Play,com.fulminesoftware.batteryindicator,Z3A6QU9xcFRPSHpVNEhwSEFBU0FiNTQtRVpwMWJFZEw3RVlEZWUtX2xnbEhvSHRHMkNtWHdpblBIYm5GLTVJbWlvTzdZSm9YWFdHV1cxVnJ6ZGZvSDd1d2o4,Portuguese,,5,2015-04-29,"",MP,Bom,,
Battery Indicator,Google Play,com.fulminesoftware.batteryindicator,Z3A6QU9xcFRPR29kNm8wZzRRNEp2LXRqX1BzakFZOWszbkVkeEdqQnNUbUJrSmxLWnluVUZMOHh5QTBXYm1SSW1aNmUtLXhDdkRZUUh5dlNIVjd4dWFqeE1F,Portuguese,,5,2015-04-28,Nilton Rorigues,"",Muito bom recomendo,,
Battery Indicator,Google Play,com.fulminesoftware.batteryindicator,Z3A6QU9xcFRPRWJBUWFvODdZdUh5RUdYeDI0VEU2X1Y4S0dqOHZEU1hJYk1rc0ZmNDFxRzFxaFo0TUo3enBKUWNySGVlUEZkWVBkTm9CaVFweXQ5QUU0T0VR,Portuguese,,4,2015-04-28,Andre Eberlein,"",Serve.,,
Battery Indicator,Google Play,com.fulminesoftware.batteryindicator,bGc6QU9xcFRPSEJQaF9NRGdQQ1VWSnYxWVVMcnZPRlItbERDUUk5Z1lBZkp1cC15cjZ1T3F0X3BhNFV6TXBhSnBIVFM4WThZd2tqTzhyQjZhQ083YXVEUjgw,Portuguese,,5,2015-04-28,Um usuário do Google,Muito loko,Bem bolado   ;D,,
Battery Indicator,Google Play,com.fulminesoftware.batteryindicator,Z3A6QU9xcFRPSE1GT3A5M1ltdjlJNmNOamdPSkU3VXR5QzlmVFN6WUw5bF85S1pFdjBlOVRNWS1keTRyYXdZelJEWE5zTlVWdFRjYmh5cmZBV1FudTlVRW9z,Portuguese,,5,2015-04-27,Helio Leite Filho,otimo,bem objetivo é vai um pouco alem.... recomendo,,
Battery Indicator,Google Play,com.fulminesoftware.batteryindicator,Z3A6QU9xcFRPRmI0QnRsamtHSTZISjBfZHRmeFRTLWNDc3JSTkpFSHhLaGxxbUNKMHJ0WndEQmhmUXpyN2Jlel9BYkVTSGJYSWE5YUI0Nl9WV1RrbjRGUjZV,Portuguese,,4,2015-04-27,Raimundo Jose,"",Muito bom recomendo baixe sem medo,,
Battery Indicator,Google Play,com.fulminesoftware.batteryindicator,Z3A6QU9xcFRPRlRJaXdHaTl1YlR6SDhicGNOVFdGQkpmSDlvcEtDOUNLbzJMWWhZNzlPTkFwVFNWTDNSOTMyUHhvWk1LVmo0eVg4QkVVZmNzd0ZHWGxqNWxB,Portuguese,,5,2015-04-25,Solange Terezinha Felix Morato,Bom.,Cumpre o que promete.,,
Battery Indicator,Google Play,com.fulminesoftware.batteryindicator,Z3A6QU9xcFRPRno3UkRiT3JBVFdhNTE0Z1RDaVJRZVl5ejZKN05aY3REN1dNNTBlMktJVktEZTA1RmJlODVFa3lRZXktTEhHdWZuQTBSUExJbGFndFRUNDI4,Portuguese,,5,2015-04-23,José Carlos,Muito bom.,Gosto dos detalhes.,,
Battery Indicator,Google Play,com.fulminesoftware.batteryindicator,Z3A6QU9xcFRPRXdHMGlEeFhTaVRvWUlnSnBMUHhCRHNjZVJwUGtBdE5VR0lWTnQ1ZVZyemZ6UnNkTFlJRVRITUpmWUlERTlCLU5peVU4Rk5YajVtT01xckdF,Portuguese,,4,2015-04-22,Clesifrance Morais,"",Bom!,,
Battery Indicator,Google Play,com.fulminesoftware.batteryindicator,Z3A6QU9xcFRPSGFwTFl5emtiQ0JHcDlJT29OX1ZDckJBZnBtNkktLXlKaVZvRGJjZmlUVzdya0FndnpHR2k3TjZaSVU1X0pKWHNvWmlndEdzRzdfcDNIRl9r,Portuguese,,5,2015-04-22,Silva Lilian,"",Super prático,,
Battery Indicator,Google Play,com.fulminesoftware.batteryindicator,Z3A6QU9xcFRPR3BZZ012TjRfS1JfOVJXNzByb2pOWGdDY1lPMTJrNGNKa0xqbHJoZDFLMEE0TnBCOE1XUEFaaG5xNFktNWVteWFtWkhHSXBDY00wdEU0VXF3,Portuguese,,5,2015-04-22,Diannacarla carla,"",Ele e muito bom mesmo,,
Battery Indicator,Google Play,com.fulminesoftware.batteryindicator,Z3A6QU9xcFRPR0c3V1JPS3l3QU5OLUlwb1dBSzZLU1Q5eXJ1Wktrdy03TmRuMkIxRDV1X0lUVEg1azI4ZmoxdU13RUtON243NmNkVEc3S3BZbnVPTFA1ZDhn,Portuguese,,5,2015-04-21,Luiz Carlos Ribeiro De Freitas,"",Muito bom recomendo,,
Battery Indicator,Google Play,com.fulminesoftware.batteryindicator,Z3A6QU9xcFRPRnI1dlVFU2V2bUpXV2poRUpzRmloR1FwM3h6TlZFWlc1TDlfZEQxZ0VsWTZWUTFNV1M5ZC0xT1BDSlVYN1ZlUVJFeHluS3h0M3pOUUhXV0NF,Portuguese,,3,2015-04-19,Samuel santana,"",Vou ver se e bom,,
Battery Indicator,Google Play,com.fulminesoftware.batteryindicator,Z3A6QU9xcFRPRWFSQXhLVHJqNG5fSnBCLXptWDVnZXVFeUpTQlBGX1laajZwMEhXeEhNU2tPWlVDc2lzRGxqRkZYUHQxQjR2aVRHNm94UVRGcTMxMGdpQ1Y4,Portuguese,,5,2015-04-19,Hemilly Nunes Linhares,É muito bom,"É bom , porque agente sabe quando está vermelho ou verde",,
Battery Indicator,Google Play,com.fulminesoftware.batteryindicator,Z3A6QU9xcFRPSEluQnB6UVJYWXdXMktfQURiNnFIX1VhZHU2cWYxZ240eU1wY0dORm5MRGtPVDJlU0xoUFNuanA4Vkt6X1VWTUhlSV9rQllUU2xXaVNLVkE4,Portuguese,,5,2015-04-19,Fernando Mafra Gonçalves,"",Muito bom,,
Battery Indicator,Google Play,com.fulminesoftware.batteryindicator,Z3A6QU9xcFRPR0pNVWNhTy15U0dqYkRlRnJNbFF0R04tT0ZuQS1yLUFoTXZBbTBwc2xXVDMyRXNuYW5EazMwUUxpV3hUVmo3TWhoNnhJUGZ5QVRsbjRuRC1V,Portuguese,,4,2015-04-19,C3liag,Ótimo,Gostei mto! Ele ajuda a ter uma ideia melhor da bateria. A porcentagem facilita mais.,,
Battery Indicator,Google Play,com.fulminesoftware.batteryindicator,Z3A6QU9xcFRPSDBlbFhENTRwM3V1Z3lDQ1kzWVlMbFU0YXRuMVM0dkNqOS1DTXBxMk1VTlZNNVltbE9mUnk1NDF0TVlhTkVRTjVpeWJlb2VaRFVpdjRaVmNF,Portuguese,,3,2015-04-19,Neilton Silva,"",A propaganda é irritante. De resto o aplicativo é bom. Cumpre o que promete.,,
Battery Indicator,Google Play,com.fulminesoftware.batteryindicator,Z3A6QU9xcFRPSG01bXR4WWZkaVlMZGhySnVLMmtwTG92OU9sUV8taUpUbEtPYUozelZ6WmZBbDhRUE5Za0hfNmhFTVBlNGFEWk16ZVl3ZEtRMHoyb3J5Sk5B,Portuguese,,5,2015-04-18,Andrea Isabela,"",Bom,,
Battery Indicator,Google Play,com.fulminesoftware.batteryindicator,Z3A6QU9xcFRPRzlnblQ2TnI5YzZTN2k5N05ZZk05VVhSc0lPSERuZUNXWmRsakpiR1o2TTVDU05NaWk4SFYzMnhIYUFWdTliY1hldS02WWR5SnBJR2dNelZJ,Romanian,,5,2015-04-30,Ganju Gabriel,"",Fain,,
Battery Indicator,Google Play,com.fulminesoftware.batteryindicator,bGc6QU9xcFRPRWN2VU9IYm1fNHpjOVlRZUZ5azctTVRXeVBWS1BqNDI3Vi1YT09RUVJCVEFwellSdDU4TjVGYnVIY3VyTzhrNVF6NDZUMTlmU2thSVdFZ3pj,Russian,,5,2015-04-30,Пользователь Google,"",Класс,,
Battery Indicator,Google Play,com.fulminesoftware.batteryindicator,Z3A6QU9xcFRPRmYyQ0dJMTdYOGVkYTk0MzdGanpGNG0yZTZ6TnBWaENNd2oxeHRsRjBBaUtjUjRRTzBveVF0M055aFlGUGtuM3BVTGJzT3lrQmhtbzlEMXV3,Russian,,5,2015-04-30,Jan Astafev,"",Только почему то не понятно почему индикатор на пороге не совпадает с индикатором на самом телефоне заряд не у успевает в цифрах))),,
Battery Indicator,Google Play,com.fulminesoftware.batteryindicator,Z3A6QU9xcFRPR1pXUUxKZHVia0RWYXZobDFzS2s3a1dsSWRZdXBtWTlYaURGTlRsVlNUQzhTNUdCS3Q1aUVlZExfaVVGTmlaSDA3elo2cExjM3RuYXpQa2pj,Russian,,4,2015-04-30,ALEKSANDR IGNATJEV,"",Работает чётко мне нравиться,,
Battery Indicator,Google Play,com.fulminesoftware.batteryindicator,Z3A6QU9xcFRPSGlWellmYXJ5ZjZoTXRia1BQbWV0N1AzZXpfNUpPOE9Fc0RoLVo5VlJINkttZGpGRDB2d3o5SlpEVWg2bGdZZ0dlclQyRmNHV1JSSFNGNDFZ,Russian,,5,2015-04-30,Михаил Шибарский,"",Приложение понравилось.,,
Battery Indicator,Google Play,com.fulminesoftware.batteryindicator,Z3A6QU9xcFRPRTVaQlBXVzM5YmphWUNMLUVkMDlLbnJrRkc5dUs1WG9fYlBNZmZJbVlyeHRORnRHVHhkUEZlaUs0WWdQZEpXc2VfbVU1VU8xUG1VN08wakdv,Russian,,5,2015-04-28,Sergey Putin,"",Та прикольный!!! Только автозапуск через раз срабатывает...,,
Battery Indicator,Google Play,com.fulminesoftware.batteryindicator,Z3A6QU9xcFRPR1AzdGhsVmUySmRBaWZPMXl3MVdKcnpiZUZRSlVyRXZsYzFrWG9xd3V2VmMzMnVkME5XMzhNNXZWV0R6NHVZYVI1aEp4ak1RX0xsZXNQLTVB,Russian,,5,2015-04-27,Настя Самая,Мимими,Супеееееррр,,
Battery Indicator,Google Play,com.fulminesoftware.batteryindicator,Z3A6QU9xcFRPRU9vY254TVZuOEVfVUlDMGpoV1B1LXo2SjFZLUdmRlc3ZVJjMGh3TzM0WlZYb1RmM3ZpQVJuWXg0Tks5STNORkJUMVpoSWMzNVBUUTNmbDRV,Russian,,5,2015-04-26,Oleg Matoshka,"",Иногда   тормозит.а такк вроде  норма,,
Battery Indicator,Google Play,com.fulminesoftware.batteryindicator,Z3A6QU9xcFRPRldvTWlXOXVEamF3YWsweU1VZDZUNThpQzBBSDI3akFoTEFxNWhGZWp0Qk1OdTFocDRPUC1BT2FrQnRKUXVLeG1Ebm5oOHNGc2tHYk92N1Q0,Russian,,5,2015-04-26,Георгий Миргородский,Отлично,Давно пользуюсь нареканий нет. Авторам респект! Так держать,,
Battery Indicator,Google Play,com.fulminesoftware.batteryindicator,Z3A6QU9xcFRPRWdabERIMDNpbktycDgwaFRUa3ZPZnZrSDVzaDVNMl9hd1BoWkZpdnRESnNrSzgxeFl6YjlMRXV4dDMweG92YUxYNU1FdVdobjd6QW12eHA4,Russian,,5,2015-04-25,Asvalt Ddddff,Klass,Хорошая программа по эксплуатации ещё бы такого  по больше  .   Всё  работает окей,,
Battery Indicator,Google Play,com.fulminesoftware.batteryindicator,Z3A6QU9xcFRPRmFZRUNqa2t6ZEZyZUVabHRSLVctelRqZlRVQ1V6dVJmYmU1NmQySGhTZEpEV0ZJVzhpcDctQ3ZrWjhoWEJFbUdFZUk5aUxkQm85UjV3TFhJ,Russian,,2,2015-04-25,Ирина Сомова,Так себе,Нужно что бы все было,,
Battery Indicator,Google Play,com.fulminesoftware.batteryindicator,Z3A6QU9xcFRPRTBCenVwcHRnQ3d6UU9GMlc2TE5KRkNHM3JnS1ZVZ295Mko4eTlyV1N0WnVReEszM0VaZWFEU2w4aGw5LXNXeUhGVVA0MmNWcGZSNFUzdzhr,Russian,,5,2015-04-23,Иван Иванов,Нормуль,"Мне понравилось , настройки на русском",,
Battery Indicator,Google Play,com.fulminesoftware.batteryindicator,Z3A6QU9xcFRPR1BteDdnQWdrcU05cko2XzlYcnNkM0xadTBTZEdDaGFBRVByQWJ6a284OXJLZDltUDlPSWVLMkZ4LXVUOFV2WVFzcFpabGhQTDNjNEpNbWg0,Russian,,4,2015-04-23,Cool Sisters,"",Не плохо))),,
Battery Indicator,Google Play,com.fulminesoftware.batteryindicator,Z3A6QU9xcFRPR0c1Nm8yWm8xXzFCUUowV1JUT2xGczAxYndxYzBDVjYzbnBGOERGX0VuZGJjM0VIVFljSWVZT3UwMnRrWVViYUsxbmN2Wi1tUXNHd0xlamhZ,Russian,,5,2015-04-23,Владимир Мякушко,Да,Отлично,,
Battery Indicator,Google Play,com.fulminesoftware.batteryindicator,Z3A6QU9xcFRPRmxxdUtFT2cyMkF2UlhxVFpUTXRld2FlT3oyVHlkTHNiNTNvQ3UyLTdpTnBGblpCM1pQOE9HaFJOZUYzSXNtWWNzblRzZHNzaEYxTEdEcmdr,Russian,,5,2015-04-23,Miha Kollins,Самый лучший,"Не понять, что вы обновили нового. Хотелось бы вот что, оповещание о том, что времени работы батареи остаётся 30 минут, или 1 час , ну короче вы поняли .",,
Battery Indicator,Google Play,com.fulminesoftware.batteryindicator,Z3A6QU9xcFRPR3I1b2JxZmoyb0JPZUg2QVZNYjRybG5oLWx3NG1pcHBCb0lKS2ROMDd6VENYdzIxNGtYaHVNSzRYbXYteGh0ZHFkNWxfWHJacHdMb1pBeE00,Russian,,5,2015-04-20,Igor Torgashin,Отлично,"Хорошее  приложение, спасибо.",,
Battery Indicator,Google Play,com.fulminesoftware.batteryindicator,Z3A6QU9xcFRPRk56VGdXWWZNMkxNRjJrSmpTbFJDWC1ENnRkRnYxVV80ZTJ3RkctTWtWZWRINld3dTRodXh3NVJpM2NIeUNiZWV6aGpXU3g1SWxBWmRyY1hv,Russian,,4,2015-04-20,Михаил Лутов,"",Нормально,,
Battery Indicator,Google Play,com.fulminesoftware.batteryindicator,Z3A6QU9xcFRPSE5BYTg1el9xYVkwMEJadmpRS2Vya2h0T2g2eFdMeVlyck8wdkR0UnlPSVFSLVlLSHlDMk5nWXYtVk1maDhjX0k3SUhzcWNoMEdaN2hDbHU0,Russian,,5,2015-04-20,Руслан Васильев,Хорошо работает,"Все можно узнать, и увидеть параметры и состояние про батарею.",,
Battery Indicator,Google Play,com.fulminesoftware.batteryindicator,Z3A6QU9xcFRPRWlhTEpSVjFYa1BILXdrUmNVX0R2ODBpbVVZd19VdVRQQUVrRUZ6a2lVMlVFRmd0RlB4cUpZVW03NS1VZjd0U05mcWtPYWZIVXNKYTVPSEFB,Russian,,5,2015-04-20,Антон Гущин,"",Советую,,
Battery Indicator,Google Play,com.fulminesoftware.batteryindicator,Z3A6QU9xcFRPR0VXbzlCU21ER3ZfV1JaYkhKTWctVDVvZ1czWGxMd3NoQmZHRFZROXFybGNTcnJPN0llam9uYXI2TGJPZ2NFeVBzWk5KQ1AtZEdmeTlXYl8w,Russian,,5,2015-04-19,Luda Katrich,"",Мне нравится!,,
Battery Indicator,Google Play,com.fulminesoftware.batteryindicator,Z3A6QU9xcFRPR1VUcGZ5aThYempJNS0zX1NCWTlQZ2ViMVdoMEZWclR2ZkFiVUotc19OQjJxUUYxcXV0MnpHZW9uX2JpNGZSa09iN2F2US1XbXl6RlF5RGdB,Spanish,,4,2015-04-30,Luis Fernando Angel,"",Buena indicación  comportamiento  de bateria,,
Battery Indicator,Google Play,com.fulminesoftware.batteryindicator,Z3A6QU9xcFRPRXEydUhEbWRoZ0VtcHlBc2dRWDE3SzVVVjNLaHQ1Y0pMb2IzZkEwVXgxZ2FVdXV6MUR2dW04bWRvbm8xWllncUFKdU9JYjFlYlhoSEI3Zko0,Spanish,,5,2015-04-29,darwin jesus quintero,Impresionado,"Esta aplicación va de maravilla, es excelente, la recomiendo totalmente",,
Battery Indicator,Google Play,com.fulminesoftware.batteryindicator,Z3A6QU9xcFRPSGs0aWZURndJcUZIZUo3VXFhcnhQZjMwWlNKTnhEV2VsUE1IbHFJSTJFdDIwblpXb0IwMzVKczF5YjhYeXhQU2I4bFJWWjJPRmxBOUxkanJN,Spanish,,5,2015-04-28,Carmelo Rojas,"",Completa para su  tamaño...muy buena para ser gratis...y felicidades..sigan asi.,,
Battery Indicator,Google Play,com.fulminesoftware.batteryindicator,Z3A6QU9xcFRPRjN5R29Ea09zMGxBLS03VjF3RG5WMmx0aXlaR3ViOG9jdkp1eUZYeFNCbkJ0T2tHNFdVV2paY0tOUFpUbWNoT0VwTjRSQ2UtLVF2WldqVnZN,Spanish,,2,2015-04-27,Rene Rios,"",Ok,,
Battery Indicator,Google Play,com.fulminesoftware.batteryindicator,Z3A6QU9xcFRPR1BQSVd2c3VuR2NfczFRR0lQVnpsNmZjOGJSTGFfcVk1UURPbERKbjJjSXl3bEUxVGxqakNiQS13Z2s0UDBxT29xcEFHUzIzX3BQQzNtSlp3,Spanish,,5,2015-04-26,Manuel Pacheco,Esta bastante bien,Esta bien y es sencilla. Hace su cometido,,
Battery Indicator,Google Play,com.fulminesoftware.batteryindicator,bGc6QU9xcFRPSDNtV3U3b1F2aUFzSElrd2lnVTNrRVBrR1pzTzBlUDdjUmV0SF9WcVN5bVpNM3JpVjJnOV9WY2J4OXprTTFWVjBjYklYeHpJTkdUdWxURTFR,Spanish,,5,2015-04-26,Un usuario de Google,Lo mejor,Para mi es vien bueno m da buen resurtado,,
Battery Indicator,Google Play,com.fulminesoftware.batteryindicator,Z3A6QU9xcFRPR21WT1ZzaDNhM2FVM0ZqOUpFZkdxeWdBU3pvQkRZVHZ3OUhuTVhZa0M4UVNQWFhfeTAtOHh5cm9NM2pFUDF3UHBsUlhwNFBFMlRvXzltelNz,Spanish,,4,2015-04-26,isaac campos,"",Muy util,,
Battery Indicator,Google Play,com.fulminesoftware.batteryindicator,Z3A6QU9xcFRPRWVHNG1vdzJBd1psZUxfYjFBbF9HdndtUEJRZUUxY3BzdHRnYVlLUTgzaGF3NnVzUGJnOXFoSlVZR254TUlYR0NoNVhQQWN3OXhJY3FkVTQ4,Spanish,,4,2015-04-23,José Cerradelo Campos,"","Muy útil,",,
Battery Indicator,Google Play,com.fulminesoftware.batteryindicator,Z3A6QU9xcFRPRkczU0tPUXQxc3ZkTHJ4WjhBNmc1VjFuRjlEZ0tNYTFWR0R5TDkwQXdWa3ZRUDBQb1MwaGxIT3d3YW5vVVg5SE5RaUxScnVvRzMzVmx3a3lj,Spanish,,5,2015-04-23,Catriel Sanchez,Excelente,Muy útil,,
Battery Indicator,Google Play,com.fulminesoftware.batteryindicator,Z3A6QU9xcFRPSEthTFRHVWhMMHBSM2tid3N5NHVUeDFEaHpEenR2aVpENnh2dXBiX3pQY0puS3VIdDF1d0FhMkJfcFQ4UGVmV1dVVjJJZFdzZ05IMXlMU0pV,Spanish,,5,2015-04-23,Alonso Jose Landero Narvaez,"",Es muy útil y visual,,
Battery Indicator,Google Play,com.fulminesoftware.batteryindicator,Z3A6QU9xcFRPRS1XN3d1bjE4OHAzbDYybTNvbVMxQVVBamc5TFpVUHVwYkYwUE1pZm9PaC1zNmNNTzJzMTJaZlZxRjFYX0FidmRoX0hSV2VYcjdoQWUzMGlN,Spanish,,5,2015-04-22,Angie Martinez,Buena!!,Me gusta la aplicación,,
Battery Indicator,Google Play,com.fulminesoftware.batteryindicator,Z3A6QU9xcFRPSFBZRk9nRVFERFdtc1BaX1NySklaZmpGYTJsXzh3SDZuQXBXY2gxSXUxak03SDUwblI3N0tjMUtUZDZzVU1JV2Vmb3lsbWVaNVRnOXU1elM0,Spanish,,5,2015-04-22,Rodolfo Padron,Buena,Útil,,
Battery Indicator,Google Play,com.fulminesoftware.batteryindicator,Z3A6QU9xcFRPRS1FcXM4azNRenhTcGlQTTlZRUx4VEh1RFJ1dldIWXY2MVBPTFl1UkR0MDlqZF94UlY2SWFLT0hHZTJlVlhOODRncGduek5jMV8zdVIzOVN3,Spanish,,5,2015-04-22,Jose Ortiz,Valoración  de bateria,Excelente muy.buena,,
Battery Indicator,Google Play,com.fulminesoftware.batteryindicator,bGc6QU9xcFRPR3ZaczFNVllxQ2pCVDZrZFI2SFAxcXd0TmltZUx2cjU4QTA2cUNaU1JTWHp1TFNaaWtaYjhfNDE1aGxQWmJYVUpGUng3Yk96RjlYTk5hMWtV,Spanish,,5,2015-04-20,Un usuario de Google,"",Ya chido,,
Battery Indicator,Google Play,com.fulminesoftware.batteryindicator,Z3A6QU9xcFRPRXkzNXFKbXFsMG9mc2pfWWtaMUY5ckFhWTR1ZDl2WFJNZktHNVBBNVNmbnc5S002ZVA2eG5oNVRlVFE1WlVtNnMxN3ZQUzJOb0NWLU9Pd2lJ,Spanish,,5,2015-04-20,GUTY89 Gu,Motorola,Muy buena,,
Battery Indicator,Google Play,com.fulminesoftware.batteryindicator,Z3A6QU9xcFRPR1JDbENzUTQwUEtDRlU0cnozVnppTmhybzlLelhpVGdvcmJOdTJZOEhmTkNFUUE0Mm5lazFjSm1WTG96eHZseW1NV1lLNFFiazl1ajliZlhN,Spanish,,3,2015-04-19,Josue Tin,"",No le pongo 5 estrellas por que nose si se arruina la bateria,,
Battery Indicator,Google Play,com.fulminesoftware.batteryindicator,Z3A6QU9xcFRPRmpGZFl1Sk5CY2hMcTF1eVhJOXdneEhuOHg0QjVXLUZvd2R4eFItQjBuclFMaUlaTTA4a1B1VG55V2o2UHRTc0dRMnRqN2huSHhiWlNvLWJV,Thai,,4,2015-04-29,anuchit khunchan,ต้อม,ใช้งานได้ ok,,
Battery Indicator,Google Play,com.fulminesoftware.batteryindicator,Z3A6QU9xcFRPSHhkdjlXQ1hfWkNVeFZVcDd3S3hHT1Z3MnJtNHhNdVZ6aWNnZEVQdzlDYWFRMTVCN0U5RzlQLVNROTdWVHF4eXc2V2tXaTdOSUUwLXlwLVhB,Thai,,1,2015-04-20,เมียน้อย พ.อ.ประหยัด,กากกกกกกก,โหลดช้า แถมใช้ไม่ได้อีก ปรับปรุงด่วน,,
Battery Indicator,Google Play,com.fulminesoftware.batteryindicator,Z3A6QU9xcFRPSDAzWkpvRnllcEJnazJrajAtLS1Ba3JDUVNUY05wZXgwb2E4WDE3a1FKMG16ZW1XaVBhcGNrbHpPbzJSRW1MdWJEODVzQlVvcTY4Z1RoS3Rz,Thai,,3,2015-04-18,รัฐพล จิตรัมย์,Reaw,ลองใช้ดูก่อน,,
Battery Indicator,Google Play,com.fulminesoftware.batteryindicator,Z3A6QU9xcFRPRm1EcGZYMm01eWdNdnRQSmJqSmtSSTR2UmNKT0MxeThKMDgwMVYzcUE3NGhUa2s0dEdHMEY4MGtHcnlWd3hCYnRZX0FuVmxoZXByZ2M4LXFz,Turkish,,5,2015-04-30,Mehmet Bildik,"",Begendim,,
Battery Indicator,Google Play,com.fulminesoftware.batteryindicator,bGc6QU9xcFRPSHZzN0kwbHhZckppU2lxZy1RSnRPZlFTUGs1bmdzVklUQmtYcUYxN19ET3JENWZOT2FfYjE4QXplUWhoZmIwLUFydlJWUThkcDF3NG9FbThZ,Turkish,,5,2015-04-27,Bir Google kullanıcısı,"",Harika,,
Battery Indicator,Google Play,com.fulminesoftware.batteryindicator,Z3A6QU9xcFRPR25TMkwzajdrajJMVktaR19ZdC1BbGhGNDZOc0UyTi1sd3FiTkRDclN4QVVfWkRkcnE4SzZ6MWgtdWVhWUltazd0c1RaZXJlX18xcVhnYi1z,Turkish,,5,2015-04-27,Yusuf Aytig,Ooi,On numara,,
Battery Indicator,Google Play,com.fulminesoftware.batteryindicator,Z3A6QU9xcFRPRTFJTHN4MW5La3NHcDQ4SVpnR2ZmSmdhN05vSy1SSTlwYlpVWTFMbUlsN19BUkxjM3RNb0RSUHN4MjVRLUxwT0I1TW1iMUY1bmlyOEsyU3dJ,Turkish,,5,2015-04-26,Leyla Özel,On numara,"Yukleyin en yuksek skor bunda Ancak Termometre. Mesafe olcucu, laser ısık ile cihaz ısı ölcer de yapsanız cok iyi olur",,
Battery Indicator,Google Play,com.fulminesoftware.batteryindicator,Z3A6QU9xcFRPR2NPT3JxVFN0M2k2OVE3a0JiZ1VfR0tYczlBamtxLTV4di0tVXhZVzdIN285LWNaZ2E3ZU1IODdKbTBpYjBMSXlWYmh4dmhjeF92UnBoNnhR,Turkish,,5,2015-04-26,Sever3434 Sevmez,Abc,Yess,,
Battery Indicator,Google Play,com.fulminesoftware.batteryindicator,Z3A6QU9xcFRPRklseDZ3OWtjOERTX3VwUmszS2RBajJEYmRhb3lkeHQ5b3ZveEpmVUswdTFteTd3S3VscnpJa0pJc2VsQUdYdGl1QW1RNjZKTUpOcFJOaXFZ,Turkish,,1,2015-04-25,Yusuf Türk,Ya bune,Abi nasıl yapıcam? Kalma kalısık,,
Battery Indicator,Google Play,com.fulminesoftware.batteryindicator,Z3A6QU9xcFRPRWUxY3RNNHlHcVJYbV9tR2hHaXNCbFlxVE1MUEgzaFJ5OFVLZkttOG1fckRwTkVKZWZQTlNaajRaandqcktWNGc5X2p2Qlc4Z3BncWxCNGZJ,Ukrainian,,5,2015-04-23,Наталя Цідило,"",Хороша програма,,
Battery Indicator,Google Play,com.fulminesoftware.batteryindicator,Z3A6QU9xcFRPRTNNemU3ZDZtV3VPZTJsNk9PMGtJVGJfWWFvQ28xX09aTUtOZVZGYkliOUZ3RzJjdWVQNm5CbC1DVklHdXE1by10V0RsRVc5em9JNWdITE9J,Vietnamese,,5,2015-04-28,Lào Cai,"",Ok,,
