App,Store,App ID,Review ID,Country,Version,Rating,Date,Author,Subject,Body,Translated Subject,Translated Body
Podax,Google Play,com.axelby.podax,Z3A6QU9xcFRPRnY3dGVySkJDRlFKLVJjeFpIOHVnYUZ5akQxVXpfWnVSVld4SDVJVnhiTGkyaEJIVHhHc0J0ZDJzZzE3aDNCSXNyLVVacEtmU3lYUlFVbmc,English,,3,2014-05-19,Casey Link,"Lots of features, not very polished",ha an impressive feature but daily usage is clunky and bug prone,,
Podax,Google Play,com.axelby.podax,Z3A6QU9xcFRPRnY3dGVySkJDRlFKLVJjeFpIOHVnYUZ5akQxVXpfWnVSVld4SDVJVnhiTGkyaEJIVHhHc0J0ZDJzZzE3aDNCSXNyLVVacEtmU3lYUlFVbmc,English,,3,2014-05-19,Casey Link,"Lots of features, not very polished",managing episode in subscription is awkward,,
Podax,Google Play,com.axelby.podax,Z3A6QU9xcFRPRnY3dGVySkJDRlFKLVJjeFpIOHVnYUZ5akQxVXpfWnVSVld4SDVJVnhiTGkyaEJIVHhHc0J0ZDJzZzE3aDNCSXNyLVVacEtmU3lYUlFVbmc,English,,3,2014-05-19,Casey Link,"Lots of features, not very polished",these are bug could be but overall the look very dated and is not so user friendly,,
Podax,Google Play,com.axelby.podax,Z3A6QU9xcFRPSHFCR1V2Z0dsdTFfWk8tbG9WTWpKWEIxa2pWYkdCUERSZ25QOVowSUVZWmtocGVHUHBma1lGRHlRSXZzNjYtS0xoNUtPYS1HRXdBWTBOVFE,English,,5,2014-03-12,Kevin Petersen,Best gpodder integration out there,long time user,,
Podax,Google Play,com.axelby.podax,Z3A6QU9xcFRPSHFCR1V2Z0dsdTFfWk8tbG9WTWpKWEIxa2pWYkdCUERSZ25QOVowSUVZWmtocGVHUHBma1lGRHlRSXZzNjYtS0xoNUtPYS1HRXdBWTBOVFE,English,,5,2014-03-12,Kevin Petersen,Best gpodder integration out there,syncs with smart web and with recent update is remarkable to use,,
Podax,Google Play,com.axelby.podax,Z3A6QU9xcFRPSHFCR1V2Z0dsdTFfWk8tbG9WTWpKWEIxa2pWYkdCUERSZ25QOVowSUVZWmtocGVHUHBma1lGRHlRSXZzNjYtS0xoNUtPYS1HRXdBWTBOVFE,English,,5,2014-03-12,Kevin Petersen,Best gpodder integration out there,very well done,,
Podax,Google Play,com.axelby.podax,Z3A6QU9xcFRPRnhxay1kMDQ3T2FSWG85U3BBanItZkJTdzRLamxzcGZxTUs3MnhxZEhEdEQ3OTRIX3drMFdPX3NLeUp5SXh2S3IyYTZfVEMxS3BkbnFfZXc,English,,4,2014-02-09,C. Prasanna Venkatesan,"Things broke in 6.x, but some tweaking has helped.",it is a slightly and could use some but it simplicity and responsiveness more make up for it,,
Podax,Google Play,com.axelby.podax,Z3A6QU9xcFRPRnhxay1kMDQ3T2FSWG85U3BBanItZkJTdzRLamxzcGZxTUs3MnhxZEhEdEQ3OTRIX3drMFdPX3NLeUp5SXh2S3IyYTZfVEMxS3BkbnFfZXc,English,,4,2014-02-09,C. Prasanna Venkatesan,"Things broke in 6.x, but some tweaking has helped.",there is still the quirkiness with the wanting to already downloaded but is a minor annoyance at time,,
Podax,Google Play,com.axelby.podax,Z3A6QU9xcFRPRnhxay1kMDQ3T2FSWG85U3BBanItZkJTdzRLamxzcGZxTUs3MnhxZEhEdEQ3OTRIX3drMFdPX3NLeUp5SXh2S3IyYTZfVEMxS3BkbnFfZXc,English,,4,2014-02-09,C. Prasanna Venkatesan,"Things broke in 6.x, but some tweaking has helped.",easily 4 star just for the simplicity,,
Podax,Google Play,com.axelby.podax,Z3A6QU9xcFRPRWVCUl9wZTNzRVdpUWRuRTRXSThaeVF0UzhGQXdQSVNpRmszVGdmbWZPNTVEYnY0RVVWOGRSTXNMSUMwR0JZZzg5SUpjTzcxVVhScXRTcmc,English,,5,2014-02-06,Francis Grizzly Smit,Awesome app,love use it all the time,,
Podax,Google Play,com.axelby.podax,Z3A6QU9xcFRPRWVCUl9wZTNzRVdpUWRuRTRXSThaeVF0UzhGQXdQSVNpRmszVGdmbWZPNTVEYnY0RVVWOGRSTXNMSUMwR0JZZzg5SUpjTzcxVVhScXRTcmc,English,,5,2014-02-06,Francis Grizzly Smit,Awesome app,best,,
Podax,Google Play,com.axelby.podax,Z3A6QU9xcFRPRzdxbktIMkUzNi12cTMyQTBGM2xEczRlNW9nOFlGR296bzExalB0UmlsalYwSDVrZ2NpWFN1TlBUVjRUSVZIbFkyT3ZISHJ4MzJmZWFqZGc,English,,2,2014-02-05,Mallorie Nasrallah,Everyone is a critic.,i really love i can keep my even after listening to them,,
Podax,Google Play,com.axelby.podax,Z3A6QU9xcFRPRzdxbktIMkUzNi12cTMyQTBGM2xEczRlNW9nOFlGR296bzExalB0UmlsalYwSDVrZ2NpWFN1TlBUVjRUSVZIbFkyT3ZISHJ4MzJmZWFqZGc,English,,2,2014-02-05,Mallorie Nasrallah,Everyone is a critic.,and am mildly annoyed i can not organize my library,,
Podax,Google Play,com.axelby.podax,Z3A6QU9xcFRPRzdxbktIMkUzNi12cTMyQTBGM2xEczRlNW9nOFlGR296bzExalB0UmlsalYwSDVrZ2NpWFN1TlBUVjRUSVZIbFkyT3ZISHJ4MzJmZWFqZGc,English,,2,2014-02-05,Mallorie Nasrallah,Everyone is a critic.,i must remove and to access,,
Podax,Google Play,com.axelby.podax,Z3A6QU9xcFRPRzdxbktIMkUzNi12cTMyQTBGM2xEczRlNW9nOFlGR296bzExalB0UmlsalYwSDVrZ2NpWFN1TlBUVjRUSVZIbFkyT3ZISHJ4MzJmZWFqZGc,English,,2,2014-02-05,Mallorie Nasrallah,Everyone is a critic.,please fix,,
Podax,Google Play,com.axelby.podax,Z3A6QU9xcFRPRzdxbktIMkUzNi12cTMyQTBGM2xEczRlNW9nOFlGR296bzExalB0UmlsalYwSDVrZ2NpWFN1TlBUVjRUSVZIbFkyT3ZISHJ4MzJmZWFqZGc,English,,2,2014-02-05,Mallorie Nasrallah,Everyone is a critic.,i would like to stay but this is too much,,
Podax,Google Play,com.axelby.podax,Z3A6QU9xcFRPRTh0UWtaQ0Z2YmtQbEFxRDdpS3Q4cjlDQ2l5WTlIR09lSUV3SnpENmlzWi1OVFhybWVRS2hWbkJ1d25TbnJwOHlpenRDY1pEbU1OT045TUE,English,,3,2014-02-04,carlos duarte,what?,wow,,
Podax,Google Play,com.axelby.podax,Z3A6QU9xcFRPRTh0UWtaQ0Z2YmtQbEFxRDdpS3Q4cjlDQ2l5WTlIR09lSUV3SnpENmlzWi1OVFhybWVRS2hWbkJ1d25TbnJwOHlpenRDY1pEbU1OT045TUE,English,,3,2014-02-04,carlos duarte,what?,are beta test even carried out,,
Podax,Google Play,com.axelby.podax,Z3A6QU9xcFRPRTh0UWtaQ0Z2YmtQbEFxRDdpS3Q4cjlDQ2l5WTlIR09lSUV3SnpENmlzWi1OVFhybWVRS2hWbkJ1d25TbnJwOHlpenRDY1pEbU1OT045TUE,English,,3,2014-02-04,carlos duarte,what?,used to be pretty good,,
Podax,Google Play,com.axelby.podax,Z3A6QU9xcFRPRTh0UWtaQ0Z2YmtQbEFxRDdpS3Q4cjlDQ2l5WTlIR09lSUV3SnpENmlzWi1OVFhybWVRS2hWbkJ1d25TbnJwOHlpenRDY1pEbU1OT045TUE,English,,3,2014-02-04,carlos duarte,what?,but now there are bug all the everywhere,,
Podax,Google Play,com.axelby.podax,Z3A6QU9xcFRPRTh0UWtaQ0Z2YmtQbEFxRDdpS3Q4cjlDQ2l5WTlIR09lSUV3SnpENmlzWi1OVFhybWVRS2hWbkJ1d25TbnJwOHlpenRDY1pEbU1OT045TUE,English,,3,2014-02-04,carlos duarte,what?,please fix,,
