# deletions,date,commit message
1,2014/12/21,Do not add bytes and Mbytes to calculate file size  file.length() returns size as byte while the variable size was MByte. Thus "size -= file.length()" is incorrect.
2,2014/12/20,Remove not null check on 'this' (not null by definition)
2,2014/12/20,Close notification in the status bar when a postcast ends
68,2015/1/17,update to 0.8.4
69,2015/1/17,update to 0.8.4
14,2015/1/17,Fix #307
207,2015/1/17,code cleanup/refactoring
29,2015/1/17,Update ORM and improve SQL
9,2015/1/17,Update ORM and improve SQL
3,2015/1/13,[tx-robot] updated from transifex
5,2015/1/10,Add option menu for long pressing a link - #293
2,2015/1/10,reformat code
1,2015/1/10,always show "open in browser" in actionbar  - fix #293
39,2015/1/10,basic implementation of #288
1,2015/1/10,change runProguard to minifyEnabled
1,2015/1/10,[tx-robot] updated from transifex
1,2015/1/06,[tx-robot] updated from transifex
1,2015/1/05,[tx-robot] updated from transifex
2,2015/1/03,[tx-robot] updated from transifex
2,2015/1/02,[tx-robot] updated from transifex
19,2014/12/27,Update to 0.8.3
1,2014/12/27,Fix #296
3,2014/12/26,Add option to add a new feed by sharing an url
1,2014/12/24,[tx-robot] updated from transifex
8,2014/12/19,[tx-robot] updated from transifex
1,2014/12/17,Crash on Settings > Add new feed  No action is specified in this scenario
1,2014/12/17,[tx-robot] updated from transifex
3,2014/12/13,Fix access to the first element of an empty list  Avoid message "Error while downloading image" upon synchronization when image caching is enabled.
1,2014/12/11,Update to 0.8.2
1,2014/12/11,Fix issue in Readme
1,2014/12/11,Fix issue in Readme
3,2014/12/11,Fix #292
15,2014/12/11,Implement #282
3,2014/12/06,Update to 0.8.1
1,2014/12/06,Fix #290
1,2014/12/06,fix avg color is not calculated after re-login
3,2014/12/06,Fix #289
6,2014/12/06,Fix #291
6,2014/11/29,Update to 0.8.0
17,2014/11/29,Fix #236
2043,2014/11/29,Switch to Material Design
1,2014/11/21,[tx-robot] updated from transifex
229,2014/11/20,[tx-robot] updated from transifex
1,2014/11/19,fix typo
2,2014/11/19,add the third dot.  Suggested by translators on Transifex.
1,2014/11/18,add material design
4,2014/11/18,remove unused settings header
3,2014/11/13,[tx-robot] updated from transifex
6,2014/11/09,[tx-robot] updated from transifex
21,2014/11/08,Update to 0.7.7
3,2014/11/08,Fix compatibility issues with HoloCircularProgressBar library
1,2014/11/08,Fix #277
1,2014/11/08,Fix threading issue
19,2014/11/08,Fix #270
112,2014/11/08,Fix #272 - use threads instead of asynctasks
34,2014/11/08,remove podcast info dialog on first startup.
8,2014/11/08,Fix #278
