# deletions,date,commit message
2,2014/7/06,Fix #238
795,2014/7/04,Update podcast support
63,2014/7/04,Fix app crash (modify data without calling notifyDataSetChanged)
1,2014/7/03,[tx-robot] updated from transifex
1,2014/6/29,[tx-robot] updated from transifex
11,2014/6/27,Update AndroidSlidingUpPanel to v1.0.3
3,2014/6/27,Fix issue #235
23,2014/6/27,[tx-robot] updated from transifex
3,2014/6/25,Update to v.0.6.9.3
101,2014/6/25,Update podcast support
77,2014/6/25,Update layout of podcast fragment
4,2014/6/25,Add support for ogg/opus
6,2014/6/23,Fix app crash
287,2014/6/23,Add podcast support
4,2014/6/16,Update to 0.6.8
1,2014/6/16,Fix #232
14,2014/6/16,[tx-robot] updated from transifex
2,2014/6/14,Trim strings - #230
0,2014/6/13,Update to 0.6.7
527,2014/6/13,Update to 0.6.7
1,2014/6/13,[tx-robot] updated from transifex
94,2014/6/13,Update sync process
2,2014/6/12,Update insertion process
1,2014/6/12,small layout update
31,2014/6/12,Update sync process
6,2014/6/11,Update insertion process of new items
1,2014/6/11,Update Gradle
1,2014/6/11,Update Gradle
2,2014/6/11,Update submodules
1,2014/6/11,Update Gradle
3,2014/6/11,Update Gradle
1,2014/6/11,Create .nomedia file on startup
14,2014/6/11,[tx-robot] updated from transifex
43,2014/6/10,update database (incomplete)
2,2014/6/09,[tx-robot] updated from transifex
494,2014/6/06,move to submodule
3,2014/6/06,Update to 0.6.6
457,2014/6/06,Remove invalid language files
3,2014/6/06,remove menu entry for creating a database dump
39,2014/6/06,ownCloud Account Importer Library
1,2014/6/06,Fix bug in SQL statement (#223)
3,2014/6/05,[tx-robot] updated from transifex
457,2014/6/05,Remove invalid language files
7,2014/6/05,Update to 0.6.5
2,2014/6/04,fix bug in SQL statement
450,2014/5/31,remove invalid language files
1,2014/5/31,add account importer
326,2014/5/31,Update to 0.6.4 - Optimize Code
5,2014/5/30,[tx-robot] updated from transifex
386,2014/5/28,add account importer (not working yet)
3,2014/5/25,[tx-robot] updated from transifex
6,2014/5/24,[tx-robot] updated from transifex
427,2014/5/12,update to 0.6.2 (fix bug in listview)
2,2014/5/12,[tx-robot] updated from transifex
12,2014/5/04,bug fix - update to v0.6.1
6,2014/5/04,[tx-robot] updated from transifex
343,2014/4/29,Remove invalid language files
341,2014/4/26,remove invalid language files
8,2014/4/26,update to v0.6.0
236,2014/4/26,Performance Update - Layout improvements
0,2014/4/26,update app icon
2,2014/4/24,code formatting
13,2014/4/24,add error messages
340,2014/4/24,remove invalid language files
7,2014/4/23,update urlconnection
17,2014/4/23,remove textview smooth fadein effect on tablets
3,2014/4/22,fix critical app crash when leaving add new feed activity
340,2014/4/22,remove invalid language files
4,2014/4/21,update to v0.5.9
54,2014/4/21,improve performance - v.0.5.9
140,2014/4/21,improve sync process
388,2014/4/21,Performance Update
339,2014/4/21,Remove invalid language files
252,2014/4/20,Performance tweaks (ListView)
299,2014/4/20,Add 'Add new feed' Activity
0,2014/4/18,change app icon
339,2014/4/17,remove invalid language files
115,2014/4/17,update to 0.5.8 - fix unwanted tap on links
1,2014/4/14,[tx-robot] updated from transifex
11,2014/3/30,[tx-robot] updated from transifex
285,2014/3/27,update changeloglib/messagebar and remove invalid language files
8,2014/3/27,update to version 0.5.7
73,2014/3/26,[tx-robot] updated from transifex
735,2014/3/25,update to 0.5.7 - see readme for changelog
6,2014/2/15,[tx-robot] updated from transifex
56,2014/2/14,[tx-robot] updated from transifex
5,2014/2/05,merge manually the new language files from master
3,2014/2/05,update apk and readme
2,2014/1/24,update readme
3,2014/1/24,remove gradle files
207,2014/1/24,update project structure
252284,2014/1/24,Update project structure for gradle build system
1,2014/1/22,[tx-robot] updated from transifex
1,2014/1/21,[tx-robot] updated from transifex
1,2014/1/17,[tx-robot] updated from transifex
1,2014/1/15,[tx-robot] updated from transifex
1,2014/1/09,[tx-robot] updated from transifex
31,2013/12/30,[tx-robot] updated from transifex
428,2013/12/28,Update to 0.5.5 - see Changelog for more Infos
1,2013/12/09,[tx-robot] updated from transifex
1,2013/12/07,[tx-robot] updated from transifex
5,2013/12/05,[tx-robot] updated from transifex
269,2013/12/02,[tx-robot] updated from transifex
295,2013/11/30,Update to 0.5.4
33,2013/11/30,Update to 0.5.4
