App,Store,App ID,Review ID,Country,Version,Rating,Date,Author,Subject,Body,Translated Subject,Translated Body
ownCloud/nextcloud News Reader,Google Play,de.luhmer.owncloudnewsreader,Z3A6QU9xcFRPRjdRZDV4VGc0TXNGRi1qalVRUmRDVVNQRTJvQUtuU3ZGUWY4Y2h5TjlnalpjS3RIdnJlNjU1Q2RnaTJHN3ZOUk9rMEw2VmlYUTRXZTJOTzRF,English,,5,2013-11-11,Luay Baltaji,Love it,it is a great app and exactly what I need.,,
ownCloud/nextcloud News Reader,Google Play,de.luhmer.owncloudnewsreader,Z3A6QU9xcFRPRmVETnRxTlJ2cUZ6Y1NYLUhRSVlCZE5HMHNsOE5nd3dNSlhlRVhKQUVYSHVVY05VcGFqZy1KYzlWZk9vSWlHTGRXYU5YN0FYVmxwMjRDaG40,English,,5,2013-11-02,Jaroslav Petráš,I like it,Nice application and it's easy to use.,,
ownCloud/nextcloud News Reader,Google Play,de.luhmer.owncloudnewsreader,Z3A6QU9xcFRPR040aDZhZ19xdFdnaEJhZVp1TnFBRDJIOF9YWGp3WDlCSTdoeFo1VXJDcTllWkM5Q3N2bnJjb0RUV0JJVFFtUUFkUGp3U1N3enNhNTl5YWk0,Spanish,,5,2013-11-08,"",Muy buena,Interfaz clara e intuitiva. En el tablet se ve genial. Cada día tengo más servicios en mi onwcloud y dependo menos de terceros,,
