disabled command again the opcode is suppose to work differently in and,b,2014/1/24,,
a,o,2014/1/24,,
they are different,o,2014/1/24,,
b,b,2014/1/24,,
implemented opcode,b,2014/1/24,,
it is now possible to from the well,o,2014/1/24,,
