Topic,Words
0,0.098*my,0.069*as,0.061*on,0.057*purchasing,0.055*without,0.051*a,0.049*i,0.048*use,0.042*android,0.040*well
1,0.189*now,0.082*as,0.080*being,0.072*and,0.068*special,0.057*works,0.055*the,0.051*well,0.038*a,0.034*official
2,0.124*just,0.113*my,0.100*special,0.090*as,0.078*works,0.060*a,0.055*i,0.039*licenses,0.038*we,0.037*well
3,0.152*my,0.088*works,0.082*official,0.079*special,0.074*as,0.049*the,0.044*our,0.044*being,0.039*android,0.036*actually
4,0.126*i,0.120*well,0.086*purchasing,0.072*works,0.061*being,0.049*official,0.047*my,0.043*now,0.042*android,0.039*on
5,0.157*licenses,0.091*but,0.081*official,0.081*as,0.070*well,0.052*special,0.050*now,0.046*this,0.042*our,0.040*can
6,0.116*use,0.093*on,0.085*phone,0.083*purchasing,0.064*and,0.061*this,0.055*can't,0.042*for,0.040*just,0.037*we
7,0.129*phone,0.084*use,0.083*official,0.080*the,0.080*special,0.065*just,0.058*my,0.049*this,0.048*for,0.037*but
8,0.153*can,0.128*on,0.082*works,0.060*and,0.053*i,0.053*our,0.045*can't,0.042*for,0.036*licenses,0.035*now
9,0.193*on,0.109*our,0.100*can,0.080*works,0.060*the,0.052*purchasing,0.048*can't,0.043*a,0.034*phone,0.032*android
10,0.152*can't,0.118*works,0.070*but,0.063*well,0.063*special,0.056*android,0.052*i,0.052*we,0.048*this,0.046*licenses
11,0.113*and,0.084*i,0.077*now,0.074*but,0.071*can,0.060*we,0.058*works,0.049*a,0.046*android,0.043*phone
12,0.110*android,0.104*for,0.096*and,0.088*actually,0.088*but,0.059*without,0.053*can,0.045*just,0.043*can't,0.035*special
13,0.122*the,0.121*use,0.075*official,0.074*can't,0.065*now,0.062*purchasing,0.053*our,0.048*special,0.041*but,0.035*as
14,0.123*licenses,0.094*a,0.072*for,0.068*devices,0.068*but,0.060*being,0.050*now,0.047*our,0.043*use,0.042*actually
15,0.095*android,0.085*our,0.072*as,0.069*works,0.064*licenses,0.055*official,0.053*my,0.051*being,0.049*without,0.045*and
16,0.102*well,0.083*for,0.077*special,0.076*android,0.069*just,0.067*the,0.067*a,0.063*now,0.059*licenses,0.050*purchasing
17,0.219*android,0.124*but,0.069*being,0.062*official,0.061*can't,0.058*just,0.055*my,0.036*without,0.036*now,0.035*for
18,0.136*purchasing,0.101*licenses,0.093*without,0.083*but,0.081*our,0.056*phone,0.053*actually,0.050*and,0.048*we,0.041*i
19,0.154*a,0.109*devices,0.065*we,0.054*licenses,0.053*works,0.052*being,0.051*purchasing,0.048*phone,0.047*the,0.039*our
