totally confusing,o,2015-11-17,Martin Tate,1
the backup key function creates an encrypted file of your public and secret key and protects them with random key you should remember,o,2015-11-17,Klaus Budinegara,5
you want to use in your in your you can then decrypt this file using the above random password then import the public and secret key,o,2015-11-17,Klaus Budinegara,5
but i am unable to encrypt multiple file at the same time,o,2015-11-13,jhon doe,4
say something about limitation on current i try to encrypt multiple file any idea any fix coming,b,2015-11-13,jhon doe,4
,o,2015-11-12,mohamed soliman,5
this is exactly how should look everywhere,o,2015-11-08,David Manouchehri,5
flexible and still powerful,o,2015-11-08,David Manouchehri,5
seems to but oh wow is the slow,b,2015-11-02,zingmars,4
work perfect,o,2015-11-02,Google Nutzer,5
a bit slow,b,2015-11-02,Google Nutzer,5
basically i have been using on my window computer and i backed up my private key so i can restore it on my mobile,b,2015-10-31,Saloman A.,4
it saved default a file but i keep getting an error trying to restore it on this application,o,2015-10-31,Saloman A.,4
please help,f,2015-10-31,Saloman A.,4
glitch in the creation corrupted my to my static password and stopped working,b,2015-10-30,Ajay Shah,1
i contacted and they are giving me a new one,b,2015-10-30,Ajay Shah,1
using it daily for this is one of the getting actually better with every update,b,2015-10-28,Miloš Leškanič,5
