a file it should be possible to cancel the file by zeroing it and making it unrecoverable with forensic tool,o,2014-09-30,Igor pesando,5
another thing i miss is the possibility of revoking a key,f,2014-09-30,Igor pesando,5
suck,o,2014-09-29,Drake Stone,1
keep getting error no key found,b,2014-09-29,Drake Stone,1
my friend is having same problem on his,o,2014-09-29,Drake Stone,1
importing key i see but not wanting to encrypt file,o,2014-09-29,Richard Riley,4
easy to use and work well with,o,2014-09-25,Adamant King,5
keep giving me integrity check failed data ha been modified can anyone help,b,2014-09-16,Justin Batchelor,1
any idea,b,2014-09-12,Michael Ilg,4
