every time i try to create a key it crash and i have to force stop,b,2015-04-27,James McCullough,1
left it for an hour one time to see it just took a long time to generate a key,o,2015-04-27,James McCullough,1
,o,2015-04-27,James McCullough,1
,o,2015-04-27,James McCullough,1
work great with mail,b,2015-04-18,,5
finally imported my key and i can not decrypt anything,o,2015-04-09,Mr Anonymous,1
do not download this,b,2015-04-09,Mr Anonymous,1
the best for security and privacy,f,2015-04-03,bah djibril djibril,5
galaxy,o,2015-03-29,Ryan Keegan,5
this work perfectly with mail,b,2015-03-20,,5
doe exactly what i need it to i use it on all my mobile device,b,2015-03-20,,5
,o,2015-03-09,Максим Владимиров,5
beautifully easy to work well and integrates with store,o,2015-02-23,Gordon Schulz,5
thanks for would gladly pay a few buck to support development,b,2015-02-23,Gordon Schulz,5
a well thought and planned could use some more upgrade to the functionality design but overall it work it supposed to and very easy to import and backup all your key,o,2015-02-09,Jesse lucus,5
a real flexible resilient tool,o,2015-01-31,Nebokhad Nassar,5
256 a combination of almost unbreakable cypher,f,2015-01-31,Nebokhad Nassar,5
you can encrypt file etc exchange public key with your secret lover,o,2015-01-31,Nebokhad Nassar,5
make sure is at least 16 character,o,2015-01-31,Nebokhad Nassar,5
it would be great if the can only be accessed by a and a facility to clear all cached text in the clipboard exiting,b,2015-01-31,Nebokhad Nassar,5
well done,o,2015-01-31,Nebokhad Nassar,5
love this,o,2015-01-29,Pan Talon,5
of feature,f,2015-01-29,Pan Talon,5
much freedom,o,2015-01-19,Joseph Mulvey,5
best and only for key fully work in my opinion had any with it on my note 3 at all,b,2015-01-11,Chris Willett,5
it is a good way to keep your key with you and the support of the make it even better,b,2015-01-02,Henning Rogge,5
there are still some issue,b,2015-01-02,Henning Rogge,5
decrypting email,b,2015-01-02,Henning Rogge,5
someone is asking for my is this it,o,2014-12-15,matt mckee,4
also to the ever since downloading this i download music via an how can i stop it being encrypted by this,o,2014-12-15,matt mckee,4
thanks,o,2014-12-15,matt mckee,4
one of the best implementation of for mobile i have seen,b,2014-12-06,Pierre R,4
better and feature,f,2014-12-06,Pierre R,4
it easily exchange file,o,2014-12-06,Pierre R,4
probably the best implementation of on android,o,2014-11-28,Anthony Aldorasi,5
look and work this could be a model how could a general interface look like,o,2014-11-20,Radoslaw Rurarz,4
fantastic,o,2014-11-03,Nick Campbell,5
