App,Store,App ID,Review ID,Country,Version,Rating,Date,Author,Subject,Body,Translated Subject,Translated Body
Diode for Reddit,Google Play,in.shick.diode,Z3A6QU9xcFRPR2VqWWRST2FOTEQ3NHlGLXVUWmdncHBWQ251S0UxTGZxS3dVRlRCbGxoZmFtUDRVMTJ5S3lQMGdJSnpMSC1OanIyb0JxQ1kwZGprcGxEWGVN,English,,1,2015-07-05,Joshua Chandra,Would not load subreddit at all,decent for replying to but anything else yielded an eternally spinning loading circle,,
Diode for Reddit,Google Play,in.shick.diode,Z3A6QU9xcFRPR0NmODRIT2pYYmw5REFVT2pBaTJDV003Y016dTlkV2s4V0k1Wmttb202ZGgzN0RYTVZuZHBxbHRFTm00Sl9WT3BOLTB2UVB2RFo0N01mRHRB,English,,1,2015-06-12,Jack Ensor,Something made it unusable,click on a picture link and a freaking ad page pop up you can view the image,,
Diode for Reddit,Google Play,in.shick.diode,Z3A6QU9xcFRPRzR5d1ZrM2ZRVnN0aGZZZjAxSkc1OVJWSk92OXdadTRzX2dxSnh5a05QcFFjTDJ3UGFkX3hHUVRxLWh3djFITWItam1GbDhtbndEQWw3aGhJ,English,,5,2015-02-18,Laura Lucas Alday,The best,simple,,
Diode for Reddit,Google Play,in.shick.diode,Z3A6QU9xcFRPRWhvazF5V1ZDTG13R1psbUliUHdVRDFWNVVXZUxGSS1xUkhWTXgwcDFYSS16NllwZ0s0ek9WdVFGVk1CR01xMmVod2F5eGhMaDM2Ujh0U2dj,English,,4,2015-01-19,Anthony Reffelt,A good reddit app,fix those for a 5 star,,
Diode for Reddit,Google Play,in.shick.diode,Z3A6QU9xcFRPRWdzRU05aHVyVTFNSWJwOUpDNmg5RldxNEJ2VXZfMHhzRGQ1YldTS1FRTi13eW1ELW1GRHRsRTF2Z0ttbmVSbTktR2dzOUVSZFNZOV90ZW0w,English,,5,2014-12-24,Seth Stallknecht,Simple and it works.,a reader plain and simple,,
Diode for Reddit,Google Play,in.shick.diode,Z3A6QU9xcFRPRWdzRU05aHVyVTFNSWJwOUpDNmg5RldxNEJ2VXZfMHhzRGQ1YldTS1FRTi13eW1ELW1GRHRsRTF2Z0ttbmVSbTktR2dzOUVSZFNZOV90ZW0w,English,,5,2014-12-24,Seth Stallknecht,Simple and it works.,no add or crappy theme to bloat it down,,
Diode for Reddit,Google Play,in.shick.diode,Z3A6QU9xcFRPRWdzRU05aHVyVTFNSWJwOUpDNmg5RldxNEJ2VXZfMHhzRGQ1YldTS1FRTi13eW1ELW1GRHRsRTF2Z0ttbmVSbTktR2dzOUVSZFNZOV90ZW0w,English,,5,2014-12-24,Seth Stallknecht,Simple and it works.,doe the job day out,,
Diode for Reddit,Google Play,in.shick.diode,Z3A6QU9xcFRPRWdzRU05aHVyVTFNSWJwOUpDNmg5RldxNEJ2VXZfMHhzRGQ1YldTS1FRTi13eW1ELW1GRHRsRTF2Z0ttbmVSbTktR2dzOUVSZFNZOV90ZW0w,English,,5,2014-12-24,Seth Stallknecht,Simple and it works.,what mote could you want,,
Diode for Reddit,Google Play,in.shick.diode,Z3A6QU9xcFRPRjdKcUFqZG5lR2ZWaW1WcDl1Zk5ZY3hMS05QWDhlY2tCVnpRdm00NUZLeUJPTFJaWVVzZHZTLVAyMWU2aEFzQW5ta2xHaHZRdlBnUTUzaGZ3,English,,5,2014-11-25,Adri van Binsbergen,The best Reddit browser,used it daily for several month now,,
Diode for Reddit,Google Play,in.shick.diode,Z3A6QU9xcFRPRk5ob2lKTWJROThaZE5RQVlVU1RMYS1XcDNxdXZVOXhrYURDOHpTRFA3anZrSjBGdjV3RG5Ob2txeC1idmF1cnN6VC1UeG1USXd4d0lsd0dr,English,,4,2014-09-26,Edu S.R,Works flawlessly!,just missing some feature like a proper search function and the ability to see everything on the profile,,
Diode for Reddit,Google Play,in.shick.diode,Z3A6QU9xcFRPRk5FLVJfdkY1WnBpeWhTV1d1REJCWTdxMUhQT3NldUgzTi01aWc4aXg1RXdEcDFPS296ZWotaFFLUXVUSFdiNnh6UHB3ZC16VEN0d1UydkRN,English,,4,2014-09-25,uruk boff,no settings...,i have no setting button,,
Diode for Reddit,Google Play,in.shick.diode,Z3A6QU9xcFRPRk5FLVJfdkY1WnBpeWhTV1d1REJCWTdxMUhQT3NldUgzTi01aWc4aXg1RXdEcDFPS296ZWotaFFLUXVUSFdiNnh6UHB3ZC16VEN0d1UydkRN,English,,4,2014-09-25,uruk boff,no settings...,i need a button,,
Diode for Reddit,Google Play,in.shick.diode,Z3A6QU9xcFRPR0Y0UVNNaHY4a0dZeE05TWFRQ19iaGZPYWFkX2gxQWpQOFlaTGE2b1B4TzhDRmdtSUViTVNUZGw5UmJIRU4yUjE5RVdJWTFmRkRiUUJ5dWow,English,,5,2014-08-05,Shubham Choudhary,,best,,
Diode for Reddit,Google Play,in.shick.diode,bGc6QU9xcFRPSHZlMnBIWU9OOU93RW5VNHA4Vkg2VG5yaTV3MXB2X1c5UzRlLWYyUFB1SmdsLVZ4blhCX0V1RDB4Qk9QN1BQTUtXbEstcmIwWkhtZjUyYzFR,English,,5,2014-07-31,A Google User,Excellent,great stuff,,
Diode for Reddit,Google Play,in.shick.diode,bGc6QU9xcFRPSHZlMnBIWU9OOU93RW5VNHA4Vkg2VG5yaTV3MXB2X1c5UzRlLWYyUFB1SmdsLVZ4blhCX0V1RDB4Qk9QN1BQTUtXbEstcmIwWkhtZjUyYzFR,English,,5,2014-07-31,A Google User,Excellent,hope to eventually be able to view post though,,
Diode for Reddit,Google Play,in.shick.diode,Z3A6QU9xcFRPSEY4aV9BSm04UVRjVFRKUHktaXB6OXJWdEs2NXpiU0pQcndwWmRjaGVTYV9vN2ZBOXdVS2dvWjNic2lVc0JoRDdBNXNyc0YzbnAtYW1sZDBz,English,,5,2014-07-21,Andrew Eberlein,Excellent,this is the best way to browse on android,,
