update the,b,2015/8/26,,
no need to log every view id,b,2015/8/26,,
fix apostrophe,b,2015/8/26,,
remove usage of the deprecated,b,2015/8/26,,
the if title empty check using the method,o,2015/8/26,,
no need to cache the notification id,b,2015/8/26,,
cleanup the notification id generator,b,2015/8/26,,
remove unnecessary check,o,2015/8/26,,
reuse the for,o,2015/8/26,,
simplify the switch using a and loop,b,2015/8/26,,
update the,b,2015/8/26,,
minor update,b,2015/8/26,,
move into the doc directory,b,2015/8/26,,
move to it own file,o,2015/8/26,,
simplify,o,2015/8/26,,
simplify,o,2015/8/26,,
update the translation,b,2015/8/26,,
update the translation,b,2015/8/26,,
fix useless for persistence,b,2015/8/26,,
minor sync,b,2015/8/26,,
