Topic Index 1,Topic Index 2,Topic Similarity
6,18,2.0
0,5,1.0
2,0,1.0
3,10,1.0
5,3,1.0
7,12,1.0
8,17,1.0
11,2,1.0
14,9,1.0
18,11,1.0
1,1,0.0
4,4,0.0
9,6,0.0
10,7,0.0
12,8,0.0
13,13,0.0
15,14,0.0
16,15,0.0
17,16,0.0
19,19,0.0
