bump for release,b,2015/10/13,,
added padding to catalog text,f,2015/10/13,,
upgraded support to fix scrolling bug on 23 and 21,b,2015/10/13,,
fixed rotation glitch,b,2015/10/13,,
fixed crash returning to,b,2015/10/13,,
fixed text changed button adjusted medium adapter in thread view for new padding size,b,2015/10/13,,
cleaned up the look of the application removed from menu added icon,b,2015/10/13,,
scroll up hide cleaned up empty item,f,2015/10/13,,
making a lot of thing private variable,b,2015/10/12,,
close item is clicked,f,2015/10/12,,
added to thread activity,f,2015/10/12,,
fixed not showing up on page with,b,2015/10/12,,
fixed comment,b,2015/10/12,,
cleanup,b,2015/10/10,,
changed to button,b,2015/10/10,,
added drag and drop functionality changed notification to,b,2015/10/08,,
swipe to dismiss,b,2015/10/02,,
drag and drop for not stable,b,2015/10/02,,
working on making code more readable,b,2015/9/20,,
bump for release,b,2015/8/18,,
improved feedback on network failure,b,2015/8/18,,
spelling,o,2015/8/18,,
added ability for user to select number of column displayed in catalog view,f,2015/8/18,,
caused next image to be set title instead of current image,b,2015/8/18,,
updated save all image to use medium item,b,2015/8/18,,
fixed swatch on horizontal view,f,2015/8/18,,
cleaning up the database and bumping version number,f,2015/8/18,,
added up to,b,2015/8/18,,
updated support library,f,2015/8/18,,
fixed a crash with spoiled image and made thread adapter a bit more robust,b,2015/8/18,,
play button on,b,2015/8/17,,
added swatch to,f,2015/8/17,,
embed code,b,2015/8/17,,
added alternative layout for thread view,f,2015/8/17,,
multiple image uploading,b,2015/8/16,,
fixed the overlay issue,b,2015/8/14,,
need to address later of mixed support fragment and regular fragment,b,2015/8/14,,
added palette for image,f,2015/8/13,,
bit of code cleanup and made act like a for scrolling,b,2015/8/13,,
gave up trying to use,b,2015/8/13,,
decided to try and use instead,b,2015/8/13,,
boosted cache size to,b,2015/8/13,,
migrated application to fragment support library,b,2015/8/09,,
1 moved image property to medium object,b,2015/8/09,,
medium object are now serialized and then placed in the database for all image not just extra,b,2015/8/09,,
began work on for,o,2015/8/09,,
1 added initial framework for support for and gallery,b,2015/8/09,,
added share button to menu,b,2015/8/07,,
downloads to custom directory,b,2015/8/07,,
added open in external browser,b,2015/8/07,,
changed back to call back button instead of finish,b,2015/8/07,,
fixed double bug,b,2015/8/07,,
fixed item select,b,2015/8/07,,
moved medium to,o,2015/8/06,,
also resolving issue 3 11 and 15 i fixed them earlier and forgot to close them,b,2015/8/06,,
fix 3 fix 11 fix 15,b,2015/8/06,,
updated application to avoid grabbing multiple time,f,2015/8/06,,
fixed crash on rotation bug in,b,2015/8/06,,
added for user can swipe between image,b,2015/8/06,,
bump for release,b,2015/7/30,,
moved back to an activity,f,2015/7/30,,
fixed overlay bug,b,2015/7/30,,
bump for release again,b,2015/7/29,,
removed crash bug with hitting the back button,b,2015/7/28,,
moved to fragment,f,2015/7/28,,
fixed gallery crash hitting back button,b,2015/7/28,,
bump for release,b,2015/7/28,,
fixed error preventing from appearing on device lollipop,b,2015/7/28,,
fixed crash on gallery rotation,b,2015/7/28,,
save attachment on rotation,f,2015/7/28,,
fixed crash on resume clicking board button,b,2015/7/28,,
removed,b,2015/7/28,,
added dialog box for download all image utility,f,2015/7/28,,
added icon for new function,b,2015/7/28,,
added progress bar,f,2015/7/28,,
cleaning up transition from relative layout to linear layout,f,2015/7/28,,
built feedback for comment attachment,b,2015/7/28,,
retrieve from android image,b,2015/7/27,,
changed gallery adapter to better support extra file in the future by using an instead of using cursor,b,2015/7/27,,
fixed crash bug parsing comment containing link to on the catalog,b,2015/7/27,,
changed intent from to,b,2015/7/27,,
moved image path to reply class,f,2015/7/22,,
changed reply to hold instead of path,b,2015/7/22,,
made parsing more robust to avoid potential crash,o,2015/7/22,,
added file posting,b,2015/7/22,,
changed attachment limit to 1,b,2015/7/22,,
added intent to find file for file uploading,b,2015/7/21,,
added save all image functionality resolve 14,b,2015/7/21,,
download file code,b,2015/7/21,,
removed unused code,b,2015/7/21,,
added saving single image 14,b,2015/7/21,,
added support to gallery,b,2015/7/19,,
added to fragment,f,2015/7/19,,
fixed fragment loading for gallery fragment,b,2015/7/19,,
initial commit of framework for gallery fragment,o,2015/7/19,,
have fragment set title,o,2015/7/18,,
bumping version code for release,b,2015/7/18,,
changed sage color for easier readability on dark theme,f,2015/7/18,,
moved to a fragment,f,2015/7/18,,
refactoring some package name,b,2015/7/18,,
prevent multiple request from being sent out at once,f,2015/7/18,,
tentatively fix 23,b,2015/7/18,,
better error checking submitting a post,b,2015/7/18,,
fix 24,b,2015/7/18,,
moved setting to fragment,b,2015/7/18,,
fixed crash bug quickly switching board,b,2015/7/18,,
additionally fixed bug new loaded every rotation,b,2015/7/18,,
recreating the navigation drawer for easier and maintenance,f,2015/7/18,,
20,b,2015/7/18,,
updated license with,f,2015/7/17,,
removed catalog com trimming to prevent crash from unclosed tag on catalog,f,2015/7/17,,
fix 21,b,2015/7/17,,
changed icon to white for easier to dark theme and to address user complaint 20,b,2015/7/17,,
restart application choosing theme 20,b,2015/7/17,,
added beta version of dark theme,f,2015/7/16,,
intent to load setting menu,b,2015/7/16,,
changed to have white text,b,2015/7/16,,
created the base of the setting menu,b,2015/7/15,,
check default value were loaded on first startup,b,2015/7/15,,
cleaning up layout for easier readability later,f,2015/7/15,,
better formatting it came out ugly on,b,2015/7/13,,
bumping version code for,b,2015/7/14,,
moved dependency to maven,f,2015/7/14,,
moved dependency to maven,f,2015/7/14,,
,o,2015/7/13,,
made it easier to scroll inside post fragment fix 6,b,2015/7/11,,
removed one of the catalog overlay bug,b,2015/7/11,,
cancel task to prevent crash user back out of thread quickly,f,2015/7/10,,
moved task to a fragment to prevent crash on rotation,f,2015/7/10,,
moved task to a fragment to prevent crash on rotation,f,2015/7/10,,
save board and recreating activity,f,2015/7/09,,
removed body check from catch all else of crash,b,2015/7/08,,
added support partially resolve 8,b,2015/7/07,,
added regular support partially resolve 8,b,2015/7/07,,
thread title should be subject available else it should be just op post number,b,2015/7/07,,
fix 10,b,2015/7/07,,
added filtering method to filter by both com and sub instead of just com fix 5,b,2015/7/07,,
added to reply which reference post user creates create,f,2015/7/07,,
fix 17,o,2015/7/07,,
added to post which a user creates,f,2015/7/07,,
fix 17,o,2015/7/07,,
added visual feedback for post fix 16,b,2015/7/07,,
parser for easier readability,f,2015/7/06,,
release of version 01 to public,b,2015/7/06,,
