,o,2016/2/02,,
added support for span,f,2016/2/02,,
added image preference for loading image always never and disabling thumbnail,b,2016/2/02,,
put a break in the wrong spot,b,2016/2/02,,
shrunk margin fixed a bug there is no comment,b,2016/2/02,,
bump for release,b,2016/2/02,,
migrated off deprecated,b,2016/2/02,,
migrated off deprecated swatch,b,2016/2/02,,
recreated comment parser fix 32 fix 22 with sidestep,f,2016/2/02,,
