great work great on my lite,1.8.0-published,2016-03-07,Basit Nizam,5
i like the but wish the music would play,1.8.0-published,2016-03-04,Mino Wana,2
sky map,1.8.0-published,2016-03-03,Julz Gentillon,5
the map never point in the right and the display is always jittery and jumping around in manual mode,1.8.0-published,2016-03-03,Charlie Groff,1
the compass,1.8.0-published,2016-03-03,Charlie Groff,1
orientation sensor is not sensitive enough,1.8.0-published,2016-03-01,A Google User,2
sky map need the same thing,1.8.0-published,2016-03-01,A Google User,2
need improvement,1.8.0-published,2016-03-01,Aalok Sathe,5
but compass still off,1.8.0-published,2016-02-29,Adam Harvey,3
doe it really need to be sensitive to motion,1.8.0-published,2016-02-29,Adam Smith,2
great sky map,1.8.0-published,2016-02-29,Oscar Larrea-Marion,5
not available,1.8.0-published,2016-02-28,Chris Crowley,2
not available,1.8.0-published,2016-02-28,Chris Crowley,2
using with lollipop,1.8.0-published,2016-02-28,Chris Crowley,2
always wanted to be able to point out the planet,1.8.0-published,2016-02-26,Sergio Garcia,5
i wish we could change the color of the constellation and etc,1.8.2-published,2016-04-02,Micah Sexton,4
no problem with compass,1.8.2-published,2016-03-29,GREG MOTOROLA,3
i the first release of this were quite fantastic,1.8.2-published,2016-03-29,GREG MOTOROLA,3
not accurate also even calibration of compass,1.8.2-published,2016-03-29,Steve MaynardSmith,1
new sky map graphic i open it,1.8.2-published,2016-03-28,Ian Warrington,2
conquers all aspect amazingly,1.8.2-published,2016-03-27,,3
no horizontal movement,1.8.2-published,2016-03-26,Mark Poulsen,1
i would like to add a feature to the single layered filter,1.8.2-published,2016-03-22,harold gillespie,5
there is still a great mismatch between the map and sky,1.8.2-published,2016-03-21,ufo mesh,2
opened sky manual set flip,1.8.2-published,2016-03-21,Hal DeVore,1
if you guy can add iridium flare would be great,1.8.2-published,2016-03-17,Nilesh Jaybhaye,5
please add the planet moon etc,1.8.2-published,2016-03-13,Rebel Weaver,4
have the same problem with all compass,1.8.2-published,2016-03-11,Matt Soukup,4
the work on map and my status but not this,1.8.2-published,2016-03-11,Ian Baxendale,2
please add the ability to view satellite too,1.8.2-published,2016-03-10,Supral Raj Joshi,4
appreciate your assistance,1.8.2-published,2016-03-10,Tanveer Bindra,5
significant improvement from older version,1.8.2-published,2016-03-10,A Google User,4
the sky map,1.8.2-published,2016-03-09,A Google User,5
how will it be we are able to locate in this,1.8.2-published,2016-03-09,Thirulok Chandar,5
my go to sky map the inception of the,1.8.2-published,2016-03-09,Mauni Mehrizi,5
north point to south,1.8.2-published,2016-03-09,Skroeder Skroder,2
map is unsteady enough to make your eye cross,1.8.2-published,2016-03-08,,4
great to see sky map is still being developed,1.8.2-published,2016-03-08,Inderjeet Wilkhu,5
but those were not available on android,1.8.3-published,2016-04-24,A Google User,1
can u put planet on here,1.8.3-published,2016-04-24,Chevelle,3
maybe a more sophisticated stargazer might find something but for anyone i think this is the very best bet,1.8.3-published,2016-04-17,Janet Hayes,5
no disappointment,1.8.3-published,2016-04-17,Janet Hayes,5
not accurate off by 180,1.8.3-published,2016-04-17,A Google User,3
is not very accurate you point it to the sky,1.8.3-published,2016-04-16,Ms Rain W.,3
no compass on my,1.8.3-published,2016-04-16,Richard Handel,2
one request add more feature and image and information in this application,1.8.3-published,2016-04-10,Kapil,5
always available to answer the question what star or planet is that,1.8.3-published,2016-04-09,Skip Turner,5
sky map,1.8.3-published,2016-04-08,Amy Kauper,5
also possible please add some more name of the constellation,1.8.3-published,2016-04-07,Elina Cheslyaeva,3
maybe could use better quality on more zoom well,1.8.3-published,2016-04-05,Logan Jackson,5
eris and show on the map,1.8.3-published,2016-04-04,melissa debarros,4
i adjusted the sensor and damper setting suggested to no avail,1.8.3-published,2016-04-03,Benjamin Kochman,2
it seems very good sky map,1.8.4.1-published,2016-05-18,Mehmood Dars,4
wish i could put this on my,1.8.4.1-published,2016-05-16,Marijke Unger,5
there are some really gifted mind working on this,1.8.4.1-published,2016-05-14,Dave Koch,5
need option to enlarge text label size and to omit it altogether for self quizzing,1.8.4.1-published,2016-05-14,Fyuuredhijgfzre Gjjygtdftyirguug,4
wish i could enjoy this like everyone else,1.8.4.1-published,2016-05-14,antwain hairston,2
there are entirely too many,1.8.4.1-published,2016-05-05,Jeanie Huda,5
wa expecting more option,1.8.4.1-published,2016-05-04,Claudine Daisy,2
need improvement,1.8.5-published,2016-07-07,Leonardo Tortorella,2
enjoyed it,1.8.5-published,2016-07-06,toxic sniperz,4
i calibrated the compass,1.8.5-published,2016-07-05,Giles Cooper,1
now facing south the show,1.8.5-published,2016-07-03,Leslie Ephland,1
i can move the sky in manual but not automatic,1.8.5-published,2016-06-29,M McManus,1
you have to add the,1.8.5-published,2016-06-28,TheExultantGamer,4
i wa facing turned toward the and it still said south,1.8.5-published,2016-06-25,Victoria Johnston,2
oops,1.8.5-published,2016-06-23,Catherine Strauss,1
could not set compass,1.8.5-published,2016-06-23,Robert Pauls,2
no donate button,1.8.5-published,2016-06-19,Carl Ohvall,5
i use it regularly a with my telescope at home,1.8.5-published,2016-06-12,A Google User,5
i updated and the first thing it asked wa to accept the then it asked me to calibrate compass,1.8.5-published,2016-06-12,Mike M,3
but could be better it could be viewed in cardboard,1.8.5-published,2016-06-12,Lee Smith,5
i expect improvement in graphic quality in upcoming for example the constellation should have or outline related to outline lion outline and could you make calibration automatic please,1.8.5-published,2016-06-05,ALI ASIF CHOWDHURY,4
playing for hour every night under the sky,1.8.5-published,2016-06-05,Ankur Kaushik,5
i wish it dealt with light pollution too,1.8.5-published,2016-06-03,Allison Kurutsu,5
can you add this feature,1.8.5-published,2016-06-03,Orcsbane Killa,2
the older version wa much better,1.8.5-published,2016-06-02,Kalyani Sarada,3
i would point it north and it would rotate slowly from west to south to anything but north,1.8.5-published,2016-05-29,Robin Reinke,1
i think this in one of the best available in the whole store combined,1.8.5-published,2016-05-26,Guy Wolt,5
i wa not able to see the ever,1.8.5-published,2016-05-26,A Google User,5
the sky and space view of our universe,1.8.5-published,2016-05-24,melissa henderson,5
the sun is also in the east at 9 in case anyone is wondering,1.8.5-published,2016-05-22,Frank Battista,1
perhaps some way of calibrating the map by focusing on the moon to orient it,1.8.5-published,2016-05-22,Joseph Esman,3
it amazing but it would be out of this world you added graphic of it in stead of dot please,1.8.5-published,2016-05-22,Ray the assassin master,4
sky map,1.8.5-published,2016-05-22,Edward Lipsey,5
there ha been declared there are 34 new please add these and there are 23 planet,1.9.0-published,2016-07-11,Gen Gen Doee,4
please add,1.9.0-published,2016-07-11,Gen Gen Doee,4
a gyroscope functionality work great,1.9.0-published,2016-07-11,A Google User,5
vast improvement,1.9.0-published,2016-07-11,Charles Ball,5
long sky map,1.9.0-published,2016-07-11,David Garner,1
i wa able to use the now,1.9.0b-published,2017-01-01,Jacob Toothman,2
sky map is the best,1.9.0b-published,2016-12-31,Jannetta Tibbs,5
accurate in northern and southern hemisphere,1.9.0b-published,2016-12-29,,5
excellent but wish it showed milky way direction well,1.9.0b-published,2016-12-24,Haji Mammadov,4
can u add it,1.9.0b-published,2016-12-24,Haji Mammadov,4
it say my compass is accurately calibrated but it cannot even accurately point out obvious constellation,1.9.0b-published,2016-12-23,Agate Bloom,2
doe what it suppose to do but a little off in awhile,1.9.0b-published,2016-12-22,Blair Madeley,3
i used to be able to use it the horizon turned diagonal,1.9.0b-published,2016-12-22,Matthias Marasch,1
wish it had them,1.9.0b-published,2016-12-20,John Owen,4
there are far better available,1.9.0b-published,2016-12-19,Dave S,2
if it had display for satellite,1.9.0b-published,2016-12-07,Gary D,5
i would like to have infrared option well a many other option available on other,1.9.0b-published,2016-12-07,Stacy Pegues,4
no setting for language,1.9.0b-published,2016-12-06,Cinder Ella,1
took it with u camping in,1.9.0b-published,2016-12-03,J Martin Jones,5
of button,1.9.0b-published,2016-11-23,Ryan Rittenhouse,1
a great map to have on hand just in case,1.9.0b-published,2016-11-22,Daniel O'Brien,5
but according to this east is west north is still north,1.9.0b-published,2016-11-16,Trixtah,2
please include and make display smoother pointing at sky,1.9.0b-published,2016-11-15,,4
the only could locate me and the astronomical body i wanted to find,1.9.0b-published,2016-11-14,Graham Phillips,5
not able to zoom out,1.9.0b-published,2016-11-14,Joji Jose,2
north south east west not precise also moon and sun at opposite direction way out,1.9.0b-published,2016-11-14,naoki ong,1
i wish i could see the sky at night like this,1.9.0b-published,2016-11-07,Alexandre Duarte,5
sky map,1.9.0b-published,2016-11-05,Craig Dunn,5
sky map,1.9.0b-published,2016-11-05,,5
compass not accurate,1.9.0b-published,2016-11-01,eric lowden,2
wish calibration wa easier,1.9.0b-published,2016-10-31,,4
claimed south wa east west wa south,1.9.0b-published,2016-10-25,dockeydidit,1
genius,1.9.0b-published,2016-10-20,Rebecca Wynn,5
please make it more detailed find a way to link to a database of so that zooming in it get more and more detailed and when clicking star it show info,1.9.0b-published,2016-10-20,Andrew Solway,4
old version wa better,1.9.0b-published,2016-10-19,Sunil Kamath,1
i did not see the should add it also many would like to see with naked eye once it passing by your part of sky,1.9.0b-published,2016-10-18,t3chztyl3,4
i wa wondering a version of the same wa released,1.9.0b-published,2016-10-18,aditya sivanapalli,4
i want earth to be search able i can see the planet earth,1.9.0b-published,2016-10-16,Rainout Train,3
the orientation is wrong,1.9.0b-published,2016-10-10,,1
tel university,1.9.0b-published,2016-10-05,Richard Spitzberg,5
i appreciate all the work you did putting this together,1.9.0b-published,2016-10-05,Denise Reynolds,5
none of the constellation or compass work on my,1.9.0b-published,2016-10-03,S Damon Smith,3
add option to track and other satellite,1.9.0b-published,2016-10-03,Sridhar B,4
i wish it wa better,1.9.0b-published,2016-09-28,Willy Boehnke,3
would be beyond amazing could please add a cardboard option,1.9.0b-published,2016-09-28,Tony Gutierrez,4
it just like is a great for knowledge and knowing the outer space from the mobile,1.9.0b-published,2016-09-28,Sanidhya Gupta,5
can you please enable detailed space view like the earth layer for other planet and star in this,1.9.0b-published,2016-09-28,A Google User,5
sky map is,1.9.0b-published,2016-09-27,A Google User,5
great and light space explorer,1.9.0b-published,2016-09-25,Alexander A. Chaker,4
using it for 1 i wa able to recognize many constellation and individual star which i never wa able to do after reviewing book or star chart,1.9.0b-published,2016-09-18,canoneyes,5
very sensitive,1.9.0b-published,2016-09-16,What is this oh wait nvm,1
panning is much more without jerkiness of past version,1.9.0b-published,2016-09-16,Mark Edelman,5
good no user a good array of option and clean,1.9.0b-published,2016-09-16,Giulio Diracca,5
this the best sky map available for stargazer,1.9.0b-published,2016-09-16,Surya Prasad,5
it wa to the left of me,1.9.0b-published,2016-09-12,Layce Dilts,1
need improvement and constellation art,1.9.0b-published,2016-09-10,A Google User,2
sky map is a staple,1.9.0b-published,2016-09-07,Robert Moore,5
some other providing the same,1.9.0b-published,2016-09-06,shivraj singh,4
you could just add comet,1.9.0b-published,2016-09-01,A Google User,5
i like the fact these option are available the design is good too,1.9.0b-published,2016-08-29,Alexandria Anderson,3
enabling the gyroscope make everything much better,1.9.0b-published,2016-08-28,A Google User,5
sky map,1.9.0b-published,2016-08-28,Angie Evans,5
no add i could see,1.9.0b-published,2016-08-25,Alf Onico,4
accurate configurable,1.9.0b-published,2016-08-23,Adam Blackwood,5
the timing is accurate,1.9.0b-published,2016-08-22,laila haddad,5
display jump all over the place,1.9.0b-published,2016-08-21,Ivan Thomson,1
set it to manual and align it with a manual compass to get the accurate result,1.9.0b-published,2016-08-12,Ichsan Harja Nugraha,5
sky map,1.9.0b-published,2016-08-11,Pam Griggs,5
sky map,1.9.0b-published,2016-08-11,Patricia Donnelly,3
uncluttered by add,1.9.0b-published,2016-08-11,,5
wa the best feature,1.9.0b-published,2016-08-07,Joshua Avila,1
have a compass,1.9.0b-published,2016-08-07,Elizabeth Kaludjer,5
wa not expecting such an accurate,1.9.0b-published,2016-08-06,Skyz Da Limit,5
my only wish wa it would show more info on the messier object,1.9.0b-published,2016-08-05,Aaron Mitcham,5
sky map,1.9.0b-published,2016-07-29,Nude Baja29,5
now it is sky map,1.9.0b-published,2016-07-27,Guðmundur Karl Karlsson,5
sky map,1.9.0b-published,2016-07-23,Deborah Sexton Clark,4
genius,1.9.0b-published,2016-07-22,M W,5
the gyro is to sensitive and the map keep jumping,1.9.0b-published,2016-07-22,andrew o,4
how can i join to translate into another language,1.9.0b-published,2016-07-17,PEPI YUSNITA,5
i hope you put language option manually,1.9.0b-published,2016-07-13,Ahmed Bani Saad,5
gyroscope make it much smoother,1.9.0b-published,2016-07-12,Michael Bozeman,5
new gyroscope option made this much smoother,1.9.0b-published,2016-07-12,Jeremy Engman,5
wish all worked a well this,1.9.0b-published,2016-07-12,Arthur Gilbert,5
huge improvement,1.9.0b-published,2016-07-12,John McPhee,4
360 deg orientation may not work,1.9.0b-published,2017-05-22,mstepansky64,4
pl,1.9.0b-published,2017-05-19,Bhavesh Tank,5
add solar system also,1.9.0b-published,2017-05-19,Bhavesh Tank,5
it not practical to have to keep in mind the sky is reversed at all but it an interesting exercise of my cognition,1.9.0b-published,2017-05-18,A Google User,3
please make this for viewing,1.9.0b-published,2017-05-12,A Google User,5
still getting to know my way around,1.9.0b-published,2017-05-11,h!d,5
need betterment on time travel add thing like next lunar eclipse and other thing,1.9.0b-published,2017-05-03,Mushfikur Rahman,5
maybe work on lighting,1.9.0b-published,2017-04-30,Gabrielle Karwowski,5
work but need a compass,1.9.0b-published,2017-04-28,shug831,3
add fun educational,1.9.0b-published,2017-04-28,Mandy Martin,5
manual mode is very clever for locating heavenly body of interest,1.9.0b-published,2017-04-25,William Brown,5
just today the moon wa in the it showed up in the west side on the sky map,1.9.0b-published,2017-04-10,,1
we are studying science then my teacher told u to download it,1.9.0b-published,2017-04-09,Crybaby Tears,5
u star and constellation,1.9.0b-published,2017-04-08,Sanjeeb Kujur,5
like the idea of quickly identifying feature in the sky,1.9.0b-published,2017-04-07,ca douglas,4
i have to calibrate the compass over and over again,1.9.0b-published,2017-03-31,Julia Hargis,3
you could add the of the constellation a an overlay to help show the imagination and inspiration of the naming of the constellation,1.9.0b-published,2017-03-26,Jim Palmer,4
think north is south,1.9.0b-published,2017-03-02,Wz axy,1
doe not auto rotate on my,1.9.0b-published,2017-03-01,Chris Sharp,2
this feature is not developer please add this feature,1.9.0b-published,2017-02-26,Bubul Medhi,5
please add system,1.9.0b-published,2017-02-23,Mike H,4
add voyager 1 and voyager 2,1.9.0b-published,2017-02-22,Svetlin Novoselski,4
south is north and north is south,1.9.0b-published,2017-02-20,Mark Stevens,1
or maybe even,1.9.0b-published,2017-02-19,Robert Laporte,5
i wa just thinking why can i see just orion from,1.9.0b-published,2017-02-12,Ujwal Talele,5
just a suggestion it would be great if you can redirect u to the link after double tapping a particular star or planet or constellation,1.9.0b-published,2017-02-12,Ujwal Talele,5
sky map wa able to accurately determine my and display celestial object in relation to my position,1.9.0b-published,2017-02-09,Blake Harriott,5
doe not auto rotate on my,1.9.0b-published,2017-02-06,,1
no compass good,1.9.0b-published,2017-02-02,,1
sky map is great,1.9.0b-published,2017-01-15,Susan Hawke,5
worked great on my old but on my new one the compass will not calibrate,1.9.0b-published,2017-01-13,Nikko Jesse,1
i the and tried again to no avail,1.9.0b-published,2017-01-04,,1
add,1.9.0b-published,2017-01-04,Johnny Cat,5
i really enjoyed the first version,1.9.0b-published,2017-01-03,Susan B,2
even the compass,1.9.0b-published,2017-01-03,Shumon Singha,1
sky map,1.9.0b-published,2017-01-02,,4
just wish it could be updated to follow the material design guideline,1.9.0b-published,2017-01-02,Zack Guard,5
