Topic Index 1,Topic Index 2,Topic Similarity
17,3,0.9438
16,9,0.8616
5,14,0.504
10,12,0.4727
4,17,0.43420000000000003
14,5,0.19090000000000001
0,0,0.0
1,1,0.0
2,2,0.0
3,4,0.0
6,6,0.0
7,7,0.0
8,8,0.0
9,10,0.0
11,11,0.0
12,13,0.0
13,15,0.0
15,16,0.0
18,18,0.0
19,19,0.0
