work well and let you know just about everything you could want to know on the time left and status of battery,b,2015-03-24,Gary A.,4
i rated four star i really think it is good,o,2015-03-23,Glenda Barfield,4
simple and easy to understand,o,2015-03-23,Bayu Gondokusumo,5
it work far,o,2015-03-23,Olivia Sistina,4
brilliant always know how your battery is,b,2015-03-22,Nigel Dunkerley,5
only,o,2015-03-21,Michael Cosfol,5
you added a few more color,f,2015-03-21,Michael Cosfol,5
good,o,2015-03-20,along nuar,5
very good,o,2015-03-20,Lorena Ram.,5
very useful,o,2015-03-19,Anand Lohany,5
it awesome,o,2015-03-19,Cory Yazzie,5
useful,o,2015-03-19,Will Nicholls,5
