App,Store,App ID,Review ID,Country,Version,Rating,Date,Author,Subject,Body,Translated Subject,Translated Body
Secret Codes,Google Play,fr.simon.marquis.secretcodes,Z3A6QU9xcFRPSC1MSkFIVElfTGRzUTNfOGdGYkJrdFlFNmFXLWNMYl94VEh4WlRTZEd0cmxTdWtQbnVzM1NfNTV5S3pkbGNrU0VlS2F4cmZVbkt1MHUtc1kw,English,,1,2016-04-08,Mohan Sanjeev,Download,,,
Secret Codes,Google Play,fr.simon.marquis.secretcodes,Z3A6QU9xcFRPRlFzQVh4bVI5TEJIdllGdkF2UTN5TUJLLWRhTXVfV0lUVk5QQWhrSjlVaDBkLUx0Z3RtaHl1MXlsSUxHcFZCOHZPM3F4WGstY3RPTUoya2Vn,English,,1,2016-04-07,Xtenchen,,trashy 2 code my 5 year old sister could have done better,,
Secret Codes,Google Play,fr.simon.marquis.secretcodes,Z3A6QU9xcFRPRTBLc0FqTGhZMWRvWHhmZ3UyY1BXVFcwcTRZemZ3bFZaVEdBRi1wWUQ0T2czMDBjdnZmaXNlRjJlN0lySG1xWnUyU3E1VTAteXgxRjFSWkNJ,English,,5,2016-03-27,Theun Knowntxter,5 *'s rateing,secret code wa by of fame,,
Secret Codes,Google Play,fr.simon.marquis.secretcodes,Z3A6QU9xcFRPRTBLc0FqTGhZMWRvWHhmZ3UyY1BXVFcwcTRZemZ3bFZaVEdBRi1wWUQ0T2czMDBjdnZmaXNlRjJlN0lySG1xWnUyU3E1VTAteXgxRjFSWkNJ,English,,5,2016-03-27,Theun Knowntxter,5 *'s rateing,i trust him and his expertise,,
Secret Codes,Google Play,fr.simon.marquis.secretcodes,Z3A6QU9xcFRPRTBLc0FqTGhZMWRvWHhmZ3UyY1BXVFcwcTRZemZ3bFZaVEdBRi1wWUQ0T2czMDBjdnZmaXNlRjJlN0lySG1xWnUyU3E1VTAteXgxRjFSWkNJ,English,,5,2016-03-27,Theun Knowntxter,5 *'s rateing,secret code ha indeed turned out to be a useful and helpful choice,,
Secret Codes,Google Play,fr.simon.marquis.secretcodes,Z3A6QU9xcFRPRWlvajZRRkF6WW1QdUFQdXNnTHJrZzJlbTBjU1M5LW1JU3RCR2hMQ244MENFZEQyVTY5WlY2N0dSMTd2WWx5Mm1McTEwV3ExTFJHUXFqalNB,English,,4,2016-03-10,Iv Qaz,,need more code,,
Secret Codes,Google Play,fr.simon.marquis.secretcodes,Z3A6QU9xcFRPRUtURXdId0ZMNmZYbmlYcE1hMUx5T2dvZ0VCNnZnZXdkbkpDUVdBZ0lGRURnd3VkeGVkZU5TMWVlLVFTVDBManpmM0hyWWtKVmJQbDA3Y1l3,English,,5,2016-02-22,Ethan Brittain-Morby,,neat tool,,
Secret Codes,Google Play,fr.simon.marquis.secretcodes,Z3A6QU9xcFRPRXRmZHl4RHlDalMyTlBDRWFXb2pyQ2pYS3h0a3lOMEhkWTJ4NE50SmxYV3lncTZlUkhaazlVejFKWUZwSzB2bGU4TXNXNnRBcjlvOXJUVTdv,English,,4,2016-02-03,Scott Kelly,Doesn't (quite) work with my S4,torn between 3 and 4 star,,
Secret Codes,Google Play,fr.simon.marquis.secretcodes,Z3A6QU9xcFRPRXRmZHl4RHlDalMyTlBDRWFXb2pyQ2pYS3h0a3lOMEhkWTJ4NE50SmxYV3lncTZlUkhaazlVejFKWUZwSzB2bGU4TXNXNnRBcjlvOXJUVTdv,English,,4,2016-02-03,Scott Kelly,Doesn't (quite) work with my S4,it found a list of and i tapped one it said it wa sending but nothing happened,,
Secret Codes,Google Play,fr.simon.marquis.secretcodes,Z3A6QU9xcFRPRk1JWkNxcDExSUViNzhGQlRCU3RQMmxhdDlBVkJTemFRSlE2b1UzQ1dDV0xvNk10RmNiX3UwZFhzZG5xUEJPTkNvb1FHdzYtQWloQTQ0c1BJ,English,,5,2015-12-10,Rakesh Yadav,,great tool,,
Secret Codes,Google Play,fr.simon.marquis.secretcodes,Z3A6QU9xcFRPRk1JWkNxcDExSUViNzhGQlRCU3RQMmxhdDlBVkJTemFRSlE2b1UzQ1dDV0xvNk10RmNiX3UwZFhzZG5xUEJPTkNvb1FHdzYtQWloQTQ0c1BJ,English,,5,2015-12-10,Rakesh Yadav,,find all code,,
Secret Codes,Google Play,fr.simon.marquis.secretcodes,Z3A6QU9xcFRPR0xReE9rRjktREhfLWxVcWdpRHFONTd0Ri0yZHUzeFMxMy02akhkN0ZoUEhvTDcyeGRUanRsUjgza1UxaDVpbk8yWlBUN0tiaU1FdTc2MV9n,English,,3,2015-11-23,Chuong Le Pham,"Some work, most don't!",most of the secret code returned do not work on android 5 plus device,,
Secret Codes,Google Play,fr.simon.marquis.secretcodes,Z3A6QU9xcFRPRnhDMmRWTE1mSjY5eWdpY3VCX3MwZlFTT3pIWjEyaE5UUHRpb01mSmhEODlxeEN0U0J2NWtBNnhsclRJaEJyV0hkaEF1a0RTdVVjV1Z1WHZN,English,,4,2015-11-07,Anne Onimus,Interesting,but potentially dangerous,,
Secret Codes,Google Play,fr.simon.marquis.secretcodes,Z3A6QU9xcFRPRjNDUzFDTzFtTDRGYXNMUU5pYk1va1JJTVBTdzd3VmptNG9VU0JGdnpWLUJWVjZqVDBYakRXNUZfTTJJMUxlcEd0cTM3d3UxOEp1NjhMVVRv,English,,5,2015-10-26,Rum Pum,,nice,,
Secret Codes,Google Play,fr.simon.marquis.secretcodes,Z3A6QU9xcFRPSG5veWN0UzNMNkR0UmxKd0tCQk5QUy0tNzlRZ19NNm0tZGItSmhfV3VPdXFUdzNwbGhWbGlIdThENmNEXzU4VlhoQ25xRTJaTU00NnI0LUo4,English,,1,2015-09-13,Patricia Burnette,Useless says no secret codes.on my device,removing,,
Secret Codes,Google Play,fr.simon.marquis.secretcodes,Z3A6QU9xcFRPSF9VUDMxejdsbG10b0FNXzhfb2VreXd6cVl1R0VOTjZPNENZcUJ3VmtRRUxSaDlOcEFGMHhCMGM3a045cWFPa25RUXltNkxJWTY1Q1BLeURB,English,,1,2015-08-30,serge leinweber,,i chose to show my phone info and instead the device wa rebooted and the data erased,,
Secret Codes,Google Play,fr.simon.marquis.secretcodes,Z3A6QU9xcFRPSF9VUDMxejdsbG10b0FNXzhfb2VreXd6cVl1R0VOTjZPNENZcUJ3VmtRRUxSaDlOcEFGMHhCMGM3a045cWFPa25RUXltNkxJWTY1Q1BLeURB,English,,1,2015-08-30,serge leinweber,,how would the developer rate this functionality,,
Secret Codes,Google Play,fr.simon.marquis.secretcodes,Z3A6QU9xcFRPRW91WEhtZGFTQWZmR0tlbWdEbGIwZ3BQWDZIRktRVHpHY05UNTdRQ3MzdlQ2RVJnTzBrUFRlMVZOcUN5ZWxJd2xNSFBlZlZGeWlOdmxqaWVj,English,,5,2015-08-26,Everitt Fox,,been looking for,,
Secret Codes,Google Play,fr.simon.marquis.secretcodes,Z3A6QU9xcFRPSHNYVEl0MmVFaEhBVmotUGt5ekppUHV6MTZsRmMyZjEwbzc0bERXVGJhc2lVeW1vU0ZtUmYzSndaOWFkaHpnelIwcDQzLVpRdVhUNDRHU29R,English,,4,2015-08-19,Benyamin Saeedi,,good,,
Secret Codes,Google Play,fr.simon.marquis.secretcodes,Z3A6QU9xcFRPR19MTC1jYXVpbXBsT3pYR2JUdG1QNE03NUx2OHEtOHd6NDdWLWdiSWk3VkU3V2N0Z2o5eEQxVGJMMnNkY0todzdOcU1IcEx1YUFzMmZ1cjg4,English,,4,2015-07-23,Erica,Good start. Invoke secret code without opening phone dialer app.,a it is it look like the specific model code are from,,
Secret Codes,Google Play,fr.simon.marquis.secretcodes,Z3A6QU9xcFRPR19MTC1jYXVpbXBsT3pYR2JUdG1QNE03NUx2OHEtOHd6NDdWLWdiSWk3VkU3V2N0Z2o5eEQxVGJMMnNkY0todzdOcU1IcEx1YUFzMmZ1cjg4,English,,4,2015-07-23,Erica,Good start. Invoke secret code without opening phone dialer app.,i never knew you could access with a dialer code now,,
Secret Codes,Google Play,fr.simon.marquis.secretcodes,Z3A6QU9xcFRPR19MTC1jYXVpbXBsT3pYR2JUdG1QNE03NUx2OHEtOHd6NDdWLWdiSWk3VkU3V2N0Z2o5eEQxVGJMMnNkY0todzdOcU1IcEx1YUFzMmZ1cjg4,English,,4,2015-07-23,Erica,Good start. Invoke secret code without opening phone dialer app.,add 06 for,,
Secret Codes,Google Play,fr.simon.marquis.secretcodes,Z3A6QU9xcFRPR1Q5OElRYWE5emF3c0tpTFJhaWpqUnhlZmEzUmYteGcwakdQMlJLZHhBbWZ5N1pWRFAyVm96SVg4WDVJaEpKYm1obTd3T3JubUpoSXoyU01N,English,,4,2015-07-22,Ankush Kulashri,Best Code searching app,good rather providing whole list it just provide code that work,,
Secret Codes,Google Play,fr.simon.marquis.secretcodes,Z3A6QU9xcFRPRkZiM0F6Zjg3Qkx2em1TbmtrbXNmUGsyUEVUN3RqLTlTMjNUVjZuM0ZCWFBsLXNYY0x2OTdxV1hSX0dCd01Ya1dmc2g4X1pqNVhjSTN0cmxB,English,,1,2015-06-09,bob watson,Piffle! Found none yet I've got loads!!!,title say it,,
Secret Codes,Google Play,fr.simon.marquis.secretcodes,Z3A6QU9xcFRPR3RvX2RxQ05iUi1aWGViZnVBMHlBVmlEakM3U0t3OHRlOG5uc0hBWHZPQWJPb2dNcTB2Rzc1MUlHbXA4eGpTQWJ0QWJxY2JCMHB4WWtWb2tZ,English,,5,2015-04-07,Maya Carter,Awesome,this is a must have for anyone who like to poke around hidden setting,,
Secret Codes,Google Play,fr.simon.marquis.secretcodes,Z3A6QU9xcFRPRjRzdWxheG9iSU4tTXUyOE5qNUlTTHllNDBkYlNCMFlBOFZNZVNDdjhCNkhrc3JFbnpzdmF3QmlZRDVJTVZpMmVraGw4YmVGekNqZTJnQnZj,English,,5,2015-03-31,Crystal Laviolette,,cool,,
Secret Codes,Google Play,fr.simon.marquis.secretcodes,Z3A6QU9xcFRPR3h5S2x2QnRIb01YYktwZ0c4cVJscFF4eW82LTU0eDMyX08wZEtuTmprc0tsV1NwUXRQTDZPZ2poNkNXOWFhSVdHbkxKbFlKNndPektpMGlR,English,,3,2015-02-27,mm m,Interesting but needs improvement,secondly most of the service code were not available,,
Secret Codes,Google Play,fr.simon.marquis.secretcodes,Z3A6QU9xcFRPR3h5S2x2QnRIb01YYktwZ0c4cVJscFF4eW82LTU0eDMyX08wZEtuTmprc0tsV1NwUXRQTDZPZ2poNkNXOWFhSVdHbkxKbFlKNndPektpMGlR,English,,3,2015-02-27,mm m,Interesting but needs improvement,excellent and nice to see an is useful and interesting but need improvement,,
Secret Codes,Google Play,fr.simon.marquis.secretcodes,Z3A6QU9xcFRPR3h5S2x2QnRIb01YYktwZ0c4cVJscFF4eW82LTU0eDMyX08wZEtuTmprc0tsV1NwUXRQTDZPZ2poNkNXOWFhSVdHbkxKbFlKNndPektpMGlR,English,,3,2015-02-27,mm m,Interesting but needs improvement,also i found a secret logger on my phone called smith installed by,,
Secret Codes,Google Play,fr.simon.marquis.secretcodes,Z3A6QU9xcFRPSEhOb0d6eUctalRpM3Z6a0Iza3gxQ1lvU0x3aDN2dGxYTHlhcC1mVHRGNmZJUDh0Q3JWaENsb0I3MU1nWmxtSzF5YXA5dTF5eDUxZlVUdi1Z,English,,4,2015-02-25,lacey white,It ok,it work fine on my android,,
Secret Codes,Google Play,fr.simon.marquis.secretcodes,Z3A6QU9xcFRPRzVVWDdhTV9CNzJzbE5lZnZwd1prVnE0dUdOaGtkcTFuMkdMLXdBSURUXzd5SUNQN1ktZ1F2c3FVaXdVekZUbnZyOFpGYjRFcVdMdE1keVNz,English,,1,2014-12-07,Brian Bergbauer,Dumb,what doe it do,,
Secret Codes,Google Play,fr.simon.marquis.secretcodes,Z3A6QU9xcFRPRzVVWDdhTV9CNzJzbE5lZnZwd1prVnE0dUdOaGtkcTFuMkdMLXdBSURUXzd5SUNQN1ktZ1F2c3FVaXdVekZUbnZyOFpGYjRFcVdMdE1keVNz,English,,1,2014-12-07,Brian Bergbauer,Dumb,i read your description and it lack detail,,
Secret Codes,Google Play,fr.simon.marquis.secretcodes,Z3A6QU9xcFRPRzVVWDdhTV9CNzJzbE5lZnZwd1prVnE0dUdOaGtkcTFuMkdMLXdBSURUXzd5SUNQN1ktZ1F2c3FVaXdVekZUbnZyOFpGYjRFcVdMdE1keVNz,English,,1,2014-12-07,Brian Bergbauer,Dumb,you ruined your opportunity to change my mind and the rating i left with your comment,,
Secret Codes,Google Play,fr.simon.marquis.secretcodes,Z3A6QU9xcFRPRl82TG83c1JBQVYzWkt6Z1dITTBQY1FFblo5NGxBWE83WFJYci1mV3Vydk0tNlQ4ZmhPLXY2djRmYjJTcTJKS2tpZlRMWUFlRmhWTjVWVEE0,English,,5,2014-10-15,Tee Bar,LG,like it work surprisingly well just push the one you want and it sends you right to the particular menu,,
Secret Codes,Google Play,fr.simon.marquis.secretcodes,Z3A6QU9xcFRPRl82TG83c1JBQVYzWkt6Z1dITTBQY1FFblo5NGxBWE83WFJYci1mV3Vydk0tNlQ4ZmhPLXY2djRmYjJTcTJKS2tpZlRMWUFlRmhWTjVWVEE0,English,,5,2014-10-15,Tee Bar,LG,some code are just not for your phone,,
Secret Codes,Google Play,fr.simon.marquis.secretcodes,Z3A6QU9xcFRPR0FMZVg0MU0wNWI3M2gxZUNQV3RPSkpvSDBSSFpSVGhHcFdlenZIZ1I1OXRyeUpnOEp4NjBTdXNLU3cwTWVBZlBYOEc3Z01qd3BYSzBCOHlJ,English,,5,2014-09-21,farshad22591 nikaein,,nice,,
Secret Codes,Google Play,fr.simon.marquis.secretcodes,Z3A6QU9xcFRPR08yY1FaTDhjQV83djNZM21Zc1ZpNGZvUDVSeW4wb1VSaUNXeTd0Qm1IX2lSR1ZNdUNmRUVkR3I2Y0c5VEczS09YOGZ5QTNpUG90SVJOMWNv,English,,1,2014-09-11,Ahmad K. K.,No secret codes found,lack of support for,,
Secret Codes,Google Play,fr.simon.marquis.secretcodes,Z3A6QU9xcFRPRWoyOFF3a3lEbUpFcHNqOGprVTVKNU5Ra3Z6aEtmYVVxU2Y2MVRiTV96cWtuM3IycjlTQVN6RGU1U1pNS2RKYk5yTEJyOS1oNWhMdGZsMWtv,English,,1,2014-08-04,Kazuma K.,Only Stock Roms?,i start the scan process and the say it cannot find any code,,
Secret Codes,Google Play,fr.simon.marquis.secretcodes,Z3A6QU9xcFRPRWoyOFF3a3lEbUpFcHNqOGprVTVKNU5Ra3Z6aEtmYVVxU2Y2MVRiTV96cWtuM3IycjlTQVN6RGU1U1pNS2RKYk5yTEJyOS1oNWhMdGZsMWtv,English,,1,2014-08-04,Kazuma K.,Only Stock Roms?,doe it work on stock,,
Secret Codes,Google Play,fr.simon.marquis.secretcodes,Z3A6QU9xcFRPRWoyOFF3a3lEbUpFcHNqOGprVTVKNU5Ra3Z6aEtmYVVxU2Y2MVRiTV96cWtuM3IycjlTQVN6RGU1U1pNS2RKYk5yTEJyOS1oNWhMdGZsMWtv,English,,1,2014-08-04,Kazuma K.,Only Stock Roms?,,,
Secret Codes,Google Play,fr.simon.marquis.secretcodes,Z3A6QU9xcFRPRUxvRW5FRFZCQW82b3RCcHJsTWtHZHY0QUtaQ2hBR2lUQ1c0dVI5Z0h2dXAxanJFa3hMSTA2U0NWQ0Nta0xNWmxwQ1VjZkhESmpFVzdDOGpn,English,,5,2014-07-30,Paraj Baigsen,True to its word,doe what it claim to do with no hassle,,
