Topic Index 1,Topic Index 2,Topic Similarity
9,3,25.0
4,5,17.647058823529413
17,2,17.647058823529413
19,8,17.647058823529413
2,10,11.11111111111111
7,4,11.11111111111111
8,11,11.11111111111111
13,12,11.11111111111111
14,18,11.11111111111111
15,9,11.11111111111111
0,0,5.263157894736842
1,1,5.263157894736842
3,7,5.263157894736842
6,15,5.263157894736842
10,6,5.263157894736842
12,17,5.263157894736842
16,13,5.263157894736842
18,14,5.263157894736842
5,16,0.0
11,19,0.0
