Topic Index 1,Topic Index 2,Topic Similarity
0,4,13.333333333333334
1,1,6.25
2,3,6.25
3,6,6.25
4,18,6.25
5,19,6.25
6,0,0.0
7,2,0.0
8,5,0.0
9,7,0.0
10,8,0.0
11,9,0.0
12,10,0.0
13,11,0.0
14,12,0.0
15,13,0.0
16,14,0.0
17,15,0.0
18,16,0.0
19,17,0.0
