Topic,Words
0,1.000*gut
1,1.000*gut
2,1.000*gut
3,1.000*gut
4,1.000*gut
5,1.000*gut
6,1.000*gut
7,1.000*gut
8,1.000*gut
9,1.000*gut
10,1.000*gut
11,1.000*gut
12,1.000*gut
13,1.000*gut
14,1.000*gut
15,1.000*gut
16,1.000*gut
17,1.000*gut
18,1.000*gut
19,1.000*gut
