Topic Index 1,Topic Index 2,Topic Similarity
7,4,17.647058823529413
0,1,11.11111111111111
2,3,11.11111111111111
3,5,11.11111111111111
10,11,11.11111111111111
1,0,5.263157894736842
4,8,5.263157894736842
5,9,5.263157894736842
9,13,5.263157894736842
14,2,5.263157894736842
15,7,5.263157894736842
6,6,0.0
8,10,0.0
11,12,0.0
12,14,0.0
13,15,0.0
16,16,0.0
17,17,0.0
18,18,0.0
19,19,0.0
