Topic Index 1,Topic Index 2,Topic Similarity
16,4,17.647058823529413
0,5,11.11111111111111
1,13,11.11111111111111
6,0,11.11111111111111
10,1,11.11111111111111
11,3,11.11111111111111
12,11,11.11111111111111
17,16,11.11111111111111
2,6,5.263157894736842
3,14,5.263157894736842
4,7,5.263157894736842
5,10,5.263157894736842
7,2,5.263157894736842
8,12,5.263157894736842
9,15,5.263157894736842
14,8,5.263157894736842
15,9,5.263157894736842
13,17,0.0
18,18,0.0
19,19,0.0
