Topic Index 1,Topic Index 2,Topic Similarity
0,4,25.0
12,1,25.0
4,5,11.11111111111111
5,0,11.11111111111111
7,3,11.11111111111111
8,15,11.11111111111111
13,2,11.11111111111111
14,10,11.11111111111111
1,7,5.263157894736842
2,9,5.263157894736842
3,16,5.263157894736842
6,13,5.263157894736842
9,11,5.263157894736842
15,17,5.263157894736842
16,14,5.263157894736842
10,6,0.0
11,8,0.0
17,12,0.0
18,18,0.0
19,19,0.0
