Topic Index 1,Topic Index 2,Topic Similarity
0,6,2.0
4,5,2.0
7,8,2.0
11,3,2.0
18,10,2.0
1,14,1.0
2,0,1.0
3,7,1.0
5,12,1.0
6,9,1.0
8,1,1.0
9,18,1.0
10,2,1.0
12,4,1.0
13,15,1.0
15,11,1.0
16,17,1.0
19,16,1.0
14,13,0.0
17,19,0.0
