add search box in action bar in station list screen,f,2014/9/18,,
replace else if with switch,b,2014/9/17,,
fix tag empty body warning,b,2014/9/16,,
add more info in station screen,f,2014/9/16,,
parse extra info,b,2014/9/16,,
bump version,b,2014/9/12,,
