add contribute section,f,2014/8/14,,
bump version,b,2014/8/13,,
show toast,o,2014/8/13,,
check there is an to receive the navigation intent,b,2014/8/13,,
add favorite station support,f,2014/8/13,,
