Topic Index 1,Topic Index 2,Topic Similarity
8,14,17.647058823529413
0,5,11.11111111111111
2,12,11.11111111111111
3,4,11.11111111111111
6,9,11.11111111111111
9,1,11.11111111111111
10,15,11.11111111111111
13,10,11.11111111111111
17,0,11.11111111111111
18,2,11.11111111111111
19,16,11.11111111111111
4,17,5.263157894736842
7,18,5.263157894736842
12,19,5.263157894736842
14,7,5.263157894736842
1,3,0.0
5,6,0.0
11,8,0.0
15,11,0.0
16,13,0.0
