great work,o,2013-11-05,Will Salemé,1
just cloud and is down loaded the task and a little disappointed it not integrated into i have to use a,b,2013-10-30,Avnash Jhita,3
syncs my 7 reminder very well and make life far simpler for user with both android and device,b,2013-10-25,,5
oh what a relief it is,f,2013-10-17,Ronald Guernsey,5
syncs just really looking forward to the alarm feature to be updated,b,2013-10-13,Mellman Productions,4
the is really uncalled the cloud sync is just it happens in the background automatically without opening the,b,2013-10-04,Suraj Baliga,5
i get everyday by viewing this widget,b,2013-10-04,Suraj Baliga,5
the developer responds quickly and is implementing awesome update soon,f,2013-10-04,Suraj Baliga,5
for now i am just happy i am getting my reminder and calender synced automatically and i can view them quickly and work on them fast,b,2013-10-04,Suraj Baliga,5
reminder on android,f,2013-10-04,Joshua Miller,5
broken on no way to add new account doe not sync,b,2013-09-19,A Google User,1
used to fix,b,2013-09-19,A Google User,1
work very well with our server,b,2013-08-19,Michael Doerner,4
feature set is always improving,f,2013-08-19,Michael Doerner,4
just great,o,2013-08-19,Kalle Carlbark,5
