Topic Index 1,Topic Index 2,Topic Similarity
0,12,2.0
1,13,2.0
2,0,1.0
3,1,1.0
4,3,1.0
5,4,1.0
6,6,1.0
7,7,1.0
8,8,1.0
9,9,1.0
10,18,1.0
11,2,0.0
12,5,0.0
13,10,0.0
14,11,0.0
15,14,0.0
16,15,0.0
17,16,0.0
18,17,0.0
19,19,0.0
