Topic Index 1,Topic Index 2,Topic Similarity
6,11,2.0
7,4,2.0
8,13,2.0
13,15,2.0
14,16,2.0
18,6,2.0
0,7,1.0
1,0,1.0
2,3,1.0
3,12,1.0
4,19,1.0
5,2,1.0
9,18,1.0
10,10,1.0
11,17,1.0
12,8,1.0
15,5,1.0
17,14,1.0
16,1,0.0
19,9,0.0
