Topic,Words
0,0.028*this,0.024*you,0.022*i,0.020*tried,0.017*guys,0.017*of,0.017*with,0.016*to,0.016*is,0.016*party
1,0.040*on,0.037*model,0.032*i,0.023*to,0.023*features,0.020*no,0.019*relay,0.019*previous,0.019*my,0.019*their
2,0.033*reply,0.025*are,0.023*possible,0.023*work,0.022*we,0.022*message,0.022*developer,0.021*reminder,0.020*by,0.019*features
3,0.031*no,0.027*only,0.025*cellphone,0.024*are,0.023*up,0.022*turn,0.021*official,0.018*works,0.018*update,0.018*a
4,0.028*pay,0.027*model,0.026*in,0.021*thanks,0.019*by,0.019*get,0.018*how,0.018*it,0.018*so,0.018*buy
5,0.031*features,0.023*relay,0.022*quick,0.021*would,0.020*don't,0.019*nature,0.019*push,0.019*sure,0.019*really,0.018*done
6,0.062*other,0.031*you,0.030*like,0.027*well,0.022*works,0.019*act,0.019*update,0.019*them,0.018*maybe,0.017*stored
7,0.036*maybe,0.029*quick,0.027*get,0.023*new,0.023*reminder,0.022*server,0.021*notification,0.020*wasn't,0.020*just,0.019*client
8,0.033*had,0.030*problem,0.028*model,0.022*free,0.022*because,0.022*thanks,0.021*subject,0.021*lot,0.019*possible,0.018*was
9,0.030*hands,0.028*them,0.027*doesn't,0.026*cellphone,0.024*notification,0.024*was,0.023*codes,0.023*free,0.021*reminder,0.021*so
10,0.037*doesn't,0.028*able,0.028*the,0.023*don't,0.021*keep,0.020*something,0.019*well,0.019*is,0.018*request,0.016*hands
11,0.031*customize,0.030*know,0.027*codes,0.026*ping,0.024*pro,0.023*pebble,0.022*the,0.021*model,0.020*free,0.020*don't
12,0.042*buy,0.035*never,0.025*need,0.025*codes,0.024*then,0.022*done,0.022*them,0.020*relay,0.020*subject,0.019*coming
13,0.035*look,0.034*need,0.033*if,0.027*the,0.025*turn,0.024*push,0.021*demand,0.017*request,0.017*versions,0.016*is
14,0.041*them,0.031*best,0.026*lock,0.021*code,0.021*lot,0.020*set,0.018*reply,0.016*relay,0.016*stored,0.015*update
15,0.033*to,0.029*i,0.025*model,0.024*down,0.022*sidebar,0.022*3,0.020*have,0.020*if,0.019*then,0.019*how
16,0.028*free,0.026*my,0.024*demand,0.023*pebble,0.023*so,0.022*keep,0.019*download,0.018*hat,0.018*from,0.017*up
17,0.031*sure,0.031*source,0.030*never,0.029*official,0.024*possible,0.024*because,0.022*previous,0.020*but,0.020*software,0.019*server
18,0.034*die,0.032*in,0.031*that,0.022*also,0.022*using,0.021*only,0.021*act,0.020*not,0.018*source,0.017*update
19,0.030*perfect,0.030*myself,0.027*better,0.024*want,0.023*get,0.022*a,0.022*works,0.021*request,0.021*quick,0.020*guys
