Topic Index 1,Topic Index 2,Topic Similarity
3,7,3.0
13,15,3.0
1,10,2.0
4,14,2.0
5,12,2.0
9,18,2.0
10,0,2.0
11,9,2.0
16,2,2.0
0,4,1.0
6,6,1.0
7,13,1.0
8,3,1.0
15,8,1.0
2,1,0.0
12,5,0.0
14,11,0.0
17,16,0.0
18,17,0.0
19,19,0.0
