App,Store,App ID,Review ID,Country,Version,Rating,Date,Author,Subject,Body,Translated Subject,Translated Body
TTRSS-Reader,Google Play,org.ttrssreader,Z3A6QU9xcFRPSDZ0bE11YUpLTTl4M19waUZyT1preW14YWVZam05X2k0ak1aMmRBZWJzVWNRVkJYNXZFcklLa2E0emZLLTd4VDRTcmVfeTRFdUh5NG1W,English,,1,2014-11-18,Rob Gant,Ugly and dangerous,the largest button in the mark every article read without a confirmation or undo,,
TTRSS-Reader,Google Play,org.ttrssreader,Z3A6QU9xcFRPSDZ0bE11YUpLTTl4M19waUZyT1preW14YWVZam05X2k0ak1aMmRBZWJzVWNRVkJYNXZFcklLa2E0emZLLTd4VDRTcmVfeTRFdUh5NG1W,English,,1,2014-11-18,Rob Gant,Ugly and dangerous,the article themselves look especially the dark gray background on the black headline text,,
TTRSS-Reader,Google Play,org.ttrssreader,Z3A6QU9xcFRPSDZ0bE11YUpLTTl4M19waUZyT1preW14YWVZam05X2k0ak1aMmRBZWJzVWNRVkJYNXZFcklLa2E0emZLLTd4VDRTcmVfeTRFdUh5NG1W,English,,1,2014-11-18,Rob Gant,Ugly and dangerous,article navigation is also clumsy,,
