# deletions,date,commit message
22,2016/6/12,Hide empty fields (need to handle null)
35,2016/5/29,add xml translations
502,2016/5/29,refreshed locales
839,2016/5/29,fixes
59,2016/5/28,Better handling for allergens downloading
15,2016/5/28,Allergens now display properly in the ingredients Close #93 #95 #96
