# deletions,date,commit message
23,2015/8/19,Combine main and wearable version.properties files  Keep main and wearable versions in sync as per suggestions from documentation.
1,2015/8/03,Ensure ImageBlurrer makes a copy for the destination  In cases where the size was not changing both the src and dest copy was being changed when blurred
2,2015/8/03,Reduce clock/date shadow to take into account changed density
37,2015/7/31,web updates
1,2015/6/17,update wikiart scrape code
40,2015/5/21,Some minor memory enhancements expecially when blur is absent.
2,2015/5/31,Use the CapabilityApi to send activate_muzei messages to the correct node.  Replaces the Wearable.NodeApi.getConnectedNodes() call with a call to Wearable.CapabilityApi.getCapability() ensuring that only the main app (which has the capability 'activate_muzei') will receive the message to activate Muzei rather than other Wearable devices or the cloud node.
5,2015/5/31,Moves base theme to Theme.AppCompat.NoActionBar  As of AppCompat 22.1.0 themes that do not want to use an action bar must contain both <item name="windowActionBar">false</item> <item name="windowNoTitle">true</item>  Which is automatically done for us when you extend Theme.AppCompat.NoActionBar. As all of our themes use a Toolbar and not the provided action bar we can switch our base theme to Theme.AppCompat.NoActionBar and remove the windowActionBar=false declarations scattered throughout our themes.
7,2015/5/31,Update dependencies to latest versions  Updates Support Library to 22.2.0 Gradle plugin to 1.2.3 compile SDK version to 22 build tools to 22.0.1 and Google Play services to 7.5.0
1,2015/5/04,Update .gitignore
1,2015/4/07,Remove double call to super.onPeekCardPositionUpdate() from watch face  Don't want to call the super method twice.
1,2015/4/07,Update Muzei API to build against API 22
7,2015/4/07,Remove no longer needed <meta-data> elements for Google Play services  These elements are included by default as of Google Play services 7.0
40,2015/4/05,Update to Google Play services 7.0  Removes ProGuard configurations as they are now automatically included as part of the Google Play services AAR as per https://plus.google.com/+IanLake/posts/1HfDuFFkMXG
7,2015/3/01,Update to Gradle Plugin 1.1.0  Uses [Elvis Operators](http://groovy.codehaus.org/Operators#Operators-ElvisOperator(?:)) on signing config properties as they can no longer be null.
4,2015/1/29,Fix web archive. Fixes issue #133
3,2015/1/29,Update build tools version
28,2015/1/17,Move Gradle build tools and compile/target SDK values to main build.gradle  In order to not touch every build.gradle file every time either the gradle plugin updates or the build tools updates or the newest SDK comes out we can move all of these values to the main build.gradle file as suggested here: http://tools.android.com/tech-docs/new-build-system/tips  This update also updates the gradle plugin 1.0.0 to 1.0.1 and build tools 21.1.1 to 21.1.2
1,2015/1/17,Fix Watch Face crash while scaling bitmap  On activating the Muzei Watch Face occationally `onDraw()` will be called between when a background is set (`mBackgroundBitmap != null`) and when the scaled bitmap is created (`mBackgroundScaledBitmap != null`) which led to it attempting to draw a null scaled background. Change `onDraw()` to also check against `mBackgroundScaledBitmap` to prevent crashes.
5,2015/1/01,Add date to Android Wear watch face  Show date on the watch face in MM/dd or dd-MM (locale dependent) format: - Round: Date is shown above the time (as time is centered on the screen / floating directly above peek card) - Square: Date is shown below the time (as the time is in the upper right corner)
71,2014/12/30,Switch to Java 1.7 and clean up code with new Java 1.7 features
5,2014/12/30,Protect renderscript support classes in proguard. Fixes issue #126
