Topic Index 1,Topic Index 2,Topic Similarity
19,11,0.0205
4,6,0.013499999999999998
1,16,0.013199999999999998
15,12,0.011
0,10,0.009
13,8,0.009
11,3,0.0077
16,0,0.0077
6,19,0.0072
7,2,0.0072
9,15,0.0072
14,7,0.0072
2,13,0.006
8,9,0.005399999999999999
3,1,0.0
5,4,0.0
10,5,0.0
12,14,0.0
17,17,0.0
18,18,0.0
