Topic,Words
0,0.070*for,0.059*what,0.039*the,0.038*travel,0.037*it's,0.035*into,0.032*purpose,0.027*to,0.027*user,0.026*supposed
1,0.063*upload,0.061*report,0.052*great,0.045*map,0.041*gets,0.035*at,0.034*is,0.032*with,0.032*the,0.031*location
2,0.081*and,0.079*by,0.045*three,0.039*stuck,0.039*simply,0.031*needs,0.029*asking,0.029*devices,0.028*to,0.026*incorrect
3,0.079*support,0.063*then,0.051*it's,0.047*controls,0.046*otherwise,0.041*duplicate,0.041*devices,0.038*settings,0.034*after,0.032*upload
4,0.095*does,0.083*asking,0.082*travel,0.040*or,0.039*for,0.036*to,0.034*three,0.032*there,0.029*at,0.027*user
5,0.100*cache,0.063*after,0.062*database,0.062*duplicate,0.059*spot,0.051*with,0.040*is,0.032*card,0.029*into,0.025*capture
6,0.068*purpose,0.059*cache,0.056*devices,0.053*of,0.053*otherwise,0.040*is,0.036*service,0.032*have,0.032*tile,0.030*spot
7,0.055*one,0.052*if,0.051*devices,0.051*of,0.039*location,0.038*mostly,0.037*settings,0.037*duplicate,0.034*after,0.034*into
8,0.086*database,0.069*times,0.058*three,0.051*spot,0.045*to,0.037*least,0.037*obvious,0.036*data,0.030*asking,0.027*moving
9,0.075*sometimes,0.070*simply,0.058*into,0.054*asking,0.045*after,0.043*to,0.034*location,0.034*gets,0.031*controls,0.030*with
10,0.065*the,0.050*least,0.045*duplicate,0.041*idea,0.039*one,0.036*travel,0.034*have,0.034*it's,0.033*moving,0.032*upload
11,0.104*gets,0.090*by,0.058*then,0.046*of,0.039*moving,0.036*map,0.035*with,0.033*it's,0.032*idea,0.030*duplicate
12,0.079*incorrect,0.062*does,0.048*and,0.045*one,0.043*settings,0.042*obvious,0.031*asking,0.030*database,0.030*of,0.029*then
13,0.097*great,0.047*location,0.042*at,0.041*after,0.040*duplicate,0.037*of,0.036*settings,0.035*mostly,0.033*devices,0.030*needs
14,0.078*sometimes,0.054*report,0.050*feed,0.040*card,0.040*for,0.038*location,0.038*settings,0.034*purpose,0.034*by,0.033*with
15,0.059*one,0.043*for,0.041*simply,0.040*travel,0.036*and,0.034*if,0.032*all,0.032*otherwise,0.031*data,0.030*devices
16,0.055*it,0.051*otherwise,0.049*stuck,0.046*map,0.046*for,0.043*one,0.040*does,0.040*travel,0.038*three,0.034*with
17,0.045*times,0.043*or,0.040*the,0.039*card,0.038*there,0.037*supposed,0.036*what,0.035*user,0.034*and,0.034*devices
18,0.063*or,0.057*if,0.056*card,0.054*upload,0.046*settings,0.043*map,0.041*for,0.035*duplicate,0.035*idea,0.034*needs
19,0.056*with,0.054*mostly,0.051*at,0.048*is,0.048*what,0.042*support,0.039*cache,0.038*into,0.036*moving,0.032*it's
