# deletions,date,commit message
6,2013/11/05,BUGFIX: Safety catch in the dashclock extension to prevent the widget from crashing under certain circumstances.
2,2013/11/05,Preemptive version bump
2,2013/10/30,version bump
3,2013/10/30,Removed Debug code
