f,B,37
b,A,8
b,A,105
b,A,94
f,B,6
b; b; b,AAA,2
f; b; f,BAB,4
b,A,6
b; b; b; b,AAAA,2
b; b,AA,1
b; f,AB,3
b,A,2
b; b,AA,3
b,A,1
b; b,AA,2
f; b; b; b; b; b; b; b; b; f; b; b; b; b; b; b; b,BAAAAAAAABAAAAAAA,16
b; b; b; b,AAAA,9
b; b; b,AAA,3
b,A,1
b; b; b; b; b; b; b; f; f; b; b; b; b; b,AAAAAAABBAAAAA,31
b,A,5
b,A,3
b,A,1
b,A,1
b; b; b,AAA,2
b,A,1
b,A,1
b; b,AA,3
b; b,AA,1
b,A,1
b; b,AA,1
b; b; f,AAB,1
b; b; b; b,AAAA,1
b; b,AA,2
b; f; b,ABA,1
f; b; b; b; b,BAAAA,9
b,A,3
b; b; b; b; b; b; b,AAAAAAA,6
b; b,AA,2
f; b,BA,1
b; b; b; b,AAAA,4
b; b,AA,3
b,A,1
b; b; b,AAA,1
b; b; b; b,AAAA,1
b; b; b; b; b,AAAAA,4
b; b; b; b; b; b,AAAAAA,7
b; b,AA,3
b; b; b; b; b; b; f; b; f,AAAAAABAB,9
f,B,3
b,A,1
b,A,12
b; b; b,AAA,4
b,A,15
b,A,14
b,A,35
b; b,AA,27
b; b; b; b; b,AAAAA,28
b,A,13
b; b; b; b; b; b; b,AAAAAAA,122
b; b,AA,41
b,A,130
b,A,23
b,A,2
b; b; b; b,AAAA,19
b; b,AA,1
b; b; b; b; f; b,AAAABA,48
b; b; b; b,AAAA,15
b; b; b; b; b; b; b; b,AAAAAAAA,6
b; b,AA,9
f; b; b; b; b; b,BAAAAA,19
b,A,5
b,A,2
f,B,1
b; f; b; b,ABAA,16
f; f; b; f; b; b; b; b; f,BBABAAAAB,14
b; b; b; b,AAAA,3
b; f; b; b; b,ABAAA,10
b; b; b,AAA,3
b,A,1
b,A,1
b; b,AA,1
b,A,4
b; b; b,AAA,3
b; b; b,AAA,4
b; b; b; b; b; b; f; b; b,AAAAAABAA,13
f; b; b; b; b; b,BAAAAA,4
b; f,AB,5
f,B,1
b; b; f; b; b; b; b; f; b; b; b; b; b; b; b; b; b; b; b; b; b; f; f; f; b; b; b; f; f; b; b; b; b; b; b; b; b; b; f,AABAAAABAAAAAAAAAAAAABBBAAABBAAAAAAAAAB,72
b,A,1
b; b,AA,2
b; b,AA,10
b,A,14
b,A,300
b,A,55
b,A,14
b; b,AA,39
f,B,1
b; b,AA,19
b; b; b,AAA,1
b,A,7
b,A,49
b,A,15
b,A,111
f; b,BA,80
b,A,2
b,A,34
b,A,31
b,A,98
b,A,28
b,A,20
f,B,8
b; b,AA,8
f; b; b; b; b; b,BAAAAA,1
f; b; b; b; b; b; b; b; b; f; b; b; b; b; b; b; f; f; b; b; b; b; b; b; f; b; b; b; f; b; b; b; b; b; b; b; b; b; b; b; b; f; b; b; b; b; b; b; b; f; b; b; b; f; b; b; b; b; b; b; b; b; b; b; b; b; b; b; b; b; b; b,BAAAAAAAABAAAAAABBAAAAAABAAABAAAAAAAAAAAABAAAAAAABAAABAAAAAAAAAAAAAAAAAA,12
b; b; b; f; f; b,AAABBA,1
b; b; b; b; b; b,AAAAAA,1
f; b; b; b; b; b; f; f; f; b; b; b; f; f; b; b; b; f; f; b; b; b; b; b; f; b; f; b; b; f; b; b; b; b; b,BAAAAABBBAAABBAAABBAAAAABABAABAAAAA,3
b; b; b; b; b; b; f; b; b; b; b; b; b,AAAAAABAAAAAA,1
f; b; b; b,BAAA,1
b; f; b; b; b; b; b; b; b; b; f; b; b; b; b; b; b; b; b; b; b; b; f,ABAAAAAAAABAAAAAAAAAAAB,2
f; b; b; b,BAAA,1
b; b; b,AAA,1
b; f; b; b,ABAA,1
b; b; b; b; b; b; b; b; b; b; b; b,AAAAAAAAAAAA,1
f; f; b; b; f; f; b; b; f; b; b; f; f; b; b; b; b; b; b; f,BBAABBAABAABBAAAAAAB,2
f; b; b; b; b; b; b; b; f; b; b; b; b; b; b; f; b; b; b; b; b; b; b; b; b; b; b; b; b; f; b; b; b; b; b; b; b; b,BAAAAAAABAAAAAABAAAAAAAAAAAAABAAAAAAAA,4
b; b; f; b,AABA,1
b; b; b; b,AAAA,1
b; b; b; b; b; b; b,AAAAAAA,1
b; b; f; b; b; b; b,AABAAAA,1
f; f; b; b; b; b; b; b; b; b; b; b; b; b,BBAAAAAAAAAAAA,1
b; b; b; f; b; b; b; b; b; b; b; b; b; b; b,AAABAAAAAAAAAAA,1
b; b; b; b; b; b; b; b; b; b; b; b; b; b; b; b; b; f; b; b; b; f; b; b,AAAAAAAAAAAAAAAAABAAABAA,2
f; b; b; b; b; b; b; b; b,BAAAAAAAA,1
b; b; b; b; b; b; b; f; b; f; b; b; b; b; b; b; b,AAAAAAABABAAAAAAA,2
b; f; b; b; b; b; f; b; b; b; b; b; b; b; b; b; f; b; b,ABAAAABAAAAAAAAABAA,4
b; b; b; b; b; b,AAAAAA,1
b; b,AA,1
b; b; b; b; b; b; b; b; b; b; f; b; b; b; b; b; b; b; f; b; b; b,AAAAAAAAAABAAAAAAABAAA,2
b; b; b; b; b; b; f; b; b; b; b; b; f; b; f; b; b; f; b; b; b; b; f; b; b; b; b; b; b; b; b; b; b; b; f; f; b; f; f; b; b; b; b; b; b; b,AAAAAABAAAAABABAABAAAABAAAAAAAAAAABBABBAAAAAAA,9
f; f,BB,1
b; b; b; f; b; b; b,AAABAAA,1
f; b; b; b; b; b,BAAAAA,2
b; b; b; b; b; b; b; b; b; f; b; b; b; b; b; b; b; b; b; b; b; b; b; b; b; b; f; f; b; b; b; b; b; b; b; f; b; b; b; b; b; b; b; f; b; b; b; b; b; f; b; f; b; b; f; b; b; b; b; b; f; f; b; b; b; b; f; b; b; b; b; f; f; b; b; f; b; b; b; b; b; b; b; f; f; b; b; b; b; f; b; b; b; b; b; f; f; b; b; b; b; b; b; b; b; b; b; b; b; b; b; f; b; b; b; f; b; b; b; f; f; f; b; b; b; b; f; f; f; b; b; f; b; b; b,AAAAAAAAABAAAAAAAAAAAAAAAABBAAAAAAABAAAAAAABAAAAABABAABAAAAABBAAAABAAAABBAABAAAAAAABBAAAABAAAAABBAAAAAAAAAAAAAABAAABAAABBBAAAABBBAABAAA,33
b; b; b; b; b; b; b; f; b; b; b; f; f; b; f; b; b; b; b,AAAAAAABAAABBABAAAA,5
b; b; b; b; b; f; b; b; b; b,AAAAABAAAA,2
f; b; b; b,BAAA,1
f; b; b; b; f; b; b; b; b; b; b; b; b; b; b; b; b; b; b; b; f; b; b; b; f; b; b; b; b; b; b; b; b; b; b; f; b; b; b; b; b; b,BAAABAAAAAAAAAAAAAAABAAABAAAAAAAAAABAAAAAA,11
b; b; b; b; f; b; b; b; b; b; b; b,AAAABAAAAAAA,1
b; b; b; b; b; b; b; b; b; b; b; b; b; b; b,AAAAAAAAAAAAAAA,2
b; b; f; b; b; b,AABAAA,1
b; b; b; b; b; b; b,AAAAAAA,3
b; b; b; b; b; b; b; b; b; b; b; b; b; b; f; b; b; b; b; f; b; b; b; b; b; b; b; f,AAAAAAAAAAAAAABAAAABAAAAAAAB,130
f; b; b; f,BAAB,27
f; b; b; f; b; f; b,BAABABA,23
f; f; b; f,BBAB,5
b; b; b,AAA,1
b; b; b,AAA,1
f; b; b; f; b; b; f; b; b; b; b; f; b; b; b; b; b; f; b,BAABAABAAAABAAAAABA,1
f; b; b; b; b; b,BAAAAA,1
f; b; b; b; b; b,BAAAAA,1
f; f,BB,1
b; b; b; b; b; b; b; b,AAAAAAAA,1
f; f,BB,1
f; b; b; b; b; f,BAAAAB,3
b,A,1
b; b; b,AAA,1
b; b; b; b,AAAA,2
b; b; b; b,AAAA,1
f; b; b; b,BAAA,1
b; b,AA,1
b; b; f,AAB,1
b; b; b,AAA,3
f,B,1
b,A,1
b; b; b; b; b; b; b; b; f; f; b; b; b; b; f; b; b,AAAAAAAABBAAAABAA,2
b; b; f; b; b; b; f; b; b,AABAAABAA,1
f,B,1
b; f,AB,1
b,A,1
b; b; f,AAB,1
b; b; b,AAA,1
b; b,AA,1
b,A,2
f; b,BA,1
f,B,1
f; b; b,BAA,1
b,A,3
b,A,1
b,A,2
b,A,1
b; b; b; b; b; b; b,AAAAAAA,1
b; b; b; f,AAAB,1
f,B,1
b; b; b,AAA,3
f; b; b; f; b; b; f; b; b,BAABAABAA,8
f,B,1
b,A,2
b,A,3
b; f,AB,1
b; b; b,AAA,1
b,A,1
b; b,AA,1
b; b; b,AAA,2
b; b; b; b; b,AAAAA,11
b,A,4
b,A,4
f,B,5
b; b,AA,2
f,B,5
f; b,BA,3
f,B,1
b,A,1
b,A,2
b; b,AA,2
b,A,1
b; b; b,AAA,3
b; b; b; b; b; b; f,AAAAAAB,1
b; f; b,ABA,1
f,B,1
b; b; b,AAA,1
b,A,1
b,A,1
b; b; f; f; b; b; b,AABBAAA,1
b; b,AA,2
b; b; f; f,AABB,2
b; b; b,AAA,3
f; f; b,BBA,1
b,A,1
b; b,AA,2
b,A,4
f; b,BA,1
b,A,1
b; b,AA,3
f; b,BA,1
f,B,2
f; b; b; b,BAAA,1
b; b; f; b,AABA,1
b; f; b; b; b; b; b; b; b; b; b; f; b; b; b; b; b; b; b; b; b; b; b; b; b; b; b; b; b; b; b; b; b; f; b; b; b; f; b; b; b; b,ABAAAAAAAAABAAAAAAAAAAAAAAAAAAAAABAAABAAAA,3
b; b; b; f; b; b; b,AAABAAA,6
b,A,1
b; b; b; b; f; b; b; b; b; b; b; b; b; b; b; f; b; b,AAAABAAAAAAAAAABAA,3
b,A,1
f; b; b; b; b; b; b; b; b; b; b; b; b; b; f; b,BAAAAAAAAAAAAABA,12
b; b; b,AAA,15
f; f; b; f; b; b; b; b; b; b; b; b; b; b; b; b; b; b; b; b; b; f; b; b; f; b,BBABAAAAAAAAAAAAAAAAABAABA,5
b; b; b; b; b; b; b; f,AAAAAAAB,15
b; b; b; b; b; b; b; b; f; b; b; b; f; b; b; b; b; b; b; b; b; b,AAAAAAAABAAABAAAAAAAAA,6
b; b; b; b; f,AAAAB,12
b; b; b; b; b; b; b; b; b; f; b,AAAAAAAAABA,1
b; b; b; f; b; b; b; b; b; b; b; b; b; b; b; b; b; b; f; b; b; b; b; b; b; b; b; b; f; b; b; b; b; f; b; b; b; b; b; b; b; b; b; b; b; b; b; b; b; b; b; b; f; b; b; b; b; b; b; b; b; b; b; b; b; b; b; f; b; b; b; b; b; f; b; b; f,AAABAAAAAAAAAAAAAABAAAAAAAAABAAAABAAAAAAAAAAAAAAAAAABAAAAAAAAAAAAAABAAAAABAAB,105
b; b; b; b; b; b; b; b; b; b; b; b; f; b; b; b; b; b; b; b; b; b; b; b; b; b; b; b; b; b; b; b; b; b,AAAAAAAAAAAABAAAAAAAAAAAAAAAAAAAAA,11
b; b; b; b; b; f; f; b; b; f; b; b; b,AAAAABBAABAAA,17
b; b; b; b; b; b; b; b; b; b; b; b; b; b; b; b; b; b; b; b; f; b; b; b; b,AAAAAAAAAAAAAAAAAAAABAAAA,8
b; b; b; b; b; b; b; b; b; b; b; b; f; b,AAAAAAAAAAAABA,45
b; b; b; b; b; b; b; b; b; b; b; b; b; b; b; b; b; b; b; b; b; f; b; b; b; b; b; b; b; b; f; b; b; b; b; b; b; b; b; f; b; b; b; b; f; b; b; b; b; b; f; f; b; b; b; b; b; b; b; b; b; f; b; b; b; f; b; b; f; b; b; f; b; b,AAAAAAAAAAAAAAAAAAAAABAAAAAAAABAAAAAAAABAAAABAAAAABBAAAAAAAAABAAABAABAABAA,102
b; b; b; b; b; b; f; b; b; b; b; b; b; b; b; b; b; b; b; b; b; b; b,AAAAAABAAAAAAAAAAAAAAAA,31
b,A,2
b,A,1
b; b; b; b; b; b; b; b; b; b; b; b; b; b; b; b; b,AAAAAAAAAAAAAAAAA,2
b; b; b; b; b; b; b; b; b; b; b; b; b; b; b; b; b; b; b; b; b; b; b; b; b; f; b; b,AAAAAAAAAAAAAAAAAAAAAAAAABAA,21
b; b; b; b; b; b; b; b; b; f; b; b; b; b; b; b; b; b; f; b; b; b; b; b; b; b; b; b; b; b; b; b; b,AAAAAAAAABAAAAAAAABAAAAAAAAAAAAAA,42
b; b; f,AAB,15
b; b; b,AAA,10
b; b; b; b; b; b; b; b; b; b; b; b; b; b; b; b; b; b; b; b; b; f; b,AAAAAAAAAAAAAAAAAAAAABA,42
b; b; b; b; b; b; b; b; b; b; f; b; b; b; b; b; f; b; b; b; b; b; b; b; b; b; b; b; b; f; b; b; b; f; b; b; b; b; b; b; b; b; b; b; b; b; b; b; f; b; b; b; b; b; b; b; b; b; b; b; b; f; b; b; b; b; b; b; b; b; b; b; b; b; b; b; b; b; b,AAAAAAAAAABAAAAABAAAAAAAAAAAABAAABAAAAAAAAAAAAAABAAAAAAAAAAAABAAAAAAAAAAAAAAAAA,112
b; b; b; b; b; b; b; f; b; b; b; b; f; b; b; b; b; b; b; b; b; f; b; b; b; b; b; b; b; b; b; b; b; b; b; f; b; b; b; b; b; b; f; b; b; b; b; b; b; b; f; b; b; b; b; b; b; b; b; b; b; f; b; b; b; b; b; b; b; b; b; b; b; b; f; b; b; b; b; b; b; b; b; b; b; b; b; b; b; b; b; b; b; f; b; b; b; b; b; b; b; b; b; b; f; b,AAAAAAABAAAABAAAAAAAABAAAAAAAAAAAAABAAAAAABAAAAAAABAAAAAAAAAABAAAAAAAAAAAABAAAAAAAAAAAAAAAAAABAAAAAAAAAABA,139
b; f; b; b; b,ABAAA,1
b; b; b; b; b; b; b; b; b; b; b; b; b; b; f; b; b; b; b; b; b; b,AAAAAAAAAAAAAABAAAAAAA,7
b,A,1
b; b; f; b; b; b; b; b; b; f; f; b; b; b; b; b; b; b; b; b,AABAAAAAABBAAAAAAAAA,27
b; b; b; f; b; b; f; b; b; b; b; b; b; b; b; b; b; b; b; f; b; f; b; f; b; b; f; b; b; b; f; f; b; b; b; b; b; b; b; b; b; b; f; b; f; b,AAABAABAAAAAAAAAAAABABABAABAAABBAAAAAAAAAABABA,87
f; b; b; b; b; b; b; b; f; b; b; b; f; b; b; b; b,BAAAAAAABAAABAAAA,27
b; b; b; b; f; b; b; b; b; b; b; b; b; b; b; b; b; b; f; b; b; b; b; b; b; b; b; b; b; b; b; b; b; f; b; b; b; b; b; b; b; b; b; b; b,AAAABAAAAAAAAAAAAABAAAAAAAAAAAAAABAAAAAAAAAAA,91
b; b; f; b; b; b; b,AABAAAA,17
b; b; b; b; b; b; b; f; b; b; b; b; b; b; b; b; b; b; b; b; b; b; b; b; b; b; b; b; b; b; b; b; b; b,AAAAAAABAAAAAAAAAAAAAAAAAAAAAAAAAA,9
b; b; b; b; b; b; b; b; b; b; b; b; b; b; b; b; b; b; b; b; b; b; f; b; b; b; b; b; b; f; b; b; b; b; b; b; b; b,AAAAAAAAAAAAAAAAAAAAAABAAAAAABAAAAAAAA,58
b; b,AA,1
b; b; b,AAA,1
b; b; b; b; b; b; b; b; b; b; b; b; b; b; b; b; b; b; b; b; b; b; f; b; b; b; b; b; b; b; b,AAAAAAAAAAAAAAAAAAAAAABAAAAAAAA,3
b; b; b; b; b; b; b,AAAAAAA,2
b; b; b; b; b; b,AAAAAA,2
b,A,1
b; b; b,AAA,1
b,A,47
b; b,AA,15
f,B,10
b,A,34
f; f,BB,16
b,A,2
b; b,AA,36
f,B,1
f,B,4
f; b; b; f; b,BAABA,54
b; b; b; b; f,AAAAB,75
b; f,AB,69
f; f; b; b,BBAA,69
f,B,5
b; f; b,ABA,3
f; f,BB,27
b; b,AA,4
f; b; b; b; f; f,BAAABB,16
b,A,9
f,B,15
b; f; b; b; b; b; b; b; b; f; f; b; b; b; f; f; b,ABAAAAAAABBAAABBA,115
f; b; f; b; b; b; b; b; f; b; b; b; b; b; b; b; f,BABAAAAABAAAAAAAB,70
b; b,AA,1
b,A,15
b,A,1
b,A,15
b,A,6
b; b; b; f; b; b,AAABAA,43
b; b; b; b; b; b,AAAAAA,2
f,B,3
b; b,AA,26
b,A,1
b,A,1
b; b; b; b; b,AAAAA,7
b; f; b,ABA,21
b,A,9
b; f; b,ABA,5
b,A,6
b; b,AA,5
b,A,17
b,A,1
b; b; b,AAA,1
b; b; f; b; b; f,AABAAB,1
b,A,1
b; b,AA,1
b,A,1
b,A,7
b,A,2
b,A,5
b,A,3
b,A,2
b; b; b; b; f; b,AAAABA,11
f; b,BA,8
b,A,3
b,A,3
b,A,8
b; b; b; b,AAAA,1
b; b; f; b,AABA,7
b,A,2
b,A,8
f,B,3
b; b,AA,1
b; f; f; b; b,ABBAA,14
b,A,17
b; b; f,AAB,3
b,A,3
b; b; b,AAA,5
b; b; b; f,AAAB,3
f; b,BA,3
f; f,BB,4
f; b; b; b,BAAA,1
b,A,4
b; b; f,AAB,1
b,A,4
b,A,1
b,A,3
f,B,2
b,A,1
b; b,AA,1
b; b; b,AAA,1
b,A,1
b; b; b,AAA,2
f; f; b,BBA,1
f,B,4
b,A,2
b,A,4
b,A,1
b; b; f,AAB,5
b,A,4
f,B,3
b,A,3
b,A,3
b; b,AA,1
b; b,AA,2
b; b,AA,6
b,A,3
b,A,3
f,B,11
b,A,1
b,A,1
b,A,2
b; b,AA,1
b; b,AA,4
b; f,AB,1
b,A,3
f; b,BA,3
f; b,BA,3
b,A,21
f,B,2
b; b,AA,2
b; b,AA,3
f,B,3
b,A,2
f,B,3
f,B,2
b; b,AA,1
b; b; b,AAA,1
b; f,AB,4
f; b; b,BAA,1
b,A,1
b,A,1
b; b; b; b,AAAA,1
b,A,1
b,A,1
b,A,3
b; b,AA,5
b; b; b,AAA,2
f,B,3
b; b; b; b; b; b; b; b; b; b; f; f; b; b; f; b; b,AAAAAAAAAABBAABAA,645
b; b; f; b; b; f,AABAAB,79
b,A,1
b,A,3
b,A,3
b; b,AA,57
b,A,5
b; b,AA,72
b,A,14
f,B,2
b,A,7
b,A,10
b; b; b,AAA,1
f; b,BA,1
b,A,1
b; b; b; b; b; b; f,AAAAAAB,1
b; f,AB,4
f,B,4
b,A,1
b; b; b; b; b; b; b; b; b; b; b; f; b; b; b; b; b,AAAAAAAAAAABAAAAA,28
b; b; b,AAA,2
b; b; b; b; f; b; b; b; b; b; b; b,AAAABAAAAAAA,16
b; b; b; b; b; b; b; b; b; b,AAAAAAAAAA,16
b,A,2
b,A,2
b; b; b; b; b; b; b; b; b; b; b; b; b; b; f; f; b; b; b; b; f; b,AAAAAAAAAAAAAABBAAAABA,24
b; b; b; b; b; b; b; b; b; b; b; b; b; b; b; b; b; b; b; b; b; b; f; b; b; b; b,AAAAAAAAAAAAAAAAAAAAAABAAAA,102
f; b,BA,15
b; b; b; b; f; f,AAAABB,29
b; b,AA,7
b; b; f; b; b,AABAA,9
b; b; f; b; b; b; b; b; b; b; b; b; b; b; f; b; b; b; b; b; b; b; b; b; b,AABAAAAAAAAAAABAAAAAAAAAA,62
b; b; b; b; b; f; b; b; b; b; b; b; b; b; b; b; b; b; b; b; f; b; b; b,AAAAABAAAAAAAAAAAAAABAAA,116
b; f; b; b; b; b; b; b; b; f; b; b; b,ABAAAAAAABAAA,20
b; b; b,AAA,2
b,A,1
f; b; f; b; b; b; b; b; b; b; b; b; f; b; b; b; b; b; f; b; b; b; b; b; f; b; b; b; b; f; b; b; b; b; b; b; b; b; b; b; b; b; b; f; f; b; b; b; b; b; b; b; b; b; b; b; b; b; b; b; b; b; b; b; b; b; b; b; b; f; f; b; b; b; b; b; b; b; b; b; b; b; b; b; b; b; b; f; b; b; b; b; b; b; b; b; b; b; b; b; b; b; b; b; b; b; b; b; b; b; b; b; b; b; b; b; b; b; b; f; b; b; b; b; b; b; b; b; b; f; f; b; b; b; b; b; b; b; b; b; b; b; f,BABAAAAAAAAABAAAAABAAAAABAAAABAAAAAAAAAAAAABBAAAAAAAAAAAAAAAAAAAAAAAABBAAAAAAAAAAAAAAAABAAAAAAAAAAAAAAAAAAAAAAAAAAAAAAABAAAAAAAAABBAAAAAAAAAAAB,88
f; b; b; b; b; b; b; b; b; b; b; b; b; b; b; b; b; b; b,BAAAAAAAAAAAAAAAAAA,9
b,A,2
b; b; b,AAA,1
b; b; b; b; b; b; b; b; b; b; b; b; b; b; b; b; f; b; b; f; b; b; b; b; b; b; b; b; b; b; b; b; b,AAAAAAAAAAAAAAAABAABAAAAAAAAAAAAA,18
b; b; f; b; b; b; b; b; b; f,AABAAAAAAB,12
f; b; b; b; b; b; b; b; b; b; b; b; b; b; b; b; b; b; f; b; f; b; b; b; b; b; b; b; b; b; b; b; b; b; b; b; b; b; b; b; b; b; b; b; b; b; b; f; b; b; b; b; b; b; b; b; b,BAAAAAAAAAAAAAAAAABABAAAAAAAAAAAAAAAAAAAAAAAAAABAAAAAAAAA,16
b; b; b; b; b; b; b; b; b; b; b; b; b; b; b,AAAAAAAAAAAAAAA,26
b; b; b,AAA,6
b; b; b; b; b; b; b; b,AAAAAAAA,3
b; b; b; b; b; b; b; b; b; b; b,AAAAAAAAAAA,10
f; b; b; b; b; b; b; b; b; b; b; b; b; b; b; b; b; b; b; b; b; b; b; b; b; b; b; b; b; b; f,BAAAAAAAAAAAAAAAAAAAAAAAAAAAAAB,152
f,B,4
b; b,AA,3
b,A,11
b; b; b; b; b; b,AAAAAA,7
b; b; f; b; b; b; b; b; f; b; b; b; f; b; b; b; b; b; b; b; b; b; b; f; b; f; f; b; b; b; b; b; b; f,AABAAAAABAAABAAAAAAAAAABABBAAAAAAB,152
b; b; b; b; f; b,AAAABA,3
b,A,3
b; b; b; b,AAAA,11
b; b,AA,3
b; b,AA,1
b; b; b; b,AAAA,4
b; b; b; b,AAAA,3
b; b; b,AAA,2
b; f,AB,3
b; b,AA,3
b; b; b,AAA,1
b; b; b; b; f; f; b; b; b; b; f; f; f; b; f; b,AAAABBAAAABBBABA,1
b; b,AA,1
b; f; b; b; f,ABAAB,1
b; f; b,ABA,1
f,B,1
b; b; b; f; b; b; f; b; f; b; b; b; f; f; b; f; b; b,AAABAABABAAABBABAA,2
b; b,AA,1
b; f; b; f; b,ABABA,3
b; f,AB,1
b; b,AA,1
b,A,1
b; f; b; f,ABAB,1
b; f,AB,2
b,A,1
f; f; f; f; b; b; b; b; b; b; b,BBBBAAAAAAA,1
b; b; b; b; f; b; b; b,AAAABAAA,8
f; f,BB,1
f; b,BA,6
f; b,BA,3
b,A,5
f,B,5
b; f; f; f,ABBB,4
b; b,AA,1
b,A,1
b; b; b; b,AAAA,2
b,A,2
f; b; b; b; b; b; b; b; b; f; f; b; b; b; b; b; b,BAAAAAAAABBAAAAAA,17
f; b; b; b; f; b; f; b; f; b; b; f; b; b; b; b; b; b; b; f; b; b,BAAABABABAABAAAAAAABAA,30
f; f; b; f; b; b; f; f; b,BBABAABBA,6
b,A,10
b; b; b; b; b; f,AAAAAB,92
b; b,AA,24
b; b; b; b,AAAA,27
f; f; f; f; b,BBBBA,13
f; b; f; f; f; b; b; b; b; f; b; b; b; f; b; b; f; f; f; f; b; b; b; b; b; b; f; b; b; b; b; b; b; b; f; b; b; b; b; b; b; b; b; f; b,BABBBAAAABAAABAABBBBAAAAAABAAAAAAABAAAAAAAABA,620
b,A,18
b,A,20
b; b,AA,25
f,B,4
b,A,5
b; f; b; b; b; b; b; b; b; b; b; b; b; b; b; b; b; f; b; b; b; b; b; b; b; b; b; b,ABAAAAAAAAAAAAAAABAAAAAAAAAA,342
b; b; b,AAA,12
b; b; b,AAA,24
b,A,2
b; f; b,ABA,12
b,A,4
b; b; b,AAA,12
b; b,AA,1
b; b; b; f,AAAB,11
b; b; f,AAB,8
f; b,BA,19
b,A,16
f; b; f; f; b; b; b; b; b; f; b; b; f; b; b; b; b; b; f; f; f; b; f; b; b; b; b,BABBAAAAABAABAAAAABBBABAAAA,182
b,A,7
f; b; b,BAA,22
b; b; b; b,AAAA,32
b; b; b; b; b; b; b; f; b,AAAAAAABA,50
b,A,9
b; f; b,ABA,27
b,A,7
b,A,4
b; b,AA,3
b,A,15
f,B,17
f,B,21
b; b; b,AAA,6
b; f,AB,12
b; b; b,AAA,25
b,A,4
b,A,1
b; b; b,AAA,34
b; b,AA,19
b; b; b,AAA,2
b; b; b,AAA,4
f; b; b; f; f; f; b; f; b; b; b; b; f; b; f; b; b; f; f; f; b; f; f; f; b; f; b; b,BAABBBABAAAABABAABBBABBBABAA,124
f; f; f; b,BBBA,26
b; f,AB,39
b,A,1
b; f; b; b; f; f,ABAABB,34
b; b,AA,10
b; b; b; b; f; b; b,AAAABAA,14
f; b; b; f; b,BAABA,51
b; f,AB,8
b; b; b; f; b; f,AAABAB,55
f; b,BA,6
f; b,BA,56
b,A,4
b,A,33
b,A,19
b; b,AA,33
b,A,2
b,A,1
b,A,6
b,A,7
b,A,49
b; b,AA,10
b; b; b; b; b; b,AAAAAA,40
b,A,10
b,A,6
b; b; b; b; b,AAAAA,53
b; b,AA,7
b,A,71
b,A,38
b; b; b,AAA,2
b,A,1
b; b; b; b; b; b; b; b; b,AAAAAAAAA,3
b; b; b; b; b; f; b; b; b; b; b; b; f; b; b; b; b; b; b; b; b; b; b; b; b; b; b; b; b; b; b; b; f; f; b; b; b; b; b; b; b; f; b; b; f; b; b; f; b; b; b; b; b; b; b; b; b; b; b; b; b; b; b; b; b; b; b; f; b; b; b; f; b; b; b; b; b; b; f; b; b; b; b; f; b; f; b,AAAAABAAAAAABAAAAAAAAAAAAAAAAAAABBAAAAAAABAABAABAAAAAAAAAAAAAAAAAAABAAABAAAAAABAAAABABA,5
b; b; b; b; b; b; b; b; b,AAAAAAAAA,1
b; b; b; b; b; b; b; b; b; b; b; b; b,AAAAAAAAAAAAA,2
b; f; b; b; b; b; b; b; b; b; b; b; b; b; b; b,ABAAAAAAAAAAAAAA,5
b; b,AA,1
b,A,1
b; b; b; b; b; b; b; b; b; b; b; b; b,AAAAAAAAAAAAA,3
b; b; b; b; f; b; b; b; b,AAAABAAAA,1
b; b; b; b; b; b,AAAAAA,1
b; b; f; b,AABA,1
f; b; b; b; f; b; b; b; f; b,BAAABAAABA,4
b; b,AA,1
b; b; b; b; b,AAAAA,2
b; b; b; b; b; b; f; b; b; b; b; b; b; b; b; b; b,AAAAAABAAAAAAAAAA,2
b; b; b; f; b; b; b,AAABAAA,1
b; b; b; b; b; b,AAAAAA,1
b; b; b; b; f; b; b; b,AAAABAAA,1
b; b; b; b; b; b; b; b; b; b; b; b; b; b; f,AAAAAAAAAAAAAAB,2
b; b; b,AAA,1
b; b,AA,1
b; b; b; b; b; b,AAAAAA,1
b; b; b; b; f; b; b,AAAABAA,1
b; b,AA,1
b,A,1
b; b; b; b; b; b; b; b; b; b; b; f,AAAAAAAAAAAB,2
b; b; b; f; b; b; f; f; b,AAABAABBA,3
b; b; b; b; b; b; b; b; b; b; b; b; b; b; b; b; b; b; b; b; b; b; b; f; f; b; b; b; b; b; b; b; f; b,AAAAAAAAAAAAAAAAAAAAAAABBAAAAAAABA,12
b; b; f; b; b; b; b; b; b; b; b; b; b; b; b; b; b; b; b; b; b,AABAAAAAAAAAAAAAAAAAA,4
f; b; b; b; b,BAAAA,2
f; f; b; b; b; b; b; b; b; b; f,BBAAAAAAAAB,4
b; b; b; b; b,AAAAA,2
b; b,AA,1
f; f; b; b; b; b; b; b; f; b; f; f; b; b; b; b; b; b; b; b; b; b; b; b; b; f; b; b; b; b; b; b; b; b; b; b; b; b; b; b; b; b; b; b; b; b; b; b; b; b; b; b; b; f; b; f; b; b; b; f; b; b,BBAAAAAABABBAAAAAAAAAAAAABAAAAAAAAAAAAAAAAAAAAAAAAAAABABAAABAA,17
b; b; b; b; b; b; b; b; b; b; f; b; b,AAAAAAAAAABAA,3
b; b; b; b; b; b; b; b; b; b; b; b; b,AAAAAAAAAAAAA,4
b; b; b; b; b; b; b; b; b; b; b; b; b; b; b; b; b; b; b; b; b; b; f; b; b; b; b; b; b; f; b; b; b; b; b; b; b; b; b; b; b; b; b; b; b; b,AAAAAAAAAAAAAAAAAAAAAABAAAAAABAAAAAAAAAAAAAAAA,15
f; b; b; b; b; b; b; b; b; b; b; b; b; b; b; b; b; b; b,BAAAAAAAAAAAAAAAAAA,7
b; b; b; b; b; b,AAAAAA,1
b; b; b; b; b; b; b; b; b; b; b; b; b; f; b; f; b; f; b; b; b; b; b; b; b; b; b; b; f; b; b; b; b; b; f; b; b; f; b; b; f; b; b; b; b; b; b; b; b; b; b; b,AAAAAAAAAAAAABABABAAAAAAAAAABAAAAABAABAABAAAAAAAAAAA,19
b; b; b; b; b; b; b; b; b; b; b; b; b; b; b; f; b; b; b; b; b; b; b; b; b; b; b; b; b; b; b; b; b; b; b; b; b; b; b; b; b; b; b; b; b; b; b; b; b; b; b; b; b; b; b; b; b; b; b; b; b; b; b; b; b; b; f; b; b; b; b; b; b; b; b; b; b; f; b; b; b; b; b; b; b; b,AAAAAAAAAAAAAAABAAAAAAAAAAAAAAAAAAAAAAAAAAAAAAAAAAAAAAAAAAAAAAAAAABAAAAAAAAAABAAAAAAAA,20
b; b; b; b; f; b; b,AAAABAA,1
b; b; b; b; b; b; b; b; b; b; b; b; b; b; b; b; b; b; b; b; b; b; b; b; b; b; b; b; b; b; b; b; b; b,AAAAAAAAAAAAAAAAAAAAAAAAAAAAAAAAAA,8
b; b; b; b,AAAA,1
b; b; f; b; b,AABAA,1
b; b,AA,1
f,B,1
b; b; b; b; b; b,AAAAAA,1
b; b; b; b; b; f; b; b; b; b,AAAAABAAAA,2
b; b; b; b; b; b; b; b; f; b; f; b,AAAAAAAABABA,2
b; b; b; b; b; b,AAAAAA,2
b; b,AA,1
b; b; b; b,AAAA,1
b; b; b; b; b; b; b; b; b; f; b; b; b; b; b; b; b; b; b; b; b; b; b; b; f; b; b; b; f; b; b; b; b; b; b,AAAAAAAAABAAAAAAAAAAAAAABAAABAAAAAA,8
b; b; b; b; b; b,AAAAAA,2
b; b; b; b; b; b; b; b; b; f; b; b; b; b; b; b; b; b; b; b; b; b; b; b; b; b; b; b; f; b; b; b; b; f; b; b; b; b; b; b; b; b,AAAAAAAAABAAAAAAAAAAAAAAAAAABAAAABAAAAAAAA,9
b; b; f; b; b; b; b; b; b,AABAAAAAA,2
b; b; b; b; b; b; b; b; b; b; b,AAAAAAAAAAA,3
f; b; b,BAA,1
b; b; b; b; b; b; b; b; f; f; b; b; b; b; f; b; b; b; b; b; b,AAAAAAAABBAAAABAAAAAA,5
b; b; b; b; b; b; b; b; b,AAAAAAAAA,1
b; f; b; b; b; b; f,ABAAAAB,1
b; b; b; b; b; b,AAAAAA,2
b; b; b; b,AAAA,4
b; b; b,AAA,3
b; b; b; b; b; b,AAAAAA,2
b; b; b; f; b; b; b; b; b; b; b; b; b; b; b; b; f; b; b; f,AAABAAAAAAAAAAAABAAB,4
b; b; b,AAA,2
b; b; f; b,AABA,2
b; b; b; b; b; b; b; b; b; b; b; b; b; b; b; b; b; b; b; b; b; b; b; b; b; b; b; b; b; b; b; b; b; b; f; b; b; b; b; b; b; b; b; b; b; b; b; b; b; f; b; b; b; b; b; b; b; b; b; b; b; b; b; b; b; b; f; f; b; b; b; b; b; b; b; b; b; b; b; b; b; b; b; b; b; b; b; b; b; b; b; b; b; b; b; b; b; b; b; b; b; b; b; b; b; f,AAAAAAAAAAAAAAAAAAAAAAAAAAAAAAAAAABAAAAAAAAAAAAAABAAAAAAAAAAAAAAAABBAAAAAAAAAAAAAAAAAAAAAAAAAAAAAAAAAAAAAB,10
b; b; b; b; b; b; b; b; b; b; b; b; b; b; b; b; b; b; b; b; b; b,AAAAAAAAAAAAAAAAAAAAAA,1
b; b; b; b; b; b; b; b; b; b; b; b; b; b; b; b; b; b; b; b; f; b; f; b; b; b; b; b; b; b; b; b; b; b; b; b; b; b; b; b; b; b; b; b; b; b; b; b; b; b; b; b; b; b; b; b; b; b; b; b; b; b; b; b; b; b,AAAAAAAAAAAAAAAAAAAABABAAAAAAAAAAAAAAAAAAAAAAAAAAAAAAAAAAAAAAAAAAA,5
b; b; b; b; b; b; b; b; b; b,AAAAAAAAAA,1
b; b; b; b; b; b; b; b; b; b; b; f; b; b; b; b; b; b; b; b; b; f,AAAAAAAAAAABAAAAAAAAAB,2
b; b; b; b; b; b; b; b; b; b; b; b,AAAAAAAAAAAA,3
b; b; b; b; b; b; b; b; b; b; b; f; b,AAAAAAAAAAABA,1
b; b; b; b; b; b; f; b; f; b; b; b; b; b,AAAAAABABAAAAA,1
b; f; b; b; b; b; b; b; b; b; b; b; f; b; b; b; b; b; b; b; b; b; b; b; b; b; b; b; b; b; b; b; b; b; b; b; b; b; b; b; f; b; b; b; f; b; b; b; b; b; b; b,ABAAAAAAAAAABAAAAAAAAAAAAAAAAAAAAAAAAAAABAAABAAAAAAA,7
b; b; b; b; b; b,AAAAAA,1
b; b; f; f; b; b; b; b; b; b; b; b; b; b; b; f; b; b; b; b; b; b; f; b; b; b; f; f; b; b; b; b; b; b; b; b; b; b; f; b; b; b; b; b; b; b; b; b; b; b; b; b; b; b; b; b; b; b; b; b; b; f; b; b; b; b; b; b; b; f; b; b; b; b; b; b; b; b; b; b; b; b; b; b; b; b; b; b; b; b; b; b; b; f; b; f; b; b,AABBAAAAAAAAAAABAAAAAABAAABBAAAAAAAAAABAAAAAAAAAAAAAAAAAAAAAABAAAAAAABAAAAAAAAAAAAAAAAAAAAAAABABAA,20
b; b; b; b; b,AAAAA,1
b; b; b; b; b; b; f; b; b; b; b; b,AAAAAABAAAAA,3
b; b; b; b; b,AAAAA,1
b; b; b; b; b; b; b; b; b; b; b; b; b,AAAAAAAAAAAAA,4
b; b; b; b; b; b; b; b; b; b; b; b; f; b; f; b; b; f; b; b; b; b; b; b; b; b; b; b; b; b; b; b; b; b; b; b; f; b,AAAAAAAAAAAABABAABAAAAAAAAAAAAAAAAAABA,7
b; b; b; f,AAAB,1
b; f; f; b; b; b; b; b; b; b; b; b; b; b; b; b; b; f; b; b; b; b; b; b; b; b; b,ABBAAAAAAAAAAAAAABAAAAAAAAA,6
b; b; b; b; b; b; b,AAAAAAA,1
b; b,AA,1
b; b; b; f; b,AAABA,1
f; b; b,BAA,1
b; b; b; b; b; b,AAAAAA,3
b; b; b; b; f; b; b,AAAABAA,1
b; f; f; b; b; b; b; b; b,ABBAAAAAA,1
b; b; b,AAA,2
b; b; b,AAA,1
f; b; b; b; b,BAAAA,1
b; b; b,AAA,1
b; b; b; b; b,AAAAA,1
b; f; b; f,ABAB,1
b; b; b; b; b,AAAAA,2
b; b; b; b; b; f; f; b; b; b; b,AAAAABBAAAA,1
b; b; b; f; b; b; b; b; b; b; f; b; b; b; b; b; b; b; f; b; b,AAABAAAAAABAAAAAAABAA,2
b; b; b; b; b; b; b; b; b; b; b; b; b; b; b; b; b; f; b; b; b; b; f; b; b; b; f; f; b; b; b; b; b; f,AAAAAAAAAAAAAAAAABAAAABAAABBAAAAAB,8
b; f; b,ABA,1
f; b; f; b; b; b,BABAAA,2
b,A,1
b; b; b; b; b,AAAAA,3
b; b; b; b,AAAA,1
f; b; b; b; b; b; b; b; b; b; b; b,BAAAAAAAAAAA,2
b,A,1
b,A,1
b; b,AA,1
b; b; b; b; b; b; b; b; b,AAAAAAAAA,1
b; b; b; b,AAAA,2
b,A,1
b; b; b; b; b; b; b; b,AAAAAAAA,2
b; b; b,AAA,1
b; b; b,AAA,1
b,A,3
b; b,AA,1
b; f,AB,1
b; b; b; b,AAAA,1
f; b; b; b; b,BAAAA,1
b; b,AA,3
b; b,AA,2
f; f; b; b; b; b; b; b; b,BBAAAAAAA,3
b; b; b,AAA,1
b; b; b; b; b; b; b; b; b; b; b; b; b; b; b; b; b; b; b,AAAAAAAAAAAAAAAAAAA,5
f; b; b,BAA,1
b; b; b; b; b; b; b; b; b; b,AAAAAAAAAA,3
b; b; b,AAA,1
b; b; f; b; b; b; b; b; b; b; b; b; b; b; f,AABAAAAAAAAAAAB,7
b,A,1
b; b; b; f; b; f,AAABAB,3
b; b; b; b; b; b,AAAAAA,2
b; b; b; b; b; b; b; b; b; b,AAAAAAAAAA,5
b; b; b; b; b; b; b; b; f; b; b,AAAAAAAABAA,1
b; b; b; b; b; b; b; b; b,AAAAAAAAA,2
b; b; b; b; b; b; b; b; b,AAAAAAAAA,4
b; b,AA,1
b; b; b; b; b; b; b; b; b; b; b; b; f; b; b; b; b; b; b; b; b; b; b; f; b,AAAAAAAAAAAABAAAAAAAAAABA,10
b; f; b; f; f; b; b; b; b; b; b; b; b,ABABBAAAAAAAA,3
b; b; b; b; b; f,AAAAAB,1
b; b; b; b; b; b; f; b; b; b; b; b; b; b; b; b; b; b; b; b; b; b; f; b; b; f; b; b; b; b; b; b; f; b; b; b; b; b; b; b; b; b; b; b; b; b; b; b; b; b; b; b; f; b; b; b; b; b; b; b; b; b; b; b; b; b; b; b; b; f; b; b; b; b; b; b; b; f; b,AAAAAABAAAAAAAAAAAAAAABAABAAAAAABAAAAAAAAAAAAAAAAAAABAAAAAAAAAAAAAAAABAAAAAAABA,24
b; b; b; b; b; b; b; b; b,AAAAAAAAA,2
b; b,AA,1
b; b; b,AAA,1
b; b; b; b; b; b; b; b; b; b; b; f; b; b; b; b; b; b; b; b; b; b; b; b; b; b; b; b; b; f; b; b; f; b; b; b; b; b; f; b; b; b; b; b; b; b; b; b; b; b; b; b; b; b; b; b; b; b; b; b; b; b; b; b; b; b; b; b; b; f; b; b; b; b; b; b; b; f; b; b; b; b; b; f; b; b,AAAAAAAAAAABAAAAAAAAAAAAAAAAABAABAAAAABAAAAAAAAAAAAAAAAAAAAAAAAAAAAAABAAAAAAABAAAAABAA,18
b; b,AA,2
b; b; b; b; f; b; b; b; b; b; b,AAAABAAAAAA,3
b; b; b; b; b; b; b; f; b; b; b; b; f; f; b; b; b,AAAAAAABAAAABBAAA,7
b; b; b; b; b; b,AAAAAA,3
b; b; f; b; b; b; b; b; b; b; f; b; b; b; b; b; b; b; b; b; b; f; b; b; b; b; b; b; b; b; b; b; b; b; b; b; b; b; b; b; b; b; b; b; b; b,AABAAAAAAABAAAAAAAAAABAAAAAAAAAAAAAAAAAAAAAAAA,9
f; b; b; b; b; b; b; b; b; b; b; b; b; b; f; b; b; b; b; b; b; b,BAAAAAAAAAAAAABAAAAAAA,9
f; b; b; b; b; b; b; b; b; b; f; f; b; b; f; b; b,BAAAAAAAAABBAABAA,6
b; b; b; b; b,AAAAA,3
b; b; b; b; b; b; b; b; b,AAAAAAAAA,5
b; b; b; b; b; b; b; b; f; f; b; b; b; b; b; b,AAAAAAAABBAAAAAA,7
b; b; b; b; b; b; b; b; b; b; b; b; b; b; b; b; b; b; b; b; b; b; b; b; b; b; f; b; b; b; b; b; b; b; b; f; b; b,AAAAAAAAAAAAAAAAAAAAAAAAAABAAAAAAAABAA,21
b; b; b; b; b; b; b; b,AAAAAAAA,4
b; b; b; b; b; b; b; b; b; b; b; b; b; b; b; b; b; b; b; b; b; b; b; b; b; b; b; b; b; b; b; f; b; b; b; b,AAAAAAAAAAAAAAAAAAAAAAAAAAAAAAABAAAA,10
b; b; b; f; b; b; b; b; b; b; b; b; b; b; b; b,AAABAAAAAAAAAAAA,4
b; b; b; b; b; f; f; b; b; b; b; b; b; b; b; b; b; b; b; b; b; b; b; b; b; b; b,AAAAABBAAAAAAAAAAAAAAAAAAAA,14
b; b; b; b,AAAA,1
b; f; b,ABA,2
b; b; f; b; f; b; b; b; b; b; b; b; b; f,AABABAAAAAAAAB,7
b; b; b; b; b; b; b; b; b; b; b; b; b; b; b; b; b; b; b; b; b; b; b; b; b; b; b; b; b; b; b; b; b; f; b; b; f; b; b; b; b; b; b; b,AAAAAAAAAAAAAAAAAAAAAAAAAAAAAAAAABAABAAAAAAA,9
b; b; b,AAA,1
b; b; b,AAA,2
b; b; b; f; b; f; b; b; b; b,AAABABAAAA,3
f; b; b,BAA,3
b; b,AA,1
f; b; b; b; b; b; b; b; b; b; b; b; b; b; b; b; b; b; b; b; b; b; b; b; b; b; b; b; b; b; b; b; f; b; b; b; b; b,BAAAAAAAAAAAAAAAAAAAAAAAAAAAAAAABAAAAA,16
b; b; b; b; b; b; b; b; b; b; b; b; b; b; f; b; b; b; b,AAAAAAAAAAAAAABAAAA,6
b; b; b; b; b; f; b; b; b; b; b; b; b; b; b; b; b; b; b; b; b; b; b; b; b; b; f; b; b; f; b; b; b; b; b; b; b,AAAAABAAAAAAAAAAAAAAAAAAAABAABAAAAAAA,18
b; b; b; b; b; f; b; b; b; b; b; b; f; b; b; b; b; b; b; b; b; b; b; f; b; b; b; b; b; b; b; b; b; f; b; b; b,AAAAABAAAAAABAAAAAAAAAABAAAAAAAAABAAA,16
b; b,AA,1
b; b; b; b; b; b; b; b; b; b; b; b; b; b; b; b; b; f; b; b; b; b; b; b; b; b; b,AAAAAAAAAAAAAAAAABAAAAAAAAA,10
b; b; b; b; b; b; b; b; b; b; b; b; f; b; b; b,AAAAAAAAAAAABAAA,3
f; b; f; b,BABA,1
b; b; b; b; b,AAAAA,3
b; b; b,AAA,1
b; f; b; b,ABAA,2
b; b; b; b; b; b; b,AAAAAAA,5
b,A,4
b,A,4
b,A,1
b; b; b; b,AAAA,1
b; b,AA,1
f; b; b,BAA,3
b; b; b,AAA,1
b; b; f; b; b; b; b; b; b; b,AABAAAAAAA,5
b; b; b; b; b,AAAAA,4
b; b; b; b; b; b; b; b,AAAAAAAA,4
b; b; b; b,AAAA,2
b; f; b; b,ABAA,1
b; b; b; b; b; b,AAAAAA,1
b; b; b,AAA,4
b; b; b; b; b,AAAAA,1
b; f; b; b,ABAA,1
b; b; b; b; b,AAAAA,1
b; b; b,AAA,1
b; b; b; b; b; b; b; b; b; b,AAAAAAAAAA,4
b; b; b; b; b; b; b; b; b; b; b; b,AAAAAAAAAAAA,6
b,A,1
b; f; b; b; b; b,ABAAAA,4
b; b; b; b,AAAA,3
f; b; b; f; b; b; b; b,BAABAAAA,3
b; b,AA,3
b; b,AA,1
b; b,AA,3
b; b; b; b; b; b; b; b; b; b,AAAAAAAAAA,5
b; b; b,AAA,2
b,A,1
b; b; f; f; b; b,AABBAA,1
b; b; b,AAA,5
b; b; b; b; b; b,AAAAAA,2
b; b; b,AAA,2
b; b,AA,1
b; b; b; b; b,AAAAA,1
f; b; f,BAB,1
f; b,BA,1
b; b; b; f,AAAB,1
f; b; f; b; f,BABAB,3
b; b; b; b; b; b; b; b; f; b; b; b; b; b,AAAAAAAABAAAAA,2
b; f; f; b; b; b; b; b; b; b; b; b; b,ABBAAAAAAAAAA,1
b; b; b; b; b; b; b; b; b; b; b; b; b; f; b; b; b; b; b; b; f; b; b; f; b; b; b; b; b; f; b; b; f; b; b; b; f; b; f; b; b; f; b,AAAAAAAAAAAAABAAAAAABAABAAAAABAABAAABABAABA,25
b,A,1
b; b; b; b; f; f; b,AAAABBA,1
b; b; b; b; b; b,AAAAAA,1
f; b; b,BAA,1
f,B,3
f; b; b; b; b; b,BAAAAA,7
b; f; b; b; b; b; b,ABAAAAA,11
f; f; b; b; b; f,BBAAAB,10
b,A,1
b,A,1
b; f; b; b; b; b; b; b; f; b; b; b; b; f; b; b; b; b; b; f; b,ABAAAAAABAAAABAAAAABA,27
b; b; b,AAA,6
b,A,1
f; b; f; f; b; b; b; b,BABBAAAA,8
b; b,AA,3
f; b; b; b; b; b; b,BAAAAAA,6
f; b; b,BAA,5
f; b; b; f; b; f,BAABAB,3
b; b; b; b; b; b; b; f,AAAAAAAB,6
b; b,AA,1
b,A,1
b; b; b; f; f; f; b; b,AAABBBAA,11
b; b; b; b; b; b; b; f; f; b; f; f; b; b; b,AAAAAAABBABBAAA,22
b; b,AA,2
b,A,1
f; b; b,BAA,2
b; b; b,AAA,4
b; b,AA,3
b; f; b; b; b,ABAAA,3
b,A,1
f,B,1
b; b; b; b; b; b; b; b; f; b; b; f; b; b; f; b; b; b; b; b,AAAAAAAABAABAABAAAAA,4
b; b; b; b; b,AAAAA,17
f; b; b; f; f; f; b; b; b; f; b; b; b,BAABBBAAABAAA,28
f; f,BB,9
b,A,1
b; b; b,AAA,6
b; b; f; f,AABB,12
f,B,3
b,A,6
b,A,6
f; f; b; b,BBAA,4
f; f; b; b; b,BBAAA,6
f; b; f; b; b; b; b; b; b; b; b; b; b; f; b; b; b; f; b; b,BABAAAAAAAAAABAAABAA,12
b; b; b; f; b; f; f; b; b; b; f,AAABABBAAAB,13
b; f; f,ABB,11
f; b; f; b; b; b; b; b,BABAAAAA,21
b; b,AA,1
b,A,2
b; b; b; b; f; b,AAAABA,6
b; b,AA,4
f,B,5
f; b,BA,7
b; b; f,AAB,3
b; b,AA,4
f; f; f; f; f; f; b; f; b; b,BBBBBBABAA,23
b; b; f; b; f; b; f; b; b,AABABABAA,25
b; b; f; f; b; b; f,AABBAAB,19
b,A,8
b,A,6
b,A,11
b,A,3
b,A,7
b,A,3
f; b,BA,23
b,A,3
b,A,2
b,A,6
f,B,46
b,A,47
b,A,1
b,A,33
b; f,AB,10
b; b; f; b,AABA,128
f; b,BA,22
b; b,AA,4
b,A,1
f,B,6
b; b; b,AAA,4
b,A,22
b; b; b,AAA,6
b; b,AA,5
b; b,AA,1
f; b; b,BAA,1
b,A,1
b; b; f; b; f; f; b,AABABBA,1
b; b; b; b; b; b; b; b; b; f; b; b; b; b; f; b; f; b; b; b; b; b; b; f; f; b; f; b; b,AAAAAAAAABAAAABABAAAAAABBABAA,2
b; b; b; f; b; b; f; b; f,AAABAABAB,2
f; b; b; b,BAAA,1
b; b; b; b,AAAA,1
b; b; b; b; f,AAAAB,1
b; b; b; f; b; b; b; f; b; b; b; b; b; b; b; b; b; f; b; f; b; f; b; f; b,AAABAAABAAAAAAAAABABABABA,2
f; b; b; b; b; b; f; b; b; f; b; b; b; b; b; b; b; b; b; b; b; f; b; b; b; b; f; b; b; b; b; f; b; b; b; b,BAAAAABAABAAAAAAAAAAABAAAABAAAABAAAA,7
b; b; b; f; b,AAABA,2
b; b; b; b,AAAA,1
b; f; b; b; b; f; b; b; b; f; b; b; b; b; b; b; b; b; b; b,ABAAABAAABAAAAAAAAAA,6
f; b; f; b; b; b; f; b; b,BABAAABAA,3
b; f; b; f; b; b; f; b; b; b; b; b; b; b; b; b; f; b,ABABAABAAAAAAAAABA,5
f; b; b; b; b; b; b; f; b; f; b; b; b; b; b; b; b; b; b; b; b; f,BAAAAAABABAAAAAAAAAAAB,5
f; b; b; b,BAAA,1
b; b; f; b,AABA,1
f; b; b,BAA,1
b,A,1
b; b; b; b; b; b,AAAAAA,4
f; b; b; b; f; b; b; f; f; b; b; f; b; b; b; b,BAAABAABBAABAAAA,2
b; b; b,AAA,1
b; b; b; b; b,AAAAA,3
b; f; b; b; b; f,ABAAAB,1
b; b; b,AAA,1
b; b; b; b; b; b; b; b; b; b; b; b,AAAAAAAAAAAA,2
b; b; b; b; f; f; b; b; b; b; b; b; b; b; b; b; b; b; b; b; b; b; b; f; b; f; f; b; b; b; b; b; b; f; b; b; b; f; b,AAAABBAAAAAAAAAAAAAAAAABABBAAAAAABAAABA,20
b; b; b; b; b,AAAAA,1
b; b; b; b; f; f; b; b; b; b; f; b; f; b; b; b; b; b; b; b; b; b; b; b; b; b; b; b; b; b; f; b; b; b; b; f; b; f,AAAABBAAAABABAAAAAAAAAAAAAAAAABAAAABAB,5
b; b; b; b; b,AAAAA,1
b; f; b; b; b; b; b; b; b; b; b; b; b; b; b; b; b; f; b; b; b; f; f,ABAAAAAAAAAAAAAAABAAABB,7
b; b; f; f; b; b; b; b; b; b; b; b; b; b,AABBAAAAAAAAAA,7
b,A,1
b; b; f; f; b; f; b; b; b; b; b; b; b; b; b; b; b; b,AABBABAAAAAAAAAAAA,7
b; f; b; b; b; b; f; b; b; f; b; b; b; b; b; f; b; b; f; f; b; b; b; b; b; b; b; b; b; b; b; f; b; b; f; b; b; f; b; f; b; b; b,ABAAAABAABAAAAABAABBAAAAAAAAAAABAABAABABAAA,21
b; b; b; b; b; f; b; b; b; b; b; b; b; b; b; b; b; f; b; b; b; b; f; b; f; b; b; b; b; b; b; b; b; b; b,AAAAABAAAAAAAAAAABAAAABABAAAAAAAAAA,21
b; b; b; b; b; b; b; b; b; b; b; b; b; b; b; b; b; b; b; b; b; b; f; b; b; b; b; b; b; f; b; b; b; b; f; b; f; b; f; b; f; b; b; b; b; b; b; b; b; b; b; b; b; b; b; b; b; b; b; b; b; b,AAAAAAAAAAAAAAAAAAAAAABAAAAAABAAAABABABABAAAAAAAAAAAAAAAAAAAAA,10
b; b; b; b; b; b; b; b; b; b; b; b; b; b; b; b,AAAAAAAAAAAAAAAA,4
b; b; b; b; b; b; b; b; b; b; b; b; b; b; b; b,AAAAAAAAAAAAAAAA,3
b; b; b; b; b; b; b; b; b; b,AAAAAAAAAA,1
b; f; b; b; b; b; f; b; b; f; b; b; b; b; f; b; b; b; b; b; b; b; b; b; b; b; b; b; b; b; b; b; b; b; b; b; b; b; b; b; b; b; b; f; b; b; b; f; b; b; b; b; b; b; b; b,ABAAAABAABAAAABAAAAAAAAAAAAAAAAAAAAAAAAAAAABAAABAAAAAAAA,7
b; b; b; b; b; b; b; b; b; b; b; b; b; b; b; b; b; f; b; b; b; b; b; b; f; b; b; b; b; b; b; b; b; b; b; b; b; b; b; b; b; b; b; b; f; b; f; b; f; b; b; b; b; b; b; f; b; b; b; b; b; b; b,AAAAAAAAAAAAAAAAABAAAAAABAAAAAAAAAAAAAAAAAAABABABAAAAAABAAAAAAA,11
b; b; b; b; b; b; b; f; b; b; b; b; b,AAAAAAABAAAAA,3
b; b; b; b; b; b; f; b,AAAAAABA,4
b; b; b; b; b; b; f; b; b; b; f; b; f; b; b; b; f; b,AAAAAABAAABABAAABA,8
b; b; b; b; b; b; b; b; b; f; f; b; b; b; b; b; b,AAAAAAAAABBAAAAAA,7
b; b; b; b; b,AAAAA,2
b; b; b; b; b; b; b; b; b; b; b,AAAAAAAAAAA,3
b; b; f; b; b; b; b; b; b,AABAAAAAA,2
b; f; b; f; f; b; b; b; b; b; b; f; b; f,ABABBAAAAAABAB,6
b; b; f; b; b; b; b; b; f; b; f; b; b; b; b; b; b; b; b; b; b,AABAAAAABABAAAAAAAAAA,3
b; b; b; f; b; b; f; b; b; b; b; b; b; b; b,AAABAABAAAAAAAA,2
b; b; b; b; b; b; b; b; f; b; b; b; b; b; f; b; b; f; b; b; b; b; b; b; f; b; b; b; b; b; b,AAAAAAAABAAAAABAABAAAAAABAAAAAA,6
b; b; b; b; b; b; b; b; b; b; b; b; b; b,AAAAAAAAAAAAAA,6
b; b; b; b; f; f; b; b; b; b; f; b; b; b; b; b; b; b,AAAABBAAAABAAAAAAA,4
f; b; f; b; b; b; b; b; b; b; b; b; b; b; b; f; b; b; b; b; b; b; b; b; b; b; f; b; b; f; b; b; b; b; b; b; b; b; b; b,BABAAAAAAAAAAAABAAAAAAAAAABAABAAAAAAAAAA,15
b; b; b; b; f; b; f; b,AAAABABA,1
b; b; b; b; b; b; b; b; b; f; b; b; b; b; f; b; b; b; b; b; b; b; b; b; b; b; b; b; b; b; b; b; b; b; b; f; b; b; b; b; b; b; f; b; b; b; b; b; b; b; b; b; b; f; b,AAAAAAAAABAAAABAAAAAAAAAAAAAAAAAAAABAAAAAABAAAAAAAAAABA,12
b; b; f; b; b; b; b; b; b; b; b; b,AABAAAAAAAAA,2
b; b; b; b; b; b; b; f; b; b; b; b; b; b; b; b; b; b; b; b; b; b; b; f; b; b; b; b; b; f; b; b; f; b; b; b; b; f; b; b; b; f; b; f; b; b; b; b; b; b; b; f; b; b; b; b; b; b; b; b; b; b; b; b; b; b; b; b; b; b; b; b; b; b,AAAAAAABAAAAAAAAAAAAAAABAAAAABAABAAAABAAABABAAAAAAABAAAAAAAAAAAAAAAAAAAAAA,28
b,A,1
b; b; b; f,AAAB,1
b,A,1
b; b; b; b; b; b; b; b; b; b; b; b; b; b; b; b; b; b; b; b,AAAAAAAAAAAAAAAAAAAA,8
b; b; b; b,AAAA,2
b; b; b; f; b; b; b; b; b; b,AAABAAAAAA,4
b; b; b; b; b; b; b; b; f; b; b; b; b; b; b; b; b; b; b; b; f; b; b; b; f; b,AAAAAAAABAAAAAAAAAAABAAABA,6
b; b; f; b; b; f; b; b; b; b; b; b; b; b; b; b; b; b; f; b; b; b; b; b; b; b; b,AABAABAAAAAAAAAAAABAAAAAAAA,12
f; f; b; b; b; b; b; b; b; b; b; b; b; b; b; b; b; b; b; b; b; b; b; b; b; b; b; b; b; b; b; b; b; f; b; b; b; b; b; b; b; b; f; b; b; b; f; b; b; b; b; b; b; b; f; b; f; b; b; f; b; b; b; b; b; b; f; b; b; b; b; b; b; b; f; b; b; b; f; b; b; b; b; b; b; b; b; b; b; b; b,BBAAAAAAAAAAAAAAAAAAAAAAAAAAAAAAABAAAAAAAABAAABAAAAAAABABAABAAAAAABAAAAAAABAAABAAAAAAAAAAAA,26
b; b; b; b; b; b; b; f; b; b; b; b; b; b; b; b; b; f; b; b; b; b; b; f; b; b; b; b,AAAAAAABAAAAAAAAABAAAAABAAAA,9
b; b; b; b; b; b; b; b; b; b; b; b; b; b; b; b; b; b; b; b; b; b; b; b; b,AAAAAAAAAAAAAAAAAAAAAAAAA,10
f; f; b; f; b; b; b; b; f; b; b; b; b; b; b; b; b; f,BBABAAAABAAAAAAAAB,3
b; b; b; b; b; b; b; b; f; f; b; f; b; f; b; b; b; b; b; b; b; b; b; b; b; b; f; b; b; b; b; b; b; b; b; b; f; f; b; b; b; b; b; b; b; b; b; b; f; b; b; b; b; b; f; b; b; b; f; b; b; b; b; b; b; b; b; b,AAAAAAAABBABABAAAAAAAAAAAABAAAAAAAAABBAAAAAAAAAABAAAAABAAABAAAAAAAAA,24
b; b,AA,2
b; b; b; b; b; b; f; b; b; b; f; b; b; b; b; b; b; b; f; b; b; b; b; b; b; b,AAAAAABAAABAAAAAAABAAAAAAA,13
b; b; b; b; b; f; f; b; b; b; b; b; b; b; b; b; b; b; b; b; b; b; b; b; b; f; b,AAAAABBAAAAAAAAAAAAAAAAAABA,6
b; b; f; b; b; b; b; b; b; b; b; b; b; b; b; b; b; b; b; b; b; b; b; b; b; b; b; f; b; b; b; b; b; f; b; f; b; b; b; b; b; b; f; b; b,AABAAAAAAAAAAAAAAAAAAAAAAAABAAAAABABAAAAAABAA,13
b; b; b; f; b,AAABA,2
b; b; b; b; b; f,AAAAAB,3
f; b; b; b; b; b; b; f; b; b; f; b; b,BAAAAAABAABAA,6
b; b; b; b; b,AAAAA,1
b; b; b; b; b; b; b; b; b; b; b; b; b; b; b,AAAAAAAAAAAAAAA,3
b; b; b; b; b; f; b; f; f; b; b; b; b; b; b; b; b; b; b; b; b; b; b; f; b; b; b; b; b; b; b; b; b; b; b; b; b; b,AAAAABABBAAAAAAAAAAAAAABAAAAAAAAAAAAAA,13
f; b; b; b; b; b; b; b; b; b; b,BAAAAAAAAAA,5
b; b; b; b; b; b; b; b; b; b,AAAAAAAAAA,3
b; b; b; b; b; b; b; b; b; b; b; b; b; b; b; b; b; b; b; f; f; b; b; b; b; b; b; b; b; b; b; b; b; b; b; b; b; b; b; b; b; b; f; b; b; b; b; b; b; f,AAAAAAAAAAAAAAAAAAABBAAAAAAAAAAAAAAAAAAAAABAAAAAAB,7
b; b; b; b; b; b; b; b; b; b; b,AAAAAAAAAAA,4
b,A,3
b,A,1
f; b; b,BAA,2
b,A,1
b; b; b,AAA,36
b,A,4
b,A,3
b; b; b,AAA,2
b; b,AA,1
b; b; b; b; f; b; b; b; b; b,AAAABAAAAA,517
b,A,1
b; b,AA,17
b; f; b; b,ABAA,1
b,A,1
b; b; b; b,AAAA,5
b; f,AB,27
f,B,1
f; b; f; b,BABA,27
b; b; b; b; b,AAAAA,31
b,A,6
b; f,AB,44
b; b; b,AAA,94
b; b,AA,25
b,A,92
b; b; f; b; f,AABAB,63
b,A,2
f; f; f; b,BBBA,87
b,A,24
b; b; b; b; b,AAAAA,11
b; b; b; b; b; b; b; b,AAAAAAAA,15
b; f; b; b; b,ABAAA,21
b; b; b; b; b; b; b; b; b; b; b; b; b,AAAAAAAAAAAAA,110
f; b; b; b; b; b; b; b; b; b,BAAAAAAAAA,124
f,B,67
b; b; b; b; b; b,AAAAAA,15
f; b; b; b; b; b; b; b; b; f; b; b; b; b; b; b; b; b; b; b; b; b; b; b; b; b; b; b; b; b,BAAAAAAAABAAAAAAAAAAAAAAAAAAAA,162
b; b,AA,1
b; b,AA,5
b,A,1
b; b; b; f; b; f; b; b; b; b; b; b; b,AAABABAAAAAAA,58
b; b; b; b,AAAA,13
b,A,5
b; f; b,ABA,44
b; b; b; b; b; b; b; b; b; b; f; b; b; f; b; b; b; b; b; b; b; f; b; b; b; b; b; b; b; b; b; b; b; b; b; b; f; b; b; b; b; b; b; b; b; b; b; b; b; b; b; b; b; b; b; b; b; b; b; b; b; b; f; b; b; b; b; b; b; b; b; f; b; b; b; b; b; b; b; b; b; b; b; b; b; b; b,AAAAAAAAAABAABAAAAAAABAAAAAAAAAAAAAABAAAAAAAAAAAAAAAAAAAAAAAAABAAAAAAAABAAAAAAAAAAAAAAA,271
b; b; b; b,AAAA,19
b,A,2
b; f; b; b; b,ABAAA,16
b,A,2
b,A,2
b; b; b; f; b; b,AAABAA,8
b; f; b,ABA,9
b,A,4
b; b; b; b; b; b; b; b; b; b; b,AAAAAAAAAAA,27
b,A,1
f; f; b,BBA,83
b,A,2
b; b,AA,7
b,A,5
b; f; f,ABB,67
b,A,35
b; b; b,AAA,1
b,A,2
b,A,4
b; f; b,ABA,2
b,A,2
b,A,1
b,A,5
b; b,AA,2
b,A,3
f,B,3
b; f,AB,1
f,B,4
f; b,BA,1
b,A,8
b,A,2
b,A,1
b,A,1
b; b; b; b; b; b; b; b; b; b; b; b; b; f; b,AAAAAAAAAAAAABA,3
b; b; f; b; b; b; b; b; f; b; b; b; b; b; b; b; b; b; f; b; b; b; b; b; f; b; b; b,AABAAAAABAAAAAAAAABAAAAABAAA,4
b; b; b,AAA,1
b; b; b; b; b,AAAAA,1
b; f; b; b; b,ABAAA,1
b; b; b; b; b; b; b; b; b; b; b; b; b; f; b; b,AAAAAAAAAAAAABAA,2
b; b; b; b; b; b; b; b; b; f; b; b; b; b; b,AAAAAAAAABAAAAA,2
b; f; b; f; b; b; f; f; b; b; b; b; b; b; b; b; b; b; b; b; b; b; b; b; b; b; f; b; b; f; b; b; b; b; b; b; b; b; f; f; b; b; b; b; b; b; b; b; b; b; b; b,ABABAABBAAAAAAAAAAAAAAAAAABAABAAAAAAAABBAAAAAAAAAAAA,9
f,B,1
b; b; b; b,AAAA,1
b; b; b; b; f; b; b; b,AAAABAAA,4
b; b; b; f; b; b; f; b,AAABAABA,6
f; f; f,BBB,1
f; b; b; b; b; b; b; b; b; b; b; b; b; b; b; b; b; b; b; f; b; f; f; b; b; f; f; f; b; b; b,BAAAAAAAAAAAAAAAAAABABBAABBBAAA,9
b,A,1
b,A,2
b,A,1
f; b; b; b; b; b; b; b; b; b; b,BAAAAAAAAAA,4
f,B,1
b; b; f; b; b; b; b; b; f,AABAAAAAB,4
f; b; b; b; b,BAAAA,2
b,A,1
f; b; b,BAA,1
b; b; b; b; f; b; b,AAAABAA,4
b; b; b; b,AAAA,1
b; b,AA,2
b,A,1
b; b; b; b,AAAA,1
b; b; b; b; b,AAAAA,1
b; b; b; b; b; b; b; b,AAAAAAAA,2
b; f; b; f,ABAB,2
b; b; b; b; b; b; f; b; b; b; b; b; b; b; b; b; b; b; f; b; b; b; b; f; b; b; f,AAAAAABAAAAAAAAAAABAAAABAAB,9
b; b; f; b; f; b; b; f; f; b; f; b; b; f; b,AABABAABBABAABA,5
b; b,AA,1
b; b; b; b; b; b; b; b; f; b; f; f; f; f; f; b; b; f; b; b; b; b; b; f; b; f; b; b; b; b; b; b; f; f; b; b; b; f; f; f; b; b; b; b; b; b,AAAAAAAABABBBBBAABAAAAABABAAAAAABBAAABBBAAAAAA,23
b; b; b; b; b; b; b; b; f; b; b; b; b; b; b; f; f; b,AAAAAAAABAAAAAABBA,9
b; b; b; b; b; f; b; f; b; b; b; f; b; b; b; b; b; f; b; b,AAAAABABAAABAAAAABAA,11
b,A,1
b; b; b; f; b; f; b; b; b; b,AAABABAAAA,4
b,A,2
b; b; b; b,AAAA,3
b; b; b; b; f; b; b; b; b; b; b; b; b; b; b; f; b; b; b; f; b; b; b; b; b; f; f; b; b; b; b; b; f; b; b; b; b; b; b,AAAABAAAAAAAAAABAAABAAAAABBAAAAABAAAAAA,19
b; b; b; b; b,AAAAA,1
b; b,AA,4
b; b; b,AAA,2
b; b; b,AAA,1
f,B,3
b; b; b; b; b,AAAAA,4
b; b; b; b; b; b; b,AAAAAAA,6
b; b,AA,1
b; b; b; b; b; b; b; b; b; b; b; b; b; b; b; b; b; b; f,AAAAAAAAAAAAAAAAAAB,10
b; f,AB,1
b; b; b; b; b,AAAAA,10
b; b; b,AAA,3
b; b; f; b; b; b; f; f; b; f; b,AABAAABBABA,14
b,A,2
b; b; b; b; b; b; b; b; b; b; b,AAAAAAAAAAA,3
b; b; f; f; b; f; b; b,AABBABAA,216
b; b; b; b,AAAA,192
f; b,BA,7
b; b; f; f; b; b; b; b; b; b,AABBAAAAAA,104
b; b; b; b; f; b,AAAABA,91
b; b; b; b,AAAA,1
b,A,1
f,B,9
b; f,AB,4
b; f; f; b,ABBA,48
b; b,AA,1
b; b; b; b; b; b; b; b; b,AAAAAAAAA,29
b; b; f; b; b; b; b; b; b; b; b,AABAAAAAAAA,17
b,A,1
b; b; b; b; b; b; b; f,AAAAAAAB,35
b; f; b; b; b; b; b; b; b; b; b; b; b; b; b; b; b; b; b; b,ABAAAAAAAAAAAAAAAAAA,40
b; f; b,ABA,7
b; b; b; b; b,AAAAA,12
b; b; b; f; b,AAABA,15
b; b; b; b; b; f; b; b,AAAAABAA,24
b; b; b; f; b; b; b; b; f; f; f; f; b; f; f; b; f; b; b; b; b; b; b; b; b; b; b; b,AAABAAAABBBBABBABAAAAAAAAAAA,60
b; b; b,AAA,15
b; b; b; f; f; b; b; b; b,AAABBAAAA,19
b; f; b; b,ABAA,3
b; b; f; b; f; f; b; b; f; b; b; f; b; b; b; b; b; b; b; b; b; b; b; b; b; f; b; b; b; f; b; b; b; b; f; b; b; b; f; b; b; f; f; f; b; b; f; b; b; b; b; f; f; f; b; f; b; b; b; b; f; f; b; f; f; b; f; f; b; b; b; b; f; b; b; b; b; b; f; b; b; b; b; b; b; b; b; b,AABABBAABAABAAAAAAAAAAAAABAAABAAAABAAABAABBBAABAAAABBBABAAAABBABBABBAAAABAAAAABAAAAAAAAA,125
b; b,AA,2
b; b; b; b; b; f; b; b; f; b; b; b; b; b; b; b; b,AAAAABAABAAAAAAAA,24
b; b; b; b; b; b; b; b; f; b; f; f; b; b; b; b; b; b; b; b; f; b; b; b; f; b; b; b; b,AAAAAAAABABBAAAAAAAABAAABAAAA,37
b; b; f; b; b; b; b; f,AABAAAAB,14
b; f; f; b; f; b; b; b,ABBABAAA,13
b; b; b; b; f; b; b; b; b; b; b,AAAABAAAAAA,7
b; b; b; b; f; b; b; b; b; b; f; b; b; b; b; b; f; b; b; b; b; f; f,AAAABAAAAABAAAAABAAAABB,24
b; b,AA,1
b; f; b; b; b,ABAAA,7
b; f; b; b; b; b; b; b; f,ABAAAAAAB,19
b; b; b; f; b; b; f; f,AAABAABB,8
b; b; b; b; b; b; b; b; f; b; b; b; b; f; f; b; f; b; f,AAAAAAAABAAAABBABAB,12
b; b; b; f; b; b; f; f; f; b; b; b,AAABAABBBAAA,27
b; b; b; f; b; b; b; b; b; b; b; b; b; b,AAABAAAAAAAAAA,15
b; b; b; b; b; b; f; b; b; b; b; b,AAAAAABAAAAA,4
b; f; b; b; b,ABAAA,1
f; b; b; b; b; b; b; b; b; b; b; b; b; b,BAAAAAAAAAAAAA,2
b; b; b; f,AAAB,1
b; b; b; b; b; b; f; b; f; b; b,AAAAAABABAA,4
b; b; b; b; b,AAAAA,1
b; b; b,AAA,2
b; b; f; b; b; b; b; b; b; b; f; f; b; b; b; b; b; b; b; b; b; b; b,AABAAAAAAABBAAAAAAAAAAA,9
b,A,4
b; b; b; b; b; b; b; b; b; b; b; b; f; b; f; b; b; b; b; b; f,AAAAAAAAAAAABABAAAAAB,17
b; b; f; b; b; b; f; b; f; b; b,AABAAABABAA,8
b; b; b; b; b,AAAAA,6
f; f,BB,58
b; b; b; b; b,AAAAA,273
b; b; b; b; b,AAAAA,50
f,B,47
b; b; b; b; b; b; b; b; b; b; b,AAAAAAAAAAA,350
b; b,AA,191
b,A,1
b,A,5
b,A,17
b,A,13
b; b,AA,1
b; b,AA,8
b; b; b; b,AAAA,16
f,B,29
f; f; b; b; b; b; b; b; b; b,BBAAAAAAAA,99
b,A,10
b,A,1
b,A,3
b,A,8
b; f,AB,2
b,A,3
b,A,2
b,A,1
b,A,12
b,A,1
f,B,7
b,A,3
b,A,1
b; b; b; b,AAAA,3
b; b; b; b,AAAA,2
b; b; b; b; b,AAAAA,2
b,A,1
b,A,1
f; f,BB,14
f; b; b; b,BAAA,28
b,A,4
b; b; f,AAB,8
b; b; b,AAA,9
b,A,2
b,A,5
b; b; b; b; b; b; b; b,AAAAAAAA,13
b; b; b; b; b; b; b,AAAAAAA,4
b; f; b; b; b; b,ABAAAA,3
b; b,AA,2
b; b; b; b,AAAA,4
b; b; b,AAA,1
b; b; b; b; b; b; b; b; b; b; b; f; b; b; b; b; b; b; f,AAAAAAAAAAABAAAAAAB,33
b; b; b; b; b; b; b; b; b; b; b; b; f; b; b; b; b; b; b; b; f; b; b; b; b; b; b; b; b; b; f; b; b; b; b; b; b; f; b; b; b; b; b; b; b; b; b; b; b; b; b; b; b; f; b; b; f; f; b; b; b; f; b; b; b; b; b; b; b; f; b; b; b; b; b; b; b; b; b; b; b; b; b; b; b; b; b; b; b; b; b; b; b; b; b; b; b; b; b; b; b; b; b; b; b; b; b; b; b; f; b; b; b; b; b; b; b; f; b; b; b; b; b,AAAAAAAAAAAABAAAAAAABAAAAAAAAABAAAAAABAAAAAAAAAAAAAAABAABBAAABAAAAAAABAAAAAAAAAAAAAAAAAAAAAAAAAAAAAAAAAAAAAAABAAAAAAABAAAAA,142
b,A,1
f; b; b; b; b; b; f; b; b; b,BAAAAABAAA,19
b; b,AA,12
b; f; b; b; f; b; b; b; b; f; b; b; b; b; b; f; b; b; b; b; b; b; b; b; b; b; b; b; b; b; b; b; b; b; b; b; b; b; f; b; b; f,ABAABAAAABAAAAABAAAAAAAAAAAAAAAAAAAAAABAAB,476
b,A,198
f,B,115
b,A,105
b,A,93
b; b; b; b; f; f; f; b; b; b; f; b; f; f; b; f; b; b; b; b; b; f; b; b; b; f; b; b; b; b; f; b; b; f; b,AAAABBBAAABABBABAAAAABAAABAAAABAABA,433
f; f; b; f,BBAB,304
f; b,BA,1
b,A,2
b,A,10
b,A,1
b; f,AB,1
b,A,1
b; b; f; b; b; b; b; b; b,AABAAAAAA,148
b,A,8
b; b,AA,1
b; b; b; b; f; b; b,AAAABAA,68
b; b,AA,6
b; b; b,AAA,104
b,A,8
b; b; f; b,AABA,10
b; b; f; b,AABA,58
b; b,AA,3
f,B,3
b; f; b,ABA,30
b,A,38
b; b,AA,33
b,A,1
b,A,1
b; b; b; b; b,AAAAA,7
b,A,1
b; f; b; b; b; b; f; b,ABAAAABA,64
b; f; b,ABA,23
f; b; b; f; b; b; b; b,BAABAAAA,140
b,A,3
b; b; b; f; b; b,AAABAA,2
b,A,2
b,A,2
f,B,3
b,A,1
f; b; f; b; b; b,BABAAA,47
b; b,AA,7
f; b; b,BAA,1
b,A,2
b; b; b; b,AAAA,2
b,A,1
f,B,2
f; b; b; b; b; b; f; b; b,BAAAAABAA,25
b; b,AA,2
b,A,15
b; b; b; b,AAAA,46
f; b; b; b; b; f; b; b; b; b,BAAAABAAAA,37
b,A,3
f; b,BA,3
b; b; b; b,AAAA,20
f; b,BA,9
b,A,6
b,A,6
f; b; b; b; b,BAAAA,3
b,A,3
b,A,6
b,A,1
b,A,17
f; b,BA,21
b; b,AA,22
f,B,48
b,A,39
b; b,AA,1
b; b,AA,2
b,A,1
b; b; f; b,AABA,2
b; f,AB,1
b; b,AA,1
b; b; b; b,AAAA,1
b; b; b,AAA,2
b,A,2
b,A,1
b,A,1
b,A,2
b; f; b,ABA,1
f; b,BA,2
b; f; f,ABB,4
b,A,1
b,A,1
f,B,2
b,A,3
b; b,AA,2
b,A,2
f; b,BA,1
f; b,BA,3
b,A,1
b; b; b; b; b; b; b,AAAAAAA,4
b,A,1
b; b,AA,6
f,B,3
f; f,BB,5
b,A,2
b; b; b; b; b; b,AAAAAA,1
b,A,1
f; b; b; b; b; b; b,BAAAAAA,3
b; f,AB,1
f,B,1
b,A,1
b,A,2
b,A,1
b,A,3
b,A,2
b; b,AA,1
b,A,2
b,A,1
b; b,AA,1
b,A,3
b; b,AA,1
b; b,AA,2
f,B,1
b,A,1
b; b,AA,1
b; b,AA,3
f; b,BA,1
b; f,AB,3
b,A,1
b; b,AA,2
b; b; b; b,AAAA,1
b,A,1
b,A,1
b,A,1
b; b,AA,1
f; b; b,BAA,1
b,A,5
b; b,AA,4
f,B,1
b; b,AA,1
b,A,1
b; b,AA,1
f,B,1
f; b; b,BAA,1
b,A,1
b,A,1
b,A,3
b,A,1
b; f; b,ABA,1
b; b; b,AAA,1
b,A,1
b; f; b; b; f,ABAAB,1
f,B,1
b,A,2
b; b,AA,1
f; f,BB,1
b,A,2
b,A,3
b; b; f; b,AABA,2
f,B,1
b,A,8
f; b; b,BAA,4
f,B,3
b; b; b,AAA,2
b,A,7
b; b,AA,1
b; b; b,AAA,9
f,B,2
f,B,1
f,B,1
b,A,1
f; b; f; b,BABA,1
f; b,BA,3
b; f; b; b,ABAA,2
b; f,AB,4
b,A,4
f,B,2
f,B,2
f,B,1
b,A,2
b,A,4
b; b,AA,2
b,A,4
f; b; b,BAA,1
b; b; b; b; f; b,AAAABA,1
b,A,7
b; b; b,AAA,1
b,A,1
b; b,AA,1
b; b; b,AAA,4
b,A,2
b,A,3
b; b; b; b; f,AAAAB,8
b; b; b,AAA,12
b,A,4
b,A,2
b,A,4
b,A,1
b,A,2
b; b; b; f; b; b; b,AAABAAA,2
b; b,AA,1
f; b; b,BAA,3
b; b; b; b,AAAA,2
f,B,5
b; b,AA,1
f; b; b,BAA,2
b; b,AA,1
b,A,1
b,A,4
b,A,1
f,B,2
b; f; f,ABB,6
b; b,AA,4
b; b,AA,2
b,A,1
b,A,3
f; f,BB,3
b; b; b,AAA,6
b,A,2
b; b; b,AAA,3
b,A,2
b,A,3
f; f; b; b,BBAA,6
b,A,3
b; f; f,ABB,4
b; b,AA,4
f; b; b,BAA,3
f; b; f,BAB,11
b,A,7
b,A,2
b; f,AB,5
b; b; b; b,AAAA,10
b,A,1
b; f; b; b; b; b; b; b; b,ABAAAAAAA,12
f; b; b; b; b; b; b; b; b; b; b; b; b; b; b; b; b; b; b; b; b; b; b,BAAAAAAAAAAAAAAAAAAAAAA,61
f,B,1
b; f; b; b; b,ABAAA,12
b; b; b; b; b; b; b; b; b; b; b; b; b; b; b; b; b; b; b; b; b,AAAAAAAAAAAAAAAAAAAAA,10
b; b; b,AAA,4
b; b; b; f; b; f; b; f; b; b,AAABABABAA,14
b,A,2
b; b,AA,2
b,A,5
b; b; b; b; b; b; b; f; b; b; b; f; b; b; b,AAAAAAABAAABAAA,41
f; b; b; b; b; b; b; f; b; b; b; b; b; b,BAAAAAABAAAAAA,38
f,B,1
b; b; b; b; f; f; b; b; b; b; b; b; f; b; b; b; b; b; f; b; f; b; b,AAAABBAAAAAABAAAAABABAA,32
b; f,AB,5
b,A,2
b; f; b; b; b; f; f,ABAAABB,14
f; b; f; b; b; b; b; f,BABAAAAB,16
b; b; b; f; b; b; f; b,AAABAABA,31
b; b,AA,3
f; b; b,BAA,7
b; b; b; b; f; b; b; b; b,AAAABAAAA,23
b,A,4
b; b; b; b; f; b,AAAABA,24
b; b; b; b; b; b; b; b; b; b,AAAAAAAAAA,14
b,A,1
b; b; b; b; b,AAAAA,13
b; b; b; b; b; f; b; b; b; b; b; b; b; b; b; b; b; b; b; b; b,AAAAABAAAAAAAAAAAAAAA,34
b; f,AB,7
b; b; b; b; b; b; b; b; b; b; b; b; b; b,AAAAAAAAAAAAAA,29
b; b; b,AAA,1
b; b; b; b; f; f; b; b; b,AAAABBAAA,6
b; b; b; b; f; b; b,AAAABAA,3
b; f; b; b,ABAA,3
b; b; f; f; f; b; b; b; b; b; b; b,AABBBAAAAAAA,15
f; b; b,BAA,6
b; b; b; b; b; b; b; f; b; b; b; b; f; b; b; b; b; b,AAAAAAABAAAABAAAAA,12
b,A,1
b; b; b; b; b; b; b; f,AAAAAAAB,8
b; f,AB,4
b,A,2
b,A,1
b; f,AB,2
b; b; b; b,AAAA,2
b,A,5
b,A,2
b; b; b; b; b; f; b; f; b; b; f; b; b; b; b,AAAAABABAABAAAA,7
f; b; b; b; f,BAAAB,5
b; b; b; b,AAAA,3
b,A,3
b; b; b; b; b; b,AAAAAA,7
b,A,6
b; b; b; b; b; b; b,AAAAAAA,1
f; b; b; b; b; b; b; b; b; f; b; b; b; b; f; b; f; b; b; f; b; b; f; b; b; b; b; b; b; f; b; b,BAAAAAAAABAAAABABAABAABAAAAAABAA,58
b; f; b; b; b; b; b; b; b; b; b; b; f; b; b; b; b; b; b; b; b; b; b; b; f; b,ABAAAAAAAAAABAAAAAAAAAAABA,38
b; b; b; f,AAAB,9
b; b; b; b; b; b; b; b; b; b; b; b; b; f; b; b; b; b; b; b; b; b; b; f; b; b; b; b; b,AAAAAAAAAAAAABAAAAAAAAABAAAAA,71
b; b; b; b; b; b; b; b; b; f; f; b; f; b; f; b; b; b; b; f; b; f; b; b; f; f; b; b; b; b; f; b; b; f; b,AAAAAAAAABBABABAAAABABAABBAAAABAABA,40
b; b,AA,3
b; b; b; b,AAAA,1
b; b; b; b; b; b; b; b; b; b,AAAAAAAAAA,12
b; b,AA,4
b; b; f; b; b; b; b; f; b; b; b; b; b,AABAAAABAAAAA,13
f; b; f; b; f; f; f; b,BABABBBA,10
f; b; f,BAB,6
b; b; b; b; b; f; b; b; b; b; b; b; b; b; b; b; f; b; b; b,AAAAABAAAAAAAAAABAAA,3
f; b; b; b,BAAA,2
b; b; b; b,AAAA,1
b; f; b,ABA,1
b; b; b; b; b; b; b; b; b,AAAAAAAAA,3
b; b; b,AAA,1
b,A,1
b,A,1
b; b,AA,1
f; b; b; b,BAAA,5
f; b; b,BAA,3
b,A,4
b,A,10
b,A,59
f; b; b,BAA,4
b; b; b,AAA,65
b; b,AA,28
f,B,22
b; b,AA,14
b,A,76
f,B,78
b; f; b,ABA,43
b; b; b,AAA,17
b; f; b,ABA,21
f; f,BB,188
b; b,AA,1
f,B,1
b,A,6
b,A,1
b,A,3
b,A,3
b; b; b,AAA,8
b,A,3
b,A,8
b,A,1
b,A,2
f; b; b; b; f; b,BAAABA,8
b,A,3
b,A,4
b; b; f; b; b; f; b,AABAABA,2
b,A,5
b,A,6
b; b; f,AAB,13
b,A,4
b; f; b,ABA,1
f; b; f,BAB,17
b; b; f; b; b; f; f; b; b; b; b,AABAABBAAAA,118
b; f; f,ABB,1
b; b; b; b; b,AAAAA,3
b,A,1
f; b,BA,1
b; b; b; b; f; f; b; b; f; f,AAAABBAABB,3
b,A,4
b; b; b; f; b,AAABA,5
b; b,AA,25
b,A,3
b; b; b; f; b,AAABA,3
f; b,BA,7
f; b; b,BAA,9
f,B,19
b; f,AB,1
b; f; b,ABA,9
f,B,17
f; f,BB,4
b; f; b; b; b; b; b; b; f; b; b; f; b; b; b; b; b,ABAAAAAABAABAAAAA,191
b; b,AA,8
b; b; b,AAA,14
f; b; b; f; b; b; b; b,BAABAAAA,64
b; f; b; b; f,ABAAB,5
b,A,15
b; b; b; b,AAAA,27
b; f,AB,1
b; b; f; b,AABA,1
b; f,AB,4
f,B,2
b,A,2
b; b; b; f; b,AAABA,2
f; b; b; b,BAAA,259
f,B,284
f; f; f,BBB,260
b; b; f; b; f; b; b; b; b; b; b; b; b,AABABAAAAAAAA,91
b; b; b; b; f; b; b; b; b; b; b; b; b; b; b; b; b; b; b; b; b; b; b; f; f; b; f; b; b; b; b; b; b; f; b; f; b; f; b; b; b; b; b; f; b; f; f; b; f; b; b; b; b; b; b; f; b; b; b; b; b; f; f; b; f,AAAABAAAAAAAAAAAAAAAAAABBABAAAAAABABABAAAAABABBABAAAAAABAAAAABBAB,18
b; b; b; b; f; b; f; b; b; b; b; b; b; b; f; b; b; f; b; b; b; b; b; b; f; b; b; b,AAAABABAAAAAAABAABAAAAAABAAA,12
b; b; b; b; f; b; b; b; b; b; b; b; b; f; b; b; b; b; b; b; b; b; b; b; f; b; b; b; b; b; b; f; b; b; b; b; b; b; b; b; b; b; b; b; b; b; b; b; f; b; b; f; b; b; b; b; f; b; f; b; b; b; b; b; b,AAAABAAAAAAAABAAAAAAAAAABAAAAAABAAAAAAAAAAAAAAAABAABAAAABABAAAAAA,31
b; f; b; b; b; f; b; b; b; b; f; b; b; b; f; b; b; b; b; b; b; f; b; b; f; b; b; b; b; b; b; b; b; b; f; b; b; b; f; b; b; b; b; b; b; b; b; b; f; b; b; b; b; f; b; b; f,ABAAABAAAABAAABAAAAAABAABAAAAAAAAABAAABAAAAAAAAABAAAABAAB,37
b; f; b; b; b; b; f; b; b; b; f; b; b; f; f; b; b; b; f; b; b; b; b; b; b; f; b; b; f; f; b; b; b; b; b; b; b; b,ABAAAABAAABAABBAAABAAAAAABAABBAAAAAAAA,27
b; b; b; f; f; b; b; b; f; f; b; b; b; f; b; b; b; b; b; f; b; b; b; b; b; b; b,AAABBAAABBAAABAAAAABAAAAAAA,17
b; f; b; b; b; b; b; b; b; f; b; b; b,ABAAAAAAABAAA,10
b; b; b; b; b; b; b; f; b; b; b; b; b; b; b; f; f; b; b; b; b; b; b; f; b; b; b; f; b,AAAAAAABAAAAAAABBAAAAAABAAABA,17
b; b; b; f; f; b; b; b; b; b; b; b; b; b; b; b; f; b; f; b; b; b; b; b; b; b; b; b; b; b; b; b; b; b; b; b; b; f; b; b; b; b; b; b; b; b; f; b; b; b; f; f; b; b; b; b; b; b,AAABBAAAAAAAAAAABABAAAAAAAAAAAAAAAAAABAAAAAAAABAAABBAAAAAA,44
b; b; f,AAB,3
f; b; f; b; b; b; b; b; b; b; b; b,BABAAAAAAAAA,16
b; b; b; b; b; b; b; b; b; b; b; f; b; b; b,AAAAAAAAAAABAAA,11
b,A,1
f; b; f; b; f; f; f; b; b; b; b; b; f; b; b; f; b; b; b; f; b; f; b; f,BABABBBAAAAABAABAAABABAB,21
f; f; f; b; f; b; b; b; b; b,BBBABAAAAA,270
b; b; f; b; b,AABAA,9
f,B,289
b,A,1
b; b,AA,15
b; b,AA,51
b; b; b; b,AAAA,5
b,A,15
b,A,7
b; b,AA,10
b; f; b,ABA,13
b; b; b; b; b; b; b; b; f; b; f; b; b; b; b; b; b; b; b; b; b; b; b; b; b; b; b; b; b; b; b; b; b; f; f,AAAAAAAABABAAAAAAAAAAAAAAAAAAAAAABB,492
b; b; b,AAA,3
b; b; b; b; b; b,AAAAAA,54
b; b,AA,1
b; b; b,AAA,1
b; b; b; b; b; b,AAAAAA,4
b; b; f; b; b; f; b; b; b,AABAABAAA,7
b,A,1
b,A,2
f; b; b; b; b; f; b; f; b; b; b; f; b; f; b; b; b; b; b; f,BAAAABABAAABABAAAAAB,43
f; b; b; b,BAAA,8
b; b; b; b; b; b; b; f; b; b,AAAAAAABAA,34
f,B,1
f; b,BA,6
b,A,2
b; b,AA,2
b; b,AA,2
b,A,1
b; b; f; b,AABA,2
b; f,AB,11
b; b; b; b; f; b,AAAABA,65
b; b; b; b; b,AAAAA,53
b,A,2
b; b; b; b,AAAA,2
b,A,13
b,A,1
b; b; b,AAA,22
b; f,AB,19
b,A,6
f; b,BA,1
b; b; f; b,AABA,67
f; b; b,BAA,2
b; f; b; f,ABAB,7
b,A,8
f; f; f,BBB,17
f; f,BB,29
b; b; b,AAA,31
f; b; b; b; b; b,BAAAAA,14
b; f; b; f,ABAB,23
b,A,1
f; f,BB,8
b; b; b; f; b; f; b,AAABABA,18
f; b; f; b; b; b; f; b; b; b,BABAAABAAA,68
b,A,13
f; b; f; b,BABA,6
b; b; b,AAA,16
f,B,13
b; b; f; b; f; f; b,AABABBA,6
b; b; b; b; b; b; b; b; b; b; b; b; b; b; b; b; f; f; b,AAAAAAAAAAAAAAAABBA,55
b; b; b; b; b; b,AAAAAA,14
b; b; f; b; f; b; f; b; b; b; b; f; b; f; b; b; b; b; f; b; f; b; f; f; b; f; b; b; b; b; b; b; b; b; b; b; f; b; b; f; b; b; b; b; b; b; b; b; b; f; b; b; b; b; b; b; b; b; f; b; b; b; b; b; b; b,AABABABAAAABABAAAABABABBABAAAAAAAAAABAABAAAAAAAAABAAAAAAAABAAAAAAA,278
f; b,BA,6
f; b; b; b; b; b; b; b; b; b; b,BAAAAAAAAAA,4
f; b; b; b,BAAA,17
f; b; b; b; b; b,BAAAAA,6
b; b; b; b; b; b; f; f; f; f; b; b; f; f; b; b; b; b; b; b,AAAAAABBBBAABBAAAAAA,88
b; b; b; b; b; f; b; b; b,AAAAABAAA,4
b; b; b; b; b; b,AAAAAA,6
b; b; f; b; b; b,AABAAA,18
b; b; b; b; b; b; b,AAAAAAA,49
b; b; b; f,AAAB,10
b; b; b; b; f,AAAAB,8
b; b,AA,3
b; b,AA,4
b; b; b; b,AAAA,40
b; b; b; b; b; b; b; b; b; b,AAAAAAAAAA,50
b; b; b; f; b; b,AAABAA,13
b,A,1
b,A,1
b,A,2
b; b,AA,2
f,B,1
b,A,1
b; b; f,AAB,1
f,B,1
b,A,1
b; b,AA,1
b; f,AB,2
b; b,AA,2
b,A,1
b,A,3
b; b,AA,1
f,B,2
f; b; f; b,BABA,1
b,A,2
b,A,1
f; b,BA,1
b; b; f; b; b; b; f; b; b,AABAAABAA,7
f; b,BA,3
b; f; b,ABA,2
b,A,1
b; b,AA,1
b; b; b; b; b; f,AAAAAB,1
b,A,2
b; f; f; f,ABBB,3
f; f; b; b; b; b; b; f,BBAAAAAB,3
f,B,1
b,A,1
b; b; b; b; b; f; f; f; b; b; f; b; b,AAAAABBBAABAA,6
b; b; b; b; b; b; f; b; b; f,AAAAAABAAB,6
b; b; b; b; b,AAAAA,2
f; f; b; f,BBAB,2
b,A,1
b,A,1
b; b; b,AAA,1
b; b; b,AAA,3
b; b; b; b; f,AAAAB,20
b; b; b; b; b; b,AAAAAA,22
b,A,1
b,A,14
b,A,7
b,A,13
b,A,7
f,B,1
b; b,AA,8
b; b,AA,1
b,A,2
b; b,AA,1
b,A,23
b; b,AA,10
f; b; f,BAB,41
b; b,AA,3
b; b; b; f,AAAB,18
f,B,6
f,B,3
b; b; f,AAB,6
b,A,4
b; b,AA,2
b; b; b; b; b; f; b,AAAAABA,19
b; b; b; b; b,AAAAA,6
f,B,6
b; f,AB,2
b,A,4
b,A,8
b,A,4
f; b,BA,6
b; b; b,AAA,16
b; b,AA,14
b; b,AA,15
b,A,1
f; b,BA,1
b,A,6
f,B,9
f,B,5
b,A,1
f,B,9
b; b; b; b; f; b; b,AAAABAA,36
b,A,3
b; b,AA,8
b; f; b,ABA,4
b; f; f; f; f,ABBBB,1
b; b,AA,7
b; b; b; b; b; b; b; b; b; b; b; b; b; b,AAAAAAAAAAAAAA,7
b; f,AB,8
b; b,AA,12
b; b; b; f; b; b; b; b; b,AAABAAAAA,6
b; b; b; b; f; b; b,AAAABAA,15
b,A,7
b; b; f; b; b; b; b; b; b; b; b; b; b,AABAAAAAAAAAA,55
b; b; b; b; b; f; b; b; b; b; b; f; b,AAAAABAAAAABA,30
b; b,AA,1
b; b; b; f; f; f; f,AAABBBB,24
b; f; f,ABB,3
b; b,AA,1
b,A,26
f,B,7
f; b; b,BAA,6
b,A,3
b,A,3
f; f; b; f,BBAB,2
f,B,47
f; f,BB,25
b,A,32
b,A,11
b,A,21
f,B,42
b,A,29
b,A,16
b,A,22
f,B,40
b,A,56
b,A,2
b,A,1
f; b,BA,1
b; b,AA,1
b; b; b; b; b,AAAAA,2
b; b; b; b,AAAA,2
b; b,AA,1
f,B,1
b; b; b; b,AAAA,1
b,A,1
b; b,AA,1
b,A,1
b,A,1
b; b; b; b; b; b; b,AAAAAAA,1
b,A,1
b; b; b,AAA,1
b; f; b,ABA,1
b; b,AA,1
b,A,1
b,A,1
b; b,AA,1
b; b; b,AAA,1
b,A,1
b; b; b,AAA,1
b,A,1
b; b; b,AAA,1
b; b; b; b; b,AAAAA,2
b,A,1
b; b,AA,1
b; b; f; b,AABA,2
f; b; b,BAA,1
b; b,AA,1
b; b; b; b; b; b; b; b; b; b; b; b,AAAAAAAAAAAA,6
b; b; b; b; b,AAAAA,2
f; b; b; b; b; b; f,BAAAAAB,2
f; b; b; b; b; b; b; b; f; b,BAAAAAAABA,7
b; f,AB,1
f; f; b; b; b; b,BBAAAA,5
b; b; b; b; b,AAAAA,2
b,A,1
b; b; f; b; b; b,AABAAA,1
b,A,1
f; b; b; b; b; f,BAAAAB,1
b; f; b; b; b; b; b; b,ABAAAAAA,4
b; b,AA,1
b,A,1
b; b; b; f,AAAB,2
b,A,1
b; b; b,AAA,2
b,A,1
b; b,AA,1
b; b; b; b; b,AAAAA,2
b; b; f; b,AABA,1
b; b; b; b; b; b; b; b; f; b; b; b; b; b; b; b; b; b; b; f; f; b,AAAAAAAABAAAAAAAAAABBA,13
b; b,AA,1
b; b; b; b; b; b; b; b; b; b; b; f; b; b; b; b,AAAAAAAAAAABAAAA,20
b; f; b; b; b; f; b; f; b,ABAAABABA,5
b,A,3
f; b; f,BAB,4
f; f; b; b; b; b; f,BBAAAAB,8
b; b; b,AAA,2
b; b,AA,1
b; b; f,AAB,1
b; b; b; b; b; b; b,AAAAAAA,1
b; b; b; b; b; b; b,AAAAAAA,1
b; b; b; b; b,AAAAA,1
b; b,AA,2
f; b,BA,4
b; f; b; f; b; b; b; b; f; b; b; b,ABABAAAABAAA,8
b; f; f; b; b,ABBAA,2
b; b; b; b; b; f; f; b; b; b,AAAAABBAAA,6
b; b; b; b; b; f,AAAAAB,5
b; b,AA,1
b; f,AB,1
b,A,1
b; b; b; f; b,AAABA,2
b; b; b; b; b; f; f; b; f; b; b; b; b; b,AAAAABBABAAAAA,7
b,A,3
b; f; b,ABA,4
b; b; b; b; b; b,AAAAAA,6
b,A,1
b; b; b; b,AAAA,4
b; b,AA,1
b; b; b,AAA,3
b; b; b; b; b,AAAAA,6
b; f; b; b; f; b,ABAABA,3
b; b; b,AAA,1
b; b,AA,5
b; f; f; b; b; b; f; b,ABBAAABA,12
b; b,AA,4
b,A,1
b; b,AA,2
b; b; b,AAA,2
b; b,AA,1
f,B,1
b; b,AA,4
b,A,2
b; b; b; b,AAAA,5
b; b,AA,3
b,A,1
f,B,1
f; b,BA,1
b,A,1
b; b; b,AAA,1
f,B,2
b; b; b; b,AAAA,1
b; b; b; b; b; b; b; b,AAAAAAAA,1
b; b; b; b; b; b; b,AAAAAAA,1
b; b; b; f; b; b; b; b; b; b; b,AAABAAAAAAA,1
b; b; b; b; b; b; b,AAAAAAA,1
b; f; b; b; b; b; b,ABAAAAA,1
b; f; b; b; b,ABAAA,1
b; b; b; b; b; b; b; b; b; b,AAAAAAAAAA,2
b,A,1
b,A,2
b; f; b; f; b; b; b; b,ABABAAAA,1
b; b; f,AAB,1
b; b,AA,1
b,A,1
b,A,1
b,A,1
b; b; b; b; f,AAAAB,1
b,A,1
f; b,BA,1
b,A,1
b,A,1
b,A,1
f,B,1
b,A,1
b,A,1
b; b,AA,1
b; b; b; f; b; f,AAABAB,1
b; b,AA,1
f; b,BA,1
b; b; b,AAA,1
b; b; b,AAA,1
f; f,BB,1
b; b; b; f; b,AAABA,1
f; b,BA,1
b; b; f; b; f; b,AABABA,11
b; b,AA,1
f,B,1
b; f; b; b,ABAA,6
b,A,1
b; b; b; b,AAAA,2
b; b,AA,2
b; b; b; b; b; b; f; b; b; b,AAAAAABAAA,10
b,A,1
f,B,1
b; b,AA,1
b; b; f; b; b; b; b,AABAAAA,3
b; b; b; b,AAAA,4
b; b,AA,2
b; b; b,AAA,1
b; b; b,AAA,7
b; b,AA,2
f; b,BA,3
f; b,BA,2
b; f; b; b,ABAA,6
b,A,1
b,A,1
b,A,5
b; f,AB,2
b; b,AA,2
f,B,1
b; b,AA,1
f,B,1
b; b; b,AAA,3
b; b,AA,2
b,A,1
b; b,AA,3
b,A,4
b,A,1
b,A,1
b,A,5
b,A,11
b,A,5
b,A,24
b,A,19
b; b,AA,50
b; b; b; b,AAAA,85
b,A,4
b; b,AA,2
b,A,6
b; b,AA,6
b,A,4
b; b,AA,26
b,A,3
b; b; b,AAA,5
b; b; b; b; b,AAAAA,6
b,A,12
b,A,18
b,A,1
b; b,AA,15
b; b; b; b,AAAA,29
b,A,3
b; f; b; b; b,ABAAA,82
b; b; b; b; b,AAAAA,8
b; b,AA,46
b,A,7
b; b,AA,24
b; b,AA,4
b; b,AA,3
f; b,BA,1
b; b,AA,33
b; b,AA,1
f,B,1
b,A,2
b,A,2
b,A,2
f,B,1
b,A,1
b; b,AA,1
b; b,AA,1
f,B,3
b,A,3
b; b,AA,1
f,B,2
b,A,1
b,A,1
f,B,6
b,A,1
b,A,1
b; b,AA,2
b; b,AA,1
b; f,AB,2
b,A,1
b,A,1
b; b,AA,1
f; b; b,BAA,1
b,A,1
b,A,1
b; b; b; b; b,AAAAA,6
b,A,1
f,B,1
b,A,4
b; f; b; b; b; b; b,ABAAAAA,1
b,A,4
b; b,AA,5
b,A,3
b; b,AA,2
b,A,2
b; b,AA,2
b,A,1
f,B,4
f,B,5
b; b,AA,3
b,A,1
b,A,4
b; b; b; f,AAAB,12
b; b; f,AAB,3
b,A,5
f; b,BA,1
f,B,6
b; b; f,AAB,1
b; b; b,AAA,1
b; b,AA,1
b; b,AA,1
b; b; b; b; b; b; f,AAAAAAB,7
b; b; b; b,AAAA,6
b; b,AA,2
b; f,AB,10
b,A,1
b,A,2
b,A,1
f; b; b; b,BAAA,4
b; b,AA,9
b; b; b; b; f; b; b; b; b; b; b; f; b; b; b; b; b; b,AAAABAAAAAABAAAAAA,257
b; b; b,AAA,89
b,A,12
b,A,28
b,A,3
f; b,BA,6
b,A,43
b; b; b; b,AAAA,1
b; b; b; b; b; b; b,AAAAAAA,4
b,A,1
f; b; b; b; b; b; b; b; b; b; b; b; b; b,BAAAAAAAAAAAAA,21
b; b,AA,3
b; f; b; b,ABAA,6
b; b; b; b; b; f; b,AAAAABA,43
b; b; b,AAA,18
b,A,10
b; f,AB,17
b,A,1
f,B,8
b; b,AA,8
b; b; f,AAB,25
f; f; f; b; b; b; b; b; b; f; b; b; b; b; b; b; f; f; b,BBBAAAAAABAAAAAABBA,76
b; b,AA,15
b; b,AA,11
f; b; b; b,BAAA,9
b; b; b; b,AAAA,8
f,B,3
b,A,2
b; b; b; b; b,AAAAA,18
b; b; b; b; f,AAAAB,14
f,B,2
b; b; b; f,AAAB,42
b; b; b; f,AAAB,10
b; b,AA,28
b; b; b; b; b; b; b,AAAAAAA,29
f; b; b; b; b; b,BAAAAA,46
b; b; f; b,AABA,14
b,A,8
b; b; f; b,AABA,4
b; b; b; f; b; b; b; b; b; f; b; b; b; b; f; b; b; b; b; b; b,AAABAAAAABAAAABAAAAAA,69
b; b; b; b; b; f; f; b; b; b; f; b; f; b; b; b; b; f; b; f; f,AAAAABBAAABABAAAABABB,62
b,A,3
b; b; b; b; b; b,AAAAAA,10
b,A,18
f; f; b; b; b; b; f; b; b; b; b; f; b; b,BBAAAABAAAABAA,39
b; b; b; b; b,AAAAA,8
b; f; b; b,ABAA,25
b; f; b; b; b; b,ABAAAA,22
b,A,1
b; b; b; b; b; b,AAAAAA,7
b; b; b; b; b; b; b; b; b; b; b; b; b; b; b; b; b; b; b; b; b; b,AAAAAAAAAAAAAAAAAAAAAA,24
b; b; b; b; b; b; b; b; b; b; b; b,AAAAAAAAAAAA,5
b,A,2
b; b; b; b; b; b; b; b; b; b; b; b; b; b; b; b; b; b; b; b; b; b; b; b; f; b; b; b; b; b; b; b; b; b; b; b; b; b; f; b; b; b; b; b; b; b; b; b; b; b; b; b; b; b; b; b; b; b; b; b; b; b; b; b; b; b; b; b; b; b; b; b; b; b; b; b; b; b; b; f; b,AAAAAAAAAAAAAAAAAAAAAAAABAAAAAAAAAAAAABAAAAAAAAAAAAAAAAAAAAAAAAAAAAAAAAAAAAAAAABA,74
b; b; b,AAA,3
b,A,1
b; b; b; b; b; b; b; b; b; b; b,AAAAAAAAAAA,10
b; b; b; b; b; b; b; b; b; b; b; b; b,AAAAAAAAAAAAA,10
b; b; b; b; b,AAAAA,4
b; b,AA,1
b,A,1
b; b,AA,4
b; b; b; b,AAAA,1
b,A,1
b; b; b; b,AAAA,1
b; b; b; b; b; b; b; b; b,AAAAAAAAA,4
b; b; b; b; b; b; b; b; b; b; b; b; b; b; b; b; b; b; b; b; b; b; b; b; b; b,AAAAAAAAAAAAAAAAAAAAAAAAAA,23
b; b; b; b; b; b; b; b; b; b; b; b; b; b; b; b; b; f; b; b; b; b; b; b; b; b; f; b; b; b; b; b; b; b; b; b; b; b; b; b; b; b; b; b; b; b; b; b; b; b; b; b; b; b; f; b; b; b; b; b; b; b; b; b; b; b; b; b; b; b; b; b; b; b; b; b; b; b; b; b; f; b; b; b; b; b; b; b; f; b; b; b; b; b; f; b; b; b; f; b; b; b; b; b; f; b; b; b; b; b; b; b; b; b; b; b; b; b; b; b; b; f; b; b; b; b; b; b; b; b; b; b; b; b; b; b; b; b; b; b,AAAAAAAAAAAAAAAAABAAAAAAAABAAAAAAAAAAAAAAAAAAAAAAAAAAABAAAAAAAAAAAAAAAAAAAAAAAAABAAAAAAABAAAAABAAABAAAAABAAAAAAAAAAAAAAAABAAAAAAAAAAAAAAAAAA,251
b; b,AA,3
b; b; b; b; b; b,AAAAAA,12
b; b; b; b; b; b; b,AAAAAAA,10
b; b; b; b; b,AAAAA,8
b; b; b; f; b; b; b; b; b; b; b; b; b; b; b; b; f; b; b; b; b; b; b; b; b; b; b; b; b; b; f; b; b; b; b; b; b; b; b; b; b; b; b; b; b; b; b; b; b; b; b; b; b; b; b; b; b; b; b; b; b; b; b; b; f; b; b; b; b; b; b; b; b; b; b; b; b; b; b; b; b; b; f; b; b; f; b; b; b; b; b; b; b; b; b; b,AAABAAAAAAAAAAAABAAAAAAAAAAAAABAAAAAAAAAAAAAAAAAAAAAAAAAAAAAAAAABAAAAAAAAAAAAAAAAABAABAAAAAAAAAA,231
b; b; b; b; b; b,AAAAAA,17
b; b; b; b; b,AAAAA,18
b; b; b; b; b; b; b; b; b; b; b; f; b,AAAAAAAAAAABA,28
b; b; b; b; b; b,AAAAAA,22
b; b,AA,1
b; b; b; b; b; b; b; b; b; b; b,AAAAAAAAAAA,1
f; f; f; b; f; b; b,BBBABAA,1
b; b; f; b; b; b; b; f; b; b; f; b,AABAAAABAABA,2
b; b; b; b; b; b; b; b; f; b; b; b; f; b; b,AAAAAAAABAAABAA,3
b; b; b; b; b; b; b; b,AAAAAAAA,2
f; b; f; f; f,BABBB,1
f; b; b; b; b; b,BAAAAA,1
b; b; b; b; f; b,AAAABA,2
b; b; b; b,AAAA,1
b; b; b; b; b; b; f,AAAAAAB,1
b; b; b; b; b; f; b; b; b,AAAAABAAA,1
b; b; b; b; b; f; f; b; b; b; b; b; f; b; b; f; f; b; b; b; f; b; f,AAAAABBAAAAABAABBAAABAB,6
b; b; b; f; f; f; b; b,AAABBBAA,1
f; b,BA,1
b; b; b; b; b; b; b; f; b; b; b; b; b; b,AAAAAAABAAAAAA,1
b; b; b; b; b; b; b; b; f; b; f; b; b; f; f; b; b; b; b; b; f; b; b; b; f; b,AAAAAAAABABAABBAAAAABAAABA,3
b; b; b; f; b,AAABA,1
b; b; b; b; b; b; b,AAAAAAA,1
b; b; f; b; b; b; b; b,AABAAAAA,1
f; b; b; f; b; f; b,BAABABA,1
b; b; b; b; f; b; b; b; b; b; f; b; f; b; b; f; b; f; f; b; b; b,AAAABAAAAABABAABABBAAA,3
b; b; b; b; b,AAAAA,1
b; b; b,AAA,1
b; f; b; b; b; b,ABAAAA,1
f; b; f; b; f; b; f,BABABAB,1
b; b; b; b; b; f; b; b; b; b; b; b; f,AAAAABAAAAAAB,2
b,A,1
b; f; b; b; b; b,ABAAAA,1
b; b; b; b; b; b; b; b,AAAAAAAA,1
b; b; b,AAA,1
b; b; b; b; b; b; b; b; b; b; b; b; b; b; f; b,AAAAAAAAAAAAAABA,4
b; b,AA,1
b; b; b; b; b; b; b; b; f; b; b; b; b,AAAAAAAABAAAA,2
b,A,1
b; b; b; b; b; b; b; b; b; b,AAAAAAAAAA,3
b; b; b; b; f,AAAAB,1
f; b; b; b; b; b; b; f; b,BAAAAAABA,1
b,A,1
b; b; b; b; b; f; b,AAAAABA,1
b; b; b; b,AAAA,1
b; b; f; b; b; b; b; b; b; b; b; f; b; b,AABAAAAAAAABAA,2
b; b; f; b; f; b; b; b,AABABAAA,1
b; b; b,AAA,1
b; f; b; b,ABAA,1
b; b; b; b,AAAA,1
f; f; f; b,BBBA,1
b; b; b; b; f; b,AAAABA,2
f; b; b; b; f,BAAAB,1
b; f; b; b; b; b; f; f; b; b; b; b; b; b; b; b; f; b,ABAAAABBAAAAAAAABA,2
f; f; b; b; b; b; f; b; b; b; b; b; b,BBAAAABAAAAAA,1
b; b; b; b; b; b; f; b; b; f; b; b; b; b; b,AAAAAABAABAAAAA,3
f; b; b; b; b; b,BAAAAA,1
b; b,AA,1
b; b; b; b,AAAA,1
b; b; b; b; b; f,AAAAAB,1
b; b; b; b; b; b; b; b; b; b; b; b; b; f; f; b; b; b; b; b,AAAAAAAAAAAAABBAAAAA,2
b; b; b; f; b; b; b; f; b; b,AAABAAABAA,1
b; b; b; f,AAAB,1
b; b; b; b; f; b; b; b,AAAABAAA,1
b; b; b; b; f; b; f; b; f,AAAABABAB,1
b; b; b; b; b; b; b; b; b; b,AAAAAAAAAA,1
b; b; b; b; b; b,AAAAAA,1
b; f; b; f; b; b; f; b; b; b; b; b; b; b; b; b; b,ABABAABAAAAAAAAAA,2
f; b; b; b,BAAA,1
b; f; b; b; b; b; b; b,ABAAAAAA,1
b; b; b; b; f; f; b; b; b,AAAABBAAA,1
b; b; b; f; f,AAABB,1
b; b; f; b; f; f; b; f; f; b; b; f; b,AABABBABBAABA,2
b; b; b; b; b,AAAAA,1
f; b; f; f; f; f; b,BABBBBA,1
b; b,AA,1
b; b; b; b; b; b; b; b; b; b,AAAAAAAAAA,5
b; b; f; f; b; b,AABBAA,1
b; f,AB,1
b; b,AA,1
f; b; b; b; b; b,BAAAAA,1
f; b; f; f; b; b; f; b; b; f,BABBAABAAB,3
f; b; b; b; b; f; f,BAAAABB,1
b; b; b; f; b; b,AAABAA,1
b; b; f,AAB,1
b; b; f; f; f; b; b; b; b; b; b; b; b; b; b; b; b; b; b; b; b; b; b; b; f; f,AABBBAAAAAAAAAAAAAAAAAAABB,3
b; b; b,AAA,1
b,A,1
b; b,AA,1
b; f; f; f; b; b; f; b; b; b; b; b; b; b; f; b; b; b; b; b; f; b; b; b; f; f; b; f; b; b; b; b; b; f; b; b; b; b; b; b; b; f; b; b; b; b; b; b; b; b; b; b; b; b; b; b; b; b; b; f; f,ABBBAABAAAAAAABAAAAABAAABBABAAAAABAAAAAAABAAAAAAAAAAAAAAAAABB,14
b; f; b; f; f; b; f; b; b,ABABBABAA,3
b; b; b; b; b,AAAAA,3
b; f; b; b; b; b,ABAAAA,1
b; f; b; b; b; b; f; b; b; b,ABAAAABAAA,3
f; b; f,BAB,1
b; b; b; b,AAAA,1
b,A,1
b,A,1
b; f; b; b; b; b; b; b; f; b,ABAAAAAABA,2
b; f; b; b; b; b; b; b; b; b; b; b; f; b; b; b; b; b; f,ABAAAAAAAAAABAAAAAB,1
b; b; b; f; b; f; b; b; b; b,AAABABAAAA,1
b; f; b; b; b; b; b,ABAAAAA,1
b; b,AA,1
b; f; f; b; b; b,ABBAAA,2
b; b; b; b; b; b,AAAAAA,1
b; b; b; b; b,AAAAA,2
b; f; b; b; b; b; f; b; b; b; f; f,ABAAAABAAABB,1
b,A,1
b; f; b; b; b; f; b; b; b; b; f; b,ABAAABAAAABA,3
b; b,AA,1
b; b; b; f; b; b,AAABAA,1
f; b; b; b; f; b,BAAABA,1
b,A,1
f; b; b; b; b; f; b; b; b; f; b; b; b,BAAAABAAABAAA,3
f; f,BB,1
b; b; b,AAA,1
b; b; b; b,AAAA,1
f; b; b; b; b,BAAAA,1
f; b; b; f; b; b; b; b,BAABAAAA,3
b; b; b; b; b; b; b; b; b; b; f; b; b; b; b; b; b; b; b; f; b,AAAAAAAAAABAAAAAAAABA,1
b; f; b; b; b; b; b,ABAAAAA,1
f; f; b; b; b; b; b; b,BBAAAAAA,1
b,A,1
f; b; b; b; b; b; b; b; b; b,BAAAAAAAAA,1
b; b; b; b; f; b,AAAABA,2
b; b,AA,1
f; b; f,BAB,1
f; b; b; b; b; b; b; f; b; f; b,BAAAAAABABA,1
b; f; b; b; b; b,ABAAAA,1
b; f; b; b; f; b; b; f; b; b,ABAABAABAA,3
b; b,AA,2
b; b; b; b; b; b; f; b; b; b; b; b; f,AAAAAABAAAAAB,4
f,B,1
b,A,1
b,A,1
b; b; b; b; b,AAAAA,1
b; b; b; b; b; b; b; b; b; b; b; b; b; f; b; b; b; b; b; b; b; b; b; b; b; b; b; b; b; b; b; b; b; b; b; b; b; b; b; f; b; b,AAAAAAAAAAAAABAAAAAAAAAAAAAAAAAAAAAAAAABAA,2
b; b; b; b,AAAA,1
b,A,1
b; b,AA,1
f,B,1
b; b; b; b; b; b; b; b; b; b; b; b; b; b; b,AAAAAAAAAAAAAAA,5
f; b; b; b; b; b; b; f; b; b; b,BAAAAAABAAA,2
b; b; b; b; b; f; b; f; b; b; b; f; f; b; b; b; b; b; b; b; b; b; b; b; b; b; b; f; f; b; f; b; f; f; b; f; b; b; b; b; b; b; b; b; b; b; b; b; b; b; b,AAAAABABAAABBAAAAAAAAAAAAAABBABABBABAAAAAAAAAAAAAAA,4
f; b; b; f; b; b; b; b; b; b; b; f; b; b; b; f,BAABAAAAAAABAAAB,4
b; b; b; b,AAAA,1
b; b; b,AAA,1
b; b; b; b; b; b; b,AAAAAAA,1
b; b; b,AAA,1
b; f; b,ABA,1
b; b; b; f,AAAB,1
b; b; b,AAA,2
b; b,AA,1
b; f; b,ABA,1
b; b; b; b; b; b; b; b,AAAAAAAA,2
b; b; b; b; f; b; f; b; f; b; b,AAAABABABAA,3
f,B,1
b; b; b; b; b,AAAAA,1
b; b; f; f,AABB,1
b; b; b; b; f,AAAAB,1
b; b; b,AAA,2
b; b; b; b,AAAA,1
b; b; b; b; f; b,AAAABA,1
b; b; b; b; b; f; b; b; f,AAAAABAAB,1
b,A,1
b; b; b; b; b; b,AAAAAA,4
b; b; f; b; b; b; f,AABAAAB,2
b; b; b; b; b; b; b; b; b; b; b; f; b; b; b,AAAAAAAAAAABAAA,3
b; b; b; b; b; f; f; b; b; b; b; b; b; b,AAAAABBAAAAAAA,2
b; b; b; b; b; b,AAAAAA,1
b; f; b; b; b; b; f; b; b; b,ABAAAABAAA,1
b; f; b; b; b; f,ABAAAB,1
f; b; b,BAA,1
b; b; b; b; f; b; b; f,AAAABAAB,2
f; b; b; f; b,BAABA,1
b; b; b; b,AAAA,2
b; b,AA,1
b; b; b; b; b; b; b; b; b; f; b; b; b; b,AAAAAAAAABAAAA,3
b; f; b; b; b; b; b; b,ABAAAAAA,2
b; b; b; b; f; f; b,AAAABBA,1
b; b,AA,1
b; f; f; b; f; b; b; b; f; b; b; b,ABBABAAABAAA,4
b; b; f; f; f; b; b; b; f; b; f; b; b; b; b; b; f; b; b; b; b; b; f; b; f; b; b; b; b; b; b,AABBBAAABABAAAAABAAAAABABAAAAAA,2
b; b; b; b; b; f; f; f; b; b; b; b; b,AAAAABBBAAAAA,1
b; f; b; f; b,ABABA,1
b; b; b; b; b,AAAAA,1
b; f,AB,1
b; f; b,ABA,2
b; b; b; b; b,AAAAA,2
b; b; b; b; f; b; b; b; b,AAAABAAAA,6
b; f,AB,1
b; b; b; b,AAAA,2
b; b; b; f,AAAB,2
b; b,AA,3
f,B,3
b; b; b; b; b; f; b; b; f; b; b; b; f,AAAAABAABAAAB,8
b; b; f; b; b; b; b; b; f; b; b; b; b; b; b; f; b; b; b; f; b; b; b; f; b; f; f; b; b; b; b; b; b; b; b; b,AABAAAAABAAAAAABAAABAAABABBAAAAAAAAA,20
b; b; b; b; f; b; f; b; f; f; b; b; f; f; b; f; b; b; b; b; b; b; b; b; b; f; b; f; b; b; b; b; b; f; b; b; b; f; b; b; b; b; b,AAAABABABBAABBABAAAAAAAAABABAAAAABAAABAAAAA,27
b; b; b; f; b,AAABA,3
b,A,1
b; b,AA,1
f; b; b; b; f; b; b; b; b; b; b; b; b; b; b; b; b; b; b; b; b; b; b; b; b; f; b; b; b; b,BAAABAAAAAAAAAAAAAAAAAAAABAAAA,26
b; b; b; b; b; b; f; b; b; f,AAAAAABAAB,4
f,B,2
b; f,AB,3
f,B,1
b; b; b; b; f; b; b; b; b; f,AAAABAAAAB,10
b; f; b; b; f; b; b; b; b; f; b; b; f; b; b,ABAABAAAABAABAA,10
b; b; b,AAA,3
b; b; b; f; b; b; b; b; b; b; f; f; b; b; b; b; b; b; b; b,AAABAAAAAABBAAAAAAAA,12
b; b; b; b; b,AAAAA,4
b; f; b; b; b; b; b,ABAAAAA,11
f,B,3
f,B,3
f; b; b; f; f; b; b; b; f; b; b; b; f; b; b,BAABBAAABAAABAA,17
b; b; f,AAB,2
b; b; b; b; b; b; b,AAAAAAA,13
b; f; b; b; b; b; b; b; b; b,ABAAAAAAAA,10
b; b; b; b,AAAA,4
b,A,1
b; b; b,AAA,2
b; b; b; b,AAAA,7
b; b; b; b,AAAA,4
b; b,AA,1
b,A,2
b,A,1
b,A,1
f; b; b,BAA,2
b; b; b; b,AAAA,4
b,A,1
b; b,AA,1
b; b,AA,2
b,A,1
f,B,2
f; f; f; b,BBBA,13
b,A,26
f; b; f,BAB,10
f; f; b; f; b; b; b,BBABAAA,24
b; f; b,ABA,120
b,A,2
b,A,9
b; b,AA,7
f,B,19
b; b,AA,4
b,A,2
b,A,3
b; f; b,ABA,16
b; b,AA,19
b; b,AA,18
f; b,BA,3
f; b,BA,1
b,A,19
b; f,AB,6
b,A,11
b,A,31
b; b,AA,9
b; b,AA,9
b,A,9
b,A,3
b; b; b,AAA,12
b; b,AA,2
b,A,2
b,A,1
b,A,4
b,A,1
f; b,BA,1
b,A,7
b; b; b,AAA,17
f,B,16
b,A,4
b; b,AA,5
f,B,8
b; b,AA,2
f; b,BA,9
b; b; b; b; b; b; b; b,AAAAAAAA,20
f; b; b,BAA,5
b,A,1
b; b,AA,10
b; b,AA,8
b,A,3
b; f,AB,1
b; b; b,AAA,9
b; b; b; b; b; b; b; f,AAAAAAAB,4
