should have ssh terminal,f,2016-01-20,John Smith,4
excellent free,o,2016-01-16,Michael M. Tung,5
the info about the pi is really useful,o,2016-01-14,Adam Cadman,3
the command le so,o,2016-01-14,Adam Cadman,3
no chance either of running flask in either,f,2016-01-14,Adam Cadman,3
you try running or l you get no result,b,2016-01-14,Adam Cadman,3
easy custom script and stats,b,2016-01-03,Matt Maddox,5
great,o,2016-01-02,Jackson Wymer,5
doe no complaint other then the lack of reading within the on screen widget,b,2016-01-02,Robert Mann,5
still a 5 star regardless,o,2016-01-02,Robert Mann,5
this is great to keep track of what your pi is doing,o,2015-12-22,Fanus Groenewald,5
i have two of and this make it very easy to check them,o,2015-12-22,Fanus Groenewald,5
needed something to control my pi this work well but would like to rearrange command,f,2015-12-18,Evidince _,3
very good properly in my,b,2015-12-14,Abhilash KR,5
i can turn on and off pin of my pi with command saved,f,2015-12-14,Abhilash KR,5
thanks,o,2015-12-14,Abhilash KR,5
more i like the part you can make a pi execute a preset command with a single click,o,2015-11-30,Keith Meilleur,5
this is,o,2015-11-29,Gaurav B,5
working flawlessly greatest,b,2015-11-29,Gaurav B,5
well not even i have correct login detail and all,b,2015-11-27,Juha-Matti Saari,1
all 5 best and most have application for raspberry pi many thanks for making this,o,2015-11-25,MyTechRock,5
trying to figure out how to enable the widget,b,2015-11-19,Varadarajan Krishnamachari,4
work great,o,2015-11-15,Mark Dunn,5
thanks,o,2015-11-15,Mark Dunn,5
