App,Store,App ID,Review ID,Country,Version,Rating,Date,Author,Subject,Body,Translated Subject,Translated Body
Screen Notifications,Google Play,com.lukekorth.screennotifications,Z3A6QU9xcFRPRU1WTzRnRTZNZEVVQlJ5cXpPeGdFdnV2d1U1YW9COEZidGc5MjVqNFBBQkVrSFkybmRVYVFlVWlnYnF3OTlBa2JzMk0zQWRhOFpUZGZGeHA4,English,,3,2016-01-03,Jeka Sh,,work for but still switch screen on by message,,
Screen Notifications,Google Play,com.lukekorth.screennotifications,Z3A6QU9xcFRPRU1WTzRnRTZNZEVVQlJ5cXpPeGdFdnV2d1U1YW9COEZidGc5MjVqNFBBQkVrSFkybmRVYVFlVWlnYnF3OTlBa2JzMk0zQWRhOFpUZGZGeHA4,English,,3,2016-01-03,Jeka Sh,,annoying not good enough,,
Screen Notifications,Google Play,com.lukekorth.screennotifications,Z3A6QU9xcFRPRWx5SEN6QnJEbHhzaTdMSFBQelljYlB2TkREcFg2UTEtb2Z5Q3VaMzdsYk9ZOWVibW4zRDFwemgxRUVYOUp6aHJoTjNmaFotdEtCRlJtMGtN,English,,5,2016-01-01,Barbara Simmons,,for notification,,
Screen Notifications,Google Play,com.lukekorth.screennotifications,Z3A6QU9xcFRPR0VGTHNSYnZrSHQ0OGMya0xVSEQwbERvUHE2NTM1dkc3QjdVMmpmeWFGbmZ4amFsVjhlMlFtZl9yLUFpRUlrNVVSamphSUV3VXgzbGEzcG1J,English,,5,2015-12-31,付跃,Great,this is exactly what i want,,
Screen Notifications,Google Play,com.lukekorth.screennotifications,Z3A6QU9xcFRPSE1xVWpfZHJLenVYZmFVZEJNYUM1b1cyaE0zd3ZJeVpDZXpBbzF3Z28xZ0Z0UDFoMUs4c3VEWnRzZU5RM1dCVjBtTDRzNkNLR0RjYUJGQWRz,English,,3,2015-12-31,Daniel Jurek,Meh.,all i would like to see is a screen flash a an like a bright colored line wipe across the screen or twice,,
Screen Notifications,Google Play,com.lukekorth.screennotifications,Z3A6QU9xcFRPR21TNFZWQ2FFWGJGTnljdzBubkphSVVFUk1xSlJ5b2JUSDdxUnljZkg4VlJfZVFxX2gxYl81VlFwWXVsc25iQXNHWkQ2V190LUZOZXRTRXpZ,English,,4,2015-12-12,Ridwan Mussa,Great App but missing timer,work really well but would be nice to have a timer on there screen stay on for about 10 second,,
Screen Notifications,Google Play,com.lukekorth.screennotifications,Z3A6QU9xcFRPRlRpZVFRano2ZHk4UUpjMTU1dW4zcHZQNGxLdHBqRzZCd0VUQjNnOGpJb0tKUmhxY3lLeTBlUk5uU3o5UWlHRTEwcEJaSU8tWHJ0YU0zY1BN,English,,1,2015-12-06,Alice Ordaz Ordaz,Don't like it,stupid,,
Screen Notifications,Google Play,com.lukekorth.screennotifications,Z3A6QU9xcFRPR3FDRXkyMUxqR0hFWWFLdjhHa2h5YXRUcXNQdk9GU292eW1kRGtzV1ZURkRYMkVrU0NZcXJ1bG8xM0o5MmJRLUJYZFZZVm5zdUdKd0s1aDgw,English,,5,2015-12-04,Rene Rivas,,work great on note 5,,
Screen Notifications,Google Play,com.lukekorth.screennotifications,Z3A6QU9xcFRPSC0yUTQ2X29jSFhWNTduX2Mxd09lX3FFTzg5UXMyS242N3N2ZkstM29kSkpsaTJrM094VS0yRmktOE1hb09DNUxFQ0Z3R3haRGo5NkgtQTBj,English,,5,2015-12-04,Error Frynn,This is exactly what I've been looking for,it help overcome one of the most annoying shortcoming of it come to notification,,
Screen Notifications,Google Play,com.lukekorth.screennotifications,Z3A6QU9xcFRPSC0yUTQ2X29jSFhWNTduX2Mxd09lX3FFTzg5UXMyS242N3N2ZkstM29kSkpsaTJrM094VS0yRmktOE1hb09DNUxFQ0Z3R3haRGo5NkgtQTBj,English,,5,2015-12-04,Error Frynn,This is exactly what I've been looking for,to you,,
Screen Notifications,Google Play,com.lukekorth.screennotifications,Z3A6QU9xcFRPR2s2ZVZzdTh6cHMyTGhReXBWd255REhfWTQxdmhiYmdGeHNmdU13SThkeF9oWDBJdDNEM21rY2N4NDJXaUtfUEZkZFZQMFRiVkFoM1BMc3pJ,English,,1,2015-12-02,mtibs95,Didn't work,i have a galaxy and i miss the screen lighting up with notification like my last phone did,,
Screen Notifications,Google Play,com.lukekorth.screennotifications,Z3A6QU9xcFRPR2s2ZVZzdTh6cHMyTGhReXBWd255REhfWTQxdmhiYmdGeHNmdU13SThkeF9oWDBJdDNEM21rY2N4NDJXaUtfUEZkZFZQMFRiVkFoM1BMc3pJ,English,,1,2015-12-02,mtibs95,Didn't work,i wa hopeful this would work but installing and reinstalling a few time it still did not work,,
Screen Notifications,Google Play,com.lukekorth.screennotifications,Z3A6QU9xcFRPR2s2ZVZzdTh6cHMyTGhReXBWd255REhfWTQxdmhiYmdGeHNmdU13SThkeF9oWDBJdDNEM21rY2N4NDJXaUtfUEZkZFZQMFRiVkFoM1BMc3pJ,English,,1,2015-12-02,mtibs95,Didn't work,very disappointed,,
Screen Notifications,Google Play,com.lukekorth.screennotifications,Z3A6QU9xcFRPR2s2ZVZzdTh6cHMyTGhReXBWd255REhfWTQxdmhiYmdGeHNmdU13SThkeF9oWDBJdDNEM21rY2N4NDJXaUtfUEZkZFZQMFRiVkFoM1BMc3pJ,English,,1,2015-12-02,mtibs95,Didn't work,will be trying another,,
Screen Notifications,Google Play,com.lukekorth.screennotifications,Z3A6QU9xcFRPSE51Y0Z1SmZmOWRwMUpQMHhzNVU5VXR5RF9od2h2REF6OGU3OHo0S3liTFg1eFdqdW1CLVQzLTZRQVV5b0M1eWc0SlFVVXNla3dyck9hRlhz,English,,5,2015-11-29,Petra Giordania,Good,good,,
Screen Notifications,Google Play,com.lukekorth.screennotifications,Z3A6QU9xcFRPR2Z6cDdDMjFGOWstSWhBMTBiMTY1dUNqVDdqdUhTZkM5TWNONGVNMGU4WDZER05obnYxOGEtSXcyZTZ0TUpLUnJ5NWhUeWhrckpqMy1xVzBF,English,,4,2015-11-28,Nguyen Phuc,,is great but i can turn on pocket detection though,,
Screen Notifications,Google Play,com.lukekorth.screennotifications,Z3A6QU9xcFRPR2Z6cDdDMjFGOWstSWhBMTBiMTY1dUNqVDdqdUhTZkM5TWNONGVNMGU4WDZER05obnYxOGEtSXcyZTZ0TUpLUnJ5NWhUeWhrckpqMy1xVzBF,English,,4,2015-11-28,Nguyen Phuc,,the screen still turn on my phone is in my pocket,,
Screen Notifications,Google Play,com.lukekorth.screennotifications,Z3A6QU9xcFRPR19LUGNVbU1WbG0zc09aMTl0a2g0c3hxM3V3T0F4NDRYcGczU01EOUNYQlNKdmZRdDVRQ2ZuNWwzcThoYzJTYmtfMnJ4VXozWnlDSTJuMmpV,English,,5,2015-11-27,Alberto Dei Tos,Ottima,ed,,
Screen Notifications,Google Play,com.lukekorth.screennotifications,Z3A6QU9xcFRPSERWdVphU25Vb3p3Qk1DVVVYS3ZhdmN2aFYzZ21zVXllLWJhZHFJMzhJUF8zRDRYOTdLYW5hWGNfRTZYdlVPNzVwOVNlLWlJR0M1bU5KaV8w,English,,3,2015-11-26,Coya8 coy,,wa great on my galaxy,,
Screen Notifications,Google Play,com.lukekorth.screennotifications,Z3A6QU9xcFRPSERWdVphU25Vb3p3Qk1DVVVYS3ZhdmN2aFYzZ21zVXllLWJhZHFJMzhJUF8zRDRYOTdLYW5hWGNfRTZYdlVPNzVwOVNlLWlJR0M1bU5KaV8w,English,,3,2015-11-26,Coya8 coy,,but on my nexus with android i had to it,,
Screen Notifications,Google Play,com.lukekorth.screennotifications,Z3A6QU9xcFRPSERWdVphU25Vb3p3Qk1DVVVYS3ZhdmN2aFYzZ21zVXllLWJhZHFJMzhJUF8zRDRYOTdLYW5hWGNfRTZYdlVPNzVwOVNlLWlJR0M1bU5KaV8w,English,,3,2015-11-26,Coya8 coy,,it may have became a rouge i gave it permission and forced my phone to turn on and off,,
Screen Notifications,Google Play,com.lukekorth.screennotifications,Z3A6QU9xcFRPSERWdVphU25Vb3p3Qk1DVVVYS3ZhdmN2aFYzZ21zVXllLWJhZHFJMzhJUF8zRDRYOTdLYW5hWGNfRTZYdlVPNzVwOVNlLWlJR0M1bU5KaV8w,English,,3,2015-11-26,Coya8 coy,,i had the i did not receive any notification sound when my phone wa locked,,
Screen Notifications,Google Play,com.lukekorth.screennotifications,Z3A6QU9xcFRPSERWdVphU25Vb3p3Qk1DVVVYS3ZhdmN2aFYzZ21zVXllLWJhZHFJMzhJUF8zRDRYOTdLYW5hWGNfRTZYdlVPNzVwOVNlLWlJR0M1bU5KaV8w,English,,3,2015-11-26,Coya8 coy,,meant i missed notification,,
Screen Notifications,Google Play,com.lukekorth.screennotifications,Z3A6QU9xcFRPSERWdVphU25Vb3p3Qk1DVVVYS3ZhdmN2aFYzZ21zVXllLWJhZHFJMzhJUF8zRDRYOTdLYW5hWGNfRTZYdlVPNzVwOVNlLWlJR0M1bU5KaV8w,English,,3,2015-11-26,Coya8 coy,,60 ha a setting notification light up so it is no longer needed,,
Screen Notifications,Google Play,com.lukekorth.screennotifications,Z3A6QU9xcFRPR252R0N3X3JEOHV2clBSbVRDTTAweEhCWVFzWVBSQmRicGNJMmhsTDhteTl4dm56VGhkdVBJYnp1YUtSUXl3YTExS2NpbDRFMVRTN1dOYWFV,English,,1,2015-11-25,Alex Leon,Pop ups,this also give you a lot of pop it work but with 100000 pop ups,,
Screen Notifications,Google Play,com.lukekorth.screennotifications,Z3A6QU9xcFRPRk9NNF9QRnRIMlAwOTZPS3QzX3huYWsyWW9BbWgtTTEzeXY3WXlPT2VFVHgtTndTc1ZZZVJ4cVg2MzYtOENmOENvd2l1amhpWGlhYklvSjFz,English,,2,2015-11-24,Daniel Slamandsweat,Okay app,will donate you can fix this,,
Screen Notifications,Google Play,com.lukekorth.screennotifications,Z3A6QU9xcFRPSDVZOUFKQmdwV2MwSlV4ek5tdTlMQXBBS2FUOVppZDFZbDdOSXZVRzlxYlNQeEtmdVB4dlhhXzJKNUFSd0NLUi1FWTlNSldzT21qVXRXcnVF,English,,5,2015-11-22,Chris Benson,,perfect,,
Screen Notifications,Google Play,com.lukekorth.screennotifications,Z3A6QU9xcFRPR081Q2l6ODZaRVY4RVJWWXFlR0llT0s2aXZJQXc5Q3dKR2otdy1MM3ZOa0t3Q2tJVk04emlDX05sSHFfVXF5NHZIaUpHVHZFVmREaVlSdk9z,English,,5,2015-11-11,Stanley Marak,Happy,exactly what i needed,,
Screen Notifications,Google Play,com.lukekorth.screennotifications,Z3A6QU9xcFRPR081Q2l6ODZaRVY4RVJWWXFlR0llT0s2aXZJQXc5Q3dKR2otdy1MM3ZOa0t3Q2tJVk04emlDX05sSHFfVXF5NHZIaUpHVHZFVmREaVlSdk9z,English,,5,2015-11-11,Stanley Marak,Happy,doe what it say,,
Screen Notifications,Google Play,com.lukekorth.screennotifications,Z3A6QU9xcFRPRkFGWHVyM3NLMmpxS3BjRkZTQVBrb2FjNE5xZ2tGVlNINWYzbHJsRWw3Q0xEZDZJcHhvOWdtemZROWZOWHFiV2VUd08tWURCd0hFUUdWYWpn,English,,5,2015-11-11,Vishal Yadav,,nice,,
Screen Notifications,Google Play,com.lukekorth.screennotifications,Z3A6QU9xcFRPRjE1dk42RDJIc2JaN2l1OG91Nndrak1qTDZ0RXhfNDhHSEpfZjhja1hhemVMS0M1dDdwRVc5N1RlcDY3TTVITkNyYWdKdlZFaXFNTjZ4aWJz,English,,5,2015-11-02,Makiah Merritt,,doe what i expected,,
Screen Notifications,Google Play,com.lukekorth.screennotifications,Z3A6QU9xcFRPSGhheGxZMkFyMDhfUlROa0M5OVZDVnFwRHVzNlhYTWkxQy05ODVNcGtMbE9ZZUliaXJERDFHT29xUWZTTk5hRjZkbUF3WDhzRm81OVFsUnBZ,English,,2,2015-11-02,Melissa M,Help,will not let me deactivate,,
Screen Notifications,Google Play,com.lukekorth.screennotifications,Z3A6QU9xcFRPSGhheGxZMkFyMDhfUlROa0M5OVZDVnFwRHVzNlhYTWkxQy05ODVNcGtMbE9ZZUliaXJERDFHT29xUWZTTk5hRjZkbUF3WDhzRm81OVFsUnBZ,English,,2,2015-11-02,Melissa M,Help,but wearing my battery down,,
Screen Notifications,Google Play,com.lukekorth.screennotifications,Z3A6QU9xcFRPR1d4UUtkZzJSUWt3ZGZ2b2FaSVhISXU4am4yVmhfaXRJcXU1SFpJNWJuOGlYTWJ2ckhjeUlOUGpMWmgzdGw5X090bnQ1Yk5weW9GSkJCUDBz,English,,4,2015-10-31,Vahid Karimian,Don't mix it when other apps.,work just fine advertised,,
Screen Notifications,Google Play,com.lukekorth.screennotifications,Z3A6QU9xcFRPRUhZX2lKbFg0ajlvcHhTMlpzcEJTemhCQlZWclpoWGVQbTl0dzdTeGE3cHJ5RlRiQmZ0dGhDRFdEX2xneFFfc0EzWmkwNWpmSlh1cWJjbC1B,English,,5,2015-10-30,Billy Giang,,can someone please take a look at this,,
Screen Notifications,Google Play,com.lukekorth.screennotifications,Z3A6QU9xcFRPRUhZX2lKbFg0ajlvcHhTMlpzcEJTemhCQlZWclpoWGVQbTl0dzdTeGE3cHJ5RlRiQmZ0dGhDRFdEX2xneFFfc0EzWmkwNWpmSlh1cWJjbC1B,English,,5,2015-10-30,Billy Giang,,it pretty much disables sound getting so i had to stop using it,,
Screen Notifications,Google Play,com.lukekorth.screennotifications,Z3A6QU9xcFRPRUhZX2lKbFg0ajlvcHhTMlpzcEJTemhCQlZWclpoWGVQbTl0dzdTeGE3cHJ5RlRiQmZ0dGhDRFdEX2xneFFfc0EzWmkwNWpmSlh1cWJjbC1B,English,,5,2015-10-30,Billy Giang,,really want to start using this can we get a quick fix,,
Screen Notifications,Google Play,com.lukekorth.screennotifications,Z3A6QU9xcFRPSGFIdnlLRUhVMDFyNHd6S203SE9iTGxKbGRxUGJiZ2pIUjJ6TUVJY1ZvaW5tcWFtdlRMMHNhU1o2VG9LY0Nqb3lfdXhSZVhLQjNJcHhzcjcw,English,,1,2015-10-29,Monoj Bhadra,Not work,poor,,
Screen Notifications,Google Play,com.lukekorth.screennotifications,Z3A6QU9xcFRPSDdEVjAtU2NPOXZXZzJkQ1lNUHMtMXZobV9rM2s4M3ducDVEbHdmVmdFaGY4cmJfT3VtenNzWTZaRXZTMHl6a2xZT3RDbDBWMDlUNWhHdFcw,English,,3,2015-10-29,Allen Simans,Can't change screen wake length,go back to 10 second changing,,
Screen Notifications,Google Play,com.lukekorth.screennotifications,Z3A6QU9xcFRPRm9ZRWJpeER4Umdpa2RydzJnVWNpVWZpaWFOME5zbjZ2bWxmTGZzd0NnLWZMeUpvejY5VzJaY0JfaWJDVXZfQjlETlU5NlhtUU1iOUluZWFB,English,,5,2015-10-19,Ejo Kejo,Great,work described,,
Screen Notifications,Google Play,com.lukekorth.screennotifications,Z3A6QU9xcFRPRm9ZRWJpeER4Umdpa2RydzJnVWNpVWZpaWFOME5zbjZ2bWxmTGZzd0NnLWZMeUpvejY5VzJaY0JfaWJDVXZfQjlETlU5NlhtUU1iOUluZWFB,English,,5,2015-10-19,Ejo Kejo,Great,one thing though,,
Screen Notifications,Google Play,com.lukekorth.screennotifications,Z3A6QU9xcFRPRm9ZRWJpeER4Umdpa2RydzJnVWNpVWZpaWFOME5zbjZ2bWxmTGZzd0NnLWZMeUpvejY5VzJaY0JfaWJDVXZfQjlETlU5NlhtUU1iOUluZWFB,English,,5,2015-10-19,Ejo Kejo,Great,there could be some nice animation lighting up the display,,
Screen Notifications,Google Play,com.lukekorth.screennotifications,Z3A6QU9xcFRPRm9ZRWJpeER4Umdpa2RydzJnVWNpVWZpaWFOME5zbjZ2bWxmTGZzd0NnLWZMeUpvejY5VzJaY0JfaWJDVXZfQjlETlU5NlhtUU1iOUluZWFB,English,,5,2015-10-19,Ejo Kejo,Great,not just sudden screen,,
Screen Notifications,Google Play,com.lukekorth.screennotifications,Z3A6QU9xcFRPRm9ZRWJpeER4Umdpa2RydzJnVWNpVWZpaWFOME5zbjZ2bWxmTGZzd0NnLWZMeUpvejY5VzJaY0JfaWJDVXZfQjlETlU5NlhtUU1iOUluZWFB,English,,5,2015-10-19,Ejo Kejo,Great,maybe something similar to,,
Screen Notifications,Google Play,com.lukekorth.screennotifications,Z3A6QU9xcFRPSFJOZ1g4VTFUbVptUHdpRFdhamV1MTliTnk3UnRLeF9jSmlyWjd4bGI3a3RMVVJLRGZXcktrNXdheXo2U0tSRVJEUzNNbUwxaWdDQVhPY2F3,English,,1,2015-10-18,Angie Sanchez,Angie,no good,,
Screen Notifications,Google Play,com.lukekorth.screennotifications,Z3A6QU9xcFRPRnpvUzJINjYtX2VGakZkenhFVGJmZUpHMjBIUmRTMTNMeU5rLWlGR2xNcDB2TWx6UjlFMjAzQVRhWEp5amI3MTkyaFA4cFBndDIzNDFNZzBF,English,,5,2015-10-18,Noel Watson,Good!!!!!,it work properly,,
Screen Notifications,Google Play,com.lukekorth.screennotifications,Z3A6QU9xcFRPRnpvUzJINjYtX2VGakZkenhFVGJmZUpHMjBIUmRTMTNMeU5rLWlGR2xNcDB2TWx6UjlFMjAzQVRhWEp5amI3MTkyaFA4cFBndDIzNDFNZzBF,English,,5,2015-10-18,Noel Watson,Good!!!!!,could there be a update,,
Screen Notifications,Google Play,com.lukekorth.screennotifications,Z3A6QU9xcFRPRnpvUzJINjYtX2VGakZkenhFVGJmZUpHMjBIUmRTMTNMeU5rLWlGR2xNcDB2TWx6UjlFMjAzQVRhWEp5amI3MTkyaFA4cFBndDIzNDFNZzBF,English,,5,2015-10-18,Noel Watson,Good!!!!!,different enable icon pack to be visible in the of instead of stock etc,,
Screen Notifications,Google Play,com.lukekorth.screennotifications,Z3A6QU9xcFRPRnpvUzJINjYtX2VGakZkenhFVGJmZUpHMjBIUmRTMTNMeU5rLWlGR2xNcDB2TWx6UjlFMjAzQVRhWEp5amI3MTkyaFA4cFBndDIzNDFNZzBF,English,,5,2015-10-18,Noel Watson,Good!!!!!,willing to pay,,
Screen Notifications,Google Play,com.lukekorth.screennotifications,Z3A6QU9xcFRPRnpvUzJINjYtX2VGakZkenhFVGJmZUpHMjBIUmRTMTNMeU5rLWlGR2xNcDB2TWx6UjlFMjAzQVRhWEp5amI3MTkyaFA4cFBndDIzNDFNZzBF,English,,5,2015-10-18,Noel Watson,Good!!!!!,thanks,,
Screen Notifications,Google Play,com.lukekorth.screennotifications,Z3A6QU9xcFRPRk9FYjMtM1NKazFrQmNEZWRQZ2RvVmpyenVNQlBRZnduNjM5WjNJMVNZNURLMVhVQVZBLVVkLURpY1lwVDdJY1dCNEpFam4xUW1VbUJvQ1lr,English,,3,2015-10-16,shumail jehangir,Note 4,my proximity work great but if i flip the or it in the pocket the screen is lit a notification come the option is also enabled look on to it other wise the is great and please change the yellow bulb icon of,,
Screen Notifications,Google Play,com.lukekorth.screennotifications,Z3A6QU9xcFRPRlRuRWt2SnhKYkRCZlFMRnFzZGM3Z0d5VXNUclh4U0ZESzZyZ0Q3OERnX2dqUlpaaGJWOUJLUXpHeDdsUmJPNVFleUl0TWstTlRScVUyY1BF,English,,1,2015-10-11,Vincent Liu,Needs fix for 6.0 marshmallow,cause the screen to turn on randomly without any notification,,
Screen Notifications,Google Play,com.lukekorth.screennotifications,Z3A6QU9xcFRPRlRuRWt2SnhKYkRCZlFMRnFzZGM3Z0d5VXNUclh4U0ZESzZyZ0Q3OERnX2dqUlpaaGJWOUJLUXpHeDdsUmJPNVFleUl0TWstTlRScVUyY1BF,English,,1,2015-10-11,Vincent Liu,Needs fix for 6.0 marshmallow,noticed this is causing a battery drain i have doze is now working properly,,
Screen Notifications,Google Play,com.lukekorth.screennotifications,Z3A6QU9xcFRPSFlsSDVBV1FSQTZybG4wT1M3UzJxY056RWZZb2s0cS0wbG9CUFNZNE1ZbFZKX2w3d3FXN2gtMW1DbzU4dG1DYy1PMi13UEZoZ2htdkRiSjZN,English,,5,2015-10-11,artemis val,It's just awesome,it doe what it say,,
Screen Notifications,Google Play,com.lukekorth.screennotifications,Z3A6QU9xcFRPSFlsSDVBV1FSQTZybG4wT1M3UzJxY056RWZZb2s0cS0wbG9CUFNZNE1ZbFZKX2w3d3FXN2gtMW1DbzU4dG1DYy1PMi13UEZoZ2htdkRiSjZN,English,,5,2015-10-11,artemis val,It's just awesome,perfect,,
Screen Notifications,Google Play,com.lukekorth.screennotifications,Z3A6QU9xcFRPR1FhcTQxS2x5eUh3OHhpUGphd2U5YUtVY0VQVzR4R3loc1FjUGNSY1hoR01laEg0VnEwN2tEYVZERllCTXJnRXdCREgzMElRZUdqMmZPNGVJ,English,,1,2015-10-10,ABOUNA NICOLAS KHOURY,UNINSTALL,,,
Screen Notifications,Google Play,com.lukekorth.screennotifications,Z3A6QU9xcFRPRWJBTVR0ZmcwNmxENl9idms2Z2trSmlMNExBbWcxemdjNUc3ZFFWS25meWJLMXBiVHhMdDJ0SFFxdjlUem15ZGh5V2F6YUF6TG5zdmYxcS1B,English,,5,2015-10-10,Fred Boak,Love it!,my one wish is to have an option that make the screen come on only the phone is quiet,,
Screen Notifications,Google Play,com.lukekorth.screennotifications,Z3A6QU9xcFRPSEd5UFdnUmFIZ2MwdDV5Y0hGNkJUbG5OREVoZ0h0Q1VVeV91NFJDVnhUeUdyY1FFMkJwM18tYnd6eFY1aTJaWUpBWkVkSGlDOG5FYzR5X2Rn,English,,4,2015-10-10,Jason Li,,well done,,
Screen Notifications,Google Play,com.lukekorth.screennotifications,Z3A6QU9xcFRPSEd5UFdnUmFIZ2MwdDV5Y0hGNkJUbG5OREVoZ0h0Q1VVeV91NFJDVnhUeUdyY1FFMkJwM18tYnd6eFY1aTJaWUpBWkVkSGlDOG5FYzR5X2Rn,English,,4,2015-10-10,Jason Li,,a nice substitute for ambient display without nexus 6,,
Screen Notifications,Google Play,com.lukekorth.screennotifications,Z3A6QU9xcFRPSEd5UFdnUmFIZ2MwdDV5Y0hGNkJUbG5OREVoZ0h0Q1VVeV91NFJDVnhUeUdyY1FFMkJwM18tYnd6eFY1aTJaWUpBWkVkSGlDOG5FYzR5X2Rn,English,,4,2015-10-10,Jason Li,,would have been even better if it support automatically turning on the screen taking out of my pocket after receiving a notification in pocket,,
Screen Notifications,Google Play,com.lukekorth.screennotifications,Z3A6QU9xcFRPRXpEZGhTRHZ2cnFlVW9zTHhFMGdmeFBZNXljX2xudkY4Z2FZRXNKVTBndWE5MEI1SzhWcVQ5N2FtWE9aYkRBbFpLOUVZbmk4UlFGZFJUc09r,English,,3,2015-10-08,sevenelly,Works but without sound on Marshmallow.,i agree with mark,,
Screen Notifications,Google Play,com.lukekorth.screennotifications,Z3A6QU9xcFRPRXpEZGhTRHZ2cnFlVW9zTHhFMGdmeFBZNXljX2xudkY4Z2FZRXNKVTBndWE5MEI1SzhWcVQ5N2FtWE9aYkRBbFpLOUVZbmk4UlFGZFJUc09r,English,,3,2015-10-08,sevenelly,Works but without sound on Marshmallow.,badly need an update for compatibility,,
Screen Notifications,Google Play,com.lukekorth.screennotifications,Z3A6QU9xcFRPRWstMnRZWUdMRmFNYnhqWm04ZmNNdzlCOGlKRzBXelhSeUl6WWREZjc0a1hzRmRVcmhQNzhhZFJTdW9iWnNiOGJGbkNqOUlMenVORGVFcVBB,English,,4,2015-10-07,Mark Minafar,Broke in Android 6,this is a fantastic extremely useful,,
Screen Notifications,Google Play,com.lukekorth.screennotifications,Z3A6QU9xcFRPRWstMnRZWUdMRmFNYnhqWm04ZmNNdzlCOGlKRzBXelhSeUl6WWREZjc0a1hzRmRVcmhQNzhhZFJTdW9iWnNiOGJGbkNqOUlMenVORGVFcVBB,English,,4,2015-10-07,Mark Minafar,Broke in Android 6,the only problem is after updating to marshmallow the text message sound do not activate the screen notification is enabled,,
Screen Notifications,Google Play,com.lukekorth.screennotifications,Z3A6QU9xcFRPRWstMnRZWUdMRmFNYnhqWm04ZmNNdzlCOGlKRzBXelhSeUl6WWREZjc0a1hzRmRVcmhQNzhhZFJTdW9iWnNiOGJGbkNqOUlMenVORGVFcVBB,English,,4,2015-10-07,Mark Minafar,Broke in Android 6,the phone only vibrates i get a text,,
Screen Notifications,Google Play,com.lukekorth.screennotifications,Z3A6QU9xcFRPRWstMnRZWUdMRmFNYnhqWm04ZmNNdzlCOGlKRzBXelhSeUl6WWREZjc0a1hzRmRVcmhQNzhhZFJTdW9iWnNiOGJGbkNqOUlMenVORGVFcVBB,English,,4,2015-10-07,Mark Minafar,Broke in Android 6,turning off screen notification the sound chime once again when a text message come in,,
Screen Notifications,Google Play,com.lukekorth.screennotifications,Z3A6QU9xcFRPRWstMnRZWUdMRmFNYnhqWm04ZmNNdzlCOGlKRzBXelhSeUl6WWREZjc0a1hzRmRVcmhQNzhhZFJTdW9iWnNiOGJGbkNqOUlMenVORGVFcVBB,English,,4,2015-10-07,Mark Minafar,Broke in Android 6,hopefully this get fixed this is one of my top used,,
Screen Notifications,Google Play,com.lukekorth.screennotifications,Z3A6QU9xcFRPR0lUcUZqRTJIcjRobVhEUlRtY1NpSnl3bkhSNmpmVExlNW9lZTFxdFctYjI2OFZfdl9RS2FJYlA4aTlVeUhCVDJLam9aVGFId1hiaUxRel93,English,,5,2015-09-25,Salma Alazmeh,The best app ever!,thank you very much for this awesome,,
Screen Notifications,Google Play,com.lukekorth.screennotifications,Z3A6QU9xcFRPRXFWOU44elRLYXFMVXRhN3VPZDJEVzNiSjZ1SVIwTWhVWVNGcHNtOUFDdEx2ZHFxN3lodmdJemRSSVJZU0VBalJLUG5kaDhKV2Nab3BJcXJN,English,,5,2015-09-08,Anjan Paul,Awsm..,really working,,
Screen Notifications,Google Play,com.lukekorth.screennotifications,Z3A6QU9xcFRPRUNMa0RKYXVkTmhRN1h5MWRQTU5ULTJ2U3BiMVNQRk5HZUNPYWFIeHlDYUdNTkhsTjF1LTVGekczWEJYT2x4ejRYdzhjcjdNaTBra09sdi1Z,English,,5,2015-09-08,MH Essa,Simple and Perfect,doe what stock lollipop lock screen cannot,,
Screen Notifications,Google Play,com.lukekorth.screennotifications,Z3A6QU9xcFRPRUNMa0RKYXVkTmhRN1h5MWRQTU5ULTJ2U3BiMVNQRk5HZUNPYWFIeHlDYUdNTkhsTjF1LTVGekczWEJYT2x4ejRYdzhjcjdNaTBra09sdi1Z,English,,5,2015-09-08,MH Essa,Simple and Perfect,light up the screen new notification come in,,
Screen Notifications,Google Play,com.lukekorth.screennotifications,Z3A6QU9xcFRPRUNMa0RKYXVkTmhRN1h5MWRQTU5ULTJ2U3BiMVNQRk5HZUNPYWFIeHlDYUdNTkhsTjF1LTVGekczWEJYT2x4ejRYdzhjcjdNaTBra09sdi1Z,English,,5,2015-09-08,MH Essa,Simple and Perfect,far work perfectly,,
Screen Notifications,Google Play,com.lukekorth.screennotifications,Z3A6QU9xcFRPRUNMa0RKYXVkTmhRN1h5MWRQTU5ULTJ2U3BiMVNQRk5HZUNPYWFIeHlDYUdNTkhsTjF1LTVGekczWEJYT2x4ejRYdzhjcjdNaTBra09sdi1Z,English,,5,2015-09-08,MH Essa,Simple and Perfect,good job,,
Screen Notifications,Google Play,com.lukekorth.screennotifications,Z3A6QU9xcFRPR01PLUVIZVBUOUVzckNnYXkwMHd2ODJVZVgtcFpRVTdxczZzaG5CZXI5WjFWZElRenRCMWswYUVyU2NVcDhscVA1bzliTXczZWFfcmFqTHpj,English,,5,2015-09-02,PUNEET KUMAR PATRO,,thanks,,
Screen Notifications,Google Play,com.lukekorth.screennotifications,Z3A6QU9xcFRPRWJtVm1WXzV4Y1VTcndpVFdoQnduQzJtWGNpLVBEMERiekZ6dy15RmZ2OHdObmVnbGFnVFFhWkRLQ2JfQlpNLVBUY3o3Y29FWmROY1NtUC1Z,English,,5,2015-09-02,Joe Brady,Great,just what i wa looking for,,
Screen Notifications,Google Play,com.lukekorth.screennotifications,Z3A6QU9xcFRPRzhkYlhuVGoxcDF2T2lPZjluNlA5UWVPNWcxWkpOeGJOaGJxUmREaVhMN2pyVUJTbnY3cm5MdW9CUjh4NTBVeXVESzVFdEtWRGI0Y2NtdmtR,English,,1,2015-08-30,Ahmed Ahmadi,Screen turns on even without any new notification,please fix,,
Screen Notifications,Google Play,com.lukekorth.screennotifications,Z3A6QU9xcFRPRlQtRGRtWTVBNUVKNnBRNG9IWHRZdE9EWkxQbFZqSFpKWFM0Q1RxaTVZZVhmdTFvTDBhZF9JUzdQZE9nMXRFN1BDQW81VHlmeGRfaGFpZy1n,English,,4,2015-08-24,Mon'Trice Brightmon,Love the app but 2 problems,this is a bit annoying a i keep thinking there is a new notification but it is the screen coming on every minute although there is no setting for reminder,,
Screen Notifications,Google Play,com.lukekorth.screennotifications,Z3A6QU9xcFRPRlQtRGRtWTVBNUVKNnBRNG9IWHRZdE9EWkxQbFZqSFpKWFM0Q1RxaTVZZVhmdTFvTDBhZF9JUzdQZE9nMXRFN1BDQW81VHlmeGRfaGFpZy1n,English,,4,2015-08-24,Mon'Trice Brightmon,Love the app but 2 problems,also if i try to look at a notification the screen cut off i am checking,,
Screen Notifications,Google Play,com.lukekorth.screennotifications,Z3A6QU9xcFRPRlQtRGRtWTVBNUVKNnBRNG9IWHRZdE9EWkxQbFZqSFpKWFM0Q1RxaTVZZVhmdTFvTDBhZF9JUzdQZE9nMXRFN1BDQW81VHlmeGRfaGFpZy1n,English,,4,2015-08-24,Mon'Trice Brightmon,Love the app but 2 problems,it should stay on i am actively doing something on screen,,
Screen Notifications,Google Play,com.lukekorth.screennotifications,Z3A6QU9xcFRPSER1SDQtamxkaGNWU1V2eEFwR0Jab3dsczRMMktYd0NMWWR1OWVCcHdiS2s4UmVnWUtYeU9PY09vSXB6VDF2TzRkSkpmU245elN2UURNQkEw,English,,5,2015-08-24,Tom S,Does exactly what it says.,wake the screen for a duration of time on notification,,
Screen Notifications,Google Play,com.lukekorth.screennotifications,Z3A6QU9xcFRPSER1SDQtamxkaGNWU1V2eEFwR0Jab3dsczRMMktYd0NMWWR1OWVCcHdiS2s4UmVnWUtYeU9PY09vSXB6VDF2TzRkSkpmU245elN2UURNQkEw,English,,5,2015-08-24,Tom S,Does exactly what it says.,android should have this built in,,
Screen Notifications,Google Play,com.lukekorth.screennotifications,Z3A6QU9xcFRPRzNxek5NUi1FMXFob1Zwa1I0aW0zYVlMVm5OdXBXajdmdXBIb3B1TjB5QTJYTVRRa1VzSUlrUThsbmM0WEtqazJKWXNSYlplYWUwQnY0RlBN,English,,5,2015-08-17,pavan suhaney,,awesome,,
Screen Notifications,Google Play,com.lukekorth.screennotifications,Z3A6QU9xcFRPSEtITm05cTJjMUNRa0NISGJpX3lOVHVoU1pGMzZHLWFJaHFac3ZrYXRNaGVwUW9ZcUJhQXl0b3hxQmNiWDBHOUl4MHJFZVFjSFR6SHF5M2Vv,English,,5,2015-08-12,craig brett,Great app,fix the issue of my screen not lighting up email etc are received,,
Screen Notifications,Google Play,com.lukekorth.screennotifications,Z3A6QU9xcFRPSEtITm05cTJjMUNRa0NISGJpX3lOVHVoU1pGMzZHLWFJaHFac3ZrYXRNaGVwUW9ZcUJhQXl0b3hxQmNiWDBHOUl4MHJFZVFjSFR6SHF5M2Vv,English,,5,2015-08-12,craig brett,Great app,coming from this wa standard,,
Screen Notifications,Google Play,com.lukekorth.screennotifications,Z3A6QU9xcFRPSEtITm05cTJjMUNRa0NISGJpX3lOVHVoU1pGMzZHLWFJaHFac3ZrYXRNaGVwUW9ZcUJhQXl0b3hxQmNiWDBHOUl4MHJFZVFjSFR6SHF5M2Vv,English,,5,2015-08-12,craig brett,Great app,thanks for making this,,
Screen Notifications,Google Play,com.lukekorth.screennotifications,Z3A6QU9xcFRPRlF5OEp1MGRLLVp3Tmw1SXV6bjRiQlJqbzVhQ2lGNnplUG42dk9XZnBfNUZLLVA3QktTU0pHbm9tVW9ZYVkwMFRDSU9WN2xkeWhjZFpFXzNn,English,,3,2015-08-04,Michael Sumners,Went down hill,the worked great for there first month and after the first week i gave it 5 it worked a advertised and what more could you want,,
Screen Notifications,Google Play,com.lukekorth.screennotifications,Z3A6QU9xcFRPRlF5OEp1MGRLLVp3Tmw1SXV6bjRiQlJqbzVhQ2lGNnplUG42dk9XZnBfNUZLLVA3QktTU0pHbm9tVW9ZYVkwMFRDSU9WN2xkeWhjZFpFXzNn,English,,3,2015-08-04,Michael Sumners,Went down hill,but then it started working intermittently,,
Screen Notifications,Google Play,com.lukekorth.screennotifications,Z3A6QU9xcFRPRlF5OEp1MGRLLVp3Tmw1SXV6bjRiQlJqbzVhQ2lGNnplUG42dk9XZnBfNUZLLVA3QktTU0pHbm9tVW9ZYVkwMFRDSU9WN2xkeWhjZFpFXzNn,English,,3,2015-08-04,Michael Sumners,Went down hill,i and reinstalled it several time and still the same thing,,
Screen Notifications,Google Play,com.lukekorth.screennotifications,Z3A6QU9xcFRPSGJITzBWazhoRXBQUTVSUE1xMjJabzVtTm5XUzE1Tkd1Z1hMY1otLTE3RjdJR2QyU2lVOUFmMjhQUmFHUmVWRDU3NmlTZkNXd0NEeVpTVmZ3,English,,3,2015-08-01,,,started out working it but now wake up repeatedly for the same notification,,
Screen Notifications,Google Play,com.lukekorth.screennotifications,Z3A6QU9xcFRPRlV3R21iN01ZVmUyRFQtNEJVejNqVDFYT0VOaHFPXzdCS1BRVkJsVkRNb1h5aTZlbHVhNlNDdm5DM25BYkloT2xvQ0lfNjNQN0doeWZxaTR3,English,,4,2015-07-28,Ravinder Bhat,Class in its category,this is a perfect solution for those who want their phone to wake up upon receiving the notification,,
Screen Notifications,Google Play,com.lukekorth.screennotifications,Z3A6QU9xcFRPR1hFWERiOXViSUVBa3ZjTVFvMVRjemw5RmJmOGZxcmxhVmllejdieFBHY3RobFp1QmlhVFRraWZnNWtZTm0xWHBHV3VJZ1BNVW9HVGZNbUNN,English,,5,2015-07-27,Marco Idini,Finally.,been looking for this forever,,
Screen Notifications,Google Play,com.lukekorth.screennotifications,Z3A6QU9xcFRPR1hFWERiOXViSUVBa3ZjTVFvMVRjemw5RmJmOGZxcmxhVmllejdieFBHY3RobFp1QmlhVFRraWZnNWtZTm0xWHBHV3VJZ1BNVW9HVGZNbUNN,English,,5,2015-07-27,Marco Idini,Finally.,it should be built in within android,,
Screen Notifications,Google Play,com.lukekorth.screennotifications,Z3A6QU9xcFRPRlV2YzF4eFNMR1ByVVlSRU00X0tkX2drRjUwX01rLU15VkVKVng5OGlZQVZqUW8wcGFkMnVWbnFmcWxZeVVtbUlLZ19pUEQteU1VR3kwTzRF,English,,2,2015-07-22,Doug LeBlanc,Doesn't seem to work on Nexus 6,two star the is well laid out why feel similar to existing android setting screen,,
Screen Notifications,Google Play,com.lukekorth.screennotifications,Z3A6QU9xcFRPRUFkTnZjaE55VzluaGtic0VpY3M1eEY0cnBfWVY2UFRHQlB5MTB5aFlBc2ZIR1p2dGZ2NDdwdHJ5OFUxeUVDaVY4N05OWG9ONGRnR0JEZUd3,English,,5,2015-07-19,Saurabh Guna,Perfect,work recommend it to everybody,,
Screen Notifications,Google Play,com.lukekorth.screennotifications,Z3A6QU9xcFRPR19kYjRzcm9UYlRqZmptV0l6T0pjTGtSa1doYXdtVzFFclVFeXhRaENWMHlXYWJIMGZGUUFkZmI4bmpJTVFsUHRWMlNQYjhXZzVSZmEweXo0,English,,5,2015-07-19,karl l,,work flawlessly on,,
Screen Notifications,Google Play,com.lukekorth.screennotifications,Z3A6QU9xcFRPRUdWNmVwb1ducXRvSXZMNUlsRE5ubjdyVzlKVGV6dk5fRTRwNl93Y2p5ZVN0bWl3Z0h5RzNQTS1MWE9Ia2pIMW5PQzNuckhVZTNZMUh5a1J3,English,,5,2015-07-18,,,i am loving it,,
Screen Notifications,Google Play,com.lukekorth.screennotifications,Z3A6QU9xcFRPRUdWNmVwb1ducXRvSXZMNUlsRE5ubjdyVzlKVGV6dk5fRTRwNl93Y2p5ZVN0bWl3Z0h5RzNQTS1MWE9Ia2pIMW5PQzNuckhVZTNZMUh5a1J3,English,,5,2015-07-18,,,this is exactly what i wanted,,
Screen Notifications,Google Play,com.lukekorth.screennotifications,Z3A6QU9xcFRPRUdWNmVwb1ducXRvSXZMNUlsRE5ubjdyVzlKVGV6dk5fRTRwNl93Y2p5ZVN0bWl3Z0h5RzNQTS1MWE9Ia2pIMW5PQzNuckhVZTNZMUh5a1J3,English,,5,2015-07-18,,,i did not want an would change the lock screen already set,,
Screen Notifications,Google Play,com.lukekorth.screennotifications,Z3A6QU9xcFRPRUdWNmVwb1ducXRvSXZMNUlsRE5ubjdyVzlKVGV6dk5fRTRwNl93Y2p5ZVN0bWl3Z0h5RzNQTS1MWE9Ia2pIMW5PQzNuckhVZTNZMUh5a1J3,English,,5,2015-07-18,,,this just wake up the phone and show you the notification,,
Screen Notifications,Google Play,com.lukekorth.screennotifications,Z3A6QU9xcFRPRUdWNmVwb1ducXRvSXZMNUlsRE5ubjdyVzlKVGV6dk5fRTRwNl93Y2p5ZVN0bWl3Z0h5RzNQTS1MWE9Ia2pIMW5PQzNuckhVZTNZMUh5a1J3,English,,5,2015-07-18,,,i like this much i would pay for it,,
Screen Notifications,Google Play,com.lukekorth.screennotifications,Z3A6QU9xcFRPR2dMSG42SEdIcVdTRXdSNzVMYkc2NEZiVE8tZTZoYklDM1I1eVZsVHVla3Z5cVBIQ1RxNDhVal8tQjVlSHh1LXVZLWw0Qm9VZXRLT1FRd3ln,English,,3,2015-07-08,Samantha Bronson,,i like how like every 3 or 5 minute it turn phone back on and off but otherwise it is a good,,
Screen Notifications,Google Play,com.lukekorth.screennotifications,Z3A6QU9xcFRPR1dHalpLWWFVRUY3ODF5Q2oyalpHWlJFdldMZHRfSUNTWFE3QVFoLWI5Vlp4Z2s0bnRxM3VtOHc4aUtjWlZjNWhRalV1cUhqTV90VFRJcy1V,English,,3,2015-07-08,Lynn Simmons,Great for lollipop,work nicely on my apart from the scrolling thing which block the check box,,
Screen Notifications,Google Play,com.lukekorth.screennotifications,Z3A6QU9xcFRPRVdIdW8ydXVJc3VfTS1NV2lLdGZkMi1DYjRvMUtCNks3R054dkF3UHZfYkVvRHhlbVB4T1IxWktXcl92VjRYdDhpcXRDNVVva3piUFlscVRV,English,,1,2015-07-05,CHELLI TYE,HTC DESIRE,unable to deactivate and,,
Screen Notifications,Google Play,com.lukekorth.screennotifications,Z3A6QU9xcFRPRVdIdW8ydXVJc3VfTS1NV2lLdGZkMi1DYjRvMUtCNks3R054dkF3UHZfYkVvRHhlbVB4T1IxWktXcl92VjRYdDhpcXRDNVVva3piUFlscVRV,English,,1,2015-07-05,CHELLI TYE,HTC DESIRE,please help immediately,,
Screen Notifications,Google Play,com.lukekorth.screennotifications,Z3A6QU9xcFRPRmR3alJPcnAxM25qY2xDS3Y2eFkxZjgwa2Nub29jYnJPOEFidWNna0RZQlFXSllrdlUxSDBNakRBak1VbV9LaHRoOVFNcWhvVTl2cm1rSEZR,English,,5,2015-07-02,Earl Dayrit,Great App!,exactly what looking for,,
Screen Notifications,Google Play,com.lukekorth.screennotifications,Z3A6QU9xcFRPSGJYQzREb2t0ZnpIMTU0VnRKZEE3LTVuaEVZVjJsZW9oMHh2UmpUTGpUNnZJb3BDMndnaGR0MVppTDF5a21fMzU3SmVwU3VXOWtSLUFtM1Rr,English,,5,2015-06-28,Matic Mirnik,This is great,work i use this with repeating notification and it go together like a dream,,
Screen Notifications,Google Play,com.lukekorth.screennotifications,Z3A6QU9xcFRPSGJYQzREb2t0ZnpIMTU0VnRKZEE3LTVuaEVZVjJsZW9oMHh2UmpUTGpUNnZJb3BDMndnaGR0MVppTDF5a21fMzU3SmVwU3VXOWtSLUFtM1Rr,English,,5,2015-06-28,Matic Mirnik,This is great,i have a notification led on my phone this is what i needed,,
Screen Notifications,Google Play,com.lukekorth.screennotifications,Z3A6QU9xcFRPR1ZPV2dlQVUyaDlMMURUejlOLUJyUTk1UW50Y1cwTU5OS1NiY29lTlVpMkU3elhJRkNOZnJad3J1TUJsVjJjeHBzUkF2RjJqUFJiY3N3bGxj,English,,2,2015-06-27,Steve Benitah,Screen turns off when interacting with notification,the screen turn off delay should reset a notification ha been interacted with,,
Screen Notifications,Google Play,com.lukekorth.screennotifications,Z3A6QU9xcFRPRmREaERmRVhGckMydU91QTJFSWRqbkpCdHdlRFRaMkxTa09pU3dsUWtlbnVfT1ZfOHZ3TXZpUl9oOWtXNkxWU2YwYVNBb2Q5VzFyWnhPOHhj,English,,4,2015-06-27,CLIVE Smith,Does what it says,but still doe not meet the of user request,,
Screen Notifications,Google Play,com.lukekorth.screennotifications,Z3A6QU9xcFRPRmREaERmRVhGckMydU91QTJFSWRqbkpCdHdlRFRaMkxTa09pU3dsUWtlbnVfT1ZfOHZ3TXZpUl9oOWtXNkxWU2YwYVNBb2Q5VzFyWnhPOHhj,English,,4,2015-06-27,CLIVE Smith,Does what it says,thanks for a good,,
Screen Notifications,Google Play,com.lukekorth.screennotifications,Z3A6QU9xcFRPSFdZNlE1eHc5TkVtdGlKdFlxcGVORGFObTZXQS1WRlJsRmJNTWwwNUlUUmQ1UlMxX2lzR1lNa3NJbW1rTGNrU2dsX3FoRTF6WkVZdDloeHBJ,English,,3,2015-06-25,Rahul pandey,nice but improvement needed,in downloading screen flash it is not finished,,
Screen Notifications,Google Play,com.lukekorth.screennotifications,Z3A6QU9xcFRPSFdZNlE1eHc5TkVtdGlKdFlxcGVORGFObTZXQS1WRlJsRmJNTWwwNUlUUmQ1UlMxX2lzR1lNa3NJbW1rTGNrU2dsX3FoRTF6WkVZdDloeHBJ,English,,3,2015-06-25,Rahul pandey,nice but improvement needed,make some improvement,,
Screen Notifications,Google Play,com.lukekorth.screennotifications,Z3A6QU9xcFRPR3Z6SjB2REhyQ0NGSHhXazZETGZtQU1oR1NwSFJVaFA2NDBDaFFrZnlzSFZPYmowTzFDSThObFdZY3lwYmppLUYwZHlUSFJBNmIxcDU3Nkww,English,,1,2015-06-23,Ionut Mihalache,Don't install,189 ram for this,,
Screen Notifications,Google Play,com.lukekorth.screennotifications,Z3A6QU9xcFRPR3Z6SjB2REhyQ0NGSHhXazZETGZtQU1oR1NwSFJVaFA2NDBDaFFrZnlzSFZPYmowTzFDSThObFdZY3lwYmppLUYwZHlUSFJBNmIxcDU3Nkww,English,,1,2015-06-23,Ionut Mihalache,Don't install,g t f o,,
Screen Notifications,Google Play,com.lukekorth.screennotifications,Z3A6QU9xcFRPSC0ySUZPbmFTVFZBQjZPcFBYVFhqRWpoZWc0cVA0eHkzcXladktjRS1iRDAyX3drV1lFRkpxbWZpT3hZa2JvRkx3a3dQbzBMSVFRdHBFd0tF,English,,2,2015-06-17,zaiful zahri,,it be nice to have a swipe to the left to clear and swipe to the right to read notification then deserve 5 star and i cannot receive any notification on my note include notification,,
Screen Notifications,Google Play,com.lukekorth.screennotifications,Z3A6QU9xcFRPSGUtcEhyTlBXaFNTTU05bXRsM2pya1FkbmxpMkkxYXhlZ29LU0lzbHR1SVM0WnBFLWlVWnVPaDZOTWQ2MjZaelh6SjBmeE9zcXJDWHZhMHpB,English,,4,2015-06-16,JAY Van Maldeghem,Just one thing...,other that this filled one of the only thing that i still miss from my,,
Screen Notifications,Google Play,com.lukekorth.screennotifications,Z3A6QU9xcFRPSE5yM0QtNkpfWGlxV2dtMkthTkdGSzNEQVJ4cmtfNjRFaVBvYmJKRVhOSG05NmZDQ1BCeG80SEF6TFJjcHZRbjJzYkpnZmRBZU9UdnpZYk1n,English,,5,2015-06-15,Hiram Peña,Does what it says!,no issue with my one,,
Screen Notifications,Google Play,com.lukekorth.screennotifications,Z3A6QU9xcFRPSE5yM0QtNkpfWGlxV2dtMkthTkdGSzNEQVJ4cmtfNjRFaVBvYmJKRVhOSG05NmZDQ1BCeG80SEF6TFJjcHZRbjJzYkpnZmRBZU9UdnpZYk1n,English,,5,2015-06-15,Hiram Peña,Does what it says!,awesome,,
Screen Notifications,Google Play,com.lukekorth.screennotifications,Z3A6QU9xcFRPRWM4UFY4eWlPUl9uRGVNanhacWk0ZUJxZ21FZG1vcEhZTWxUcEpXVktUY2xzRldaT1RILW9fTFRIOHB1bzZvRnlQSlFvWEZvdnU4TTBiMEhn,English,,2,2015-06-13,Joe Kim,Doesn't work anymore,it stopped working a week or two,,
Screen Notifications,Google Play,com.lukekorth.screennotifications,Z3A6QU9xcFRPRlp5bHNHTzVYOTJ3cWxlZVJ4THZHUXkyMWRBd2k3QkVkT0JKOXhRWmp4UzZWTDJfNlltUHEzaENaVjA2a1lISElnSUo2OXdFZW5fOWQtaHBn,English,,2,2015-06-10,Leon Chew,Whatsapp issue,found an issue with,,
Screen Notifications,Google Play,com.lukekorth.screennotifications,Z3A6QU9xcFRPRlp5bHNHTzVYOTJ3cWxlZVJ4THZHUXkyMWRBd2k3QkVkT0JKOXhRWmp4UzZWTDJfNlltUHEzaENaVjA2a1lISElnSUo2OXdFZW5fOWQtaHBn,English,,2,2015-06-10,Leon Chew,Whatsapp issue,seems to mute my message this is installed,,
Screen Notifications,Google Play,com.lukekorth.screennotifications,Z3A6QU9xcFRPRlp5bHNHTzVYOTJ3cWxlZVJ4THZHUXkyMWRBd2k3QkVkT0JKOXhRWmp4UzZWTDJfNlltUHEzaENaVjA2a1lISElnSUo2OXdFZW5fOWQtaHBn,English,,2,2015-06-10,Leon Chew,Whatsapp issue,for the time being,,
Screen Notifications,Google Play,com.lukekorth.screennotifications,Z3A6QU9xcFRPRVpyWkhJUDVxWnR0RFdXenppdEtTUVJYelptOERkTWxRV0ZMTXdibTZRNzRvdlZWY0FCNW1uUnVrNzZreWxXOVh4MEhXUjhoVEl4Qk0wTllr,English,,5,2015-06-07,Robbie Shafe,Great,work a treat on my compact,,
Screen Notifications,Google Play,com.lukekorth.screennotifications,Z3A6QU9xcFRPRnJwbFpIdElFUkY4SFV0Wm1tME9VVF85UXF2Q09oX0tuVFJuRFFxLXN0SWs3dzEzaktvZDk1c1Zfa2QtbHg1UzVnY1NFYlZjUXpDbG1leEJB,English,,5,2015-06-03,Lawrence D,It works!,it would just like i expected it to,,
Screen Notifications,Google Play,com.lukekorth.screennotifications,Z3A6QU9xcFRPRnJwbFpIdElFUkY4SFV0Wm1tME9VVF85UXF2Q09oX0tuVFJuRFFxLXN0SWs3dzEzaktvZDk1c1Zfa2QtbHg1UzVnY1NFYlZjUXpDbG1leEJB,English,,5,2015-06-03,Lawrence D,It works!,great,,
Screen Notifications,Google Play,com.lukekorth.screennotifications,Z3A6QU9xcFRPR2p0UGpGX0Q0d2dEXzY3Y2MtQ005RVd1em0zbjEyRC15VmRYb0U5NEZxMVcwMVhhcG5yWmU2Tkd5MWpjVkFPTHdJZUl1NWNaV2UxUzRKYmlV,English,,5,2015-06-01,Faith Louissaint,"New to android, this app was what I needed",i wa told i need to figure out how to use my phone the functionality is there,,
Screen Notifications,Google Play,com.lukekorth.screennotifications,Z3A6QU9xcFRPR2p0UGpGX0Q0d2dEXzY3Y2MtQ005RVd1em0zbjEyRC15VmRYb0U5NEZxMVcwMVhhcG5yWmU2Tkd5MWpjVkFPTHdJZUl1NWNaV2UxUzRKYmlV,English,,5,2015-06-01,Faith Louissaint,"New to android, this app was what I needed",after doing some reading this functionality is actually missing the last update,,
Screen Notifications,Google Play,com.lukekorth.screennotifications,Z3A6QU9xcFRPR2p0UGpGX0Q0d2dEXzY3Y2MtQ005RVd1em0zbjEyRC15VmRYb0U5NEZxMVcwMVhhcG5yWmU2Tkd5MWpjVkFPTHdJZUl1NWNaV2UxUzRKYmlV,English,,5,2015-06-01,Faith Louissaint,"New to android, this app was what I needed",i need this functionality to do my day to day activity,,
Screen Notifications,Google Play,com.lukekorth.screennotifications,Z3A6QU9xcFRPR2p0UGpGX0Q0d2dEXzY3Y2MtQ005RVd1em0zbjEyRC15VmRYb0U5NEZxMVcwMVhhcG5yWmU2Tkd5MWpjVkFPTHdJZUl1NWNaV2UxUzRKYmlV,English,,5,2015-06-01,Faith Louissaint,"New to android, this app was what I needed",this wa a god send,,
Screen Notifications,Google Play,com.lukekorth.screennotifications,Z3A6QU9xcFRPR2p0UGpGX0Q0d2dEXzY3Y2MtQ005RVd1em0zbjEyRC15VmRYb0U5NEZxMVcwMVhhcG5yWmU2Tkd5MWpjVkFPTHdJZUl1NWNaV2UxUzRKYmlV,English,,5,2015-06-01,Faith Louissaint,"New to android, this app was what I needed",it make the notification work,,
Screen Notifications,Google Play,com.lukekorth.screennotifications,Z3A6QU9xcFRPR2p0UGpGX0Q0d2dEXzY3Y2MtQ005RVd1em0zbjEyRC15VmRYb0U5NEZxMVcwMVhhcG5yWmU2Tkd5MWpjVkFPTHdJZUl1NWNaV2UxUzRKYmlV,English,,5,2015-06-01,Faith Louissaint,"New to android, this app was what I needed",without any additional locked screen,,
Screen Notifications,Google Play,com.lukekorth.screennotifications,Z3A6QU9xcFRPR2p0UGpGX0Q0d2dEXzY3Y2MtQ005RVd1em0zbjEyRC15VmRYb0U5NEZxMVcwMVhhcG5yWmU2Tkd5MWpjVkFPTHdJZUl1NWNaV2UxUzRKYmlV,English,,5,2015-06-01,Faith Louissaint,"New to android, this app was what I needed",thanks for this,,
Screen Notifications,Google Play,com.lukekorth.screennotifications,Z3A6QU9xcFRPRnk0YmdHS2ZDRzdBNWdwRkRyNEJJSWs3ZDUzNnRfNW5wTTFtMVFpZUlBVnVmaVZRREFDeVdvbEktTExrNS1CbFo2OWdRaF9mQjBZOVdmeExV,English,,5,2015-05-30,David DeAngelis,Works great!,work just expected on my nexus 5 on lollipop 511,,
Screen Notifications,Google Play,com.lukekorth.screennotifications,Z3A6QU9xcFRPRXBTTUc0bkNIWjJEQ3NYbXZZYVVJN1hRaWVlNHhiamMxRFVncHJDWFU1YlRzMUNTT3h0emZFMElhYy14c0pJbUgyMF9VdW56YTJZRXRjb1U4,English,,4,2015-05-29,Sahand Banisadr,Great app,now my screen will turn on upon receiving a notification,,
Screen Notifications,Google Play,com.lukekorth.screennotifications,Z3A6QU9xcFRPRXBTTUc0bkNIWjJEQ3NYbXZZYVVJN1hRaWVlNHhiamMxRFVncHJDWFU1YlRzMUNTT3h0emZFMElhYy14c0pJbUgyMF9VdW56YTJZRXRjb1U4,English,,4,2015-05-29,Sahand Banisadr,Great app,screen will shut off after a set time even i am viewing and touching the screen,,
Screen Notifications,Google Play,com.lukekorth.screennotifications,Z3A6QU9xcFRPRXBTTUc0bkNIWjJEQ3NYbXZZYVVJN1hRaWVlNHhiamMxRFVncHJDWFU1YlRzMUNTT3h0emZFMElhYy14c0pJbUgyMF9VdW56YTJZRXRjb1U4,English,,4,2015-05-29,Sahand Banisadr,Great app,it will get my absolute 5 the developer can find a solution for that,,
Screen Notifications,Google Play,com.lukekorth.screennotifications,Z3A6QU9xcFRPRXBTTUc0bkNIWjJEQ3NYbXZZYVVJN1hRaWVlNHhiamMxRFVncHJDWFU1YlRzMUNTT3h0emZFMElhYy14c0pJbUgyMF9VdW56YTJZRXRjb1U4,English,,4,2015-05-29,Sahand Banisadr,Great app,this is very well made a is,,
Screen Notifications,Google Play,com.lukekorth.screennotifications,Z3A6QU9xcFRPSDZkN1JsaU1KYncyMnNLVnVIS2t6eUxLUnI0S0tUT09HUl9QaWpIcHBHM0dJR0REWGZtYmE0SkZEdTNtOHQ2SGNSTkhTMWRYVTNONEU2QTN3,English,,5,2015-05-26,Aman Parakh,,perfectly perfect,,
Screen Notifications,Google Play,com.lukekorth.screennotifications,Z3A6QU9xcFRPRW56QWUySDl2ZV96RlJUb3lMUFlSV0xqZGZJLUVHcTdOeVk1OHNZbkVjVENlZ1BhT2xRX2RTOExqTXFKSThxSFkyYk9GcUtKRUNXTjBOLW1z,English,,5,2015-05-25,Akshay Patil,yes,great,,
Screen Notifications,Google Play,com.lukekorth.screennotifications,Z3A6QU9xcFRPR1RoSUpWNVhpVEdOMjQ2WWJDY3dBUklxU1hNRDV4X01QUlB5X0taMXQ1UGJQNkZXcXUzYnduNFo5aENseV96MTR4bkJkWHV6S01vdkprWUNn,English,,5,2015-05-24,muath abu zr,Problem with Samsung s4 lollipop,i set the notification and restart my phone the setting is reset and i need to set the setting another time,,
Screen Notifications,Google Play,com.lukekorth.screennotifications,Z3A6QU9xcFRPR3V6WDg3MmJ6V3gwam0teUFpdjFlTTMySEo4c2N0bHAxZW9CMFdNOG02V1VmVmxnYTJXYkY0bXAzU3ZaNzQ3d2szV0t0dHpUZ0hhTjZWaUE0,English,,5,2015-05-19,Jeet Patel,Gr8 app,get rid of pressing power button new message,,
Screen Notifications,Google Play,com.lukekorth.screennotifications,Z3A6QU9xcFRPSE85QVNxSlJyTC03RXdYV2ZtWnd2ejdZbDJvUU5mbXBYb3JCbzJ2SGJVd2hLUFpGOU1vcVZ0a0hDNDN1R0lkUHVtaHFoSHNBTDBCZGEtaTd3,English,,5,2015-05-19,Jonathas Peschiera,Very good,it would be nice to have the option to activate the screen in dim mode the notification arrives,,
Screen Notifications,Google Play,com.lukekorth.screennotifications,Z3A6QU9xcFRPSE85QVNxSlJyTC03RXdYV2ZtWnd2ejdZbDJvUU5mbXBYb3JCbzJ2SGJVd2hLUFpGOU1vcVZ0a0hDNDN1R0lkUHVtaHFoSHNBTDBCZGEtaTd3,English,,5,2015-05-19,Jonathas Peschiera,Very good,are there any plan to add this feature,,
Screen Notifications,Google Play,com.lukekorth.screennotifications,Z3A6QU9xcFRPSE85QVNxSlJyTC03RXdYV2ZtWnd2ejdZbDJvUU5mbXBYb3JCbzJ2SGJVd2hLUFpGOU1vcVZ0a0hDNDN1R0lkUHVtaHFoSHNBTDBCZGEtaTd3,English,,5,2015-05-19,Jonathas Peschiera,Very good,thanks,,
Screen Notifications,Google Play,com.lukekorth.screennotifications,Z3A6QU9xcFRPR1p2cXNPMWk5Yy1vWnZKZlJkbE1SLTEwZGljYXpIb1NWQmczZzR4YWpLa2tZTmU5QnMyb25PTmltcm5tYm5yQWRfWmdQbmExNmE1bG1sSFE4,English,,5,2015-05-18,Ronald Loquinario,Great App,a great way to keep updated to notification,,
Screen Notifications,Google Play,com.lukekorth.screennotifications,Z3A6QU9xcFRPR3BkUHJiZVhMa1hpMmcyOEFDYmNhU0FVY1c4NnZ6TmdlVHFCakZSN3hUWnRnZTNRWWpzaDRHSGQyVGxWVEZLZUFJQnhPMnh1V0JFWUZTNzE4,English,,5,2015-05-14,Mikey Raymundo,The best and simplest phone waker,doe exactly what you need it to no frill and just the right amount of bell and whistle featured,,
Screen Notifications,Google Play,com.lukekorth.screennotifications,Z3A6QU9xcFRPR3BkUHJiZVhMa1hpMmcyOEFDYmNhU0FVY1c4NnZ6TmdlVHFCakZSN3hUWnRnZTNRWWpzaDRHSGQyVGxWVEZLZUFJQnhPMnh1V0JFWUZTNzE4,English,,5,2015-05-14,Mikey Raymundo,The best and simplest phone waker,also doe not drain battery like other screen wake up application,,
Screen Notifications,Google Play,com.lukekorth.screennotifications,Z3A6QU9xcFRPR3BkUHJiZVhMa1hpMmcyOEFDYmNhU0FVY1c4NnZ6TmdlVHFCakZSN3hUWnRnZTNRWWpzaDRHSGQyVGxWVEZLZUFJQnhPMnh1V0JFWUZTNzE4,English,,5,2015-05-14,Mikey Raymundo,The best and simplest phone waker,5 star,,
Screen Notifications,Google Play,com.lukekorth.screennotifications,Z3A6QU9xcFRPRy1rTXZJQ3pVeGhYcmJwR3pxMFdiNExzRHllZ3R3dDVVaXVHZW1WMGlJT1NOUmMxcm1LaDZUN1BaWVMyNkxHSU1VU0QyWF9iQ0YyNUVaYU9J,English,,4,2015-05-14,,Useful app. Does what it says.,the imp,,
Screen Notifications,Google Play,com.lukekorth.screennotifications,Z3A6QU9xcFRPRy1rTXZJQ3pVeGhYcmJwR3pxMFdiNExzRHllZ3R3dDVVaXVHZW1WMGlJT1NOUmMxcm1LaDZUN1BaWVMyNkxHSU1VU0QyWF9iQ0YyNUVaYU9J,English,,4,2015-05-14,,Useful app. Does what it says.,thing missing is repeating notification at fixed or increasing interval,,
Screen Notifications,Google Play,com.lukekorth.screennotifications,Z3A6QU9xcFRPRy1rTXZJQ3pVeGhYcmJwR3pxMFdiNExzRHllZ3R3dDVVaXVHZW1WMGlJT1NOUmMxcm1LaDZUN1BaWVMyNkxHSU1VU0QyWF9iQ0YyNUVaYU9J,English,,4,2015-05-14,,Useful app. Does what it says.,good work,,
Screen Notifications,Google Play,com.lukekorth.screennotifications,Z3A6QU9xcFRPSDBJMTVTVUZqTnpodXVZVF9abFNlWUxUQ3pJRVJpS0tzQzhpT1F3bEdDNFFTZThMeGM4WlNvUUkyVXhmd0dwQzQtZ2JSLVhPQmtQVnNxcDdF,English,,5,2015-05-14,ravi kiran reddy bomma reddy,Simply superb,completely satisfied with the performance,,
Screen Notifications,Google Play,com.lukekorth.screennotifications,Z3A6QU9xcFRPSDBJMTVTVUZqTnpodXVZVF9abFNlWUxUQ3pJRVJpS0tzQzhpT1F3bEdDNFFTZThMeGM4WlNvUUkyVXhmd0dwQzQtZ2JSLVhPQmtQVnNxcDdF,English,,5,2015-05-14,ravi kiran reddy bomma reddy,Simply superb,greatly helpful,,
Screen Notifications,Google Play,com.lukekorth.screennotifications,Z3A6QU9xcFRPSDBJMTVTVUZqTnpodXVZVF9abFNlWUxUQ3pJRVJpS0tzQzhpT1F3bEdDNFFTZThMeGM4WlNvUUkyVXhmd0dwQzQtZ2JSLVhPQmtQVnNxcDdF,English,,5,2015-05-14,ravi kiran reddy bomma reddy,Simply superb,kudos to creator,,
Screen Notifications,Google Play,com.lukekorth.screennotifications,Z3A6QU9xcFRPSFRQU0NjM2R3SVh6YVNSMF9ka3Vqb3VhZTRqM09MNUpKWTNKTkdSOHNubUxDZEpkRG5ZMFpuaUtQd21wXzhkX0VwSjB3cnlial9KZldjUC1n,English,,5,2015-05-12,Rey Izq,,great,,
Screen Notifications,Google Play,com.lukekorth.screennotifications,Z3A6QU9xcFRPRkI3SkU3b0E3UmpjNEZqTmR2ZUYzaWIwYTBVNXUxczhFdEFoVDFqWXZ3SlBEOV92RDRxbEY2NHJSbm1lVjZWU2tmVUtqVWo3bWZSU2dkSVhn,English,,3,2015-05-12,Georg Peters,Good but not perfect on LG G3,i really like this,,
Screen Notifications,Google Play,com.lukekorth.screennotifications,Z3A6QU9xcFRPRkI3SkU3b0E3UmpjNEZqTmR2ZUYzaWIwYTBVNXUxczhFdEFoVDFqWXZ3SlBEOV92RDRxbEY2NHJSbm1lVjZWU2tmVUtqVWo3bWZSU2dkSVhn,English,,3,2015-05-12,Georg Peters,Good but not perfect on LG G3,the experimental feature is working on the lg,,
Screen Notifications,Google Play,com.lukekorth.screennotifications,Z3A6QU9xcFRPRkI3SkU3b0E3UmpjNEZqTmR2ZUYzaWIwYTBVNXUxczhFdEFoVDFqWXZ3SlBEOV92RDRxbEY2NHJSbm1lVjZWU2tmVUtqVWo3bWZSU2dkSVhn,English,,3,2015-05-12,Georg Peters,Good but not perfect on LG G3,the timeout is not working the phone is unlocked,,
Screen Notifications,Google Play,com.lukekorth.screennotifications,Z3A6QU9xcFRPRkI3SkU3b0E3UmpjNEZqTmR2ZUYzaWIwYTBVNXUxczhFdEFoVDFqWXZ3SlBEOV92RDRxbEY2NHJSbm1lVjZWU2tmVUtqVWo3bWZSU2dkSVhn,English,,3,2015-05-12,Georg Peters,Good but not perfect on LG G3,this is really annoying the screen will stay on for,,
Screen Notifications,Google Play,com.lukekorth.screennotifications,Z3A6QU9xcFRPSEE1dUFhVk9HOTFUWUdVdXZiWkx2b29RdDdDLTU2OUdxeHRIMmozME92a0YxZTNnX1ZvTWE5cjJjY19vcmNHaGJobDA5ZlBLSVVwSTFGeC1r,English,,5,2015-05-10,Mackenzy Lloyd,Love it,i love this,,
Screen Notifications,Google Play,com.lukekorth.screennotifications,Z3A6QU9xcFRPR2t2QkVFdWNxUDhmeEZwOVoxeWFHRGpkTmRWZkJIY0FCVXBYVF9HSm10MGVsSUFKSEZDT3pObUcweE8ya0JkN0Z4SkVVT2R3TEdGNlhONm5j,English,,5,2015-05-08,Shams Hamza,Goood,nice,,
Screen Notifications,Google Play,com.lukekorth.screennotifications,Z3A6QU9xcFRPSFJRUG5NaVNsOUU5NWJjZ1FfMnVTcHphTE5RajNkdHowMGxneGtQa29iZnI5cFhLbnVSdE1haDhDZXB4eGMtcEJUTnJwRnM2OTVFNmphaXhn,English,,5,2015-05-07,Giovanni Fresnido,,,,
Screen Notifications,Google Play,com.lukekorth.screennotifications,Z3A6QU9xcFRPR0tKR1JXQTdRclI4OFVrZERGOEtrOHhoMjhYU1dfSlRSLWZ4OS00TGtfb1g3WnBZb3c5TzYzZFFuc0pvZWdYbmtSRnh3VEFXY2QyTTgtTVBZ,English,,5,2015-05-07,Omar El-Telbany,Brilliant,can u add a feature to disable the service priority mode is on in lollipop,,
Screen Notifications,Google Play,com.lukekorth.screennotifications,Z3A6QU9xcFRPRmNIUEtaRVdMbkVfbHVQbDJhdmEwWUhSWmdha1FlcDlfc3lneVBtRlpYVndFSDBFVWNhaDB2REdqSjRDOGliXzZrNVlTZ3dVckpKaTE4eVRJ,English,,5,2015-05-03,Alexandre Castlenine,Easy to use,working well on lg with,,
Screen Notifications,Google Play,com.lukekorth.screennotifications,Z3A6QU9xcFRPR0FLY3ZISHJWRVdGLUFvRWMxUVA2dXRTN2drS2NVQThpODNpV3cwaGdUaGxxYkNBcmZfekNxV0M0b0tjeE03YXpyckdsUlRRLVR4SDRBcS1z,English,,4,2015-05-01,Kevin Armstrong,Not working for Google messaging,work perfect for in other besides messenger please fix,,
Screen Notifications,Google Play,com.lukekorth.screennotifications,Z3A6QU9xcFRPR0FLY3ZISHJWRVdGLUFvRWMxUVA2dXRTN2drS2NVQThpODNpV3cwaGdUaGxxYkNBcmZfekNxV0M0b0tjeE03YXpyckdsUlRRLVR4SDRBcS1z,English,,4,2015-05-01,Kevin Armstrong,Not working for Google messaging,truly deserves a 5,,
Screen Notifications,Google Play,com.lukekorth.screennotifications,Z3A6QU9xcFRPSGUtZ3lIUXFpZU1zS0dfai0wYUpKMlV0VFNTOHdLaXZpVExSaERUeUFPRFk4YUNMdHA1MW5OZlk0WG1sZFZYenBfUWRzOUxZYkc1WkNWWmF3,English,,5,2015-04-27,Manal Sinha,Works perfectly,such a small and yet life up to the billing,,
Screen Notifications,Google Play,com.lukekorth.screennotifications,Z3A6QU9xcFRPRXFOYXpkX0M5Y0tkb0hqWkJpaVAyM3hJRThhem14aUhZZEJKS1RZN3ZILTI1di1kREJORkZNeUhYdEd6cTh1eWtaM3N2OFBXWlFLZ215ZXZJ,English,,1,2015-04-25,Mundher Abbas,SCREEN DOES NOT WAKE UP,my phone is tablet compact running lollipop,,
Screen Notifications,Google Play,com.lukekorth.screennotifications,Z3A6QU9xcFRPRXFOYXpkX0M5Y0tkb0hqWkJpaVAyM3hJRThhem14aUhZZEJKS1RZN3ZILTI1di1kREJORkZNeUhYdEd6cTh1eWtaM3N2OFBXWlFLZ215ZXZJ,English,,1,2015-04-25,Mundher Abbas,SCREEN DOES NOT WAKE UP,what went wrong,,
Screen Notifications,Google Play,com.lukekorth.screennotifications,Z3A6QU9xcFRPRy1GbDJiN00ya0lOM2tnMldPVTZzRWZURHRXdWRMclFuTFpkU0ZQeFlJaFlYVnUwMVpFcHMzS3VfTnlMcTNsUS1NcWF6eWMxS3lJLUFabUJV,English,,5,2015-04-22,Stelios Mavromichalis,to the point!,doe the job perfect,,
Screen Notifications,Google Play,com.lukekorth.screennotifications,Z3A6QU9xcFRPRzd2X0g5bW9ZYWN2a3pkQmxxVXV1aXZMalRZNGdEWDZRa2QzZDU1S1VSbUlnd2ZUTFFHNVZSZi1yanJaU1JTRmUzNjRVSFJ4VTRfdVc2LVU0,English,,5,2015-04-18,Shumez Khalid,Great app,i love this thanks,,
Screen Notifications,Google Play,com.lukekorth.screennotifications,Z3A6QU9xcFRPR0FlLVNKMHRBeDFuSjVUNFB0ajJ4M3AwZElGeS1jVUJTN2E0UnI4NWFCcUwyU0JvR1NfMEZtdkw0U2xpOEdCTmI4T2hLSWtXSDFYVDNSbFFN,English,,5,2015-04-18,Shumez khalid,Best,this is very,,
Screen Notifications,Google Play,com.lukekorth.screennotifications,Z3A6QU9xcFRPRy1PRXNmbnQ2QmZhR1ZvY3JxZzRsNU1uV3BOUlhCZGhBXzZIcHFGN3JNeVFfQncxVDFycXBqdmI1NGdfVlptQ3BoUU5aZDNjR3ZHcDZCS09v,English,,5,2015-04-15,Fahmi Yusoff,Good application,minimum my usage of power button can see and with my notification panel without touch my power button really nice application,,
Screen Notifications,Google Play,com.lukekorth.screennotifications,Z3A6QU9xcFRPRWVUQmpwTkdOS3JtZllCVy1naEJqcUR6R1VvWU5JdmZIYkVsaVRwUW5iSFFQbXE1M1RuTlpxaDFEeTVoMzFmY1pwaXZQVzNjUXZoc2F0dnRj,English,,5,2015-04-14,Amy Hicks,Best notification app ever!,doe exactly what it should,,
Screen Notifications,Google Play,com.lukekorth.screennotifications,Z3A6QU9xcFRPRWVUQmpwTkdOS3JtZllCVy1naEJqcUR6R1VvWU5JdmZIYkVsaVRwUW5iSFFQbXE1M1RuTlpxaDFEeTVoMzFmY1pwaXZQVzNjUXZoc2F0dnRj,English,,5,2015-04-14,Amy Hicks,Best notification app ever!,light up the screen i get a text,,
Screen Notifications,Google Play,com.lukekorth.screennotifications,Z3A6QU9xcFRPRWVUQmpwTkdOS3JtZllCVy1naEJqcUR6R1VvWU5JdmZIYkVsaVRwUW5iSFFQbXE1M1RuTlpxaDFEeTVoMzFmY1pwaXZQVzNjUXZoc2F0dnRj,English,,5,2015-04-14,Amy Hicks,Best notification app ever!,love it,,
Screen Notifications,Google Play,com.lukekorth.screennotifications,Z3A6QU9xcFRPR01fb05ESW9pY3lmMzVuMk80aWRJRkFMNlRqUDhCelFDQ3BvRHR3dHpKOERuSXlCS2Q3dEZhVk5RZGgwZDkzeFVqeXIyZXhvTjloOHB3Tllv,English,,5,2015-04-10,Amanda Chung,Excellent,this wa exactly what i wa looking for,,
Screen Notifications,Google Play,com.lukekorth.screennotifications,Z3A6QU9xcFRPR01fb05ESW9pY3lmMzVuMk80aWRJRkFMNlRqUDhCelFDQ3BvRHR3dHpKOERuSXlCS2Q3dEZhVk5RZGgwZDkzeFVqeXIyZXhvTjloOHB3Tllv,English,,5,2015-04-10,Amanda Chung,Excellent,this doe exactly with no unnecessary extra feature,,
Screen Notifications,Google Play,com.lukekorth.screennotifications,Z3A6QU9xcFRPRUpQNk5iZDFIQkZTMk92R1c1Zm1ZODNYTzVyT2lPZ3VCM0UwcVRGM2xfS2c0WktUUFpkTDJXRmpEMDBlVzBzSVUyMEgyQzdsREplZDlxVHlv,English,,4,2015-04-09,,,good,,
Screen Notifications,Google Play,com.lukekorth.screennotifications,Z3A6QU9xcFRPRmczVWtIUWw1Nmhsb3pJMlhQVGlLc2dqbG0xc0RiOG5LWlRtZFcwNlA1eHNZM1V2NUVET3ZhRGVYYzV1QlExTHAxZUNvVmJaaTBuUmZ6ZWJz,English,,5,2015-04-08,Kaan Apan,Loved it,this is the i wa looking for,,
Screen Notifications,Google Play,com.lukekorth.screennotifications,Z3A6QU9xcFRPRmczVWtIUWw1Nmhsb3pJMlhQVGlLc2dqbG0xc0RiOG5LWlRtZFcwNlA1eHNZM1V2NUVET3ZhRGVYYzV1QlExTHAxZUNvVmJaaTBuUmZ6ZWJz,English,,5,2015-04-08,Kaan Apan,Loved it,it doe what it say,,
Screen Notifications,Google Play,com.lukekorth.screennotifications,Z3A6QU9xcFRPR1hRV0UxaEtIcGNyZEpXTDd0NS1wQ3VjbWZrNlFoUkpGNmk5SUxXYmZUbVUxYmoyM2F1NFRjVWlJcC03bGJaeXZ2VzNycVc5aDNIZ05wWTdN,English,,5,2015-04-08,Craig Cunliffe,Excellent,been wanting an like this for a while work flawlessly on my running 502 lollipop 5,,
Screen Notifications,Google Play,com.lukekorth.screennotifications,Z3A6QU9xcFRPR3p1eU1nVlpSZE03cFR1dXVfQW44NENfQkdXekNOb0h6VXhJUG9lT3RmeUJwUExKVnRob0RweV9nUDdpNEtzWHVzSE9OSXFyVDh4ckxKM1Rv,English,,5,2015-04-08,Gerald Stephanus,This is waht I'm looking for.,very useful,,
Screen Notifications,Google Play,com.lukekorth.screennotifications,Z3A6QU9xcFRPR0VtTXpSOGN2MHZkWk5vY1NLTlNLZ1NuNG9IRG0xS1B5a3hzYm41X1VyY2loc3JIZmdCazdwS3IwQjR4R0t2NVRMMFZQNGRVdkF1OEtfNkU4,English,,3,2015-04-06,Sean Hayden,Needs a few tweaks...,overall good will generally do what is needed,,
Screen Notifications,Google Play,com.lukekorth.screennotifications,Z3A6QU9xcFRPR0VtTXpSOGN2MHZkWk5vY1NLTlNLZ1NuNG9IRG0xS1B5a3hzYm41X1VyY2loc3JIZmdCazdwS3IwQjR4R0t2NVRMMFZQNGRVdkF1OEtfNkU4,English,,3,2015-04-06,Sean Hayden,Needs a few tweaks...,need the ability to change to phone default screen turn off time the screen is touched,,
Screen Notifications,Google Play,com.lukekorth.screennotifications,Z3A6QU9xcFRPR0VtTXpSOGN2MHZkWk5vY1NLTlNLZ1NuNG9IRG0xS1B5a3hzYm41X1VyY2loc3JIZmdCazdwS3IwQjR4R0t2NVRMMFZQNGRVdkF1OEtfNkU4,English,,3,2015-04-06,Sean Hayden,Needs a few tweaks...,of it will turn off the screen x amount of second after the screen turn on to show the notification no matter what,,
Screen Notifications,Google Play,com.lukekorth.screennotifications,Z3A6QU9xcFRPR0VtTXpSOGN2MHZkWk5vY1NLTlNLZ1NuNG9IRG0xS1B5a3hzYm41X1VyY2loc3JIZmdCazdwS3IwQjR4R0t2NVRMMFZQNGRVdkF1OEtfNkU4,English,,3,2015-04-06,Sean Hayden,Needs a few tweaks...,another update should be the ability to turn on the screen at a selected brightness and then change to phone default setting screen is touched,,
Screen Notifications,Google Play,com.lukekorth.screennotifications,Z3A6QU9xcFRPR0VtTXpSOGN2MHZkWk5vY1NLTlNLZ1NuNG9IRG0xS1B5a3hzYm41X1VyY2loc3JIZmdCazdwS3IwQjR4R0t2NVRMMFZQNGRVdkF1OEtfNkU4,English,,3,2015-04-06,Sean Hayden,Needs a few tweaks...,this way the screen could turn on at a very dim level conserving then it would default to regular brightness level,,
Screen Notifications,Google Play,com.lukekorth.screennotifications,Z3A6QU9xcFRPSFp1T1MxV3pfVXdMaWYxWmgzSzdVQTQ4T1lIUV9rd3BpTVNodTlCNHdZUkFTMHQwUnhzcGcydHlxTktqSHdtSlNydjNHWE1zYjhEOVkwX3NV,English,,4,2015-04-02,Jon Christensen,Great almost,my battery is low on my and i get a notification the screen go off then pop right back on,,
Screen Notifications,Google Play,com.lukekorth.screennotifications,Z3A6QU9xcFRPSFp1T1MxV3pfVXdMaWYxWmgzSzdVQTQ4T1lIUV9rd3BpTVNodTlCNHdZUkFTMHQwUnhzcGcydHlxTktqSHdtSlNydjNHWE1zYjhEOVkwX3NV,English,,4,2015-04-02,Jon Christensen,Great almost,how do i stop this,,
Screen Notifications,Google Play,com.lukekorth.screennotifications,Z3A6QU9xcFRPRmFMbVRKWTVJTU5tOVYwc3ZkQUNmWS1mWHAyNWRlaGNLQmJwOVdPQXRxWWswaUtDRk5EZ2hHc09DMFdqd0hrdFB6Zkc3a08wTjd6RDhla3Br,English,,5,2015-04-02,Samuel Tokarčík,Perfect,doe everything i need,,
Screen Notifications,Google Play,com.lukekorth.screennotifications,Z3A6QU9xcFRPRmFMbVRKWTVJTU5tOVYwc3ZkQUNmWS1mWHAyNWRlaGNLQmJwOVdPQXRxWWswaUtDRk5EZ2hHc09DMFdqd0hrdFB6Zkc3a08wTjd6RDhla3Br,English,,5,2015-04-02,Samuel Tokarčík,Perfect,best in the play store,,
Screen Notifications,Google Play,com.lukekorth.screennotifications,Z3A6QU9xcFRPR0gxcWlaREZncTNIYVJ0eTdJb2w2MDdVQzhTNTFaQk85X29oOENub1RtbmtvUWM3QV9rbU9IdkdZbkgwQVZoamFtZzNnMzFyX0xUVzRuN1ZF,English,,5,2015-04-01,Sucheela Nanekrangsan,Does exactly what I need,save me a bunch of button pushing a day,,
Screen Notifications,Google Play,com.lukekorth.screennotifications,Z3A6QU9xcFRPR0gxcWlaREZncTNIYVJ0eTdJb2w2MDdVQzhTNTFaQk85X29oOENub1RtbmtvUWM3QV9rbU9IdkdZbkgwQVZoamFtZzNnMzFyX0xUVzRuN1ZF,English,,5,2015-04-01,Sucheela Nanekrangsan,Does exactly what I need,the quiet hour setting also work out well,,
Screen Notifications,Google Play,com.lukekorth.screennotifications,Z3A6QU9xcFRPR0gxcWlaREZncTNIYVJ0eTdJb2w2MDdVQzhTNTFaQk85X29oOENub1RtbmtvUWM3QV9rbU9IdkdZbkgwQVZoamFtZzNnMzFyX0xUVzRuN1ZF,English,,5,2015-04-01,Sucheela Nanekrangsan,Does exactly what I need,thanks for a great simple and useful,,
Screen Notifications,Google Play,com.lukekorth.screennotifications,Z3A6QU9xcFRPSEd4eGtpZC1ZUVFFc1VZTHBxVkVZaGVfZTRXaFMxVUt0YWxrVVVDRmkxNV96RzZSQWg3TVVvN2YwMkRWNGNFQWVnOUVUYXZ2N183Z09ZTjNv,English,,5,2015-03-31,Fahad bin waheed,Ace,excellent,,
Screen Notifications,Google Play,com.lukekorth.screennotifications,Z3A6QU9xcFRPR0N0NHlCeExyU2JUQWJFT0t4MzF3U01RMk9DanFNbmk3UGFfT3c3VHhqMHdkQzJpblFVNndlcFRmU29qR2RwTmVZMjg3LUlpekRXWUlVS3Bz,English,,4,2015-03-30,Χρήστος Δημουλάς,,i have a problem,,
Screen Notifications,Google Play,com.lukekorth.screennotifications,Z3A6QU9xcFRPR0N0NHlCeExyU2JUQWJFT0t4MzF3U01RMk9DanFNbmk3UGFfT3c3VHhqMHdkQzJpblFVNndlcFRmU29qR2RwTmVZMjg3LUlpekRXWUlVS3Bz,English,,4,2015-03-30,Χρήστος Δημουλάς,,i have to open the manually and check it manually on every reboot to get it work,,
Screen Notifications,Google Play,com.lukekorth.screennotifications,Z3A6QU9xcFRPR0N0NHlCeExyU2JUQWJFT0t4MzF3U01RMk9DanFNbmk3UGFfT3c3VHhqMHdkQzJpblFVNndlcFRmU29qR2RwTmVZMjg3LUlpekRXWUlVS3Bz,English,,4,2015-03-30,Χρήστος Δημουλάς,,,,
Screen Notifications,Google Play,com.lukekorth.screennotifications,Z3A6QU9xcFRPSHoydXdwZk1GZTVfZF9JSXNWakg4TTFaSWZKTDVpSnJUYW9IQWZRYlFJOGh2djZrMGFJdU1NX01WNzVCNHpFUm9LdE9iT0plMTZWOHpkOXFR,English,,2,2015-03-30,Rob Allen,A little buggy,there is a bug in the that cause my nexus 5 to continuously turn on and off the screen a notification arrives,,
Screen Notifications,Google Play,com.lukekorth.screennotifications,Z3A6QU9xcFRPSHoydXdwZk1GZTVfZF9JSXNWakg4TTFaSWZKTDVpSnJUYW9IQWZRYlFJOGh2djZrMGFJdU1NX01WNzVCNHpFUm9LdE9iT0plMTZWOHpkOXFR,English,,2,2015-03-30,Rob Allen,A little buggy,the way to stop the loop is to press the power button,,
Screen Notifications,Google Play,com.lukekorth.screennotifications,Z3A6QU9xcFRPRXR1N3AybVZtWnZYamVZY25TSThqWEtXazlUVW5oa0JmUFZLOXF6Q0d1Xy1VRzY4Z1duZjk0eUJQT25Lb1JoRnJKUmlEYll2al9mcUNHS3ow,English,,5,2015-03-26,Fed C,Works great!,many program of this kind still give me issue on nightly,,
Screen Notifications,Google Play,com.lukekorth.screennotifications,Z3A6QU9xcFRPRXR1N3AybVZtWnZYamVZY25TSThqWEtXazlUVW5oa0JmUFZLOXF6Q0d1Xy1VRzY4Z1duZjk0eUJQT25Lb1JoRnJKUmlEYll2al9mcUNHS3ow,English,,5,2015-03-26,Fed C,Works great!,this work like a congrats,,
Screen Notifications,Google Play,com.lukekorth.screennotifications,Z3A6QU9xcFRPSENkWVVJN1RuRFhkR0xWakJ0VzNTUm1hcVBzRmR2YVFDUTMzMVpfOFN4WUJpbEJ6ZUJJSDhCYWNvTXFuZVFJUEx5akdvZG5oOVdyT01MckFJ,English,,5,2015-03-25,stephen simmons,,work perfect for me,,
Screen Notifications,Google Play,com.lukekorth.screennotifications,Z3A6QU9xcFRPSEVOd0xtcjVJekpHZ3VFcXA2V2oxY1dQSGNKVnh4R3N6MXpMOTRjU1I2eC1McTVnc0tnRE0tTWs0ZW5qUUR5Ym1GRUp1eWk0MVFnMmhuQVNj,English,,1,2015-03-23,Syvin Jayye,Ugh,how do i deactivate this,,
Screen Notifications,Google Play,com.lukekorth.screennotifications,Z3A6QU9xcFRPSEJxMldzNmxmdy1wR2RwN1o3WWpLd1B0Snlad29FLThLZzVYM3plWkVCWjNwbkhPN2RhVE81TW55YUM1bVRGRmZZVGluaW9Xd2xINVZmOGVn,English,,4,2015-03-22,yogi modjo,,good,,
Screen Notifications,Google Play,com.lukekorth.screennotifications,Z3A6QU9xcFRPRzNlU1ZOVElmWndvQzdnM1dpV0Y1ekkxR3Vwb3RBT2drcXZpWnI5RDFEVktwMU5jTnR5RlJLQlRUMTlxOERCc1pnRGtWZll5MnpvTVJ3WTZZ,English,,5,2015-03-16,Lee West,Brilliant,exactly what i wa looking not overly work extremely well,,
Screen Notifications,Google Play,com.lukekorth.screennotifications,Z3A6QU9xcFRPRzNlU1ZOVElmWndvQzdnM1dpV0Y1ekkxR3Vwb3RBT2drcXZpWnI5RDFEVktwMU5jTnR5RlJLQlRUMTlxOERCc1pnRGtWZll5MnpvTVJ3WTZZ,English,,5,2015-03-16,Lee West,Brilliant,donated,,
Screen Notifications,Google Play,com.lukekorth.screennotifications,Z3A6QU9xcFRPRmRERV9xRVVtbWVWWWM0bnhHaTN6VG9GcVZBclFDenhxV2htcjZ6dl9rTlNuZlRnc0pXQUZPc3pycm1UaVF6cmtlN0VUUEhxQUpIY1NVUEpN,English,,5,2015-03-11,dick302,,work great on my desire 816,,
Screen Notifications,Google Play,com.lukekorth.screennotifications,Z3A6QU9xcFRPSDk0N0ZHdjdJODVuRXg3czZYc1RVajhUeXZ2dGpwN2pjYXRJY1NQZjBRMV83WmVCWWY2ZUhnWFBMWXEzUDZkbGxzQWNxdHd5aWZCS1ZCdDZV,English,,5,2015-03-05,Bogdan Bucur,Does exactly what it says,work flawlessly on one and it is the perfect tool to use in conjunction with lollipop lock screen notification,,
Screen Notifications,Google Play,com.lukekorth.screennotifications,Z3A6QU9xcFRPSDk0N0ZHdjdJODVuRXg3czZYc1RVajhUeXZ2dGpwN2pjYXRJY1NQZjBRMV83WmVCWWY2ZUhnWFBMWXEzUDZkbGxzQWNxdHd5aWZCS1ZCdDZV,English,,5,2015-03-05,Bogdan Bucur,Does exactly what it says,simple but very effective,,
Screen Notifications,Google Play,com.lukekorth.screennotifications,Z3A6QU9xcFRPR2ZaXzVHalBoX3ZNYk5WV2tpcTMxUW9nVnh6S1FRdnJEY2RnR3Q5WVVNLWJFdFFNaVV6X3MyQ1RRUThwdkxDZmlkVDZDQlBBWEVrNjlNRTF3,English,,4,2015-02-23,Ritish Oemraw,Needs 1 change,lovely can you please add 1 thing,,
Screen Notifications,Google Play,com.lukekorth.screennotifications,Z3A6QU9xcFRPR2ZaXzVHalBoX3ZNYk5WV2tpcTMxUW9nVnh6S1FRdnJEY2RnR3Q5WVVNLWJFdFFNaVV6X3MyQ1RRUThwdkxDZmlkVDZDQlBBWEVrNjlNRTF3,English,,4,2015-02-23,Ritish Oemraw,Needs 1 change,have it not turn on the screen if it did already in the last 10 second for a notification for the same,,
Screen Notifications,Google Play,com.lukekorth.screennotifications,Z3A6QU9xcFRPRlBHX3QxalNWaU16Y05IV3NiM3ZGYWcxcjdLRVkxVWRrTC1GLU5iQ0VBYWZGbnppRE1JNE51a2NWbk1UdHhVcGJDSWtPTXlmSDFWeFNaeFk0,English,,4,2015-02-21,Dhinesh Sekar,Good one,work fine,,
Screen Notifications,Google Play,com.lukekorth.screennotifications,Z3A6QU9xcFRPR1gzLXB5N2p3T0I0NWx4ZkdReG95QzR2RlFwOHFkUmRNcE10UTZXb1Z2VXNldTdsTWk2MElnUUx4bUc4QTZROWx3a2k2ZU5NNF95cWVwSHhV,English,,5,2015-02-16,Vinay Sharma,,nice,,
Screen Notifications,Google Play,com.lukekorth.screennotifications,Z3A6QU9xcFRPRkRjWEZOdlhDZHVfemZVazBQbFczZ1diN2MzUkQzQk9SVk85SkMtNEtiSk9uMERuS292TG1LbEhCeU1xb1NnUGlsUUpMSlZxQzZzNlhWZEtn,English,,1,2015-02-13,Shweta Katara,,not working in z,,
Screen Notifications,Google Play,com.lukekorth.screennotifications,Z3A6QU9xcFRPRVFVSUNhUEhPS2Vlc21ibHhEODBudGlTZGFwOVUwY2RwNFNITjNiNWhHMkdNNGREZ1AzVnFnbnNNN08tdkxoMnhEU3VCR1Z5R0RsWGs5ajlB,English,,4,2015-02-12,Andrzej,I like it,could you maybe add a logging function would be helpful in identifying mysterious screen waking,,
Screen Notifications,Google Play,com.lukekorth.screennotifications,Z3A6QU9xcFRPRjhfcWQxeDJONGZjQ3RBVm5NRGppTWM1dGc1d25MdWF4NkxoRDJmUm1kcHNRU3pqV05ydzJTQ2ZoV194TFBmcEd4QmtPejdaTFc1QVZfMnhV,English,,5,2015-02-09,Ian Agliones,,bug fix,,
Screen Notifications,Google Play,com.lukekorth.screennotifications,Z3A6QU9xcFRPRkwzb1pCV1dxMVpCd1FTaWlmOXZCWGVuREJfbTF0T1F6X1dwckd0bXQ5RjN1bTVmZzhIaklleTZva1c5Y3BrbUZMN285T3Y2MHJwQm9RbDJz,English,,5,2015-02-08,Cosmin Andrei,Nice app,work well for one,,
Screen Notifications,Google Play,com.lukekorth.screennotifications,Z3A6QU9xcFRPRXF4MUhQa0Ytc2dWcE0yZjNKOXFiMTBMZFNxbFQ4MUszZ1N3M0JQUEpkZnpFSEtwTm9yeFYwc25Pdy1ZNlNnX0FNdC12VmlGQ2lQaVhGcC0w,English,,5,2015-02-04,ntuli konisaga,nice,amazing,,
Screen Notifications,Google Play,com.lukekorth.screennotifications,Z3A6QU9xcFRPRTdhLXRfc3dFd1dlbXdEbmpHVU84elBza1JkMUlzN2U5VWQ3c2VTNVRoYjIzbm1oWHVkQndYYk8zejlDNWF5MGxRV3dGWGJ1dm9aSHZ5REZj,English,,2,2015-01-31,Kyle Veracion,doesn't work,it wa working at first but then it stopped working,,
Screen Notifications,Google Play,com.lukekorth.screennotifications,Z3A6QU9xcFRPR0RreU9uMU4tdC1adHB3WmRJZ01aeFVFZXNtaG5rYzdRR1cwUXN3eHdCNTJVanpsU1VITDJ6Si1RZkt6UkNiaHBEWmZ2ZE0yamRHR1ZHQmpF,English,,5,2015-01-29,John Cassidy,Perfect!,doe the job perfectly,,
Screen Notifications,Google Play,com.lukekorth.screennotifications,Z3A6QU9xcFRPRi1wRzhwMXFFUEpvYUN3cW1fWldvSU5tQzJ4UTAxSUhGRDlWc1hfNDRXVVFZdGkwVzVpaU1XVGxkdk1GYTRqbUUzeThMNjMtUmFLdlkzNFlV,English,,5,2015-01-27,J.T. Brown III,,awesome on both my nexus 4 and nexus 5,,
Screen Notifications,Google Play,com.lukekorth.screennotifications,Z3A6QU9xcFRPRkk5TWRNai12bDVRQ2NuT2hmUkRRVFU3ZG9VRXRPTXRraGlDSEU5THFldEJySXBQNXlOdU9kRDBKd1lCZDdIdEdXLUFYeVYwaF94X0w1WU5V,English,,1,2015-01-26,alfin ahsan,,always get off automatically,,
Screen Notifications,Google Play,com.lukekorth.screennotifications,Z3A6QU9xcFRPRmN5VFlReGxYTjlhSng1TjdEZGtobWI0X2N1aXVsLV9YMWJxQjl5ZG8tSjBWWTlRaTkyRzg0X3JUSmFlR3AzSTFmcTFncVZHRFBPTG9yYVA0,English,,4,2015-01-24,Rohit Tripathi,,nice,,
Screen Notifications,Google Play,com.lukekorth.screennotifications,Z3A6QU9xcFRPSHlQTjFWRWZ5SkNpVzJlR1gycjZsZ1RwdUx3SkNsVWVXM1hBQVNSODg5REpWN0gyZzBnNDJuMGhJSWZfYWo0Wklaa004YzNRWG1FRGRza0hZ,English,,5,2015-01-23,Jonathan Burdette,,work advertised,,
Screen Notifications,Google Play,com.lukekorth.screennotifications,Z3A6QU9xcFRPSHlQTjFWRWZ5SkNpVzJlR1gycjZsZ1RwdUx3SkNsVWVXM1hBQVNSODg5REpWN0gyZzBnNDJuMGhJSWZfYWo0Wklaa004YzNRWG1FRGRza0hZ,English,,5,2015-01-23,Jonathan Burdette,,nexus 5 on lollipop,,
Screen Notifications,Google Play,com.lukekorth.screennotifications,Z3A6QU9xcFRPSGtVbkFPekF0ZTFCR01LRjhxX1YxU3Bob0xlY2h2T2pkaWFxekxnc1ZDT2Vab1V6UmFMX2pFRFRtU0pHZ1VpZ0tDRkhNck5TTFlwc0ZtNVo4,English,,5,2015-01-23,Flogert Dollani,It does what it says.,make for a full 5 to me,,
Screen Notifications,Google Play,com.lukekorth.screennotifications,Z3A6QU9xcFRPSGtVbkFPekF0ZTFCR01LRjhxX1YxU3Bob0xlY2h2T2pkaWFxekxnc1ZDT2Vab1V6UmFMX2pFRFRtU0pHZ1VpZ0tDRkhNck5TTFlwc0ZtNVo4,English,,5,2015-01-23,Flogert Dollani,It does what it says.,simple that,,
Screen Notifications,Google Play,com.lukekorth.screennotifications,Z3A6QU9xcFRPR21pWVlnNUcwNWVKbW9BS1JnaW80bXBRTmQ5dXBHYXY4VURPcXAwT1N6UjY1RF85THVhMFNYUGxKMjQ4SnM0Y1NtcWdjUGVDaXdfbW5idU5B,English,,4,2015-01-19,Stefan Milkov,Bug,the screen sometimes turn itself on without there being a notification,,
Screen Notifications,Google Play,com.lukekorth.screennotifications,Z3A6QU9xcFRPR21pWVlnNUcwNWVKbW9BS1JnaW80bXBRTmQ5dXBHYXY4VURPcXAwT1N6UjY1RF85THVhMFNYUGxKMjQ4SnM0Y1NtcWdjUGVDaXdfbW5idU5B,English,,4,2015-01-19,Stefan Milkov,Bug,using lg 442,,
Screen Notifications,Google Play,com.lukekorth.screennotifications,Z3A6QU9xcFRPRmFpT1dQSzk4dDZTRW9TWFloaVdaRURWUW1OYzBVLW1SSktINEFSaHpKX0syTng1bi1Qdng1c19Dd0E3SzBxY1FUWDMwaGUxRFpwM0lSUUZn,English,,5,2015-01-19,J Gray,JG,just what i needed for my galaxy thank you,,
Screen Notifications,Google Play,com.lukekorth.screennotifications,Z3A6QU9xcFRPR0cyaV9HeGloaWdKQTBvcFdqZXg0cXdzSUg1bG12N29CODBzZWgwbTlMTGdfQ2UyZU95WFFhalRmS1dmaFBBWXJFUnRDbGo0RllwNmtkSXpZ,English,,5,2015-01-17,Karthigeyan Kumaraguru,,doe what i need it to be,,
Screen Notifications,Google Play,com.lukekorth.screennotifications,Z3A6QU9xcFRPR0cyaV9HeGloaWdKQTBvcFdqZXg0cXdzSUg1bG12N29CODBzZWgwbTlMTGdfQ2UyZU95WFFhalRmS1dmaFBBWXJFUnRDbGo0RllwNmtkSXpZ,English,,5,2015-01-17,Karthigeyan Kumaraguru,,however i am having trouble reducing the time from 10 second,,
Screen Notifications,Google Play,com.lukekorth.screennotifications,Z3A6QU9xcFRPRzdiQTlBS2dwWEJ6NEVlbEpPU1ZUbm1XLXVaMHM2cEdCcFNoNVVyeDgtQWhHR3NyVEt4enZTOFpYa191Z0tkT09uX2NJVS1HRWgyZTBrY0hr,English,,5,2015-01-16,Igor de Souza,,very good,,
Screen Notifications,Google Play,com.lukekorth.screennotifications,Z3A6QU9xcFRPRlc0RFhxQXNCVFBrOHRuSGxxUG5lZDN0YXN6a01MckFNczVrQTFmekRFNlg0eUdKUFhLaE1sOGQwZWhwWC1SeXM0VHZUNWExczFnR1k2RDZ3,English,,5,2015-01-13,Don C,Awesome,love it,,
Screen Notifications,Google Play,com.lukekorth.screennotifications,Z3A6QU9xcFRPRjBqSWhpTmNEbm9fVHZyekhhRGM3X2lscm8wZ2x2MnlSSDF1Wk9ZOVRrcWFDdldVdVVQMEgxZmlINDR3M1g0MnRkdnU3U1BNT3ZiU0NESE1F,English,,1,2015-01-10,,Won't work with 4.4 messaging,work for missed call,,
Screen Notifications,Google Play,com.lukekorth.screennotifications,Z3A6QU9xcFRPRjBqSWhpTmNEbm9fVHZyekhhRGM3X2lscm8wZ2x2MnlSSDF1Wk9ZOVRrcWFDdldVdVVQMEgxZmlINDR3M1g0MnRkdnU3U1BNT3ZiU0NESE1F,English,,1,2015-01-10,,Won't work with 4.4 messaging,galaxy plus his web site is down,,
Screen Notifications,Google Play,com.lukekorth.screennotifications,Z3A6QU9xcFRPSE43SHNITmxmWlpQRXg1Vm5wNGJpVHU3T1Q4RWhBSFBSbFl0aWpBYlpHc00xS3ZsQUZUS2ZyaUxQdklvTVhTdTA3bEh4dVl4UVJ6aWtGRHc0,English,,1,2015-01-09,Ivaniel Martinez,Virus,i downloaded the and my friend were me now i get any text from whats wrong,,
Screen Notifications,Google Play,com.lukekorth.screennotifications,Z3A6QU9xcFRPR2RnSGZWMHJLeHJiVVF4X2hfSVRyb1FvZDJSZEkzTDdSanluT3ZzZjJnV19teHFpRjhaWFZfQ0RRMTM1MXdsdFlyekY3dkNveE81dW13UHZr,English,,4,2015-01-08,Leo Whalen,Screen notification,pretty good,,
Screen Notifications,Google Play,com.lukekorth.screennotifications,Z3A6QU9xcFRPRnAyQUFNdjc4OC1WbnRDVDBhSmdndFZfOEs0VXY3ODRaNkZSd2ZRZ2F5MEdzZDRYT2FUemRuUDd2RzZrN3FMUUhFUHRWZElfMkQyNThmNDRZ,English,,5,2015-01-04,Arron Fitzgerald,Outstanding,exactly what i needed to replicate certain,,
Screen Notifications,Google Play,com.lukekorth.screennotifications,Z3A6QU9xcFRPRTE0Slh5UUU4ZGx1c0NqZ2hRYWZXLXJteU5NbXg4S2FCRW9ZYmdsYWJncDIxNnBiMU9KWFpPc3k4VGd5b1ZnVElIVW4zNVhlaFVtMjhxYWFB,English,,5,2015-01-03,Thomas Veith,Thank you!,exactly what i wa looking for and working great on my lg with lollipop,,
Screen Notifications,Google Play,com.lukekorth.screennotifications,Z3A6QU9xcFRPRTE0Slh5UUU4ZGx1c0NqZ2hRYWZXLXJteU5NbXg4S2FCRW9ZYmdsYWJncDIxNnBiMU9KWFpPc3k4VGd5b1ZnVElIVW4zNVhlaFVtMjhxYWFB,English,,5,2015-01-03,Thomas Veith,Thank you!,solved the problem with email other notification not waking up my screen,,
Screen Notifications,Google Play,com.lukekorth.screennotifications,Z3A6QU9xcFRPSGo3U0s4c0tlMFV4QVM5OVhxR0d4cDhqUTB6WUhsUU9YWkZ3bXc2N0NUaDFkNGZ6YnFOWVRMMGZMenVMamZncFNpcWRqMTM1WmZSWjM0WlYw,English,,5,2015-01-02,DÆM0Ñ SS,5 stars,doe it say,,
Screen Notifications,Google Play,com.lukekorth.screennotifications,Z3A6QU9xcFRPRVcyUVd5dktMQlQ4blQxbnNRamdGUVRNRFpuYnc3cHhlY09yRGo4Mi01NGM2SDIxSWNqdkxGWFRBcTEwYWFaZ3Z5OE9mN0I3VlliN1hoRUFr,English,,4,2015-01-02,Basement Beercast,Good but with bugs,also i cannot change screen timeout on my lg,,
Screen Notifications,Google Play,com.lukekorth.screennotifications,Z3A6QU9xcFRPRjhwcFcwQ0tUU24xMmNWakM2SEN2c2d5bTBiWkladEdmOTZOeW5DWXBBTEZWbXFobjBsWjFkU1I2cWliaEtVdDJnajc2RmtnRjE5RDMtM1VJ,English,,1,2014-12-28,Diogo Nunes,Useless,it wake up on random notification at random time,,
Screen Notifications,Google Play,com.lukekorth.screennotifications,Z3A6QU9xcFRPRjhwcFcwQ0tUU24xMmNWakM2SEN2c2d5bTBiWkladEdmOTZOeW5DWXBBTEZWbXFobjBsWjFkU1I2cWliaEtVdDJnajc2RmtnRjE5RDMtM1VJ,English,,1,2014-12-28,Diogo Nunes,Useless,useless to my g,,
Screen Notifications,Google Play,com.lukekorth.screennotifications,Z3A6QU9xcFRPR1l5dlBaNW1Xd0dpQ3ZxaXpVQS03YVl5czUyZDctTkxmWm1SZ28xbzBZRlNKeUZzLVVPcmg4QlJSTlFNUElyVy1lU1hyUHlPVkI5NWJoZjNB,English,,5,2014-12-24,Ana Ley-Chavez,,best ever,,
Screen Notifications,Google Play,com.lukekorth.screennotifications,Z3A6QU9xcFRPR1QyMnMzYVBNUmFfdGNDLUJ0Vm5JSWNhTmpoWHlrV0tjcExFMjRXdmtZc05NS1Z3OEFsa180NjlETjVVQ01PRklLNWlYdm53S1ZVU3dZV0Y4,English,,4,2014-12-23,Sergey Gorbikov,overall very helpful,overall very it doe what it say,,
Screen Notifications,Google Play,com.lukekorth.screennotifications,Z3A6QU9xcFRPR1QyMnMzYVBNUmFfdGNDLUJ0Vm5JSWNhTmpoWHlrV0tjcExFMjRXdmtZc05NS1Z3OEFsa180NjlETjVVQ01PRklLNWlYdm53S1ZVU3dZV0Y4,English,,4,2014-12-23,Sergey Gorbikov,overall very helpful,one drawback,,
Screen Notifications,Google Play,com.lukekorth.screennotifications,Z3A6QU9xcFRPR1QyMnMzYVBNUmFfdGNDLUJ0Vm5JSWNhTmpoWHlrV0tjcExFMjRXdmtZc05NS1Z3OEFsa180NjlETjVVQ01PRklLNWlYdm53S1ZVU3dZV0Y4,English,,4,2014-12-23,Sergey Gorbikov,overall very helpful,the time between i hear the notification sound and the screen is turned on is around 23 second on my what is too long,,
Screen Notifications,Google Play,com.lukekorth.screennotifications,Z3A6QU9xcFRPR1QyMnMzYVBNUmFfdGNDLUJ0Vm5JSWNhTmpoWHlrV0tjcExFMjRXdmtZc05NS1Z3OEFsa180NjlETjVVQ01PRklLNWlYdm53S1ZVU3dZV0Y4,English,,4,2014-12-23,Sergey Gorbikov,overall very helpful,z android 4,,
Screen Notifications,Google Play,com.lukekorth.screennotifications,Z3A6QU9xcFRPRlNNSjlTd3pZQy1JLVZUYWFYRjdzSVVLaWpvdkRQOXdSTjBRb1MxWkd1My1jdEowbnB6RzRKZGxnRkJtQVBoVjFhUG5qUUtwX1V0SjZPUEZj,English,,5,2014-12-17,Alan Markowicz,Ajm,work great,,
Screen Notifications,Google Play,com.lukekorth.screennotifications,Z3A6QU9xcFRPRWVTeUJ2SEp3ZlJaNEtFV09IWnhvOEJjaHRoMjZXTmVVOG9ia1VMNEhia3NoTVpiS0lwM2pPQVJPSVF0Tk5CWU52YmZhUXFmcjVwUFFndHBB,English,,5,2014-12-13,Jace Elwyn,Not yet try it.,but great,,
Screen Notifications,Google Play,com.lukekorth.screennotifications,Z3A6QU9xcFRPRWVTeUJ2SEp3ZlJaNEtFV09IWnhvOEJjaHRoMjZXTmVVOG9ia1VMNEhia3NoTVpiS0lwM2pPQVJPSVF0Tk5CWU52YmZhUXFmcjVwUFFndHBB,English,,5,2014-12-13,Jace Elwyn,Not yet try it.,developer,,
Screen Notifications,Google Play,com.lukekorth.screennotifications,Z3A6QU9xcFRPRjVIUXVqbWVMbldpU3VGQnd0QmNyMVc4cGg0X21CLVZ4cTZQeXNySmdlV1h6cmlSU3U5MzVnQVhPYU1PVUZNeVB0dHBvb2hDT3pPRFBqT2NB,English,,4,2014-12-10,Darrien Glasser,Almost perfect,i just wish the notification choosing service wa based off of a blacklist instead of a,,
Screen Notifications,Google Play,com.lukekorth.screennotifications,Z3A6QU9xcFRPRkEyS1NvLXhLY1FpV08wVVdoMVBzOV9QZ2M1cjd1NUdBelRWOVZuSmJubWx3V053ZTVHdWVtc2RJcVBHUHZCZlBvM2xlTG50aDd4djc0WUJZ,English,,1,2014-12-10,Lokesh Babu,Not working,screen not lighting for call,,
Screen Notifications,Google Play,com.lukekorth.screennotifications,Z3A6QU9xcFRPR3VFanBkYnl3QlhyVEd3TVlna0k3NnBBSF9HUENmTzZlaHoyTDNNWkJfbjhuWVU1RUZHTEFyUHJBbnk0Z0NXSVlWV1haVVo3a0h1Qnl3bFFz,English,,5,2014-12-09,Jana Protić,Great app,i am pleased with the way been for some time with this issue,,
Screen Notifications,Google Play,com.lukekorth.screennotifications,Z3A6QU9xcFRPR3VFanBkYnl3QlhyVEd3TVlna0k3NnBBSF9HUENmTzZlaHoyTDNNWkJfbjhuWVU1RUZHTEFyUHJBbnk0Z0NXSVlWV1haVVo3a0h1Qnl3bFFz,English,,5,2014-12-09,Jana Protić,Great app,i wa just wondering there is a way to make notification light for example every 5,,
Screen Notifications,Google Play,com.lukekorth.screennotifications,Z3A6QU9xcFRPRUQ4eXBzZ0Q1UmJIU3NSUVBnZEtrRmp5RUs4X3ViNjRxUGFfUXZpUXc1SUU5d3hwd3FaZ3MxVVJNeGZvNzhFSEpvU2ZEOGlraUlDUnhFRXRZ,English,,5,2014-12-07,Sam 2,,great,,
Screen Notifications,Google Play,com.lukekorth.screennotifications,Z3A6QU9xcFRPRUQ4eXBzZ0Q1UmJIU3NSUVBnZEtrRmp5RUs4X3ViNjRxUGFfUXZpUXc1SUU5d3hwd3FaZ3MxVVJNeGZvNzhFSEpvU2ZEOGlraUlDUnhFRXRZ,English,,5,2014-12-07,Sam 2,,i used it in 2,,
Screen Notifications,Google Play,com.lukekorth.screennotifications,Z3A6QU9xcFRPRUQ4eXBzZ0Q1UmJIU3NSUVBnZEtrRmp5RUs4X3ViNjRxUGFfUXZpUXc1SUU5d3hwd3FaZ3MxVVJNeGZvNzhFSEpvU2ZEOGlraUlDUnhFRXRZ,English,,5,2014-12-07,Sam 2,,doe the work,,
Screen Notifications,Google Play,com.lukekorth.screennotifications,Z3A6QU9xcFRPRUQ4eXBzZ0Q1UmJIU3NSUVBnZEtrRmp5RUs4X3ViNjRxUGFfUXZpUXc1SUU5d3hwd3FaZ3MxVVJNeGZvNzhFSEpvU2ZEOGlraUlDUnhFRXRZ,English,,5,2014-12-07,Sam 2,,recommended,,
Screen Notifications,Google Play,com.lukekorth.screennotifications,Z3A6QU9xcFRPSHpVWjhET2R4RDc3dzA2OEpSNlJxTHppc21GUG9kT2x2bjBhb3FNUEtBTXVTVG9UaVhzREFtQjg1S2VLQkEwTk9HU1dNbksxMW9YazRISXFR,English,,2,2014-12-05,Nelson C.,Needs improvements.,i do not want to set the wake length to anything longer 5 but to be able to read all of my notification in 5 second is impossible,,
Screen Notifications,Google Play,com.lukekorth.screennotifications,Z3A6QU9xcFRPSHpVWjhET2R4RDc3dzA2OEpSNlJxTHppc21GUG9kT2x2bjBhb3FNUEtBTXVTVG9UaVhzREFtQjg1S2VLQkEwTk9HU1dNbksxMW9YazRISXFR,English,,2,2014-12-05,Nelson C.,Needs improvements.,nexus 5 cataclysm lollipop,,
Screen Notifications,Google Play,com.lukekorth.screennotifications,Z3A6QU9xcFRPRmxaalFqRUxITU44Q25zaHNyTThGbjc3RzUya2JMT2MzeGJTR1dmU2h2c3AweDh5V0M5U1lKZ1cwOXc2MDVXN1FYbjZJVkxsOGowUFczZTc4,English,,5,2014-12-04,,Works as advertised,not a big fan of the ambient display on lollipop,,
Screen Notifications,Google Play,com.lukekorth.screennotifications,Z3A6QU9xcFRPRmxaalFqRUxITU44Q25zaHNyTThGbjc3RzUya2JMT2MzeGJTR1dmU2h2c3AweDh5V0M5U1lKZ1cwOXc2MDVXN1FYbjZJVkxsOGowUFczZTc4,English,,5,2014-12-04,,Works as advertised,found work perfectly,,
Screen Notifications,Google Play,com.lukekorth.screennotifications,Z3A6QU9xcFRPRjdTOGZkdV9UcDBSTHFLN0lRWHdIQ0hfUjdjV2djTXFxamJrX2NfbEpIMEUwZUNYaExsOWZmcTlBQ1ZWeHlaV0tWY0VxcGJ0TTVldFlyOUh3,English,,5,2014-12-04,Mufeed Al Nomani,U r awesome sir,it perfectly work perfect,,
Screen Notifications,Google Play,com.lukekorth.screennotifications,Z3A6QU9xcFRPRVBXajhreEI3a1Y3TUtxLVptUWJjeVNCYzA3NENRVVFyLUx0dWZTV3JOb3cxUG5UMnNmU202UFF6bWNnb0NUa0pfbjA2QXlORjc3RVJuUDlj,English,,5,2014-12-03,Shubhank Shukla,Perfect,it cud be better it could provide a fade effect after the timeout second,,
Screen Notifications,Google Play,com.lukekorth.screennotifications,Z3A6QU9xcFRPSE1udDcxaG9fOUdJQ3R4ZmtPTlEwdDJpYlN1Y1RfQ3JQV2QwVGJwS1A4Sm45LXpIV1pnT3JiZkQyZDBMN3NZU0RfSzhNYjVrU1FhNzRNelZN,English,,4,2014-12-03,Stephen Butler,New apps,i wonder this will automatically check new a installed or if i would have to check each new manually,,
Screen Notifications,Google Play,com.lukekorth.screennotifications,Z3A6QU9xcFRPRzVRUHVfQnhHdTNUbllkUGpsOUFSM25CRHZUWU9PUjRIMFJSWDNEN0FPLTNSRU5qZGpWYnFURmVTSTZmN25oZmlXcUxybFl3YS15ekJSSTFz,English,,5,2014-12-02,Israël legault,Work great!,do exactly what i want,,
Screen Notifications,Google Play,com.lukekorth.screennotifications,Z3A6QU9xcFRPRm93cDd2LVN5MjJ1UHNYdDA1Yk5HZGVTWlNLVTJwY0NiaDNLcjVVN09TSTRpcDlia01xbUhnZTQzUkhadkFYZW9jVC1ZSDFBUEkzcFVqU0lz,English,,2,2014-12-01,Philippe Batigne,Was good until recent update,force close choosing and no longer work,,
Screen Notifications,Google Play,com.lukekorth.screennotifications,Z3A6QU9xcFRPSDR4OUJIMGhKSHF1em82NVg0N2ExX1hwSm9ZVE0tSXk5S0tOR1V0M0RmX3hsMmUxT1ktMkZXWTB6U0RMbFVUNjYtNVJyRFRpT3RZeGlPZWdj,English,,5,2014-11-28,Ganesan Gr,Nice,i like this thanks for developer,,
Screen Notifications,Google Play,com.lukekorth.screennotifications,Z3A6QU9xcFRPRVhKbnNRUk5UOVhxb2RUV1VxTUVaeVlob2o2WnViZi03dFB3UlZjQ0YzWV9ya3Z4WVRaXy1ZOGdRU2lGVjNROWJkeThFWTdLb0g0ZXBTeGgw,English,,4,2014-11-26,Sufyan Bhatti,Almost perfect.,sent email to regarding design issue on lollipop on nexus well a screen timeout issue,,
Screen Notifications,Google Play,com.lukekorth.screennotifications,Z3A6QU9xcFRPRVhKbnNRUk5UOVhxb2RUV1VxTUVaeVlob2o2WnViZi03dFB3UlZjQ0YzWV9ya3Z4WVRaXy1ZOGdRU2lGVjNROWJkeThFWTdLb0g0ZXBTeGgw,English,,4,2014-11-26,Sufyan Bhatti,Almost perfect.,functionally it work perfectly though,,
Screen Notifications,Google Play,com.lukekorth.screennotifications,Z3A6QU9xcFRPRzR6LUV3R1U0YzZzeElOODI2bUlObkNjeWs2aU5GUFlyOXNZNWVSQ1ZRQ1k1dHdOYWJNbGNkZHJDd2pCcngyenJ1NXNEdzVnVkJNYllKY0VN,English,,4,2014-11-25,William Desborough,,message are visible at the lock screen,,
Screen Notifications,Google Play,com.lukekorth.screennotifications,Z3A6QU9xcFRPR1JfZ1VfVlE2UzFrQ0ZNSXJtRGVWTDNlOFc3OWtlQlR4WXE3a2k4Y2dpVENJWDNTQS1saW1MUFFIWEJPOFBRVEVnRG9Gbzg4ek1IaGJxRVVF,English,,5,2014-11-24,Saif Ulla Khan,,great,,
Screen Notifications,Google Play,com.lukekorth.screennotifications,Z3A6QU9xcFRPSFkyN2xQcWcxbGlLcUNTV29nV3BRVkJCbUlpU3FjdGtLMzdtY2dxWjUwQzRHTDVrdlFzSnpCU1czMXI2SzhoZUYxVEw0dzVOcWRudlJFYVBn,English,,4,2014-11-23,Hayley Krueger,,doe what it say it will,,
Screen Notifications,Google Play,com.lukekorth.screennotifications,Z3A6QU9xcFRPSFkyN2xQcWcxbGlLcUNTV29nV3BRVkJCbUlpU3FjdGtLMzdtY2dxWjUwQzRHTDVrdlFzSnpCU1czMXI2SzhoZUYxVEw0dzVOcWRudlJFYVBn,English,,4,2014-11-23,Hayley Krueger,,work well,,
Screen Notifications,Google Play,com.lukekorth.screennotifications,Z3A6QU9xcFRPSFkyN2xQcWcxbGlLcUNTV29nV3BRVkJCbUlpU3FjdGtLMzdtY2dxWjUwQzRHTDVrdlFzSnpCU1czMXI2SzhoZUYxVEw0dzVOcWRudlJFYVBn,English,,4,2014-11-23,Hayley Krueger,,i especially like the quiet hour future,,
Screen Notifications,Google Play,com.lukekorth.screennotifications,Z3A6QU9xcFRPRmpjNjdIYk8wTzMzLTdzcmRsYS1pN3I2eUFOUEFFNHVRNnZRZ0xhWkszZ1pVdWtWeDhZb3J4em1PV1lOeDkxXzVEQWxCMW1XZF9qa0dkTzBZ,English,,5,2014-11-22,José Fidel Castañeda,Perfect,doe exactly what it say,,
Screen Notifications,Google Play,com.lukekorth.screennotifications,Z3A6QU9xcFRPSEFibWpnRmVrbWtvYlhqQk5zaTNnZExsVG9sV05CaUpNR29TOWFadW1UNlE5dVNDd280MVU3NGJCNlFYNU1FWHd5WTByQkJka3NVUW1tVGQw,English,,5,2014-11-22,Erik Cave,,light and useful,,
Screen Notifications,Google Play,com.lukekorth.screennotifications,Z3A6QU9xcFRPR1FmTjFCdVhyR1VDanN2TEhScmE5ZnhfVjAyM2xKajJqOGZoVEF6eGwwZ1ExaUZUS214T2NLUGthTEZVd0pLcUJTOUF1bWU1aV9hVDRnSGZV,English,,5,2014-11-22,Chris Poulsen,Incredibly useful!,i really like this,,
Screen Notifications,Google Play,com.lukekorth.screennotifications,Z3A6QU9xcFRPR1FmTjFCdVhyR1VDanN2TEhScmE5ZnhfVjAyM2xKajJqOGZoVEF6eGwwZ1ExaUZUS214T2NLUGthTEZVd0pLcUJTOUF1bWU1aV9hVDRnSGZV,English,,5,2014-11-22,Chris Poulsen,Incredibly useful!,are there any plan to add a feature to wake the screen you pull the phone out of your pocket and there is a notification,,
Screen Notifications,Google Play,com.lukekorth.screennotifications,Z3A6QU9xcFRPR1FmTjFCdVhyR1VDanN2TEhScmE5ZnhfVjAyM2xKajJqOGZoVEF6eGwwZ1ExaUZUS214T2NLUGthTEZVd0pLcUJTOUF1bWU1aV9hVDRnSGZV,English,,5,2014-11-22,Chris Poulsen,Incredibly useful!,if let me know so i can donate and help keep the development process moving along,,
Screen Notifications,Google Play,com.lukekorth.screennotifications,Z3A6QU9xcFRPSE5uOUpYQ3ZycEVXamozWUkwNDhuaXB3djB6WDNKRGI0a0hFLUExb0dCeVZWQy1MZGFiUmY4aTZ5N1otY2J2amdJeGhMbjlZeGtzdVZPdlhZ,English,,4,2014-11-21,Henlee W.,,simple and effective,,
Screen Notifications,Google Play,com.lukekorth.screennotifications,Z3A6QU9xcFRPRThTN015YlZoZW5oSlFfMzk5eVMzemlmbnVUVEd0U2s4anl4cFhFT0lmNTVWT2lXckJkbmM3WG5wLUdTOUx2MWEtcmI5WmR4QkJzdmxZZjEw,English,,5,2014-11-21,Chris Whiting,,suggestion use notification listener instead of accessibility service for newer android version,,
Screen Notifications,Google Play,com.lukekorth.screennotifications,Z3A6QU9xcFRPRWV5Qk5tUS1UY1hHS1lfRW9KcG5qOUdRN1A4ckY4UzMxOFI1REJnN3piRUVJVktpdjgwaE9TenVCSFFweFR1M0wydGoyWC13TzRYekJ3VEg0,English,,5,2014-11-20,Mark Moroney,Great!,donated,,
