App,Store,App ID,Review ID,Country,Version,Rating,Date,Author,Subject,Body,Translated Subject,Translated Body
Screen Notifications,Google Play,com.lukekorth.screennotifications,Z3A6QU9xcFRPR3BHdXZUZGN4VnVJZVl4dk9NcGdUVy00S2xwTTE4dDNxZEN3M0hQZkVGZXdkRVZqV1RHVmszZHUxRGxqQzZ2Vnc0TE1pMWpZTGp0dHNrNUVV,English,,1,2016-03-15,Matthew,,it work quite but my display turn on for process are happening in the background too,,
Screen Notifications,Google Play,com.lukekorth.screennotifications,Z3A6QU9xcFRPR3BHdXZUZGN4VnVJZVl4dk9NcGdUVy00S2xwTTE4dDNxZEN3M0hQZkVGZXdkRVZqV1RHVmszZHUxRGxqQzZ2Vnc0TE1pMWpZTGp0dHNrNUVV,English,,1,2016-03-15,Matthew,,did all my other go,,
Screen Notifications,Google Play,com.lukekorth.screennotifications,Z3A6QU9xcFRPRmNOVl84NTBjSE1LOEdTQU84LTgxVU1VeEtSSThEUnN5WGVaa0tSUzZlb3lIdFVuS24ydzZmeEFFT3JmOEtOc2k0dDVlTHMzQWkwSVY4Q3Bj,English,,3,2016-03-14,Ashley Patel,Keeps turning itself off,very annoying,,
Screen Notifications,Google Play,com.lukekorth.screennotifications,Z3A6QU9xcFRPR2VQZGhHZGotdDdMMUF4LU5sYVdyZEZuenlvNGpPTUtYeXd0SXR5V1VYZ3NsQ0FFNGJLRk9yZEFnbk5ZTzduY3Bza1dXOEJZQzRMRVFhSElv,English,,2,2016-03-14,Neal Stidham,Breaks fingerprint lock,please fix,,
Screen Notifications,Google Play,com.lukekorth.screennotifications,Z3A6QU9xcFRPR1ZSWFlrMnZHcmNrSnN3VWtaU1ZYSUpSNVZHOW4tRDhLdW9tOTBYa3NnMzF4alk3UXRYd0xGODZmX1FDV0tjZ2ZOVzB1Szg2SHRDOG5CYUNv,English,,3,2016-03-13,mouni samanthapudi,,wake up screen automatically by taking out off pocket new notification arrives,,
Screen Notifications,Google Play,com.lukekorth.screennotifications,Z3A6QU9xcFRPSGxPWG1Eb3U4ZHVXaFBRVkUxT0xHOHFPN3NOZURsYmZZcUFuYm5PY0d4WDc4bXl0ZXRzWm5CZ0hicXNnaTFKNjVma2tzMG5zOXAwR2JybjBV,English,,5,2016-03-13,Marcus Hallam,Simple and effective,simple and effective,,
Screen Notifications,Google Play,com.lukekorth.screennotifications,Z3A6QU9xcFRPSGxPWG1Eb3U4ZHVXaFBRVkUxT0xHOHFPN3NOZURsYmZZcUFuYm5PY0d4WDc4bXl0ZXRzWm5CZ0hicXNnaTFKNjVma2tzMG5zOXAwR2JybjBV,English,,5,2016-03-13,Marcus Hallam,Simple and effective,just how it should be,,
Screen Notifications,Google Play,com.lukekorth.screennotifications,Z3A6QU9xcFRPSGxPWG1Eb3U4ZHVXaFBRVkUxT0xHOHFPN3NOZURsYmZZcUFuYm5PY0d4WDc4bXl0ZXRzWm5CZ0hicXNnaTFKNjVma2tzMG5zOXAwR2JybjBV,English,,5,2016-03-13,Marcus Hallam,Simple and effective,great,,
Screen Notifications,Google Play,com.lukekorth.screennotifications,Z3A6QU9xcFRPRUVoS0RnYUtld3F1SGJLX0s4S0daM1k0eVJXMk45SGVsdmN4c3k5M25kSm83aXZld0JoUkU4SXJhUmVQR0FXS3JsXzRwMjktdFVqRnNsNGVZ,English,,5,2016-03-12,Marcelo Manzotti,,work flawlessly on note 5,,
Screen Notifications,Google Play,com.lukekorth.screennotifications,Z3A6QU9xcFRPRUVoS0RnYUtld3F1SGJLX0s4S0daM1k0eVJXMk45SGVsdmN4c3k5M25kSm83aXZld0JoUkU4SXJhUmVQR0FXS3JsXzRwMjktdFVqRnNsNGVZ,English,,5,2016-03-12,Marcelo Manzotti,,excellent,,
Screen Notifications,Google Play,com.lukekorth.screennotifications,Z3A6QU9xcFRPR2xoclVVal9uMUNITVdnelp3Z0d1ZmthdEdEeTJoVElHSEhzb1R0TDdZTi12UE5MTlprX253WDMtaWU3SFdMM091WnlkMjR5bG9FUnNKODFv,English,,3,2016-03-11,Jon Bradley,,cause an issue with the fingerprint sensor,,
Screen Notifications,Google Play,com.lukekorth.screennotifications,Z3A6QU9xcFRPR2xoclVVal9uMUNITVdnelp3Z0d1ZmthdEdEeTJoVElHSEhzb1R0TDdZTi12UE5MTlprX253WDMtaWU3SFdMM091WnlkMjR5bG9FUnNKODFv,English,,3,2016-03-11,Jon Bradley,,tracked the issue down to this,,
Screen Notifications,Google Play,com.lukekorth.screennotifications,Z3A6QU9xcFRPR2xoclVVal9uMUNITVdnelp3Z0d1ZmthdEdEeTJoVElHSEhzb1R0TDdZTi12UE5MTlprX253WDMtaWU3SFdMM091WnlkMjR5bG9FUnNKODFv,English,,3,2016-03-11,Jon Bradley,,take a look at the bug a i love to use it,,
Screen Notifications,Google Play,com.lukekorth.screennotifications,Z3A6QU9xcFRPR1RYYl9HV2QtUWlwYm4xXzYyeUxWQmxCZGZGYU5HQjFITmh3dnVsNWZLXzJhYjBCS19FN0dtR1Fvd1JwTnczUXRxbWZaSlBlcUpjRmJWTmhz,English,,5,2016-03-09,Bill Huttinger,,perfect,,
Screen Notifications,Google Play,com.lukekorth.screennotifications,Z3A6QU9xcFRPR2ZpMC04SEhXSlZuN3huUUlqdnUxSVAxbzlSZGwzZWs2MV9qLW95cnFmcExKMlloN3ZSU3BSZlp6V2RuaktPWTA4WlBKc0VTZElwV2l1ek5n,English,,2,2016-03-09,Raven Bonine,,i used to have this on my and i totally loved it but i just changed to the note 5 and it say i have no notification,,
Screen Notifications,Google Play,com.lukekorth.screennotifications,Z3A6QU9xcFRPR2ZpMC04SEhXSlZuN3huUUlqdnUxSVAxbzlSZGwzZWs2MV9qLW95cnFmcExKMlloN3ZSU3BSZlp6V2RuaktPWTA4WlBKc0VTZElwV2l1ek5n,English,,2,2016-03-09,Raven Bonine,,i really wish this would work on my phone,,
Screen Notifications,Google Play,com.lukekorth.screennotifications,Z3A6QU9xcFRPSHBmZExBTkZQVFRrTko0Y0kxcU5wQldqdWlqQVVfeVZNSHI0eTVXUmJEOFQ3N0l2SGZwUndtVmhlUVJXZWRPdk5jUkEycWZ3UVdVVVNtX2RR,English,,4,2016-03-06,Mohamed Raafat,Used to work great until I installed light flow,after installing light flow the screen just turning on and off please fix,,
Screen Notifications,Google Play,com.lukekorth.screennotifications,Z3A6QU9xcFRPRWY1YkpUQzRsT1NaTWF1YTJvWmNNZTh2M09zV1QwSENDS2lRdklSY29rME9DZ01LdlZjMS01WTIzbFEwYXdlUDItZEZReDdGY0F0ZFpBUWlz,English,,5,2016-03-03,Erich Carsten,,seems to work far on lg,,
Screen Notifications,Google Play,com.lukekorth.screennotifications,Z3A6QU9xcFRPRWh2LWxjM2RXcGY5alBJVFdrb1FpbVdUN1FWTm9YSlUtYU9MWGdsUksyLXNuLWpTSkQ1MjFERG5UQjZmV1dieFNnUktLWTNQM1gzQ3VZVDhV,English,,5,2016-03-03,Fadil fadil,The best,just what i,,
Screen Notifications,Google Play,com.lukekorth.screennotifications,Z3A6QU9xcFRPRXVtTmhZWktPMFZtYVQyN256ZjlCcUhTNm1aMmQxTHk1SGNzTVVnUzZ0VzFLS0Jzc0JYM09hcUxFYnFUemd5YjE2SWhld29yLUtuMW94SkFj,English,,5,2016-02-29,Kenji Tasaka,Does exactly what I need it to do,the ambient display feature on the nexus 6 is terrible and no one should use it,,
Screen Notifications,Google Play,com.lukekorth.screennotifications,Z3A6QU9xcFRPRXVtTmhZWktPMFZtYVQyN256ZjlCcUhTNm1aMmQxTHk1SGNzTVVnUzZ0VzFLS0Jzc0JYM09hcUxFYnFUemd5YjE2SWhld29yLUtuMW94SkFj,English,,5,2016-02-29,Kenji Tasaka,Does exactly what I need it to do,i searched all over for many and finally came to this one,,
Screen Notifications,Google Play,com.lukekorth.screennotifications,Z3A6QU9xcFRPRXVtTmhZWktPMFZtYVQyN256ZjlCcUhTNm1aMmQxTHk1SGNzTVVnUzZ0VzFLS0Jzc0JYM09hcUxFYnFUemd5YjE2SWhld29yLUtuMW94SkFj,English,,5,2016-02-29,Kenji Tasaka,Does exactly what I need it to do,i wanted something would wake my screen on notification without modifying it in any way like many other lock screen do,,
Screen Notifications,Google Play,com.lukekorth.screennotifications,Z3A6QU9xcFRPRXVtTmhZWktPMFZtYVQyN256ZjlCcUhTNm1aMmQxTHk1SGNzTVVnUzZ0VzFLS0Jzc0JYM09hcUxFYnFUemd5YjE2SWhld29yLUtuMW94SkFj,English,,5,2016-02-29,Kenji Tasaka,Does exactly what I need it to do,this doe exactly that,,
Screen Notifications,Google Play,com.lukekorth.screennotifications,Z3A6QU9xcFRPRXVtTmhZWktPMFZtYVQyN256ZjlCcUhTNm1aMmQxTHk1SGNzTVVnUzZ0VzFLS0Jzc0JYM09hcUxFYnFUemd5YjE2SWhld29yLUtuMW94SkFj,English,,5,2016-02-29,Kenji Tasaka,Does exactly what I need it to do,it allows me to retain the stock nexus lock screen and get wake on notification back,,
Screen Notifications,Google Play,com.lukekorth.screennotifications,Z3A6QU9xcFRPRXc4eUlQUFU4Mm1OQk40SnpsMXc4MkJEblZjWDFJWk1Nd3ozTnJDakJiaGVyRG5QU2MwRXBUNEY0b2FtWkZ5T21iRWJmUXNnSXJmU25xWW9J,English,,2,2016-02-22,Drew Lankford,Finger print reader no longer unlocks Nexus 6,it requires me to unlock with my pin 9 time out of 10,,
Screen Notifications,Google Play,com.lukekorth.screennotifications,Z3A6QU9xcFRPRXc4eUlQUFU4Mm1OQk40SnpsMXc4MkJEblZjWDFJWk1Nd3ozTnJDakJiaGVyRG5QU2MwRXBUNEY0b2FtWkZ5T21iRWJmUXNnSXJmU25xWW9J,English,,2,2016-02-22,Drew Lankford,Finger print reader no longer unlocks Nexus 6,this it would easily be a 5 star,,
Screen Notifications,Google Play,com.lukekorth.screennotifications,Z3A6QU9xcFRPRVF6Sm02M0FVdVB2NmZrS2FQa250VVF3WHNiWnUxamNKcW9UVnMzMmJGVUVUUlpnam1KanJYdjk4djZrMkNhRGt6ajlEdnh0cmZic2xOYmdB,English,,5,2016-02-22,Alban Zeqiraj,,perfect,,
Screen Notifications,Google Play,com.lukekorth.screennotifications,Z3A6QU9xcFRPRXVxV0J0RzRiTjZUb04wbFBZRnNpUHRTOUF6UTF2X0o5TVF2UzZwdVVPNnVxN0tFTF9zUWgxWl92NF8teWlCV21hNG56b29McEpkTERrcHpN,English,,5,2016-02-17,Tyler Kinch,A must coming from IPhone,this is something bothered me a lot coming from,,
Screen Notifications,Google Play,com.lukekorth.screennotifications,Z3A6QU9xcFRPRXVxV0J0RzRiTjZUb04wbFBZRnNpUHRTOUF6UTF2X0o5TVF2UzZwdVVPNnVxN0tFTF9zUWgxWl92NF8teWlCV21hNG56b29McEpkTERrcHpN,English,,5,2016-02-17,Tyler Kinch,A must coming from IPhone,now i can enjoy such a small feature on a much better phone,,
Screen Notifications,Google Play,com.lukekorth.screennotifications,Z3A6QU9xcFRPRXVxV0J0RzRiTjZUb04wbFBZRnNpUHRTOUF6UTF2X0o5TVF2UzZwdVVPNnVxN0tFTF9zUWgxWl92NF8teWlCV21hNG56b29McEpkTERrcHpN,English,,5,2016-02-17,Tyler Kinch,A must coming from IPhone,thank you much,,
Screen Notifications,Google Play,com.lukekorth.screennotifications,Z3A6QU9xcFRPR1pfV2RFa1VROGlJc3RVM1dTbWVjWmNZTTV5eDd4LTlITUFzX084eThEd0xKM3Q3bHZVNFlDWEplWEJFeGE1blNXQTkweEwwMlAyZWwwUDY0,English,,5,2016-02-17,Steve Melrose,Excellent,doe exactly what it say,,
Screen Notifications,Google Play,com.lukekorth.screennotifications,Z3A6QU9xcFRPR1pfV2RFa1VROGlJc3RVM1dTbWVjWmNZTTV5eDd4LTlITUFzX084eThEd0xKM3Q3bHZVNFlDWEplWEJFeGE1blNXQTkweEwwMlAyZWwwUDY0,English,,5,2016-02-17,Steve Melrose,Excellent,perfect,,
Screen Notifications,Google Play,com.lukekorth.screennotifications,Z3A6QU9xcFRPRnpoMXc2enVYWHlhc1pYa3dsVVcyOC1LUTVMUkU5SXZKYzFOSm9KNHJCb0RDSkhTOU5XVlQteUtJV3dERTlycWxmQm9EY21Gcm1wYTBFRElB,English,,4,2016-02-10,JL W,,i just wish it had a reminder option,,
Screen Notifications,Google Play,com.lukekorth.screennotifications,Z3A6QU9xcFRPRnpoMXc2enVYWHlhc1pYa3dsVVcyOC1LUTVMUkU5SXZKYzFOSm9KNHJCb0RDSkhTOU5XVlQteUtJV3dERTlycWxmQm9EY21Gcm1wYTBFRElB,English,,4,2016-02-10,JL W,,if i miss it the first time i can set it to go off again every minute or five minute,,
Screen Notifications,Google Play,com.lukekorth.screennotifications,Z3A6QU9xcFRPRnpoMXc2enVYWHlhc1pYa3dsVVcyOC1LUTVMUkU5SXZKYzFOSm9KNHJCb0RDSkhTOU5XVlQteUtJV3dERTlycWxmQm9EY21Gcm1wYTBFRElB,English,,4,2016-02-10,JL W,,something like that,,
Screen Notifications,Google Play,com.lukekorth.screennotifications,Z3A6QU9xcFRPR2huSzBiMV9rQ3ZQc05ndFlINGZxNWxrTDdRM2RCRTlKWmc5Y092Vk42dGZ2SXBXbUw4ZVZGUllXX2pxUWNPRTVIMHNvSUI2ZW5lajVyUDNv,English,,1,2016-02-08,Dana Foulkea,,stopped working,,
Screen Notifications,Google Play,com.lukekorth.screennotifications,Z3A6QU9xcFRPR0I3M3FDU1JvaFloWVBEZHN1OEo0cTNsb0ZMTkFfZVVqdUoxRGJlcFQyUW9TVlZoNlk3UnhPOUY3dFlDV3BBNHhKUmUyQXRfZTdPMXdHU0pj,English,,1,2016-02-08,Goh Jun Shen,,how to,,
Screen Notifications,Google Play,com.lukekorth.screennotifications,Z3A6QU9xcFRPRkJYSUlUN1NlYXJ6QVh5X2JqRWpnUTNPYVpfNXhYcEJvbl9vMnJhM3p5cnZTVVcyLVhvdkJwR2ZhczUzVTJYdWo2TElyU3JCMThIcGdRQ2hn,English,,5,2016-02-03,Curtis Cupples,Awesome!,thanks,,
Screen Notifications,Google Play,com.lukekorth.screennotifications,Z3A6QU9xcFRPRjR0akhoQXMxdlJMYmExZnd6X3dUSmVoV19Yc3dwYklaTXp1WmdJWXh6dFVKbVZ1TUxlVWlDRmYxejQ5NllnSzBFX0pEdndqeUtRSWRnaWdz,English,,4,2016-02-02,Cliff Homan,,is it possible to add an enhancement the screen will come back on with persistent notification a well,,
Screen Notifications,Google Play,com.lukekorth.screennotifications,Z3A6QU9xcFRPR1ZMbnVhcllwZzgxd2hscXlzZ041a0dvQ3JhNm5qcEFoN1N1YUZjUVFhU2R5b2VwcnI5MU5mZXBzVFFlX1FNajROcjNSX2p2YjRBblcwWW5n,English,,4,2016-02-02,Adorjan Benke,,hi,,
Screen Notifications,Google Play,com.lukekorth.screennotifications,Z3A6QU9xcFRPR1ZMbnVhcllwZzgxd2hscXlzZ041a0dvQ3JhNm5qcEFoN1N1YUZjUVFhU2R5b2VwcnI5MU5mZXBzVFFlX1FNajROcjNSX2p2YjRBblcwWW5n,English,,4,2016-02-02,Adorjan Benke,,so the screen it matter if i touch or it still gonna go back to black after x and would be really nice if it wake up and i touch the screen or start interacting it would stay awake until i make it go to sleep or until the timer make it sleep automatically,,
Screen Notifications,Google Play,com.lukekorth.screennotifications,Z3A6QU9xcFRPR1ZMbnVhcllwZzgxd2hscXlzZ041a0dvQ3JhNm5qcEFoN1N1YUZjUVFhU2R5b2VwcnI5MU5mZXBzVFFlX1FNajROcjNSX2p2YjRBblcwWW5n,English,,4,2016-02-02,Adorjan Benke,,apart from it a must really it,,
Screen Notifications,Google Play,com.lukekorth.screennotifications,Z3A6QU9xcFRPRmN2Z1NTU0Izc0lSSGNZX0l5cWFEUHJVcUVnTVY5QU1FQlVRS28tT1EzeUU2MURlQzBJdHI0YjJpZ3g0YW5SRGxwTDhqdGVjUmZuRHRkWDlz,English,,5,2016-01-30,Raj Vernekar,Loved the new notification simplification,great job developer,,
Screen Notifications,Google Play,com.lukekorth.screennotifications,Z3A6QU9xcFRPRmN2Z1NTU0Izc0lSSGNZX0l5cWFEUHJVcUVnTVY5QU1FQlVRS28tT1EzeUU2MURlQzBJdHI0YjJpZ3g0YW5SRGxwTDhqdGVjUmZuRHRkWDlz,English,,5,2016-01-30,Raj Vernekar,Loved the new notification simplification,the new version is cool,,
Screen Notifications,Google Play,com.lukekorth.screennotifications,Z3A6QU9xcFRPRnJibHYwYkVkNDNCQ3ljekN0T2ZDdHRmbVJiYlg3MkVFd2dSby1Wb2hDQWllZUozZGgxVVV3d3N5b0FXak4wR284ZDFDdnNxS1R6czFORkw4,English,,5,2016-01-29,Bernard Kwek,Very useful app.,coming an,,
Screen Notifications,Google Play,com.lukekorth.screennotifications,Z3A6QU9xcFRPRnJibHYwYkVkNDNCQ3ljekN0T2ZDdHRmbVJiYlg3MkVFd2dSby1Wb2hDQWllZUozZGgxVVV3d3N5b0FXak4wR284ZDFDdnNxS1R6czFORkw4,English,,5,2016-01-29,Bernard Kwek,Very useful app.,this is a must have to me,,
Screen Notifications,Google Play,com.lukekorth.screennotifications,Z3A6QU9xcFRPRnJibHYwYkVkNDNCQ3ljekN0T2ZDdHRmbVJiYlg3MkVFd2dSby1Wb2hDQWllZUozZGgxVVV3d3N5b0FXak4wR284ZDFDdnNxS1R6czFORkw4,English,,5,2016-01-29,Bernard Kwek,Very useful app.,one of the first i downloaded and one i cant live without,,
Screen Notifications,Google Play,com.lukekorth.screennotifications,Z3A6QU9xcFRPSHIxa3pnRmFrTDdic1hESkRZdlp4dzA0ZF9pSlZQREdueVVUNk1PUzJhQktxQ2VWZ2F6RzNDZThGRksxMUpFTGhGSEFuZkZiUDdVVGxjbklr,English,,5,2016-01-29,Denny Pettibone,Great,doe what it say it will,,
Screen Notifications,Google Play,com.lukekorth.screennotifications,Z3A6QU9xcFRPSHIxa3pnRmFrTDdic1hESkRZdlp4dzA0ZF9pSlZQREdueVVUNk1PUzJhQktxQ2VWZ2F6RzNDZThGRksxMUpFTGhGSEFuZkZiUDdVVGxjbklr,English,,5,2016-01-29,Denny Pettibone,Great,this is simple and work,,
Screen Notifications,Google Play,com.lukekorth.screennotifications,Z3A6QU9xcFRPRUlwWDhYYzBldGU0czVQc0xRemhuVFE1ZnVMQXJFTmNJV3VHZXpDTUtQcDJxUkphTDk5TVNFb21wVTc5bUlHSVpQNERNUjFLbWQzUE5ybE40,English,,5,2016-01-29,Maeve Kirby,Perfect,just what i needed,,
Screen Notifications,Google Play,com.lukekorth.screennotifications,Z3A6QU9xcFRPRUlwWDhYYzBldGU0czVQc0xRemhuVFE1ZnVMQXJFTmNJV3VHZXpDTUtQcDJxUkphTDk5TVNFb21wVTc5bUlHSVpQNERNUjFLbWQzUE5ybE40,English,,5,2016-01-29,Maeve Kirby,Perfect,2 is dumb forgot to add screen wake to their,,
Screen Notifications,Google Play,com.lukekorth.screennotifications,Z3A6QU9xcFRPRUlwWDhYYzBldGU0czVQc0xRemhuVFE1ZnVMQXJFTmNJV3VHZXpDTUtQcDJxUkphTDk5TVNFb21wVTc5bUlHSVpQNERNUjFLbWQzUE5ybE40,English,,5,2016-01-29,Maeve Kirby,Perfect,this wake my screen up i receive notification without any 3rd party lock screen and i can use my finger print lock screen,,
