Topic,Words
0,0.035*hard,0.033*however,0.032*get,0.028*is,0.027*other,0.025*its,0.023*has,0.021*drop,0.020*auto,0.019*would
1,0.044*experiment,0.035*reply,0.029*stayed,0.026*stars,0.023*extremely,0.023*took,0.022*useful,0.022*are,0.022*not,0.021*than
2,0.040*up,0.031*it,0.026*screen,0.025*solves,0.021*notifications,0.019*device,0.019*pairs,0.017*those,0.016*i,0.016*me
3,0.033*why,0.030*get,0.028*searching,0.028*place,0.027*failed,0.027*killer,0.026*thank,0.025*my,0.025*be,0.024*what
4,0.033*it,0.032*place,0.031*get,0.025*fly,0.023*if,0.023*defaults,0.022*timeout,0.021*good,0.021*sure,0.021*may
5,0.032*need,0.032*display,0.031*nicely,0.029*locked,0.026*to,0.023*sensor,0.022*you,0.021*just,0.020*extremely,0.020*find
6,0.041*itself,0.041*nicely,0.023*of,0.022*them,0.022*this,0.021*battery,0.021*extremely,0.021*independent,0.021*useful,0.020*two
7,0.029*searching,0.023*pairs,0.020*every,0.019*up,0.019*i,0.019*other,0.018*5,0.018*is,0.018*the,0.018*time
8,0.040*screen,0.037*for,0.035*two,0.028*stayed,0.024*who,0.024*and,0.023*android,0.022*into,0.021*menu,0.020*brightness
9,0.034*setting,0.031*but,0.028*of,0.027*much,0.026*use,0.024*news,0.023*cookie,0.021*locked,0.021*if,0.020*display
10,0.036*took,0.035*hard,0.029*extremely,0.029*it,0.028*stayed,0.027*quite,0.024*every,0.023*sensor,0.022*be,0.020*tablet
11,0.063*of,0.038*sure,0.037*thank,0.032*other,0.030*good,0.029*what,0.025*annoying,0.023*with,0.023*works,0.022*killer
12,0.050*change,0.029*if,0.026*been,0.026*though,0.023*you,0.022*by,0.019*them,0.019*hard,0.019*but,0.018*with
13,0.045*thank,0.042*epic,0.041*life,0.031*those,0.026*what,0.023*who,0.022*then,0.021*many,0.021*want,0.020*when
14,0.032*those,0.032*the,0.032*independent,0.027*other,0.024*my,0.024*set,0.022*searching,0.022*find,0.021*back,0.020*opening
15,0.032*useful,0.031*an,0.031*then,0.030*find,0.030*i,0.029*device,0.024*wake,0.023*options,0.022*good,0.020*me
16,0.049*can,0.045*reply,0.033*nicely,0.029*annoying,0.028*not,0.026*it,0.025*two,0.024*for,0.024*set,0.020*turned
17,0.046*change,0.037*failed,0.032*notification,0.031*every,0.030*solves,0.026*shorter,0.024*letting,0.023*better,0.023*need,0.023*is
18,0.045*normal,0.039*built,0.038*other,0.036*setting,0.025*two,0.024*annoying,0.023*nicely,0.021*then,0.021*yet,0.021*place
19,0.028*menu,0.028*with,0.026*some,0.024*timeout,0.022*there,0.022*much,0.022*epic,0.021*has,0.021*tablet,0.021*jar
