Topic Index 1,Topic Index 2,Topic Similarity
1,4,11.11111111111111
6,12,11.11111111111111
11,13,11.11111111111111
16,15,11.11111111111111
3,1,5.263157894736842
4,0,5.263157894736842
5,9,5.263157894736842
7,2,5.263157894736842
8,8,5.263157894736842
9,10,5.263157894736842
10,19,5.263157894736842
12,14,5.263157894736842
13,16,5.263157894736842
17,17,5.263157894736842
18,18,5.263157894736842
0,3,0.0
2,5,0.0
14,6,0.0
15,7,0.0
19,11,0.0
