fixed test updated to latest run test against android 44,1.3.10,2013/12/27,,
the default send intent should include the extra text there is not guarantee it doe,1.3.10,2013/12/27,,
updated my email address,1.3.13,2015/3/12,,
fixed gradient in icon,1.3.13,2014/11/05,,
added feature icon for the play store,1.3.13,2014/11/05,,
required update to 36,1.3.2,2013/2/15,,
test take care to reset the input field on each test,1.3.2,2013/2/15,,
this fix new lint warning and improves security,1.3.2,2013/2/15,,
prevents automatic with possibly sensitive data being displayed in recent menu,1.3.2,2012/11/07,,
fixed deprecation message in test,1.3.2,2012/9/18,,
this make the usable even the screen is too small for the complete dialog,1.3.2,2012/7/09,,
if the copy button is used it is more likely that the user will enter a new address loading the next time,1.3.2,2012/7/09,,
enable on,1.3.2,2012/7/08,,
some history fix use default android layout for list fixed saving duplicate entry perform database update in the background,1.3.2,2012/7/08,,
the previously used domain name are stored and presented to the user auto suggestion,1.3.2,2012/7/08,,
some cleanup for the previous merges,1.3.2,2012/7/08,,
package structure,1.3.2,2012/3/21,,
more lint optimization added icon fixed small performance fix by using instead of new integer,1.3.2,2012/7/08,,
also fixed button not being disabled initially,1.3.2,2012/6/13,,
some string cleanup,1.3.2,2012/6/07,,
project configuration change introduced in 140,1.3.2,2012/5/18,,
android lint fix,1.3.2,2012/3/16,,
fixed license text,1.3.2,2011/7/01,,
limit max,1.3.2,2011/2/08,,
galaxy tab,1.3.2,2011/2/08,,
update password hash on text change and get rid of the generate button,1.3.2,2010/12/12,,
implemented some quirk handling character,1.3.2,2010/12/12,,
handle send event for,1.3.2,2010/12/10,,
display toast notification password wa copied to the clipboard,1.3.2,2010/12/09,,
somewhat working password hash implementation,1.3.2,2010/12/09,,
still ha problem with character and very short input password,1.3.2,2010/12/09,,
changed to dialog layout added resolution dependent icon,1.3.2,2010/12/08,,
added a simple icon,1.3.2,2010/12/08,,
basic implementation of password hashing,1.3.2,2010/12/08,,
update to 22 fixed a couple of lint warning in test project,1.3.3,2013/5/16,,
changed contact email,1.3.3,2013/4/27,,
increased version number,1.3.5,2013/6/07,,
update and bump version,1.3.6,2013/7/24,,
fix screen distortion on some device running android 23,1.3.6,2013/7/24,,
this reverts a previous security fix for the affected device,1.3.6,2013/7/24,,
but a this affect older device and is an acceptable compromise,1.3.6,2013/7/24,,
small translation fix,1.3.6,2013/6/30,,
fixed date in,1.3.7,2013/8/07,,
fixed possible null pointer exception,1.3.8.1,2013/9/12,,
fixed possible null pointer exception,1.3.8.1,2013/9/09,,
fix issue 6,1.3.8.1,2013/9/09,,
minor code simplification,1.3.9,2013/9/13,,
