Topic Index 1,Topic Index 2,Topic Similarity
3,13,25.0
10,15,25.0
1,2,17.647058823529413
6,0,17.647058823529413
8,7,17.647058823529413
13,11,17.647058823529413
18,19,17.647058823529413
2,4,11.11111111111111
5,8,11.11111111111111
7,18,11.11111111111111
9,10,11.11111111111111
12,1,11.11111111111111
14,12,11.11111111111111
15,14,11.11111111111111
19,16,11.11111111111111
0,3,5.263157894736842
4,6,5.263157894736842
11,5,0.0
16,9,0.0
17,17,0.0
