add and polish translation,f,2014/9/09,,
fix typo,b,2014/8/21,,
update and version to 191,b,2014/8/20,,
clean up useless value folder add translation clean up code style in code,f,2014/8/20,,
git clone recursive,o,2014/8/20,,
update import instruction,f,2014/8/20,,
add eclipse project for quick importing with,b,2014/8/20,,
