Topic Index 1,Topic Index 2,Topic Similarity
1,0,17.647058823529413
4,11,17.647058823529413
5,16,17.647058823529413
0,3,11.11111111111111
3,12,11.11111111111111
8,9,11.11111111111111
9,13,11.11111111111111
11,17,11.11111111111111
2,8,5.263157894736842
6,1,5.263157894736842
7,5,5.263157894736842
10,6,5.263157894736842
12,18,5.263157894736842
16,19,5.263157894736842
13,2,0.0
14,4,0.0
15,7,0.0
17,10,0.0
18,14,0.0
19,15,0.0
