Topic,Words
0,0.033*thanks,0.021*the,0.019*gladly,0.019*add,0.018*how,0.017*to,0.017*base,0.016*cant,0.015*other,0.014*by
1,0.021*it's,0.021*loving,0.020*touch,0.018*create,0.017*able,0.017*input,0.016*finally,0.016*once,0.016*perhaps,0.015*helpful
2,0.019*installed,0.018*i,0.018*amazing,0.014*nice,0.014*others,0.013*problem,0.013*etc,0.013*simplicity,0.012*or,0.012*why
3,0.032*color,0.025*for,0.023*month,0.022*nice,0.018*envelopes,0.017*question,0.017*were,0.017*skyrocket,0.016*amount,0.015*to
4,0.033*also,0.020*updates,0.018*was,0.017*etc,0.017*you,0.016*paycheck,0.016*twice,0.015*so,0.015*help,0.014*very
5,0.024*been,0.023*don't,0.022*tried,0.020*close,0.019*need,0.017*special,0.017*am,0.014*minimalist,0.014*spend,0.014*other
6,0.023*updates,0.020*urgently,0.020*order,0.019*button,0.018*galaxy,0.017*twice,0.016*account,0.015*would,0.015*spend,0.014*because
7,0.027*help,0.020*love,0.020*etc,0.018*one,0.016*loving,0.016*application,0.016*were,0.016*screens,0.016*installed,0.014*these
8,0.030*issue,0.024*many,0.019*only,0.018*these,0.018*color,0.017*if,0.016*accounts,0.015*bar,0.014*but,0.014*second
9,0.031*fixed,0.027*order,0.025*graph,0.024*only,0.023*complicated,0.023*of,0.022*over,0.018*best,0.018*change,0.018*moving
10,0.031*moving,0.027*these,0.020*twice,0.018*amazing,0.018*simple,0.017*issues,0.014*unreadable,0.014*best,0.014*since,0.014*going
11,0.022*enter,0.021*perfect,0.019*on,0.018*function,0.017*issue,0.016*up,0.015*love,0.015*special,0.014*screens,0.014*thing
12,0.026*or,0.025*you,0.025*all,0.025*been,0.023*complicated,0.020*nice,0.016*by,0.015*add,0.015*minimalist,0.014*savings
13,0.042*all,0.028*can't,0.024*very,0.023*says,0.016*colors,0.015*tracking,0.015*unreadable,0.014*if,0.014*not,0.014*tried
14,0.023*allows,0.021*but,0.021*main,0.021*pay,0.020*only,0.018*ago,0.015*any,0.015*an,0.014*or,0.014*very
15,0.031*ability,0.024*money,0.020*are,0.019*of,0.019*over,0.018*easy,0.018*anything,0.016*account,0.016*android,0.015*colors
16,0.028*accounts,0.023*since,0.022*it,0.022*anything,0.016*nothing,0.015*perhaps,0.015*as,0.014*thumbs,0.014*at,0.013*progress
17,0.025*intuitive,0.022*perhaps,0.021*at,0.019*would,0.018*budgets,0.018*thing,0.018*etc,0.017*or,0.015*as,0.015*function
18,0.026*love,0.021*change,0.019*when,0.019*function,0.017*bar,0.015*update,0.015*any,0.014*how,0.014*handle,0.014*says
19,0.030*month,0.022*touch,0.021*please,0.021*screens,0.020*helpful,0.019*second,0.019*thumbs,0.018*special,0.018*expense,0.018*see
