Topic,Words
0,0.829*simple,0.171*material
1,0.825*material,0.175*simple
2,0.579*simple,0.421*material
3,0.603*simple,0.397*material
4,0.735*material,0.265*simple
5,0.559*material,0.441*simple
6,0.706*material,0.294*simple
7,0.856*material,0.144*simple
8,0.973*simple,0.027*material
9,0.568*material,0.432*simple
10,0.897*material,0.103*simple
11,0.644*simple,0.356*material
12,0.850*simple,0.150*material
13,0.687*material,0.313*simple
14,0.944*simple,0.056*material
15,0.539*material,0.461*simple
16,0.769*material,0.231*simple
17,0.935*material,0.065*simple
18,0.847*simple,0.153*material
19,0.761*material,0.239*simple
