add cropping to,f,2014/12/27,,
update from 2102 to 2103 update to ensure we have the latest bug fix,b,2014/12/26,,
limit wearable timeout fix 122 by wearable is not available prior to android 43 jelly bean no need to attempt to connect,b,2014/12/24,,
add external contribution to about body,f,2014/12/19,,
fix issue 111 and 98,b,2014/12/19,,
switch from to for gallery picker,b,2014/12/19,,
also fix bug 66 which wa caused by a math error,b,2014/12/19,,
also switch from window animation to a custom to work around a device bug,b,2014/12/18,,
also clean up a little animation glitch in the source chooser fragment,o,2014/12/18,,
also bump version code in prep for 201,b,2014/12/18,,
optimize to create scaled watch face background previously we would create the scaled image in the first time after a resize event or after a new image wa loaded,b,2014/12/18,,
however by utilizing we can retrieve the current width and height prior to allowing u to move the scaling from,f,2014/12/18,,
improve watch face first run experience in the case the user ha just updated to 20,b,2014/12/15,,
went from no wearable to a wearable,o,2014/12/15,,
in those case the watch face would show a notification stating that the user should activate no artwork is found,b,2014/12/15,,
instead we should attempt to retrieve the artwork from the first and only if fails should we show the activate notification,b,2014/12/15,,
note this move a lot of code from to but the functionality is identical,b,2014/12/15,,
swap boolean expression to match intended logging action,b,2014/12/12,,
remove warning message is unavailable when this mean we are on an unsupported device and we should not attempt to update the data layer,b,2014/12/12,,
prevent transient crash due to invalid image building notification syncing to wearable add additional null check replaces with log message,b,2014/12/12,,
also doe not update cache image location wa not able to be saved preventing invalid image or image with artwork detail,b,2014/12/12,,
use support library instead of relying on possibly buggy native implementation use the support library version which is consistent across all version,b,2014/12/12,,
further null guard to try to fix the in the play console,b,2014/12/10,,
fix issue 107,b,2014/12/10,,
add watch face other minor fix add official watch face to wear minor fix to full screen wear add renames provider to update for android studio 10 play service 65 fix minor issue enable,b,2014/12/10,,
guard against the most common and fix a bitmap recycling bug,b,2014/12/04,,
another tap remove the card,b,2014/11/30,,
use for logging,b,2014/11/30,,
use for fling animation by default slows down the fling it approach the end point,f,2014/11/30,,
note the offset is still constrained to the edge so this just lead to an abrupt stop at the edge,b,2014/11/30,,
also ensures for tall image they are at least wide,o,2014/11/29,,
handle invalid image without crashing previously assumed that if a file specified by an art source wa downloaded that it wa a valid image leading to crash loading the on an invalid file,b,2014/11/27,,
this fix attempt to open the image immediately after writing it to ensure the image is valid and able to be parsed by,b,2014/11/27,,
by doing this at the level we can properly mark the error state and show grumpy for invalid image,b,2014/11/27,,
asset fix for wear notification,b,2014/11/25,,
rename constant to make note of being transitively included in main due to dependency on provider,b,2014/11/24,,
update icon add archive to featured art source,b,2014/11/24,,
bump version to 20 minor code cleanup,b,2014/11/24,,
ensure wearable is signed with the same key a main wearable will not install for release build it is signed with the same key a the main application,o,2014/11/24,,
this also enables a separate file for wearable and add proper support,f,2014/11/24,,
also fix an edge case no artwork location wa set causing a crash due to use of new file,b,2014/11/24,,
add to show usage of this example implement a simple full screen widget such a that requested in 58 a separate example by utilizing the content provider and broadcast to get callback on the artwork change and read the information without the need for any permission,b,2014/11/23,,
make some space for scrollbars in the archive site,f,2014/11/23,,
minor archive fix also bump web version,b,2014/11/23,,
a bunch more archive improvement almost there,f,2014/11/23,,
fix an accidental manifest change,b,2014/11/21,,
more update,b,2014/11/21,,
continue material design update focusing on style and gallery setting,b,2014/11/20,,
however method doe not exist in the retrofit 130 we were using,b,2014/11/14,,
update to retrofit 171 to gain access to the method,b,2014/11/14,,
also fix the deprecation of,b,2014/11/14,,
begin updating for material design and android 50,o,2014/11/14,,
ensure wear action are marked a not available action that trigger on the should be marked a unavailable the wear device is unattached,f,2014/11/12,,
limit image size on,b,2014/11/10,,
update to 0141 and build tool 211 for android studio 091,b,2014/11/03,,
update build tool to 2102 update to the latest build tool to pull in latest fix,b,2014/10/24,,
update to latest build tool version 2101,b,2014/10/17,,
update to latest build tool version 2101,b,2014/10/17,,
move gallery setting change interval to gallery setting change interval string were in the menu file,b,2014/10/17,,
export gallery setting activity fix 71 and brings gallery setting activity in line with third party extension requirement,b,2014/10/17,,
optimize notification large icon and android wear background size large icon size is set by and changed between 50 and 50,b,2014/10/17,,
to ensure the best large icon we use the provided dimension android by default doe not center crop too large of image the fixed size wa giving strange result particularly on low resolution device,b,2014/10/17,,
switch to using 3 column in the where the slider span the last 2 column the ensuring that the text and stay together in layout,b,2014/10/15,,
add basic support to layout replaces instance of with to declare initial support for layout,f,2014/10/12,,
convert advanced setting layout to are the new more alternative to,b,2014/10/09,,
this convert the advanced setting layout to use a allowing text to align to the right properly and grow the width of the left column the text change,b,2014/10/09,,
to keep the number of view low however the row only a single element still use,b,2014/10/09,,
ensure loading doe not freeze on low blur amount on some device such a the nexus 10 and galaxy note 2014 you use a low amount of blur freeze the causing image to no longer load until you force stop the,b,2014/10/06,,
a the is not actually needed is greater than 0 we can move the allocation and destruction of it inside the else block,b,2014/10/06,,
this ensures the work a expected in either case,b,2014/10/06,,
building a release build with a null will error out the build a expected but in that case the developer is more likely to know to look in the section which defines this loading behavior,b,2014/10/04,,
effect fix,b,2014/9/13,,
now support via a call to a deprecated method now support with no blur,b,2014/9/13,,
fix,b,2014/7/11,,
implement saturation slider,b,2014/7/09,,
begin more mobile friendly landing page,b,2014/7/08,,
add swipe to archive,f,2014/7/03,,
minor improvement,f,2014/7/03,,
archive,f,2014/6/19,,
tweak to auto move image to cloud storage,b,2014/4/19,,
forgot to push some recent change,b,2014/4/17,,
fix 45 bad image crash,b,2014/3/09,,
changed get more extension to get source,b,2014/2/26,,
catch possible,o,2014/2/26,,
synchronized access to the map,b,2014/2/23,,
fix caching,b,2014/2/19,,
validate wallpaper double tap,b,2014/2/14,,
bug fix,b,2014/2/13,,
handle response an error,b,2014/2/13,,
for activate button,f,2014/2/13,,
remove for write storage permission for some device,b,2014/2/13,,
bump version,b,2014/2/06,,
update,b,2014/2/06,,
update first cut at a real,b,2014/2/06,,
