# deletions,date,commit message
1,2015/11/11,Update README.md
23,2015/11/09,Improved PGP block detection on clipboard
1,2015/11/06,Update README.md
1,2015/11/06,Stop minifying code- hey it's already open sourced.
10,2015/11/06,Update OpenPGP API v8 -> v9 Android Support Library etc.
2,2015/10/19,NFC foreground wrapping - disable/enable explicitly when following along  lifecycle
11,2015/10/19,BUGFIX: Wrapping around NFC foreground dispatching
3,2015/10/19,quickreply notice invisible -> gone
46,2015/10/19,BUGFIX: Profile launch
13,2015/10/19,BUGFIX: Exception handle on wrong NFC token
1,2015/10/19,ANR FIX - NPE on clipboard change (Exception handle)
4,2015/10/19,tag -> token
1,2015/10/19,Translation leftovers
1,2015/10/19,change ko-KR translation a bit - too long text in resultShowActivity
2,2015/10/19,remove toast after NFCAuthWizard
19,2015/10/19,Smaller text in NFCAuthWizard
3,2015/10/19,version code change
2,2015/10/19,ko-KR translation update
25,2015/10/19,String export
8,2015/10/19,Bug preventing password decryption fixed
173,2015/10/19,decoding via NFC tag works - in hacky way. Yay-
2,2015/10/18,lower iteration count - since PGP key iteration is still more weaker then this app's encryption...
75,2015/10/18,delete pin entry gui
107,2015/10/18,Remove PIN function (might be overkill... may revive later)
39,2015/10/18,PIN input dialog - async callback
11,2015/10/18,screen on while generating hash & encrypting
191,2015/10/18,BUGFIX: activity result callback
2,2015/10/18,hide nfc notification when nfc auth is not set
1,2015/10/18,add message for nfc signature (will be hidden when nfc auth is not set)
6,2015/10/18,xml gravity change
4,2015/10/18,nfcAuthWizard (will be buggy not tested yet)
1,2015/10/18,add NFCAuth start routine when pref is checked
1,2015/10/14,Version typo fix - 0.2 -> 0.12
3,2015/10/14,Version string and internal version updated
49,2015/10/12,batch commit of below -externalized strings -masked and applied alpha to icon to fit material guidelines -added timestamp to notif -fixed possible NPEs -change to detecting route of pgp api provider -stop service if pgp api provider is unset -hint recipient info to reply editText -gives more chance to try again to decryption
10,2015/10/06,Scroll layout wraps edittext view - allowing user to scroll long decrypted result.  Updated version info to 2 (0.11)
