Topic Index 1,Topic Index 2,Topic Similarity
3,1,2.0
8,2,2.0
11,4,2.0
17,6,2.0
0,7,1.0
1,0,1.0
2,3,1.0
4,5,1.0
6,8,1.0
7,10,1.0
9,9,1.0
10,13,1.0
13,15,1.0
14,18,1.0
15,12,1.0
16,19,1.0
18,14,1.0
19,16,1.0
5,11,0.0
12,17,0.0
