Topic Index 1,Topic Index 2,Topic Similarity
7,17,2.0686
3,18,1.8171999999999997
4,9,1.4645
1,14,1.1759
17,16,1.1594
14,11,1.1518
11,0,0.9463999999999998
15,10,0.9183
0,5,0.8914000000000002
8,19,0.8495999999999998
12,3,0.6140000000000001
18,15,0.5986
2,7,0.5586000000000001
13,8,0.5293
6,13,0.4752
19,6,0.215
5,1,0.0
9,2,0.0
10,4,0.0
16,12,0.0
