# deletions,date,commit message
1,2015/9/27,Migrate CI builds to container-based infrastructure
4,2015/9/27,Update Android Support library version
2,2015/9/27,Update build tools version
1,2015/9/27,Refresh widget list when adding/removing a favorite station
2,2015/9/27,Fix multiple activities when launching app from widget
1,2015/9/27,Always refresh stations lists with latest data from database in onResume
6,2015/9/27,Automatically update widget when new data is downloaded through application
10,2015/9/27,Open application on click on widget title
1,2015/8/17,Add translation instruction about non-translatable strings
412,2015/8/17,Move all translations into one file
1,2015/8/17,Precede apostrophe by \ in string
1,2015/8/17,Fix wrongly closed string tag
1,2015/8/17,Fix untranslated Italian string
1,2015/6/23,Remove widget preview image property
9,2015/6/23,Rename private constant fields
5,2015/6/23,Add widget for favorite stations. Fixes #20.
21,2015/6/11,Remove translatable="false" IT strings
2,2015/6/06,added italian strings
6,2015/6/06,added italian translation. Fixed problem on first start
3,2015/6/05,Fix crash on first run (fixes #21)
5,2015/6/01,Update Android Support library version
1,2015/6/01,Update Gradle dependency to 1.2.3
4,2015/5/31,Automatically update stations on app resume when data are more than 10 min old. Fixes #18.
4,2015/5/30,Update Contribute section
9,2015/5/10,Auto-update Android Studio files
2,2015/5/02,Bump version
3,2015/5/02,Update Android Support library version
10,2015/5/02,Fix crash in API level <= 16. Fixes #16.
