# deletions,date,commit message
3,2014/9/22,Use private TAG attribute for debug
1,2014/9/20,Add summary to "map layer" preference
249,2014/9/20,Clean Settings code and always use fragments
6,2014/9/19,Bump version
