App,Store,App ID,Review ID,Country,Version,Rating,Date,Author,Subject,Body,Translated Subject,Translated Body
Ouroboros,Google Play,com.luorrak.ouroboros,Z3A6QU9xcFRPR1RyUVVFdUNFSEJDekFva3lIUGhxZlNiRXJaVVRCd19WcDhyeV92eGhVVzZzNVFSVUgtVEVCb0VOWXZOeUVvQWR4NnB6MEhzdDJuX0VTSDJJ,English,,4,2016-01-25,Nick Petrides,Suffices well enough,the thing this is missing is the ability to play,,
Ouroboros,Google Play,com.luorrak.ouroboros,Z3A6QU9xcFRPRll5N1VhNnFnQ3F6Z2VZUHNMaS1hSjNrVDdDMkFoWmtPRHBkbU80Tkd3UjZKOTVmT2ZzdjZtZ05xLWVnLWZZc2FTaTFjX3NiUWFKYmNWc2lv,English,,5,2016-01-13,Ryan Edwards,surprisingly useful,implying is worth reading,,
Ouroboros,Google Play,com.luorrak.ouroboros,Z3A6QU9xcFRPRVU3VDl6NjVTaWllS2hEa1ZyQzFBa1dnNEp6b3dsUFNLOFlCbk1TOHNfU25nZlZrc0Q2MVY1ZGZ2R2NwSktfajcxdzhLZjN3NUhyMnduM0Fr,English,,4,2015-12-27,Matt,,thing lacking is an inbuilt player,,
Ouroboros,Google Play,com.luorrak.ouroboros,Z3A6QU9xcFRPRVU3VDl6NjVTaWllS2hEa1ZyQzFBa1dnNEp6b3dsUFNLOFlCbk1TOHNfU25nZlZrc0Q2MVY1ZGZ2R2NwSktfajcxdzhLZjN3NUhyMnduM0Fr,English,,4,2015-12-27,Matt,,having to go to an external player is quite a hassle,,
Ouroboros,Google Play,com.luorrak.ouroboros,Z3A6QU9xcFRPRkVISWR6dUNtYS1vU0NtSnVqajB0UHBPVEFRS2lSYnZUTXh5ZVJvLUdseW9YWXhpaVVybVF1RVAxN2dQU1JWeUVsSENfYXBtbFdVVk1DcTlZ,English,,1,2015-12-15,Brian DeFilippis,Possible Malware,title speaks for itself,,
Ouroboros,Google Play,com.luorrak.ouroboros,Z3A6QU9xcFRPRkVISWR6dUNtYS1vU0NtSnVqajB0UHBPVEFRS2lSYnZUTXh5ZVJvLUdseW9YWXhpaVVybVF1RVAxN2dQU1JWeUVsSENfYXBtbFdVVk1DcTlZ,English,,1,2015-12-15,Brian DeFilippis,Possible Malware,avg said it wa,,
Ouroboros,Google Play,com.luorrak.ouroboros,Z3A6QU9xcFRPR19NdXh5clhsUFNfUXJLeDhlSDN6OFhlMFNuaFEyZmFoMkJEMWJ1TGVPNTRVbHFSU0tQMnAxeTFUcktiRXIwalA0eV9VY1NtV2JCZmR1ZkZJ,English,,5,2015-12-12,hacking into the mainframe,,it green,,
