Topic Index 1,Topic Index 2,Topic Similarity
18,11,0.0284
1,18,0.026999999999999996
6,12,0.026400000000000003
2,15,0.0259
19,5,0.0245
17,17,0.0231
11,19,0.0203
4,4,0.0175
15,3,0.0154
12,0,0.0126
8,14,0.011
7,6,0.0102
3,7,0.009600000000000001
16,8,0.009600000000000001
0,1,0.0
5,2,0.0
9,9,0.0
10,10,0.0
13,13,0.0
14,16,0.0
