# deletions,date,commit message
91,2014/9/03,update to new BitcoiniumWS
2,2014/8/24,update rescu
67,2014/8/24,clean up trader dialog layouts
15,2014/8/24,fix nullpointer crash on swipe refresh
104,2014/8/24,Tweaks to Price Alerts + fix for "Phantom Widgets"
71,2014/8/14,Add support for BtcTrade Cryptsy ItBit Mintpal Poloniex and VirCurEx
62,2014/8/12,Refactor "Exchange" to prevent namespace collision
2,2014/8/01,[EclipseMC] fix TH/s miner widget display
90,2014/8/01,swipe to refresh on lists
2,2014/8/01,bump ResCU to 1.7.0
8,2014/7/30,[ci skip] Update Readme
4,2014/7/30,Travis do you even build?  - TravisCI has recently updated their VMs to support new android SDK. Testing to see if it builds now...
27,2014/7/20,synchronized "trades" object
107,2014/7/10,use Listeners to handle preference clicks and changes 2
2,2014/7/10,Update .travis.yml
1,2014/7/10,Update .travis.yml
3,2014/7/10,Target SDK 19
3,2014/7/10,change target API to 19
2,2014/7/10,Travis build using API v19
1,2014/7/10,Update .travis.yml
1,2014/7/10,Update .travis.yml
82,2014/7/09,use Listeners to handle preference clicks and changes
88,2014/7/09,move some Preferences code over to XML
5,2014/7/09,increase the axis value text size
641,2014/7/09,refactor layouts and strings - more consistent naming
66,2014/7/04,Pop a Toast when exchange returns error when trading
78,2014/7/03,combine widget refresh services + remove useless String.format()
37,2014/7/03,remove empty body XML tags + tweaks
6,2014/7/01,allow landscape orientation for widget configuration
1,2014/7/01,skip invalid widgets
29,2014/7/01,remove end tags with empty body
3,2014/7/01,remove duplicate ids
3,2014/7/01,enable Account Deamon
2407,2014/7/01,reformat and organize imports
18,2014/7/01,add Cryptonit + tweaks
9,2014/7/01,New Widget to track Bitcoin address balance
11,2014/7/01,update gradle and readme
