# deletions,date,commit message
2,2013/11/24,Switch to BTC-e V3 API
756,2013/11/24,Add BitcoinAverage support
1,2013/11/12,Add XPM notification drawer ticker checkbox
1,2013/11/12,increment to v1.8.2
22,2013/11/12,Fix Eligius when balance is "null"
2,2013/11/12,update XChange and switch to Android API level 19
