App,Store,App ID,Review ID,Country,Version,Rating,Date,Author,Subject,Body,Translated Subject,Translated Body
Bitcoinium Prime ★No-Ads★,Google Play,com.veken0m.bitcoinium,Z3A6QU9xcFRPSDRYWkFjRWhjbGxiUWV0Z3lmMWdzR2NLQkw3NW42cHBUNlJEOEVZY1k4aFBkQ2t1Q2pMYzlGbm1FMDdhOE9tVEM1VUFiWGduZExicWM4QmZB,English,,5,2014-08-26,Ben Meszaros,Amazing app,"I love this app and rely on it a lot. The developer is quick to answer any questions or problems and in some cases provide changes. Excellent app and I highly recommend it, very powerful and expansive in the features. The only bitcoin app you should need.",,
Bitcoinium Prime ★No-Ads★,Google Play,com.veken0m.bitcoinium,Z3A6QU9xcFRPSE9pWGZ2TlNsUFJXWHRsVjF1Nl9hS3dLMGJuSmZncjQ4MGloaFF3MXhqaTB5bTgyTmw2WVc0MS0wakViT1F5bFVlMWN4OGpLWnVTTGVJajdV,English,,4,2014-07-26,Stan Whitney,Niceeee!,"Would suggest adding the ability to change chart and font colors and sizes, but great app!",,
Bitcoinium Prime ★No-Ads★,Google Play,com.veken0m.bitcoinium,Z3A6QU9xcFRPRTQzNktKV2p6dUFsSWJ6SzhsNHo4NXQ3eXJwMFFXTDZVMWxTVXdDSzEtMHh5aktpd3BBa19HaUZ2RDBHRXJXMXFiY2E1NHdhUDhnUWNsLTlV,English,,5,2014-07-01,Mark Nolan,Great app for Bitcoin Miners,"Great support, good features. Love the widgets!",,
