fake,b,2017-04-29,,1
detect access all password at network,b,2017-03-30,Ricky Algo,5
this is crashing,b,2017-01-28,Rahul Singh,4
waste of time,o,2016-10-13,ilyas khan,1
root permission,b,2016-08-12,rahul Âthwáñî,1
very i like the way the whole can be locked with a pin or a fingerprint,o,2016-05-29,Martin Hall,5
