remove useless debug code,o,2016/1/24,,
use custom exception with error code to ease,b,2016/1/24,,
rearrange string,o,2016/1/23,,
use name in code and for a more name,b,2016/1/22,,
fix authentication type field in qr code string,b,2016/1/22,,
check the scanned tag is of type,f,2016/1/22,,
try to be more precise parsing security from,b,2016/1/21,,
return by default instead of,b,2016/1/21,,
follow simple configuration technical specification,o,2016/1/21,,
check parsed is not null,b,2016/1/21,,
dialog scanning an tag the dialog is taken from the source code,f,2016/1/21,,
for now the default android confirmation dialog is shown on device running android 50 and our own dialog is shown on all other device running android 44 and before,b,2016/1/21,,
use dismiss instead of hide on alert dialog to prevent leaked window,f,2016/1/20,,
add open and close method to and use them in activity,f,2016/1/19,,
remove argument from it is not used,o,2016/1/19,,
add option to view password long tap on network,f,2016/1/19,,
do not show toast reading a tag,f,2016/1/19,,
remove scroll flag from,b,2016/1/18,,
move string to string resource,b,2016/1/18,,
add about dialog box with description license and credit,f,2016/1/18,,
foreground dispatch in we need it to write tag partially revert change made in commit,b,2016/1/18,,
show context menu on long tap on list item allowing to clear saved password ha been replaced by a custom subclass of it is able to detect which item wa clicked,f,2016/1/18,,
add to password,f,2016/1/18,,
remove unused class and all it resource,o,2016/1/18,,
escape apostrophe in string,o,2016/1/18,,
extract string to string resource,b,2016/1/18,,
disable data backup prevent saved key to be sent to without user knowing it,b,2016/1/18,,
long in list,f,2016/1/18,,
do not set password restriction in we know exactly what are the restriction for password,o,2016/1/17,,
move to static method in class,o,2016/1/17,,
remove foreground dispatch and enable android beam in network activity,b,2016/1/17,,
check is before tag,b,2016/1/17,,
remove padding in list content layout,o,2016/1/17,,
add launcher icon,f,2016/1/17,,
add key icon for each item in the network list,f,2016/1/16,,
save password to database no root access is given the asks the user to manually enter the password for protected network,b,2016/1/16,,
prevent crash on startup is not yet fully activated,b,2016/1/15,,
set qr code width to 200,f,2016/1/15,,
prevent from reappearing on screen rotation,b,2016/1/15,,
set accent color to orange,f,2016/1/15,,
