App,Store,App ID,Review ID,Country,Version,Rating,Date,Author,Subject,Body,Translated Subject,Translated Body
Chess,Google Play,jwtc.android.chess,Z3A6QU9xcFRPRkFnR2JxVGpUSDNDb21rd1lSdzBQVVVRMlBzLW9VS1ctU1FLbmNIRE5NQTRGX1ozeEJxT1NkOVEyX3A1d25JMU1GYUpwbG4wTnc0Y1dHcFE,English,,3,2017-04-08,Javier Novoa Cataño,"",Not what I expected on the GUI,,
Chess,Google Play,jwtc.android.chess,Z3A6QU9xcFRPRVVpeUR3WUN5ZVh4bDl6ckR0X1ZzSDRxcjJYSjgxSm5VNmN6dmY0N3V0cmd2QVdtbzN3NVA0Q05PdVZVQmQ3UmFwbWlETFRpczBJeG1QaFE,English,,5,2017-04-02,"","",Wow,,
Chess,Google Play,jwtc.android.chess,Z3A6QU9xcFRPRURiZy05cHI2cnBCdDB4WTZBRDBsWXM4dDg4YmtteGxiUkd3dFc0LVVvTmlwQkxjOFdWbEhPekNTZ1NTRkhhYVphb1NpYXFXaVcwSnlUSmc,English,,3,2017-03-14,Greg Morley,"",So many illegal moves. Not too big on it. Fix it please.,,
Chess,Google Play,jwtc.android.chess,Z3A6QU9xcFRPSG9WZFJCSUtlbkcyS3FESENaNC15MTIxeFJUOXRpVEhESjYxRklNTDZoRVhlOUdHVHRwcjVWY2ZGeENxYmZ2VmFVZ0o5dmhPaTd6bEtMOEE,English,,4,2017-02-28,Jens Claes Hoelgaard,"",After update of Android 6.0.1 on my Samsung A6 tablet the board no longer fits the screen (only 6x8 fields) no matter what I do! Great before - now useless. Please fix asop.,,
Chess,Google Play,jwtc.android.chess,Z3A6QU9xcFRPSERWenFNWDl4ZVRhU0RFTkJ5MmEyRC1mdmVnT1NGUk1ueEQzLS1jaTRIQUdkcDJpUi1Mb0Q1QTY0WjFHWVZBV2NQT3QybWhEcDE0ejFZMkE,English,,4,2017-01-31,Dennis Bautista,"",What is the default engine used?,,
Chess,Google Play,jwtc.android.chess,Z3A6QU9xcFRPSG9pUXgwLUVDWWVwZjRfSS14S1NWS1ZtWXhZQWcyN25HMkExTS1rY0RFYV9DNzAzZ25wV0NxRzI0RjlmWUYwczBwSVJNcU1RNzg2QnBoMGc,English,,3,2017-01-27,"","","1. threatened squares: Displays the status of each piece on the board. A red square means that the piece is under attack and not sufficiently defended, or that it is being attacked by a piece of lesser value. This is usually a pretty serious danger signal and means you must take active measures to avoid losing a piece. Yellow means that the piece is under attack, but it is just sufficiently defended. You must be careful about removing any defending piece. Green means the piece has enemy contact but is well defended. Usually it is okay to remove a defending piece.",,
Chess,Google Play,jwtc.android.chess,Z3A6QU9xcFRPSFFSQkRmNDhDejNQWXd3X2o3bkhVcnd5bGpVVDZPOENFY0tvTDdPRjIzU3Nya1JGVS11RDd5WUJfY0RkZWZic2lZQTN0bnh1b0hZZ0VkbFE,English,,2,2017-01-18,József Fazekas,"",Does not show full board- only 6x8.,,
Chess,Google Play,jwtc.android.chess,Z3A6QU9xcFRPRjRJc2dXUzU3MURsVEtRZGhJMDhMMGxMOVNtTS1sdGlPMUh1QUVzRUxwQW9xbDc3ejAwRWxOYm90dVV1RmNTTHNxMElucVMweVZTOWhjcFE,English,,5,2016-12-22,luciancm2006,Great app,Has lots of cool features,,
Chess,Google Play,jwtc.android.chess,Z3A6QU9xcFRPSE1Eb1MwNi1LRFBrSHliTXFrTnlnUEVyNzlUSDRZTWMxdVV6ckZHSlFXNEh5OWVKOFV2WnhWdktwSVF4OTdiOGMySTRYOHdGdkFINVFBbkE,English,,5,2016-11-25,Mdshadab Alam,"","Guys if u wanna learn and play blindfold chess,  this is the best app ever.",,
Chess,Google Play,jwtc.android.chess,Z3A6QU9xcFRPR01Cc1FvS0t1MkktdjA4WXRkV0ZGM2JVRGNDYmVKbVBEUXR0eWM1RnpqM3E3MmpteGl2eXEyRnlUajA4b3BlcmtHME5oZ3ZBdTY1X0NLdnc,English,,5,2016-11-11,Flavius Serafim Emanuel,great chess app,love it!!!,,
Chess,Google Play,jwtc.android.chess,Z3A6QU9xcFRPRUJiZ0U3RTN0N0JicmU1SnBtd09PdlFUSEtTME1HT3hwYjNwNUFLbzRTZXNKUG1iYXl2TElsc1FxX2xKT0h4aC1rdFg2cXBVZUtqOWh1elE,English,,4,2016-09-12,amol chougule,Amol,Nice but some advanced facilities required,,
Chess,Google Play,jwtc.android.chess,Z3A6QU9xcFRPRUlQcUtzOVNCZlJiWDZEWTQySV84YlZ2MGkxNG9kZy1sdV9OQmxmUWJOSGMtaVNOZ3VMM0NWR1h0dE9oUUcwRm4xZHpsQ3hSdm4zZ1ByQWc,English,,1,2016-08-23,Paul Dowsett,Why do you need device & app history?,I can't update without this explanation. I suggest you explain the permissions you use in your description.,,
Chess,Google Play,jwtc.android.chess,Z3A6QU9xcFRPR2NnLTlVcjFCb2RMaTRwX0h1cjZhYjcxZnIwWTZ3eTBBcUFlcWtDWnV0MjZEalZjUHhKYlVhVTFHanhiekpndnQtSTRCT0p5ZlNfSmh3WGc,English,,5,2016-07-05,Gary Smithers,Confirm button,"It would be nice if there was a confirm button so I could move the piece and check around the board to see if I like that move, then confirm it to make the move.   It would feel like moving a piece on a chess board and keeping your finger on the piece in order to check out the board.",,
Chess,Google Play,jwtc.android.chess,Z3A6QU9xcFRPSFhUOEljQUZjSlcybk5uNFMyQW9zY1RfbDd6bmNlS19Yd2MwaW0zNHMyMkMwQVk5d3VwTjZVWWQ3VVpnMjdyMGk4TFBhR1QzSWlJaHV5UkE,English,,2,2016-06-21,Dan Jones,"","Good game, not sure why on some permissions though, why would it need to know app history? Also could make the dots darker, can hardly see them on some color boards. Seems to be quite a big difference after 2 ply level, gets harder quickly, engine seems to draw a lot when you have it on the run....but it's free and no ads, not many on here that has that..",,
Chess,Google Play,jwtc.android.chess,Z3A6QU9xcFRPRl9jNlZidnZQaHVCMDJhcm95eEF5SmlLOFJiY0s2a09heTlJZWctaU1sZkpsdW4wT1puVzJFcFRSSG9BaXlLZnowMWhwVnZfY1pPZjhKN1E,English,,4,2016-05-28,Jeremy Abramson,Please add,"Could you please add engine analysis, as well as on-screen arrows for recommendations of next moves, like Droid fish has?",,
Chess,Google Play,jwtc.android.chess,Z3A6QU9xcFRPRlpnazJBZmhLbklXNEJaTUNLbFRwU25nOThXTlpHWVNqVElBZ0FQSUtZLWJXZXNCV3VCc3NpQ3JicV9kQzhlMk5TdjVjcmlZTFo0UWhOOEE,French,,5,2016-12-15,Abdylhak Houfra,Chess,Beautiful game.. i love it 😍❤💙,,
Chess,Google Play,jwtc.android.chess,Z3A6QU9xcFRPRlRTZWFZcWJiMUNUOElRYnNmdjdVZVRKWFlNSUo3N3BQSlo4TVpWSDZtWkotTGMwTmlLeE9WZGhoemRrZGpZcEFKeldrQW5fU3haQW4tTGc,French,,5,2016-05-23,Gildas Cotomale,"",Complet,,
Chess,Google Play,jwtc.android.chess,Z3A6QU9xcFRPRmEwcGdnSm56SmNaMmo5RkVjMDRyRktKU2JkdUZnMmk0Wmp5Y2Uxa2g1bkZLSkxCeV9qVGpwWTZnWEJBSzdNcEIzWElsY2hFalUxRUx2dlE,Arabic,,5,2016-11-08,محمدشفيق محمد منصور,اﻻردن,ممتازا. كيف تحوله للغه العربية.,,
Chess,Google Play,jwtc.android.chess,Z3A6QU9xcFRPR1JMZFdKYXEybURMVFZOc0hOWUtjMExmT0otS1NiY1JhYjFBbVJiTnFXdFNXbHd4ZDhrc2FKQzgtR1ZnNnVwTW5xdTZLcGI1YTdscmhaZmc,Arabic,,5,2016-06-30,نوران الراوى,التجمع الخامس,لعبة شديدة الروعة وتستحق مائة نجمة,,
Chess,Google Play,jwtc.android.chess,Z3A6QU9xcFRPRi1CazlwX2JIUVhJX0R4MENHTG12TTUxNVNQUmlBWl9HcmNUZFFnMy1qcm9RdkhCd0RVcHFWeEItbVBObVRwN2NOeDZtU3llY29jMl95Zmc,Arabic,,2,2016-06-29,Anahdi Ghazi,جيد,التطبيق الاصغر حجما ويسمح باللعب او لاين على chess server  مع مشاهدات ادوار  اساتذة كبار وبطولات .كمان وجود تمارين الغاز والشاه مات .,,
Chess,Google Play,jwtc.android.chess,Z3A6QU9xcFRPSE0zcnhCbUw0anFBSTFNZkZsUnFYcnVJOUhTWTRNOGRQSG5makhVRFR3NkFEQmF1RnRTQkljNGVrV3FCZE55UVRnOE9uQ29iZGthTDluaHc,Catalan,,1,2017-02-21,Josep Ramon Torné,"","Be careful, is a virus!",,
Chess,Google Play,jwtc.android.chess,Z3A6QU9xcFRPRW94Ul9mVUJpNlZCdEg1ZzRDRHZ1OVBpQ3BUcG81d0R4OFJnY2EtWDd4cUpfM1NvLUw4anhycFJ3VUV4MzY2b2tqaVY3QlBXVnp3MFQ0d3c,German,,5,2017-02-06,"","",Nice game.,,
Chess,Google Play,jwtc.android.chess,Z3A6QU9xcFRPRk5BTXdNRGNwY1Vlb08wRktSS1FCRUNZZUV0X2o2OGQ4YndBdHEzWmZqTzlJSnlmc3M4bkNMS1lsdDJGX2lWakF3N3JoT0NGVFlfcHdMQkE,Hungarian,,5,2017-02-11,Robert Bcsi,"",Best,,
Chess,Google Play,jwtc.android.chess,Z3A6QU9xcFRPRnVib01jZDdkelhoT2ZGSkk4N2xQR3EySmNXclZQUUxUQllVdlFuWm9UYWZhUWVSRTVNUmVvdlh4ZHlLYlBtdDZIOHFDUWM4akFUNW0tcEE,Indonesian,,5,2016-06-25,Alam gotik,Bagus,Obat pusing,,
Chess,Google Play,jwtc.android.chess,Z3A6QU9xcFRPRjlpREZ5ZDdWb21zcUFQalptWVZscnZPRU94bnVqLUkyVWtHTHRyeVVxcXcyN0ZqYWhLSlhxLUxGNHNzZ3FRRE9yOG1vU19OVExrMG85VXc,Portuguese,,3,2016-05-29,"","",Nice FICS connection but the resources in it are very limited. Pgn access complicated.,,
Chess,Google Play,jwtc.android.chess,Z3A6QU9xcFRPSDV0T09ucEN0SE1oZmdhZndJbUxmbExYZGtqV3ZiMl9GUTJEY1NNc2U3ZFAxVGdEd21nRXNsbk5kUzRkWHc0ODlReV92ZjhoVlRBTUNPOVE,Portuguese,,5,2016-05-26,maximcapuccino yashima,"","O melhor app de xadrez, tanto para online quanto para off",,
Chess,Google Play,jwtc.android.chess,Z3A6QU9xcFRPRTdmRF80NktFVVVCUWxSQW9kT3JJMlFvUHJmRldDOEFoM3lUYmF2N2w3S3FnZXBUNTA5NzQ1MmJCR0JBajZJNkN5WU1sV1lYcll6S2MyUnc,Russian,,2,2017-04-03,Николай Крапчетов,"",Очень легко!,,
Chess,Google Play,jwtc.android.chess,Z3A6QU9xcFRPRTJZYnFsb3BPQnF6WXp6MHYtUWMxV0lXWnhwbDFaa2FPVU1rSmJuZWotdjM1b1pPUG0wRTUzc3BlOTU3bFd6NkthblRlNXkwcDljQkVWRWc,Russian,,5,2017-03-18,"","",Шахмат это мае,,
Chess,Google Play,jwtc.android.chess,Z3A6QU9xcFRPRVB4V3NVUTU3NkthdE5CUUNHdnFyalBsYWxXMkQ1bUlXTE9MRkhkWW9zbnIzMUVEWHFIWlowdzNqVFhsZkxEamkza2hGS3VNZDh1WHgtdmc,Russian,,5,2017-01-16,Kamran Agayev,8- версия!!! Супер и,Отличный,,
Chess,Google Play,jwtc.android.chess,Z3A6QU9xcFRPSHNKdk1Ja180V0V1MEt6aUpZT1VraTlIY2tWSURXLV9TRjhzYkpqX203RkhOUXc3clhremo0OTNoM1pfeEdyYzhXUHZTWkRmTGtmZzFMd0E,Russian,,5,2017-01-06,Petr Pylov,"",Поставлен мат на 30-м ходу. Ожидал большего от Komodo,,
Chess,Google Play,jwtc.android.chess,Z3A6QU9xcFRPR3V6RV9iazBuWTcxVFppY0xMT2NWMGxQTC0tOWFZREdnQnlQenpBWEp0Y1ZFcm1pTF9oQWthZW1OdGljVWVTeC1JejZGTjJaQTg4U29hVXc,Russian,,5,2016-12-15,"","",Новый 2017 год,,
Chess,Google Play,jwtc.android.chess,Z3A6QU9xcFRPSEI4VlU4ZkpVWEpNWEN4OGdUcXFfeHo0c244RzlQaFZhUFNDdEU0NXd2ejNYQlhKR1kwZHJJY1NMcncxQW9vS05oSGtieTdtdzEwaWEzYVE,Russian,,5,2016-11-19,Aleksandr Dozenko,"","Мне посоветовали. Так мне понравились уроки, дальше буду смотреть.",,
Chess,Google Play,jwtc.android.chess,Z3A6QU9xcFRPRUlNOFZySzNoS2ZPbVdfTTIxSGY5RHM4eFAxTWJTX3locHFIaTllWDA1aWdZMDNLTjlLTnVQR2xUVWU1c3JtSlZyUS1pNzVSYVlHMExkc3c,Russian,,3,2016-11-12,Николай Боровицкий,"","Покажите как делать рокировку. Почему нет ответа на просьбу показать,как сделать рокировка?Жаба душит проигрывать!",,
Chess,Google Play,jwtc.android.chess,Z3A6QU9xcFRPRzc3YWx4SGZQOTdIdXhQeWdYVVFiZ3UxaTd5bEpWMTFWXzhCbFZ4M2ZFU25ES3M2cmU1cjlFUnMyWTctVWZDV2JIZzNMNE9HUno5WExLZmc,Serbian,,4,2017-03-02,Dragan Pavlovic,"","Rekao bi da ne izgleda loše , i netreba internet konekcija !!🙋 💙",,
Chess,Google Play,jwtc.android.chess,Z3A6QU9xcFRPR19IdGJsTnlLM3NNT3o2Tk4zLU55dXRMSEFXLVptaVQ4d3dCMWRhVDNnRjJNV2l4eHZDS0R3V2loZnpXcE9Kc2VKSTVSTDNyRlNRdWVfVWc,Spanish,,3,2016-11-27,Iker Dobarro del Moral,Ajedrez simple,"Buscaba un ajedrez simple y creo que esta ha sido la mejor opción. Sin mucha carga gráfica pero con una amplia gama de alternativas y opciones de juego. Le falta, lo que veo fundamental, el giro de pantalla a posición horizontal y ver el tablero a pantalla completa. Y sigue dando muchos errores",,
Chess,Google Play,jwtc.android.chess,Z3A6QU9xcFRPRjRPU21PaUVZNjVVZVNUTGx6VnEtMDVCNXFxTm1LNnV0LUFXSkQzcmVkd2IxQkY1VmtYRzRpVmpqUVN0enZrVkthQXpnUHhaZ1JOU210aFE,Spanish,,5,2016-11-27,"","",Muy. Bueno,,
Chess,Google Play,jwtc.android.chess,Z3A6QU9xcFRPSEN0dUpXRm1reHNya2liOUd1VUQ3T0tFNWdNS3dtcU1NX2hJaXlQZTU1bEZMRXludVZkVkVuLUlZY0M1UlpUMXdaS2t6NUpvZXhVaEVEOXc,Spanish,,1,2016-07-18,Javier Parra Fernández,"",Quesemetanlsdonscionporelculo,,
Chess,Google Play,jwtc.android.chess,Z3A6QU9xcFRPSDJPaERFMTZvXzB5RG5OSUJMeU4tV2twSVI4MmpQNEpYLWVGVGwzZWRnbTdsRnkydy1CWkItWG9aMXpFQ0Y0R3RwVWdLMklZSHM1aW5BVWc,Thai,,5,2016-07-30,วรเชษฐ์ กันนะลาด,วรเชษฐ์  กันนะลาด,มันมาก,,
Chess,Google Play,jwtc.android.chess,Z3A6QU9xcFRPRmRRdWs5YWs4UmFpQ00wS1dIODR1dzdKNUptdzNVSkpnTUNCdG5vcHNzRThyOUthSXpjV1dKUWF1TVZPUlBHRGc2NmVBdTlIRURJaVhUSXc,Russian,,5,2017-04-13,MOKKO MUISH,"","игра,настройки,оформление:все понравилось.",,
Chess,Google Play,jwtc.android.chess,Z3A6QU9xcFRPSG1MdWstLVBFR3A1QlZkT0NOZ2NfYV9LdkZpOVp1ZmJhZnkxMkQ0NmNMUDdfdFI4cTFkUXZxeTlQekJtVVVIcXB0SlRxaHBFUnowY2NQMVE,German,,5,2017-04-26,"","","Love the possibility total change the engine. However, it would be nice to be able to install several engines and switch between them rather then overwriting the one and only chess engine installed.",,
