Topic Index 1,Topic Index 2,Topic Similarity
0,15,11.11111111111111
2,1,11.11111111111111
10,16,11.11111111111111
13,4,11.11111111111111
1,3,5.263157894736842
3,9,5.263157894736842
4,17,5.263157894736842
5,2,5.263157894736842
6,0,5.263157894736842
8,8,5.263157894736842
9,12,5.263157894736842
12,5,5.263157894736842
14,10,5.263157894736842
7,6,0.0
11,7,0.0
15,11,0.0
16,13,0.0
17,14,0.0
18,18,0.0
19,19,0.0
