# deletions,date,commit message
5,2014/5/08,Backport old backup system. Should preserve previous backups when updating the app.
1,2014/5/08,Change default theme to Holo Light
6,2014/5/08,Better handling of root access.
18,2014/5/08,Theme can be switched from Menu item closes #8
2,2014/5/08,Fix checked state of menu items
4,2014/5/08,Remove unused strings and import
16,2014/5/08,KitKat look&feel :sparkles:
60,2014/5/08,Introducing Holo Dark theme
106,2014/5/04,EditText are provided with colored FloatLabelLayout
72,2014/5/04,Single and simple method to save preferences
3,2014/5/04,Update build versions
51,2014/5/04,Restoring a previous backup
153,2014/5/04,Simplify Backup mechanism to only use a String
27,2014/5/04,The saved preferences file has now correct user id & group id
56,2014/4/27,Use a tmp file to update preferences
145,2014/4/27,Simplify File references to String references
16,2014/4/27,Add some debug logs
120,2014/4/26,Switch to RootTools framework
2,2014/4/05,Fix: Issue with Activity being destroyed
1,2014/4/05,Fix constructor access level
0,2014/4/05,Fix resized pictures resolution
10,2014/4/05,Update Resources
32,2014/3/18,Fix: Issue with checkableBehavior attribute. Improvements: Layout of FileEditorActivity and PreferenceFragment.
32,2014/3/17,Cleanup code
7,2014/3/17,Update GridView to take advantage of clipToPadding attribute
102,2014/3/17,Prevent backup loss when Activity gets killed. Remove useless support* methods.
6,2014/3/16,RestoreDialogFragment is now dismissed when there is no more backup
2805,2014/3/16,Cleanup :sparkles:
211,2014/3/16,Preferences can be restored and deleted
0,2014/3/16,Fix xxhdpi resource
0,2014/3/09,Add missing resources
510,2014/3/09,Display a dialog to pick a backup
396,2014/3/09,File is now copied on internal storage in private mode. Restore menu item is only displayed if there is at least one backup.
55,2014/3/09,Fix menu items order. Fix application theme. Update overflow icon color to match
18,2014/3/09,New POJOs to implement backup and restore functions
31,2014/3/09,Remove potential NPE
191,2014/2/22,A shortcut can now be created for specific apps.
6446,2014/2/16,Switch to gradle
11,2014/1/26,Update with new StickyListHeader package name
3,2013/11/13,Bump version number
53,2013/11/13,Removing the unnecessary dependency.
2,2013/11/13,Update support library and targetSdkVersion
