# deletions,date,commit message
20,2014/7/02,prep for 22 version bump accessibility fix and cleanup
20,2014/7/02,translation
163,2014/7/02,cleanup from lint check
163,2014/7/02,upgrade
23,2014/7/01,final language addition modified version bump
2,2014/7/01,version bump
2,2014/6/30,add to version bump
2,2014/6/30,fix polish addition
191,2014/6/30,string and translation update
1,2014/6/29,typo
6,2014/6/29,fix
6,2014/6/29,added
6,2014/6/29,quenched
1,2014/6/29,style cleanup
1,2014/6/29,add polish
39,2014/6/29,
19,2014/6/29,finish contribute section
13,2014/6/29,work on contribute section
21,2014/6/29,added more contribution item
1,2014/6/29,add missing menu link
3,2014/6/26,fix
3,2014/6/25,version bump
4,2014/6/25,notification icon size preference
23,2014/6/23,string change
23,2014/6/23,added
23,2014/6/23,all my thanks to you guy are the best
5,2014/6/21,fix some not launching to main action
1,2014/6/19,add to the mix
1,2014/6/19,add sync to
1,2014/6/16,initial 22
7,2014/6/16,android upgrade
2,2014/6/15,version bump
5,2014/6/15,back to 16
2,2014/5/29,add service unbound booleans
2,2014/5/29,version bump to 211
1,2014/5/29,version bump
83,2014/5/29,fix on destroyed fragment
83,2014/5/29,add threading to task builder
23,2014/5/26,added new install instruction
195,2014/5/20,cleanup
195,2014/5/20,removed unnecessary file
4,2014/5/19,update
7,2014/5/18,remove from
0,2014/5/16,rename license
2,2014/5/16,add header
2,2014/5/16,add and license file
2,2014/5/16,version bump to 20
10,2014/5/14,fix with on resize
10,2014/5/14,version bump to 1156
2,2014/4/26,version bump to 1155
42,2014/4/26,big of ordering method
42,2014/4/26,tweaked value
42,2014/4/26,fixed bug
87,2014/4/26,order to be in service
87,2014/4/26,broadcast receiver to be in service
2,2014/4/26,remove unnecessary refresh on launcher
1,2014/4/26,remove gravity switch on medium sized icon transition
2,2014/4/26,version bump to 1154
57,2014/4/26,fix and formatting change
57,2014/4/26,large icon size try medium
57,2014/4/26,added to lookup
57,2014/4/26,major fix and tweak to weight algorithm
57,2014/4/26,added higher base weight
7,2014/4/25,add proper loop
7,2014/4/25,add launcher and blacklist exclusion
11,2014/4/25,new and create base task new install
1,2014/4/25,fix check
2,2014/4/25,decouple preference from notification drawer display
1,2014/4/24,fix font
3,2014/4/24,now called hangar in drawer
3,2014/4/24,version bump to 1152
35,2014/4/24,added thank you page for donation version bump to 1151
16,2014/4/24,big donation commit
16,2014/4/24,added icon button event etc
16,2014/4/24,call service properly fetch item etc
7,2014/4/24,initial donation commit
7,2014/4/24,added class added android service
7,2014/4/24,added initial and dialog builder
4,2014/4/23,fix bug in with
4,2014/4/23,added dummy item
9,2014/4/23,service now restarts on creation
1,2014/4/23,bump
63,2014/4/23,big of using
29,2014/4/23,clean up of and
29,2014/4/23,added method to
1,2014/4/22,clear notification adding
72,2014/4/22,creation out of
376,2014/4/22,notification item away from row
1,2014/4/19,get rid of this
152,2014/4/19,fix crash fix on boot sort
152,2014/4/19,version bump to 115
38,2014/4/19,fix click highlight bug
38,2014/4/19,remove unnecessary visibility change
1,2014/4/19,center not middle
1153,2014/4/19,extracted out
1153,2014/4/19,added vertical alignment setting for widget
1153,2014/4/19,version bump to 1143
64,2014/4/18,further refactoring
64,2014/4/18,fixed menu link to recent change
179,2014/4/18,into dialog
179,2014/4/18,remove unnecessary and class version bump to 1141
3,2014/4/18,fix summary update
7,2014/4/18,fix widget summary update mismatch
7,2014/4/18,fix unneeded blank row bug
11,2014/4/15,fix debug logging add date to
99,2014/4/14,logging and remove from release build
99,2014/4/14,add preview
99,2014/4/14,fix issue with blank line and
99,2014/4/14,version bump to 114
4,2014/4/13,250 item
663,2014/4/13,extract out item
9,2014/4/13,added new small and large icon size to widget
9,2014/4/13,fixed centering on row display
7,2014/4/12,test for small icon size
32,2014/4/12,fix widget setting
32,2014/4/12,fix manual
4,2014/4/12,temporary fix to
4,2014/4/12,cleanup
8,2014/4/11,setting fix
6,2014/4/11,add configuration for
1,2014/4/10,started on setting
2,2014/4/10,fix failure to populate last line on le
2,2014/4/10,add buffer of to look up
68,2014/4/10,add update on launcher visit rotation change
68,2014/4/10,fixed order fixed spacing fixed layout
13,2014/4/09,switch to row view adding for widget
107,2014/4/09,more
13,2014/4/09,cleanup
157,2014/4/09,initial commit
157,2014/4/09,extracting list sort tool
11,2014/4/09,fix
19,2014/4/06,add launch from menu version bump to 113
3,2014/4/06,added
10,2014/4/06,fix to no divider widget layout
6,2014/4/06,cleanup and fix for overlap with on 43
4,2014/4/05,fall back to default width cannot be determined
1,2014/4/05,add alpha to default widget background
2,2014/4/05,added widget preview image
2,2014/4/05,fixed widget refresh on blacklist toggle
2,2014/4/05,version bump to 1121
4,2014/4/05,crash fix on new boot
4,2014/4/05,update for no
4,2014/4/05,setting
4,2014/4/05,added potential fix for broadcast receiver dying in widget
80,2014/4/05,add by size feature
80,2014/4/05,version bump to 112
155,2014/4/04,widget bar now stretch depending on size
155,2014/4/04,fix bar length
155,2014/4/04,rotation now trigger widget redraw
155,2014/4/04,added of limit for both portrait and landscape
155,2014/4/04,tool
155,2014/4/04,extracted properly
155,2014/4/04,version bump to 1113
5,2014/4/04,fixed launcher detect refresh version bump to 1112
36,2014/4/02,properly exclude usage rating on blacklisted item slight cleanup
36,2014/4/02,updated toggle blacklist string
35,2014/4/02,add new menu add menu for reconfiguring widget
35,2014/4/02,add toast reminder on widget creation
35,2014/4/02,add separate wipe stats function
35,2014/4/02,version bump to 111
28,2014/4/01,finished configuration page
28,2014/4/01,added background color of task to show divider toggle
28,2014/4/01,version bump to 110
24,2014/4/01,strip down activity
38,2014/4/01,and rename some activity
38,2014/4/01,add initial
7,2014/4/01,cleanup on string
3,2014/3/29,widget update on visit to launcher
17,2014/3/29,clean up
17,2014/3/28,cleanup and for intent
52,2014/3/28,layout change
52,2014/3/28,added launch intent to bar
193,2014/3/27,change
12,2014/3/26,added 10 item shrunk font
1,2014/3/26,added content fixed height
8,2014/3/26,initial stats widget commit
0,2014/3/25,new
27,2014/3/25,clean up version 19 bump new launcher
11,2014/3/24,new icon
1663,2014/3/24,upgrade to 09 update to new version
1,2014/3/23,new logo
1,2014/3/23,version 18
0,2014/3/21,new icon
14,2014/3/21,version bump to 18 added icon setting
3,2014/3/20,initial commit for icon setting
37,2014/3/20,added background to icon
2,2014/3/20,fix attempt
383,2014/3/20,version 17 service is now external fragment are properly static and standalone
383,2014/3/20,rotation fix hack down fixed landscape color picker added check against opening multiple database removed icon from item
383,2014/3/20,reduced memory usage drastically
