# deletions,date,commit message
3,2014/9/13,version bump to 25
6,2014/9/12,switch loading message to
2,2014/9/12,update and danish translation
2,2014/9/12,version bump
38,2014/9/12,background loading for tab in setting
4,2014/9/07,move to first tab
5,2014/9/07,version bump
14,2014/8/16,launch in floating window
37,2014/9/07,added new contributor updated
20,2014/9/06,updated translation
1,2014/9/02,fix play store intent launch
9,2014/9/02,add low memory detection conflict
2,2014/8/20,translation updated
1,2014/8/20,fix sort comparison in
3,2014/8/14,version bump
1,2014/8/14,translation
