Topic,Words
0,0.090*many,0.074*update,0.069*new,0.058*it,0.055*and,0.051*but,0.048*get,0.046*responsive,0.044*stopping,0.029*511
1,0.069*new,0.064*says,0.059*when,0.058*yesterday,0.058*511,0.057*after,0.054*that,0.049*very,0.043*to,0.041*cannot
2,0.133*coming,0.088*cannot,0.079*years,0.057*have,0.051*been,0.045*work,0.037*lightweight,0.034*new,0.034*when,0.031*update
3,0.092*issues,0.078*it,0.070*crashes,0.067*updating,0.065*on,0.052*30th,0.043*what,0.042*years,0.030*cannot,0.029*have
4,0.078*and,0.077*simple,0.064*stopping,0.063*get,0.057*but,0.057*crash,0.043*after,0.039*updating,0.036*when,0.035*work
5,0.101*for,0.074*that,0.063*its,0.062*to,0.054*responsive,0.042*what,0.033*stopping,0.032*fix,0.032*version,0.031*cannot
6,0.146*stopping,0.124*keeps,0.065*work,0.063*android,0.049*get,0.046*fix,0.039*does,0.036*30th,0.034*that,0.030*simple
7,0.092*love,0.066*the,0.062*have,0.056*it,0.055*new,0.053*30th,0.046*for,0.043*many,0.038*and,0.037*that
8,0.087*yesterday,0.082*many,0.060*after,0.051*responsive,0.047*are,0.046*simple,0.041*years,0.041*cannot,0.040*to,0.038*does
9,0.085*love,0.074*it,0.068*update,0.066*for,0.062*years,0.055*to,0.047*get,0.038*version,0.035*have,0.028*responsive
10,0.072*30th,0.072*update,0.059*android,0.058*many,0.057*responsive,0.053*does,0.046*updating,0.045*lightweight,0.044*511,0.044*version
11,0.105*keeps,0.061*lightweight,0.055*30th,0.055*updating,0.051*for,0.049*get,0.043*very,0.039*511,0.037*crashes,0.033*many
12,0.067*android,0.063*the,0.057*very,0.046*crash,0.044*to,0.043*and,0.041*love,0.039*version,0.039*simple,0.039*yesterday
13,0.086*stopping,0.081*version,0.063*using,0.053*cannot,0.045*after,0.045*get,0.041*update,0.039*yesterday,0.032*when,0.032*are
14,0.070*its,0.061*and,0.053*30th,0.052*version,0.050*to,0.047*are,0.044*responsive,0.043*have,0.042*does,0.040*511
15,0.099*cannot,0.089*what,0.066*yesterday,0.060*when,0.054*years,0.051*work,0.045*keeps,0.040*coming,0.039*lightweight,0.037*30th
16,0.097*is,0.074*on,0.071*crash,0.055*yesterday,0.048*android,0.048*to,0.041*keeps,0.040*lightweight,0.037*the,0.033*have
17,0.130*but,0.069*coming,0.064*love,0.061*and,0.061*issues,0.060*30th,0.056*simple,0.050*what,0.048*for,0.032*yesterday
18,0.104*says,0.088*years,0.061*that,0.053*stopping,0.047*for,0.046*cannot,0.045*issues,0.040*it,0.036*simple,0.036*crashes
19,0.121*lightweight,0.115*have,0.080*keeps,0.057*version,0.047*cannot,0.045*very,0.041*says,0.039*its,0.030*coming,0.026*crashes
