change color of the filter info in the,f,2013/8/05,,
use cached for hashed password instead of user data,b,2013/8/02,,
store the plain text password and use it to sign in expired,b,2013/8/02,,
on successful sign in start appropriate activity,b,2013/8/02,,
change sign out to remove account instead of clearing the start home activity signing out,b,2013/8/02,,
correct parsing of sort index in buddy collection,b,2013/7/30,,
fix crash filtering,b,2013/6/17,,
work around activated bug to show selected navigation select the correct row by default,b,2013/6/17,,
save last viewed on a add a null default for a column in correct bug in,b,2013/6/11,,
handle a null fragment and update due to new android tool,b,2013/5/27,,
rework sort data to show better info,b,2013/5/24,,
improve of play logging,b,2013/5/24,,
improve of play fragment some more,b,2013/5/24,,
improve of play fragment,b,2013/5/24,,
rework sort data to show better info,b,2013/5/23,,
replace the dashboard with a welcome screen move the cancel sync option to the base menu hide search menu item drawer is open on collection string,b,2013/5/22,,
upgrade to the new support library,b,2013/5/21,,
implement navigation drawer,b,2013/5/20,,
move common menu option into a base class and make sure all activity inherit from it,f,2013/5/17,,
replace context menu with cab in search result,b,2013/5/16,,
switch to a cab in,b,2013/5/15,,
move sort description to the correct selection of view one is added or deleted fix bug when updating a view correct capitalization of menu item and when they are visible externalize sort description,b,2013/5/11,,
add a 2 line custom action bar view,b,2013/5/10,,
update ab manifest with a min version of 8,b,2013/5/09,,
improve the around collection,b,2013/5/09,,
updating a draft of a play close the,b,2013/5/08,,
handle case updating play wa deleted on the server,b,2013/5/07,,
show count on improve empty to support tablet view,b,2013/5/02,,
add a plain text action bar item and show the count on the buddy list,f,2013/5/01,,
section the play list and provide different empty message based on mode,b,2013/4/30,,
center the section remember the scroll position in search canceling the sync,b,2013/4/30,,
make some sync task,b,2013/4/27,,
cancel a sync,b,2013/4/27,,
get a sort name for a,b,2013/4/26,,
add an to the buddy list,f,2013/4/26,,
now inherits from,o,2013/4/26,,
the latter support an image fetcher,b,2013/4/26,,
19,o,2013/4/26,,
implement refresh and a tabbed view pager in,b,2013/4/26,,
add the ability to update a single improve buddy parsing,b,2013/4/26,,
into,o,2013/4/25,,
the unique player list,f,2013/4/24,,
fix bad null check in remove old unnecessary code,b,2013/4/23,,
add more info to improve of clicking a buddy row add a link to the thread on the geek in the about screen,f,2013/4/21,,
optionally sort comment by rating,b,2013/4/19,,
to make the previous db mod we have to drop the collection table,f,2013/4/19,,
change the conflict resolution of game to abort and add a similar one to collection item,f,2013/4/19,,
selectively update,b,2013/4/18,,
use the,o,2013/4/18,,
upgrade to 430,b,2013/4/18,,
the year is missing during a search,b,2013/4/17,,
correct apply a batch during sync handle missing collection item in the,b,2013/4/17,,
display a divider between collection item enable clicking on a collection thumbnail,f,2013/4/16,,
show a collection tab in the,b,2013/4/14,,
clear collection text property properly set all on to,b,2013/4/14,,
increase maximum thumbnail size to,b,2013/4/14,,
bump version number to 44 and remove some warning,b,2013/4/10,,
