useless,o,2013-07-29,Matthew Lock,1
icon are not clear or intuitive,b,2013-07-29,Matthew Lock,1
it basically a play clocker,b,2013-07-29,Matthew Lock,1
desperately need an advanced search and option,f,2013-07-06,Aaron C.,1
all my logged play have been sitting in my phone,b,2013-06-22,Mandy Tong,2
had to delete my login several time,b,2013-06-22,Mandy Tong,2
old comment great for logging game play also,b,2013-06-22,Mandy Tong,2
very useful,o,2013-06-22,Mandy Tong,2
i have both,o,2013-06-22,Mandy Tong,2
like this help me log game play a ton easier then the website itself on a mobile device,b,2013-06-16,Randall Burroughs,5
all the function i would like to use are not implemented and it is just for logging your game a good tool,b,2013-05-28,Falko Sieverding,3
