bump version code and update release note,b,2014/12/17,,
hook up git,f,2014/12/12,,
import project into android upgrade 3rd party libs,b,2014/12/12,,
make message generic for data,b,2014/12/09,,
rearrange stats and add info text,f,2014/12/07,,
remove menu clear play stats updating correct display,b,2014/12/06,,
update,b,2014/12/03,,
improve of adding a new color,f,2014/12/03,,
more material tweak including correct action bar text color,f,2014/11/30,,
tweak margin of dialog,o,2014/11/30,,
more padding tweak mostly to the layout,o,2014/11/30,,
tweak play and buddy padding to material standard,b,2014/11/30,,
apply some missing style,o,2014/11/13,,
remove list divider and some other tweak,o,2014/11/13,,
update launcher icon to be more material,b,2014/11/13,,
set category on notification,f,2014/10/30,,
enable voice search,b,2014/10/30,,
play stats to use the new widget,b,2014/10/29,,
