App,Store,App ID,Review ID,Country,Version,Rating,Date,Author,Subject,Body,Translated Subject,Translated Body
Traductor de Softcatalà,Google Play,org.softcatala.traductor,Z3A6QU9xcFRPRlFxRHpDNnoxdFVyQk0wa09FNkRKUkFUSl80U21KWEE0NU83eXI0aktqdTZNRTRMc1I1NFNiLXhvc2VKNjR2cml4YUtyWFhhT0NOWU5sbXc,Catalan,,5,2013-03-26,Jordi Mallach,Chordiet,Meleta de romer!!,,
Traductor de Softcatalà,Google Play,org.softcatala.traductor,Z3A6QU9xcFRPR0Z3OUQ4VkhqWm5kTGRCR2xlOEt0b3NkRmxNZXpsSFVaVm4yU1M3THhyOEZRWTFBdWNEdWpsQjk0V2F2S2tGM3dmLTI2T2ZRTWhjQkZmcVE,Catalan,,5,2013-03-24,Francesc Solà Martinez,Ràpid i fiable,Ràpid i fiable,,
Traductor de Softcatalà,Google Play,org.softcatala.traductor,Z3A6QU9xcFRPRnNmUV9iYklOOUNXZ2V4QVViQzc4d0o5QWd0bWtfa1ZVYldYX1E2cVc3WkV1ZDZpVjRIbnpuYm55OHhEMGI5YXJkMnhFajU2LWFqMmZxakE,Spanish,,5,2013-03-24,Ester Ro,Recomanable,Excel.lent !! Molt útil ! Estic encantada.,,
Traductor de Softcatalà,Google Play,org.softcatala.traductor,Z3A6QU9xcFRPR2l5SVlyNFlmT0pGc3BYT3VCOFlLRUR3LUJ3QVNDTHhDVXNHSU9vcXFfcDBSUXJUcVNFMDZ6TXdXYm5uWVRUcW1QSFFyY19mZVVpeTlTNWc,Spanish,,5,2013-03-24,Joan Bonet Hancox,Molt complet,Imprescindible per a la bona salut de la llengua!,,
