Topic Index 1,Topic Index 2,Topic Similarity
4,12,1.1293
16,1,0.8526
0,0,0.0
1,2,0.0
2,3,0.0
3,4,0.0
5,5,0.0
6,6,0.0
7,7,0.0
8,8,0.0
9,9,0.0
10,10,0.0
11,11,0.0
12,13,0.0
13,14,0.0
14,15,0.0
15,16,0.0
17,17,0.0
18,18,0.0
19,19,0.0
