# deletions,date,commit message
25,2013/6/18,version 1.7.5 merged maxima.html does not work on 4.0.3. This is reverted back.
121,2013/4/14,- maxima.html and index.html are merged to be the new maxima.html - new maxima.html needs support of initialization from MOAActivity. - if init.lisp detects that maxima-5.xx.x dir not exist it quites.
8,2013/4/08,AndroidManifest.xml is modified to specify screenSize in addition to orientation and other changes. This is necessary for API level 13 or higher. index.html and maxima.html are modified to include the valid version names.
78,2013/4/06,ManualActivity was entirely re-written as it became a collection of ugly code. There is default check on one of the radio buttons in MOAInstaller UI.
2,2013/4/02,versionCode incremented. versionName 1.7.3
1,2013/4/02,onRestart() was called in onResume. This is fixed.
