package,release ID,UI element,related topic,average polarity,# reviews,average rating,average objectivity,# uninstalls,delta rating,element deleted next release
org.sufficientlysecure.keychain,v3.2.2,@string/section_new_expiry$,18714,0.5681818181818181,1,5.0,0.7272727272727273,0,0.7024793388429753,0
org.sufficientlysecure.keychain,v3.2.2,@+id/view_key_action_key_nfc$,18720,0.125,1,5.0,1.0,0,0.7024793388429753,0
org.sufficientlysecure.keychain,v3.2.2,@+id/import_nfc_button$,18725,0.125,1,5.0,1.0,0,0.7024793388429753,0
org.sufficientlysecure.keychain,v3.2.2,@+id/yubikey_userid$User ID,18730,0.125,1,5.0,1.0,0,0.7024793388429753,0
org.sufficientlysecure.keychain,v3.2.2,@+id/view_key_action_nfc$,18734,0.125,1,5.0,1.0,0,0.7024793388429753,0
org.sufficientlysecure.keychain,v3.2.2,@+id/selectLockpatternNFC$lockpatternNFC,18739,0.125,1,5.0,1.0,0,0.7024793388429753,0
org.sufficientlysecure.keychain,v3.2.2,@string/yubikey_create$,18743,0.125,1,5.0,1.0,0,0.7024793388429753,0
org.sufficientlysecure.keychain,v3.2.2,@+id/nfcText$nfc_text,18751,0.125,1,5.0,1.0,0,0.7024793388429753,0
org.sufficientlysecure.keychain,v3.2.2,"@+id/yubikey_status$Unknown key, hit next to import",18756,0.125,1,5.0,1.0,0,0.7024793388429753,0
org.sufficientlysecure.keychain,v3.2.2,@+id/yubikey_serno$Yubikey #,18760,0.125,1,5.0,1.0,0,0.7024793388429753,0
org.sufficientlysecure.keychain,v3.2.2,@string/section_yubikey$,18764,0.125,1,5.0,1.0,0,0.7024793388429753,0
org.sufficientlysecure.keychain,v3.2.2,@+id/create_key_yubikey_button$first_time_yubikey,18772,0.125,1,5.0,1.0,0,0.7024793388429753,0
org.sufficientlysecure.keychain,v3.2.2,@+id/nfc_text$nfc_text,18777,0.125,1,5.0,1.0,0,0.7024793388429753,0
org.sufficientlysecure.keychain,v3.2.2,@+id/yubikey_status$Key matches!,18778,0.125,1,5.0,1.0,0,0.7024793388429753,0
