package,release ID,UI element,related topic,average polarity,# reviews,average rating,average objectivity,# uninstalls,delta rating,element deleted next release
org.sufficientlysecure.keychain,v2.2,@+id/api_app_settings_package_signature$Base64 encoded signature,21984,0.9,1,5.0,0.75,0,0.625,0
org.sufficientlysecure.keychain,v2.2,@+id/api_app_settings_hash_algorithm$,21990,0.9,1,5.0,0.75,0,0.625,0
org.sufficientlysecure.keychain,v2.2,@+id/api_app_error_message_text$Set in-code!,21993,0.9,1,5.0,0.75,0,0.625,0
org.sufficientlysecure.keychain,v2.2,@+id/api_app_settings_advanced_button$api_settings_show_advanced,22001,0.9,1,5.0,0.75,0,0.625,0
org.sufficientlysecure.keychain,v2.2,@+id/api_app_settings_fragment$,22005,0.9,1,5.0,0.75,0,0.625,0
org.sufficientlysecure.keychain,v2.2,@+id/api_app_settings_encryption_algorithm$,22009,0.9,1,5.0,0.75,0,0.625,0
org.sufficientlysecure.keychain,v2.2,@+id/api_app_settings_compression$,22016,0.9,1,5.0,0.75,0,0.625,0
org.sufficientlysecure.keychain,v2.2,@string/app_name$,22019,0.9,1,5.0,0.75,0,0.625,0
org.sufficientlysecure.keychain,v2.2,@+id/api_app_settings_package_name$com.example,22024,0.9,1,5.0,0.75,0,0.625,0
org.sufficientlysecure.keychain,v2.2,@+id/api_app_settings_app_name$Name (set in-code),22031,0.9,1,5.0,0.75,0,0.625,0
org.sufficientlysecure.keychain,v2.2,@+id/api_app_settings_app_icon$,22033,0.9,1,5.0,0.75,0,0.625,0
org.sufficientlysecure.keychain,v2.2,@+id/api_app_settings_select_key_fragment$,22038,0.9,1,5.0,0.75,0,0.625,0
