package,release ID,UI element,related topic,average polarity,# reviews,average rating,average objectivity,# uninstalls,delta rating,element deleted next release
org.sufficientlysecure.keychain,v4.0.1,@string/api_settings_allowed_keys$,3248,0.19166666666666665,1,5.0,0.3583333333333334,0,1.1490384615384617,0
org.sufficientlysecure.keychain,v4.0.1,@string/api_settings_allowed_keys$,3254,-0.08703703703703704,2,2.0,0.7778703703703704,0,-1.8509615384615383,0
org.sufficientlysecure.keychain,v4.0.1,@string/api_settings_allowed_keys$,3247,0.07292929292929291,1,4.0,0.5282828282828284,0,0.14903846153846168,0
org.sufficientlysecure.keychain,v4.0.1,@+id/api_app_error_message_text$Set in-code!,3261,0.19166666666666665,1,5.0,0.3583333333333334,0,1.1490384615384617,0
org.sufficientlysecure.keychain,v4.0.1,@+id/api_app_error_message_text$Set in-code!,3263,0.05555555555555555,1,2.0,0.27777777777777773,0,-1.8509615384615383,0
org.sufficientlysecure.keychain,v4.0.1,@+id/api_app_error_message_text$Set in-code!,3259,-0.2,1,1.0,0.715,0,-2.8509615384615383,0
org.sufficientlysecure.keychain,v4.0.1,@+id/api_app_error_message_text$Set in-code!,3264,-0.27777777777777773,1,3.0,0.7777777777777777,0,-0.8509615384615383,0
org.sufficientlysecure.keychain,v4.0.1,@+id/api_select_sign_key_create_key$api_settings_create_key,3274,-0.00416666666666668,2,3.0,0.5366666666666666,0,-0.8509615384615383,0
org.sufficientlysecure.keychain,v4.0.1,@+id/api_select_sign_key_create_key$api_settings_create_key,3276,-0.27777777777777773,1,3.0,0.7777777777777777,0,-0.8509615384615383,0
org.sufficientlysecure.keychain,v4.0.1,@+id/api_select_sign_key_create_key$api_settings_create_key,3281,0.02592592592592593,1,3.0,0.8407407407407408,0,-0.8509615384615383,0
org.sufficientlysecure.keychain,v4.0.1,@string/api_settings_key$,3289,0.19166666666666665,1,5.0,0.3583333333333334,0,1.1490384615384617,0
org.sufficientlysecure.keychain,v4.0.1,@string/api_settings_key$,3290,-0.2,1,1.0,0.715,0,-2.8509615384615383,0
org.sufficientlysecure.keychain,v4.0.1,@string/api_settings_key$,3288,0.02592592592592593,1,3.0,0.8407407407407408,0,-0.8509615384615383,0
org.sufficientlysecure.keychain,v4.0.1,@string/api_settings_settings$,3299,0.19166666666666665,1,5.0,0.3583333333333334,0,1.1490384615384617,0
org.sufficientlysecure.keychain,v4.0.1,@+id/api_account_settings_fragment$,3300,0.19166666666666665,1,5.0,0.3583333333333334,0,1.1490384615384617,0
org.sufficientlysecure.keychain,v4.0.1,@+id/api_apps_adapter_item_icon$,3306,0.19166666666666665,1,5.0,0.3583333333333334,0,1.1490384615384617,0
org.sufficientlysecure.keychain,v4.0.1,@+id/api_remote_create_account_text$api_create_account_text,3311,0.19166666666666665,1,5.0,0.3583333333333334,0,1.1490384615384617,0
org.sufficientlysecure.keychain,v4.0.1,@+id/api_remote_create_account_text$api_create_account_text,3312,0.07292929292929291,1,4.0,0.5282828282828284,0,0.14903846153846168,0
org.sufficientlysecure.keychain,v4.0.1,@+id/api_app_settings_package_certificate$Base64 encoded hash of signature,3316,0.19166666666666665,1,5.0,0.3583333333333334,0,1.1490384615384617,0
org.sufficientlysecure.keychain,v4.0.1,@+id/api_app_settings_package_certificate$Base64 encoded hash of signature,3321,0.05555555555555555,1,2.0,0.27777777777777773,0,-1.8509615384615383,0
org.sufficientlysecure.keychain,v4.0.1,@+id/api_app_settings_package_certificate$Base64 encoded hash of signature,3324,-0.27777777777777773,1,3.0,0.7777777777777777,0,-0.8509615384615383,0
org.sufficientlysecure.keychain,v4.0.1,@+id/api_app_settings_package_certificate$Base64 encoded hash of signature,3319,0.07292929292929291,1,4.0,0.5282828282828284,0,0.14903846153846168,0
org.sufficientlysecure.keychain,v4.0.1,@string/api_settings_package_certificate$,3328,0.19166666666666665,1,5.0,0.3583333333333334,0,1.1490384615384617,0
org.sufficientlysecure.keychain,v4.0.1,@+id/api_app_settings_package_name$com.example,3331,0.19166666666666665,1,5.0,0.3583333333333334,0,1.1490384615384617,0
org.sufficientlysecure.keychain,v4.0.1,@+id/api_app_settings_package_name$com.example,3338,0.05555555555555555,1,2.0,0.27777777777777773,0,-1.8509615384615383,0
org.sufficientlysecure.keychain,v4.0.1,@+id/api_app_settings_app_name$Name (set in-code),3354,0.19166666666666665,1,5.0,0.3583333333333334,0,1.1490384615384617,0
org.sufficientlysecure.keychain,v4.0.1,@+id/api_app_settings_app_name$Name (set in-code),3348,0.05555555555555555,1,2.0,0.27777777777777773,0,-1.8509615384615383,0
org.sufficientlysecure.keychain,v4.0.1,@string/api_settings_package_name$,3366,0.19166666666666665,1,5.0,0.3583333333333334,0,1.1490384615384617,0
org.sufficientlysecure.keychain,v4.0.1,@+id/button_send$linked_button_start,3367,0.19166666666666665,1,5.0,0.3583333333333334,0,1.1490384615384617,0
org.sufficientlysecure.keychain,v4.0.1,@+id/api_app_settings_app_icon$,3372,0.19166666666666665,1,5.0,0.3583333333333334,0,1.1490384615384617,0
org.sufficientlysecure.keychain,v4.0.1,@+id/api_app_settings_app_icon$,3382,0.05555555555555555,1,2.0,0.27777777777777773,0,-1.8509615384615383,0
org.sufficientlysecure.keychain,v4.0.1,@+id/api_select_keys_text$api_select_keys_text,3389,0.19166666666666665,1,5.0,0.3583333333333334,0,1.1490384615384617,0
org.sufficientlysecure.keychain,v4.0.1,@+id/api_select_keys_text$api_select_keys_text,3388,-0.2,1,1.0,0.715,0,-2.8509615384615383,0
org.sufficientlysecure.keychain,v4.0.1,@+id/api_select_keys_text$api_select_keys_text,3390,0.02592592592592593,1,3.0,0.8407407407407408,0,-0.8509615384615383,0
org.sufficientlysecure.keychain,v4.0.1,@+id/api_select_keys_text$api_select_keys_text,3394,0.07292929292929291,1,4.0,0.5282828282828284,0,0.14903846153846168,0
org.sufficientlysecure.keychain,v4.0.1,@+id/api_accounts_adapter_item_name$Account Name,3403,0.19166666666666665,1,5.0,0.3583333333333334,0,1.1490384615384617,0
org.sufficientlysecure.keychain,v4.0.1,@+id/api_app_settings_app_name$Name (set in-code)longlong,3415,0.19166666666666665,1,5.0,0.3583333333333334,0,1.1490384615384617,0
org.sufficientlysecure.keychain,v4.0.1,@+id/api_app_settings_app_name$Name (set in-code)longlong,3409,0.05555555555555555,1,2.0,0.27777777777777773,0,-1.8509615384615383,0
org.sufficientlysecure.keychain,v4.0.1,@+id/api_account_settings_key_spinner$,3423,0.19166666666666665,1,5.0,0.3583333333333334,0,1.1490384615384617,0
org.sufficientlysecure.keychain,v4.0.1,@+id/api_account_settings_key_spinner$,3427,-0.2,1,1.0,0.715,0,-2.8509615384615383,0
org.sufficientlysecure.keychain,v4.0.1,@+id/api_account_settings_key_spinner$,3418,0.02592592592592593,1,3.0,0.8407407407407408,0,-0.8509615384615383,0
org.sufficientlysecure.keychain,v4.0.1,@+id/api_register_text$api_register_text,3430,0.13229797979797978,2,4.5,0.4433080808080809,0,0.6490384615384617,0
org.sufficientlysecure.keychain,v4.0.1,@+id/api_apps_adapter_item_name$Application Name,3435,0.19166666666666665,1,5.0,0.3583333333333334,0,1.1490384615384617,0
org.sufficientlysecure.keychain,v4.0.1,@string/btn_start_exchange$,3441,0.19166666666666665,1,5.0,0.3583333333333334,0,1.1490384615384617,0
org.sufficientlysecure.keychain,v4.0.1,@+id/api_select_sign_key_none$none,3448,0.19166666666666665,1,5.0,0.3583333333333334,0,1.1490384615384617,0
org.sufficientlysecure.keychain,v4.0.1,@+id/api_select_sign_key_none$none,3444,-0.2,1,1.0,0.715,0,-2.8509615384615383,0
org.sufficientlysecure.keychain,v4.0.1,@+id/api_select_sign_key_none$none,3451,-0.27777777777777773,1,3.0,0.7777777777777777,0,-0.8509615384615383,0
org.sufficientlysecure.keychain,v4.0.1,@+id/api_select_sign_key_none$none,3445,0.02592592592592593,1,3.0,0.8407407407407408,0,-0.8509615384615383,0
org.sufficientlysecure.keychain,v4.0.1,@+id/view_key_adv_start_text$,3454,0.19166666666666665,1,5.0,0.3583333333333334,0,1.1490384615384617,0
org.sufficientlysecure.keychain,v4.0.1,@+id/view_key_adv_start_text$,3456,-0.2,1,1.0,0.715,0,-2.8509615384615383,0
org.sufficientlysecure.keychain,v4.0.1,@+id/view_key_adv_start_text$,3453,0.04942760942760942,2,3.5,0.6845117845117845,0,-0.3509615384615383,0
org.sufficientlysecure.keychain,v4.0.1,@+id/api_app_settings_fragment$,3469,0.19166666666666665,1,5.0,0.3583333333333334,0,1.1490384615384617,0
org.sufficientlysecure.keychain,v4.0.1,@+id/api_app_settings_fragment$,3464,0.05555555555555555,1,2.0,0.27777777777777773,0,-1.8509615384615383,0
org.sufficientlysecure.keychain,v4.0.1,@+id/api_apps_adapter_install_icon$,3479,0.19166666666666665,1,5.0,0.3583333333333334,0,1.1490384615384617,0
org.sufficientlysecure.keychain,v4.0.1,@+id/api_account_settings_create_key$api_settings_create_key,3483,0.19166666666666665,1,5.0,0.3583333333333334,0,1.1490384615384617,0
org.sufficientlysecure.keychain,v4.0.1,@+id/api_account_settings_create_key$api_settings_create_key,3482,-0.08703703703703704,2,2.0,0.7778703703703704,0,-1.8509615384615383,0
org.sufficientlysecure.keychain,v4.0.1,@+id/api_account_settings_acc_name$Name (set in-code),3493,0.19166666666666665,1,5.0,0.3583333333333334,0,1.1490384615384617,0
org.sufficientlysecure.keychain,v4.0.1,Using a custom key configuration!$,3505,-0.04305555555555554,2,4.0,0.5680555555555555,0,0.14903846153846168,0
org.sufficientlysecure.keychain,v4.0.1,Using a custom key configuration!$,3501,-0.08703703703703704,2,2.0,0.7778703703703704,0,-1.8509615384615383,0
org.sufficientlysecure.keychain,v4.0.1,@+id/api_account_settings_icon$,3510,0.19166666666666665,1,5.0,0.3583333333333334,0,1.1490384615384617,0
org.sufficientlysecure.keychain,v4.0.1,@+id/api_select_pub_keys_text$,3523,0.19166666666666665,1,5.0,0.3583333333333334,0,1.1490384615384617,0
org.sufficientlysecure.keychain,v4.0.1,@+id/api_select_pub_keys_text$,3525,-0.2,1,1.0,0.715,0,-2.8509615384615383,0
org.sufficientlysecure.keychain,v4.0.1,@+id/api_select_pub_keys_text$,3513,0.02592592592592593,1,3.0,0.8407407407407408,0,-0.8509615384615383,0
org.sufficientlysecure.keychain,v4.0.1,@+id/api_select_pub_keys_text$,3519,0.07292929292929291,1,4.0,0.5282828282828284,0,0.14903846153846168,0
org.sufficientlysecure.keychain,v4.0.1,@+id/api_accounts_label$api_settings_accounts,3529,0.19166666666666665,1,5.0,0.3583333333333334,0,1.1490384615384617,0
org.sufficientlysecure.keychain,v4.0.1,@+id/api_select_sign_key_list_text$api_select_sign_key_text,3538,0.19166666666666665,1,5.0,0.3583333333333334,0,1.1490384615384617,0
org.sufficientlysecure.keychain,v4.0.1,@+id/api_select_sign_key_list_text$api_select_sign_key_text,3540,-0.2,1,1.0,0.715,0,-2.8509615384615383,0
org.sufficientlysecure.keychain,v4.0.1,@+id/api_select_sign_key_list_text$api_select_sign_key_text,3537,-0.27777777777777773,1,3.0,0.7777777777777777,0,-0.8509615384615383,0
org.sufficientlysecure.keychain,v4.0.1,@+id/api_select_sign_key_list_text$api_select_sign_key_text,3536,0.02592592592592593,1,3.0,0.8407407407407408,0,-0.8509615384615383,0
org.sufficientlysecure.keychain,v4.0.1,@+id/api_select_sign_key_list_text$api_select_sign_key_text,3541,0.07292929292929291,1,4.0,0.5282828282828284,0,0.14903846153846168,0
org.sufficientlysecure.keychain,v4.0.1,@+id/linked_verify_container$,3544,0.05555555555555555,1,2.0,0.27777777777777773,0,-1.8509615384615383,0
org.sufficientlysecure.keychain,v4.0.1,@+id/linked_status_step3$,3547,0.05555555555555555,1,2.0,0.27777777777777773,0,-1.8509615384615383,0
org.sufficientlysecure.keychain,v4.0.1,@string/linked_create_twitter_1_3$,3555,0.05555555555555555,1,2.0,0.27777777777777773,0,-1.8509615384615383,0
org.sufficientlysecure.keychain,v4.0.1,@string/linked_create_twitter_1_3$,3553,0.07292929292929291,1,4.0,0.5282828282828284,0,0.14903846153846168,0
org.sufficientlysecure.keychain,v4.0.1,@+id/mainMessage$,3559,-0.07222222222222223,2,1.5,0.4963888888888889,0,-2.3509615384615383,0
org.sufficientlysecure.keychain,v4.0.1,@+id/mainMessage$,3561,-0.27777777777777773,1,3.0,0.7777777777777777,0,-0.8509615384615383,0
org.sufficientlysecure.keychain,v4.0.1,@+id/view_key_linked_ids_empty$linked_empty,3566,0.05555555555555555,1,2.0,0.27777777777777773,0,-1.8509615384615383,0
org.sufficientlysecure.keychain,v4.0.1,@+id/view_key_linked_ids_empty$linked_empty,3568,-0.2,1,1.0,0.715,0,-2.8509615384615383,0
org.sufficientlysecure.keychain,v4.0.1,@+id/view_key_linked_ids_empty$linked_empty,3567,0.02592592592592593,1,3.0,0.8407407407407408,0,-0.8509615384615383,0
org.sufficientlysecure.keychain,v4.0.1,@string/linked_create_https_2_3$,3569,0.05555555555555555,1,2.0,0.27777777777777773,0,-1.8509615384615383,0
org.sufficientlysecure.keychain,v4.0.1,@string/linked_create_https_2_3$,3571,0.07292929292929291,1,4.0,0.5282828282828284,0,0.14903846153846168,0
org.sufficientlysecure.keychain,v4.0.1,@string/linked_github_text$,3578,0.05555555555555555,1,2.0,0.27777777777777773,0,-1.8509615384615383,0
org.sufficientlysecure.keychain,v4.0.1,@string/linked_github_text$,3574,0.07292929292929291,1,4.0,0.5282828282828284,0,0.14903846153846168,0
org.sufficientlysecure.keychain,v4.0.1,@string/linked_create_twitter_2_4$,3582,0.05555555555555555,1,2.0,0.27777777777777773,0,-1.8509615384615383,0
org.sufficientlysecure.keychain,v4.0.1,@string/linked_create_twitter_2_4$,3580,0.07292929292929291,1,4.0,0.5282828282828284,0,0.14903846153846168,0
org.sufficientlysecure.keychain,v4.0.1,@string/linked_create_twitter_2_1$,3585,0.05555555555555555,1,2.0,0.27777777777777773,0,-1.8509615384615383,0
org.sufficientlysecure.keychain,v4.0.1,@string/linked_create_twitter_2_1$,3587,0.07292929292929291,1,4.0,0.5282828282828284,0,0.14903846153846168,0
org.sufficientlysecure.keychain,v4.0.1,@+id/linked_create_https_uri$,3592,0.05555555555555555,2,2.0,0.27777777777777773,0,-1.8509615384615383,0
org.sufficientlysecure.keychain,v4.0.1,@string/linked_create_https_2_2$,3595,0.05555555555555555,1,2.0,0.27777777777777773,0,-1.8509615384615383,0
org.sufficientlysecure.keychain,v4.0.1,@string/linked_create_https_2_2$,3598,0.07292929292929291,1,4.0,0.5282828282828284,0,0.14903846153846168,0
org.sufficientlysecure.keychain,v4.0.1,@string/linked_create_twitter_1_1$,3599,0.05555555555555555,1,2.0,0.27777777777777773,0,-1.8509615384615383,0
org.sufficientlysecure.keychain,v4.0.1,@string/linked_create_twitter_1_1$,3602,0.07292929292929291,1,4.0,0.5282828282828284,0,0.14903846153846168,0
org.sufficientlysecure.keychain,v4.0.1,@+id/card_linked_ids$,3607,0.05555555555555555,1,2.0,0.27777777777777773,0,-1.8509615384615383,0
org.sufficientlysecure.keychain,v4.0.1,@+id/linked_cert_text$,3613,0.06424242424242424,2,3.0,0.40303030303030307,0,-0.8509615384615383,0
org.sufficientlysecure.keychain,v4.0.1,@+id/fab_main$,3618,0.05555555555555555,1,2.0,0.27777777777777773,0,-1.8509615384615383,0
org.sufficientlysecure.keychain,v4.0.1,@string/section_linked_system_contact$,3620,0.05555555555555555,1,2.0,0.27777777777777773,0,-1.8509615384615383,0
org.sufficientlysecure.keychain,v4.0.1,@string/decrypt_result_action_show$,3628,0.05555555555555555,1,2.0,0.27777777777777773,0,-1.8509615384615383,0
org.sufficientlysecure.keychain,v4.0.1,@string/decrypt_result_action_show$,3625,-0.08703703703703704,2,2.0,0.7778703703703704,0,-1.8509615384615383,0
org.sufficientlysecure.keychain,v4.0.1,@string/linked_create_https_1_4$,3631,0.06424242424242424,2,3.0,0.40303030303030307,0,-0.8509615384615383,0
org.sufficientlysecure.keychain,v4.0.1,@+id/linked_create_twitter_handle$,3637,0.05555555555555555,1,2.0,0.27777777777777773,0,-1.8509615384615383,0
org.sufficientlysecure.keychain,v4.0.1,@+id/view_key_card_linked_ids_add$menu_linked_add_identity,3641,0.05555555555555555,1,2.0,0.27777777777777773,0,-1.8509615384615383,0
org.sufficientlysecure.keychain,v4.0.1,@+id/view_key_card_linked_ids_add$menu_linked_add_identity,3639,-0.2,1,1.0,0.715,0,-2.8509615384615383,0
org.sufficientlysecure.keychain,v4.0.1,@+id/view_key_card_linked_ids_add$menu_linked_add_identity,3644,0.02592592592592593,1,3.0,0.8407407407407408,0,-0.8509615384615383,0
org.sufficientlysecure.keychain,v4.0.1,@+id/view_key_card_linked_ids_add$menu_linked_add_identity,3645,0.07292929292929291,1,4.0,0.5282828282828284,0,0.14903846153846168,0
org.sufficientlysecure.keychain,v4.0.1,@string/linked_create_https_2_1$,3649,0.05555555555555555,1,2.0,0.27777777777777773,0,-1.8509615384615383,0
org.sufficientlysecure.keychain,v4.0.1,@string/linked_create_https_2_1$,3647,0.07292929292929291,1,4.0,0.5282828282828284,0,0.14903846153846168,0
org.sufficientlysecure.keychain,v4.0.1,@+id/view_key_linked_ids$,3654,0.05555555555555555,1,2.0,0.27777777777777773,0,-1.8509615384615383,0
org.sufficientlysecure.keychain,v4.0.1,@+id/view_key_linked_ids$,3653,-0.2,1,1.0,0.715,0,-2.8509615384615383,0
org.sufficientlysecure.keychain,v4.0.1,@+id/view_key_linked_ids$,3651,0.02592592592592593,1,3.0,0.8407407407407408,0,-0.8509615384615383,0
org.sufficientlysecure.keychain,v4.0.1,@string/linked_create_https_1_1$,3662,0.05555555555555555,1,2.0,0.27777777777777773,0,-1.8509615384615383,0
org.sufficientlysecure.keychain,v4.0.1,@string/linked_create_https_1_1$,3663,0.07292929292929291,1,4.0,0.5282828282828284,0,0.14903846153846168,0
org.sufficientlysecure.keychain,v4.0.1,@string/linked_progress_post_gist$,3664,0.05555555555555555,1,2.0,0.27777777777777773,0,-1.8509615384615383,0
org.sufficientlysecure.keychain,v4.0.1,@+id/linked_id_comment$,3671,0.05555555555555555,1,2.0,0.27777777777777773,0,-1.8509615384615383,0
org.sufficientlysecure.keychain,v4.0.1,@string/linked_create_twitter_2_2$,3676,0.05555555555555555,1,2.0,0.27777777777777773,0,-1.8509615384615383,0
org.sufficientlysecure.keychain,v4.0.1,@string/linked_create_twitter_2_2$,3678,0.07292929292929291,1,4.0,0.5282828282828284,0,0.14903846153846168,0
org.sufficientlysecure.keychain,v4.0.1,@string/linked_create_https_1_3$,3683,0.05555555555555555,1,2.0,0.27777777777777773,0,-1.8509615384615383,0
org.sufficientlysecure.keychain,v4.0.1,@string/linked_create_https_1_3$,3681,0.07292929292929291,1,4.0,0.5282828282828284,0,0.14903846153846168,0
org.sufficientlysecure.keychain,v4.0.1,@string/linked_progress_update_key$,3688,-0.07222222222222223,2,1.5,0.4963888888888889,0,-2.3509615384615383,0
org.sufficientlysecure.keychain,v4.0.1,@string/linked_progress_update_key$,3686,0.02592592592592593,1,3.0,0.8407407407407408,0,-0.8509615384615383,0
org.sufficientlysecure.keychain,v4.0.1,@+id/linked_id_certified_icon$,3695,0.05555555555555555,1,2.0,0.27777777777777773,0,-1.8509615384615383,0
org.sufficientlysecure.keychain,v4.0.1,@string/card_linked_identity$,3700,0.05555555555555555,1,2.0,0.27777777777777773,0,-1.8509615384615383,0
org.sufficientlysecure.keychain,v4.0.1,@+id/linked_tweet_published$,3705,0.05555555555555555,1,2.0,0.27777777777777773,0,-1.8509615384615383,0
org.sufficientlysecure.keychain,v4.0.1,@+id/linked_cert_progress$,3707,0.05555555555555555,1,2.0,0.27777777777777773,0,-1.8509615384615383,0
org.sufficientlysecure.keychain,v4.0.1,@+id/linked_id_certified$,3716,0.05555555555555555,1,2.0,0.27777777777777773,0,-1.8509615384615383,0
org.sufficientlysecure.keychain,v4.0.1,@string/linked_select_2$,3719,0.05555555555555555,1,2.0,0.27777777777777773,0,-1.8509615384615383,0
org.sufficientlysecure.keychain,v4.0.1,@string/linked_select_2$,3718,0.02592592592592593,1,3.0,0.8407407407407408,0,-0.8509615384615383,0
org.sufficientlysecure.keychain,v4.0.1,@string/linked_select_2$,3717,0.07292929292929291,1,4.0,0.5282828282828284,0,0.14903846153846168,0
org.sufficientlysecure.keychain,v4.0.1,@string/linked_title_twitter$,3722,0.05555555555555555,1,2.0,0.27777777777777773,0,-1.8509615384615383,0
org.sufficientlysecure.keychain,v4.0.1,@+id/create_key_show_passphrase$label_show_passphrase,3729,0.05555555555555555,1,2.0,0.27777777777777773,0,-1.8509615384615383,0
org.sufficientlysecure.keychain,v4.0.1,@+id/create_key_show_passphrase$label_show_passphrase,3730,-0.2,1,1.0,0.715,0,-2.8509615384615383,0
org.sufficientlysecure.keychain,v4.0.1,@+id/create_key_show_passphrase$label_show_passphrase,3732,0.02592592592592593,1,3.0,0.8407407407407408,0,-0.8509615384615383,0
org.sufficientlysecure.keychain,v4.0.1,@+id/linked_id_certs$,3741,0.05555555555555555,1,2.0,0.27777777777777773,0,-1.8509615384615383,0
org.sufficientlysecure.keychain,v4.0.1,@string/linked_progress_auth_github$,3743,0.05555555555555555,1,2.0,0.27777777777777773,0,-1.8509615384615383,0
org.sufficientlysecure.keychain,v4.0.1,@string/linked_create_twitter_1_2$,3747,0.05555555555555555,1,2.0,0.27777777777777773,0,-1.8509615384615383,0
org.sufficientlysecure.keychain,v4.0.1,@string/linked_create_twitter_1_2$,3751,0.07292929292929291,1,4.0,0.5282828282828284,0,0.14903846153846168,0
org.sufficientlysecure.keychain,v4.0.1,@+id/linked_status_step1$,3755,0.05555555555555555,1,2.0,0.27777777777777773,0,-1.8509615384615383,0
org.sufficientlysecure.keychain,v4.0.1,@string/linked_title_https$,3758,0.05555555555555555,1,2.0,0.27777777777777773,0,-1.8509615384615383,0
org.sufficientlysecure.keychain,v4.0.1,@string/filemanager_title_open$,3766,0.05555555555555555,1,2.0,0.27777777777777773,0,-1.8509615384615383,0
org.sufficientlysecure.keychain,v4.0.1,@string/linked_title_github$,3767,0.05555555555555555,1,2.0,0.27777777777777773,0,-1.8509615384615383,0
org.sufficientlysecure.keychain,v4.0.1,@+id/linked_id_type_icon$,3776,0.05555555555555555,1,2.0,0.27777777777777773,0,-1.8509615384615383,0
org.sufficientlysecure.keychain,v4.0.1,@string/section_linked_identities$,3777,0.05555555555555555,1,2.0,0.27777777777777773,0,-1.8509615384615383,0
org.sufficientlysecure.keychain,v4.0.1,@string/app_name$,3792,0.05555555555555555,1,2.0,0.27777777777777773,0,-1.8509615384615383,0
org.sufficientlysecure.keychain,v4.0.1,@+id/linked_id_title$,3800,0.05555555555555555,1,2.0,0.27777777777777773,0,-1.8509615384615383,0
org.sufficientlysecure.keychain,v4.0.1,@+id/linked_system_contact_card$,3803,0.05555555555555555,1,2.0,0.27777777777777773,0,-1.8509615384615383,0
org.sufficientlysecure.keychain,v4.0.1,@string/linked_create_https_2_4$,3808,0.05555555555555555,1,2.0,0.27777777777777773,0,-1.8509615384615383,0
org.sufficientlysecure.keychain,v4.0.1,@string/linked_create_https_2_4$,3809,0.07292929292929291,1,4.0,0.5282828282828284,0,0.14903846153846168,0
org.sufficientlysecure.keychain,v4.0.1,@+id/view_key_linked_ids_expander$linked_ids_more_unknown,3819,0.05555555555555555,1,2.0,0.27777777777777773,0,-1.8509615384615383,0
org.sufficientlysecure.keychain,v4.0.1,@+id/view_key_linked_ids_expander$linked_ids_more_unknown,3815,-0.08703703703703704,2,2.0,0.7778703703703704,0,-1.8509615384615383,0
org.sufficientlysecure.keychain,v4.0.1,@string/linked_create_https_1_2$,3820,0.06424242424242424,2,3.0,0.40303030303030307,0,-0.8509615384615383,0
org.sufficientlysecure.keychain,v4.0.1,@+id/user_id_item_check_box$,3829,0.05555555555555555,1,2.0,0.27777777777777773,0,-1.8509615384615383,0
org.sufficientlysecure.keychain,v4.0.1,@+id/user_id_item_check_box$,3826,0.02592592592592593,1,3.0,0.8407407407407408,0,-0.8509615384615383,0
org.sufficientlysecure.keychain,v4.0.1,@+id/linked_status_step2$,3830,0.05555555555555555,1,2.0,0.27777777777777773,0,-1.8509615384615383,0
org.sufficientlysecure.keychain,v4.0.1,@+id/create_key_next_button$btn_next,3839,-0.2,1,1.0,0.715,0,-2.8509615384615383,0
org.sufficientlysecure.keychain,v4.0.1,@+id/create_key_next_button$btn_next,3835,0.02592592592592593,1,3.0,0.8407407407407408,0,-0.8509615384615383,0
org.sufficientlysecure.keychain,v4.0.1,@+id/create_key_back_button$btn_back,3847,-0.08703703703703704,2,2.0,0.7778703703703704,0,-1.8509615384615383,0
org.sufficientlysecure.keychain,v4.0.1,@+id/key_list_fragment$,3863,-0.2,1,1.0,0.715,0,-2.8509615384615383,0
org.sufficientlysecure.keychain,v4.0.1,@+id/key_list_fragment$,3866,0.02592592592592593,1,3.0,0.8407407407407408,0,-0.8509615384615383,0
org.sufficientlysecure.keychain,v4.0.1,@+id/edit_key_action_add_user_id$edit_key_action_add_identity,3870,-0.2,1,1.0,0.715,0,-2.8509615384615383,0
org.sufficientlysecure.keychain,v4.0.1,@+id/edit_key_action_add_user_id$edit_key_action_add_identity,3871,0.02592592592592593,1,3.0,0.8407407407407408,0,-0.8509615384615383,0
org.sufficientlysecure.keychain,v4.0.1,@+id/edit_key_action_add_user_id$edit_key_action_add_identity,3869,0.07292929292929291,1,4.0,0.5282828282828284,0,0.14903846153846168,0
org.sufficientlysecure.keychain,v4.0.1,@+id/view_key_qr_code_layout$,3889,-0.08703703703703704,2,2.0,0.7778703703703704,0,-1.8509615384615383,0
org.sufficientlysecure.keychain,v4.0.1,@+id/key_list_list$,3901,-0.2,1,1.0,0.715,0,-2.8509615384615383,0
org.sufficientlysecure.keychain,v4.0.1,@+id/key_list_list$,3900,0.02592592592592593,1,3.0,0.8407407407407408,0,-0.8509615384615383,0
org.sufficientlysecure.keychain,v4.0.1,@+id/view_key_status_image$,3902,-0.08703703703703704,2,2.0,0.7778703703703704,0,-1.8509615384615383,0
org.sufficientlysecure.keychain,v4.0.1,@+id/create_yubi_key_pin_repeat$,3922,-0.2,1,1.0,0.715,0,-2.8509615384615383,0
org.sufficientlysecure.keychain,v4.0.1,@+id/create_yubi_key_pin_repeat$,3916,0.02592592592592593,1,3.0,0.8407407407407408,0,-0.8509615384615383,0
org.sufficientlysecure.keychain,v4.0.1,@+id/key_list_item_creation$,3926,-0.2,1,1.0,0.715,0,-2.8509615384615383,0
org.sufficientlysecure.keychain,v4.0.1,@+id/key_list_item_creation$,3931,0.02592592592592593,1,3.0,0.8407407407407408,0,-0.8509615384615383,0
org.sufficientlysecure.keychain,v4.0.1,@+id/create_key_passphrase_again$,3935,-0.2,1,1.0,0.715,0,-2.8509615384615383,0
org.sufficientlysecure.keychain,v4.0.1,@+id/create_key_passphrase_again$,3940,0.02592592592592593,1,3.0,0.8407407407407408,0,-0.8509615384615383,0
org.sufficientlysecure.keychain,v4.0.1,@string/create_key_yubi_key_admin_pin_text$,3948,-0.2,1,1.0,0.715,0,-2.8509615384615383,0
org.sufficientlysecure.keychain,v4.0.1,@string/create_key_yubi_key_admin_pin_text$,3945,0.04942760942760942,2,3.5,0.6845117845117845,0,-0.3509615384615383,0
org.sufficientlysecure.keychain,v4.0.1,@+id/backup_public_keys$backup_public_keys,3958,-0.08703703703703704,2,2.0,0.7778703703703704,0,-1.8509615384615383,0
org.sufficientlysecure.keychain,v4.0.1,@string/create_key_passphrase_text$,3961,-0.08703703703703704,2,2.0,0.7778703703703704,0,-1.8509615384615383,0
org.sufficientlysecure.keychain,v4.0.1,@string/create_key_passphrase_text$,3964,0.07292929292929291,1,4.0,0.5282828282828284,0,0.14903846153846168,0
org.sufficientlysecure.keychain,v4.0.1,@+id/view_key_action_encrypt_files$,3974,-0.2,1,1.0,0.715,0,-2.8509615384615383,0
org.sufficientlysecure.keychain,v4.0.1,@+id/view_key_action_encrypt_files$,3970,0.04942760942760942,2,3.5,0.6845117845117845,0,-0.3509615384615383,0
org.sufficientlysecure.keychain,v4.0.1,@+id/cert_key_spinner$,3987,-0.2,1,1.0,0.715,0,-2.8509615384615383,0
org.sufficientlysecure.keychain,v4.0.1,@+id/cert_key_spinner$,3983,0.02592592592592593,1,3.0,0.8407407407407408,0,-0.8509615384615383,0
org.sufficientlysecure.keychain,v4.0.1,@+id/create_key_email_item_email$alice@example.com,3994,-0.2,1,1.0,0.715,0,-2.8509615384615383,0
org.sufficientlysecure.keychain,v4.0.1,@+id/create_key_email_item_email$alice@example.com,3996,0.02592592592592593,1,3.0,0.8407407407407408,0,-0.8509615384615383,0
org.sufficientlysecure.keychain,v4.0.1,@+id/create_key_next_button$first_time_blank_security_token_yes,3999,-0.2,1,1.0,0.715,0,-2.8509615384615383,0
org.sufficientlysecure.keychain,v4.0.1,@+id/create_key_next_button$first_time_blank_security_token_yes,4002,0.02592592592592593,1,3.0,0.8407407407407408,0,-0.8509615384615383,0
org.sufficientlysecure.keychain,v4.0.1,@+id/create_key_next_button$first_time_blank_security_token_yes,4005,0.07292929292929291,1,4.0,0.5282828282828284,0,0.14903846153846168,0
org.sufficientlysecure.keychain,v4.0.1,@+id/view_key_action_key_nfc$,4011,-0.2,1,1.0,0.715,0,-2.8509615384615383,0
org.sufficientlysecure.keychain,v4.0.1,@+id/view_key_action_key_nfc$,4010,0.02592592592592593,1,3.0,0.8407407407407408,0,-0.8509615384615383,0
org.sufficientlysecure.keychain,v4.0.1,@string/create_key_yubi_key_admin_pin$,4020,-0.2,1,1.0,0.715,0,-2.8509615384615383,0
org.sufficientlysecure.keychain,v4.0.1,@string/create_key_yubi_key_admin_pin$,4021,0.02592592592592593,1,3.0,0.8407407407407408,0,-0.8509615384615383,0
org.sufficientlysecure.keychain,v4.0.1,@+id/signerKeyId$<user@example.com>,4036,-0.2,1,1.0,0.715,0,-2.8509615384615383,0
org.sufficientlysecure.keychain,v4.0.1,@+id/signerKeyId$<user@example.com>,4030,0.02592592592592593,1,3.0,0.8407407407407408,0,-0.8509615384615383,0
org.sufficientlysecure.keychain,v4.0.1,@+id/view_key_status_divider$,4041,-0.08703703703703704,2,2.0,0.7778703703703704,0,-1.8509615384615383,0
org.sufficientlysecure.keychain,v4.0.1,@+id/view_key_status$,4055,-0.2,1,1.0,0.715,0,-2.8509615384615383,0
org.sufficientlysecure.keychain,v4.0.1,@+id/view_key_status$,4056,0.02592592592592593,1,3.0,0.8407407407407408,0,-0.8509615384615383,0
org.sufficientlysecure.keychain,v4.0.1,@+id/create_key_email_item_delete_button$,4065,-0.2,1,1.0,0.715,0,-2.8509615384615383,0
org.sufficientlysecure.keychain,v4.0.1,@+id/create_key_email_item_delete_button$,4061,0.02592592592592593,1,3.0,0.8407407407407408,0,-0.8509615384615383,0
org.sufficientlysecure.keychain,v4.0.1,@+id/create_key_emails$,4074,-0.2,1,1.0,0.715,0,-2.8509615384615383,0
org.sufficientlysecure.keychain,v4.0.1,@+id/create_key_emails$,4077,0.02592592592592593,1,3.0,0.8407407407407408,0,-0.8509615384615383,0
org.sufficientlysecure.keychain,v4.0.1,@string/create_key_email_text$,4081,-0.2,1,1.0,0.715,0,-2.8509615384615383,0
org.sufficientlysecure.keychain,v4.0.1,@string/create_key_email_text$,4088,0.04942760942760942,2,3.5,0.6845117845117845,0,-0.3509615384615383,0
org.sufficientlysecure.keychain,v4.0.1,@+id/create_yubi_key_pin$,4094,-0.2,1,1.0,0.715,0,-2.8509615384615383,0
org.sufficientlysecure.keychain,v4.0.1,@+id/create_yubi_key_pin$,4093,0.02592592592592593,1,3.0,0.8407407407407408,0,-0.8509615384615383,0
org.sufficientlysecure.keychain,v4.0.1,@+id/view_key_action_fingerprint_clipboard$,4102,-0.08703703703703704,2,2.0,0.7778703703703704,0,-1.8509615384615383,0
org.sufficientlysecure.keychain,v4.0.1,@+id/create_key_upload$create_key_upload,4118,-0.2,1,1.0,0.715,0,-2.8509615384615383,0
org.sufficientlysecure.keychain,v4.0.1,@+id/create_key_upload$create_key_upload,4114,0.02592592592592593,1,3.0,0.8407407407407408,0,-0.8509615384615383,0
org.sufficientlysecure.keychain,v4.0.1,@+id/key_list_item_slinger_button$,4128,-0.2,1,1.0,0.715,0,-2.8509615384615383,0
org.sufficientlysecure.keychain,v4.0.1,@+id/key_list_item_slinger_button$,4129,0.02592592592592593,1,3.0,0.8407407407407408,0,-0.8509615384615383,0
org.sufficientlysecure.keychain,v4.0.1,@string/key_list_empty_text1$,4141,-0.2,1,1.0,0.715,0,-2.8509615384615383,0
org.sufficientlysecure.keychain,v4.0.1,@string/key_list_empty_text1$,4145,0.02592592592592593,1,3.0,0.8407407407407408,0,-0.8509615384615383,0
org.sufficientlysecure.keychain,v4.0.1,@+id/view_key_qr_code$,4153,-0.2,1,1.0,0.715,0,-2.8509615384615383,0
org.sufficientlysecure.keychain,v4.0.1,@+id/view_key_qr_code$,4150,0.02592592592592593,1,3.0,0.8407407407407408,0,-0.8509615384615383,0
org.sufficientlysecure.keychain,v4.0.1,@+id/view_cert_view_cert_key$btn_view_cert_key,4161,-0.2,1,1.0,0.715,0,-2.8509615384615383,0
org.sufficientlysecure.keychain,v4.0.1,@+id/view_cert_view_cert_key$btn_view_cert_key,4163,0.02592592592592593,1,3.0,0.8407407407407408,0,-0.8509615384615383,0
org.sufficientlysecure.keychain,v4.0.1,@+id/key_list_item_status_icon$,4169,-0.2,1,1.0,0.715,0,-2.8509615384615383,0
org.sufficientlysecure.keychain,v4.0.1,@+id/key_list_item_status_icon$,4171,0.02592592592592593,1,3.0,0.8407407407407408,0,-0.8509615384615383,0
org.sufficientlysecure.keychain,v4.0.1,@+id/view_key_action_key_safeslinger$,4185,-0.2,1,1.0,0.715,0,-2.8509615384615383,0
org.sufficientlysecure.keychain,v4.0.1,@+id/view_key_action_key_safeslinger$,4187,0.02592592592592593,1,3.0,0.8407407407407408,0,-0.8509615384615383,0
org.sufficientlysecure.keychain,v4.0.1,@+id/edit_key_keys$,4200,-0.08703703703703704,2,2.0,0.7778703703703704,0,-1.8509615384615383,0
org.sufficientlysecure.keychain,v4.0.1,@+id/edit_key_keys$,4198,0.07292929292929291,1,4.0,0.5282828282828284,0,0.14903846153846168,0
org.sufficientlysecure.keychain,v4.0.1,@+id/create_key_passphrase$,4212,-0.2,1,1.0,0.715,0,-2.8509615384615383,0
org.sufficientlysecure.keychain,v4.0.1,@+id/create_key_passphrase$,4206,0.02592592592592593,1,3.0,0.8407407407407408,0,-0.8509615384615383,0
org.sufficientlysecure.keychain,v4.0.1,@+id/edit_key_user_ids$,4215,-0.2,1,1.0,0.715,0,-2.8509615384615383,0
org.sufficientlysecure.keychain,v4.0.1,@+id/edit_key_user_ids$,4218,0.02592592592592593,1,3.0,0.8407407407407408,0,-0.8509615384615383,0
org.sufficientlysecure.keychain,v4.0.1,@+id/edit_key_user_ids$,4217,0.07292929292929291,1,4.0,0.5282828282828284,0,0.14903846153846168,0
org.sufficientlysecure.keychain,v4.0.1,@+id/select_key_item_email$alice@example.com,4226,-0.2,1,1.0,0.715,0,-2.8509615384615383,0
org.sufficientlysecure.keychain,v4.0.1,@+id/select_key_item_email$alice@example.com,4236,0.02592592592592593,1,3.0,0.8407407407407408,0,-0.8509615384615383,0
org.sufficientlysecure.keychain,v4.0.1,@string/create_key_add_email_text$,4239,-0.03371492704826039,3,2.6666666666666665,0.6946745230078565,0,-1.1842948717948718,0
org.sufficientlysecure.keychain,v4.0.1,@+id/view_key_trust_cloud_narrative$,4253,-0.06353535353535356,2,2.5,0.6216414141414142,0,-1.3509615384615383,0
org.sufficientlysecure.keychain,v4.0.1,@+id/view_key_trust_cloud_narrative$,4249,0.02592592592592593,1,3.0,0.8407407407407408,0,-0.8509615384615383,0
org.sufficientlysecure.keychain,v4.0.1,@string/backup_code_wrong$,4260,-0.2,1,1.0,0.715,0,-2.8509615384615383,0
org.sufficientlysecure.keychain,v4.0.1,@+id/view_key_action_nfc$,4271,-0.2,1,1.0,0.715,0,-2.8509615384615383,0
org.sufficientlysecure.keychain,v4.0.1,@+id/view_key_action_nfc$,4269,0.02592592592592593,1,3.0,0.8407407407407408,0,-0.8509615384615383,0
org.sufficientlysecure.keychain,v4.0.1,@+id/key_list_item_name$,4275,-0.2,1,1.0,0.715,0,-2.8509615384615383,0
org.sufficientlysecure.keychain,v4.0.1,@+id/key_list_item_name$,4277,0.02592592592592593,1,3.0,0.8407407407407408,0,-0.8509615384615383,0
org.sufficientlysecure.keychain,v4.0.1,@+id/add_subkey_usage_sign_and_encrypt$usage_sign_and_encrypt,4282,-0.15061728395061727,3,2.3333333333333335,0.7778395061728395,0,-1.5176282051282048,0
org.sufficientlysecure.keychain,v4.0.1,@+id/add_subkey_usage_sign_and_encrypt$usage_sign_and_encrypt,4284,0.07292929292929291,1,4.0,0.5282828282828284,0,0.14903846153846168,0
org.sufficientlysecure.keychain,v4.0.1,@+id/create_key_add_email$btn_add_email,4287,-0.06353535353535356,2,2.5,0.6216414141414142,0,-1.3509615384615383,0
org.sufficientlysecure.keychain,v4.0.1,@+id/create_key_add_email$btn_add_email,4288,0.02592592592592593,1,3.0,0.8407407407407408,0,-0.8509615384615383,0
org.sufficientlysecure.keychain,v4.0.1,@+id/create_key_name$,4300,-0.08703703703703704,2,2.0,0.7778703703703704,0,-1.8509615384615383,0
org.sufficientlysecure.keychain,v4.0.1,@string/section_keys$,4312,-0.2,1,1.0,0.715,0,-2.8509615384615383,0
org.sufficientlysecure.keychain,v4.0.1,@string/section_keys$,4309,0.02592592592592593,1,3.0,0.8407407407407408,0,-0.8509615384615383,0
org.sufficientlysecure.keychain,v4.0.1,@+id/view_key_card_user_ids$,4322,-0.08703703703703704,2,2.0,0.7778703703703704,0,-1.8509615384615383,0
org.sufficientlysecure.keychain,v4.0.1,@+id/key_list_item_email$,4336,-0.08703703703703704,2,2.0,0.7778703703703704,0,-1.8509615384615383,0
org.sufficientlysecure.keychain,v4.0.1,@+id/create_key_cancel$btn_do_not_save,4340,-0.2,1,1.0,0.715,0,-2.8509615384615383,0
org.sufficientlysecure.keychain,v4.0.1,@+id/create_key_cancel$btn_do_not_save,4339,0.02592592592592593,1,3.0,0.8407407407407408,0,-0.8509615384615383,0
org.sufficientlysecure.keychain,v4.0.1,@+id/create_key_button_divider$,4354,-0.08703703703703704,2,2.0,0.7778703703703704,0,-1.8509615384615383,0
org.sufficientlysecure.keychain,v4.0.1,You don't have any keys yet!$,4359,-0.08703703703703704,2,2.0,0.7778703703703704,0,-1.8509615384615383,0
org.sufficientlysecure.keychain,v4.0.1,@string/create_key_name_text$,4367,-0.2,1,1.0,0.715,0,-2.8509615384615383,0
org.sufficientlysecure.keychain,v4.0.1,@string/create_key_name_text$,4364,0.02592592592592593,1,3.0,0.8407407407407408,0,-0.8509615384615383,0
org.sufficientlysecure.keychain,v4.0.1,@string/create_key_name_text$,4371,0.07292929292929291,1,4.0,0.5282828282828284,0,0.14903846153846168,0
org.sufficientlysecure.keychain,v4.0.1,@+id/view_key_subkeys_added$,4380,-0.08703703703703704,2,2.0,0.7778703703703704,0,-1.8509615384615383,0
org.sufficientlysecure.keychain,v4.0.1,@+id/view_key_subkeys_added$,4375,0.07292929292929291,1,4.0,0.5282828282828284,0,0.14903846153846168,0
org.sufficientlysecure.keychain,v4.0.1,@+id/upload_key_keyserver$,4381,-0.2,1,1.0,0.715,0,-2.8509615384615383,0
org.sufficientlysecure.keychain,v4.0.1,@+id/upload_key_keyserver$,4387,0.02592592592592593,1,3.0,0.8407407407407408,0,-0.8509615384615383,0
org.sufficientlysecure.keychain,v4.0.1,@+id/view_key_user_ids_added$,4394,-0.08703703703703704,2,2.0,0.7778703703703704,0,-1.8509615384615383,0
org.sufficientlysecure.keychain,v4.0.1,@+id/view_key_user_ids_added$,4399,0.07292929292929291,1,4.0,0.5282828282828284,0,0.14903846153846168,0
org.sufficientlysecure.keychain,v4.0.1,@+id/keyspinner_key_name$,4400,-0.2,1,1.0,0.715,0,-2.8509615384615383,0
org.sufficientlysecure.keychain,v4.0.1,@+id/keyspinner_key_name$,4404,0.02592592592592593,1,3.0,0.8407407407407408,0,-0.8509615384615383,0
org.sufficientlysecure.keychain,v4.0.1,@+id/subkey_item_key_id$0x00000000,4419,-0.2,1,1.0,0.715,0,-2.8509615384615383,0
org.sufficientlysecure.keychain,v4.0.1,@+id/subkey_item_key_id$0x00000000,4417,0.02592592592592593,1,3.0,0.8407407407407408,0,-0.8509615384615383,0
org.sufficientlysecure.keychain,v4.0.1,@+id/create_key_email$,4421,-0.2,1,1.0,0.715,0,-2.8509615384615383,0
org.sufficientlysecure.keychain,v4.0.1,@+id/create_key_email$,4423,0.02592592592592593,1,3.0,0.8407407407407408,0,-0.8509615384615383,0
org.sufficientlysecure.keychain,v4.0.1,@+id/upload_key_action_upload$btn_export_to_server,4440,-0.2,1,1.0,0.715,0,-2.8509615384615383,0
org.sufficientlysecure.keychain,v4.0.1,@+id/upload_key_action_upload$btn_export_to_server,4437,0.02592592592592593,1,3.0,0.8407407407407408,0,-0.8509615384615383,0
org.sufficientlysecure.keychain,v4.0.1,@string/label_key_id$,4454,-0.08703703703703704,2,2.0,0.7778703703703704,0,-1.8509615384615383,0
org.sufficientlysecure.keychain,v4.0.1,@+id/view_key_proof_verify_detail$,4460,-0.08703703703703704,2,2.0,0.7778703703703704,0,-1.8509615384615383,0
org.sufficientlysecure.keychain,v4.0.1,@+id/certify_key_action_certify_image$,4469,-0.2,1,1.0,0.715,0,-2.8509615384615383,0
org.sufficientlysecure.keychain,v4.0.1,@+id/certify_key_action_certify_image$,4466,0.02592592592592593,1,3.0,0.8407407407407408,0,-0.8509615384615383,0
org.sufficientlysecure.keychain,v4.0.1,@+id/select_key_item_name$Alice,4487,-0.08703703703703704,2,2.0,0.7778703703703704,0,-1.8509615384615383,0
org.sufficientlysecure.keychain,v4.0.1,@+id/certify_key_spinner$,4497,-0.08703703703703704,2,2.0,0.7778703703703704,0,-1.8509615384615383,0
org.sufficientlysecure.keychain,v4.0.1,@+id/multi_certify_key_fragment$,4506,-0.2,1,1.0,0.715,0,-2.8509615384615383,0
org.sufficientlysecure.keychain,v4.0.1,@+id/multi_certify_key_fragment$,4504,0.02592592592592593,1,3.0,0.8407407407407408,0,-0.8509615384615383,0
org.sufficientlysecure.keychain,v4.0.1,@+id/view_key_action_key_clipboard$,4511,-0.2,1,1.0,0.715,0,-2.8509615384615383,0
org.sufficientlysecure.keychain,v4.0.1,@+id/view_key_action_key_clipboard$,4522,0.02592592592592593,1,3.0,0.8407407407407408,0,-0.8509615384615383,0
org.sufficientlysecure.keychain,v4.0.1,@+id/add_subkey_usage_sign$usage_sign,4528,-0.2,1,1.0,0.715,0,-2.8509615384615383,0
org.sufficientlysecure.keychain,v4.0.1,@+id/add_subkey_usage_sign$usage_sign,4525,-0.27777777777777773,1,3.0,0.7777777777777777,0,-0.8509615384615383,0
org.sufficientlysecure.keychain,v4.0.1,@+id/add_subkey_usage_sign$usage_sign,4527,0.02592592592592593,1,3.0,0.8407407407407408,0,-0.8509615384615383,0
org.sufficientlysecure.keychain,v4.0.1,@+id/add_subkey_usage_sign$usage_sign,4526,0.07292929292929291,1,4.0,0.5282828282828284,0,0.14903846153846168,0
org.sufficientlysecure.keychain,v4.0.1,@+id/sign_key_upload_checkbox$label_send_key,4538,-0.08703703703703704,2,2.0,0.7778703703703704,0,-1.8509615384615383,0
org.sufficientlysecure.keychain,v4.0.1,@+id/sign_key_upload_checkbox$label_send_key,4530,-0.27777777777777773,1,3.0,0.7777777777777777,0,-0.8509615384615383,0
org.sufficientlysecure.keychain,v4.0.1,@string/section_share_key$,4542,-0.2,1,1.0,0.715,0,-2.8509615384615383,0
org.sufficientlysecure.keychain,v4.0.1,@string/section_share_key$,4553,0.02592592592592593,1,3.0,0.8407407407407408,0,-0.8509615384615383,0
org.sufficientlysecure.keychain,v4.0.1,@string/del_rev_dialog_message$,4558,-0.2,1,1.0,0.715,0,-2.8509615384615383,0
org.sufficientlysecure.keychain,v4.0.1,@string/del_rev_dialog_message$,4556,-0.27777777777777773,1,3.0,0.7777777777777777,0,-0.8509615384615383,0
org.sufficientlysecure.keychain,v4.0.1,@+id/view_key_action_encrypt_text$,4563,-0.2,1,1.0,0.715,0,-2.8509615384615383,0
org.sufficientlysecure.keychain,v4.0.1,@+id/view_key_action_encrypt_text$,4564,0.02592592592592593,1,3.0,0.8407407407407408,0,-0.8509615384615383,0
org.sufficientlysecure.keychain,v4.0.1,@+id/view_key_action_encrypt_text$,4569,0.07292929292929291,1,4.0,0.5282828282828284,0,0.14903846153846168,0
org.sufficientlysecure.keychain,v4.0.1,@+id/view_key_subkey_fab_layout$,4575,-0.08703703703703704,2,2.0,0.7778703703703704,0,-1.8509615384615383,0
org.sufficientlysecure.keychain,v4.0.1,@string/create_key_final_robot_text$,4583,-0.2,1,1.0,0.715,0,-2.8509615384615383,0
org.sufficientlysecure.keychain,v4.0.1,@string/create_key_final_robot_text$,4576,0.02592592592592593,1,3.0,0.8407407407407408,0,-0.8509615384615383,0
org.sufficientlysecure.keychain,v4.0.1,@string/create_key_final_robot_text$,4584,0.07292929292929291,1,4.0,0.5282828282828284,0,0.14903846153846168,0
org.sufficientlysecure.keychain,v4.0.1,@+id/select_key_item_creation$0xBBBBBBBBBBBBBBB,4591,-0.2,1,1.0,0.715,0,-2.8509615384615383,0
org.sufficientlysecure.keychain,v4.0.1,@+id/select_key_item_creation$0xBBBBBBBBBBBBBBB,4593,0.02592592592592593,1,3.0,0.8407407407407408,0,-0.8509615384615383,0
org.sufficientlysecure.keychain,v4.0.1,@+id/subkey_item_ic_sign$,4598,-0.08703703703703704,2,2.0,0.7778703703703704,0,-1.8509615384615383,0
org.sufficientlysecure.keychain,v4.0.1,@+id/subkey_item_ic_sign$,4601,-0.27777777777777773,1,3.0,0.7777777777777777,0,-0.8509615384615383,0
org.sufficientlysecure.keychain,v4.0.1,@+id/select_key_item_status_icon$,4611,-0.2,1,1.0,0.715,0,-2.8509615384615383,0
org.sufficientlysecure.keychain,v4.0.1,@+id/select_key_item_status_icon$,4605,0.02592592592592593,1,3.0,0.8407407407407408,0,-0.8509615384615383,0
org.sufficientlysecure.keychain,v4.0.1,@+id/view_key_action_upload$key_view_action_upload,4622,-0.2,1,1.0,0.715,0,-2.8509615384615383,0
org.sufficientlysecure.keychain,v4.0.1,@+id/view_key_action_upload$key_view_action_upload,4616,0.02592592592592593,1,3.0,0.8407407407407408,0,-0.8509615384615383,0
org.sufficientlysecure.keychain,v4.0.1,@+id/signee_key$,4629,-0.2,1,1.0,0.715,0,-2.8509615384615383,0
org.sufficientlysecure.keychain,v4.0.1,@+id/signee_key$,4634,0.02592592592592593,1,3.0,0.8407407407407408,0,-0.8509615384615383,0
org.sufficientlysecure.keychain,v4.0.1,@+id/create_key_next_button$btn_create_key,4643,-0.08703703703703704,2,2.0,0.7778703703703704,0,-1.8509615384615383,0
org.sufficientlysecure.keychain,v4.0.1,@+id/user_id_header$Identities for Key ID: 0123 4567 890a bcde,4648,-0.08703703703703704,2,2.0,0.7778703703703704,0,-1.8509615384615383,0
org.sufficientlysecure.keychain,v4.0.1,@+id/edit_key_user_ids_added$,4664,-0.2,1,1.0,0.715,0,-2.8509615384615383,0
org.sufficientlysecure.keychain,v4.0.1,@+id/edit_key_user_ids_added$,4660,0.02592592592592593,1,3.0,0.8407407407407408,0,-0.8509615384615383,0
org.sufficientlysecure.keychain,v4.0.1,@+id/edit_key_user_ids_added$,4661,0.07292929292929291,1,4.0,0.5282828282828284,0,0.14903846153846168,0
org.sufficientlysecure.keychain,v4.0.1,@+id/button_bind$button_bind_key,4677,-0.2,1,1.0,0.715,0,-2.8509615384615383,0
org.sufficientlysecure.keychain,v4.0.1,@+id/button_bind$button_bind_key,4671,0.02592592592592593,1,3.0,0.8407407407407408,0,-0.8509615384615383,0
org.sufficientlysecure.keychain,v4.0.1,@+id/view_key_action_key_share$key_view_action_share_with,4682,-0.08703703703703704,2,2.0,0.7778703703703704,0,-1.8509615384615383,0
org.sufficientlysecure.keychain,v4.0.1,@+id/view_key_proof_verify_header$section_proof_details,4697,-0.2,1,1.0,0.715,0,-2.8509615384615383,0
org.sufficientlysecure.keychain,v4.0.1,@+id/view_key_proof_verify_header$section_proof_details,4689,0.02592592592592593,1,3.0,0.8407407407407408,0,-0.8509615384615383,0
org.sufficientlysecure.keychain,v4.0.1,@+id/view_key_subkeys$,4700,-0.08703703703703704,2,2.0,0.7778703703703704,0,-1.8509615384615383,0
org.sufficientlysecure.keychain,v4.0.1,@string/key_view_action_certify$,4704,-0.08703703703703704,2,2.0,0.7778703703703704,0,-1.8509615384615383,0
org.sufficientlysecure.keychain,v4.0.1,@+id/view_key_subkey_fab$,4720,-0.2,1,1.0,0.715,0,-2.8509615384615383,0
org.sufficientlysecure.keychain,v4.0.1,@+id/view_key_subkey_fab$,4716,0.02592592592592593,1,3.0,0.8407407407407408,0,-0.8509615384615383,0
org.sufficientlysecure.keychain,v4.0.1,@+id/message$,4722,-0.2,1,1.0,0.715,0,-2.8509615384615383,0
org.sufficientlysecure.keychain,v4.0.1,@+id/message$,4725,-0.27777777777777773,1,3.0,0.7777777777777777,0,-0.8509615384615383,0
org.sufficientlysecure.keychain,v4.0.1,@+id/create_key_import_button$first_time_import_key,4728,-0.08703703703703704,2,2.0,0.7778703703703704,0,-1.8509615384615383,0
org.sufficientlysecure.keychain,v4.0.1,@+id/create_key_import_button$first_time_import_key,4736,0.0,1,1.0,0.0,0,-2.8509615384615383,0
org.sufficientlysecure.keychain,v4.0.1,@+id/create_key_import_button$first_time_import_key,4727,0.07292929292929291,1,4.0,0.5282828282828284,0,0.14903846153846168,0
org.sufficientlysecure.keychain,v4.0.1,@+id/create_key_next_button$btn_import,4742,-0.2,1,1.0,0.715,0,-2.8509615384615383,0
org.sufficientlysecure.keychain,v4.0.1,@+id/create_key_next_button$btn_import,4741,0.012962962962962964,2,2.0,0.4203703703703704,0,-1.8509615384615383,0
org.sufficientlysecure.keychain,v4.0.1,@+id/signer_key_id$,4759,-0.2,1,1.0,0.715,0,-2.8509615384615383,0
org.sufficientlysecure.keychain,v4.0.1,@+id/signer_key_id$,4757,0.02592592592592593,1,3.0,0.8407407407407408,0,-0.8509615384615383,0
org.sufficientlysecure.keychain,v4.0.1,@string/section_key_server$,4761,-0.2,1,1.0,0.715,0,-2.8509615384615383,0
org.sufficientlysecure.keychain,v4.0.1,@string/section_key_server$,4770,0.02592592592592593,1,3.0,0.8407407407407408,0,-0.8509615384615383,0
org.sufficientlysecure.keychain,v4.0.1,@+id/revert_key_configuration$Revert,4773,-0.08703703703703704,2,2.0,0.7778703703703704,0,-1.8509615384615383,0
org.sufficientlysecure.keychain,v4.0.1,@+id/system_contact_name$view_key_fragment_no_system_contact,4785,-0.2,1,1.0,0.715,0,-2.8509615384615383,0
org.sufficientlysecure.keychain,v4.0.1,@+id/system_contact_name$view_key_fragment_no_system_contact,4787,0.02592592592592593,1,3.0,0.8407407407407408,0,-0.8509615384615383,0
org.sufficientlysecure.keychain,v4.0.1,@+id/sign$,4791,-0.23888888888888887,2,2.0,0.7463888888888888,0,-1.8509615384615383,0
org.sufficientlysecure.keychain,v4.0.1,@+id/create_key_create_key_button$first_time_create_key,4803,-0.08703703703703704,2,2.0,0.7778703703703704,0,-1.8509615384615383,0
org.sufficientlysecure.keychain,v4.0.1,@+id/create_key_create_key_button$first_time_create_key,4795,0.07292929292929291,1,4.0,0.5282828282828284,0,0.14903846153846168,0
org.sufficientlysecure.keychain,v4.0.1,@string/create_key_yubi_key_pin_text$,4808,-0.2,1,1.0,0.715,0,-2.8509615384615383,0
org.sufficientlysecure.keychain,v4.0.1,@string/create_key_yubi_key_pin_text$,4811,0.02592592592592593,1,3.0,0.8407407407407408,0,-0.8509615384615383,0
org.sufficientlysecure.keychain,v4.0.1,@string/create_key_yubi_key_pin_text$,4805,0.07292929292929291,1,4.0,0.5282828282828284,0,0.14903846153846168,0
org.sufficientlysecure.keychain,v4.0.1,@+id/view_key_user_ids$,4818,-0.2,1,1.0,0.715,0,-2.8509615384615383,0
org.sufficientlysecure.keychain,v4.0.1,@+id/view_key_user_ids$,4824,0.02592592592592593,1,3.0,0.8407407407407408,0,-0.8509615384615383,0
org.sufficientlysecure.keychain,v4.0.1,@+id/edit_identities_upload_checkbox$label_send_key,4832,-0.2,1,1.0,0.715,0,-2.8509615384615383,0
org.sufficientlysecure.keychain,v4.0.1,@+id/edit_identities_upload_checkbox$label_send_key,4826,0.02592592592592593,1,3.0,0.8407407407407408,0,-0.8509615384615383,0
org.sufficientlysecure.keychain,v4.0.1,@+id/edit_identities_upload_checkbox$label_send_key,4827,0.07292929292929291,1,4.0,0.5282828282828284,0,0.14903846153846168,0
org.sufficientlysecure.keychain,v4.0.1,@+id/edit_key_action_add_key$edit_key_action_add_subkey,4842,-0.2,1,1.0,0.715,0,-2.8509615384615383,0
org.sufficientlysecure.keychain,v4.0.1,@+id/edit_key_action_add_key$edit_key_action_add_subkey,4833,0.04942760942760942,2,3.5,0.6845117845117845,0,-0.3509615384615383,0
org.sufficientlysecure.keychain,v4.0.1,@+id/edit_key_subkeys_added$,4858,-0.08703703703703704,2,2.0,0.7778703703703704,0,-1.8509615384615383,0
org.sufficientlysecure.keychain,v4.0.1,@+id/edit_key_subkeys_added$,4849,0.07292929292929291,1,4.0,0.5282828282828284,0,0.14903846153846168,0
org.sufficientlysecure.keychain,v4.0.1,@string/create_key_final_text$,4864,-0.06353535353535356,2,2.5,0.6216414141414142,0,-1.3509615384615383,0
org.sufficientlysecure.keychain,v4.0.1,@string/create_key_final_text$,4865,0.02592592592592593,1,3.0,0.8407407407407408,0,-0.8509615384615383,0
org.sufficientlysecure.keychain,v4.0.1,@+id/signStatus$status,4874,-0.2,1,1.0,0.715,0,-2.8509615384615383,0
org.sufficientlysecure.keychain,v4.0.1,@+id/signStatus$status,4872,-0.27777777777777773,1,3.0,0.7777777777777777,0,-0.8509615384615383,0
org.sufficientlysecure.keychain,v4.0.1,@+id/edit_key_action_change_passphrase$edit_key_action_change_passphrase,4882,-0.2,1,1.0,0.715,0,-2.8509615384615383,0
org.sufficientlysecure.keychain,v4.0.1,@+id/edit_key_action_change_passphrase$edit_key_action_change_passphrase,4878,0.02592592592592593,1,3.0,0.8407407407407408,0,-0.8509615384615383,0
org.sufficientlysecure.keychain,v4.0.1,@+id/edit_key_action_change_passphrase$edit_key_action_change_passphrase,4886,0.07292929292929291,1,4.0,0.5282828282828284,0,0.14903846153846168,0
org.sufficientlysecure.keychain,v4.0.1,@+id/create_yubi_key_admin_pin$,4889,-0.2,1,1.0,0.715,0,-2.8509615384615383,0
org.sufficientlysecure.keychain,v4.0.1,@+id/create_yubi_key_admin_pin$,4893,0.02592592592592593,1,3.0,0.8407407407407408,0,-0.8509615384615383,0
org.sufficientlysecure.keychain,v4.0.1,@string/label_key_type$,4901,-0.08703703703703704,2,2.0,0.7778703703703704,0,-1.8509615384615383,0
org.sufficientlysecure.keychain,v4.0.1,@string/create_key_yubi_key_pin$,4909,-0.08703703703703704,2,2.0,0.7778703703703704,0,-1.8509615384615383,0
org.sufficientlysecure.keychain,v4.0.1,@+id/view_key_card_user_ids_edit$key_view_action_edit,4918,-0.2,1,1.0,0.715,0,-2.8509615384615383,0
org.sufficientlysecure.keychain,v4.0.1,@+id/view_key_card_user_ids_edit$key_view_action_edit,4917,0.02592592592592593,1,3.0,0.8407407407407408,0,-0.8509615384615383,0
org.sufficientlysecure.keychain,v4.0.1,@+id/view_key_card_user_ids_edit$key_view_action_edit,4913,0.07292929292929291,1,4.0,0.5282828282828284,0,0.14903846153846168,0
org.sufficientlysecure.keychain,v4.0.1,@string/add_keys_my_key$,4920,-0.08703703703703704,2,2.0,0.7778703703703704,0,-1.8509615384615383,0
org.sufficientlysecure.keychain,v4.0.1,@string/add_keys_my_key$,4921,0.07292929292929291,1,4.0,0.5282828282828284,0,0.14903846153846168,0
org.sufficientlysecure.keychain,v4.0.1,@+id/import_item_key_id$Key ID: abcd abcd abcd abcd,4935,-0.2,1,1.0,0.715,0,-2.8509615384615383,0
org.sufficientlysecure.keychain,v4.0.1,@+id/import_item_key_id$Key ID: abcd abcd abcd abcd,4939,0.0,1,1.0,0.0,0,-2.8509615384615383,0
org.sufficientlysecure.keychain,v4.0.1,@+id/import_item_key_id$Key ID: abcd abcd abcd abcd,4931,0.02592592592592593,1,3.0,0.8407407407407408,0,-0.8509615384615383,0
org.sufficientlysecure.keychain,v4.0.1,@+id/view_key_fingerprint$,4942,-0.2,1,1.0,0.715,0,-2.8509615384615383,0
org.sufficientlysecure.keychain,v4.0.1,@+id/view_key_fingerprint$,4943,0.02592592592592593,1,3.0,0.8407407407407408,0,-0.8509615384615383,0
org.sufficientlysecure.keychain,v4.0.1,@+id/view_key_photo$,4961,-0.08703703703703704,2,2.0,0.7778703703703704,0,-1.8509615384615383,0
org.sufficientlysecure.keychain,v4.0.1,@+id/backup_code_display_6$,4965,-0.27777777777777773,1,3.0,0.7777777777777777,0,-0.8509615384615383,0
org.sufficientlysecure.keychain,v4.0.1,@+id/result_signature_icon$,4968,-0.27777777777777773,2,3.0,0.7777777777777777,0,-0.8509615384615383,0
org.sufficientlysecure.keychain,v4.0.1,@+id/result_signature_name$,4975,-0.27777777777777773,2,3.0,0.7777777777777777,0,-0.8509615384615383,0
org.sufficientlysecure.keychain,v4.0.1,@+id/result_signature_action$,4982,-0.27777777777777773,1,3.0,0.7777777777777777,0,-0.8509615384615383,0
org.sufficientlysecure.keychain,v4.0.1,@+id/result_signature_email$,4987,-0.27777777777777773,2,3.0,0.7777777777777777,0,-0.8509615384615383,0
org.sufficientlysecure.keychain,v4.0.1,@+id/backup_code_display_3$,4988,-0.27777777777777773,1,3.0,0.7777777777777777,0,-0.8509615384615383,0
org.sufficientlysecure.keychain,v4.0.1,@+id/backup_code_display_3$,4991,0.07292929292929291,1,4.0,0.5282828282828284,0,0.14903846153846168,0
org.sufficientlysecure.keychain,v4.0.1,@+id/result_signature_text$,4997,-0.27777777777777773,2,3.0,0.7777777777777777,0,-0.8509615384615383,0
org.sufficientlysecure.keychain,v4.0.1,@+id/result_signature_text$,4994,0.07292929292929291,2,4.0,0.5282828282828284,0,0.14903846153846168,0
org.sufficientlysecure.keychain,v4.0.1,@+id/backup_code_display_5$,4999,-0.27777777777777773,1,3.0,0.7777777777777777,0,-0.8509615384615383,0
org.sufficientlysecure.keychain,v4.0.1,@+id/signature_type$,5007,-0.27777777777777773,1,3.0,0.7777777777777777,0,-0.8509615384615383,0
org.sufficientlysecure.keychain,v4.0.1,@+id/backup_code_display_1$,5012,-0.27777777777777773,1,3.0,0.7777777777777777,0,-0.8509615384615383,0
org.sufficientlysecure.keychain,v4.0.1,@+id/backup_code_display_1$,5011,0.07292929292929291,1,4.0,0.5282828282828284,0,0.14903846153846168,0
org.sufficientlysecure.keychain,v4.0.1,@+id/backup_code_display_4$,5014,-0.27777777777777773,1,3.0,0.7777777777777777,0,-0.8509615384615383,0
org.sufficientlysecure.keychain,v4.0.1,@+id/backup_code_display_2$,5020,-0.27777777777777773,1,3.0,0.7777777777777777,0,-0.8509615384615383,0
org.sufficientlysecure.keychain,v4.0.1,@+id/backup_code_display_2$,5023,0.07292929292929291,1,4.0,0.5282828282828284,0,0.14903846153846168,0
org.sufficientlysecure.keychain,v4.0.1,@+id/result_signature_action$Show,5024,-0.27777777777777773,1,3.0,0.7777777777777777,0,-0.8509615384615383,0
org.sufficientlysecure.keychain,v4.0.1,@+id/token_decision_import$security_token_import_radio,5031,0.0,1,1.0,0.0,0,-2.8509615384615383,0
org.sufficientlysecure.keychain,v4.0.1,@+id/import_qrcode_progress$,5037,0.0,1,1.0,0.0,0,-2.8509615384615383,0
org.sufficientlysecure.keychain,v4.0.1,@+id/import_item_fingerprint$0000 0000 0000 0000 0000\n0000 0000 0000 0000 0000,5041,0.0,1,1.0,0.0,0,-2.8509615384615383,0
org.sufficientlysecure.keychain,v4.0.1,Click here to create or import one.$,5046,0.0,1,1.0,0.0,0,-2.8509615384615383,0
org.sufficientlysecure.keychain,v4.0.1,@+id/import_nfc_button$,5053,0.0,1,1.0,0.0,0,-2.8509615384615383,0
org.sufficientlysecure.keychain,v4.0.1,@+id/token_import_reset_warning$security_token_reset_warning,5055,0.0,1,1.0,0.0,0,-2.8509615384615383,0
org.sufficientlysecure.keychain,v4.0.1,@+id/import_clipboard_button$,5062,0.0,1,1.0,0.0,0,-2.8509615384615383,0
org.sufficientlysecure.keychain,v4.0.1,@+id/import_item_status_divider$,5064,0.0,1,1.0,0.0,0,-2.8509615384615383,0
org.sufficientlysecure.keychain,v4.0.1,@string/security_token_reset_or_import$,5069,0.0,1,1.0,0.0,0,-2.8509615384615383,0
org.sufficientlysecure.keychain,v4.0.1,@+id/cloud_import_server_search$,5076,0.0,1,1.0,0.0,0,-2.8509615384615383,0
org.sufficientlysecure.keychain,v4.0.1,@+id/import_item_user_id$Alice,5083,0.0,1,1.0,0.0,0,-2.8509615384615383,0
org.sufficientlysecure.keychain,v4.0.1,@+id/import_divider$,5084,0.0,1,1.0,0.0,0,-2.8509615384615383,0
org.sufficientlysecure.keychain,v4.0.1,@+id/import_qrcode_text$,5089,0.0,1,1.0,0.0,0,-2.8509615384615383,0
org.sufficientlysecure.keychain,v4.0.1,@+id/import_qrcode_text$,5094,0.07292929292929291,1,4.0,0.5282828282828284,0,0.14903846153846168,0
org.sufficientlysecure.keychain,v4.0.1,@+id/cloud_import_server_config_button$,5096,0.0,1,1.0,0.0,0,-2.8509615384615383,0
org.sufficientlysecure.keychain,v4.0.1,@+id/import_item_selected$,5102,0.0,1,1.0,0.0,0,-2.8509615384615383,0
org.sufficientlysecure.keychain,v4.0.1,@+id/import_item_selected$,5101,0.02592592592592593,1,3.0,0.8407407407407408,0,-0.8509615384615383,0
org.sufficientlysecure.keychain,v4.0.1,@+id/import_item_algorithm$RSA,5109,0.0,1,1.0,0.0,0,-2.8509615384615383,0
org.sufficientlysecure.keychain,v4.0.1,@+id/import_import$import_import,5110,0.0,1,1.0,0.0,0,-2.8509615384615383,0
org.sufficientlysecure.keychain,v4.0.1,@+id/import_item_status$,5118,0.0,1,1.0,0.0,0,-2.8509615384615383,0
org.sufficientlysecure.keychain,v4.0.1,@+id/import_item_user_id_email$alice@example.com,5124,0.0,1,1.0,0.0,0,-2.8509615384615383,0
org.sufficientlysecure.keychain,v4.0.1,@+id/cloud_import_server_query$,5129,0.0,1,1.0,0.0,0,-2.8509615384615383,0
org.sufficientlysecure.keychain,v4.0.1,@string/import_qr_code_button$,5130,0.0,1,1.0,0.0,0,-2.8509615384615383,0
org.sufficientlysecure.keychain,v4.0.1,@+id/button_faq$how_to_import,5138,0.0,1,1.0,0.0,0,-2.8509615384615383,0
org.sufficientlysecure.keychain,v4.0.1,@+id/subkey_item_delete_button$,5141,0.02592592592592593,1,3.0,0.8407407407407408,0,-0.8509615384615383,0
org.sufficientlysecure.keychain,v4.0.1,@string/section_current_expiry$,5145,0.02592592592592593,1,3.0,0.8407407407407408,0,-0.8509615384615383,0
org.sufficientlysecure.keychain,v4.0.1,@+id/subkey_item_status$,5152,0.02592592592592593,1,3.0,0.8407407407407408,0,-0.8509615384615383,0
org.sufficientlysecure.keychain,v4.0.1,@+id/button_confirm$linked_button_confirm,5157,0.02592592592592593,1,3.0,0.8407407407407408,0,-0.8509615384615383,0
org.sufficientlysecure.keychain,v4.0.1,@+id/ttl_selected$,5162,0.02592592592592593,1,3.0,0.8407407407407408,0,-0.8509615384615383,0
org.sufficientlysecure.keychain,v4.0.1,@+id/subkey_item_expiry$Expiry: 4/7/2016,5165,0.02592592592592593,1,3.0,0.8407407407407408,0,-0.8509615384615383,0
org.sufficientlysecure.keychain,v4.0.1,@+id/add_subkey_type$,5173,0.02592592592592593,1,3.0,0.8407407407407408,0,-0.8509615384615383,0
org.sufficientlysecure.keychain,v4.0.1,@+id/add_subkey_type$,5172,0.07292929292929291,1,4.0,0.5282828282828284,0,0.14903846153846168,0
org.sufficientlysecure.keychain,v4.0.1,@+id/selected_files_list$,5177,0.02592592592592593,1,3.0,0.8407407407407408,0,-0.8509615384615383,0
org.sufficientlysecure.keychain,v4.0.1,@+id/selected_files_list$,5179,0.07292929292929291,1,4.0,0.5282828282828284,0,0.14903846153846168,0
org.sufficientlysecure.keychain,v4.0.1,@+id/add_subkey_usage_none$usage_none,5184,0.02592592592592593,1,3.0,0.8407407407407408,0,-0.8509615384615383,0
org.sufficientlysecure.keychain,v4.0.1,@+id/add_subkey_usage_none$usage_none,5180,0.07292929292929291,1,4.0,0.5282828282828284,0,0.14903846153846168,0
org.sufficientlysecure.keychain,v4.0.1,@+id/subkey_item_ic_encrypt$,5185,0.02592592592592593,1,3.0,0.8407407407407408,0,-0.8509615384615383,0
org.sufficientlysecure.keychain,v4.0.1,@+id/add_subkey_usage_encrypt$usage_encrypt,5192,0.02592592592592593,1,3.0,0.8407407407407408,0,-0.8509615384615383,0
org.sufficientlysecure.keychain,v4.0.1,@+id/add_subkey_usage_encrypt$usage_encrypt,5191,0.07292929292929291,1,4.0,0.5282828282828284,0,0.14903846153846168,0
org.sufficientlysecure.keychain,v4.0.1,@+id/selected$,5197,0.02592592592592593,1,3.0,0.8407407407407408,0,-0.8509615384615383,0
org.sufficientlysecure.keychain,v4.0.1,@+id/edit_subkey_expiry_current_expiry$,5202,0.02592592592592593,1,3.0,0.8407407407407408,0,-0.8509615384615383,0
org.sufficientlysecure.keychain,v4.0.1,@+id/edit_subkey_expiry_current_expiry$,5204,0.07292929292929291,1,4.0,0.5282828282828284,0,0.14903846153846168,0
org.sufficientlysecure.keychain,v4.0.1,@+id/help_about_version$,5206,0.02592592592592593,1,3.0,0.8407407407407408,0,-0.8509615384615383,0
org.sufficientlysecure.keychain,v4.0.1,@+id/textView$linked_select_1,5210,0.04942760942760942,2,3.5,0.6845117845117845,0,-0.3509615384615383,0
org.sufficientlysecure.keychain,v4.0.1,@+id/selected_keyserver_title$label_selected_keyserver_title,5215,0.02592592592592593,1,3.0,0.8407407407407408,0,-0.8509615384615383,0
org.sufficientlysecure.keychain,v4.0.1,@string/settings_cache_select_three$,5223,0.02592592592592593,1,3.0,0.8407407407407408,0,-0.8509615384615383,0
org.sufficientlysecure.keychain,v4.0.1,@+id/add_subkey_expiry_row$,5227,0.02592592592592593,1,3.0,0.8407407407407408,0,-0.8509615384615383,0
org.sufficientlysecure.keychain,v4.0.1,@+id/add_subkey_expiry_row$,5229,0.07292929292929291,1,4.0,0.5282828282828284,0,0.14903846153846168,0
org.sufficientlysecure.keychain,v4.0.1,@+id/edit_subkey_expiry_no_expiry$btn_no_date,5232,0.02592592592592593,1,3.0,0.8407407407407408,0,-0.8509615384615383,0
org.sufficientlysecure.keychain,v4.0.1,@+id/edit_subkey_expiry_no_expiry$btn_no_date,5231,0.07292929292929291,1,4.0,0.5282828282828284,0,0.14903846153846168,0
org.sufficientlysecure.keychain,v4.0.1,@+id/edit_subkey_expiry_date_picker$,5238,0.02592592592592593,1,3.0,0.8407407407407408,0,-0.8509615384615383,0
org.sufficientlysecure.keychain,v4.0.1,@+id/edit_subkey_expiry_date_picker$,5235,0.07292929292929291,1,4.0,0.5282828282828284,0,0.14903846153846168,0
org.sufficientlysecure.keychain,v4.0.1,@+id/add_subkey_no_expiry$btn_no_date,5243,0.02592592592592593,1,3.0,0.8407407407407408,0,-0.8509615384615383,0
org.sufficientlysecure.keychain,v4.0.1,@+id/add_subkey_no_expiry$btn_no_date,5241,0.07292929292929291,1,4.0,0.5282828282828284,0,0.14903846153846168,0
org.sufficientlysecure.keychain,v4.0.1,@+id/subkey_item_edit_image$,5246,0.02592592592592593,1,3.0,0.8407407407407408,0,-0.8509615384615383,0
org.sufficientlysecure.keychain,v4.0.1,@+id/subkey_item_edit_image$,5249,0.07292929292929291,1,4.0,0.5282828282828284,0,0.14903846153846168,0
org.sufficientlysecure.keychain,v4.0.1,@+id/subkey_item_ic_certify$,5250,0.02592592592592593,1,3.0,0.8407407407407408,0,-0.8509615384615383,0
org.sufficientlysecure.keychain,v4.0.1,@+id/subkey_item_ic_authenticate$,5258,0.02592592592592593,1,3.0,0.8407407407407408,0,-0.8509615384615383,0
org.sufficientlysecure.keychain,v4.0.1,@+id/add_subkey_expiry_date_picker$,5260,0.04942760942760942,2,3.5,0.6845117845117845,0,-0.3509615384615383,0
org.sufficientlysecure.keychain,v4.0.1,"@+id/subkey_item_details$RSA, 1024bit",5265,0.02592592592592593,1,3.0,0.8407407407407408,0,-0.8509615384615383,0
org.sufficientlysecure.keychain,v4.0.1,@+id/add_subkey_usage_group$,5270,0.02592592592592593,1,3.0,0.8407407407407408,0,-0.8509615384615383,0
org.sufficientlysecure.keychain,v4.0.1,@+id/add_subkey_usage_group$,5274,0.07292929292929291,1,4.0,0.5282828282828284,0,0.14903846153846168,0
org.sufficientlysecure.keychain,v4.0.1,@+id/security_token_activity_0_text$security_token_nfc_text,5277,0.07292929292929291,1,4.0,0.5282828282828284,0,0.14903846153846168,0
org.sufficientlysecure.keychain,v4.0.1,@+id/textView3$first_time_security_token_subtitle,5282,0.07292929292929291,1,4.0,0.5282828282828284,0,0.14903846153846168,0
org.sufficientlysecure.keychain,v4.0.1,@string/backup_text$,5285,0.07292929292929291,1,4.0,0.5282828282828284,0,0.14903846153846168,0
org.sufficientlysecure.keychain,v4.0.1,@+id/stickylist_header_text$header text,5290,0.07292929292929291,1,4.0,0.5282828282828284,0,0.14903846153846168,0
org.sufficientlysecure.keychain,v4.0.1,@+id/encrypt_files$btn_encrypt_files,5296,0.07292929292929291,1,4.0,0.5282828282828284,0,0.14903846153846168,0
org.sufficientlysecure.keychain,v4.0.1,@string/decrypt_invalid_text$,5302,0.07292929292929291,1,4.0,0.5282828282828284,0,0.14903846153846168,0
org.sufficientlysecure.keychain,v4.0.1,@+id/certify_fingerprint_intro$certify_fingerprint_text,5305,0.07292929292929291,1,4.0,0.5282828282828284,0,0.14903846153846168,0
org.sufficientlysecure.keychain,v4.0.1,@+id/simple_item_text$,5314,0.07292929292929291,1,4.0,0.5282828282828284,0,0.14903846153846168,0
org.sufficientlysecure.keychain,v4.0.1,@+id/log_text$Log Entry Text,5315,0.07292929292929291,1,4.0,0.5282828282828284,0,0.14903846153846168,0
org.sufficientlysecure.keychain,v4.0.1,@+id/result_encryption_icon$,5320,0.07292929292929291,2,4.0,0.5282828282828284,0,0.14903846153846168,0
org.sufficientlysecure.keychain,v4.0.1,@+id/result_encryption_icon$,5321,0.5633333333333334,2,5.0,1.0,0,1.1490384615384617,0
org.sufficientlysecure.keychain,v4.0.1,@+id/help_about_text$,5328,0.07292929292929291,1,4.0,0.5282828282828284,0,0.14903846153846168,0
org.sufficientlysecure.keychain,v4.0.1,@+id/security_token_activity_3_error_text$,5331,0.07292929292929291,1,4.0,0.5282828282828284,0,0.14903846153846168,0
org.sufficientlysecure.keychain,v4.0.1,@+id/decrypt_files$btn_decrypt_files,5340,0.07292929292929291,1,4.0,0.5282828282828284,0,0.14903846153846168,0
org.sufficientlysecure.keychain,v4.0.1,@string/section_new_expiry$,5342,0.07292929292929291,1,4.0,0.5282828282828284,0,0.14903846153846168,0
org.sufficientlysecure.keychain,v4.0.1,@+id/log_second_text$Log Entry Text,5346,0.07292929292929291,1,4.0,0.5282828282828284,0,0.14903846153846168,0
org.sufficientlysecure.keychain,v4.0.1,@+id/add_email_address$,5351,0.07292929292929291,1,4.0,0.5282828282828284,0,0.14903846153846168,0
org.sufficientlysecure.keychain,v4.0.1,@+id/security_token_activity_2_button_placeholder$,5357,0.07292929292929291,1,4.0,0.5282828282828284,0,0.14903846153846168,0
org.sufficientlysecure.keychain,v4.0.1,@+id/add_user_id_comment$,5361,0.07292929292929291,1,4.0,0.5282828282828284,0,0.14903846153846168,0
org.sufficientlysecure.keychain,v4.0.1,@+id/textView4$first_time_security_token,5366,0.07292929292929291,1,4.0,0.5282828282828284,0,0.14903846153846168,0
org.sufficientlysecure.keychain,v4.0.1,@+id/decrypt_files_action_decrypt$btn_decrypt_verify_file,5375,0.07292929292929291,1,4.0,0.5282828282828284,0,0.14903846153846168,0
org.sufficientlysecure.keychain,v4.0.1,@+id/textView$certify_text,5379,0.07292929292929291,1,4.0,0.5282828282828284,0,0.14903846153846168,0
org.sufficientlysecure.keychain,v4.0.1,@+id/action_remove_file_from_list$,5385,0.07292929292929291,1,4.0,0.5282828282828284,0,0.14903846153846168,0
org.sufficientlysecure.keychain,v4.0.1,@+id/encrypt_text$btn_encrypt_text,5389,0.07292929292929291,1,4.0,0.5282828282828284,0,0.14903846153846168,0
org.sufficientlysecure.keychain,v4.0.1,@+id/restore$btn_decrypt_files,5391,0.07292929292929291,1,4.0,0.5282828282828284,0,0.14903846153846168,0
org.sufficientlysecure.keychain,v4.0.1,@+id/edit_identities_add_user_id$,5399,0.07292929292929291,1,4.0,0.5282828282828284,0,0.14903846153846168,0
org.sufficientlysecure.keychain,v4.0.1,@+id/fileCompression$,5403,0.07292929292929291,1,4.0,0.5282828282828284,0,0.14903846153846168,0
org.sufficientlysecure.keychain,v4.0.1,@+id/encrypt_text_text$,5407,0.07292929292929291,1,4.0,0.5282828282828284,0,0.14903846153846168,0
org.sufficientlysecure.keychain,v4.0.1,@string/first_time_blank_security_token$,5413,0.07292929292929291,1,4.0,0.5282828282828284,0,0.14903846153846168,0
org.sufficientlysecure.keychain,v4.0.1,@+id/custom_actionbar_text$,5418,0.07292929292929291,1,4.0,0.5282828282828284,0,0.14903846153846168,0
org.sufficientlysecure.keychain,v4.0.1,@+id/security_token_activity_3_error_try_again$security_token_error_try_again,5422,0.07292929292929291,1,4.0,0.5282828282828284,0,0.14903846153846168,0
org.sufficientlysecure.keychain,v4.0.1,@string/label_file_colon$,5428,0.07292929292929291,1,4.0,0.5282828282828284,0,0.14903846153846168,0
org.sufficientlysecure.keychain,v4.0.1,@+id/decrypt_files_filename$,5431,0.07292929292929291,1,4.0,0.5282828282828284,0,0.14903846153846168,0
org.sufficientlysecure.keychain,v4.0.1,@+id/user_id_item_edit_image$,5438,0.07292929292929291,1,4.0,0.5282828282828284,0,0.14903846153846168,0
org.sufficientlysecure.keychain,v4.0.1,@+id/edit_identities_user_ids_added$,5445,0.07292929292929291,1,4.0,0.5282828282828284,0,0.14903846153846168,0
org.sufficientlysecure.keychain,v4.0.1,@+id/security_token_activity_2_text$security_token_nfc_finished,5449,0.07292929292929291,1,4.0,0.5282828282828284,0,0.14903846153846168,0
org.sufficientlysecure.keychain,v4.0.1,@+id/result_encryption_text$,5456,0.07292929292929291,2,4.0,0.5282828282828284,0,0.14903846153846168,0
org.sufficientlysecure.keychain,v4.0.1,@+id/result_encryption_text$,5451,0.5633333333333334,2,5.0,1.0,0,1.1490384615384617,0
org.sufficientlysecure.keychain,v4.0.1,@+id/fab_add_cloud$,5459,0.07292929292929291,1,4.0,0.5282828282828284,0,0.14903846153846168,0
org.sufficientlysecure.keychain,v4.0.1,@+id/decrypted_files_list$,5464,0.07292929292929291,1,4.0,0.5282828282828284,0,0.14903846153846168,0
org.sufficientlysecure.keychain,v4.0.1,@+id/label_fileCompression$label_file_compression,5469,0.07292929292929291,1,4.0,0.5282828282828284,0,0.14903846153846168,0
org.sufficientlysecure.keychain,v4.0.1,@+id/algorithm$,5473,0.07292929292929291,1,4.0,0.5282828282828284,0,0.14903846153846168,0
org.sufficientlysecure.keychain,v4.0.1,@+id/security_token_activity_3_text_placeholder$,5481,0.07292929292929291,1,4.0,0.5282828282828284,0,0.14903846153846168,0
org.sufficientlysecure.keychain,v4.0.1,@+id/backup_code_1$,5487,0.07292929292929291,1,4.0,0.5282828282828284,0,0.14903846153846168,0
org.sufficientlysecure.keychain,v4.0.1,@+id/edit_identities_user_ids$,5492,0.07292929292929291,1,4.0,0.5282828282828284,0,0.14903846153846168,0
org.sufficientlysecure.keychain,v4.0.1,@+id/security_token_activity_1_button_placeholder$,5496,0.07292929292929291,1,4.0,0.5282828282828284,0,0.14903846153846168,0
org.sufficientlysecure.keychain,v4.0.1,@+id/only_trusted_keyserver_checkbox$label_only_trusted_keyserver,5500,0.07292929292929291,1,4.0,0.5282828282828284,0,0.14903846153846168,0
org.sufficientlysecure.keychain,v4.0.1,@+id/add_user_id_address$,5506,0.07292929292929291,1,4.0,0.5282828282828284,0,0.14903846153846168,0
org.sufficientlysecure.keychain,v4.0.1,@+id/edit_identities_user_ids_card$,5510,0.07292929292929291,1,4.0,0.5282828282828284,0,0.14903846153846168,0
org.sufficientlysecure.keychain,v4.0.1,@+id/decrypt_text_plaintext$,5516,0.07292929292929291,1,4.0,0.5282828282828284,0,0.14903846153846168,0
org.sufficientlysecure.keychain,v4.0.1,@+id/foldableText$none,5521,0.07292929292929291,1,4.0,0.5282828282828284,0,0.14903846153846168,0
org.sufficientlysecure.keychain,v4.0.1,@+id/backup_code_2$,5525,0.07292929292929291,1,4.0,0.5282828282828284,0,0.14903846153846168,0
org.sufficientlysecure.keychain,v4.0.1,@+id/add_user_id_name$,5528,0.07292929292929291,1,4.0,0.5282828282828284,0,0.14903846153846168,0
org.sufficientlysecure.keychain,v4.0.1,@+id/fab_add_qr_code$,5536,0.07292929292929291,1,4.0,0.5282828282828284,0,0.14903846153846168,0
org.sufficientlysecure.keychain,v4.0.1,@+id/backup_code_3$,5541,0.07292929292929291,1,4.0,0.5282828282828284,0,0.14903846153846168,0
org.sufficientlysecure.keychain,v4.0.1,@string/certs_text$,5544,0.07292929292929291,1,4.0,0.5282828282828284,0,0.14903846153846168,0
org.sufficientlysecure.keychain,v4.0.1,@+id/file_list_entry_add$btn_add_files,5551,0.07292929292929291,1,4.0,0.5282828282828284,0,0.14903846153846168,0
org.sufficientlysecure.keychain,v4.0.1,@+id/fab_add_file$,5553,0.07292929292929291,1,4.0,0.5282828282828284,0,0.14903846153846168,0
org.sufficientlysecure.keychain,v4.0.1,@+id/security_token_activity_1_text$security_token_nfc_wait,5559,0.07292929292929291,1,4.0,0.5282828282828284,0,0.14903846153846168,0
org.sufficientlysecure.keychain,v4.0.1,@string/label_algorithm$,5567,0.07292929292929291,1,4.0,0.5282828282828284,0,0.14903846153846168,0
org.sufficientlysecure.keychain,v4.0.1,@+id/keyserver_url_edit_text$,5570,0.07292929292929291,1,4.0,0.5282828282828284,0,0.14903846153846168,0
