Topic Index 1,Topic Index 2,Topic Similarity
4,0,2.0
5,8,2.0
7,7,2.0
10,15,2.0
12,16,2.0
14,10,2.0
15,17,2.0
0,2,1.0
1,1,1.0
3,12,1.0
8,6,1.0
9,14,1.0
13,11,1.0
16,18,1.0
17,5,1.0
2,3,0.0
6,4,0.0
11,9,0.0
18,13,0.0
19,19,0.0
