Topic Index 1,Topic Index 2,Topic Similarity
16,2,3.0
0,1,2.0
2,4,2.0
5,5,2.0
8,15,2.0
13,18,2.0
1,8,1.0
3,0,1.0
4,17,1.0
6,9,1.0
7,3,1.0
9,7,1.0
10,11,1.0
12,12,1.0
14,19,1.0
15,6,1.0
19,10,1.0
11,13,0.0
17,14,0.0
18,16,0.0
