seems to occasionally for no reason my updated to android 412,b,2013-03-15,Jason Mohlman,4
easy to use,o,2013-03-09,Dennis Tucker,5
easy to setup,o,2013-03-09,Dennis Tucker,5
wa getting so tired if the standard subsonic client issue i wa thinking about moving all my music to music,b,2013-03-09,,5
fix all my gripe and is actually actively developed,b,2013-03-09,,5
well worth the price,b,2013-03-09,,5
