this is wonderful,o,2014-10-30,Taylor Growden,5
the frequent fix really show the dedication of the,b,2014-10-30,Taylor Growden,5
my most used by a long way,o,2014-10-30,Joe Constantine,5
by far the best subsonic client out there,o,2014-10-30,Joe Constantine,5
every feature is here and update are continuous,f,2014-10-30,Joe Constantine,5
superb music player for subsonic based server,o,2014-10-24,Ben Jarrett,5
recommended,o,2014-10-24,Ben Jarrett,5
great worth the buy,b,2014-10-18,nathan holbrook,5
is very well done and under active development,o,2014-10-18,nathan holbrook,5
responsive who help with request,b,2014-10-13,Alistair Marshall,5
this may cost a bit of but it is far and away the best subsonic,b,2014-10-13,Tristan Banta,5
use in my car for tune,o,2014-10-12,Leigh Hunter,5
