buggy interface,b,2015-04-19,Igor Os,1
for work just but this port need some effort,f,2015-04-19,Igor Os,1
this should be the top used subsonic,o,2015-04-18,Cristian N,5
5 out of 5,o,2015-04-18,Cristian N,5
best tech service,o,2015-04-10,Jerry Poole,5
i love the feature on this but there is one bug annoys the heck out of me,b,2015-04-09,Binh Lam,4
many i skip to the next track on the there is no music playing even though the progress bar and time is moving along,o,2015-04-09,Binh Lam,4
the way to get it playing is to press the pause button and then press play again,b,2015-04-09,Binh Lam,4
this happens in mode well a mode,b,2015-04-09,Binh Lam,4
update i did try reinstalling but after i found it remembered all of my setting,b,2015-04-09,Binh Lam,4
i found the playback problem seems to be related to my speaker,b,2015-04-09,Binh Lam,4
i use the everything seems to behaves normally,f,2015-04-09,Binh Lam,4
very strange problem,o,2015-04-09,Binh Lam,4
possibly the player stop sending signal to the speaker in between song skip and it ha trouble the next song start,b,2015-04-09,Binh Lam,4
i can hear slight sound on the speaker skipping track,o,2015-04-09,Binh Lam,4
probably the most feature rich mobile available on android,b,2015-04-06,Carlo Virtucio,5
actively regularly updated,f,2015-04-06,Carlo Virtucio,5
ha even been kind enough to pas on important compatibility information for better overall experience,b,2015-04-06,Carlo Virtucio,5
well worth the purchase,b,2015-04-06,Carlo Virtucio,5
work well with subsonic too,o,2015-04-05,Igor Brigadir,5
fantastic great extra and the server administration tool are a plus,b,2015-04-04,Andrew Daniels,5
the only reason i paid for this one wa for and it i try,b,2015-03-29,Andrew Hibberson,2
very please fix,b,2015-03-29,Andrew Hibberson,2
best subsonic client for android,o,2015-03-28,Ryan Revels,5
work good but the tabbed interface on native subsonic is easier to access library and play music,f,2015-03-26,A Google User,2
a few chronic bug make it le a perfect player,o,2015-03-26,A Google User,2
