wired the into the for the standalone android stumbler,f,2014/12/10,,
recreated 1255 to change file delete operation to file move,f,2014/12/10,,
follow up patch to 1338 pr remove special testing variable in and add an additional test for the location ha not changed enough,b,2014/12/10,,
i know you made some change to this translation but my change will require redoing this,f,2014/12/10,,
oops,f,2014/12/10,,
help i commit,o,2014/12/10,,
this commit renames the class to,o,2014/12/09,,
a subsequent commit will push the and significant motion detector code behind a common interface,o,2014/12/09,,
a ha been added to so we can inject dependency at runtime to aid in testing and decoupling interface,f,2014/12/09,,
preliminary documentation is provided in,f,2014/12/09,,
removed convergence code a accelerometer are much more imprecise the doc suggest,b,2014/12/09,,
added minimum height changed to horizontal and removed disabled text,f,2014/12/09,,
update to version 100,o,2014/12/09,,
bump to 153,b,2014/12/08,,
reverted some unnecessary change,o,2014/12/08,,
motion detect had an extra wait period for first fix,b,2014/12/08,,
this logic is of no value,b,2014/12/08,,
remove this extra time window and just use the existing time window called in this code,b,2014/12/08,,
the code is cleaner with one time window instead of 2,b,2014/12/08,,
the reason the old code wa not good is that the extra time window to wait for fix is not any different the existing motion change time window except that it wa hard coded to 5,b,2014/12/08,,
what would happen is that scanning wa started and there is no fix it would wait 5 before the motion detection logic would kick in,b,2014/12/08,,
this is confusing to anyone trying to understand the working of this code,b,2014/12/08,,
it should be easy to grok based on the developer setting,b,2014/12/08,,
the change from 1316 into a separate branch,f,2014/12/08,,
motion detect more logging log activity show logic removed some log from the tile code,b,2014/12/08,,
the delay to wait for the wa wrong t should be t then return true,b,2014/12/08,,
added support so the android installs automatically updated install documentation,b,2014/12/05,,
remove extra null assignment,b,2014/12/05,,
fix pausing,b,2014/12/02,,
minor improvement regarding enabling,f,2014/12/03,,
updated polish translation,f,2014/11/30,,
translate new string to,f,2014/11/29,,
bumped to 152 to include lost network location provider patch,b,2014/11/28,,
wrap to catch and ignore exception arguably one can check particular location provider are available,f,2014/11/28,,
this is useful if the code then take further useful action based on this info,o,2014/11/28,,
we have no interest in handling this case beyond not crashing and putting an error in the log,b,2014/11/28,,
why is the network provider unavailable anyway,b,2014/11/28,,
what is the on the device required to reproduce this,b,2014/11/28,,
i tried airplane mode restricting to only,f,2014/11/28,,
neither triggered this,o,2014/11/28,,
issue 1311,b,2014/11/28,,
