Topic,Words
0,0.059*more,0.049*on,0.048*select,0.044*and,0.042*beats,0.041*appears,0.038*service,0.038*are,0.035*much,0.033*working
1,0.043*great,0.041*like,0.038*me,0.037*and,0.037*thing,0.036*to,0.032*isn't,0.030*service,0.029*more,0.028*talking
2,0.064*me,0.049*to,0.040*for,0.036*like,0.035*similar,0.031*but,0.031*some,0.029*something,0.029*while,0.029*select
3,0.095*great,0.040*i,0.039*helping,0.039*tool,0.037*infinitely,0.036*something,0.036*amazing,0.035*the,0.031*am,0.031*advise
4,0.063*like,0.056*client,0.055*would,0.043*able,0.038*telnet,0.032*amazing,0.032*working,0.031*with,0.030*you,0.029*after
5,0.066*configuring,0.053*in,0.044*like,0.037*similar,0.037*for,0.031*after,0.030*list,0.029*could,0.026*developer,0.025*streamlined
6,0.065*android,0.047*be,0.044*much,0.038*use,0.037*tool,0.037*this,0.036*with,0.036*makes,0.035*similar,0.031*talking
7,0.070*definitely,0.068*isn't,0.044*configuring,0.043*great,0.042*the,0.034*but,0.032*messenger,0.030*beats,0.028*thanks,0.027*update
8,0.046*while,0.045*streamlined,0.044*client,0.039*are,0.037*type,0.034*but,0.034*much,0.033*control,0.031*service,0.031*thanks
9,0.052*makes,0.041*like,0.039*working,0.037*thanks,0.037*if,0.036*appears,0.036*be,0.033*tool,0.032*amazing,0.032*thing
10,0.086*i,0.053*like,0.050*the,0.049*after,0.044*infinitely,0.042*developer,0.041*in,0.035*a,0.034*find,0.032*to
11,0.076*configuring,0.056*talking,0.049*type,0.045*to,0.044*you,0.042*this,0.042*use,0.037*streamlined,0.032*appears,0.029*but
12,0.053*are,0.052*service,0.047*after,0.043*program,0.036*talking,0.036*the,0.035*with,0.033*similar,0.032*streamlined,0.031*to
13,0.072*but,0.070*after,0.066*streamlined,0.056*am,0.046*something,0.043*working,0.030*are,0.027*talking,0.025*amazing,0.024*works
14,0.062*client,0.048*to,0.042*me,0.040*service,0.038*for,0.037*select,0.037*some,0.033*after,0.031*but,0.029*quite
15,0.057*would,0.044*be,0.037*definitely,0.036*configuring,0.034*client,0.034*are,0.034*streamlined,0.031*program,0.031*i,0.031*select
16,0.073*find,0.055*a,0.049*am,0.040*select,0.039*amazing,0.036*great,0.034*client,0.033*thing,0.028*update,0.024*i
17,0.063*something,0.049*great,0.046*after,0.045*advise,0.041*update,0.036*add,0.032*mouse,0.031*you,0.031*would,0.030*client
18,0.052*you,0.049*quite,0.047*could,0.047*mouse,0.044*a,0.040*similar,0.039*client,0.037*configuring,0.032*control,0.028*developer
19,0.074*similar,0.054*use,0.051*isn't,0.051*makes,0.042*are,0.037*easier,0.028*mouse,0.027*am,0.024*on,0.024*definitely
