bug fix,b,2015/3/20,,
bug fix,b,2015/3/19,,
bug fix locale update,b,2015/3/19,,
missing image,b,2015/3/19,,
update to 260 reply mention new message forward logic blur in photo editor,b,2015/3/19,,
update to 252,b,2015/2/27,,
crash fix,b,2015/2/26,,
missing image,b,2015/2/26,,
update to 250 photo editor section in shared,b,2015/2/26,,
update to 240,b,2015/2/01,,
bug fix,b,2015/1/24,,
remove stray binary,o,2015/1/12,,
update to 232,b,2015/1/09,,
crash fix,b,2015/1/03,,
update,b,2015/1/03,,
update to 230,b,2015/1/03,,
bug fix,b,2014/12/04,,
