Topic,Words
0,1.000*great
1,1.000*great
2,1.000*great
3,1.000*great
4,1.000*great
5,1.000*great
6,1.000*great
7,1.000*great
8,1.000*great
9,1.000*great
10,1.000*great
11,1.000*great
12,1.000*great
13,1.000*great
14,1.000*great
15,1.000*great
16,1.000*great
17,1.000*great
18,1.000*great
19,1.000*great
