# deletions,date,commit message
0,2014/3/09,adding gujarati and punjabi dictionary
0,2014/2/21,hindi dictionary in proper binary format
1,2014/3/11,Update README.md
2,2014/3/10,version bump
0,2014/3/10,new icon
14,2014/3/10,remove duplicate nepali methods
1,2014/3/10,fix typo
2,2014/3/10,preparing for release
1223,2014/3/09,renaming the package for smc/icfoss release
2,2014/3/09,version bump!
1,2014/3/09,enabling marathi transliteration keyboard
89,2014/3/08,update readme with supported languages sort methods.xml
1,2014/3/08,tablet layout for current languages
1,2014/3/08,proper name for malayalam inscript
138,2014/3/08,moving tools to another repo
5,2014/3/06,proper feed for sort
76,2014/3/06,tamil inscript layout
5,2014/3/06,use \t instead of \n to give spacing
1,2014/3/06,print unsorted strings only if it is not empty
1,2014/3/06,print output file name when creating new layout
6,2014/3/06,sorting character details in ime parser script.
3,2014/3/04,digits for kannada telugu and bengali  + character code for tamil and malayalam
5,2014/3/04,hint label fixes for kannada phonetic layout
1,2014/3/03,kannada inscript layout
1,2014/3/02,change copyright missing characters in ml-inscript
8,2014/2/27,removing no-language subtype
1,2014/3/09,keyboard name change for hindi and kannada  Conflicts: java/res/values/keyboard_names.xml
1,2014/2/26,updating submodule
2,2014/2/26,version bump.  Planning to continue 0.9.x series untill supporting all xkb keyboards
1,2014/2/22,handle numbers in parser script
1,2014/2/22,transliteration keyboard name in kannada
1,2014/2/22,proper name for hindi transliteration
2,2014/2/22,read file with utf8
1,2014/2/22,add kannada phonetic layout
54,2014/2/22,fix tamil labels going outside key view
52,2014/2/22,fix malayalam characters going out side key
12,2014/2/12,fix: transliteration on some inputs boxes
2,2014/1/22,import proper path on make-keyboard-text
1,2014/1/22,add bengali in setup wizard
2,2014/1/21,version bump for new beta release
230,2014/1/20,set rupee symbol as default currency
2869,2014/1/20,updating keyboard text set file
1,2013/12/12,Added smiles without noise to AOSP keyboard  Added some smiles on top of default: :) ;) :( :D :P ^^ -_- They are very popular!  Change-Id: I5c78992ce3fa8b95052ca2136796bb7a9c4c510f  Conflicts: tools/make-keyboard-text/res/values/donottranslate-more-keys.xml
2190,2014/1/20,maketext and makedict is removed in kitkat
29,2014/1/20,add new transliteration languages
12,2014/1/19,reverting changes in native code  so that both proprietary and open source lib file work seamlessly
361,2014/1/19,changes to add gesture typing on supported devices.
2,2014/1/14,new beta version
843,2014/1/14,removing string files for hi and en-rGB will add later
1,2014/1/14,temporary fix for ത issue
1,2014/1/13,fix app crash on init added no language method
65,2014/1/12,remove setup video and image showcasing guesture typing
9,2014/1/12,app name setup text changes
2,2014/1/12,remove unwanted pre-defined layouts
6,2014/1/12,Single file to handle all keyboard names
2,2014/1/04,change gradle version
4,2014/1/03,proper gradle file
1,2014/1/03,change submodule to our own fork
21,2014/1/03,changes for transliteration based on new changes in kitkat  + remove unwanted dictionaries
10248,2014/1/01,fixing merge issues part 3
5427,2014/1/01,fix merge issue part 2
4996,2014/1/01,fix merge issues
445,2014/1/01,fix merge issues
2198745,2013/12/29,merging kitkat keyboard
1,2013/11/09,fix transliteration
5,2013/11/09,importing jquery.ime java port (morelangs)  changes taken from wikimedia morelangs keyboard.
2,2013/6/02,version bump
4,2013/5/25,add shortcut to write virama + ya
4,2013/5/25,add dot repha  * dot repha is not visible now because anjali is not uptodate * remove unwanted space before vocalic R
3,2013/5/25,add missing malayalam letter AU
21,2013/5/25,remove atomic chillu letters
2,2013/4/05,0.3 new release
6,2013/2/09,Misc experimental changes
1,2013/2/09,Hack to avoid asset compression  http://ponystyle.com/blog/2010/03/26/dealing-with-asset-compression-in-android-apps/
49,2013/1/29,Malayalam conjunct consonants
2,2013/1/21,version 0.2
2,2013/1/21,add malayalam chillu il to easy guessable position
12,2013/1/13,Some tweakings for v0.1
1,2013/1/13,Fix cha
26,2012/12/09,remove unwanted file
282,2012/12/09,New malayalam layout based on lalitha
60,2012/12/08,code cleaning
2,2012/12/08,fix for dictionary
7189,2012/11/07,removed unwanted files added updated textset file made with maketext
15856,2012/11/06,removed unwanted files fixed issue with setting activity
716,2012/11/03,package name change
9,2012/11/03,added rupee symbol
