App,Store,App ID,Review ID,Country,Version,Rating,Date,Author,Subject,Body,Translated Subject,Translated Body
Indic Keyboard,Google Play,org.smc.inputmethod.indic,Z3A6QU9xcFRPR1BRbXYtdDZZVUdyaTJpbXdkU1ltbHptSWV4VFlPUU5VM2ZDOWhSWXVXdlRQSGpnVDV0TjJ0RHh5ODRZZi1LajZMZjZBZmNId1VPRnZ6RkE,English,,5,2016-03-22,Chakkiparamben Shamsu,Marvelous,Useful,,
Indic Keyboard,Google Play,org.smc.inputmethod.indic,Z3A6QU9xcFRPRU9ELU5jc0NjU2Vqd0JTWUc5bHpoRW1LY29FU2VVdlFTZmtnU2tRaFg0YkQxNXE3Z2ZfVVZZRzI4dHpucGNWUDlTN0Jjem80UFRYSmZOUnc,English,,2,2016-03-21,Satnam S Virdi,"",sign dandi (।) is missing in Punjabi Keyboard. Please fix it as early as possible.,,
Indic Keyboard,Google Play,org.smc.inputmethod.indic,Z3A6QU9xcFRPSGhWOFU1TVpDZXhZU2hmbklrOWhTOUtDa0ZOOGZ2ZS0wLW5hUkdqYXZDQ2tEa1o0ckQ2S3NYV3l6SkV3WHFheGFwalRhMzJRM3FpMk0xanc,English,,5,2016-03-20,achus mobiles,"",No.1 app for Malayalam,,
Indic Keyboard,Google Play,org.smc.inputmethod.indic,Z3A6QU9xcFRPSEpnb2JPMkdtRGR0bUZqMVJibzNocUR5blBtNE1DRkxNa0xIbWdTX2NiYzkzU1VvdWhPOXNwamo5NjUyQkU4ODhsbGVwckw2N1dZMHZQQUE,English,,5,2016-03-18,Ivin Raj,Superb app,100% working,,
Indic Keyboard,Google Play,org.smc.inputmethod.indic,Z3A6QU9xcFRPRXBWdkRzdFNacWQtWXdMQjZESDRRdjRYc3Q3TUVzeGhrV3R6Y1lVWnRXdFozQWppcHhOMFN4bzRxOGowaVoteW4wZkxwWEpRaG9CeGJtSUE,English,,5,2016-03-18,Maeel Dinesh,"",I love it,,
Indic Keyboard,Google Play,org.smc.inputmethod.indic,Z3A6QU9xcFRPRTBNako0ekpSQ19tQWdQeks4VEVFRzlpbndjNmFwd0lhZDhOVlZyOVpLV29UMWZBU2lfZXdMVDZHdDNXRG5veWo2T2k2R0pXMkZ4anBnWXc,English,,5,2016-03-17,Md Minhazul Haque,The best Bangla keyboard,I was looking for a lightweight Bangla keyboard with Probhat layout. This is exactly what I need. Many thanks!,,
Indic Keyboard,Google Play,org.smc.inputmethod.indic,Z3A6QU9xcFRPR1NDZldkWXFBYUsxZUZmSUVVSV85b1d5ZjVTNThzWHJUczVfN2h4alg3MGVaMF9FMDNPQWxzN0JGUU1IVkVjYXYwTlFDWWxLeXoxRzJ1RXc,English,,5,2016-03-16,rutuja shete,Good,Good,,
Indic Keyboard,Google Play,org.smc.inputmethod.indic,Z3A6QU9xcFRPRmFRNy0zaW5VMlFVQUc0ZFV3VlVsaVV3cDFINDRUYUhzQi0tWV9YWEpFNFI5RjJXNGVmbWF5cko3ZkNGZkF3amNRallUMTFwajRiOGxSTkE,English,,5,2016-03-15,Hashim C H,Very Good App,Thanks team for a useful app.,,
Indic Keyboard,Google Play,org.smc.inputmethod.indic,Z3A6QU9xcFRPR3hEbl9SMGNVY19iN2dDZXNVazh6aGk3c3RpbXBfSWVfeHN2ckswdk5kY0RoendNeGFKYVBzTHg1aEJQRDFrN3FNSGFRLXhueTNreG45NWc,English,,5,2016-03-15,viral sumad,Nice,Nice,,
Indic Keyboard,Google Play,org.smc.inputmethod.indic,Z3A6QU9xcFRPSF9UYXVXUnc3TEVQZHhXUjllT0NkZ2l3ei1tbG9sbHpuM1F3WmJ4NkFKQmF0dVFoaXN6SmQtSDlqQldQUTUxaDgySjNaVHJHM2trUEg0Vmc,English,,5,2016-03-13,Raj Kumar,Good,Easy to use,,
Indic Keyboard,Google Play,org.smc.inputmethod.indic,Z3A6QU9xcFRPRllZS2VDSF8ySmVNZVBKMnR6RmRaMUtLQkt1QWthNG5kcVJtSi1ZdVA3b2Q2Q3prTW5HUzdRTUpuRENoX2lxY0UtRUdhcGFiaWdRaThWUHc,English,,5,2016-03-12,AJMAL SHIBU,"",Soooper in ever,,
Indic Keyboard,Google Play,org.smc.inputmethod.indic,Z3A6QU9xcFRPSDBXR2EtRjNRTk83SE8xTnd2Mk1idEU5U1RTUlFmMk5FRFhiYlM0VWxrbUY0cmJmVm5kX2ZUNGtTMm1VVEZsX0dGakFoeHFuZU50MXRnZVE,English,,2,2016-03-12,Srinivasa Gowda,Ilike app,Best help of me,,
Indic Keyboard,Google Play,org.smc.inputmethod.indic,Z3A6QU9xcFRPRklXcHU2UDJzZXBWakVWZTkyREowUm1MdW1mcnJBWmJsRFpiZkR4MWR0TmlpelRfSXd1R0FYREk1NEZGTjJDTE1XUE9hQm90Rmg3TTlKU0E,English,,1,2016-03-10,Kadungathilnoufal Noufal,924,Malayalam keyboard,,
Indic Keyboard,Google Play,org.smc.inputmethod.indic,Z3A6QU9xcFRPRUpzSEFoWHo0RjRPSVM1dEQ3NXF0REd5RUt4amhGUmNaU0ZNd3RKUGwweGFiNHdzbkVlLU1WQ1RPdjNNdFU0YzhCTkpxTkpuNXhjcDhveVE,English,,5,2016-03-09,Ratheesh T.M,"",Excellent app for malayalam typing.,,
Indic Keyboard,Google Play,org.smc.inputmethod.indic,Z3A6QU9xcFRPRldwU08tRHNPVjN6RW9ZZHRZZHVlUGJUb2dYbVdBM3VsdXFZTU44NWdBREprTkdnTzJCd1RKVHRqWUlMLVpqN1RjZHJEMVZiSHRqZnVndEE,English,,5,2016-03-09,Badhsha K.H,കലക്കീട്ടോ,ലഭ്യമായതിൽ ഏറ്റവും നല്ലത്.  ഇൻഡിക് കീപാഡും ഗൂഗിളിന്റെ ഇൻഡിക് കീപാഡും തമ്മിൽ വത്യാസമുണ്ടോ ?,,
Indic Keyboard,Google Play,org.smc.inputmethod.indic,Z3A6QU9xcFRPSDc2aDU0YlU1M3F4T3phcHc2VEhQUFZpWjRXRWdJYUhNVkV1SmRpWHRBVUVMaGJodEpJajlhalJjalRWY3RkVDQxdGdFOEs1ODI4eGVyTUE,English,,5,2016-03-07,Haidher Kunimal,കെ,എച്ച്‌,,
Indic Keyboard,Google Play,org.smc.inputmethod.indic,Z3A6QU9xcFRPSHVqcmxyQ2lpTkZvSHJ0NnJ4U0pVZzlkeDBuV0d1UmZ5QXM1WFhwQ1hZcjhLVDBxRExST3owY2QzQXlBM2M4Sm9pUW5zbXEwUnNyWVdNUWc,English,,1,2016-03-06,Saban Shekh,Saban,Shekh,,
Indic Keyboard,Google Play,org.smc.inputmethod.indic,Z3A6QU9xcFRPSGlXMU85RXJNZ2Q3VGVRcWRLMVc3Wi1mRC0tOFF5bG4yS2ljamV0N0M0dzdaQ1l3RDZ1N3BPOF95LXF2aEhkNFVvWjVjZDdYeGpTTGNkeEE,English,,5,2016-03-06,Abu-Sarah Sultan,"","I like the keyboard as I can type Bangla, English and Arabic with this single app. The only thing I would love it to have is a rich Arabic word prediction which is lacking in this keyboard. I used to use Swiftkey which has a very good Arabic word prediction feature. Is there a way I can manually add a list of words from a file? If not, please try to add it in the next update. Another thing you can try updating is, sliding on the spacebar to change language rather than long pressing it and then selecting it from list of keyboards. It will save time while working on different languages.",,
Indic Keyboard,Google Play,org.smc.inputmethod.indic,Z3A6QU9xcFRPRmxIaEtGMFpNb1VXb1lIc1NiVERLSjFoWDFmZVpub05jRkI5aDNBU2NoeVppdTFwam1VdThVOVc5VUV0RVN3ZUFDRGVGb0NJejBfZ2pfVlE,English,,5,2016-03-03,Shibsankar Sannyasi,I,It is very good app,,
Indic Keyboard,Google Play,org.smc.inputmethod.indic,Z3A6QU9xcFRPSDJwXzJnTGRSMG1UOVhqZTNVVG5lSlBsc1pUZDdDOFpkSUxOZVRmdzItS1lYU25YOWpBSUVNODM0MkppS0lOdWxUdTZZNzdZRGg3WnFGRXc,English,,4,2016-03-03,sridhar sharma,Toggle issue,"Hi, when I select earth icon to toggle between various languages I chosen, it goes to my default Asus keyboard. Every time I have make changes from setting. Please fix this.",,
Indic Keyboard,Google Play,org.smc.inputmethod.indic,Z3A6QU9xcFRPRmZKYVk4NTU3cHVnLWFhc2lQcDVaOUp1dnY3LW9NbEt1Z2lnYkdtSlZoNlNzNmZINk42anFTeWstLVkxalhoQW9OZXhhQ1d4b2NXN0RwMVE,English,,5,2016-02-29,Naocha Hitler,"",must...,,
Indic Keyboard,Google Play,org.smc.inputmethod.indic,Z3A6QU9xcFRPRmxBQkkyOWRIbzVQNnlGZjdOOVo2SmZ6eV85VlNRVUVfUUlfVkdPYnB4WF9RY2hmbE1yWmhtdVlkWTJIVWJNQ1FrNlkyVDdhaGRVbEFyWVE,English,,5,2016-02-28,Tomba Hijam,Nice,Loved it,,
Indic Keyboard,Google Play,org.smc.inputmethod.indic,Z3A6QU9xcFRPRm1DOU9LcVYwTmo4blpNVG56RzVFV3hYWGZiOHFPdXBJLTI0Xy0tMGlGaFNyWUtHaGl4Nmpwbmd5RzhkN2JwMWU1a3VSenV4NmM0TGt3UEE,English,,5,2016-02-25,kubsai,K,Super,,
Indic Keyboard,Google Play,org.smc.inputmethod.indic,Z3A6QU9xcFRPRlYyaVNGTlRPdS1uOGVYZWI5X01DYWI3bFhXQnJmbzhNSDZOQkItbkJmMnp0WFVxLTVmUnhVTF9id2h3SnBiX21YVEhyTVZUdmppRXl5MGc,English,,4,2016-02-25,Siva Krishna Jammalamadaka,Super,Ok,,
Indic Keyboard,Google Play,org.smc.inputmethod.indic,Z3A6QU9xcFRPRXRuY0VxdEhSUzE1WWxNbW5WOHFSdG1DcU16TjNXbEdIQlJoeVBFYVM5cWZIWkVoSzZISVJCbDVDME5lMmFvekh1em1EZElBeTNRdDFpUHc,English,,4,2016-02-25,Veerendra Nath,Language keywords,Nice very easy to use it..,,
Indic Keyboard,Google Play,org.smc.inputmethod.indic,Z3A6QU9xcFRPRUVlbWxCakNVRDRjdHFqc0h2aEFGeFFOQm5TdDdjRk5ocEJySUdaWGRPd3BxT1lja1l5Nm1saGc2TUgwMWowSFBrdHp1OUJ6bDgxdEw5SFE,English,,1,2016-02-24,Hanuman Singh Shekhawat,"",Good,,
Indic Keyboard,Google Play,org.smc.inputmethod.indic,Z3A6QU9xcFRPR29WU1JOQ2txY1E2MlNkZi1RQkduYTY3WFlRajFfaHVHbE1TanZfcWF2TktQSHdLYVpqeHdyalBKb2lfNF9XNG0tNjF2eFA3a0lRYkR6Y3c,English,,5,2016-02-23,Jamshu Prince,I am happy,It's delivering my mother tongue language 😂😂😂😂,,
Indic Keyboard,Google Play,org.smc.inputmethod.indic,Z3A6QU9xcFRPRlBPNXZOb3FPaE5QZWllbzRrMmkyUHB3cklKNWRQT2tnRktDRVAzbXNEalJOdm02OWNTUGxaS1MwcFV5aVZRUEd5S1lyT3liVEZKeWNoLUE,English,,3,2016-02-23,Shibin Monu,Shibin,Nice app,,
Indic Keyboard,Google Play,org.smc.inputmethod.indic,Z3A6QU9xcFRPR0l0Mi16b1FoYnR0dlBNZTFTMmFVX3FKRzJDZm80b25XLUM1REJYSUN2V3B2eGFKLXFtMHJLU1plZFNkajlKb1N4V2U1WlFJdEhaMFdUd1E,English,,5,2016-02-23,Shajid Khan,"",Supppprr,,
Indic Keyboard,Google Play,org.smc.inputmethod.indic,Z3A6QU9xcFRPSGYwZkpMQWNrVW1oSGp2Q0dkS2R3bEFhangzbEtJc2ZEck5zWTRkVkwtdVVvblBDUlpxc1RXRXlxUUZQOWtqeUVLSXAtai1oWURFUW9ELWc,English,,3,2016-02-21,Onkar Karambe,"",Google Indic works much better than this app..A good app though...,,
Indic Keyboard,Google Play,org.smc.inputmethod.indic,Z3A6QU9xcFRPR21IbGFESDBtcXZMRTlIZU93OTQtT2tuQm1rNWpFbTI2Ykp4elFfQ3ZIZ201RE5BODdYRFF1Rjd3Nk54cVp0cTlESkphSjBycGNMNHJjX1E,English,,5,2016-02-20,Taj Peer M,Love it,Awesome,,
Indic Keyboard,Google Play,org.smc.inputmethod.indic,Z3A6QU9xcFRPSGgtd0RSVXdzQUMyTzZrb1c1bXJ6XzZTRnI3WXR4WjZsTFV2cnR4blRpazBscU5HRDJkNnZkWlFNSU0xY3JLU1FrUUdRbk9JbEdXUHVZc1E,English,,5,2016-02-17,Ahamed kunhi,"",Super,,
Indic Keyboard,Google Play,org.smc.inputmethod.indic,Z3A6QU9xcFRPR2VNcmhsZ0RtVllEbXRJb2dreHl5SzNUdV9ZWFZHeHdMYjZQVXJZVFVldHp3ZjJnMEJndlpLS3VPR0tyREFFSGlDamtjWTFYaEJ0NW1TblE,English,,2,2016-02-15,Anwar Husain,Htc user,"Please check urdu, all alphabet on wrong keys",,
Indic Keyboard,Google Play,org.smc.inputmethod.indic,Z3A6QU9xcFRPSHpLMTNtTmRObURTSkl0MkEzQnNDeGlCeTZ1WHc2U0hjZndxTWdXdFFEWEJ6MFNTNE5sU0VrR1hYaGo2RV9OTkhLdUVrTG9iYU04WlpZdHc,English,,5,2016-02-14,Aneesh MS,Q,Excellent.,,
Indic Keyboard,Google Play,org.smc.inputmethod.indic,Z3A6QU9xcFRPRk8wS0FIV1Q5b3hoRXk3dmhra2dBc2dTVjNXRGxBb1llendoUnZtOTRKcmtrTk1ZbnJZeHdGRk5pbkxaaUh6Zl96c19BWXBPNnItSHNxc2c,English,,5,2016-02-14,Alonez Gamez,My Permanent Keyboard,Loved Loved Loved IT,,
Indic Keyboard,Google Play,org.smc.inputmethod.indic,Z3A6QU9xcFRPRWJPc3FGclgwTnF4cGt5TG05M01kZTRyOUlCWG9MNTFJNWlaa1FrUGVfR1ZlMHpWSm5lSTdFNHYtakRicklNejZIMUtSTnFNdWFkSk9XVEE,English,,5,2016-02-13,najeeb vc,"",Mmmmm usefull,,
Indic Keyboard,Google Play,org.smc.inputmethod.indic,Z3A6QU9xcFRPRVJkYzdSM283R3NuTlhoelZkSUFLVTQya2p2WFIyZkd4b2xKOEtmbFFoeVhQUU9YS3NkZzI4a3BhUGw1N0pKT3hpVV9RbFdJSUtnUGhFWEE,English,,5,2016-02-12,Pks Menon,Good,I lovt,,
Indic Keyboard,Google Play,org.smc.inputmethod.indic,Z3A6QU9xcFRPRXk4ODNwLVJtMG4tUVIxOVFIWHctaVRPZ0JRQnpqNmlaaTFKbERLXzV5cDl1U0xUdFdHX0JHTDJsRkNQQTVZNVQ5NWVsWDVIb2tuX1RIZmc,English,,5,2016-02-11,JAYACHANDRAN KRISHNAN MANETHODI,"",Nice app,,
Indic Keyboard,Google Play,org.smc.inputmethod.indic,Z3A6QU9xcFRPRUlENER6eUM0aVpvOTIxZF9NMUg2cG9Va2VmWURqNkt5MEtFejEtb2c2N1ZMRUpzZmI3a3RzWnk1NlMySm12cVpDV2h6ZTJ0NkV1NUUxN2c,English,,5,2016-02-11,Girdhar Kiradoo,G kiradoo,Awesome,,
Indic Keyboard,Google Play,org.smc.inputmethod.indic,Z3A6QU9xcFRPSFRnZHVQTWlyZGVUb00zQl9kdWlXSTI2OFJfSlhBQjQ2VF9rT1J2U0ZCOUVQdkVEeF9VS3hvcy04b3hxUnN2RWpYam0zdzBlOE0xNU5MUlE,English,,5,2016-02-08,hae haejosh,"",Excellent application,,
Indic Keyboard,Google Play,org.smc.inputmethod.indic,Z3A6QU9xcFRPRnlsbWNwYUk4Tk5PZzJBOHhaTDVuWjMwbkFpa01yeTNzWjYyUloyTEo0MncxaDJPQWpjdE9iTC1fMm03MkVIc0cyNE9wc2htZWJrTFJVMVE,English,,1,2016-02-07,siva prasad,Not working,All languages are not activated only English is working,,
Indic Keyboard,Google Play,org.smc.inputmethod.indic,Z3A6QU9xcFRPRmxLWDJIOWVjTWdnYlk2allBWmRuZVVtU05mNmpqWTBETk12N1l4aEtwWnlPR3E1VUdJY3VMeFctQ2hpT1QzTnhvYlNHcWZMWnRtUzBONWc,English,,5,2016-02-07,!!KUMAR!!!! Naik,"",Good application ...,,
Indic Keyboard,Google Play,org.smc.inputmethod.indic,Z3A6QU9xcFRPRWhNcy0tY3V6cVdQVThjYjNuUmtJemlONzVJOE1SMjdsNXJJM2c0OVpPQjNXQmRIMGJJMVNUR3pLVEpSTWdUdHViT09XaGZGTmdjb09TZ0E,English,,5,2016-02-05,SARATH K DEVADAS,"",luv i,,
Indic Keyboard,Google Play,org.smc.inputmethod.indic,Z3A6QU9xcFRPRTVERUdsRUJVSzQzZHhKOG9KNGpHb04zT0ZOdDliaGNxXzNJM3RwTVc2ZnY2UzdHaE5OM1ZrY0Z1NmJpd1pzQVBTaWkyejdPQXZubGt4TVE,English,,1,2016-02-04,Mahender Singh,Just Hate it,Unable to install on Samsung Galaxy Note2,,
Indic Keyboard,Google Play,org.smc.inputmethod.indic,Z3A6QU9xcFRPRm5pMmQycEE4RmllWU9qUTdsMExnY2d0dzQzNklSMVZ3UmRkWVJNcUI5amtldGtTRGpCZk9lQ1k4Znk3N3p3SlVITGZYdXl0ckJCdG9iaXc,English,,5,2016-02-04,abdul azeez vengara,Search in contact,കോണ്ടാക്ടിൽ സർച്ച് ചെയ്യുമ്പോൾ ഇംഗ്ലീഷ് കീബോർഡിൽ കേസ് സെൻസിറ്റീവ് വേണ്ട. അതിനാൽ പല നമ്പറുകളും കാണുന്നില്ല.,,
Indic Keyboard,Google Play,org.smc.inputmethod.indic,Z3A6QU9xcFRPSHRpMzV2dWszRG54enhtY29tdGtFSTdFZkpsbUd1UzdLQ3hqQXI0NmxtSkV4WFRPN1hoQ2FoMHRXU25GVnlDZTh6TGJ2S0NlWERUX2tGMWc,English,,5,2016-02-04,Deep Roy,Nice work!,"Retains the flavour of the stock keyboard, which I like, with a much smaller install size, bigger feature set, allows me to type in Hindi and is ad-free. What else can I ask for… Appreciated.",,
Indic Keyboard,Google Play,org.smc.inputmethod.indic,Z3A6QU9xcFRPSFFIajlPUWRfTTI3TlNWcVRHNWV4OVdMeUlaRmFYUkRJRTJ4VENNX1h2dlJRMkRybVU4Sms3UXVjWEFocWZaMXozNGNCTWFWMmRDSXBPMEE,English,,4,2016-02-02,Prasad Pothula,"",Good app,,
Indic Keyboard,Google Play,org.smc.inputmethod.indic,Z3A6QU9xcFRPRS1xLXY1Q2hDZzJORTR3bXp5UUptSFNyM004V2xwTEh2UU90NEJveVl3Z2JmRHVIRnRudDhMUGFORkU1dmMwRFBZYjlrdGlzZG5nS3JTV0E,English,,4,2016-01-31,AMALNATH SATHYAN,"",It would be great if you add swipe facility for english,,
Indic Keyboard,Google Play,org.smc.inputmethod.indic,Z3A6QU9xcFRPSGhPcXJzc3I4aTZSczM2Vk13UTFoNzgxazhlUW5pWWNsS25tWi1lNjFQYUxVN0NILWJHbmZMM3hmbkV6MU5zNlhzdzFWbkRIbHVpV2ViVUE,English,,5,2016-01-31,Wasim Shaikh,Nys,Supp,,
Indic Keyboard,Google Play,org.smc.inputmethod.indic,Z3A6QU9xcFRPSDcyRlk4NTM0bHZRSW5scHg1UDd0ay1zb2lfVFNNTll4NnhLaXhEM1I2Y0IwZFFPdjUzZ2IwaUtWMnZQQlJKc25zU1VnTlE1RWgwQmNKRXc,English,,5,2016-01-30,SHAMPA DASGUPTA,"",It is a good app as I can type bengali messages in whatsapp,,
Indic Keyboard,Google Play,org.smc.inputmethod.indic,Z3A6QU9xcFRPRmk5YWx6Nm03aVp5TVdrVlRpbktnYzBVQ3JNaDZvcjNqZDZsUXVIcnpEYkFuUXE4SURCRENvMHEzMk1ycVd4c0hpREJkVE9CdlkxSTdZcFE,English,,4,2016-01-28,saurabh firozabad,Saurabh,Indic keyboard,,
Indic Keyboard,Google Play,org.smc.inputmethod.indic,Z3A6QU9xcFRPR3l0LXVpYUpUaGJZNDFFQ3hUa19GNFh2aXBDR2I5RGFLOFFPT0R1MUduSl9mSXhRUUVyRU9IZHdvVzNkemE5ZDRlWVJhMk5vbGdMV0NCcWc,English,,5,2016-01-28,Sahil Sethi,"","Easy to use ,include lot of languages",,
Indic Keyboard,Google Play,org.smc.inputmethod.indic,Z3A6QU9xcFRPRzFNSkN3b3g0QWt4Zkw4b0NsY1hmLXRGSWNjMjN1OG85S3NyeFNFSGFoeFZxRFpGZjhjU3Z0QVRCcnVGQUp2WU5odGpYd0l1dlo4OHhpS1E,English,,3,2016-01-26,Raju Landa,"",SUPER,,
Indic Keyboard,Google Play,org.smc.inputmethod.indic,Z3A6QU9xcFRPSEpQQ2Z3Tk13TG1zbDg1Z0ZvVXVvM04zbGRTN0FIRHc2OV84XzBnazJOdU5OLVVmYzNVdGRud1JnbXlQeF9FSEc0WGc0a0xxODdQdE1DM0E,English,,5,2016-01-24,Vathani Nesan,"",Good அதிசயம் ஆனல் உண்மை 2009-ம் ஆண்டு கொல்லப்பட்டதாகக் கூறப்படும் விடுதலைப் புலிகளின் தலைவர் பிரபாகரன் சாகவில்லை. அவர் திரும்பி வருவார். அவர் வரும் பொழுது தமிழ் ஈழம் மலரும்” – இப்படி கருத்துக்கள் நிறைந்த புத்தகம் ஒன்று வெளியாகி இருப்பதாக சிங்கள பத்திரிக்கை ஒன்று செய்தி வெளியிட்டு பரபரப்பை ஏற்படுத்தி உள்ளது.,,
Indic Keyboard,Google Play,org.smc.inputmethod.indic,Z3A6QU9xcFRPRU8ycjNqV3JLN0VZVUdRWFFrekdSNHBOUXJDS1pNSWVTcnFzdWhQNnZFYTRXSEJrUVJmR0ozbFF4MEN2MDktNUJYczNDZVFUaUJZQW9aYVE,English,,5,2016-01-23,Samuel N. Mathew,"",Great tool!,,
Indic Keyboard,Google Play,org.smc.inputmethod.indic,Z3A6QU9xcFRPRWdZbl9YVVpzdGcwTXcwRTlXdDc4dU1tUVRmdl9UYVhtNWVRcFZ0eTE0YS1NZVh3cmoyaUI0anZJLTBCMm1CbGx3UHdSSmdKRnBGcGcxTUE,English,,4,2016-01-23,r nishaana,"",Good software,,
Indic Keyboard,Google Play,org.smc.inputmethod.indic,Z3A6QU9xcFRPR3B1YnNyR3lhdGlZTHA2aXBmaEY0NkN5alctVFUyUF9jSDFGQ3FjdzEyRG9UaGxTRTN6RU5pQzBVUHdFWGtTOE9oSTh4VWdxOEIySUNQRlE,English,,5,2016-01-23,Priti Narwekar,Wonderful,It is so nice I give it 5stars,,
Indic Keyboard,Google Play,org.smc.inputmethod.indic,Z3A6QU9xcFRPRkJVamNwcWRNYVFjb1RqS2JaX19od0FJZ2lXRHdSNkllSUxsMjE5X2U5TWJ2UlJnVVRjUHFhaldKT2VSNTZ4Q2JCbGQtc2NQYU1JNlpLQUE,English,,5,2016-01-22,SATPAL YADAV,"",Nice,,
Indic Keyboard,Google Play,org.smc.inputmethod.indic,Z3A6QU9xcFRPR2RKdVoxZTVDa0J5NE5SWHMtMXlPVVRJRVVIQWNvdnlKV1Zyd2MtSTk5TEt1RXpLaV9weU5jNF91QUZpQUNseUV4VXdSN2NKMTdmc2VabVE,English,,1,2016-01-22,Shas Ro,"",Its couldn't work in my huawei g610-u20 pls fix it immediately,,
Indic Keyboard,Google Play,org.smc.inputmethod.indic,Z3A6QU9xcFRPRXFHX0F0TWJpSUhYamw4QWFFVTN1Wmk0OVpqSlF2QU91cVU2elpjNXA3SVRKVUxDTFBfcTNhWHhvSGNMYVh1UlpkcVZ2S3FSVk82RjFxSHc,English,,3,2016-01-21,Mindula Gajanayaka,Need Latest emoji support.,"need latest emoji sup, like ios 9.1 and android M. thanks 😌",,
Indic Keyboard,Google Play,org.smc.inputmethod.indic,Z3A6QU9xcFRPRnRfYjFtdXB1SExSLUhIRVg2UHhQT2ZhY21mdkxIOTNuemY2MnR0LWdWS2FQNFQwY2JkcG5ERGR4aTczbl80RzhzQWxvNGdycFlNdVFEOXc,English,,5,2016-01-18,Atul Sharma,Its good,It is very useful for me to type in Hindi I lyk it but it need frequently update plz solve this,,
Indic Keyboard,Google Play,org.smc.inputmethod.indic,Z3A6QU9xcFRPR2dYLTllREIyWkc0RHFwZHRiSHdPMGxrTnBWV0ZIbXJwa0lOMERUYWtmSnp1MkRWV05kOS14dHltcXBOX243MzVYV3ZTdWg4S2tvaTlmVGc,English,,5,2016-01-18,shanoop pattanath,Awesome app,It made me  to type malayalam easly,,
Indic Keyboard,Google Play,org.smc.inputmethod.indic,Z3A6QU9xcFRPRlVhMEhnTTZuUnM5cUhCT0hsdmZ0aDNhTm0yUHpGWlpiaVBkNTNscERUcW9EaHdmZnFJVlJwcm5VOXdjYnNsWXFEd25lWExZWnhXRk1KOFE,English,,5,2016-01-16,Er.Niyaj Ahmed,Best app,This is the best voice typing app,,
Indic Keyboard,Google Play,org.smc.inputmethod.indic,Z3A6QU9xcFRPRU1hVFNsOWV5LTVva3lCZ3ltT1RYNUZRdDNhazc5VFFia21iSF9ZODRpUTRDVUhpQ3diWV8zbURJN3VIQkdoVkthSDNmTlB0T3JWWXRQZHc,English,,5,2016-01-14,Ravi Varman,Awesome,This keyboard is fast ... Looks Really Like Google Keyboard and Functions Great...!,,
Indic Keyboard,Google Play,org.smc.inputmethod.indic,Z3A6QU9xcFRPSDcySTNCZmx0QUd2aS1NTGwwcEpOZjYzTlFxYzdyZTZwTElFb21fVVZYREEzTDlmOExkTXZsUUxiaXd6a0FtOG1ZN01WZDAybWV5Q1FUVEE,English,,5,2016-01-14,"",Good Application,Good job. Please help me how write ° on Gujarati words ( હુ ). Help me.,,
Indic Keyboard,Google Play,org.smc.inputmethod.indic,Z3A6QU9xcFRPRS1abWVVeVZvei1vbU5HWU5KenZ0Y3FEQ2xuNWdJcTZnV1lULTRsNmg3em1rMExNeHpjdWdUb1RmUUtZZC1FWFZKM2dINGJTTnRDbzZuWnc,English,,3,2016-01-14,Venu Gopal,"",Ok I like it,,
Indic Keyboard,Google Play,org.smc.inputmethod.indic,Z3A6QU9xcFRPRTBrWklHdk5LQWhEc0tBeTI5aUNtbGxNZTI3elcwSDRYdkVUeVVJYnVtNXhad09Xcm9KbmNobTQxeVNYLXhVR2hMOTdiNHB1RmN4bTl2d1E,English,,5,2016-01-13,Karthik Chandra S,Really good app,Finally could type everything in Telugu,,
Indic Keyboard,Google Play,org.smc.inputmethod.indic,Z3A6QU9xcFRPSHMxNlFWVHRpR0V3U3l4Zk5QbWRrVFNjSnltX1pENWtiQUFEVEdOaE1VeTV3SmE0RzU3aTU4VHVwTW94WmhPVnlqdDN6ckFxS19wTVFzZ1E,English,,3,2016-01-12,sanat bhatt,"",Nice,,
Indic Keyboard,Google Play,org.smc.inputmethod.indic,Z3A6QU9xcFRPRkNaTlZUQkNLUUlDUVFKakNjU2V2eS1tMUxWSVJWaFBwT183QkFGazJwM01EZnNIT0FjNTRod2Q4d096NDdRMWdVdHllNmt6M0Jkc0tFdGc,English,,1,2016-01-10,dinesh rathod,Not support gujarati language,Gujarati not supported. Not good app.  Download Google indic keyword instead.,,
Indic Keyboard,Google Play,org.smc.inputmethod.indic,Z3A6QU9xcFRPRmViamZtYmd3c255Sm84Sk5pdkdJa3NsNjdxNXpTTjI3SGZZV3pGRHVzaDBqdzlqdU9mRzlZOUdRbXRqWFEtbjlXbkJ4NDJhTGtGU3FCWXc,English,,5,2016-01-10,Puneeth Ganiga,"",Nice keyboar,,
Indic Keyboard,Google Play,org.smc.inputmethod.indic,Z3A6QU9xcFRPRVJxWjJXUXdEZENNRWVKTnJOSzFURWV0cmllNmlYQ3hoYnYtTUk4UEpEUEZaWG5sX3hWWTkwN0wwMW9KWUhQX1NvMWdqNjJoXzNGX3FCQkE,English,,4,2016-01-09,Fazal C A,good one for malayalam,Good One,,
Indic Keyboard,Google Play,org.smc.inputmethod.indic,Z3A6QU9xcFRPSFRpdEJ6S2YtNUplWGNCOHhLaXlWM0dQVXBNMmgtLWlXVl84RFBaa0tFTXFjdjRiamZ4RTltVUZ0YTBXbjBRMnVzTHBHbXU1cFV5VG1kUUE,English,,5,2016-01-08,Ajay Bawane,"",Very useful,,
Indic Keyboard,Google Play,org.smc.inputmethod.indic,Z3A6QU9xcFRPRVRiTUJENU5RUjZBVUNfMk44a0RaLXhzYXV6a0Y2UWFHRnpxdEJFSms3Y0dtS00yUTlGY0NwMldVSllUYjkzWDdKWldScS1LNUxiOXJPNnc,English,,5,2016-01-08,Manish Pandya,"","Best app so far I came across, thanks to developers.",,
Indic Keyboard,Google Play,org.smc.inputmethod.indic,Z3A6QU9xcFRPR3Z3dklOV05za21uY3Z6dU1Xc29JME14ZVI2S29CbkcwWHJMZ0NfM1FuRXVQeDYxYl9QZlhoRnBFX1RQZHY5UzZXVW1uaTVqYk13ZXpFT1E,English,,1,2016-01-07,Deepak Dhankhar,Deepak Dhankhar,I'm a boy,,
Indic Keyboard,Google Play,org.smc.inputmethod.indic,Z3A6QU9xcFRPR0poc3F3MVN3bE1sRi1Ccm9pX0l4cEc5THZkWnlkdXlRaEV3X0FrR1JmS2tLakN5UWJzM29uOThBN1M3cnJhZU5GdFd5VEsta1FUUDJsUmc,English,,5,2016-01-07,samir ajgaonkar,"",Very useful and convenient app.,,
Indic Keyboard,Google Play,org.smc.inputmethod.indic,Z3A6QU9xcFRPRS1GR3JKTzVlVHhKSWZaVGpVbDhLM0FieVBZRnQ2NmdyckMxVVFvTGlhYVNVZG9haUo0ell4S3ZlMTdRTTk1ekcyQld5bF8zQ2g0aEhIZGc,English,,4,2016-01-07,Santosh Lahri,easy work,ok,,
Indic Keyboard,Google Play,org.smc.inputmethod.indic,Z3A6QU9xcFRPSGNGRDd4anZjV0RpRkRqMUxieG1RZ3dkM3gzbkZIYktOVEY3aVY4MmlhRktuTzZwZXJ5UUZRYjZHR0NRQ0FxY3JVSEtBQWZJREZnZGJkemc,English,,3,2016-01-05,Sourav Das,"",Any updates for the দাড়ি (।) issue???,,
Indic Keyboard,Google Play,org.smc.inputmethod.indic,Z3A6QU9xcFRPRlB6bjhkVkstei03eFFISlA2UmNpRUp0TUlPZE1Rb3QwM3paZ0tnWkwwUWU4UUVVX3BJV040QzJTeG4tRXlBMXI4WE5yLTVTcGY2bnB4VEE,English,,5,2016-01-03,Sreekanth pv,Great,More useful than build in input apps,,
Indic Keyboard,Google Play,org.smc.inputmethod.indic,Z3A6QU9xcFRPRmIxRVZFRnktRlM1SDhYck9OQVAtT1I1TmU5dFZJWGZ4eC1YdDJHRGxFdi1fRUJLZWJ2ZzNXMFNpeFpjSWs5UENrTllMT0lKY0x5aGVycFE,English,,5,2016-01-01,manisha sonwani,"","I like this app , when I saw this app immediately downloaded this app.  Thankyou very much",,
Indic Keyboard,Google Play,org.smc.inputmethod.indic,Z3A6QU9xcFRPR3BTRGczVHlHOXRiclVYSmxKbGwzOFZhNzZEZldnTnJkUTk1eGRJRWx2RXFxT1pLX05NMVBwV3RuQzdySVBsMWZqdFBha3pHSVBua2pvZWc,English,,5,2016-01-01,Ramesh Naidu,"",Super,,
Indic Keyboard,Google Play,org.smc.inputmethod.indic,Z3A6QU9xcFRPR1VmaUpFSTBVUV9jQnNvaFhLWEJqakZvV0l0MURNS21EZGo0d3l0b1BzWS1hZjhJSlR1aWR5Q1NOdnVxOG1vMlh3dC1CRVo4Mi1STUNCNFE,English,,5,2015-12-28,"","",Nice,,
Indic Keyboard,Google Play,org.smc.inputmethod.indic,Z3A6QU9xcFRPR0N1YTBUbGNvNlpab192X2VpeTRvSEYwazhCZVZZM2ZVZnRIU0UxaHFpN2NTVGtTWVNaa2JuRUU4eU5DR0VwZE5lQ0I1YlU4VUo4aEFKcmc,English,,5,2015-12-28,nagesha hm,"",Super,,
Indic Keyboard,Google Play,org.smc.inputmethod.indic,Z3A6QU9xcFRPRWQ1LW9rSnBCdUN0MjhLUDM4MTlqYzJhMnlfZC1IT0dZQzJFS1Z5elFDb3plVnJ1REVUbHRoNFVvLVhWbzhUNGpUT3RaZUlJTEhjZmhmOHc,English,,2,2015-12-28,bharat tated,Keyboard hangs.,The key board crashes many times.background applications works but the keyboard hangs frequently. Reinstalling again.lets see,,
Indic Keyboard,Google Play,org.smc.inputmethod.indic,Z3A6QU9xcFRPRU5PYnJmUDN0ZWN1ZkE3QWZXT2NVVHBaLS16dENka1BOQ2FrcG5VM3I5eWgxcXlVMk00YmZSRWRkNU9EVFBLRDdCTG1BY0JaYlJpeTFoOUE,English,,4,2015-12-28,Jeenu Viswambharan,Brilliant,"I use it daily for Malayalam transliteration. Works brilliantly! Would have been great if it'd erase a mistyped character with one backspace. For example, if I had wrongly entered ല്ലാ, it takes 4 back spaces to erase it",,
Indic Keyboard,Google Play,org.smc.inputmethod.indic,Z3A6QU9xcFRPSEFiUzcyWXEyMlRXSmtjTGJxZDJnNXNmV2tKOHd0aUVVVVgxNnBpNi1nVWlVYlBuV2ZDMXNHbU5DOFA4S3RiUEtTc25UOUpkX3A1OE9DOWc,English,,5,2015-12-27,anilkumar kanchu,Anilkumar,Good apps,,
Indic Keyboard,Google Play,org.smc.inputmethod.indic,Z3A6QU9xcFRPR19TQV80MUo5Q2tfOVliaDU1OW1CcVYtbHlPRjE2b21Bdi1jZGRBTnlPQjhNeTFQWVVWWkM3SUxlMXZhSkRhSU5mUHY5MmFmQ2NFbjYtRlE,English,,5,2015-12-25,Anudeep Verma,This app is awsome,Because this app talk in any languages,,
Indic Keyboard,Google Play,org.smc.inputmethod.indic,Z3A6QU9xcFRPSFpFdDVNdUU2U3lYMUw1RjBWc1prOVMzdzhQZUVKMGhaclQ3MXRhUVRvSVRldUF5MloxSDZrYXZtT2ZzcGJocVN5NEFfaDl4dkY5MnU2SkE,English,,5,2015-12-22,Astha Verma,Like this app,I was looking for this type of app. It's a great app.,,
Indic Keyboard,Google Play,org.smc.inputmethod.indic,Z3A6QU9xcFRPSGxoQ25wTnowYkhqQnBSUlM0UHlUZlYwaE5LeWRDS192WmlQdzBsR0hyRnJtb3Z3T3NCNmtJNHlfVGdsQkNqQy0xUnJ0bE5OeHloOU9aa0E,English,,1,2015-12-22,Manulash pattambi,Sooper,Very nice keypad,,
Indic Keyboard,Google Play,org.smc.inputmethod.indic,Z3A6QU9xcFRPSHVJZlRUeE1BREpsTTRHVV96T1p3OXVlcDlwWUY5V1VjWUxtamJMRmJkdm5GR3lhM3NMM0NhSGtKV3FPZE56ZTM5QUMzUTJqWjgzT1ZpdWc,English,,4,2015-12-20,anna,Good. Software,For New. User,,
Indic Keyboard,Google Play,org.smc.inputmethod.indic,Z3A6QU9xcFRPR1Y5dWtsZ2NnNTNVNXR4eERzNDFWQkgwcEZWUF9jMXdMTnRpUVZ2Yjc1cmg4Wnk3ZGUyVXVWLU43dUx3ejhTWW9YdVVnRmk3UVNybUFOdXc,English,,5,2015-12-20,PP creepzz,its an unbeatable app.,"absolutely ..., great app... we want apps such like this.... superb.",,
Indic Keyboard,Google Play,org.smc.inputmethod.indic,Z3A6QU9xcFRPRXh3S1pxWnZ2blpLcHRVUldhR1NXQWp5ZVVxQTFNRzlrbmJjSVliR05SLXZNRkhYVzhhR0dDbk15OUxELVBDbTVyXzNlUFBycVozUVZfVHc,English,,5,2015-12-19,Mr. Sagar Bedi,Nice And Good,Very Nice App Recommend Big And Authentic Alternative is #Google #indic #keyboard,,
Indic Keyboard,Google Play,org.smc.inputmethod.indic,Z3A6QU9xcFRPSENUc09LUFhHVUN2NGRza04wOFU5OEpSUDkwY0FJdXNNLXBUemJSaUNRejZzVUl0Q2cxaVlNVmpQZXNfRG1hQWVRbTZMUW1MOEljcTFmZGc,English,,5,2015-12-19,Deodutta Sharma,The following app,It is a good app.,,
Indic Keyboard,Google Play,org.smc.inputmethod.indic,Z3A6QU9xcFRPRVN6eG41OUhFLTIwZ0xCbTc0bk04WU5GVW9TSVI0U1g0bmZCMUEzOTJtLTNTX3V2QVllZEVpMHczX1hJa2xKZEtfTVUxaDUwdDVERUYyQ0E,English,,5,2015-12-18,sidharth manohar,"",Awesome app !,,
Indic Keyboard,Google Play,org.smc.inputmethod.indic,Z3A6QU9xcFRPSHVxblhBTHBXSnhKOThBS0prXzhhalN4X3c3dUhOR0UtNjd5M1A4dG9RWjFBUUpsTndSaFhqT1lVUmZNSUJpX0dHcEREd3FVWVJaYlRGZEE,English,,5,2015-12-17,Janhavi Sarangi,"",Wowww,,
Indic Keyboard,Google Play,org.smc.inputmethod.indic,Z3A6QU9xcFRPSEhsZmxqVDFNNHdwX2ZGSTVpQTZQM0Z2ZVJJcENMTWZzQnZCejk3Y1R5Rk5KQlNIaDZpVDBuTTljOFZGSEQxeEQ2MWE2Zm5TNVlWeDZrTWc,English,,3,2015-12-16,Majeti Durgababu,Indic keyboard,It is good app.  To provide his own language but you have improve the app and add more features and technology to it sometimes the words in our languageu cannot type properly there is a problem to detect and improve version.,,
Indic Keyboard,Google Play,org.smc.inputmethod.indic,Z3A6QU9xcFRPRW5hNVg0MTNDdF82UFc1UndCSkRQc2FMaW9wRXk3NGZ3X1dMb0M2TXNGbWVuckRlQWozejZDcnJ6TWVZYjRnMnV6TzdNUlJlNGtHRVpfRWc,English,,4,2015-12-15,Gopakumar Pandarikkal,"",Word suggestions പോരാ. എല്ലാ കൂട്ടക്ഷരങ്ങൽകും വേണ്ടി ഒരു ഹെല്പ് കീ പബ്ലിഷ് ചെയ്യണം. കീ ബോർഡിന്റെ കൂടെത്തന്നെ യായാൽ നന്നായി      ഞ്ഞ. Nnja.   ങ്ങ Nnga   ത്ഥ ththha  ച്ഛ Cha.    ണ്ട   NTa.   കൃ kR.   ഛായ Chha  അച്ഛൻ Cha    ഥ  thha   ശ Sa.  ഷ sha  ഴ zha  സ sa   ദ്ധ ddha  ദ്ദ  dda ന്ധ ndha  ഠ.  Tha  ഘ gha ന്ത ntha ണ്ഡ NDa,,
Indic Keyboard,Google Play,org.smc.inputmethod.indic,Z3A6QU9xcFRPRVVyRmhPdWQ2bWR2cDdsN0p5WnFqWHhPMUliTzhVUnVsb1RWOFJLS1lJX2JiNTlmTmRfc0ptLUNib3NndU1mRE1iaXh0UU5ZMGJTZm4xZUE,English,,5,2015-12-15,p.c.singhal pcsinghal,Indic,Excellent,,
Indic Keyboard,Google Play,org.smc.inputmethod.indic,Z3A6QU9xcFRPRVYtQUdlVWhvX3hGd3NibURVaUFMMG9WYmtLanZORGxnSzZpUlBvWlhhNVlrYVFieE94bDRvLVpVUS1lMEFQdE9hN1RYYjRRNksyRlBuclE,English,,5,2015-12-14,Abubucker Siddique,"",Supper,,
Indic Keyboard,Google Play,org.smc.inputmethod.indic,Z3A6QU9xcFRPSDJfdW5lYlB3VVJMRkVDWjVmQVJZUll6d2VERmpuckYyNmp2ZjNtVFJDUzdEYWhlVlRwMG9hMkVNVjN0MmdzQ0xqWUZveGVRbHJidkx5VHc,English,,5,2015-12-14,Sreejitha P V,Loved it,For typing Hindi and Malayalam,,
Indic Keyboard,Google Play,org.smc.inputmethod.indic,Z3A6QU9xcFRPSGRnSFdpYnRfUFV1ZHpXRFRmSUF2eGpONmRjZkhxajI1RVdJcWNqU1FvRmJmaTBydFVTdW1xN1M4eHVjeXdnNWF6OElJczFVWFBjRGtEaHc,English,,3,2015-12-14,Ubaid Rasool,Where is kashmiri language ?????,I can type kashmiri language in english but other inscript kashmiri language is totally wrong...nothing matches with the original kashmiri.,,
Indic Keyboard,Google Play,org.smc.inputmethod.indic,Z3A6QU9xcFRPSHI1REhxY1RTTVh2dUtGZmstS1JBeER2TzNXRU5NcGlQUEJCcDgxaDhWOGxJWTRQMzlaUFhFejJoRWlVeFlyNVp3TXVLWm1NNUhTRDlIVlE,English,,5,2015-12-13,Anurakt Srivastav,"",Very good.  अद्भुत,,
Indic Keyboard,Google Play,org.smc.inputmethod.indic,Z3A6QU9xcFRPSDk4VXdnMi1wRndqQlRIc2dXODRHVTlZNEYzSVZacDdvR3BLSDQ2OXVlVUZaLTFfX1ZwR01Ncm91Y0VWQ0ZLdjVqa1d2YjhibURRQ2hLdVE,English,,5,2015-12-13,Aditya Venkat,"",Excellen,,
Indic Keyboard,Google Play,org.smc.inputmethod.indic,Z3A6QU9xcFRPRmNYbzRvSGVTTTNXcXdjeTRlTHZNa3pVRUlqdUh5RENPeTdtMEQ4bUZwX0dqVTRibi1KZGRSMjRnQ0FieEo5MEQ4Qko0aXBKQTVMNzJxVmc,English,,5,2015-12-13,Shemol Bristi,Nice,App,,
Indic Keyboard,Google Play,org.smc.inputmethod.indic,Z3A6QU9xcFRPSFVJckpyOVZKbm9jcWNscXZ6LUJvMHRlWU5FYm43ZXQ1UmtnZWRGWGxVaVUyZEgzVWdENGI3a1Z3ZUJ5T3lJVjR6SXEtNW5ocU10ZU5ua2c,English,,5,2015-12-12,N Seedi,Excellent,Good app,,
Indic Keyboard,Google Play,org.smc.inputmethod.indic,Z3A6QU9xcFRPRmw1TGpOQ0N2Unp4clljR1JLZ2N0UnQzMVhVZEtCMnRPWmJTakk3VC1WVWViZmV1dUlaS0poUTZiT1FzSWRuVFVCR0plZ2g5a1RaQ3Q3QUE,English,,5,2015-12-12,Sujith Vadakkepat,"",Awesome app,,
Indic Keyboard,Google Play,org.smc.inputmethod.indic,Z3A6QU9xcFRPR1NoNG5ycFlFNU15OFJTaWs3ZFUzMlRuRTI3cUkwdFdmOWg4OEFzM0RuNWRKSURsNjdfT29NT2diVE85N2gxVmJWdjRZQ3pfWllJbjlpNmc,English,,1,2015-12-11,dr mohammad rais,"",Doesn't transliterated right urdu words 😕😬,,
Indic Keyboard,Google Play,org.smc.inputmethod.indic,Z3A6QU9xcFRPRURCQWZ1WmNVMVBhdmt5VzNoSlRuUlF3endTbHVkMkJCTmQzdWRVUXgtVGZlOEhnT0ZnZG51MFFJTnNmZ1BPUEZOa3JTR190ZTY3QWNSY0E,English,,1,2015-12-10,Ehsan Ahmad,"",Urdu me  typing  sahi nahi hai,,
Indic Keyboard,Google Play,org.smc.inputmethod.indic,Z3A6QU9xcFRPRkFUSGdMZzU1dU1VcTJDV25pMnVuSDR2WEsteDg5UTF0YmhRd0QyOFNKbUhFeEljTmgxNmRyRm9XNDREN1NJZnlwOEVMV0hYUDAyR2dmVXc,English,,5,2015-12-09,Googol Olakka,Loved it,Loved it,,
Indic Keyboard,Google Play,org.smc.inputmethod.indic,Z3A6QU9xcFRPR0hScTBQcWphc3lzeW1xT1dBVlVRT0xMcDFHUkdYOUZDcFI4NHZKSkJHdkhJYzlmWXpJYU94dHJZWnZYellGdmM0UjRjS0swalh6RDllTWc,English,,4,2015-12-08,NOUFAL HUDAWI THIRUVALLUR,Very helpfull.,Was enjoying it till i changed from samsung s4 to Huawei Ascend Mate 7...But in huawei it s not showing malayalam and some other languages... Hope the develepors will fix the problem immediately.. Any solutions...,,
Indic Keyboard,Google Play,org.smc.inputmethod.indic,Z3A6QU9xcFRPSEVTVVhkZGRVVGdpMGRzOVpzOU5tWTBWblk2S01zZkR3SW5Rdmw3ME0ySWc3d2hjbW5oYXlUNmxkWUFoYTZOb0tuS3FHQmRfZmU4d3AyWVE,English,,5,2015-12-08,Ankith Reddy,Kg z cm,9-.,,
Indic Keyboard,Google Play,org.smc.inputmethod.indic,Z3A6QU9xcFRPRTJXTVlnTVZ4bGxSN3pQZTBiaU1hYU9RNERRSDNRdUF5azlVb2lLZHUwdzMxWUd5dFVkSjRHOVZ1WlgtandjZG8yZ3lYMldpMDVBU2RobXc,English,,3,2015-12-07,Champak Chakrabarty,"","Well,  the app is good;  but it urgently needs update.  For English the '.' is the period.  The same button or any else must provide a way to write the period "" ।  "" in Hindi and Bengali.  It's missing.  If it's my mistake please someone help.  Also, in Bengali there is হসন্ত It is obtained in Avro by typing ,, [double comma] after an alphabet. like দেবাশীষ্‌ --- got by [debashISh,,]. This phonetic mapping is missing in the apk. Plz look to it and fix it.",,
Indic Keyboard,Google Play,org.smc.inputmethod.indic,Z3A6QU9xcFRPRVhmUHJwenJTVWNMRjNrLXhPSzNELW9QVVlEdGpuNFN6LU1nQ1NSNkhwTV8zanA4cVpKWDZ1ZW82YUZXaS1HUkNqNjJjYkVwNjdueENNNWc,English,,5,2015-12-06,Sewalal Bhaya,I tried to install to this apps,how i can install this apps on my android mobile,,
Indic Keyboard,Google Play,org.smc.inputmethod.indic,Z3A6QU9xcFRPRmxQdkM0ZVcyVVdRc0lSTjdyeWNibTVZdjdUMEtMc1RQMGZQWmp0Ri1WQkVQUTRoaUp2VVFnbkpPWVN3bnJFaVhUamNCazZGc2dodDFBTEE,English,,2,2015-12-05,"","",Don't you have language support for Oriya / Odia ??,,
Indic Keyboard,Google Play,org.smc.inputmethod.indic,Z3A6QU9xcFRPR2NXSnVQTC1fbmZHTDdOYk5FOFNIMVNqVVcydC1ubTMyU056TDNtdnRRczVDcW02VG42Mk9uVzBoMW02OTdNSW9yMjh5YUhTMjNFd0VFRFE,English,,5,2015-12-05,Iqbal Umrain,"",Nice,,
Indic Keyboard,Google Play,org.smc.inputmethod.indic,Z3A6QU9xcFRPSEM4czhhQnJYUmt6ZlU3NEFVRGlSY2R4SDJUNTQtU1llZEJFVmhGSWpXSk5mYkV4Q3lmbExrcDVJdnBTTGcyajlRZTNKMUNpOEYyaTZxc0E,English,,4,2015-12-04,kannan c,"",Really a grate try and success on lingual transliteration!,,
Indic Keyboard,Google Play,org.smc.inputmethod.indic,Z3A6QU9xcFRPSGlRNTlsanNPWlFwSy1udjYzTjRxNlNKWlE3YlFCbFZKU0haQVR1MzVraGJjT1RuYWpPcTNkcGRQbi0xQjZHSXo0dUFPeVFjU1RKRmRlVnc,English,,1,2015-12-04,Subham Kumar Sahoo,"",Not working properly,,
Indic Keyboard,Google Play,org.smc.inputmethod.indic,Z3A6QU9xcFRPRjcyNG9XMFFBRk80SWFQYzYwQ1M0VDJILXAzNTByVmFFMDR6aUFMeDRQdGNpT0lTV0hkTW1oN093WW9iU0x1MUZUZEhwMU56S1BDZGhVMGc,English,,5,2015-12-04,Viswa Maanavan,വളരെ മെച്ചം,മികച്ച മലയാളം ഇൻപുട്ട് ക്രമീകരണം...,,
Indic Keyboard,Google Play,org.smc.inputmethod.indic,Z3A6QU9xcFRPRlZPQTZ1Q0k1RklNbHp5OUhiamhHelYzczgwNHp6VGRaVWg5U282QXQ0NlgxX09XTFBKY0p4bXFzWC1mWDFhVG5DVDFSZGsyQ1JPV1ZPWXc,English,,5,2015-12-03,MH Monir Hossain,Nice app..!,Nice Keyboard forever..,,
Indic Keyboard,Google Play,org.smc.inputmethod.indic,Z3A6QU9xcFRPSF9SMUp3M3dDS3J1VEItYzJLZS1NVlZiSlJSUlVxMi1fY2VtRUJ3N2V6RlZNVTZUWkRIcVRXNjJvN3F4MXZuRDd3bHZyQXIzUjBnaUJKNHc,English,,5,2015-12-02,Mahadev Pareek,Good,Use is so good,,
Indic Keyboard,Google Play,org.smc.inputmethod.indic,Z3A6QU9xcFRPRXFQOGRpblFxZVQ1c3F1Q0JjMEpHT29rbGk0akxSay05WUNCcVJSSW8xTVNMeFB4R2p2bkdmQ2RjcDhEN2FQOTJyYlRWR2E2TVhncXY3bnc,English,,5,2015-11-30,Dalim sk,Good,Nice,,
Indic Keyboard,Google Play,org.smc.inputmethod.indic,Z3A6QU9xcFRPR0JqQ3BaWFJNTTREdExoUHp3RTNlWmstSllJcmg4a1BZN1JiT1hQZzdqNE5hcFlzU0NseFBiaS1TRE5JSHVzZ3Y0X29STldxWndJcmNUOGc,English,,5,2015-11-30,Shibin Hashim,"",Great one,,
Indic Keyboard,Google Play,org.smc.inputmethod.indic,Z3A6QU9xcFRPRVJ5UThvZ1RuaENFZGt1b2g4SzRHQmRjRUIzMVJMWDdpcHdXbm5TV3dOSGxGQnk3Z2NSZk93NFZqeDVQRUpMeXF6OFB4aEZseV8yVmM1WlE,English,,5,2015-11-29,VIJIN K NAIR,"",അഭിനന്ദനങ്ങൾ.,,
Indic Keyboard,Google Play,org.smc.inputmethod.indic,Z3A6QU9xcFRPRkljc2h4VlBGMUhoV2x5WWJwdXp4cEFwOHh0djlBSXNEb3NnampnTGRnQTI4bGQ4LWVQRUh3TjUwV3ktR1hIcW85VEJ6dF9rMkx6bHpQTXc,English,,4,2015-11-29,Sushil Gupta,"",Sushil gupta,,
Indic Keyboard,Google Play,org.smc.inputmethod.indic,Z3A6QU9xcFRPR3hCOEhJbm5XRTNsSTdFejB2UmJYVzA3UVo1M1NQc0NpeGxVcjZMbmhNQ2ptTVA5eTlvbEdpODljcTE3NTI3aGFpZkh0Q2s0b09udmszcFE,English,,5,2015-11-29,Shivang Sahu,Excellent app,Must have this app,,
Indic Keyboard,Google Play,org.smc.inputmethod.indic,Z3A6QU9xcFRPSExzYzlUMGtyTmthak53VzZlS0NfMVdiVmZ6cmNaeC16UGc3YkxtUzBYcER3NU9hV0s4dkZheDdpNnQxNXJXcUdDWk9aYXhmV3N4M2haNXc,English,,3,2015-11-28,Njoy MsT,Gujarati not found,Only hindi and urdu for selection,,
Indic Keyboard,Google Play,org.smc.inputmethod.indic,Z3A6QU9xcFRPSGN1ZnNCeEJCdU50cVRCZVpCcVJQT1ZlMFFPMmE2cVBiQjRSeUxURVgxQlVjbUZncGp0X3VqSE9YNV9RWGtpTVRURnI4VXg0bUlIejgyZkE,English,,5,2015-11-28,Md. Shams Saleheen,Excellent,its awesome. i like it. i rated 5 star.,,
Indic Keyboard,Google Play,org.smc.inputmethod.indic,Z3A6QU9xcFRPR3pYWk01VGFaM2ppN2dNeUVtUHNhajllaWxMeldETDdCanlCQzl6X3Z6dUl0emZoU2tPOVAxMXBPc3NaYlZqYVp5TG9UemE1MmVWTU00emc,English,,5,2015-11-27,Dharmesh Ashar,"",dharmesh,,
Indic Keyboard,Google Play,org.smc.inputmethod.indic,Z3A6QU9xcFRPRk9OQnBlZElTQXpzT3FKU2VnNUJEOVlCSWZKMXBuNXl5VkxEQkswRFVlY05uWUptMFp4c1VRNlVWb0RKd0pDZUlZM3NxcXo5c3FNZHlpWGc,English,,5,2015-11-26,sivas k,"",VERY GOOD,,
Indic Keyboard,Google Play,org.smc.inputmethod.indic,Z3A6QU9xcFRPRkwwNmNWdExxT2xOOXNWUzFJWnBsU1FiamJUNEJscmd6Y0FGSmJBUlgxLU5ycnRqVGk0OWdTeEpvekZqeE5JTVlQaGhoUVZ6cXFRbFkxM1E,English,,5,2015-11-26,ajay d'souza,"",Nice keep it up,,
Indic Keyboard,Google Play,org.smc.inputmethod.indic,Z3A6QU9xcFRPRjA1WmVjVFRhdHdrUzBUSDNPUDhfYTlEWi1OaGdERmJKelFfYnJ6R2o4V1Q4MEVrdzVkZUJGX2kxYjRSSndqeTh0R0YySHlpWGlKcGk2UXc,English,,5,2015-11-25,afsah k,"",Best Keyboard app Ever,,
Indic Keyboard,Google Play,org.smc.inputmethod.indic,Z3A6QU9xcFRPR2ZaNVZROXBGRHlWR0VjSDVCTi16TENNUmFJckZVRmxwM0llS1BrclZSUEZpN2l0WjJrX1YtdW9veVJkZFZKWmdrRzY4WXpMNHF4Y1Z4RGc,English,,5,2015-11-25,Vadla Suresh,Super,It is very important app,,
Indic Keyboard,Google Play,org.smc.inputmethod.indic,Z3A6QU9xcFRPRjdRNXJXRHlhNU9jcTdralNVaTJEa3FERzFBZ1FONUVpeFp5bGFYVFlKZ1k2aXNCTk12MmhHbFN3VWF3bUtZUkhCZXFtOWdZTFNxanNiTHc,English,,5,2015-11-24,naveen sunki,"",Like it,,
Indic Keyboard,Google Play,org.smc.inputmethod.indic,Z3A6QU9xcFRPRnBFTHdoTWVBRUtuYndLNVZPVjR2OHVCUWJRS0lmdlhCYTJGV0x0THZTNVZmNkh3cmxxaWpqbVdXUTBia01najVMSmg2UlBqd2hkVnZRdGc,English,,5,2015-11-24,SOBHANA SUNIL,"",Good,,
Indic Keyboard,Google Play,org.smc.inputmethod.indic,Z3A6QU9xcFRPRXpmSTdsTnVfQldGRHQ2Y2xpS0hhNkpwOXBYRUVJdURyaGF5N0J0UW9JOWswTzNKMnVZVTl6NHZvd2ZHV01CVC1aOVlUekRRaVRMMFZYZ1E,English,,3,2015-11-23,unknown Siam,good,but some bug....,,
Indic Keyboard,Google Play,org.smc.inputmethod.indic,Z3A6QU9xcFRPSE9XNFpPWEhQMUYzQ1k0RUIyQ2dqQzNPM21GVUpJdlRtb05XX1YtcUNjQzJnOTNmUzIwRTNXa2JfN1JmaU1OR2pKQzNya0g0cWRxYXAwS2c,English,,5,2015-11-23,Dexter Dex,Awesomely simple and feels awesome,"All credit goes to the developer team. Awesome app. এত সহজ বাংলা অভ্র কিবোর্ড হতে পারে, কল্পনাও করিনি! Just two suggestions in bangla avro layout make the full stop (.) a দাঁড়ি dari. And these is no need for a Globe button to Switch Language while we can already do it pressing and holding the spacebar. Keep an option to hide it or get rid of it and make the space button bigger. That's it. Wish u all the best.",,
Indic Keyboard,Google Play,org.smc.inputmethod.indic,Z3A6QU9xcFRPSGdtLXA4dXVCSGhwUzB6MW1FaG1UZmNqSzRnS2ZiQlAyWVN3WHhUOW5veklDYVBTZ3RoRmhRQkR6MEQyV1BWdk1tbWVBVGI3UWFrdGk4TEE,English,,5,2015-11-21,Chandrakant Gonbare,Chandu Gonbare,"It is good app. But how to give point on Marathi word such as Shankar, Ganga etc. Pl. tell me anybody.",,
Indic Keyboard,Google Play,org.smc.inputmethod.indic,Z3A6QU9xcFRPRVg4ZnoyN3FhRmZldy1DaFgwMmppUHRCUjVGZzhoQXFCNHh4UXdJSlZiYml5TEF0d1NLVENLdjNDRzl0SW5BaHV6V0FtbHdYam5DRk9WVlE,English,,5,2015-11-20,Azizul Islam Rahin,Great replacement of Ridmik,I really like it. Fast and responsive. But something  you could add like word flow in English would better if you could add this feature in Bangla.,,
Indic Keyboard,Google Play,org.smc.inputmethod.indic,Z3A6QU9xcFRPRkpPc2FTYnhDVGNZYlRmRklMZ2g2T2lKVmFza2J2MGFGRDVTb0FpSmQ5bmNGc25WdzhGS0NvS2tzc0k5OEtuMHdLbE9oMjdSNHV4ZTdRaGc,English,,4,2015-11-20,shajahan manjeri,"",Good,,
Indic Keyboard,Google Play,org.smc.inputmethod.indic,Z3A6QU9xcFRPRm1hZnZSQWpBeDlwUTkydDNUVExDb2ZEZUFudF9hYXpLTDNOeGF5NmVpSENUT2xQOUk5TERWTjhtbERYNF9NVE1YcW40TmlKbE52LUV2NFE,English,,4,2015-11-19,kr nishad,"",Only Hindi. No other language s. Where are they,,
Indic Keyboard,Google Play,org.smc.inputmethod.indic,Z3A6QU9xcFRPR1hnWGxnT1EwTGFyUURLSGg2Y19GU1hnVXJ0VGZIb0g2VGdyTjFINVo4SVNDNWllOUpyVEhyV0JLQTRFSWFqNEg5WWUtaGVkZ0dQcy02YkE,English,,5,2015-11-18,Satish Radha,Excellent app ever,"I had searched and tries more than 10 app for typing in my languages like Hindi,Gujarati and Telugu but there is no one app perfect. This is a great and easy app ever. Thanks for this app",,
Indic Keyboard,Google Play,org.smc.inputmethod.indic,Z3A6QU9xcFRPRWdBX29pWjJrY3dVdmREUFk0WU1WZnJlQkFrRVFxa3JkUUhUdlgwZVppMWlFTEJ6VmVhSzI1Zm5MLTJ5MmFKWUZUZkZMWlNNdjFIbDJwSVE,English,,5,2015-11-17,Manoj K Anandam,മൊബൈലിലെ മികച്ച ആപ്പ്,മലയാളം ടൈപ്പ് ചെയ്യാൻ മൊബൈലിലെ മികച്ച അപ്ലിക്കേഷൻ,,
Indic Keyboard,Google Play,org.smc.inputmethod.indic,Z3A6QU9xcFRPRkt4b0tZazFReGJaaWw5QkNiVmxfd2ZkenRyZFBmeTBKd0Yycl9HdXVJbjN3QnNUSjEyTHVhN0pMbExfd1M3TUFVVHk1UXY1N0UzUVNCblE,English,,5,2015-11-16,Jagadish G Chandra,Very utilitarian!,"The Indic language app is fantastic, very user friendly, especially in Indian vernaculars. Congratulations to the team.",,
Indic Keyboard,Google Play,org.smc.inputmethod.indic,Z3A6QU9xcFRPSGpJOVl4TVpaV2FJT0M4Z1hqMkl1TjAtZjNpTXRRbUNJQ0VLZjJVZFdsMkhJalhld2tUUl9XTXlHZzlnSTBEd3Q1UlhlZkNUcGk4ancteUE,English,,3,2015-11-14,Kanaiyalal M Gohil,Wow,♡,,
Indic Keyboard,Google Play,org.smc.inputmethod.indic,Z3A6QU9xcFRPRkUzY2JWWTlUM0RDbWhqbGVaU2lFcmR3NEdGdC16bFdab3NIek9WTlhCMVlmTmlWYTloNVdyMEZJTUlZX0hybjE3MG1nTDFiUGhBdmtzaGc,English,,5,2015-11-14,Za hiD,😘😘😘,Thanks dev for your awesome worked . ADD more theme to make it fancy &amp; beautiful .,,
Indic Keyboard,Google Play,org.smc.inputmethod.indic,Z3A6QU9xcFRPRlZ2andrLWdsWXV6eDh5OHZxSXBJN2ZHQ3cxMVFrWk40Y19OUHRFckpvUDA4YmpUeHFtajhQVmRuNHk4b3ZYLWEwQU1LMmVJcGt0V2ZNWEE,English,,5,2015-11-14,Jomy P Jose,അടിപൊളി..,അടിപൊളി സാധനം... മലയാളം വളരെ എളുപ്പത്തിൽ എഴുതാം.. നന്ദി..,,
Indic Keyboard,Google Play,org.smc.inputmethod.indic,Z3A6QU9xcFRPR1pLcVZOUWR2RnpxMU01QzRmTmhWOThrUENZSWlHZzhXV1dqTDNUalVLeEhDNUNhdkp0SktrWXNfbzBPWUNYTmtMaGw5Z0NCcG1fX296QlE,English,,4,2015-11-13,avijit chowdhury,nice bt...,nice. plz enable unijoy layout for bangla..,,
Indic Keyboard,Google Play,org.smc.inputmethod.indic,Z3A6QU9xcFRPSFUwLVA3MG5mSHFmbzdqa0lneXVMX0VENXh2Uk8xcFFMOWRVazJyd2xtUEQ3R2ZtYTNJSHBKZi1hWHI2dGdHNTgzc01udDdpWjZmX3VzT3c,English,,5,2015-11-13,mahamood gk,"",Fantastic,,
Indic Keyboard,Google Play,org.smc.inputmethod.indic,Z3A6QU9xcFRPRUdabHdXaVBTQ0hFNmRJNm5JYkF4UUNKdlEyZFRsM2EzUG03MmU1M2JKVTE4b05aTW5iU05VVkV3bmEyRG9DdVpqaGlFNFExQW1veEMxVHc,English,,3,2015-11-13,mashood Abdullah,Huawei,Manglish not working for huawei .... P8 lite iam using,,
Indic Keyboard,Google Play,org.smc.inputmethod.indic,Z3A6QU9xcFRPRXhpNWRSMEd3dHlfY1pzcjYwbi01VmhDSjZ4ZE12NmVLemdTQlA2bUN4b2h3OWlXcnZUb3poUzcxMjE5T0l4Mk1aRDM0MkNvNlpmQTd3RFE,English,,3,2015-11-12,Mushfiqus Salehin,"Good but No ""Dari"" in Avro Mode","I couldn't find the  ""।"" (দাঁড়ি) symbol anywhere which is a necessary one. Please add this soon, Otherwise I loved your keyboard.",,
Indic Keyboard,Google Play,org.smc.inputmethod.indic,Z3A6QU9xcFRPRWo5dVA3bnlLLUM0VVlnQWlRTGt4SU5xQjVla0JfdzBJcXBIUmhyVUZBZEZXRUtLT0F0MjZRa1RKdkNSOVRvN0JUMjJKX2N0My1McjJ2Z3c,English,,5,2015-11-12,Shishir Salunkhe,Easy to use,Very Good,,
Indic Keyboard,Google Play,org.smc.inputmethod.indic,Z3A6QU9xcFRPR3U2QU1hSmRaSkY0bWI3Y2RqR3lZbTVoSkk0NFB1SEJlUkQ2VmI1YmVUMHJRNXlWN3ViS3dIM3ptTFNtdmdBcmpLQ2VpUE80V1VzaTJmR2c,English,,5,2015-11-11,Nithin Kumar A R Ravikumar A C,"",Chennagide,,
Indic Keyboard,Google Play,org.smc.inputmethod.indic,Z3A6QU9xcFRPSFYtek95NzVWSkhLTS01REtwRnRUTGxCZUNITTF1SnlpWFE0UmR6T19mQU9JTmdSaUs5VUdDVUNoRHFhNXE4SEs4LW9PRG1XdEtSdzZLN2c,English,,4,2015-11-11,Sangharsh Navada,Time saver,Easy to type..but could not find continuous input (Swype) option..,,
Indic Keyboard,Google Play,org.smc.inputmethod.indic,Z3A6QU9xcFRPRjRrREh5U1loZEQxUi1yeV8tRHkySzNWakFSaEtLQnY0Znprb2dlbHkyeUZyNTFiZEdlaE13NE91S19kbjFYWFllRTJWSGJacktVdzBQcnc,English,,4,2015-11-10,Sudheer Kumar,"",Good,,
Indic Keyboard,Google Play,org.smc.inputmethod.indic,Z3A6QU9xcFRPR1NVUzhvWkJCTTI3dlYwTTc0elB5c19HeVVwbWp3S3lvNEQ1SVJObWU4RWFYeXFNU1p6Qkl0MmdFVXcyeklyTGhGV0Z6WDdxUGtROVNkQ3c,English,,4,2015-11-10,Jagannadh Parupudi,"",One of the easiest to type in తెలుగు.  One thing is how to write Jyothi. I couldn't find a way to write 'Y'  sound in telugu,,
Indic Keyboard,Google Play,org.smc.inputmethod.indic,Z3A6QU9xcFRPRUsxbUlCU09wLVZoRzNxUHBkR3ZqZTc0SHFxb282NnYyOGgwQlVTVDFLcDhEZmF4ZHJXblRiMi1PZXpFTG53eUI5dnFwVGc3OEhfd2w0eXc,English,,5,2015-11-09,Janardhana Bairy,"",Loved it..,,
Indic Keyboard,Google Play,org.smc.inputmethod.indic,Z3A6QU9xcFRPRnFOem9RUFJhcl9tb2ZRVWh5WTFiam1aUVBhaDdnRHhPRWZpdllnQWU5NXVzRU5JelNBVUc3ZjUyelV4MUhSVU5IRXZvVnhKYWJBbnNBVEE,English,,4,2015-11-09,Rishin k,"",Good one,,
Indic Keyboard,Google Play,org.smc.inputmethod.indic,Z3A6QU9xcFRPRmVjRGJibnlxdUt2ekowQnhxdWt5b05iLWI5WjVieW5tUU9BYllVMmZNWlBsdFBMbzB2UExWeUFMblFDUDU1em1MZGxMeW94eTZjTTFOZXc,English,,5,2015-11-09,AKHIL PRAKASH,Good,I Like this keyboard . malayalam keyboard is very good typing,,
Indic Keyboard,Google Play,org.smc.inputmethod.indic,Z3A6QU9xcFRPSHhBZ21fdGZpYzAxa0x6SGlTMzlibV82V09SNm5hUmxrcTdLNWxaR0doNXhqUDRkYXpUYUNoNFdFRDFBMHpqZTBRR3RfcFpPQTY2OVY5bGc,English,,1,2015-11-09,Jheel Shah,"",Lot of time to instal,,
Indic Keyboard,Google Play,org.smc.inputmethod.indic,Z3A6QU9xcFRPR0dRNnJlSEhadEo5VU9ZZnJkc29qbG9sUGZJWGhpMnVjTjBDUXVtMjZ6ak45ZlRzcTJLTjlKdXEyd2NfcWZIdDN5TFpnYkNkWDJJWmYxTWc,English,,4,2015-11-08,Chethan K Ganesh,Kannada,Thanks for adding Kannada....!,,
Indic Keyboard,Google Play,org.smc.inputmethod.indic,Z3A6QU9xcFRPSHJWUmhEM0NvSGkyZVRzNDJSdWFrNTdSV2Itd3hMWU9LR2VNaVY5ZGlja0EtT1RwMnVQcHdsLW1YZDYwR3hLaG5sOEdscWpDaXhNZDB0U2c,English,,5,2015-11-07,Anandaraj G,Inscript typing's logic greatly harnessed,A total typing tool for English and Indian languages including the great Sanskrit....it would become more useful if Vedic and special accents' symbols of Sanskrit are incorporated....,,
Indic Keyboard,Google Play,org.smc.inputmethod.indic,Z3A6QU9xcFRPR3o2cmZJVG5haHdtMkJ4YUxkNWRYR0hMdkVsVDV1OWxIN3BTdEdsRExaMGR2QzBHVUFPZldzblVfX0hEUC1LdWoyR3BTRGlPYVl4UzZMOVE,English,,5,2015-11-07,Ajith P S,"",Excellent...,,
Indic Keyboard,Google Play,org.smc.inputmethod.indic,Z3A6QU9xcFRPRUVuNE1Rd09HUlgzQjFnVFJURlE2X1RJRVhBWnVqcmI1cnNkbzFzUWxUUkcwOV9fZHVFTTNLbWd5UzdzQzFmWmVYTDFyeFMwVkxVYk5NaUE,English,,5,2015-11-07,Srikiran G,Keyboard is awesome,I would like thank  Google ..jai google thali,,
Indic Keyboard,Google Play,org.smc.inputmethod.indic,Z3A6QU9xcFRPRzJCQkN2R1ZqMWNXaWRMN0pxTHdwRkdZcG4tM2tkUzhOdGhBVFRTSGZ4Qi1pV1J6aTNianRmZXpRTGlKNWNzZHF2R0pDaXVHVFA0OGhFMHc,English,,4,2015-11-06,Saddam Sk,"",saddam,,
Indic Keyboard,Google Play,org.smc.inputmethod.indic,Z3A6QU9xcFRPSDZXSmdDZVh2Ti13b0JzMUZuVWNGRWtCSTIxNHJLZFpHYy1IY3RSNEw2YjJkZVVERlhrdmFmLU9xQ1ZLWk9kWnc4N3g5ZFZLcDJHWlMtTGc,English,,5,2015-11-06,krishna pradyumna,Nice,Nice,,
Indic Keyboard,Google Play,org.smc.inputmethod.indic,Z3A6QU9xcFRPSGczNnRpUTh3WUtJRzBuZ0UxaWVEWG9fUlIxVUV2UUxZVVU2UHRPM3BrMW03U1RGNXM0Q1RnbDBrbWwwbnVtZElHa1hsa2UycEtrSTF5NEE,English,,5,2015-11-04,Paresh Vora,Good,For all Indian language,,
Indic Keyboard,Google Play,org.smc.inputmethod.indic,Z3A6QU9xcFRPRkZudHJ0S01TWmQzOFF1WDdTOFhLdVNaTE14bHI2elFTT1VwSkl4aElSR0N5V3RMTWtnMVJLcVNHaE1zQ04tWUw0Vk5NZDUtNExTaXVnRVE,English,,5,2015-11-04,Apparao Kantumutchu,"",Excellent,,
Indic Keyboard,Google Play,org.smc.inputmethod.indic,Z3A6QU9xcFRPRTdUNnF5aWtoYVowQ0p4anZNTF9DdEFNRFJoTDBUc0ZCVi1VRW10WHJsTEh1ZE1VbURRYUZrZVFxV1FaT0Q0MzRmbEQ5ZWN1cGxUYXM5bmc,English,,5,2015-11-04,TECH TUSKERS,Just Awsome,Hat's Off You Developers :-D,,
Indic Keyboard,Google Play,org.smc.inputmethod.indic,Z3A6QU9xcFRPSGVXZUF0d0ZmcGk3RzZFcHZLeGZRSThOUmxNMzRrS05RcVE4ZnJReWVRblUycnN3MVZ6Um8wRHltNnctNEdGcWw5OXpCYVh0WHc1SjBxMEE,English,,5,2015-11-03,Rihel Bhowmick,Absolutely love it.,Its totally Open Sourced and Ad/Subscription Free. Respect for that. You can even be part of the community by helping them!,,
Indic Keyboard,Google Play,org.smc.inputmethod.indic,Z3A6QU9xcFRPR256WkVJcXdMbU4tVWJXRnFZQXNEX0RXdmRxS2FGeVpFdmtKWmQ0TUladkI0dEFzTk9LNHI1ckhLSmJXaWtWa1luaURpV2ltTW96NzJ2Tmc,English,,4,2015-11-03,NARAYANAN BALASUBRAMANIAN,Missing some words in Sanskrit kru kruu,Please check it,,
Indic Keyboard,Google Play,org.smc.inputmethod.indic,Z3A6QU9xcFRPRVUyRHpjendxbW1qbkdYUDhBQ3FUbGFJa1o1LVRTRkJ3MFNGczBVODdCSTdWWTlmTXZFN05GY1RURWpXVmRPb0RKTzQ5OWdNX25XZ3k4dFE,English,,5,2015-11-03,al jedheed,"",Thnk u very much for the last update for smsng devices,,
Indic Keyboard,Google Play,org.smc.inputmethod.indic,Z3A6QU9xcFRPSE5RSTFKdGhpSF9Zam9jZEJkNHJnZDFqenhVUEFXdTBDSU5rOXVTVHFOOFdINHkxN1E2aE5ESTFtNVllenpOaVNfRFNaZjFnVUgwRkZWUkE,English,,2,2015-11-03,Giri Dhar,"",Vv good,,
Indic Keyboard,Google Play,org.smc.inputmethod.indic,Z3A6QU9xcFRPRUFhdTc5N1RZclpsT0V2T0RCTFRpck5LT0ZpM0pZdzhtLWRkUFZDcjB6alYtSThLNE1tRWVkTXBKd3VCRzZWZC1BSHlTYnU4VkhPVGJUZ2c,English,,5,2015-11-02,Prasobh R,Can't write some words,"Like - ത്ര, പ്ര , ക്ര, etc......please fix it on Sony XPERIA C",,
Indic Keyboard,Google Play,org.smc.inputmethod.indic,Z3A6QU9xcFRPRzNTVnBHVlhFeU9qeUFkWFE3YXlsOFhZNGN6YUQxenAyZGdpM1kxUUtzb2dEbmdadVZjZndYQks3cGxMdnpUN3VkMVctdUhncFhLS1lyaHc,English,,5,2015-11-01,Noushad Cee Vee,"",Excellent,,
Indic Keyboard,Google Play,org.smc.inputmethod.indic,Z3A6QU9xcFRPSHpkSlJqamV2aUpPR2VBaW1DUjJHT2JuVlBUSVBmZ1BsZGJxeW1WLXpob3FZb1VjU1dZYTc3alpud3kxdFpwNDRCTHduRlpUVlBwMG5MX0E,English,,5,2015-11-01,Anand Kumar,"",Super,,
Indic Keyboard,Google Play,org.smc.inputmethod.indic,Z3A6QU9xcFRPRXNfdFhSZVRveWxzcmQtcm5ZWXBuSEREdmN6STQ2elZRQzlqTGVBRmtyT1lnblhoVmxBdHFnQnBDeUVxa01wVWJ0UXJNS3FuaHVlRkVzaHc,English,,5,2015-11-01,Joseph Mathew,"",pwoli suprb,,
Indic Keyboard,Google Play,org.smc.inputmethod.indic,Z3A6QU9xcFRPR0hXNzVzbmpFdkNraDNtTlZvUDhJNVZENmFrNkJ6TFpzWWxKQjRKSG5COFJRck01bll0b0ZGNnF0SU0xdDVELW01U281QTl0SVBqRkc2SXc,English,,5,2015-11-01,R iyas,"",വളരെ മികച്ച ഒരു ആപ്പ്...മലയാളം എഴുത്ത് ഇതിലും എളൂപ്പത്തിൽ മുൻപ് പറ്റിയിരുന്നില്ല,,
Indic Keyboard,Google Play,org.smc.inputmethod.indic,Z3A6QU9xcFRPRkdnOHBqLUNib1lUaThSZmN3dkNXb3R0M2I4ZVA1bEczbVhidWY1cXpFNE1OYkNZNEl2TTluRlRvbEVvTEluMkVGTWxQUUVWNVV2V3V6V0E,English,,3,2015-11-01,Vincent Paing,"",Language switch is broken,,
Indic Keyboard,Google Play,org.smc.inputmethod.indic,Z3A6QU9xcFRPRmg1ck9rVnUzWFpMVkFDTF9pdE9zSWVqSWxLR1VvS21OWktYUVROOEJqcFRoM1VnajBjN1RfcTlnNzRFWUNuS3BDcHhHMC1zZ0JhdjNkZmc,Arabic,,5,2015-11-29,رافضيه وافتخر,"",عرااااقي اني,,
Indic Keyboard,Google Play,org.smc.inputmethod.indic,Z3A6QU9xcFRPRlUyX3MwUVJOTXdwN1V2WXVSRUdPcmYxNUpuVlZRMjVlRk15cVZxZTBESUJ3V3pTRjI3bERwX3VGT0pTdFVnemJpZHFaZmhDVjhlZW1yeFE,Hindi,,5,2015-12-28,नित्यानंद शर्मा,बढ़िया है,"कुछ सुधार किया जा सकता है, जैसे की तीन पंक्ति के जगह चार पंक्ति में और स्वर की मात्रा सबसे उपर रखना जिससे लिखने में आसानी हो.",,
Indic Keyboard,Google Play,org.smc.inputmethod.indic,Z3A6QU9xcFRPRVJRUjNXUFdQY3ducE9NeTI5dWgzaExlb1YzQ3c5ZVBxSmx4ZVB2dmhjZHA5NjRjdzdOclJmQ1drSTc5czZsR0doejlfOWFNdndJeXJzS3c,Indonesian,,5,2016-01-02,Amanda Sari,"",Bagus,,
