had to do a factory reset now the icon it will show is itself,b,2014-12-07,Hannah Hardy,3
wa good but now crap,b,2014-12-07,Hannah Hardy,3
who know,o,2014-12-07,Hannah Hardy,3
will you support icon pack,b,2014-11-28,Søren Pingel Dalsgaard,5
known bug,b,2014-11-28,,3
working out some bug with the work perfectly now,b,2014-11-26,Krystian Chynal,5
very handy,o,2014-11-25,Asela Sandaruwan,5
like the but if it worked,o,2014-11-24,Tahir Butt,2
it not pinning any for me,o,2014-11-24,Tahir Butt,2
the widget stay empty and doe the notification bar,b,2014-11-24,Tahir Butt,2
one time use,o,2014-11-24,Rahul Mahtaney,2
major this,b,2014-11-24,Raymond V,1
doe not work on lollipop,f,2014-11-24,Joseph Egbule,3
and doe it well,o,2014-11-24,Daniel Rice,5
cheer i love it,o,2014-11-24,Daniel Rice,5
thanks,o,2014-11-24,Daniel Rice,5
the only it ever detected a running wa itself,b,2014-11-23,Dan Delosky,1
highly recommend,o,2014-11-23,Shj Y,5
please fix,b,2014-11-23,Gerik Fon-Revutzky,1
doe not register any on nexus 5 using lollipop,b,2014-11-23,Marten Gallagher,1
44 on it wa working on 50 lollipop no just the hangar search no other,f,2014-11-22,Neill Ryann V,1
yes,o,2014-11-22,Kevin Karth,5
installing this i installed moonshine icon pack made change in the,b,2014-11-22,Santo S,3
but it made no change to the notification drawer icon color,b,2014-11-22,Santo S,3
however icon got applied in my phone which ha 442,b,2014-11-22,Santo S,3
let me know there is any fix,b,2014-11-22,Santo S,3
a big time saver,o,2014-11-21,Steve Guccione,5
quick access to most recent and most used,b,2014-11-21,Brent Seepersad,4
not unlike any other task switcher,f,2014-11-21,Brent Seepersad,4
very useful and time highly recommended,o,2014-11-18,Tomer Tsadok,5
please fix for two icon all the time,b,2014-11-16,Constantine Korobov,4
make android life much efficient,o,2014-11-14,Bryan Ibrahim,5
hangar quickly became a go to for keeping my le cluttered,f,2014-11-14,Christopher OCallahan,5
absolutely fantastic,o,2014-11-14,Christopher OCallahan,5
current version doe not seem to work with lollipop,f,2014-11-14,Christopher OCallahan,5
really hope get around to an update,b,2014-11-14,Christopher OCallahan,5
not working in lollipop,f,2014-11-12,Joe Wu,3
this application is since i like my front screen clean,o,2014-11-06,Okto Aditya Suryawirawan,4
almost perfect,o,2014-11-02,Chirawat Tony Bodeepong,4
just not for me,o,2014-11-01,Jason M. Townsend,3
figured i would give it a try,b,2014-11-01,Jason M. Townsend,3
it really hang heavy on you,o,2014-10-29,Ajaz Wani,2
had to delete it,b,2014-10-29,Ajaz Wani,2
really like this,o,2014-10-28,Simon Carter,5
looking forward to icon pack support,b,2014-10-28,Simon Carter,5
edit icon pack support is but need to support icon masking,b,2014-10-28,Simon Carter,5
big problem,o,2014-10-27,Derick Wassabi,1
please fix it or you will due,b,2014-10-27,Derick Wassabi,1
,o,2014-10-27,Derick Wassabi,1
in from the,o,2014-10-27,Derick Wassabi,1
beautiful,o,2014-10-27,Pawan Sharma,5
honestly hand down best developed out here,o,2014-10-15,Shanna Paul,5
how the developer did but hangar ha never gotten above,b,2014-10-15,Shanna Paul,5
how and wow,o,2014-10-15,Shanna Paul,5
performs change based on usage,b,2014-10-15,Shanna Paul,5
would pay for developer to make all my run like this one,b,2014-10-15,Shanna Paul,5
crash on start,b,2014-10-13,Dat Thai,5
every time i restart my phone it and way to get it back is to reinstall the,b,2014-10-12,Stefan Fink,2
hanger ha gotten it right,b,2014-10-12,Tyson LeForgey,5
the notification bar will not show after i restart my the way to get it to show again is to and reinstall,b,2014-10-07,Gary Maggott,3
this can be fixed def 5 star,b,2014-10-07,Gary Maggott,3
very useful,o,2014-10-03,José Luis Amat Perseguer,5
congratulation,o,2014-10-03,José Luis Amat Perseguer,5
please develop this one for,f,2014-10-03,José Luis Amat Perseguer,5
this is brilliant,o,2014-10-03,Simon Dennis,5
clean and it work,o,2014-09-30,Joseph Jr. Araneta,5
,o,2014-09-28,Deke W,1
defiantly a pretty helpful all,o,2014-09-27,Benjamin Woods,5
stop reading now and download,b,2014-09-27,Benjamin Woods,5
the widget wa acceptable except it did not refresh,b,2014-09-27,Ronak Dhakan,4
it weight the i use the most,o,2014-09-27,Joseph Tammaro,1
no,o,2014-09-27,Joseph Tammaro,1
it a week,b,2014-09-27,Joseph Tammaro,1
just brilliant,o,2014-09-27,Przemysław Sakrajda,5
handy and impressive,o,2014-09-26,Gaurava Gautam,5
save request just give an option to choose the on the notification good otherwise,f,2014-09-26,Saurabh Pradhan,5
not really useful to it for now,o,2014-09-26,zaini Ârt,3
it pointless and take up memory on my phone,b,2014-09-26,Matthew Koehne,1
thats all it doe,o,2014-09-26,Matthew Koehne,1
great,o,2014-09-25,Peter Campbell,5
had a similar feature on my old sensation and missed it much i changed phone,b,2014-09-25,Kester Duck,5
a really handy,o,2014-09-25,Kester Duck,5
perfect,o,2014-09-21,Rizki Ananda,5
thank great,o,2014-09-16,Joseph Naoki Groves,5
i never thought it would be that handy i started using a real time saver,o,2014-09-15,Ryan Pardue,5
awesome and useful,o,2014-09-15,Alca Idol,5
install this immediately,b,2014-09-15,Alca Idol,5
,o,2014-09-15,Abbu Haleema,5
thanks,o,2014-09-15,Semage Namal Surendra,5
