Topic Index 1,Topic Index 2,Topic Similarity
3,3,0.0144
2,8,0.009899999999999997
0,6,0.009
1,19,0.009
15,16,0.009
16,1,0.0088
7,4,0.0081
19,14,0.0081
4,2,0.008
8,5,0.0072
10,18,0.0072
12,11,0.0072
14,10,0.0072
5,0,0.0063999999999999994
17,7,0.0063999999999999994
6,9,0.0
9,12,0.0
11,13,0.0
13,15,0.0
18,17,0.0
