Topic Index 1,Topic Index 2,Topic Similarity
1,18,2.0
7,0,2.0
0,9,1.0
2,6,1.0
3,17,1.0
4,3,1.0
5,4,1.0
6,5,1.0
8,1,1.0
9,13,1.0
10,11,1.0
15,19,1.0
17,2,1.0
11,7,0.0
12,8,0.0
13,10,0.0
14,12,0.0
16,14,0.0
18,15,0.0
19,16,0.0
