Topic Index 1,Topic Index 2,Topic Similarity
8,19,0.96
13,2,0.7115
7,15,0.6240000000000001
6,6,0.5559000000000001
4,11,0.44849999999999995
9,12,0.3344
0,0,0.0
1,1,0.0
2,3,0.0
3,4,0.0
5,5,0.0
10,7,0.0
11,8,0.0
12,9,0.0
14,10,0.0
15,13,0.0
16,14,0.0
17,16,0.0
18,17,0.0
19,18,0.0
