App,Store,App ID,Review ID,Country,Version,Rating,Date,Author,Subject,Body,Translated Subject,Translated Body
Reddinator for Reddit,Google Play,au.com.wallaceit.reddinator,Z3A6QU9xcFRPSFRGUzI5YnZkYURuQVBCNDJzVjY4RGU0dnpZMlMxcTVCNTE3TVFLRlVBTUNCemloWm5PWnpycC1EdmNRQ2VXMDkwb0Uxb0tYbGxKNkxYQlE,English,,5,2016-01-27,EChen H,"",Great widget,,
Reddinator for Reddit,Google Play,au.com.wallaceit.reddinator,Z3A6QU9xcFRPSDJEM0Qyb1R2N2tXWWQ0dkNLVUE2YlYwMEgzS2hfX0hDQzVveDN5RVhWb2pxcUYzUHNXVWFHZGVqSjNWamR4M2tkbmdZOUNQOXRfeUIzZXc,English,,4,2015-12-27,David Cavalheiro,"",Great reddit app with functional widget,,
Reddinator for Reddit,Google Play,au.com.wallaceit.reddinator,Z3A6QU9xcFRPRkJuWVp5LTQ2dHdLLVJBZngyakZfZjNzVnZpeVBzU1RKeDVacGpxdXliUmIteUIzLVR6ck5NallJNVhSbW5CLU56elNTNUJsVDdOTGFENkE,English,,4,2015-12-24,Peter Binder,"",Upvote,,
Reddinator for Reddit,Google Play,au.com.wallaceit.reddinator,Z3A6QU9xcFRPR2xIcEhLN2NSOE1PREU1dmJWbW5MLTNVT2o5TzlqMUxKdDRsMzdRdVVGV3gwN0xDWjVud0dVdGpVZW4xWXVFNFZyLW44cWd6SmxhazQ1V1E,English,,5,2015-12-21,Ben Warnes,"","Great app, best Reddit browser!",,
Reddinator for Reddit,Google Play,au.com.wallaceit.reddinator,Z3A6QU9xcFRPRzhGY0ZTSmdoS2R4cjQ3ajNQTFVlZ2lLUF82VFNnb1BoYmFMaFlrYnhtTWdCUmNfYVRNYWw4Sm5CUnV2anluUVFVV0lLV1pmdURMU25LZHc,English,,3,2015-12-19,Catalin Siegling,Would like a few features.,"Accessing the app through the widget would be nice. Also, reading messages through the app instead of the mobile site. Other than this, your app has the best theme control and with those additions would easily surpass bacon reader as my go - to.",,
Reddinator for Reddit,Google Play,au.com.wallaceit.reddinator,Z3A6QU9xcFRPRzRSLS1qWjdzUGVxb0Zjd01DS05ybklDSnR1QU51QjNMcHlqd1ZXcXFwS0tRb25Cc0NuVTZzXzdpZ0dpNWxtNUgtSVh0M3pXT0ZUWExOdUE,English,,3,2015-12-07,Amanda Hermansen,Shows a lot of duplicate posts,Shows duplicate posts.,,
Reddinator for Reddit,Google Play,au.com.wallaceit.reddinator,Z3A6QU9xcFRPRW96SzhmSGoxRlg2aUhsbXl6OEVaRnplWmJ0NDFvT2ppT2VGTFNWalZzSWdQT2F0QnVrT05OVUdLSGNHSTBBQUFBOU90RW1DSkpMdzJaUVE,English,,5,2015-12-05,Jay Jay,Great App!,Very good app.,,
Reddinator for Reddit,Google Play,au.com.wallaceit.reddinator,Z3A6QU9xcFRPSDFUVnFWd0tJQWlPM1RBUDItRzdBbnd0RXdrZ1BVVXNQTGJwOFdDZzA3RzBWUTVZS2hzVXJJZi13QTBIOVZfbXNTMS1JanM5SmtxWkZzNkE,English,,4,2015-12-05,David Ferguson,Really love this app.,"Makes surfing Reddit through the widget nice and simple. Stops updating sometimes and I have to force close it, but it's not often. Nice and simple.",,
