App,Store,App ID,Review ID,Country,Version,Rating,Date,Author,Subject,Body,Translated Subject,Translated Body
Reddinator for Reddit,Google Play,au.com.wallaceit.reddinator,Z3A6QU9xcFRPSGd2QzE2cGVvQkZPc2VrV1JBOXdGQ1VFZVdBQjhfaEFEYlZFTF9qRGl2dEk1bkI1X2JaRGN0NUo0QW12YWt0bEkwWFVVbzl4MXJhRkNlQWc,English,,5,2015-08-19,Slimy Steve,Perfect widget for reddit,"If all you need is a widget, then look no further. You can changed the theme colors to whatever you like and easily filter the exact subreddits and multis that you want to see. If the number of results is too less you can load more by scrolling down. All this in a small package for free. It's great",,
Reddinator for Reddit,Google Play,au.com.wallaceit.reddinator,Z3A6QU9xcFRPSDd6N1JDSzFXdndIMW9tQl9kS0U3Q2NMTWxfLTlPZzgtZFlKblVibEw2bFZtZjMwak9HQ0IxWWNZYVhwSlhyUTBfMFRLTUdteG1adWplQ1E,English,,5,2015-08-18,liam kelly,Great app for reddit. Just some minor tweaks needed,"Love the app, great for getting quick updates on world news, or seeing some cool, user submitted creations... There were some issues when I first got the app, I wasn't able to log in, but you have since fixed that, which is awesome. This app is great, I highly recommend it to both reddit users, &amp; anyone that wants to keep up with world news, tech news, etc.",,
