Topic Index 1,Topic Index 2,Topic Similarity
3,14,0.47450000000000003
12,10,0.3348
0,2,0.3264
1,0,0.0
2,1,0.0
4,3,0.0
5,4,0.0
6,5,0.0
7,6,0.0
8,7,0.0
9,8,0.0
10,9,0.0
11,11,0.0
13,12,0.0
14,13,0.0
15,15,0.0
16,16,0.0
17,17,0.0
18,18,0.0
19,19,0.0
