activity change to avoid annoying crash,b,2016/1/19,,
update to 240 for release,b,2016/1/19,,
updated activity type,f,2016/1/17,,
added prototype of project cloning feature,f,2016/1/16,,
fixed rare crash due to failure to acquire,b,2015/11/15,,
added tone for and button,f,2015/8/15,,
