Topic Index 1,Topic Index 2,Topic Similarity
7,1,0.2759
16,2,0.2376
10,14,0.198
11,17,0.17080000000000004
19,4,0.17010000000000003
8,9,0.156
9,11,0.14220000000000002
14,0,0.1405
17,7,0.1381
15,10,0.1026
5,16,0.1005
18,3,0.0893
6,5,0.053200000000000004
0,12,0.0476
12,13,0.0465
1,6,0.0
2,8,0.0
3,15,0.0
4,18,0.0
13,19,0.0
