package,release ID,UI element,related topic,average polarity,# reviews,average rating,average objectivity,# uninstalls,delta rating,element deleted next release
com.frozendevs.cache.cleaner,v1.1.7,@+id/app_name$,342,0.4375,1,5.0,0.6833333333333333,0,0.662337662337662,0,0
com.frozendevs.cache.cleaner,v1.1.7,@+id/app_name$,344,-0.20000000000000004,1,2.0,0.24166666666666667,0,-2.337662337662338,0,0
com.frozendevs.cache.cleaner,v1.1.7,@+id/storage_color_bar$,347,0.4375,1,5.0,0.6833333333333333,0,0.662337662337662,0,0
com.frozendevs.cache.cleaner,v1.1.7,@+id/app_size$,354,0.4375,1,5.0,0.6833333333333333,0,0.662337662337662,0,0
com.frozendevs.cache.cleaner,v1.1.7,@+id/app_size$,352,-0.20000000000000004,1,2.0,0.24166666666666667,0,-2.337662337662338,0,0
com.frozendevs.cache.cleaner,v1.1.7,@+id/app_icon$,358,0.11874999999999998,2,3.5,0.4625,0,-0.837662337662338,0,0
com.frozendevs.cache.cleaner,v1.1.7,@+id/storageChartLabel$internal_storage,361,0.4375,1,5.0,0.6833333333333333,0,0.662337662337662,0,0
com.frozendevs.cache.cleaner,v1.1.7,@+id/freeStorageText$,366,0.4375,1,5.0,0.6833333333333333,0,0.662337662337662,0,0
com.frozendevs.cache.cleaner,v1.1.7,@+id/usedStorageText$,374,0.4375,1,5.0,0.6833333333333333,0,0.662337662337662,0,0
com.frozendevs.cache.cleaner,v1.1.7,@android:id/empty$empty_cache,377,0.14166666666666666,1,5.0,0.45000000000000007,0,0.662337662337662,0,0
