Topic Index 1,Topic Index 2,Topic Similarity
7,0,0.2877
5,15,0.28309999999999996
3,8,0.1811
1,2,0.1648
13,18,0.1455
9,16,0.13679999999999998
14,11,0.1305
0,9,0.11200000000000002
2,6,0.0966
19,3,0.0923
16,1,0.06369999999999999
10,7,0.051699999999999996
4,4,0.0
6,5,0.0
8,10,0.0
11,12,0.0
12,13,0.0
15,14,0.0
17,17,0.0
18,19,0.0
