Topic Index 1,Topic Index 2,Topic Similarity
17,9,0.4580000000000001
7,17,0.41359999999999997
9,0,0.3888
6,5,0.3724
3,18,0.35639999999999994
14,19,0.2365
1,8,0.2343
8,13,0.23170000000000002
4,1,0.20340000000000003
11,10,0.19840000000000002
5,7,0.1353
10,3,0.13499999999999998
2,2,0.11499999999999999
18,6,0.11
13,4,0.09280000000000001
0,11,0.0
12,12,0.0
15,14,0.0
16,15,0.0
19,16,0.0
