Topic Index 1,Topic Index 2,Topic Similarity
5,7,1.9736
15,0,1.7113999999999998
17,19,1.6504
11,13,1.1224
13,14,0.7598
16,5,0.738
10,8,0.6539999999999999
8,10,0.592
1,17,0.4914
4,16,0.477
18,9,0.3927
9,4,0.38849999999999996
12,6,0.33640000000000003
0,12,0.27599999999999997
19,15,0.2596
2,1,0.0
3,2,0.0
6,3,0.0
7,11,0.0
14,18,0.0
