App,Store,App ID,Review ID,Country,Version,Rating,Date,Author,Subject,Body,Translated Subject,Translated Body
Tasks: Astrid To-Do List Clone,Google Play,org.tasks,Z3A6QU9xcFRPRTZYZnpYMkpEU0pHdVAyQmZ1UVUxazNsTWUwdTAtdnhzNWhvTWpicWdvNDB4Y0V6TEEtQXRya0QxTDRYeWY2ODVKVGVVMU5MMG5aZVFoXzB3,English,,5,2016-02-26,Elliot Kraber,Brilliant,such a wonderful clone of the,,
Tasks: Astrid To-Do List Clone,Google Play,org.tasks,Z3A6QU9xcFRPRTZYZnpYMkpEU0pHdVAyQmZ1UVUxazNsTWUwdTAtdnhzNWhvTWpicWdvNDB4Y0V6TEEtQXRya0QxTDRYeWY2ODVKVGVVMU5MMG5aZVFoXzB3,English,,5,2016-02-26,Elliot Kraber,Brilliant,with the additional increasing option and it might even soon surpass it,,
Tasks: Astrid To-Do List Clone,Google Play,org.tasks,Z3A6QU9xcFRPR1VOSGFidmkwVjdhTVlBNHFqc2ppMGVqWS1sbVhKU2JERkhqcVAzYWlXc3NoOTI1bkhBNUkxWnFPVGF3dGlzQkw1UWFzMTVlcF9adGNrZ1NN,English,,5,2016-02-25,Kyriacos Louca,Excellent,best one around,,
Tasks: Astrid To-Do List Clone,Google Play,org.tasks,Z3A6QU9xcFRPR1VOSGFidmkwVjdhTVlBNHFqc2ppMGVqWS1sbVhKU2JERkhqcVAzYWlXc3NoOTI1bkhBNUkxWnFPVGF3dGlzQkw1UWFzMTVlcF9adGNrZ1NN,English,,5,2016-02-25,Kyriacos Louca,Excellent,fast and simple,,
Tasks: Astrid To-Do List Clone,Google Play,org.tasks,Z3A6QU9xcFRPR1VOSGFidmkwVjdhTVlBNHFqc2ppMGVqWS1sbVhKU2JERkhqcVAzYWlXc3NoOTI1bkhBNUkxWnFPVGF3dGlzQkw1UWFzMTVlcF9adGNrZ1NN,English,,5,2016-02-25,Kyriacos Louca,Excellent,ha multiple reminder and filter,,
Tasks: Astrid To-Do List Clone,Google Play,org.tasks,Z3A6QU9xcFRPSEc2TU94empXNGFyNVdrRjZZYkg5ZHR3ZXNrRm1uM0VHeGFsUVdpWkU1MXB5SEFHM3BWdlJVTEhjTkY0TzBpOWFlMl9VX1JpdlVQQlFFQjc0,English,,4,2016-02-25,Mike Day,,so good,,
Tasks: Astrid To-Do List Clone,Google Play,org.tasks,Z3A6QU9xcFRPSEc2TU94empXNGFyNVdrRjZZYkg5ZHR3ZXNrRm1uM0VHeGFsUVdpWkU1MXB5SEFHM3BWdlJVTEhjTkY0TzBpOWFlMl9VX1JpdlVQQlFFQjc0,English,,4,2016-02-25,Mike Day,,open source is a plus,,
Tasks: Astrid To-Do List Clone,Google Play,org.tasks,Z3A6QU9xcFRPSEc2TU94empXNGFyNVdrRjZZYkg5ZHR3ZXNrRm1uM0VHeGFsUVdpWkU1MXB5SEFHM3BWdlJVTEhjTkY0TzBpOWFlMl9VX1JpdlVQQlFFQjc0,English,,4,2016-02-25,Mike Day,,some suggestion wish it had the ability to drag and drop the sort order of the task list,,
Tasks: Astrid To-Do List Clone,Google Play,org.tasks,Z3A6QU9xcFRPSEc2TU94empXNGFyNVdrRjZZYkg5ZHR3ZXNrRm1uM0VHeGFsUVdpWkU1MXB5SEFHM3BWdlJVTEhjTkY0TzBpOWFlMl9VX1JpdlVQQlFFQjc0,English,,4,2016-02-25,Mike Day,,it would be great custom sort order feature could be used on custom filter,,
Tasks: Astrid To-Do List Clone,Google Play,org.tasks,Z3A6QU9xcFRPSEc2TU94empXNGFyNVdrRjZZYkg5ZHR3ZXNrRm1uM0VHeGFsUVdpWkU1MXB5SEFHM3BWdlJVTEhjTkY0TzBpOWFlMl9VX1JpdlVQQlFFQjc0,English,,4,2016-02-25,Mike Day,,would also appreciate being able to sort by tag,,
Tasks: Astrid To-Do List Clone,Google Play,org.tasks,Z3A6QU9xcFRPSEc2TU94empXNGFyNVdrRjZZYkg5ZHR3ZXNrRm1uM0VHeGFsUVdpWkU1MXB5SEFHM3BWdlJVTEhjTkY0TzBpOWFlMl9VX1JpdlVQQlFFQjc0,English,,4,2016-02-25,Mike Day,,such tomorrow and next week,,
Tasks: Astrid To-Do List Clone,Google Play,org.tasks,Z3A6QU9xcFRPSFdjWmVCOWh1TmxnWTAwRE9ZNHFyZ29BaTVxbGtLMVdqdm5rN21heE15Q2tzb0h2by0yb2tkY0JqS2FKMjc0X09sWFFZYXZvREdTdDRVZHN3,English,,5,2016-02-24,Gina H,Loooove it!,i love the simple layout with slight touch of to show priority,,
Tasks: Astrid To-Do List Clone,Google Play,org.tasks,Z3A6QU9xcFRPSFdjWmVCOWh1TmxnWTAwRE9ZNHFyZ29BaTVxbGtLMVdqdm5rN21heE15Q2tzb0h2by0yb2tkY0JqS2FKMjc0X09sWFFZYXZvREdTdDRVZHN3,English,,5,2016-02-24,Gina H,Loooove it!,the widget with scrolling ability is excellent,,
Tasks: Astrid To-Do List Clone,Google Play,org.tasks,Z3A6QU9xcFRPRm1fTXJwRkNDc1BLVnJpMTM1NERTZ0NWZ3JUZGRkZU9CR1AydklNMS0td3NhdXNpRmdzcElnNFdNN3NxOUUtTHVuV1hOTnJWekQtaGVndl9N,English,,4,2016-02-20,Florian Egerer,Great task management,better anything else out there,,
Tasks: Astrid To-Do List Clone,Google Play,org.tasks,Z3A6QU9xcFRPRm1fTXJwRkNDc1BLVnJpMTM1NERTZ0NWZ3JUZGRkZU9CR1AydklNMS0td3NhdXNpRmdzcElnNFdNN3NxOUUtTHVuV1hOTnJWekQtaGVndl9N,English,,4,2016-02-20,Florian Egerer,Great task management,because adding task with date and time is very easy and shortcut for different time of the filter work there is a way to have all task on desktop due to the working sync with and good rich notification,,
Tasks: Astrid To-Do List Clone,Google Play,org.tasks,Z3A6QU9xcFRPRm1fTXJwRkNDc1BLVnJpMTM1NERTZ0NWZ3JUZGRkZU9CR1AydklNMS0td3NhdXNpRmdzcElnNFdNN3NxOUUtTHVuV1hOTnJWekQtaGVndl9N,English,,4,2016-02-20,Florian Egerer,Great task management,epic task with huge potential to get even better with some more improvement,,
Tasks: Astrid To-Do List Clone,Google Play,org.tasks,Z3A6QU9xcFRPRm1fTXJwRkNDc1BLVnJpMTM1NERTZ0NWZ3JUZGRkZU9CR1AydklNMS0td3NhdXNpRmdzcElnNFdNN3NxOUUtTHVuV1hOTnJWekQtaGVndl9N,English,,4,2016-02-20,Florian Egerer,Great task management,great stuff,,
Tasks: Astrid To-Do List Clone,Google Play,org.tasks,Z3A6QU9xcFRPSHAzNWI5NnlXSjE5Tmo2NGU5NjhVUG5GZW1LYWpQZ2RZMEJVWURyWUlkRTktTUt6al9mV0tqQzlWQVFZUHlpeDZtVHZpRkVKTU5tOTM0X3NJ,English,,5,2016-02-18,Terry Bowman,"Excellent design, works great",setting date and snoozing are all very well designed,,
Tasks: Astrid To-Do List Clone,Google Play,org.tasks,Z3A6QU9xcFRPRlNPQ3hMUDBKQjNBdjlpSXk1MnV6aEl4U2lMeFJKMFBIbXhGbWsxelhKRGdtLUctMUw5V0xtbFpwTmZoWUhtZ3hQQWwxaTNSY2QyREJTR21F,English,,4,2016-02-17,Johnny Zavala,What happened?!,i lost all of my task,,
Tasks: Astrid To-Do List Clone,Google Play,org.tasks,Z3A6QU9xcFRPRmtKYWRBMGNrUFJ2R2tZRVI4Y1dCT2l4TVBFZlFCdVRvSmpWcjMxd3dLSWtTNHRUcUNqRnppZWxtazBjdHc4MWFFeWREYVNHU1NqOHJQRnVV,English,,1,2016-02-17,Caspar Sugg,disappointed,no task sync and not oriented,,
Tasks: Astrid To-Do List Clone,Google Play,org.tasks,Z3A6QU9xcFRPSFZkYXhtNVUzZHpjTTdEbXF0WTVwVElWVUhDTjZwNGtxYW1aOFAxQmlLbGEwanlRNHZsdzQzcEtOWnBGSFZaNFpfazJGbUhmLTFFSzBoZVZ3,English,,5,2016-02-16,Jesus Torres,Love the app! Great update! The Dev listens!,back to being one handed use friendly,,
Tasks: Astrid To-Do List Clone,Google Play,org.tasks,Z3A6QU9xcFRPSFZkYXhtNVUzZHpjTTdEbXF0WTVwVElWVUhDTjZwNGtxYW1aOFAxQmlLbGEwanlRNHZsdzQzcEtOWnBGSFZaNFpfazJGbUhmLTFFSzBoZVZ3,English,,5,2016-02-16,Jesus Torres,Love the app! Great update! The Dev listens!,thank you,,
Tasks: Astrid To-Do List Clone,Google Play,org.tasks,Z3A6QU9xcFRPSFZkYXhtNVUzZHpjTTdEbXF0WTVwVElWVUhDTjZwNGtxYW1aOFAxQmlLbGEwanlRNHZsdzQzcEtOWnBGSFZaNFpfazJGbUhmLTFFSzBoZVZ3,English,,5,2016-02-16,Jesus Torres,Love the app! Great update! The Dev listens!,any chance we could have an easy way to access the instead of having to manually copy and paste,,
Tasks: Astrid To-Do List Clone,Google Play,org.tasks,Z3A6QU9xcFRPSFZkYXhtNVUzZHpjTTdEbXF0WTVwVElWVUhDTjZwNGtxYW1aOFAxQmlLbGEwanlRNHZsdzQzcEtOWnBGSFZaNFpfazJGbUhmLTFFSzBoZVZ3,English,,5,2016-02-16,Jesus Torres,Love the app! Great update! The Dev listens!,thank you again,,
