App,Store,App ID,Review ID,Country,Version,Rating,Date,Author,Subject,Body,Translated Subject,Translated Body
Tasks: Astrid To-Do List Clone,Google Play,org.tasks,Z3A6QU9xcFRPRlhHaGJtX1pSd1RfZWZzNUNQMTlwTFpJUk9JUU15RC1XVUozVmpYUk9hZWVlRl9BSE5XSGxlREktZ284NXVVY2cxNlJjS3pYR05hbTJUdi1r,English,,4,2015-10-22,The WillaWoman,Astrid lives! But...,thanks i need to switch to g task,,
Tasks: Astrid To-Do List Clone,Google Play,org.tasks,Z3A6QU9xcFRPRlhHaGJtX1pSd1RfZWZzNUNQMTlwTFpJUk9JUU15RC1XVUozVmpYUk9hZWVlRl9BSE5XSGxlREktZ284NXVVY2cxNlJjS3pYR05hbTJUdi1r,English,,4,2015-10-22,The WillaWoman,Astrid lives! But...,can i import task backup into tick,,
Tasks: Astrid To-Do List Clone,Google Play,org.tasks,Z3A6QU9xcFRPRlhHaGJtX1pSd1RfZWZzNUNQMTlwTFpJUk9JUU15RC1XVUozVmpYUk9hZWVlRl9BSE5XSGxlREktZ284NXVVY2cxNlJjS3pYR05hbTJUdi1r,English,,4,2015-10-22,The WillaWoman,Astrid lives! But...,,,
Tasks: Astrid To-Do List Clone,Google Play,org.tasks,Z3A6QU9xcFRPRWdqYktySzNkUVdPRkFIOXFtSjBaRGRhcjNvTGJLNHM2aEdNb2tYN3l2Ym1ZNXJSUm9wREQxdkpTNGM5cDd0MElYR3loWXE1VC13c3M4aTZn,English,,5,2015-10-21,Hemmige S Prashanth,,this is simply perfect,,
Tasks: Astrid To-Do List Clone,Google Play,org.tasks,Z3A6QU9xcFRPR2huWC01dlZJZzVqQkgxX0dpeV9FZ0U1TXpfZEhBTUh6LW5MT2pvUkwzZEZlUER5Ql9DOW9sdGNoVFktYmEwUnpYLTZZWHVCYm5rM2dUMi1v,English,,5,2015-10-21,Brice Robertson,So nice to see an Astrid clone,this wa definitely the best task manager by a mile,,
Tasks: Astrid To-Do List Clone,Google Play,org.tasks,Z3A6QU9xcFRPR2huWC01dlZJZzVqQkgxX0dpeV9FZ0U1TXpfZEhBTUh6LW5MT2pvUkwzZEZlUER5Ql9DOW9sdGNoVFktYmEwUnpYLTZZWHVCYm5rM2dUMi1v,English,,5,2015-10-21,Brice Robertson,So nice to see an Astrid clone,work great in marshmallow,,
Tasks: Astrid To-Do List Clone,Google Play,org.tasks,Z3A6QU9xcFRPR1BXVFFER1BFc1RiNmloLWtERkFycGxBNC04ZTNQdWx4bkNBNlFEOTM3R3hpWVRaQVBWcHJoMmQ4X0o1ZElUbVdZSkJuc1NxcEgteWE2TDdZ,English,,4,2015-10-20,Dean Dana,,it doing exactly what it say it should do,,
Tasks: Astrid To-Do List Clone,Google Play,org.tasks,Z3A6QU9xcFRPR1BXVFFER1BFc1RiNmloLWtERkFycGxBNC04ZTNQdWx4bkNBNlFEOTM3R3hpWVRaQVBWcHJoMmQ4X0o1ZElUbVdZSkJuc1NxcEgteWE2TDdZ,English,,4,2015-10-20,Dean Dana,,my stock task stopped syncing but this free work great,,
Tasks: Astrid To-Do List Clone,Google Play,org.tasks,Z3A6QU9xcFRPR1BXVFFER1BFc1RiNmloLWtERkFycGxBNC04ZTNQdWx4bkNBNlFEOTM3R3hpWVRaQVBWcHJoMmQ4X0o1ZElUbVdZSkJuc1NxcEgteWE2TDdZ,English,,4,2015-10-20,Dean Dana,,i wish it could group task due on the same day together,,
Tasks: Astrid To-Do List Clone,Google Play,org.tasks,Z3A6QU9xcFRPSDRQZVFuUmpfV2pNUU9Kd1BQem9rcU44bzgxQTN1WFNCc2VnY1hGRGRHemhNdjN0Rmg1VTg2X1BiS19fR1cxUUotLW9lMk1qLWRlNDVCSzc4,English,,5,2015-10-19,Anica Tan,Great functionality,i love this,,
Tasks: Astrid To-Do List Clone,Google Play,org.tasks,Z3A6QU9xcFRPSDRQZVFuUmpfV2pNUU9Kd1BQem9rcU44bzgxQTN1WFNCc2VnY1hGRGRHemhNdjN0Rmg1VTg2X1BiS19fR1cxUUotLW9lMk1qLWRlNDVCSzc4,English,,5,2015-10-19,Anica Tan,Great functionality,five star for the itself,,
Tasks: Astrid To-Do List Clone,Google Play,org.tasks,Z3A6QU9xcFRPSDRQZVFuUmpfV2pNUU9Kd1BQem9rcU44bzgxQTN1WFNCc2VnY1hGRGRHemhNdjN0Rmg1VTg2X1BiS19fR1cxUUotLW9lMk1qLWRlNDVCSzc4,English,,5,2015-10-19,Anica Tan,Great functionality,i could give i would add another star for customer service i found a problem in the and responded almost got a fix out quickly,,
Tasks: Astrid To-Do List Clone,Google Play,org.tasks,Z3A6QU9xcFRPRmNSaWZadFpTVHM0UWRjZWRWVXltNkdfaVVzQWZyX3ZfaXdVZUNOUHRlRXZheUh2OUI1eUZxQ1FlaWZYakYyWkx1RTBxTzdjem1UWTlhM3E4,English,,5,2015-10-18,PENG YEH,Nearly perfect!,it is really useful and beautiful,,
Tasks: Astrid To-Do List Clone,Google Play,org.tasks,Z3A6QU9xcFRPRmNSaWZadFpTVHM0UWRjZWRWVXltNkdfaVVzQWZyX3ZfaXdVZUNOUHRlRXZheUh2OUI1eUZxQ1FlaWZYakYyWkx1RTBxTzdjem1UWTlhM3E4,English,,5,2015-10-18,PENG YEH,Nearly perfect!,i think if you can add date or line to task it would be more clearly and quickly to identify task,,
Tasks: Astrid To-Do List Clone,Google Play,org.tasks,Z3A6QU9xcFRPR1Nfdm5pWGFfSVpzekJSVjVuLXZLQVRySnQ4QnBmdEdiRUtaOXdLWG83RHRnTUsxcVBYYTFMcVZ0c0YwQ2w3Tl9zVHBxLTkzWVBPbFJwLXBv,English,,2,2015-10-16,Aniket Borhade,Slow,need improvement,,
Tasks: Astrid To-Do List Clone,Google Play,org.tasks,Z3A6QU9xcFRPRi1zamZBSTlhM1lpMGxvRDJzUDlWcGgydFNwRUttY2xUeFJqaGVNRm9feFZHWWIzQXJpSmhqNG8zZDI0Y2o4b1BnQmhSVVBWU3JtUU1kVzVB,English,,5,2015-10-14,Rajiv Kapoor,Amazing app,all including due to it simple to the point approach and down to earth spirit,,
Tasks: Astrid To-Do List Clone,Google Play,org.tasks,Z3A6QU9xcFRPSDEyRFdmbDFWcDVtSU5sTmNVVGUwRGVudTRUSE83OVh3amU5WHlaR3hPczg0MWlfZGhrRll0bXRvWGlLYUFhaW5SdllIQmtwZXVFRy0yTHEw,English,,5,2015-10-13,Robert Young,,just installed this trying out pretty much all the mainstream on the play and this easily take the cake,,
Tasks: Astrid To-Do List Clone,Google Play,org.tasks,Z3A6QU9xcFRPSDEyRFdmbDFWcDVtSU5sTmNVVGUwRGVudTRUSE83OVh3amU5WHlaR3hPczg0MWlfZGhrRll0bXRvWGlLYUFhaW5SdllIQmtwZXVFRy0yTHEw,English,,5,2015-10-13,Robert Young,,is there any way to fix this,,
Tasks: Astrid To-Do List Clone,Google Play,org.tasks,Z3A6QU9xcFRPR3hZYWNXUDdyTndkdV95Vk1wWXg5V0xrNVRhX0xDX3dWZzlvWWJiZW1QNkpncTFZcl8yR2xRLWdnTWxSWVJwTGY1Y2g4dy1iVUFtYnotdTFv,English,,4,2015-10-08,Kevin Snyder,Good,at time i have marked task a done and they are converted to incomplete i open the and sync with,,
Tasks: Astrid To-Do List Clone,Google Play,org.tasks,Z3A6QU9xcFRPR3dFQVZWNWlNZ2FsOHcwelRnRWlVczNSeW5MaVhIWkRWRXJLMHZVT3g1NVhtSlZfRmJlR1UxbVpFUHZSdzdyNTlNVmZjWjBMNlhSeEZvZ0tV,English,,3,2015-10-08,Chitrank Sharma,Not as good as Astrid,understands this and set a reminder for today,,
Tasks: Astrid To-Do List Clone,Google Play,org.tasks,Z3A6QU9xcFRPR3dFQVZWNWlNZ2FsOHcwelRnRWlVczNSeW5MaVhIWkRWRXJLMHZVT3g1NVhtSlZfRmJlR1UxbVpFUHZSdzdyNTlNVmZjWjBMNlhSeEZvZ0tV,English,,3,2015-10-08,Chitrank Sharma,Not as good as Astrid,this cannot do,,
Tasks: Astrid To-Do List Clone,Google Play,org.tasks,Z3A6QU9xcFRPR3dFQVZWNWlNZ2FsOHcwelRnRWlVczNSeW5MaVhIWkRWRXJLMHZVT3g1NVhtSlZfRmJlR1UxbVpFUHZSdzdyNTlNVmZjWjBMNlhSeEZvZ0tV,English,,3,2015-10-08,Chitrank Sharma,Not as good as Astrid,also no button in the widget,,
Tasks: Astrid To-Do List Clone,Google Play,org.tasks,Z3A6QU9xcFRPRWFQY0xmcUNWbEc1RkJZZklERkhKSGR4QlZWN3c1THQ0dTBkTURxQ3piTXdEVzN4TzZlbWJOUWxYdHVmVzFwWk8yTUQxZ1F6NFdDcFpXVV9B,English,,5,2015-10-05,serena bernstein,,i gave 5 star because it ha more feature i love the other have,,
Tasks: Astrid To-Do List Clone,Google Play,org.tasks,Z3A6QU9xcFRPRWFQY0xmcUNWbEc1RkJZZklERkhKSGR4QlZWN3c1THQ0dTBkTURxQ3piTXdEVzN4TzZlbWJOUWxYdHVmVzFwWk8yTUQxZ1F6NFdDcFpXVV9B,English,,5,2015-10-05,serena bernstein,,it lower my stress level i use it which is huge,,
Tasks: Astrid To-Do List Clone,Google Play,org.tasks,Z3A6QU9xcFRPRWFQY0xmcUNWbEc1RkJZZklERkhKSGR4QlZWN3c1THQ0dTBkTURxQ3piTXdEVzN4TzZlbWJOUWxYdHVmVzFwWk8yTUQxZ1F6NFdDcFpXVV9B,English,,5,2015-10-05,serena bernstein,,i tried very many,,
Tasks: Astrid To-Do List Clone,Google Play,org.tasks,Z3A6QU9xcFRPRWFQY0xmcUNWbEc1RkJZZklERkhKSGR4QlZWN3c1THQ0dTBkTURxQ3piTXdEVzN4TzZlbWJOUWxYdHVmVzFwWk8yTUQxZ1F6NFdDcFpXVV9B,English,,5,2015-10-05,serena bernstein,,the timer on the comment line is amazing,,
Tasks: Astrid To-Do List Clone,Google Play,org.tasks,Z3A6QU9xcFRPR0VmZ2JwV1pmTDlvNGFWX1FGOUk3S0VfTjhPUDJUR1M2QkEzeWIxNFNPdFdjQy1JdnZ1V2F2NS1ZSnVtVWxIcTRMXzJ4MG04Q2ZiaTV4S0sw,English,,5,2015-10-01,Kahcai Lee,Great app!!,awesome,,
Tasks: Astrid To-Do List Clone,Google Play,org.tasks,Z3A6QU9xcFRPSHpNLXFmYUZEUGJPUXYzWWZNbUw5dktOMWVuc0JSVmFzRXk3QjYta3ZLb2w1d3ozSFo0ZWNUOF9LRl8zQkhKa3RJaTBCTHlpd05rTnZ4TVNn,English,,3,2015-09-29,Charles Jackson,Need sublist,need sublist,,
Tasks: Astrid To-Do List Clone,Google Play,org.tasks,Z3A6QU9xcFRPSGR6eW44N25VNEt1dTU0SHpoYlZNYndfVW5KMGxwWHNPcVpsX3pOTmFqazZkc1pWRkxlNEZ1X3JmRjlaRG43U0c5U2F2OFRNdEd2Y3N5WFZF,English,,5,2015-09-28,Ball,,repeat task done is rare to see in other to do,,
Tasks: Astrid To-Do List Clone,Google Play,org.tasks,Z3A6QU9xcFRPRVBvMWtkdjgzV05JZnBzUkJGdlNyUHgwWWVFVjhmQ2ViZXVjVFQ5SEpCX2hHdlRoTnpxYkdVcnY3YjJ6Ul9TZGctWnFjbTVTU3h0RDF1TVl3,English,,5,2015-09-28,Colin Silver,Thank you Alex Baker!,this is beyond cool,,
Tasks: Astrid To-Do List Clone,Google Play,org.tasks,Z3A6QU9xcFRPRVBvMWtkdjgzV05JZnBzUkJGdlNyUHgwWWVFVjhmQ2ViZXVjVFQ5SEpCX2hHdlRoTnpxYkdVcnY3YjJ6Ul9TZGctWnFjbTVTU3h0RDF1TVl3,English,,5,2015-09-28,Colin Silver,Thank you Alex Baker!,this came the closest to filling void,,
Tasks: Astrid To-Do List Clone,Google Play,org.tasks,Z3A6QU9xcFRPRVBvMWtkdjgzV05JZnBzUkJGdlNyUHgwWWVFVjhmQ2ViZXVjVFQ5SEpCX2hHdlRoTnpxYkdVcnY3YjJ6Ul9TZGctWnFjbTVTU3h0RDF1TVl3,English,,5,2015-09-28,Colin Silver,Thank you Alex Baker!,i think it filled it,,
Tasks: Astrid To-Do List Clone,Google Play,org.tasks,Z3A6QU9xcFRPRVBvMWtkdjgzV05JZnBzUkJGdlNyUHgwWWVFVjhmQ2ViZXVjVFQ5SEpCX2hHdlRoTnpxYkdVcnY3YjJ6Ul9TZGctWnFjbTVTU3h0RDF1TVl3,English,,5,2015-09-28,Colin Silver,Thank you Alex Baker!,my productivity just went up,,
Tasks: Astrid To-Do List Clone,Google Play,org.tasks,Z3A6QU9xcFRPRno4elJxM1pmSW0tTk9wUWw2UTdzQWtYOUtVcTFhZTZydDhMTXNqY3NRRHJwbm41aGtxZzl0d3NMYnZNRDQySURjcllhRWRRWVltMmNEOFlZ,English,,2,2015-09-26,Артемий Александров,It is definitely not the best app.,there is no ability switch between category via,,
Tasks: Astrid To-Do List Clone,Google Play,org.tasks,Z3A6QU9xcFRPRU1qUWRxRzhTOXFCbUdmeVBaTWQyRVpicnFBMTdkVXF2ckp2Y3F1UnlTclM0YUlkMW1POFg2dll4cHBLQmUwRmpxRDl4TndJeE5rQWU4U3Rr,English,,4,2015-09-26,Bhavin Mehta,Very nice app - need some improvement,excellent with all feature needed for organizing list,,
Tasks: Astrid To-Do List Clone,Google Play,org.tasks,Z3A6QU9xcFRPRU1qUWRxRzhTOXFCbUdmeVBaTWQyRVpicnFBMTdkVXF2ckp2Y3F1UnlTclM0YUlkMW1POFg2dll4cHBLQmUwRmpxRDl4TndJeE5rQWU4U3Rr,English,,4,2015-09-26,Bhavin Mehta,Very nice app - need some improvement,custom filter option available but doe not work and also doe not allow to change filter setting except name change,,
Tasks: Astrid To-Do List Clone,Google Play,org.tasks,Z3A6QU9xcFRPRjJEdDFPYUQwaGlyZXhWMWc3aGcyOGhxY3NxQzlDNlptbGYyeXZkNFg1c0p2SDd5VXRKY1JjcnB6M3doM1k2MGk5a3lwMnBaemMxTmIwU0JJ,English,,5,2015-09-16,Jason Gerard Guerrero,,also great with location task based reminder paired with of course,,
Tasks: Astrid To-Do List Clone,Google Play,org.tasks,Z3A6QU9xcFRPRUJyLTFHbWltZW9NZUVtcDJsYkJUMG9SeEpraGVkaU9fWUZuTE56aS0zMGNtV3dVRW5VOUYtQWU3UlVZdHlBOVZrWjBSRUhVOHVyZEhWM1lz,English,,5,2015-09-15,Les Green,Awesome!,everything i needed,,
Tasks: Astrid To-Do List Clone,Google Play,org.tasks,Z3A6QU9xcFRPRlppeHQzaW1ZdHVwMHkzc0Vxb2RjV2lWSTc5ZTVmelVBdWVxRWhpeHBDQjNSbmVvMjhIMTNmOHBjSmpDekhObkgzeHRzN2gwdDlEbm9QMm44,English,,5,2015-09-14,Cody Nesbitt,,so much better others,,
Tasks: Astrid To-Do List Clone,Google Play,org.tasks,Z3A6QU9xcFRPRlppeHQzaW1ZdHVwMHkzc0Vxb2RjV2lWSTc5ZTVmelVBdWVxRWhpeHBDQjNSbmVvMjhIMTNmOHBjSmpDekhObkgzeHRzN2gwdDlEbm9QMm44,English,,5,2015-09-14,Cody Nesbitt,,i just wish you could set a default tag for new,,
Tasks: Astrid To-Do List Clone,Google Play,org.tasks,Z3A6QU9xcFRPRlppeHQzaW1ZdHVwMHkzc0Vxb2RjV2lWSTc5ZTVmelVBdWVxRWhpeHBDQjNSbmVvMjhIMTNmOHBjSmpDekhObkgzeHRzN2gwdDlEbm9QMm44,English,,5,2015-09-14,Cody Nesbitt,,but very good,,
Tasks: Astrid To-Do List Clone,Google Play,org.tasks,Z3A6QU9xcFRPSHdMVjl2dU9kd3daalkyVzNNT09kZGZTZ1NTb1cyZ0JrS09OWElmRFBPV0hmdi1xejRuWkFySGs2NHpxUmR2cEtjVXRfcHQ2RnhQLVFtc0RV,English,,3,2015-09-14,Marcin Ciosek,Could be a hit...,it had synchronization,,
Tasks: Astrid To-Do List Clone,Google Play,org.tasks,Z3A6QU9xcFRPRkRoby02S2dPcjE0UzRhTXZYN2NzLVZ2NGFVbjVjcTdHeXFoNi1fNG54ZDFRZFFZWlhxT0xETXNxQ3dfR1VjdlFWTHBaODA3NS1QcEZJVHY0,English,,4,2015-09-12,Rick Opper,Best I've tried,thing missing is ability to move task from default list to another list,,
Tasks: Astrid To-Do List Clone,Google Play,org.tasks,Z3A6QU9xcFRPRl8wMG1jd0FpS082emtEUXZNbFRpY0R5NmcxNTJCbWs3WVAxZlNPX1VUYzdNUmZxV3JuOXZ2V3FhNDRlOVB1SV8yY3FRMUU2OFpHSVRuMlRn,English,,4,2015-09-09,Ricardo Martins Duarte de Aguiar,,it is simple and efficient,,
Tasks: Astrid To-Do List Clone,Google Play,org.tasks,Z3A6QU9xcFRPRl8wMG1jd0FpS082emtEUXZNbFRpY0R5NmcxNTJCbWs3WVAxZlNPX1VUYzdNUmZxV3JuOXZ2V3FhNDRlOVB1SV8yY3FRMUU2OFpHSVRuMlRn,English,,4,2015-09-09,Ricardo Martins Duarte de Aguiar,,it doe not accept event on 18th,,
Tasks: Astrid To-Do List Clone,Google Play,org.tasks,Z3A6QU9xcFRPRl8wMG1jd0FpS082emtEUXZNbFRpY0R5NmcxNTJCbWs3WVAxZlNPX1VUYzdNUmZxV3JuOXZ2V3FhNDRlOVB1SV8yY3FRMUU2OFpHSVRuMlRn,English,,4,2015-09-09,Ricardo Martins Duarte de Aguiar,,can you fix that,,
Tasks: Astrid To-Do List Clone,Google Play,org.tasks,Z3A6QU9xcFRPRVY5X1NVblpxcEFxV21WbV9oaGhOMHk0YmZvR0c5TTN1eWJINkVqUk5YN05sYi1kdXNnSzhVdmxhQkJkMy1ieW5MajNvNzltLVBhR09SRWlJ,English,,4,2015-09-08,Eric Krause,Desktop interface?,great,,
Tasks: Astrid To-Do List Clone,Google Play,org.tasks,Z3A6QU9xcFRPRVY5X1NVblpxcEFxV21WbV9oaGhOMHk0YmZvR0c5TTN1eWJINkVqUk5YN05sYi1kdXNnSzhVdmxhQkJkMy1ieW5MajNvNzltLVBhR09SRWlJ,English,,4,2015-09-08,Eric Krause,Desktop interface?,can you recommend a desktop client for could work with this,,
Tasks: Astrid To-Do List Clone,Google Play,org.tasks,Z3A6QU9xcFRPRmNKNjJQZ2ZRZVdtTDZndENfUkhhOHJCZy1kTU1CU18wVFNMZnhZeHA4bW52d1NaS3lHcjdSR1RndXRqeWQwZnFwYnM5bTVpWXRGbldxeWZ3,English,,5,2015-09-03,Eddie Bittner,Great Astrid replacement!,love this,,
Tasks: Astrid To-Do List Clone,Google Play,org.tasks,Z3A6QU9xcFRPRmNKNjJQZ2ZRZVdtTDZndENfUkhhOHJCZy1kTU1CU18wVFNMZnhZeHA4bW52d1NaS3lHcjdSR1RndXRqeWQwZnFwYnM5bTVpWXRGbldxeWZ3,English,,5,2015-09-03,Eddie Bittner,Great Astrid replacement!,wa disappointed yahoo shut but this is a perfect replacement,,
Tasks: Astrid To-Do List Clone,Google Play,org.tasks,Z3A6QU9xcFRPRzlfd2M5ejMzYWthQzJFX2Yxck51RlJyeFVRNE9OZDkzUU92MWNfTDNmeWwwQm9HcE84UWxnOF91OXE3bDBGSl9xX2hWZFJfUUJlWExXa3c0,English,,3,2015-09-02,Xuân Đào Nguyễn,One more feature to be perfect,i used to be a user of have never found anything better,,
Tasks: Astrid To-Do List Clone,Google Play,org.tasks,Z3A6QU9xcFRPRzlfd2M5ejMzYWthQzJFX2Yxck51RlJyeFVRNE9OZDkzUU92MWNfTDNmeWwwQm9HcE84UWxnOF91OXE3bDBGSl9xX2hWZFJfUUJlWExXa3c0,English,,3,2015-09-02,Xuân Đào Nguyễn,One more feature to be perfect,glad i found this,,
Tasks: Astrid To-Do List Clone,Google Play,org.tasks,Z3A6QU9xcFRPRzlfd2M5ejMzYWthQzJFX2Yxck51RlJyeFVRNE9OZDkzUU92MWNfTDNmeWwwQm9HcE84UWxnOF91OXE3bDBGSl9xX2hWZFJfUUJlWExXa3c0,English,,3,2015-09-02,Xuân Đào Nguyễn,One more feature to be perfect,but i really need this feature show full task title for widget view,,
Tasks: Astrid To-Do List Clone,Google Play,org.tasks,Z3A6QU9xcFRPRzlfd2M5ejMzYWthQzJFX2Yxck51RlJyeFVRNE9OZDkzUU92MWNfTDNmeWwwQm9HcE84UWxnOF91OXE3bDBGSl9xX2hWZFJfUUJlWExXa3c0,English,,3,2015-09-02,Xuân Đào Nguyễn,One more feature to be perfect,but add it in widget view also,,
Tasks: Astrid To-Do List Clone,Google Play,org.tasks,Z3A6QU9xcFRPSHUtT2w3UVFwdE5WOFZnNWQwQnF1eGVyVEhMaFRsdHlONDd4Q1JJcDFKQXhjNHVZbmhNR0N2Yk9KcEN0aGQxRmJHem1IeVdKRzFwa2g2bTRn,English,,5,2015-09-01,,"Best , simple, light weight",please add a option to automatically delete completed task 30 day,,
Tasks: Astrid To-Do List Clone,Google Play,org.tasks,Z3A6QU9xcFRPSGNUdHRpMkRmV3ZlTXBURVhIbXl4ODBkNG5EaE05ZWNjd09iNDB6QnFsc0Q3bHY3QVJVdEhwdTFTUnd3U2I3VW9EUmRZWjdEaFVDQUNQX2NR,English,,4,2015-08-31,Ryan Kelln,,pleased to donate,,
Tasks: Astrid To-Do List Clone,Google Play,org.tasks,Z3A6QU9xcFRPSGNUdHRpMkRmV3ZlTXBURVhIbXl4ODBkNG5EaE05ZWNjd09iNDB6QnFsc0Q3bHY3QVJVdEhwdTFTUnd3U2I3VW9EUmRZWjdEaFVDQUNQX2NR,English,,4,2015-08-31,Ryan Kelln,,thanks for open development,,
Tasks: Astrid To-Do List Clone,Google Play,org.tasks,Z3A6QU9xcFRPRTIxNHRCdTNFTUpxLUtvaWNta2pOR3kxcHV3a0N5NVMxOEphUVItUTREeEhWRi05UmpsZGh5WVNVcWJMd2ItVlhYbzVrRkhnWVdodHRIb0Jz,English,,5,2015-08-29,Mohd Faeizz Akmal Azman,,i love it,,
Tasks: Astrid To-Do List Clone,Google Play,org.tasks,Z3A6QU9xcFRPRWNRaE40U094MTg1b2JTMDJ2Y1BMUTJMVGF4WGJMXzJPamtsMzNjZ2tNNE9vMmQ0YjhFZ0FBY1ZGQnpfcjBjZkJMYlhFMnM5eDhCMFZCeG9N,English,,5,2015-08-28,Veno Herceg,Awesome task app,ha all the functionality of coupled with new look and some new feature,,
Tasks: Astrid To-Do List Clone,Google Play,org.tasks,Z3A6QU9xcFRPRWNRaE40U094MTg1b2JTMDJ2Y1BMUTJMVGF4WGJMXzJPamtsMzNjZ2tNNE9vMmQ0YjhFZ0FBY1ZGQnpfcjBjZkJMYlhFMnM5eDhCMFZCeG9N,English,,5,2015-08-28,Veno Herceg,Awesome task app,,,
Tasks: Astrid To-Do List Clone,Google Play,org.tasks,Z3A6QU9xcFRPSHh1VmlybDAxMFJfNWZkNFlZZUlfR19ibDRPMG5CN253QnJCSkFEaG8zdVVqM2RyN1pzT0RxTVYxd3djR0w2bmZWTXhVTWlvckRUZjZaT0Jn,English,,4,2015-08-25,Ferdinand DiMarco,Good replacement,i wa looking for a replacement for and this fill the gap left behind,,
Tasks: Astrid To-Do List Clone,Google Play,org.tasks,Z3A6QU9xcFRPSDg4Q3B4QW52T3plOWhreFZFeXIxS0tqajl3NTRLTGRjUzZKVEVSQWQ3NzZGTkNkcDY1MlFDTFNxTWpRSEN6Uks0Mnk0R1RGVVFMWENCY0dB,English,,5,2015-08-24,nascent nascentt,Why needs location? Really like this app seems to be everything I need from a Google task manager,but i would really appreciate an option to have all the due task be a single notification,,
Tasks: Astrid To-Do List Clone,Google Play,org.tasks,Z3A6QU9xcFRPSHFqVkw1MzhHWTRTV2pTYWI4SzhpaTZMV21yb2QyMU9lOXh2VTB5MU0yb1NtNV9FOVQ1TjJ5anROMlRScFY5MkUwdGp5cmFWWVlLa21UQXdJ,English,,5,2015-08-21,Brian Laughlin,Glad I found this,have been limping along with old copy of on old phone and this is a wonderful replacement,,
Tasks: Astrid To-Do List Clone,Google Play,org.tasks,Z3A6QU9xcFRPR19zUnFxQXd1ZlRBNVBSYm5NaG5oOHZFbWdRNkNfUnFuZWczLTRGRkI5SEZfMlBWYjNHVUk2QkV5eHFZUU02Mzh1X2xFNDg0U2dJX29EZlNv,English,,5,2015-08-17,Sue Jones,Perfect combo of features for me,i have tried and abandoned more task manager i can most recently and,,
Tasks: Astrid To-Do List Clone,Google Play,org.tasks,Z3A6QU9xcFRPR19zUnFxQXd1ZlRBNVBSYm5NaG5oOHZFbWdRNkNfUnFuZWczLTRGRkI5SEZfMlBWYjNHVUk2QkV5eHFZUU02Mzh1X2xFNDg0U2dJX29EZlNv,English,,5,2015-08-17,Sue Jones,Perfect combo of features for me,this ha exactly the right set of feature and a killer set of,,
Tasks: Astrid To-Do List Clone,Google Play,org.tasks,Z3A6QU9xcFRPR19zUnFxQXd1ZlRBNVBSYm5NaG5oOHZFbWdRNkNfUnFuZWczLTRGRkI5SEZfMlBWYjNHVUk2QkV5eHFZUU02Mzh1X2xFNDg0U2dJX29EZlNv,English,,5,2015-08-17,Sue Jones,Perfect combo of features for me,i love being able to create shortcut to specific to get to them i need them,,
Tasks: Astrid To-Do List Clone,Google Play,org.tasks,Z3A6QU9xcFRPR19zUnFxQXd1ZlRBNVBSYm5NaG5oOHZFbWdRNkNfUnFuZWczLTRGRkI5SEZfMlBWYjNHVUk2QkV5eHFZUU02Mzh1X2xFNDg0U2dJX29EZlNv,English,,5,2015-08-17,Sue Jones,Perfect combo of features for me,kudos,,
Tasks: Astrid To-Do List Clone,Google Play,org.tasks,Z3A6QU9xcFRPRVhrSjRtNGVhYkNLa2xiempINkdHN0R4azVwbVZjcVkwRnU5djUtOFJWVjkzZ25peXBEMHdWc244SVJ2Zk5pNmZWQ0x4TEdZUWpmWWtHeU9v,English,,5,2015-08-15,Vanessa Morse,Finally is back!,perfect simple for keeping track of task,,
Tasks: Astrid To-Do List Clone,Google Play,org.tasks,Z3A6QU9xcFRPSDlsYnFIYk9ybmkwelVsMUlpWEdNNlhzUkZyRWJWSDN0c1ZvV19ENzJPTUZTOGZIeG1aZGkzczlzaVFXb2Nrc0M0TUVud2lGWWd6T3JGUEJZ,English,,5,2015-08-09,Nguyễn Vũ Khang,,add in material design tick icon for completed task,,
Tasks: Astrid To-Do List Clone,Google Play,org.tasks,Z3A6QU9xcFRPRzRPc3pJQjJVNzc2SGpGaFJwWnVNYmVmcTltV0x5QW8ya3lWTTRLMGJReGFrTDRWcmtFLUFBeDlCdE0yWldRQjBNMEJyV0tXNGpmeEZUX3d3,English,,5,2015-08-08,Syed Penawarsoft,The best to do list on earth after astrid died!,thank you for making this alive again,,
Tasks: Astrid To-Do List Clone,Google Play,org.tasks,Z3A6QU9xcFRPRWQyZGlUSk1McnlBS2R0cTJtNE5FMzlldUw0NldEU1FoeURPYUhWbTR2RUV6LWwtNWNoamgwb25mX2VETThNdDNGWERWX3JjOHJmR1FUR3o4,English,,5,2015-08-08,,Lg G3,great,,
Tasks: Astrid To-Do List Clone,Google Play,org.tasks,Z3A6QU9xcFRPRWQyZGlUSk1McnlBS2R0cTJtNE5FMzlldUw0NldEU1FoeURPYUhWbTR2RUV6LWwtNWNoamgwb25mX2VETThNdDNGWERWX3JjOHJmR1FUR3o4,English,,5,2015-08-08,,Lg G3,maybe add like check box list,,
Tasks: Astrid To-Do List Clone,Google Play,org.tasks,Z3A6QU9xcFRPRWQyZGlUSk1McnlBS2R0cTJtNE5FMzlldUw0NldEU1FoeURPYUhWbTR2RUV6LWwtNWNoamgwb25mX2VETThNdDNGWERWX3JjOHJmR1FUR3o4,English,,5,2015-08-08,,Lg G3,can be under a task,,
Tasks: Astrid To-Do List Clone,Google Play,org.tasks,Z3A6QU9xcFRPRWQyZGlUSk1McnlBS2R0cTJtNE5FMzlldUw0NldEU1FoeURPYUhWbTR2RUV6LWwtNWNoamgwb25mX2VETThNdDNGWERWX3JjOHJmR1FUR3o4,English,,5,2015-08-08,,Lg G3,either way,,
Tasks: Astrid To-Do List Clone,Google Play,org.tasks,Z3A6QU9xcFRPRWQyZGlUSk1McnlBS2R0cTJtNE5FMzlldUw0NldEU1FoeURPYUhWbTR2RUV6LWwtNWNoamgwb25mX2VETThNdDNGWERWX3JjOHJmR1FUR3o4,English,,5,2015-08-08,,Lg G3,finally found the i been searching for week,,
Tasks: Astrid To-Do List Clone,Google Play,org.tasks,Z3A6QU9xcFRPRWQyZGlUSk1McnlBS2R0cTJtNE5FMzlldUw0NldEU1FoeURPYUhWbTR2RUV6LWwtNWNoamgwb25mX2VETThNdDNGWERWX3JjOHJmR1FUR3o4,English,,5,2015-08-08,,Lg G3,thanks,,
Tasks: Astrid To-Do List Clone,Google Play,org.tasks,Z3A6QU9xcFRPRVlGcThQMWpPS0x5cTN3T2I0SW5DS2JaNVRFWnAxdk1XMURIWGQtYTJYRE4xRmUtb2hablRYVkxLcHRSTi0wWHFydlktZm5LOHRuR0M1YlRV,English,,5,2015-08-07,Phil Lawrence,,easy to use with all the feature you need,,
Tasks: Astrid To-Do List Clone,Google Play,org.tasks,Z3A6QU9xcFRPRWV1dmVMLVlHOG4yVlBaaXRLendyVGJzWTFnQ20xQTJQRnZ4b3pLeHVNV3VieFFxYkxwZHVocE4xVzZRTnBaZnZpbGxSSEdERkU0YVAxVU5Z,English,,5,2015-08-07,Marcia Van Wagner,Great app,simple and intuitive,,
Tasks: Astrid To-Do List Clone,Google Play,org.tasks,Z3A6QU9xcFRPR195azM0NERRRFNkRm5KOGZvZ3JBSTlzYTRvU3h5Wkg1dC1TZ2FhLU1sU09UYVo3QUNLRVdVdkFvOW9Qa0cwd21vejZ5bjBXWjZ2YWZhRHNr,English,,5,2015-08-04,Batya Levy,,this is useful and easy to use,,
Tasks: Astrid To-Do List Clone,Google Play,org.tasks,Z3A6QU9xcFRPR195azM0NERRRFNkRm5KOGZvZ3JBSTlzYTRvU3h5Wkg1dC1TZ2FhLU1sU09UYVo3QUNLRVdVdkFvOW9Qa0cwd21vejZ5bjBXWjZ2YWZhRHNr,English,,5,2015-08-04,Batya Levy,,just one thing i used to be able to manually change the order of my task by dragging them around,,
Tasks: Astrid To-Do List Clone,Google Play,org.tasks,Z3A6QU9xcFRPR195azM0NERRRFNkRm5KOGZvZ3JBSTlzYTRvU3h5Wkg1dC1TZ2FhLU1sU09UYVo3QUNLRVdVdkFvOW9Qa0cwd21vejZ5bjBXWjZ2YWZhRHNr,English,,5,2015-08-04,Batya Levy,,but this feature seems to have disappeared,,
Tasks: Astrid To-Do List Clone,Google Play,org.tasks,Z3A6QU9xcFRPR195azM0NERRRFNkRm5KOGZvZ3JBSTlzYTRvU3h5Wkg1dC1TZ2FhLU1sU09UYVo3QUNLRVdVdkFvOW9Qa0cwd21vejZ5bjBXWjZ2YWZhRHNr,English,,5,2015-08-04,Batya Levy,,is it possible to bring feature back,,
Tasks: Astrid To-Do List Clone,Google Play,org.tasks,Z3A6QU9xcFRPR195azM0NERRRFNkRm5KOGZvZ3JBSTlzYTRvU3h5Wkg1dC1TZ2FhLU1sU09UYVo3QUNLRVdVdkFvOW9Qa0cwd21vejZ5bjBXWjZ2YWZhRHNr,English,,5,2015-08-04,Batya Levy,,thanks again for the awesome free,,
Tasks: Astrid To-Do List Clone,Google Play,org.tasks,Z3A6QU9xcFRPR195azM0NERRRFNkRm5KOGZvZ3JBSTlzYTRvU3h5Wkg1dC1TZ2FhLU1sU09UYVo3QUNLRVdVdkFvOW9Qa0cwd21vejZ5bjBXWjZ2YWZhRHNr,English,,5,2015-08-04,Batya Levy,,addendum i did what you and now it work,,
Tasks: Astrid To-Do List Clone,Google Play,org.tasks,Z3A6QU9xcFRPR195azM0NERRRFNkRm5KOGZvZ3JBSTlzYTRvU3h5Wkg1dC1TZ2FhLU1sU09UYVo3QUNLRVdVdkFvOW9Qa0cwd21vejZ5bjBXWjZ2YWZhRHNr,English,,5,2015-08-04,Batya Levy,,thank you again,,
Tasks: Astrid To-Do List Clone,Google Play,org.tasks,Z3A6QU9xcFRPR195azM0NERRRFNkRm5KOGZvZ3JBSTlzYTRvU3h5Wkg1dC1TZ2FhLU1sU09UYVo3QUNLRVdVdkFvOW9Qa0cwd21vejZ5bjBXWjZ2YWZhRHNr,English,,5,2015-08-04,Batya Levy,,you rock,,
Tasks: Astrid To-Do List Clone,Google Play,org.tasks,Z3A6QU9xcFRPSG5jQ0twZ1hhSVY0aWdLR05qazJFYzJBdTZfMUFKSFppQnFiem5IVjB4WldzTnRsay0zbVdMRXJvenFCbWZpNGhCOVM1MmFQRGlJbVBCMGJV,English,,5,2015-08-03,Jeremy Bengtson,Love this app,best task to do list,,
Tasks: Astrid To-Do List Clone,Google Play,org.tasks,Z3A6QU9xcFRPSG5jQ0twZ1hhSVY0aWdLR05qazJFYzJBdTZfMUFKSFppQnFiem5IVjB4WldzTnRsay0zbVdMRXJvenFCbWZpNGhCOVM1MmFQRGlJbVBCMGJV,English,,5,2015-08-03,Jeremy Bengtson,Love this app,prefer it over premium,,
Tasks: Astrid To-Do List Clone,Google Play,org.tasks,Z3A6QU9xcFRPR2NoZndmd19OaVU0X2d4LVZGRFY2SzJvYlZwZU9VeGkweEZtbXVGNzJwY2RSR3ZnX2hnOWpnY095YlRDNVpSb0V6bkNLS3YwZjM0OHgyV2tZ,English,,5,2015-08-03,sungaikantan,Beneficial app,thanks a lot for creating this,,
Tasks: Astrid To-Do List Clone,Google Play,org.tasks,Z3A6QU9xcFRPR2NoZndmd19OaVU0X2d4LVZGRFY2SzJvYlZwZU9VeGkweEZtbXVGNzJwY2RSR3ZnX2hnOWpnY095YlRDNVpSb0V6bkNLS3YwZjM0OHgyV2tZ,English,,5,2015-08-03,sungaikantan,Beneficial app,really help in every task,,
