# deletions,date,commit message
1,2016/4/08,Translated using Weblate (Spanish)  Currently translated at 100.0% (4 of 4 strings)
5,2016/4/13,Translated using Weblate (Russian)  Currently translated at 87.5% (353 of 403 strings)
1,2016/4/13,Bump to next alpha version  Signed-off-by: Daniele Ricci <daniele.athome@gmail.com>
23,2016/4/13,Show version warning only if version changed  Also ask version only to available and present resources.  Signed-off-by: Daniele Ricci <daniele.athome@gmail.com>
2,2016/4/13,Fix text share from faulty apps  Signed-off-by: Daniele Ricci <daniele.athome@gmail.com>
2,2016/4/12,Bump to next alpha version  Signed-off-by: Daniele Ricci <daniele.athome@gmail.com>
7,2016/4/12,Temporarily drop netcipher for HTTPS connections  Signed-off-by: Daniele Ricci <daniele.athome@gmail.com>
1,2016/4/12,Catch-all for weird Android versions (fix #680)  Signed-off-by: Daniele Ricci <daniele.athome@gmail.com>
1,2016/4/09,Translated using Weblate (Simplified Chinese)  Currently translated at 100.0% (403 of 403 strings)
1,2016/4/08,Translated using Weblate (Spanish)  Currently translated at 100.0% (4 of 4 strings)
32,2016/4/09,Translated using Weblate (Serbian)  Currently translated at 99.5% (401 of 403 strings)
4,2016/4/09,Translated using Weblate (Simplified Chinese)  Currently translated at 100.0% (4 of 4 strings)
1,2016/4/12,Translated using Weblate (Persian)  Currently translated at 26.3% (106 of 403 strings)
4,2016/4/09,Translated using Weblate (German)  Currently translated at 100.0% (4 of 4 strings)
4,2016/4/07,Translated using Weblate (English)  Currently translated at 100.0% (4 of 4 strings)
1,2016/4/12,Skip users without fingerprint (fix #678)  Signed-off-by: Daniele Ricci <daniele.athome@gmail.com>
2,2016/4/07,Releasing version 3.1.5  Signed-off-by: Daniele Ricci <daniele.athome@gmail.com>
4,2016/4/07,Load avatar for messages asynchronously (fix #673)  Signed-off-by: Daniele Ricci <daniele.athome@gmail.com>
6,2016/4/07,Fix message width issue in RTL languages (fix #653)  Signed-off-by: Daniele Ricci <daniele.athome@gmail.com>
4,2016/4/07,Fallback to old behaviour for retrieving avatar (fix #671)  Signed-off-by: Daniele Ricci <daniele.athome@gmail.com>
