# deletions,date,commit message
1,2013/3/29,Icons Change  Smile and Refresh icon change.  Signed-off-by: Andrea Cappelli <a.cappelli87@gmail.com>
1,2013/3/29,Add some more Emojis  Signed-off-by: Daniele Ricci <daniele.athome@gmail.com>
0,2013/3/28,Upgrade asmack  Signed-off-by: Daniele Ricci <daniele.athome@gmail.com>
33,2013/3/26,Fix #35: action bar back button restored in conversation list  Signed-off-by: Daniele Ricci <daniele.athome@gmail.com>
30,2013/3/26,Fix #35: action bar back button restored in conversation list  Signed-off-by: Daniele Ricci <daniele.athome@gmail.com>
1,2013/3/26,Add a few emojis  Signed-off-by: Daniele Ricci <daniele.athome@gmail.com>
28,2013/3/25,Fix #37: remove global encryption key preference  Signed-off-by: Daniele Ricci <daniele.athome@gmail.com>
29,2013/3/25,Fix #37: remove global encryption key preference  Signed-off-by: Daniele Ricci <daniele.athome@gmail.com>
3,2013/3/25,Fix #34: start GCM registration cycle if sender ID changes  Signed-off-by: Daniele Ricci <daniele.athome@gmail.com>
3,2013/3/25,Fix #34 but needs heavy testing  Signed-off-by: Daniele Ricci <daniele.athome@gmail.com>
68,2013/3/24,Removing pause/focus workaround (needs other refactoring)  Signed-off-by: Daniele Ricci <daniele.athome@gmail.com>
2,2013/3/24,Handle validation request throttling  Signed-off-by: Daniele Ricci <daniele.athome@gmail.com>
45,2013/3/22,Fix NPE during SIM contacts query for some phones  Signed-off-by: Daniele Ricci <daniele.athome@gmail.com>
45,2013/3/22,Fix NPE during SIM contacts query for some phones  Signed-off-by: Daniele Ricci <daniele.athome@gmail.com>
1,2013/3/20,Very dirty workaround for issue #28  Signed-off-by: Daniele Ricci <daniele.athome@gmail.com>
1,2013/3/20,Fix i18n misspelling  Signed-off-by: Daniele Ricci <daniele.athome@gmail.com>
2,2013/3/20,Fix i18n misspelling  Signed-off-by: Daniele Ricci <daniele.athome@gmail.com>
1,2013/3/20,Show sending status instead of using sent  Signed-off-by: Daniele Ricci <daniele.athome@gmail.com>
1,2013/3/20,i18n misspelling  Signed-off-by: Daniele Ricci <daniele.athome@gmail.com>
5,2013/3/20,Show sending status instead of using sent  Signed-off-by: Daniele Ricci <daniele.athome@gmail.com>
1,2013/3/20,Restore reference to external ActionBarSherlock  Signed-off-by: Daniele Ricci <daniele.athome@gmail.com>
3,2013/3/20,Remove submodule ActionBarSherlock  Signed-off-by: Daniele Ricci <daniele.athome@gmail.com>
1,2013/3/20,Remove submodule ActionBarSherlock  Signed-off-by: Daniele Ricci <daniele.athome@gmail.com>
1,2013/3/20,Bump version code to 23 due to GCM registration ID issue  Signed-off-by: Daniele Ricci <daniele.athome@gmail.com>
0,2013/3/18,Upgrade asmack  Signed-off-by: Daniele Ricci <daniele.athome@gmail.com>
1,2013/3/17,Setup ActionBarSherlock as submodule  Signed-off-by: Daniele Ricci <daniele.athome@gmail.com>
3,2013/3/13,Testing code for message layout  Signed-off-by: Daniele Ricci <daniele.athome@gmail.com>
1,2013/3/12,Typo  Signed-off-by: Daniele Ricci <daniele.athome@gmail.com>
7,2013/3/12,Replace enum calls to to String() with name()  Signed-off-by: Daniele Ricci <daniele.athome@gmail.com>
109,2013/3/12,Take only (un)available presence stanzas during user lookup  Signed-off-by: Daniele Ricci <daniele.athome@gmail.com>
7,2013/3/11,Fix #10: going to landscape from portrait goes back to conversation list  Signed-off-by: Daniele Ricci <daniele.athome@gmail.com>
7,2013/3/11,Fix #10: going to landscape from portrait goes back to conversation list  Signed-off-by: Daniele Ricci <daniele.athome@gmail.com>
4,2013/3/11,Send multiple images (needs testing)  Signed-off-by: Daniele Ricci <daniele.athome@gmail.com>
15,2013/3/11,Queued delivery of attachments (needs heavy testing)  Signed-off-by: Daniele Ricci <daniele.athome@gmail.com>
0,2013/3/11,Upgrade libphonenumber  Signed-off-by: Daniele Ricci <daniele.athome@gmail.com>
0,2013/3/11,Upgrade libphonenumber  Signed-off-by: Daniele Ricci <daniele.athome@gmail.com>
9,2013/3/10,Share multiple attachments at once (still working on it)  Signed-off-by: Daniele Ricci <daniele.athome@gmail.com>
207,2013/3/10,Legacy code clean  Signed-off-by: Daniele Ricci <daniele.athome@gmail.com>
58,2013/3/10,Fix idle connection handler behavior  Signed-off-by: Daniele Ricci <daniele.athome@gmail.com>
0,2013/3/10,Upgrade asmack  Signed-off-by: Daniele Ricci <daniele.athome@gmail.com>
6,2013/3/10,Handle some concurrency issues  Signed-off-by: Daniele Ricci <daniele.athome@gmail.com>
1,2013/3/09,Do not disconnect() on main thread  Signed-off-by: Daniele Ricci <daniele.athome@gmail.com>
480,2013/3/09,Refactoring connection handling  Signed-off-by: Daniele Ricci <daniele.athome@gmail.com>
1,2013/3/09,THANKS++  Signed-off-by: Daniele Ricci <daniele.athome@gmail.com>
1,2013/3/09,THANKS++  Signed-off-by: Daniele Ricci <daniele.athome@gmail.com>
11,2013/3/09,Contact cache now uses LruCache  Signed-off-by: Daniele Ricci <daniele.athome@gmail.com>
0,2013/3/09,Android support library upgrade  Signed-off-by: Daniele Ricci <daniele.athome@gmail.com>
0,2013/3/09,Android support library upgrade  Signed-off-by: Daniele Ricci <daniele.athome@gmail.com>
4,2013/3/06,Optimize number lookup for new numbers and non-registered users  Signed-off-by: Daniele Ricci <daniele.athome@gmail.com>
7,2013/3/05,Ensure correct delivery order of messages (should be refactored anyway)  Signed-off-by: Daniele Ricci <daniele.athome@gmail.com>
0,2013/3/05,Upgrade asmack  Signed-off-by: Daniele Ricci <daniele.athome@gmail.com>
6,2013/3/05,Still some work to be done about requeuing media messages  Signed-off-by: Daniele Ricci <daniele.athome@gmail.com>
3,2013/3/05,Request upload info and post URI  Signed-off-by: Daniele Ricci <daniele.athome@gmail.com>
48,2013/3/04,Reuse AbstractMessage abstraction  Signed-off-by: Daniele Ricci <daniele.athome@gmail.com>
11,2013/3/04,Basic media exchange  Signed-off-by: Daniele Ricci <daniele.athome@gmail.com>
2,2013/3/04,Code clean  Signed-off-by: Daniele Ricci <daniele.athome@gmail.com>
0,2013/3/03,Upgrade asmack  Signed-off-by: Daniele Ricci <daniele.athome@gmail.com>
3,2013/3/03,Finally delivering media files (still a lot to be done however)  Signed-off-by: Daniele Ricci <daniele.athome@gmail.com>
18,2013/3/03,Some progress on upload  Signed-off-by: Daniele Ricci <daniele.athome@gmail.com>
21,2013/3/02,First lines of an upload service  Request upload info  Signed-off-by: Daniele Ricci <daniele.athome@gmail.com>
1,2013/3/01,Close input method after IME send  Signed-off-by: Daniele Ricci <daniele.athome@gmail.com>
6,2013/3/01,Close input method after IME send  Signed-off-by: Daniele Ricci <daniele.athome@gmail.com>
2,2013/3/01,Reload conversation on resume  Signed-off-by: Daniele Ricci <daniele.athome@gmail.com>
8,2013/3/01,Use new Notification API
126,2013/2/27,Skeleton for media upload implementation  Signed-off-by: Daniele Ricci <daniele.athome@gmail.com>
164,2013/2/26,Handle message sending errors  Signed-off-by: Daniele Ricci <daniele.athome@gmail.com>
2,2013/2/26,Test server is now hosted on Kontalk prime server  Signed-off-by: Daniele Ricci <daniele.athome@gmail.com>
40,2013/2/26,Setup message center for sending media  Signed-off-by: Daniele Ricci <daniele.athome@gmail.com>
1,2013/2/26,Retrieve supported upload services  Signed-off-by: Daniele Ricci <daniele.athome@gmail.com>
5,2013/2/26,TODO++  Signed-off-by: Daniele Ricci <daniele.athome@gmail.com>
25,2013/2/25,TODO++  Signed-off-by: Daniele Ricci <daniele.athome@gmail.com>
8,2013/2/25,Porting to new Notification API  Signed-off-by: Daniele Ricci <daniele.athome@gmail.com>
6,2013/2/25,Reload conversation on resume  Signed-off-by: Daniele Ricci <daniele.athome@gmail.com>
4,2013/2/25,Try both legacy and new delay extensions  Signed-off-by: Daniele Ricci <daniele.athome@gmail.com>
1,2013/2/25,Abort start while in offline mode  Signed-off-by: Daniele Ricci <daniele.athome@gmail.com>
0,2013/2/23,aSmack upgrade  Signed-off-by: Daniele Ricci <daniele.athome@gmail.com>
1,2013/2/20,Fix NPE on service onDestroy  Signed-off-by: Daniele Ricci <daniele.athome@gmail.com>
1,2013/2/20,Do close connection when we have to  Signed-off-by: Daniele Ricci <daniele.athome@gmail.com>
3,2013/2/19,Enforce use of chat state notifications on certain conditions  Signed-off-by: Daniele Ricci <daniele.athome@gmail.com>
8,2013/2/18,Preference for disabling chat state notifications  Signed-off-by: Daniele Ricci <daniele.athome@gmail.com>
1,2013/2/17,Add chat state only if requested  Signed-off-by: Daniele Ricci <daniele.athome@gmail.com>
10,2013/2/17,Composing notification  Fix connection concurrency bug (just a workaround for now)  Signed-off-by: Daniele Ricci <daniele.athome@gmail.com>
6,2013/2/17,Fix host string parsing  Signed-off-by: Daniele Ricci <daniele.athome@gmail.com>
4,2013/2/17,i18n  Signed-off-by: Daniele Ricci <daniele.athome@gmail.com>
6,2013/2/17,Fix build errors  Signed-off-by: Daniele Ricci <daniele.athome@gmail.com>
0,2013/2/17,Upgrade from most recent asmack sources  Signed-off-by: Daniele Ricci <daniele.athome@gmail.com>
1,2013/2/12,Handle occasional connection error race conditions  Signed-off-by: Daniele Ricci <daniele.athome@gmail.com>
8,2013/2/07,Fix redundant available resource handling  Signed-off-by: Daniele Ricci <daniele.athome@gmail.com>
1,2013/2/07,Send restart message only while not in connecting state  Signed-off-by: Daniele Ricci <daniele.athome@gmail.com>
10,2013/2/07,Network name in server endpoint and server list  Signed-off-by: Daniele Ricci <daniele.athome@gmail.com>
7,2013/2/07,Some cleaning and comments  Signed-off-by: Daniele Ricci <daniele.athome@gmail.com>
25,2013/2/07,Sync: consider presences received only after roster response  Signed-off-by: Daniele Ricci <daniele.athome@gmail.com>
1,2013/2/07,Store message id found in receipt request  Signed-off-by: Daniele Ricci <daniele.athome@gmail.com>
1,2013/2/03,isConnected checking for authentication instead of connection status  Signed-off-by: Daniele Ricci <daniele.athome@gmail.com>
0,2013/2/03,Libs upgrade  Signed-off-by: Daniele Ricci <daniele.athome@gmail.com>
4,2013/2/02,Catch-all block for coping with null socket  Signed-off-by: Daniele Ricci <daniele.athome@gmail.com>
14,2013/1/24,Implementing push notifications via GCM  Signed-off-by: Daniele Ricci <daniele.athome@gmail.com>
20,2013/1/24,Fix some concurrency issues  Signed-off-by: Daniele Ricci <daniele.athome@gmail.com>
1,2013/1/24,Be sure to interrupt the handler thread when restarting/shutting down  Signed-off-by: Daniele Ricci <daniele.athome@gmail.com>
1,2013/1/19,Fix network on main thread  Signed-off-by: Daniele Ricci <daniele.athome@gmail.com>
1,2013/1/19,Fix contacts vanishing bug  Signed-off-by: Daniele Ricci <daniele.athome@gmail.com>
1,2013/1/19,Fix contacts vanishing bug  Signed-off-by: Daniele Ricci <daniele.athome@gmail.com>
4,2013/1/19,Correctly handling network absence  Signed-off-by: Daniele Ricci <daniele.athome@gmail.com>
20,2013/1/19,Small fixes to sync procedure  Signed-off-by: Daniele Ricci <daniele.athome@gmail.com>
3,2013/1/18,Fixing correct idle behaviour  Signed-off-by: Daniele Ricci <daniele.athome@gmail.com>
4,2013/1/18,Fix some references to legacy code  Signed-off-by: Daniele Ricci <daniele.athome@gmail.com>
1,2013/1/18,Do not close Socket.close just shutdown both channels  Signed-off-by: Daniele Ricci <daniele.athome@gmail.com>
4,2013/1/18,Revert "Remove some unnecessary synchronized"  This reverts commit 4ebac74ce5fba7706cbc971ad60a62905f2f5c6c.
4,2013/1/14,Remove some unnecessary synchronized  Signed-off-by: Daniele Ricci <daniele.athome@gmail.com>
30,2013/1/08,Fix camera image path bug  Signed-off-by: Daniele Ricci <daniele.athome@gmail.com>
56,2013/1/07,Server timestamp is now INTEGER  Signed-off-by: Daniele Ricci <daniele.athome@gmail.com>
1,2013/1/07,Apply message list item height workaround only to ICS  Signed-off-by: Daniele Ricci <daniele.athome@gmail.com>
1,2013/1/07,Build API level is now 17  Signed-off-by: Daniele Ricci <daniele.athome@gmail.com>
1,2013/1/07,Workaround message list item height bug  Signed-off-by: Daniele Ricci <daniele.athome@gmail.com>
2,2013/1/07,Started working on revision 22 (2.2.6)  Signed-off-by: Daniele Ricci <daniele.athome@gmail.com>
4,2013/1/07,Treat empty status message  Signed-off-by: Daniele Ricci <daniele.athome@gmail.com>
20,2013/1/03,Temporary workaround for smiley popup resize over input method  Signed-off-by: Daniele Ricci <daniele.athome@gmail.com>
20,2013/1/03,Temporary workaround for smiley popup resize over input method  Signed-off-by: Daniele Ricci <daniele.athome@gmail.com>
7,2013/1/03,Using a (very ugly) red ninepatch for date when using background image  Signed-off-by: Daniele Ricci <daniele.athome@gmail.com>
42,2013/1/02,Convert emoji dialog to quick action popup  Signed-off-by: Daniele Ricci <daniele.athome@gmail.com>
41,2013/1/02,Smileys dialog converted to quick action popup  Signed-off-by: Daniele Ricci <daniele.athome@gmail.com>
0,2013/1/02,Resize all emoji to 48x48  Signed-off-by: Daniele Ricci <daniele.athome@gmail.com>
0,2013/1/02,Resize all emoji to 48x48  Signed-off-by: Daniele Ricci <daniele.athome@gmail.com>
2,2012/12/31,Temporarily resize emoji in dialog to 40dp  Signed-off-by: Daniele Ricci <daniele.athome@gmail.com>
2,2012/12/31,Temporarily resize emoji in dialog to 40dp  Signed-off-by: Daniele Ricci <daniele.athome@gmail.com>
23,2012/12/31,Show indeterminate progress only when resuming composer  Signed-off-by: Daniele Ricci <daniele.athome@gmail.com>
7,2012/12/31,Backport some fixes in manifest from xmpp branch  Signed-off-by: Daniele Ricci <daniele.athome@gmail.com>
2,2012/12/31,Check for buggy firmwares with SIM contacts issues  Signed-off-by: Daniele Ricci <daniele.athome@gmail.com>
6,2012/12/31,Fix padding in emoji dialog  Signed-off-by: Daniele Ricci <daniele.athome@gmail.com>
6,2012/12/31,Fix emoji dialog layout  Signed-off-by: Daniele Ricci <daniele.athome@gmail.com>
138,2012/12/30,Just some code cleaning  Signed-off-by: Daniele Ricci <daniele.athome@gmail.com>
13,2012/12/30,Fix offline mode preference  Signed-off-by: Daniele Ricci <daniele.athome@gmail.com>
28,2012/12/30,A few intent fixes  Signed-off-by: Daniele Ricci <daniele.athome@gmail.com>
7,2012/12/30,Temporary workaround for picture taking crash  Signed-off-by: Daniele Ricci <daniele.athome@gmail.com>
1,2012/12/30,Skip SIM contacts in buggy firmwares  Signed-off-by: Daniele Ricci <daniele.athome@gmail.com>
1,2012/12/30,Set permanent debug for the time being  Signed-off-by: Daniele Ricci <daniele.athome@gmail.com>
4,2012/12/30,Fix mime types  Signed-off-by: Daniele Ricci <daniele.athome@gmail.com>
13,2012/12/30,Contacts list should listen for sync start too  Signed-off-by: Daniele Ricci <daniele.athome@gmail.com>
8,2012/12/30,Do not re-enable controls in code validation  Signed-off-by: Daniele Ricci <daniele.athome@gmail.com>
2,2012/12/29,Cleaning  Signed-off-by: Daniele Ricci <daniele.athome@gmail.com>
22,2012/12/29,Broadcast CONNECTED on request (for sync...)  Signed-off-by: Daniele Ricci <daniele.athome@gmail.com>
9,2012/12/29,Custom connection configuration  Signed-off-by: Daniele Ricci <daniele.athome@gmail.com>
2,2012/12/29,Entering debug testing  Signed-off-by: Daniele Ricci <daniele.athome@gmail.com>
1,2012/12/29,Be careful when account is not present  Signed-off-by: Daniele Ricci <daniele.athome@gmail.com>
6,2012/12/29,Register sync receiver in contacts list if syncing  Signed-off-by: Daniele Ricci <daniele.athome@gmail.com>
3,2012/12/29,Make status message activity work again  Signed-off-by: Daniele Ricci <daniele.athome@gmail.com>
1,2012/12/29,Sync: consider roster with no elements  Signed-off-by: Daniele Ricci <daniele.athome@gmail.com>
16,2012/12/29,Restore and fix boot and network receivers  Signed-off-by: Daniele Ricci <daniele.athome@gmail.com>
16,2012/12/29,Show indeterminate progress only when resuming fragment  Signed-off-by: Daniele Ricci <daniele.athome@gmail.com>
27,2012/12/29,Fix some issues with from/to JID parse  Signed-off-by: Daniele Ricci <daniele.athome@gmail.com>
3,2012/12/29,Enable/disable application components when adding/removing account  Signed-off-by: Daniele Ricci <daniele.athome@gmail.com>
1,2012/12/28,Forgot to check against null  Signed-off-by: Daniele Ricci <daniele.athome@gmail.com>
6,2012/12/28,Incoming message decryption  Signed-off-by: Daniele Ricci <daniele.athome@gmail.com>
1,2012/12/28,Start bootstrap preferences if no account is found  Signed-off-by: Daniele Ricci <daniele.athome@gmail.com>
1,2012/12/28,Catch other errors  Signed-off-by: Daniele Ricci <daniele.athome@gmail.com>
19,2012/12/28,Backporting some stuff from master  Signed-off-by: Daniele Ricci <daniele.athome@gmail.com>
41,2012/12/28,Outgoing text message encryption  Signed-off-by: Daniele Ricci <daniele.athome@gmail.com>
30,2012/12/28,Drop some legacy code  Signed-off-by: Daniele Ricci <daniele.athome@gmail.com>
47,2012/12/28,Presence subscription and probe  Signed-off-by: Daniele Ricci <daniele.athome@gmail.com>
3,2012/12/28,Rantoli.....  Signed-off-by: Daniele Ricci <daniele.athome@gmail.com>
64,2012/12/27,Presence subscriptions (stilly roughly working)  Signed-off-by: Daniele Ricci <daniele.athome@gmail.com>
10,2012/12/27,Working last activity from composer  Signed-off-by: Daniele Ricci <daniele.athome@gmail.com>
162,2012/12/27,Presence subscription request  Signed-off-by: Daniele Ricci <daniele.athome@gmail.com>
6,2012/12/27,Do not check if sync is active during sync :D  Signed-off-by: Daniele Ricci <daniele.athome@gmail.com>
6,2012/12/27,Lock progress as soon as finishLogin is called  Signed-off-by: Daniele Ricci <daniele.athome@gmail.com>
746,2012/12/27,Rename all packages to xmpp  Refactoring registration Removed SyncerUI in favour of local broadcast by SyncAdapter  Signed-off-by: Daniele Ricci <daniele.athome@gmail.com>
10,2012/12/27,Allow to run together with old Kontalk  Signed-off-by: Daniele Ricci <daniele.athome@gmail.com>
7,2012/12/26,Do not force close connection send quit signal to handler instead  Signed-off-by: Daniele Ricci <daniele.athome@gmail.com>
8,2012/12/26,Message confirmation  Signed-off-by: Daniele Ricci <daniele.athome@gmail.com>
14,2012/12/26,Restart on connection error  Signed-off-by: Daniele Ricci <daniele.athome@gmail.com>
24,2012/12/25,Use sync connect in number validation  Signed-off-by: Daniele Ricci <daniele.athome@gmail.com>
101,2012/12/24,Registration roughly working  Signed-off-by: Daniele Ricci <daniele.athome@gmail.com>
3,2012/12/24,Just playing with in-band registration  Signed-off-by: Daniele Ricci <daniele.athome@gmail.com>
91,2012/12/23,Switching name to Kontalk XMPP  First attempts with registration  Signed-off-by: Daniele Ricci <daniele.athome@gmail.com>
1,2012/12/22,Project target is now API level 17  Signed-off-by: Daniele Ricci <daniele.athome@gmail.com>
3,2012/12/21,Support for data usage settings button  Start working on version 2.2.5  Signed-off-by: Daniele Ricci <daniele.athome@gmail.com>
5,2012/12/06,Very basic incoming messages processing  Signed-off-by: Daniele Ricci <daniele.athome@gmail.com>
3,2012/12/06,Delivery receipts  Signed-off-by: Daniele Ricci <daniele.athome@gmail.com>
59,2012/12/05,Some little manifest changes  Signed-off-by: Daniele Ricci <daniele.athome@gmail.com>
8,2012/12/05,First tests with delivery receipts  Signed-off-by: Daniele Ricci <daniele.athome@gmail.com>
128,2012/12/05,Message delivery tests  Signed-off-by: Daniele Ricci <daniele.athome@gmail.com>
102,2012/12/05,Syncer working again using a special roster command and presences  Signed-off-by: Daniele Ricci <daniele.athome@gmail.com>
18,2012/12/04,Some experiments with Syncer  Signed-off-by: Daniele Ricci <daniele.athome@gmail.com>
991,2012/12/03,Refactoring message center from scratch  Signed-off-by: Daniele Ricci <daniele.athome@gmail.com>
3,2012/12/02,Bugfix release 20 (2.2.4)  Signed-off-by: Daniele Ricci <daniele.athome@gmail.com>
18175,2012/11/29,It's a mess and IT DOESN'T WORK  Signed-off-by: Daniele Ricci <daniele.athome@gmail.com>
8,2012/11/27,Fix SMS broadcast receiver issue  Signed-off-by: Daniele Ricci <daniele.athome@gmail.com>
10,2012/11/27,Fix menu items issues with Android level 17  Signed-off-by: Daniele Ricci <daniele.athome@gmail.com>
3,2012/11/27,Working on version 19 (2.2.3)  Signed-off-by: Daniele Ricci <daniele.athome@gmail.com>
4,2012/11/24,Check number length after removing dial prefix  Signed-off-by: Daniele Ricci <daniele.athome@gmail.com>
2,2012/11/23,User-defined dial prefix removed when syncing  Signed-off-by: Daniele Ricci <daniele.athome@gmail.com>
0,2012/11/23,Android support library upgrade  Signed-off-by: Daniele Ricci <daniele.athome@gmail.com>
2,2012/11/08,Restoring MANAGE_ACCOUNTS permission for removing account when confirming credentials  Signed-off-by: Daniele Ricci <daniele.athome@gmail.com>
10,2012/10/29,Fix concurrency issue while registering (screen rotation)  Signed-off-by: Daniele Ricci <daniele.athome@gmail.com>
1,2012/10/29,Do not try to encrypt null status message  Signed-off-by: Daniele Ricci <daniele.athome@gmail.com>
17,2012/10/26,Using eye emblem instead of last seen text  Signed-off-by: Daniele Ricci <daniele.athome@gmail.com>
0,2012/10/23,Eyes icon for last seen text  Signed-off-by: Daniele Ricci <daniele.athome@gmail.com>
2,2012/10/23,Begin work on version 18 (2.2.2)   Signed-off-by: Daniele Ricci <daniele.athome@gmail.com>
23,2012/10/17,Fix protocol  Signed-off-by: Daniele Ricci <daniele.athome@gmail.com>
0,2012/10/16,Upgrade libphonenumber to 5.2  Signed-off-by: Daniele Ricci <daniele.athome@gmail.com>
1,2012/10/15,Fix i18n  Signed-off-by: Daniele Ricci <daniele.athome@gmail.com>
19,2012/10/15,Revised German translation
2,2012/10/15,Work on 2.2.1 began on f49cb824a0891a9561fa568b785d8159bcc2d999  Signed-off-by: Daniele Ricci <daniele.athome@gmail.com>
1,2012/10/15,Decrypt status message also in other contexts  Signed-off-by: Daniele Ricci <daniele.athome@gmail.com>
11,2012/10/13,Check for GCM support on device  Signed-off-by: Daniele Ricci <daniele.athome@gmail.com>
5,2012/10/08,Added new labels in spanish.  Signed-off-by: Giovanni Palleschi <gpalleschi@gmail.com>
4,2012/10/05,Use user phone number to decrypt status messages  Signed-off-by: Daniele Ricci <daniele.athome@gmail.com>
22,2012/10/04,Remove deprecated menu  Signed-off-by: Daniele Ricci <daniele.athome@gmail.com>
1,2012/10/04,Offline mode warning flag is no more a booleanOnce  Signed-off-by: Daniele Ricci <daniele.athome@gmail.com>
6,2012/10/04,Fix Lint checks  Signed-off-by: Daniele Ricci <daniele.athome@gmail.com>
22,2012/10/04,Mailbox protocol: deliver multiple messages on login  Signed-off-by: Daniele Ricci <daniele.athome@gmail.com>
5,2012/10/02,Encrypt/decrypt status message  Signed-off-by: Daniele Ricci <daniele.athome@gmail.com>
2,2012/10/02,Deactivate cursor onStop  Signed-off-by: Daniele Ricci <daniele.athome@gmail.com>
2,2012/10/02,Select status message from list  Signed-off-by: Daniele Ricci <daniele.athome@gmail.com>
11,2012/10/02,Recently used status messages  Signed-off-by: Daniele Ricci <daniele.athome@gmail.com>
11,2012/10/01,Emphatize cleartext messages  Signed-off-by: Daniele Ricci <daniele.athome@gmail.com>
21,2012/10/01,Invert ok/cancel on status dialog for API >= 14  Signed-off-by: Daniele Ricci <daniele.athome@gmail.com>
1,2012/10/01,Messages database version 4: add index to timestamp column for sorting  Signed-off-by: Daniele Ricci <daniele.athome@gmail.com>
5,2012/10/01,Fix smiley dialog layout  Signed-off-by: Daniele Ricci <daniele.athome@gmail.com>
1,2012/9/29,TODO++  Signed-off-by: Daniele Ricci <daniele.athome@gmail.com>
0,2012/9/29,Now using check/double check icons for message delivery status  Signed-off-by: Daniele Ricci <daniele.athome@gmail.com>
7,2012/9/27,Fix SIM contacts reading  Signed-off-by: Daniele Ricci <daniele.athome@gmail.com>
73,2012/9/27,Using simple label for message timestamp  Signed-off-by: Daniele Ricci <daniele.athome@gmail.com>
9,2012/9/27,Read contacts from SIM while syncing users table (TESTING NEEDED)  Signed-off-by: Daniele Ricci <daniele.athome@gmail.com>
1,2012/9/26,Switching to version 2.2  Signed-off-by: Daniele Ricci <daniele.athome@gmail.com>
10,2012/9/26,Update user flags on hide presence preference change  Signed-off-by: Daniele Ricci <daniele.athome@gmail.com>
5,2012/9/26,i18n/TODO  Signed-off-by: Daniele Ricci <daniele.athome@gmail.com>
12,2012/9/26,Offline mode  Signed-off-by: Daniele Ricci <daniele.athome@gmail.com>
24,2012/9/25,Privacy settings and hide presence mode  Signed-off-by: Daniele Ricci <daniele.athome@gmail.com>
134,2012/9/25,New login procedure  Signed-off-by: Daniele Ricci <daniele.athome@gmail.com>
123,2012/9/25,Small changes to protocol revision 4  Signed-off-by: Daniele Ricci <daniele.athome@gmail.com>
2,2012/9/24,Make also the subject text view bold if there are unread messages  Signed-off-by: Daniele Ricci <daniele.athome@gmail.com>
10,2012/9/24,Emoji group 1 (smiley) completed  Signed-off-by: Daniele Ricci <daniele.athome@gmail.com>
73,2012/9/24,Still mapping emojis  Signed-off-by: Daniele Ricci <daniele.athome@gmail.com>
52,2012/9/24,Remapping emojis using SparseIntArray  Signed-off-by: Daniele Ricci <daniele.athome@gmail.com>
1,2012/9/23,Be sure to requeue failed messages in the right order  Signed-off-by: Daniele Ricci <daniele.athome@gmail.com>
1,2012/9/23,Very basic offline mode  Signed-off-by: Daniele Ricci <daniele.athome@gmail.com>
387,2012/9/23,Removing Mailbox protocol message  Signed-off-by: Daniele Ricci <daniele.athome@gmail.com>
3,2012/9/23,Compliance to protocol revision 4  Signed-off-by: Daniele Ricci <daniele.athome@gmail.com>
8,2012/9/23,Do not trigger notification update for currently opened conversations  Signed-off-by: Daniele Ricci <daniele.athome@gmail.com>
8,2012/9/21,Clean old code  Signed-off-by: Daniele Ricci <daniele.athome@gmail.com>
1,2012/9/21,Use editable size smiley for message list items  Signed-off-by: Daniele Ricci <daniele.athome@gmail.com>
3,2012/9/21,Fix smiley span bug - actually seemed like Android bug but whatever...  Signed-off-by: Daniele Ricci <daniele.athome@gmail.com>
13,2012/9/21,Do not get in the way of other spans while converting smileys  Signed-off-by: Daniele Ricci <daniele.athome@gmail.com>
8,2012/9/20,Fix emoji encoding  Signed-off-by: Daniele Ricci <daniele.athome@gmail.com>
1,2012/9/20,Fix displaying emoji  Signed-off-by: Daniele Ricci <daniele.athome@gmail.com>
24,2012/9/20,Beginning to remap emoji to their respective unicodes  Signed-off-by: Daniele Ricci <daniele.athome@gmail.com>
8,2012/9/19,More emoji mappings  Signed-off-by: Daniele Ricci <daniele.athome@gmail.com>
39,2012/9/19,Move Emoji stuff in its own class  Signed-off-by: Daniele Ricci <daniele.athome@gmail.com>
3,2012/9/19,Skip unknown emoji codes  Signed-off-by: Daniele Ricci <daniele.athome@gmail.com>
0,2012/9/19,Clean duplicate emojis  Signed-off-by: Daniele Ricci <daniele.athome@gmail.com>
6,2012/9/19,Using 32x32 pixels emoji icons  Still issues with smiley dialog layout on different screen densities  Signed-off-by: Daniele Ricci <daniele.athome@gmail.com>
1,2012/9/19,Smiley dialog icon size is now 32dp  Signed-off-by: Daniele Ricci <daniele.athome@gmail.com>
3,2012/9/19,Better smiley actionbar icon (still temporary)  Signed-off-by: Daniele Ricci <daniele.athome@gmail.com>
201,2012/9/18,Initial emoji support  Signed-off-by: Daniele Ricci <daniele.athome@gmail.com>
10,2012/9/18,Basic smiley support  Signed-off-by: Daniele Ricci <daniele.athome@gmail.com>
7,2012/9/17,Check if contacted server declares to be able to generate auth tokens  Signed-off-by: Daniele Ricci <daniele.athome@gmail.com>
5,2012/9/13,Small optimizations  Signed-off-by: Daniele Ricci <daniele.athome@gmail.com>
17,2012/9/13,Checking number input also on validation code button  Signed-off-by: Daniele Ricci <daniele.athome@gmail.com>
3,2012/9/13,Try to use own number retrived from SIM in validation  Signed-off-by: Daniele Ricci <daniele.athome@gmail.com>
11,2012/9/13,Optimized version of deleteDatabase  Signed-off-by: Daniele Ricci <daniele.athome@gmail.com>
21,2012/9/13,Do not sync contacts on bootstrap - after registration sync would occur  Signed-off-by: Daniele Ricci <daniele.athome@gmail.com>
51,2012/9/12,Avoid unnecessary message center starts  Signed-off-by: Daniele Ricci <daniele.athome@gmail.com>
0,2012/9/12,Upgrade libphonenumber to 5.1  Signed-off-by: Daniele Ricci <daniele.athome@gmail.com>
0,2012/9/09,Trying new sent and pending icons  Signed-off-by: Daniele Ricci <daniele.athome@gmail.com>
3,2012/9/07,Cleaning resources  Signed-off-by: Daniele Ricci <daniele.athome@gmail.com>
0,2012/9/07,New icon set for actionbar items  Signed-off-by: Daniele Ricci <daniele.athome@gmail.com>
0,2012/9/06,Fixing some icons  Signed-off-by: Daniele Ricci <daniele.athome@gmail.com>
0,2012/9/06,Restoring original application icon  Signed-off-by: Daniele Ricci <daniele.athome@gmail.com>
0,2012/9/06,Cleaning Mac stuff  Signed-off-by: Daniele Ricci <daniele.athome@gmail.com>
2,2012/9/06,New UI Icons
4,2012/9/06,Manual validation without requesting SMS  Signed-off-by: Daniele Ricci <daniele.athome@gmail.com>
9,2012/8/26,TODO++  Signed-off-by: Daniele Ricci <daniele.athome@gmail.com>
12,2012/8/26,Compose and search menu items restored  Signed-off-by: Daniele Ricci <daniele.athome@gmail.com>
0,2012/8/26,Right size preferences icon  Signed-off-by: Daniele Ricci <daniele.athome@gmail.com>
2,2012/8/26,Begin work on 2.1.2  Signed-off-by: Daniele Ricci <daniele.athome@gmail.com>
1,2012/8/25,Cleaning testing stuff  Signed-off-by: Daniele Ricci <daniele.athome@gmail.com>
6,2012/8/25,Fix i18n  Signed-off-by: Daniele Ricci <daniele.athome@gmail.com>
15,2012/8/25,Handle timeout while waiting for validation SMS  Handle configuration changes in CodeValidation too  Signed-off-by: Daniele Ricci <daniele.athome@gmail.com>
1,2012/8/25,Releasing minor revision switching back to 2.1(.1)  Signed-off-by: Daniele Ricci <daniele.athome@gmail.com>
3,2012/8/24,Removing a few synchronized  Object lock on UsersProvider.update() prevented updates while resyncing contacts  Signed-off-by: Daniele Ricci <daniele.athome@gmail.com>
0,2012/8/24,Revert "Using nodpi drawables for classic balloon theme"  This reverts commit 5f84bfe845c068498daead1a1c6eeaf227cb4535.
42,2012/8/20,Menu consistency  Signed-off-by: Daniele Ricci <daniele.athome@gmail.com>
49,2012/8/20,Manual validation: separated activity  Signed-off-by: Daniele Ricci <daniele.athome@gmail.com>
8,2012/8/20,Validation: some fixes in user navigation  Signed-off-by: Daniele Ricci <daniele.athome@gmail.com>
2,2012/8/20,Validation: settings action visible also on pre-Honeycomb  Signed-off-by: Daniele Ricci <daniele.athome@gmail.com>
2,2012/8/20,Validation: show more detailed error messages  Signed-off-by: Daniele Ricci <daniele.athome@gmail.com>
41,2012/8/17,Very basic status activity  Signed-off-by: Daniele Ricci <daniele.athome@gmail.com>
2,2012/8/17,Version 2.2 began on c829b67094a8b5b0bfef7a17bb811815c1ab01d4  Signed-off-by: Daniele Ricci <daniele.athome@gmail.com>
0,2012/8/17,Using nodpi drawables for classic balloon theme  Signed-off-by: Daniele Ricci <daniele.athome@gmail.com>
179,2012/8/17,Using screen-specific balloon sizes  Signed-off-by: Daniele Ricci <daniele.athome@gmail.com>
3,2012/8/17,Acquire wake lock while handling request jobs  Signed-off-by: Daniele Ricci <daniele.athome@gmail.com>
11,2012/8/16,Use fragments in xlarge-v11 in portrait too  Signed-off-by: Daniele Ricci <daniele.athome@gmail.com>
54,2012/8/14,Keep menu items instead of calling invalidateOptionsMenu every time  Signed-off-by: Daniele Ricci <daniele.athome@gmail.com>
6,2012/8/14,TODO reordering  Signed-off-by: Daniele Ricci <daniele.athome@gmail.com>
1,2012/8/14,Making heavy modifications to the UI version is now 2.1  Signed-off-by: Daniele Ricci <daniele.athome@gmail.com>
1,2012/8/14,Contacts list: brighter refresh icon  Signed-off-by: Daniele Ricci <daniele.athome@gmail.com>
22,2012/8/14,Syncer: wait for connection broadcast from Message Center  Signed-off-by: Daniele Ricci <daniele.athome@gmail.com>
17,2012/8/14,UI fixes  Signed-off-by: Daniele Ricci <daniele.athome@gmail.com>
15,2012/8/14,Clean and fix for AndroidBarSherlock  Signed-off-by: Daniele Ricci <daniele.athome@gmail.com>
1,2012/8/13,Restyling contacts list refresh menu item  Signed-off-by: Daniele Ricci <daniele.athome@gmail.com>
6,2012/8/13,NumberValidation activity now has its own ActionBar :)  Signed-off-by: Daniele Ricci <daniele.athome@gmail.com>
8,2012/8/13,Some colors  Signed-off-by: Daniele Ricci <daniele.athome@gmail.com>
6,2012/8/13,Fix title margins  Signed-off-by: Daniele Ricci <daniele.athome@gmail.com>
30,2012/8/13,Better (and clickable) titlebox layout  Signed-off-by: Daniele Ricci <daniele.athome@gmail.com>
1028,2012/8/10,Removing quick action for attachment button  Signed-off-by: Daniele Ricci <daniele.athome@gmail.com>
5,2012/8/09,Conflicting IDs  Signed-off-by: Daniele Ricci <daniele.athome@gmail.com>
4,2012/8/09,Ehm removing internal data  Signed-off-by: Daniele Ricci <daniele.athome@gmail.com>
139,2012/8/09,Custom navigation view for composer action bar  Update users table on status change  Signed-off-by: Daniele Ricci <daniele.athome@gmail.com>
13,2012/8/09,
4,2012/8/09,Using smaller sizes for small screens  Signed-off-by: Daniele Ricci <daniele.athome@gmail.com>
17,2012/8/08,UI adjustments to action bar  Signed-off-by: Daniele Ricci <daniele.athome@gmail.com>
28,2012/8/07,Minor UI fixes  Signed-off-by: Daniele Ricci <daniele.athome@gmail.com>
1,2012/8/07,Fix exception on GCM onDestroy  Signed-off-by: Daniele Ricci <daniele.athome@gmail.com>
367,2012/8/07,Support for ActionBarSherlock  Still not perfect yet but works :)  Signed-off-by: Daniele Ricci <daniele.athome@gmail.com>
2,2012/8/03,Begin work on (hopefully) stable 2.0  Signed-off-by: Daniele Ricci <daniele.athome@gmail.com>
1,2012/8/03,Do not force sync on unknown contact  Signed-off-by: Daniele Ricci <daniele.athome@gmail.com>
10,2012/8/02,Do not lookup unknown users on the fly; request a sync instead  Signed-off-by: Daniele Ricci <daniele.athome@gmail.com>
6,2012/8/02,TODO++  Signed-off-by: Daniele Ricci <daniele.athome@gmail.com>
2,2012/8/02,Fix NPE on getLastNonConfigurationInstance  Signed-off-by: Daniele Ricci <daniele.athome@gmail.com>
7,2012/8/01,Fix quick action view size  Signed-off-by: Daniele Ricci <daniele.athome@gmail.com>
2,2012/8/01,Fix height of attachment dialog  Signed-off-by: Daniele Ricci <daniele.athome@gmail.com>
2,2012/8/01,Late delivery of GCM sender Id  Signed-off-by: Daniele Ricci <daniele.athome@gmail.com>
3,2012/7/31,Insert a new records on the fly when trying to address them directly  Signed-off-by: Daniele Ricci <daniele.athome@gmail.com>
1,2012/7/31,Careful to not start indeterminate progress onStart on ICS  Signed-off-by: Daniele Ricci <daniele.athome@gmail.com>
1,2012/7/31,i18n  Signed-off-by: Daniele Ricci <daniele.athome@gmail.com>
7,2012/7/31,Check for camera availability before adding intent  Signed-off-by: Daniele Ricci <daniele.athome@gmail.com>
14,2012/7/31,Picture sending: take a picture from camera  Signed-off-by: Daniele Ricci <daniele.athome@gmail.com>
1,2012/7/31,i18n/TODO  Signed-off-by: Daniele Ricci <daniele.athome@gmail.com>
0,2012/7/30,Deps upgrade  Signed-off-by: Daniele Ricci <daniele.athome@gmail.com>
75,2012/7/30,Various performance and memory footprint improvements  Signed-off-by: Daniele Ricci <daniele.athome@gmail.com>
1,2012/7/30,Temporary disable quick reply  Signed-off-by: Daniele Ricci <daniele.athome@gmail.com>
2,2012/7/28,Dismiss foreground notification only for async messages  Signed-off-by: Daniele Ricci <daniele.athome@gmail.com>
3,2012/7/26,Fix system notification PendingIntent  Signed-off-by: Daniele Ricci <daniele.athome@gmail.com>
14,2012/7/26,Quick reply functional - still trying to fix new task bug  Signed-off-by: Daniele Ricci <daniele.athome@gmail.com>
0,2012/7/26,Moving back 9-patches to drawable (caused a bug to Android 2.2)  Signed-off-by: Daniele Ricci <daniele.athome@gmail.com>
0,2012/7/26,Move 9-patches to drawable-nodpi  Signed-off-by: Daniele Ricci <daniele.athome@gmail.com>
1,2012/7/25,Fix title bar ellipsize  Signed-off-by: Daniele Ricci <daniele.athome@gmail.com>
4,2012/7/24,Attachment type chooser in ComposeMessage menu  Signed-off-by: Daniele Ricci <daniele.athome@gmail.com>
7,2012/7/23,Attach button in title bar now opens a popup dialog  Signed-off-by: Daniele Ricci <daniele.athome@gmail.com>
134,2012/7/23,Beta support for vCards  Signed-off-by: Daniele Ricci <daniele.athome@gmail.com>
45,2012/7/23,Clean manifest  Signed-off-by: Daniele Ricci <daniele.athome@gmail.com>
5,2012/7/18,Ordered execution of RequestJobs  Signed-off-by: Daniele Ricci <daniele.athome@gmail.com>
5,2012/7/18,Let the user choose a balloon theme  Signed-off-by: Daniele Ricci <daniele.athome@gmail.com>
27,2012/7/17,Fix status message show and implement online status change  Signed-off-by: Daniele Ricci <daniele.athome@gmail.com>
49,2012/7/17,Fixing some layout issues  Signed-off-by: Daniele Ricci <daniele.athome@gmail.com>
38,2012/7/17,Weak references  Signed-off-by: Daniele Ricci <daniele.athome@gmail.com>
8,2012/7/17,Fix duplicated outgoing messages  Signed-off-by: Daniele Ricci <daniele.athome@gmail.com>
2,2012/7/17,Removing useless view state change  Signed-off-by: Daniele Ricci <daniele.athome@gmail.com>
5,2012/7/17,New balloon style and background  Signed-off-by: Daniele Ricci <daniele.athome@gmail.com>
108,2012/7/17,Porting to GCM support library  Signed-off-by: Daniele Ricci <daniele.athome@gmail.com>
2,2012/7/15,Previous commit was RC6  Signed-off-by: Daniele Ricci <daniele.athome@gmail.com>
1,2012/7/15,Changing default vibration to always  Signed-off-by: Daniele Ricci <daniele.athome@gmail.com>
9,2012/7/15,Actually did begin to work on rc5 a while ago :)  Signed-off-by: Daniele Ricci <daniele.athome@gmail.com>
14,2012/7/15,Be sure to retain finish Runnable on validation sync  Signed-off-by: Daniele Ricci <daniele.athome@gmail.com>
3,2012/7/15,Fix null ringtone preference  Signed-off-by: Daniele Ricci <daniele.athome@gmail.com>
9,2012/7/12,Hopefully fixed null country code issue  Signed-off-by: Daniele Ricci <daniele.athome@gmail.com>
11,2012/7/12,Fixing orientation change in number validation  Signed-off-by: Daniele Ricci <daniele.athome@gmail.com>
182,2012/7/12,Handle configuration change and sync resume on contacts list  Other multithreading fixes  Signed-off-by: Daniele Ricci <daniele.athome@gmail.com>
38,2012/7/07,Non-blocking contacts list refresh  Signed-off-by: Daniele Ricci <daniele.athome@gmail.com>
2,2012/7/05,Begin work on 2.0-rc4  TODO++  Signed-off-by: Daniele Ricci <daniele.athome@gmail.com>
1,2012/7/05,Fix return from contact picker  Signed-off-by: Daniele Ricci <daniele.athome@gmail.com>
6,2012/7/05,Fix scroll-to-bottom bug  Signed-off-by: Daniele Ricci <daniele.athome@gmail.com>
16,2012/7/04,Clean/TODO++  Signed-off-by: Daniele Ricci <daniele.athome@gmail.com>
1,2012/7/04,Commenting test code  Signed-off-by: Daniele Ricci <daniele.athome@gmail.com>
46,2012/7/04,Display status message after 5 seconds of last seen  User can switch between the two texts by clicking the title bar  Signed-off-by: Daniele Ricci <daniele.athome@gmail.com>
3,2012/7/04,Small optimizations  Signed-off-by: Daniele Ricci <daniele.athome@gmail.com>
2,2012/7/04,Update users table on sync and lookup  Signed-off-by: Daniele Ricci <daniele.athome@gmail.com>
11,2012/7/04,Cache also user status while syncing  Signed-off-by: Daniele Ricci <daniele.athome@gmail.com>
1,2012/7/04,Be sure to send ACKs even when connection is unstable  Signed-off-by: Daniele Ricci <daniele.athome@gmail.com>
2,2012/7/03,TODO++  Signed-off-by: Daniele Ricci <daniele.athome@gmail.com>
1,2012/7/03,Be sure to extra-check for password presence  Signed-off-by: Daniele Ricci <daniele.athome@gmail.com>
1,2012/7/03,Mark message senders as registered users  Signed-off-by: Daniele Ricci <daniele.athome@gmail.com>
6,2012/7/03,Begin work on 2.0-rc2  Hiding status icon (GONE) instead of just making it invisibile  Signed-off-by: Daniele Ricci <daniele.athome@gmail.com>
1,2012/7/02,THANKS++  Signed-off-by: Daniele Ricci <daniele.athome@gmail.com>
4,2012/7/02,Some lost i18n  Signed-off-by: Daniele Ricci <daniele.athome@gmail.com>
2,2012/7/02,Releasing version 2.0-rc2  Signed-off-by: Daniele Ricci <daniele.athome@gmail.com>
1,2012/7/02,Recreate triggers on update  Signed-off-by: Daniele Ricci <daniele.athome@gmail.com>
7,2012/6/28,Migrating to Google Cloud Messaging  Signed-off-by: Daniele Ricci <daniele.athome@gmail.com>
0,2012/6/28,Upgrade libs  libphonenumber 4.9 android-support-v4 rev 9  Signed-off-by: Daniele Ricci <daniele.athome@gmail.com>
1,2012/6/27,Guess mime type from extension as last resort  Signed-off-by: Daniele Ricci <daniele.athome@gmail.com>
2,2012/6/27,Global plain text message pool  Signed-off-by: Daniele Ricci <daniele.athome@gmail.com>
4,2012/6/27,Some safety error checks - this should finally fix image sending  Signed-off-by: Daniele Ricci <daniele.athome@gmail.com>
1,2012/6/26,i18n spanish  Signed-off-by: Daniele Ricci <daniele.athome@gmail.com>
1,2012/6/26,Respawn to a random server when connection fails  Signed-off-by: Daniele Ricci <daniele.athome@gmail.com>
69,2012/6/26,Cleaning stuff and preparing for 2.0-beta1 release  Signed-off-by: Daniele Ricci <daniele.athome@gmail.com>
7,2012/6/26,Some minor UI adjustments  Signed-off-by: Daniele Ricci <daniele.athome@gmail.com>
8,2012/6/26,Some minor UI adjustments  Signed-off-by: Daniele Ricci <daniele.athome@gmail.com>
1,2012/6/26,Fix crash on draft saving  Signed-off-by: Daniele Ricci <daniele.athome@gmail.com>
32,2012/6/25,User can now abort active or queued attachment downloads  Signed-off-by: Daniele Ricci <daniele.athome@gmail.com>
60,2012/6/21,Number validation UI restyling  Signed-off-by: Daniele Ricci <daniele.athome@gmail.com>
3,2012/6/20,Synchronous load of conversations list  Signed-off-by: Daniele Ricci <daniele.athome@gmail.com>
1,2012/6/20,Composer title fix on Holo theme  Signed-off-by: Daniele Ricci <daniele.athome@gmail.com>
350,2012/6/20,Lint clean  Signed-off-by: Daniele Ricci <daniele.athome@gmail.com>
84,2012/6/20,Various minor fixes and log removal  Signed-off-by: Daniele Ricci <daniele.athome@gmail.com>
12,2012/6/05,Do not call recycle() on Bitmaps in finalize()  Signed-off-by: Daniele Ricci <daniele.athome@gmail.com>
54,2012/6/04,Use column indexes instead of getColumnIndex where possible  Signed-off-by: Daniele Ricci <daniele.athome@gmail.com>
1,2012/6/04,Use server timestamp when present  Signed-off-by: Daniele Ricci <daniele.athome@gmail.com>
100,2012/6/04,Fix and optimize syncer  Signed-off-by: Daniele Ricci <daniele.athome@gmail.com>
1,2012/6/04,"Delivered" used instead of "Received" for STATUS_RECEIVED  Signed-off-by: Daniele Ricci <daniele.athome@gmail.com>
2,2012/5/29,Notify user on wrong HTTP response by fileserver  Signed-off-by: Daniele Ricci <daniele.athome@gmail.com>
3,2012/5/29,Catch all kinds of exceptions  Signed-off-by: Daniele Ricci <daniele.athome@gmail.com>
1,2012/5/28,Latest spanish strings  Signed-off-by: Giovanni Palleschi <gpalleschi@gmail.com>
26,2012/5/28,Using a single received job for rapidly incoming messages  Signed-off-by: Daniele Ricci <daniele.athome@gmail.com>
7,2012/5/28,Load contact avatar in new UI compose message title bar  Some avatar loading optimizations  Signed-off-by: Daniele Ricci <daniele.athome@gmail.com>
0,2012/5/25,Upgrade libphonenumber to 4.8  Signed-off-by: Daniele Ricci <daniele.athome@gmail.com>
20,2012/5/25,Custom title bar in compose message window  Signed-off-by: Daniele Ricci <daniele.athome@gmail.com>
5,2012/5/25,Hack for avodoing NPE on attachment download  Signed-off-by: Daniele Ricci <daniele.athome@gmail.com>
4,2012/5/22,Don't keep users.registered between syncs  Signed-off-by: Daniele Ricci <daniele.athome@gmail.com>
8,2012/5/22,Fix manual number validation  Signed-off-by: Daniele Ricci <daniele.athome@gmail.com>
5,2012/5/20,Fix concurrency bug  Signed-off-by: Daniele Ricci <daniele.athome@gmail.com>
14,2012/5/16,Incoming duplicated messages handling  Signed-off-by: Daniele Ricci <daniele.athome@gmail.com>
3,2012/5/16,Fix concurrency issues on users database  Signed-off-by: Daniele Ricci <daniele.athome@gmail.com>
44,2012/5/16,Various UI fixes  Signed-off-by: Daniele Ricci <daniele.athome@gmail.com>
12,2012/5/16,Removed compose message entry for new UI  Signed-off-by: Daniele Ricci <daniele.athome@gmail.com>
3,2012/5/16,Fix database concurrency problem  Signed-off-by: Daniele Ricci <daniele.athome@gmail.com>
1,2012/5/15,Clear pendingJobs instead of recreating it  Signed-off-by: Daniele Ricci <daniele.athome@gmail.com>
4,2012/5/15,Some comments and minor fixes  Signed-off-by: Daniele Ricci <daniele.athome@gmail.com>
2,2012/5/15,i18n  Signed-off-by: Daniele Ricci <daniele.athome@gmail.com>
2,2012/5/15,Fix invitation dialog  Signed-off-by: Daniele Ricci <daniele.athome@gmail.com>
59,2012/5/15,File information dialog for download preview  Some i18n strings Fixed invitation dialog bug  Signed-off-by: Daniele Ricci <daniele.athome@gmail.com>
10,2012/5/14,File length delivered by server  Some adjustments in file download interface  Signed-off-by: Daniele Ricci <daniele.athome@gmail.com>
2,2012/5/14,Finally fix NPE on thumbnail generation  Signed-off-by: Daniele Ricci <daniele.athome@gmail.com>
2,2012/5/14,Default server is now prime.kontalk.net  Signed-off-by: Daniele Ricci <daniele.athome@gmail.com>
7,2012/5/12,New compose and search icons for title bar  Signed-off-by: Daniele Ricci <daniele.athome@gmail.com>
13,2012/5/11,First tests with custom title bar  Signed-off-by: Daniele Ricci <daniele.athome@gmail.com>
1,2012/5/09,First titlebar tests  Signed-off-by: Daniele Ricci <daniele.athome@gmail.com>
17,2012/5/09,Manually trigger sync on first big database upgrade (2 to 3)  Signed-off-by: Daniele Ricci <daniele.athome@gmail.com>
5,2012/5/09,Requery contacts list on refresh  Signed-off-by: Daniele Ricci <daniele.athome@gmail.com>
0,2012/5/09,Upgrade Android support library  Signed-off-by: Daniele Ricci <daniele.athome@gmail.com>
12,2012/5/09,Fix invitation message (Android Market -> Google Play Store)  Signed-off-by: Daniele Ricci <daniele.athome@gmail.com>
227,2012/5/09,Stop using RawContacts for lookups use only an enhanced users database  Signed-off-by: Daniele Ricci <daniele.athome@gmail.com>
7,2012/5/08,Ping/pong protocol  Signed-off-by: Daniele Ricci <daniele.athome@gmail.com>
24,2012/5/08,Woody background deprecated by customizable background  Signed-off-by: Daniele Ricci <daniele.athome@gmail.com>
245,2012/5/08,Synchronous sync and forcing sync after registration  Signed-off-by: Daniele Ricci <daniele.athome@gmail.com>
407,2012/5/08,Synchronous sync operation from contacts list  Signed-off-by: Daniele Ricci <daniele.athome@gmail.com>
3,2012/5/08,Invalidate custom background anyway on preference click  Signed-off-by: Daniele Ricci <daniele.athome@gmail.com>
1,2012/5/07,Ignore exceptions on some getActivity() calls  Signed-off-by: Daniele Ricci <daniele.athome@gmail.com>
1,2012/5/05,TODO++  Signed-off-by: Daniele Ricci <daniele.athome@gmail.com>
13,2012/5/05,Custom backgrounds on conversations  Signed-off-by: Daniele Ricci <daniele.athome@gmail.com>
68,2012/5/04,Should be fixing some queue concurrency issues in sending messages  Signed-off-by: Daniele Ricci <daniele.athome@gmail.com>
2,2012/4/26,Logs  Signed-off-by: Daniele Ricci <daniele.athome@gmail.com>
11,2012/4/26,Logging verbosity  Signed-off-by: Daniele Ricci <daniele.athome@gmail.com>
190,2012/4/26,Using transaction and bulk uri notifications  This should improve performance and fix some concurrency issues  Signed-off-by: Daniele Ricci <daniele.athome@gmail.com>
1,2012/4/26,Using normal transcript mode on ListViews  Signed-off-by: Daniele Ricci <daniele.athome@gmail.com>
19,2012/4/26,Removing last user seen preference  Show last user seen is now deprecated since we are using a notification system.  Signed-off-by: Daniele Ricci <daniele.athome@gmail.com>
2,2012/4/24,TODO++  Signed-off-by: Daniele Ricci <daniele.athome@gmail.com>
35,2012/4/24,NumberValidation going back to ConversationList if called from it  NumberValidation now issues a manual forced sync after validation  Signed-off-by: Daniele Ricci <daniele.athome@gmail.com>
1,2012/4/20,TODO++  Signed-off-by: Daniele Ricci <daniele.athome@gmail.com>
2,2012/4/20,Fix duplicated incoming messages  Signed-off-by: Daniele Ricci <daniele.athome@gmail.com>
17,2012/4/20,Start foreground notification only when MessageSender job has started  Signed-off-by: Daniele Ricci <daniele.athome@gmail.com>
47,2012/4/20,Delete account on confirmCredentials()  Signed-off-by: Daniele Ricci <daniele.athome@gmail.com>
2,2012/4/20,Obviously release() after hold()  Signed-off-by: Daniele Ricci <daniele.athome@gmail.com>
6,2012/4/20,TODO and comments  Signed-off-by: Daniele Ricci <daniele.athome@gmail.com>
5,2012/4/20,Keep reference to async jobs in order to terminate them eventually  Signed-off-by: Daniele Ricci <daniele.athome@gmail.com>
76,2012/4/18,Fix some fragment issues  Signed-off-by: Daniele Ricci <daniele.athome@gmail.com>
2,2012/4/18,Comments  Signed-off-by: Daniele Ricci <daniele.athome@gmail.com>
5,2012/4/18,Allow requeing of attachment messages  Signed-off-by: Daniele Ricci <daniele.athome@gmail.com>
2,2012/4/18,Fix message timestamp issue  Signed-off-by: Daniele Ricci <daniele.athome@gmail.com>
27,2012/4/16,MessageSender is now used asynchronously  Signed-off-by: Daniele Ricci <daniele.athome@gmail.com>
4,2012/4/16,Lookup user presence only if we have a user id  Signed-off-by: Daniele Ricci <daniele.athome@gmail.com>
1,2012/4/12,Sending empty C2DM registration id instead of null  Signed-off-by: Daniele Ricci <daniele.athome@gmail.com>
2,2012/4/12,Closing connection for real after shutdown  Signed-off-by: Daniele Ricci <daniele.athome@gmail.com>
19,2012/4/12,Correctly handling (without NPEs) status message updates  Signed-off-by: Daniele Ricci <daniele.athome@gmail.com>
72,2012/4/12,Server list updater - new version  Signed-off-by: Daniele Ricci <daniele.athome@gmail.com>
26,2012/4/11,User presence notifications completed.  Signed-off-by: Daniele Ricci <daniele.athome@gmail.com>
121,2012/4/11,Converting PresenceListener to locally broadcasted intents  Signed-off-by: Daniele Ricci <daniele.athome@gmail.com>
7,2012/4/11,Upgrade libphonenumber to version 4.7  Signed-off-by: Daniele Ricci <daniele.athome@gmail.com>
125,2012/4/11,User presence notifications (not fully working yet)  Signed-off-by: Daniele Ricci <daniele.athome@gmail.com>
3,2012/4/11,Releasing reference to presence listener  Signed-off-by: Daniele Ricci <daniele.athome@gmail.com>
14,2012/4/10,Initial very buggy support for user presence notifications  Signed-off-by: Daniele Ricci <daniele.athome@gmail.com>
4,2012/4/10,Be a little less verbose :)  Signed-off-by: Daniele Ricci <daniele.athome@gmail.com>
1,2012/4/10,ClientListener - might be useful some day  Signed-off-by: Daniele Ricci <daniele.athome@gmail.com>
5,2012/4/10,Status message and Google C2DM registration id update  Signed-off-by: Daniele Ricci <daniele.athome@gmail.com>
3,2012/4/07,Some fixes in sync adapter and users database  Signed-off-by: Daniele Ricci <daniele.athome@gmail.com>
0,2012/4/05,Android Support library update  Signed-off-by: Daniele Ricci <daniele.athome@gmail.com>
15,2012/4/05,Serverinfo and push notifications  Signed-off-by: Daniele Ricci <daniele.athome@gmail.com>
1,2012/4/04,Delete users database before resyncing it (REPLACE is not enough)  Signed-off-by: Daniele Ricci <daniele.athome@gmail.com>
6,2012/4/04,Download implemented not tested yet  Signed-off-by: Daniele Ricci <daniele.athome@gmail.com>
86,2012/4/03,File upload/download - step 1  File uploading completed porting file download WARNING this revision DOES NOT BUILD  Signed-off-by: Daniele Ricci <daniele.athome@gmail.com>
45,2012/3/28,Sending "big" files is back again :)  PostMessageRequest pack is prepared in-memory with the entire content of the file being sent. This is only a temporary fix for this and actually the protobuf library should be changed to behave in a more "streamed" fashion. Next change will be limiting the size of a message to a limit imposed by server configuration (via serverinfo).  Signed-off-by: Daniele Ricci <daniele.athome@gmail.com>
5,2012/3/27,Commenting big data files send  Signed-off-by: Daniele Ricci <daniele.athome@gmail.com>
21,2012/3/27,Testing ground: sending big files  Code DOES NOT BUILD!  Signed-off-by: Daniele Ricci <daniele.athome@gmail.com>
1,2012/3/27,Moving towards version 2.0  Signed-off-by: Daniele Ricci <daniele.athome@gmail.com>
21,2012/3/27,Sending text messages only - encrypted this time :)  Signed-off-by: Daniele Ricci <daniele.athome@gmail.com>
8,2012/3/27,Fix registration process  NumberValidator closed the connection thus the socket would not be connectable again.  Signed-off-by: Daniele Ricci <daniele.athome@gmail.com>
13,2012/3/27,Remove UNIQUE constraint on msg_id  This allow us to send messages to ourselves (lol)  Signed-off-by: Daniele Ricci <daniele.athome@gmail.com>
31,2012/3/16,Porting SyncAdapter to new client protocol  Signed-off-by: Daniele Ricci <daniele.athome@gmail.com>
271,2012/3/16,Refactoring message center worker threads  New receipt message handling  Signed-off-by: Daniele Ricci <daniele.athome@gmail.com>
254,2012/3/15,Porting RequestWorker from master  Signed-off-by: Daniele Ricci <daniele.athome@gmail.com>
10,2012/3/14,Incoming messages seem to work  Signed-off-by: Daniele Ricci <daniele.athome@gmail.com>
13,2012/3/14,Number validation now works with new protocol  Going on with new protocol implementation  Signed-off-by: Daniele Ricci <daniele.athome@gmail.com>
2,2012/3/14,Moving class to the right package  Signed-off-by: Daniele Ricci <daniele.athome@gmail.com>
21,2012/3/14,Fixing registration to new queue-based protocol  Signed-off-by: Daniele Ricci <daniele.athome@gmail.com>
2686,2012/3/13,Cleaning stuff so we can build things  Obviously this is a non-working branch :)  Signed-off-by: Daniele Ricci <daniele.athome@gmail.com>
4514,2012/3/13,New client-to-server protocol  Signed-off-by: Daniele Ricci <daniele.athome@gmail.com>
4,2012/3/04,Use timediff field for last seen banner  Signed-off-by: Daniele Ricci <daniele.athome@gmail.com>
4,2012/3/03,Minor fixes  Signed-off-by: Daniele Ricci <daniele.athome@gmail.com>
13,2012/3/02,Should have fixed issue with non-GSM capable devices  Begin work with beta3  Signed-off-by: Daniele Ricci <daniele.athome@gmail.com>
45,2012/3/01,Sync: do not request lookup if no contacts are found  Signed-off-by: Daniele Ricci <daniele.athome@gmail.com>
1,2012/3/01,Some i18n strings  Signed-off-by: Daniele Ricci <daniele.athome@gmail.com>
3,2012/3/01,Woody background in conversations  Signed-off-by: Daniele Ricci <daniele.athome@gmail.com>
1,2012/3/01,Fix UI tasks on UI thread  Signed-off-by: Daniele Ricci <daniele.athome@gmail.com>
25,2012/3/01,Correctly handle message center startup if held by activity  Signed-off-by: Daniele Ricci <daniele.athome@gmail.com>
0,2012/3/01,New message sent icon  Signed-off-by: Daniele Ricci <daniele.athome@gmail.com>
1,2012/3/01,Cleanup - beta2 pre-release  Signed-off-by: Daniele Ricci <daniele.athome@gmail.com>
1,2012/3/01,Use relative time span in last seen banner  Signed-off-by: Daniele Ricci <daniele.athome@gmail.com>
7,2012/3/01,Some spanish strings  Signed-off-by: Daniele Ricci <daniele.athome@gmail.com>
4,2012/2/28,Do not idle message center if an activity is using it  Signed-off-by: Daniele Ricci <daniele.athome@gmail.com>
20,2012/2/28,Fix strings  Signed-off-by: Daniele Ricci <daniele.athome@gmail.com>
5,2012/2/27,Display notifications immediately - use pause/resume system  Signed-off-by: Daniele Ricci <daniele.athome@gmail.com>
68,2012/2/27,Start a worker thread for storing and sending text message  Signed-off-by: Daniele Ricci <daniele.athome@gmail.com>
2,2012/2/27,Using pending icon for messages with error status  Signed-off-by: Daniele Ricci <daniele.athome@gmail.com>
41,2012/2/27,Fix code style  Signed-off-by: Daniele Ricci <daniele.athome@gmail.com>
56,2012/2/27,Do not remove compose message header  Signed-off-by: Daniele Ricci <daniele.athome@gmail.com>
17,2012/2/27,Begin work on beta2  libphonenumber upgrade Various typos and fixes  Signed-off-by: Daniele Ricci <daniele.athome@gmail.com>
52,2012/1/25,Removing offending polling error notification  Signed-off-by: Daniele Ricci <daniele.athome@gmail.com>
1,2012/1/25,libphonenumber upgrade  Signed-off-by: Daniele Ricci <daniele.athome@gmail.com>
6,2012/1/09,Begin work on beta1  Upgrade libphonenumber to 4.4  Signed-off-by: Daniele Ricci <daniele.athome@gmail.com>
1269,2011/12/29,Still working on vCard support  Signed-off-by: Daniele Ricci <daniele.athome@gmail.com>
3,2011/12/29,Handle all NumberValidator.fixNumber errors  Signed-off-by: Daniele Ricci <daniele.athome@gmail.com>
3,2011/12/26,Trying to better handle HTTP connections  Signed-off-by: Daniele Ricci <daniele.athome@gmail.com>
11,2011/12/26,Preliminary support for vcards  Signed-off-by: Daniele Ricci <daniele.athome@gmail.com>
21,2011/12/18,Moving message classes to their own package  Signed-off-by: Daniele Ricci <daniele.athome@gmail.com>
6,2011/12/17,Use one instance per EndpointServer object of HttpClient  Signed-off-by: Daniele Ricci <daniele.athome@gmail.com>
5,2011/12/17,Send attachments from ComposeMessage  Signed-off-by: Daniele Ricci <daniele.athome@gmail.com>
2,2011/12/15,Some italian strings  Begin work on alpha7  Signed-off-by: Daniele Ricci <daniele.athome@gmail.com>
22,2011/12/13,Temporarly removing ContentObserver for sync  Signed-off-by: Daniele Ricci <daniele.athome@gmail.com>
9,2011/12/13,Use manual BEGIN/COMMIT statements for API < 11  Begin work on alpha6  Signed-off-by: Daniele Ricci <daniele.athome@gmail.com>
2,2011/12/10,Time to enable clickable links on messages  Signed-off-by: Daniele Ricci <daniele.athome@gmail.com>
0,2011/12/10,Full opaque image for lock icon is back  Signed-off-by: Daniele Ricci <daniele.athome@gmail.com>
48,2011/12/10,Show lock icon in tablet layouts too  Signed-off-by: Daniele Ricci <daniele.athome@gmail.com>
2,2011/12/08,Fix menus  Signed-off-by: Daniele Ricci <daniele.athome@gmail.com>
1,2011/12/08,Fine-tuning EditText dialogs  Signed-off-by: Daniele Ricci <daniele.athome@gmail.com>
2,2011/12/08,Using same icon for pending status  Signed-off-by: Daniele Ricci <daniele.athome@gmail.com>
16,2011/12/08,Custom presence status message  Some cleaning  Signed-off-by: Daniele Ricci <daniele.athome@gmail.com>
2,2011/12/08,Using BEGIN IMMEDIATE if API level < 11  Signed-off-by: Daniele Ricci <daniele.athome@gmail.com>
15,2011/12/08,Forcing sync if necessary  Signed-off-by: Daniele Ricci <daniele.athome@gmail.com>
35,2011/12/07,Very basic status viewing feature  Signed-off-by: Daniele Ricci <daniele.athome@gmail.com>
4,2011/12/07,User status message in last seen banner  Signed-off-by: Daniele Ricci <daniele.athome@gmail.com>
1,2011/12/07,Strecthing date 9patch to fit content  Signed-off-by: Daniele Ricci <daniele.athome@gmail.com>
6,2011/12/05,Temporary workaround for date view in message list item  Signed-off-by: Daniele Ricci <daniele.athome@gmail.com>
19,2011/12/05,Call NumberValidation in every activity after checking account presence  Signed-off-by: Daniele Ricci <daniele.athome@gmail.com>
5,2011/12/05,Fixed user not found question  Signed-off-by: Daniele Ricci <daniele.athome@gmail.com>
1,2011/12/05,Fixed NPE on sending media  Signed-off-by: Daniele Ricci <daniele.athome@gmail.com>
8,2011/12/04,Font size preference  Signed-off-by: Daniele Ricci <daniele.athome@gmail.com>
14,2011/12/04,Ask the user to send an invitation message if a contact is not synced  Signed-off-by: Daniele Ricci <daniele.athome@gmail.com>
39,2011/12/04,Using progress notification layouts from Android  Signed-off-by: Daniele Ricci <daniele.athome@gmail.com>
25,2011/12/04,Showing lock icon next to status icon  Signed-off-by: Daniele Ricci <daniele.athome@gmail.com>
3,2011/12/04,Check if external storage is available  Signed-off-by: Daniele Ricci <daniele.athome@gmail.com>
6,2011/12/04,Requeue received jobs until we are sure they succeed  Signed-off-by: Daniele Ricci <daniele.athome@gmail.com>
2,2011/12/04,Fix take phone number from users database for encryption  Porting to UsersProvider complete  Signed-off-by: Daniele Ricci <daniele.athome@gmail.com>
5,2011/12/04,Fixed NPE on user last seen  Signed-off-by: Daniele Ricci <daniele.athome@gmail.com>
31,2011/12/02,Using lock emblem for encrypted messages  Signed-off-by: Daniele Ricci <daniele.athome@gmail.com>
34,2011/12/02,More sync optimizations  Signed-off-by: Daniele Ricci <daniele.athome@gmail.com>
36,2011/12/02,Using users database to send contacts data to server  Begin work on alpha5  Signed-off-by: Daniele Ricci <daniele.athome@gmail.com>
11,2011/11/29,Some enhancements in sync  Signed-off-by: Daniele Ricci <daniele.athome@gmail.com>
1,2011/11/29,Some strings fixing and translating  Signed-off-by: Daniele Ricci <daniele.athome@gmail.com>
1,2011/11/29,Do not even request sync if throttling  Signed-off-by: Daniele Ricci <daniele.athome@gmail.com>
6,2011/11/28,Ask question to user if auto-sync is disabled  Signed-off-by: Daniele Ricci <daniele.athome@gmail.com>
5,2011/11/28,Porting to UsersProvider - falling back to Contacts anyway  Signed-off-by: Daniele Ricci <daniele.athome@gmail.com>
27,2011/11/27,UsersProvider: user-hash-contact mapping for fast lookups  Managed throttling in SyncAdapter  Signed-off-by: Daniele Ricci <daniele.athome@gmail.com>
30,2011/11/27,Fixed message center restart on network uri change  Signed-off-by: Daniele Ricci <daniele.athome@gmail.com>
15,2011/11/26,Using froyo font appearance in progress notification  Signed-off-by: Daniele Ricci <daniele.athome@gmail.com>
13,2011/11/26,Fixing cached thumbnails  Temporarly removing message center start/stop lock to see what happens  Signed-off-by: Daniele Ricci <daniele.athome@gmail.com>
1,2011/11/25,Handling SENDTO for sms and smsto schemes  Signed-off-by: Daniele Ricci <daniele.athome@gmail.com>
68,2011/11/25,Better idle handling  Signed-off-by: Daniele Ricci <daniele.athome@gmail.com>
2,2011/11/25,Showing (unknown) also in notifications  Signed-off-by: Daniele Ricci <daniele.athome@gmail.com>
95,2011/11/25,Handling on-the-fly thumbnail generation  Signed-off-by: Daniele Ricci <daniele.athome@gmail.com>
23,2011/11/25,Should have been fixed all concurrency issues  Signed-off-by: Daniele Ricci <daniele.athome@gmail.com>
57,2011/11/25,Triggering message center start/stop only on certain conditions  Don't use synchronized() on the application context  Signed-off-by: Daniele Ricci <daniele.athome@gmail.com>
31,2011/11/24,Caching thumbnails on request (WIP)  Begin work on alpha4  Signed-off-by: Daniele Ricci <daniele.athome@gmail.com>
2,2011/11/24,Showing (unknown) in ConversationList for unknown users  Signed-off-by: Daniele Ricci <daniele.athome@gmail.com>
19,2011/11/24,Assuring proper message center start/stop mutual exclusion  Signed-off-by: Daniele Ricci <daniele.athome@gmail.com>
1,2011/11/24,Set selection to the end when loading draft  Signed-off-by: Daniele Ricci <daniele.athome@gmail.com>
29,2011/11/23,Optimizing some threading issues  Signed-off-by: Daniele Ricci <daniele.athome@gmail.com>
102,2011/11/23,Seems like isInterrupted isn't safe enough...  Signed-off-by: Daniele Ricci <daniele.athome@gmail.com>
1,2011/11/23,Fixing XML entities  Signed-off-by: Daniele Ricci <daniele.athome@gmail.com>
2,2011/11/23,Add some Spanish translations  Signed-off-by: Giovanni Palleschi <gpalleschi@gmail.com>
23,2011/11/21,Testing notification text appearance  Signed-off-by: Daniele Ricci <daniele.athome@gmail.com>
2,2011/11/21,Download again  Signed-off-by: Daniele Ricci <daniele.athome@gmail.com>
23,2011/11/21,Fixing some ANR issues  Signed-off-by: Daniele Ricci <daniele.athome@gmail.com>
2,2011/11/21,Contacts cache with observers  Begin work on alpha3  Signed-off-by: Daniele Ricci <daniele.athome@gmail.com>
2,2011/11/21,Skip duplicates in user lookup request  Signed-off-by: Daniele Ricci <daniele.athome@gmail.com>
2,2011/11/20,Removing some verbose log messages  Signed-off-by: Daniele Ricci <daniele.athome@gmail.com>
4,2011/11/20,Welcome screen for empty contacts list  Signed-off-by: Daniele Ricci <daniele.athome@gmail.com>
34,2011/11/20,Workaround for unhandled exception  Signed-off-by: Daniele Ricci <daniele.athome@gmail.com>
10,2011/11/20,Contacts list: invite/refresh menu  Refresh menu triggers manual sync  Signed-off-by: Daniele Ricci <daniele.athome@gmail.com>
3,2011/11/20,Clear network error notification when not present any more  Signed-off-by: Daniele Ricci <daniele.athome@gmail.com>
1,2011/11/20,Upgrade libphonenumber to 4.2  Signed-off-by: Daniele Ricci <daniele.athome@gmail.com>
43,2011/11/20,Better error handling in validation activity  Begin work on alpha2  Signed-off-by: Daniele Ricci <daniele.athome@gmail.com>
2,2011/11/19,Fixing manifest for Android Market publish  Signed-off-by: Daniele Ricci <daniele.athome@gmail.com>
2,2011/11/19,Copyright notices  Signed-off-by: Daniele Ricci <daniele.athome@gmail.com>
3,2011/11/19,HTTP port and domain switch (www.kontalk.net:80)  Signed-off-by: Daniele Ricci <daniele.athome@gmail.com>
3,2011/11/19,Using activity lifecycle for listening for server address changes  Signed-off-by: Daniele Ricci <daniele.athome@gmail.com>
2,2011/11/18,Removing unused permissions  Preparing for alpha1 release  Signed-off-by: Daniele Ricci <daniele.athome@gmail.com>
28,2011/11/18,Implemented many error handlers  Signed-off-by: Daniele Ricci <daniele.athome@gmail.com>
11,2011/11/18,Upload error notifications  Signed-off-by: Daniele Ricci <daniele.athome@gmail.com>
10,2011/11/18,Attachment download notifications  Signed-off-by: Daniele Ricci <daniele.athome@gmail.com>
18,2011/11/18,Attachment download complete notification  Organizing notifications  Signed-off-by: Daniele Ricci <daniele.athome@gmail.com>
1,2011/11/18,Better handle hardware keyboard and IM  Signed-off-by: Daniele Ricci <daniele.athome@gmail.com>
37,2011/11/18,Fixed some italian strings  Signed-off-by: Daniele Ricci <daniele.athome@gmail.com>
30,2011/11/18,Removing mark all messages as read  Clean some strings  Signed-off-by: Daniele Ricci <daniele.athome@gmail.com>
8,2011/11/17,Fix layout demo code  Signed-off-by: Daniele Ricci <daniele.athome@gmail.com>
2,2011/11/17,Traduzione italiana
3,2011/11/16,Restarting message center on manual server change  Signed-off-by: Daniele Ricci <daniele.athome@gmail.com>
25,2011/11/16,Fixing post-poned decryption  Signed-off-by: Daniele Ricci <daniele.athome@gmail.com>
2,2011/11/16,A few schema adjustments  Signed-off-by: Daniele Ricci <daniele.athome@gmail.com>
11,2011/11/16,Some database constraints  Signed-off-by: Daniele Ricci <daniele.athome@gmail.com>
64,2011/11/16,Using HoloLight theme from Mms app for API level 14  Signed-off-by: Daniele Ricci <daniele.athome@gmail.com>
1,2011/11/16,Use correct theme in number validation activity  Signed-off-by: Daniele Ricci <daniele.athome@gmail.com>
18,2011/11/15,Remember message IDs while updating  Remembered IDs will be used for correct notifications and fulltext update (if needed)  Signed-off-by: Daniele Ricci <daniele.athome@gmail.com>
59,2011/11/14,Fixing error handling and message strings  Some other minor behaviour fixes  Signed-off-by: Daniele Ricci <daniele.athome@gmail.com>
2,2011/11/13,Do not mark as not delivered messages previously marked as delivered  Signed-off-by: Daniele Ricci <daniele.athome@gmail.com>
11,2011/11/13,Using silent_only insteand of vibrate_only  Signed-off-by: Daniele Ricci <daniele.athome@gmail.com>
39,2011/11/13,Preparing for batch contacts write  Few sync-related bugfixes  Signed-off-by: Daniele Ricci <daniele.athome@gmail.com>
4,2011/11/12,Message delete confirmation  Signed-off-by: Daniele Ricci <daniele.athome@gmail.com>
31,2011/11/12,Passively cancel sync operations  Signed-off-by: Daniele Ricci <daniele.athome@gmail.com>
7,2011/11/12,NPE fix for composer ListAdapter  Minor adjustments to log printouts  Signed-off-by: Daniele Ricci <daniele.athome@gmail.com>
37,2011/11/12,Message notification settings  Signed-off-by: Daniele Ricci <daniele.athome@gmail.com>
7,2011/11/12,Some strings fixed  Signed-off-by: Daniele Ricci <daniele.athome@gmail.com>
145,2011/11/12,Basic full-text search functionality  Signed-off-by: Daniele Ricci <daniele.athome@gmail.com>
2,2011/11/12,Upgrading to API level 14 (Android 4.0)  Signed-off-by: Daniele Ricci <daniele.athome@gmail.com>
17,2011/11/12,Message sharing  Signed-off-by: Daniele Ricci <daniele.athome@gmail.com>
5,2011/11/12,Update notifications on conversation delete  Signed-off-by: Daniele Ricci <daniele.athome@gmail.com>
9,2011/11/12,Push notifications enabling trigger working  Signed-off-by: Daniele Ricci <daniele.athome@gmail.com>
24,2011/11/10,C2DM email of sender provided by serverinfo (untested)  Signed-off-by: Daniele Ricci <daniele.athome@gmail.com>
7,2011/11/09,New message status: not delivered (7)  Signed-off-by: Daniele Ricci <daniele.athome@gmail.com>
1,2011/11/08,Fix duplicate outgoing messages  Signed-off-by: Daniele Ricci <daniele.athome@gmail.com>
2,2011/11/08,Be sure to not queue message jobs when RequestWorker is down  Signed-off-by: Daniele Ricci <daniele.athome@gmail.com>
48,2011/11/08,Update C2DM registration ID via update entrypoint  Possibly fixing duplicated messages (?)  Signed-off-by: Daniele Ricci <daniele.athome@gmail.com>
1,2011/11/08,Typo  Signed-off-by: Daniele Ricci <daniele.athome@gmail.com>
1,2011/11/08,Make sure we notify only incoming messages  Signed-off-by: Daniele Ricci <daniele.athome@gmail.com>
38,2011/11/08,Google push notifications beta :)  Signed-off-by: Daniele Ricci <daniele.athome@gmail.com>
2,2011/11/07,Fixed pending messages recovery on message center restart  Signed-off-by: Daniele Ricci <daniele.athome@gmail.com>
3,2011/11/07,New icon theme  Signed-off-by: Daniele Ricci <daniele.athome@gmail.com>
68,2011/11/06,New serverlist management  Signed-off-by: Daniele Ricci <daniele.athome@gmail.com>
0,2011/11/06,libphonenumber upgraded to version 4.1  Signed-off-by: Daniele Ricci <daniele.athome@gmail.com>
5,2011/11/06,libphonenumber upgraded to version 4.1  Signed-off-by: Daniele Ricci <daniele.athome@gmail.com>
13,2011/11/06,Fixed binary/text messages behaviour  Fixed attachments download  Signed-off-by: Daniele Ricci <daniele.athome@gmail.com>
2,2011/11/05,Be a little bit safer when syncing  Signed-off-by: Daniele Ricci <daniele.athome@gmail.com>
1,2011/11/05,Fix onRestoreSavedInstance NPE  Signed-off-by: Daniele Ricci <daniele.athome@gmail.com>
18,2011/11/03,User lookup by client restored  A few comments and trivial fixes  Signed-off-by: Daniele Ricci <daniele.athome@gmail.com>
2,2011/11/02,Fixed handling BLOB data  Signed-off-by: Daniele Ricci <daniele.athome@gmail.com>
2,2011/11/02,Properly handle BLOB data from database  Signed-off-by: Daniele Ricci <daniele.athome@gmail.com>
944,2011/10/31,Porting to protocol buffers completed  Signed-off-by: Daniele Ricci <daniele.athome@gmail.com>
144,2011/10/31,Adding polling protocol buffers implementation  Signed-off-by: Daniele Ricci <daniele.athome@gmail.com>
403,2011/10/28,Porting of (almost) all requests to protocol buffers  Signed-off-by: Daniele Ricci <daniele.athome@gmail.com>
91,2011/10/28,Protocol definitions and protobuf library  Signed-off-by: Daniele Ricci <daniele.athome@gmail.com>
2,2011/10/23,Stuffing with Google C2DM :)  Signed-off-by: Daniele Ricci <daniele.athome@gmail.com>
2,2011/10/06,Cleanup  Signed-off-by: Daniele Ricci <daniele.athome@gmail.com>
20,2011/10/06,Manual server list update from preferences window  Signed-off-by: Daniele Ricci <daniele.athome@gmail.com>
2,2011/10/05,Begin to implement metaserver support  Signed-off-by: Daniele Ricci <daniele.athome@gmail.com>
2,2011/10/04,Observe for peer thread when composing in new conversation (closing #18)  Signed-off-by: Daniele Ricci <daniele.athome@gmail.com>
7,2011/10/04,Draft management should work well now.  Signed-off-by: Daniele Ricci <daniele.athome@gmail.com>
3,2011/9/16,Some progress in draft management (still work to be done though)  Signed-off-by: Daniele Ricci <daniele.athome@gmail.com>
23,2011/9/02,Some fixes in draft support  Signed-off-by: Daniele Ricci <daniele.athome@gmail.com>
1,2011/9/02,Correctly handling wildcard mime types for incoming ACTION_SEND intents  Signed-off-by: Daniele Ricci <daniele.athome@gmail.com>
5,2011/9/02,Optimizing cursor deactivation on activity pausing  Signed-off-by: Daniele Ricci <daniele.athome@gmail.com>
1,2011/9/02,Fix NPE on sending image  Signed-off-by: Daniele Ricci <daniele.athome@gmail.com>
8,2011/9/02,Fixing autoclosing of ComposeMessage activity  Signed-off-by: Daniele Ricci <daniele.athome@gmail.com>
2,2011/9/01,Ops :D  Signed-off-by: Daniele Ricci <daniele.athome@gmail.com>
9,2011/9/01,Optimizing some query stuff  Signed-off-by: Daniele Ricci <daniele.athome@gmail.com>
27,2011/9/01,Destroy cursors upon activities being paused  Signed-off-by: Daniele Ricci <daniele.athome@gmail.com>
10,2011/9/01,Draft feature complete  Not tested on tablet yet.  Signed-off-by: Daniele Ricci <daniele.athome@gmail.com>
10,2011/8/31,First beta support for drafts  WARNING threads table schema changed! Requires clear data before install!  Signed-off-by: Daniele Ricci <daniele.athome@gmail.com>
16,2011/8/31,Localizing some strings  Signed-off-by: Daniele Ricci <daniele.athome@gmail.com>
19,2011/8/31,Some fixes in how phone number in validation and sync are handled  It is not necessary anymore to prefix your number with country code when registering to the network.  Signed-off-by: Daniele Ricci <daniele.athome@gmail.com>
2,2011/8/31,Using dark theme for settings on API < 11  Signed-off-by: Daniele Ricci <daniele.athome@gmail.com>
3,2011/8/31,Using POST method for posting messages  Signed-off-by: Daniele Ricci <daniele.athome@gmail.com>
21,2011/8/25,Now compatibile (again) with API level 7  Signed-off-by: Daniele Ricci <daniele.athome@gmail.com>
229,2011/8/25,Hopefully should work on both 2.x and 3.x  Signed-off-by: Daniele Ricci <daniele.athome@gmail.com>
640,2011/8/24,Fragment support with preliminary conversation loading  WARNING - DOESN'T WORK WELL
6,2011/8/24,Fragments support WIP  WARNING - DOES NOT WORK ON TABLETS  Signed-off-by: Daniele Ricci <daniele.athome@gmail.com>
3,2011/8/24,NPE on ListAdapter before it was even created  Signed-off-by: Daniele Ricci <daniele.athome@gmail.com>
5,2011/8/24,Little adjustments - yet to be tested  Signed-off-by: Daniele Ricci <daniele.athome@gmail.com>
226,2011/8/23,Converting ConversationList to a single-fragment activity  This is going to be cool :)  Signed-off-by: Daniele Ricci <daniele.athome@gmail.com>
14,2011/8/23,Using inheritance for activity themes  Seems that we can't get rid of level 11...  Signed-off-by: Daniele Ricci <daniele.athome@gmail.com>
3,2011/8/23,Using uppercased region code  libphonenumber upgrade (3.8)  Signed-off-by: Daniele Ricci <daniele.athome@gmail.com>
3,2011/8/23,Using uppercased region code  libphonenumber upgrade (3.8)  Signed-off-by: Daniele Ricci <daniele.athome@gmail.com>
96,2011/8/15,New message list item layout for xlarge
1,2011/8/15,boolean typo
30,2011/8/15,Compatibility package with Android level 11+ Few changes in style for Honeycomb
19,2011/8/08,Tablet Changes
1,2011/8/08,Another test
2,2011/8/08,Other tests  Signed-off-by: Andrea Cappelli <a.cappelli87@gmail.com>
1,2011/7/31,Closed #31: Notifications don't sound  Signed-off-by: Daniele Ricci <daniele.athome@gmail.com>
5,2011/7/31,Preliminary version of the last seen banner  It's still not activity-safe but it works.  Signed-off-by: Daniele Ricci <daniele.athome@gmail.com>
3,2011/7/31,Some more strings for services title  Signed-off-by: Daniele Ricci <daniele.athome@gmail.com>
32,2011/7/31,Using changeMessageStatus in every places but one  Updating an outgoing message after the server has accepted it requires to insert MESSAGE_ID in the output dataset which is not handled by changeMessageStatus. For the moment we will do a manual update.  Signed-off-by: Daniele Ricci <daniele.athome@gmail.com>
4,2011/7/31,A few strings changes  Signed-off-by: Daniele Ricci <daniele.athome@gmail.com>
2,2011/7/30,Client set up with a last seen banner in compose message activity  Signed-off-by: Daniele Ricci <daniele.athome@gmail.com>
11,2011/7/30,Closed #28: Show "encrypted message" field in message details  Signed-off-by: Daniele Ricci <daniele.athome@gmail.com>
24,2011/7/30,Closing #26: Use right timestamps in the right places  Signed-off-by: Daniele Ricci <daniele.athome@gmail.com>
5,2011/7/30,Fixed restore state when rotating screen  Fixed wasEncrypted flag on incoming messages  Signed-off-by: Daniele Ricci <daniele.athome@gmail.com>
9,2011/7/30,Using blu balloons for encrypted messages  Fixed cleartext message bug (program was sending encrypted messages even if encryption was disabled)  Signed-off-by: Daniele Ricci <daniele.athome@gmail.com>
50,2011/7/30,Some UI differences for encrypted messages  Store encryption key in database for outgoing messages Database schema changed!  Signed-off-by: Daniele Ricci <daniele.athome@gmail.com>
87,2011/7/29,Using a single method for retrieving a conversation from both onNewIntent and onStart  Fix ellipsis zone hidden from conversations list  Signed-off-by: Daniele Ricci <daniele.athome@gmail.com>
3,2011/7/29,Using new B/W icons for status bar notifications  Signed-off-by: Daniele Ricci <daniele.athome@gmail.com>
44,2011/7/29,A lot of bugfixes  Upload notifications now open ComposeMessage on the right conversation Using Conversations Uris for better abstraction Threads/Messages relationships Image message sending via CHOOSER (refreshing cursor bug) fixed  Signed-off-by: Daniele Ricci <daniele.athome@gmail.com>
29,2011/7/28,Trying to fix cursor onchange bug  Signed-off-by: Daniele Ricci <daniele.athome@gmail.com>
15,2011/7/28,Other maintainance preferences  Signed-off-by: Daniele Ricci <daniele.athome@gmail.com>
38,2011/7/27,Client now accepts encrypted messages anyway allowing to keep them until the user decides how to decrypt them  The encrypted message will get stored in Base64 waiting for the user to decrypt it whenever the passphrase set is correct. User can now set passphrase regardless of the Encryption enabled flag.  Signed-off-by: Daniele Ricci <daniele.athome@gmail.com>
21,2011/7/26,Using the account name as my number  Some compatibility fixes in encryption method  Signed-off-by: Daniele Ricci <daniele.athome@gmail.com>
8,2011/7/25,Correctly handling received requests with origId  Signed-off-by: Daniele Ricci <daniele.athome@gmail.com>
1,2011/7/25,Still working on resource handling  Signed-off-by: Daniele Ricci <daniele.athome@gmail.com>
20,2011/7/24,Encryption: use the recipient number as the key  Signed-off-by: Daniele Ricci <daniele.athome@gmail.com>
4,2011/7/24,Encryption of plain text messages  Thanks to the android-notifier project for crypto code  Signed-off-by: Daniele Ricci <daniele.athome@gmail.com>
4,2011/7/21,Some experiments in sync  Signed-off-by: Daniele Ricci <daniele.athome@gmail.com>
1,2011/7/21,Some minor fixes  Signed-off-by: Daniele Ricci <daniele.athome@gmail.com>
42,2011/7/20,Behave correctly when a contact has multiple kontalk accounts  Signed-off-by: Daniele Ricci <daniele.athome@gmail.com>
1,2011/7/17,New version of library: libphonenumber-3.7.1  Signed-off-by: Daniele Ricci <daniele.athome@gmail.com>
44,2011/7/15,First alpha-beta-buggy-glitchy download service :)  Signed-off-by: Daniele Ricci <daniele.athome@gmail.com>
1,2011/7/14,Comment typo  Signed-off-by: Daniele Ricci <daniele.athome@gmail.com>
8,2011/7/14,Better progress notification (actually stolen from Android repository :P)  TODO this version doesn't build because of WIP on a new DownloadService class.  Signed-off-by: Daniele Ricci <daniele.athome@gmail.com>
4,2011/7/14,New contact picker - shows only Kontalk contacts  Added new preference: Restart message center  Signed-off-by: Daniele Ricci <daniele.athome@gmail.com>
1,2011/7/08,Fix strings  Signed-off-by: Daniele Ricci <daniele.athome@gmail.com>
12,2011/7/07,Status_changed timestamp  Signed-off-by: Daniele Ricci <daniele.athome@gmail.com>
12,2011/7/07,Do the contacts query first and check against server before starting to delete raw contacts  Signed-off-by: Daniele Ricci <daniele.athome@gmail.com>
4,2011/7/06,Delay notifications for new incoming message for 3 seconds  That will give time to the markAsRead thread to carry out its task so the notification doesn't get fired twice.  Signed-off-by: Daniele Ricci <daniele.athome@gmail.com>
1,2011/7/06,A few javadocs and comments  Signed-off-by: Daniele Ricci <daniele.athome@gmail.com>
5,2011/7/05,Few bugfixes and adjustements  Close ComposeMessage activity if no RawContact is found on data files message sending  Signed-off-by: Daniele Ricci <daniele.athome@gmail.com>
1,2011/7/03,Default server is now kontalk.org  Signed-off-by: Daniele Ricci <daniele.athome@gmail.com>
6,2011/7/03,Use SMS sender ID provided by server  Signed-off-by: Daniele Ricci <daniele.athome@gmail.com>
35,2011/7/03,Deleting an outgoing message now aborts the related sending operation  Signed-off-by: Daniele Ricci <daniele.athome@gmail.com>
197,2011/7/01,Renaming: Nuntius -> Kontalk  Signed-off-by: Daniele Ricci <daniele.athome@gmail.com>
125,2011/7/01,Thread options dialog  Outgoing requests handling refactoring  Signed-off-by: Daniele Ricci <daniele.athome@gmail.com>
120,2011/6/30,Message details dialog  Consider separated local Uri and fetch URL Fetched status flag in messages Use application data directory for local thumbnails Remove from/to-Bundle methods TODO use Parcelable  Signed-off-by: Daniele Ricci <daniele.athome@gmail.com>
44,2011/6/27,Manual validation completed and working  Signed-off-by: Daniele Ricci <daniele.athome@gmail.com>
93,2011/6/27,Some fixing in sync and db inserts  Signed-off-by: Daniele Ricci <daniele.athome@gmail.com>
57,2011/6/27,Begin to implement manual validation  Signed-off-by: Daniele Ricci <daniele.athome@gmail.com>
93,2011/6/25,Trying to figure out what is not working in sync  Signed-off-by: Daniele Ricci <daniele.athome@gmail.com>
30,2011/6/24,Implementing dummy sync method (delete all/restart from scratch)  Signed-off-by: Daniele Ricci <daniele.athome@gmail.com>
8,2011/6/23,Some style fixes  Sync algorithm refactoring - DOES NOT BUILD  Signed-off-by: Daniele Ricci <daniele.athome@gmail.com>
14,2011/6/22,Some i18n  Some stylish stuff  Signed-off-by: Daniele Ricci <daniele.athome@gmail.com>
88,2011/6/22,Date/time view in conversation view  View thumbnails also of sent media  Signed-off-by: Daniele Ricci <daniele.athome@gmail.com>
139,2011/6/21,Message sending and receiving seems ok  Now compatible with API level 7 (2.1) Many bug fixes  Signed-off-by: Daniele Ricci <daniele.athome@gmail.com>
49,2011/6/20,Upload completed more or less  TODO should optimize some reading from filesystem instead of buffering data inside byte arrays  Signed-off-by: Daniele Ricci <daniele.athome@gmail.com>
155,2011/6/20,First implementation of the progress notification for outgoing messages.  I couldn't test it because i was in a hurry :D  Signed-off-by: Daniele Ricci <daniele.athome@gmail.com>
138,2011/6/19,Porting to the message handling system  Messages are sent using RequestWorker (for now); eventually that should be a separated service using startForeground() to notify the progress of big files uploads.  Signed-off-by: Daniele Ricci <daniele.athome@gmail.com>
7,2011/6/17,Ancora progressi su upload/download  Signed-off-by: Daniele Ricci <daniele.athome@gmail.com>
7,2011/6/16,Inizio supporto per upload/download big files  Signed-off-by: Daniele Ricci <daniele.athome@gmail.com>
41,2011/6/16,Processamento immagini migliore e altri fix  Signed-off-by: Daniele Ricci <daniele.athome@gmail.com>
2,2011/6/16,Controlla bitmap immagine ricevuta diversa da null  Signed-off-by: Daniele Ricci <daniele.athome@gmail.com>
199,2011/6/15,Non chiudere il db nel provider dei messaggi  Alcuni fix e migliorie Rimosso UsersProvider  Signed-off-by: Daniele Ricci <daniele.athome@gmail.com>
58,2011/6/15,Gestione stato thread (via trigger)  Uso thumbnail nel balloon Richiesta API Level 8 Migliore gestione notifiche  Signed-off-by: Daniele Ricci <daniele.athome@gmail.com>
38,2011/6/14,Un po di prove del ciclo di vita  Signed-off-by: Daniele Ricci <daniele.athome@gmail.com>
235,2011/6/14,Send/receive immagini  Signed-off-by: Daniele Ricci <daniele.athome@gmail.com>
8,2011/6/13,Test (bacatissimo) ricezione immagini  Signed-off-by: Daniele Ricci <daniele.athome@gmail.com>
12,2011/6/13,Primi test ImageMessage  Signed-off-by: Daniele Ricci <daniele.athome@gmail.com>
1,2011/6/12,NetworkInfo null in caso di connessione assente  Signed-off-by: Daniele Ricci <daniele.athome@gmail.com>
26,2011/6/11,Migliore gestione pausa/stop message center  Signed-off-by: Daniele Ricci <daniele.athome@gmail.com>
84,2011/6/11,Pausa/resume message center  Signed-off-by: Daniele Ricci <daniele.athome@gmail.com>
34,2011/6/10,Inizio gestione reincodamento richieste  Receiver per NetworkState (da finire)  Signed-off-by: Daniele Ricci <daniele.athome@gmail.com>
85,2011/6/09,Gestione notifiche beta  Ricarica dinamica messaggi e varie cosuccie  Signed-off-by: Daniele Ricci <daniele.athome@gmail.com>
16,2011/6/08,Cancellazione thread vuoti  Altri trigger nel db messaggi  Signed-off-by: Daniele Ricci <daniele.athome@gmail.com>
96,2011/6/08,Cancellazione thread  Chiamate e view contatto Nuvolette :)  Signed-off-by: Daniele Ricci <daniele.athome@gmail.com>
3,2011/6/08,Un po' di sistemazioni  Signed-off-by: Daniele Ricci <daniele.athome@gmail.com>
30,2011/6/07,Alcuni fix nel recupero contatti ecc.  Compose message rimanda al picker dei contatti Immagine balloon di prova :)  Signed-off-by: Daniele Ricci <daniele.athome@gmail.com>
2,2011/6/05,Niente  Signed-off-by: Daniele Ricci <daniele.athome@gmail.com>
40,2011/6/05,Integrazione del QuickContactBadge  Libreria libphonenumber-3.5 Integrazione con i contatti completa di ricalcolo SHA1 e matching con i numeri di telefono  Signed-off-by: Daniele Ricci <daniele.athome@gmail.com>
19,2011/6/05,SyncProvider senza rete! :)  Signed-off-by: Daniele Ricci <daniele.athome@gmail.com>
232,2011/6/04,Integrazione con AccountManager  Icona AppleScript :) NumberValidation integrato con sistema AccountManager  Signed-off-by: Daniele Ricci <daniele.athome@gmail.com>
109,2011/6/03,Lista messaggi ricezione invio conferma... un boato di roba!!!  Un po copiato da Mms di Android ma per ora funziona :D  Signed-off-by: Daniele Ricci <daniele.athome@gmail.com>
9,2011/6/03,Primi test conversazione  Signed-off-by: Daniele Ricci <daniele.athome@gmail.com>
20,2011/6/02,Un po' di roba  Signed-off-by: Daniele Ricci <daniele.athome@gmail.com>
51,2011/6/01,Processo di autenticazione beta 1 :)  Mamma la roba...  Signed-off-by: Daniele Ricci <daniele.athome@gmail.com>
4,2011/5/31,Alcuni piccoli aggiustamenti  Signed-off-by: Daniele Ricci <daniele.athome@gmail.com>
187,2011/5/31,Parecchia roba  Signed-off-by: Daniele Ricci <daniele.athome@gmail.com>
83,2011/5/29,Provider funzionante con una lista di thread! :)  Signed-off-by: Daniele Ricci <daniele.athome@gmail.com>
156,2011/5/28,ContentProvider di prova e MessageCenter funzionanti  Signed-off-by: Daniele Ricci <daniele.athome@gmail.com>
70,2011/5/28,Meccanismi di base polling/received funzionanti  RequestWorker e PollingThread YEAH! :)  Signed-off-by: Daniele Ricci <daniele.athome@gmail.com>
154,2011/5/27,Parecchie cose :P  Signed-off-by: Daniele Ricci <daniele.athome@gmail.com>
108,2011/5/27,Cominciamo a costruire qualcosa di serio...  Signed-off-by: Daniele Ricci <daniele.athome@gmail.com>
