Topic Index 1,Topic Index 2,Topic Similarity
5,11,25.0
0,1,11.11111111111111
1,4,11.11111111111111
2,0,11.11111111111111
6,8,11.11111111111111
8,15,11.11111111111111
9,12,11.11111111111111
10,6,11.11111111111111
13,14,11.11111111111111
14,19,11.11111111111111
15,17,11.11111111111111
18,18,11.11111111111111
3,16,5.263157894736842
7,2,5.263157894736842
11,10,5.263157894736842
19,13,5.263157894736842
4,3,0.0
12,5,0.0
16,7,0.0
17,9,0.0
