Topic,Words
0,0.323*smart,0.114*to,0.109*where,0.083*difficult,0.060*the,0.055*use,0.051*number,0.047*my,0.043*server,0.038*demo
1,0.267*demo,0.146*the,0.099*server,0.076*number,0.074*difficult,0.064*my,0.060*insert,0.060*in,0.057*to,0.031*see
2,0.133*smart,0.125*my,0.095*difficult,0.070*insert,0.070*see,0.070*number,0.063*where,0.061*in,0.061*the,0.059*phone
3,0.184*phone,0.137*demo,0.118*where,0.103*my,0.087*this,0.080*see,0.068*use,0.062*difficult,0.057*to,0.034*smart
4,0.185*in,0.132*the,0.113*where,0.105*this,0.092*to,0.084*difficult,0.056*server,0.050*number,0.041*insert,0.038*smart
5,0.201*the,0.179*to,0.088*server,0.086*in,0.065*see,0.065*number,0.063*my,0.059*this,0.055*where,0.045*insert
6,0.210*phone,0.157*use,0.138*smart,0.135*where,0.070*the,0.069*difficult,0.061*server,0.038*demo,0.031*this,0.024*my
7,0.214*my,0.188*server,0.113*in,0.113*phone,0.093*smart,0.083*number,0.061*to,0.031*insert,0.031*use,0.025*this
8,0.308*the,0.163*server,0.094*difficult,0.091*my,0.091*insert,0.062*smart,0.059*to,0.051*demo,0.027*in,0.018*where
9,0.174*see,0.153*where,0.107*difficult,0.085*this,0.085*number,0.082*phone,0.074*to,0.057*the,0.055*server,0.028*insert
10,0.275*difficult,0.185*use,0.138*demo,0.097*this,0.071*where,0.049*the,0.046*see,0.044*phone,0.026*insert,0.023*in
11,0.237*phone,0.149*demo,0.100*use,0.098*my,0.089*see,0.070*insert,0.059*in,0.056*this,0.038*where,0.028*server
12,0.243*number,0.156*where,0.103*smart,0.086*phone,0.074*use,0.065*in,0.063*difficult,0.059*server,0.054*this,0.048*my
13,0.270*smart,0.178*in,0.142*server,0.084*to,0.072*demo,0.058*difficult,0.048*phone,0.036*the,0.033*insert,0.027*use
14,0.173*to,0.149*server,0.129*smart,0.103*in,0.100*insert,0.090*use,0.074*the,0.069*my,0.027*phone,0.022*see
15,0.337*phone,0.118*the,0.107*demo,0.097*my,0.085*insert,0.067*to,0.037*where,0.027*smart,0.026*in,0.025*see
16,0.167*phone,0.148*number,0.145*this,0.094*my,0.083*insert,0.066*smart,0.051*server,0.041*to,0.041*demo,0.040*difficult
17,0.242*my,0.220*server,0.186*demo,0.080*in,0.062*phone,0.050*smart,0.035*see,0.028*where,0.028*the,0.024*difficult
18,0.119*number,0.108*to,0.105*see,0.097*difficult,0.085*server,0.079*in,0.073*use,0.069*this,0.051*phone,0.046*smart
19,0.165*to,0.159*smart,0.141*my,0.114*use,0.110*phone,0.107*insert,0.047*number,0.041*this,0.031*where,0.028*the
