App,Store,App ID,Review ID,Country,Version,Rating,Date,Author,Subject,Body,Translated Subject,Translated Body
Dialer for Pebble,Google Play,com.matejdro.pebbledialer,Z3A6QU9xcFRPSHpSdnp5UjJ0ZU82ZWJZT0kzckhLenM4cEdId0JmVW5YNVVmMFd4bWVfZlZvUTFIUDVLdkFFZndhOEtKb2RlOU5MTWVzZDJtZ01FdGQxLXpn,English,,4,2016-05-09,Candice Bronx,Better,better but the update it stop working,,
Dialer for Pebble,Google Play,com.matejdro.pebbledialer,Z3A6QU9xcFRPRWxDM0IzcmpHV05MaHZvdF9KYzFwUGQ2T1dYSWQ1U0ZSS0t5YVh4ZENma0s4WFZFUjBPaUVhNGhnSXktN1ZGQmFxRFREM2RCcVUwWTgzNGtF,English,,3,2016-05-01,Jon Brown,,complaint cant answer call,,
Dialer for Pebble,Google Play,com.matejdro.pebbledialer,Z3A6QU9xcFRPR2VxeE9qbzlxNU92OTJVaHZTTlVNY0RpaS12QlRrYkJ3T3NwRGpDeEphdkNOSHFwRzhodmZQemRqN09Qc25lVno1ek9rUzU4S2lqVDhwLUtv,English,,4,2016-04-19,Samuel W,Some glitches but works again.,glad to be able to use it again,,
Dialer for Pebble,Google Play,com.matejdro.pebbledialer,Z3A6QU9xcFRPSF9OVUpYWGlxSXVWYkpsX0JIek8xbmtjNGE2TVZkdllwS0dZa1k3R3pNOFVTMzNxTjJHSFFTYkNYdVR2YWd5QmRlbVdLMnpPS1hzM1NrQnpJ,English,,5,2016-04-12,bhen Levi,Not working,working in my pebble why,,
Dialer for Pebble,Google Play,com.matejdro.pebbledialer,Z3A6QU9xcFRPRlZWbHBrRVBBRERMQmExTWEyNTVVZHBBUHBEWURZa0NkWTBYOEJBcmJwWnJRUGhKYU84NjhXZ0RJZFpuSVU2QjVybnVxNnQzazczTG1SNzV3,English,,4,2016-04-09,Michael Spriggs,Work's okay but second best,watch,,
Dialer for Pebble,Google Play,com.matejdro.pebbledialer,Z3A6QU9xcFRPR2YzQk5CSzhvbmZ0d08wMno1UFNISVZ0VWtyMVRlR2NobHJDaERXNmtsYVE2UzhvLUVFYklnNjJVdmRPdFFzLXhNVzVoQm9nSGVOTjZNZS1Z,English,,3,2016-03-29,Roshan Manav,Delayed and longer vibration,notifies a few second call arrives and keep vibrating even after receiving call,,
Dialer for Pebble,Google Play,com.matejdro.pebbledialer,Z3A6QU9xcFRPR2YzQk5CSzhvbmZ0d08wMno1UFNISVZ0VWtyMVRlR2NobHJDaERXNmtsYVE2UzhvLUVFYklnNjJVdmRPdFFzLXhNVzVoQm9nSGVOTjZNZS1Z,English,,3,2016-03-29,Roshan Manav,Delayed and longer vibration,fix bug,,
Dialer for Pebble,Google Play,com.matejdro.pebbledialer,Z3A6QU9xcFRPRnRIaVN3VVBDMTY0TUdMeXpqTXNaY3FyTFMzdHBfREs1WkxJdWY4dDZpUm1WRGJ3WUZ2TFVlYjNQcW9Vbk5wejNkUnVDclZacTc0MTVNVGNZ,English,,3,2016-03-19,Rui Valdez,Very good app. But needs improvement,very good,,
Dialer for Pebble,Google Play,com.matejdro.pebbledialer,Z3A6QU9xcFRPRnRIaVN3VVBDMTY0TUdMeXpqTXNaY3FyTFMzdHBfREs1WkxJdWY4dDZpUm1WRGJ3WUZ2TFVlYjNQcW9Vbk5wejNkUnVDclZacTc0MTVNVGNZ,English,,3,2016-03-19,Rui Valdez,Very good app. But needs improvement,a must have,,
Dialer for Pebble,Google Play,com.matejdro.pebbledialer,Z3A6QU9xcFRPRnRIaVN3VVBDMTY0TUdMeXpqTXNaY3FyTFMzdHBfREs1WkxJdWY4dDZpUm1WRGJ3WUZ2TFVlYjNQcW9Vbk5wejNkUnVDclZacTc0MTVNVGNZ,English,,3,2016-03-19,Rui Valdez,Very good app. But needs improvement,but now i am using pebble round,,
Dialer for Pebble,Google Play,com.matejdro.pebbledialer,Z3A6QU9xcFRPRnRIaVN3VVBDMTY0TUdMeXpqTXNaY3FyTFMzdHBfREs1WkxJdWY4dDZpUm1WRGJ3WUZ2TFVlYjNQcW9Vbk5wejNkUnVDclZacTc0MTVNVGNZ,English,,3,2016-03-19,Rui Valdez,Very good app. But needs improvement,i feel she need improvement,,
Dialer for Pebble,Google Play,com.matejdro.pebbledialer,Z3A6QU9xcFRPRnRIaVN3VVBDMTY0TUdMeXpqTXNaY3FyTFMzdHBfREs1WkxJdWY4dDZpUm1WRGJ3WUZ2TFVlYjNQcW9Vbk5wejNkUnVDclZacTc0MTVNVGNZ,English,,3,2016-03-19,Rui Valdez,Very good app. But needs improvement,you do this i will give 5 star again,,
Dialer for Pebble,Google Play,com.matejdro.pebbledialer,Z3A6QU9xcFRPRWZGNk1fRWVxY3pQclpVaG1GSnF4enFxMkhvSi1RVUFIYXBPQy1tLTJlWnpuYThucmdoTmoxZk50NTVvRXB4NXVHOWQwQ2RkWmtjM2NEaGxR,English,,1,2016-03-12,Jordan Mellow,,broken on pebble time,,
Dialer for Pebble,Google Play,com.matejdro.pebbledialer,Z3A6QU9xcFRPRWZGNk1fRWVxY3pQclpVaG1GSnF4enFxMkhvSi1RVUFIYXBPQy1tLTJlWnpuYThucmdoTmoxZk50NTVvRXB4NXVHOWQwQ2RkWmtjM2NEaGxR,English,,1,2016-03-12,Jordan Mellow,,contact list is unusable,,
Dialer for Pebble,Google Play,com.matejdro.pebbledialer,Z3A6QU9xcFRPRWZGNk1fRWVxY3pQclpVaG1GSnF4enFxMkhvSi1RVUFIYXBPQy1tLTJlWnpuYThucmdoTmoxZk50NTVvRXB4NXVHOWQwQ2RkWmtjM2NEaGxR,English,,1,2016-03-12,Jordan Mellow,,no contact can be selected,,
Dialer for Pebble,Google Play,com.matejdro.pebbledialer,Z3A6QU9xcFRPRVBEcUFveU1nMWlfZzAwVnZrZmduQzd4T1RRdUozU2FuNWUwempQeWFuSFV4X3N2SGtCUUptYUdhNGFlN0M4SUJsOU1Zemx2cFdhZ2hYYmpB,English,,3,2016-03-10,Charlie Angel,Why???!!!,please fix,,
Dialer for Pebble,Google Play,com.matejdro.pebbledialer,Z3A6QU9xcFRPRVBEcUFveU1nMWlfZzAwVnZrZmduQzd4T1RRdUozU2FuNWUwempQeWFuSFV4X3N2SGtCUUptYUdhNGFlN0M4SUJsOU1Zemx2cFdhZ2hYYmpB,English,,3,2016-03-10,Charlie Angel,Why???!!!,is there a paid version available,,
Dialer for Pebble,Google Play,com.matejdro.pebbledialer,Z3A6QU9xcFRPR0hFNnFRWVlwX2xQanVKQ1lmZVVvRUZfQkl1cVZlNUVFcXNmYkJZQTJmRVE4T3dMVTZBYk1jZXhfWi11UTdoUTlzT2h3WmNLbFhZRjdBUmRr,English,,5,2016-03-02,Harshal Sachade,Must have!,perfect,,
Dialer for Pebble,Google Play,com.matejdro.pebbledialer,Z3A6QU9xcFRPR0hFNnFRWVlwX2xQanVKQ1lmZVVvRUZfQkl1cVZlNUVFcXNmYkJZQTJmRVE4T3dMVTZBYk1jZXhfWi11UTdoUTlzT2h3WmNLbFhZRjdBUmRr,English,,5,2016-03-02,Harshal Sachade,Must have!,hack is you need to press back button on incoming call on your pebble and option will appear to etc or whatever you select in the companion,,
Dialer for Pebble,Google Play,com.matejdro.pebbledialer,Z3A6QU9xcFRPR0hFNnFRWVlwX2xQanVKQ1lmZVVvRUZfQkl1cVZlNUVFcXNmYkJZQTJmRVE4T3dMVTZBYk1jZXhfWi11UTdoUTlzT2h3WmNLbFhZRjdBUmRr,English,,5,2016-03-02,Harshal Sachade,Must have!,kudos,,
Dialer for Pebble,Google Play,com.matejdro.pebbledialer,Z3A6QU9xcFRPSEhHdnZmejlQRlVPRWc5MVlpVGYwZ29uVU1UTXFaemhVb1BXVFE1RXhjTDJ4TDMtTWxnS3UyZEJUaE1BYkRGNDA4b0M2dEIzMTFGeVlvOTBF,English,,3,2016-03-01,Goo Gal,MULTIPLE DIALLER WINDOW,i like this even though i had to update to pebble time to use it pebble steel but my problem is that i make a call on my a window pop up with several option to dial for example to use etc,,
Dialer for Pebble,Google Play,com.matejdro.pebbledialer,Z3A6QU9xcFRPSEhHdnZmejlQRlVPRWc5MVlpVGYwZ29uVU1UTXFaemhVb1BXVFE1RXhjTDJ4TDMtTWxnS3UyZEJUaE1BYkRGNDA4b0M2dEIzMTFGeVlvOTBF,English,,3,2016-03-01,Goo Gal,MULTIPLE DIALLER WINDOW,obviously this present the function on pebble with a how to choose dial option to proceed with call,,
Dialer for Pebble,Google Play,com.matejdro.pebbledialer,Z3A6QU9xcFRPRXdDemxSQkhfcENOTUdTTm04R0J2X1ZZeHFLZGdEUkNTTWI3aTBIX2pCMmx6cnNyZHNPaXhQZFUwemJuVktHb3ZrZ1N0NXpZQ3NYWkkxRWhZ,English,,5,2016-02-25,Soe Moe Naing,So special,most favorite for pebble,,
Dialer for Pebble,Google Play,com.matejdro.pebbledialer,Z3A6QU9xcFRPRXdDemxSQkhfcENOTUdTTm04R0J2X1ZZeHFLZGdEUkNTTWI3aTBIX2pCMmx6cnNyZHNPaXhQZFUwemJuVktHb3ZrZ1N0NXpZQ3NYWkkxRWhZ,English,,5,2016-02-25,Soe Moe Naing,So special,hope new feature,,
Dialer for Pebble,Google Play,com.matejdro.pebbledialer,Z3A6QU9xcFRPRlFnbDU0RDNZMDFGbkFiWW5hQVBZRHFLYjJDYU92NjVveEd6bnVleGxYVmNnbjJzS0lURWpxTW5qU2swekpYUjRPUVo5T1VYb0FhUk5KLVY4,English,,5,2016-02-24,Elvis Lees,Great App,work great,,
Dialer for Pebble,Google Play,com.matejdro.pebbledialer,Z3A6QU9xcFRPRlFnbDU0RDNZMDFGbkFiWW5hQVBZRHFLYjJDYU92NjVveEd6bnVleGxYVmNnbjJzS0lURWpxTW5qU2swekpYUjRPUVo5T1VYb0FhUk5KLVY4,English,,5,2016-02-24,Elvis Lees,Great App,i can make call without any trouble,,
Dialer for Pebble,Google Play,com.matejdro.pebbledialer,Z3A6QU9xcFRPRlFnbDU0RDNZMDFGbkFiWW5hQVBZRHFLYjJDYU92NjVveEd6bnVleGxYVmNnbjJzS0lURWpxTW5qU2swekpYUjRPUVo5T1VYb0FhUk5KLVY4,English,,5,2016-02-24,Elvis Lees,Great App,to answer a i have to click the back button to get out of the default call first then the dialer show up and i can answer call,,
Dialer for Pebble,Google Play,com.matejdro.pebbledialer,Z3A6QU9xcFRPRi1WRDk5WVNkakNIWmVRY05fbFNicXVmVlpoNG1Ed2hjYUxVd0lVYVdwdTktbjYyVVhGNjFzU1F4eGVzRENXSUc2NUtsZFhuYTE1b2R2cS1R,English,,4,2016-02-05,Andres Hermes,Works better than default app,feel still a little buggy on the new pebble,,
Dialer for Pebble,Google Play,com.matejdro.pebbledialer,Z3A6QU9xcFRPRTJUa0JPclpXdDBTaG9zSVNxRUw2cG84VzNVYjZnbUVxT0RTWGstSi0wQ01kRDBUeW5qaUdmUEwtT082a2NRWUdsV3FacUJ5MWtfcWRjaEJR,English,,1,2016-02-02,Luc Allmon,Only on 3.0? Why?,this used to be an essential on my pebble,,
Dialer for Pebble,Google Play,com.matejdro.pebbledialer,Z3A6QU9xcFRPRTJUa0JPclpXdDBTaG9zSVNxRUw2cG84VzNVYjZnbUVxT0RTWGstSi0wQ01kRDBUeW5qaUdmUEwtT082a2NRWUdsV3FacUJ5MWtfcWRjaEJR,English,,1,2016-02-02,Luc Allmon,Only on 3.0? Why?,i have to permanently upgrade my firmware to 30 to get it to work,,
Dialer for Pebble,Google Play,com.matejdro.pebbledialer,Z3A6QU9xcFRPRVZJWU9yMTJWenI2MFpGcERKWVJhUEZ4WE5RYjFwY0ZtMnNuTlpyVkFvQ3lycE5SdzZjS2dTN0pBcUwwMzRrN0Z2aTRHd2Jxd2hPMDhoVUNF,English,,2,2016-01-30,Павло Клименко,,but i see these option i dial from pebble,,
Dialer for Pebble,Google Play,com.matejdro.pebbledialer,Z3A6QU9xcFRPRVZJWU9yMTJWenI2MFpGcERKWVJhUEZ4WE5RYjFwY0ZtMnNuTlpyVkFvQ3lycE5SdzZjS2dTN0pBcUwwMzRrN0Z2aTRHd2Jxd2hPMDhoVUNF,English,,2,2016-01-30,Павло Клименко,,rooted mode is checked,,
Dialer for Pebble,Google Play,com.matejdro.pebbledialer,Z3A6QU9xcFRPRVZJWU9yMTJWenI2MFpGcERKWVJhUEZ4WE5RYjFwY0ZtMnNuTlpyVkFvQ3lycE5SdzZjS2dTN0pBcUwwMzRrN0Z2aTRHd2Jxd2hPMDhoVUNF,English,,2,2016-01-30,Павло Клименко,,i have tried it on 51 and 601,,
Dialer for Pebble,Google Play,com.matejdro.pebbledialer,Z3A6QU9xcFRPRVZJWU9yMTJWenI2MFpGcERKWVJhUEZ4WE5RYjFwY0ZtMnNuTlpyVkFvQ3lycE5SdzZjS2dTN0pBcUwwMzRrN0Z2aTRHd2Jxd2hPMDhoVUNF,English,,2,2016-01-30,Павло Клименко,,please help,,
Dialer for Pebble,Google Play,com.matejdro.pebbledialer,Z3A6QU9xcFRPRklCNXpVU2xDMUxoSnZyTTVSVlVzbXU5SW1rblBvRnBxclBGRWh0OWpVRlpkcVZsQmtBMkNVRnFDUHVRUTNnTVRVdGo4WmdNU3VnckJpeWZB,English,,2,2016-01-14,Darren Salt,Crashes after making call,you have to reload the dialer to your pebble from inside the pebble it work for me,,
Dialer for Pebble,Google Play,com.matejdro.pebbledialer,Z3A6QU9xcFRPRjZ1d2JoT1FDRmhwTFhnZUxZbUx1X0ZRTWgzd0NrSmJwMUdPVTVnS1VXVk1RRVYxM2w2MUdJdlFYY0l2cWIyVGJ2MmdyNnF1UW0ySURLSzhv,English,,5,2016-01-12,Edy shabazz,Awesome,dose what it say,,
Dialer for Pebble,Google Play,com.matejdro.pebbledialer,Z3A6QU9xcFRPRjZ1d2JoT1FDRmhwTFhnZUxZbUx1X0ZRTWgzd0NrSmJwMUdPVTVnS1VXVk1RRVYxM2w2MUdJdlFYY0l2cWIyVGJ2MmdyNnF1UW0ySURLSzhv,English,,5,2016-01-12,Edy shabazz,Awesome,work even better with headset,,
Dialer for Pebble,Google Play,com.matejdro.pebbledialer,Z3A6QU9xcFRPSE1TNE5WZUZpSDdtUnZsM2xQQmNSZEZlMno3dUJrUlFfd2YtZGxPOF9samtUV3gtYzVjcjU0Z1d5aGJmU0U0WmJqdDloMUQ0ZGRrQWRmWTZr,English,,5,2016-01-10,Emill Lezondra,Keep phone in pocket!,awesome pebble truly exemplifies how smart watch interacts with an equally awesome smart phone,,
Dialer for Pebble,Google Play,com.matejdro.pebbledialer,Z3A6QU9xcFRPSGV0OENiaENTbWptMWZZT2VIdE84RVU1UjVwUGkxdzZpWEpkUFJSVk01MW5iaVJ3X2d0ejZ1cFM5amsxcVQ4THg3MDFrUU4xWGNqenJ6RVY0,English,,5,2016-01-08,,Loved it,it is one of very good for,,
Dialer for Pebble,Google Play,com.matejdro.pebbledialer,Z3A6QU9xcFRPSGV0OENiaENTbWptMWZZT2VIdE84RVU1UjVwUGkxdzZpWEpkUFJSVk01MW5iaVJ3X2d0ejZ1cFM5amsxcVQ4THg3MDFrUU4xWGNqenJ6RVY0,English,,5,2016-01-08,,Loved it,i am really thankful for providing this,,
Dialer for Pebble,Google Play,com.matejdro.pebbledialer,Z3A6QU9xcFRPSGV0OENiaENTbWptMWZZT2VIdE84RVU1UjVwUGkxdzZpWEpkUFJSVk01MW5iaVJ3X2d0ejZ1cFM5amsxcVQ4THg3MDFrUU4xWGNqenJ6RVY0,English,,5,2016-01-08,,Loved it,fantastic,,
