Topic,Words
0,0.120*been,0.090*zoo,0.088*more,0.081*done,0.069*download,0.059*member,0.051*a,0.043*lunch,0.037*time,0.037*coffee
1,0.163*than,0.152*new,0.083*job,0.060*more,0.055*done,0.049*the,0.038*for,0.036*and,0.034*been,0.033*cannot
2,0.194*subjects,0.109*get,0.074*job,0.071*zoo,0.057*more,0.044*the,0.044*member,0.040*in,0.037*than,0.036*awesome
3,0.186*zoo,0.100*cannot,0.094*time,0.085*download,0.059*in,0.058*new,0.048*than,0.039*member,0.039*done,0.038*get
4,0.257*new,0.131*been,0.075*in,0.072*the,0.056*more,0.052*a,0.052*job,0.040*of,0.032*species,0.026*i
5,0.114*been,0.104*please,0.090*new,0.085*in,0.054*and,0.053*zoo,0.047*lunch,0.046*download,0.040*i,0.039*time
6,0.160*zoo,0.094*coffee,0.071*please,0.064*a,0.057*awesome,0.057*species,0.056*time,0.055*lunch,0.043*my,0.036*and
7,0.131*more,0.109*now,0.068*job,0.066*been,0.058*member,0.053*cannot,0.047*lunch,0.045*in,0.044*awesome,0.039*please
8,0.155*than,0.076*new,0.069*zoo,0.060*in,0.057*awesome,0.056*member,0.052*i,0.049*and,0.046*more,0.046*download
9,0.097*zoo,0.079*lunch,0.074*more,0.074*the,0.073*in,0.073*species,0.063*awesome,0.060*subjects,0.057*than,0.041*get
10,0.196*coffee,0.095*in,0.088*i,0.088*and,0.060*get,0.059*long,0.044*of,0.043*job,0.041*subjects,0.035*lunch
11,0.133*been,0.124*a,0.119*cannot,0.086*my,0.081*lunch,0.056*member,0.050*coffee,0.049*for,0.033*than,0.030*done
12,0.118*breaks,0.101*and,0.093*please,0.090*cannot,0.068*zoo,0.062*than,0.061*now,0.054*get,0.052*member,0.047*a
13,0.083*of,0.078*breaks,0.068*zoo,0.065*than,0.065*cannot,0.062*in,0.056*awesome,0.050*new,0.047*now,0.045*get
14,0.113*awesome,0.102*my,0.084*please,0.076*been,0.056*download,0.054*coffee,0.053*long,0.051*and,0.050*new,0.049*a
15,0.136*download,0.131*zoo,0.068*subjects,0.063*done,0.053*my,0.048*cannot,0.044*long,0.044*lunch,0.040*breaks,0.037*get
16,0.201*zoo,0.100*coffee,0.075*please,0.060*for,0.058*member,0.055*i,0.054*my,0.054*and,0.049*get,0.035*long
17,0.103*zoo,0.102*now,0.076*and,0.059*breaks,0.058*job,0.054*awesome,0.047*for,0.045*of,0.041*please,0.037*cannot
18,0.100*long,0.071*of,0.070*job,0.068*awesome,0.067*new,0.066*the,0.063*been,0.058*subjects,0.057*now,0.056*done
19,0.169*cannot,0.109*more,0.081*in,0.080*than,0.062*lunch,0.055*job,0.049*awesome,0.048*member,0.040*time,0.035*please
