Topic,Words
0,0.031*dozen,0.027*straight,0.027*identify,0.023*they,0.022*were,0.020*to,0.020*the,0.019*know,0.016*explains,0.016*up
1,0.026*fails,0.026*work,0.024*mistake,0.021*a,0.018*pop,0.017*test,0.016*seen,0.016*results,0.016*any,0.016*something
2,0.026*go,0.025*great,0.022*because,0.021*a,0.020*even,0.020*works,0.020*it's,0.018*supernova,0.018*position,0.018*month
3,0.031*not,0.031*seen,0.026*thanks,0.022*a,0.019*where,0.018*my,0.018*their,0.017*also,0.016*no,0.016*usage
4,0.041*usage,0.033*password,0.031*on,0.029*position,0.025*context,0.021*did,0.020*dozen,0.020*month,0.017*the,0.017*screens
5,0.037*usage,0.027*perfectly,0.026*sensitive,0.024*were,0.024*want,0.023*compare,0.021*images,0.021*indicate,0.020*and,0.020*thanks
6,0.039*up,0.037*want,0.028*picking,0.022*with,0.021*great,0.019*classifications,0.019*sometimes,0.019*retrieval,0.018*not,0.018*than
7,0.038*up,0.038*their,0.036*thanks,0.028*could,0.028*straight,0.025*fails,0.025*it,0.022*indicate,0.021*back,0.021*particularly
8,0.036*an,0.029*of,0.027*100,0.026*where,0.025*before,0.025*back,0.022*differences,0.020*possible,0.020*they've,0.018*because
9,0.034*far,0.033*mostly,0.031*my,0.025*supernova,0.023*go,0.022*data,0.022*you're,0.020*through,0.020*and,0.019*user
10,0.053*give,0.033*across,0.025*complicated,0.023*screens,0.022*it,0.021*sometimes,0.020*explains,0.018*user,0.018*are,0.016*system
11,0.029*so,0.028*usage,0.026*since,0.022*some,0.022*looks,0.020*zoom,0.019*data,0.019*option,0.019*back,0.019*help
12,0.028*they've,0.028*perfectly,0.026*screens,0.025*the,0.023*were,0.022*used,0.022*set,0.021*fix,0.021*left,0.020*relatively
13,0.024*an,0.024*one,0.023*know,0.023*brighter,0.022*it's,0.020*right,0.020*low,0.019*sometimes,0.018*thanks,0.018*best
14,0.038*join,0.034*them,0.027*helped,0.025*far,0.024*fails,0.023*don't,0.022*across,0.020*allow,0.020*coming,0.017*doing
15,0.027*were,0.027*its,0.023*know,0.021*so,0.019*always,0.018*my,0.018*i,0.016*through,0.015*100,0.015*aren't
16,0.046*where,0.040*fails,0.030*this,0.023*low,0.021*complicated,0.021*images,0.020*quick,0.019*possible,0.019*join,0.018*dozen
17,0.031*using,0.026*join,0.023*brighter,0.018*a,0.018*data,0.017*beginner,0.017*allow,0.017*each,0.017*any,0.017*images
18,0.031*unfortunately,0.029*and,0.028*straight,0.028*them,0.022*results,0.022*is,0.021*also,0.020*too,0.019*classification,0.018*seen
19,0.028*resting,0.025*great,0.025*this,0.023*sensitive,0.020*where,0.019*done,0.019*was,0.019*give,0.019*know,0.018*beginner
