Topic,Words
0,0.141*i,0.118*inverted,0.093*and,0.086*cool,0.082*very,0.071*you,0.070*like,0.063*list,0.061*easy,0.060*how
1,0.223*review,0.129*inverted,0.115*very,0.110*image,0.091*fast,0.085*cool,0.067*and,0.064*how,0.030*like,0.029*can
2,0.163*and,0.133*very,0.112*cool,0.107*easy,0.062*list,0.060*you,0.057*review,0.055*fast,0.054*inverted,0.051*see
3,0.424*see,0.276*how,0.052*you,0.048*easy,0.041*can,0.033*list,0.032*like,0.021*fast,0.019*and,0.015*review
4,0.215*fast,0.137*inverted,0.123*you,0.097*image,0.084*list,0.069*can,0.054*like,0.053*and,0.051*review,0.042*cool
5,0.181*fast,0.138*very,0.094*and,0.091*cool,0.089*i,0.078*like,0.066*you,0.059*review,0.040*see,0.040*list
6,0.262*see,0.158*image,0.123*how,0.064*can,0.062*i,0.054*list,0.046*cool,0.043*very,0.036*inverted,0.036*like
7,0.194*review,0.133*i,0.114*list,0.110*easy,0.093*image,0.077*see,0.070*how,0.042*cool,0.041*can,0.034*fast
8,0.418*image,0.158*cool,0.129*inverted,0.081*easy,0.053*fast,0.027*can,0.022*you,0.020*see,0.017*list,0.017*like
9,0.147*image,0.139*you,0.099*list,0.092*fast,0.089*very,0.088*see,0.077*how,0.055*can,0.049*inverted,0.039*and
10,0.202*very,0.180*how,0.133*image,0.088*cool,0.078*like,0.049*fast,0.047*and,0.041*you,0.039*review,0.039*can
11,0.253*very,0.121*image,0.106*review,0.071*easy,0.070*you,0.066*can,0.063*i,0.049*like,0.038*list,0.037*cool
12,0.260*very,0.176*see,0.166*image,0.126*list,0.066*fast,0.052*you,0.050*cool,0.042*review,0.022*how,0.016*easy
13,0.153*cool,0.139*how,0.131*very,0.120*easy,0.097*like,0.084*you,0.058*can,0.056*see,0.044*fast,0.034*image
14,0.275*i,0.230*and,0.106*can,0.091*image,0.088*review,0.052*easy,0.046*list,0.033*like,0.027*how,0.021*fast
15,0.341*like,0.128*see,0.103*list,0.078*i,0.071*image,0.068*inverted,0.053*cool,0.049*fast,0.026*easy,0.025*very
16,0.309*how,0.141*cool,0.080*can,0.079*like,0.060*see,0.053*you,0.048*review,0.045*inverted,0.043*and,0.038*fast
17,0.223*how,0.175*list,0.123*cool,0.104*easy,0.079*you,0.060*very,0.058*see,0.049*inverted,0.036*like,0.031*image
18,0.135*how,0.111*i,0.108*very,0.093*review,0.082*see,0.080*you,0.077*fast,0.064*cool,0.053*image,0.043*easy
19,0.204*cool,0.141*can,0.134*very,0.117*like,0.075*how,0.061*and,0.045*you,0.040*image,0.040*review,0.035*easy
