Topic Index 1,Topic Index 2,Topic Similarity
0,10,4.0
9,0,3.0
10,13,3.0
19,3,3.0
3,2,2.0
11,6,2.0
13,4,2.0
14,7,2.0
1,8,1.0
4,1,1.0
5,11,1.0
6,5,1.0
7,9,1.0
8,16,1.0
12,19,1.0
15,14,1.0
2,12,0.0
16,15,0.0
17,17,0.0
18,18,0.0
