# deletions,date,commit message
3,2015/8/21,removed apk from github as it is available on play store and f-droid
18,2015/8/21,moved out french translation as it is incomplete
6,2015/8/21,tablet tweaks
7,2015/8/21,added tips on first launch
3,2015/8/21,polishing
1,2015/8/21,theme applied to alert dialogs
33,2015/8/21,changed handling of 3rd party domains - now saves immediately
3,2015/8/21,fixed the adapter's getItemId() method
7,2015/8/21,improved handling of favicon on newly saved apps
