get from maven repository instead of using convenience jar copy,b,2015/7/23,,
handle keyboard action on releasing key this is the most natural thing to do and allows for handling long press,o,2015/7/08,,
,o,2015/6/23,,
check the right outline flag fix 48,b,2015/6/23,,
upgrade in to 22,b,2015/5/11,,
upgrade to,b,2015/5/11,,
support link in document,b,2015/5/05,,
modify to fill in the link for any link type not just check in added a method to open the,b,2015/5/05,,
in always set and,f,2015/5/05,,
add file type to file browser preference,f,2015/5/02,,
update,b,2015/5/02,,
update,b,2015/5/02,,
update,b,2015/5/02,,
split for each,b,2015/5/02,,
fix 88,b,2015/4/30,,
include submodule fix 98,b,2015/4/29,,
translation due to,b,2015/4/29,,
fix no outline found with fails to find any outline the argument is negative,b,2015/4/20,,
the part of had the following code return but this return negative value the most significant bit of outline handle is 1 because is 4 and outline handler itself is a pointer,o,2015/4/20,,
version 27,b,2015/4/17,,
update fix add support,b,2015/4/17,,
close 86,b,2015/4/17,,
normalize line ending,b,2015/3/20,,
add a donate link into add a donate link for donation page,f,2015/3/15,,
the donate link is found at the image is found at official website through search,b,2015/3/15,,
update small fix,b,2015/3/15,,
update build,b,2015/3/14,,
update small fix,b,2015/3/11,,
update fix,b,2015/3/11,,
translation for,o,2015/3/11,,
update fix,b,2015/3/11,,
translation for,o,2015/3/11,,
update fix,b,2015/3/11,,
translation for,o,2015/3/11,,
update small fix,b,2015/3/11,,
update fix,b,2015/3/11,,
translation for,o,2015/3/11,,
update fix,b,2015/3/11,,
translation for,o,2015/3/11,,
update fix,b,2015/3/11,,
translation for,o,2015/3/11,,
update release note,b,2015/3/11,,
,o,2015/3/09,,
