resolve 10 hopefully for real this time,b,2014/2/26,,
widget then poll the service for data before the connection is made get nothing and draw a blank widget,b,2014/2/26,,
update,b,2014/2/26,,
resolve 10 send an intent to the widget to update them instead of assuming the service is still alive,b,2014/2/26,,
link to the page because it make a better landing page staring at the source code,b,2014/2/24,,
need a new the widget is prettier now,b,2014/2/24,,
close 9 add an about dialog,f,2014/2/24,,
get rid of a useless def warning,b,2014/2/24,,
on the off chance they ever do change just run this script and rebuild to pick up the change,b,2014/2/24,,
attempt to notify listener if the new data is actually different apply formatting rule switch download back to county only,b,2014/2/22,,
clean up comment and code order in the provider,b,2014/2/22,,
add some,f,2014/2/20,,
add more info,f,2014/2/20,,
fix headline,b,2014/2/20,,
add default layout for widget before data is ready directly handle and send it from the service the data update lot of debugging output,b,2014/2/20,,
readability,o,2014/2/20,,
move icon and background chooser code into the object both the widget and the view can use the same chooser code,b,2014/2/20,,
widget work now,b,2014/2/08,,
lot and lot of updated added icon data is now retrieved in a background service,b,2014/2/08,,
everything seems to work except updating the widget,b,2014/2/08,,
