Topic,Words
0,0.062*grateful,0.041*now,0.031*job,0.029*kudos,0.027*based,0.023*tasks,0.023*widget,0.019*very,0.019*it,0.019*wonderful
1,0.038*see,0.033*all,0.028*not,0.027*can,0.026*features,0.022*that,0.022*love,0.022*notifications,0.021*really,0.021*tasks
2,0.037*pulling,0.036*keeping,0.036*kudos,0.035*its,0.031*together,0.031*that,0.030*thankless,0.027*receive,0.022*jaw,0.021*sort
3,0.042*perfectly,0.040*it's,0.027*a,0.027*my,0.026*quick,0.026*any,0.024*needed,0.020*for,0.020*by,0.020*auto
4,0.034*features,0.031*kudos,0.028*what,0.025*queries,0.025*be,0.024*receive,0.024*based,0.024*like,0.024*great,0.022*sort
5,0.042*its,0.031*plus,0.030*sign,0.030*based,0.028*needed,0.028*except,0.028*am,0.028*isn't,0.027*to,0.025*bugs
6,0.038*is,0.036*sync,0.033*be,0.032*can,0.031*add,0.025*quick,0.022*receive,0.022*very,0.021*works,0.021*bugs
7,0.027*thanks,0.026*based,0.025*requests,0.025*be,0.025*off,0.023*up,0.023*task,0.023*which,0.020*everything,0.018*you
8,0.054*forgetful,0.046*job,0.033*easily,0.030*does,0.029*left,0.026*sort,0.025*which,0.023*wants,0.023*needed,0.023*due
9,0.040*does,0.030*for,0.025*quick,0.024*you,0.024*it's,0.021*bar,0.020*receive,0.020*responses,0.019*the,0.019*in
10,0.045*tasks,0.039*what,0.031*jaw,0.030*always,0.029*community,0.028*super,0.027*does,0.027*by,0.023*on,0.023*you
11,0.031*use,0.028*theme,0.027*of,0.027*is,0.026*any,0.024*a,0.024*perfectly,0.022*very,0.021*add,0.021*can
12,0.057*reminders,0.055*some,0.053*hope,0.034*hand,0.032*be,0.031*thankless,0.026*this,0.023*lost,0.021*just,0.020*keeping
13,0.052*see,0.040*it's,0.036*hand,0.029*what,0.027*by,0.027*sign,0.026*notification,0.026*sure,0.026*requests,0.024*kudos
14,0.033*love,0.031*just,0.030*the,0.026*great,0.024*it,0.023*due,0.023*hope,0.022*add,0.021*in,0.021*always
15,0.034*can,0.027*my,0.026*a,0.026*changing,0.024*reminders,0.024*works,0.023*chance,0.023*super,0.022*easy,0.022*this
16,0.038*use,0.038*wants,0.036*together,0.031*responses,0.030*task,0.029*quick,0.028*requests,0.024*does,0.022*readable,0.022*not
17,0.035*thankless,0.030*lost,0.029*wonderful,0.027*now,0.027*am,0.025*this,0.024*some,0.022*so,0.021*perfectly,0.019*features
18,0.041*kudos,0.040*it,0.031*rid,0.030*easy,0.024*for,0.024*sort,0.023*be,0.023*notifications,0.022*really,0.021*great
19,0.040*exactly,0.032*auto,0.031*works,0.030*thanks,0.029*without,0.026*so,0.026*fix,0.026*job,0.024*would,0.023*up
