Topic,Words
0,0.046*feedback,0.035*efficient,0.035*the,0.033*a,0.032*part,0.031*ever,0.030*remind,0.030*been,0.029*vibration,0.028*quick
1,0.071*using,0.053*better,0.048*for,0.044*has,0.037*long,0.034*part,0.033*down,0.033*near,0.033*gone,0.031*very
2,0.064*of,0.045*wonderfully,0.042*long,0.040*very,0.038*application,0.036*several,0.033*when,0.033*pay,0.030*loved,0.029*also
3,0.058*when,0.050*quick,0.047*reminder,0.037*my,0.037*coupled,0.034*perfect,0.033*thanks,0.032*productivity,0.030*has,0.029*than
4,0.073*evaluated,0.062*extremely,0.061*i,0.047*coupled,0.040*responsive,0.039*ever,0.038*loved,0.037*vibration,0.037*to,0.032*tasks
5,0.072*to,0.049*responsive,0.046*bills,0.043*is,0.042*has,0.033*quick,0.029*extremely,0.029*remind,0.028*very,0.027*wonderfully
6,0.053*tasks,0.053*quick,0.050*perfect,0.048*for,0.047*important,0.046*has,0.029*part,0.028*back,0.027*than,0.026*vibration
7,0.072*developer,0.056*i,0.055*efficient,0.045*won,0.039*works,0.037*respond,0.035*also,0.034*me,0.034*integration,0.028*perfect
8,0.061*simple,0.051*using,0.041*coupled,0.037*fast,0.035*integration,0.031*tasks,0.031*bills,0.030*quick,0.027*ever,0.026*responsive
9,0.094*the,0.074*and,0.072*jot,0.059*back,0.037*bills,0.031*with,0.028*won,0.027*extremely,0.025*productivity,0.025*wonderfully
10,0.079*also,0.053*bills,0.047*than,0.047*integration,0.035*better,0.033*gone,0.031*the,0.030*reminder,0.028*evaluated,0.027*of
11,0.058*perfect,0.055*me,0.048*fast,0.047*application,0.041*important,0.039*several,0.036*scheduling,0.033*especially,0.032*feedback,0.031*update
12,0.049*part,0.048*inputting,0.045*productivity,0.041*options,0.041*several,0.038*pay,0.034*won,0.032*quick,0.031*ever,0.029*tasks
13,0.064*than,0.061*to,0.058*tasks,0.041*productivity,0.041*evaluated,0.039*a,0.035*inputting,0.033*helpful,0.033*active,0.029*of
14,0.066*extremely,0.056*application,0.046*pay,0.045*identical,0.044*with,0.042*part,0.039*coupled,0.039*to,0.039*thanks,0.035*respond
15,0.074*for,0.044*one,0.044*wonderfully,0.043*my,0.041*jot,0.041*responsive,0.040*especially,0.040*vibration,0.037*works,0.031*as
16,0.076*also,0.063*back,0.060*a,0.046*integration,0.045*my,0.037*as,0.034*extremely,0.031*long,0.031*has,0.026*quick
17,0.066*down,0.052*application,0.051*especially,0.040*long,0.039*my,0.039*i,0.036*integration,0.034*than,0.032*has,0.027*very
18,0.063*tasks,0.061*as,0.051*for,0.051*quick,0.043*down,0.035*especially,0.034*vibration,0.032*loved,0.031*the,0.031*long
19,0.048*simple,0.047*loved,0.043*quick,0.038*scheduling,0.037*it,0.035*extremely,0.035*evaluated,0.033*important,0.032*integration,0.032*feedback
