update version to 0840,b,2013/1/25,,
some fix,b,2013/1/21,,
update version to 0838,b,2013/1/20,,
fix bug related to autostart and setting,b,2013/1/20,,
improve,b,2013/1/20,,
show 5 best result in list dialog and let the user to choose which result is sent on to web search,b,2013/1/19,,
stop recognizer setting is launched,b,2013/1/19,,
rearrange the preference activity,f,2013/1/14,,
clarify the exported part of,f,2013/1/13,,
improve input language selection,f,2013/1/13,,
minor cleanup,b,2013/1/13,,
improve about page,b,2013/1/13,,
other change communicate the value of to the server fix regression from previous commit more logging,b,2013/1/06,,
set default server by single tap the previous solution wa too complicated,b,2012/12/30,,
return complete transcription data to caller this includes for each hypothesis raw utterance list of,b,2012/12/30,,
update version number to 0830,b,2012/10/14,,
fix potential memory leak minor improvement in response to lint,b,2012/10/14,,
now using only one file to avoid confusion this fix the recent regression the default recognizer service could not be overridden,b,2012/10/01,,
some cleanup,b,2012/9/15,,
some cleanup update to latest,b,2012/9/10,,
fix server connection wa not properly closed defensively checking the audio byte array is nonempty meant that occasionally the final chunk wa not sent and thus the server connection wa not closed properly,b,2012/8/04,,
the user could observe this a occasionally the transcription wa not returned for no apparent reason,b,2012/8/04,,
add error condition check cleaner vol measure,b,2012/4/26,,
remove maybe this make recording work on the problematic device,b,2012/4/26,,
check return code,b,2012/4/25,,
improve detection of failed recording minor cleanup,b,2012/4/23,,
cleanup based on lint,b,2012/3/24,,
fix some crash and general cleanup crash related to dropping network connection using the,b,2012/3/04,,
more responsive meter,b,2012/3/04,,
otherwise minor cleanup,b,2012/3/03,,
fix typo,b,2012/2/15,,
add more meaningful comment,f,2012/2/14,,
update version number,b,2012/2/14,,
add support for action the nice thing is translate now display the microphone button next to the input box,f,2012/2/12,,
this look like a bug in translate,b,2012/2/12,,
now package name end up in,b,2012/2/10,,
update version number to 0818,b,2012/2/10,,
add support for update to,b,2012/2/10,,
plus some cleanup of how the comment is compiled,b,2012/2/10,,
inspect all extra for a possible caller name,b,2012/2/08,,
improve documentation,b,2012/2/07,,
improve help page fix some spelling mistake which the eclipse had created removing the first character of some string,b,2012/2/07,,
improve error management,b,2012/2/04,,
some more fix and cleanup add service state diagram add error sound,b,2012/2/04,,
some fix,b,2012/2/03,,
clicking on it will open the recognizer but the recognition result are passed to the standard,b,2012/2/03,,
some fix cleanup,b,2012/2/02,,
some cleanup,b,2012/2/01,,
make a separate service to make it possible to rotate the device during,b,2012/1/28,,
handle within the instead of returning it to the caller,b,2012/1/21,,
improve the performance of the recorder there is much le array copying now,b,2012/1/17,,
longer recording on wildfire work better now but low level recorder buffer overflow still remain unsolved,f,2012/1/17,,
simplify setting of recorder and period buffer size is now always calculated on the basis of the minimal buffer size,b,2012/1/06,,
search widget is unfortunately locked to use voice search,b,2011/12/25,,
also did some minor cleanup in the demo code,b,2011/12/25,,
