Topic Index 1,Topic Index 2,Topic Similarity
0,1,2.0
6,4,2.0
4,2,1.0
5,3,1.0
8,0,1.0
9,5,1.0
10,6,1.0
12,7,1.0
13,8,1.0
14,9,1.0
15,12,1.0
17,10,1.0
18,11,1.0
1,13,0.0
2,14,0.0
3,15,0.0
7,16,0.0
11,17,0.0
16,18,0.0
19,19,0.0
