# deletions,date,commit message
2,2015/3/02,Release 1.1.4
9,2015/3/02,Add remove button to search results.
54,2015/2/26,- improved quick add dialog theming
22,2015/2/25,Increase the duration of the "task completed" message when shown the first few times. That way we try to ensure the user knows what it says.
159,2015/2/25,update Polish translation
3,2015/2/25,Ensure quick add selects the correct list. If no list is provided that should be the last list used.
11,2015/2/25,layout fixes
3,2015/2/25,Add a method to provision quick add with initial values. We use this to add quick add to the priorities list. To make this work we also added a clone constructor to ContentSet and fixed an issue with ArrayChoicesAdapter that showed an incorrect title if a value is not among the visible choices.
32,2015/2/25,Improve quick add. We got rid of the toast and show a notice in the UI instead.
9,2015/2/24,Add a "quick add" option. At this time the option is available on list group headers. The quick add dialog provides a title field and a list selector. There are buttons to save the new task and continue with another one and to open the full blown editor.  In future we should add a way to provision the quick add dialog with more values and allow to disable or hide the spinner. That way we can use it to add sub tasks quickly or to add it to other group section headers as well.
33,2015/2/17,fix another NPE that was introduced by a previous fix :-| use proguard to overcome an issue with the support library see https://code.google.com/p/android/issues/detail?id=78377  Release 1.1.2
1,2015/2/17,fix NPE
9,2015/2/17,Don't try to access ContentSet if it's null.
