App,Store,App ID,Review ID,Country,Version,Rating,Date,Author,Subject,Body,Translated Subject,Translated Body
Bankdroid,Google Play,com.liato.bankdroid,bGc6QU9xcFRPSE5OV21IVnZtRVR3TzhscTc4ZUxEZ25YWlNOdjRuamZqWWJodjZGXzlkcmtIejd2Uno2cm16c1h3WFFfMi1YbG5qOHhoRWtBQ0cyUU5y,English,,3,2013-12-04,A Google User,Bioklubben,no longer work i no longer can log in with my information,,
Bankdroid,Google Play,com.liato.bankdroid,bGc6QU9xcFRPSE5OV21IVnZtRVR3TzhscTc4ZUxEZ25YWlNOdjRuamZqWWJodjZGXzlkcmtIejd2Uno2cm16c1h3WFFfMi1YbG5qOHhoRWtBQ0cyUU5y,English,,3,2013-12-04,A Google User,Bioklubben,sf changed the it seems and might be the maybe,,
Bankdroid,Google Play,com.liato.bankdroid,bGc6QU9xcFRPSFJCY3RXb3hmZHpKcjhCU3ZGYllPUFA2X3dJTGpzMk9jajZER2FLVnFwNEVHVkp3aXNCNjc4c1VfV2Y4YTJWMXl0RjYtT2NjcW56V0Zs,English,,5,2013-12-01,A Google User,,seems to be a problem with also now i sent a donation hoping it will be fixed,,
Bankdroid,Google Play,com.liato.bankdroid,Z3A6QU9xcFRPRTZseTFaZlBrMmdVT2NnZmQzNjM0S1RMM19XdEM5dHFueVRIZ21QTnRobVZFQXRwX29EWkVpRG9hSEhCeHNFbUZEcDhkdkRzd0owd21S,English,,4,2013-12-01,,SAS Eurobonus does not work,server certificate not trusted,,
Bankdroid,Google Play,com.liato.bankdroid,Z3A6QU9xcFRPR2FiTTFKNHdIX0NJQ2ZuMEhodTBLUjJfMVc4aVhHOHJKaDk2WEhJdDB6YklwTzVfNTNNTGRwcWU1OEZlSjVFWEVUeDEzdjFiaDVJTENV,English,,2,2013-11-22,Mattias Sjöberg,Fel,,,
Bankdroid,Google Play,com.liato.bankdroid,Z3A6QU9xcFRPR2FiTTFKNHdIX0NJQ2ZuMEhodTBLUjJfMVc4aVhHOHJKaDk2WEhJdDB6YklwTzVfNTNNTGRwcWU1OEZlSjVFWEVUeDEzdjFiaDVJTENV,English,,2,2013-11-22,Mattias Sjöberg,Fel,5,,
Bankdroid,Google Play,com.liato.bankdroid,Z3A6QU9xcFRPRWlpMGZNaGlDS1E5aGxsd09hbFo5U1p0WDZKRmlYcEZicTk2d1FiSTNlWjY2bXA0N3dWcEVMOFRna0xTLUdiMjhWdm14NU5Pb1dyVU9f,English,,4,2013-11-15,mattiasterne,Bra när den funkar,,,
Bankdroid,Google Play,com.liato.bankdroid,Z3A6QU9xcFRPRWlpMGZNaGlDS1E5aGxsd09hbFo5U1p0WDZKRmlYcEZicTk2d1FiSTNlWjY2bXA0N3dWcEVMOFRna0xTLUdiMjhWdm14NU5Pb1dyVU9f,English,,4,2013-11-15,mattiasterne,Bra när den funkar,med,,
Bankdroid,Google Play,com.liato.bankdroid,bGc6QU9xcFRPRXFiS3M2TlBDLTNQZlhhUkhlR2VUN29BV3RWRlNIdWhIWk5ocGZKeXpSUC14R0d2SWlINUVXY21mRmZzM3hyZkd0UW1mc19mZC1sLU9B,English,,5,2013-11-04,A Google User,FC!!!,man,,
Bankdroid,Google Play,com.liato.bankdroid,bGc6QU9xcFRPRVNmd05MbUhhcWljS0JNaTF1aVVvOWhvWnQ3WjRqaEhqYklXaThVT2Nya0YyZlp0YmZ0ckRTYi1CVjltOWd0V0xkWXlwNGpyT29xWXRu,English,,5,2013-10-21,A Google User,Nordea har lagt in kontroll,in per,,
Bankdroid,Google Play,com.liato.bankdroid,bGc6QU9xcFRPRjJkdmpKYmhKczZudHJwWVd0aV9WeUx1ZlRfSXpHTWJEY2NtY0VqdjBheGszZjhfSm9jdjVLeVN6TEx5RmVYbUZuZjBqRzR4UDRDV2Fa,English,,5,2013-10-14,A Google User,Flawless - so far :),logging in to your bank just you have all your account right there on your home screen,,
Bankdroid,Google Play,com.liato.bankdroid,bGc6QU9xcFRPRjJkdmpKYmhKczZudHJwWVd0aV9WeUx1ZlRfSXpHTWJEY2NtY0VqdjBheGszZjhfSm9jdjVLeVN6TEx5RmVYbUZuZjBqRzR4UDRDV2Fa,English,,5,2013-10-14,A Google User,Flawless - so far :),updating in,,
Bankdroid,Google Play,com.liato.bankdroid,bGc6QU9xcFRPRjJkdmpKYmhKczZudHJwWVd0aV9WeUx1ZlRfSXpHTWJEY2NtY0VqdjBheGszZjhfSm9jdjVLeVN6TEx5RmVYbUZuZjBqRzR4UDRDV2Fa,English,,5,2013-10-14,A Google User,Flawless - so far :),a flawless,,
Bankdroid,Google Play,com.liato.bankdroid,Z3A6QU9xcFRPRkFNS0dRMHRjVW15U3gxUkMwN1NKU0NyRFpxU013RjBldllvc3ExdURCa1JMclRENnJzZ1RtbFZnTlhGMVprVVZUWEFQZ2tkbTR2UHNZ,English,,3,2013-10-04,,Used to be good,this just to be so good but they recently removed support for it got useless,,
Bankdroid,Google Play,com.liato.bankdroid,Z3A6QU9xcFRPRjBGQnhiU0xobWpJT3JyMGUzT3VTd0kwazdQMmlTMnhYX3A1b1Y3SFcxRlVKamlEMEtFaTdhaUlQNDBlb2FPT2dfcHAxQlk5U1R1Z195,English,,4,2013-10-03,Andreas Stenberg,Helt lysande,en bra i banker,,
Bankdroid,Google Play,com.liato.bankdroid,Z3A6QU9xcFRPRjBGQnhiU0xobWpJT3JyMGUzT3VTd0kwazdQMmlTMnhYX3A1b1Y3SFcxRlVKamlEMEtFaTdhaUlQNDBlb2FPT2dfcHAxQlk5U1R1Z195,English,,4,2013-10-03,Andreas Stenberg,Helt lysande,fr man en notification med,,
Bankdroid,Google Play,com.liato.bankdroid,Z3A6QU9xcFRPRndsbW1NWkpfYXhJcWxlRHVzaURzMHUwTHdQbkJWUF94X1ZLeXUwX1FHUkdreXp5bGgxOUdXNnFKZUFuT2VPcFZuZXRmQktHcUo2MjVr,English,,5,2013-10-02,Marie Axelsson,My most useful app,i use this almost everyday,,
Bankdroid,Google Play,com.liato.bankdroid,Z3A6QU9xcFRPRndsbW1NWkpfYXhJcWxlRHVzaURzMHUwTHdQbkJWUF94X1ZLeXUwX1FHUkdreXp5bGgxOUdXNnFKZUFuT2VPcFZuZXRmQktHcUo2MjVr,English,,5,2013-10-02,Marie Axelsson,My most useful app,setting up notification have really helped me get some great positive moment,,
Bankdroid,Google Play,com.liato.bankdroid,Z3A6QU9xcFRPRndsbW1NWkpfYXhJcWxlRHVzaURzMHUwTHdQbkJWUF94X1ZLeXUwX1FHUkdreXp5bGgxOUdXNnFKZUFuT2VPcFZuZXRmQktHcUo2MjVr,English,,5,2013-10-02,Marie Axelsson,My most useful app,very useful,,
Bankdroid,Google Play,com.liato.bankdroid,Z3A6QU9xcFRPRndsbW1NWkpfYXhJcWxlRHVzaURzMHUwTHdQbkJWUF94X1ZLeXUwX1FHUkdreXp5bGgxOUdXNnFKZUFuT2VPcFZuZXRmQktHcUo2MjVr,English,,5,2013-10-02,Marie Axelsson,My most useful app,free with donation option,,
Bankdroid,Google Play,com.liato.bankdroid,Z3A6QU9xcFRPRndsbW1NWkpfYXhJcWxlRHVzaURzMHUwTHdQbkJWUF94X1ZLeXUwX1FHUkdreXp5bGgxOUdXNnFKZUFuT2VPcFZuZXRmQktHcUo2MjVr,English,,5,2013-10-02,Marie Axelsson,My most useful app,donating tomorrow,,
Bankdroid,Google Play,com.liato.bankdroid,Z3A6QU9xcFRPSEE3b3p2Yk9pVkxVdEdYSWk0Q2JGNGRFeEpROGZzVEI4OEVnWDl5Nkk5Z2hLcHJDaGZWTS00R1gybTN6Wms2eWx0NjNzemZEVDJZQV9P,English,,5,2013-10-01,Axel Hermansson,,bra fr med,,
Bankdroid,Google Play,com.liato.bankdroid,Z3A6QU9xcFRPSDRGM0NmeFdaS3J5eXlxWTlLb3hBeWM1YTRRYXFBUE1JanVyb1loMk1nQjIzbWYxMGVGbDF0THhQLV9ndEswU0tvQXVyeWlZOHd5eVZK,English,,5,2013-09-30,Puggan Backlund,A notice each time money moves.,always know how money i have even got notice my salary,,
Bankdroid,Google Play,com.liato.bankdroid,bGc6QU9xcFRPRWlweDRXSS1oT25mWlZMaThOS1Y1OWtWaFktLWNFMnFqRy1FQmhZZlJOUnNxVGRPbkV0LVE0dEpkOWpnNkZ4MUo4RHJoV2VrTDJ1cFV3,English,,5,2013-09-30,A Google User,Splendid!,this is one of the first i install flashing a new,,
