Topic Index 1,Topic Index 2,Topic Similarity
12,2,11.11111111111111
1,5,5.263157894736842
3,3,5.263157894736842
6,0,5.263157894736842
7,1,5.263157894736842
9,4,5.263157894736842
11,6,5.263157894736842
14,8,5.263157894736842
19,11,5.263157894736842
0,7,0.0
2,9,0.0
4,10,0.0
5,12,0.0
8,13,0.0
10,14,0.0
13,15,0.0
15,16,0.0
16,17,0.0
17,18,0.0
18,19,0.0
