Topic Index 1,Topic Index 2,Topic Similarity
0,1,5.263157894736842
1,7,5.263157894736842
2,10,5.263157894736842
3,16,5.263157894736842
4,0,0.0
5,2,0.0
6,3,0.0
7,4,0.0
8,5,0.0
9,6,0.0
10,8,0.0
11,9,0.0
12,11,0.0
13,12,0.0
14,13,0.0
15,14,0.0
16,15,0.0
17,17,0.0
18,18,0.0
19,19,0.0
