Topic Index 1,Topic Index 2,Topic Similarity
0,1,7.142857142857142
1,3,7.142857142857142
2,0,0.0
3,2,0.0
4,4,0.0
5,5,0.0
6,6,0.0
7,7,0.0
8,8,0.0
9,9,0.0
10,10,0.0
11,11,0.0
12,12,0.0
13,13,0.0
14,14,0.0
15,15,0.0
16,16,0.0
17,17,0.0
18,18,0.0
19,19,0.0
