Topic Index 1,Topic Index 2,Topic Similarity
6,1,17.647058823529413
0,5,11.11111111111111
1,8,11.11111111111111
2,18,11.11111111111111
9,12,11.11111111111111
10,0,11.11111111111111
11,6,11.11111111111111
15,11,11.11111111111111
17,13,11.11111111111111
3,9,5.263157894736842
4,2,5.263157894736842
7,14,5.263157894736842
8,17,5.263157894736842
12,3,5.263157894736842
13,19,5.263157894736842
16,4,5.263157894736842
5,7,0.0
14,10,0.0
18,15,0.0
19,16,0.0
