# deletions,date,commit message
1,2015/1/26,Enable TLSv1.1 and TLSv1.2 with Jelly Bean and above.  Ensure legacy SSL versions not enabled.
2,2015/1/25,Update for v1.11.12
5,2015/1/25,Be more tolerant with result from isValidNumber
1,2015/1/25,Update to latest opentelecoms.org/util head
1,2015/1/25,Update to latest zrtp head
2,2015/1/25,Update for v1.11.11
1,2015/1/25,ant / custom_rules.xml: eliminate broken dependency check
1,2015/1/25,Update to latest zrtp head
1,2015/1/25,Update to latest zrtp head
1,2015/1/25,ant / custom_rules.xml: update ZRTP path
2,2015/1/12,Update for v1.11.10
4,2015/1/12,ant / custom_rules.xml: Remove pbkdf2 as it is no longer a submodule
