# deletions,date,commit message
2,2014/12/14,Update for v1.10.5
1,2014/12/14,Try to fix IPv6 addresses in Contact and Via headers
2,2014/12/14,Update for v1.10.4
9,2014/12/14,Submit data about attempt to send validation SMS
3,2014/12/14,Add more EnrolmentType values correct cdmaHomeOperator
