# deletions,date,commit message
2,2015/1/03,Update for v1.11.8
16,2015/1/03,Display error when message sending fails
1,2015/1/03,Update to latest zrtp-java (adds build.xml)
2,2015/1/03,Update for v1.11.7
1,2015/1/03,Message notifications: enable blue led
25,2015/1/03,Update for newer ZORG-ZRTP derivative
1,2015/1/03,Stop using experimental ZRTP API to disable replayProtection
1,2015/1/03,Update pbkdf2 for Eclipse
4,2015/1/03,Remove submodule pbkdf2
