add news table,f,2014/3/20,,
fix show journal change fix 81,b,2014/3/19,,
android studio 051 fix 76,b,2014/3/09,,
prepare for release,b,2014/2/27,,
add validation to avoid to crash fix 67,b,2014/2/27,,
update project setting,b,2014/2/27,,
setup search view on issue list,b,2014/2/26,,
support base class to return filter,b,2014/2/26,,
cleanup import,f,2014/2/23,,
fix crash on fetch remote first time,b,2014/2/23,,
use tag for cache form object,b,2014/2/23,,
simplify attachment list adapter ref 61,f,2014/2/23,,
simplify journal list adapter ref 61,f,2014/2/23,,
simplify time entry list adapter ref 61,f,2014/2/23,,
simplify relative issue detail adapter ref 61,b,2014/2/23,,
simplify issue detail adapter ref 61,b,2014/2/23,,
fix build error on setup caused by to development,b,2014/2/22,,
remove cache code of is implemented a object cache,b,2014/2/15,,
simplify category list adapter ref 61,f,2014/2/14,,
simplify list adapter ref 61,f,2014/2/14,,
simplify issue list adapter ref 61,f,2014/2/14,,
fix close on fetch new data,b,2014/2/14,,
simplify project list adapter ref 61,f,2014/2/13,,
reduce method about connection list ref 61,b,2014/2/13,,
project favorite list ref 61,f,2014/2/13,,
simplify connection list adapter ref 61,b,2014/2/13,,
add event to refresh list fix 63,f,2014/2/16,,
reduce import,f,2014/2/16,,
reduce unnecessary code,o,2014/2/16,,
prepare release,b,2014/2/15,,
add coding rule,b,2014/2/15,,
update library,b,2014/2/15,,
reduce cast,b,2014/2/12,,
add star on project list,b,2014/2/11,,
configure build environment,f,2014/2/11,,
fix set,b,2014/2/11,,
register handler to finish activity ref 60,b,2014/2/07,,
open activity on edit connection fix 60,b,2014/2/07,,
update android studio 044,b,2014/2/07,,
update store info,b,2014/2/04,,
update support library,b,2014/2/02,,
prepare release,b,2014/2/02,,
update,b,2014/2/01,,
update,b,2014/2/01,,
update,b,2014/2/01,,
translation,o,2014/2/01,,
update release note,b,2014/2/01,,
fix start activity on select an issue,b,2014/2/01,,
reduce menu and edit,b,2014/2/01,,
add edit fragment,f,2014/1/26,,
import,f,2014/1/26,,
return fetched issue item,b,2014/1/26,,
reduce menu entry,b,2014/1/26,,
prepare release,b,2014/1/24,,
support link on,b,2014/1/24,,
,o,2014/1/24,,
support from journal list,o,2014/1/24,,
add,f,2014/1/24,,
fix on start activity,b,2014/1/24,,
fix cast about,b,2014/1/24,,
clone between intent and argument,f,2014/1/21,,
separate issue list with filter from fragment,f,2014/1/21,,
show project name to activity title,b,2014/1/21,,
fix navigation to list,b,2014/1/20,,
remove footer fragment,f,2014/1/20,,
fix layout,o,2014/1/17,,
rename main activity,b,2014/1/17,,
import,f,2014/1/17,,
separate activity from issue view fragment,f,2014/1/17,,
connection list,b,2014/1/16,,
,o,2014/1/16,,
tab list,b,2014/1/16,,
support swipe between tab,b,2014/1/16,,
remove current user item from project list,f,2014/1/15,,
tab helper,b,2014/1/11,,
fix transition by replace,b,2014/1/10,,
move into activity ref 46,f,2014/1/10,,
move into activity ref 46,f,2014/1/10,,
update android studio 42,b,2014/1/09,,
auto fetch data,b,2014/1/09,,
fix update page,b,2014/1/09,,
cleanup code,b,2014/1/09,,
update each fetched data,b,2014/1/09,,
add detail page,b,2014/1/09,,
upgrade for,b,2013/12/27,,
fix not show page,b,2013/12/27,,
call list,o,2013/12/24,,
exception,o,2013/12/13,,
add role adapter,f,2013/12/12,,
simplify string name,b,2013/12/11,,
separate string resource,f,2013/12/11,,
to delete,b,2013/12/11,,
reduce default string,b,2013/12/11,,
change to android string,f,2013/12/11,,
upgrade library,b,2013/12/27,,
update to support,b,2013/12/27,,
fix crash on android 23 caused by unsupported,b,2013/12/10,,
update translation,b,2013/12/10,,
add signing configures,b,2013/12/10,,
prepare release,b,2013/12/09,,
update dependency,b,2013/12/09,,
add event on click filter detail,b,2013/12/09,,
fix show sort type,b,2013/12/09,,
cast,o,2013/12/08,,
support on,b,2013/12/06,,
add animation on refresh by tapping button,f,2013/12/06,,
resolved dependency to,b,2013/12/06,,
fix icon on,b,2013/12/06,,
support style,f,2013/12/03,,
add exported,f,2013/12/02,,
support,b,2013/12/02,,
add library,f,2013/12/01,,
add support,f,2013/12/01,,
support jump to issue list from version,b,2013/12/01,,
fix crash on,b,2013/11/30,,
add version list,f,2013/11/29,,
fix build error about dependency,b,2013/11/28,,
fix share filter id among the fragment,f,2013/11/28,,
add activity for project list,f,2013/11/28,,
add current user page on project fragment,b,2013/11/28,,
add project pager,b,2013/11/21,,
add current user tab,f,2013/11/21,,
to support,b,2013/11/21,,
add connection pager,b,2013/11/21,,
reactor base class,f,2013/11/20,,
hide background object on scroll,b,2013/11/20,,
fix dependency,b,2013/11/19,,
update setting,b,2013/11/19,,
fix crash on not ready the,b,2013/11/18,,
support switch base class into by,b,2013/11/18,,
fix error,b,2013/11/18,,
fix to,b,2013/11/18,,
reduce duplicate resource,b,2013/11/17,,
relocate source,o,2013/11/17,,
add project,b,2013/11/17,,
remove module,f,2013/11/17,,
those would be included from,o,2013/11/17,,
relocate source,o,2013/11/16,,
relocate test source,b,2013/11/16,,
relocate main source,b,2013/11/16,,
remove past setting,b,2013/11/16,,
update icon to something wrong with android 42,b,2013/11/09,,
remove screen shot,b,2013/11/09,,
prepare release,b,2013/11/04,,
add missing relation type fix 39,b,2013/11/04,,
fix crash on loading unknown relation fix 39,b,2013/11/04,,
add relative image,f,2013/10/24,,
update release note,b,2013/10/23,,
support download and open file,b,2013/10/23,,
support download animation,o,2013/10/23,,
change method name from to,b,2013/10/23,,
fix show progress on download,o,2013/10/20,,
fix crash on show attachment detail,b,2013/10/16,,
setup,o,2013/10/16,,
cleanup code,b,2013/10/16,,
fix size,b,2013/10/12,,
fix show created date,o,2013/10/12,,
add attachment icon,b,2013/10/12,,
fix internal id on fetch attachment,f,2013/10/04,,
add attachment parser,f,2013/10/04,,
add attachment entity,f,2013/10/04,,
fix spacing layout,o,2013/10/12,,
refresh icon about color,b,2013/10/12,,
,o,2013/10/16,,
,o,2013/10/16,,
,o,2013/10/16,,
,o,2013/10/16,,
add translation,f,2013/10/16,,
prepare release,b,2013/9/09,,
update last release note,b,2013/9/09,,
fix exception on showing the list close 35,b,2013/9/08,,
update submodule close 36,f,2013/9/08,,
add feature description,f,2013/9/08,,
add description,f,2013/9/06,,
fix description from native translation,b,2013/9/06,,
this change is out of,b,2013/9/06,,
add description,f,2013/9/06,,
this change is out of,b,2013/9/06,,
fix set sum of time entry,b,2013/9/06,,
fix set priority,b,2013/9/04,,
fetch over layer,b,2013/9/04,,
fix fetch item relative issue relation data come following even current issue is 2,f,2013/9/03,,
fix issue primary key from integer to long,b,2013/9/03,,
fix layout,o,2013/8/29,,
set header about issue detail,b,2013/8/29,,
fetch relation,f,2013/8/28,,
output log on debug,f,2013/8/28,,
fetch relation on,f,2013/8/18,,
create to db,f,2013/8/18,,
add issue relation parser,f,2013/8/17,,
add relation interface,f,2013/8/16,,
hide row there is no data,f,2013/8/29,,
duplicate method,b,2013/8/29,,
issue detail view,b,2013/8/29,,
issue view,b,2013/8/28,,
prepare release,b,2013/8/24,,
fix bit shift bug to fit integer length,f,2013/8/24,,
show header each journal,b,2013/8/24,,
fix crash on view issue cache doe not have yet,b,2013/8/24,,
support,b,2013/8/23,,
add sticky list header on issue view,b,2013/8/23,,
issue model,b,2013/8/23,,
base adapter moved to base return view layout id,f,2013/8/23,,
add sticky list header library,b,2013/8/23,,
fix issue journal list item,b,2013/8/18,,
update build environment,f,2013/8/16,,
support for build,b,2013/8/12,,
fix show issue list on no filter record first view,b,2013/8/12,,
hide filter menu on selected a filter,b,2013/8/09,,
show assigned issue to current user,b,2013/8/09,,
,o,2013/8/07,,
support filter argument,f,2013/8/07,,
fetch project item to,b,2013/8/07,,
,o,2013/8/07,,
to setup filter id,o,2013/8/07,,
do not update current filter on fetch data,f,2013/8/07,,
from,o,2013/8/07,,
fix not to fetch remote on first view,b,2013/8/07,,
prepare release,b,2013/8/06,,
fetch state on refresh project list,b,2013/8/03,,
refresh user,b,2013/8/03,,
setup current user,o,2013/7/27,,
fix to add fragment on first view,b,2013/8/03,,
handler,o,2013/8/02,,
handler,o,2013/8/02,,
fix to save scroll state why it must set adapter within,b,2013/8/02,,
changed from to,b,2013/8/01,,
add empty fragment,b,2013/8/01,,
fix internal crash on created new,b,2013/8/01,,
add fragment,f,2013/8/01,,
add saved message,b,2013/7/26,,
add fragment,f,2013/7/26,,
handler,o,2013/7/26,,
add fragment,f,2013/7/26,,
auto fetch there is no item,f,2013/7/26,,
fix crash on set null argument,b,2013/7/26,,
fix crash return switched,b,2013/7/25,,
add comment fragment,f,2013/7/25,,
add fragment,f,2013/7/25,,
separate layout,o,2013/7/25,,
add fragment placeholder,f,2013/7/25,,
renewal calling fragment with,o,2013/7/25,,
fix crash back from other fragment,b,2013/7/25,,
add fragment handler,f,2013/7/25,,
add to,f,2013/7/25,,
add fragment handler,f,2013/7/24,,
fix time zone to local zone,f,2013/7/24,,
move into on the menu would be created twice,o,2013/7/24,,
reduce unreferenced resource,b,2013/7/24,,
add fragment handler,f,2013/7/24,,
remove unreferenced method,f,2013/7/24,,
remove static fragment,f,2013/7/24,,
change method name,b,2013/7/23,,
rewrite event hander,f,2013/7/22,,
add base activity,f,2013/7/22,,
rewrite intent handler,f,2013/7/23,,
fix inflater parameter set group view,f,2013/7/22,,
remove base list class this function move to fragment,f,2013/7/18,,
add time entry list fragment,f,2013/7/18,,
fix call step about list,b,2013/7/18,,
add issue view fragment,b,2013/7/17,,
support fragment connection list,b,2013/7/17,,
prepare release,b,2013/7/04,,
move issue list into fragment,b,2013/7/04,,
move project list into fragment,b,2013/7/02,,
rename layout,o,2013/7/02,,
fix base fragment,b,2013/7/01,,
add,f,2013/6/11,,
fix,b,2013/6/11,,
setup connection list fragment,o,2013/6/11,,
implement connection list adapter,b,2013/6/11,,
remove comment form from list,f,2013/6/24,,
fetch project from remote,b,2013/6/24,,
remove toggle comment area,b,2013/6/19,,
show refresh icon always,b,2013/6/09,,
connection manager,b,2013/6/09,,
setup credential,o,2013/6/08,,
,o,2013/6/08,,
,o,2013/6/08,,
remove unnecessary tag,f,2013/6/11,,
prepare release,b,2013/6/07,,
update description about bug fix,b,2013/6/07,,
fix log message,b,2013/6/07,,
avoid,o,2013/6/07,,
fix fetch project,b,2013/6/07,,
fix fetch remote with no response,b,2013/6/07,,
fix crash on tap loading message,b,2013/6/07,,
fix loop forever,b,2013/6/06,,
fix trusted,b,2013/6/06,,
prepare release fix release note,b,2013/5/30,,
add release note fix 26,b,2013/5/30,,
add closed,b,2013/5/30,,
update release note,b,2013/5/29,,
fix estimate time on edit issue and validation,b,2013/5/29,,
fix attribute to protected value,b,2013/5/29,,
fix post estimated time and version,b,2013/5/29,,
fix show version change,b,2013/5/29,,
add post comment feature,f,2013/5/28,,
fix edit comment on the list on press key send request to then lost from,b,2013/5/28,,
the result by press a key the word were,b,2013/5/28,,
add method,f,2013/5/26,,
add comment form,f,2013/5/26,,
prepare for release fix post issue,b,2013/5/26,,
fix validation about spinner,b,2013/5/26,,
prepare for release,b,2013/5/26,,
add column,f,2013/5/26,,
fix the label of change,f,2013/5/26,,
fix issue edit validation,b,2013/5/26,,
add override annotation to validate method,f,2013/5/26,,
passing,o,2013/5/26,,
fix issue edit validation,b,2013/5/26,,
catch result and update there is returning no content,b,2013/5/26,,
fix posting progress,f,2013/5/26,,
add missing feature method,b,2013/5/23,,
parse data on created item,b,2013/5/23,,
post item,f,2013/5/21,,
fix null pointer exception,b,2013/5/21,,
add interface,b,2013/5/18,,
convert date to string,b,2013/5/18,,
fix about scroll,b,2013/5/17,,
fix,b,2013/5/17,,
enable edit button on issue view,b,2013/5/17,,
fix setup spinner item,b,2013/5/17,,
fix layout on long text on spinner,o,2013/5/17,,
fix external lib,b,2013/5/15,,
add issue edit activity,f,2013/5/15,,
fix catch success request,b,2013/5/23,,
separate fetch enumeration,f,2013/5/23,,
add closed column,b,2013/5/20,,
fix uploading message,b,2013/5/15,,
fix crash on add new time entry,b,2013/5/22,,
prepare bug fix release,b,2013/5/20,,
fix sync project,b,2013/5/20,,
prepare release,b,2013/5/14,,
fix validation,b,2013/5/14,,
add experimental warning message,b,2013/5/14,,
add,f,2013/5/13,,
add date select,b,2013/5/12,,
fix layout,o,2013/5/12,,
rest into submodule,f,2013/5/11,,
fix depending update,o,2013/5/11,,
export id,f,2013/5/11,,
remove set locale on fetch data,f,2013/5/10,,
fix log on debug,b,2013/5/10,,
start activity with result,b,2013/5/10,,
update message,b,2013/5/10,,
handle error on post,b,2013/5/10,,
fix validation on post time entry,b,2013/5/10,,
avoid finish activity there is not time entry,b,2013/5/09,,
support modify time entry,o,2013/5/09,,
fix post,b,2013/5/09,,
fix set value to form,f,2013/5/09,,
relocate layout,o,2013/5/09,,
rewrite post handler,f,2013/5/08,,
fix send,b,2013/5/08,,
try to post data,b,2013/5/08,,
add action send time entry,f,2013/5/07,,
add time entry post task,f,2013/5/07,,
method,o,2013/5/07,,
interface to post data,b,2013/5/07,,
add edit menu,b,2013/5/06,,
fix fetch project fetch offset,b,2013/5/06,,
do not close without request error or content error,b,2013/5/06,,
set to,o,2013/5/06,,
fix crash on time entry edit form,f,2013/5/06,,
add edit feature,f,2013/5/06,,
add and method,f,2013/5/06,,
relocate place holder,f,2013/5/06,,
add posting interface to,f,2013/5/05,,
fix translation,b,2013/5/04,,
fix not fetch project over default,b,2013/5/03,,
speed up fetch issue,b,2013/5/03,,
disable of problem with release build,f,2013/5/02,,
prepare release,b,2013/5/02,,
fix textile bug,b,2013/5/01,,
add feature,f,2013/5/01,,
fix show decorated string about change,b,2013/5/01,,
show version change,b,2013/5/01,,
model,b,2013/5/01,,
extends model for reduce code,b,2013/5/01,,
fix indent,b,2013/4/30,,
remove buggy key tracker status would not support join foreign key performance reason,b,2013/4/29,,
rename to,o,2013/4/29,,
filter sort id from set data set key,f,2013/4/29,,
implement,b,2013/4/25,,
add,f,2013/4/22,,
add method return,b,2013/4/21,,
release note,b,2013/4/21,,
setup sort,b,2013/4/21,,
same process,b,2013/4/20,,
add sort feature,b,2013/4/20,,
modified update,b,2013/4/20,,
string,o,2013/4/20,,
move error message,b,2013/4/25,,
uncomment override,f,2013/4/25,,
fix typo,b,2013/4/20,,
fix build environment,b,2013/4/20,,
prepare release,b,2013/4/20,,
fix not fetch old item 19,f,2013/4/20,,
support input on type,b,2013/4/19,,
fix nest,b,2013/4/19,,
fix space to tab,b,2013/4/19,,
add jump to specified issue id on project list,f,2013/4/19,,
control refresh icon,b,2013/4/18,,
renew refresh icon for multi theme,b,2013/4/17,,
set icon to android action bar icon pack,b,2013/4/17,,
use android default icon,b,2013/4/17,,
fix sync issue 14,b,2013/4/17,,
clear dummy data loading,b,2013/4/17,,
add,f,2013/4/17,,
prepare release,b,2013/4/17,,
fix no refresh issue,b,2013/4/17,,
reduce comment,b,2013/4/17,,
cleanup comment,b,2013/4/16,,
relocate libs,f,2013/4/16,,
relocate,o,2013/4/16,,
relocate,o,2013/4/16,,
support jump from text,b,2013/4/16,,
support newline on tag,f,2013/4/03,,
add tracker to issue list,b,2013/4/10,,
prepare deploy,b,2013/4/08,,
fix layout,o,2013/4/08,,
finish activity there are no issue,b,2013/4/08,,
,o,2013/4/08,,
set to id,f,2013/4/08,,
fix fall by,b,2013/4/08,,
tie issue and,b,2013/4/08,,
reduce member value,b,2013/4/08,,
move method to base,f,2013/4/08,,
reduce debug log,b,2013/4/05,,
add fetch on issue,b,2013/4/05,,
fix filter and typo,f,2013/4/04,,
fix build error by build environment no enhancement,b,2013/3/31,,
rename to,o,2013/4/03,,
add refresh button to,f,2013/3/29,,
update feature note,b,2013/3/29,,
fix update issue,b,2013/3/29,,
release add filter about fix update issue attribute,b,2013/3/26,,
update feature note,b,2013/3/26,,
fix typo creator author,f,2013/3/26,,
fix fetch filtered issue by user,b,2013/3/26,,
add user filter,f,2013/3/26,,
implement,b,2013/3/23,,
refresh issue item on same date or new,b,2013/3/23,,
fix issue set master null on update master or,b,2013/3/23,,
prepare,b,2013/3/17,,
support fetch all issue by setting,b,2013/3/17,,
add more appearance theme to setting,f,2013/3/17,,
upgrade level from 22 to 403,f,2013/3/17,,
add setting menu,b,2013/3/17,,
update document for,b,2013/3/15,,
support on journal,o,2013/3/14,,
support theme to,f,2013/3/13,,
add replace tag,f,2013/3/09,,
relocate,o,2013/3/09,,
replace to,b,2013/3/09,,
add experimental code textile into,b,2013/2/25,,
show the on issue and journal description,o,2013/2/25,,
accelerate fetch issue on refresh,b,2013/3/09,,
fix parse issue id,b,2013/2/28,,
miss modification add column about project,b,2013/2/27,,
upgrade db,b,2013/2/27,,
remove waste field,b,2013/3/05,,
refresh recursive on fetch issue from remote,f,2013/3/05,,
support for more detail issue created date time issue modified date time journal created date time,o,2013/3/05,,
refresh all item on called refresh,b,2013/3/04,,
reduce task code return result from method,b,2013/3/04,,
project list use adapter with database,b,2013/3/04,,
use list view helper,b,2013/3/03,,
control the list view,f,2013/3/03,,
separate get resource and fetch data,f,2013/3/03,,
prepare project adapter for,b,2013/3/03,,
fix bug no list on the filter,b,2013/3/01,,
separate parameter from class constructor,f,2013/2/28,,
fix version list order on filter activity,f,2013/2/28,,
add parse method on base,f,2013/2/28,,
remove and gather,b,2013/2/27,,
add missing column,b,2013/2/27,,
add new line,b,2013/2/26,,
update version code caused by build error on release,b,2013/3/01,,
update story on store,b,2013/2/27,,
update version code,b,2013/2/28,,
fix the filter show no list,f,2013/2/28,,
restore list place on start,o,2013/2/28,,
upgrade level,b,2013/2/26,,
avoid crash adding data on background task,b,2013/2/24,,
change issue id from int to long,f,2013/2/24,,
restore the filter view,o,2013/2/24,,
remove code,b,2013/2/24,,
bold name on comment in the issue,b,2013/2/24,,
update description,o,2013/2/24,,
rewrite adapter with cache,b,2013/2/24,,
change into,b,2013/2/24,,
add item to journal list item,o,2013/2/23,,
fix fill all the window,b,2013/2/23,,
fix restored change,b,2013/2/23,,
display header faster,b,2013/2/23,,
changed parse process fetching issue,b,2013/2/23,,
changed int to long,b,2013/2/23,,
journal view using,b,2013/2/20,,
fetch journal data on view issue item,b,2013/2/19,,
fix typo,b,2013/2/19,,
fix parse key note,b,2013/2/19,,
fix parse journal id,b,2013/2/19,,
modified parameter from project to connection,b,2013/2/19,,
add method,f,2013/2/19,,
fix miss last tag on stopping parser,f,2013/2/19,,
fix generating journal,b,2013/2/19,,
fix typo,b,2013/2/19,,
remove issue model,b,2013/2/01,,
remove model,b,2013/2/01,,
to load data from remote continue to use current connection,b,2013/1/27,,
fix wrong interface,b,2013/1/22,,
add method setting issue id,f,2013/1/22,,
add refresh journal logic,b,2013/1/18,,
allow to parse first object for journal close 8,b,2013/1/18,,
rename journal parser,o,2013/1/18,,
extends issue view about subject,b,2013/1/18,,
it needed to scroll you watch all of subject,b,2013/1/18,,
this change switch content between and,b,2013/1/18,,
modified description to release,f,2013/1/15,,
create journal table,b,2013/1/13,,
implement journal,b,2013/1/13,,
internal type into string it would be serialize,b,2013/1/14,,
changed journal array to list,b,2013/1/14,,
extends journal parser from issue,b,2013/1/14,,
extend stop code parse,b,2013/1/14,,
reduce permission to write card,b,2013/1/13,,
add parse logic,b,2013/1/12,,
save project information on fetch version,b,2013/1/02,,
add icon about filter,b,2013/1/02,,
setup project info on fetch data,b,2013/1/02,,
changed method internal name,b,2013/1/02,,
add parse category,f,2013/1/02,,
update size to,b,2013/1/01,,
update description,o,2013/1/01,,
add screen shot,b,2013/1/01,,
fix sample,b,2013/1/01,,
fix translation,b,2013/1/01,,
remove auto moving edit activity on the list,b,2013/1/01,,
changed calling intent with result,b,2012/12/29,,
move method to event listener inner class,b,2012/12/29,,
flush list back from filter list,f,2012/12/29,,
apply filter,o,2012/12/27,,
relocate method,f,2012/12/27,,
modified from to tab,b,2012/12/27,,
delete wrong content,b,2012/12/21,,
rename typo name,b,2012/12/21,,
relocate form and add save button,f,2012/12/21,,
modify state on,o,2012/12/21,,
ability to load or save filter,b,2012/12/19,,
reduce log,b,2012/12/19,,
add filter type,f,2012/12/19,,
set current on update,f,2012/12/19,,
correct field type,b,2012/12/19,,
add category view,f,2012/12/18,,
add interface to tracker,b,2012/12/18,,
add interface to priority,b,2012/12/18,,
add interface to category,f,2012/12/18,,
separate,f,2012/12/18,,
separate,f,2012/12/18,,
add non selection item,f,2012/12/17,,
apply select single to list view,o,2012/12/17,,
rewrite adapter,f,2012/12/17,,
add filter layout,f,2012/12/17,,
add icon,b,2012/12/17,,
remove warning,b,2012/12/02,,
add filter activity,f,2012/11/30,,
change style,f,2012/12/16,,
by using interface,o,2012/12/31,,
add interface,b,2012/12/31,,
add interface,b,2012/12/31,,
add getter and setter,f,2012/12/29,,
remove class,o,2012/12/18,,
issue view stay title to top on scrolling,b,2012/12/16,,
fix export attribute,b,2012/12/16,,
add description,f,2012/12/15,,
change default,b,2012/12/15,,
add missing,b,2012/12/15,,
update,b,2012/12/14,,
,o,2012/12/14,,
change on splash window,b,2012/12/14,,
extend intent on get key,f,2012/12/12,,
relocate image to reduce warning,b,2012/12/02,,
miss build,b,2012/12/02,,
this commit without code change,o,2012/12/02,,
wrote release note,f,2012/12/02,,
release,f,2012/12/02,,
fix appearance of loading message,b,2012/12/02,,
support refresh by fetching data,b,2012/12/02,,
fix parse date,b,2012/11/30,,
fix parse error on timezones,b,2012/11/30,,
implement interface,b,2012/11/30,,
implement interface,b,2012/11/30,,
fetch handler,f,2012/11/30,,
fix wrong,b,2012/11/30,,
update store message,b,2012/11/27,,
fix log,b,2012/11/27,,
parser,o,2012/11/27,,
cleanup code,b,2012/11/27,,
removed,b,2012/11/24,,
relocate,o,2012/11/24,,
rewrite project fetching task,b,2012/11/24,,
add,f,2012/11/24,,
move,b,2012/11/24,,
relocate,o,2012/11/22,,
rewrite fetch remote data,f,2012/11/22,,
extract fetcher to model layer,b,2012/11/19,,
remove,b,2012/11/19,,
remove unused source,b,2012/11/15,,
reconfigure splash activity,f,2012/11/14,,
rewrite exception handler,o,2012/11/14,,
single thread and add loading message,b,2012/11/14,,
correct event handler do not use intent on,b,2012/11/14,,
common function,b,2012/11/14,,
rewrite intent,f,2012/11/14,,
add sort,b,2012/11/14,,
rewrite fetch issue,b,2012/11/11,,
add,f,2012/11/11,,
add description image,f,2012/11/11,,
add filter entity,f,2012/11/11,,
connection and project,b,2012/11/11,,
wrap intent,f,2012/11/11,,
add,f,2012/11/11,,
add filter,f,2012/11/03,,
simplify intent,f,2012/11/03,,
fix save the connection,b,2012/11/03,,
fix release,b,2012/11/03,,
crash start activity,b,2012/11/03,,
follow the lint,b,2012/11/01,,
reduce same logic,b,2012/11/01,,
modified dialog,f,2012/11/01,,
add getting from web page by using,f,2012/10/29,,
add icon,b,2012/10/28,,
remove string,f,2012/10/21,,
relocate external library,f,2012/10/21,,
change basic authentication text box message,b,2012/10/20,,
modified,o,2012/10/20,,
add splash window,b,2012/10/20,,
update journal,o,2012/10/20,,
fix crash the activity wa closed,b,2012/10/20,,
change issue layout,o,2012/10/18,,
add journal structure,o,2012/9/19,,
first name and last name,b,2012/9/19,,
most is given own locale style,f,2012/9/19,,
or,o,2012/9/19,,
remove wrong path,b,2012/9/19,,
issue renderer,b,2012/9/19,,
add string table,f,2012/9/19,,
reduce warning,b,2012/9/19,,
fix class path,b,2012/9/12,,
rename,o,2012/9/12,,
add logo from,b,2012/7/26,,
close 2,b,2012/7/26,,
clear location on reload,b,2012/7/26,,
write about this project,b,2012/7/18,,
renew model,b,2012/7/17,,
renew fetch issue data,b,2012/7/04,,
add footer view,f,2012/7/04,,
but having some,o,2012/7/04,,
delete n,b,2012/6/25,,
scrollable view,b,2012/6/25,,
cleanup,b,2012/6/25,,
add issue view,b,2012/6/23,,
delete unused object,b,2012/6/23,,
modified activity name,f,2012/6/21,,
add model layer,b,2012/6/21,,
relocate db layer,b,2012/6/21,,
warning,b,2012/6/21,,
relocate class,o,2012/6/21,,
issue list,b,2012/6/21,,
add issue feature,b,2012/6/19,,
modified database to cache,b,2012/6/07,,
add,f,2012/6/07,,
import library,f,2012/5/30,,
add column unsafe,f,2012/5/30,,
process,b,2012/5/27,,
fix flag,o,2012/5/27,,
fix path,b,2012/5/27,,
fix connection,b,2012/5/27,,
add log,b,2012/5/27,,
add parser,f,2012/5/19,,
modified model relating to date object,b,2012/5/19,,
add event listener,f,2012/5/19,,
warning,b,2012/5/19,,
move class,o,2012/5/19,,
reduce warning,b,2012/5/19,,
modify internal data model,b,2012/5/19,,
add,f,2012/5/19,,
combine the activity,o,2012/5/19,,
