Topic Index 1,Topic Index 2,Topic Similarity
5,0,17.647058823529413
3,6,11.11111111111111
11,2,11.11111111111111
12,4,11.11111111111111
15,5,11.11111111111111
18,8,11.11111111111111
1,7,5.263157894736842
2,1,5.263157894736842
4,14,5.263157894736842
6,16,5.263157894736842
7,3,5.263157894736842
9,10,5.263157894736842
13,11,5.263157894736842
16,13,5.263157894736842
17,15,5.263157894736842
0,9,0.0
8,12,0.0
10,17,0.0
14,18,0.0
19,19,0.0
