updated database with latest,f,2015/4/22,,
fixed deprecated usage fixed string,b,2015/4/22,,
added set name to index page title formatting,b,2015/4/20,,
bumped version added translation,f,2015/4/19,,
changed to so one activity handle new intent rather starting new activity,b,2015/4/19,,
this make it possible to directly exit from deep link rather go to any activity on the back stack fixed clarity,b,2015/4/19,,
fixed deep link issue,b,2015/4/18,,
better name and description for indexing handling for proper deep link,f,2015/4/18,,
added indexing,f,2015/4/18,,
added suppression for,f,2015/4/17,,
added deep link made sure all database open close are balanced no longer us the singleton database for it is unbalanced by nature,b,2015/4/17,,
moved share dialog into formatting,f,2015/3/24,,
merge export change,f,2015/3/24,,
removed thing i forgot,b,2015/3/23,,
removed trace of preference based set export,f,2015/3/23,,
added release,f,2015/3/23,,
version bump,b,2015/3/23,,
