App,Store,App ID,Review ID,Country,Version,Rating,Date,Author,Subject,Body,Translated Subject,Translated Body
TTL Editor,Google Play,org.segin.ttleditor,Z3A6QU9xcFRPSHdaV3h6VV8wLUFjRFUtdGx5Q1dPQnlaTVpMTU1BMnZTb01ZRXU3UC1qOTdpYnFGTEMzSWJLZzJmblRILVhsZDViZzZmRWJMdWtXN2RvSFE,English,,3,2017-02-16,Jin gsm,"","Individual interface set TTL , not able to change TTL, but have to use ""apply all interfaces""",,
TTL Editor,Google Play,org.segin.ttleditor,Z3A6QU9xcFRPRmFYLVBJX090UWhMMnpMNDhSZXJMR2lxNjN5V3BESXp3Xzg3dW9RRlVzTFRfMW5NLWk5MUJ0eW1wWFYwV3lKVko5cmNzUlV6THFLUzBseFE,English,,5,2016-12-05,سید عدنان موسوی,Ok,"",,
TTL Editor,Google Play,org.segin.ttleditor,Z3A6QU9xcFRPSEFnTmFCVlVEOE1fcklrWDNFMUc0Q0paeU1iSlJKMy1OMFlMODhMd3E0dVdmQVJHVGdBOTgtMF9rZURvNUlmUmdBa1VQTDJVLVMzdG9LTlE,English,,5,2016-12-04,yasmin nashat,"",Good,,
TTL Editor,Google Play,org.segin.ttleditor,Z3A6QU9xcFRPSDRiRnNPSG9UenVicDVXNU9MOFdnTDZzdUNNeUgzT2wxaXYwQlpvMlQ2ZmJfNzItRVZCUE92UjFjY1RMLUNfRkFNaXoyYWJPcHpBTlBlUHc,English,,3,2016-10-10,AHMAD SALEM,Answer please ?,What is the supposed job of this program ?,,
TTL Editor,Google Play,org.segin.ttleditor,Z3A6QU9xcFRPSDViM1VwdzVJZXB5VnJpbXhqUDR5MFpoTUZSQXhKWmtqdnZOMmdIb1QycUtLOWQtdXNTb25wMklnazlhN2ZzT0U0YWk4VDZmZjNRZ1I1YXc,English,,5,2016-09-03,Ahmed Hidro,برنامج جيد جدا,,,
TTL Editor,Google Play,org.segin.ttleditor,Z3A6QU9xcFRPR2xIRFcxbUEwaXZ5dl95MHo1MjNHOE9UWTJCMnJpR2VZeVRGeVRVZ0VUQnNKY1FxZ3pqY1BjUl9zd2lXcGxsQmpsN3hiTXk5THN0NzJFUkE,English,,5,2016-06-16,Forum Yazılım,#YAKUKKAPLAN,First free internet tricker honor,,
TTL Editor,Google Play,org.segin.ttleditor,Z3A6QU9xcFRPRk04YkZFR2ZhX2MtVjd1dWplWjN4QUNvMDV4c21ZVEFPUGdEZ056LWZDRDg5Y3hNMWdzbEtmNzNhMlRxZHFwcUVldHNRSENndkFZNXBHN2c,English,,5,2016-05-30,Michael Duclos,Works but...,"Only if I select all interfaces. If I only select my mobile interface, it fails. Happy it works on a stock ROM, since stock is the only one available yet on this phone.",,
TTL Editor,Google Play,org.segin.ttleditor,Z3A6QU9xcFRPRzhGbnBTSFYxM1pnR05WbGhVSE1SRWNLTnBKSW04Nnl4YS0xcWotaktKMm5Jd04tVGtQTWFDV3Y5Ui1MbTNFa1QzS01sc3cwMUkweHZVNUE,English,,4,2016-05-11,Георгий Осокин,Update failed on rooted OPX 5.1.1,Please fix,,
TTL Editor,Google Play,org.segin.ttleditor,Z3A6QU9xcFRPRTZNTWdQMXlTT0pDWVlXZFk3RG5mWTBrUDM2dnZjTlN3ZUp5TE9JNE4xNlQ1eWxmSEM0UDlOaXNIRXRZSG0yT2FFR1pHeEdkZFhITERReWc,English,,4,2015-09-21,Alexander A.,"",TTL update failed on rooted stock A5.1 LGE Google Nexus 5 D821. WIll wait for fix,,
TTL Editor,Google Play,org.segin.ttleditor,Z3A6QU9xcFRPRUtNb1BtTTFJUnpRZXNsVzg3NVhiUWMyY3NWS0pXTVVCWDZOLTFDRVlsTjZRSWZrSlhJOHR5VEoxeU9TVHhDLVA1NjFLdnRmX2RDazNyclE,Arabic,,1,2017-04-14,شهاب محمد,"",البرنامج ما يشتغل اسوي موافق ويخرج ع طول الرجاء حل المشكله,,
TTL Editor,Google Play,org.segin.ttleditor,Z3A6QU9xcFRPRlZFS1ZYbWlMUTBSN3JkaUVFSUVzelViejBzX0xPRjM0OUVLamN0SkV2TGY1VEtkYzFkWENWVXZHM3dRcDQtdkZxRzZYdThDN3ExalhnOHc,Arabic,,5,2017-04-09,حسين أرسلان,"","",,
TTL Editor,Google Play,org.segin.ttleditor,Z3A6QU9xcFRPR0FhQ0VscHVFU0p0ZmFSenJUVEZUNy1fWmh0UlFkVThQM0RzUzQ0aUh5T09WcEpKS3J1X2NTbEVzNUN4MEdzYnFOc3RxYldOREdya2ZmZWc,Arabic,,1,2017-04-08,"","",ماعم يشتغل ابدا زبالة 😠,,
TTL Editor,Google Play,org.segin.ttleditor,Z3A6QU9xcFRPRjZfYUEyN1hwMkNMUDV4ZGdDNGJnNzhzcTZLaERkZDRzX2liSThTX3VFUnlsVC10anZfdjlmWmtWSkc1Q2RIRWltWXJRVTZsdDFWck9nY2c,Arabic,,5,2017-04-04,محمد نجار,"",ممتاز جدا جدا شكراً للقائمين على هذا العمل,,
TTL Editor,Google Play,org.segin.ttleditor,Z3A6QU9xcFRPSERpVjkyNW51ZFM0Zm40OGVhUGczUmpxd3dtVFd5akdoa2xTaU9jS0MtM2dwMjV5U2VHZmNoMGhObDJOdzFTSVlEdzZfM3VoV0N0c0xucnc,Arabic,,5,2017-03-18,"","",مفيد,,
TTL Editor,Google Play,org.segin.ttleditor,Z3A6QU9xcFRPR2FJSWxNUXFUQmJDWEhIYzhsT1R0WHdadU1NRGpuSlNJLXRCQVRwam9YU3JGbDRGQ19WcHdQMm5YcHo2WW5sakZoS0VkcjZHbGZKZWRjd0E,Arabic,,5,2017-03-07,"","",عبين,,
TTL Editor,Google Play,org.segin.ttleditor,Z3A6QU9xcFRPRWljS1hnYjNoMnV5aDRfLVFZVjN0dWxOOVRnUVNjbW9GV0xQTmxCcFRfLXY4d0ZuV19xTXJxN3plM2RXc1NFOFYwLWJpX1loeFIxU1lHTWc,Arabic,,4,2017-03-04,Bakal Ali,"",قوه,,
TTL Editor,Google Play,org.segin.ttleditor,Z3A6QU9xcFRPR1BNY3lvN01HektWLVBwX1ZsV3RPVlNmNjNvUEdmSWQwMHRFbHVGbE1XOGxWUjNFdDFWZXRYZ3lkOWNnRWhnN1h4Z1RfSmZFbndxRlJFSkE,Arabic,,3,2017-02-28,"","",جيد,,
TTL Editor,Google Play,org.segin.ttleditor,Z3A6QU9xcFRPSEJtY1dHdDNMaUZyRVFGVzNHYTFyMlRVb0V6WjhJX2tFYXVBTlE1cXhSd0p2OW55UHlaUjk4andFUVpPU1J3a3lGZXFiOGViQk9hNGNoNkE,Arabic,,5,2017-02-12,محمد محمد,"",جميل جدآ,,
TTL Editor,Google Play,org.segin.ttleditor,Z3A6QU9xcFRPRXROclhvcEN5TEd3SUxTUHRFbThWMlljdUU3NlVxc1YxcUZsdUFyNDhqTkFZWjdINEVSSjlqREgxeWpic3p1VWNvSTlNVUVpU1lsYW8zT0E,Arabic,,2,2017-01-31,بعشق احساسك,"",من فترة كان شغال ولكن الان لايعمل في تركيا  نرجو منكم اصلاح المشكلة,,
TTL Editor,Google Play,org.segin.ttleditor,Z3A6QU9xcFRPRXpyUFdGb3dlcGkyTlJPaUpoQm1RQ0lrSHJ6cldIRFp4cXJNQUhGd05HY3RZcURxMnhpOTZhR3dEYUstU3hyNG5zUjN0aUlqMWg2bHY4WGc,Arabic,,1,2017-01-31,"","",يازلمة حرام كذب دي كذا حرام انت عيز اي انت عيز تضحك على العالم إذا انت كنت ما تعرف انو كدا حرام انت لعلمك انو كدا حرام كذاب,,
TTL Editor,Google Play,org.segin.ttleditor,Z3A6QU9xcFRPSE04RV9pOWc0bVIwODB4MGNLaGg2dmdLZlZKQ2pULUs2WU9GeWM2YjYzQ2liX213bGtPMW9hTFB5bHZ6MDJHdEt4RElXcE9ROFhiMnZnd1E,Arabic,,1,2017-01-25,Ahmad Abbara,"",كان هذا البرنامج شغال بس هلق واقف ارجو التعديل,,
TTL Editor,Google Play,org.segin.ttleditor,Z3A6QU9xcFRPRU03Ujc2WGhqUTl5N011UVdfY05QVWV2Z3BISEx4SzA5b3Jmd0JmYVNMOGF5Z1hqd2RqaFcwbUplcEVUT3AyUXJqWGgxUmVEallhN3dDRWc,Arabic,,1,2017-01-22,احمد المصطفى,"",مش كويس,,
TTL Editor,Google Play,org.segin.ttleditor,Z3A6QU9xcFRPRVphUjBlR3R0aUNiUFpUNW5HRHpSSlFHNkc5LThqQXd1X2FfNjVfVUQtSjJSX2tFQnZaQjdVNTZHZm1kV1E1TkFIVE93dEFwMk03ZHJ3R2c,Arabic,,4,2017-01-18,"","",انه يعمل رووووعه,,
TTL Editor,Google Play,org.segin.ttleditor,Z3A6QU9xcFRPR2psajZ4eHcwdlRvcnREenE3aW9od0UtNG1oZ3Vwem91dkxWN0hwejZZTDVYd1gxd1pJWG5SYkg4TGFIRDJwOURmTkJWRUpWakV5Y3RPQUE,Arabic,,1,2017-01-15,"",حلب,بدك روت في عندك مشكلة با الروت,,
TTL Editor,Google Play,org.segin.ttleditor,Z3A6QU9xcFRPRzlVZkoyOUZwUGVXdG5iemRWWmprWmpZWnAtdWZsbjZ3NS1sMGtzNEo0dEJoYlF3TFpzdFZwV1J4dHl0VjdoQW1BbjcydzNJUUdlSk9YWHc,Arabic,,5,2016-12-27,"",اخواتي,البرنامج مايفتح الا بروت,,
TTL Editor,Google Play,org.segin.ttleditor,Z3A6QU9xcFRPRzFORmU3WThpcnVENkhZd29fMFYxVGtvUHVtczJ0eGVLQ3RlTmRHUWtzT3ZUUzFlTkQ3OGI3RDc3R19hT3E5SUx5RUozV2V1MTRMcVlVYXc,Arabic,,1,2016-12-20,اسماعيل حجو,ألقيصر,البرنامج بالاول كان شغال بس هلأ يتم الشاشة ساعة سودة وبعدين يطلع من البرنامج ارجو من الشركة المصنعة أن تجد حل لهذه المشكلة على الفور وشكرا,,
TTL Editor,Google Play,org.segin.ttleditor,Z3A6QU9xcFRPRUwzYnV3XzBrUE13T1l2ampUa1I4cHhhRExaY1BJZ3UxS0x6d0xwZkZLTzk2TXdIVUF4dnR0blpZMnR4UXJfOFphSXFQRDNzelItUmRERVE,Arabic,,2,2016-12-18,joseph haritani,"",سيئ للغاية لايعمل مع برنامج السايفون تم ايقاف الثغرات,,
TTL Editor,Google Play,org.segin.ttleditor,Z3A6QU9xcFRPSGo0MlJYUnpkUTQtck5uUU9rcS1fdVFMLVNwZGY1ZHNxcVFWc0xmZDIzV0dwWFhTY2E0dVFBV3h2eVJZMW9aWEQ2aTN5dC1JZmRyZzFEbWc,Arabic,,3,2016-12-17,ابو عمر,سِوَرَيَ حُبّيَبّ لُا تْلُْعبّ مٌْعيَ بّسِ افَقًدِ اْعصّابّيَ اتْحُوَلُ ارَُهابّيَ,وَالُبّرَامٌجْ يَْعنَيَ مٌاشِيَ حُالُوَ,,
TTL Editor,Google Play,org.segin.ttleditor,Z3A6QU9xcFRPRkFqVUExOHcxaEFNNm9makZ4X0h0QzMxUEE2V2pIX1AyeTRKQklhQVVRRVI5QmxuSzUtXzJNY1NZTWtURjdiTE9BRGFmWnE1QmZKVkxRMHc,Arabic,,3,2016-12-15,عبدالله سعد,"",لم اجربه,,
TTL Editor,Google Play,org.segin.ttleditor,Z3A6QU9xcFRPRWVveVZwVE9uSnRGYm5lZFAyRHFBdWJ2aVRhMFVaQmM1ME9TRG81c2hXalk1NWNvSWNsaHVnbmUybThRVVhsWFFrU3k2RmVkRWFkVHdHZnc,Arabic,,5,2016-12-08,احلا المقاطع,روووعة,والله العظيم اشتغل عند وشتغل اليو تيوب والفيس وكلش,,
TTL Editor,Google Play,org.segin.ttleditor,Z3A6QU9xcFRPRkljV2VHVWFKZGM4a2RtSElNQ2RZMWppcE80Ty0tekdmSjFoaGtCMVlveXE5VzNpUjRyVzdmelo5aTBrbjVySl9XSndIYklsTFlraW9OVFE,Arabic,,5,2016-12-07,"",شارع العشاق,أنهو جيد وممتاز,,
TTL Editor,Google Play,org.segin.ttleditor,Z3A6QU9xcFRPRWM4MEdKRUlXdFYwLUw3NVVqbXA5MzRNV1E5LUtCWWx3NW95cllyUnlEV2htYUhXdUFjUmo3Z1A1UnotUkRCTVVGUlMzSFN1cFpVaU1COVE,Arabic,,5,2016-12-04,أمواج البحر,شكرا لكم على البرنامج,رائع,,
TTL Editor,Google Play,org.segin.ttleditor,Z3A6QU9xcFRPR0RiVW4yZTl4RzVtRXNrSEl6TURyd1dpMzIyb3NNRzBYcDBvRi11QW5faFN3Mmo5VFlEVzBad1c0YVJwYnhXUUttUDdDQmN3Y3BTa054VEE,Arabic,,5,2016-12-02,"",حلووو,جيد,,
TTL Editor,Google Play,org.segin.ttleditor,Z3A6QU9xcFRPSHhEZXJOU3ViX1hoSHBZZWdHY0VFQlRDaGxIZ1phaTl1VjRmQ3N3alJDZUN0YjFRZm44bXlha0I2emZWV2dSbnJZNEwwbTZ2R0x4WjEwSHc,Arabic,,1,2016-12-01,ma77 fys,TTL EDITOR,,,
TTL Editor,Google Play,org.segin.ttleditor,Z3A6QU9xcFRPR2Myd2pBWHNXaXJ6VFZCWmJ2UnVoUERzV1hCeWNqTHU0eFFXazlocnpoM3pZUVRuVVYzdER4S2QxR3RISkdQbENJRzA5MHZQbkVsM1lYLXc,Arabic,,5,2016-11-25,النللالا نللع,تركيا دملر,برنامج الTTL ما عم يفتح عندي,,
TTL Editor,Google Play,org.segin.ttleditor,Z3A6QU9xcFRPRkVSLTZFN3kzaDVHMWQtTW1aUUNFY1c1bVpkdGpna3lfUGdqWm9Jb29ERGszS3o4Z0FLUWpqZmVXbEI2Rnk1ZEhtQUhzWjZQOW4zbzF0bHc,Arabic,,5,2016-11-24,السلام السلام,زكريا,البرنامج ممتاز,,
TTL Editor,Google Play,org.segin.ttleditor,Z3A6QU9xcFRPRVc2b1A3OTJfUk02bkFhUEtHYzdqUkdDcnhCckw5eDBxb3lQUkR3dDFuRDBobk1TVHBvZ0tqdlBzS2tsaW04blhiQUIyNGU4TWljRVQ2ZXc,Arabic,,5,2016-11-23,Mahmoud Mollahmad,يا شباب لبرنامج بدو روت وبيفتح انترنت مجاني مع برنامج لسايفون,منتاز,,
TTL Editor,Google Play,org.segin.ttleditor,Z3A6QU9xcFRPSElHV3pwbWJVTVZrNGZUNHk0V1FsUENDMzRIRk1jV3JOS1dVRmR1LU50TUVMYk1iNG1Vdm5DQXhRSGNXSVFqRHpYZjdoTnF1QWk5bVRZVkE,Arabic,,1,2016-11-22,mahmod zaza,تركيا,لا يعمل,,
TTL Editor,Google Play,org.segin.ttleditor,Z3A6QU9xcFRPRUp6RmJNZXRqc2hVcGo4blFmc25pRWhiS0JPTGdpQ1liY29CTC1VMFEwd3lFS0R2UXRKLUhrbDc5VmRXRzZySmUzUENySm9lTnRkaW85b1E,Arabic,,1,2016-11-22,"","",زبالة ما بيشتغل,,
TTL Editor,Google Play,org.segin.ttleditor,Z3A6QU9xcFRPR2U1eFoxRnRwbm1ZckdxcWtCZnJPOS1wYlRnQURnNFVEMGxLN21HdWVtY2czN3ZnRzJyeENkRzIyVTdhNkhMM2liMWtfUWNuZmwxdnFRRUE,Arabic,,1,2016-11-19,كوثر ابيض,تركيا,لا يعمل,,
TTL Editor,Google Play,org.segin.ttleditor,Z3A6QU9xcFRPSFF2bENtN0NqVUcxZ0NWTlRqdnYxUmZlRFhoTmh4TXRmTHhFc2E4V2ZEalA5Mm1JeXlRemZ0WUdSMzFobDRPQU4xZU10aWxCMWo3VEN6RGc,Arabic,,5,2016-11-18,ادلبيه وافتخر سوريه,"",واوو,,
TTL Editor,Google Play,org.segin.ttleditor,Z3A6QU9xcFRPSGZwUUw1SVJPVkdaWWpsY2VYVWFiQmhEU1pZZ1pOVXhVUllfSVJfcEFmdm95OFVidS1PMTlvQTRZc20wdEFRRjIzbzgydldHSWYyZ2pDMGc,Arabic,,5,2016-11-17,شحن جواهر كلاش اوف كلانس 2016,تروعة,لنت المجاني,,
TTL Editor,Google Play,org.segin.ttleditor,Z3A6QU9xcFRPSFVnWjdIY0E0SE04TkItYUdfTEhIZkhDNGxZUGg4aXdicjZHQWFLTEM0cmJWR3lSekhzX1BYQUtNdnI5WmRudWZOb2g3bzFzR1ZsbDlkcEE,Arabic,,4,2016-11-13,islam tv,"",جيد,,
TTL Editor,Google Play,org.segin.ttleditor,Z3A6QU9xcFRPRlV6WnB2SjBmckxRaEdacTlJU3RSYWw4cEFWRXlRLVotU1Y3NlhRVEVZTVlLa29oazhuZWNtZndWb0hUUHR3cG1IZkZ5MFVob3Z0Ukx2OXc,Arabic,,5,2016-11-11,XxX XxX,الي عنده مشكلة هاي معرفي على التلجرام اسالني واجاوبك,"",,
TTL Editor,Google Play,org.segin.ttleditor,Z3A6QU9xcFRPR3oxakktSFpkWlFvV0luOVdFQmM2ejBhQ1lCYmdJX3ROdHBrQVBuSm9sZmZ3NHYtYUpQZTNyT0NRcGhBNEVIazlDQ3Vxb09HODM0YWJMMUE,Arabic,,5,2016-11-09,ادهم محمد,جزاكم الله خير,ياشباب البرنامج بدو روووت روت من غير روت لا تحاول تشغلونو وشكرا,,
TTL Editor,Google Play,org.segin.ttleditor,Z3A6QU9xcFRPRXU5VnQxZVMzSDlNOHMyNmxhQ0NEZzhmMkowVW1UNW9Id0pWckRNZ0h2SmFMcHFjNnM3SDQ0OElkRGdDYVpqQktWeV8yeE1ZX0pMSkR2Z0E,Arabic,,5,2016-11-09,صالح ابو محمد,يحتاح روت في تركيا,رائع جدا انصح بتحميله,,
TTL Editor,Google Play,org.segin.ttleditor,Z3A6QU9xcFRPR090ZVh3LTNuZlJyZ20zX1BfQlQ4T1FBMjlyeDgyLUlwVXVpUHFoczh3UE5vb1VVdTAyNGliSzlCN3FkaER5U2JBVTdrejhxTTNhOWlNY0E,Arabic,,5,2016-11-08,كلان كردستان,ممتاز,شباب شغال البرنامج بدو روت بدون روت رح يعلق الهاتف معك,,
TTL Editor,Google Play,org.segin.ttleditor,Z3A6QU9xcFRPSFkyOGxOX05KV0RnYmZTYUx0T1JOY1pZSDhXZ01MZmJMQTZ1d19WRzc0UzlsOFFtbDBrMkljajBJeUhXNFpzOXNYQUJxNThCUHJvNjE2cWc,Arabic,,2,2016-11-02,mostafa ahmed,لايعمل,لايعمل معي بالرغم من وجود رووت,,
TTL Editor,Google Play,org.segin.ttleditor,Z3A6QU9xcFRPRjdKLTFySkZHaU9rMnM0VExlakNmdXQ4N3YyMV8yY0QwamM1SUhBWnZ2bnozWGxKZEc0bGVkTl9LRWwyblBJS05oVkhabjRXanJYamxrMGc,Arabic,,1,2016-11-01,"","",زبالة لايستحيب في الجهاز بقول خطا لا يعمل,,
TTL Editor,Google Play,org.segin.ttleditor,Z3A6QU9xcFRPRmV2alIzU0dQQlNjQXoxUEhRZUJfSVg5bmFqanhMcjVKQVhSRGhHWlhVRkNFbFVyUVRnMGY4SVpQbW1QOFo1Tjl0SHQ3b0VCeEtxeXJvcmc,Arabic,,5,2016-10-28,N D Ajnnenrnnr,يويويوويوي,يزيويويوويةسةسة,,
TTL Editor,Google Play,org.segin.ttleditor,Z3A6QU9xcFRPR3dpUXFFNVp5NkpuUndZUVBfdlEyUVdDYk8zRndfZlJRblFiNnBQQzNEN05uX0hwNFBMSDV4NTJrTV80UmhZRUFKTWg5ZHNzbmhHQW5SekE,Arabic,,5,2016-10-24,imen imen,Hxv,,,
TTL Editor,Google Play,org.segin.ttleditor,Z3A6QU9xcFRPR08yOEZjdC1qdGxqVzFxNjVweU9LemdabHhvb0dxaG5OUzB3M29vMDNaZnNpWEpRUUhLY1hIZGloLW9nZW43UWNVaVBjQzMtVkE0d3A4VWc,Arabic,,1,2016-10-22,yahya yahya,كس اختو,مو شغل,,
TTL Editor,Google Play,org.segin.ttleditor,Z3A6QU9xcFRPSDVqNVAzWFVhWl9JdUd1a0tqUTltamUxQjZoVUVBQkVnLWNZZEVHeWJsTzJZb18wZ0lKcTlDWF96MGdlNDJmWkU5WHN6S1NsMXdOeW9aQ1E,Arabic,,5,2016-10-19,"",تركيا,جميل,,
TTL Editor,Google Play,org.segin.ttleditor,Z3A6QU9xcFRPRzRmV1g0SXlxaWticnpBOXNJaTN1YVBvNEVCR3p6WjZ6Q1d4am14NkJLcTEtWkNfWVJ1cC1QclRyOWxrdVl4bmQtN3p4blZWWWlyeUJqQnc,Arabic,,5,2016-10-17,مريم دور,"",رائع,,
TTL Editor,Google Play,org.segin.ttleditor,Z3A6QU9xcFRPRldTQXVSZlhoaXFkZVhqeU14d2RCRGdjTEVkUVVSaW1tVkxkOTloMU51UGdLdV9BaWJLT1UtR1l0U0lOT2t4TnJfblZva1RaYWFXb2VQMkE,Arabic,,2,2016-10-08,ابو جيهاد,"",ممتاز,,
TTL Editor,Google Play,org.segin.ttleditor,Z3A6QU9xcFRPRkgteEYzcGIxckhSX2pfakZZaHZLZ1VwWnRPZy10RFVoM0FRMDNfMDk4ZVdLeUJJVTNyX0JseFBXY1lvQXQxZmVhMzNGVkVWMUJYbElEWXc,Arabic,,5,2016-10-05,مطران بيك,سوريا,قيد التجريب,,
TTL Editor,Google Play,org.segin.ttleditor,Z3A6QU9xcFRPRlBVX1Zud0dwTzBRM3FsTUZNbkZpVmM4eU1tY1gtYzR4a3dsbWsta29XYmJnN2pFWDAzN2NhTjE0dVNoTzBfTWpIc05GM09SYld4OTdOTmc,Arabic,,5,2016-09-28,محمد محمد,"","",,
TTL Editor,Google Play,org.segin.ttleditor,Z3A6QU9xcFRPR25acmU4T05JNnhFWTBmcTVxSmMyOFFYbjE3V1VvSkhHRm1qWjhwV3M5ZC1SaWctOWZybDN6VzBDMjNsamRTN1BYVF9OSnZaOFFGS0Y1SFE,Arabic,,3,2016-09-23,yusuf alsalm,"",لم أجربه بعد      إخوتي من لا يعرف الروت يدخل على اليوتيوب وبيعرف,,
TTL Editor,Google Play,org.segin.ttleditor,Z3A6QU9xcFRPRzQ2SHZCLWZIZzlpTm1QMXRBRkhIU04yaERUMVk3eU9BenBFd2tFNDROdVpzTnZKZzhZOHBuSF9SUVkya2NfSmhYbkpLc3JkXzB3Z2loYXc,Arabic,,2,2016-09-22,سيطره والاطلال,"",ايه هو الروت من فضلكم,,
TTL Editor,Google Play,org.segin.ttleditor,Z3A6QU9xcFRPRU5adjRVMFk1czU5SlVQTlpEQ2JIckoxQlFCN2xGX0JzNGg3RlpaQTZGejRlLUFJMVp2YmFmZnFzTGdWSDh5U2lMRU1vcWhqNTNZWmJ0X1E,Arabic,,1,2016-09-19,مهند كنعان هنداوي,"",التطبيق ماعم يفتح.لما عم بضغط عليه.تبقى الشاشة سودا,,
TTL Editor,Google Play,org.segin.ttleditor,Z3A6QU9xcFRPRjAtQnp5aFR2Z1E5elhDZWY1bUxZMmFKcDhmNnJWZ1Z1bVJIcl8wb054UVpKdzc1dGdyV0F6NG51MnJXV3NyQ0xfcDc0bjEtUXU5d0c1TlE,Arabic,,5,2016-09-18,دولة الخلافة باقية وتتمدد,"",ابو انس,,
TTL Editor,Google Play,org.segin.ttleditor,Z3A6QU9xcFRPSHItT0xUajk2ekVvTkxuZDlwRXFCMGlWQ1ZDLWszcF9mZ1RhQnhsaTZwa2o4VE5SQnluZHdXQ3A0UDhCaV9fZ3NpekdVZmplYXFjeXdJZ1E,Arabic,,5,2016-09-18,احمد الموسى,احمد,البرنامج حلو لكن على بعض الاجهزة لا يشتغل بشكل جيد يرجة التحسين,,
TTL Editor,Google Play,org.segin.ttleditor,Z3A6QU9xcFRPR2tNbG1fQUIxY2JwazVzSmFFQ0JEOFJiSlZ1OXA2OHZBaFBaLThtU05ZUDJ2US00MDhXbXVxVjVkdV9KY0p5a3psVUlIRlU2S2lYUFF2VkE,Arabic,,5,2016-09-18,"",تركيا,البرنامج فتحو بتم الشاشة ساعة سودة بتعلق.  برجع بسكرو وبعيد الكرة والدخول عليه كمان مابيتشغل حدا يساعدني لو سمحتو,,
TTL Editor,Google Play,org.segin.ttleditor,Z3A6QU9xcFRPRlpGZjl3U25QRE5HVnQ5Z09yelZsQ0FweWhhM0tuV190OTF2eDdSNk1xTDlnTkdLWlR0b1NMRm9UcTQyck00T2ExeWsyY3dxWjZSWkJnTnc,Arabic,,5,2016-09-17,"","",برنامج شغال . جيد جدا,,
TTL Editor,Google Play,org.segin.ttleditor,Z3A6QU9xcFRPRlBWWUE3U3pIRE4zMTQwSXdqZXZWYmZ4T21TSEpEcU93VTEyUUpBOVFBU3d1N1Y2dkI1YUplM0Q1ZXIzbTdYY0lUM0FVYkFOS1RZdTk2Ymc,Arabic,,4,2016-09-15,Ali Ali,"",ممتاز,,
TTL Editor,Google Play,org.segin.ttleditor,Z3A6QU9xcFRPRnRQYzZuZWZ0UFRZZmM4YlBzZXlHcEY3NGhKN3hKZnBrVzlwTXM1YzY4ZGF4M2p2Uk85X1BSamtUTFdXN1pRYWNFendtWThUdElTc0pPY0E,Arabic,,2,2016-09-14,"","",ماهي وظيفه البرنامج,,
TTL Editor,Google Play,org.segin.ttleditor,Z3A6QU9xcFRPRkk2RXVsVUhDT2M3YjdEYS16TVIwRWFTaHZ3cER5RTZYVVQ1bVRscVMwWU1Ba1BiUUhGVHZldDdLNG53U0pHdWJQR1BHLW1RVXNMRVBld0E,Arabic,,5,2016-09-12,Ahmad0 Kadoor,"",برنامج ممتاز انا شخصياً استفدت منه,,
TTL Editor,Google Play,org.segin.ttleditor,Z3A6QU9xcFRPRjQ4Mm5iUFZ1am1NQ0JzUTZWMHNvVkNsdkFMbEFCX3ZWVnlkUHVqM004ejVpWjNJaDd6a3RMNFNxT2FNcjEyZzhKSzNzUnlaaXU4OVExOUE,Arabic,,5,2016-09-07,Maherr Iraqq,جميل,روعااا,,
TTL Editor,Google Play,org.segin.ttleditor,Z3A6QU9xcFRPR1V3eUwtRkQxMlFhZDJ5cms2eFRSV3BGdnZHT1B4cGRidldWTlJiYllLWVFOLThqX3R2c3BqUVNYSUllZ1RMNUM5UTdURWpKb01tMHVYVGc,Arabic,,5,2016-09-03,ابويمان Syria,الله يعطيكم العافيه,رائع,,
TTL Editor,Google Play,org.segin.ttleditor,Z3A6QU9xcFRPRVBucHdROXZfVTNqTVRVVmtaYnF5blRySGNCY2poUXZVUWlZNnEzN0RFTm9ucEdueHBTWF9DMWluY0lJNkowczQ1elRvTVpOOExoQlVld0E,Arabic,,5,2016-09-02,Aybo Amreh,Abdo,,,
TTL Editor,Google Play,org.segin.ttleditor,Z3A6QU9xcFRPSGFxWmNwbWs5MW5DeGt3Si1fOFJZalN1N2VPa0drYmpNZmxfN2NGcm5NQm5VNEVyazltOEtnSVltaXdyOUY4dkVkOHNnWHJoYkx3WG9lM0E,Arabic,,1,2016-08-21,YouTub Show2,تركيا,لا يعمل مع وجود روت,,
TTL Editor,Google Play,org.segin.ttleditor,Z3A6QU9xcFRPSGxLUlhMbjY3SmNHdWwybDk2dXUtZ1FqakI4SVZFSzJmVklRdFJkd2hON1NadE50b2dqbnNMaWVVZHlqUUJreG9hMjc2YVJlbm1KSG9zZHc,Arabic,,5,2016-08-19,ابن اليمن شبواني,اليمن,يشغل فيسبوك مجاني بدون رصيد والله,,
TTL Editor,Google Play,org.segin.ttleditor,Z3A6QU9xcFRPRWJxMjAwRUhKNHlQbjFLQ0duRWFESHZ0a0FpTjhUNWlWNV90Mzk4ZjQ2UUdTVDVRem85ZWR6UDhheFV6ZGY2WUxuS1BnY0ZtcGt4blF3N2c,Arabic,,5,2016-08-14,Abod baz,برنامج رائع,بل أكثر من رائع,,
TTL Editor,Google Play,org.segin.ttleditor,Z3A6QU9xcFRPSGFneVpRSmFXM21QNmFEOHgzT21EcjhtOGc1SDlyVmZ3MUNDQkp5THMwTUpJRnFsUnM0bXp5VlBYLUxHcUlqOWhxckduc3A1YlZFRXIzN1E,Arabic,,1,2016-08-01,غِذاءُ القلب والفكر,"",زفت,,
TTL Editor,Google Play,org.segin.ttleditor,Z3A6QU9xcFRPR3pDSnJNYm15eGZhN3pZb1kxUlhnMEhUbWE3bGFPUmpQUGdESDIwQVQ2c1NoYVZwc0FUUDBOS1poNFhQUl9Ua2xFR21VLV9tM0ZpRTd4bGc,Arabic,,5,2016-07-19,أبو معاوية الشامي,اااا,هذا ما يشتغل من غير روت???,,
TTL Editor,Google Play,org.segin.ttleditor,Z3A6QU9xcFRPRTI2U0NGRzEyQ0F5QWNzN1duSkNxT0dYOHNwa2hYYWhpYTltZ3puQTBkWGxfOUZXcFlkWEc4enppdlhuVWJlUHljbHhkRFYyR0JyNkNvTEE,Arabic,,1,2016-07-18,Shyar jan,مافتح,ايس 3,,
TTL Editor,Google Play,org.segin.ttleditor,Z3A6QU9xcFRPRkowSGNJZ29fRnJQcXB2a01fUTd3R1FGWDlPOTFYQ0hlZlZmT1JHUjZaekdVUkNLSDlCb3ZwT0x4ZWFrVWtodGN1RW00b2wydnBTUElTd1E,Arabic,,1,2016-07-17,عبدالرحمن السوري,ماعم يفتح,ارجو الاصلاح,,
TTL Editor,Google Play,org.segin.ttleditor,bGc6QU9xcFRPR3BwUWpGWFg3S3JBM3ZHN1RiemxiSzhYNFA2MWRWMjFMN0RRQjdLaGdvOHNrcVVkZUNuRmkyaF9zbUhkaGl6Rmw5OTNwbGlfeWc1ZG9ZYlE,Arabic,,5,2016-07-11,مستخدم Google,Mm,,,
TTL Editor,Google Play,org.segin.ttleditor,Z3A6QU9xcFRPRlV6TkpjZjZQZ3VXd3lPbmNIaFlNVjB5SVh0RERlRS1WY3U4YUV2MS1wTkRaTWI0c1NJSmdFSlNYdFl1MmZoYlJ4ZHFrQUtWcHVmZzVxZWc,Arabic,,5,2016-07-05,Syria Salwa,"","",,
TTL Editor,Google Play,org.segin.ttleditor,Z3A6QU9xcFRPRjRGZ1FDVXZ5MTllQ3VLVVU1WEtRbW1JcFBQcEY2eWt5cWJWdUllS29rLTUzT3N0TkZlbDV3Z2xNY0s2cVpGU2EzTHZ5MTBOT2s0cktRaVE,Arabic,,1,2016-07-05,alaa qais,"",ﻻيفتح,,
TTL Editor,Google Play,org.segin.ttleditor,Z3A6QU9xcFRPSHZ0cTZPYklKemE5LWEyanE0aTU4V3hRWDJBbVhQdE00MDFra3NVLVZLU2JZdDV4RHJQTWpyTDdVaTBfb2UtWGtLc1ZudmlqcEs3TkFxU3c,Arabic,,5,2016-07-04,خالد ابوعبدو الحموي,Ahmed,,,
TTL Editor,Google Play,org.segin.ttleditor,Z3A6QU9xcFRPR2prT3ZRRFl3bU96a0ZGVUd4RUJHX2haU1ZDVDh0QWoxWkJTLTRGU21PMUJyTldDYkRKenVwZGgyZ2htNU5CeTlCYmNpUU1nRUFBZUdySHc,Arabic,,5,2016-07-02,أبو أحمد,"",روووووووووعه جداً,,
TTL Editor,Google Play,org.segin.ttleditor,Z3A6QU9xcFRPRm1wdHp2LXlOYml5WjdDdk9DakhPWDFvVjhZQ3hxMC02cXhGRzhUTThkSHlaYWtzVkdKRWxBMDg2MXU1bkhaWm1LLV92MWRTcnRpSTl5N1E,Arabic,,3,2016-06-25,ali reme,"",لاصدار سابق,,
TTL Editor,Google Play,org.segin.ttleditor,Z3A6QU9xcFRPR0FfNUtVMFhPc3Ewbzc1QTBRam9Ea2k3bDhZYk1FRVJOUzlidkFrT2puY25VZ3lzSEF3ZGdfYTN4bzViX0hoX2ZpUGszR2J4d2VKR3kxdEE,Arabic,,1,2016-06-23,أحمد احمد,"",برنامج زفت ما يفتح,,
TTL Editor,Google Play,org.segin.ttleditor,Z3A6QU9xcFRPRnEwU0Rael9mTEZSMk9oS0lYd3lkcHdaVzJjNF9qT0RWR29Bc2JXYmtPdHc2Z1hGWDdERk40d3hUZGJIQktFbGc2NWVVZ3ZzdlVBdHJMMnc,Arabic,,5,2016-06-20,Goop Klo,Good,,,
TTL Editor,Google Play,org.segin.ttleditor,Z3A6QU9xcFRPSDQtU2Q1YmZpSHIyc19YV2pZbEJkNkdkc2RfOUpVWWVsb1JFVWdvTERsMWRXZG5QbWpiMzBWZVZzUXhfeFJOVmVjc2gtT2JYeWN2dzRSRkE,Arabic,,1,2016-06-18,Hussein Hussein,"",البرنامج سيئ,,
TTL Editor,Google Play,org.segin.ttleditor,Z3A6QU9xcFRPRzZsSkE2bmNkRmhnRzFPTjJUalR6QlJiLUxDWWFtX09yRm4tTmlDSGRSbHpYajFQNUJkNHdrSnVWc0ZLdFlYdUxWeEVJT2psZHNnVktzLWc,Arabic,,5,2016-06-16,mhmd ahmd ahmd,"","",,
TTL Editor,Google Play,org.segin.ttleditor,Z3A6QU9xcFRPR0daUHp6TzdEQ1NlR2pOdDFKRkR1M1F1cEpFVGpvVzhqblI5RjhPcmo5QndGRHRVbE03Q2c1UGF2T0hSbkUzdjBkZVByWjEwRk5XZVRvdmc,German,,3,2016-08-05,Kaspar Aspar,"Good idea, but des not work in marshmallow",Gives success to any action but TTL is not changed. Tried in (rooted) xperia m dual Wirth OF and cyanogenmod 13,,
TTL Editor,Google Play,org.segin.ttleditor,Z3A6QU9xcFRPRlBqemw4RXFrRHZHdWxzS2Q5ZHVjZzA1WnRNa244bWVHalhiS2JxVFBOY3lyZFVhb0toUUZiQlRMLU1mdy1XZlIyRG5aQ3B6TlFUaFd0QVE,Portuguese,,1,2015-03-21,humberto jose,Huawei Ascend G6-L11,Have root. Fails to apply.,,
TTL Editor,Google Play,org.segin.ttleditor,Z3A6QU9xcFRPSFQ5YmpCSWNqUS03enlUSmVtdXNlSjYwaGNmVkhjZmRrb2xrXzV2cWpxWHcwSWdtMC11aWpNTVNLdFcwVWZXMHJZV0N0QTBWYUJ4ZXR1cmc,Russian,,5,2017-05-20,Игорь Меденцев,"",Работает!,,
TTL Editor,Google Play,org.segin.ttleditor,Z3A6QU9xcFRPRlUtQnRHOVM0RXZkZDh2c0YzeENRd1RmUnozLUlXaDFrVGMwSmlKOUdrOTJ5djJ2TGRuSXU0WmVGY2ZYVnpHckJYdmFlT1BKMGN0Mm0xSGc,Russian,,5,2017-05-14,Николай Логачев,"",Всё работает на ура! Только при автозапуске  не срабатывает.,,
TTL Editor,Google Play,org.segin.ttleditor,Z3A6QU9xcFRPRXdPV3dhb3JEZ2pqTHczem9YU1hYOXhfZk1pdTNhbmZ4djVmN0l4SFVGVTloaTZhdFByUkpZQlJPS3dONVYyZUZ6bEh6eUctMVAxaWdGLVE,Russian,,5,2017-05-08,MP Baikal,"","Так с виду вроде бы нормальное приложение! Хотелось бы, чтобы разработчики данного приложения добавили ""заморозку TTL"".",,
TTL Editor,Google Play,org.segin.ttleditor,Z3A6QU9xcFRPRWdocmZOUms5bzB5d2NTejV1TWdrODZCaFd0aGdfQTJ3Q3dadWJTcndxVGFYbHczeUhiU3hPc09tNmQ3SEM2VUZEYzVTQ3ByZm9EUnJJNVE,Russian,,1,2017-04-15,Александр Гусев,"","Не работает, жаль",,
TTL Editor,Google Play,org.segin.ttleditor,Z3A6QU9xcFRPRmthM19EVlRyS1F3al9XNDgxaUtaOWRqd2RoVENIeUlacDZQUEVsT2Y1aWx0MWhwbEhzN1ZZWXF4eE5hQWNBTkxKdllOQTdMdE1fNnNpZFE,Russian,,1,2017-03-24,"","",Фига вы красавицы пишэт недоступны root-права! Редактор TTL не шможэт работать на вашэм устройстве,,
TTL Editor,Google Play,org.segin.ttleditor,Z3A6QU9xcFRPR3ZoU1puNlJXajdadjc3aENuc0xlX2FKZmhIT1NUR0ZMb08tVEZ6eTFKNWNGUXBvbDZrQ3ZLNktJbWpZeEpPRkhXTzIycENIOFhUdEloM1E,Russian,,5,2017-03-21,михаил петров,"","То с чем не справился ттл мастер, справилась эта прога.",,
TTL Editor,Google Play,org.segin.ttleditor,Z3A6QU9xcFRPR2VoODFReUdvTDVZMjhpNzR4NExCNXVMdVVLdDNWTS1LRzZ5d0xKSDRCbGNMdkNHWkZ1akV4alkxZVMydnk5WVpYUjQyeHNKOWI3RW9fNnc,Russian,,2,2017-03-15,Андрей Шашерин,"","Когда захожу в приложение выдаёт ошибку "" Не допустимы root-права! Редактор TTL не может работать на Вашем устройстве! Телефон HUAWEI Y5",,
TTL Editor,Google Play,org.segin.ttleditor,Z3A6QU9xcFRPSEJKZDJyT1hMSENaTEtpcF9BMDJ2YmRpbElkRk56RDAwbWJENG9LQ1gyWG1PZ0x6UzBDcTBEaF9IYzVUQnhtWThsTWwxZi01dGF5cUVUWHc,Russian,,1,2017-03-12,Max litvinoff,"",Перестало работать,,
TTL Editor,Google Play,org.segin.ttleditor,Z3A6QU9xcFRPR2xyRTMxYWxwMjlUQnlIVHk5UHBSRVljeEpFT2pPZTE1MVFKSU5DTmZSQlV6NDhnNlpINmJiNUdjYnVjdUxYODA3dXY4SElrRW9iTE5qM0E,Russian,,3,2017-03-11,Паршина Ксения,"",Как получить root права?,,
TTL Editor,Google Play,org.segin.ttleditor,Z3A6QU9xcFRPSEIzT0o3V2VORl82QTVFb3kwR0RNSkZ0WHJxaTZ1VUo4TC11WWhsMmc4MnpsLXJSS0hVQnd4aGlXcFZnakZWUUphMEtTT2JFblRGOXBGblE,Russian,,2,2017-02-12,Greenman 120,"",Зависает при нажатии OK и хоть ты убейся,,
TTL Editor,Google Play,org.segin.ttleditor,Z3A6QU9xcFRPSGhYdU43bDIwY25GQThJeDhoV3FIWGQzTktPNXIybnFwS0lRd1NyY3A4d2tGdEVBNXNjejJURDdCN0toc3IyQ1pUdFNWU0tQaXdlWmF6Vmc,Russian,,1,2017-02-01,William D.,"",не работает,,
TTL Editor,Google Play,org.segin.ttleditor,Z3A6QU9xcFRPRlZBOUFnMDlqRHVOYS1CNlBFbG5CckdiNGFzVE96SmxLai1xZ1Y4ZkpBek05aFFfeFk0aDFGRFhaNHFxeHFXbW01aDdMTTNxQjZSenBmU3c,Russian,,5,2017-01-24,Илья Маркелов,"",+++,,
TTL Editor,Google Play,org.segin.ttleditor,Z3A6QU9xcFRPRS0xYzZuakkzYXdDbUl3ckVPSWtMX1FjMTAzYldudHdHU1NMOEVteEdoZmNXQnVxNWZUakFsX0JhYjE0a2FKOHdSSkZWenJxLVBrbzFOZkE,Russian,,5,2017-01-18,Zdeaddragon Zed,"","Разработчики, какой поставить TTL для PS4??? А так на компютер раздаю без проблем 64",,
TTL Editor,Google Play,org.segin.ttleditor,Z3A6QU9xcFRPSHY5U2JrTXhKTzZGTlFsVUs0ekhPS2J6WXNqV3BBeTZhbVpHc2FESlJpNU5zTm5JdlZyVVFOWkRqSnRWU19sSWZBV0ZfcGdNWHh2UW00U3c,Russian,,3,2017-01-13,"","",На Meizu m2 белый экран и .. все..,,
TTL Editor,Google Play,org.segin.ttleditor,Z3A6QU9xcFRPR3h2Zzd2V2lyOU5UT3hpaEE2NVhRT2ctTnBzZHotdFRuZGVyMkdCTU83RkhBc1V3UVRDbnFxQkg1emF5RWRBUThkYWppMFZqTzdGNDhUZEE,Russian,,5,2017-01-12,Кирилл Невинский,Ttl меняет!,"Все работает отлично теперь с yota раздаю WiFi для подключения к точке доступа телефоном нужно поставить TTL63,для пк не помню (погуглите) обязательно нужны ROOT права (права суперпользователя) а чтобы подключаться и пк и телефоном нужно на пк поставить TTL64. РАЗРАБОТЧИКИ МОЛОДЦЫ!!",,
TTL Editor,Google Play,org.segin.ttleditor,Z3A6QU9xcFRPSER2ZVpiWHJrMmM2NHl3Y084dXVwa2JLQ3lzaDhpdFdhWmtYaEE1Unl2djNDVzd2TjRYTW41TXVqeFIxLXNJT1dreE5YRjdKV2pEYzFKQnc,Russian,,5,2017-01-02,Сергей Довженко,"",Работает с МТС,,
TTL Editor,Google Play,org.segin.ttleditor,Z3A6QU9xcFRPRThaSjk1VmpqT2dMWDRJdlZkTVd3X0xHNmZtWEUteVVlV1VkcFJMcnR0RmVfNnhoc1Q0RVRHNVU2dTN1bnUxSm5oV0w3cVhrQ0cyZTR0RkE,Russian,,5,2017-01-01,Bird Birds,Супер.,Помог выйти в интернет через планшет и не платить жадюге билайну дополнительных денег.,,
TTL Editor,Google Play,org.segin.ttleditor,Z3A6QU9xcFRPR192Y0x4TEJkazExbm1rUmpxQjFBQjMxOE93SjFtTTNwN3h0dDh3VDNDYTF6b3NMdm9WSkxKUC10V0l0N2ZBQ2trQUxSVk83Q3VEakV6OGc,Russian,,1,2016-12-31,Павел Пасика,Ну и дерьмо,Стоит только выйти так сразу ттл на старый меняет. Фтопку. Аффтар выпей йаду. Ттл мастер намного лучше. Даже после криворукой обновы,,
TTL Editor,Google Play,org.segin.ttleditor,Z3A6QU9xcFRPRkJGVk0xOTdOeUprX0tfcmMzS25aNlVLYTY3NnRCZ0NMVWJNbElfdU16S2RJcmpDbGhzSkRIV3pTLWpwUmVsa2Z2dVUyRFZHYUZ2SWNYeFE,Russian,,5,2016-12-24,Makhkhukh : : Маххух,Офегеть,Я как бог,,
TTL Editor,Google Play,org.segin.ttleditor,Z3A6QU9xcFRPSGtKYUZ4S21rX1cxS1d3cHZwd2pnY1F0bWZyb281TU5CdlBVN2Y3NGgyc2IyaHZIX2RkMEZZbnRIVUk2TG02X0MzbXE1VUZnY2xqOTZwUGc,Russian,,1,2016-12-22,"",не работает,А ещё телефон зависать стал от этого гавна.,,
TTL Editor,Google Play,org.segin.ttleditor,Z3A6QU9xcFRPRUpIWFFkbkRIZk9RS1FDSnRKRjlVaC1WR3U5VHB5RFdBRl9iUG1MR0N3bXFPaGljZl8wZmxOcll6akRUcms4VEM1ajY4QzdDZHVYdXN5Znc,Russian,,5,2016-12-18,Хаваж Муружев,Class,Class,,
TTL Editor,Google Play,org.segin.ttleditor,Z3A6QU9xcFRPR3BxdG9QalVYWVZibnFmQ1IyczlqUGhueFBLWjVTV2FJdXhacmh5bmVjcDFYQnNYeDR6eGthNmxxZmlVaUdDMWRrQ1dWcWx2dG5LNUFwUWc,Russian,,1,2016-12-14,Рай Шинный,Не работает,Галакси таб 3 планшет.запускается черный экран и все!,,
TTL Editor,Google Play,org.segin.ttleditor,Z3A6QU9xcFRPSHRRNjFqbTNMcjdNYUhmVWk2Qjc1WFM0OEc4VVotR2NOdFAzNmEybWlOZ2F4SU03ZGc3Wk81WTJzNEZRRFBIT0k0VDR1QTBIYVFvMUFCRnc,Russian,,1,2016-12-05,Денис Михайлюков,Не работает,Не запускается. Горит белый экран и все,,
TTL Editor,Google Play,org.segin.ttleditor,Z3A6QU9xcFRPRWN5c3hXVDZBRDRxZ2xPRmExTjh0cmFwN3dFY3R0MXBpTlBpN3VNQmpLMnRqRmpvS2haYmZTZW0xcHRjekt0akllMlIyNEo3dnkzLXMwc3c,Russian,,1,2016-12-03,Asya PraSOLOva,Не работает,Не решает проблему,,
TTL Editor,Google Play,org.segin.ttleditor,Z3A6QU9xcFRPRmdXb0lzalBPNURDRnJveDZkQkhkYzMtbEpOOXQ1My16T3JkZ09lUnRKbXh4RktLQXIweFRTZVBKQWJ6bjBfYVRtaHhRLVo3VW1Ma1lYUnc,Russian,,5,2016-12-02,Julia Briddy,"То, что надо",Работает безупречно. Единственный нюанс - после перезагрузки TTL слетает  на дефолтный.,,
TTL Editor,Google Play,org.segin.ttleditor,Z3A6QU9xcFRPR0Z2UUoyVUZEOVB0dDc0QUxBREUyWTJFWE1wd0YyTDUtTXVlaklENmo2WHp1TjFlbGVieTliQjFIb1d4b2s2NXhYd1lhcnpLd2lPLUgtaEE,Russian,,1,2016-11-30,James Versus,"",Гамно,,
TTL Editor,Google Play,org.segin.ttleditor,Z3A6QU9xcFRPRVpydFRIcFExNWtvS3p1Y0I4UTRLaXFUajh3MWFsYlQ3Q2JhWUYzY0w2R0N5QWRVVUFTNHRHa05UWUZLZHRQcVpfQUhrMWxuWFdrV1NPZXc,Russian,,5,2016-11-26,Настя Мазепина,Супер прога,Порога супер,,
TTL Editor,Google Play,org.segin.ttleditor,Z3A6QU9xcFRPSFUtcFdtRTNRSkdaUlhDaVVMdGZkSmpXQ1o3VFJhVUNYXy1SQS1vMjZUVmZ3bTFmeV81RUdwcFljWU14WV8xTVcwOG91RWpPSFlWckhOZVE,Russian,,2,2016-11-20,Дмитрий Игроманов,Недоступны root права,Приложение не может работать на вашем телефоне,,
TTL Editor,Google Play,org.segin.ttleditor,Z3A6QU9xcFRPSHRGTjVTeFE2b0w3NzA2SUpmOXIyZ2RoRzJYRFVDU0I4OXpFSXVwRF9aNjROaUNzU0tSaHQ4WFlNWHJUSHlJS1lFSGFyY08tbXktYy1WVVE,Russian,,5,2016-11-18,Fr1lancer 73,Супер,Мтс на коленях. ))63+все интерфейсы.,,
TTL Editor,Google Play,org.segin.ttleditor,Z3A6QU9xcFRPR3pwQW5scXU1aThnWlBLeWs0VXc3RGNlMlg1X0JsWHdzbnFTek1pZDQ2eURqV0J5ZzZDQ0o2cGZCZzJXN1BGSGxJYi1OOUZ5U21HVjhBSkE,Russian,,5,2016-11-16,Евгений Бочанов,Отлично!!!,"Программа работает и позволяет обойти ограничения Билайна на раздачу интернета через wifi. С помощью этой программы можно раздавать интернет на любые устройства, не меняя их ttl.",,
TTL Editor,Google Play,org.segin.ttleditor,Z3A6QU9xcFRPRkwzZEtsbU9BZ0NyQ2pWdkhXdlNobmJ1ZXVDc3ZLdENNbjZ3M0JxZUFHYWtmc182ZWN3bkdpSnpkbnJRUUVuTlNRWjZPNDJmQXJJMjBZalE,Russian,,5,2016-11-10,катран кусь,"",Отличная прога от жадности операторов,,
TTL Editor,Google Play,org.segin.ttleditor,Z3A6QU9xcFRPRmVvR041dzdtb0kxOU5XRHhZQlkzZ0N1NEZYbVJnQ3JQaDB0aHpXa01HX3h6d3dPQlFZMlRpaE1nN0xyd1UwVDdlYWxubVpIR2R2UGZLY0E,Russian,,1,2016-11-01,Иван Леонов,Не работает.,Нету рут прав пишет.,,
TTL Editor,Google Play,org.segin.ttleditor,Z3A6QU9xcFRPRnFIRlFkZGJvWURmaEZjUzZtX05uY3VDNDdEdkhEY0hxWDN1TEhsZTFhZ2pWQjR4RkFrVF9OWW5nS0dveFJsUVFncC05M1gyVHZqXzlCcHc,Russian,,5,2016-10-27,Пётр Шефер,крута,на тарифе *можно все* Билайн с рутом раздает на ура!!! Разработчикам респект),,
TTL Editor,Google Play,org.segin.ttleditor,Z3A6QU9xcFRPRWFYUTBSWXpyWEQzZDR0RGdBbWdleEVrc1pDbGFyNGRhYlFab01nZXpvc1VwQnVYNUF2MWhWSmRtYUpsYTB3M3FtVlBLNHRzNlRydnh3NGc,Russian,,1,2016-10-13,виктор кочин,"",Нужен роот,,
TTL Editor,Google Play,org.segin.ttleditor,Z3A6QU9xcFRPR1M1SU9semp1T0F1ZUZoTEJEMWl4dnM5ZmdmQ3AxUXc5N0NFVHJiOTcwa3J0WW9RYkdrYVRYU002d19leVpkVTNRSXNBQ2NOaUxnX2ZOSkE,Russian,,1,2016-10-12,Денис Жуков,Сделайте поддержку,"Сделайте поддержку тех устройств, в которых ядра не поддерживают фиксацию ттл",,
TTL Editor,Google Play,org.segin.ttleditor,Z3A6QU9xcFRPR1BHTDk0OVpTMm1Sc2xEWjdQQ25vd1lWOVdKdVotT2VFV2tBT0l2dDNuNWV5cDlHblloZXhlcUh0cmVMQm5xM0plMVVxZzBqMnVTeTh1VkE,Russian,,5,2016-09-27,Алексей Дмитриевич,"",Вполне себе 😕,,
TTL Editor,Google Play,org.segin.ttleditor,Z3A6QU9xcFRPR251T0g3ZFR4VUt1bmdyOHZwSTVZaXFibktXa3FBM3lleDVmQms1T3VCdW1lUGdjV2tlX3F6cU1yWk9aYlhtYWZRRjROTGFIelY2YUpzRXc,Russian,,5,2016-09-25,Камерщик Operator,Отладка в настройки =&gt; разработчика,"Идём в настройки =&amp;gt; разработчика =&amp;gt; отладка, в пункте включаем отладку, далее в программу TTL и меняем на нужное значение, только root на Sony  Xperia Z3 в Android 5.0.2 много программ и андроид и виндус и всё не получается root сделать, получилось так на Samsung Galaxy S3 android 4.3  и minix neo x7 android 4.2 и в компьютерах тоже менял TTL на нужное значение, работает, а с отладка и сижу в playstation network, спустя 5 минут welcome yota, время засёк это через 5 минут, а то аварийно оплатой max скорости",,
TTL Editor,Google Play,org.segin.ttleditor,Z3A6QU9xcFRPRUQxRnVTWWlJQWk3M3ZLZm53clBpXzU3U1l0V3gtcG9nOG9nQjZRdTFTbEItbEYyTXhMLXI4TGVDb3pFVHd6Tk10dU5uZmNYNTgzNldnYXc,Russian,,1,2016-09-10,Алик Алимов,"",не работает,,
TTL Editor,Google Play,org.segin.ttleditor,Z3A6QU9xcFRPRVU5LUZhOFk1Q29SQ29hdl9GbFc2V2g4UDQ4RFctWC0yc05HMm9RdC13ZzVlYm96UERzU1lUU25URGdTd3A2bEFGSkdMcjIyNzV0ZFlGWmc,Russian,,1,2016-08-05,Анатолий Карцев,"",Не работает!  Удаляю. Развод.,,
TTL Editor,Google Play,org.segin.ttleditor,Z3A6QU9xcFRPRnFFTDBUTXRGNEpGZkc3S2FnRnp0RzNxTDRPYnRROUk5SUZVeUZ6N0c2YlUyY1l1UjZhdjY1VzcxUUZXV0ZzYkhVTWdWY1RvX0pMdEtqNGc,Russian,,1,2016-08-03,Константин Гусельников,"",НЕ РАБОТАЕТ.,,
TTL Editor,Google Play,org.segin.ttleditor,Z3A6QU9xcFRPRV81cFA2ZndfZ1V3bi0tV0NUN0NMV1JkMmtjQkdyTUNtSzdLdEtTMjB4SktmYkk5YUJmVXdnY3IxWS1sWGx2QVFlSXpPUldkX0dnX0JBREE,Russian,,5,2016-07-21,Максим Косяков,Все чики пуки)),"Ребят, приложение огонь, пользуюсь давно, маскирует только в путь, правда есть малюсенькие недочеты, но в целом не влияет, создателям респект))",,
TTL Editor,Google Play,org.segin.ttleditor,Z3A6QU9xcFRPRjVGcEowMDV5T1BETFlmTE1XUjFqV1JQZWVzNlVlb19iRDQ5U2NZM1dWcnloaTF4cEdKYzlfYnVCVGZHLTJiaTNDbnZXYWpWaFdiMlRHMFE,Russian,,3,2016-07-12,Дмитрий Маслов,Белый экран,"Что делать,помогите",,
TTL Editor,Google Play,org.segin.ttleditor,Z3A6QU9xcFRPR284by0zUjR6OFBscVZ4cExlQ3lLTFdZZFdUQkNTQmhYZXNJUEtrajA3ZFRyZHdjS3d0NGxkTWNualo0b2hWdjc3aTlFOWpaaXJNUUZuZVE,Russian,,2,2016-07-02,Юлия Волкова,.,"Перестала запускаться программа,белый экран.",,
TTL Editor,Google Play,org.segin.ttleditor,Z3A6QU9xcFRPRlRPVFpkRGtTNkNLczFSSUhvbmlieEpGeUdVem45QV9xUl9TNFpicld4UldLOFB3VS1nUWRJZURITW5jOFZNc3dXWHFpUndTLW1DNXZWQkE,Russian,,2,2016-06-26,Максим Титов,Не работает,"Добрый день, программа отличная, но вот третий день просто не запускается. Либо у меня с телефоном что то не то, либо у вас программа зависла. Просто белый экран и ничего",,
TTL Editor,Google Play,org.segin.ttleditor,Z3A6QU9xcFRPRzVaWmtUdjlUUlEtUVhncy1rYXB4akJWNUU1TGJfUlBETEJtcm5DY0dHNWNINE1lazhzZi14Tnp5cW1NU1l1aEN0dFhGTGtfMDdqeWx0VlE,Russian,,5,2016-06-22,Елена Кузнецова,"",Спасибо!,,
TTL Editor,Google Play,org.segin.ttleditor,Z3A6QU9xcFRPRTZfSENlN2ladnBtbjdPR2FFMm4zYzRCNGVkZV9xTFVzTlZ3LUtPakh1aS1sVksxcUdFVGpKQkl1RWNzTUdFcGVnVFdqMjVqYkdlQkp4bEE,Russian,,5,2016-05-29,Вася Великий,Miramir,"Супер прога,спасибо разработчику.Работает на ура,свою работу выполняет.Обязательно только должен быть ROOT на гаджите.",,
TTL Editor,Google Play,org.segin.ttleditor,Z3A6QU9xcFRPRkpFU1Mwb01CSUV3cVp2RloxWGlqdlNDbVhCX0lEMUllbkxXTjc4YU1nd1FCdkQ5Rm1DRk5xaXdRNzVydUgydlkwSlV2VzREc2ZYNUhDdUE,Russian,,5,2016-05-27,Дима Димов,"",Спасибо.все работает.,,
TTL Editor,Google Play,org.segin.ttleditor,Z3A6QU9xcFRPRllpOXBJY2ZvcGF2ZHhzQWNQUGxtSi00aGlzTVhZS1MwYXZJVmZPV1gycGg3ekh4bDl4c1EwZEp5Rzl0SWtGMWRLZUZDN1FrQ1ZpRGF4RlE,Russian,,5,2016-05-27,Dmk TiTov,Всё работает,На Ленова р780 работает только после получения РООТ ПРАВ,,
TTL Editor,Google Play,org.segin.ttleditor,Z3A6QU9xcFRPRlFIbm1SaEN4V0xWOGQwWU1EYWJVNnhQZ21vLVlkTng0Uk9NY1NhOEFSMzhINWh5V2RUY0xrMTVOcngtbVFrMnlnSUgyYkxhcGlRb1VqN2c,Russian,,1,2016-05-20,Андрей Никифоров,Не работает,Значение ttl не меняется,,
TTL Editor,Google Play,org.segin.ttleditor,Z3A6QU9xcFRPRU53b1ZtZ3RzRUgweEpIVlBHV2FaQkR4ZTU1Qm05Y3EyeW1oTWdJbGtzR1pDYnU2RktoUEk4dVo0cjFZUFhZckNJbnhuMTJXMTkzdkFVUnc,Russian,,4,2016-05-11,Антон Шаповалов,Работает,Можно было бы только интерфейс улучшить,,
TTL Editor,Google Play,org.segin.ttleditor,Z3A6QU9xcFRPRzRmbDJEUFBIbVI2bFp2MWF1UURZMUVfa01KcE9SSmFKa1dDSklvVFpkVnpyN1dmbVFUdUtUX0VQaTZXbVRpTXBoOGxfa3hJTFA0VHdtWWc,Russian,,5,2016-04-26,Argo Panoptes,"",Обходит Yota рекомендую.,,
TTL Editor,Google Play,org.segin.ttleditor,Z3A6QU9xcFRPR29XNEhNUGhJdU1YcnNjQUdRMFYzN0xQNzluU2hpdVdhQTdsaUowVlB2Z0JnN3JoU0NGWVczR21UN3NWMTUxbXpMSVB0WjlVSlVfWWpwU0E,Russian,,5,2016-04-11,Ваня Молодейкин,Все работает,Нужен руут ! Раздаю с yota на ноут без проблем тело lg g pro,,
TTL Editor,Google Play,org.segin.ttleditor,Z3A6QU9xcFRPRVhvUXlFbUJsU1JnbnFkdlFtc3dXNkRMbWR2bFlzWDM3MkJLSktSQzh1a2pZVHdFN0tPTE5BNGd0N3BNRUllR0s2blBUM0d1aXBNNkZUc2c,Russian,,3,2016-04-10,Denis Yudin,Не срабатывает автозапуск,Не работает автозапуск. После перезагрузки надо снова запускать программу и обновлять ттл,,
TTL Editor,Google Play,org.segin.ttleditor,Z3A6QU9xcFRPSENvNmpQUUNLaFlNczFDZ29JcGJNMzVBTk9WbzZTbEJvVktNUF9nMmFlX2g2UzhRVTJESGlJeDJtR1JfWFBLdW5LZjJETGZ5SnYxcmhtSGc,Russian,,5,2016-04-07,Вадим Михайлов,Отличная прога!,"Очень помогла, спасибо!",,
TTL Editor,Google Play,org.segin.ttleditor,Z3A6QU9xcFRPSEQ2RHc3bkZNWUE5U2JzdUdzbzYxVG5OQllnMUs2S1R0VW9yMEowNDVKWkdPMHlfTGd3U2RvamI2VlkxZWl4SHQzU1phanNfRFFzLS1hcXc,Russian,,3,2016-03-21,Дмитрий Абрамов,"",Hu,,
TTL Editor,Google Play,org.segin.ttleditor,Z3A6QU9xcFRPSEtFLUlQNHFsdjBRX0ZXM0tJdklsOUZJa3QyNnpJUmNOMHlRRW81bU9iV1Rfa19oR0sxYlRFWTVGTVlZbkIweTVjMFgxU1BHVVhVNUZGN0E,Russian,,5,2016-03-15,Шамиль Мухумаев,Exelent!,Thank you create this app!,,
TTL Editor,Google Play,org.segin.ttleditor,Z3A6QU9xcFRPSE9uSEtwTTBzUUhINlA5X3l6SWNVOUoyUTdPS2xzbWd2ME92bktpNEx4SXlnSG1jWVhvTzRxZnU3dXc5Z1BlTThkN3VtNlRmWGpYSkdrbkE,Russian,,5,2016-03-10,Снежок 88,"",Обощел защиту yota просто введя вместо 64 127 теперь инет есть и на компе)),,
TTL Editor,Google Play,org.segin.ttleditor,Z3A6QU9xcFRPRWJ6UjdnakhsQ3pka1NYaGtFRjNDTVZWNWUzWTdFQUgtZDFEaVdFQUVJRm5sSFI5bEtYdnozOXQzZ0JPMkh5MjgxMWFydEctZE1UeVdUc0E,Russian,,3,2016-03-05,Alekxander Avdeev,"",Разработчики есть проблема в приложении стало довольно часто вылетать исправьте пожалуйста .,,
TTL Editor,Google Play,org.segin.ttleditor,Z3A6QU9xcFRPRlk0V3Q2U2lsdVprSXJUTUtWeFJjSER4RHRSSngwVkUyVDMtaWtVXzVUdGVqQXlJOTE2X09kOWdIMFNqUUk0Yl82V09Qb2F0aXNXUndIOGc,Russian,,5,2016-03-01,Александр Черкасов,Класс,Только с Рут правами у меня YOTA сим карта мобильная голосовая связь и все работает,,
TTL Editor,Google Play,org.segin.ttleditor,Z3A6QU9xcFRPRy1DZzlEWEltbEo4U3d5bEFZQUl1dkRTUUNoMlpaT3hrMnJJVDZrS1JEa2xteUZRdHUwSTZxNFMtYkhtVEhzbm0zVm1LX3dBRHZfOF9ySVE,Russian,,5,2016-02-29,Илья Коваленко,"",Использую приложение для раздачи интернета с телефона на планшет с оператором YOTA.,,
TTL Editor,Google Play,org.segin.ttleditor,Z3A6QU9xcFRPRWZfb2FVbWZaaXg5ZzhYaURhTFJScTRubGNCOW5LN3QtVmc1UTNNWTNybGNHVXNMeHJaUFRXeHU1eEZ0MmdfdG1xZ2h3ZFlScFp5TlNiT0E,Russian,,1,2016-02-15,Анти Террор,Samsung S3,На моем телефоне эта программа не работает,,
TTL Editor,Google Play,org.segin.ttleditor,Z3A6QU9xcFRPRlN5NXJBeXV3RVE2NFEybmZHLUduR3pnYlNzZVI1LXl2VmE1dkZpbmV1VENsTlhDWWRGdUpucE1vUDhLMUpZQk9DeFduY2FRTHBJU2x0TXc,Russian,,5,2016-02-15,Корягин Сергей,"",Как пользоваться?,,
TTL Editor,Google Play,org.segin.ttleditor,Z3A6QU9xcFRPRTVHcjFKZmVDQlYxOFBXWk5zY3JraHJpN3BFODZ6akQxZHBVZHBSSVRKeUpiVHMxcG1OQzRjZTJVYkdjbGh4VnNvMHNxVDFHNDkzQXZlSmc,Russian,,5,2016-02-11,A A,Altel,ccnmi0   64,,
TTL Editor,Google Play,org.segin.ttleditor,Z3A6QU9xcFRPRm1VaEFKeXhnM2RGdGxqbFk3VFVIXzNPTUJvTF8xbGRyWWY0Y210dWYyTjVyRFVkRjZEOXB4ellRUjZ6LXUxTm02Q3duSUoySEY0TU1ablE,Russian,,5,2016-02-11,Cristiano Ronaldo,"",Приложение крутяк !!!,,
TTL Editor,Google Play,org.segin.ttleditor,Z3A6QU9xcFRPRkFCRHRDRjl1U0RRLWZUMXBtNWtGVF9NWXE0amMxQ0w5SG1zRXpMckJSQ1RmUUx1MFJzS242amhIcklvVWZLTEQ1cTFhR0YtMXFzY0VNN1E,Russian,,5,2016-01-18,Ram,Meizu mx4 PRO,"Обхожу ограничения yota, но время от времени выскакивает страничка yota и предлагает оплатить.",,
TTL Editor,Google Play,org.segin.ttleditor,Z3A6QU9xcFRPRkNnazBoZHlRVWJzU04tMV9fZFlGbG04b2NrN01NVkRlRTdiWlZQckQ2VGh0UF9JWmEyQUZiWFVaZ1lJaEV5N2pCeUFJbzU5MXBsV0ZVUlE,Russian,,5,2016-01-08,Aleksandr Lavrentev,Yota,Спасибо авторам! Очень полезная программа.,,
TTL Editor,Google Play,org.segin.ttleditor,Z3A6QU9xcFRPRlZleFBDd0JKX1p5VUdOanpmWV84cHhNNGpFQ2FkUzVvNEhDTWczMDFUZzBtckExREdqSC1VUldiQVBsS3lyZW11U0lUd0JYUk5zdWlCNHc,Russian,,5,2015-12-29,Mikhail Efimov,С задачей справляется,Самое простое и понятное из аналогов,,
TTL Editor,Google Play,org.segin.ttleditor,Z3A6QU9xcFRPRk5GREw3N3ZCMEEtV2JEVXVPVVoyaVRKTThoYWlkQUhaeXFFSHVpVnRfMDdnUjhIa2ZEMXNTdnBhSk1ldUVBNS0za0d3ZjhObC1YdldGa2c,Russian,,5,2015-11-30,EvGEN Levakov,"","То, что надо",,
TTL Editor,Google Play,org.segin.ttleditor,Z3A6QU9xcFRPSGRaSk5HcjRxdkN3RkxleWVqMzVFcmhPSWRIbGlUYUdPX2FFRzluR1FGVGwyMEdvTEF4RnNLZnFQRFV0bzFLOHZjR2pubFNSRXFqajhYZkE,Russian,,3,2015-11-27,Bakhytzhan Andashov,Root,"Люди, проблема с root-ом. Что делать?",,
TTL Editor,Google Play,org.segin.ttleditor,Z3A6QU9xcFRPRmVIZ2tBZjNtRm5aQVEyU3VVbUR0eXM1OG5wdzF5cUJkeGUxQWVYMC1ZalF1cHpMMUY1RHNTNXhVbVlaS2lycDhBeUwyaTBjQk1zVnZwOXc,Russian,,5,2015-11-22,дмитрий корнилов,На нексус 5 она работает кто пробовал??,Версия андроида 6.0,,
TTL Editor,Google Play,org.segin.ttleditor,Z3A6QU9xcFRPRjlGQWRmdFJxaVkySGRlc1FJQ3liZTNSU2ZzV1pPSGVCV3A2Sm9pdkk2S09fSDlLYW5LaGFpUllQY3dtRUxyQWxDaTVMM1ZINVY5WmlLaVE,Russian,,5,2015-11-12,Дмитрий Корнилов,Народ подскажите а будет работать на Nexus 5 версия андроида 6.0.0,Без root прав???,,
TTL Editor,Google Play,org.segin.ttleditor,Z3A6QU9xcFRPSHJGWEtqYmxvSEQ3Qk5xaHZGNjNsNU5pVS02blV0QjJQYmJGNnNDUURubl80MG9QOG5ETE5hZ0p3VHFWNlJfT1YtVXU1RzF5VWVuTktkenc,Russian,,5,2015-11-11,Артемий Рагушин,Хорошее приложение,Помогло обойти ограничение оператора на раздачу wifi,,
TTL Editor,Google Play,org.segin.ttleditor,Z3A6QU9xcFRPRzdPTUVlLTFFMXB6TkIyZFZqNTZzblQ4UVJYRnhFdHFrVU9ZbHJzRWV1MFVmQmVYZHZxek40dlZhUTZ4MUhvWWxYRVhCcW9QbDVacVhtSGc,Russian,,5,2015-11-11,Иван Руголенко,"","Легко и просто, спасибо большое, а то не так много энтузиастов, которые смогут сделать все вручную)",,
TTL Editor,Google Play,org.segin.ttleditor,Z3A6QU9xcFRPRVJSRlYwd2RWcHJZX08yNjJOVXdHQmNST0ZEb0tyREhzdWF6YlZHX3IySTVWRS0xR19fMV8tZzRXaWZPWmZlT2hHalkxZWxDV0x6bzhRSVE,Russian,,1,2015-11-06,Кирилл Бодещенков,:(,doesn't work,,
TTL Editor,Google Play,org.segin.ttleditor,Z3A6QU9xcFRPSFZLeU5STEVzWENHazFRSDJFc3Z4TmdSaWREaGotNlhpV3l4UkdpcS1zN0NBWkNXX21nQ2xHRXZOUFJIY05odWh4bk4tdk10NXgtZl9CdHc,Russian,,1,2015-11-03,Улугбек Нуртаев,Нужен рут,Без Рут прав не как(((((,,
TTL Editor,Google Play,org.segin.ttleditor,Z3A6QU9xcFRPRnkxLW1rVU1zeW9ldG5oOUpRb3FsM1FGMHhMMHYxT0tZUTQwcUNmRTFfN0p4b0JGSlRPUE8yTUQ4VzBKRkU5SlZMM0NzZWVtNDJwQUFyQUE,Russian,,1,2015-10-29,Артем Румянцев,Сука...,"Вообще не запустилась, один белый экран и всё, что такое?",,
TTL Editor,Google Play,org.segin.ttleditor,Z3A6QU9xcFRPR3NiWFVaS0Y1bTdOMEpkR3hpa21pZUNRSWpFTlNWNUYzVEgzRFFzM09TRUdROGllNVdOQjM2enFqT2RlcVZNTjQyUndGb2VmYVh4STBoYmc,Russian,,5,2015-10-29,Олег Андреевич,Спасибо разработчику,"Обхожу так ограничения на Yota. Единственное, после перезагрузки телефона возвращается стандартное значение, но это не беда.",,
TTL Editor,Google Play,org.segin.ttleditor,Z3A6QU9xcFRPR2V4c2RkS0ZSc3pTX01IbWRFSVZHcXZIYWdhNEF5UlA4cXJibTl2V1FsMDVQT3hqV014Y0VWZ3RQN0ZZLWVycnpSRG5fRDJRVDFrS2VnVHc,Russian,,5,2015-10-27,Чатланин Павловский.,Ёта побеждена,+10,,
TTL Editor,Google Play,org.segin.ttleditor,Z3A6QU9xcFRPRUVlY3hUWXBjaG1lZldZNm1BS3p1QmotWTVVQjAwOVhkMDZCZTNzdnBUSGZGd1R3QUZKQkdZRjNPRDQ4NlkzeDd3V1F3SVFER1JIaGE4aVE,Russian,,2,2015-09-17,Alex Filonov,"","На MIUI v6-7 не работает, Значения TTL не сохраняются",,
TTL Editor,Google Play,org.segin.ttleditor,Z3A6QU9xcFRPRkg1QkZrakJ4TE16VGJ1ZjJjd0xldUpCY3dGbV9JSDZXejc3UUI3Tkk4ekRRM29EQVdndFI1b3VUTUhhZFBoTTYzRXIwVWppa3BtVnZxSlE,Russian,,1,2015-09-11,Дмитрий Стародубцев,"","Первый раз все работало хорошо. Но стоило мне восстановить заводские настройки, естесвенно рут я сделал, и о горе, редактор перестал работать, постоянно сообщает что не может изменить значение. Разработчки скажите в чем дело. Пока не ответите ставлю единицу",,
TTL Editor,Google Play,org.segin.ttleditor,Z3A6QU9xcFRPRm9CR1VEYzlWS1lMMXNHTEF4QkhaTlhBR05VTkZBZEpEVjZnTlFrLU9MMjAwVXdTMVZvS196M1pHTUpEMDlRMHV0amJteHh2cTRtSEdsUEE,Russian,,5,2015-09-04,Алексей Исаков,Супер с Yota работает,Отличное приложение .,,
TTL Editor,Google Play,org.segin.ttleditor,Z3A6QU9xcFRPR3lSNDEzM1d3dWJjNDVFNEVETU9rSzkzUGgtNXZNQlhEbXlLM0Jyd0xfX203MlNHUUVITG1OZm5maF9XcGg5UEZDaUtfZVRnWjZsbFYxZXc,Russian,,1,2015-09-02,Евгений Овчинников,Глючная,На ленове к900 дико глючит,,
TTL Editor,Google Play,org.segin.ttleditor,Z3A6QU9xcFRPRmlIcnZFX1RtOTYwM2dOVi1sN0R4ZEFnMlJsN3Vrd2ZNbDZMNV9QZzU5S1BxTW5kQlh0XzAxUzVsVUx2QkpDcmk4emJUX200Nk9MZFkzRlE,Russian,,5,2015-09-01,Kirill Yakovlev,Работает!,Спасибо!,,
TTL Editor,Google Play,org.segin.ttleditor,Z3A6QU9xcFRPRnJuckN5MjdYUmhvSE9aZVB5dE9pUkktX2RtREtPZXZnbG96Wk9VZk9SWXJVdks2LUdyLWNlT1BHMEVfSEZUM2xaN29QSVVWQlNuY3FDWVE,Russian,,5,2015-08-29,Максим Иванов,Круть,"Быстро, просто, легко!",,
TTL Editor,Google Play,org.segin.ttleditor,Z3A6QU9xcFRPRk5aX3k2VlBuTHo3S25SSVk3TWt0Y1hVNDdobXRHZU5DWFVDeGRaWVFEM3dTdEFJSUJjaGpWX1JBUTVNVEJpeUt6MTJfWXpFU1Fka1JvUFE,Russian,,5,2015-08-27,serji terra,Спасибо разработчикам!!!,Гакактика 5ц раздает и без рута!! +10 баллов!!!,,
TTL Editor,Google Play,org.segin.ttleditor,Z3A6QU9xcFRPSDBNazZrQTJudnBGdl8wQnAyVTZ1dkQ4MWJ2QldkazVYN0JFa0taTGZLMmNPaXMzWGdkSW5FNTljV01YUHZXTlBYbS0wUlloa2hub08yYkE,Russian,,4,2015-08-19,Андрей Буньков,Altel 4g,"Тетеринг работает до перезагрузки, но только на подключенных устройствах. Смена ТТЛ на раздающем устройстве не исправляет раздачу.",,
TTL Editor,Google Play,org.segin.ttleditor,Z3A6QU9xcFRPRTNxZEhlSDJqaDk3dnZ0S1hBb1E1Wm1MQmNaQllTb3hDN3RpbjNCR3Y0UGhKOVJDSUdua0wtWGt5cHVSZHdWUHNmekNhSlNRaFhfa0oxRUE,Russian,,5,2015-08-14,Vajera Kyrinnoq,"",Вам не 5 вам надо 10 ставить !!!,,
TTL Editor,Google Play,org.segin.ttleditor,Z3A6QU9xcFRPSEU0WmFESlA0YXZrenhMX1AwMlRucEQyZ2RuSEtfY1dhMWpVT2tVVVA3RDI3bVMwLXp5NnU2SXZBdlIxY1FnZ243R3MzeTBUMEVSWTlKYXc,Russian,,5,2015-08-10,Игорь Абрамов,Отлично!,Спасибо за приложение.,,
TTL Editor,Google Play,org.segin.ttleditor,Z3A6QU9xcFRPSEZ2eF8wTzd6SVZkUHZWbTZGY1JhN2xvOF9XOVB2SF9hTHljTGdlZ0V3TG1NSy1EX3RqeU1UNHVINTlUT1kyLWZsSzBEMFVsZG9pRThweVE,Russian,,5,2015-08-09,Iosip Tito,Автору респект и уважение!,Программа работает только на рутованых устройствах! Работает отлично. One Plus One. Android 5.0.2.,,
TTL Editor,Google Play,org.segin.ttleditor,Z3A6QU9xcFRPR05DVFNoN3dNaXpXa0pqRW9KZ3p4R3dwRXN2WFNEWVZFNjQ3Z25OS2MxbGdKLTZtUFpNZWd0aVN6TWNtTnJVU1lScEJKUjdOTFpGdzdyRmc,Russian,,5,2015-08-03,Aisu Fureimu,Спасибо,Отличная программа.,,
TTL Editor,Google Play,org.segin.ttleditor,Z3A6QU9xcFRPSENFTjZjdnBDUmkxck5LQVNiX1lLclZxZG92TUp1WWlPeXl1bmFCRVd3aUNnSVJOTTJ0by02QlBEaHlFQmxOa0RfWmtlR0dlLWF1aHR2dGc,Russian,,5,2015-07-31,Dmitriy Guitarist,"Работает на ура, если есть рут.","Проверял с етой и пчелкой, раздача без ограничений. Большое СПАСИБО разработчику.",,
TTL Editor,Google Play,org.segin.ttleditor,Z3A6QU9xcFRPRlZELTdXRkc3Wlp0LV9tWW9KQkp2VEZPWThUTlVYaWgzbXg5bWJXc08yby1XYXUzR2NPUkdac2o5WkhrT0lZY2Q0SDZGYnpSakNQZWRYdUE,Russian,,4,2015-07-18,Эрнест Валерьянович,"",Нормуль,,
TTL Editor,Google Play,org.segin.ttleditor,Z3A6QU9xcFRPRUNUTXNjeGxUbmk5by0zdHAzNGdfMTVCd3ZndkNZUEg4VGFiZlZ0Z09kbG80WjdtWXk1Yk41UjRjR2xESkVqTHBHWC0wbDh4SjlSVkdCNVE,Russian,,1,2015-07-16,Станислав Костенко,Недоступны root права,Нет решения для данной проблемы. Программа не работает.,,
TTL Editor,Google Play,org.segin.ttleditor,Z3A6QU9xcFRPRVg2anVxcmJGZ0dGYlowRnAwN1NOZi1Wc01lVlVJdkFXWkNxcVcxMTBDekU0S0NkUVVsT01nTm9yWHAwT2Z4NnRYelJmeS1wU2hYRmV0VWc,Russian,,5,2015-07-16,Роман Бекасов,Работает,"Йота раздаётся на максимальной скорости, спасибо.",,
TTL Editor,Google Play,org.segin.ttleditor,Z3A6QU9xcFRPRV9FVENTeWRCUzRvZTVfenZvelJvRjBtZTVGTjFDMTVDUi1uLUN0X2lwSFBrTnJHS0NHR1pqRXBuRW5XdEMzbURWci1sQm9LX0VHdlcxUkE,Russian,,5,2015-07-14,amam sagynbek,хорошо,супер,,
TTL Editor,Google Play,org.segin.ttleditor,Z3A6QU9xcFRPSGc3SVlMSlBBS3d2LUNqNmVJekYzUVI5UVp2S2lmTU00cmwxUzE3TXlVUy1BakhETmVBOTNTUEh6elZweHRJYTBBQU5nenkxYWUtMHZiWkE,Russian,,5,2015-06-28,Александр Макаров,"",Спасибо за программу,,
TTL Editor,Google Play,org.segin.ttleditor,Z3A6QU9xcFRPRjJKeXNhUGRBaDRBR1JyZ2RIWjAwVVlfZHlQVUdhLVAxTDF0V3JvVTVaOHhXUzdNRHZ1YkhsczRISW5MSHVlTlB1WEEtU2hncDdiM3BQc3c,Russian,,5,2015-06-14,SERJ GARELbiY,Класссссссс,Офигенная прога,,
TTL Editor,Google Play,org.segin.ttleditor,Z3A6QU9xcFRPRzJsblo0Zkt2TUg2Nll6WmFwNVB3MTZTLUJ5Wk56UDRhanlBX3A5Z0pYcTFxYzdoUHpDYWJ4SS1lZkpKTTZkeXBYSlF3WnFOeWdab045SEE,Russian,,3,2015-06-13,юра федосенко,"",Без рут есть?,,
TTL Editor,Google Play,org.segin.ttleditor,Z3A6QU9xcFRPSGdZQmJLQzh5VkptQmhwZ2dFcVVSR0Z2dHpwaGdXbzN4c3BQc0p4eVhBazl1Ukh0dnhZLUZReXd2Z0ZMS3BEbVlja0ppZUxValBRSm9Mb0E,Russian,,5,2015-06-13,Даулет Жукенов,Работает отлично!,"С появлением запрета раздачи на алтел это прога помогла,спасибо разработчику",,
TTL Editor,Google Play,org.segin.ttleditor,Z3A6QU9xcFRPR2ljVXprRU1vQUIxeFFXUEs3T1pLeEJXSDlwVlhPUGhacWQ3S2E3dDEzcW9vUGdWNGJvNzVKMGR0NzdmRFU2NE1vUXdMWVBUWVdQUUtWdEE,Russian,,5,2015-05-14,Коля Алексеев,"",Спасибо за программу. Всё шикарно работает!,,
TTL Editor,Google Play,org.segin.ttleditor,Z3A6QU9xcFRPR1BmTE9ZbENTb0lURkFFSERyOGJlQlhWZnc2OHhYVlc4cV84YzNma3ZKN2E3OGQ2ZUtfTzFtVEZoOTJCTHFfNy1NYmMtblBkT290SVRVN0E,Russian,,5,2015-05-07,Sergey Pribytov,Очень хорошо,"Хорошая программа, если поддерживает устройство.",,
TTL Editor,Google Play,org.segin.ttleditor,Z3A6QU9xcFRPRm1iNmtScThqYWFRNjdhSnI5d1JBcWM2RkIweS1rTjhJYTlPUUJLdHA3ckdqUFZuV2ppSHA5bnNxcnB4UFdhT28tQTZPM2JCTG5zbjloTnc,Russian,,1,2015-04-27,Николай Белоконь,Не доступно,Пишет не доступны rott права эт что ?,,
TTL Editor,Google Play,org.segin.ttleditor,Z3A6QU9xcFRPRTZuQ3Mxb2lKekd3eFZOVXAwcGJEVVYwdkVyTnFES2dXeHFPSHViT1lkQmNDVzE3N1REdmhKd0I4NUt5elpIdE9pMTV3OVgzcUV2dWdzaHc,Russian,,5,2015-04-18,Edgar Arm,"",Good!!!,,
TTL Editor,Google Play,org.segin.ttleditor,Z3A6QU9xcFRPRXV0RTcxa0t3b2EtS09oYzU5UV8xVUtKYmpfdF8yMUxpUXlGNjM1U3Zhczk3OUVxNWJFQ3lYX1BBV0xhdFJMMUdjRnBMVTk3ZG1xUzVpZEE,Russian,,5,2015-04-16,Roman Laptev,Спасибо,"Отличное, простое, бесплатное приложение. Меняет в секунды. Интернет раздается без ограничений.",,
TTL Editor,Google Play,org.segin.ttleditor,Z3A6QU9xcFRPR2V6ODZuTm1yWEVkY294RTFrNElWYi1wVFBSZGxKMmpuY1lvemtQRXU5U3NnWHBnNUlVdFh6WXJldzR1TnE3SlpUNWxYOUxpOFFZS1NiWlE,Russian,,5,2015-04-12,Дмитрий Ярцев,Работает,Работает с рутом и галочкой для всех интерфейсов,,
TTL Editor,Google Play,org.segin.ttleditor,Z3A6QU9xcFRPR1pQcGxfUGxPVWY0c3dBcHI2dUp0VmZLWHh0T3VVQVY1cmdiVm5CcFpHN2VDRUhlRzlfMU9PdlNGeHNLMlBkRTc1TEg2cnhWMFI5bFpFbmc,Russian,,1,2015-03-20,Дмитрий Новичков,Не работает,Не сохраняет значение. Удаляю. Шляпа наиполнейшая.,,
TTL Editor,Google Play,org.segin.ttleditor,Z3A6QU9xcFRPR0xqWUktaFBXakI5dzIzajV6Z29URVZqV3c1WDRfdFNoaFJSSGhCaFRoekllOXVBUDVLS1FCaHdLRllJQ1dhakJpMU1FaWt3a3dYSlJ3b1E,Russian,,5,2015-03-02,Илья Шмидт,"",Все супер!,,
TTL Editor,Google Play,org.segin.ttleditor,Z3A6QU9xcFRPRVViaXRFYURPeHBDYkZzNnZCQ3daaS1lMHZ1MDBkVzZQeXNLenlvMzFlM0Rubzl0MXRWZ3VYVjM5eHN1TFVqVXBzbmtkcFo2QWlzWTB1WGc,Russian,,3,2015-02-15,Станислав Афанасьев,14 версия не работает,"В предыдущей версии изменения применялись ко всем интерфейсам, а в этой - совсем непонятно, но оператор все видит.",,
TTL Editor,Google Play,org.segin.ttleditor,Z3A6QU9xcFRPRm0zVThIU3UwLWwxRldtYTUxVXhYM29GX1RNRVRtSGo5cUtzQk9FQS1wWk9PSW1Bbms4VjRzWERHYjdzbHl3SGU2Zkd4Z0JWc2lqZEduVVE,Russian,,3,2015-02-15,Борич,Yota,"После обновления не работает с yota, пришлось от катиться на старую",,
TTL Editor,Google Play,org.segin.ttleditor,Z3A6QU9xcFRPSDFyWEwwMEpIQlE2MTM0VE5qSHVCc2F1S2FSYVR3bHlpbkpwMUhlSmJ5UkRtbHcxRmg5Tmp6dURDOUlNaklaUDdjVm0yZEZMN3VMajR6bWc,Russian,,5,2015-02-11,Михаил Ефимов,Perfect!,But after update Galaxy S4 won't work. Please fix it.,,
TTL Editor,Google Play,org.segin.ttleditor,Z3A6QU9xcFRPSHRodF94aXpUcW5Ic0RqWnQydzRxNUNlMzhhSGl1Y2pmUklhUXVWaHBDcGwxRXdLNlo5d1lzTTFCeTFiQWJNdTFWcVRuOVJFUHRNTkktTXc,Russian,,3,2015-02-10,Александр Почекутов,Раньше работала,"Предыдущая версия отлично работала,  а после обновления,  перестала работать",,
TTL Editor,Google Play,org.segin.ttleditor,Z3A6QU9xcFRPRmJJQmxBRXNKV1FMSlkyNG5NT0FMTk5UOVczSVd0M0dtUXMtSndjdWlkeU9JTGZBcGpRZm1fdngwYjRRcEUxUmZic0RGZDlJVDFHUWJ3d1E,Russian,,5,2015-02-10,Sam Gozman,Не работает,"Не удалось изменить значение ttl, root есть.",,
TTL Editor,Google Play,org.segin.ttleditor,Z3A6QU9xcFRPRzVtN2pmejlJMVRybU0zb1RHWW9Tc0pJMTF6dHRpUDBoeFRjbTB6eURQeXB1VVdnRURuVHZ6MTRBM3c0dlRJX21KM2c2ZllBUGw5Tm5iZFE,Russian,,5,2015-02-10,Яков Кусков,"","Nexus 5 not working. Lolipop. Clear rooted device, only root without any mods.",,
TTL Editor,Google Play,org.segin.ttleditor,Z3A6QU9xcFRPSHdwMHdmd01Way1MTkpvUHBUM3MtZVJiNWdqVlZscmluN2NXLU1ZM1NldnEzQ24xS3dwc0tKaDJDbE1lbks1WEJCYVVVQWJwU3R5NDdYbWc,Turkish,,5,2017-03-30,Virüssüz hane,"",Ya abi niye kapandı bu program bi hat değiştirelim dedik geri döndük turkcelle kapanmış açılacakmı bi onu söyleyin Barim. yada yeni program yapsanız olmazmı.. iyi günler.,,
TTL Editor,Google Play,org.segin.ttleditor,Z3A6QU9xcFRPSFFPNzd0WTV5aW9NUl9talpqY01aMHFGNDZONmVKeWRZdkFhNEp4RWRPNmx1OXBoMlN3SUdaczZzX3VvZlAwYlJfOVdEeTBxQk1RM3A3c1E,Turkish,,5,2017-02-27,"","",Canın sağolsun ttl artık başka VPN lere 😮 siber yazılımcı sa,,
TTL Editor,Google Play,org.segin.ttleditor,Z3A6QU9xcFRPRlJ1SmxTWGVOWnItQTAzVHp6Z3ZzclR3Y0YwZ20yMzNiMlFqa1UwVmxOWlIyTUNiaS1tdXFjcjF6cVk1cUhGenRNcG02VkVxY3B5WVJxR0E,Turkish,,5,2017-02-26,vusal hesenov,"",Super ama Azərbaycanda dami 127 ?????,,
TTL Editor,Google Play,org.segin.ttleditor,Z3A6QU9xcFRPSGJiRUZYX0VMQ3VTUTRaa0ROYmpwYm1tQnhvZmhacTVIaHEwaWJWdWdhRlVmYzhTaTJJTHBndVk5M1o4d21kR3JIeGV1UVlILV9hZldvLWc,Turkish,,5,2017-01-31,Kuzenler YouTube'de,"",Ttl reis nerdesin usuyoruz :(  #sy,,
TTL Editor,Google Play,org.segin.ttleditor,Z3A6QU9xcFRPRlNNODJnU1BkOC1kcVhkYUtYT3dpQnZIYmFrbVFvVlEzUHF2OFFzc3dqWGRPeHFQVnB5R3YyTnRia1RMbVJvNmdmOEFsMGE4amdXZGtud1E,Turkish,,5,2017-01-21,Resul Çiftçi,"","Hello Gill Turkcell is changing the current value. Accordingly, you can program the TTL. According to Turkcell's server, you could make an apk that changed the TTL.",,
TTL Editor,Google Play,org.segin.ttleditor,Z3A6QU9xcFRPSGN0TzdwVS13X2pRd0VWTGs4UHJQWG5KODlma0JCWGpaRWJMbHJZUnhBendBUGlvbkFYempYVk42aHdxdjZjZzBxVTYzZ21OdDlUX2J6a3c,Turkish,,5,2017-01-21,Kemal Encu,"",TTL editor 127 açın,,
TTL Editor,Google Play,org.segin.ttleditor,Z3A6QU9xcFRPSHRaRVdMRnRRR0dPWjJwcC1iMHdNRHhFRkpXMzdGSzFPd3QwMGJTemVzMGExcFB6ODdMNWY5R2loRFZDTlZsdjVhdUI1TTNxUVRzSnpTd2c,Turkish,,5,2016-12-30,Tamam Tamam,TTL,Turkey does not have VPN solution,,
TTL Editor,Google Play,org.segin.ttleditor,Z3A6QU9xcFRPRUoxS19zZklLWnB0TDc2amV2NldjOThvOGMxTmE0T1JieW5fbW1vckE2MXlkLVBiMW5GSUxzdmg2XzFoZDVLd2xLOUtlWG85LXdXMWNtSHc,Turkish,,5,2016-12-29,Murat Gokgoz,"",Bayildim,,
TTL Editor,Google Play,org.segin.ttleditor,Z3A6QU9xcFRPRzVJcm1ZMzlraFIxQndsaTR5LW9VcXp0djBqbC1ab01kU3BEMWN0NzhYcHFraXZGWUROMjhQQzI2blpxc0JwOGFHX3dRaG13V0VtTTVTb0E,Turkish,,1,2016-12-24,Mehmet poyraz,"",Açılmıyor amk sizinde programınızın da amk,,
TTL Editor,Google Play,org.segin.ttleditor,Z3A6QU9xcFRPRkVhY1VNYkhvOU1BZ09IdzRBVlhwWVM4MHFueEZLaXdVUGlGSXg5aFJVa2MzR0xNeVRPaEQxcWxoMVQwS0ZlbTBxWDVQVmpsM2tDeVRhRFE,Turkish,,1,2016-12-20,mehmet official tv,"",127 açın open  vpn için mallar,,
TTL Editor,Google Play,org.segin.ttleditor,Z3A6QU9xcFRPRjNfcnFKZGw3aWtYZWdlN0ZIZGZaZ3FqRXh5UkpQRzhfSTVRM2NKQTFRTHM0YjZ2ZUhOWDAtbW1BWVBGV1VwcUtwdG02NkZsQjJreWlaWWc,Turkish,,1,2016-12-18,Sezer Güneş,"",Bitti buraya kadarmış ;SİBER :-(,,
TTL Editor,Google Play,org.segin.ttleditor,Z3A6QU9xcFRPR3liNWVDVnMyM2tpVmJwczJ1V1pTRXd2RzVoY041NmN5VjNhaXhRT1EzRGxjN0stT1E4WkZYcFlpMndNX1hMZzBJVGRhaThGS0IyblpncEE,Turkish,,3,2016-12-11,Onur Kaygusuz,"",Kardeş kapandı 127 güncelleme lazim,,
TTL Editor,Google Play,org.segin.ttleditor,Z3A6QU9xcFRPRk5WMC1FN0l2RmowYTd4M210eEd2Qm5xTEV4RlBIdVF0M2pfN2ZNYy1IdU4yaHQyNEczNkVyTm8wQVZTX0EybDBpc25Zcnc5YmNyZkJuUlE,Turkish,,5,2016-12-10,Atın Oğlu,"",İki tane ttl değeri vardır 64 128 64 linux 128 Windows bunları bir alt kademeye alırsak yani 63 veya 127 ciazdaki internet ver akışı değişir yani internet hospot üzerinden  açılır bu ne işe yarayabilir hostlarda hospot açığı varsa host aktiflesir anlayan anlar siberyazilimci,,
TTL Editor,Google Play,org.segin.ttleditor,Z3A6QU9xcFRPRVZ4QWEzQnBHdl9vVXJZam1SUmRzejl6LXlDUHA4Ym8tZ3AwbS1MMTZkLWpEOUE1RzVmWE5PaFpQXzVOakx1czRPWTgza1pvLXRnMi1GdWc,Turkish,,1,2016-12-10,Şahin Bozkurt,Çalışmıyor,Abi ne olur çalıştırın,,
TTL Editor,Google Play,org.segin.ttleditor,Z3A6QU9xcFRPR1pFT195bXRTMHV0YlZJRnBGY0ZnWXVJTUZ5VDFzRlY3SVlBdV9CUWFjeDQ4elJJd00tSGpFN2hiSV9mNGRnZ0kxRndPdC1MR2JUX3lDeGc,Turkish,,1,2016-12-10,Mehmet KEKEÇ,"",TTL KAPANDI DÜZELSİN... (PLEASE),,
TTL Editor,Google Play,org.segin.ttleditor,Z3A6QU9xcFRPRzBtT1JYb3pxbHJGQmdDc3NXcFVQNHk4eDhNaDFVLU1xdkJ1SzdENEMwUHRZOVVqdWZWdG0xNjZDemVhQ013YUM1YUUtSWpXYWVXb3FXSFE,Turkish,,5,2016-12-10,ERKAN konacoglu,siber,unutmicaz yastayiz,,
TTL Editor,Google Play,org.segin.ttleditor,Z3A6QU9xcFRPRlpUZGtkRFo0VUtvV0NySmVTMWh3bnF5d3BFUjdQSzVhd1liU1dsZlBlTXBtSGxXdUFUaFpTVHZhaFRjeGhhUm8tampBdFdOTUUzZ1h4TlE,Turkish,,3,2016-12-09,Mehmet Coskun,"",Dos karşı geliştirmeli turkcell avar hepsi yasaklandi,,
TTL Editor,Google Play,org.segin.ttleditor,Z3A6QU9xcFRPSDgwMTcxOV91ckVqbV85d0pvQkNKdVJucWpRTy10S1VtYzctQ2YxSHFwdEUzc3JFLUQ0NkUtNzZFem15clY3VERma3RCenpIUWVEdEZHVUE,Turkish,,1,2016-12-09,Yusuf Ersöz,Güncel,GÜNCELLEME GELSİN YA TURKCEL AYİKTİ AMK COCUKLARİ,,
TTL Editor,Google Play,org.segin.ttleditor,Z3A6QU9xcFRPRkZQb0JKS01IM3FaWUtDOWN6VkVDbkFfVTVwNE54bjlFdldTNUU5c3pZWVEwcURrbEw1TlQzY0UwVkowaGJRWnNzcGZyNmhLWW9NVDZ6VVE,Turkish,,5,2016-12-09,Video Delisi Türkiye,Cok ii de GUNCELLEME ISTIYORUZ,Güncelleme,,
TTL Editor,Google Play,org.segin.ttleditor,Z3A6QU9xcFRPRTlqanZ1V21fWVMyc05mVW9KOWhCVDJZVkY5eVlZdV9uSWZ2Q2Z0Y3NoYmFBaTFweHVUVW1iVXZISmhEVmZCTVBKVnlYbC03NzNHM292bGc,Turkish,,3,2016-12-09,samet Balaban,127 çalışımıyor artık başka neler yazabiliriz,127 çalışımıyor artık başka neler yazabiliriz yardim edin,,
TTL Editor,Google Play,org.segin.ttleditor,Z3A6QU9xcFRPSHdId1RRWWtkQmV5Rm13aFk5RGFHNjU1dVQzdlpKUVEtLU5ZeTJLeDY2dENOc3VBRWdVSUE3WkFZTUdHbWpqemxMMDFkLWRGRkRudDdhNWc,Turkish,,4,2016-12-09,Zeyneddin Erdalı,Laaasn,Kapandı düzeltin şunu,,
TTL Editor,Google Play,org.segin.ttleditor,Z3A6QU9xcFRPR1oybFdZazlBa3hUeHQ2bVpyNjBqTlVGWFdxRFIyeHkxOVlHZzRYeE5FZkRpaW1wWDYzNlAwTjRMTWxwZUQzWnFmNy1TaEw0UF8xNl85X3c,Turkish,,1,2016-12-08,Eyupcan Orhantekin,Bozuldu,Bozuldu lan düzeltin,,
TTL Editor,Google Play,org.segin.ttleditor,Z3A6QU9xcFRPR0N1b1JzbHMxeTNuWk84MWJRWEIzUGFmcUNxVk5rNEllSXRPUVJySTI3Y2hmYm1mdTJfMDlHdHVJOGE2QmxGQWhMZDBqOWJLSk5WSDQwa0E,Turkish,,5,2016-12-08,Fatih Özdemir,Kapandi,Uygulama yi neden kapattiniz geri aciniz 40 bin kisi geri istiyor,,
TTL Editor,Google Play,org.segin.ttleditor,Z3A6QU9xcFRPSEstN0toMWt2M2hqSnNGLWJBYzdabmRROWVhbVJiZWYtcDZaNUI2T1BxeG5iRGpRTGRFd05VWjRmNi05N19CMWdWSFRLSVlvVmFqaG1taGc,Turkish,,3,2016-12-08,Ordulu HACKER,"",Kardeş düzeltin şunu bağlanmıyor burda 40 binden fazla kişi bu uygulama niye kapandı diyor acil yardım edin,,
TTL Editor,Google Play,org.segin.ttleditor,Z3A6QU9xcFRPRnpVZnBvaC1wc3lrTC1wMERvVjl4UU5ZQWZxOFY3MkJlQk9VUzVfTy1MWUlaY0hBU2ZWS0JVbXBVVVNldzlaU253S1ZlMlFBZTJUTk5PWmc,Turkish,,5,2016-11-29,Mustafa Celkanli,Ben yaptim calisiyo,Ben yaptim calisiyo,,
TTL Editor,Google Play,org.segin.ttleditor,Z3A6QU9xcFRPRmxOWFFaTjVNZ1V4aThfbF9rbklyZGd4VU9IUm03dXBFTDlvRjJLbmdEY2I4SW9FaWhNNjhOeW15VmRxM1F6cHVTNUtIT2ptM2N4RzZpMmc,Turkish,,3,2016-11-24,ishak taş,?,So Its may be without root devices ?,,
TTL Editor,Google Play,org.segin.ttleditor,Z3A6QU9xcFRPRlZrb1JVYzVCaVZlbVpUalhoREI4VmQzdFlHV3gzZmd3bEd3YjJKVVJOMnoxUjliZ1Y2aGJ0VE9RQmd0S045QUFmMGVVLWVUdXZzenFHdGc,Turkish,,5,2016-11-15,"",Pls,Aga bende ip6tnl0 yazmıyo o lazım bana nasıl yprm,,
TTL Editor,Google Play,org.segin.ttleditor,Z3A6QU9xcFRPRUZQYUJLdWxsVFczaktRMEF2MXFZQUtQVnFFakpjVG9wRlpFejB4amcyU2ZTcVluSU10U3dyUjlfT05xR2UyX1cwYmFWWEt1bU5udEo1MWc,Turkish,,5,2016-11-07,Azat Azer,Harika,Süper,,
TTL Editor,Google Play,org.segin.ttleditor,Z3A6QU9xcFRPSHlIZjU3dThyZnZpc3N6WUpPaEJ4Q3NSZXdYYmlWMC1IOWMwbmtNa3ZuU2tiTEhqdldxQ0Zra0QyMlFFdHFSRmZhOHh4YU5ZMjNYcWtDeVE,Turkish,,1,2016-10-23,Nuri Özkan,"",Bok gibi TTL Master bundan cok cok iyi,,
TTL Editor,Google Play,org.segin.ttleditor,Z3A6QU9xcFRPRmZxS1VxZXYwZFdONWFkMmlHTDRXaUhrc3dwQU9kT1IwU1UtcUxNMUhaNXNmbTZLZndaUEVPQ2lBR3k0OWVld3NucjRobnJWWXRTWW42bkE,Turkish,,1,2016-10-23,Korkunc filmler,"",Sizin yapacağınız uygulamanın amına koyam,,
TTL Editor,Google Play,org.segin.ttleditor,Z3A6QU9xcFRPRTlDSDdsejM2RnJvb1JfUW9VLVJfelZ2RWUzcXhqdlVPMnRhTHd0WDl6cUgwSEQzVlA5M0psTktYNFRLdFl1U1ZqWHJ6RHZnZ3dBZzNCNVE,Turkish,,2,2016-10-08,yusuf Akçay,"",Root gerekli mi ?,,
TTL Editor,Google Play,org.segin.ttleditor,Z3A6QU9xcFRPRlhpZWtCWGYzX2FlWEY4RjlmZjU1bENZb0ptN212dlZRZW5RTmRBZGRod09BZHdDMG92UGo4OG5FYkFtVUxjT0Fmc0l6ZmVwSnhLREROTnc,Turkish,,5,2016-10-02,Burhan B.,Adam gibii adam,Very thank you,,
TTL Editor,Google Play,org.segin.ttleditor,Z3A6QU9xcFRPRmZnZWFzaDlmTGNNakttb25QZGpGUnVrQldlalNwM21YT196WXlpWndKcVg2c2ZGTW0td3lWOEg0SFZRcTZVZHluYnJySF9jclRYSW8zOHc,Turkish,,5,2016-10-01,Huseyin Nas,"",Güzel,,
TTL Editor,Google Play,org.segin.ttleditor,Z3A6QU9xcFRPRkRMNWswZXZLUmdwbDBWbEVlWGNzcVc0Tk9GUXhkU3RueDFiRzhBVDBRUnhxRHVJYkxVNU9JdHJneVcwRzJyMks1M040ZUprVWV2Q1owT1E,Turkish,,5,2016-09-28,"","",Igrençç,,
TTL Editor,Google Play,org.segin.ttleditor,Z3A6QU9xcFRPRTV3QmtEU2Npc0lTdWNqa0hxUTRhN3Q2b2kxRDNCOHJfOTRldUFwS2NDaW80ZnVQV3dsc1M3eEZXNGRjSE53bWlhM0tpeUZyalZwYm81bXc,Turkish,,3,2016-09-22,Sins Gaming,Program acilmiyor ama,Sorun telefonumdan kaynakli plabilir diye 3 yildiz,,
TTL Editor,Google Play,org.segin.ttleditor,Z3A6QU9xcFRPSG5YVWtSQlpFbXFwejhqS2ZaMHVHYS10YXFzenVFZE9CTVYxYXVMTjdlU05VNXJCSGUzSkpBSHRldzBFYXF5YXhZc2hYQUx1azdNaTJFVnc,Turkish,,5,2016-09-07,Orjin Ali,Süper ama...,Arkadaşında dediği gibi ayarlar hafızada kalmıyor sürekli onla uğraşıyoruz... Lütfen Düzeltin...,,
TTL Editor,Google Play,org.segin.ttleditor,Z3A6QU9xcFRPSF9GMzRqQzU5X3NUOGpEbkk0N0MwckdxcDdUTjYwTzdDVTE5UWh6UVlZaHYzQk5yUGFBOEV1Z2ZpeEdRMU5iRk9nU3VyaDRvc0xVTGcydEE,Turkish,,5,2016-09-06,Onur Dinç,Android +6,Pls update unroot use,,
TTL Editor,Google Play,org.segin.ttleditor,Z3A6QU9xcFRPRTZKbDNtWHFoa3QyTlh3QUEtblMxNHFCbFo5SzVWeEJMVnp0cVlqNndVYXFCblo3SFBncEFzZ0hOb3p4VC1yMDIwZFVzclRscWxydlZCekE,Turkish,,1,2016-09-03,Emre Karaca,1 star,What root have?? No root please,,
TTL Editor,Google Play,org.segin.ttleditor,Z3A6QU9xcFRPRkF4MWVXTWNaXzdCQlZCNVlEd01qU2dpTjdILWU4VDZURk9PT2JPWjF0LVJTREJpTEdEV2NNeE1qc20tUHRmME5ma3AyX3RkczM4M0pXdEE,Turkish,,5,2016-08-23,Kader Sersi gmail. Com Kader,"",Kk,,
TTL Editor,Google Play,org.segin.ttleditor,Z3A6QU9xcFRPRkx3QW1xb2t6UGVTNVFUVnVuRncwUmd0cDNXZUpfc1lqekNtSDc5RjNYVDVmSjZud1dHR3hqT0lqNWw1SzlrcmJ0RjJQbDdjZWtmX1c0SWc,Turkish,,1,2016-08-21,Çağrı Mağaralı,olmuyo be,off,,
TTL Editor,Google Play,org.segin.ttleditor,Z3A6QU9xcFRPRzluNWJZMVBuOFA0X212QmpvNktLV2lMZEZfb2ItSUhsS01GcThHOUJDQm55OTJqSDVjclllX0NyaWZwVTJDMGV1cTdyLURjV2RVR3dwM0E,Turkish,,1,2016-08-07,MUHAMMED BALLI,"",E ipt 6 yok,,
TTL Editor,Google Play,org.segin.ttleditor,Z3A6QU9xcFRPR0lTRlRPbHR4M1RXUGVmcG41SHZDTVlhZjkyQWRlUHpfZVFiUWJsT0x3VWdZYkRWWFA4T2hTbXFObnNuQWF3RUYtbXlFMlpqZF8za1luT2c,Turkish,,4,2016-08-02,Sorun Çözümleri,Değer 64 te sabit kayıtta  127 kalmıyor,Değeri her seferde değiştirmek gerekiyor ayarlar hafızada kalsa çok daha iyi olacak,,
TTL Editor,Google Play,org.segin.ttleditor,Z3A6QU9xcFRPRm9UVldUMEhZekYyUnNWZ2FUZXlxZDBMQWhZS09wVnozeFRma2RSUzY4VHd1M2JHQWJqeWJTV3RYVVRkQ0pVcXloMEZLNnFPeV8tMjlCZlE,Turkish,,5,2016-07-28,2.3 milyon görüntülenme,sy sy sy sy sy sy sys sy,on numra bir program şiyar demir,,
TTL Editor,Google Play,org.segin.ttleditor,Z3A6QU9xcFRPR0tuXzFpR29HTFM0Y0E5T1VJYVdVQWt1aDNhOHlSOGxEUmt5RVZ6YWU0WHZteWpEcDNtS3BidUtfSTlzVnFhVDlnLUFrbkFYcVNPLW9tdXc,Turkish,,5,2016-07-22,Berat Şahin,Guzel,Great,,
TTL Editor,Google Play,org.segin.ttleditor,Z3A6QU9xcFRPSFA4c09qUFNlZXNNVG1iSVFETGVNYm1Xcmk2STRTQXh2NWFLRHdSV1QxVEVrZzRQSTBxNWZEbTRJOFF3dGx4OU8zRFFic3duNTJJczVndXc,Turkish,,2,2016-07-04,Mehmet Tan,"",Olmuyor vurus,,
TTL Editor,Google Play,org.segin.ttleditor,Z3A6QU9xcFRPR1IxY28xazRVQ0sxcWRnTjdBdklfQXBpaHI3ZXZkaEdIc1dsNUFrV2x6UFhYdk5kVXhteldyUUdYX2Q5M09VUV96WUJIXzZJR0FEalNXc1E,Turkish,,5,2016-06-28,Hakan Sogukbulak,Çok iyi,Ama tel rootluysa oda,,
TTL Editor,Google Play,org.segin.ttleditor,Z3A6QU9xcFRPR0F2OThwSjUwYXZUWlprRDhIWDJicHM4YTdfYjNWUnp5R2JXMmttT2E4eUJBY2N4ajlod1VJZ21YYmVyVGJBTXY0azZaZE0zeW9vZWYzSXc,Turkish,,1,2016-06-27,Onur Demir SY CEO,SY selamlar,TRCLL 127 rm4 vf 54 ;) kolay gelsin,,
TTL Editor,Google Play,org.segin.ttleditor,Z3A6QU9xcFRPR0o5aTdvMjhqcERmREthQk1fRUQ0bXhWYl9selZuVUNueERzT29laWE1QkkzQXBJa3VxSkhLLWRtcFlQRFZ4blliTVlJQm1zWDlpUU1IMWc,Turkish,,3,2016-06-27,Aydın Bodur,Size vermeyen malzeme gibi düşünün,Olay şöle bu nalet programi telegram grubunda paylaşan tigocu ibneeler başladı kısaca şöle ozetleyem bu programi Turkcell size beleş net (AM) vermiyor sizde onu zorlan (SİKİYONUZ) OZET LAN İSTE TURKCELL SENDE FİX ATMA LAN RAMAZAN AYİNDA KULLANSİNLAR BEBELER...,,
TTL Editor,Google Play,org.segin.ttleditor,Z3A6QU9xcFRPRjJ4MElsYVFvYmh2UDVScDlWcF8zZ3VsclNrLVdzZ0gza1luSk1UR3JOQkdtZHZBNF92eEZXdC1NOGl2ZkZLMzQwanM4S2EteVJVRTdKMkE,Turkish,,5,2016-06-26,Şeyhmus Aslan,"",Siber yazılım,,
TTL Editor,Google Play,org.segin.ttleditor,Z3A6QU9xcFRPSEJHT1AwUGtUY3hzNVFDNXBucDBkQ0hSVmlEM1o2Mzg2azFidnRKZzVDeXRBRFNZbDhveGNPWmFJTTA0T0pfSHE0RVg1NnFxZ1ZxM05wWmc,Turkish,,5,2016-06-24,Ordeall 00,S.Y,Bu olmasaydi turkcellin ekmegini nasil yicektik mk :D,,
TTL Editor,Google Play,org.segin.ttleditor,Z3A6QU9xcFRPRTBCSlpWMVBFREJsWmZaa1pIRkF3emFoNXpKbmgzdnhKT2JCcEViZmhRRnFNUkhzOUpvck1YeUJydngxUE1sUl92WjBSbnU0WWVWQjZocnc,Turkish,,5,2016-06-23,kürdistan ft,"",amk yalan atmayın kardeşim çalışmıyor it indirmeyin,,
TTL Editor,Google Play,org.segin.ttleditor,Z3A6QU9xcFRPSGRadDRHM3AzTTRCWkJwTG1IZ3J2UU8ycVdaYVlNMGx1T0s0aXVmd0VycHBKLUNJU3dCLW0wcGJ5enZ6T0NXbHNqcVM4WjVvWTE1ME9ISlE,Turkish,,5,2016-06-20,Halil Öztap,"",Siber,,
TTL Editor,Google Play,org.segin.ttleditor,Z3A6QU9xcFRPRzhGRGZsWU80bmRrcDJPQ3h1T0ROdkVoV2lTVkZteG14RzM5RnpVSWdBRTcwak5ZU2tRTFFtSTVrR3E4RVg1R09jQWxENEx6VzRlT0szb1E,Turkish,,1,2016-06-19,Hakan Çelik,Virüs,Beyler sakin indirmeyin virüs var telefonunuzu cökertiyor,,
TTL Editor,Google Play,org.segin.ttleditor,Z3A6QU9xcFRPRzFEVkQ2Y0IzdDljOUZ5RS00VzhKQnladmRmUWJHSXA5YVRlUndCTTZsYUNaUVZMQnZrN2ZfYUFSV0xqdkdsMlBwWDFQQ0l3bjR0bVBONFE,Turkish,,5,2016-06-18,emre Adıgüzel,Siberden selamlar,Guzel,,
TTL Editor,Google Play,org.segin.ttleditor,Z3A6QU9xcFRPSGNIMUc5bVVlWnZXbFZsU2o0c1BVVDY5el9RbzlEY3FVLV9QeDc2Z3luQTB4S1ByOWxWZGNSUVV5MTNMUENxN0w5SHZZdTg4WXZHMjNGZlE,Turkish,,2,2016-06-17,oktay bayhan,Uygulama açılmıyor,Bi türlü açılmadı,,
TTL Editor,Google Play,org.segin.ttleditor,Z3A6QU9xcFRPRUxlS2J3dmNBZHhZWUVrMUgyN21ZXzNhT3JrV2puRlN3dGtkT19uYkJfVXlLRlY1aWZMQ2tUVC1sN0dkbW1OTWw0RmJzWmlyUEowYzdRbFE,Turkish,,5,2016-06-17,Cenk Kaya,Siber heryerde,Very good,,
TTL Editor,Google Play,org.segin.ttleditor,Z3A6QU9xcFRPSElOVWlyMUd3TnJ1bmVmdmowQnNUNFNENnBtZ1MzS0QyMVJDNUpKRHJ6aFJBYXA0bHRPTFk2Uy1CbEd0RkN3bUNJZjh1MF9vbWlqRnlqOEE,Turkish,,5,2016-06-16,Enes BeySs,Enes BeySs,Siberden kimse hizli proxy atmyr aq cok cimrisnz 😄😄😄😄😄😄😄,,
TTL Editor,Google Play,org.segin.ttleditor,Z3A6QU9xcFRPRWhQc2hTWTEtUV9PRmFCT044cl9ILU5IakpGOFZ6amFJRjFrNzhzY0ZsZm5mZU14Z19SdjBRTkxveEQ1SXFaSnVLUnU5dV9kYV84OVgtQ0E,Turkish,,3,2016-06-16,doğukan uçum,Selam siber,.,,
TTL Editor,Google Play,org.segin.ttleditor,Z3A6QU9xcFRPRl9QV0VfMEhXSjk1R19BdjhpZmNncGx5TXBBRGlJMXdXMGhGMzI2NzRpLV9hUVRrS1pGOHVLYTBjMnk5QkV6elRFa1RHSGt2VEhqTF9qR0E,Turkish,,5,2016-06-16,Mehmet Atalay,#siberyazilim,Siberden selamlar tesekkurler #siberyazilim,,
TTL Editor,Google Play,org.segin.ttleditor,Z3A6QU9xcFRPSENLLTJTWFZXOHo3RWFGUVdhTDdGSXdwLUpyUjhkbkNUVC1uS3NJUEEtUVdCdVVqblFTQjE5NHNyM2VaUFBQSEc2b21RUTBIRjQxUDh3d2c,Turkish,,5,2016-06-16,Barış Şenel,Amk,Engo Black bende seni sikeyim oc,,
TTL Editor,Google Play,org.segin.ttleditor,Z3A6QU9xcFRPSGVURXl4R2t5SUxueEFzLUFWZUJMZ1JjcUNDY2FMbGVvTzZYbkRqNnlER0UxMG16SUdNUW9neUZiZl93QzJSR3RkN0tNRnhlTEZkRHF0bFE,Turkish,,5,2016-06-15,Yasar Gungor,SİBERRR HER YERDE,EHEUEHEUEH,,
TTL Editor,Google Play,org.segin.ttleditor,Z3A6QU9xcFRPSGVUQ3pIYjBvVmgwbmpFSlNIWTI3SktBOGNNS3Nsd0ROYWFwdU16VnB2WlV0SUk1djBXSlhsbGdMRFM0YUt6RXliTEdRWTlKeUxDY1p2Rmc,Turkish,,5,2016-06-15,Cyber Warrior,Yakup Aga,Aga  rev_rmnet 4 yok napicaz,,
