please add user name font bold or allow to change,f,2015-12-21,Kamal Abbas,4
what about sound etc,o,2015-12-21,Morris Zarifpoor,2
also i get a ha stopped notification pressing reply from notification bar,b,2015-12-21,Daliana Guerrero,4
need to work on opening speed and the logo design,b,2015-12-21,Chengming Wang,3
being able to get text over my lock screen is also great,b,2015-12-21,Ember Fox,5
too much battery usage,b,2015-12-21,Traian Dorin,4
stock 502,o,2015-12-21,Traian Dorin,4
