App,Store,App ID,Review ID,Country,Version,Rating,Date,Author,Subject,Body,Translated Subject,Translated Body
SMSdroid,Google Play,de.ub0r.android.smsdroid,Z3A6QU9xcFRPRzh5UkpLVEpzcVpYS29KbXF0blVyWmxRdTFLWUI3V2lZSF9xZ1J2VWNta3kzUko0b1hlc09XdUZQZ29QLUpDR3c4SkdUWnpkdUxZYnFOaHBR,English,,1,2017-04-30,Syed Khaboor,"",Not reliable,,
SMSdroid,Google Play,de.ub0r.android.smsdroid,Z3A6QU9xcFRPSFFYUEFGdHJ5Sk9uR21tWmU2T3lsUEhCQkd6c3BOeEJXNmI5N0lSckROTFpwWkFpT0dHeUNzZzY2UGtGQWR2djZSdmw3UzVycHVpQTFVRFo0,English,,4,2017-02-07,Krisly Anne Magdasal,Likerskrissy,Its ok and nice,,
SMSdroid,Google Play,de.ub0r.android.smsdroid,Z3A6QU9xcFRPRURpVU5obngxNFVNUVBHbFBiTWhkTUw1YVRnejc0cThwcjNIUTVISkUxVHpsR2wzTy1XSFFybjdqMERKTVNWc3ozeUxuMEYwMUEteFlwbkN3,English,,5,2017-01-18,Cheyanne Davis,"",Amazing,,
SMSdroid,Google Play,de.ub0r.android.smsdroid,Z3A6QU9xcFRPRnpsV2JVU085ZWpEaXZRM0szd0JGck5GVjhCZmNYc1VCU0h5T0RwLWdPc1Z4bmxIV2FSR08tNWYtOXdCeHpiRzVWX2t1bVJPb0trTWlLRUFJ,English,,1,2017-01-04,"","",Talhaanasir,,
SMSdroid,Google Play,de.ub0r.android.smsdroid,Z3A6QU9xcFRPR3ZkbzNsX3NyZFl0RTVoOUxWdjFjODBxTHo1Y2MyUzBVU29CRjc1aHlBME1OSkt6aWtmVXIyenhncDh5ODBnTnQ0UFIyaElzNWtvanJZSG1n,English,,4,2016-12-30,James Le Cuirot,"","I think a lot of reviewers have missed the point of this app. If all you want to do is send a regular SMS though your phone's provider then this probably isn't the app for you. It is most powerful when coupled with WebSMS, allowing me to automatically send messages for certain number prefixes through a cheaper web-based provider.  My first complaint is that it could look a little prettier. It's not as ugly as WebSMS but a little padding around the text could make all the difference. Perhaps the developer wanted to fit as much text on the screen as possible but screens are relatively large and high resolution these days. The ""Black"" theme is also more like grey under the Material Glass theme for some reason. With those two issues fixed, it would look much like the stock Messaging app.  My next complaint is that starting a new thread fires up the WebSMS interface instead of allowing you to type into SMSdroid directly. This inconsistency is a little jarring and there seems little reason for it. I guess SMSdroid is simply lacking a recipient selector.  My last complaint is a minor one. The multi-select button doesn't actually do anything.  All in all, a thumbs up from me.",,
SMSdroid,Google Play,de.ub0r.android.smsdroid,Z3A6QU9xcFRPRTN1aWZ5RmZReG51aE5VWnpjejl6aXM1NDQyX0ozeVZmZlJIWlhhRS12S1VkbkdjQ2F6UlhMek1XX29BWHU5T3d0RkFVS0VoVlZOS2lzbjE0,English,,5,2016-12-29,سجاد صفرزایی,"","",,
SMSdroid,Google Play,de.ub0r.android.smsdroid,Z3A6QU9xcFRPR2RReTM5X2pnNmZISFBZMUpwR0hoYzFsbDJ3MGFRX0tNYjZwQ2JBVlplQXU4S2FQWTVWYlRzMTVBX3EtMk9lR3BOVUFGNWFOM0pndUhhQjJj,English,,5,2016-12-26,SHARMAINE WILLIAME,And,A,,
SMSdroid,Google Play,de.ub0r.android.smsdroid,Z3A6QU9xcFRPR2d2NzdKUzd3dFAyMEVUNEZrM3p4VEFXWUZoZ0k4UTFlWXhFdmp6NGs4ZXJBbHR1WUpyRUdKX2F4ZkFydm9BZ3d1ZEt2Vi0zbXlZdWVWNXZN,English,,3,2016-11-21,Tiffany Pena,Why glitch,This is such a glitch like I want to try to do it but it won't do it it would not let me it froze in the middle of me doing it and then I said you can't do anything is his contact info like developer please fix that glitch because it says here I'll look at the pictures I look at pictures before down with something so I can know if it's good this looks so good like I can get my mom's phone number stuff like that but now I can't because it froze so developer I'm not being mean but can you just fix that glitch,,
SMSdroid,Google Play,de.ub0r.android.smsdroid,Z3A6QU9xcFRPSE9FMWtjWHZaM21WS3lmZm9fNjF3MmtPeXZTRGZnRk5US043UGtWeGxwTUtYZkV2WjVFU0JhQzZ2b0Q3RlVFaW5OZ0ZGeU5IZXBWVjFZZ29B,English,,2,2016-11-14,Chanel Cesaire,Errors,I dislike that my keyboard hides my message that I'm texting after about 4 lines.... The app doesn't continue to move up as u type. Therefore u have to stop typing. And start a new message. Annoying. I enjoy all of  the features to customize. But that's it. I cant even use my bitmojis on this app. It's not an option.,,
SMSdroid,Google Play,de.ub0r.android.smsdroid,Z3A6QU9xcFRPRm4tR3QtOUlhLUs5dDVPaHZqeHVvckliWFp1OUE0eXpXRk1Hc08zQVRGS3JlYl92RE9rMmUyY3F3cERIR3ZZNXJPRFZYT3VyX0dSUHpiS2hJ,English,,3,2016-11-08,Tim Etherton,Ol,Minə,,
SMSdroid,Google Play,de.ub0r.android.smsdroid,Z3A6QU9xcFRPSFNhR2E1OFlLRXNSXzIxaUF0NnB2YmI5eFlYYktyMGFKZHRJLVd2bzh3Qlp5TjhvVVFJckFtZXU0TjZTdTdUZFlOQTQzalhSLW92emY1RU5R,English,,3,2016-11-02,Tony Ragland,"I really like this app,s",Real easy to antcent and get on bore,,
SMSdroid,Google Play,de.ub0r.android.smsdroid,Z3A6QU9xcFRPR0FvMXNBZ3NMQTI2ZDdGcGdNZXdIMndGRWt5YkR1V3RxbU41emR4WlVTbjM5S3JYMVFub3BJU1JnWHhyaTRTQWpPSXZxbGVvc1dFVnE1YWk4,English,,1,2016-10-28,"","",Its stupid,,
SMSdroid,Google Play,de.ub0r.android.smsdroid,Z3A6QU9xcFRPSG43ZDFxS3N0NXNMS184WmlwdHJzcXQ4WWpEbW5kN3pzREVoZkd5cS1oUi1MODFtdVZHVmV1SjZLSlJvOWw3LVZhRHZBRjZKWnh5MDhnX0hj,English,,5,2016-10-18,Kevin Fletcher,Good shit,Messenger droid fast reliable,,
SMSdroid,Google Play,de.ub0r.android.smsdroid,Z3A6QU9xcFRPRWZsOGpNa2lnVGJMTG1KRUxDdUttYWtwZlZzOWJBLVE5T04wUXJvcXhSZWc3U1BfeUMtOFBocU1wRnh6c1RRX1NxQnZ0RkYzb0xJdUZjbDhN,English,,1,2016-10-11,"","",FAKE APP,,
SMSdroid,Google Play,de.ub0r.android.smsdroid,Z3A6QU9xcFRPRlNMU2RFcUZCNEdUZjhUclNaT1kwa1VSbUotWmJoUTNiS2xPTGc3RFQ4Y2lHX3ZtcmhkZ3ByZ3hiRVZfOWJfTHdOYTc2MWhVa2ZrY0R4Wm9z,English,,5,2016-10-05,Tonya Freeman,Great,:),,
SMSdroid,Google Play,de.ub0r.android.smsdroid,Z3A6QU9xcFRPRTl0TUtLWE1DV3RtbGF3MGdHVU1oRU1ycHgtSFBUSVVJNmxweDZVeFV3RkJidFVkekJrVjVMMzcwR0pBWllNbGFKckhwY1JNeFBQcmNpQjJv,English,,5,2016-08-27,Min Lin Aung Mon,Ok now,Well as soon,,
SMSdroid,Google Play,de.ub0r.android.smsdroid,Z3A6QU9xcFRPRU5DSUwtdmxGWGRYYkpSNFNvTmxELWVnaEJFVlVFdW04YW40aElTQjM5dU9CQUVfTnA0RHVDUnppS0RLVzRkZzdhREdJQ19zNHJIUFFLWTZr,English,,5,2016-08-15,Potlaki Sebolelo,Text message,Return bag,,
SMSdroid,Google Play,de.ub0r.android.smsdroid,Z3A6QU9xcFRPRl9MWXVobkhZUGlWVms5OXMzN0ZlM1JyUElvRWFuUXdieUZMRVJpSXV1T1RQZGN6WFp1YmhaRE1DVXNYN0ZmMG9mbDlENWhDOThGelFaYnZn,English,,2,2016-08-12,Jecenia Nazario,"",Katie,,
SMSdroid,Google Play,de.ub0r.android.smsdroid,Z3A6QU9xcFRPRWZhS2pDVjdwVXB2dHJLX3pVcVNfNEROaWtUbVA1SDJsbC1RR3c1S0tIMllVRmpQbzZYRmJ3MTlWclBBcFg4cF8tVVVuZzFDaFQ3NWxVRE5n,English,,1,2016-08-07,Bre Norwood,Horrible,Don't show sent messages,,
SMSdroid,Google Play,de.ub0r.android.smsdroid,Z3A6QU9xcFRPR1BYWG5VR2V4LVM3VlE1c21oNzFpand0b2NGR2czejV5eDVmelkwVVlZQzVWZkowVmFmUnRkNlBETzh0Z3pKeUl0U2FTdm5xaXJpb3JycE5J,English,,1,2016-07-27,estela garza,Hard to do,Very hard. Upset,,
SMSdroid,Google Play,de.ub0r.android.smsdroid,Z3A6QU9xcFRPR0J3NFFGUVdlZEpXWHV2LWJMZkxqaXhXc29VYzY3LU43YUNOX3dIbGR2RGQ2U3E1d19Yb1FFby1TOE5vSVdWWnFXNmxTV29lQW5DakttOXFV,English,,4,2016-07-26,Rizwan Halley,Message,I can send messagese,,
SMSdroid,Google Play,de.ub0r.android.smsdroid,Z3A6QU9xcFRPSHFFOWNPaENMdDdGb0phaWpQbEdQNDVJOWNwSlBSa3dTbUFwX0FCTV9xRkJqRHRlel9LRTVTVV8zNFNlSzlxdnpSN091MTRxcV9vQ09LdGlR,English,,5,2016-07-16,beny Rauofi,"",Veryyy good,,
SMSdroid,Google Play,de.ub0r.android.smsdroid,Z3A6QU9xcFRPRWlhMFdBX202c3o4dFJ6cF9xWU1WekcxOVo1Z0toT3gyanYzX19VcXBRczJFYngwWW5rVV96NHh3dWNFOWJBNVJpR3FPNkhsNWpZZ1lsenJr,English,,3,2016-07-13,Liam Gardner,UM?,WHAT IN THE TARNATION ANDROID TEXTING,,
SMSdroid,Google Play,de.ub0r.android.smsdroid,Z3A6QU9xcFRPR1Z0RlA0OHZ2TTNEUmtob0V6TlVidGxRRW9nXzZIdU0xaVlVcDJHTzJ0VHhENEhjSWN0UVA0Y3RzUzBOdkRvVm9mNk5pRXgxcTVtT0R1SDdV,English,,1,2016-07-02,Shaya Smith,This don't work so don't use this,Because these stuff don't work don't get this app don't,,
SMSdroid,Google Play,de.ub0r.android.smsdroid,Z3A6QU9xcFRPRl9BVjlkVEZTTnp4Y05iZzdGSEVzNnNzOXlFZEJHZl9HZHdmYW1kaTc3cDhXc09YcXF5VGFrUjVkelpxSm9iRzlCRE1MaHNJZ0dMV2JWVmVN,English,,1,2016-06-29,Lilmo 2005,"",Can you text on it that's all I want talk and text,,
SMSdroid,Google Play,de.ub0r.android.smsdroid,Z3A6QU9xcFRPR0N0YWVNZExFUGg5Q1JERldGSEt2cW1FVGgzcXBoR21La2RzTTZjZ3R2U2Jkb1JlNWdGYVR0dnZ0aGpwVS1jNFA4RzhxWFFfLTMwRGdjQzdz,English,,5,2016-06-25,Chris Hartung,Great App,"Fantastic, only app I found that works on Marshmallow for writing texts to sent items.",,
SMSdroid,Google Play,de.ub0r.android.smsdroid,Z3A6QU9xcFRPRW5iMHBHU3FQMm5XeE5yNjlialp0aHM1QmlYcEtEYlloRVRQV05rT1Z1b2xzSnZBYTdENC1NaUlhNmhncmtpQzZvUnRCaTZVUzhBX1lla0tJ,English,,1,2016-06-19,Alone Forever,Stupid,It's so stupid and when I tried to text or something it turned black,,
SMSdroid,Google Play,de.ub0r.android.smsdroid,Z3A6QU9xcFRPR05xSUZQVU9USWcxQXVVOVd5OUtmbnY4QWxDRXBFdHlwd2VrczBJT1VzV3lqbXc0YlNvaVh1LVc5NHRjS1FOVGp0NEMzOUUxSnAwQ1dBRk0w,English,,2,2016-06-16,Thats _.Me_.,"",I hate it it does not send,,
SMSdroid,Google Play,de.ub0r.android.smsdroid,Z3A6QU9xcFRPRmNLdzB5RUhCdGh1RU0xeEV4WFdjTEk5NTRmdXhjVTc5VndyRFFWaTVPWXVHUUl6UWNfSlllQlhYLU9ldzcxRldqYUpoTW85MkpCYzJ0dktn,English,,5,2016-06-09,Carla Lewis,"",It's very easy to use.,,
SMSdroid,Google Play,de.ub0r.android.smsdroid,Z3A6QU9xcFRPRWlWTjRleTBJVUNTQlJ4Ym9WbXRxeEtfd2hJZUpzS3ItV1RLMnl3bFdoQTBHeHAtbVNPX1ZEVVdLMzF4RG5ydnlVdnMxVmh1aUZmcGFBZ1NN,English,,5,2016-06-09,Faryal Minhal,Cooooooooooooooooooooooooo ooooooooooooooooooooooooooooooool,oooooooooooooooooooooooooooooooo it,,
SMSdroid,Google Play,de.ub0r.android.smsdroid,Z3A6QU9xcFRPRm9pdjUzUEtIZDVlZVdCOVl6OHgyVFpWaXBfWnQxSmxhdTh3UHVGaVdVdDlyTVdsRVFsTGc5b2V3X1lPVVlicWFRek1UNkVJVzBrdE4zeHE4,English,,1,2016-06-07,Skeleton stables,"",Does not send,,
SMSdroid,Google Play,de.ub0r.android.smsdroid,Z3A6QU9xcFRPSC1saHpvYTExa0xCa0dYNWRaaTBHbXNrYU9faUtjT2VjdC1JSHlhZGtFNGZCcGFiVDNjRWFJXzBPUmhRWi10NEVMeWgtc2NJZTVTc0haeHI0,English,,1,2016-06-07,Brian Singh,"",Stupid,,
SMSdroid,Google Play,de.ub0r.android.smsdroid,Z3A6QU9xcFRPSDBFUzhiNzZQTG5NMDBwQVFCYlozRGpDbFhHYXNDVWhfQ3ZoRXJ6UThUV0xmZFY2M1BlYlBYZW5ldEtJUEN5aElyTDVLaTV0OUd3MXNZVFQ4,English,,5,2016-05-20,Nicholas Blast,Asf horny,Pahiar,,
SMSdroid,Google Play,de.ub0r.android.smsdroid,Z3A6QU9xcFRPRU5IbS1FUklqSkNYR2Q4R0NvVndhc3pfMWRvN21CZ0JFOWZhVU5LU1FsTUd6djVhUW9Fa21nOUlSVHBGeENlR3BONDJ4U1Ytd3ltZm5WVFFV,English,,1,2016-05-18,Rahman Alam,"",Good,,
SMSdroid,Google Play,de.ub0r.android.smsdroid,Z3A6QU9xcFRPSGZZcWhZMUd6S1pWcDR6SUoybUFBT2RWYkk4SHJKR1pGT1h0V3lqcUlzOC1PMExFM0RWc2V1RFlqOXU3Qkg1MmdaR05MTGVHQjgzMjFTSGFZ,English,,3,2016-05-11,Zeeshan Kazmi,Does not shows sent messages,Does not shows sent messages in the conversation. only receive messages are visible. I need some solution for this,,
SMSdroid,Google Play,de.ub0r.android.smsdroid,Z3A6QU9xcFRPRkZFbUNGN0pWQ0doYkhpZzYtYWo3WHJrcFRjTV9WS1Zpc0c1SXBsU1EzdDRTVkNqbWEtS05GSGlMRl9tbFBVT0J2QWNueGszS3M5cjJHZFE4,English,,5,2016-05-06,SINDEL ALEZE VASCONCELOS-CEDEÑO,sohdel,messnge,,
SMSdroid,Google Play,de.ub0r.android.smsdroid,Z3A6QU9xcFRPR0VhT2s3MDdud2oyaktaU25wSFBsVDNpenFqbVlSSFRjazdxNndjTWY0NjU3ZkxST2FZa3N0QnA5NlZiRGpNYkFrSFRYTV9RbVFwbnh3QXg4,English,,5,2016-05-05,Ranyiah Angel,"",Love the app,,
SMSdroid,Google Play,de.ub0r.android.smsdroid,Z3A6QU9xcFRPRXdmZ3pSd05NZVdsUUxaRll0WlJoWC1wbGQ2VUJNdS1Rei1TNnJzbHRxT2ZWQzlUUTZMTDNORGJVMkV6eGVDTGlMaXpmelBLMFZoeFhidjE4,English,,3,2016-04-30,pramod gupta,Ok,Good,,
SMSdroid,Google Play,de.ub0r.android.smsdroid,bGc6QU9xcFRPRXZQMDlxVzBQcUF5QTlsZEs3Q3JDSzVDWUtsVkFNU1JyUFNUaUxqUDB2ZVBLN1Z6ZkloZlR5cHNiS3p4WVlyR2hHRDc2M3djZjEzdjl1Z0t3,English,,5,2016-04-24,A Google User,gesturingsms massaid,"",,
SMSdroid,Google Play,de.ub0r.android.smsdroid,Z3A6QU9xcFRPSFI0SXNuSndwZ3I3RWdxZlMyMGdYQ0dfTzdCWGJ6QVYtUFFGcml1YzhTempMeWNqQU5fWXRmM2FDQXMzamUzMGEtUEUtRlVfVi0zb3BjWGww,French,,3,2017-04-06,Wendy Wendy,"",Jadore mais trop de pub....,,
SMSdroid,Google Play,de.ub0r.android.smsdroid,Z3A6QU9xcFRPRThROWtYclBqM3lCNV9uX1lVc29oNTE4Vm15b3hqU0pLWERGZ01fVC1lNUJqRzhMZmpRWjlsWFpXSTVsOTRlaVBGdjI0OXVORTk2WHF3b1Jr,French,,5,2017-04-01,Kévin RB,"",Super :-),,
SMSdroid,Google Play,de.ub0r.android.smsdroid,Z3A6QU9xcFRPRVZTWllKOUJPMnhiRFNJTmttOFBHSVdfYW9aRXhvWXIzR21QMVhVaDdiYVhrSnNveDVORDFoRjJnN2VOWmlUNmN3X3NwdV9XSm1qckdHZmdn,French,,1,2017-03-26,Asim Musaefendic,"",C nul,,
SMSdroid,Google Play,de.ub0r.android.smsdroid,Z3A6QU9xcFRPRUR6eFJiOWZjNEp4ZVJpcWlCMGpYZ3VhTzVWaEtEYXNWcDA2QklhUENpY09mQVJxZHdYTG1DdlZJOXpUUDh2cWZUcVdiZHNNZG1GaUZnbVlz,French,,1,2017-03-23,"","",C pourri votre truc ça ne marche pas et ça ne veux pas envoyé mes messages,,
SMSdroid,Google Play,de.ub0r.android.smsdroid,Z3A6QU9xcFRPRzF4U2pFZmp3d00xWEtfSGt6VWV0LXFJT3g4bXFQUjA4SFR6ZEVlSkREZGgwLTE0WnhULWdLRENxU2ZYYUQyOFI5OXBrYmpyYmhJY1RZYnQ4,French,,5,2017-03-18,"","",c bien je peut envoyer à m'à famille et à mes amis !,,
SMSdroid,Google Play,de.ub0r.android.smsdroid,Z3A6QU9xcFRPR1BQb05GRVFjRi0xcHlRenVlVF81dEc0d2ZKTm1HcG1PVFpFUlZWTnhuR2cxUjAyNXBhdEQxV0YxQXdrbnM4RUo2Z1ZJeWN6TndDbVExNklN,French,,5,2017-02-25,"","",Moi j'envoie à la police,,
SMSdroid,Google Play,de.ub0r.android.smsdroid,Z3A6QU9xcFRPRVRjZUQxdWl0NHhNSEd2RGhtT1p3SXowaHRZRWxmSjVZQzZQTUVaQkJzTXd0RlVqY0tyeDVzWDFOaEgzZ1VPLWd1Z2NvNC0xZHFOLTdUbEFz,French,,1,2017-02-25,roger ramel,"","Du coup,envoyer un sms tout confient,bref par chance,,info,,le sms n'a pas passé,c est a dire posté restante.merci beaucoup.",,
SMSdroid,Google Play,de.ub0r.android.smsdroid,Z3A6QU9xcFRPSEIza2o4TExNWjFxaXZNNDdqY3ptaTgzMlhMdVhfMy1YRjlPOFoxVkJxZGpJUWhRcWVQZ2JKUlYxVUJybEZLZ2V1VVc2eHZqNWdpdUxGYkd3,French,,1,2017-02-25,"","",Elle me mes  une page blanche vraiment petit conseil : ne pas installer 😤👿💩💩💩👺,,
SMSdroid,Google Play,de.ub0r.android.smsdroid,Z3A6QU9xcFRPR29MdHVjd2J3eVBvOW1ISGhtYzVXRnpJUElzRDZZYmtIN1ZBMkRWUXhqSUZnTDhMRHRwV0NlNFdlZ2VrTWFpUGp1UG56NkZCMVpfSDZtZWVr,French,,5,2017-02-24,clémence tini daisy luna Landreal,"",Cc oui,,
SMSdroid,Google Play,de.ub0r.android.smsdroid,Z3A6QU9xcFRPRXdfX0M4S3VKOEdNcm5FRHdVMnVIY3VFaXpjb2EwOWlfRkZWcTE4VkQyeTRyUXBqNTlfd3N6dlJhLUxxc1NRd1RpQzZtTndsTmZsNzFvTlNv,French,,1,2017-02-19,timrap,"",Nul impossible dancoyer des message a ma mère,,
SMSdroid,Google Play,de.ub0r.android.smsdroid,Z3A6QU9xcFRPRkNKM2RUdmRGcV9wWVlZWk1jWTlUbHRZLU1EVGVyOVoxb2dMb1hwdUJKaGg5c2ZfUnF5aWpKTk5FcVR3cWhaaGNjcm1oV29IY0ltbGgtY1NV,French,,5,2017-02-13,Corentin Perier,"",Dommage  que je m'ennuie Dsl c nul,,
SMSdroid,Google Play,de.ub0r.android.smsdroid,Z3A6QU9xcFRPSHZaRGRTaTFZdXVhcVlqSUNrZzZjYmVxUk5kNEhiZDBjUXYxZ01jNGpmaV8xZUllYXMtSXc1d0tSV2NxSTdPUjZ3LVE4WkNUZ0dLWTE4cUM4,French,,1,2017-01-28,Clemence Lambert,"",De la grosse merdeeeeeeeeeee ce jeu😠😠😠😠😠😠😾😾👹👹👺👎👎👎👎👎👎👎👎👎👎👎👎👎👎👎💔💔,,
SMSdroid,Google Play,de.ub0r.android.smsdroid,Z3A6QU9xcFRPRmJKWlFJMl9sUlZfR21vcHhwZVZxR1hPQlhJQl9ueU1LLWVuMnphc1BKVHdOaXlyT0loVUNKamYtTVJZQy1tVV82bnpES3VTYmVVd3NHRHhB,French,,1,2017-01-27,Popi-Léna 005,"",Ses trop  nul 😕,,
SMSdroid,Google Play,de.ub0r.android.smsdroid,Z3A6QU9xcFRPSGNwTlQwT3BvcVRlZ3IwNVFkS25ocVFZWG9Bc3M4Yzk5TFFYcWhWdzViUGZjbWJBc0hCSlV6TE1hSjFJb083TXFDYUF5eXZjd01waVpjNXRv,French,,5,2017-01-17,"",J'y comprend rien,La personne a qui tu envoie des message elle doit avoir l'application,,
SMSdroid,Google Play,de.ub0r.android.smsdroid,Z3A6QU9xcFRPRkxiQzNabHg4X2RLX19WSl9ZakdCcGVKZ01lczFIVkNjUkZmdm1mOHJpbkQ1NWJzNHlkZnEtSXJkaXM1bGwtLWJWVGFlVG1UNVJXR05Ea2tV,French,,1,2017-01-17,Wassila Madi,"",Oui vraiment c'est une bonne application merci,,
SMSdroid,Google Play,de.ub0r.android.smsdroid,Z3A6QU9xcFRPRnJXanlJVUs3Mi1jdkE1MUNQWlhZbktaQW5QVmtqNlp1eDFVdl9qaERnVTZvdHBBTUE2ZHhkbVJZSGFITW8ya2I5N2RnaEhUdVF4SXg2SnNF,French,,1,2016-12-23,"",Tre nul application,J ai pasnul,,
SMSdroid,Google Play,de.ub0r.android.smsdroid,Z3A6QU9xcFRPRk51ZFl5cUloUnN4M2xzV1lFcTA2UlU4YWVSeW9IZ3VYLVV1NHl5OFpENXRVaTJyRDlPYkZ0VXVRci13OThQWHpYck5WVXpEaDF6aEZvZmlr,French,,2,2016-12-03,"",Ça ne marche pas,Lappli ne marche pas,,
SMSdroid,Google Play,de.ub0r.android.smsdroid,Z3A6QU9xcFRPSEVwdDVvenM0ai1EdXY5SEdTY2Ryb211dS1NYkw5MXRqMzZYUGRRbjc0UFplN2RhMDVuWnJZQUJPSS1PZ19UNHQtaTlGMHJzOU5uNzAxU0hR,French,,4,2016-11-23,jacqueline bremont,"","Bandeau de pub gênant, autrement, bonne appli",,
SMSdroid,Google Play,de.ub0r.android.smsdroid,Z3A6QU9xcFRPRVgxXzRyQlFPcDIyanU4T1p5MzRpc3NFa3VQVDhGWTNUYUt5U1lrU1BvMldSXzRMRHJpUUhCYXNzMG5uRFNZR2ZmRzZkeUpmUGoyVjVYV2pR,French,,1,2016-11-19,madison et lou love,Nul,Ont peut pas voir les message qu'on envoie !!!!!!!😤😤😤😈😡😡😠😠donc soit vous changer sa soit je vous pourriez la life,,
SMSdroid,Google Play,de.ub0r.android.smsdroid,Z3A6QU9xcFRPSDFYc2tLVXgwYlhScjg0cWhOUjV0Zkgwd1ZMMm9HZHRISUM0bUlybzdsNEgwV3JieGJ4TzZFRFlhSVFPeTRwcnlFMHFfa1RLOU1CWlpMVEZr,French,,3,2016-11-01,Weez Shilen,"",Désolée,,
SMSdroid,Google Play,de.ub0r.android.smsdroid,Z3A6QU9xcFRPRlFZVnB6d1BCNVpiV1N1S0ZOUkFGLW4yUk9KbHdkUi01VVlVRlgtU2VkaDJtRHZEbm5VSFozMTVldHZ5Q2IwSnozX2kxbjNfWVY0X0dFbFBN,French,,2,2016-10-30,Audrey Adda,Pub,Si vous ne l'a voulais pas vous devez faire un don de 3€😲😲😲,,
SMSdroid,Google Play,de.ub0r.android.smsdroid,Z3A6QU9xcFRPRWtJZWRyZE9Fa3Z6NUZSZVBDbzExeF96V0xlS2JhSTNKUnBHZjhvRTRsZGROWjhmSzFkSFZIMUJLSGVDMlNLdHRRb04tYjBQOW0tVEJ3MW40,French,,1,2016-10-29,Christina Vahnolle,Ses de l'arnaque quart sa marche pas😤,Déteste,,
SMSdroid,Google Play,de.ub0r.android.smsdroid,Z3A6QU9xcFRPR09BSWdkT3I3U29JNEFGT3FyWWxGeHVNbzdHUDRyQV9xVktzaU9IYTRkZlc1MGFEWjM5c1h0Q1gxcmM2cUl0d0xHWkw4bGh4RDRxdHRmYzVv,French,,5,2016-10-13,"",Bonjour,Bien mai comment on fait pour activer l'accuser de réception urgent,,
SMSdroid,Google Play,de.ub0r.android.smsdroid,Z3A6QU9xcFRPRXUzOHQ2MDhDX2FJUTFScE1EeElTd0hYSmQ4aXZoYzVlVlgxS1FZSE9JNDNhNjJ2cDNlMEVJQzBwa2Y1QWI2aDlvNTRqNDllaHJEeXc2RjJj,French,,1,2016-09-22,"",Bon,Sa beug ya que des pubs c vraiment nuuuuuuuuuuul,,
SMSdroid,Google Play,de.ub0r.android.smsdroid,Z3A6QU9xcFRPSGRtY1Y2U2FscS14VlExSldBYmVoOXdDYWhxdTZMT1dwdTVCX2dzZGlnMUl1NkRLSVRkc3I3VWpXZFRzOXRNQkViaXZuVm5vcUNlV1FDcVZV,French,,2,2016-09-14,monique rousseau,"",Je ne comprends pas comment ça marche,,
SMSdroid,Google Play,de.ub0r.android.smsdroid,Z3A6QU9xcFRPRmlNZjR0a2lrRjlGcGtReXFqNGNRcVFIZ0o5dHdoXzZnajI1SHQtbkpadUNQa01iUGdyMVNjTkNUalZQSWNMWjNzakdfV0o5ZF9wX2p1Yldv,French,,5,2016-09-09,Mahdi Ghani,Mahdi,Ghani,,
SMSdroid,Google Play,de.ub0r.android.smsdroid,Z3A6QU9xcFRPRm51TnJXWHFwOE9nYkhoX1E3N0FKMkN3Zi13T2Z2X3NoVHZOUXdZR3FVbF9INllGcklzcnhtX3VyeE1fWVYxblRFbThUYWN1LWVFNGdUTEow,French,,5,2016-08-17,"",Jems marc amor,J'aime ça,,
SMSdroid,Google Play,de.ub0r.android.smsdroid,Z3A6QU9xcFRPR29VVzY0OWpCd3RpOFFRWUpJeHVCWDdtM2swUWh1NWhvbzVJZi0ya0xnU2UyeXB1S2pwUEJWOVZzX3cwazNQT2ljNk9Yb2tKazNYOWM2RDFr,French,,1,2016-08-07,Eloïse Foca,"",J'ai détester parce que je ne comprends pas comment sa marche on ne peut même pas connecter son téléphone à cette application soit disant genial,,
SMSdroid,Google Play,de.ub0r.android.smsdroid,Z3A6QU9xcFRPSEdmUnhZWUtLbHRibUQ4Q1BTWWVDaFEzbmZ4d2hFNGduN1dDbmU2c18weTBta3JVWlN3VjBVRG9HSmRfQ2NBUmlVM1ozRDVJV3huZ2pBQTdn,French,,5,2016-08-07,Léna Et Ses Furets,"",Je cherche quelqu'un svp,,
SMSdroid,Google Play,de.ub0r.android.smsdroid,Z3A6QU9xcFRPSExHZEJLck4xVFFhbmgzaVFfcnc2M1RaM2ZhSmZUYkR0N3VhTjV0MU4wdHdLTFltLUJwc0NyQ0RaakJtOTNmWktjdXE3aFoxQVF4VGt4NElr,French,,3,2016-08-02,Rolande Joseph,"",Message,,
SMSdroid,Google Play,de.ub0r.android.smsdroid,Z3A6QU9xcFRPSGRza0RleEIzLU1iRlhjLUh6OVVfMFJOa09XLVNUdFM1eFRMcE5DemE0bGY1NTlvVl9tZHJVSllpRW1ZZkd5MHZHc0JYbnVHalM1YXB3RG1z,French,,3,2016-07-22,thérèse CARMAGNAT,"",Personne me répond c pas normal aider moi svp,,
SMSdroid,Google Play,de.ub0r.android.smsdroid,Z3A6QU9xcFRPR01ZbmVPR1JpcmFIeTJOTEV4TG82cXlGQWpIcThabkREMmdHNjJ0U0hULURzNXo3emMtYTFrRWJWekQ3VjE2TVQ4LW1jUDJHbFQza1hBVnlJ,French,,2,2016-07-21,Landry NZITA NDOKI-MASINDA,"","Je cherche une application qui peut me permettre d'envoyer un lots de messages au même moment. Donc, une application de messages qui peut envoyer même 500 SMS au même moment",,
SMSdroid,Google Play,de.ub0r.android.smsdroid,Z3A6QU9xcFRPRXpkc25aN05GbDc1aVN6eV93RGFfa2kyaDRXWWp3Q09QYWVPWXctUUhFZGtlQjZnUHlRNWc1NTlybGV5V0xRbGpUMW9ONWtaUDFzdVdBQUVr,French,,5,2016-07-19,Salim Rachix,Wewe,Wewe,,
SMSdroid,Google Play,de.ub0r.android.smsdroid,Z3A6QU9xcFRPRjdwMkVadVNMaVNmWUNSZTRQUms4R090MDRSQ3VNSm9CSjdKY1JaN1VoQzljTFdVTUN2TUpSSUc4S28xbE4xR3NnejJRZjdVblVqV0U0Z2lr,French,,2,2016-07-09,Yanis Go,Trop de pub,Je n aime pas cet apli car trop de pub,,
SMSdroid,Google Play,de.ub0r.android.smsdroid,Z3A6QU9xcFRPSFFMZUk5S0l0Y2FDUGdnLVllZVQ0N0JkR3VSTmhQTUZVbVl6OU1OVWU5dnVRZmszaHpnWjlfTWRqVkpQdG5NcmhnNzR0TUNHSVdDRWVfQm84,French,,5,2016-06-22,Mooing Gaming,Tres bonne application,J'envoie des SMS tt les jrs à ma mère qui habite loin séparé de mon père 😅,,
SMSdroid,Google Play,de.ub0r.android.smsdroid,Z3A6QU9xcFRPSGd6bGE0S0xpeENuVUs3XzlCdU9HcV8yQ29PbjFfaXVXNUxrZ3VXeHc4d2hOZjdJT2V2Z1ptT3dXeDFORWZTeTVPT3RIM21oMnRhWlhISzI4,French,,5,2016-06-07,Arwen Kaouda,Arwen,J'adore,,
SMSdroid,Google Play,de.ub0r.android.smsdroid,Z3A6QU9xcFRPRzQzeDRERGJkZU1ieWgwbW1UUFoydmdqd25XbnVhOXNqemNxcFhFYU1NMVhJUUJDY3RER01EYUxZd196RGwtRTI2cVhva1p2bHVER1BuLUk4,French,,4,2016-06-04,Magali Bezaud,"",Ça me plaît beaucoup mais ce qui me dérange c'est les pub qu'il ya dans les message mais à part  ça rien à dire ^^,,
SMSdroid,Google Play,de.ub0r.android.smsdroid,Z3A6QU9xcFRPRnRlTWhsTVo2dHhQWEtxSkZJY3gtNjhSY29uRG5EeDRza1lKdFQtOXhraHloZVJnNFh0QklqX21UcEx4QjRZUEFDcktfVkJwT09LX0tnM2J3,French,,2,2016-06-04,Liz Baguma,"",Dommage que ça ne gere pas la double sim TECNO,,
SMSdroid,Google Play,de.ub0r.android.smsdroid,Z3A6QU9xcFRPRTFkVlJiOGh2bHdFcHhseXJ5dWgwM1ctb2U2b1lLQXExUXUzVVpwWGdwdE1ieGV6YVd2YmxSMFlUSVpiY2JJTDBwbEJ2WENTQXYxWTI3cGJZ,French,,3,2016-05-21,Grace Moranga,"",Bien,,
SMSdroid,Google Play,de.ub0r.android.smsdroid,Z3A6QU9xcFRPR3NLeF9JVXNfcWYtZ2N0ajdZLVdITV9QMms0MWZfeHNhWlBXaVNDbXhHaEZmaGdxSHJKa0lpRE1yMmJpRlJTSU1zc2t2aWdmZFhTTi04dnRJ,French,,5,2016-05-16,Manal Zerifi,"",Je sais pas comment sa marche ????????????????????? Qui peut m'aider,,
SMSdroid,Google Play,de.ub0r.android.smsdroid,Z3A6QU9xcFRPRjJyRmZtc1lwaXZxZ2NKMFVMQk1pOE42ZkJXblBFWXp0QU1YeWQzZ042cXdyN2cyMThSdDdKcmEzSVdVcWpzajZuSEVWY0RYOGZQX19xYUx3,French,,1,2016-05-03,Tanguy Cosquer,Je ne sait pas comment sa fonctionne,Je ne sait pas comment sa fonctionne et si quelqu'un peut m'aider c'est sympa,,
SMSdroid,Google Play,de.ub0r.android.smsdroid,Z3A6QU9xcFRPRkMwWmlhTC1SaGN6Z21yQUxBQjR6VFlxYzFGYmZDMHo0WjJVaXYzNmdfay1lNnZBTlRiZFlVcWVFbHJIYzFxRHdXcWtHZ3huWFZ1ZDhrako4,French,,5,2016-04-28,Philippe Weidmann,"","Bonjour.  Je découvre cette application, vraiment bien, légère et fluide. Malgré tout, beaucoup de possibilités de personnalisation! Pas de dysfonctionnements à signaler. Et j'utilise beaucoup  le texto. Je ne comprends pas trop non plus les commentaires négatifs! Dans l'idée d'améliorer encore, la possibilité d'effacer les  messages en lots pourrait être un plus. Bravo et merci.",,
SMSdroid,Google Play,de.ub0r.android.smsdroid,Z3A6QU9xcFRPR3RmWmwtU0hfaHZwMTJOZnJxYUx4MDNTbWF5RkZCU3dnZXNFQ1Vfb2ZicHA5ZzhHWkI1RVNsZzFWeTNTaDlwZnJjOUszSGhPNVlma3lJYm1V,French,,1,2016-04-27,Neville Bute,"",J'aime bien cette application c facil a uttilisee,,
SMSdroid,Google Play,de.ub0r.android.smsdroid,Z3A6QU9xcFRPSEt5R2pfUENrWHhJcjJkVGRwS2tGaEluZDZQVnFQTTFwOHo4UlVQRWtuSHM0U1VER25sZWNhQW05aHlUbU05ZnJrWjlrRVRqMVBwbURWUDVn,French,,5,2016-04-27,Ele Gnap,"",Je comprend pas pq autant de commentaires négatifs. Cette application est géniale et fait parfaitement son job.  Bref merci pr ton boulot et continue ;-),,
SMSdroid,Google Play,de.ub0r.android.smsdroid,Z3A6QU9xcFRPR1BqTkJYVDhWOFFUQTJQa2ZQM2JTQm5oQWRaSno1enZoY0JrTlV4RG1pZmZ3VHo2bnJxUHdOb0lHMmQ0RHprZVFSd3Nob3hEMWZ3WXlLS0hZ,Arabic,,5,2016-08-09,كراري.ؤليف كراريبؤب,المنواب,الوصف,,
SMSdroid,Google Play,de.ub0r.android.smsdroid,Z3A6QU9xcFRPRnowUjh6ZVlVZElsdTFTTWkzUi1lOTBFYmU0ekVjckpnVXFmRnFoUjVsSFRCR3QySEhBZFpvaDlLTWNibUpaYks0OVJyY1lWc0t4OTJfRTEw,Arabic,,3,2016-05-11,ورده العتيبي,التبتبابابتا,مين يعرف الرمز,,
SMSdroid,Google Play,de.ub0r.android.smsdroid,Z3A6QU9xcFRPSHdzYnhyZnk0VVllVFk1TUQ3djhMWTcwSmRieThtbC1CVnlQRkZBTThfMU1fU1NMc1kzekhJeDBzSVdZZl9KLWUwelVObVNrc2YtTXd0aE9v,Arabic,,5,2016-05-09,Abdalla Awad,"",اصلي,,
SMSdroid,Google Play,de.ub0r.android.smsdroid,Z3A6QU9xcFRPR1dsRkNoN05vNkh1a3FKTVhtelhubWhUWXF1MnNodDA1S003bXFUbk8yT3c3TmhZbUJndm1heVlIaVhCTGJDS1FyTGNmQkF3Tnc4VEIzLVpV,Afrikaans,,5,2016-09-09,Google lst,To,Joey,,
SMSdroid,Google Play,de.ub0r.android.smsdroid,Z3A6QU9xcFRPR0dfWUROSkJKVlJLUUZtTkVKdEQ2dHZtY2V4aV9JRmw2RmdNbXJKRDlmSzNiZjd4V3l4Y3cwVDBVU2NPR3pDaG9CZEhHZWlCNURhcHVRbzdv,Croatian,,1,2016-06-21,Adna Nasic,"",Glupo,,
SMSdroid,Google Play,de.ub0r.android.smsdroid,Z3A6QU9xcFRPR0JPVFhsMkcyZ29nRGduUlZSOExVbHY4SDBkNjZZVkJWbU9tWnBFeWpuTW1MX1lOcFE4dEpmRWxXdl9GaTFwT2dNNkYwelM1bEVTT1BFMnU4,Czech,,5,2017-03-19,Wejaru Qer,"",Super! Můžu posílat zprávy i přes tablet asus,,
SMSdroid,Google Play,de.ub0r.android.smsdroid,Z3A6QU9xcFRPRnFyZ21vVUV1WFhldU1sdm9UcWo0T2lrZTVZUlJWU0ZKZUdtV0hZdF9xbFZOM3pWcFFMU19GVll3SlFDcXdaLTY1eXdVRlhFWWFBR2M0ZlM0,Czech,,4,2016-07-07,Tomáš Kosina,Dobrá app...,"...ale klidně bych si zaplatil, aby tam nebyly ty reklamy",,
SMSdroid,Google Play,de.ub0r.android.smsdroid,Z3A6QU9xcFRPRnBhX2F3SGR3dDRUVmJTUnBWeW5ia1pDTmp0cnZNSExIRkpKbTMtUC1BbVluMW9tbGJSSnVFdmFCdTZraElRY1VyWEhHTVVXTmdCaHFIcjZF,German,,4,2017-03-18,Hanspeter Eberle,"",Immer noch DIE App im Zusammenspiel mit WebSMS.,,
SMSdroid,Google Play,de.ub0r.android.smsdroid,Z3A6QU9xcFRPRy1ZWm44T2lWXy1vbTF3UFd5T0pSWTNEWUdQVDFubFVLbmVHd3VZSnd4YlZNclFYd1JjY19jVnVwTTJtQ0ViOE1STDlDdmdfYnkyWlRjWlBn,German,,1,2017-03-18,Wolfgang N,"","Vielsagende Fehlermeldungen wie ""Fehler"" sind eine Offenbarung für einen Programmierstiel von völligen Programmieranfängern.... Obwohl, immerhin wird der Fehler überhaupt abgefangen und die App stürzt nicht ab. Das ist teilweise mehr als Google oder andere Programmierer hin bekommen. Bisher hat die App noch keine funktionierende  Aktion gezeigt, die etwas mit dem ursprünglichen Zweck der App zu tun hat.",,
SMSdroid,Google Play,de.ub0r.android.smsdroid,Z3A6QU9xcFRPRjNYTEFUby1iSXZhUTdjMUNxemRRV3hlak9mRDZ0UmlXUWNucnJ1aFJ5bndPQ216Y3pWRFg1ZUkweS1UUzBac2VEYjFaZnd0SnY3cW8xanBZ,German,,5,2016-11-05,"",Sehr schön,"Endlich eine SMS-Anwendung, die sich gut konfigurieren lässt und sich nicht in den Autostart schreibt. :D",,
SMSdroid,Google Play,de.ub0r.android.smsdroid,Z3A6QU9xcFRPR0pqcnZFUWZQM3NDcjd0VGpIY1BGQk95R2NIcVFKUE01dHlJS1lGOFN5OWFRUTR4Rm85NllsTVgwdmRSYXktY2pkX1NUOWR2T00wdGUzamFJ,German,,5,2016-10-09,Sigrid Zacero,"",Sigrid Zacero,,
SMSdroid,Google Play,de.ub0r.android.smsdroid,Z3A6QU9xcFRPR01fNHlQS255LTdoY3pHN2VOei1wREFteG9nOG0xZEE3OXJhb0tWVDlVN3FIVGZsZjFjblBudUdDTTNnYm9sU19wR0ctODFsTHl6VVRoSlln,German,,5,2016-09-03,Whitney Mtfn,Paolo,Matufuana,,
SMSdroid,Google Play,de.ub0r.android.smsdroid,Z3A6QU9xcFRPRWhKWjJnM1pHa3VRQnd4Q1k5YlpURmlkWVJwZFpPbnlaNmVtUWZRTmFiT2ZnUldnSjdmVDNtWHRMdlNaM3I0MnFJZmlCZ3ZuZUpLNlB3cVFB,German,,2,2016-07-15,Peter Kern,einige fehler,"schriftgroesse in nachrichten zu klein ,kann nicht veraendert werden und mehr ....loesche wieder !!!!",,
SMSdroid,Google Play,de.ub0r.android.smsdroid,Z3A6QU9xcFRPR2tuYXk1bHRjSlc2c2d3aVhQMnZQUUhTWTA5Z3AzOXp3TDhfSjRRTDNwRE96VmI0ajhQaUsxWnZpYXh4Vlg3OHpQc2pEZmRSX3RTQ0FVamYw,Hungarian,,5,2017-05-06,Zoltán Jánosi,"",Mond hatni jó    Zózo,,
SMSdroid,Google Play,de.ub0r.android.smsdroid,Z3A6QU9xcFRPRlBQM3dyMUJrcEtDRzNkZUpBOFVuQkhLaHg0dWV2Z2Z0VmFRbE5lcTZsTXh3aFRvR2NVbi1tdXFzcjFRWEQ5NGlub2lPTy1sMkFXdm5KV3NZ,Indonesian,,2,2017-03-01,"","",Dua dulu ya,,
SMSdroid,Google Play,de.ub0r.android.smsdroid,Z3A6QU9xcFRPR2V0UEJCSy1PZUZzaFBHTWRiMXUxQ0VhWTd1SzZrb0tTTTdhTzRFMjhVRHBRLVo4OFg5RF9SdjNyTXFQNVUxejhaY1Q2Q3dlX2p3M2V1MjJj,Indonesian,,5,2017-01-05,"","",Ok,,
SMSdroid,Google Play,de.ub0r.android.smsdroid,Z3A6QU9xcFRPR0p4ZWQzRzBGWUJNM244M0N4Sm5BdmI2NjNtZldSS2xub3ItMHNWd0w3MUlHVjI5bnN3LWU5Tm8zckFtTXhFRDhNQm9RUTRiNHRUZjFYNDd3,Indonesian,,3,2016-12-23,"",Coba,Klk bagus pasti aku kasih bintang lg caba duluk ya 🐣🌝💁🙋👍👍,,
SMSdroid,Google Play,de.ub0r.android.smsdroid,Z3A6QU9xcFRPR2Q5VHM4SENOTzB1Z1k1amUxSEZwak9OT1AzaWpIYWpNN3hCVHhwR3RvZDBVZi1LN3VpNmhZdjNRVjZZZ1U4YUhfT2s3eHFRRk5TUFl5dldV,Indonesian,,4,2016-11-08,Andi Setiawan,Bagus,Lebih di tingkatkan lagi,,
SMSdroid,Google Play,de.ub0r.android.smsdroid,Z3A6QU9xcFRPRkdlVU51NGY4X19HRzI3RXUzUk45VWlzVng5Xy1KdkxVN3JpZkNYdUVsTkFGOUpDTmVuYVRvbkVzVmU1bVRLZlR6aG05WEdrbmRCN0EyTTlB,Indonesian,,4,2016-11-02,Royy Sandi,sip,bgus ey,,
SMSdroid,Google Play,de.ub0r.android.smsdroid,Z3A6QU9xcFRPR2xjYVRueWNmbFhsTHhLVE9WaV9jRWtJb2U2bW9lTGVzTmdOOEpSN2NmLUktdUsyM0ZScEdEMjFHZkc0NHlXWi0yMUJ6SU5kV3NQNzFlVnI4,Indonesian,,3,2016-10-15,"",LAPORAN TERKIRIM,"Tolong dong dibikin ada laporan terkirim ny setelah kirim sms , biar tau sms ny udah terkirim apa pending ..",,
SMSdroid,Google Play,de.ub0r.android.smsdroid,Z3A6QU9xcFRPR05udEF3bHd2d1d6d182Z0hOSHAtOFUxNEFqcGQzLWxtd2ZFY1haMkhMeDJDVXRCbkFZYXZfZnhtT0JZOHlIMXUybWJMc0NYS18tbGJxZngw,Indonesian,,5,2016-10-09,Tarino Sampit,Ee,B,,
SMSdroid,Google Play,de.ub0r.android.smsdroid,Z3A6QU9xcFRPRXo3ZHNObXFEWEZodkdkdVBjNzNtc05xWnVVY2hUeWVxaG94b1BHNG9DLXFlNTVuMWsyVHJ5RUpuTmlrMk9pb19kNVp4SmU2dGwtR3g5OFZN,Indonesian,,2,2016-09-02,Inur Ainercy,I,I,,
SMSdroid,Google Play,de.ub0r.android.smsdroid,Z3A6QU9xcFRPR1dNYnJtYldMNlUxNzBrOEh1TWx1R0c1MEsxcGpoLVp1UHhSUm1kZXhiU2lKREFPMXF1SDcxSTl5aWdOaDNBM3Q2ajVzTnhtMHJadVNLaENF,Indonesian,,3,2016-08-17,Tiro Tiro,Gennastiar,Nagus baget broo,,
SMSdroid,Google Play,de.ub0r.android.smsdroid,Z3A6QU9xcFRPSFZkdGxWQkNpSjU5ZTY4dU10YWViMEtLSVlBaE1UdWRCd1NJQ0txTGZyOUdpek51MDRtWjNWdGJ5cmdrRzR3dFV1amt1OTZ5YUNzWjFoc09n,Indonesian,,3,2016-08-15,Morizy N,"",COba tuk kontakx jg,,
SMSdroid,Google Play,de.ub0r.android.smsdroid,Z3A6QU9xcFRPSHZRQVp2MlpNdlZlM29LbnlrX2hEZlludk8zb1ZhTWhmdUNhUVl4dFhqYW5EMTBFMkZuaWxqelNaaTkwSXBGdmh0ZnNUVUFYOWxpM1VJTEpz,Indonesian,,1,2016-07-11,goil hore,Bagus,Tapi banyak iklannya!!,,
SMSdroid,Google Play,de.ub0r.android.smsdroid,Z3A6QU9xcFRPRVg0RUhmalZTSFY4UkJaVEgzdUpXM0J3d0dubFJ5MFMwQWNEMVRUX0Z0bXd6eXNfSFF4QkxvRW1HRDMzQzRrYnJDT2poOWtQVVJpdkVUenBj,Indonesian,,5,2016-06-07,Rahman Bhandel,Smsandroid,Sej,,
SMSdroid,Google Play,de.ub0r.android.smsdroid,Z3A6QU9xcFRPRUh1SF9wemxHU3pCQXN0S09CdktUT2swVmhpQWpnYzJQYzh4RzdNYTNCSW1za3Z2aDRVU2tpbUxqYTdnSTBiZHdCUmhvT3NRd0NJVE4xcUhF,Indonesian,,2,2016-05-10,Iip Apriatna,"",Coba dulu...tpi blom ke buka,,
SMSdroid,Google Play,de.ub0r.android.smsdroid,Z3A6QU9xcFRPRmliYzZUX3JZT29SQXMxNldCb3lzSDNoMUE4QVNCZEgwNVlaRWFqV3FIR3p2VFB6Z1paVUNQSF9HVHFyYmw4WWdRYkk1MnNJRHEzRTdOYnV3,Indonesian,,5,2016-05-05,Lufyy Lestary,Lufyy,Pesan nh memang bagus zkali siiiip.....,,
SMSdroid,Google Play,de.ub0r.android.smsdroid,Z3A6QU9xcFRPSDJqR0ZlMGwyVGpMZmtBSW5ZYkUydnpyVkUzSmxrRXN2akIxcDhLaE9YanNXTnExRjRvQUZkQ0NFY0pHTHpTcEFzS2R6Y291NWY3STVPRFJv,Malay,,5,2016-06-12,Pengguna Google,"",Love it,,
SMSdroid,Google Play,de.ub0r.android.smsdroid,Z3A6QU9xcFRPRXRMNjM1T0FzZDg2TGEwdE5DUlJfMzZ2b0JDNG5rOVFLYzc5ZEowa2MteE13V2VBMHZuZy1XQnR0LVR5YjBIWFk2SWlTWnViOEZITFM0Sko0,Polish,,3,2017-03-11,"","",No nawed fajne,,
SMSdroid,Google Play,de.ub0r.android.smsdroid,Z3A6QU9xcFRPRjlVcGtpVkRudnk3cnRnbE10UC1EckZpbFdscUptZHlwWFlYVHVPMWJXOW5neE44YlI5Q3EyTGVvWERhbG15M0R4NURxMm0xa2l2OHZYRHYw,Polish,,4,2017-03-10,"","",Ok,,
SMSdroid,Google Play,de.ub0r.android.smsdroid,Z3A6QU9xcFRPRk52QlNxVXVfc2xMM2ZaWTVYTzhIcGd2UVNyS19tZWNRdnlzYUpLa2dTdmJ5d05Xdjg0NGpXOTgwWEZ4NXdPZmRrZ2t0bjVZdml4bFhZOUE0,Polish,,5,2016-10-20,Wiktoria Wierzbicka,"",Fajna aplikacja,,
SMSdroid,Google Play,de.ub0r.android.smsdroid,Z3A6QU9xcFRPSElhQ1dyU0tfX0NOZnhuVGdUeFpYSnBBeV9lR19GZUpRR1lxNHNQNTRZZHVuLUMzUEhHV1ROZm40UWFTYkp2ZVluRFA3cG9GMGI1TjlHMy1n,Portuguese,,5,2017-05-19,Camila Silva,"",Bom quebra galho,,
SMSdroid,Google Play,de.ub0r.android.smsdroid,Z3A6QU9xcFRPRTBoVjBySGlEQ2ZlOEw4VXBIcGc5SFpDdEIyaU1MYnpqbEtOb01pU0VVTW1UOEQtT2ljNklhbFMxUjhZbV9YbWZNajZLN0huYS1qZS1zT2pR,Portuguese,,4,2017-05-18,Mayane Paulo,"",Gostei,,
SMSdroid,Google Play,de.ub0r.android.smsdroid,Z3A6QU9xcFRPRW93V05OMDR5cllQNmRGRmhzbHV1WkRNc1ppX2JFcDQyWG53T1ZkSGhhTU9PUGZsSHhFX3ZHUTFlOGs0czVVU1VDdF83eWM4UWk1bDlWQzVN,Portuguese,,5,2017-05-16,Robson Rodrigues,"",Sem palavras,,
SMSdroid,Google Play,de.ub0r.android.smsdroid,Z3A6QU9xcFRPRjE3YVgwZ1N2UzBfVFJFSzBFbEJIVGRyTFNfYnJYRTA5QlZ3ZDhFaXRFS2lsSkZZM3NnbUZubWtzUGlHcnExNGl4OUxaTXVmWmM1ZkRrcWE0,Portuguese,,5,2017-05-07,"","",Muito legal,,
SMSdroid,Google Play,de.ub0r.android.smsdroid,Z3A6QU9xcFRPR2tFOTk3c3N2UWFpOXBvZXN3R1JGcVJNOUhaQjFDN05TM1lVYzBMVklvLWtZMldVdDc3U1ZZTlAzV1hkZnRXMEN3T3RBMTFGSGc1eElsMlow,Portuguese,,5,2017-05-05,Noemy De Araujo Rodrigues Araujo,"",O máximo,,
SMSdroid,Google Play,de.ub0r.android.smsdroid,Z3A6QU9xcFRPRk9wZERRZ21mS0E2T0RwbFhNZGJna2ZiUVM0SDg0Vl9Ob0pnMlA5cVVGM2dOaWYzT2FObzdyYVVhdk1keVdZUVU0ZmdqRm5HSnRHc0NBTlFZ,Portuguese,,5,2017-04-25,Larissa Manoela Taques Elias Santos,"",Mail god woll roley,,
SMSdroid,Google Play,de.ub0r.android.smsdroid,Z3A6QU9xcFRPRlFlM2JlSll0UXJCa3p1MFBkVjZONnRoajFDTEtfS2JmVVoxLVZ6cDVCZkdEYVhEdFFKdWMzMExNams5U3R5VTF4VEQ0c3RwWk5qZHMxbHpJ,Portuguese,,1,2017-04-15,silvio luiz costa silva,Sivio,Luiz,,
SMSdroid,Google Play,de.ub0r.android.smsdroid,Z3A6QU9xcFRPSGJlbllrQ2YzTjFGX3Rwa29IdW11bW5hbXNfZnlFdFNBZE8xbDBKSllrajFGRnN0cEtCcU9WZHJnSS0tZklFVzM0QzRYaXVNX0Y4OHJpTFZF,Portuguese,,5,2017-04-14,Franklin Roosevelt Palácio Jardim,"",Recados,,
SMSdroid,Google Play,de.ub0r.android.smsdroid,Z3A6QU9xcFRPRUR4cjh0SmhkdDBSdm5HLXU4UlphVmZ5WC1QLTQ2QVBad0hDU3UzRWRSaTJuX2t3ZWJUX0hXYzljVTd0am01MEFaeDJLdzUzeUZDUXFGOW5z,Portuguese,,5,2017-04-12,Ana Julia Gouveia,"",eu  adorei,,
SMSdroid,Google Play,de.ub0r.android.smsdroid,Z3A6QU9xcFRPRi1XOTRkY1cwOW9uSXJlV3A4UzdqemJwcm9kbEI1VG9GRzh3SnNZMXBMc29DWDVhX2pwM2hKVDZ6TFdoak5xbmlydlJMdnk4WEc5eURPWGRB,Portuguese,,5,2017-04-03,Marta Varela,"",Ainda nao sei bem,,
SMSdroid,Google Play,de.ub0r.android.smsdroid,Z3A6QU9xcFRPRkVobHR1T0Q1SnphX3RwU0RRSll1ZnV5MWlZYUNmQjVxWC1BclV1OXpXM2RCYW8yZ3hTdkxMYXBtVWdsTG9TN2VwX2JrOTgtdXBvVnQ2dEJB,Portuguese,,5,2017-04-02,Inês Augusto,"",É legal,,
SMSdroid,Google Play,de.ub0r.android.smsdroid,Z3A6QU9xcFRPRk9MNkNjRUo0SUQtTm10MFY2ckVNZTN0V1J5b2pFd2JDeEd3b0JDaG4wamxDVEpjdlVTS2stS3RRTUplWVBsaGNQX1ZJTGNSNkI1X3BHSDJz,Portuguese,,5,2017-04-02,"","",Ótimo amei,,
SMSdroid,Google Play,de.ub0r.android.smsdroid,Z3A6QU9xcFRPRjhWNFNBX1JwZmRvMndNakJwTC1BTEtFNTRVSnVqYkQ2aGcyUU51YUtfa2xhamRjSjBmanQ3OWNIbktvUmRocWx2NV9iQUNGMFVYaHVFSXhr,Portuguese,,5,2017-03-23,José Humberto Michiles,Muito bom,Adorei meu celular n é bem um celular e sim um tablet mas consigo mandar mensagens,,
SMSdroid,Google Play,de.ub0r.android.smsdroid,Z3A6QU9xcFRPRTBFaWFzTDVfcUo2bl9KN2tpendsb2VmcjdYcDJrVEZlRjVpMzJfUk81M1N1MmdKcEpXRjdEQUFieHJIN2dYc253cjhCSmpieUdNMkZZNW5F,Portuguese,,5,2017-03-19,Sissy fox Gamer,"",Nem tenho palavras,,
SMSdroid,Google Play,de.ub0r.android.smsdroid,Z3A6QU9xcFRPSGc3SWpjT3p3dV9yTGtKQTNaYUNuUlI0SEdzWnByOXRyd2MwZzZxZTl4VXZabDFIMHZuZVlHUHZEVlY2NzZvczVWZHFNSkdkdWhwTjVIUkFJ,Portuguese,,2,2017-03-09,"","",No meu aparelho so envia  Quando recebo e hrs depois Isso quando recebo,,
SMSdroid,Google Play,de.ub0r.android.smsdroid,Z3A6QU9xcFRPSFU2S0Q4M0V6MDF0QldjenYyZ3JZckxYU2hfaEhwcTlpYUFualF5dTJwcGkxS1dBdUtRRmtPZFhGRVNYb0VrWk9Cd0NpN3JCNlQ5ck83NkQw,Portuguese,,5,2017-02-24,Amanda Santos,"",Gente eu gostei mas só que eu mandei uma mensagem par minha mãe e mão sei,,
SMSdroid,Google Play,de.ub0r.android.smsdroid,Z3A6QU9xcFRPR1JmdDNERzFYNnVmMjNYSWczQ1dHNVBNQTNLSzBpUUhnSldXQkdSQXVQUDdYS0dXaWJHQ0JDVm54M0J0Zk5xMTBfQ0xFOF9YYTZfSlJjUHRR,Portuguese,,5,2017-02-24,Ceciliane Pereira,"",Gostei,,
SMSdroid,Google Play,de.ub0r.android.smsdroid,Z3A6QU9xcFRPRUp5REd5Njlya3pRUDdyNk90UFVubU9UaUtRMXhOUVctU05ZY09LaUFTLVZlTjRVM1BhRkh5b2tHelVsMFcwMFo0MVdGVWo3MWt2eTJ5Y0s4,Portuguese,,5,2017-02-18,"","",Gente meu app de msgns parou aiih não tive como mandar msgns aiih baixei esse app e Gostei muito baixem vcs não vão se arrepender 😊,,
SMSdroid,Google Play,de.ub0r.android.smsdroid,Z3A6QU9xcFRPRmdVQ1dtN0FuY0tLZTVUUE4zNF9YLW9jbmFNQk5CYTM5SmxhZVk4MDBRb0JGU3VsNHpTdk4ya25iY212ODVrd1BBNnA2elBzUEJBS0hrZlRz,Portuguese,,5,2017-02-18,amandio caomba,"","Adorei,  n ocupa muito espaço como outro.",,
SMSdroid,Google Play,de.ub0r.android.smsdroid,Z3A6QU9xcFRPR2pacHk1dkRGb012UkMxd21xWU5JMmtPdVc4eHJIb0J5Unk5ekJNa09WUk5MT05wYzRhb2NYTGFyOC11cHRpNHdIazBVb2NuSXVPRENud0JF,Portuguese,,4,2017-02-16,kaim Moisés,"","É bom sim,eu gostei",,
SMSdroid,Google Play,de.ub0r.android.smsdroid,Z3A6QU9xcFRPRTFFbWp2VjlCZkI0TEx5ekt3WUVSYjNjS3l4Ums5eXAzQWhTVDNTaW8xSUFLM0R1SFIzaDF4Z0RBOU5Ma2RzSGtWTGk2UEMwbkVfNXVBeXRn,Portuguese,,5,2017-02-02,Taiga Aisaka,"","Ótimo, principalmente pq não ocupa muito espaço igual a outros.",,
SMSdroid,Google Play,de.ub0r.android.smsdroid,Z3A6QU9xcFRPR01BSmdlbDhrdUFJQ0dld1lmMnZiMDAxYlZVR21abnRBLXR3VVB6ZVRfQ3dtTWUtQVBaU2c2SF9yMGVqRnNVZ3h1QkJZOUYxV0wzZi0xekRV,Portuguese,,1,2017-01-08,sandra vieira,"",Não consegui abri,,
SMSdroid,Google Play,de.ub0r.android.smsdroid,Z3A6QU9xcFRPRmhhaW5jMTZCOTJ0bXc5Y1dNMnJwRERSSlJfV1ZOa3ZZN3dPQ2ZRdzYxc0xUbFZ4a1YyNG40Sk1Yak9lUm5fMzBWN09obDlWZHBZcGNyNUt3,Portuguese,,5,2017-01-04,Isabelly Cleires,Gostei,Não precisa de tel uhu😀😀😀😀😀,,
SMSdroid,Google Play,de.ub0r.android.smsdroid,Z3A6QU9xcFRPRzN3Vko3b3ZVbnpTMy1SZXROVXR6LVlMN0Q0WXl1ZEZNODVhbEI4aEFGemZRVVR0WFZlT1NBRkItdk85Tm8wODNoZXFHU3NMMDJnZG5rQnJn,Portuguese,,4,2016-12-14,"","",Gostei😘,,
SMSdroid,Google Play,de.ub0r.android.smsdroid,Z3A6QU9xcFRPRWh4QjRZLUt4QlV0ZFcwMjhRZDRUTUJhdWo3T1Y0X19pdkh1SFhRbE5pT0lXV3Z0dVpxMTVNRnp5OW00WTZDVGxSY25wdHc5TUlCSUlLdkFz,Portuguese,,5,2016-12-10,Chester Atus,Boa,"Eu tinha apagado, sem querer, o sms do meu celular, agora esta resolvido!",,
SMSdroid,Google Play,de.ub0r.android.smsdroid,Z3A6QU9xcFRPRUJtcEt1UnEzY2NkYW53WXY1dVg1TTFvSUhJWUhYaFhkczZnWUYtN3I4elBDcS1wSjlmdG05X2FVSVdFX2VXT3JQZVItSnRhVjVSRmRjSjJ3,Portuguese,,1,2016-12-09,Mauren Adrielly,"",Duvida,,
SMSdroid,Google Play,de.ub0r.android.smsdroid,Z3A6QU9xcFRPRzRKZjdvcUIzS1FaOThjczBlb3FrUHVmc1R1eDY1c2hKMjJGbTZlRFVyVGh2NzJKYmF4S2kyb2pGbEZiV1EzLXpXZV9qWW5qdnljdkNXM19n,Portuguese,,3,2016-12-06,Beatriz De Jesus,"",Nossa dois segundos,,
SMSdroid,Google Play,de.ub0r.android.smsdroid,Z3A6QU9xcFRPR0c4SnZRRm1sRlNjaldXWWIxZHFzLWVoR2lkSkVlblBQUW1kNlF2UEpnWlFLNTJkNjZvWHJsOThKR1V2VG9fX2NqZ3Rzcmo2NHFZeXRWR3d3,Portuguese,,5,2016-11-12,vita silva silva,amei,Este aplicativo,,
SMSdroid,Google Play,de.ub0r.android.smsdroid,bGc6QU9xcFRPSFdtakZreVhwRXpZNEhBZWgyOHBvNllzZTZtNVdJU2RybXhkZENLQ1ZqcElBWDN2QzdFb3dSUTI2NnBnREd4ZzNJNS0tei1CWk5LZk8tWWVR,Portuguese,,4,2016-11-12,Um usuário do Google,Amei,Bom salvou meu fone,,
SMSdroid,Google Play,de.ub0r.android.smsdroid,Z3A6QU9xcFRPR3p0THh6NkU2cENOQnlvQzFqbHRaLS12ZFZiZUppY25VNVRTamlvTFpab2JyUVBwa0RWb1VhUV9sWU9jQThCMUlEeHZ2NU9POEdENmFlSXhz,Portuguese,,4,2016-11-03,Livia Cristina,Vou ver,Se for bom,,
SMSdroid,Google Play,de.ub0r.android.smsdroid,Z3A6QU9xcFRPSEtYLUZaOHAybklRaVhHSTRBX2VfSmF3SHAzS2ZvbkdIc3BQR2pnNzVUdFVhRWRZMnFCMFE5Q1o0bkNadkxSZHRuQ3BWc1FGcWxaWVBZUjZZ,Portuguese,,5,2016-10-25,Mandala 2013,"",Adoreeeeeeeiiiiiiiiiiiiiiiiiii é o máximo cuidado com o vendedor,,
SMSdroid,Google Play,de.ub0r.android.smsdroid,Z3A6QU9xcFRPSGZ4aE9vZ2hBRGNONHM4aEh0dGctWDd4R3pkWXBnbElIRi1JaWJ0Q1N1R2o3UWdodUtZR1lIaUhjd3V6MEtpVUxVbmhmRjZlb0hBNU9QVE1V,Portuguese,,5,2016-10-24,josefa Alves,"",Amei,,
SMSdroid,Google Play,de.ub0r.android.smsdroid,Z3A6QU9xcFRPSGZ1ODAzZ1IwTHV1dEpfMXZwRHctN3RhNmpGSlVrRG1GYXBYNG4yVmpkZl92TmdzdVVRWExWYk1CTVpIdTF6T1pfNDJNdlpwUjFsYlRraDlF,Portuguese,,3,2016-10-22,Tata De Souza Torres Torres,Esse APP é satisfatório mas eu não gostei muito não,Eu aconselho a não baixarem não e tão legal assim 👏👏👏👏👏👏👏 más até que gostei,,
SMSdroid,Google Play,de.ub0r.android.smsdroid,Z3A6QU9xcFRPSHZkT1ZuTmRPZ2NpUDNOUmprU1RXWEIxaVEtTEZJTTlUU29nTmxRdDJiNUc4Q0tjTXp1dElMdmxxbjMzZTRqM1p3a2VsUDA2eFI3TnJWeGo4,Portuguese,,5,2016-10-21,Rafael Gomes,"",Fixe,,
SMSdroid,Google Play,de.ub0r.android.smsdroid,Z3A6QU9xcFRPRU45c216Q0pVZVNmVjNPSFQyT3hMMklkblc1ZTljUTFEdjY5OFRjSUxEWURCZGNGcFFBVlppMzBRcGhzckpaVlJCdWZwTklfMllsNHMxUmtR,Portuguese,,5,2016-10-18,Marcia Silva,Marcia Pompeu da silva,Marcia Pompeu da silva,,
SMSdroid,Google Play,de.ub0r.android.smsdroid,Z3A6QU9xcFRPRjdUU09aZzNCOTZxVjM2SGJrd01QeW5iNFNFQ0IzbEEzSTNmaDEyM0JWbU9YaHRIejlDYVNWQmhNdkV6cXYwSEJFQVFOU2xacTdOQVFWSDFV,Portuguese,,1,2016-10-07,Francisca Lopes,A mensagem não envia !!,O que faço ????????,,
SMSdroid,Google Play,de.ub0r.android.smsdroid,Z3A6QU9xcFRPRVpDMllRaFYzU21rcnpST2J1YVZ5cXJVZGxoZ250MlhydUZvelFFaTdGTmlnTVlfbnNqbENJSmhpSjJmdjdZYUNnUURoQ1MxYTA4QXkwRUVV,Portuguese,,1,2016-09-29,Olivia Pereira,NÃO COUBE👎,CHATO😬,,
SMSdroid,Google Play,de.ub0r.android.smsdroid,Z3A6QU9xcFRPRW0zbDlyTGl1Qk1BWWZTNm9yclJyM1ozekQ5RUhla244c2ZMU1RTWk1JZkc4cml4Y0FOZ1E3UUJaWFRVNFdxNmlrN2lQM3ZEWGV4cVlVa2JB,Portuguese,,5,2016-09-24,Danielle Souza,"",Daniele e lucas,,
SMSdroid,Google Play,de.ub0r.android.smsdroid,Z3A6QU9xcFRPR2p5clBvVGsxaFlsR0VsdlQ3X0Nwd3pHYUNwcy1PazZKTy13ZkVwcVdRM3J5MFlXNEREdnJrTDJfODlRajFXUGlJSnQxbU9MTDEwcnlqaFFB,Portuguese,,2,2016-09-22,Juan gamer Felip,FLAVIA,FLAVIA,,
SMSdroid,Google Play,de.ub0r.android.smsdroid,Z3A6QU9xcFRPRUd4eF9IOHdJTXpHSW5lUWxYa0ZlU2d2cmxqWVkzZEFRSEd5dUU5S2U3Y2g5MGNKekgyWEpWbl85YmgzQmFLX0Zmb0NzVWRoR2d3TWtjZ3A0,Portuguese,,5,2016-09-22,Nayara Galdiane,"",O melhor &amp;lt;3,,
SMSdroid,Google Play,de.ub0r.android.smsdroid,Z3A6QU9xcFRPSC1uMjg4T1p1cjV4VkFodVFaM1FUall5T0Mta1pCVGctdk1SYjR1emZkdnV2cS1vVmZkS25UMTJTc2hiSDFrT2VlOS1jY0ItcHZ0NTFTdmdn,Portuguese,,4,2016-09-18,Maria Do Socorro,Corrinha Modas,Catálogos de modas,,
SMSdroid,Google Play,de.ub0r.android.smsdroid,Z3A6QU9xcFRPSGRGc0ZEbk1Edm05NEZ4aGlBeDVUQ2hNWHl2TXVZSG5xNTE0bVBJTHcyOE5WYl9vMnAzMnVNV3dpaEFTajVwOUc3cHY4UUQzSjNjNlo4V1FB,Portuguese,,4,2016-09-02,Lucineide Souza,"",💐🌹,,
SMSdroid,Google Play,de.ub0r.android.smsdroid,Z3A6QU9xcFRPRXNLXzVTOHNhaDYxTy1ZRUFqSWwzMVM2anRsWmY4ZmV2OFFOMGRTOGJzQ0JQTVZkNENhTjlRRkR4QjVWcTM2Q1E1RmNhdlpUaWdDUi03U2Q0,Portuguese,,5,2016-08-28,Micchelle Felisberto,Adorei,Muito bom,,
SMSdroid,Google Play,de.ub0r.android.smsdroid,Z3A6QU9xcFRPRXJtOTRXcW5qclBGd2tYSFJRekhLaFBfSjJKQmg4bFJ0M2FERDJqUG4xcGlQM1JKdlR2VExXNW5aY0l0SkkxV0tOT2ZYXzJkazl3Z0txVUFN,Portuguese,,5,2016-08-20,Keyla Lacerda,"",Adorei,,
SMSdroid,Google Play,de.ub0r.android.smsdroid,Z3A6QU9xcFRPSHQzWTNlNWlhRDJ1b2NoTTJxbTBZSFVRbmZuaWppRkZibklZcXBFQ1BMMkNNVDRWUTA2R1JSaDJ0S0huZjJDek9SSDljTmFiS3U2MkxYTnlV,Portuguese,,2,2016-08-15,Ademilson Calagao,"",Quero,,
SMSdroid,Google Play,de.ub0r.android.smsdroid,Z3A6QU9xcFRPR19SYjBrcTg2TWtXWHhQNHhKOHoyRkFVRlU1QTFVVEQ3TmdIczFVSURHTVN4SFBlLU1nWGZtay11NC1MTVZnZmZGb1NFR2ZNSHVlQ1hJZjZ3,Portuguese,,5,2016-08-13,Mateus Midanda,"",Mateus,,
SMSdroid,Google Play,de.ub0r.android.smsdroid,Z3A6QU9xcFRPRnJxRk84b0FXYnZIU3NEeXJTd05vRjJrdmktaDNjLURmbHBFX0pNWGZBcXhYSzVoUzNKWm4wc0dYdUxhclJCbV9La3Rhc0ZfNms0M29UX3kw,Portuguese,,5,2016-08-11,Joana Antunes,Giro,Nem2 segundo,,
SMSdroid,Google Play,de.ub0r.android.smsdroid,Z3A6QU9xcFRPRUxXZG9aZFhxcEVUcWlmWUx2bFhWQ2VCR1pPLU1fTnA5QWZ6Ym84NnFkY1lVZ1VUeENQaEhLTzJkcS1Yci0xdjVCWHZvSkhiMTRVcWFjM0VJ,Portuguese,,3,2016-06-25,Sergio Araujo,Bom!,Só faltou o anti spam.,,
SMSdroid,Google Play,de.ub0r.android.smsdroid,Z3A6QU9xcFRPRXVpNU5TWElvOTZOcC05TDcyS1FKQW4tQkFnYmdpTXlqelZIczNEeHpRdDM5Rl92UXh6Mk81UDRFcUJzRk85bnB0UHEzcFRzN0hWQlZnc1pF,Portuguese,,2,2016-06-05,Samila Paula,Nao sei to baixando ainda,Se for bom mas entrelas,,
SMSdroid,Google Play,de.ub0r.android.smsdroid,Z3A6QU9xcFRPRVJkV0NqTlVNdVlkVDIzcUJndmdMSUVGc1JMOVhyRXVzbml3MkNjM25uY2pxa1ZfQlRwR2NNQXNfTjdveFM1WkYzRTM0QTFRa3FkWlQ0bVg4,Portuguese,,5,2016-05-17,Adao Leandro De Araujo,"",Excelente👍,,
SMSdroid,Google Play,de.ub0r.android.smsdroid,Z3A6QU9xcFRPSGlvRzVPbGtuR0dBOTV5NXdmdmViZ056NTFjeGhFamplM01iMkFkZktDSUxyMlR5d2xpYmMwV192Zmo4MTU2V01rRzMtQXlvSGJWeDdrWkNB,Russian,,5,2017-04-19,andrey vidaypin,"",Удобно!!!,,
SMSdroid,Google Play,de.ub0r.android.smsdroid,Z3A6QU9xcFRPRXlreE5RdWctaWQ3OHlwaEdERU1hTlQwOXFaMWI2c3dPVU1JQ3NlM3I3OXdLTGJ2MjNBVlEyRTFTV0hBOXpDbWJFZUs2ZWpCZ1RvdndlTkd3,Russian,,1,2017-03-17,"","",Ужес,,
SMSdroid,Google Play,de.ub0r.android.smsdroid,Z3A6QU9xcFRPR0I2NGNiSzhUM0lsSU9idmtDc1ZYSkxUWDdwaVYzTzhpalhZQ0xjS2t3RE1WQWxwQXlWenpZbURrZk1oUzhSQ0VzVWlsbWhRTmI1MUVXeWRB,Russian,,1,2017-02-23,Вадим Ахмад,"",УЖАС,,
SMSdroid,Google Play,de.ub0r.android.smsdroid,Z3A6QU9xcFRPRmQ3Q2g5cU50a1BIU0NkZ1p2SjBmSm95T0dSeExjOXQzR2dBTkNEbC1KenpSc0tHMXNlVUVzNW5IMnVrbExVcV94YW5xOUdQVUhrRXJBeF8w,Russian,,5,2016-11-29,Марго няшка,"",не скачивается,,
SMSdroid,Google Play,de.ub0r.android.smsdroid,Z3A6QU9xcFRPRThVRGdrZDZyX01kVno4MTllQnFrQmZzRXBzQTR1a2djRDlMcGdDUE5LLWthaE1DREdWSzQtaUtXd2JsakZCR0Q2RS1RMUtoRUlCVnNQSzFN,Russian,,2,2016-11-29,Любовь С,"",Реклама мешает!,,
SMSdroid,Google Play,de.ub0r.android.smsdroid,Z3A6QU9xcFRPR2dKbmtzRktNNC1peWZaYllRVFpJdmJiWS13RVFMNEFvaWtFdjVmSVNtVGx1aFB4WXE4bkdMaXZHOGFQSTNfajdHcHpPX2Z5QXdlb2lvbzEw,Russian,,1,2016-11-16,Софія Мормоль,"",Не можна відсилати SMS,,
SMSdroid,Google Play,de.ub0r.android.smsdroid,Z3A6QU9xcFRPRnYxc1laRUVxWnF6UjJhOHl4QW0xeUFWWUdTSjhTa1dYOUFhdFN4Q1hJSXdua2lBV05zeDBlcFo5M21EWHcyNmRTV2QzSWFsR01naTBvb0FF,Russian,,1,2016-11-13,Алекс шар,Реклама!!!,Одолела реклама!  А так не плохой!,,
SMSdroid,Google Play,de.ub0r.android.smsdroid,Z3A6QU9xcFRPRmllU29EeXV6dFQwaHllTzJmbkM5eWltT2NBTk9OUEJlcTdGdHdaeVZDM3hKSEY0YlVKcmxsSHZJdG0xOUZ5WXhBaFVyU01MT1BIVmxvMXY4,Russian,,5,2016-10-21,"","",👍👍👍,,
SMSdroid,Google Play,de.ub0r.android.smsdroid,Z3A6QU9xcFRPSHlrNF9QTHFFNzUwcHJjbmJoQi1Ja0ZILTZtSFZmal9oUGxzNUpnYVVCeGNWOGZwcWNTSktkNlcxQ2VYSUtVN1dYa3lGRWNOZTY3LVg0LW04,Russian,,1,2016-06-04,Vision Up,"",No Dual Sim,,
SMSdroid,Google Play,de.ub0r.android.smsdroid,Z3A6QU9xcFRPSGVIdERkZmhJa3pBU24wbjVZOGZNb3FhRUNBNWZrc1Vfbmp4MV84YzU3UE5TVDRLaUs2SDJQcFg5S0kxXzZJcWowT3B2eGFxWHpGR1FHZnY0,Russian,,5,2016-05-04,Дайра Сантос,Дайра Сантос,мне очень нравится  преложение,,
SMSdroid,Google Play,de.ub0r.android.smsdroid,Z3A6QU9xcFRPSEU2ZGFobjdvcTNUdUJROUYwNlFuRGM3bjFmdnR2SDJhbW9aMkp4R0x5dUVPam9zcU5uQ1kxVXVvUTFibm0yc1hoY2ZxWExvRmNhZnYzY09r,Spanish,,1,2017-05-20,JUAN CARLOS RIVERA,"",Mucha publicidad,,
SMSdroid,Google Play,de.ub0r.android.smsdroid,Z3A6QU9xcFRPR1JfTklzUk5UaklYT1JiRUhsRTQwZXhPejAySk5VRUhTRWZQOUowdzl1WURZdGdKb2UxUWZhT0N5YUZiZzk1aThiak9LdkpGVi15LUlnanBJ,Spanish,,1,2017-04-19,Leidyn Sanchez,"",No Me gustó le falta como más,,
SMSdroid,Google Play,de.ub0r.android.smsdroid,Z3A6QU9xcFRPSDFTcUFTal81MmM2UFhhUVJBTUhTbmRoVUx0ZVhjTmxZM2pjUU56dnAzc2FiT3lRS2F4eW9ONEk4REItTE5WRm9CU0xpX2xkcVlDRF9mUl9r,Spanish,,3,2017-04-09,fer Paz,"",No resibo bien mis mensajes,,
SMSdroid,Google Play,de.ub0r.android.smsdroid,Z3A6QU9xcFRPRjZYR0FRNlFmYkdLU2MybU1aQ2FaOXZWTUxsYnFIYzJDSXJwcWVlbXB4bk1PQXhObFFER1JReENpcW8yVDZ0NGl5RjJ2RUpRREdya0pwMDhN,Spanish,,1,2017-04-08,"","",No me gusto nada 😬,,
SMSdroid,Google Play,de.ub0r.android.smsdroid,Z3A6QU9xcFRPSG1lOGlvMDlGY3M3elFXbVBCbWhoNmpNQTB1TEhidTYwTlZWLUk3M1BHeThDNTFMUFo5ZGxDVjJKZTlfNDE4TXBNejBvUGRSYTRjUk9SMXFj,Spanish,,2,2017-04-01,juan garcia,"",Si pueden volverlo más funcional y con colores más neutros quedaría muy bien.,,
SMSdroid,Google Play,de.ub0r.android.smsdroid,Z3A6QU9xcFRPR1JGeU5VZ2M5SW95QkZQTVpWMml0a1drZFg5dWphMUJTWlB2UWRyLTZLekdsNnJTTXNlU0lrUXhVc0dyOE1qNW13NzAzdEUySS0zNjBWa280,Spanish,,5,2017-03-15,nayarit Castillo,"",A mi no me recibe los mensajes aun esta mal o solo sirve para mandar x.x,,
SMSdroid,Google Play,de.ub0r.android.smsdroid,Z3A6QU9xcFRPRUU3ck9YOTJ2eTUyY0FmMnhaWVdoTVVfNHljbXBuemwtamFEZDAxLThZT1hVWDR0ZU1MdE1EQ1Q3ekRBZW5DcFRCNWVob2U2U0RmMHRiZWhr,Spanish,,5,2017-03-09,Paola Valentina,"",😂😂,,
SMSdroid,Google Play,de.ub0r.android.smsdroid,Z3A6QU9xcFRPR0lEMjhzaUMzQ0FGWXc2ZVBodTZfMG1MTHRLbUdkNWdrMzlfSTZqRnNCRWptckp5TWpNcm1vTXlBSzFtdDlKWUtYZy1kX01aNm9KdXNEeWpF,Spanish,,5,2017-03-03,"","",Enriquecarrillo9999105610,,
SMSdroid,Google Play,de.ub0r.android.smsdroid,Z3A6QU9xcFRPRzBGYzZlRmY1N1hkVDh2VjBsUUZOLTRpTzRrRlhneE1TT2NCd1djMjRac0paMnJFd2dyNjRzSk1YVkFldFFWRWR4Y0s4T2ViWUpjdmVsLXpN,Spanish,,2,2017-02-21,"","",No se q pasa no me da ninguna opción a las que aparece no se que aser,,
SMSdroid,Google Play,de.ub0r.android.smsdroid,Z3A6QU9xcFRPRTFCN2loRnctQVk2T29GRTdwcGwzd1NRaE9uWE5PV1lSa2FXdWUwVTF3SDNrYndQVUMxQkpXY2FzdDZZdEFXa2Y5ZFJvanowbVNFNFplMV93,Spanish,,5,2017-02-17,"","",Me encanta es demaciado coollll,,
SMSdroid,Google Play,de.ub0r.android.smsdroid,Z3A6QU9xcFRPR04wV2pZZ1oyaTFYbFJtMG9ubkltWW5HOXcwNmlQY3RPRmJlUVdsaTl4dGRPRkl4Y2dYNzc0NGhXYmFqeFl5V3FzQmplVnBaRVdYWUlUN2VJ,Spanish,,5,2017-02-14,Andrew Pascual,"",Mañoso,,
SMSdroid,Google Play,de.ub0r.android.smsdroid,Z3A6QU9xcFRPRkozbnZ3b0N4ZlkxMlhxd2YxUS1PckZDQ1NfMm9fdjZ5MkJwbkpKLWNReUI3TjhTekhHWjM5LXBLYkF1azZQaExPbDdCQjF4MlhINlktSjZR,Spanish,,2,2017-02-07,David cisneros,"","Me dice ""envio fallido"" no puedo enviar mensajes, it says ""failed delivery"" :/ can't send messagges help",,
SMSdroid,Google Play,de.ub0r.android.smsdroid,Z3A6QU9xcFRPR0FjYm92SnA1V3RFd2FseVhKNl9nblVRYm53cGRNNU1DM0J2OHVGSUZ4S3d1LVc3alJCMk56THZnMXhJZTVFZU0yV0JaZjNQbVRxVXVnY2tz,Spanish,,5,2017-02-05,Saul Manosalvas,"",Buena app,,
SMSdroid,Google Play,de.ub0r.android.smsdroid,Z3A6QU9xcFRPRlQtd2hrd0cyQTNUVHlnbFJpbTRwXzQxRXVfWVBNc2xWbE9uYzl5VW9ZaFUzSHRrc2dYb280UzJxc0doV29YMDBCX1VkV3hBN1RmcTFsWm1j,Spanish,,4,2017-01-27,Paola Rodriguez,"",Se ve interesante.😀😁,,
SMSdroid,Google Play,de.ub0r.android.smsdroid,Z3A6QU9xcFRPRXA0dEJhdm9PRlFVcDBvZ0RZc1lWLVNIVldCcXo5M0RTRUN1VGhZNVQ2UmNLamdubzZ6ZTd5cmxzOFg1aElXSUV1ZlU0c3JPUkxhRFhnSVJN,Spanish,,3,2017-01-27,Canal De mis Videitos,"",Esta bueno pero no tanta eh,,
SMSdroid,Google Play,de.ub0r.android.smsdroid,Z3A6QU9xcFRPRjA4WHRheWU0T010ZXdNQ1hZeDZkOWxESnc5a3ZnMjl4WUZLSzlGRU1KbUlMVlM0NG1WVzRtMVRrNnVVQnkweWJfWFJyQkhjNktMeE00azZz,Spanish,,5,2017-01-26,Maria salas Salas,"",Es buena si es verdad,,
SMSdroid,Google Play,de.ub0r.android.smsdroid,Z3A6QU9xcFRPSDQyTng5eWZ6VWxHcTFhQWNJOFd3ajV2UDJWVFptT2k5Y2pxNS1Na0lVQWNjb3JGUWZGQU4yVlRzTjBoSFhUbkJJYjgwZTVOUzRuelJyYThV,Spanish,,5,2017-01-23,hector Viana,"",Es muy bueno solo tiene unos inconvenientes se pone blanco al abrir por un segundo y tiene muchos comerciales . Por favor mejoren eso .,,
SMSdroid,Google Play,de.ub0r.android.smsdroid,Z3A6QU9xcFRPSEN6Y3RxQXhtWGhhT0pnel9JcWQyYThvSlByVUViNG0wdkstaHg3cG5LRE54bGN3bUVFZFNGaHdhWWFOSERreHRBN3BtcEpHVl9YckVMeGMw,Spanish,,1,2017-01-23,"","",Esa app es un fraude,,
SMSdroid,Google Play,de.ub0r.android.smsdroid,Z3A6QU9xcFRPR2lZeXdDbUdHOHdtRDZNQXhKX2VLLUowVFg3dFp1N1VFOERrQ3hyY28xOFJVam4yRmRtcDE1dVdCeFBTUmJ3TFp5d3BqVEMtcmplN3oteHZV,Spanish,,1,2017-01-12,dubraska araque,Buena:v,Jajaja,,
SMSdroid,Google Play,de.ub0r.android.smsdroid,Z3A6QU9xcFRPSHkzcWRydk4tRnFWUzh1SHZrQ1ByT0U5U0NHZFA0QlJMTGJUenRpRmJFTkRCSEdEQ2lVUzdDb183YUtmSlEyVVFCT1FyV292RktXbjNsby1r,Spanish,,5,2017-01-07,"",Todo fino,Eapero que se acomode,,
SMSdroid,Google Play,de.ub0r.android.smsdroid,Z3A6QU9xcFRPRnlPTktJc1pWVkZCdnlMd3Flc1lZck1LTkQxNEQ4Z2JyT1NfMTR2TDNWd25EdmhPRlNZUTNaOU4tTjk1NUVsZkZqUlFTQnRONlNYRlVYRkQ0,Spanish,,5,2017-01-03,Esmeralda. Pineda Pineda,Bueno,I,,
SMSdroid,Google Play,de.ub0r.android.smsdroid,Z3A6QU9xcFRPSHotOFZfdnhqQ2Zwd1J0aVB1aWp0cWxaUmZGNWFHYndnUmJ4OF9JLVhnOEdBdUphY1Y5MHV1Rl9CbHBxY2F2NWQ2NWhvbnhCaXR2TmVSUjlZ,Spanish,,1,2017-01-01,"",No se muestran los mensajes,Tampoco se envían!!,,
SMSdroid,Google Play,de.ub0r.android.smsdroid,Z3A6QU9xcFRPSGFVRXpfM3FjMWlZU2VWb0FZYkVFYTlINFdIb3lINWNCSUNxbmxVRFJkWnV2dkJscFJkTHFRdFF1Zm1JRW1CT3JUUU9XdTlScHlhR2F2MWtr,Spanish,,2,2016-12-27,Fanklin Liven,Fuull,Jevi,,
SMSdroid,Google Play,de.ub0r.android.smsdroid,Z3A6QU9xcFRPRWdsVUNEOHNPeWVDeUpsMUpLSjBsS1hjRjlyS0pZYk9MLTJPbVBOWWVqdnpvVWg1OWlaNWFGeWFQOXdLZDlGbzNHTkVzUmF4bWtsT0lHV3J3,Spanish,,5,2016-12-25,"",Mensajes,Mensajes,,
SMSdroid,Google Play,de.ub0r.android.smsdroid,Z3A6QU9xcFRPRXdENV9XazBiVmZIRmE0bUszVkFneVVRNWdoVno0eWFBekZMS0M5MldRRkgyNUJyODhTbUpVYTZYR0J3aFFHeTNta0FIX2ItQXB6OFVQeWlF,Spanish,,5,2016-12-19,Ismenia Acevedo,"",Me funciono espero siga igual gracias!!!!,,
SMSdroid,Google Play,de.ub0r.android.smsdroid,Z3A6QU9xcFRPRmU1ay1YR3dneG5jN3lHM001QWV2RThBU2VhdGVILXRBbFBaVDhmVlBudFVtSnE3Wk54eG1mdUdLWmtRV3pPYlhNTlBrU1U1dUh6dG1ySDdz,Spanish,,5,2016-12-17,Joangeliz Pagan,"",Tengo  una  duda,,
SMSdroid,Google Play,de.ub0r.android.smsdroid,Z3A6QU9xcFRPRmJxYVZtak5Fdk1LNDJ5aEVtVWtQR2dwaFROMktmU2VZV1dfRGh1N3czeW1tRThCRG00aFdLVU5Yd2tDYlZJMENWY3pOQkRYaFJfVzJ5ZHpN,Spanish,,1,2016-12-11,"","",No me funciona aún,,
SMSdroid,Google Play,de.ub0r.android.smsdroid,Z3A6QU9xcFRPR3lPQVZIcW5NVXUxUXZ3Y1VpUFR5ckF1dFRTb1prUHFWekJZeXo1bGFrM3UtOVpnYm4wSUlxZHdhWU44aERwVTRNbERUY2tsN28tQWVnRjVr,Spanish,,5,2016-12-10,Eduard Hidalgo,Bien,"",,
SMSdroid,Google Play,de.ub0r.android.smsdroid,Z3A6QU9xcFRPRVV6Q2Zyc2dMT21HZ1E1X3JKaVYzU3c1ekE3eGVsZVhudWJ1aVlLRU1sNGZXUEZiUjMtQzl4MVN3LXVZcmRPQm93NkcxZ1dZZnZjenVJOFdj,Spanish,,5,2016-12-09,"","",Me encanto,,
SMSdroid,Google Play,de.ub0r.android.smsdroid,Z3A6QU9xcFRPR3o5aklvSmRGbTdrSWNiNjU1X3NSU0pnVzJOT0ZHNV9EeG1XajhoSnpDbUhjYS1JOGFQX19jR0RzX201ZXJoUUVXM19FN190RUo4MGk1c3BZ,Spanish,,5,2016-12-07,enmarys laguna,YO Y TU,:-*,,
SMSdroid,Google Play,de.ub0r.android.smsdroid,Z3A6QU9xcFRPR2NaSkVoRXE2b0NxWXZSd0FpVUkwOHVDWmFSRUYwVWxWdVI1TXdyR0hqa3VOcEhNVzUyeUNONmRJN2RPTVdNbldzU05ycmstWnhlU3JDVXhn,Spanish,,1,2016-12-04,Roxainy Hernandez,Orrible,No me gusta le doi para iniciar una comversacion y no hace nada. 😈😈,,
SMSdroid,Google Play,de.ub0r.android.smsdroid,Z3A6QU9xcFRPSEZOZ3BsYTd6LWxhY0VlM2RrcGN4Qk81dGpGWWFJWmZMUEotem9iWkRfMWxqa3d0MFBfZkozYWo1SEFuaWJKdmlLbWFBRFlNcDBidGNFWFo4,Spanish,,5,2016-11-25,Eddy Alvarado,Mensajes,Tuany,,
SMSdroid,Google Play,de.ub0r.android.smsdroid,Z3A6QU9xcFRPR0VrNzFPR0phdFpkU1pONDF5WFNMMXV2dDctSmtLampSS2hDcjRXUmtyTEZfLWxxX3ZVb2FMNjctdG5nMFExOWlMX01SUlhNaUwwTmhjLWVF,Spanish,,2,2016-11-24,Maria Aleman,Me yamomadeling,"Esta aplicación, es encantadora puespuedes enviar loqesea",,
SMSdroid,Google Play,de.ub0r.android.smsdroid,Z3A6QU9xcFRPRW9DamVSdXI5aFozcW5haWdCRTNJR0VfamVjU013M0tGUlJmc1JrUjAtbzk3UVcxYXFKSXZBRFVLSWMzM1FuQUkyRGNFWHExTG5scUwzVFY4,Spanish,,1,2016-11-17,"","",Porqueria basura,,
SMSdroid,Google Play,de.ub0r.android.smsdroid,Z3A6QU9xcFRPRzczbEJmV0llOXZ5bU42N3lEUjRuRnhkeDJ3RzU4RGxtMHB3SEJpelpQX3dVc0JNUms1ODF4S1Y3d0t6S2VQaTdzR0lRMWxMbnU4dllZU2Nv,Spanish,,5,2016-11-16,antonia centeno,"",maria medrno,,
SMSdroid,Google Play,de.ub0r.android.smsdroid,bGc6QU9xcFRPRy1JelV3STRpcmVCMVNIV2RpR0JvUEI1VU5FdzlZSVRpYW8wQmVqM01XREN1VlRtV2tTeWFBc2RVcnl0Ujd6WVdlS1JaV1ZRRVR2d193YjRJ,Spanish,,1,2016-11-16,Un usuario de Google,Jh,No se como se utiliza me disen,,
SMSdroid,Google Play,de.ub0r.android.smsdroid,Z3A6QU9xcFRPSDdGVF9nZTFteDJ6bnRRNTY2eVJzWDd3NFlyUXcxREwwNDFSaTh3ODkwWGNXYWcxRDRUZDMwY0hUZDNxYjAwMzhmdlNDMkZpX2YwM2U0cUR3,Spanish,,5,2016-11-08,Yona Gamer Pro,"",Funciona,,
SMSdroid,Google Play,de.ub0r.android.smsdroid,Z3A6QU9xcFRPRThCWDBJM2FLbVgxMGhLR3UyWEVPX3NUVTJ2MU5yUVluODNabGY1WWtDM2xYT052cjR5cjU2TnVqRnE3cWUwSTBjejdiTXBpSy1qVVctUURZ,Spanish,,1,2016-11-01,pedro Rhenals,"",Tiene  demasiado  propaganda...,,
SMSdroid,Google Play,de.ub0r.android.smsdroid,Z3A6QU9xcFRPR0owQjd2ZUpWTVh0amxTYjEtUXZLN1oyNFpHNXZWQU5qX0JGQU1GdWY3Ym9oVkhORkdBOVpZZlloVVhBSkoySks1SnFuNGJOWWJyNGVKZ244,Spanish,,4,2016-10-23,Corazon Amor,"",Megusta,,
SMSdroid,Google Play,de.ub0r.android.smsdroid,Z3A6QU9xcFRPRzlIVmhtQXo5dGRpQmUyUGRDS0lRYzRTNm95c1gydTE3akI3dktiNHdybjZvek5leGg2b0JtYnpEWXpxbDk1VUs4TFFnT2lNaUk0MFFnY29j,Spanish,,2,2016-10-18,"",Me gusta,Me gusta,,
SMSdroid,Google Play,de.ub0r.android.smsdroid,Z3A6QU9xcFRPRkpEVWRHVDVFWWZhZ01fMVNGX3Y5cDQtTXBiRExvTTdDeFY2d1RJSlFiRVdkQ3VCSVh4U0V3aGl1aEttYzhCV0ZTX1NaTHdrTDNvUkVXUENZ,Spanish,,5,2016-10-17,Keyra Martin,Bien,Separe se a wahtsap,,
SMSdroid,Google Play,de.ub0r.android.smsdroid,Z3A6QU9xcFRPRXlHRTZCX3JuN3k4VmE2aXlXeGt2NUg5WEw4clJGMGdDWHMtWEFIVWF4M0wzODhEdm16QXdEWUFQWUtETGpEUGVYX3JIMERfMUQ1d3lqakhr,Spanish,,5,2016-10-16,Alba Rosales,Completo completó,Responsable,,
SMSdroid,Google Play,de.ub0r.android.smsdroid,Z3A6QU9xcFRPRmctellXbU1oLUdHaUh6NEJqTG02cS00bkRneUJVOENqV0lRYmcxT0djRUh2cTZMT0lOdkotLTc4S3ZxdGRfajlLbnAyUjZFWngxR05rQXhn,Spanish,,2,2016-10-07,luis martinez,:-),No me resive msj de texto. Y el q tenia lo elimine sin querer,,
SMSdroid,Google Play,de.ub0r.android.smsdroid,Z3A6QU9xcFRPRkxYWmxqMmxOUlV4emVlX25pMjQ3S1lseDNtX0tCakUyVWR4dUYyMDNDQVhKMDN3bTZHVl9jQVdmWTlVREp6NEJXVTdrdVRwU1lyQ2VxWDBz,Spanish,,1,2016-10-01,Wilfrido Benitez,"",Para mi celular no sirve,,
SMSdroid,Google Play,de.ub0r.android.smsdroid,Z3A6QU9xcFRPRWt6VjRPbjhKRFJVUW5EUG9SLTMzUUp0T2VBbHB2VFVaMEFDY1FnSXIxZnZmakZiQlhQbU1EOWNLVTMwWkdXZ2QzUFV4ZVViTHR6UXp1UVVj,Spanish,,1,2016-09-25,"","",No pasa nada,,
SMSdroid,Google Play,de.ub0r.android.smsdroid,Z3A6QU9xcFRPSEdyUXVhMlhhaUVuTjExYU9tOXNBNENIMTJmelFTLXRaQURlYW9DMVdIbTZrQTk2eWV1SmpDUWxHSXhrUzFIcl80anRELXNxdEdsOXRKMFRJ,Spanish,,5,2016-09-22,PEDRO DAVID Gonzalez,"",Muybuena,,
SMSdroid,Google Play,de.ub0r.android.smsdroid,Z3A6QU9xcFRPSFJUUjJWZ1otZTZEeTE2LUQ5Yk1DU0FPT1NSdUc5VlRoN3E0OHBhWUc2QWg4OU1HYVY4cFZCZ3BGU2tKUmZSMjg3WjFTakN3MDRNeU13MXhR,Spanish,,3,2016-09-19,Mario Alberto Alvarado,Smsdroid,Me gustaría pero no se descarga,,
SMSdroid,Google Play,de.ub0r.android.smsdroid,Z3A6QU9xcFRPR2FuREpfbW9Jd1B1X0ZubldfckZQTzhJYk95ZF85VVdFUXRqeDlrbDI0XzlCWDZUaFhGQUcyZ3dUQzV1d25hOEpiTXhXNnhWLVRJSDQwUEEw,Spanish,,4,2016-09-19,"",ambar oviedo,gracias,,
SMSdroid,Google Play,de.ub0r.android.smsdroid,Z3A6QU9xcFRPRnNhSjFfd1VubFZKWEtEVVpBeDFPSkx0ZkpfSEw3Z2std1dMRmU2WXFVbnZOTzFDQjVFaUswdTNRUXoxOWk4YmdEUXNxMURzeWdhWkgtRlZZ,Spanish,,4,2016-09-12,Victor Hugo Gutierre,Ok,Ok,,
SMSdroid,Google Play,de.ub0r.android.smsdroid,Z3A6QU9xcFRPSDNFQzdjVUxyc2Q0VjRPc0l6bWFsV1hra1I0WnVscEhqTlAwcUhKVk45WmFmNV96SGtjamp3dFB5ajR3aE5IOHI5Mzh5MUg4cDRJeGx2TW9R,Spanish,,5,2016-09-10,"",Lo amo,Venezuela,,
SMSdroid,Google Play,de.ub0r.android.smsdroid,Z3A6QU9xcFRPSGk4Y3FUZDF1VkU4UDhFM3EyRll6UHBqdHRkbGI1THBkNGVVVWIyU1dhZVhkeWpiZ2RGSG9WbEk3RnlSSlVHa2p1ejI4cHRnWlFaeHNVOE1F,Spanish,,5,2016-09-04,"","",Noi,,
SMSdroid,Google Play,de.ub0r.android.smsdroid,Z3A6QU9xcFRPR3Y3NmRHalZPT25OZV9STHhzVUlPdVRuN2VHTjBXa3VhdXJVZFdzUjh4aFVYN0xhc3ZPSEpNZ1JDdUV3cDNhODVUR2lsdmlqYVNaVkQ3eFRN,Spanish,,2,2016-09-04,Diana Fe Perez,Diana,Si me gusta,,
SMSdroid,Google Play,de.ub0r.android.smsdroid,Z3A6QU9xcFRPRUFYbzVjaDhuZ2RGbGlLTjN3ZHNVX0FjYVBlcVBOSVg3cDloYnBvNHdQczRycTlyMHZid3FRTmlTNGk5ZExtUHpFQVdQNWRrNHdzdEgzMktR,Spanish,,5,2016-09-03,Junior Jose,Lo mejor,A mi me funciona de pelo así que le dare 5 estrellas,,
SMSdroid,Google Play,de.ub0r.android.smsdroid,Z3A6QU9xcFRPR25ONWpTRmIxZGFtNE1HOVNtam90R0JOYVNpWFk4eXA3STg2cE54SFJ6TEd5QXVIcDVFQjROQU54LVVOMm1QQzMzLWJtQXNCT2NFZlRkN0Nz,Spanish,,4,2016-09-02,Karen Gatica,"",Esta bueno!!!,,
SMSdroid,Google Play,de.ub0r.android.smsdroid,Z3A6QU9xcFRPRjNNUGdLcThaM0NmRGs4ajdTbk1maDRxdlJYNWpZMTF5Zm5WbGdHQS1LMk5DTTBKZlZUYlNQYVRCbWRQSE5OU1gzcU9xZEd3dUlPY0tjc0Zr,Spanish,,5,2016-08-31,"",Laura,Me encanta esta aplicación aunque no pueda mandar fotos por que soy nueva en esto nunca probé esta aplicación esperó que sea buena,,
SMSdroid,Google Play,de.ub0r.android.smsdroid,Z3A6QU9xcFRPR2F1WUxaYlhyWC1EYnloSTFjRF9EMUNpNlZKVGY2OXVHcC12YVZmb0NqMTlLNWlsM3JjZnpRN00zS2p3U09mdDA0MmpiUEZXMlhVbWtremY0,Spanish,,1,2016-08-30,Guadalupe Reyes Mosqueda,Me gusto pero,No la pude descargar lo que es súper triste digan me si es buena la aplicación,,
SMSdroid,Google Play,de.ub0r.android.smsdroid,Z3A6QU9xcFRPRVJLWkdla2Z0dUQ0RnRFWTBMRzlXZGJ3bXdMdV9Sd1laYnUxZ2plS2hpQ1owYjgwU29ZNmg5WnpHdExqdkFhbkpoZkZRMEJqRlV2dEVZYllj,Spanish,,4,2016-08-30,josefa bravo,Esmeralda,Dises que le das 5 estrellas pero pusite  1 jajja perdon si te ofendi 😊😊😊😊,,
SMSdroid,Google Play,de.ub0r.android.smsdroid,Z3A6QU9xcFRPR3JhUDZXemtaWmwtWnJBM2JQU2dZa0w1VW5HQ0p2Y0p3OHdqYmNsazA2UDFxcDFhM3ZPZEx6bE82WkkwOTNfTzA0cERBMXRoZlJDVlRQZDZB,Spanish,,5,2016-08-26,Blanca Zavala,"",Porque no puedo bajar los mensajes ni mandar fotos,,
SMSdroid,Google Play,de.ub0r.android.smsdroid,Z3A6QU9xcFRPRzgtOVp4Mm53NTFiVFBzb1A2c1M0cmhtbFdpbFpLWUpFQTlLSmU0Z0lQODRVWTFES0VxaHhJekpzeG5heWtGU1VjQVl2N05wb3Z1cXIyYTJN,Spanish,,3,2016-08-22,Zaira Denisse Martinez Monay,Miriam,El jueves,,
SMSdroid,Google Play,de.ub0r.android.smsdroid,Z3A6QU9xcFRPR2FnSlZrdW43V2NCNkpsWXpzV3BEYk1qTUoxQlJJR1lZT281QVZTYTV2SkYtbUFqMDZQdV9YTnNRMEpReHJ2Q1RQc1NfaHNHRVpvU0FsRW9v,Spanish,,5,2016-08-20,Carlos Lainez,Crlos lainez1960,Crlos lalnez1060,,
SMSdroid,Google Play,de.ub0r.android.smsdroid,Z3A6QU9xcFRPSDV4eGtFa3kwZGZRVkxIQnBYcWFaZUZLRWJyZjJDUnhSYlBqZHZyTTVYbkNDbWprVGg2MGxMQ19aZDlXeVZHQmhqdlFSdWpQVTZ3MHhKMGFv,Spanish,,1,2016-07-29,jorge rivas,"",Qe asco,,
SMSdroid,Google Play,de.ub0r.android.smsdroid,Z3A6QU9xcFRPRkI2bmhRdlk0TGlfc1AtaERfVlM3dGZOSlY4SlQ0RXRIMkk5cWw0M3YtS0pHZi1OQzJvdUtYT0o0eU1hM0ktajhsT1RoX1FYMGhXdy1Nckg4,Spanish,,5,2016-07-15,Matilda Neva Aldana,Confianza,Si rso rs lo q sea de android.,,
SMSdroid,Google Play,de.ub0r.android.smsdroid,Z3A6QU9xcFRPRjBha0pndUk5dGpaYTVKdXFORllRUl9NdEZMWnZGR21lRmxVQ1pVbXFUY3UxWHdXMWlPX1BvdFpVSGs4MFJkbS03VThnaDJvMjRibmJKajlV,Spanish,,1,2016-07-15,Emily Suarez,Lo peor es soló una cosa q no hace nada }:-(,Mande un mensaje adivina NADA paso }:-€,,
SMSdroid,Google Play,de.ub0r.android.smsdroid,Z3A6QU9xcFRPRW9IaWVZdm5lTFU5aE14ZW9pVG9QYXFZZmNsUlBuYWxkUW9EQXFPYzVEMlk3SE9QamlMQkt5T0ltOXBCd3FmLTc0ZUhhNmR4MTZHdFVRS3lj,Spanish,,5,2016-07-13,Julio Luna,"",Esta buena me chupa un huevo lo que digan los demás de esta aplicación,,
SMSdroid,Google Play,de.ub0r.android.smsdroid,Z3A6QU9xcFRPRkdDVlc1Njd2UWQ4dGdlcmIzc1Q5Sm55OEpHeXhLQkNZc05OODhReWFkQnNtNUw4eDFpZ21RSEhYaDVnemVFOVhhR0gxdHd0LU96MmdpX2gw,Spanish,,1,2016-07-12,Yenny De Mendoza,"",No me gusta,,
SMSdroid,Google Play,de.ub0r.android.smsdroid,Z3A6QU9xcFRPR0NVRmFQYm9VS25QQ19zNmhYZkJnYnNENk9MX2ZRLS1VREVteDhqOFI1eFVkb0QxYmhVV3BkUFRPSUdLRTJFdjA3NUQwTGNVTHFFYm1EQjBN,Spanish,,1,2016-06-19,Gabriela Santiago Contreras,Super,Me encanto la aplicación,,
SMSdroid,Google Play,de.ub0r.android.smsdroid,Z3A6QU9xcFRPR0ZnVXJjTHZfejBPNW5RUFpmOHliaVdRR2ZfLW5JWEpVSDVSMmo0Q3hlc0FMcnJhN1AtcUQwbnVhMkVVTkJRaXlaTXVXbHZTSDd1Sks0SEpn,Spanish,,4,2016-06-18,noel morales,"Seria posible que incluyeran algun teclado, al descargar la app y mas letras estilizadas",Sugerencia..,,
SMSdroid,Google Play,de.ub0r.android.smsdroid,Z3A6QU9xcFRPR0dvUkpWbDJEZFpCckd1d2RhRWdCVy1Rci1aVm1pdkNCaGhsNjBONWFPUENPb2EyZlZidDZlN0t3V0RxOUVZamRGQWdWdVBTRy12a1owQktZ,Spanish,,3,2016-06-06,Deyanira Atencio,"",Esta bien,,
SMSdroid,Google Play,de.ub0r.android.smsdroid,Z3A6QU9xcFRPRm9yakpZUHNPOEhId1BPU2JVTFBwQXllWlNIWkh6NjBweEt3WjhQWVE4Zms1VXFObUFGVUJ4b013di1hak9ET1VrZ3pRWnp2cGY5blRzSnhj,Spanish,,5,2016-05-28,diego villalobos,"",Muy bien,,
SMSdroid,Google Play,de.ub0r.android.smsdroid,Z3A6QU9xcFRPSFB2b2xYelJXdmIwS0lEU3dFR3VjWGRpQlNoZVo1Q1I3UUQwNnVJYUhDQm5udEFoOE5Kdmp5X1lmd3pLZ212Qnp5akxtbmlIdWhMUVRVbmJF,Spanish,,3,2016-05-24,ANCIZAR PEREZ YAIMA,Esta bueno,Solo no me gusta una cosa q se interfiere con otros,,
SMSdroid,Google Play,de.ub0r.android.smsdroid,Z3A6QU9xcFRPSHBNVHliM2FuRDBYal9RUTZGQk00d3lzVFpHYi1PTkxNdXlTdzZvMktvZVNlVDg1a1ZXX29SN0VDdFZQOUhiS1F0UHJ0YllpQjNWdjE5NkYw,Spanish,,4,2016-05-23,eglee Guzman,"",Es bueno,,
SMSdroid,Google Play,de.ub0r.android.smsdroid,Z3A6QU9xcFRPRU1FLUZVOFZYclJCTkJKZkU0YTAzOTVkZXY2cEExUGRTWDgzVFZqY3RVZzNDVnMyeEpjcm5rUnpCZXRCYUxoVldlQnVfbFBKekloMnhYOWtZ,Spanish,,5,2016-05-22,Alberth Garcia,Alberthgarciamarquina,15411721,,
SMSdroid,Google Play,de.ub0r.android.smsdroid,Z3A6QU9xcFRPSFRuSzhINHJBWlppTWZWVDFtOFdUamJqMmVHaV95clpydTBvcU51aW5ldHFTUjZQaGRDLWpKcVBvemt3MU1KeWxzUTFXRWxwMmpBQ3AzMEk0,Spanish,,5,2016-05-08,Joeluis Parra Torre,SMS droid,Es fabulosisimo,,
SMSdroid,Google Play,de.ub0r.android.smsdroid,Z3A6QU9xcFRPR3JRbWVoaUhQNWR5SGhBWjRsOVFpcHdlTVZfLUdkSTFkTFZpNUZESW9ERGdqcXljVVQyTzlnVEhudU0wWW0zWXEwMFROREQ4MGxSbjFHWUlV,Spanish,,2,2016-05-06,mariel vazm,Por que,No me sirvio,,
SMSdroid,Google Play,de.ub0r.android.smsdroid,Z3A6QU9xcFRPSHN6RWJTcENpMlEwcVJHeE5VcWJRSWctUXFxRTZ6cEpLNXNteDA5OFktRG1LTUpDUmdOeUxtNHUyeVRvVTZWZGxva2R0Umg4Z1A1ZWFDM2Y4,Spanish,,3,2016-04-30,Angelica Maria Lopez Machiz,Muy bn,Excelente,,
SMSdroid,Google Play,de.ub0r.android.smsdroid,Z3A6QU9xcFRPR2ZCeDZ4d0dFSzVvc2c2cHRQYk9SVGN5ZHd3UjFtckhUTVg4NE1uWjhWNHdDallVT3hsLWJjX0xtYXBGUGZvTVZxVmJSNVg2NW54LUZmN0Fn,Spanish,,1,2016-04-28,Esmeralda Escalante,"",Yo le doy 5 estrellas porque ami si me función,,
SMSdroid,Google Play,de.ub0r.android.smsdroid,Z3A6QU9xcFRPRU5IdndDT2YwSnJHc0pDRGREejJJWVFIX1ZHWTAzTmNNbVdGRFdVLXNFMk5oUmtvU08ybGVkempLRC0xWG1PYlNlLXo0blNYSVpNUmF6Z3RV,Thai,,5,2017-02-07,THANAPORN Thongpoon,"",ชอบมากๆ,,
SMSdroid,Google Play,de.ub0r.android.smsdroid,Z3A6QU9xcFRPR3FIV29QUjdkWkJOUHNibjNrbU1qbVZSZHgtcnBWWjJ4cmVMUDVXdWNNNUdVOVpJc05YSG9qQTlRbWh2LUdUZXdZdHF2UGxfaFVocGJObXFJ,Thai,,4,2016-12-04,"",ฟ้า,คงดี,,
SMSdroid,Google Play,de.ub0r.android.smsdroid,Z3A6QU9xcFRPRS01QXY4dExkWl9QR1ExbnM4dHlTcTNrN3RJWExTYkxwcGtSSHZZelZKQ2IwZ2xMM1hJT1dRZXRoUk53TEFIdTJrM1puZzZkTmhzeTNKTlo0,Thai,,5,2016-11-05,"","",ดีๆๆ,,
SMSdroid,Google Play,de.ub0r.android.smsdroid,Z3A6QU9xcFRPRmdqRGFRMWJDYkh6b09lSUVHaXpVYnFqT0t1bS0zMW8zS3cyanFnbUxxVTU0R0VkUGY0VFlZN3JRMUlKLU05T2NLNWR5Q0ZMaTFpcDh3bzZZ,Thai,,5,2016-09-22,OPPO DING,มะรูดิง มอซู,ชอบมากครับ,,
SMSdroid,Google Play,de.ub0r.android.smsdroid,Z3A6QU9xcFRPR1pwZ2FzM0ZjWFlJOUVqdndYS1g1cGRVaHlSTVg5bmlCUFF0eUxZNHF5UkFua2R5Z2xpWFotOUdyeV96czhRQUNIWFdFZWdvYkZaemdVMjhV,Thai,,5,2016-07-17,ประจักษ์ พวงทอง,ประจักษ์,ดี,,
SMSdroid,Google Play,de.ub0r.android.smsdroid,Z3A6QU9xcFRPRWh6Y0tFeXpKU2FYX21VcGFZZ1FyNzJ0bUt2YkJLOU55T01tMDBLaE5YcEtsZm1GZlp2eDFFSkZ5cm4tVDFtVjgtcmFyM3lmemRUbnoteWtz,Ukrainian,,1,2016-12-25,Svitlana Dotsenko,Ужас,Полний кошмар,,
SMSdroid,Google Play,de.ub0r.android.smsdroid,Z3A6QU9xcFRPRVRZekd6a2h5SXVsckpzaHQ5djZwSjFnZnNheHdQM0J6X0FFa0JzYWVtbTVPZHFTWUN1Zl9OWHlvRWdvT19iVkQxWlBUdHpYSXhPQ09xYUdB,Vietnamese,,5,2016-09-17,Trần Vănhgtf dinhThìn,Love,Đinh,,
