App,Store,App ID,Review ID,Country,Version,Rating,Date,Author,Subject,Body,Translated Subject,Translated Body
MicroPinner,Google Play,de.dotwee.micropinner,Z3A6QU9xcFRPR2EtYWpZeEgxbDBSVlNULXFNTnZfN2lYR1NhZXRTWVQ1c2t2YUFEaUFKZDVvSzRROXg3dGhqR1N3NzMxS1ppdHlDaHNPV1NYTnl2eWdLNmdV,English,,5,2015-09-15,Jeremy Drysdale,"","It's perfect - light, small and simple. And free, of course. I have one question: Why do I have a pin and a star on my notification bar when I have a reminder set? I would love to just have the pin. (That is personal preference and doesn't detract from a lovely app.) [EDIT: Okay, I see that the 'pin' icon is shown when you want the shortcut for a new pin in the pulldown menu and the 'star' is to tell you there is a outstanding notification. I don't think you need them both - the shortcut doesn't need an icon because you know it's there and then you could then use the 'pin' icon as the primary reminder, rather than the star - which is less intuitive.] I hope you don't mind the suggestions.",,
MicroPinner,Google Play,de.dotwee.micropinner,Z3A6QU9xcFRPR2VvdXkyRGZoamlkNGVPUllfdzZuWE5keG9nYVdqcG0yWkh6VEFVa2hkOV9mbGZTSzJfZUZWYWUtdDFiUXpkM3pxdGJKZkswd2sweU91dUl3,English,,4,2015-09-13,Ben Woodman,Love this app,Love the app but the recent update crashes every time I open it. Nexus 5 android lollipop,,
MicroPinner,Google Play,de.dotwee.micropinner,Z3A6QU9xcFRPR21lLUZod1JKRXZLMFZGNUpJTVptVTk5LUl6ajFQbjFiSlB4V0htbUlHcC1JVUxQN2h0OTdzZ0ZKRWp2bEdxbVIxN0V3UmhnZWY2X0Rxdl80,English,,5,2015-09-11,Ralph Miranda,More useful than reminders,I don't have to set this up to remind me of anything based on time or location... it's just a constant reminder until I'm done with it. More useful to me than a to do app.,,
MicroPinner,Google Play,de.dotwee.micropinner,Z3A6QU9xcFRPRTAxaEpOamdxN1lGVE5DRGhEZXZ4WF9qS1F6YVY4MUZRblNJZ1FnZ19nUkRKdUpENlBJTDhRUTBHc3hldUxYNklJS040UVV3MlQwS2h3NThj,German,,5,2015-09-14,Johannes Brunk,Tolle Idee - exzellente Umsetzung,"Erfordert KEINE Rechte. Verursacht keine Wakelocks. Material Design super umgesetzt und die App ist sehr schlank. Ist wirklich wie ein Schmierzettel, nicht mehr und nicht weniger. Für solche Ideen würde ich auch gern spenden/zahlen. Ich bin immer noch für wählbare Icons bei unterschiedlichen Nachrichten :P Auf die Größe kommt es doch eigentlich gar nicht an :) Beste Grüße an den kreativen Entwickler.",,
MicroPinner,Google Play,de.dotwee.micropinner,Z3A6QU9xcFRPSFpmaW5mSi0wOE9velZqQXpxUzhZUUd1QkloLUhqUmg0cWdVc3dRQm8yNzVRS3lMRUpKOE0zMWVLWW02QjNjdFVzSXA0ZGRWelF4LUhZRERZ,German,,4,2015-09-03,Britta Stricker,Schade...,"Ich hab mich auf die App gefreut, aber sobald ich sie öffnen will stürzt sie ab (A5). Schade :(  Edit: Funktioniert jetzt 👍",,
MicroPinner,Google Play,de.dotwee.micropinner,Z3A6QU9xcFRPSHBCZkg3Tlg2aGFuQ2dJdDV3WnhhQXZqbWFkRWk5di12Y21QYWhqcGFmeFpsTnhnZ3NQN1BmQTRNVUk0Ti1WYzRac25WYXU4RFhiQ1d5UERz,German,,4,2015-09-01,Hakan Bilbal,Tolle App,Tolle einfache App die Sinn macht.Leider stürzt die App seit dem letzten Update ab.Musste sie nun deinstallieren.Schade.Note 4,,
MicroPinner,Google Play,de.dotwee.micropinner,Z3A6QU9xcFRPSDd1OGlKeXdzNHR5OTN1SU84cnBNdXd2VlR5ZEt6clNEcTZBczE1X1ZDME1HQVV3djBsZmN5c0ZwOEo3MWgwTTN2alJYYWJsdTViZkh5emQ0,Spanish,,5,2015-09-27,Antonio Acosta,Está muy bien!,Sólo me gustaría q no apareciese ningún icono en la bara d estado,,
