Topic,Words
0,0.064*speedy,0.031*sometimes,0.023*great,0.021*low,0.020*bit,0.020*new,0.018*your,0.017*function,0.016*nightmare,0.015*an
1,0.031*my,0.024*so,0.023*i,0.022*do,0.021*for,0.020*quicker,0.019*it,0.017*would,0.016*more,0.016*much
2,0.029*first,0.027*annoying,0.024*like,0.019*to,0.017*also,0.017*the,0.015*keyboard,0.015*update,0.015*makes,0.014*met
3,0.031*do,0.028*keyboard,0.021*doesn't,0.020*met,0.020*add,0.020*too,0.018*well,0.017*box,0.017*with,0.016*icons
4,0.037*bar,0.024*launcher,0.022*pretty,0.022*not,0.022*speedy,0.020*makes,0.020*no,0.020*use,0.019*looking,0.018*icons
5,0.039*bar,0.036*couple,0.030*seconds,0.029*as,0.026*fuzzy,0.023*lag,0.022*speedy,0.021*really,0.020*how,0.019*annoying
6,0.049*search,0.036*the,0.026*theme,0.022*on,0.021*seconds,0.021*either,0.021*works,0.020*is,0.018*too,0.018*convenient
7,0.035*little,0.028*mostly,0.028*ideas,0.027*get,0.021*allow,0.020*matching,0.020*if,0.019*really,0.019*current,0.017*great
8,0.068*that,0.035*wanting,0.018*do,0.018*when,0.018*looking,0.017*couple,0.016*kiss,0.015*all,0.015*matching,0.015*would
9,0.027*doesn't,0.026*no,0.023*me,0.022*appear,0.021*because,0.019*hope,0.018*to,0.018*is,0.018*themes,0.018*text
10,0.038*than,0.035*hope,0.025*do,0.023*when,0.020*get,0.019*your,0.019*couple,0.018*won't,0.016*allow,0.016*box
11,0.034*are,0.025*mostly,0.023*annoying,0.023*would,0.022*reduces,0.021*matching,0.021*see,0.020*do,0.019*was,0.018*great
12,0.032*convenient,0.027*reduces,0.027*hope,0.026*quicker,0.023*obstructed,0.021*update,0.019*transparent,0.018*maybe,0.018*first,0.018*transparency
13,0.025*that,0.022*trouble,0.021*new,0.018*than,0.017*love,0.016*sometimes,0.016*quicker,0.015*for,0.015*launcher,0.015*reduces
14,0.032*entire,0.028*already,0.028*option,0.026*be,0.025*card,0.024*4,0.023*phonetic,0.021*usable,0.019*icons,0.019*new
15,0.047*transparent,0.032*sometimes,0.030*matter,0.030*certainly,0.028*poor,0.025*obstructed,0.025*when,0.024*swipe,0.022*version,0.018*things
16,0.043*had,0.033*my,0.021*though,0.018*not,0.017*would,0.017*icon,0.016*by,0.016*most,0.016*contacts,0.016*pretty
17,0.039*clutter,0.038*first,0.028*load,0.026*text,0.025*ideas,0.022*already,0.018*options,0.018*search,0.017*nightmare,0.017*for
18,0.026*get,0.023*be,0.023*card,0.021*first,0.019*nightmare,0.018*star,0.018*solid,0.018*such,0.017*things,0.017*that
19,0.025*able,0.025*on,0.023*icons,0.023*promising,0.022*already,0.020*it,0.019*won't,0.018*version,0.018*contacts,0.018*allow
