App,Store,App ID,Review ID,Country,Version,Rating,Date,Author,Subject,Body,Translated Subject,Translated Body
Syncthing,Google Play,com.nutomic.syncthingandroid,Z3A6QU9xcFRPRzFkYndFMUJ6UW93cEFkQjVINGFsVzZOY2Z2YXY4dGp4R0VRanNBbmZ5TkE2bEg2M0U5Vm5vWXdsZHV6YmRvTllBZnAxRmVRcnRib24zOGc,English,,1,2015-05-23,Tom Dub Yeah,Needs update,never worked,,
Syncthing,Google Play,com.nutomic.syncthingandroid,Z3A6QU9xcFRPRXZCQlo5aHFocG5aSkNpdmVlQ3dqVWx2dDRTeEluWFNEVFpfYVFJaDk4aWVhVF9oRDNDMTlOWEN3MnJDbUpkYVNFTjJpYzZfUGJRUU1mZXc,English,,5,2015-05-22,Lsc Saelim,The best in class,very easy to use,,
Syncthing,Google Play,com.nutomic.syncthingandroid,Z3A6QU9xcFRPRXZCQlo5aHFocG5aSkNpdmVlQ3dqVWx2dDRTeEluWFNEVFpfYVFJaDk4aWVhVF9oRDNDMTlOWEN3MnJDbUpkYVNFTjJpYzZfUGJRUU1mZXc,English,,5,2015-05-22,Lsc Saelim,The best in class,excellent reliability,,
Syncthing,Google Play,com.nutomic.syncthingandroid,Z3A6QU9xcFRPRkhqUUg2LTFINVlOSGdjdmt2OW1CT1RJNEtfSGNFdEE4WTItUWFfY0RqdDNzbkJZOEJFQUJmOTBEbmVXc0t3RTdoem82Z2RZVl85MXZ5MXc,English,,5,2015-05-21,Michele Scala,Replaced BitTorrent Sync,this might look intimidating to the average user and surely requires some tweaking and configuration in order to work intended,,
Syncthing,Google Play,com.nutomic.syncthingandroid,Z3A6QU9xcFRPRkhqUUg2LTFINVlOSGdjdmt2OW1CT1RJNEtfSGNFdEE4WTItUWFfY0RqdDNzbkJZOEJFQUJmOTBEbmVXc0t3RTdoem82Z2RZVl85MXZ5MXc,English,,5,2015-05-21,Michele Scala,Replaced BitTorrent Sync,no limitation,,
Syncthing,Google Play,com.nutomic.syncthingandroid,Z3A6QU9xcFRPR0NtcWlwMDZkVHh5WGFPMDNHTUsyUnNXejUyNW5FcUtkM2RUbFNDaWJ3Slp4WW5PMFZkVndmWnRYdG5FYmNmQmxvcV9EaVVPU0ExX2xUOFE,English,,5,2015-05-19,Alberto García,Great alternativa to BTSync,and here it is,,
Syncthing,Google Play,com.nutomic.syncthingandroid,Z3A6QU9xcFRPR2MxRW5EWm94bVNKSEotQVlmdmpySWgzZjVIckw1TlRJM2h1WFJ4QW5VTEkxaG9leS1NbUk0NjhTUlFRXzVjZnJSWWU2ZXE4TU80aktWLWc,English,,4,2015-05-17,Frantisek Vesely,,on external card is broken at lollipop,,
