App,Store,App ID,Review ID,Country,Version,Rating,Date,Author,Subject,Body,Translated Subject,Translated Body
Syncthing,Google Play,com.nutomic.syncthingandroid,Z3A6QU9xcFRPRVk4Y1hrSkJmRExmOVhnUGJKbVhEVkdxSlJ6UnhCYjVaVG9lQTZLLWdscm8yTWxBbldKV2lmTkRPTWpuUFpIaFR6OUdVMFVVVWhRRmU1LXc,English,,5,2014-08-27,Paul Michel,Can't wait until it's mature,but loving it far and all the update,,
Syncthing,Google Play,com.nutomic.syncthingandroid,Z3A6QU9xcFRPRVk4Y1hrSkJmRExmOVhnUGJKbVhEVkdxSlJ6UnhCYjVaVG9lQTZLLWdscm8yTWxBbldKV2lmTkRPTWpuUFpIaFR6OUdVMFVVVWhRRmU1LXc,English,,5,2014-08-27,Paul Michel,Can't wait until it's mature,open source or nothing,,
