App,Store,App ID,Review ID,Country,Version,Rating,Date,Author,Subject,Body,Translated Subject,Translated Body
Syncthing,Google Play,com.nutomic.syncthingandroid,Z3A6QU9xcFRPR0RtR2R3WE9wR3pOUVBMUDVQLXY4ejNKM1RhRTRqVG1zNzV2YmdPalB1UWFWX041YUVud1pFUHQyRzhKRTRWTmM3LXNTMlg2ZTc4Z04yOXc,English,,3,2014-06-14,Sutrisno Munawir,Good,working from computer to computer,,
Syncthing,Google Play,com.nutomic.syncthingandroid,Z3A6QU9xcFRPR0RtR2R3WE9wR3pOUVBMUDVQLXY4ejNKM1RhRTRqVG1zNzV2YmdPalB1UWFWX041YUVud1pFUHQyRzhKRTRWTmM3LXNTMlg2ZTc4Z04yOXc,English,,3,2014-06-14,Sutrisno Munawir,Good,still to make it work on lg android 422,,
Syncthing,Google Play,com.nutomic.syncthingandroid,Z3A6QU9xcFRPR0RtR2R3WE9wR3pOUVBMUDVQLXY4ejNKM1RhRTRqVG1zNzV2YmdPalB1UWFWX041YUVud1pFUHQyRzhKRTRWTmM3LXNTMlg2ZTc4Z04yOXc,English,,3,2014-06-14,Sutrisno Munawir,Good,hope this can be fixed soon,,
