App,Store,App ID,Review ID,Country,Version,Rating,Date,Author,Subject,Body,Translated Subject,Translated Body
Syncthing,Google Play,com.nutomic.syncthingandroid,Z3A6QU9xcFRPRnlfd2U3NlBTQzd0M1ItMlU2LUFfWGQ3a2dMLXZXTnQ4ZTJrdEVORWEzYXpPeVNMNWltUTVRd1BsMjdDNTJPWm5qdWhlNFJqZmZ3b3UxYUE,English,,4,2014-11-20,,Getting better and better,glitch here and but is to be expected with such early software,,
Syncthing,Google Play,com.nutomic.syncthingandroid,Z3A6QU9xcFRPRnlfd2U3NlBTQzd0M1ItMlU2LUFfWGQ3a2dMLXZXTnQ4ZTJrdEVORWEzYXpPeVNMNWltUTVRd1BsMjdDNTJPWm5qdWhlNFJqZmZ3b3UxYUE,English,,4,2014-11-20,,Getting better and better,have had a little bit extra battery drain upgrading to but nothing too critical,,
Syncthing,Google Play,com.nutomic.syncthingandroid,Z3A6QU9xcFRPR1lNbEJzaFZaNndYcTZDSkp2Yi1VR21hRXlJaVRxbDMwbkN4MmxyTk9NNFJ1TUFWUzY2UE9lZENVTmFCQXBfOW96MzhNT0p4UldmaERmakE,English,,5,2014-11-20,Jason Wright,,fantastic,,
Syncthing,Google Play,com.nutomic.syncthingandroid,Z3A6QU9xcFRPR2liSG1URTRWcXpTckt6R0xNYWtEY3cyM09ZVDk5Qm91YzJpdlpnRXFad0dySV82QjBaNmQ3X2FRRHQ1TE52MnNzeGY1YURsR1Rwb0NXTmc,English,,5,2014-11-18,,Excellent,really great with the latest which fixed a problem i wa having,,
Syncthing,Google Play,com.nutomic.syncthingandroid,Z3A6QU9xcFRPR2liSG1URTRWcXpTckt6R0xNYWtEY3cyM09ZVDk5Qm91YzJpdlpnRXFad0dySV82QjBaNmQ3X2FRRHQ1TE52MnNzeGY1YURsR1Rwb0NXTmc,English,,5,2014-11-18,,Excellent,open material design and easy to use for backing up file,,
Syncthing,Google Play,com.nutomic.syncthingandroid,Z3A6QU9xcFRPR2liSG1URTRWcXpTckt6R0xNYWtEY3cyM09ZVDk5Qm91YzJpdlpnRXFad0dySV82QjBaNmQ3X2FRRHQ1TE52MnNzeGY1YURsR1Rwb0NXTmc,English,,5,2014-11-18,,Excellent,the developer is also very helpful suggesting solution and pointing me towards the bug tracker for idea,,
