App,Store,App ID,Review ID,Country,Version,Rating,Date,Author,Subject,Body,Translated Subject,Translated Body
Syncthing,Google Play,com.nutomic.syncthingandroid,Z3A6QU9xcFRPRzN5dFUxdXgwek16dzRaMV9MbUY5TnJEdk5fLWJES2EwY04yUWNuRmNyeWIwSWJnQnpIWHlybF9UX1Z2QURiamJob3oxS2o4eU94M1ZBVHc,English,,5,2016-05-02,David Wheatland,Awesome!,doe exactly what i need support block level change and just work,,
Syncthing,Google Play,com.nutomic.syncthingandroid,Z3A6QU9xcFRPSG5rcjNHcUh4bG9RdHVFN29BWXRyRGNzck1SV2Q4X1hVXy0wNkRKenJDUU5HWF9BN2R1QVpRMVJtYy1aQVQwOHl0OUhzWVJyc2JXc001clE,English,,5,2016-04-30,Asger Kennedy Møller,Solid,my family is now connected in our own private cloud with no upper storage limit,,
Syncthing,Google Play,com.nutomic.syncthingandroid,Z3A6QU9xcFRPRndyZUE3VHVPLXRMRklsZVMxemtIX1hENmp4MGoyYTNpcndfVDY0eXpibUtKOThGUFdWUUhrV1ZGMGpySFpnTEt5ZjU3OF9qVkxNdmNVUWc,English,,2,2016-04-30,Jérémy Bertozzi,,crash add a new device,,
Syncthing,Google Play,com.nutomic.syncthingandroid,Z3A6QU9xcFRPRndyZUE3VHVPLXRMRklsZVMxemtIX1hENmp4MGoyYTNpcndfVDY0eXpibUtKOThGUFdWUUhrV1ZGMGpySFpnTEt5ZjU3OF9qVkxNdmNVUWc,English,,2,2016-04-30,Jérémy Bertozzi,,not working,,
Syncthing,Google Play,com.nutomic.syncthingandroid,Z3A6QU9xcFRPRndyZUE3VHVPLXRMRklsZVMxemtIX1hENmp4MGoyYTNpcndfVDY0eXpibUtKOThGUFdWUUhrV1ZGMGpySFpnTEt5ZjU3OF9qVkxNdmNVUWc,English,,2,2016-04-30,Jérémy Bertozzi,,waiting for an update,,
Syncthing,Google Play,com.nutomic.syncthingandroid,Z3A6QU9xcFRPRmhYb1hhN3c3ZVJVYVJJUVJWUFl4UDJ4SmJRZHBPazBFaTRBak84MjhnVF81OWNTR2FpM0tseEJNal9UUEs0M1hTY2tOTUh1blJTLVVjZnc,English,,1,2016-04-26,Matthew Kyle,Unreliable,sorry guy i love open source but this burned me one time too many,,
