Topic Index 1,Topic Index 2,Topic Similarity
2,10,11.11111111111111
3,1,11.11111111111111
10,9,11.11111111111111
13,11,11.11111111111111
17,2,11.11111111111111
18,16,11.11111111111111
0,8,5.263157894736842
1,7,5.263157894736842
4,5,5.263157894736842
6,4,5.263157894736842
7,13,5.263157894736842
8,18,5.263157894736842
11,14,5.263157894736842
12,6,5.263157894736842
14,17,5.263157894736842
19,3,5.263157894736842
5,0,0.0
9,12,0.0
15,15,0.0
16,19,0.0
