Topic,Words
0,0.106*would,0.106*alarms,0.065*option,0.052*i,0.050*match,0.034*alarm,0.031*than,0.029*the,0.027*our,0.027*there
1,0.064*design,0.061*plenty,0.056*alarm,0.051*options,0.040*of,0.037*than,0.037*work,0.035*like,0.032*looks,0.031*well
2,0.074*user,0.059*alarm,0.054*24,0.054*work,0.044*really,0.043*match,0.042*my,0.042*i,0.040*of,0.038*90
3,0.102*needs,0.079*hour,0.070*treat,0.054*really,0.052*plenty,0.050*widget,0.047*alarm,0.038*better,0.036*too,0.036*though
4,0.088*match,0.072*24,0.063*to,0.061*work,0.056*a,0.047*other,0.045*plenty,0.041*options,0.037*my,0.032*works
5,0.079*option,0.073*would,0.068*though,0.067*see,0.059*options,0.049*a,0.049*alarm,0.048*good,0.047*too,0.044*love
6,0.121*24,0.084*than,0.066*like,0.063*alarm,0.058*and,0.045*can't,0.041*works,0.040*i,0.039*option,0.038*good
7,0.087*too,0.076*90,0.061*plenty,0.054*would,0.049*options,0.046*keep,0.042*alarm,0.035*love,0.034*alarms,0.033*work
8,0.107*options,0.100*work,0.079*other,0.075*this,0.050*option,0.044*match,0.041*keep,0.035*much,0.035*works,0.030*widget
9,0.131*there,0.069*alarms,0.066*design,0.052*match,0.051*alarm,0.044*to,0.043*clock,0.033*work,0.032*much,0.031*treat
10,0.076*can't,0.069*our,0.051*better,0.050*too,0.049*a,0.046*works,0.040*clock,0.039*24,0.039*alarms,0.037*plenty
11,0.094*to,0.061*there,0.061*clock,0.049*alarms,0.049*up,0.046*than,0.041*work,0.039*looks,0.036*design,0.034*of
12,0.083*hour,0.058*options,0.050*alarm,0.049*i,0.044*works,0.042*there,0.037*user,0.036*our,0.035*this,0.031*click
13,0.112*this,0.088*up,0.072*of,0.061*and,0.048*alarm,0.048*the,0.045*option,0.039*can't,0.035*well,0.029*clock
14,0.098*option,0.085*like,0.072*a,0.058*love,0.052*plenty,0.042*of,0.037*the,0.034*needs,0.030*much,0.030*too
15,0.070*works,0.064*better,0.059*options,0.052*well,0.050*alarm,0.044*can't,0.043*than,0.042*though,0.037*there,0.036*and
16,0.068*i,0.063*work,0.054*up,0.049*plenty,0.048*can't,0.047*really,0.046*needs,0.044*alarm,0.040*hour,0.039*this
17,0.098*better,0.048*option,0.043*i,0.043*get,0.041*can't,0.040*much,0.040*options,0.037*like,0.035*looks,0.034*than
18,0.116*keep,0.079*good,0.069*see,0.065*our,0.055*well,0.051*i,0.039*this,0.039*needs,0.035*up,0.033*can't
19,0.069*the,0.060*needs,0.059*90,0.058*would,0.052*there,0.050*can't,0.049*get,0.044*i,0.043*work,0.042*options
