Topic,Words
0,0.074*the,0.063*this,0.062*by,0.059*while,0.057*works,0.052*outstanding,0.051*using,0.038*of,0.036*a,0.036*ago
1,0.115*a,0.084*by,0.067*from,0.055*no,0.048*are,0.043*this,0.041*not,0.040*the,0.036*since,0.031*i
2,0.090*and,0.062*used,0.052*be,0.052*using,0.047*no,0.046*disable,0.043*by,0.041*it,0.039*just,0.037*for
3,0.058*ago,0.057*installation,0.053*plays,0.047*which,0.046*using,0.045*point,0.043*outstanding,0.039*perfect,0.039*just,0.037*a
4,0.085*of,0.071*located,0.058*using,0.053*which,0.048*just,0.039*perfect,0.033*a,0.031*the,0.030*and,0.028*headphones
5,0.116*headphones,0.091*some,0.053*since,0.051*problems,0.045*i,0.041*works,0.041*plays,0.040*alarm,0.031*to,0.030*it
6,0.081*a,0.072*but,0.070*works,0.058*too,0.055*close,0.050*buttons,0.048*it,0.048*point,0.043*of,0.041*from
7,0.104*through,0.103*since,0.058*no,0.052*plays,0.050*for,0.049*alarm,0.048*be,0.039*disable,0.035*located,0.031*some
8,0.080*half,0.072*but,0.069*no,0.067*by,0.053*installation,0.049*not,0.037*and,0.036*a,0.034*ago,0.034*which
9,0.053*was,0.051*headphones,0.047*great,0.046*using,0.044*be,0.043*too,0.042*problems,0.040*which,0.040*not,0.037*for
10,0.103*some,0.060*since,0.051*year,0.048*perfect,0.045*headphones,0.044*plays,0.043*too,0.040*for,0.040*through,0.036*this
11,0.105*the,0.092*located,0.060*for,0.046*speakers,0.042*headphones,0.040*works,0.036*not,0.033*i,0.032*by,0.030*ago
12,0.064*installation,0.062*but,0.062*to,0.058*too,0.057*using,0.046*headphones,0.044*snooze,0.042*since,0.040*great,0.039*a
13,0.087*was,0.073*problems,0.073*through,0.070*works,0.062*using,0.046*for,0.037*the,0.036*but,0.033*while,0.033*too
14,0.096*alarm,0.059*perfect,0.058*by,0.058*outstanding,0.056*to,0.042*close,0.038*was,0.037*problems,0.033*great,0.031*using
15,0.131*it,0.073*outstanding,0.055*for,0.046*snooze,0.045*great,0.043*not,0.042*while,0.039*close,0.039*just,0.034*be
16,0.073*i,0.063*used,0.056*too,0.053*to,0.045*by,0.045*ago,0.044*speakers,0.040*snooze,0.039*headphones,0.038*no
17,0.072*to,0.064*of,0.062*just,0.060*buttons,0.047*works,0.044*point,0.043*alarm,0.041*clock,0.039*for,0.035*year
18,0.081*works,0.077*located,0.061*headphones,0.047*too,0.047*unreliability,0.041*be,0.038*clock,0.037*installed,0.037*but,0.035*for
19,0.112*was,0.088*using,0.065*speakers,0.051*some,0.049*perfect,0.046*plays,0.045*be,0.036*are,0.035*by,0.033*it
