Topic,Words
0,0.060*works,0.059*wow,0.052*on,0.049*need,0.047*that,0.045*clock,0.039*alarm,0.036*running,0.035*all,0.032*and
1,0.084*good,0.083*free,0.066*night,0.052*love,0.040*finally,0.037*not,0.037*on,0.036*great,0.036*developer,0.035*or
2,0.094*better,0.083*good,0.081*than,0.074*works,0.051*wow,0.050*clock,0.050*night,0.041*free,0.034*rebooting,0.033*have
3,0.120*which,0.069*use,0.057*be,0.049*what,0.046*have,0.042*or,0.041*night,0.040*a,0.029*developer,0.026*on
4,0.075*better,0.067*have,0.061*alarm,0.055*use,0.049*turn,0.046*i,0.044*nice,0.041*which,0.035*just,0.034*what
5,0.055*to,0.054*pretty,0.049*works,0.048*need,0.046*phone,0.045*developer,0.044*all,0.041*and,0.038*have,0.034*would
6,0.101*rebooting,0.084*better,0.060*alarm,0.058*which,0.053*great,0.044*running,0.041*turn,0.038*it,0.034*many,0.034*it's
7,0.118*at,0.046*clock,0.044*rebooting,0.041*all,0.040*be,0.039*or,0.037*just,0.036*many,0.035*alarm,0.035*it
8,0.067*clock,0.050*the,0.049*running,0.049*rebooting,0.046*it,0.037*exactly,0.037*just,0.035*wow,0.034*good,0.033*night
9,0.075*love,0.071*which,0.064*thanks,0.050*be,0.043*without,0.039*turn,0.038*not,0.035*it's,0.034*it,0.033*at
10,0.092*or,0.078*clock,0.060*pretty,0.058*exactly,0.056*way,0.049*works,0.044*like,0.044*running,0.041*be,0.037*than
11,0.082*love,0.074*way,0.053*other,0.051*be,0.050*many,0.048*would,0.043*really,0.040*at,0.039*wow,0.035*simple
12,0.077*exactly,0.073*phone,0.061*running,0.054*which,0.051*was,0.043*a,0.043*it,0.041*would,0.038*like,0.036*really
13,0.060*phone,0.058*one,0.057*what,0.046*on,0.045*or,0.044*at,0.043*need,0.043*just,0.043*running,0.042*which
14,0.069*was,0.064*nice,0.049*and,0.048*developer,0.044*not,0.042*simple,0.039*turn,0.039*free,0.038*it's,0.036*really
15,0.061*wow,0.059*running,0.058*have,0.053*nice,0.041*phone,0.037*thanks,0.037*was,0.033*use,0.033*love,0.030*would
16,0.091*to,0.052*and,0.052*leaving,0.051*use,0.051*better,0.045*need,0.042*night,0.035*an,0.035*was,0.033*or
17,0.083*all,0.067*turn,0.065*leaving,0.054*need,0.044*to,0.043*phone,0.035*the,0.033*night,0.029*not,0.028*really
18,0.074*great,0.068*was,0.064*nice,0.051*turn,0.048*be,0.044*my,0.043*one,0.038*that,0.038*the,0.036*need
19,0.103*my,0.075*it,0.062*at,0.051*rebooting,0.047*use,0.037*and,0.034*pretty,0.033*really,0.032*phone,0.030*developer
