Topic,Words
0,0.145*use,0.097*simply,0.073*u,0.073*features,0.064*this,0.058*alarm,0.053*is,0.050*ever,0.042*good,0.038*sometimes
1,0.136*clean,0.126*u,0.084*sometimes,0.082*wanna,0.073*the,0.069*just,0.040*features,0.039*still,0.037*is,0.035*easy
2,0.147*u,0.103*simple,0.058*features,0.057*ask,0.052*anyway,0.049*awesome,0.048*job,0.041*just,0.040*clean,0.039*this
3,0.203*simple,0.085*so,0.060*this,0.060*ever,0.049*and,0.048*still,0.045*easy,0.042*is,0.040*awesome,0.035*clean
4,0.113*anyway,0.085*good,0.079*just,0.072*ever,0.071*job,0.063*awesome,0.058*still,0.044*fantastic,0.043*can,0.041*is
5,0.083*features,0.082*use,0.072*awesome,0.067*u,0.067*working,0.052*this,0.047*still,0.043*just,0.042*simply,0.040*other
6,0.101*not,0.100*sometimes,0.084*to,0.076*can,0.051*u,0.043*awesome,0.043*is,0.042*alarm,0.039*best,0.036*just
7,0.135*still,0.077*anyway,0.073*features,0.073*fantastic,0.068*good,0.064*other,0.055*ever,0.052*just,0.051*wanna,0.040*ask
8,0.167*just,0.115*to,0.065*features,0.058*good,0.049*ever,0.046*awesome,0.045*so,0.038*sometimes,0.038*alarm,0.030*simply
9,0.165*ever,0.086*sometimes,0.073*good,0.067*to,0.065*fantastic,0.061*responsive,0.058*still,0.057*easy,0.047*this,0.037*alarm
10,0.111*other,0.072*simple,0.063*and,0.063*simply,0.060*use,0.056*wanna,0.052*is,0.048*just,0.045*anyway,0.044*still
11,0.092*ever,0.089*u,0.087*simply,0.077*still,0.076*good,0.074*so,0.065*simple,0.046*use,0.046*fantastic,0.044*other
12,0.128*features,0.108*u,0.086*other,0.082*alarm,0.068*is,0.045*best,0.044*the,0.042*fantastic,0.041*good,0.039*anyway
13,0.180*ever,0.083*wanna,0.080*best,0.069*still,0.061*alarm,0.049*the,0.044*fantastic,0.044*this,0.038*other,0.037*can
14,0.102*fantastic,0.073*u,0.067*to,0.064*is,0.063*clean,0.061*this,0.060*not,0.059*still,0.054*responsive,0.052*the
15,0.143*and,0.123*alarm,0.083*is,0.068*just,0.059*ever,0.056*wanna,0.055*features,0.053*simple,0.047*u,0.044*other
16,0.101*is,0.091*best,0.084*anyway,0.079*alarm,0.068*clean,0.055*use,0.055*can,0.048*not,0.046*the,0.039*and
17,0.091*just,0.088*fantastic,0.078*alarm,0.075*simply,0.070*not,0.065*working,0.064*sometimes,0.061*features,0.044*good,0.044*so
18,0.103*simple,0.100*can,0.099*easy,0.086*features,0.067*wanna,0.067*just,0.051*anyway,0.049*still,0.048*simply,0.035*ask
19,0.112*and,0.101*best,0.095*wanna,0.094*can,0.062*good,0.057*u,0.048*features,0.038*easy,0.035*awesome,0.034*not
