# deletions,date,commit message
2,2015/3/14,Added query to search through all armor
48,2015/3/22,Implemented filtering for the Armor List.
48,2015/3/22,Implemented filtering for the Armor List.
1,2015/3/20,Update README.md
5,2015/3/20,Update README.md  Add badges
48,2015/3/22,Implemented filtering for the Armor List.
23,2015/3/22,Began adding Talisman support.
22,2015/3/22,Changed ailments from listview to dynamically populated LinearLayout.
149,2015/3/21,Ailments now show up in the Monster Details page. The query still returns all rows until I can figure out why the ailment display is bugged.
1493,2015/3/21,Weapon details pages are now scrollable. Hunting horn melodies now scroll with the entire page instead of in their own list.
1,2015/3/21,Query and cursor structure for Ailments complete. Monster weaknesses is WIP until we finalize data structure.
1,2015/3/20,Update README.md
5,2015/3/20,Update README.md  Add badges
5,2015/3/19,Fixed a bug causing the app to crash when clicking on a skill tree in the Armor Set's skill list.
99,2015/3/19,Created an Equipment class to act as an intermediate between Item and Armor also allowing us to make Talismans and Weapons in the Armor Set Builder.
2,2015/3/19,Fix code
2,2015/3/19,Clicking the Piece Info option in the Armor Set Builder popup menu now takes the user to the armor piece's info page.
1,2015/3/18,Added star "creatable" indicator to weapon tree tab.
60,2015/3/18,Drawer item activities now launch their own tasks. Pressing back on these results in exiting the app. Need to prevent current item from being pressed now.
2,2015/3/18,Preserve wishlist on database upgrade
93,2015/3/18,Added armor piece icons to the drawable folder.  Added more functionality to the Armor Set Builder.  Made dialogs prettier fixed the black text on dark background previously present in the popup menus and swapped out and added some graphics.
0,2015/3/18,Added armor piece icons to the drawable folder.
34,2015/3/17,Fixed a bug preventing the skills list from updating when a user removed an armor piece.
42,2015/3/17,Fixed a bug with the decoration removal logic.
26,2015/3/17,Make it so the armor and decoration selection windows only close when a result is selected. Also only show the type of armor the user is looking for.
5,2015/3/15,Wishlist dialog layout and typo fixes.
0,2015/3/14,fixed Slagloth icon name bug.
2,2015/3/14,Changed name from "Skill Trees" to "Skills"
7,2015/3/14,Added visual slots display to armor and decorations.
11,2015/3/14,Jewel details layout cleanup.
26,2015/3/14,Added slots required to jewel details.
9,2015/3/14,Changed weapon slot display back to O and -. Added O- display to weapon detail.
363,2015/3/14,Decorations completed!
3,2015/3/13,Put BACK button on the top left of every activity except root activities.
0,2015/3/13,Updated alt quest icons.
0,2015/3/13,swapped new nav drawer icons with thick borders
4,2015/3/12,More work on decoration support in the Armor Set Builder.
92,2015/3/11,Added a contextual menu still needs to be completed.
208,2015/3/11,Completely edited the armor set builder class making it far  more modular and maintainable
152,2015/3/11,Functional decorations! (sort of)
2,2015/3/10,Add missing Hunting Horn songs
1,2015/3/10,Safe layout for long strings in horn melodies
60,2015/3/10,Safe layout for long strings in horn melodies
1,2015/3/10,Further improvements to hunting horn melodies list
1,2015/3/10,Further improvements to hunting horn melodies list
3,2015/3/10,Update version
8,2015/3/10,Further improvements to hunting horn melodies list
90,2015/3/10,Further improvements to hunting horn melodies list
30,2015/3/10,More appropriate sizing for hunting horn melodies
1,2015/3/10,Update about page
2,2015/3/10,Increment project to 1.03 in manifest
18,2015/3/10,Update readme and changelog
1,2015/3/10,Changed to a zipped database to save APK space
0,2015/3/10,Process images with PNGGauntlet
0,2015/3/10,Update location maps
0,2015/3/10,Update to latest database revision
0,2015/3/10,Add remaining monster icons
1,2015/3/10,Fixed bug with second note in hunting horn tree not loading the first time the image is loaded
4,2015/3/10,Working and correct horn melodies. Could use optimization but list doesn't usually scroll anyway.
39,2015/3/10,Tidied up armor set builder classes adding Javadocs.
46,2015/3/10,Horn Melodies displays. Note display is buggy and showing incorrect songs.
