Topic Index 1,Topic Index 2,Topic Similarity
3,6,17.647058823529413
9,16,11.11111111111111
16,8,11.11111111111111
17,19,11.11111111111111
2,4,5.263157894736842
4,0,5.263157894736842
5,1,5.263157894736842
7,3,5.263157894736842
8,5,5.263157894736842
10,2,5.263157894736842
11,7,5.263157894736842
12,9,5.263157894736842
14,14,5.263157894736842
15,12,5.263157894736842
18,11,5.263157894736842
19,13,5.263157894736842
0,10,0.0
1,15,0.0
6,17,0.0
13,18,0.0
