Topic Index 1,Topic Index 2,Topic Similarity
1,11,11.11111111111111
4,13,11.11111111111111
12,6,11.11111111111111
14,1,11.11111111111111
16,12,11.11111111111111
0,2,5.263157894736842
2,3,5.263157894736842
3,0,5.263157894736842
6,10,5.263157894736842
7,4,5.263157894736842
8,5,5.263157894736842
9,7,5.263157894736842
10,14,5.263157894736842
13,19,5.263157894736842
15,9,5.263157894736842
5,8,0.0
11,15,0.0
17,16,0.0
18,17,0.0
19,18,0.0
