Topic Index 1,Topic Index 2,Topic Similarity
19,16,0.5145000000000001
13,12,0.4881
5,7,0.3952
14,11,0.3751
1,14,0.37489999999999996
11,10,0.3492
8,5,0.32889999999999997
4,2,0.3185
16,6,0.2724
2,17,0.26959999999999995
9,0,0.2508
6,19,0.2385
18,18,0.21459999999999999
15,15,0.17279999999999998
3,9,0.1638
10,8,0.12
12,1,0.094
0,3,0.0
7,4,0.0
17,13,0.0
