# deletions,date,commit message
1,2016/2/08,Make WebView 49.0.2623.34 happy  Fixes #1072
88,2016/2/09,Extract methods to make the code a bit more readable
186,2016/2/09,Extract Push thread code to named inner class
1,2016/2/09,Remove unnecessary variable increment
6,2016/2/09,Remove unnecessary local variable
111,2016/2/09,Code style fixes and minor cleanup
122,2016/2/09,Extract code to encode/decode folder names to FolderNameCodec
112,2016/2/09,Remove now unused methods from remote Folder subclasses
52,2016/2/09,Remove LocalFolder-specific methods from Folder
24,2016/2/09,Extract code to parse SEARCH response to SearchResponse
50,2016/2/09,Extract code to parse COPYUID response to CopyUidResponse
26,2016/2/09,Extract code to parse SELECT/EXAMINE response to SelectOrExamineResponse
32,2016/2/09,Extract code to parse PERMANENTFLAGS to PermanentFlagsResponse
3,2016/2/09,Tidy up return type of getMessagesFromUids()
8,2016/2/09,Inline constant arguments for getMessagesFromUids()
411,2016/2/09,Code style fixes and minor code cleanup
51,2016/2/08,migration: some cleanup and better test coverage here and there
3,2016/2/08,migration: test and nail down MimeStructureState behavior some more
33,2016/2/08,migration: incorporate feedback
