App,Store,App ID,Review ID,Country,Version,Rating,Date,Author,Subject,Body,Translated Subject,Translated Body
Bankdroid,Google Play,com.liato.bankdroid,Z3A6QU9xcFRPRTR1U2lhdnNSdEQxTWs3LWFDMU15VWJyc3pxUTNXalpCQkstUjlSZ3JNTlhtNjUzcWRBQlU0YndvUlJ6RHRoeGVCXzh5RWxUZGw2Tk1f,English,,5,2014-01-07,Tord Persson,Very useful app,Great app been using it every day for long time. Please please pretty please can you update the UI from Gingerbread to JB/KK? The interface is showing age nowadays and it is the only negative thing about this app. It really really needs an update...,,
Bankdroid,Google Play,com.liato.bankdroid,bGc6QU9xcFRPSGNrLXdiMjgyVzJCcFdaM3BxUHFpelNPcGd0Y2Jwc3NiSy0tbnVTRmVYUGlWbVVmOUF5U2pucHY0QmNBaFREcDVva182MENYV1FHNndT,English,,5,2014-01-07,A Google User,Awesome,Does what it is supposed to do!,,
Bankdroid,Google Play,com.liato.bankdroid,Z3A6QU9xcFRPRnB0aGJsM1l2dUxON0ZsUExNUW1TTU1SU2ZNajVGemQxb2Y4QmR5WEZRdkphMzRmamVSMno5Qi1FRXl5QUc3ZGUtR0Q3dXN0QXBBWVRo,English,,3,2013-12-27,Lars Fløe,Great but breaks now and then,Nice and cool app that complies a lot of different balances into one central overview. How ever it breakers now and then when providers sites changes functionality or log in procedure..,,
Bankdroid,Google Play,com.liato.bankdroid,bGc6QU9xcFRPRWItMDFBUER2YXdzQUxzbXNVZGRiMkJ4Qmw4ZUtCdW51UkR0akliV0tWdUJ2VlFvdXBPRF9DN3RRUFI2Yk85dWsyLXdWd0w2aFZUV3cx,English,,5,2013-12-23,A Google User,Jättebra bra! Smidig app,Nu fungerar allt alldeles utmärkt för mig. Jag kommer ge den 5 stjärnor. För enkelhet att ha koll på sina konton.,,
Bankdroid,Google Play,com.liato.bankdroid,bGc6QU9xcFRPSFNuckZuNFI2NllJMVlhTVBaZTlqTTFMX3FSaGxJRFVUa2c1MzUzM2ZMcVFEZUtIYXA1OU51UWZjYWJ5cFlSeE1Sd3dqaFNVM0RjZmdD,English,,5,2013-12-20,A Google User,Bra,Klockren app. Funkar prima. Sen till alla er som gnäller om att det inte går att föra över pengar mellan konton så finns det appar från bankerna.,,
Bankdroid,Google Play,com.liato.bankdroid,Z3A6QU9xcFRPR0NQbVVtMEJZdGhLTzBuWGpOLVc5LWo2V1VrTm1PMWhZcWNra1JXSG1MTzEwX0lnTVl4V2hZNFlNSTlBUy1MYlhtTHhYSHhCT0d3a3Ru,English,,3,2013-12-19,Mikael Alfredsson,Eurocard seems broken,Eurocard readout gives a FC,,
Bankdroid,Google Play,com.liato.bankdroid,bGc6QU9xcFRPR1ExdUh1QklibmR6a3BEeDdxRWpIazlacGJ4ZElLNHpCaG1CNEhtbklxcVoyZTF2V1NSUHpNRENhanpsTEtEM3AtTjlzaDQ1T3hzY0tm,Swedish,,5,2014-01-23,En av Googles användare,Problem med Nordea utomlands.,Jag har problem både med Nordea nu när jag är i Sydafrika. Med den nya Nordeaappen som har kommit fungerar det dock bra. Skulle vara bra om nu kunde fixa det...,,
Bankdroid,Google Play,com.liato.bankdroid,Z3A6QU9xcFRPSF9sTHlfbFpHU1llNHRJR0QySzhQX2hVMUhCd0JnSU54dEtsXzlfWEpGeW1kdTAxbWhTQVpWLUtHRndRSDBQbjZ5b2ZnY1NTRkFBU2k5,Swedish,,1,2014-01-21,Lior Azouri,"",Funkar inte,,
Bankdroid,Google Play,com.liato.bankdroid,Z3A6QU9xcFRPRVBFeTBxb3NOakl2U3JJdHhjdEpkcmE5bjYwQzVscWxCdUhFT1ExMjRQLWJsUkVTMGJySWtyV0gwMzdEcHg1Z0wzNWI3RFRPZXY5eTlG,Swedish,,1,2014-01-21,Mattias Eriksson,Crash,Appen crashar hela tiden.,,
Bankdroid,Google Play,com.liato.bankdroid,Z3A6QU9xcFRPSDJtS2ZDUzNQMjUtX0t6YXc3bEc3TUlxY190bzhXb01YN1BoeUJ0SFJodVByQy0zdzBrVndXUGFCVW5wM3FZTXp4OU1GbnN2cVFydVZD,Swedish,,5,2014-01-20,Marcus Nilsson,Över alla förväntningar!,Absolut den bästa widgeten jag någonsin haft! Och då har jag haft Android sedan 3 år tillbaka. 5 av 5!,,
Bankdroid,Google Play,com.liato.bankdroid,Z3A6QU9xcFRPSGhQNnFxYjhKelFmc3IxbUVnWE1ya25hdk9JWk1LT09nNUhDLVNrWDM2aHVmQTJOV3ZLT0NRWlU2UmVTWXIydDg1a3dlZGp4ZFdXOW0w,Swedish,,4,2014-01-19,Magnus Lindén,Kanon,Riktigt bra överblick på sina konton. Synd bara att Statoil inte förstår att uppdatera sitt säkerhetscertifikat och att man inte kan se lån också på Ikanobanken som gick förut.,,
Bankdroid,Google Play,com.liato.bankdroid,Z3A6QU9xcFRPR2ZNb3NtaTMydTAzRlJ4QjdZZDI5LVpONkpsUkFqV2lVSTZwaGQ1MUtWUzBYSHVySC1iSGFQZkFNeWtlYjhOVUFTNDBLdmZEUHJCdmlp,Swedish,,3,2014-01-16,Patrik Olausson,Hittar ingen lösning,Kommer inte in på seb efter jag bytt mobil. Har testat o gå in på seb mm mm. 1 stjärna tills jag löst det. Om det går. Nu har det löst sig. Efter strul med kod på seb så nu inga bekymmer än. 3a,,
Bankdroid,Google Play,com.liato.bankdroid,bGc6QU9xcFRPR2l4LWw0a0VpeWc4dk5QeThmUmRKd2dyVUZsTnIyRkk4U2pKLTJ3QTZlb2V3S21QZDVQS21JWjdFREVEWWgtTmxLZnNzOGFxWkR6bWZ1,Swedish,,1,2014-01-09,En av Googles användare,Besviken,Saknas Sparbanken Öresund???,,
Bankdroid,Google Play,com.liato.bankdroid,Z3A6QU9xcFRPSEtVNHJOM2VkRUl0cDU4OENSbjYtUFVVUm5VZlN0SWEzZUVSNVZaaC11cHIzclBsNk1vdTBBLXZ5M21lbWpveTBpSW9ISC1lamZxT2p2,Swedish,,5,2014-01-05,Magnus Jonasson,Utmärkt!,Bankdroid gör precis vad den säger och fungerar dessutom utmärkt!  En stor community runt appen håller kvaliteten och buggarna på rätt nivå.,,
Bankdroid,Google Play,com.liato.bankdroid,Z3A6QU9xcFRPR3l4SWZCZkdXaHpzOWoxcTBvX1lHNVhxUXNkekZ0WWEtZk5SeUxOTEs2aTBIZi1uRXlXalBfakplZDV2M1gxMG85T0x4X0RBVnZGS1ds,Swedish,,5,2014-01-05,Darmin Huseinović,"",Jätte bra översikt för ekonomin. Appen buggar ibland men utvecklas hela tiden,,
Bankdroid,Google Play,com.liato.bankdroid,Z3A6QU9xcFRPRTMwT0tTSmZUTzdrdUUzazVETHo0T0c0S1VjZFppUkF5MG5kUTBwOVBWckVhTHVPc3g4dThISExaTVdYUHBid2JoODhrcGpIcHpUbFp6,Swedish,,4,2014-01-03,Jonas Nilsson,Bra,Men buggar en del med vissa banker.,,
Bankdroid,Google Play,com.liato.bankdroid,bGc6QU9xcFRPRVd0dTFualdRaExKVTRSM1pQTUtWTG10WFAwZkZtUVVEcGFLSWM0OXBsbUFnT1QtWTNwczZHRWM1NDN2MkRERDJITHV4YTN5ZWpndkZ3,Swedish,,5,2014-01-02,En av Googles användare,Klockren!,"För er som inte fattat! Killen gör detta monsterjobb gratis, och alla mina sex banker funkar klockrent! Tack! Köper direkt om du nånsin gör en premium!",,
Bankdroid,Google Play,com.liato.bankdroid,Z3A6QU9xcFRPR2pKWmNpcktjczZYeVlxTHFLei1XTE9PLWtFQ1M3RnJEVmRWR0JxUUFhaGZEdWV4X1dINlBsQUd5ck1pU0szTjEwVy0yNHRqbUx0TGJz,Swedish,,5,2013-12-31,Miklos Halasz,"",Få pröva först,,
Bankdroid,Google Play,com.liato.bankdroid,Z3A6QU9xcFRPRkM0dmpya1RuZnpTSTU5LXZOWDJiYTVlcDZMNk1KbElRcmE1ZXBfUnhZb0Zrc3Juc2VsdmxtZHJXMDJRc29oQjdlY3oxRmNHNzFiV3hW,Swedish,,4,2013-12-29,"",Alla konton på ett ställe!,Har funkat nästan problemfritt hela tiden. Vid autouppdatering av bankdroid loggas jag ut i swedbank. Använd inte autouppdatering om ni går in i er bank samtidigt!,,
Bankdroid,Google Play,com.liato.bankdroid,Z3A6QU9xcFRPRnNSYklMU2Q1WUpVVlB2czNNQWdYYjNRNzRSUkZINjJQaExHNHhxUWdpQWtTQXNGVUxaMVdOSW5hY2x3em9mNXg1WEp2VjEzblVSaGox,Swedish,,5,2013-12-28,Linnea Delvert,"",Nöjd!,,
Bankdroid,Google Play,com.liato.bankdroid,Z3A6QU9xcFRPSGxIM3pQZXdTbk0tSTFNdGNUNTBBNVh5eVpXSllxUm1WRVhDU1UzeHVzM3pSOE5HN0N1dHFYUGRWMzF2bDNuQ01MTk5BUy1tTk9iZ0p2,Swedish,,3,2013-12-22,Annika Ersson,Bra,"Hade velat ge 5stjärnor. Men har på sistonde börjat crasha heeeela tiden. Innan har det funkat huuuur bra som helst, på min galaxy s3.. :/",,
Bankdroid,Google Play,com.liato.bankdroid,Z3A6QU9xcFRPR2U1YzFIOE5hV0kxM2ZsbVNZMmhGRGFBc3doQzREdU53V0Ffa29ld1hTX29YbEVaTVNwR1dsNXBUa3RJNGNhdmFMdU9xQnB1bERVV24w,Swedish,,5,2013-12-21,Hannes Krantz,.,Galet bra app!,,
Bankdroid,Google Play,com.liato.bankdroid,Z3A6QU9xcFRPRzBjNV9hSTY5Q24tSEowX0xnSTRPYzhEM3ZQMG5NNk1JendKRnp4bnMxclVJeE1nODFmUThfVnVBRVJ4VTZVQzZBUm1JTzdTSUdzUzRq,Swedish,,4,2013-12-21,jakob fajersson,Samsung s2,Hur gör man om man har Swedbank med säkerhets kod ? :-)   Appen verkar vara bra,,
Bankdroid,Google Play,com.liato.bankdroid,Z3A6QU9xcFRPRzZya3huR1R5VnN4VWZ3VVAzbTdNcmRGUWdJaVdNb2hKZ09mUHUzYzVYOF9zWmU4dDJ4ZjB3SnZ3U1hTaGsySUlJNUJJNC1rVThLTVVD,Swedish,,5,2013-12-20,Armin Tankovic,Topp,Perfektion,,
Bankdroid,Google Play,com.liato.bankdroid,Z3A6QU9xcFRPSFpJOHYtR1k4NUpVdW1IZnM0dnlSWnRrQ3Y0R1N0Nlp3dFBPeWZjemoxeU42YlhKcjk5MUZ1aHFXVVFjT3p2VVh3T1BhM0p2X3NKUVFP,Swedish,,1,2013-12-20,Sebastian Friberg,Först!!,Ibörjan funkade den nästan hel felfritt. Men nu de senaste månader så får man felmeddelande om att dwt har stoppats. Har säkert skickat mer än 20 felrapporter. Nae. Bort med skiten,,
Bankdroid,Google Play,com.liato.bankdroid,bGc6QU9xcFRPRUQyUW5yQzB2d1Q5eHRmZThJM21NSVJxTlFzZHFWZ3RTN0hQMkp5bU56YVZfUVJ2TzF6M3VqbTV4eFp4YXdIbGZqMC1NUW9NYXNpWUls,Swedish,,3,2013-12-19,En av Googles användare,"",Hae,,
Bankdroid,Google Play,com.liato.bankdroid,Z3A6QU9xcFRPSHFpbWw4OTRjcUxqM3Fuei1uZzNXeUdBY2lsV0x2bDJfRGhmekFmc1ZWZURwdEs2bTU4am9iYVA2bWMtU2lxSk1UMkNRR1F6NzM5bFJE,Swedish,,5,2013-12-19,Alexander Weinbach,S G Note 3,Toppen!,,
Bankdroid,Google Play,com.liato.bankdroid,Z3A6QU9xcFRPRlZxNnF3R2dkTU9ldURCcXhhTG15MVh5djBNMHd5M1Y2MjFRdVpNZnFvV2hEeEt5WmF1UVBwSmdEdXRZZHVKLUI0ajN6STlwb1l4VnJJ,Swedish,,5,2013-12-19,Swe Bow,Kanon,Aldrig problem med appen,,
