great,o,2014-06-28,Daniel Reidy,5
this not doe exactly what it promise but it put the three to shame,o,2013-12-27,Jonathan Redmond,5
this,o,2013-10-19,Luz Nuur,5
give what it promise information about your account balance and a useful reminder the date your add on is going to expire,o,2013-10-19,Luz Nuur,5
three will never do since for them it is better that you forget the expiry date,b,2013-10-19,Luz Nuur,5
it is great to have this option and for free,f,2013-10-19,Luz Nuur,5
i had a problem with them for a change in my expiry date consumed all my balance,b,2013-10-19,Luz Nuur,5
they did not want to accept any responsibility,f,2013-10-19,Luz Nuur,5
at least the engineer of this,o,2013-10-19,Luz Nuur,5
wa really helpful and replied to all my query,o,2013-10-19,Luz Nuur,5
nice convenient to use,o,2013-10-17,Kodi IPTV Malaysia,5
make my life more easier,o,2013-10-17,Kodi IPTV Malaysia,5
work very much appreciated,f,2013-10-10,Kilian King,5
great to use instead of dialing which take a lot longer,f,2013-09-01,Stuart O'Neill,5
thanks to the developer,b,2013-09-01,Stuart O'Neill,5
