fix up test to match new date logic,b,2013/4/01,,
add setting to control recently open file list,b,2013/4/01,,
support starting with a password and flag,b,2013/4/01,,
switch to for storing recently used file,b,2013/3/27,,
update,b,2013/3/27,,
fix enable searching,b,2013/3/27,,
fix off by one error on date,b,2013/3/27,,
reorder method,f,2013/3/27,,
version bump,b,2013/3/27,,
attempt workaround for crash the acer crash running the code that work fine on other device,b,2013/3/27,,
this attempt to implement a blacklist to not run native code on the,b,2013/3/27,,
