Topic Index 1,Topic Index 2,Topic Similarity
0,0,0.09380000000000001
1,2,0.0039
4,11,0.0024000000000000002
7,5,0.0018
16,13,0.0009
3,1,0.0007999999999999999
8,4,0.0006000000000000001
12,16,0.0006000000000000001
2,3,0.0
5,6,0.0
6,7,0.0
9,8,0.0
10,9,0.0
11,10,0.0
13,12,0.0
14,14,0.0
15,15,0.0
17,17,0.0
18,18,0.0
19,19,0.0
