feature request add exported file provider like in e explorer,3.0.,2017-03-16,Станислав Петряков,3
it would be greatly appreciated,3.0.,2017-03-04,user 7,5
i use dual sense 50,3.0.,2017-02-22,S Murali Mohan,5
on sharing a there is no option of,3.0.,2017-02-20,somen kundu,4
but i would like to have storage info bar in option,3.0.,2017-02-19,ABHAI KUMAR,5
open stunning and all feature one need,3.0.,2017-01-29,Nonononoki,5
improvement get my 5th star,3.0.,2016-11-20,Ethan Hamburg,4
light,3.0.,2016-10-31,Ldog s,4
my request would be to add support for cloud storage,3.0.,2016-10-25,Joe Bennett,4
but what i am missing in it is the use of gesture,3.0.,2016-10-21,Purnendu Podder,5
not many option,3.0.,2016-10-10,Jeroen,3
no option to just move a,3.0.,2016-10-07,Jay L Harmon,1
but please do provide an option to disable pull to i pull down intending to reach top of the list fast it refreshes,3.0.,2016-09-04,Sriram Vemuri,5
now it purpose is to cram feature,3.0.,2016-08-06,Sudhir Khanger,2
strange you must scroll to the top of a listing to find the action button,3.0.,2016-08-05,David Hanney,1
but need some improvement,3.0.,2016-08-05,Mayur Naik,5
the is very charming but still lack of usability like fast hope it will get better soon,3.0.,2016-08-01,Dika SP,4
only thing i can think of is missing is the ability to add bookmark to folder on the android home,3.0.,2016-07-16,Cody J,4
i have a couple folder i access regularly are buried in the folder,3.0.,2016-07-16,Cody J,4
a rollback would be best option,3.0.,2016-07-14,Fab Mini,1
the move option ha can no longer move folder around,3.0.,2016-07-10,Mark Deacon,2
please add folder,3.0.,2016-07-04,Xuhu Zhang,5
the only thing i did not like is there is no option of seeing the property of multiple selected file,3.0.,2016-06-20,Ekasmeet Singh,4
please add support,3.0.,2016-06-05,Sajin Kasali,5
it is a good reason for me to set up a on my instead,3.0.,2016-05-16,Anders Alyhr,4
pure white brought me here,3.0.,2016-04-03,ilir pirani,5
very and ton of option,3.0.,2016-03-15,Bryan Guerrero,5
too much wasted space,3.0.,2016-02-02,Tek Wyzrd,3
nice just need an option to view the size of and home,3.0.,2015-12-10,Abhishek Kumar,5
add move to card the,3.0.,2015-12-01,khalid arhalla,4
add search to the text editor,3.0.,2015-11-27,Vala Zadeh,4
need a for move button and ability to make the bar a bit narrower,3.0.,2015-11-21,Syl M,4
i have a please i select multiple give an option to see the property or total space used,3.0.,2015-11-04,fist strike,5
give u a red primary and secondary color,3.0.,2015-10-20,Michael,2
add more feature for a power like card and cloud storage,3.0.,2015-09-20,Derick Peterson,3
this is i just want to request to have an option to display the used and free space rather the total number of will rate to 5 star if granted,3.0.,2015-09-15,Lord Bryan Gloria,3
i hope they add more feature,3.0.,2015-09-08,Khevin P.,5
or use all thread available,3.0.,2015-08-21,Matthew Patrick,5
please randomize icon color random theme is activated,3.0.,2015-07-31,Kat Yu,4
could you guy add interval select,3.0.,2017-03-30,Saif Hassan,4
maybe after the next update we could get little feature,v1.0,2014-11-26,Trevon Crawford,4
very nice fluid design will really appreciate u all could add a note viewer and editor,v1.0,2014-11-24,Keron Jones,5
a few requested feature,v1.0,2014-11-23,Daniel Millard,4
it color the top notification panel pink,v1.0,2014-11-23,Sachin Singh,3
can u please add some animation like those in keep,v1.0,2014-11-19,guneet sharma,5
add this option,v1.0,2014-11-19,ilya Tsuprun,4
time to add some functionality like zoom and a couple of other feature,v1.0,2014-11-18,,5
work flawless on lollipop,v1.0,2014-11-17,Amit Maheshwari,5
still waiting for more feature,v1.0,2014-11-16,Kishore Kumaran S,4
just one scrolling the should hide thereby making aesthetic more towards material philosophy,v1.0,2014-11-16,Hardik Nagar,5
can you guy add split view make some multitasking easier,v1.0,2014-11-16,David Cuevas,4
one suggestion though,v1.0,2014-11-16,Andras LOHF,4
please make clearer,v1.0,2014-11-16,Sakuraba,4
the is but it need some improvement like top part might be of a lesser height,v1.0,2014-11-12,Sachin S,5
darker status bar,v1.0,2014-11-12,Sachin S,5
lack feature,v1.0,2014-11-12,Carlos Abreu,4
although i would suggest you add the ability to remove the bookmark and manager short cut from the sidebar,v1.1,2014-12-11,Osman Hanif,4
also please allow to rename bookmark,v1.1,2014-12-06,George Mag,4
it ha basic feature working well but first of need fixing on and maybe some gesture,v1.1,2014-12-04,سید رضا سعیدزاده,4
really nice material design with many different available color option in the menu,v1.3,2015-01-04,Brooks Sorensen,5
no bloat or add with fresh and theme,v1.3,2015-01-03,Corey Kevin,5
i think you need to go back to the material design guideline and reconsider your choice,v1.3,2015-01-01,Scott Kurtz,2
please add progress bar copying file and,v1.3,2014-12-21,Sukumar Duvvuru,4
i suggest using,v1.3,2014-12-19,Ben Van Riper,5
this is too great a beta many feature is available for free,v1.3,2014-12-18,Vallen Valliance,5
thank you much for fixing the share option problem,v1.3,2014-12-15,Ayan Pal,5
for when going into for a brief moment it show old black gradient and while in status bar turn bar not themed,v1.3,2014-12-15,Scott Ericson,4
the user see the default android option,v1.3,2014-12-14,Cadu Silva,4
with other file doing this show an option to select some song in storage or use the default android tone,v1.3,2014-12-14,Cadu Silva,4
sent waited,v1.3,2014-12-14,Neil Sanford,1
please add this in the next update,v1.4,2015-02-15,Robin Hong,3
why is it making folder doing backup of any,v1.4,2015-02-01,abhinav bansal,2
you add these,v1.4,2015-01-28,Hesam Sanei,4
functionality see external in directory,v1.4,2015-01-25,Dylan Phoenix,3
improvement 1,v1.4,2015-01-25,Dylan Phoenix,3
new feature are being added regularly too,v1.4,2015-01-19,Jazli Aziz,5
could have included an option for sharing,v1.4,2015-01-18,A G Karthik,5
is very modern and color scheme can be customized,v1.5.1,2015-04-26,Tee Isme,5
but i would like to see some improvement in it,v1.5.1,2015-04-21,Projjal Sengupta,5
just keep getting better,v1.5.1,2015-04-14,Dominic Chiesa,5
please add a filter it great file an cool,v1.5.1,2015-04-05,Dr. Saunak Chowdhury,4
and theme,v2.0.5,2015-07-28,Harry Carson,5
the best material file but please add system,v2.0.5,2015-07-24,Michal Malčovský,4
problem in hiding multiple file or folder suppose i have following folder,v2.0.5,2015-07-21,Tirth Patel,4
very nice made file add an option to disable root folder access which is always showing then i will give 5 star,v2.0.5,2015-07-14,KARAN SINGH,4
folder creation work,v2.0.5,2015-06-21,Steve Brown,5
please add networked access to,v2.0.5,2015-06-21,Steve Brown,5
right the lack storage write is available on lollipop the collapsible bar need a revamp and much more,v2.0.5,2015-06-13,Savez Siddiqui,4
no option,v2.0.5,2015-06-12,uddipta das,1
can you make it an option,v2.0,2015-06-05,Lord_Zane 55,3
also could you add support,v2.0,2015-06-05,Lord_Zane 55,3
the latest update is you added many great option,v2.0,2015-05-30,Ádám Bors,5
why you moved the add button on top instead of bottom right corner,v2.0,2015-05-28,Christian Bodelsson,4
add option to turn off it needlessly slows down the operation,v2.0,2015-05-26,Muzirian മുസിരിയൻ,4
