App,Store,App ID,Review ID,Country,Version,Rating,Date,Author,Subject,Body,Translated Subject,Translated Body
Universal Password Manager,Google Play,com.u17od.upm,Z3A6QU9xcFRPSENNZHUyQ2tPMDR6VDFBM3IwbTVlYXpRdHBhdTduaTlVeVF6cWNxQnA2SHFoMmlzZGI1UE5ESWdBUl9FTWwxX2ZSOVMtTF9Pa1Y2Q1VBRXc,English,,5,2017-05-21,Derek Udsen,,fantastic,,
Universal Password Manager,Google Play,com.u17od.upm,Z3A6QU9xcFRPSENNZHUyQ2tPMDR6VDFBM3IwbTVlYXpRdHBhdTduaTlVeVF6cWNxQnA2SHFoMmlzZGI1UE5ESWdBUl9FTWwxX2ZSOVMtTF9Pa1Y2Q1VBRXc,English,,5,2017-05-21,Derek Udsen,,just got new phone and my password were there reinstalling the,,
Universal Password Manager,Google Play,com.u17od.upm,Z3A6QU9xcFRPRkhOTjdCRjhXek5JSzEwYkZoQVZUZnFCYkJqdWtaVHl0UUM5UWVvM1Y4QWRLMkZfNFl0QjFTdl9EOVRHaVBaMkZGQjB4T0NDY3FKejJtY1E,English,,5,2017-04-30,Chris Wilson,,the best password manager hand down,,
Universal Password Manager,Google Play,com.u17od.upm,Z3A6QU9xcFRPRUdqVTNndUNoR3dybUpDYkFPZE1RWk5Ga2JuZ2xYYWdrUzJNOW1VZUlYaHlkNTgwWlUySTN0NzhwNmZ5UnBZTkNpelVvVEdoRGtRQ3VMQUE,English,,5,2017-04-24,Mks Foysal,,best with short detail love it,,
Universal Password Manager,Google Play,com.u17od.upm,Z3A6QU9xcFRPSHVna3hnXzJ5SDhUdXpCUmNPcDFJQ0VQVUM1YnZORmFYMTJtNDNqRUtjUHJJNHcwSVJrZVd5WDRSNFNScjVCSV9oc3NMSkVlM2lvVXRsSEE,English,,5,2017-04-13,Ricardo Posada,,delivers free,,
Universal Password Manager,Google Play,com.u17od.upm,Z3A6QU9xcFRPSGtpdDFmOVdvcElwajB3V0o3cGRCblVhVm9wU2lwblY5MlY0cWZXQ3Z6Q05DaHBLUUFMVWg3T2VibUN5eW1HOTFJMy1FSDVqdW5BU3JHb2c,English,,5,2017-03-22,Victor Tupas,,great basic password manager,,
Universal Password Manager,Google Play,com.u17od.upm,Z3A6QU9xcFRPSGtpdDFmOVdvcElwajB3V0o3cGRCblVhVm9wU2lwblY5MlY0cWZXQ3Z6Q05DaHBLUUFMVWg3T2VibUN5eW1HOTFJMy1FSDVqdW5BU3JHb2c,English,,5,2017-03-22,Victor Tupas,,i just backup the file to keep a backup of it,,
Universal Password Manager,Google Play,com.u17od.upm,Z3A6QU9xcFRPRXlDZE9RanBJcVNiRFk2eVFyMUdGazN2LWl0ZGkzd3oyb3dyNVJ2ZVM4UnlaeGxobjBDeDFZemJEMDU3SWlBVlhoTDY5MVZaVjNPN2M3N3c,English,,5,2017-03-06,Mike Carter,,i have password from along time ago,,
Universal Password Manager,Google Play,com.u17od.upm,Z3A6QU9xcFRPRXlDZE9RanBJcVNiRFk2eVFyMUdGazN2LWl0ZGkzd3oyb3dyNVJ2ZVM4UnlaeGxobjBDeDFZemJEMDU3SWlBVlhoTDY5MVZaVjNPN2M3N3c,English,,5,2017-03-06,Mike Carter,,et,,
Universal Password Manager,Google Play,com.u17od.upm,Z3A6QU9xcFRPRXlDZE9RanBJcVNiRFk2eVFyMUdGazN2LWl0ZGkzd3oyb3dyNVJ2ZVM4UnlaeGxobjBDeDFZemJEMDU3SWlBVlhoTDY5MVZaVjNPN2M3N3c,English,,5,2017-03-06,Mike Carter,,otherwise u will love this,,
Universal Password Manager,Google Play,com.u17od.upm,Z3A6QU9xcFRPRXlDZE9RanBJcVNiRFk2eVFyMUdGazN2LWl0ZGkzd3oyb3dyNVJ2ZVM4UnlaeGxobjBDeDFZemJEMDU3SWlBVlhoTDY5MVZaVjNPN2M3N3c,English,,5,2017-03-06,Mike Carter,,can i give it 6 star,,
Universal Password Manager,Google Play,com.u17od.upm,Z3A6QU9xcFRPRWZrQWprVjF0bk9JeW5uRjd5eENQY0pnZHluc3N0c3lpN01BSllud3hyY3lNVy1VMGpHUFdQZDZCb2tLbW9abUllTXJfSl9vRGtualUzSkE,English,,4,2017-03-04,Pawan Kumar,,i doubt the security of this,,
Universal Password Manager,Google Play,com.u17od.upm,Z3A6QU9xcFRPRWZrQWprVjF0bk9JeW5uRjd5eENQY0pnZHluc3N0c3lpN01BSllud3hyY3lNVy1VMGpHUFdQZDZCb2tLbW9abUllTXJfSl9vRGtualUzSkE,English,,4,2017-03-04,Pawan Kumar,,what if all the data we store in this get robbed by the maker of this connected to,,
Universal Password Manager,Google Play,com.u17od.upm,Z3A6QU9xcFRPRWZrQWprVjF0bk9JeW5uRjd5eENQY0pnZHluc3N0c3lpN01BSllud3hyY3lNVy1VMGpHUFdQZDZCb2tLbW9abUllTXJfSl9vRGtualUzSkE,English,,4,2017-03-04,Pawan Kumar,,the concept of this is very good and is very useful but this is not verified by editor choice,,
Universal Password Manager,Google Play,com.u17od.upm,Z3A6QU9xcFRPSHRrT3RmbVI3bWM0NmlrdktNVU9sQVNRcmJzRzMtSjMyWjBGempWSm12SGZkNS1sTDNTa1YtZmJidWZvMzc3bXFWUnZ6LWtaUi12WmRHb1E,English,,1,2017-02-25,Carpenter Cordero,,changed phone and have yet to find a suitable way to restore database,,
Universal Password Manager,Google Play,com.u17od.upm,Z3A6QU9xcFRPRXVhMklBcExuQXlEQ21xVUtEdkNHdk9KakR2YVh4bGMtdnJSeldwRzFaZTg1LWM5U215djlFM2lZMUYyVWIxcFkyb2dNOVY5WUY2X2NBbkE,English,,2,2017-02-18,Jessica Jazdzewski,,looking at the my laptop is communicating with the but the is not,,
Universal Password Manager,Google Play,com.u17od.upm,Z3A6QU9xcFRPRXVhMklBcExuQXlEQ21xVUtEdkNHdk9KakR2YVh4bGMtdnJSeldwRzFaZTg1LWM5U215djlFM2lZMUYyVWIxcFkyb2dNOVY5WUY2X2NBbkE,English,,2,2017-02-18,Jessica Jazdzewski,,i now have to update password from my laptop and the database on my phone every time i make a change,,
Universal Password Manager,Google Play,com.u17od.upm,Z3A6QU9xcFRPRXVhMklBcExuQXlEQ21xVUtEdkNHdk9KakR2YVh4bGMtdnJSeldwRzFaZTg1LWM5U215djlFM2lZMUYyVWIxcFkyb2dNOVY5WUY2X2NBbkE,English,,2,2017-02-18,Jessica Jazdzewski,,this is one of my most used so i hope a solution can be found,,
Universal Password Manager,Google Play,com.u17od.upm,Z3A6QU9xcFRPRXVhMklBcExuQXlEQ21xVUtEdkNHdk9KakR2YVh4bGMtdnJSeldwRzFaZTg1LWM5U215djlFM2lZMUYyVWIxcFkyb2dNOVY5WUY2X2NBbkE,English,,2,2017-02-18,Jessica Jazdzewski,,feature i would love 1,,
Universal Password Manager,Google Play,com.u17od.upm,Z3A6QU9xcFRPRWVvOEdLVE9uZ0s3aERnT3A1Mld2Z05MejFFMThxSFFPOEZOWWJITkZyODhITFd5S0VZQVZOd25Jb0p5YWRLNFRRUXcxNDNHSnBmRUVfWlE,English,,4,2017-02-10,Remow2112,,doe exactly what i need it to do and is dead simple,,
Universal Password Manager,Google Play,com.u17od.upm,Z3A6QU9xcFRPRWVvOEdLVE9uZ0s3aERnT3A1Mld2Z05MejFFMThxSFFPOEZOWWJITkZyODhITFd5S0VZQVZOd25Jb0p5YWRLNFRRUXcxNDNHSnBmRUVfWlE,English,,4,2017-02-10,Remow2112,,only drawback kept it from 5 star is there is no quick way to jump around,,
Universal Password Manager,Google Play,com.u17od.upm,Z3A6QU9xcFRPRWVvOEdLVE9uZ0s3aERnT3A1Mld2Z05MejFFMThxSFFPOEZOWWJITkZyODhITFd5S0VZQVZOd25Jb0p5YWRLNFRRUXcxNDNHSnBmRUVfWlE,English,,4,2017-02-10,Remow2112,,if it had a way to touch a letter would take you to all entry starting with that letter it would be 5 star,,
Universal Password Manager,Google Play,com.u17od.upm,Z3A6QU9xcFRPRUZkRnlTY19YY1VDVlYzOTI1aDI1T2s1UjlBMUVKWjhTd3hQWDFiVEJJU1J2YnU1T2djbTJIUHNWRW91eGdvMkFiTTU2aVNnNWQwa0FYNFE,English,,5,2017-01-03,Apurva Desai,Superb,extremely happy with this,,
Universal Password Manager,Google Play,com.u17od.upm,Z3A6QU9xcFRPRUZkRnlTY19YY1VDVlYzOTI1aDI1T2s1UjlBMUVKWjhTd3hQWDFiVEJJU1J2YnU1T2djbTJIUHNWRW91eGdvMkFiTTU2aVNnNWQwa0FYNFE,English,,5,2017-01-03,Apurva Desai,Superb,simple and easy to use,,
Universal Password Manager,Google Play,com.u17od.upm,Z3A6QU9xcFRPRUZkRnlTY19YY1VDVlYzOTI1aDI1T2s1UjlBMUVKWjhTd3hQWDFiVEJJU1J2YnU1T2djbTJIUHNWRW91eGdvMkFiTTU2aVNnNWQwa0FYNFE,English,,5,2017-01-03,Apurva Desai,Superb,just perfect,,
Universal Password Manager,Google Play,com.u17od.upm,Z3A6QU9xcFRPRzlxOElfcW81Uy1vZFBBbkwxZUFjVE92enJnLTFwR0E2dXVwcVFSWVM5MkNFdWNfN1c4WHVLS09IcWExRFhLYlNZM3RSa1RCQjg0WmNSelE,English,,5,2016-12-28,H. Moose,Very dependable,those who complain about lost data getting new device or doing factory reset need to do a bit of planning,,
Universal Password Manager,Google Play,com.u17od.upm,Z3A6QU9xcFRPRzlxOElfcW81Uy1vZFBBbkwxZUFjVE92enJnLTFwR0E2dXVwcVFSWVM5MkNFdWNfN1c4WHVLS09IcWExRFhLYlNZM3RSa1RCQjg0WmNSelE,English,,5,2016-12-28,H. Moose,Very dependable,the database is just copy it to your or drive and then back to your device after the reset i use this technique to keep the same database on both my phone and tablet,,
Universal Password Manager,Google Play,com.u17od.upm,Z3A6QU9xcFRPRzlxOElfcW81Uy1vZFBBbkwxZUFjVE92enJnLTFwR0E2dXVwcVFSWVM5MkNFdWNfN1c4WHVLS09IcWExRFhLYlNZM3RSa1RCQjg0WmNSelE,English,,5,2016-12-28,H. Moose,Very dependable,work very well,,
Universal Password Manager,Google Play,com.u17od.upm,Z3A6QU9xcFRPRVJrdUxyU241UXltbExCRHNRX2NRVkQzUVlqbzVkbDBPUC1IYVN5TFJFclA3SWlzSXlHNWhMQ0R2R003el9tdnpJdW1aeU1CaHlJM3NNZHc,English,,5,2016-12-23,Leslie Husk,The best for keeping your passwords,the best for keeping your password have been using for year,,
Universal Password Manager,Google Play,com.u17od.upm,Z3A6QU9xcFRPSEZfbW56eUd6SVpzOUtsSjhpOVNWZHVXRk1NSG85TXM3MFREMmczdjVYMXJyOFRhalRCc01RdXBqTlpJbHQ0TzFjYmdKWEVnNmZqVHM5WWc,English,,5,2016-12-18,Ronilo SM,,very useful,,
Universal Password Manager,Google Play,com.u17od.upm,Z3A6QU9xcFRPSEZfbW56eUd6SVpzOUtsSjhpOVNWZHVXRk1NSG85TXM3MFREMmczdjVYMXJyOFRhalRCc01RdXBqTlpJbHQ0TzFjYmdKWEVnNmZqVHM5WWc,English,,5,2016-12-18,Ronilo SM,,plain and simple delivers what i need,,
Universal Password Manager,Google Play,com.u17od.upm,Z3A6QU9xcFRPRjdlNUF2ekZqSXAycGcwQVdXSTNwWkdpQUN3b1ZJWnN4c2RaXzVQSGxoOURhbzNBRy1tYWpzQnZUX0VtLVJrN1RnY1dDTlFKTVk3aHNSR3c,English,,5,2016-12-14,Jay R.,,good stuff,,
Universal Password Manager,Google Play,com.u17od.upm,Z3A6QU9xcFRPR0Q1VVE5SXhSYlcwczB0UjdkR2pnbkxLM3Buc1ByZjYwVWp0VDVGVy13UnZXbVU2SGFYUTVFYmdyM1Q3dWkxc0ZmSUNlTmVUdGlVMFJ1M0E,English,,4,2016-12-14,Tyler Stewart,Easy and simple,i find now i need a password it super easy and fast to open and use keep me from duplicating the same password over and over for security sake,,
Universal Password Manager,Google Play,com.u17od.upm,Z3A6QU9xcFRPRldpaktFaXVmYkRmUG5xblhFeVdfVFYxRmoxNk9WazhnYTZJLUpnN2lkSXFuUGRFbkRHeGFGNkxHNy1fa0ZLRVBwVHpTNV91b2kzaHhpNXc,English,,1,2016-12-06,Halima Wahed,Help,i try and create a new database the give an error saying password doe not match please assist,,
Universal Password Manager,Google Play,com.u17od.upm,Z3A6QU9xcFRPRVNrZVhTdzNIUWFMVWJONDlha1MyTUE0d3NnaGdfOFRDQWx4N3oyYUVVSFVUMzhHbEVMdEFoampyaXdUYWhQUmZxOVhaaDl2YWN0UmFFTkE,English,,5,2016-11-20,Deep Chandra,,good and simple,,
Universal Password Manager,Google Play,com.u17od.upm,Z3A6QU9xcFRPRXlwTnZveWYtR2ZtZ1VVZXdoTWZmbW96cEVkeEdQc01CSjdQRjg4THFOSGVTREw0WWZ5bmk5SnJJU1VFbEdGVF9hcUpENl9fQ2VGa214eGc,English,,3,2016-11-17,mosiur rahman,,very useful,,
Universal Password Manager,Google Play,com.u17od.upm,Z3A6QU9xcFRPRXlwTnZveWYtR2ZtZ1VVZXdoTWZmbW96cEVkeEdQc01CSjdQRjg4THFOSGVTREw0WWZ5bmk5SnJJU1VFbEdGVF9hcUpENl9fQ2VGa214eGc,English,,3,2016-11-17,mosiur rahman,,should introduce fingerprint unlock system,,
Universal Password Manager,Google Play,com.u17od.upm,Z3A6QU9xcFRPRmpCc3BWOGFkNDZLeFJqd2xpazRWTXZkWC1OWm43VExPQlhBcWdaMF9rclVoSHZhSGh5WWNPbm94WUJZams5d3dDUzNxZ3VzMEFCSTBjUmc,English,,5,2016-11-15,Nisanth Puliyath,will do the job,serving my purpose for more a year,,
Universal Password Manager,Google Play,com.u17od.upm,Z3A6QU9xcFRPRmpCc3BWOGFkNDZLeFJqd2xpazRWTXZkWC1OWm43VExPQlhBcWdaMF9rclVoSHZhSGh5WWNPbm94WUJZams5d3dDUzNxZ3VzMEFCSTBjUmc,English,,5,2016-11-15,Nisanth Puliyath,will do the job,far satisfied,,
Universal Password Manager,Google Play,com.u17od.upm,Z3A6QU9xcFRPRTFObFQ3TldpV1Y4b051TWdZMGxMbXRzX21MMzA3QTY1RDUtWUwyemxrX3E0VGR6U0hVX1RPeWhfV0lmTjMtN3BhX0xQY1Y2dVpOY0dKQ0E,English,,5,2016-11-06,Cary Cox,Have used it for a long time,i have used it over multiple device and i always will,,
Universal Password Manager,Google Play,com.u17od.upm,Z3A6QU9xcFRPRTFObFQ3TldpV1Y4b051TWdZMGxMbXRzX21MMzA3QTY1RDUtWUwyemxrX3E0VGR6U0hVX1RPeWhfV0lmTjMtN3BhX0xQY1Y2dVpOY0dKQ0E,English,,5,2016-11-06,Cary Cox,Have used it for a long time,i do wish they would upgrade it to do finger print unlock,,
Universal Password Manager,Google Play,com.u17od.upm,Z3A6QU9xcFRPRWtzQ3JPMTE4cFRIM2pYRTM1azJHMHhnYUV6QjZXTFNpa0UzR1pmM0RYTi1aVXNLRlJTc2N2MDN4Ym14WDdxeUMtOHoteVMtT1lYdFJNWkE,English,,5,2016-10-19,Tia Piccolo,,best password manager ever,,
Universal Password Manager,Google Play,com.u17od.upm,Z3A6QU9xcFRPRm9ZZHUtb3pFZDNNQWJ3OWlyNjNTTVB0R1p5LXhkdEZjckJZdXJxT2JEbE85V1ZEZDQ4ZFhaN2tiZTZaX3RMSUxwLVhRRXZMNnFYMnc0UkE,English,,5,2016-10-18,Robin Nickels,Perfect,love it,,
Universal Password Manager,Google Play,com.u17od.upm,Z3A6QU9xcFRPRXlNTzJDRTY3blczem03aVJlWVJmejU3WXJjRWtMUnVsd29ldmRCTVEzZktHY3lRTURZY2YxM2RpVWpJSTF0YUZEQWR1UHVPLU1iMmZOeEE,English,,5,2016-10-16,Michael Lucki,Been using for years,very basic and simple to use,,
Universal Password Manager,Google Play,com.u17od.upm,Z3A6QU9xcFRPRXlNTzJDRTY3blczem03aVJlWVJmejU3WXJjRWtMUnVsd29ldmRCTVEzZktHY3lRTURZY2YxM2RpVWpJSTF0YUZEQWR1UHVPLU1iMmZOeEE,English,,5,2016-10-16,Michael Lucki,Been using for years,no just work,,
Universal Password Manager,Google Play,com.u17od.upm,bGc6QU9xcFRPRkNoSUd3OC1pNjZHQTdodGZRalgwd2loWGMxekJ1cVluTzVycnRXeWROVWFuSm5NTGVMdktoSFFmSjdiTTcxRVZtc3ozMEFXN1lDc2tDQmc,English,,5,2016-10-15,A Google User,I love love this app!,i it every time i update phone,,
Universal Password Manager,Google Play,com.u17od.upm,Z3A6QU9xcFRPR1JFWjdhSDAwc1E0ekMxYWFBTFBveEgzbENaX3R5Y3gxYXhpb0FGOGpGZkl2cWZBOVZkdEN2QVNsMXk5bzRLc2pDNVhJaTlGX3BMVFRNZ2c,English,,4,2016-10-15,Carrie Findlay,"Awesome app, 1 issue",i broke my phone i had to go back to an old phone,,
Universal Password Manager,Google Play,com.u17od.upm,Z3A6QU9xcFRPR1JFWjdhSDAwc1E0ekMxYWFBTFBveEgzbENaX3R5Y3gxYXhpb0FGOGpGZkl2cWZBOVZkdEN2QVNsMXk5bzRLc2pDNVhJaTlGX3BMVFRNZ2c,English,,4,2016-10-15,Carrie Findlay,"Awesome app, 1 issue",did factory reset on phone,,
Universal Password Manager,Google Play,com.u17od.upm,Z3A6QU9xcFRPR1JFWjdhSDAwc1E0ekMxYWFBTFBveEgzbENaX3R5Y3gxYXhpb0FGOGpGZkl2cWZBOVZkdEN2QVNsMXk5bzRLc2pDNVhJaTlGX3BMVFRNZ2c,English,,4,2016-10-15,Carrie Findlay,"Awesome app, 1 issue",added this,,
Universal Password Manager,Google Play,com.u17od.upm,Z3A6QU9xcFRPR1JFWjdhSDAwc1E0ekMxYWFBTFBveEgzbENaX3R5Y3gxYXhpb0FGOGpGZkl2cWZBOVZkdEN2QVNsMXk5bzRLc2pDNVhJaTlGX3BMVFRNZ2c,English,,4,2016-10-15,Carrie Findlay,"Awesome app, 1 issue",cannot get into it now,,
Universal Password Manager,Google Play,com.u17od.upm,Z3A6QU9xcFRPR1JFWjdhSDAwc1E0ekMxYWFBTFBveEgzbENaX3R5Y3gxYXhpb0FGOGpGZkl2cWZBOVZkdEN2QVNsMXk5bzRLc2pDNVhJaTlGX3BMVFRNZ2c,English,,4,2016-10-15,Carrie Findlay,"Awesome app, 1 issue",keep telling me invalid password,,
Universal Password Manager,Google Play,com.u17od.upm,Z3A6QU9xcFRPR1JFWjdhSDAwc1E0ekMxYWFBTFBveEgzbENaX3R5Y3gxYXhpb0FGOGpGZkl2cWZBOVZkdEN2QVNsMXk5bzRLc2pDNVhJaTlGX3BMVFRNZ2c,English,,4,2016-10-15,Carrie Findlay,"Awesome app, 1 issue",i have it on my tablet and database wa saved in however cannot access it,,
Universal Password Manager,Google Play,com.u17od.upm,Z3A6QU9xcFRPR1JFWjdhSDAwc1E0ekMxYWFBTFBveEgzbENaX3R5Y3gxYXhpb0FGOGpGZkl2cWZBOVZkdEN2QVNsMXk5bzRLc2pDNVhJaTlGX3BMVFRNZ2c,English,,4,2016-10-15,Carrie Findlay,"Awesome app, 1 issue",how do i access it,,
Universal Password Manager,Google Play,com.u17od.upm,Z3A6QU9xcFRPRkRhc2I4UWtxOXc1S3JZOFA1d2xwb29rTl9JTmRiemY1RXQtbVE3QVdpLWM3SExPZnE3VjYwajVOeHRIUFNOcWZ0Mnh1VGhSMkdESk00THc,English,,1,2016-10-10,,New phone data stored gone,ugh i have used for year and loved it,,
Universal Password Manager,Google Play,com.u17od.upm,Z3A6QU9xcFRPRkRhc2I4UWtxOXc1S3JZOFA1d2xwb29rTl9JTmRiemY1RXQtbVE3QVdpLWM3SExPZnE3VjYwajVOeHRIUFNOcWZ0Mnh1VGhSMkdESk00THc,English,,1,2016-10-10,,New phone data stored gone,i just upgraded my opened my and all of the data is gone,,
Universal Password Manager,Google Play,com.u17od.upm,Z3A6QU9xcFRPRkRhc2I4UWtxOXc1S3JZOFA1d2xwb29rTl9JTmRiemY1RXQtbVE3QVdpLWM3SExPZnE3VjYwajVOeHRIUFNOcWZ0Mnh1VGhSMkdESk00THc,English,,1,2016-10-10,,New phone data stored gone,please help year needed information stored here,,
Universal Password Manager,Google Play,com.u17od.upm,bGc6QU9xcFRPR25Ra3hkVTlIR3hPcERWczQyaWhXUURxeTdlMG53R01adVBFdGpTQlVBSzBjaDhxUGpRYVo2RVVOMllEUVlocXZNeXlraW94UGJLTlVWckE,English,,4,2016-10-09,A Google User,Really great app,ha served me well over two phone,,
Universal Password Manager,Google Play,com.u17od.upm,bGc6QU9xcFRPR25Ra3hkVTlIR3hPcERWczQyaWhXUURxeTdlMG53R01adVBFdGpTQlVBSzBjaDhxUGpRYVo2RVVOMllEUVlocXZNeXlraW94UGJLTlVWckE,English,,4,2016-10-09,A Google User,Really great app,i would like more sync specifically to drive,,
Universal Password Manager,Google Play,com.u17od.upm,Z3A6QU9xcFRPRk53Zi1GYTBLZzdrQ29JNDNxMWowMTVjandqMW0tM2xPb2tqUmVsY0JkemFtMkNTLUs5RFpkUnpzdnpTUEtwWmJsNE56Z1ZoT2VqbHVYaEE,English,,2,2016-10-07,Rachel Bradt,,this is absolutely especially it wa supposed to backup to the android cloud,,
Universal Password Manager,Google Play,com.u17od.upm,Z3A6QU9xcFRPRk53Zi1GYTBLZzdrQ29JNDNxMWowMTVjandqMW0tM2xPb2tqUmVsY0JkemFtMkNTLUs5RFpkUnpzdnpTUEtwWmJsNE56Z1ZoT2VqbHVYaEE,English,,2,2016-10-07,Rachel Bradt,,this is the only time i have not had my data but now i have a i had necessary info saved and cannot retrieve it,,
Universal Password Manager,Google Play,com.u17od.upm,Z3A6QU9xcFRPRWRsSmdhRm9faVVkSXlOTjRyeFE5TS04am8zenFWeTRFMGx4WGRzNjZOZ3F5SVN1cEIxYXYxUXdXWV9QS1hJNk92UXVidVhLQkExdUx0MVE,English,,5,2016-09-30,Maria Becker,Consistent...solid,been using it for year,,
Universal Password Manager,Google Play,com.u17od.upm,Z3A6QU9xcFRPRWRsSmdhRm9faVVkSXlOTjRyeFE5TS04am8zenFWeTRFMGx4WGRzNjZOZ3F5SVN1cEIxYXYxUXdXWV9QS1hJNk92UXVidVhLQkExdUx0MVE,English,,5,2016-09-30,Maria Becker,Consistent...solid,never a problem,,
Universal Password Manager,Google Play,com.u17od.upm,Z3A6QU9xcFRPRWRsSmdhRm9faVVkSXlOTjRyeFE5TS04am8zenFWeTRFMGx4WGRzNjZOZ3F5SVN1cEIxYXYxUXdXWV9QS1hJNk92UXVidVhLQkExdUx0MVE,English,,5,2016-09-30,Maria Becker,Consistent...solid,thanks,,
Universal Password Manager,Google Play,com.u17od.upm,Z3A6QU9xcFRPSFFhMEw4NzBPTWRnekFqY2NwNzFVWU9jUjdKV2tMaDU0NFlpbVFFeklzUTc3Q0d6S3JDYVpTOUVJeDZ5c010cFpxbWdnZE5FZGZZQjBDX2c,English,,4,2016-09-30,Dr. Emme Ci,A very good open source password manager,be careful to always close it or it will show your last opened password in the preview,,
Universal Password Manager,Google Play,com.u17od.upm,Z3A6QU9xcFRPRzhXZUlUd3lEUV9tNF9MUUxBYy1hMl9HVHJrM0xZS1dxa1o5RGt4WTh0cmtTY1YyNlBERTFrZzBoalF4WklWUXgyc05Gakk2Z1BBZi1vMmc,English,,5,2016-09-26,Rob Lawson,Very very happy,i have used this of year now and still love backup to is easy and fast,,
Universal Password Manager,Google Play,com.u17od.upm,Z3A6QU9xcFRPRzhXZUlUd3lEUV9tNF9MUUxBYy1hMl9HVHJrM0xZS1dxa1o5RGt4WTh0cmtTY1YyNlBERTFrZzBoalF4WklWUXgyc05Gakk2Z1BBZi1vMmc,English,,5,2016-09-26,Rob Lawson,Very very happy,would recommend to anyone,,
Universal Password Manager,Google Play,com.u17od.upm,Z3A6QU9xcFRPSDZXdGlqUHZQRkZHejhBTlRXblpKRWJIN2xaUTBMTklLU1lodElxU0o3TFZOcWk4ZmlWd0I3Y29ScF90YTRhUkFxM2YxQ1hPOFdRYW10MFE,English,,4,2016-09-14,suraj shah,Best ever app I got to store my e-mail IDs and passwords!,introduce some more feature,,
Universal Password Manager,Google Play,com.u17od.upm,Z3A6QU9xcFRPR0tSMzJJR1FZM3VPMzdKVHc0RERKNllzMEZ6WTZCWEJOenBiWTZqQjJpTVBUREJ2c0U2cVZGa0hmRVF1UjhSMWIxOW5IUU5WZTJyTm1fZkE,English,,1,2016-09-07,Diane Braun,Help!,i downloaded this wrongly assuming my info would be there,,
Universal Password Manager,Google Play,com.u17od.upm,Z3A6QU9xcFRPR0tSMzJJR1FZM3VPMzdKVHc0RERKNllzMEZ6WTZCWEJOenBiWTZqQjJpTVBUREJ2c0U2cVZGa0hmRVF1UjhSMWIxOW5IUU5WZTJyTm1fZkE,English,,1,2016-09-07,Diane Braun,Help!,anyone can help me i would appreciate any help you can provide,,
Universal Password Manager,Google Play,com.u17od.upm,Z3A6QU9xcFRPR0tSMzJJR1FZM3VPMzdKVHc0RERKNllzMEZ6WTZCWEJOenBiWTZqQjJpTVBUREJ2c0U2cVZGa0hmRVF1UjhSMWIxOW5IUU5WZTJyTm1fZkE,English,,1,2016-09-07,Diane Braun,Help!,i can retrieve my info will give you a 5 star will rewrite my review,,
Universal Password Manager,Google Play,com.u17od.upm,Z3A6QU9xcFRPR0tSMzJJR1FZM3VPMzdKVHc0RERKNllzMEZ6WTZCWEJOenBiWTZqQjJpTVBUREJ2c0U2cVZGa0hmRVF1UjhSMWIxOW5IUU5WZTJyTm1fZkE,English,,1,2016-09-07,Diane Braun,Help!,thank you,,
Universal Password Manager,Google Play,com.u17od.upm,Z3A6QU9xcFRPRkJjejVhaUNzYUNjQlZWcXd6OENzRVEyaWJiUllSZlBoa1lBVHJDX2pnajNmeU9JY292TXBrR2ZtOHZFeVluYzVQNmxTSGpyNmpvbGMtYmc,English,,1,2016-09-05,Jonathan Dunn,,used this for 3 year and out of the blue it updated and wiped 80 of my credential,,
Universal Password Manager,Google Play,com.u17od.upm,Z3A6QU9xcFRPSE5jU0NyU05RQUdrdnIxMEFuMVJKY1QwQVdpSmgxYWg0U0s1eVRmbHIycXRadHdKa25teGxuLWVEakMxNUFFT0ZaVEFrdlJGbENXRkJEeGc,English,,1,2016-08-26,,Dropbox a joke,no matter what i do i can not share with work needed to transfer to new,,
Universal Password Manager,Google Play,com.u17od.upm,Z3A6QU9xcFRPRU5BOFhaNlZfYzRKSzFlT09LVS0yTVVfRld6SUxPdHJ6Q3FLQV9yRGhOOGhKUFFYZWhza0J2T2liaVBXTUtBY2dqTExDcV9ZakdXalZQcEE,English,,5,2016-08-25,Scott McFadden,,helpful,,
Universal Password Manager,Google Play,com.u17od.upm,Z3A6QU9xcFRPRjZLa1RrdnAwVVRaZ0tJMjBlbVZxbDFBajE5Ylo1YzB6NFJRaHpBel9Kci1BV1h4anZNNXhmTm5BLVliUmVrZmY1enhmQXdGMEFJRlBkZUE,English,,5,2016-08-20,A.C. Jackson,,never had any even switching to a new phone,,
Universal Password Manager,Google Play,com.u17od.upm,bGc6QU9xcFRPRUREQ3puZFlFUUo3VkZGcHpJemxwcTBOVXo1RkI4V1dhTUtBUXBjTGZ1cDlZTERFeDM5Q1JQeHlkRlgxeWNTdmFyUm8wR1JiV09qVmdzS2c,English,,5,2016-08-16,A Google User,,excellent,,
Universal Password Manager,Google Play,com.u17od.upm,bGc6QU9xcFRPRVlqenl3U1N0UE90V2VqcmdsMHEzWlpXSGU2ZUlRNV9rQ21nMUZGRnVTTzMxNU1TTGEzUWNUdFpJZDU4MnozVmxFQUxZOVlaMGViZEpwSnc,English,,2,2016-07-30,A Google User,,i tried transferring to a new phone and now my master password will no longer work,,
Universal Password Manager,Google Play,com.u17od.upm,Z3A6QU9xcFRPRS1tVERTdFRtN1ZHMGYtQ2dHMUpQVEp0aGF0c1l6ekNUT1ExTENjb2hPYnU2cVBXaVFnUWN5U1RJeF9Yb1hLTlNxOV91bFEzcVZiVFBGUkE,English,,1,2016-07-21,Joe Hayes,Problem,same problem,,
Universal Password Manager,Google Play,com.u17od.upm,Z3A6QU9xcFRPRS1tVERTdFRtN1ZHMGYtQ2dHMUpQVEp0aGF0c1l6ekNUT1ExTENjb2hPYnU2cVBXaVFnUWN5U1RJeF9Yb1hLTlNxOV91bFEzcVZiVFBGUkE,English,,1,2016-07-21,Joe Hayes,Problem,needed factory reset this evening and i can no longer access my data,,
Universal Password Manager,Google Play,com.u17od.upm,Z3A6QU9xcFRPRS1tVERTdFRtN1ZHMGYtQ2dHMUpQVEp0aGF0c1l6ekNUT1ExTENjb2hPYnU2cVBXaVFnUWN5U1RJeF9Yb1hLTlNxOV91bFEzcVZiVFBGUkE,English,,1,2016-07-21,Joe Hayes,Problem,heed this warning,,
Universal Password Manager,Google Play,com.u17od.upm,Z3A6QU9xcFRPRS1tVERTdFRtN1ZHMGYtQ2dHMUpQVEp0aGF0c1l6ekNUT1ExTENjb2hPYnU2cVBXaVFnUWN5U1RJeF9Yb1hLTlNxOV91bFEzcVZiVFBGUkE,English,,1,2016-07-21,Joe Hayes,Problem,you will get locked out with no help,,
Universal Password Manager,Google Play,com.u17od.upm,Z3A6QU9xcFRPRXA1VUVyb2RhSU81X2pMamJVanhNUFpxRDNkMmtYcDVwcHVxc1JYVktnelA5czcwVVRWcE1tY1JQTFB6eE1zT0VGUnA3X1k2YTJiUzl5YXc,English,,1,2016-07-04,Matt Ro,Not as advertised,this ha been great for year the last time i upgraded my phone,,
Universal Password Manager,Google Play,com.u17od.upm,Z3A6QU9xcFRPRXA1VUVyb2RhSU81X2pMamJVanhNUFpxRDNkMmtYcDVwcHVxc1JYVktnelA5czcwVVRWcE1tY1JQTFB6eE1zT0VGUnA3X1k2YTJiUzl5YXc,English,,1,2016-07-04,Matt Ro,Not as advertised,i got the new installed the and went to set it up and nothing,,
Universal Password Manager,Google Play,com.u17od.upm,Z3A6QU9xcFRPRXA1VUVyb2RhSU81X2pMamJVanhNUFpxRDNkMmtYcDVwcHVxc1JYVktnelA5czcwVVRWcE1tY1JQTFB6eE1zT0VGUnA3X1k2YTJiUzl5YXc,English,,1,2016-07-04,Matt Ro,Not as advertised,i tried every option they had and nothing,,
Universal Password Manager,Google Play,com.u17od.upm,Z3A6QU9xcFRPRXA1VUVyb2RhSU81X2pMamJVanhNUFpxRDNkMmtYcDVwcHVxc1JYVktnelA5czcwVVRWcE1tY1JQTFB6eE1zT0VGUnA3X1k2YTJiUzl5YXc,English,,1,2016-07-04,Matt Ro,Not as advertised,i lost every single one of my and password,,
Universal Password Manager,Google Play,com.u17od.upm,Z3A6QU9xcFRPRXA1VUVyb2RhSU81X2pMamJVanhNUFpxRDNkMmtYcDVwcHVxc1JYVktnelA5czcwVVRWcE1tY1JQTFB6eE1zT0VGUnA3X1k2YTJiUzl5YXc,English,,1,2016-07-04,Matt Ro,Not as advertised,i have switched to password keeper,,
Universal Password Manager,Google Play,com.u17od.upm,Z3A6QU9xcFRPRXA1VUVyb2RhSU81X2pMamJVanhNUFpxRDNkMmtYcDVwcHVxc1JYVktnelA5czcwVVRWcE1tY1JQTFB6eE1zT0VGUnA3X1k2YTJiUzl5YXc,English,,1,2016-07-04,Matt Ro,Not as advertised,disappointing,,
Universal Password Manager,Google Play,com.u17od.upm,Z3A6QU9xcFRPRlNOUHFWZEtIdW9maFVyMXFvVUhiRUNKekdXWFRST2taOVBtUEkwZWgxWmp5S01jSWlaTnZDaDdoS3ZGUVNhVGEyUlM1UnFBZ2FIdEx4OHc,English,,5,2016-06-29,thomas hong,UPM,save me a bunch of time,,
Universal Password Manager,Google Play,com.u17od.upm,Z3A6QU9xcFRPRlNOUHFWZEtIdW9maFVyMXFvVUhiRUNKekdXWFRST2taOVBtUEkwZWgxWmp5S01jSWlaTnZDaDdoS3ZGUVNhVGEyUlM1UnFBZ2FIdEx4OHc,English,,5,2016-06-29,thomas hong,UPM,great with cloud backup,,
Universal Password Manager,Google Play,com.u17od.upm,Z3A6QU9xcFRPR0lvY0pWdUswYnA0a0JQR2FOSUxoOVV6SEN1czA5OGc1cmRMYjZ5Y1lRdFJJaVFqV2xnakJkaWdHcy1TZ2Zyc19fUmtuRnotQV9kT2NGaEE,English,,4,2016-04-14,David Gus,HELP,my wife love this but ha suddenly been locked out of her phone and cannot access it,,
Universal Password Manager,Google Play,com.u17od.upm,Z3A6QU9xcFRPR0lvY0pWdUswYnA0a0JQR2FOSUxoOVV6SEN1czA5OGc1cmRMYjZ5Y1lRdFJJaVFqV2xnakJkaWdHcy1TZ2Zyc19fUmtuRnotQV9kT2NGaEE,English,,4,2016-04-14,David Gus,HELP,seems to be a glitch in the phone the last upgrade,,
Universal Password Manager,Google Play,com.u17od.upm,Z3A6QU9xcFRPR0lvY0pWdUswYnA0a0JQR2FOSUxoOVV6SEN1czA5OGc1cmRMYjZ5Y1lRdFJJaVFqV2xnakJkaWdHcy1TZ2Zyc19fUmtuRnotQV9kT2NGaEE,English,,4,2016-04-14,David Gus,HELP,i just read the now back up somewhere,,
Universal Password Manager,Google Play,com.u17od.upm,Z3A6QU9xcFRPR0lvY0pWdUswYnA0a0JQR2FOSUxoOVV6SEN1czA5OGc1cmRMYjZ5Y1lRdFJJaVFqV2xnakJkaWdHcy1TZ2Zyc19fUmtuRnotQV9kT2NGaEE,English,,4,2016-04-14,David Gus,HELP,how long ha been the case,,
Universal Password Manager,Google Play,com.u17od.upm,Z3A6QU9xcFRPR0lvY0pWdUswYnA0a0JQR2FOSUxoOVV6SEN1czA5OGc1cmRMYjZ5Y1lRdFJJaVFqV2xnakJkaWdHcy1TZ2Zyc19fUmtuRnotQV9kT2NGaEE,English,,4,2016-04-14,David Gus,HELP,is it possible there is a recent backup file that would allow u to factory reset her phone,,
Universal Password Manager,Google Play,com.u17od.upm,bGc6QU9xcFRPRjB1NVhKX1pYX0lQRkR4aXJnbVBkY3R0c05hYlRPZURNdktrYVllRGxVTkVjNm9rOUZocTJ5UU9KUU5FTmxueG1iNWV1eWV2SWRyT0RjT1E,English,,5,2016-04-10,A Google User,Perfect,the best free password manager,,
Universal Password Manager,Google Play,com.u17od.upm,Z3A6QU9xcFRPRVMxc3g4VDdUZmJvc1prcG5lMC01eXpjaXlCTWR4T2RJeEZGS2Y5OEVWdDE2ZmE1WWFadHRwXzN3VjBsS2hpQVpzNHJXUDJuTGU0U3c5LVE,English,,4,2016-04-05,Paul Rudman,"WARNING, ANDROID KEEPS A SCREENSHOT",the developer need to fix this,,
Universal Password Manager,Google Play,com.u17od.upm,Z3A6QU9xcFRPRWNjbHV0bldyNTVqSGo2TElYaFBQY1R2cjFDRUN5WFNwZlU4WWF1am1VdTVMRzctS012YXJaNXBOa3lubUs3QnJJLUNHYjFMS0NnRHRUZXc,English,,5,2016-04-03,marcia martin,"Dependable,easy,deserves 10 stars",this password keeper ha served me reliably through 3 phone now plus various,,
Universal Password Manager,Google Play,com.u17od.upm,Z3A6QU9xcFRPRWNjbHV0bldyNTVqSGo2TElYaFBQY1R2cjFDRUN5WFNwZlU4WWF1am1VdTVMRzctS012YXJaNXBOa3lubUs3QnJJLUNHYjFMS0NnRHRUZXc,English,,5,2016-04-03,marcia martin,"Dependable,easy,deserves 10 stars",it never fails to retrieve my store the database on free version,,
Universal Password Manager,Google Play,com.u17od.upm,Z3A6QU9xcFRPRWNjbHV0bldyNTVqSGo2TElYaFBQY1R2cjFDRUN5WFNwZlU4WWF1am1VdTVMRzctS012YXJaNXBOa3lubUs3QnJJLUNHYjFMS0NnRHRUZXc,English,,5,2016-04-03,marcia martin,"Dependable,easy,deserves 10 stars",so nervous i tic that retrieve boom every time,,
Universal Password Manager,Google Play,com.u17od.upm,Z3A6QU9xcFRPRWNjbHV0bldyNTVqSGo2TElYaFBQY1R2cjFDRUN5WFNwZlU4WWF1am1VdTVMRzctS012YXJaNXBOa3lubUs3QnJJLUNHYjFMS0NnRHRUZXc,English,,5,2016-04-03,marcia martin,"Dependable,easy,deserves 10 stars",id never remember all my to mail yourself the main password because you cant get it from them you forget it,,
Universal Password Manager,Google Play,com.u17od.upm,Z3A6QU9xcFRPRWNjbHV0bldyNTVqSGo2TElYaFBQY1R2cjFDRUN5WFNwZlU4WWF1am1VdTVMRzctS012YXJaNXBOa3lubUs3QnJJLUNHYjFMS0NnRHRUZXc,English,,5,2016-04-03,marcia martin,"Dependable,easy,deserves 10 stars",happy,,
Universal Password Manager,Google Play,com.u17od.upm,Z3A6QU9xcFRPRjByT1NMbzgyMGVsSlA4VGVYTzRRNHYyYVZsa2JOdW00cnUwdUVQTm5ScGxQWUgtLVYzdUJMMWJ5OEY4bHNFeDNocmlfRkwtZUNFNnRnR0E,English,,5,2016-03-28,Cortez Peters Jr.,,doe what it is intended to do,,
Universal Password Manager,Google Play,com.u17od.upm,Z3A6QU9xcFRPR2ZHLWZKRDZxc25mdmpJRkJYUWdKVDJPRUlienItelB4LW1SVURtbVpPMnZUS1VZUVJBVVc3aXFoaVdxUHNpTUtjZHNvT1ZtRWNPUTBtUXc,English,,5,2016-03-22,Cynthia Taylor,This keeps me from going insane,this is the best way to store any password,,
Universal Password Manager,Google Play,com.u17od.upm,Z3A6QU9xcFRPRmxrNUFoU2dpemtJbmpZT24xdHRoNGQxR2xmVnlxWEpNQ0hQMnBfRGRPV1BhR21LQWJRNFhJclJPSVIwdmtXQUJNNGFGNDNmczhKeDNaVUE,English,,5,2016-03-14,Dan Spry,Love it!,secure,,
Universal Password Manager,Google Play,com.u17od.upm,Z3A6QU9xcFRPRWVxdER1WGRfZnV2NTJvbF8xYnVJWXVDODZ0T3U5Wi05UTM3dGYzX3hGaXV2X0VFdERma245QUw3QmlKTUhsSjI1LS1sWmpEV0QyQ3Bua2c,English,,4,2016-03-10,Mani Kumar Akasapu,One Small flaw,i exit with middle button and come back to it with window mode,,
Universal Password Manager,Google Play,com.u17od.upm,Z3A6QU9xcFRPRWVxdER1WGRfZnV2NTJvbF8xYnVJWXVDODZ0T3U5Wi05UTM3dGYzX3hGaXV2X0VFdERma245QUw3QmlKTUhsSjI1LS1sWmpEV0QyQ3Bua2c,English,,4,2016-03-10,Mani Kumar Akasapu,One Small flaw,at this point of time it is showing the opened password information,,
Universal Password Manager,Google Play,com.u17od.upm,Z3A6QU9xcFRPRWVxdER1WGRfZnV2NTJvbF8xYnVJWXVDODZ0T3U5Wi05UTM3dGYzX3hGaXV2X0VFdERma245QUw3QmlKTUhsSjI1LS1sWmpEV0QyQ3Bua2c,English,,4,2016-03-10,Mani Kumar Akasapu,One Small flaw,any one can find this info by pressing the square button,,
Universal Password Manager,Google Play,com.u17od.upm,Z3A6QU9xcFRPRWVxdER1WGRfZnV2NTJvbF8xYnVJWXVDODZ0T3U5Wi05UTM3dGYzX3hGaXV2X0VFdERma245QUw3QmlKTUhsSjI1LS1sWmpEV0QyQ3Bua2c,English,,4,2016-03-10,Mani Kumar Akasapu,One Small flaw,kind of issue,,
Universal Password Manager,Google Play,com.u17od.upm,Z3A6QU9xcFRPSHcyMHFwTUJhU01xbWxkcXBqSnlIQ2VsRWY0cTMtRXEtSTdFN2d2Ti0xdUgyYmlfcmp6VUlINktqN3VhSHdya1VnZEdaYXUwaE0tNlY5Tmc,English,,5,2016-03-06,Adora Fernandez,,really good for forgetful people,,
Universal Password Manager,Google Play,com.u17od.upm,Z3A6QU9xcFRPRVJ6WmFSYzFROGVpb1V5Z0V4MkNtTHgxLUVObzhmTkJaX29fWkktZkJaMWxwbGZMMW5UZC1FUFlYTnZ6VmxSazZ0MTNmRGNyRVp2MEVJb3c,English,,5,2016-03-02,Puneet Sharma,,best password manager straight forward and easy to use,,
Universal Password Manager,Google Play,com.u17od.upm,Z3A6QU9xcFRPRVJ6WmFSYzFROGVpb1V5Z0V4MkNtTHgxLUVObzhmTkJaX29fWkktZkJaMWxwbGZMMW5UZC1FUFlYTnZ6VmxSazZ0MTNmRGNyRVp2MEVJb3c,English,,5,2016-03-02,Puneet Sharma,,i have it in all my device,,
Universal Password Manager,Google Play,com.u17od.upm,Z3A6QU9xcFRPRmwxNXZ6dVRFbldESGdEQW8tdlFITWxvaUp5UFFVOGJHTUQtVExOY2FlQkxIOWhLUHZHR1E5LTluOEcyMkRIOWwxQ21Vajd2dTZFd1NxS2c,English,,5,2016-02-26,Aaron Jared Windsor,"Using for years, multiple devices, sync",fantastic,,
Universal Password Manager,Google Play,com.u17od.upm,Z3A6QU9xcFRPRmwxNXZ6dVRFbldESGdEQW8tdlFITWxvaUp5UFFVOGJHTUQtVExOY2FlQkxIOWhLUHZHR1E5LTluOEcyMkRIOWwxQ21Vajd2dTZFd1NxS2c,English,,5,2016-02-26,Aaron Jared Windsor,"Using for years, multiple devices, sync",been reading other not sure what is going on there concerning the issue,,
Universal Password Manager,Google Play,com.u17od.upm,Z3A6QU9xcFRPRmwxNXZ6dVRFbldESGdEQW8tdlFITWxvaUp5UFFVOGJHTUQtVExOY2FlQkxIOWhLUHZHR1E5LTluOEcyMkRIOWwxQ21Vajd2dTZFd1NxS2c,English,,5,2016-02-26,Aaron Jared Windsor,"Using for years, multiple devices, sync",sync and backup via never a never a glitch,,
Universal Password Manager,Google Play,com.u17od.upm,Z3A6QU9xcFRPRmwxNXZ6dVRFbldESGdEQW8tdlFITWxvaUp5UFFVOGJHTUQtVExOY2FlQkxIOWhLUHZHR1E5LTluOEcyMkRIOWwxQ21Vajd2dTZFd1NxS2c,English,,5,2016-02-26,Aaron Jared Windsor,"Using for years, multiple devices, sync",and rather easy,,
Universal Password Manager,Google Play,com.u17od.upm,Z3A6QU9xcFRPRndNSEtRbnozVTV2d3hEa3NRN3R6VG9IWVVYcm5NYVg5OW5reDRYUlFJZU12V0xlSFBKbEtXZVViRjNaelhXYTR2RGcxYmhIeHpsUWxvMkE,English,,5,2016-02-23,Virginia Fernandez,,work great,,
Universal Password Manager,Google Play,com.u17od.upm,Z3A6QU9xcFRPRndNSEtRbnozVTV2d3hEa3NRN3R6VG9IWVVYcm5NYVg5OW5reDRYUlFJZU12V0xlSFBKbEtXZVViRjNaelhXYTR2RGcxYmhIeHpsUWxvMkE,English,,5,2016-02-23,Virginia Fernandez,,synced to and moved to new phone very easily,,
Universal Password Manager,Google Play,com.u17od.upm,Z3A6QU9xcFRPRXc3Z1BET1Jyc1J1YjdOU0tNV3lnVWxmMExfX0RkcHRKMGQwbVdFZlBLUndUMGdFVi1KbGEzd2F4ZjlpRHpiU1IxNzQ0OURhRXRGV1poVUE,English,,1,2016-02-21,Jeremiah Soto,Problem,why can i not delete a file i had,,
Universal Password Manager,Google Play,com.u17od.upm,Z3A6QU9xcFRPRXc3Z1BET1Jyc1J1YjdOU0tNV3lnVWxmMExfX0RkcHRKMGQwbVdFZlBLUndUMGdFVi1KbGEzd2F4ZjlpRHpiU1IxNzQ0OURhRXRGV1poVUE,English,,1,2016-02-21,Jeremiah Soto,Problem,no option to delete,,
Universal Password Manager,Google Play,com.u17od.upm,Z3A6QU9xcFRPRXc3Z1BET1Jyc1J1YjdOU0tNV3lnVWxmMExfX0RkcHRKMGQwbVdFZlBLUndUMGdFVi1KbGEzd2F4ZjlpRHpiU1IxNzQ0OURhRXRGV1poVUE,English,,1,2016-02-21,Jeremiah Soto,Problem,dumb,,
Universal Password Manager,Google Play,com.u17od.upm,Z3A6QU9xcFRPRTdjY3RST0NUTlZ0OGItY1Y0YURoWUJ3Q1RCMFJIcDFtb2VnOTZUQy14NV9KdXRTQ3pvdzFZR2NQZ1lmZzZibVZSa0Y4bF9SMUJjMWtiaXc,English,,5,2016-02-14,Sam Riahi,,i have been using this for a few year now with no trouble using it today,,
Universal Password Manager,Google Play,com.u17od.upm,Z3A6QU9xcFRPRTdjY3RST0NUTlZ0OGItY1Y0YURoWUJ3Q1RCMFJIcDFtb2VnOTZUQy14NV9KdXRTQ3pvdzFZR2NQZ1lmZzZibVZSa0Y4bF9SMUJjMWtiaXc,English,,5,2016-02-14,Sam Riahi,,my galaxy required a factory reset i made a backup to my,,
Universal Password Manager,Google Play,com.u17od.upm,Z3A6QU9xcFRPRTdjY3RST0NUTlZ0OGItY1Y0YURoWUJ3Q1RCMFJIcDFtb2VnOTZUQy14NV9KdXRTQ3pvdzFZR2NQZ1lmZzZibVZSa0Y4bF9SMUJjMWtiaXc,English,,5,2016-02-14,Sam Riahi,,i moved it back and subsequently tried to login to my old the tell me invalid password,,
Universal Password Manager,Google Play,com.u17od.upm,Z3A6QU9xcFRPRTdjY3RST0NUTlZ0OGItY1Y0YURoWUJ3Q1RCMFJIcDFtb2VnOTZUQy14NV9KdXRTQ3pvdzFZR2NQZ1lmZzZibVZSa0Y4bF9SMUJjMWtiaXc,English,,5,2016-02-14,Sam Riahi,,update i resolved it by uploading my backed up database from my to my fresh installed told to sync database from my,,
Universal Password Manager,Google Play,com.u17od.upm,Z3A6QU9xcFRPRTdjY3RST0NUTlZ0OGItY1Y0YURoWUJ3Q1RCMFJIcDFtb2VnOTZUQy14NV9KdXRTQ3pvdzFZR2NQZ1lmZzZibVZSa0Y4bF9SMUJjMWtiaXc,English,,5,2016-02-14,Sam Riahi,,somehow that wa different dragging the database from my to but hopefully this help someone,,
Universal Password Manager,Google Play,com.u17od.upm,Z3A6QU9xcFRPRTdjY3RST0NUTlZ0OGItY1Y0YURoWUJ3Q1RCMFJIcDFtb2VnOTZUQy14NV9KdXRTQ3pvdzFZR2NQZ1lmZzZibVZSa0Y4bF9SMUJjMWtiaXc,English,,5,2016-02-14,Sam Riahi,,score changed back to 5 star,,
Universal Password Manager,Google Play,com.u17od.upm,Z3A6QU9xcFRPR3o3ZFppQ2ZJWnBlVG5BNENrVXpZc2h0UzN4a2lRalR2dFM5cGs5bVRBdDYyREE5cUZvOE9OTW0wUm9aZjJYU3pEMzgxZG90YXdHMXdnbEE,English,,4,2016-02-04,Chaya Yuliatri,Nice,maybe need another option,,
Universal Password Manager,Google Play,com.u17od.upm,Z3A6QU9xcFRPR1hQN09NRkt3Tmh2WWh0MWJscklraURJcGVYdjBGN3lPendkRHM5TWlsQ0lPcFFDWnljYkM5YllVamw3WDMzWGJ3OHIzcEZQYzl2c0dNaXc,English,,5,2016-01-06,Mark Buntjer,Great,have downloaded to multiple phone and ha never failed me,,
Universal Password Manager,Google Play,com.u17od.upm,Z3A6QU9xcFRPR1hQN09NRkt3Tmh2WWh0MWJscklraURJcGVYdjBGN3lPendkRHM5TWlsQ0lPcFFDWnljYkM5YllVamw3WDMzWGJ3OHIzcEZQYzl2c0dNaXc,English,,5,2016-01-06,Mark Buntjer,Great,need one for,,
Universal Password Manager,Google Play,com.u17od.upm,Z3A6QU9xcFRPRUtKbjVSRERXRkwzcG96STJFdlF2MkFQQ2dhQWE5b1k1VWJpOU1uaVdHVTFvMTE3UlpFV1doSk1fVHhmd2h5cGFVRVFLeEdQcHNoSUpfT3c,English,,5,2016-01-06,LuckyG HOne,,been using for year,,
Universal Password Manager,Google Play,com.u17od.upm,Z3A6QU9xcFRPRTU1MkhuZGpvcUlPTW1SNlhRdVY5TVJYelh2V3pxVk9EMEpRZHRtTnU3bG5MMVBRQ0hzd0pzYlpSVmlvSURHU1B2anpKQnlBSWJrRHBSNFE,English,,4,2016-01-02,Stephen Rifkin,Latest update claims backup to cloud,but you should allow sync to drive not just,,
Universal Password Manager,Google Play,com.u17od.upm,Z3A6QU9xcFRPR1ZLUWdUb0xlNmZqM1ktSm1ZT3RwN2hxTmU4Tk1VaWszTXJ2RWMyblBKNUl0Y25oc1FBeTJBSHJ0bmhmVnJJbk5qSXVFUm0zR0FWbFJSMFE,English,,1,2015-12-30,Marion Dillard,Lost all passwords,this is huge,,
Universal Password Manager,Google Play,com.u17od.upm,Z3A6QU9xcFRPR1ZLUWdUb0xlNmZqM1ktSm1ZT3RwN2hxTmU4Tk1VaWszTXJ2RWMyblBKNUl0Y25oc1FBeTJBSHJ0bmhmVnJJbk5qSXVFUm0zR0FWbFJSMFE,English,,1,2015-12-30,Marion Dillard,Lost all passwords,not just an inconvenience but a disaster,,
Universal Password Manager,Google Play,com.u17od.upm,Z3A6QU9xcFRPR1ZLUWdUb0xlNmZqM1ktSm1ZT3RwN2hxTmU4Tk1VaWszTXJ2RWMyblBKNUl0Y25oc1FBeTJBSHJ0bmhmVnJJbk5qSXVFUm0zR0FWbFJSMFE,English,,1,2015-12-30,Marion Dillard,Lost all passwords,thanks for nothing,,
Universal Password Manager,Google Play,com.u17od.upm,Z3A6QU9xcFRPR1ZLUWdUb0xlNmZqM1ktSm1ZT3RwN2hxTmU4Tk1VaWszTXJ2RWMyblBKNUl0Y25oc1FBeTJBSHJ0bmhmVnJJbk5qSXVFUm0zR0FWbFJSMFE,English,,1,2015-12-30,Marion Dillard,Lost all passwords,called and they are not helpful either,,
Universal Password Manager,Google Play,com.u17od.upm,Z3A6QU9xcFRPRjh6RFM5LWRBcUtrZm4xbjRfSnhqUzlNNmw3TS0xTWowOElDRV9xNDhpazV2WHZjNUNhci13dnFzTTZtaERJUzJ6YkNKQ0l5T19PVFJ0UFE,English,,5,2015-12-25,Jesse Jacobsen,"Simple, effective, cross-platform",not dependent on one syncing method,,
Universal Password Manager,Google Play,com.u17od.upm,Z3A6QU9xcFRPRTJWS2N5TFE5cWw4Z1ZNR2xRaFI1Rk1KaTFUUU9rZ0dFTzZiRmtsN1NRRy0zNkdtNEY1bXgzMWpaazZuS1hKMVo3MXpheUtaOXhaZjE1b3c,English,,1,2015-12-01,David Wisdom,No use,need one store not web password,,
Universal Password Manager,Google Play,com.u17od.upm,Z3A6QU9xcFRPRTJWS2N5TFE5cWw4Z1ZNR2xRaFI1Rk1KaTFUUU9rZ0dFTzZiRmtsN1NRRy0zNkdtNEY1bXgzMWpaazZuS1hKMVo3MXpheUtaOXhaZjE1b3c,English,,1,2015-12-01,David Wisdom,No use,will keep looking,,
Universal Password Manager,Google Play,com.u17od.upm,Z3A6QU9xcFRPRXNFZS1RRmJHYVlkWXNic1A0ODhVeEtCbGhCeEVZOHBJSGZiYVp0Yy1ycUdUOWZ1QTlwNEFQQlBWXzhYZTg1WF8ycTNEZlp1ZTJlallXdUE,English,,5,2015-11-30,Julie Rogerson,Samsung Note III,love this,,
Universal Password Manager,Google Play,com.u17od.upm,Z3A6QU9xcFRPRjhNTE5lOXhnTHpIejZ4T0xleFNKbVl3dlk1X2J0TU9SMTNVTUVkVE5MbjFGTjJOWk9KWm1WTzJ5bElidEM5RmRFaWdiUVBadDZPNGY2YlE,English,,2,2015-11-21,Phil Gregory,Does the basics,but i want to open the database on my android via drive,,
Universal Password Manager,Google Play,com.u17od.upm,Z3A6QU9xcFRPRjhNTE5lOXhnTHpIejZ4T0xleFNKbVl3dlk1X2J0TU9SMTNVTUVkVE5MbjFGTjJOWk9KWm1WTzJ5bElidEM5RmRFaWdiUVBadDZPNGY2YlE,English,,2,2015-11-21,Phil Gregory,Does the basics,will rate higher with added support for drive,,
Universal Password Manager,Google Play,com.u17od.upm,Z3A6QU9xcFRPRWdObXdxbkJES1gzTzVvNllLbUhtMHpVRjZ0N1RrdW5ZSWg2enpKWFlpVWFtVVFDMDFTQmN6aUpzb0xoa2hZbzVqaHdEdjl6UFh1ajBPenc,English,,1,2015-11-21,siroos tavassoli,Don't rely on the backup,the backup and restore process is flawed,,
Universal Password Manager,Google Play,com.u17od.upm,Z3A6QU9xcFRPRzhwZUxQYXdWN2U5b2lQRVBFVm1nSU9ESHVUeUx5eWtlNkxySFhLLXBJTnVYSXF5MmtneTlvamExYmRmeUdwY3gtY2s2bUlBS0w3WGZhRVE,English,,5,2015-11-19,bhupindersingh bhatia,Very nice And simple App,love it,,
Universal Password Manager,Google Play,com.u17od.upm,Z3A6QU9xcFRPRzJFNFkxTC1CSnBvb29NdmxHUUkyQUZQZnEyQmNOVGxqeWVlR29mRVdxM09GMkVFaTBuSkYwdXQxTzJlU2ZRSFdYS09Odm5YT0FMWVFMS0E,English,,1,2015-11-17,Charee Langston,Hate It ....,lost everything even i backed it up and tried to restore it,,
Universal Password Manager,Google Play,com.u17od.upm,Z3A6QU9xcFRPRkRBSzY3dlFzc1Nod0VsMThzcTczY1drZnppUlhqeFJqcmo3dVJNaUxlcDBmUDhKUDUwNTdNWmw4aDBvRWJINFRoakNJc3FuTjdVSGd4bnc,English,,1,2015-11-10,samuel Long,unreliable,i downloaded this to save over 20 and the literally disappeared off my phone and everything is gone,,
Universal Password Manager,Google Play,com.u17od.upm,Z3A6QU9xcFRPSHgyUkt2VGNFU1MxNWJRdHlncklCanpuRnltOHFoYkhLU0RLbzU4RzdEU0NZYmF0UFE3ZF9QRVE4TXc2OW5PcjNiWXFkQUlvOER0US1fLUE,English,,5,2015-10-29,Ben Blankenberg,Finger print scanner?,would like to use the finger print scanner on my new nexus,,
Universal Password Manager,Google Play,com.u17od.upm,Z3A6QU9xcFRPR21mWTVpbTNmMzlraFZFdHJMeDlqQU1lM25zM19hWnZRY3NNeWt3VW5heFVfRWNETXo4T0pheGNGczdNVFhUQWlGQ1RlSzY0eUFMZ0ZRdnc,English,,5,2015-10-23,Jonn M. White,Simply Superb!,used this several year,,
Universal Password Manager,Google Play,com.u17od.upm,Z3A6QU9xcFRPR21mWTVpbTNmMzlraFZFdHJMeDlqQU1lM25zM19hWnZRY3NNeWt3VW5heFVfRWNETXo4T0pheGNGczdNVFhUQWlGQ1RlSzY0eUFMZ0ZRdnc,English,,5,2015-10-23,Jonn M. White,Simply Superb!,no just doe what i need and syncs across all my phone,,
Universal Password Manager,Google Play,com.u17od.upm,Z3A6QU9xcFRPR01KSWtxamZVTWNsc1pBdkFqdGV1UTRGaGU5M25mRmlnWnZqcGVRd2xNSVBHSTQ2ajAtSDdCSHQ5T21sSkFZd1VWVVlqWWxGazFvS1FVMkE,English,,4,2015-10-19,Deb Taylor,Like,ha worked for me far,,
Universal Password Manager,Google Play,com.u17od.upm,Z3A6QU9xcFRPR01KSWtxamZVTWNsc1pBdkFqdGV1UTRGaGU5M25mRmlnWnZqcGVRd2xNSVBHSTQ2ajAtSDdCSHQ5T21sSkFZd1VWVVlqWWxGazFvS1FVMkE,English,,4,2015-10-19,Deb Taylor,Like,,,
Universal Password Manager,Google Play,com.u17od.upm,Z3A6QU9xcFRPRnlmSFRmQ1d1Zm1EakwxMU5lRWozRjdjTnpkekVBR3ZPbVRWb0VjeXc3Ylg1NzZGamt2RzFOWGk0RVJGMW1tMWFzd1pVS1o1WVVISV9ES0E,English,,3,2015-10-17,Chris Flores,Universal password,it ha a lock,,
Universal Password Manager,Google Play,com.u17od.upm,Z3A6QU9xcFRPRU1pN291c1J4Z1UyTFVkZ1piQmw3N3hsaHY2U2E2QlZ0Qm12SmRDUHlHXzg2QzRCbUQ2eFpVMVRMdDdHN3JpNTJZMVBnNW5rOHFLMHQ1aWc,English,,5,2015-10-14,Geneviève Vachon,"Love it, love it, love it!",most straightforward password management out there,,
Universal Password Manager,Google Play,com.u17od.upm,Z3A6QU9xcFRPRXVLUndYUDdtcXB5SGJxLURsNHJ2ZnB5Q0F2ZERKaVluSVBYYlJISVVGM09hUHhJcXhmc0pqVHhDWGpzVUJFTTlQeHUyZGM2V2lHMDNkUnc,English,,5,2015-10-10,Vijay Salegar,Easy to manage,nice to save all your important stuff,,
Universal Password Manager,Google Play,com.u17od.upm,Z3A6QU9xcFRPSFJjVXdnanVkNEpXckRkYjk4RUtaNTl1R25mcVpEMmVsOWZNWFNpMHk2bmk0UDVkVVZUWmtKRl9CWllJOWw0Y3p4LURXY2Y5UG9CM2JkSFE,English,,3,2015-10-08,Andrew Smith,Restore bug,trying to restore db on my new phone,,
Universal Password Manager,Google Play,com.u17od.upm,Z3A6QU9xcFRPSFJjVXdnanVkNEpXckRkYjk4RUtaNTl1R25mcVpEMmVsOWZNWFNpMHk2bmk0UDVkVVZUWmtKRl9CWllJOWw0Y3p4LURXY2Y5UG9CM2JkSFE,English,,3,2015-10-08,Andrew Smith,Restore bug,getting unexpected error field length had invalid character,,
Universal Password Manager,Google Play,com.u17od.upm,Z3A6QU9xcFRPSFJjVXdnanVkNEpXckRkYjk4RUtaNTl1R25mcVpEMmVsOWZNWFNpMHk2bmk0UDVkVVZUWmtKRl9CWllJOWw0Y3p4LURXY2Y5UG9CM2JkSFE,English,,3,2015-10-08,Andrew Smith,Restore bug,can you help me with this one,,
Universal Password Manager,Google Play,com.u17od.upm,Z3A6QU9xcFRPRTlfdkJnam9iZ25jdXFhd3M0N3kyV0s5Mkszcl9jdjN4UTNOdWxCU0ExY3dZejA0cGtVcXl1VXZuT2FLY1ZIVF84ekprc3pwbXJvd3k3ZXc,English,,4,2015-09-18,John Turton,Good tool,save trying to remember all your password,,
Universal Password Manager,Google Play,com.u17od.upm,Z3A6QU9xcFRPRTlfdkJnam9iZ25jdXFhd3M0N3kyV0s5Mkszcl9jdjN4UTNOdWxCU0ExY3dZejA0cGtVcXl1VXZuT2FLY1ZIVF84ekprc3pwbXJvd3k3ZXc,English,,4,2015-09-18,John Turton,Good tool,a safe place to store them,,
Universal Password Manager,Google Play,com.u17od.upm,Z3A6QU9xcFRPRTlfdkJnam9iZ25jdXFhd3M0N3kyV0s5Mkszcl9jdjN4UTNOdWxCU0ExY3dZejA0cGtVcXl1VXZuT2FLY1ZIVF84ekprc3pwbXJvd3k3ZXc,English,,4,2015-09-18,John Turton,Good tool,i have been using this for over a year,,
Universal Password Manager,Google Play,com.u17od.upm,Z3A6QU9xcFRPRTlfdkJnam9iZ25jdXFhd3M0N3kyV0s5Mkszcl9jdjN4UTNOdWxCU0ExY3dZejA0cGtVcXl1VXZuT2FLY1ZIVF84ekprc3pwbXJvd3k3ZXc,English,,4,2015-09-18,John Turton,Good tool,even someone open the they need to know your master password,,
Universal Password Manager,Google Play,com.u17od.upm,Z3A6QU9xcFRPRlFNTkNlbkhhSmxTa29aaEdZMFdCX3dGSW5WWTY0U2ZGYjFMamtzWDVSVUxNdHZlUUxuSWx3aXJ5T2F5enBoNFVPd3BtY1lVS2dTZ0pZdnc,English,,4,2015-09-17,Devon Kiernan,Google Drive,option to backup to drive please,,
Universal Password Manager,Google Play,com.u17od.upm,Z3A6QU9xcFRPRV9pZ0VmdGdrWWJrZjhSSmMwanktNVVmdWZNVXBYdXNjcHcyb3Q2amxaeXhMdE9wR0pUdGg5WTF1UkN4SjAyZDV0c1RzZEFteThIYTJJTGc,English,,5,2015-09-14,ariel monton,I'd love this,free,,
Universal Password Manager,Google Play,com.u17od.upm,Z3A6QU9xcFRPRzNLdDJJZnJtX0hfQTZUdE5QcmFaQi12UC1DVE5CX2MwTWNjZmRTS0xCalBaQ0FCbVBCNmZfVVVDQnVSYS1aQkhfUS0xbm1BamNVRk5aUlE,English,,5,2015-09-10,Sead Malićević,,well done,,
Universal Password Manager,Google Play,com.u17od.upm,Z3A6QU9xcFRPRzNLdDJJZnJtX0hfQTZUdE5QcmFaQi12UC1DVE5CX2MwTWNjZmRTS0xCalBaQ0FCbVBCNmZfVVVDQnVSYS1aQkhfUS0xbm1BamNVRk5aUlE,English,,5,2015-09-10,Sead Malićević,,great,,
Universal Password Manager,Google Play,com.u17od.upm,Z3A6QU9xcFRPRjNqemRFMVdudWktSFV6MmhXRjVxbDdmTDFiTmNaN3ZScmNMcTNTRU1rcnl6dHdfSlpwbGE5T0RVUkU1Zm1WNm8xNTNXUmFTMWY5V2dhUUE,English,,5,2015-08-30,,,i switched from a to an and my info wa saved,,
Universal Password Manager,Google Play,com.u17od.upm,Z3A6QU9xcFRPSFNGeTRma09EZFowSEgteXlWR3VvcmwwbnBfZFlUUzlack85bDI1RFM0eG5TamJncE9wTjF5eUUtc09pMDZ4eW1QMEtlWUZxelpxRllRM1E,English,,5,2015-08-15,Wa Thong,Cool :-),cool,,
Universal Password Manager,Google Play,com.u17od.upm,Z3A6QU9xcFRPSDFPX2NIVnNaY2loRU5fTnFHU0U5N3YtSmZJdTVHdGFfandDTUlEWExVR1o5aVpIWW5FV3BHSFNMZnBxTE9nZTlQelJDRng0TFk4emtEMkE,English,,5,2015-08-11,Suzette Strydom,Best app,user friendly,,
Universal Password Manager,Google Play,com.u17od.upm,Z3A6QU9xcFRPRUZlZmdQR1V2aTBhVUxQcVdJeU9MdVlTSzNoZFEwS0JxUy02QTRxME92MjhBa0RBdTF0anllS1IyRnZxcGxhd2NtUnNsRmhoZFFIVS1QNHc,English,,5,2015-07-29,Nate Dietrich,,love this,,
Universal Password Manager,Google Play,com.u17od.upm,Z3A6QU9xcFRPRUZlZmdQR1V2aTBhVUxQcVdJeU9MdVlTSzNoZFEwS0JxUy02QTRxME92MjhBa0RBdTF0anllS1IyRnZxcGxhd2NtUnNsRmhoZFFIVS1QNHc,English,,5,2015-07-29,Nate Dietrich,,i use it all the time with the sync,,
Universal Password Manager,Google Play,com.u17od.upm,Z3A6QU9xcFRPRUZlZmdQR1V2aTBhVUxQcVdJeU9MdVlTSzNoZFEwS0JxUy02QTRxME92MjhBa0RBdTF0anllS1IyRnZxcGxhd2NtUnNsRmhoZFFIVS1QNHc,English,,5,2015-07-29,Nate Dietrich,,now you can update the database from your phone,,
Universal Password Manager,Google Play,com.u17od.upm,Z3A6QU9xcFRPRzJ2RmE2VG5zSWN4UlRFdVFUcmZjMGtMckJhZkFFdDZBLUlwSkZtNHdIeFZzamxGOWNVeVFrc0d5V0dDRlh0NTJpdUVyYS1laHdicUlkN0E,English,,4,2015-07-27,David J. Penate,Good app,just need more last update wa a year ago,,
Universal Password Manager,Google Play,com.u17od.upm,Z3A6QU9xcFRPRmxMNXVDVlQxelBwUU8wOU80THhESjNneDYtMlJCR2RyTUU4aXhIcEczYnoyYTlQZzFzVV90aWoxVVFOV2hpUkthSHIxN2pQMlRjMWpCdkE,English,,4,2015-07-27,,Good,version,,
Universal Password Manager,Google Play,com.u17od.upm,Z3A6QU9xcFRPSFZMelJkVjJiSGRQRWhiQllKWDNvUXVqdF9xaDRCR1NoODNKR1Y5WXF3Qm81Z3NhS0Rud3BrR2FpRkQtalh2OENlMmxVS0N6NTFtZU5uaGc,English,,1,2015-07-26,Mike Robertson,All lost after factory reset,no possibly to backup database to you need a chocolate tea pot,,
Universal Password Manager,Google Play,com.u17od.upm,Z3A6QU9xcFRPR01OUlBYeHZhTmtES2ZXVmthZW01V3R5TFJIcTQwc3M4N1FiQ0FWVThQcUZRQ29wVVB6Yk9Ueko0R3Q5c3BMeXJxenNHZldwUFpmTHpLYXc,English,,4,2015-07-23,Cklalchhan Hima,,good,,
Universal Password Manager,Google Play,com.u17od.upm,Z3A6QU9xcFRPSF9TUjA5UWV4MFljQVJsQWlyWS1pTU95UzBLdlVvY1Vna2JFWVUyWG5XQWVqQm13MnBSbTVBOEFMNFNtT3Yyd0hhdW81WEtwRGlPdFNfd1E,English,,5,2015-07-18,Michael Kitayev,,excellent and simple tool,,
Universal Password Manager,Google Play,com.u17od.upm,Z3A6QU9xcFRPRTZsaWhocVdQdFhVMjF3TG5aaTBMLVJiaW9LamJvVW9VUmw4clgwZFJ0cXdkWWxFUV9TTG42UDJPelVJX1ZFazlpdnA1WGU2bTZJb01CQ2c,English,,5,2015-06-30,Rex Evans,,this is a blessing in disguise it is something that anyone can use you get up in age like i am it really help to have an like this to help you accomplish your task,,
Universal Password Manager,Google Play,com.u17od.upm,Z3A6QU9xcFRPRTZsaWhocVdQdFhVMjF3TG5aaTBMLVJiaW9LamJvVW9VUmw4clgwZFJ0cXdkWWxFUV9TTG42UDJPelVJX1ZFazlpdnA1WGU2bTZJb01CQ2c,English,,5,2015-06-30,Rex Evans,,i know i will be using it regularly and be telling all my friend about it thank you again god bless,,
Universal Password Manager,Google Play,com.u17od.upm,Z3A6QU9xcFRPRTZsaWhocVdQdFhVMjF3TG5aaTBMLVJiaW9LamJvVW9VUmw4clgwZFJ0cXdkWWxFUV9TTG42UDJPelVJX1ZFazlpdnA1WGU2bTZJb01CQ2c,English,,5,2015-06-30,Rex Evans,,,,
Universal Password Manager,Google Play,com.u17od.upm,Z3A6QU9xcFRPRVlLMkxNZWQ0WUhsTWtScGRESE1MRFpYME5zaUIwdHRBazJFeXlVZkgtRW5nSXNPdmZDNC1zWEE1Rk9KaDdSOWZEU3RYUnBzZXluazRQU0E,English,,1,2015-06-28,Joe Valdez,Customer support,my phone got water damaged lost this back but cant find to ask how i do i downloaded it to my it wont let me old do you get all your password back,,
Universal Password Manager,Google Play,com.u17od.upm,Z3A6QU9xcFRPRVlLMkxNZWQ0WUhsTWtScGRESE1MRFpYME5zaUIwdHRBazJFeXlVZkgtRW5nSXNPdmZDNC1zWEE1Rk9KaDdSOWZEU3RYUnBzZXluazRQU0E,English,,1,2015-06-28,Joe Valdez,Customer support,why there any easy way to reach wa a 5 this tell me how i can reach somebody to help me,,
Universal Password Manager,Google Play,com.u17od.upm,Z3A6QU9xcFRPRWRpZE9mU2hvRjhIMTZuVE9KckNJRWdCUENZV2NubGdLaEp3YzJkRF9rb2hjdHVwcHkzQ04xMmhqMEN3VFdrUjFiclpPNEptMkI5aV81Y2c,English,,5,2015-06-22,Chevell Osborne,Chevell,love it and i love how fast it is,,
Universal Password Manager,Google Play,com.u17od.upm,Z3A6QU9xcFRPSHg0T3BmN1U5TDF3WmJoSG56VDlrUk1QTXlzU05RbnZSNWdxM1JmUkQ1TE4zVmFScDVOcktZczdoVVdXRy1LYlJiM3BHeFlpMVdOaFVKQlE,English,,5,2015-06-16,Emily Bultmann,The best,,,
Universal Password Manager,Google Play,com.u17od.upm,Z3A6QU9xcFRPSFJoYzU2cmJ3UGdka1BCOElDaGhJLXlDeUFBb0RjbUhxTUNGY0N0Ui1TbUxnVHExTlNubWx0QzQ0N0FsREphdjRIUzdhQUNuQXluV1VYUWc,English,,3,2015-05-30,Susan Boyd,Liked it until...,had to do a factory reset on,,
Universal Password Manager,Google Play,com.u17od.upm,Z3A6QU9xcFRPSFJoYzU2cmJ3UGdka1BCOElDaGhJLXlDeUFBb0RjbUhxTUNGY0N0Ui1TbUxnVHExTlNubWx0QzQ0N0FsREphdjRIUzdhQUNuQXluV1VYUWc,English,,3,2015-05-30,Susan Boyd,Liked it until...,i pulled back in data is missing,,
Universal Password Manager,Google Play,com.u17od.upm,Z3A6QU9xcFRPSFJoYzU2cmJ3UGdka1BCOElDaGhJLXlDeUFBb0RjbUhxTUNGY0N0Ui1TbUxnVHExTlNubWx0QzQ0N0FsREphdjRIUzdhQUNuQXluV1VYUWc,English,,3,2015-05-30,Susan Boyd,Liked it until...,i thought per the update on the front page the data is backed up to an android storage,,
Universal Password Manager,Google Play,com.u17od.upm,Z3A6QU9xcFRPSFJoYzU2cmJ3UGdka1BCOElDaGhJLXlDeUFBb0RjbUhxTUNGY0N0Ui1TbUxnVHExTlNubWx0QzQ0N0FsREphdjRIUzdhQUNuQXluV1VYUWc,English,,3,2015-05-30,Susan Boyd,Liked it until...,would a 5 my data wa restored,,
Universal Password Manager,Google Play,com.u17od.upm,Z3A6QU9xcFRPSFJoYzU2cmJ3UGdka1BCOElDaGhJLXlDeUFBb0RjbUhxTUNGY0N0Ui1TbUxnVHExTlNubWx0QzQ0N0FsREphdjRIUzdhQUNuQXluV1VYUWc,English,,3,2015-05-30,Susan Boyd,Liked it until...,not a happy camper,,
Universal Password Manager,Google Play,com.u17od.upm,Z3A6QU9xcFRPSFJoYzU2cmJ3UGdka1BCOElDaGhJLXlDeUFBb0RjbUhxTUNGY0N0Ui1TbUxnVHExTlNubWx0QzQ0N0FsREphdjRIUzdhQUNuQXluV1VYUWc,English,,3,2015-05-30,Susan Boyd,Liked it until...,please advise,,
Universal Password Manager,Google Play,com.u17od.upm,Z3A6QU9xcFRPSG5NMElyRERybmpNNzlKMlZhLXZBZFcyLUdPeGEtd2wxdmVsNWFZOFBmbHJ2SzNvX1h0bTE2dDZkZ1JWUTBoZE1NRV8xU2pqeW1mazAwaFE,English,,5,2015-05-25,saleh elbialy,Gfsg,nice,,
Universal Password Manager,Google Play,com.u17od.upm,bGc6QU9xcFRPR3BGVUpuLWxjNXhDNjAyNHBNZTNjUzZNSWpmOVBCNkFmTUNvM0xHWVQweFE1RG5hWVNaT3hrcTZTQ2l6cHUwWVh4clBCR0RLSmM3bTYwSkE,English,,5,2015-05-23,A Google User,Excellent,easy to use with simply direct interface,,
Universal Password Manager,Google Play,com.u17od.upm,Z3A6QU9xcFRPRkphcWtUU2JCT1dkTmMzNV9VQl9rS3IwUWdQemZETktpNEZqR3M0SUlLQUJHU3NYX2RLOElFcGdGNVFreVNUM2t6eHlDVEd5NWxHeC15V0E,English,,5,2015-05-21,Cheri Lanzisera,Awesome!!!,too easy,,
Universal Password Manager,Google Play,com.u17od.upm,Z3A6QU9xcFRPRkphcWtUU2JCT1dkTmMzNV9VQl9rS3IwUWdQemZETktpNEZqR3M0SUlLQUJHU3NYX2RLOElFcGdGNVFreVNUM2t6eHlDVEd5NWxHeC15V0E,English,,5,2015-05-21,Cheri Lanzisera,Awesome!!!,nice to have all your whatever you need to access your easily and easy to edit you need to change your info,,
Universal Password Manager,Google Play,com.u17od.upm,Z3A6QU9xcFRPRkphcWtUU2JCT1dkTmMzNV9VQl9rS3IwUWdQemZETktpNEZqR3M0SUlLQUJHU3NYX2RLOElFcGdGNVFreVNUM2t6eHlDVEd5NWxHeC15V0E,English,,5,2015-05-21,Cheri Lanzisera,Awesome!!!,beat scrappy little scribbled note pad i had in the drawer with 20 page of and password info,,
Universal Password Manager,Google Play,com.u17od.upm,Z3A6QU9xcFRPRkphcWtUU2JCT1dkTmMzNV9VQl9rS3IwUWdQemZETktpNEZqR3M0SUlLQUJHU3NYX2RLOElFcGdGNVFreVNUM2t6eHlDVEd5NWxHeC15V0E,English,,5,2015-05-21,Cheri Lanzisera,Awesome!!!,,,
Universal Password Manager,Google Play,com.u17od.upm,Z3A6QU9xcFRPR1lvSm8zblN5THJWNWd1QmVIaW1ybmZQck1lMHNTdEhFOERpVU5NUnJ4RVAtX3hxenY0UDlZMVd0dS1KSG1sb2UxRnVJZGpyWjB1RDlTclE,English,,5,2015-05-13,Pavel Bolchtiansky,Simple and stable!,work on,,
Universal Password Manager,Google Play,com.u17od.upm,Z3A6QU9xcFRPR1lvSm8zblN5THJWNWd1QmVIaW1ybmZQck1lMHNTdEhFOERpVU5NUnJ4RVAtX3hxenY0UDlZMVd0dS1KSG1sb2UxRnVJZGpyWjB1RDlTclE,English,,5,2015-05-13,Pavel Bolchtiansky,Simple and stable!,sync via,,
Universal Password Manager,Google Play,com.u17od.upm,Z3A6QU9xcFRPR1lvSm8zblN5THJWNWd1QmVIaW1ybmZQck1lMHNTdEhFOERpVU5NUnJ4RVAtX3hxenY0UDlZMVd0dS1KSG1sb2UxRnVJZGpyWjB1RDlTclE,English,,5,2015-05-13,Pavel Bolchtiansky,Simple and stable!,but not have auto developer can add it,,
Universal Password Manager,Google Play,com.u17od.upm,Z3A6QU9xcFRPR0JHcU9uZUJmMzgzdmxSeFZEMjRPbkJCUnU1U0psVFJOUUdmR3M2RnFFdndyTDN5d1pxRzJodUVRTUdWM2RUdHVJcl9jVU05MENVRjI2dEE,English,,5,2015-05-09,Henry Espinosa,Good,nice,,
Universal Password Manager,Google Play,com.u17od.upm,Z3A6QU9xcFRPSHpnd0p0R2NXUGU1Uk8tbWlURWhkTEtOaEJZZWdlekVSeW4tZWJ3enV3YllLM3Y5MjhJQTI5T0tjQ1Jzc2xhOXJDQWhycUN3cUNyZUwtSVE,English,,5,2015-05-04,hitha hoda sunna,ela,,,
Universal Password Manager,Google Play,com.u17od.upm,Z3A6QU9xcFRPR0pUT2R6ajZFQ0VYSnVwbHFXaGhUS0wxcVIyalA1RkdSTndiaXJEYk8wZDhqSi1fMFFmcGR0X2lzbVduM19rYTY4UUxtazNRcTU2RkR3Nmc,English,,5,2015-04-29,Brian Cooke,Love it!  Would love to see.......,would love to see both an add button a sync button at the top of the main page,,
Universal Password Manager,Google Play,com.u17od.upm,Z3A6QU9xcFRPR0pUT2R6ajZFQ0VYSnVwbHFXaGhUS0wxcVIyalA1RkdSTndiaXJEYk8wZDhqSi1fMFFmcGR0X2lzbVduM19rYTY4UUxtazNRcTU2RkR3Nmc,English,,5,2015-04-29,Brian Cooke,Love it!  Would love to see.......,those are the 2 feature i use the most,,
Universal Password Manager,Google Play,com.u17od.upm,Z3A6QU9xcFRPR0pUT2R6ajZFQ0VYSnVwbHFXaGhUS0wxcVIyalA1RkdSTndiaXJEYk8wZDhqSi1fMFFmcGR0X2lzbVduM19rYTY4UUxtazNRcTU2RkR3Nmc,English,,5,2015-04-29,Brian Cooke,Love it!  Would love to see.......,there is plenty of room on the header to do so,,
Universal Password Manager,Google Play,com.u17od.upm,Z3A6QU9xcFRPR0pUT2R6ajZFQ0VYSnVwbHFXaGhUS0wxcVIyalA1RkdSTndiaXJEYk8wZDhqSi1fMFFmcGR0X2lzbVduM19rYTY4UUxtazNRcTU2RkR3Nmc,English,,5,2015-04-29,Brian Cooke,Love it!  Would love to see.......,thanks keep up the good work,,
Universal Password Manager,Google Play,com.u17od.upm,Z3A6QU9xcFRPRVlZRHV2UzkyYWpfM0tVdGxBVlAtWl91aWFsVm05LUgtTkJGSzc5NWJaQWlkbXQtUkZQempjVEZCbk1IWlJiUG9oaU9BcU90aEFVMUJUQ0E,English,,5,2015-04-25,jeff lane,Great password manager,simple but very effective,,
Universal Password Manager,Google Play,com.u17od.upm,bGc6QU9xcFRPR2c3cU1XempWLUJQV1Mza2NHWkZwWG9aYlRpbGFmTFhfTVp6Q1JmYmVLcC0zN1NLQnotanQ3WW1BTkFQOXlGeVpkeVlJOUR1TmthLUMzQXc,English,,1,2015-04-25,A Google User,Worked great until...,used for on my galaxy nexus no,,
Universal Password Manager,Google Play,com.u17od.upm,bGc6QU9xcFRPR2c3cU1XempWLUJQV1Mza2NHWkZwWG9aYlRpbGFmTFhfTVp6Q1JmYmVLcC0zN1NLQnotanQ3WW1BTkFQOXlGeVpkeVlJOUR1TmthLUMzQXc,English,,1,2015-04-25,A Google User,Worked great until...,disappointing,,
Universal Password Manager,Google Play,com.u17od.upm,Z3A6QU9xcFRPR0NQRV81RzlfVG5HMHFJQ2pSZFl4VzFIa3BoRVgxLWEzT0xobnZuTC1WbENVLUQ0bnNQSVVmcGt0Uk8tc29aNGV1bExmNGJnMlVEakJIYVE,English,,5,2015-04-10,Sherri Wilson,Awesome Security App!,i have been using this everyday for close to 2 year now and think it is awesome,,
Universal Password Manager,Google Play,com.u17od.upm,Z3A6QU9xcFRPR0NQRV81RzlfVG5HMHFJQ2pSZFl4VzFIa3BoRVgxLWEzT0xobnZuTC1WbENVLUQ0bnNQSVVmcGt0Uk8tc29aNGV1bExmNGJnMlVEakJIYVE,English,,5,2015-04-10,Sherri Wilson,Awesome Security App!,i used to write all my password down in a but is much more organized and you need to remember your master password,,
Universal Password Manager,Google Play,com.u17od.upm,Z3A6QU9xcFRPR0NQRV81RzlfVG5HMHFJQ2pSZFl4VzFIa3BoRVgxLWEzT0xobnZuTC1WbENVLUQ0bnNQSVVmcGt0Uk8tc29aNGV1bExmNGJnMlVEakJIYVE,English,,5,2015-04-10,Sherri Wilson,Awesome Security App!,i have the on my tablet too,,
Universal Password Manager,Google Play,com.u17od.upm,Z3A6QU9xcFRPR0NQRV81RzlfVG5HMHFJQ2pSZFl4VzFIa3BoRVgxLWEzT0xobnZuTC1WbENVLUQ0bnNQSVVmcGt0Uk8tc29aNGV1bExmNGJnMlVEakJIYVE,English,,5,2015-04-10,Sherri Wilson,Awesome Security App!,love it,,
Universal Password Manager,Google Play,com.u17od.upm,Z3A6QU9xcFRPR0NQRV81RzlfVG5HMHFJQ2pSZFl4VzFIa3BoRVgxLWEzT0xobnZuTC1WbENVLUQ0bnNQSVVmcGt0Uk8tc29aNGV1bExmNGJnMlVEakJIYVE,English,,5,2015-04-10,Sherri Wilson,Awesome Security App!,thank you,,
Universal Password Manager,Google Play,com.u17od.upm,Z3A6QU9xcFRPSGxrWHc5M0dPT01fNFktcjJWNVdiclZNRHhNaTlib2xRZE1VNEdrOWlxN3hxdDFIeUdZT0hjN0I3aC1uVXl3SlF0eFRJSjdFZU4tQ0toV1E,English,,3,2015-04-10,Gursharan Singh,,not bad,,
Universal Password Manager,Google Play,com.u17od.upm,Z3A6QU9xcFRPRnlfNFpyRnlrRUZPZFF4NnZLaG5vYWhESHlvdEpSTUJ0Q0UxS0N3VmNDZ3oxR0ZweldmTlJhamw0eXFGaVVMZVh6d2FSMTFJSTZzV1JMNmc,English,,1,2015-04-06,Тот Мальчик,,useless for password,,
Universal Password Manager,Google Play,com.u17od.upm,bGc6QU9xcFRPR0hWeUk5eWJZN1pIdHk1Q3lGUUxHZG9WR2RnTWJRTjhaRUJKakN6OVVKWS1Qc2pOcmF4YnNDa0wxaGpfVUpodkJrdUl4SmdWcFpMLThPZVE,English,,5,2015-03-30,A Google User,Wifi,he is very fast,,
Universal Password Manager,Google Play,com.u17od.upm,Z3A6QU9xcFRPSE13TmQ5QWRVWm0tWThKZHMyRjFqMENmU1RvQngwUkpmYW5qWW9nVWp1Yi1SS29OSHF2SkNFQmJMU3RrbTVJOEExeVVYajRCdmNCVjlsYkE,English,,4,2015-03-23,David Gibson,Great app,great but there is a feature need to be added to the android platform,,
Universal Password Manager,Google Play,com.u17od.upm,Z3A6QU9xcFRPSE13TmQ5QWRVWm0tWThKZHMyRjFqMENmU1RvQngwUkpmYW5qWW9nVWp1Yi1SS29OSHF2SkNFQmJMU3RrbTVJOEExeVVYajRCdmNCVjlsYkE,English,,4,2015-03-23,David Gibson,Great app,there need to be a time limit the automatically log off in case you forget to manually log off,,
Universal Password Manager,Google Play,com.u17od.upm,Z3A6QU9xcFRPRWM4aFpaejEtY1ZMRk9FS0ZZeHVJY2hJSXM3a3o3bjJDRlRmVExKSmRpQWhXdW5SUXJHbTJyd1AzemtGNnFNaWRwWFZFVWtyREhpbzB1Z3c,English,,4,2015-03-21,Pramote Jutaporn,Great app.,never experienced an issue with this,,
Universal Password Manager,Google Play,com.u17od.upm,bGc6QU9xcFRPSEZ5Q1FabGpBYzBNZW4yNWJ6TGtCTE9obm16U2VudzhBSjN3RWdXYXdSUmZwbkZXOEIwWG1QS2daVHdzUmRqcnk3VWhTY3gzSlFEWjlqb2c,English,,5,2015-03-20,A Google User,,great just what i wa looking for really easy to use,,
Universal Password Manager,Google Play,com.u17od.upm,bGc6QU9xcFRPSEZ5Q1FabGpBYzBNZW4yNWJ6TGtCTE9obm16U2VudzhBSjN3RWdXYXdSUmZwbkZXOEIwWG1QS2daVHdzUmRqcnk3VWhTY3gzSlFEWjlqb2c,English,,5,2015-03-20,A Google User,,love it,,
Universal Password Manager,Google Play,com.u17od.upm,Z3A6QU9xcFRPR2NXYXJwMzBvcVVsNFUwRE1YZ0RoQmhqMjkxdG1lY2p1OU0yU2lUbmU1V1hDakpPdnh2ZkZCY3k2amtGZ3hwTU9PSnZUOUQyN3NSOHlLT3c,English,,1,2015-03-17,John May,REALLY???,who in their right mind would have you set up a encrypted file on your card a restore file the you restore move rather than copy the file from the card,,
Universal Password Manager,Google Play,com.u17od.upm,Z3A6QU9xcFRPR2NXYXJwMzBvcVVsNFUwRE1YZ0RoQmhqMjkxdG1lY2p1OU0yU2lUbmU1V1hDakpPdnh2ZkZCY3k2amtGZ3hwTU9PSnZUOUQyN3NSOHlLT3c,English,,1,2015-03-17,John May,REALLY???,totally a waste go with something else,,
Universal Password Manager,Google Play,com.u17od.upm,Z3A6QU9xcFRPRW5qUEhNWWRHVkw3bXU2cm4wYmJyN2ZLc1RZUEtzZzVOV3RnUnJwU0V1NElwazZaazhQNjZ4azNZMElJczA4enlIUU82ZUxESmZtMXBqVGc,English,,5,2015-03-14,Norwati Rahman,Works,simple straightforward interface,,
Universal Password Manager,Google Play,com.u17od.upm,Z3A6QU9xcFRPRW5qUEhNWWRHVkw3bXU2cm4wYmJyN2ZLc1RZUEtzZzVOV3RnUnJwU0V1NElwazZaazhQNjZ4azNZMElJczA4enlIUU82ZUxESmZtMXBqVGc,English,,5,2015-03-14,Norwati Rahman,Works,love it,,
Universal Password Manager,Google Play,com.u17od.upm,Z3A6QU9xcFRPRkZhWHlSYnFQb3d6VjR3ODBORWw5djZsck5KSDl1TDdwQWpjZmd2QU5fVHJEZF9zeEM4YUczeG5hLXF4eTJqVHJJeVBZZTNvM2NtM05XV0E,English,,5,2015-03-11,Kavya Salunke,,best,,
Universal Password Manager,Google Play,com.u17od.upm,Z3A6QU9xcFRPSDNWYmUwc1RlRnliNFJqMmMtRDN4R2NPR0JPNTlmRWpvajlsVWdFZV93Z0N6Y3l2SnlyNV9XV19OQzF3V09OdkhxemdfOW9JejlYakVVdEE,English,,1,2015-03-09,Rayn Imran,,bullshit,,
Universal Password Manager,Google Play,com.u17od.upm,Z3A6QU9xcFRPR1pHdmUwM1g5VEdwQWh5Rjg0ajllZmZadVMyUXRWTzRfQndCLXpmQ2l0X1pNLTFVOXNDaUFoZXhmVVpNOHMzd2VHUWtidnl1QTJtdTV2LUE,English,,5,2015-02-20,Erlend Badham,Good stuff,really need this,,
Universal Password Manager,Google Play,com.u17od.upm,Z3A6QU9xcFRPSHdCQXp4YnRJQnhkX1RXN043WHFKVHVUN0taclpiNFhtSGI0bkNoZ2Jkcy1uZ3VtYlZUR0VmeF9oQW5EV3JxMEw5N1U2NmVWOWoyU3hLNXc,English,,5,2015-02-08,Cj Wong,Love it,simple and useful,,
Universal Password Manager,Google Play,com.u17od.upm,Z3A6QU9xcFRPSHdCQXp4YnRJQnhkX1RXN043WHFKVHVUN0taclpiNFhtSGI0bkNoZ2Jkcy1uZ3VtYlZUR0VmeF9oQW5EV3JxMEw5N1U2NmVWOWoyU3hLNXc,English,,5,2015-02-08,Cj Wong,Love it,been using it many year ago,,
Universal Password Manager,Google Play,com.u17od.upm,Z3A6QU9xcFRPRnVTYlFYU2V6Q2E3dm5jVi1yODJmZ1RWT3VYYTdnaHk5bVhRXzYyd1hEcU9DMjFPSjRTY0N4WGlidG5rMDZ6MnNhNE9MQVp4UVRmWk80TGc,English,,1,2015-02-02,Francis Ahr Cuizon,Love it or leave it,this wasted my time,,
Universal Password Manager,Google Play,com.u17od.upm,Z3A6QU9xcFRPRk9jSWhWcEIxZ1loN2pIMnczanF5eS1wSlhIZ2RqYkc1UndWbUZkNUN5cjhPdWJITXFXV0s5Tk5ORzlrekE5ckZhbXJOMHllQmxaNVhhQlE,English,,4,2015-01-31,,,forgot master how do i start a fresh,,
Universal Password Manager,Google Play,com.u17od.upm,Z3A6QU9xcFRPRk9jSWhWcEIxZ1loN2pIMnczanF5eS1wSlhIZ2RqYkc1UndWbUZkNUN5cjhPdWJITXFXV0s5Tk5ORzlrekE5ckZhbXJOMHllQmxaNVhhQlE,English,,4,2015-01-31,,,tried delete from and but still prompt for i open,,
Universal Password Manager,Google Play,com.u17od.upm,Z3A6QU9xcFRPSGpvMXJyTFRHeDJ2VWRtZS1RNDZ2eVd4LVBibVhlZjNJNDh2UE1ZUmtxR0M2WlNTNWFMT1NpZHNiVGpOWmx3MFpUbnJTUktyWUdOYWRYZkE,English,,5,2015-01-30,Marvin Hayden,Awesome,work flawlessly every time,,
Universal Password Manager,Google Play,com.u17od.upm,Z3A6QU9xcFRPR1BPMGFnSG5aNHdRMWhUNDhqZTB6alI3OHdPU3dWd0VicHByZy0yWkJId1BWanhSVjhfOHV1NGVKRjJGTVR5T1lsN045S0hlRjg1SVh4TWc,English,,4,2015-01-27,Mark Jaysontm Punzalan,Jayson,,,
Universal Password Manager,Google Play,com.u17od.upm,Z3A6QU9xcFRPRTE5TFUyNFpRWEZ3bEJZSlR2SVZ6T1puejFGTXB4d3g1U2d6VU1FMVZ2MjFWbEdRUUR4Y1hmLWI2aW9kTHlVMHZxbXFzNXFURVd4aUY1eFE,English,,5,2015-01-15,,Best & Light password manager,may be can be improved,,
Universal Password Manager,Google Play,com.u17od.upm,Z3A6QU9xcFRPRmc0czNyYUpwdGY3ZjdJVFphNVBwWFhzMXREemt1RnNSMnNkdklZS3lhMFFjN0k2S2ZFdTFISWZoNEpjNkh4bWY5eUkyUzVBTzg3U0FaM0E,English,,5,2015-01-12,Kishore Kumar,,doe what it meant to do without much fuss,,
Universal Password Manager,Google Play,com.u17od.upm,Z3A6QU9xcFRPR1RPYkIyZGppU0xrQTZaUWoySUhoWHpHcWgzU3IwT1E3MHY0dG9IYUtUai1rYlZCYUxqVWVQNmNDWWR4TktYQnd2VE05YUpzSGo2T1YySUE,English,,5,2015-01-06,Geoff Higgins,,great,,
Universal Password Manager,Google Play,com.u17od.upm,Z3A6QU9xcFRPSHZlYnJQY0FpbC1kWDhMeXJReC1fWnhBMW84dWoyQnBGc1JONzNiazdBYktZVWx0cENTTHNtNmZwRlFuYTR2M21YSGhjME5LZEpxWV9xX0E,English,,2,2014-12-27,Luis,Loved it until...,i upgraded from galaxy s to the and downloaded,,
Universal Password Manager,Google Play,com.u17od.upm,Z3A6QU9xcFRPSHZlYnJQY0FpbC1kWDhMeXJReC1fWnhBMW84dWoyQnBGc1JONzNiazdBYktZVWx0cENTTHNtNmZwRlFuYTR2M21YSGhjME5LZEpxWV9xX0E,English,,2,2014-12-27,Luis,Loved it until...,say it cant find my back up,,
Universal Password Manager,Google Play,com.u17od.upm,Z3A6QU9xcFRPSHZlYnJQY0FpbC1kWDhMeXJReC1fWnhBMW84dWoyQnBGc1JONzNiazdBYktZVWx0cENTTHNtNmZwRlFuYTR2M21YSGhjME5LZEpxWV9xX0E,English,,2,2014-12-27,Luis,Loved it until...,i lost many etc,,
Universal Password Manager,Google Play,com.u17od.upm,Z3A6QU9xcFRPRzZveFV5eWtQdFB0MlR3VlRFMDQ2UHFSSDZ5RnVEa0sxeTdzR2NUaFhrV1AyN3dMMlNJaDZnYzF2cEJGbkoxZE5qUUtaSDV5ckM1OWRYSEE,English,,3,2014-12-27,Always for you,,good,,
Universal Password Manager,Google Play,com.u17od.upm,Z3A6QU9xcFRPSG53ZlFQMWc1VXduMFVaNDRFMjVYczRVWDBXRzN3em5qbGUyR1lXcEFlcGZ2ZnBpQy1IaEtSV1BXRHFEd2VqNkhHbjlJV3liWENuMS1neXc,English,,4,2014-12-22,Bradford Risbert,To the point app,but cloud storage of password would make it much better,,
Universal Password Manager,Google Play,com.u17od.upm,Z3A6QU9xcFRPRk9fSjBOWGdnOVZ6Q0JwMHZMemFlVDN2TzBiLVpodncxYl9KMjBSWTdsN21zYWkzVlZsMXNYNXdBVXM2R0J0RmppU2kzaVdHUDZEdTduNHc,English,,5,2014-12-18,,,great,,
Universal Password Manager,Google Play,com.u17od.upm,Z3A6QU9xcFRPSElCa05ud3lmMnNMUGRoSEMwdm5DeXY4TWhqZm02R1liVHNILWdkcDRVemVfVDB1Tmp6UkZwRlY4VkFQTkcyX2l5VldONGNUSUxLVXdKN1E,English,,5,2014-12-17,Laila Lopez,Easy to reinstall,got a new phone wa able to download and have everything transferred over,,
Universal Password Manager,Google Play,com.u17od.upm,Z3A6QU9xcFRPRmdBSVNzNHpqeE96cXItX3YwOTZic2x3LVZwcFAybmdzaXc3UjljaXY0SkhIWXdseTlnMW82LWxacFFFTkdfSzgzWDZrODlaU3cwWmkzcEE,English,,4,2014-12-15,No One,,i like this,,
Universal Password Manager,Google Play,com.u17od.upm,Z3A6QU9xcFRPSGYzTGNZaE9KNWFWNmVsSnhBN2UxWDNuMVZYOFhkbWFrNm93RmxLT1NzRnpwRVJrVk1IXzZyb3lnR0R1S1BiNGhhaVhOOTNrM09tZHc3MlE,English,,5,2014-12-08,John Michaelis,Fantastic,feel very secure with my password and no longer have to remember all the different one,,
Universal Password Manager,Google Play,com.u17od.upm,Z3A6QU9xcFRPRW1TUDNqU01RempVY1N0S3RtRGMwdGEzR0N1TzA2cHFobWNjLUROaC1tYnl3Q2czVFFaMVNDSHF1X01YVDdrNjQ4dUxoOU0xdk5IcC1YUnc,English,,4,2014-12-03,Doneen Johnson,Multiple Phones Issue,this will not open it is downloaded to multiple phone,,
Universal Password Manager,Google Play,com.u17od.upm,Z3A6QU9xcFRPRW1TUDNqU01RempVY1N0S3RtRGMwdGEzR0N1TzA2cHFobWNjLUROaC1tYnl3Q2czVFFaMVNDSHF1X01YVDdrNjQ4dUxoOU0xdk5IcC1YUnc,English,,4,2014-12-03,Doneen Johnson,Multiple Phones Issue,i cracked my phone and now i have the refuse to let me in,,
Universal Password Manager,Google Play,com.u17od.upm,Z3A6QU9xcFRPRW1TUDNqU01RempVY1N0S3RtRGMwdGEzR0N1TzA2cHFobWNjLUROaC1tYnl3Q2czVFFaMVNDSHF1X01YVDdrNjQ4dUxoOU0xdk5IcC1YUnc,English,,4,2014-12-03,Doneen Johnson,Multiple Phones Issue,i know multiple downloads is the issue because it happened and after deleting from the old phone i wa able to get in,,
Universal Password Manager,Google Play,com.u17od.upm,Z3A6QU9xcFRPRW1TUDNqU01RempVY1N0S3RtRGMwdGEzR0N1TzA2cHFobWNjLUROaC1tYnl3Q2czVFFaMVNDSHF1X01YVDdrNjQ4dUxoOU0xdk5IcC1YUnc,English,,4,2014-12-03,Doneen Johnson,Multiple Phones Issue,goodbye password,,
Universal Password Manager,Google Play,com.u17od.upm,Z3A6QU9xcFRPRzdIc2ZGWEpOYlJRU1BwWWxJbTFPWWVxMGdaS1prMjJGVjRWbmFabjFlc2p1SHotSXpPSmlqOHByLXRCMGZaWWNxV2phQUxFUEpKU25ZTWc,English,,5,2014-11-30,Andrew Bestafka,A LIFESAVER,i love this,,
Universal Password Manager,Google Play,com.u17od.upm,Z3A6QU9xcFRPRzdIc2ZGWEpOYlJRU1BwWWxJbTFPWWVxMGdaS1prMjJGVjRWbmFabjFlc2p1SHotSXpPSmlqOHByLXRCMGZaWWNxV2phQUxFUEpKU25ZTWc,English,,5,2014-11-30,Andrew Bestafka,A LIFESAVER,thanks,,
Universal Password Manager,Google Play,com.u17od.upm,Z3A6QU9xcFRPRzNhT3pER0ZmNFZic2JRY3czSDFCc2F5eGhiQ25TLVowVkdQUTN3eVd3eGFmTDdhRFdueFg0d0xCNWxzRWIyazhuekhMTU1MVkhQNUxRY2c,English,,1,2014-11-27,Sujit Hazra,,best,,
Universal Password Manager,Google Play,com.u17od.upm,Z3A6QU9xcFRPRnhyaFV6RWZWb3hHbTBmdkxiREEwZzVvN3ktOG1IMUFmbV8ySXZSajUwWENIM0JUQXNrNVpRdDc0dGpCVF9ZaG1NOHNidDAyblRKM011Rnc,English,,5,2014-11-16,ali tavakkoli,,perfect,,
Universal Password Manager,Google Play,com.u17od.upm,Z3A6QU9xcFRPR2NYMVB6S1plOTBpb19DNTE1bm9ldDMwbGpCaFVhOFhDNk5maFJCR1BIVTVLTnk2d0hyNDFjclRwQzc3RFNoeGs2WUFJVmtoMjdsNEpQMEE,English,,3,2014-11-13,Nick Croken,Great but..,the should lock soon a you exit it,,
Universal Password Manager,Google Play,com.u17od.upm,Z3A6QU9xcFRPRUtqWWlKRk83WExKbUtuVms0QWp3V0FZZzR3TzFpS2hWWlZRdUdGTWQ1ZE9lYmhsMFZkeExpTFpXTVpTeTRjNnpYSEJHN2FTWlMwZzlRbHc,English,,4,2014-11-13,Zaman Afridi,,good,,
Universal Password Manager,Google Play,com.u17od.upm,Z3A6QU9xcFRPRk1VUlRRVUlEdENyV2JSNmNvRXJDLVFFazNCUVFkUTBqTXNFUVIxLUxIbktqTTdjVkRDdVJDdlRxQ0puVUdVZV9XVGYwU2VYajVJTmFvV2c,English,,4,2014-11-11,Harry Allen,Auto lock,will not auto lock,,
Universal Password Manager,Google Play,com.u17od.upm,Z3A6QU9xcFRPRk1VUlRRVUlEdENyV2JSNmNvRXJDLVFFazNCUVFkUTBqTXNFUVIxLUxIbktqTTdjVkRDdVJDdlRxQ0puVUdVZV9XVGYwU2VYajVJTmFvV2c,English,,4,2014-11-11,Harry Allen,Auto lock,you must hit yes in the pop up block to or it stay open,,
Universal Password Manager,Google Play,com.u17od.upm,Z3A6QU9xcFRPRk1VUlRRVUlEdENyV2JSNmNvRXJDLVFFazNCUVFkUTBqTXNFUVIxLUxIbktqTTdjVkRDdVJDdlRxQ0puVUdVZV9XVGYwU2VYajVJTmFvV2c,English,,4,2014-11-11,Harry Allen,Auto lock,other this the work well for me,,
Universal Password Manager,Google Play,com.u17od.upm,Z3A6QU9xcFRPR0hPZXRzM080RVNEWV9CaV9DbmhYSkpCaUliWnFJZGZES2ZyQlR6U1g3TE0zdjd1YXp2U1FsRzlJMFg3cFZqMUlxOTg1S3ZUUTdHQ2phZmc,English,,3,2014-11-02,Rohit Daksh,B,,,
Universal Password Manager,Google Play,com.u17od.upm,Z3A6QU9xcFRPSE5VZ0xrdEJtX2xneEhrQjlUaWgzN1J2RU1oMXF3SjJIY3Y4c0Nfb0tSTWNIUXlQZ0JnbVR6YWRWTml6akREaXFqQ0F0UXVoblpBaGhLSXc,English,,4,2014-10-28,Adhithya Ramamoorthy,,handy tool,,
Universal Password Manager,Google Play,com.u17od.upm,Z3A6QU9xcFRPSGZQRkFyYjRvRTYyU2pVZ3pmaUJRdG1uTzlKSlE3Rm5nOXNKZHB4YjcycGdWUF9LTWp4R0pNMEN5a1czSzc4OV9wOTJaLUpwVmVBbjluSHc,English,,1,2014-10-20,Brandy Cotner,New s5 and not finding my dropbox data base.,trouble on the home front,,
Universal Password Manager,Google Play,com.u17od.upm,Z3A6QU9xcFRPSGZQRkFyYjRvRTYyU2pVZ3pmaUJRdG1uTzlKSlE3Rm5nOXNKZHB4YjcycGdWUF9LTWp4R0pNMEN5a1czSzc4OV9wOTJaLUpwVmVBbjluSHc,English,,1,2014-10-20,Brandy Cotner,New s5 and not finding my dropbox data base.,i love your but not working on my,,
Universal Password Manager,Google Play,com.u17od.upm,Z3A6QU9xcFRPSGZQRkFyYjRvRTYyU2pVZ3pmaUJRdG1uTzlKSlE3Rm5nOXNKZHB4YjcycGdWUF9LTWp4R0pNMEN5a1czSzc4OV9wOTJaLUpwVmVBbjluSHc,English,,1,2014-10-20,Brandy Cotner,New s5 and not finding my dropbox data base.,please help,,
Universal Password Manager,Google Play,com.u17od.upm,Z3A6QU9xcFRPRUZOWHZTUjJwUzhoWUVNbHhYcTdaQTFJQzlBS25sSU1zVFEyczFmY3NjeTRWbHN0MWJmZ0pVMzFRcGRJYUhTT1BIVFVReDRXcVBqbjRHSEE,English,,3,2014-10-19,Pavel Roskin,"Nice, but too many missing features",no account group,,
Universal Password Manager,Google Play,com.u17od.upm,Z3A6QU9xcFRPRUZOWHZTUjJwUzhoWUVNbHhYcTdaQTFJQzlBS25sSU1zVFEyczFmY3NjeTRWbHN0MWJmZ0pVMzFRcGRJYUhTT1BIVFVReDRXcVBqbjRHSEE,English,,3,2014-10-19,Pavel Roskin,"Nice, but too many missing features",it should be allowed to have an empty account name is set,,
Universal Password Manager,Google Play,com.u17od.upm,Z3A6QU9xcFRPRUZOWHZTUjJwUzhoWUVNbHhYcTdaQTFJQzlBS25sSU1zVFEyczFmY3NjeTRWbHN0MWJmZ0pVMzFRcGRJYUhTT1BIVFVReDRXcVBqbjRHSEE,English,,3,2014-10-19,Pavel Roskin,"Nice, but too many missing features",copy p word on long press wa hard to discover it should be in the account menu a well,,
Universal Password Manager,Google Play,com.u17od.upm,Z3A6QU9xcFRPRUZOWHZTUjJwUzhoWUVNbHhYcTdaQTFJQzlBS25sSU1zVFEyczFmY3NjeTRWbHN0MWJmZ0pVMzFRcGRJYUhTT1BIVFVReDRXcVBqbjRHSEE,English,,3,2014-10-19,Pavel Roskin,"Nice, but too many missing features",the password should be hidden by default,,
Universal Password Manager,Google Play,com.u17od.upm,Z3A6QU9xcFRPRUZOWHZTUjJwUzhoWUVNbHhYcTdaQTFJQzlBS25sSU1zVFEyczFmY3NjeTRWbHN0MWJmZ0pVMzFRcGRJYUhTT1BIVFVReDRXcVBqbjRHSEE,English,,3,2014-10-19,Pavel Roskin,"Nice, but too many missing features",it would be nice to have an option to use service for sync,,
Universal Password Manager,Google Play,com.u17od.upm,Z3A6QU9xcFRPR2FDMUtuZ05FR1JBVXU4ODdWWEhJd0JOMk5rM1VFS0NuaVhPV1Zhd21yMnZ0VUk1M0FNd3lvU3JDOHNOR1JqVTlGVGFiUXNwMFFyWmdfZmc,English,,4,2014-10-10,Xapis Xapilaou,Good job,saved my skin many time thanks to this,,
Universal Password Manager,Google Play,com.u17od.upm,Z3A6QU9xcFRPSGlKNDJNMkxxNUFtTm5tRjBHdVBvTFNvcE5Sem5jRkNUTTdzQ2w5VEwwV2NCSF9SdzV3eFNEM1lSbGFoVWNyZnhUZFdJZWdsd083U2Ria3c,English,,4,2014-09-17,Mcebo Shabangu,Sweet,nice and easy,,
Universal Password Manager,Google Play,com.u17od.upm,Z3A6QU9xcFRPRnJZbXZzeDRXVjRzcmlFWHlIZXZOREZwS2RZVElJLXJKdGUxQjNNRDFyS0UxQVUwWEhlQ3U3bGFJZWN6Q0gyRkJ5S1ROdXFrVjJmTmRMVHc,English,,5,2014-09-14,William Masopust,Excellent Password Manager,i installed this installing the desktop version on my laptop,,
Universal Password Manager,Google Play,com.u17od.upm,Z3A6QU9xcFRPRnJZbXZzeDRXVjRzcmlFWHlIZXZOREZwS2RZVElJLXJKdGUxQjNNRDFyS0UxQVUwWEhlQ3U3bGFJZWN6Q0gyRkJ5S1ROdXFrVjJmTmRMVHc,English,,5,2014-09-14,William Masopust,Excellent Password Manager,i also like the feature allows you to sync your password database with,,
Universal Password Manager,Google Play,com.u17od.upm,Z3A6QU9xcFRPRnJZbXZzeDRXVjRzcmlFWHlIZXZOREZwS2RZVElJLXJKdGUxQjNNRDFyS0UxQVUwWEhlQ3U3bGFJZWN6Q0gyRkJ5S1ROdXFrVjJmTmRMVHc,English,,5,2014-09-14,William Masopust,Excellent Password Manager,way your password are accessible on your android device and your computer,,
Universal Password Manager,Google Play,com.u17od.upm,Z3A6QU9xcFRPR0FkeTF4cS1ZeE1fMU1IQ1FiSFQ4VWI1OVkzLTd5RGx0QkNWbzNGbjNkNXk0VFZtV2U5MDlsZHhWTjhrYVZzMHN6Rzk1WnZkOU1VT1ozNFE,English,,5,2014-09-14,Abdi Kolahi,Simple and Effective,easy to use and backup,,
Universal Password Manager,Google Play,com.u17od.upm,Z3A6QU9xcFRPR0JtcURyVGtOVGsxLXI5emtkVHdEUVB6a2pRa25NYXlvYjdGZEV4YUxHNUR4X3BLVXdUanNhbDZiMlhaaFBabzh3WXV3dlF4U3hnQVdEYkE,English,,4,2014-09-07,Deepak Sharma,Deepak,superb,,
Universal Password Manager,Google Play,com.u17od.upm,Z3A6QU9xcFRPSDJ6RmdEVGRRZVdLMFZRQ3RETU9ERkRLdmxpYmVNUXlQWm1iU2NrZmE4RWdtY1o5NzNONzQ4QUNaalBvOEFqY2tZNlBqMFM4eC1nUlV5c1E,English,,3,2014-08-29,Hardik Shah,Good app,the application doe what it say,,
Universal Password Manager,Google Play,com.u17od.upm,Z3A6QU9xcFRPSDJ6RmdEVGRRZVdLMFZRQ3RETU9ERkRLdmxpYmVNUXlQWm1iU2NrZmE4RWdtY1o5NzNONzQ4QUNaalBvOEFqY2tZNlBqMFM4eC1nUlV5c1E,English,,3,2014-08-29,Hardik Shah,Good app,keep it up,,
Universal Password Manager,Google Play,com.u17od.upm,Z3A6QU9xcFRPRUVZWDZIQkR2WV9wYVN1QmJwMUs4UTYzbEVmcEFEX21uNmgwdDFuMmNZUHZNWjB5eV8yYTRmby1LWk9teksxSXlMa19OZ2xpcDRLUjhqamc,English,,5,2014-08-28,Denny Eaton,Universal  Password,great,,
Universal Password Manager,Google Play,com.u17od.upm,Z3A6QU9xcFRPRVBaaEtsS0N6YWJlNWpBQ2k3ZmR3V2taSkV6S2pNRlpWVVIwZlZ0VnJ2Um12eEhTejBCamZLLUd2dTVIbHNtSjVIMi15Uy1kVkY1TmlwOWc,English,,3,2014-08-21,Havoc Yasoki,I feel kinda insecure,see your password,,
Universal Password Manager,Google Play,com.u17od.upm,Z3A6QU9xcFRPRmNYem5JY0NfTXFIcEU4WVNnQmdfM0VkV1F1bWN3M1d5S3I0OXJKTVZXOC0taUd5Uk5uendVQ0RJSmgxVzdZa0R1RHpFTThFYTNtNDhfVEE,English,,5,2014-08-16,jing lorica,,great find,,
Universal Password Manager,Google Play,com.u17od.upm,bGc6QU9xcFRPSEtlRC1acmpUQ2FKWEdPZm5jdmN3ZDBoZ3gtV2dJMElrQ3BIcVFqMlF5dk9pNHdDQUlhOTJEZU5XTUdxbFFVQVozbHJaeTM3U3Nqc0R5TUE,English,,5,2014-08-07,A Google User,Good,simple,,
Universal Password Manager,Google Play,com.u17od.upm,bGc6QU9xcFRPSEtlRC1acmpUQ2FKWEdPZm5jdmN3ZDBoZ3gtV2dJMElrQ3BIcVFqMlF5dk9pNHdDQUlhOTJEZU5XTUdxbFFVQVozbHJaeTM3U3Nqc0R5TUE,English,,5,2014-08-07,A Google User,Good,2014 now using on my,,
Universal Password Manager,Google Play,com.u17od.upm,Z3A6QU9xcFRPRmhlX3g4dzlaakUyWE1wNWxzOXM2WEJ0QTZSNXlZbXZSUno0dVZZeG1hYzhzazE5TzFXN2tRZHlCZzFvczNEMndQdVg4bzgzQkZJNVk5dVE,English,,4,2014-08-04,Venessa Cunningham,Liked it until...,i had to replace defective phone i found it difficult to restore from back up,,
Universal Password Manager,Google Play,com.u17od.upm,Z3A6QU9xcFRPRmhlX3g4dzlaakUyWE1wNWxzOXM2WEJ0QTZSNXlZbXZSUno0dVZZeG1hYzhzazE5TzFXN2tRZHlCZzFvczNEMndQdVg4bzgzQkZJNVk5dVE,English,,4,2014-08-04,Venessa Cunningham,Liked it until...,told me to contact developer and i checked out his website i could not understand the exchange in the instruction,,
Universal Password Manager,Google Play,com.u17od.upm,Z3A6QU9xcFRPRmhlX3g4dzlaakUyWE1wNWxzOXM2WEJ0QTZSNXlZbXZSUno0dVZZeG1hYzhzazE5TzFXN2tRZHlCZzFvczNEMndQdVg4bzgzQkZJNVk5dVE,English,,4,2014-08-04,Venessa Cunningham,Liked it until...,try instead,,
Universal Password Manager,Google Play,com.u17od.upm,Z3A6QU9xcFRPSGVSQVMzWi1pNEFjZmNJenR1THlaZFMtZ1pqVVlpcE0wLXpYWm1vRVhJNDFzMUJwQU1mVEJhR1I3bFJzZERsZXl5U0c1dXkyY0FBQktDWHc,English,,5,2014-07-28,Krystal Mercer,Awesome,best password keeper ever,,
Universal Password Manager,Google Play,com.u17od.upm,Z3A6QU9xcFRPR0JTZDdaUUhBU19RS1lGOWphNVBzTHpXZHpVcjlOWkZDR1VJXzVBbFA4WmF1WHNIQWtON0JIZ2tEOHEwMGtqb1A1MzJDS3JxSkNYcER1aWc,English,,5,2014-07-25,Jamil Lynch,Simply the Best,with the addition of the option to sync to a database for this is the password manager i use,,
Universal Password Manager,Google Play,com.u17od.upm,Z3A6QU9xcFRPSHRVdXd2c3BRQkRibExCTUZ4LUxQZ3N2eXExN1JRTGtPc2IzVGlLbE95N1U2U0VNQnUyOUI1M2piZnVQM1cyd2ZubEE5azZhZmo1cTVBSWc,English,,5,2014-07-24,Earlieb Young,PREACHERMAN: EARLIEB YOUNG FREE APP UNIVERSAL PASSWORD MANAGER,free universal password manager,,
Universal Password Manager,Google Play,com.u17od.upm,Z3A6QU9xcFRPRTRfV3Y2emgzUG4wWE5NdjJqTGVkOXlBd2d4WnFLNDNWYWVUakxNeHlKaDZtcC1WZmt3RmI1ZUpPWjN1c1BDdEhreGNZODQ1U0ZuSzlIQUE,English,,5,2014-07-08,Ariel Martin,Perfect,just lost my galaxy got galaxy downloaded got db from drop box,,
Universal Password Manager,Google Play,com.u17od.upm,Z3A6QU9xcFRPRTRfV3Y2emgzUG4wWE5NdjJqTGVkOXlBd2d4WnFLNDNWYWVUakxNeHlKaDZtcC1WZmt3RmI1ZUpPWjN1c1BDdEhreGNZODQ1U0ZuSzlIQUE,English,,5,2014-07-08,Ariel Martin,Perfect,done,,
Universal Password Manager,Google Play,com.u17od.upm,Z3A6QU9xcFRPRTRfV3Y2emgzUG4wWE5NdjJqTGVkOXlBd2d4WnFLNDNWYWVUakxNeHlKaDZtcC1WZmt3RmI1ZUpPWjN1c1BDdEhreGNZODQ1U0ZuSzlIQUE,English,,5,2014-07-08,Ariel Martin,Perfect,must have this got on all my device,,
Universal Password Manager,Google Play,com.u17od.upm,Z3A6QU9xcFRPRTRfV3Y2emgzUG4wWE5NdjJqTGVkOXlBd2d4WnFLNDNWYWVUakxNeHlKaDZtcC1WZmt3RmI1ZUpPWjN1c1BDdEhreGNZODQ1U0ZuSzlIQUE,English,,5,2014-07-08,Ariel Martin,Perfect,simple but effective program,,
Universal Password Manager,Google Play,com.u17od.upm,Z3A6QU9xcFRPRTRfV3Y2emgzUG4wWE5NdjJqTGVkOXlBd2d4WnFLNDNWYWVUakxNeHlKaDZtcC1WZmt3RmI1ZUpPWjN1c1BDdEhreGNZODQ1U0ZuSzlIQUE,English,,5,2014-07-08,Ariel Martin,Perfect,6 out of 5,,
Universal Password Manager,Google Play,com.u17od.upm,Z3A6QU9xcFRPRW12Q1VfaHRBcGJReFVXTTcyTGJnOFFWaTN3ZXpnWFpxd2l0QUFoWlVTYXdEU28wNDlVT1dBSTZDUTJzOE85LUMxcklYbjNQWDZpczZTd3c,English,,5,2014-07-02,Nas Car,,yes,,
Universal Password Manager,Google Play,com.u17od.upm,Z3A6QU9xcFRPSEd0YWVHY0ZJMmExd2p0NHhnY0JFSWc5RDI5b2EtRTRPeVM1ODR0WGJaRU5DcXlOMzRCa2lyYXpsd1Fid1hreW11QjJRZHJQcXNEN2d3N1E,English,,3,2014-07-01,John M,Drop box don't work,syncing to drop box stopped working,,
Universal Password Manager,Google Play,com.u17od.upm,Z3A6QU9xcFRPSGhvR2JHSXdVWFlWNFpmQW1PbmplR2FPY1p1Ty1USWNkd2FEMXN1MGdtWkkzM0wzQmppWnlBSWxzMjVkV2U1aURLckYyRFl0UThFd3RMM2c,English,,5,2014-06-19,Rich Vuchetich,Best password protector I have ever had.,without a the best protector i have ever had,,
Universal Password Manager,Google Play,com.u17od.upm,Z3A6QU9xcFRPRkU1Rjl2d3pKaDVTMUVkRm1CVF9tRk5hdWwwdGozcjBGVndleFJsc084QkoxejNRdm51ckc0SUpPYlhGbGVOZXU4VVRYNUl5bTVWYVBZVXc,English,,4,2014-06-19,Konstantin Isakov,,please add an option to ask for the password each time the activity is brought to foreground,,
Universal Password Manager,Google Play,com.u17od.upm,Z3A6QU9xcFRPRUVzdzBBLTJlZGwwUWIxTG1kdEt1X1FLbkVRU2U0UVFVNnZUbDdfZ25nVUNWMFkxZE5HTEpXamh3TzBGVHFiZ3ZCRE5QX0pmSEdwWUpsNkE,English,,4,2014-06-18,Paul Demrovski,Search,please fix search option,,
Universal Password Manager,Google Play,com.u17od.upm,Z3A6QU9xcFRPRUVzdzBBLTJlZGwwUWIxTG1kdEt1X1FLbkVRU2U0UVFVNnZUbDdfZ25nVUNWMFkxZE5HTEpXamh3TzBGVHFiZ3ZCRE5QX0pmSEdwWUpsNkE,English,,4,2014-06-18,Paul Demrovski,Search,list of password getting big and hard to find account,,
Universal Password Manager,Google Play,com.u17od.upm,Z3A6QU9xcFRPSHFNUlJRazBVLU9lZUJFU3pacnBZdnNNZ1piaU5IbGpQclRfX0JvYU5FcDRRNVc4TUVkTDVLT1JadkdJNkU4bGVUeEZYakxrZmFKSmhNcFE,English,,5,2014-06-12,Danielle Simmons,,great,,
Universal Password Manager,Google Play,com.u17od.upm,Z3A6QU9xcFRPRk5fcWZmSmN5bkJPOE5RNzJsaUVqQUIzSjROXzRRSWpVOHRjNUUteFUyZGk1WUV3N3FvZUhwQlR5MkxvcDZuSV9BanF4d0lNQzFwZV9mUWc,English,,5,2014-06-09,Matthew Niekamp,Great password manager,the simplicity is the best feature of this password manager,,
Universal Password Manager,Google Play,com.u17od.upm,Z3A6QU9xcFRPRk5fcWZmSmN5bkJPOE5RNzJsaUVqQUIzSjROXzRRSWpVOHRjNUUteFUyZGk1WUV3N3FvZUhwQlR5MkxvcDZuSV9BanF4d0lNQzFwZV9mUWc,English,,5,2014-06-09,Matthew Niekamp,Great password manager,i use it for most of my password almost every day and have no issue to report,,
Universal Password Manager,Google Play,com.u17od.upm,Z3A6QU9xcFRPRk5fcWZmSmN5bkJPOE5RNzJsaUVqQUIzSjROXzRRSWpVOHRjNUUteFUyZGk1WUV3N3FvZUhwQlR5MkxvcDZuSV9BanF4d0lNQzFwZV9mUWc,English,,5,2014-06-09,Matthew Niekamp,Great password manager,the only thing i would change is to add a way to copy password viewing them without going to edit mode,,
Universal Password Manager,Google Play,com.u17od.upm,Z3A6QU9xcFRPR3pHWTZuQlpWME4xUU41blM4RmtMOHBPby02cmhCRE5QdVhzMldaLWhvSTVjQV9XbkRaSVlTMzFJT0pMc1RGZS1FWGZJdmVIdnZRT09IVEE,English,,5,2014-06-07,Andrey Dyadyk,Awesome!,clean sync,,
Universal Password Manager,Google Play,com.u17od.upm,Z3A6QU9xcFRPR3pHWTZuQlpWME4xUU41blM4RmtMOHBPby02cmhCRE5QdVhzMldaLWhvSTVjQV9XbkRaSVlTMzFJT0pMc1RGZS1FWGZJdmVIdnZRT09IVEE,English,,5,2014-06-07,Andrey Dyadyk,Awesome!,the best,,
Universal Password Manager,Google Play,com.u17od.upm,Z3A6QU9xcFRPR3pHWTZuQlpWME4xUU41blM4RmtMOHBPby02cmhCRE5QdVhzMldaLWhvSTVjQV9XbkRaSVlTMzFJT0pMc1RGZS1FWGZJdmVIdnZRT09IVEE,English,,5,2014-06-07,Andrey Dyadyk,Awesome!,one thing to improve please add category to organize a long list of credential,,
Universal Password Manager,Google Play,com.u17od.upm,Z3A6QU9xcFRPRXZ0ME41SHE2bzY3TjktdElHdjNCYlAxQ2RuTlA2RmhTd2ZnaWc1cmNWRDJjZzhYV0JVekl0UXZQbTRud29hSE5aUFVSWUlqUmhFckhlU2c,English,,5,2014-06-05,Neil Freitas,Awesome,integration allows for the free backup of your data which is automatically a huge advantage over all the password manager want to charge you,,
Universal Password Manager,Google Play,com.u17od.upm,Z3A6QU9xcFRPRXZ0ME41SHE2bzY3TjktdElHdjNCYlAxQ2RuTlA2RmhTd2ZnaWc1cmNWRDJjZzhYV0JVekl0UXZQbTRud29hSE5aUFVSWUlqUmhFckhlU2c,English,,5,2014-06-05,Neil Freitas,Awesome,the is simple and get the job done,,
Universal Password Manager,Google Play,com.u17od.upm,Z3A6QU9xcFRPRXZ0ME41SHE2bzY3TjktdElHdjNCYlAxQ2RuTlA2RmhTd2ZnaWc1cmNWRDJjZzhYV0JVekl0UXZQbTRud29hSE5aUFVSWUlqUmhFckhlU2c,English,,5,2014-06-05,Neil Freitas,Awesome,the thing i might like to see is in addition a secure password generator,,
Universal Password Manager,Google Play,com.u17od.upm,Z3A6QU9xcFRPRU1Ob2hMaGdGeUJVZlNaWk8yckpnXzZMemFUeVl3Q2sxclRhME0zMkluUVBYSlVEX3lzT2FrMzA3SzBiNTRzZFY3Q3NOXzhDVmd4OUl3VFE,English,,5,2014-06-01,Karen Smith,,love this,,
Universal Password Manager,Google Play,com.u17od.upm,Z3A6QU9xcFRPRmc2dUZJdGVZYkFKbmFiSFBfUFpYMHRTSmNyZzhyM0NTT05MdnFKQWN4ZDF1Q1VyUGZpam5scjNIVGVFano2SkNFdFUxdEEtNWZ3NHhjZUE,English,,5,2014-05-29,Lily Drake,,just what l wa looking for,,
Universal Password Manager,Google Play,com.u17od.upm,Z3A6QU9xcFRPRmc2dUZJdGVZYkFKbmFiSFBfUFpYMHRTSmNyZzhyM0NTT05MdnFKQWN4ZDF1Q1VyUGZpam5scjNIVGVFano2SkNFdFUxdEEtNWZ3NHhjZUE,English,,5,2014-05-29,Lily Drake,,no,,
Universal Password Manager,Google Play,com.u17od.upm,Z3A6QU9xcFRPRmc2dUZJdGVZYkFKbmFiSFBfUFpYMHRTSmNyZzhyM0NTT05MdnFKQWN4ZDF1Q1VyUGZpam5scjNIVGVFano2SkNFdFUxdEEtNWZ3NHhjZUE,English,,5,2014-05-29,Lily Drake,,easy to use,,
Universal Password Manager,Google Play,com.u17od.upm,Z3A6QU9xcFRPRmc2dUZJdGVZYkFKbmFiSFBfUFpYMHRTSmNyZzhyM0NTT05MdnFKQWN4ZDF1Q1VyUGZpam5scjNIVGVFano2SkNFdFUxdEEtNWZ3NHhjZUE,English,,5,2014-05-29,Lily Drake,,love it,,
Universal Password Manager,Google Play,com.u17od.upm,Z3A6QU9xcFRPR1MyXzdqMDYwLVBaWHZROEF6SFFuTEpkSkJCbzVFT1VGVnZpcmhhZ0FwcmxMZFBkRlpBS0RFOF9IUHhpOGRDbVVHQ0l1ZHFKZjVSR2t0cUE,English,,5,2014-05-23,Jose Suarez,Excellent,simple and functional,,
Universal Password Manager,Google Play,com.u17od.upm,Z3A6QU9xcFRPR1MyXzdqMDYwLVBaWHZROEF6SFFuTEpkSkJCbzVFT1VGVnZpcmhhZ0FwcmxMZFBkRlpBS0RFOF9IUHhpOGRDbVVHQ0l1ZHFKZjVSR2t0cUE,English,,5,2014-05-23,Jose Suarez,Excellent,nice job,,
Universal Password Manager,Google Play,com.u17od.upm,Z3A6QU9xcFRPRXVTNTljeVV5UUxLMG1vMzF0UHEwVnJWSzE4WEs4c3NGS2dnTXZlX0xwLU9MRndGVVllOV9GXzlxUGotdjdfbXNES3NOQ3RRX3dxaEhkWGc,English,,2,2014-05-21,VooDoo Dragon,Bad Sync.,the forum suck,,
Universal Password Manager,Google Play,com.u17od.upm,Z3A6QU9xcFRPRXVTNTljeVV5UUxLMG1vMzF0UHEwVnJWSzE4WEs4c3NGS2dnTXZlX0xwLU9MRndGVVllOV9GXzlxUGotdjdfbXNES3NOQ3RRX3dxaEhkWGc,English,,2,2014-05-21,VooDoo Dragon,Bad Sync.,and my complaint is this,,
Universal Password Manager,Google Play,com.u17od.upm,Z3A6QU9xcFRPRXVTNTljeVV5UUxLMG1vMzF0UHEwVnJWSzE4WEs4c3NGS2dnTXZlX0xwLU9MRndGVVllOV9GXzlxUGotdjdfbXNES3NOQ3RRX3dxaEhkWGc,English,,2,2014-05-21,VooDoo Dragon,Bad Sync.,no sync across device,,
Universal Password Manager,Google Play,com.u17od.upm,Z3A6QU9xcFRPRWpOQTFzRGhKR0dlbDg3cGxkbGFTYXNuOUFRRk9BbnU0YjVzV25YOWlBM3ZMQ0hpWmJRV1BEVlhDMmU4R2E5Nm8tdXh4OUtNNW5XQmVhdmc,English,,5,2014-05-21,Tetro Eliran,Simple and awesome,looked for an like this,,
Universal Password Manager,Google Play,com.u17od.upm,Z3A6QU9xcFRPSHhxckZnT0NtUmFDQnlmMmJlQXlyTXhSTzJxckVOUXdvd3NmaUdkc2NvWTVPWTAzdmlIWjRLRktIWVVYYnJDVTZoaU1LQ2lyVmMzcndzdFE,English,,5,2014-05-19,Ruben Hernandez,Excellent!,great,,
Universal Password Manager,Google Play,com.u17od.upm,Z3A6QU9xcFRPRWdqLVJGY2VZWEZtdTRDSFladnhrQWhJd1NFSHpzNnY3V1ZaUXFVWDJ3Q2Vmak13c2QyeHJFSHR1UnlNQm1BWEQ1czF5aXBseGxRbFhPcFE,English,,5,2014-05-11,hemanth margana,,very useful and good to have,,
Universal Password Manager,Google Play,com.u17od.upm,Z3A6QU9xcFRPRWM1MS1xcHB2SF9BbEhNUVFmSmQ5bi1NM2dJMjJxVnFSMXQydWJvaEVyQ1dPaUFuaUZXMHFuUFlwTTNSVGJyOXNIRHZzREI5aDdLWHRpTkE,English,,5,2014-04-29,Dave Cheetham,Works perfectly,very easy to use,,
Universal Password Manager,Google Play,com.u17od.upm,Z3A6QU9xcFRPRWM1MS1xcHB2SF9BbEhNUVFmSmQ5bi1NM2dJMjJxVnFSMXQydWJvaEVyQ1dPaUFuaUZXMHFuUFlwTTNSVGJyOXNIRHZzREI5aDdLWHRpTkE,English,,5,2014-04-29,Dave Cheetham,Works perfectly,i would prefer it to automatically log out i close it but minor issue,,
Universal Password Manager,Google Play,com.u17od.upm,Z3A6QU9xcFRPSFFZck9pci1GQkRlbzlNTG1IZ09XX1dqcXRwaGZwNnNJX01yS2ZBUXBOUTlEYWFQclZvUXFIMzZDZkVRaDhZMnloRWZRODlOR3dpZUVhNVE,English,,5,2014-04-28,Lewis Page,,awesome for storing have been using it for over a year now,,
Universal Password Manager,Google Play,com.u17od.upm,Z3A6QU9xcFRPR0tEMDlCZElRdDQtMHoybDVfTGJHVlVjUkZsYURMTUczQ2hhNzhwOGxSZERiT0xYWGVSTTFZQXJXZWZpVXQ5R2hmVEZqVjlFS3lfMGFFZUE,English,,5,2014-04-24,Kim Greenwood,Best password app!,i have used this for 3 year and it is undoubtedly the best password out there,,
Universal Password Manager,Google Play,com.u17od.upm,Z3A6QU9xcFRPR0tEMDlCZElRdDQtMHoybDVfTGJHVlVjUkZsYURMTUczQ2hhNzhwOGxSZERiT0xYWGVSTTFZQXJXZWZpVXQ5R2hmVEZqVjlFS3lfMGFFZUE,English,,5,2014-04-24,Kim Greenwood,Best password app!,keep it simple,,
Universal Password Manager,Google Play,com.u17od.upm,Z3A6QU9xcFRPR0tEMDlCZElRdDQtMHoybDVfTGJHVlVjUkZsYURMTUczQ2hhNzhwOGxSZERiT0xYWGVSTTFZQXJXZWZpVXQ5R2hmVEZqVjlFS3lfMGFFZUE,English,,5,2014-04-24,Kim Greenwood,Best password app!,brilliant,,
Universal Password Manager,Google Play,com.u17od.upm,Z3A6QU9xcFRPR3oyT1p3ekN6N3hpNkFzMEV6eXc2TEFmWktic09vcklXNG83RnppSVY4ZmxBRTRHckh3dVpQazExRVJMYW5UMTZzbGU0NDVYX3piY3RyeWc,English,,5,2014-04-24,Luis Palau,"Small, clean and stable",an tiny,,
Universal Password Manager,Google Play,com.u17od.upm,Z3A6QU9xcFRPR3oyT1p3ekN6N3hpNkFzMEV6eXc2TEFmWktic09vcklXNG83RnppSVY4ZmxBRTRHckh3dVpQazExRVJMYW5UMTZzbGU0NDVYX3piY3RyeWc,English,,5,2014-04-24,Luis Palau,"Small, clean and stable",nice job,,
Universal Password Manager,Google Play,com.u17od.upm,Z3A6QU9xcFRPRk5ZbzVwVHZOYjVZM1dHa2UxT2VhaDNoYWhVMXQ2ZUkxS2MyQ0x3NlR6SDFkUGp2ZGhlajROcnR3SUYwRDBfQ0NJM3lXQXpnUW1TQVFSdVE,English,,4,2014-04-20,Madhuri Sharma,Nice app,very nice,,
Universal Password Manager,Google Play,com.u17od.upm,Z3A6QU9xcFRPR2NSQWpSOWIydEZwdWRXNHZsODhQZWRONlZ2U3hnSl9ZMUhfcDVBblM3UzRKeHpjSHdsWlltcFdjU0l1Z3BqR1pKSWlldFFtdXRZWlpsTUE,English,,5,2014-04-18,Alvin Leopold,Wonderful App,i already using this in last 2 year,,
Universal Password Manager,Google Play,com.u17od.upm,Z3A6QU9xcFRPR2NSQWpSOWIydEZwdWRXNHZsODhQZWRONlZ2U3hnSl9ZMUhfcDVBblM3UzRKeHpjSHdsWlltcFdjU0l1Z3BqR1pKSWlldFFtdXRZWlpsTUE,English,,5,2014-04-18,Alvin Leopold,Wonderful App,i recommend you to install this,,
Universal Password Manager,Google Play,com.u17od.upm,Z3A6QU9xcFRPSG55Q0xZX21DUGFfQm40WU1pemc4M2VFRGNlQU5Yczh4QmZQYzFQNzEtcmpsR2JBbDR2ZlNnbmQ5a2RRd3h3aDZiN3IyV3BZVjZ3R0NrM1E,English,,5,2014-04-16,Nancy Diaz,Secure,love the security,,
Universal Password Manager,Google Play,com.u17od.upm,Z3A6QU9xcFRPRUpyV3Y2eWlKWVVXSDdHaTBPYWJ3aXd3YkpBMHhNZmhucHR1RXpXZm0zSXZ4Z1JwVWhpV1BPMG9fTU92cm9pXzdPMXg1MlVjOF9mbVFHTGc,English,,5,2014-04-10,Philip Graham,Thanks,work great,,
Universal Password Manager,Google Play,com.u17od.upm,Z3A6QU9xcFRPRUpyV3Y2eWlKWVVXSDdHaTBPYWJ3aXd3YkpBMHhNZmhucHR1RXpXZm0zSXZ4Z1JwVWhpV1BPMG9fTU92cm9pXzdPMXg1MlVjOF9mbVFHTGc,English,,5,2014-04-10,Philip Graham,Thanks,feature is awesome for frequent flashing,,
Universal Password Manager,Google Play,com.u17od.upm,Z3A6QU9xcFRPRnZ2OWJudkRzQ2FHeU9oOV9BdG9aTk1PZ09zVzZ1THRWaUZmUjNBYzUyeEMyUHFRVUpoa1F1cFdQWEEzV3ViYTNNemRTZUVpT3NiVFlOTUE,English,,5,2014-04-09,Mark Chambers,UPM Password Manager,brilliant save me load of time and stress trying to remember all my p one update i would like to see thou is maybe folder or group a my list is getting rather big now and this would make thing a little easier,,
Universal Password Manager,Google Play,com.u17od.upm,Z3A6QU9xcFRPRUF4Vm1nOUNLTDh4SFpycFRqX2YzR1dSdktqekxnRHdQZVNBWnBPN2VRUElJcnVBQ05RX2xoVzVmVUN6ZFN0LUlFNGtDajF5ZWVuVDE1Z3c,English,,5,2014-04-05,Alan Swartz,,one of my must have on any of my device,,
Universal Password Manager,Google Play,com.u17od.upm,Z3A6QU9xcFRPRUF4Vm1nOUNLTDh4SFpycFRqX2YzR1dSdktqekxnRHdQZVNBWnBPN2VRUElJcnVBQ05RX2xoVzVmVUN6ZFN0LUlFNGtDajF5ZWVuVDE1Z3c,English,,5,2014-04-05,Alan Swartz,,been using this for a few year now,,
Universal Password Manager,Google Play,com.u17od.upm,Z3A6QU9xcFRPSGdNZ01vdGJzUURZc2lkVDA2Vl9qZ3lTTHNGTUNnVHJlSXBzNXZ6TTlhNllhOXNyTWQ5bnFCVXNPbXg3VFF6dzU5V3Q1bzhjZHZlR2ZuZXc,English,,5,2014-04-04,Anushua Roy Sarkar,,just splendid,,
Universal Password Manager,Google Play,com.u17od.upm,bGc6QU9xcFRPSE5mOWdoWmp6RHpmekVYc2E5MGlBLVBadFFLWlNQdjVINmhleE1IZmhLVksxR3d5TV9wTk5QRkxlTVBhNXlEX090Z1pHYXNFQ0R5VWdMd1E,English,,5,2014-04-03,A Google User,Excellent App!!,excellent must have,,
Universal Password Manager,Google Play,com.u17od.upm,bGc6QU9xcFRPSE5mOWdoWmp6RHpmekVYc2E5MGlBLVBadFFLWlNQdjVINmhleE1IZmhLVksxR3d5TV9wTk5QRkxlTVBhNXlEX090Z1pHYXNFQ0R5VWdMd1E,English,,5,2014-04-03,A Google User,Excellent App!!,one place to hold private info and password,,
Universal Password Manager,Google Play,com.u17od.upm,bGc6QU9xcFRPSE5mOWdoWmp6RHpmekVYc2E5MGlBLVBadFFLWlNQdjVINmhleE1IZmhLVksxR3d5TV9wTk5QRkxlTVBhNXlEX090Z1pHYXNFQ0R5VWdMd1E,English,,5,2014-04-03,A Google User,Excellent App!!,highly recommended,,
Universal Password Manager,Google Play,com.u17od.upm,bGc6QU9xcFRPSE5mOWdoWmp6RHpmekVYc2E5MGlBLVBadFFLWlNQdjVINmhleE1IZmhLVksxR3d5TV9wTk5QRkxlTVBhNXlEX090Z1pHYXNFQ0R5VWdMd1E,English,,5,2014-04-03,A Google User,Excellent App!!,one x,,
Universal Password Manager,Google Play,com.u17od.upm,Z3A6QU9xcFRPRU9WR203QTdfZUd0Wi1vSG8zdmxOY2hUcHlxLTMyY1VTZjk3Z0JSek1zbndCd25hcENuTEUzZjhLRmZtcXFYcUxUSUJ5U0NNLXd0RmFrX1E,English,,5,2014-04-02,Wallace Pishtey,Simple and works great,excellent,,
Universal Password Manager,Google Play,com.u17od.upm,Z3A6QU9xcFRPRU9WR203QTdfZUd0Wi1vSG8zdmxOY2hUcHlxLTMyY1VTZjk3Z0JSek1zbndCd25hcENuTEUzZjhLRmZtcXFYcUxUSUJ5U0NNLXd0RmFrX1E,English,,5,2014-04-02,Wallace Pishtey,Simple and works great,add drive a sync option,,
Universal Password Manager,Google Play,com.u17od.upm,Z3A6QU9xcFRPSDA3ajdzaEJyOHE0R2pDOVZzOWVNNDRaNHp1WXFKVXJUMGVGUGgxZWlMZHE3NS1xX0kwOXZweXc2RUFmb3htSThSNktlNVFlRWJLLUZ4akE,English,,5,2014-04-01,Lucian Thomas,Universal Password Manager,excellent program,,
Universal Password Manager,Google Play,com.u17od.upm,Z3A6QU9xcFRPRXVuU3dGZEpSQ2pNSzZwZzFjdXdseWt3dXNfUzJVbzFTRmlWeFNrV3pTVUZkYS1XcFJLYmxCek9HWkdWSExGMzlnZUxzNVE0UFV1VGZHWkE,English,,5,2014-04-01,Vinay Hosamani,,,,
Universal Password Manager,Google Play,com.u17od.upm,Z3A6QU9xcFRPSGp0c2tFdzVKc3dHTzdvMFlxeFo1ckdfa1luRVRURzIxZVN4V3BxdExZN3U1dTZValhNQjdFaTJ0Z2k4eUJneXI4VVRqdW1yOEFoT0U5TFE,English,,5,2014-03-31,Lonnie Lawson,"Great app, easy to use and works great",i have used this for over two year i recommend it to friend and family all the time,,
Universal Password Manager,Google Play,com.u17od.upm,Z3A6QU9xcFRPSGp0c2tFdzVKc3dHTzdvMFlxeFo1ckdfa1luRVRURzIxZVN4V3BxdExZN3U1dTZValhNQjdFaTJ0Z2k4eUJneXI4VVRqdW1yOEFoT0U5TFE,English,,5,2014-03-31,Lonnie Lawson,"Great app, easy to use and works great",work flawlessly and ha saved me much time and stress,,
Universal Password Manager,Google Play,com.u17od.upm,Z3A6QU9xcFRPSEotcFFGaTdNblY2X2lTMlpVZ25iUjVBQVhYNUVhQmxQckNVcmp2a0Zkb2h6MVdIa0Nvanc2dE82MU9BNl9CY1NYbnE0WDlPUUdGdDRUY0E,English,,5,2014-03-30,Debra James,*** UPDATE *** Samsung S4,very happy with new cloud backup option,,
Universal Password Manager,Google Play,com.u17od.upm,Z3A6QU9xcFRPSEotcFFGaTdNblY2X2lTMlpVZ25iUjVBQVhYNUVhQmxQckNVcmp2a0Zkb2h6MVdIa0Nvanc2dE82MU9BNl9CY1NYbnE0WDlPUUdGdDRUY0E,English,,5,2014-03-30,Debra James,*** UPDATE *** Samsung S4,ha been frustrating switching device in the past,,
Universal Password Manager,Google Play,com.u17od.upm,Z3A6QU9xcFRPRzE5a09VV2pLRktXYXBCT3R6VU9ZTjUwcWVNT2J0ckd6allCdENnNzBqZ2JhM2xNZTZZZXpjbkJ1Wmc0NTFWNV9KYWkzbWlsbC1MQVFNcnc,English,,5,2014-03-30,Sam Taylor,Awesome!!,back up restores valuable password info flawlessly,,
Universal Password Manager,Google Play,com.u17od.upm,Z3A6QU9xcFRPRXNtdXR5OHo5anlydV9KdlBDRHM4Rzl1dWVfa3RfczRncEJFYjJscXdSUnlJbzdDazh0U0xFQ2hwTFdsMkhQZjBDT0paelc2djdIMGdtTlE,English,,5,2014-03-30,Mary Strawder,,perfect,,
Universal Password Manager,Google Play,com.u17od.upm,Z3A6QU9xcFRPR3ladEV2TmF1ampYQnR2ZTlGZ2dEZGo2SHRKZ0NLTlQwTy15c2F4ZDdCcklnSFJoN1Y1bm5Vd29ZaF85MkpHc3UwWVpEaWtWMnZBS1oySHc,English,,5,2014-03-30,Amy Secker,,very helpful,,
Universal Password Manager,Google Play,com.u17od.upm,Z3A6QU9xcFRPSElSWFpzUlNyY3pnRlotOS1kRlN3ZW9YSk5FLU01T3Z6M3FiZ21JSTY2cmtJdXdoMFd5Q2x0UUdsdUVRQ2JZdDVVSFVEZmNJVnhfRlh1YkE,English,,5,2014-03-30,NC NEAC,Update: excellent App. Good APP but needs updates,this can be a great there wa a simple send to email function,,
Universal Password Manager,Google Play,com.u17od.upm,Z3A6QU9xcFRPSElSWFpzUlNyY3pnRlotOS1kRlN3ZW9YSk5FLU01T3Z6M3FiZ21JSTY2cmtJdXdoMFd5Q2x0UUdsdUVRQ2JZdDVVSFVEZmNJVnhfRlh1YkE,English,,5,2014-03-30,NC NEAC,Update: excellent App. Good APP but needs updates,update the ha received many update and is easy to sync now with,,
Universal Password Manager,Google Play,com.u17od.upm,Z3A6QU9xcFRPSElSWFpzUlNyY3pnRlotOS1kRlN3ZW9YSk5FLU01T3Z6M3FiZ21JSTY2cmtJdXdoMFd5Q2x0UUdsdUVRQ2JZdDVVSFVEZmNJVnhfRlh1YkE,English,,5,2014-03-30,NC NEAC,Update: excellent App. Good APP but needs updates,great product,,
Universal Password Manager,Google Play,com.u17od.upm,Z3A6QU9xcFRPRVZMQzk3aEpQZFUzQkZDUFJDQ1NTdThZTnlHVDhuNk1mQldBeGs1SkcwSDFfdGdGVnYxcEsyRFVVVkwyNlRIaVZPU0I3RmRQZXIyWWt3WlE,English,,5,2014-03-30,Dale Young,,love this,,
Universal Password Manager,Google Play,com.u17od.upm,Z3A6QU9xcFRPRVZMQzk3aEpQZFUzQkZDUFJDQ1NTdThZTnlHVDhuNk1mQldBeGs1SkcwSDFfdGdGVnYxcEsyRFVVVkwyNlRIaVZPU0I3RmRQZXIyWWt3WlE,English,,5,2014-03-30,Dale Young,,i recommend it to everyone,,
Universal Password Manager,Google Play,com.u17od.upm,Z3A6QU9xcFRPR3EyMGV6U21SUVQ2b3RTNmpURGxXU19SaDlmZF9CdGRNVTNYTWZpNUtpbG9ZU194UjZlS1hTa0ZabnZ5SGdGZjBGbngtMm54WG1CMHIzQ1E,English,,5,2014-03-30,Nick Pangburn,The Most Valuable App I Have For My 2 Devices,down the most important and reliable i own for my galaxy tab,,
Universal Password Manager,Google Play,com.u17od.upm,Z3A6QU9xcFRPRUJsMG8yWGEwMFBRRUZBaldtOFhQOG9IWnlIRC1ISVl6Y3hhTmtDQVBaUDJVd29ySzMxWDg1V1JqczAtajZMd3poZWVlUDN1eDFWZ1EwblE,English,,5,2014-03-30,Joey Humphrey,Awesome!,good,,
Universal Password Manager,Google Play,com.u17od.upm,Z3A6QU9xcFRPRUFNdWxtMVUwNVlpenFjMEVaejJGV1Q4cVl6SUZtVEV0SDQyTU5SWjRqYjZFeEF4ZnhxTWp2VU44YTEyV0lKMmxsbnNfbmVpbVZpSDhSY2c,English,,5,2014-03-30,Stuart Robinson,Excellent,i use this on my mobile device and the on the rest,,
Universal Password Manager,Google Play,com.u17od.upm,Z3A6QU9xcFRPRUFNdWxtMVUwNVlpenFjMEVaejJGV1Q4cVl6SUZtVEV0SDQyTU5SWjRqYjZFeEF4ZnhxTWp2VU44YTEyV0lKMmxsbnNfbmVpbVZpSDhSY2c,English,,5,2014-03-30,Stuart Robinson,Excellent,i recommend it to everyone who asks about password manager,,
Universal Password Manager,Google Play,com.u17od.upm,Z3A6QU9xcFRPRUFNdWxtMVUwNVlpenFjMEVaejJGV1Q4cVl6SUZtVEV0SDQyTU5SWjRqYjZFeEF4ZnhxTWp2VU44YTEyV0lKMmxsbnNfbmVpbVZpSDhSY2c,English,,5,2014-03-30,Stuart Robinson,Excellent,the integration with drop box is it became awesome,,
Universal Password Manager,Google Play,com.u17od.upm,Z3A6QU9xcFRPRUFNdWxtMVUwNVlpenFjMEVaejJGV1Q4cVl6SUZtVEV0SDQyTU5SWjRqYjZFeEF4ZnhxTWp2VU44YTEyV0lKMmxsbnNfbmVpbVZpSDhSY2c,English,,5,2014-03-30,Stuart Robinson,Excellent,it is simple in design but invaluable to me,,
Universal Password Manager,Google Play,com.u17od.upm,Z3A6QU9xcFRPRm5BZ015bVY3YW1OSGtBS2pVczFuS3ZRaXhMb1FwUDhfMUI5RHlId3RycWVtVDZ4MGdTWlVHX2VkbGRTMzViN2ZHUFFCbUxTTU9Oem1ocUE,English,,4,2014-03-29,Kenneth Chan,,simple and just work,,
Universal Password Manager,Google Play,com.u17od.upm,Z3A6QU9xcFRPR3dEVTZXY1VxbThKa0x3eXBqM3pteWtGbUw3eVZKMnhDd1Bzd2syQWg2MlItWmo0RUV6RkU5TWVUdUV0TmVNa1A2bGRkaXctN3M2U2dpTFE,English,,5,2014-03-29,Dana Simien,,perfect for storing password and everything go with it like website etc,,
Universal Password Manager,Google Play,com.u17od.upm,Z3A6QU9xcFRPR2M2VjZxbTBUd21JNEN4cy1ucWcyWXNUY1l3cFRhMXZuWXFGNVQ2ZFRyQ1pDV1pOUm5YeVFwNEI2ekJaemp1MDZkZk9ELW5pUlItSGxFSXc,English,,5,2014-03-29,Albe S,Great app!,work thanks for updating the icon,,
Universal Password Manager,Google Play,com.u17od.upm,Z3A6QU9xcFRPR0Q4cjZfNXRza1R1OENCZXFVTnkyOHVIUV9LOUJGd21lMEtJcDFPZEZ0bmZVTEcxdUFCY1dvRl9hSGx0QklKMDYwYWdqeTlrZFNKVmM4UlE,English,,4,2014-03-29,Shay Einhaus,,great,,
Universal Password Manager,Google Play,com.u17od.upm,Z3A6QU9xcFRPRUdza0F0OUcwNWw4bGduaTlOV2QtSW5tMUNaQjJ2NUlYcHFlMjRvQ2tUM3EwRVdCaDhoRWYtRDRjQUhtVExQeXF3UDgzQXFGTWoxdUNCT1E,English,,5,2014-03-29,Gord Wall,"Simple, reliable, cross platform",work on window and mac,,
