Topic Index 1,Topic Index 2,Topic Similarity
1,9,4.0
0,0,2.0
2,8,2.0
8,12,2.0
11,16,2.0
14,11,2.0
4,1,1.0
5,5,1.0
6,3,1.0
7,19,1.0
10,6,1.0
12,4,1.0
13,10,1.0
16,13,1.0
17,15,1.0
3,2,0.0
9,7,0.0
15,14,0.0
18,17,0.0
19,18,0.0
