Topic Index 1,Topic Index 2,Topic Similarity
0,0,2.0
3,5,1.0
6,1,1.0
7,6,1.0
9,7,1.0
10,11,1.0
11,2,1.0
12,14,1.0
13,3,1.0
16,15,1.0
18,18,1.0
1,4,0.0
2,8,0.0
4,9,0.0
5,10,0.0
8,12,0.0
14,13,0.0
15,16,0.0
17,17,0.0
19,19,0.0
