# deletions,date,commit message
4,2014/5/10,Fixed build.gradle to allow signed release builds.
23,2014/5/10,In debug builds append "(Debug)" to provided route names.
2,2014/5/10,Fixed crash when route is added.
2,2014/5/09,Bumped version to 1.0.1.
1,2014/5/09,Fixed crash when opening settings for the first time.
2,2014/5/09,Added link to play store F-Droid badge.
