Topic Index 1,Topic Index 2,Topic Similarity
9,2,0.11220000000000002
18,12,0.10319999999999999
0,7,0.092
13,3,0.0838
16,10,0.08
17,5,0.0779
1,11,0.07680000000000001
19,0,0.0756
7,16,0.06609999999999999
3,19,0.06080000000000001
15,17,0.046
4,8,0.038
11,13,0.0368
12,1,0.0357
5,15,0.033600000000000005
2,4,0.0
6,6,0.0
8,9,0.0
10,14,0.0
14,18,0.0
