Topic Index 1,Topic Index 2,Topic Similarity
6,13,0.2707
4,0,0.17950000000000002
19,18,0.13999999999999999
12,4,0.1127
9,1,0.1052
8,5,0.09940000000000002
7,8,0.09430000000000001
18,19,0.07919999999999998
14,9,0.0736
15,12,0.0675
11,7,0.0629
0,3,0.0576
10,14,0.052700000000000004
2,11,0.04
3,16,0.0322
1,2,0.0
5,6,0.0
13,10,0.0
16,15,0.0
17,17,0.0
