Topic Index 1,Topic Index 2,Topic Similarity
6,17,0.0348
4,11,0.028000000000000004
16,12,0.026400000000000003
10,15,0.0231
17,4,0.020800000000000003
3,2,0.0156
7,16,0.015200000000000002
18,13,0.013600000000000003
0,7,0.013199999999999998
8,9,0.0126
15,6,0.0112
19,19,0.010799999999999999
14,18,0.009899999999999997
1,1,0.0088
2,0,0.0
5,3,0.0
9,5,0.0
11,8,0.0
12,10,0.0
13,14,0.0
