Topic Index 1,Topic Index 2,Topic Similarity
0,9,8.333333333333332
1,10,8.333333333333332
2,11,8.333333333333332
3,12,8.333333333333332
4,17,8.333333333333332
5,0,0.0
6,1,0.0
7,2,0.0
8,3,0.0
9,4,0.0
10,5,0.0
11,6,0.0
12,7,0.0
13,8,0.0
14,13,0.0
15,14,0.0
16,15,0.0
17,16,0.0
18,18,0.0
19,19,0.0
