Topic Index 1,Topic Index 2,Topic Similarity
0,2,2.0
1,6,1.0
2,11,1.0
3,12,1.0
4,15,1.0
5,19,1.0
6,0,0.0
7,1,0.0
8,3,0.0
9,4,0.0
10,5,0.0
11,7,0.0
12,8,0.0
13,9,0.0
14,10,0.0
15,13,0.0
16,14,0.0
17,16,0.0
18,17,0.0
19,18,0.0
