App,Store,App ID,Review ID,Country,Version,Rating,Date,Author,Subject,Body,Translated Subject,Translated Body
PinDroid,Google Play,com.pindroid,Z3A6QU9xcFRPRWFTZmM1ZTRwLU9DSDN0U09fQUNDNnp3ekZaVGFPVktjTXE3aEYyNGRSbG1mNkVDZ1c2aGR3WVNnazVCSFdiVGRRWjlNQVY0dFZmNnZfVWc,English,,5,2014-11-25,Ahmet A. Sabancı,Great redesing,loved the new design,,
PinDroid,Google Play,com.pindroid,Z3A6QU9xcFRPRWFTZmM1ZTRwLU9DSDN0U09fQUNDNnp3ekZaVGFPVktjTXE3aEYyNGRSbG1mNkVDZ1c2aGR3WVNnazVCSFdiVGRRWjlNQVY0dFZmNnZfVWc,English,,5,2014-11-25,Ahmet A. Sabancı,Great redesing,work great always,,
PinDroid,Google Play,com.pindroid,Z3A6QU9xcFRPR3hHQi1DeVdZTXdkSWkxLTh1UVB0bUZkcFp6azRnWVZzbWE3c3hIVC1zUWQ0a3NYN3ZpMXJsS0ZiTUVqZTl2MEE2aTZqSkVtSEQtUW5nUVE,English,,5,2014-11-25,Aviv Karni,,material design update is great,,
