App,Store,App ID,Review ID,Country,Version,Rating,Date,Author,Subject,Body,Translated Subject,Translated Body
PinDroid,Google Play,com.pindroid,Z3A6QU9xcFRPRzZLaUlkanhzLUlyUTdhRDdISVlWRXNrenZXV2tJekFRcE9uMVJYNVJqdnh1QjNGNTZVTzFIZHB3WVNPdE5UZF82SG9Fc211Nk12MldVM0E,English,,5,2013-04-21,Paul Leclerc,Best Pinboard app on any platform,i have tried other on device and this is the best of all of them,,
PinDroid,Google Play,com.pindroid,Z3A6QU9xcFRPRzZLaUlkanhzLUlyUTdhRDdISVlWRXNrenZXV2tJekFRcE9uMVJYNVJqdnh1QjNGNTZVTzFIZHB3WVNPdE5UZF82SG9Fc211Nk12MldVM0E,English,,5,2013-04-21,Paul Leclerc,Best Pinboard app on any platform,tag integration all done excellently,,
PinDroid,Google Play,com.pindroid,Z3A6QU9xcFRPSHpJNWJyZDMzT1BkN2ZwUWxQVnNYdkNxWmhrbHAycUNlRDFxRzUtYy11YS1ZWHlSSE1nbGxxWmxWM2lkekJqVmNwU0VsUjU1YWNuUV9Scmc,English,,4,2013-04-20,Sadie Gecke,"Very convenient, useful.",truly appreciate this,,
PinDroid,Google Play,com.pindroid,Z3A6QU9xcFRPSHpJNWJyZDMzT1BkN2ZwUWxQVnNYdkNxWmhrbHAycUNlRDFxRzUtYy11YS1ZWHlSSE1nbGxxWmxWM2lkekJqVmNwU0VsUjU1YWNuUV9Scmc,English,,4,2013-04-20,Sadie Gecke,"Very convenient, useful.",thank you,,
PinDroid,Google Play,com.pindroid,Z3A6QU9xcFRPSHpJNWJyZDMzT1BkN2ZwUWxQVnNYdkNxWmhrbHAycUNlRDFxRzUtYy11YS1ZWHlSSE1nbGxxWmxWM2lkekJqVmNwU0VsUjU1YWNuUV9Scmc,English,,4,2013-04-20,Sadie Gecke,"Very convenient, useful.",continue the update,,
PinDroid,Google Play,com.pindroid,Z3A6QU9xcFRPRU9CbEJXRTJsUVJkSEpQSWVQdGtVLWJlZnBrMW1LZGQtQnRDbmxyUTIxdnRjRUl5dDBOMzhmV2I2MzNuUkRLZVEzNFpRRnNNd1IxN044bFE,English,,5,2013-04-19,Demetris Kikizas,I like it!,i use mainly to bookmark stuff i am on my but i like it because it is transparent,,
PinDroid,Google Play,com.pindroid,Z3A6QU9xcFRPRU9CbEJXRTJsUVJkSEpQSWVQdGtVLWJlZnBrMW1LZGQtQnRDbmxyUTIxdnRjRUl5dDBOMzhmV2I2MzNuUkRLZVEzNFpRRnNNd1IxN044bFE,English,,5,2013-04-19,Demetris Kikizas,I like it!,i doe it job without getting in your way sometimes i forget i have an extra for,,
