Topic Index 1,Topic Index 2,Topic Similarity
0,0,2.0
1,1,2.0
2,2,2.0
3,7,2.0
4,10,2.0
5,15,2.0
6,16,2.0
7,4,1.0
8,5,1.0
9,6,1.0
10,8,1.0
11,11,1.0
12,12,1.0
13,13,1.0
14,18,1.0
15,19,1.0
16,3,0.0
17,9,0.0
18,14,0.0
19,17,0.0
