move update check to,b,2013/11/11,,
insert row in individual insert for with kindle fire,o,2013/11/11,,
update,b,2013/11/04,,
bump version number,b,2013/11/04,,
remove unnecessary variable initialization,o,2013/11/04,,
correct ordering of import,b,2013/11/04,,
replace updater activity with background service,b,2013/11/04,,
