Topic Index 1,Topic Index 2,Topic Similarity
15,0,2.0
0,1,1.0
1,3,1.0
4,2,1.0
6,4,1.0
7,5,1.0
8,6,1.0
9,7,1.0
10,8,1.0
16,11,1.0
18,9,1.0
19,10,1.0
2,12,0.0
3,13,0.0
5,14,0.0
11,15,0.0
12,16,0.0
13,17,0.0
14,18,0.0
17,19,0.0
