App,Store,App ID,Review ID,Country,Version,Rating,Date,Author,Subject,Body,Translated Subject,Translated Body
2048,Google Play,com.uberspot.a2048,Z3A6QU9xcFRPRjBoQ0k2Q2Z3VU9EMk9SLUFNQjAzOUdIUXo3WGlsY1NoRXh5ekdObjVaajEyRDlmNF9nVk1SYlJJNXZxVEJTdTFGSkxKQnplUnp3eEl3TkE,English,,4,2015-06-06,vinod kumar soni,,seems to be finest,,
2048,Google Play,com.uberspot.a2048,Z3A6QU9xcFRPRVRKbDl0SVBabkdUOFJfQzdfam05YktpdnlxU2JsSzJHWnZydjZsZ0VqWUxZQU9yRDBYUndNa2o2R0JXZ1U1czByYXUyYnNCb3JWQ1VNcnc,English,,5,2015-06-05,Justin McGinty,So cool,there r much version out there but this one is better,,
2048,Google Play,com.uberspot.a2048,Z3A6QU9xcFRPRVRKbDl0SVBabkdUOFJfQzdfam05YktpdnlxU2JsSzJHWnZydjZsZ0VqWUxZQU9yRDBYUndNa2o2R0JXZ1U1czByYXUyYnNCb3JWQ1VNcnc,English,,5,2015-06-05,Justin McGinty,So cool,no ad,,
2048,Google Play,com.uberspot.a2048,Z3A6QU9xcFRPSGxuRWxub2tWeXVvYmFLaFBjekwwQ1V6TWdQOVJkeG9zcVZPV0R6ancwTHo3OHVBZmxEYXI0OVlJdTlIR08xT3owVkRuNUlBS05wYWZrMEE,English,,3,2015-05-29,Denise Amber Carasig,?,why slow,,
2048,Google Play,com.uberspot.a2048,Z3A6QU9xcFRPRXhBVV83bUhQQTZHTjJSYnU1ZlJzMUkwekU2SGZzb0VyTGxVdm9KelhXdGI5cDNPUFk3Q2pDZUc0WnFYaW11VEVCeVJQQXJxZHY5akVfTVE,English,,5,2015-05-12,,,thank you for not requiring access to my data,,
2048,Google Play,com.uberspot.a2048,Z3A6QU9xcFRPRlZSR0Q5Y1ZMNE4wNUI4emJVNFBWTkFieVNxLUNQaGZKV2xiSFdia2VKNjdrNl9scmxieHB3NmdISkFObnZNY0hyaHZ0RW8yT0FfdkdVeXc,English,,4,2015-05-10,Gie Salazar,I love it,amazing love it,,
2048,Google Play,com.uberspot.a2048,Z3A6QU9xcFRPR0g2QzZ5YWxyUW1LclBOLTU1ckNNd0gwby1qU1FYWF9DS1N2V0ZVNEphWXNRM1Y1amppTHFQa0hwb3ZQbUh0WlltbU5HOWp4OEQ4WWhMT2c,English,,5,2015-05-07,Austin Norrod,AMAIZING,took 27 hour to download for real,,
2048,Google Play,com.uberspot.a2048,Z3A6QU9xcFRPRTFKdFpVM2YzLWNNMW1uTy14ZjJuczZBVkFjNmlTVDRCYWhnTWQ2dGp1RVJXQXo0cjh6LUZldzh4VzdvQVUyZkJHOExteW1wTlR4d0JubWc,English,,5,2015-05-06,Benjamin Moise,Mutha,i love this game,,
2048,Google Play,com.uberspot.a2048,Z3A6QU9xcFRPRXB0RmtIM3ZpaUNOdzZ6N2lzMllNcm5xSDc5aFVNMmxYMmZwVXNWN0NBMmFEYVc0QXIxZm9TLWk5S3JVTmV0RFJZRjduamlyRlc4UEUxU0E,English,,5,2015-04-26,Shawn Heifner,No permissions.,this is the best 2048 on the play store,,
2048,Google Play,com.uberspot.a2048,Z3A6QU9xcFRPRUxOazN4Q0hMbUpoU3lRU2lrZm1EcjlfN24yMjJVOXdzUjUycHZ3VVpxNzhlYVZpSW9sYUZjOEQtTnpNZ0tBaVc4QUZOSTRDMU5hUnVCQ2c,English,,5,2015-04-21,Yuri Georgiev,Awesome!,i even did 4096 not so work a well,,
2048,Google Play,com.uberspot.a2048,Z3A6QU9xcFRPRUpfTEdqZU5UTGVUTnRwU1RpZFMycEtnZ0o3M0FHcWNiSjlybmEwbEV3UTRUbVRScFFKTXdKaXV5UngzUXpwT0swaEk0eFU1UlkzcFpfZ1E,English,,5,2015-04-09,Sandeep Pattnaik,,loved it,,
2048,Google Play,com.uberspot.a2048,Z3A6QU9xcFRPSExjM0JLSGhFNjJoNkJfdENmSmQyNGo1eDVldDRQaG9ENkNWZW9kTjlleVBrNXRzb3lfSHQ1QzgxVVF5YWIza2J5RGZTSlN3VWJEUWZ2bFE,English,,1,2015-04-05,Tany Kline,2048,every time i got the number 256 on the board it would lock up and i would lose,,
2048,Google Play,com.uberspot.a2048,Z3A6QU9xcFRPRndYOTlBMklsenBpYUZROVRoZXJVZ0llUi1OVTRBSHZLajNWNVZJOVY5QWk4OWE5WENUT0h5NW11bEtHNTFjMGVjMlhYa0N6NUNHTi1xMkE,English,,4,2015-04-04,Melanie Idir,Great for just playing the game,i just installed and played about five time already,,
2048,Google Play,com.uberspot.a2048,Z3A6QU9xcFRPRndYOTlBMklsenBpYUZROVRoZXJVZ0llUi1OVTRBSHZLajNWNVZJOVY5QWk4OWE5WENUT0h5NW11bEtHNTFjMGVjMlhYa0N6NUNHTi1xMkE,English,,4,2015-04-04,Melanie Idir,Great for just playing the game,i really like there are no or ad,,
2048,Google Play,com.uberspot.a2048,Z3A6QU9xcFRPRndYOTlBMklsenBpYUZROVRoZXJVZ0llUi1OVTRBSHZLajNWNVZJOVY5QWk4OWE5WENUT0h5NW11bEtHNTFjMGVjMlhYa0N6NUNHTi1xMkE,English,,4,2015-04-04,Melanie Idir,Great for just playing the game,the only thing wa a little bothersome wa the slight lag in the moving of the tile,,
2048,Google Play,com.uberspot.a2048,Z3A6QU9xcFRPSFdONXpYS2Qyb1FDdzdXeFo1YTE0N0NLbHhQTVFsbEl2WDdnRUI4WEpDUGtLZHdjdDZob05WVjRLYlMycEZoM2FCS2NrWXpFazZuUXVXV3c,English,,4,2015-04-02,Pankaj Kumar,Good,good,,
2048,Google Play,com.uberspot.a2048,Z3A6QU9xcFRPRWlRbHlOREFaTjVySGhQbzRNcGN2Z0stUVRqRXROdGlkS0MtQ0RYblBtT1kxUTkxYTZPQzYya0NMZG1OZk1YQlNiYWJFR1JkYllSOWxVNWc,English,,3,2015-03-28,Kim Bain,Ffkvig,we are you are not the new time and we have a bit of this is the new any question or any question about the other day of my life is the new city of the other day and i will you are not the new or the new and i am so i will not sure you i on,,
2048,Google Play,com.uberspot.a2048,Z3A6QU9xcFRPRzU0MGloeGJYXy1CUHdJTXNUOFc2LUdOLXVYV241aVhQYW9BU1ZXWU10MV9JSWtkY3Zrdk5EaWpBUXB6N21hWWg0TER4R1lDcXF5WW9uSGc,English,,2,2015-03-24,Sagar Dangur,Not good transition,low,,
2048,Google Play,com.uberspot.a2048,Z3A6QU9xcFRPR28zZWhvdTZKeWRxUWM4YjF1TGlfZTU4MlZQdXdvNEg5elJiSm90TlZNM2xyNmZSb0x5ei1TNmVwS2lPMHcxZHFqN2hicXJIRDFvUlJPSlE,English,,5,2015-03-24,Skyler Azzuolo,Simplicity at it's finest,it really is just 2048 no ad no permission just a addicting game,,
2048,Google Play,com.uberspot.a2048,Z3A6QU9xcFRPRVFZRnliMG9zWjNvck5qLXloLV9QajhCRTc1NnRQNy03UUFueFdVMTlqeXA4UjMyMUFwaWRvbjRPM0p0cXZTUW41dkVLczBUWTlEMG1HYkE,English,,2,2015-03-24,Sanylyn Baynez,,,,
2048,Google Play,com.uberspot.a2048,Z3A6QU9xcFRPRU82UTVSbU1SYmUzVnVYdV9kWjhrQ0NPSXhPZXZ3cElVc09GQmF2a3d1QnNSVTIzOXd4VlNHQTh2alVQTDNYbFJWTkRFY2ItTTI5enBGanc,English,,4,2015-03-22,Laura McCartney,,great game but it would be nice to have more color for the visually impaired,,
2048,Google Play,com.uberspot.a2048,Z3A6QU9xcFRPRU82UTVSbU1SYmUzVnVYdV9kWjhrQ0NPSXhPZXZ3cElVc09GQmF2a3d1QnNSVTIzOXd4VlNHQTh2alVQTDNYbFJWTkRFY2ItTTI5enBGanc,English,,4,2015-03-22,Laura McCartney,,if you get even a an you would get a 5,,
2048,Google Play,com.uberspot.a2048,Z3A6QU9xcFRPR25GNzhyZlNMcUxzWjRzbXpUN3ZlU3o5N0ZHdW1FNXVXSm9FLTB3T3U4aFdCTHdqLUxDMkF0N0NKblRkVTRBSFM0SDVGd1doelNrN19RVlE,English,,1,2015-03-20,Afiq Lopek,It won't download,please fix it,,
2048,Google Play,com.uberspot.a2048,Z3A6QU9xcFRPSFZYSmlJOTI5LXNsd3hTT2U1WUR0Mjl3c2hudFNGTGhCbzFsRTBzTEI0TEs4NDlfUnlsSnc2QjBFLWt6SF9xZFJfSzVaMEcyNnFfdEhhbUE,English,,5,2015-03-18,Dee Ken,,doe not require any permission,,
2048,Google Play,com.uberspot.a2048,Z3A6QU9xcFRPSFZYSmlJOTI5LXNsd3hTT2U1WUR0Mjl3c2hudFNGTGhCbzFsRTBzTEI0TEs4NDlfUnlsSnc2QjBFLWt6SF9xZFJfSzVaMEcyNnFfdEhhbUE,English,,5,2015-03-18,Dee Ken,,doe not show advertises and doe not bother you anything it supposed to do,,
2048,Google Play,com.uberspot.a2048,Z3A6QU9xcFRPRXVlWUNNTm00bG9hNVZ1a1hKaXpqcHpjOVVQMmhGazZYby0xR0U5TlpsSjlVZnJaVnk3MVVSNzZ1SnBiUzNueTczS3gzdkpwU2tYY3ljYmc,English,,5,2015-03-18,Shreya Purdhani,,must download it,,
2048,Google Play,com.uberspot.a2048,Z3A6QU9xcFRPSGJja2t3U250UVNxN0dYOU9ra2RRYU5LNEUzUkVwb2NMeEIybVFFcjRiM09YT2dFcUhwLUZfYmNlLUVDNUZPYjlIWWxYMWpYZmFRVmtOUmc,English,,5,2015-03-16,Mamoun Hefni,Simple,great,,
2048,Google Play,com.uberspot.a2048,Z3A6QU9xcFRPRWdDVXJzYUwxZzVDc1UxWTl4YTQzdTVuWTNvOHVZRUJsT0NRNGw2b3V0T0NhWWVYQzZwcXJydlRxeDJfM3ZxcnAtXzNSLWRpUEk5T1JLbVE,English,,5,2015-03-13,Hayden Coker-Kneifl,Derp,nice game,,
2048,Google Play,com.uberspot.a2048,Z3A6QU9xcFRPRnhLZVZLZmNsVWppR0V0TW5FTnRyZWdSaTM2ZG9yREM3VV9SQW5ocjdTOHVUazJ3ZDJuWDVCYTRGM2l4THJHMlAxak5rd01DSEppWG1zeGc,English,,5,2015-03-12,thinnkyukyu saw,Fabulous,i love this game,,
2048,Google Play,com.uberspot.a2048,Z3A6QU9xcFRPR2lZblRUWTRhckhmcHJWYVRoLVR0cW5Zc2lEVm1KWkNINWJscGkxUERhRmlrR3RzZE9sQVY1SGFKNnFDbWZ5LU1mb3BkZHU1SWlPenRranc,English,,5,2015-03-11,Luziel Gebilaguin,,i love this,,
2048,Google Play,com.uberspot.a2048,Z3A6QU9xcFRPRWVPM3JzeE5OemJoOFE0dTJqVGhzcmFfallBOThSSEo0UlhJN0M4LW1UVFVlYjdiVElWdjZ2aU4xOUljMTFzNTNac1cxOHc1VllaVFFGeUE,English,,5,2015-03-10,Najmy Hashim,Simple but nice,nice game,,
2048,Google Play,com.uberspot.a2048,Z3A6QU9xcFRPR01qc2ZUd195M1R2Z1dHVHV5MHR4d2ZzMWl0SkNEY2F4eXFhY0RVbFh5RzRMSnNONlY1UzUtS3VnUVNCUnB4dGl4bGZBanJ2enFiS2RIcGc,English,,5,2015-02-28,Nishad Nishad,Wow,brilliant mind grower,,
2048,Google Play,com.uberspot.a2048,Z3A6QU9xcFRPR1o1c3ZUTFNvWTQyamV6UHJKTlczX2xkV2hzOVB3RjVuSV9yYVhDTXJIXzE4TTA3NVFpZTBBbzdKeXFCcS0wZ040ZTJTZWJTUlVzclNrQWc,English,,4,2015-02-27,Simin Naderi,,very good,,
2048,Google Play,com.uberspot.a2048,Z3A6QU9xcFRPSFZEcS02aTBDUjJER05ReTBDbzhMZzcyRXFSZkIxTE9fN0NxM09WaUJkcUp3Sm1zWVUwb1VORVZxbFJRYTlveFUwODZYbjJNazBpc3dYREE,English,,5,2015-02-25,Jim Bolino,,the best among the rest,,
2048,Google Play,com.uberspot.a2048,Z3A6QU9xcFRPRThsb2pFeTQ4cHQ2X0VRSjNRMWc2NUNQQlZwV3BBWDdoUmxkdmJ3cmlMUzExX0F2Q0h2SXRZcmpWNjlqeldITExqZUtpbDM3cGxpY2pXSEE,English,,5,2015-02-21,Blu's Pie,OMG,i love and hate it is it,,
2048,Google Play,com.uberspot.a2048,Z3A6QU9xcFRPRVhjWWtxeHdpS0Q5V05VY2xlQ3B4bWxXZG5zWU1GX1BVZXI2dUV5U0lXLVhaUjFDeG9xVXlKV0dNSExUX0pXZFpMazduWkdrYWt1NVpTWEE,English,,5,2015-02-19,Night Draw,Loved it!!!,it is addicting and awesome,,
2048,Google Play,com.uberspot.a2048,Z3A6QU9xcFRPR0xjX1ptMVRHeC03TzRRUXBTWEFGSXFGS3FrQTBnR0lkbVZjUmkxb05ETmxXTDk5OEU4RE0yVVNvS2J1LUpfWk11OEp1Y0E2RnM1Vmxxamc,English,,5,2015-02-19,Daniyal Husain,,small doe what it say,,
2048,Google Play,com.uberspot.a2048,Z3A6QU9xcFRPSDZQbTFSRXIwaWdVQS01NktYQjRnVWw1aE40WWM3cWU1S0ZTS2ZkTC1OY1Rnb1FxbkFmc2FPQVJuUDJOYzYyWGRDcGZfQUxXYjVfdmdYcEE,English,,5,2015-02-18,Casson Davis,Great,great game,,
2048,Google Play,com.uberspot.a2048,Z3A6QU9xcFRPSFFLbnI5Q3ItYXFCYWQ5clhSQ18tS29oVEY5M0VUSGRfXzhvR0xib19iT2h0R3dBV3U0aGhKUjViaDlRSWpYcV9jdFNiQ0J6WDh4bEtlS1E,English,,5,2015-02-16,Leah Jones',,just great,,
2048,Google Play,com.uberspot.a2048,Z3A6QU9xcFRPR0trQzV2QUlkZHBwdzJCY21DaVVhSTBNUkliSFVlRWFSaUZ6TXhIREFCTERDSDBRWC1pa0hiN3NwZDlyQUFkQTVobzhSQlZWV0UxdzQ4cUE,English,,1,2015-02-11,Cliff Bramlett,Pop up spam,,,
2048,Google Play,com.uberspot.a2048,Z3A6QU9xcFRPSGMtOE44SnZGZHpkMzlDY1doY1l0MkQ2ZmZ4VXdWSGVKeTZJUDRwTFZ2UTVTR19pUGE3dS16eVBnUEFFSWE4am5BNENReWJhRFdHQUs2X1E,English,,5,2015-02-10,Juan Pablo Santos,"No ads, no permissions.",best version out there,,
2048,Google Play,com.uberspot.a2048,Z3A6QU9xcFRPSGMtOE44SnZGZHpkMzlDY1doY1l0MkQ2ZmZ4VXdWSGVKeTZJUDRwTFZ2UTVTR19pUGE3dS16eVBnUEFFSWE4am5BNENReWJhRFdHQUs2X1E,English,,5,2015-02-10,Juan Pablo Santos,"No ads, no permissions.",thanks,,
2048,Google Play,com.uberspot.a2048,Z3A6QU9xcFRPRmRPcGdmcEtOYUtuZzdxSkZWc0FfR1dyTWNUc2YxUDEwV1dlYjh0Rll2RHVKODlWeWM2Vko1cURWX19WVDc0TnBOZ0NJMGZQbzZiaDlqNEE,English,,4,2015-02-07,Titan Maru,It makes me think more strategy to get the 2048,it fun,,
2048,Google Play,com.uberspot.a2048,bGc6QU9xcFRPRnV0WUYwTVpfZ2MxMk5uc2UtbDZCbkplSy1aOFg4SWMtZXZVTVBjRmFoOW1sN1lCdDI3VmVSM2Y5ZWhGRFB0bkpWazZHYXRXSmJhZGxyd2c,English,,1,2015-02-05,A Google User,Yyy,g,,
2048,Google Play,com.uberspot.a2048,Z3A6QU9xcFRPRWk4VGtqRzNOSktwSWIxQ0REY3dqODhLRDdqb0JacjdybVdpVGNaVVpDYlFCWExWbFpnS1h5cWdKNHZPUTVaWktjY0xFb0hfcDNkd0RTWnc,English,,5,2015-02-03,Christopher Kaminski,Perfect version,there many version of this game out there,,
2048,Google Play,com.uberspot.a2048,Z3A6QU9xcFRPRWk4VGtqRzNOSktwSWIxQ0REY3dqODhLRDdqb0JacjdybVdpVGNaVVpDYlFCWExWbFpnS1h5cWdKNHZPUTVaWktjY0xFb0hfcDNkd0RTWnc,English,,5,2015-02-03,Christopher Kaminski,Perfect version,this one is the best,,
2048,Google Play,com.uberspot.a2048,Z3A6QU9xcFRPRWk4VGtqRzNOSktwSWIxQ0REY3dqODhLRDdqb0JacjdybVdpVGNaVVpDYlFCWExWbFpnS1h5cWdKNHZPUTVaWktjY0xFb0hfcDNkd0RTWnc,English,,5,2015-02-03,Christopher Kaminski,Perfect version,no nagging,,
2048,Google Play,com.uberspot.a2048,Z3A6QU9xcFRPRWk4VGtqRzNOSktwSWIxQ0REY3dqODhLRDdqb0JacjdybVdpVGNaVVpDYlFCWExWbFpnS1h5cWdKNHZPUTVaWktjY0xFb0hfcDNkd0RTWnc,English,,5,2015-02-03,Christopher Kaminski,Perfect version,a clean and faithful port of the original,,
2048,Google Play,com.uberspot.a2048,Z3A6QU9xcFRPSHFveFFWeFBfMnNMM3NQTHptVTJVWlVqOGRfTUFrOV81WmJHLV82VFJUUWs4azFrdmowWXVKcXJrSjhFOXhiUmVZdmhBRVRiRlRJRTQ0Ync,English,,4,2015-02-01,Taalaibek Ashirov,,night mode is not working for me,,
2048,Google Play,com.uberspot.a2048,Z3A6QU9xcFRPSHFveFFWeFBfMnNMM3NQTHptVTJVWlVqOGRfTUFrOV81WmJHLV82VFJUUWs4azFrdmowWXVKcXJrSjhFOXhiUmVZdmhBRVRiRlRJRTQ0Ync,English,,4,2015-02-01,Taalaibek Ashirov,,my best score is 104620,,
2048,Google Play,com.uberspot.a2048,Z3A6QU9xcFRPSHFveFFWeFBfMnNMM3NQTHptVTJVWlVqOGRfTUFrOV81WmJHLV82VFJUUWs4azFrdmowWXVKcXJrSjhFOXhiUmVZdmhBRVRiRlRJRTQ0Ync,English,,4,2015-02-01,Taalaibek Ashirov,,anyone ha better score,,
2048,Google Play,com.uberspot.a2048,Z3A6QU9xcFRPR3l1Z0xsMzVhYzZGZzRZd01iY2N6S1V4WVpwV25XS2VQYUxYTVc1LTk0YUFTTEdfc2xkVXU0cUJ0T045b1F1TmNhQkg2S1RqZ3JVY1F5Vmc,English,,5,2015-02-01,Dipesh Patil,Good game,love it,,
2048,Google Play,com.uberspot.a2048,Z3A6QU9xcFRPSEJnT3U1dS1RUzM1ZDJSMnVqSUhBdkZ5cWQxQTZCWlB0REFVZGpwZDIwTE90RS1jbTNFMkxvVmc3aS1YUWdEbWxFeW5PN0ZHSEwtWU1EZlE,English,,5,2015-01-31,Allysa Tiu,,i love it,,
2048,Google Play,com.uberspot.a2048,Z3A6QU9xcFRPR1lHaXk5eFh3WGE2S1JrcS1iS0ZQUHIwR2hERTdRdmtZMTROM0p3VUFVQnU2MXFpOFdoSkg5MVhPSHRPa3lzWXhiMmRRUmhSN1JEeWEwanc,English,,1,2015-01-29,Taunya Valci,No instructions,do i play this,,
2048,Google Play,com.uberspot.a2048,Z3A6QU9xcFRPRUFhbkdvMFBBcUhPYnJPdHFaOFNTUXpYMGw4MjhZOWl6RC1Sc1kxOVlJOXdtOGRwQ0JZbjViVWFfS0ROT0dyMWtjejhOU2c4VmFFdDNxMlE,English,,5,2015-01-23,Jo Wimutu,Love it,nothing better a math game,,
2048,Google Play,com.uberspot.a2048,Z3A6QU9xcFRPSGhZUGx1SDZVbGpXekdsTjRMLTVOSnlUWnI5WElBSzkwNWlyd0hSWDVuT2QxRHFtU0gyN1ZCdlJ3QXFjYXN1TnpfV2thOF9fVk9tNUFLUFE,English,,5,2015-01-23,shoeb masum,,excellent game,,
2048,Google Play,com.uberspot.a2048,Z3A6QU9xcFRPSHJpUzRWMjhwYVkycklWdkxXTk01MFVvZm5keTlvS1FaWkZETFp4Q3k3X1doRlZzM3lDME8zVzNKeVYwYTkwNWRCSkxmUTR2UW4zMExtS2c,English,,4,2015-01-21,Audi Citro,For 2048,no sound,,
2048,Google Play,com.uberspot.a2048,Z3A6QU9xcFRPRXpfUW1zd3hFazVUOWxSN3N2c0RWQXVvUjc5TEdRRERvdTEwM0JTall6dGJvS3RqLXdkSDBjeEZoWXlyb1pCYUdEZEdDbDJfeWRhancwRVE,English,,4,2015-01-19,Dr Jayshree Rana,,good,,
2048,Google Play,com.uberspot.a2048,Z3A6QU9xcFRPRmNvMEtQcEZNX3BVSWFaeUJhX1hjY2FWYlRTbDNmeUxZU0VhUkVKekZGemlVQnJnclpFeTNGV0ppMmNnVkFNQzhpS1NZMFhya1RMYUZRWXc,English,,5,2015-01-17,Helga Kocurek,Straightforward implementation,and,,
2048,Google Play,com.uberspot.a2048,Z3A6QU9xcFRPRlM3cFRKLWYtcTVfaDh3YWhyakdmdnBRREJpSUN6X0JBWmJDS1VBTk15UmdxX2gtTmQzMDViOEtoQWFVR3pEWjZERFRFVmgzcllkVTI0Wmc,English,,5,2015-01-15,haneen athar,,this is fun and requires brain work,,
2048,Google Play,com.uberspot.a2048,Z3A6QU9xcFRPR1JnbmJhbjFxdGVLSDFLOGlSeDB1Rm5Sb0Z5QlpBdENyUlhnTkMxWlhvMFh5S3B4REprSE9zOEtXTmh3aHppOHAyaUo4eWQyOERCQVRnWmc,English,,5,2015-01-14,Maria Mena,,amazing,,
2048,Google Play,com.uberspot.a2048,Z3A6QU9xcFRPSGNfX0FUNWI3cjB2NV9JX2NUeVNscUhnTFgtQzZOYk5LRTRPUXJvamdGX1p3UFQxTEVyZk9vYnNlTW82UHFPWV9aeDFyam5Eckh5b2Y4WEE,English,,5,2015-01-12,Dhiraaj Malhotra,Dharma malhotra,b good game,,
2048,Google Play,com.uberspot.a2048,Z3A6QU9xcFRPR0JibGtvYVo2OGlJUE04SFhwQkpBZDNfQjVXSzlpYllvZlVnLVcwR1AzcVc2TlRSclRRMEVySUVUczRZQVVGajVJVlR0allJREt4dktfR3c,English,,5,2015-01-09,vinod kollu,,i love this,,
2048,Google Play,com.uberspot.a2048,Z3A6QU9xcFRPRjFNMVBjdDdFT0V4TURvbkFOaENfd0kwb3B5dXRDZGU2M1dZT0FwUTVuaTc2ZnktU1VJaEo4bTRQQ2c4OVVxRlZOV20zNVFhbURaUjFzSHc,English,,5,2015-01-07,mahfuzul hoque,Nice,what a nice game is,,
2048,Google Play,com.uberspot.a2048,Z3A6QU9xcFRPRVdOR3ppRWt3X1pzNHp0RzRTSmd6WkhCenhXdExfWE0yeTdsT0UwWGpDUkZpU3VBOWZDT291S090X095UEZuRC1BNnBURVdVUnRVOTJQUnc,English,,4,2015-01-02,yamini singh,Geeks,saw playing this,,
2048,Google Play,com.uberspot.a2048,Z3A6QU9xcFRPRVdOR3ppRWt3X1pzNHp0RzRTSmd6WkhCenhXdExfWE0yeTdsT0UwWGpDUkZpU3VBOWZDT291S090X095UEZuRC1BNnBURVdVUnRVOTJQUnc,English,,4,2015-01-02,yamini singh,Geeks,felt like downloading it,,
2048,Google Play,com.uberspot.a2048,Z3A6QU9xcFRPRkhHelBsMk1ZWmZvTjR3d3hpbkhtdjl6YW5SU1ZmazZ3Tkw3THVFZ0ZuSGNZRXdycGl3M3ByazRTbTltVTN5enplQi02TURwOUl6WHNKRWc,English,,5,2015-01-01,Komink Show,Love it,,,
2048,Google Play,com.uberspot.a2048,Z3A6QU9xcFRPSEdnTV8zS3lvYnFSN25mT0gybzhuOHk5NUc1c1JvNndKU3ZXVU51bFQ5TVBMZGhqckpqQU1WSXd5cEI3OUtONHNNTkZnMTdCellNTmFuWGc,English,,5,2014-12-31,Ulamila Jane Daunabou,,giving it a try,,
2048,Google Play,com.uberspot.a2048,Z3A6QU9xcFRPRzRaS0RCNEZkal9rMkI0ZjVsYnVrVXJQN0VGWVR4UVR0QW5lWmJsaEFkN1Q5ZVRqRlg2enNmVWxDbmJJX0hIUHFwaWhQQUNfcmljTjRvM3c,English,,5,2014-12-31,Rana Movahed Asl,Great,thanks for your game,,
2048,Google Play,com.uberspot.a2048,Z3A6QU9xcFRPR052VnpoY3d3Rmh4SXNkSlBIQ2VOTld6RXlMUkdnZHFXSC1CaGVRSU1Od3ZyYTMzOGY1b2U0N0J2bGFkMFdSTU5rdVBZSU03a2dVMmgtX1E,English,,5,2014-12-30,Dariana Nova,,like it,,
2048,Google Play,com.uberspot.a2048,Z3A6QU9xcFRPR1FCZlVqSW1DSzl6d3hvSFZ0anJNQkRYRndqQmQyVjB0Snc2anpDNVducEQtTFVHVXF4ZGY4U1JicUh6ZGRUWmxXQ0gtenRpLWlmTlhQWkE,English,,5,2014-12-29,Zeust the Unoobian,As it should be,a simple implementation just minimalistic and without unnecessary a should be customary for more simple game and,,
2048,Google Play,com.uberspot.a2048,Z3A6QU9xcFRPR1FCZlVqSW1DSzl6d3hvSFZ0anJNQkRYRndqQmQyVjB0Snc2anpDNVducEQtTFVHVXF4ZGY4U1JicUh6ZGRUWmxXQ0gtenRpLWlmTlhQWkE,English,,5,2014-12-29,Zeust the Unoobian,As it should be,kudos to the for giving the right example,,
2048,Google Play,com.uberspot.a2048,Z3A6QU9xcFRPRmVJWTBhUm9FQjFiV2tPazRyUDhzNi1sb0NjV2FLSnJnQWZjWVNVYnpVaUNmbjRLSHZSVl9pSTVSUUVCWTl1bDZ0WFNycUN3V0xZV0NyMHc,English,,5,2014-12-24,tarun rajpara,,nice game for those whose math is i suggest to download it and play regularly,,
2048,Google Play,com.uberspot.a2048,Z3A6QU9xcFRPR2xfZExwczFCWm9WZ0Q2anBraU13d0dQQzlxMC15WjM1c1BidGVmT3ZidzRSNHJLOXlpUXdkYlRSeHF5QzEzRmt0UkZ2a2ZOSXNuMndDeGc,English,,4,2014-12-24,Diogo Nunes,,an undo button would be nice,,
2048,Google Play,com.uberspot.a2048,Z3A6QU9xcFRPSDJZVkgwd1luaUpZLTI5enZYOTdqOHlYMzVURzNocERYaTU5cEtmTXliY3pBX1F5M1lKNFBLcnRvWG9SbTBQY1VZQU9GUERxNC1XMUtBcWc,English,,3,2014-12-18,Nayan Choudhary,,small but ad free,,
2048,Google Play,com.uberspot.a2048,Z3A6QU9xcFRPRXVOMlFpbUVPZGIxVnhIYkhMbUhfdy02MERBb1o0c082UWNMSHN4SjNsSE1MM19xM1NQSTh1U3JaaU1veFN2V210N0tTZm9oTzVNVy1qTFE,English,,4,2014-12-18,Rubiansyah Pamungkas,❤,love this game,,
2048,Google Play,com.uberspot.a2048,Z3A6QU9xcFRPRkNOOTlqQk5TblBiWFV4WlM3elQ4ejBTUEJsbjY2Wnlja0VHTGJxb0ZKS2hUOE1zWmdNV05aNHN6ek9jNWl1QTRUUTRSeVF3aUlFcjM2SUE,English,,5,2014-12-17,Desiree,,pretty cool,,
2048,Google Play,com.uberspot.a2048,Z3A6QU9xcFRPRW9jb2xrd3AwWHlWMER2SjRleVEwMkl4MmRLNmtzaV9qX3VjUXlxRUNiREF6WkltelA2OUpvVmtOZGhockNSYk5pRTJGTHZmWUI0VVhrZ3c,English,,4,2014-12-16,Will Bullock,If you have time,you just need a mental playground break good fun,,
2048,Google Play,com.uberspot.a2048,Z3A6QU9xcFRPRnhOX3FnQUVQVS16bEt1Sl80SzF4LVEtWUw2OEEzeXpBaGp1Q3FsQUE0SERmMXpMX2pxeHR4S0VhTFliN1RQYjVIVm16eDl2SHdvV3o2UFE,English,,5,2014-12-16,Elizabeth Elliott,,great game,,
2048,Google Play,com.uberspot.a2048,Z3A6QU9xcFRPRlZOTXh1Y2xxeFBRZkttbHktVGFJSWV0a0M1bjBaTGhQQmRibE9aZy1YRXUzSUJIOVRUUVFpVWo3NFlnMS1KRUxWalRZWVFxeWRFeXdxbXc,English,,5,2014-12-12,Aratay Silver,,great,,
2048,Google Play,com.uberspot.a2048,Z3A6QU9xcFRPRzBLS2ZjNl9kT1pQSERzQmlGU2NGM2hSZUNsdXgtc3o4Q0k1UGFOM2NrQndkejhiSTlVcEtmY2xZek5RT05pZHVyQTlfZ2hud29xWUhINGc,English,,5,2014-12-10,Diksha Singh,Wow,wow,,
2048,Google Play,com.uberspot.a2048,Z3A6QU9xcFRPRnltSnltRHJvdWdHaFlieVlmVTFBME1xeW44Yml4ckZPSVlja25zaS16QnFsUm5nNXAzMENXeUwyVWF5NkJWWkdKWmlUYXEtS0Rja1YwbVE,English,,5,2014-12-08,Susmit Agrawal,,what exactly are the step to enable the night please write in the description,,
2048,Google Play,com.uberspot.a2048,Z3A6QU9xcFRPR3Bkd2U1YkVGUnpVTmlfSW1UMHlXWWg2dHNTZDN0WHdxaVJ6YnhsR1hLSDZZemlRUm11X3ctRVFnenBrb3JVQkQ3UkZZV0xfRzRtOG1WUlE,English,,5,2014-12-08,Pill Ill,,,,
2048,Google Play,com.uberspot.a2048,Z3A6QU9xcFRPR2l2Nk5nbHVVWmpENkpNYmkwTTA3dWk4Vlp4YUtXLW1vSjVOUTZuZ1BOQnd6NFEzcnJSNkN5QjNjVGM1czIxQ01nbHlZc01RNFllWVdrM2c,English,,4,2014-12-08,Austin Brummel,,created a game is both fun and challenging at the same time,,
2048,Google Play,com.uberspot.a2048,Z3A6QU9xcFRPRURhNTJQUzBTRmdKVFdnQlBpTWg3bnZ6QWJkMEpfWnRxSloxU2oxTktNUGNScUNjeUNrN0JmNGx4Sl9TN2M0Z2dqWUZTLW9ITVFCRUkyOXc,English,,1,2014-12-07,ธีรนพ จันทรางกุร,,slow,,
2048,Google Play,com.uberspot.a2048,Z3A6QU9xcFRPSE1vVGFnQS05UWNpWDRXMkNaUWI1Nkh6UnlWTWttTDk5N0Nvd0c1VmI0TjZlcWloem4wUS1KVDFtVjdyTElybk8yUlEyM3BEU0pBbkYtN2c,English,,5,2014-12-05,Amirhossein Heydari,,very nice game,,
2048,Google Play,com.uberspot.a2048,Z3A6QU9xcFRPR21hZjNTeVZvenZjYzFkMVhvbVp5R00ycGpMa0JIeWx1SjNvZkpYRGlzVElKa3BYckhaWlVBTVJKQk5STGhnTkdWSGdpR05nOWRhVFhjcWc,English,,5,2014-12-04,Christopher Lawley,Simple to play,age to achieve,,
2048,Google Play,com.uberspot.a2048,Z3A6QU9xcFRPR21hZjNTeVZvenZjYzFkMVhvbVp5R00ycGpMa0JIeWx1SjNvZkpYRGlzVElKa3BYckhaWlVBTVJKQk5STGhnTkdWSGdpR05nOWRhVFhjcWc,English,,5,2014-12-04,Christopher Lawley,Simple to play,recommended,,
2048,Google Play,com.uberspot.a2048,Z3A6QU9xcFRPR056R3dQUUVrRVV3QVJaemJWZXBjT284RWtNOFhBSDNuSFZXSTRTMHVOLUpqNmEybkg4TmhvNHFvM3BrTHp2WjdMQlJMUmx5aXNoTXFxc1E,English,,3,2014-12-01,Barry Haworth,OK but with annoying delays,an version of the 2048 but with an annoying delay between swiping the screen and any movement of tile,,
2048,Google Play,com.uberspot.a2048,Z3A6QU9xcFRPRklqS3JVSm1PSlpKVzZYTnNmeWJkNFNBeEE0RFNLSnd3ZjRuWkZuS2ZBSVJtYm1scXE0WklsUEFaTXFMZnQ0bXN0QkhIR3lSeVlocktUeVE,English,,5,2014-11-30,Raju Kashaboina,,awesome,,
2048,Google Play,com.uberspot.a2048,Z3A6QU9xcFRPRVlIVFpWekRPYjBwZ19uQjBLeDhveldmLXVWZzk2blJ6UGl4eTJvSF8ydTNFbEhjYVM3aUhPRXpoemNzUEdzNU05WkYzRmlTY1J1cmN6SXc,English,,4,2014-11-24,Anthony Vurchio,Nice,this game is really fun,,
2048,Google Play,com.uberspot.a2048,Z3A6QU9xcFRPRVlIVFpWekRPYjBwZ19uQjBLeDhveldmLXVWZzk2blJ6UGl4eTJvSF8ydTNFbEhjYVM3aUhPRXpoemNzUEdzNU05WkYzRmlTY1J1cmN6SXc,English,,4,2014-11-24,Anthony Vurchio,Nice,u gotta get it,,
2048,Google Play,com.uberspot.a2048,Z3A6QU9xcFRPRVlIVFpWekRPYjBwZ19uQjBLeDhveldmLXVWZzk2blJ6UGl4eTJvSF8ydTNFbEhjYVM3aUhPRXpoemNzUEdzNU05WkYzRmlTY1J1cmN6SXc,English,,4,2014-11-24,Anthony Vurchio,Nice,trust me,,
2048,Google Play,com.uberspot.a2048,Z3A6QU9xcFRPSDQ5S1dQcHhpRXc3ZFJkZ3JEMGRZTWYxMFMtTU9uS0dKUExKNU8tZV96TGNiaGdKM1dHNWQ2cjI2UEhaTHF5c3Vnd0pMRDVtSm9WNlplNFE,English,,3,2014-11-24,Darshan Mehta,,take time to download,,
2048,Google Play,com.uberspot.a2048,Z3A6QU9xcFRPSGhxT1ZSMWgtX25TM2UxNXVnOWRLbmtwYjhwcU9Qd0xrWWUzM05ZaFpWc2xWelFXa0doRk1qb3dRWVI2cmlNdVNpeG5BWlFqaTJFRU9KTGc,English,,5,2014-11-22,indu vyas,Genius,genius,,
2048,Google Play,com.uberspot.a2048,Z3A6QU9xcFRPSE9tR3hSY1N4VGZLamUtYzFfUkJ6M21HeGNhWkhlU29TbWlRcFNsYl9sM3c5LV9Kd0gxWmNzYTNIZHZMdWV0VFlqYlk3am1ncW9pMi1aTmc,English,,5,2014-11-21,Cicak Man,,the best,,
2048,Google Play,com.uberspot.a2048,Z3A6QU9xcFRPR1ljem1hdmF3clhIbl9DVE1lTWlpVmhyNnduYnJGcV9CZEt4Z2dPWWdXQ3RjanppWENEZDJ1T2VxRW1sRVFpN2tjS0VpdVJSRVVFMEZ6akE,English,,5,2014-11-20,Fiqria Kharazishvili,Fiqria,,,
2048,Google Play,com.uberspot.a2048,Z3A6QU9xcFRPRnlmeGpxWUNUQUQwa2puMHgtOUNKTXM3SDdqNEVvblBtTlVEQzdyWmVNd2N1QkxjRlBUc3g1ekNQYWkzbE1DUWtyQU9lLUI3RXFaNldOSGc,English,,4,2014-11-19,malaika small,Galaxy exbit,work great very addicting,,
2048,Google Play,com.uberspot.a2048,Z3A6QU9xcFRPSEt4VWtCb3huTlJYRFZtZ1J5RHA0aUlfaVREV3RPY3ppbEI1cGtXZ2M0ck9RcUlEZ3B4anNOTzNSYy1KMUcxeE1UajZhQ2JoRmNTUWpMRFE,English,,5,2014-11-19,Haylie Gallegos,Love it,i might not be a nerd to math but to this game i am,,
2048,Google Play,com.uberspot.a2048,Z3A6QU9xcFRPR1JUR0xNUGozdHI5alZPcG1zSE1YUDhjQmQ0YmpnNXgxSktMSkh0dUh6VUhRVlVpLWRFNUxWTTVBVVFmdF85VUdLalRMb1F1NU9XdXFLNHc,English,,5,2014-11-18,urmila pise,,i like to play dis,,
2048,Google Play,com.uberspot.a2048,Z3A6QU9xcFRPRWZ4N3cwSXdLWnliSHhHSExzWkRFU2Y5QUVucW9PMG11Nll5bEYwUXRZLUdCa0szRV9JUlMtYUQxd2RKUVBWMi1Qa3A1LUtJc2dTWkVqb2c,English,,5,2014-11-17,Aviel J Y,Still the best!,just for not asking any unnecessary permission,,
2048,Google Play,com.uberspot.a2048,Z3A6QU9xcFRPRWZ4N3cwSXdLWnliSHhHSExzWkRFU2Y5QUVucW9PMG11Nll5bEYwUXRZLUdCa0szRV9JUlMtYUQxd2RKUVBWMi1Qa3A1LUtJc2dTWkVqb2c,English,,5,2014-11-17,Aviel J Y,Still the best!,thumb up,,
2048,Google Play,com.uberspot.a2048,Z3A6QU9xcFRPR2pid1ctbVRtZ3ZoX19HYkMwSy01VE5hU0VCbDJCOTg3WlRJNXhzQ0szazhjOVZESEYzRFRBbnBnRGJabEdPU0xXRzJyZjdWOGhGbGNqT2c,English,,5,2014-11-17,Todd Slater,Clean and simple,no ad and game play is simple and fast,,
2048,Google Play,com.uberspot.a2048,Z3A6QU9xcFRPRl9Fcm9ac0xYb0NkbS1DcEtvOVBNMHBmUlpwYlI3cEJvUlNpRWFNaTlzbm0wZXduM3ZMSDh0b1BidGZmTnNrdnVLWmtqamV5NWJ0VjIwTkE,English,,5,2014-11-17,Isiah Jade,#LoveNumbers,,,
2048,Google Play,com.uberspot.a2048,Z3A6QU9xcFRPRl9Fcm9ac0xYb0NkbS1DcEtvOVBNMHBmUlpwYlI3cEJvUlNpRWFNaTlzbm0wZXduM3ZMSDh0b1BidGZmTnNrdnVLWmtqamV5NWJ0VjIwTkE,English,,5,2014-11-17,Isiah Jade,#LoveNumbers,cool game,,
2048,Google Play,com.uberspot.a2048,Z3A6QU9xcFRPRW9laWQ4eVdUdDR3WHVPckdCbnVDNGZGbTdscmhSVjAxY1JzcERkREppQzVuR0RVeXkyNzE2Qld3MGZhWk13TERGZ3RsMmdTVDhZNER3clE,English,,5,2014-11-14,Богдан Процюк,,best,,
2048,Google Play,com.uberspot.a2048,Z3A6QU9xcFRPRk4zQXR6V3U1dlJHeEtjV3c1STRjUHBjS3liS1ZIWHBPTDIySXgtR2QtQ2VRb1k2NENXT1lKZVRwdjVkc21FWk1qUFJKSWhJVnBiZHhNTkE,English,,5,2014-11-11,shah peace,2048,,,
2048,Google Play,com.uberspot.a2048,Z3A6QU9xcFRPRzAtT0VzdlN5RFE3djVMajVScWNmSlo3bExBQzV3bWV2UHhnVkhnRFpnMGxDTEhFMEdiN3lmazdRTjZPdjNLRGdrWm1HUGVqRzhWNDk1U0E,English,,2,2014-11-10,Georgia Green,Not Happy,not happy the square to small,,
2048,Google Play,com.uberspot.a2048,Z3A6QU9xcFRPR3p6QWpUaEJPYnYxd3pGa1dWdGtBTm5GNHdzWHo4NHMzOEdJbXVGWUdXVThBck1RQTlCS0NUdzh3MXhHOWNJdHhNc3dyazBKbGltTGY5bGc,English,,3,2014-11-10,Shailen Sobhee,Gameboard is a bit too small.,the is smaller the others,,
2048,Google Play,com.uberspot.a2048,Z3A6QU9xcFRPR3p6QWpUaEJPYnYxd3pGa1dWdGtBTm5GNHdzWHo4NHMzOEdJbXVGWUdXVThBck1RQTlCS0NUdzh3MXhHOWNJdHhNc3dyazBKbGltTGY5bGc,English,,3,2014-11-10,Shailen Sobhee,Gameboard is a bit too small.,2 star,,
2048,Google Play,com.uberspot.a2048,Z3A6QU9xcFRPRnVmeVUzbVQtNWNzSWFBUXltemxmVzhDWGlHek9oWXV0MDRQaVBBSnNNaENVcHpRZHpHd1hhb1I5bUVpSG5xeERSTVFaQnJ1MWxNMGktakE,English,,5,2014-11-07,kian mandap,,i almost get 2048,,
2048,Google Play,com.uberspot.a2048,Z3A6QU9xcFRPRTlmNllnaHRJdXN2Ml9kbWMtTlFzaDJYdU1qd21JbXdWSjRLWWlxOXFvV3ExR1JjMHdwR0I3S0dESGVnUDNzSzVhTnNRVWRPZEUzbnVyNUE,English,,5,2014-11-06,Siva Dora,,good,,
2048,Google Play,com.uberspot.a2048,Z3A6QU9xcFRPR2RtUzl6WWtST3ZqQnpyV01xckYzbFJ2RHp0cWdSYl9RY1QtcmtFYkM0dlRoalFpOXVhYWJqRDd6YUpCUjE1RUJUS0lqb01ZM3JOTlBYUkE,English,,5,2014-11-02,manav sharma,,game,,
2048,Google Play,com.uberspot.a2048,Z3A6QU9xcFRPRmNhR3dqenZuYWd0RnhsZzVadVdBT2M3b2gwNUJwTjVNV2ZyVlZxcUVhUXMya3NPM05TZURyYV9SeE1xdW5kM2FnemNldlNyRzM0Mm5iT0E,English,,4,2014-11-02,Eli Southurst,,x,,
2048,Google Play,com.uberspot.a2048,Z3A6QU9xcFRPRjl1UnRNSEd2c0NpbmdIT1dTVHZHbzNIbUVUajRKb2xxUTRPY0FxVkhHTVZPc2FhcVF3WEtoTHkzdWxpZjVITkJ2Qnhyal9ZSFdia1ByZHc,English,,4,2014-11-01,Akshat Tarush,Ya,good,,
2048,Google Play,com.uberspot.a2048,Z3A6QU9xcFRPRWRZX2hXdllxdXBza3A3MFE4QVRiUjhscndIT2RzYmRXNlVSZV9WM3VpMW9UdWwzelFkN3JlUEhyanc0cTlMVWd3YUhkUkVQV3ZSa0ljaUE,English,,5,2014-10-31,Rebekah Farrell,,,,
2048,Google Play,com.uberspot.a2048,Z3A6QU9xcFRPRi1KTVpFY2s0T0tST0VjUEJZUDlfUTU4Rlg4NTdiVUxKemtmdlRSSmdfLTdCR0NRRXRFR3J4aGVOaUJFcjZIeTdTaGE0UVBkb05kUE1GWGc,English,,5,2014-10-30,Tasfia Promy,,love it,,
2048,Google Play,com.uberspot.a2048,Z3A6QU9xcFRPRnhSSDBvMkZfaVdyVUZVTFQ2X3BGQWdhaldaeVVuZFhPbXQwcEcycmtRc2ZMN2c5dXJpN2J1V3UwTkVad3VBUTFYRVdqb2FsM2JUTEFqUFE,English,,5,2014-10-30,Laura Luke,Love it so much,wow love it much do cool and awesome,,
2048,Google Play,com.uberspot.a2048,Z3A6QU9xcFRPR1h4d3JjMEhvczljWUl1eWtGR2NyT0tENm9rYWcxMTdLX05PTkZBanV1RTBmZDRpWC1MS0d6VXhrQUI1cnhlMFZVLU80LUR6VWJtUmdmLWc,English,,5,2014-10-30,Candy Down,Omg,love this game,,
2048,Google Play,com.uberspot.a2048,Z3A6QU9xcFRPRnRBTVJBMzRyN0VXWVBrNV82RzBQZDQ3QWx2S1ZLV3FCTGlpYmVFZlcyQWxMUWJINEhRMW80UUpueDdTWVp0Q2F5R004T01pMXpJQU0walE,English,,1,2014-10-30,JennyLyn Danagen Pagdanganan,,super slow,,
2048,Google Play,com.uberspot.a2048,Z3A6QU9xcFRPRmU0WW9ZS2hkR0huVnVlaWJCZ2I1cUktY2hfTWpMNGJlVjhTSFRTWkJ1bEktaFJrakJHVGdESWE2dnd0T3FQVEppbngwNko0allPWUdNUGc,English,,5,2014-10-29,JananiSree Chandrasekar,,good,,
2048,Google Play,com.uberspot.a2048,Z3A6QU9xcFRPSHhEMk9QZUZXckVwa1Eta3hKVDlfckF2YnN4TE1kYnhtZjZuLXhmeVdKZDBwMEVDSDJlZkJLS3Vfc1ZIQzVEeGx1TGc5bmV3b2wyRmdEVnc,English,,5,2014-10-29,Swathikiran S,A great additive game,one of the best addictive puzzle game available,,
2048,Google Play,com.uberspot.a2048,Z3A6QU9xcFRPRVRGYzRfRWltSzMwV0w3VmROVHNXT3ZQRHRqWlhTSTNMbXZIZmdwSUNiTHpBZGFuRndFRDk3RHNNQ2t5RjhHd0N1MmRYaE1ndW1EeDNiMnc,English,,5,2014-10-23,Jhon Patrick,,it slow to but i loved this game,,
2048,Google Play,com.uberspot.a2048,Z3A6QU9xcFRPSDN1U2lueHRTOUhTQnpaSlZfdVNxMGg4SlhnM2xCMGdzazUwT3ZZZGtxMW9Nc2RDcndENGdLN3Z1WUQ0X0lEbUlNc1QtZkRlcXlWdHJpc0E,English,,5,2014-10-23,sharmila rockzz,,,,
2048,Google Play,com.uberspot.a2048,Z3A6QU9xcFRPRjNfTXhpVnlPcmNqWmg3d1FPMnhHRFgtUFYwdzF5XzgxU1lDWUpMWHZnVHhpWVBtdHA1aDVHYmZWRFoweEZmbWo0ck1nMU1jRDdBYXZxd3c,English,,5,2014-10-22,denzel andaya,,,,
2048,Google Play,com.uberspot.a2048,Z3A6QU9xcFRPRWFEZTMxeUU1d2ZpWHZpNmtodnJZMFdMbUttLVQwQlJWUV95UHM0X1FTay1OQ0VNUzcyWmFLRWo0MXZSWUFBVllPLWlFVXZFSk8tVzRjNHc,English,,5,2014-10-22,Jagadeesh War,,superb,,
2048,Google Play,com.uberspot.a2048,Z3A6QU9xcFRPSDE4cnhkTmQ5WklvX09MTkxVdmFCdC14NW1QMWZaMDZwQWpmbGh1VnhaeXF2akxrT1V1b056SHFDY05xWEJsa1RoWEx4cFZyd1JodXZ6c3c,English,,5,2014-10-21,Samantha Clark,,love,,
2048,Google Play,com.uberspot.a2048,Z3A6QU9xcFRPR2ZoTnVtZTFJZE92anJHdWZCeENWYmpJT2VzMzIySnI3U3ZVUXkwanRnSUtWdXB3emg2YkZZaGtyUm5MY0VmbG9hclE5MXZOVER2MnhIX0E,English,,4,2014-10-17,Aref Azara,,i beyond 2048,,
2048,Google Play,com.uberspot.a2048,Z3A6QU9xcFRPSGp4S2o4cTRNYjJVN2xpNFhvMWpxN1B4TUxRdmo0ejVUMDlucVNNajduTTF2T2FtalZmZ0FHWTN1TG5oaWpOYWUyVTVfTkRzSE15ejMwWmc,English,,4,2014-10-15,Julien Vroonen,Night mode,night mode is a good idea,,
2048,Google Play,com.uberspot.a2048,Z3A6QU9xcFRPSGp4S2o4cTRNYjJVN2xpNFhvMWpxN1B4TUxRdmo0ejVUMDlucVNNajduTTF2T2FtalZmZ0FHWTN1TG5oaWpOYWUyVTVfTkRzSE15ejMwWmc,English,,4,2014-10-15,Julien Vroonen,Night mode,but button difficult to press,,
2048,Google Play,com.uberspot.a2048,Z3A6QU9xcFRPRkxiY2g5Szg0dEZSaGdhOUpJSHFlRi0zbjVmQVB0dEJhVXJsQzBmLXhYRFVGN3E1RU5oQXJjYktNYnhmWmpVUTFxZW42MUVrR1MtYWU1R2c,English,,5,2014-10-15,Azmirul Asyraf,,,,
2048,Google Play,com.uberspot.a2048,Z3A6QU9xcFRPRVV1ejdhVWxMc1ZrRTZNbWpKRmdmajRPMnotMzlkOUE2S0FoN1NUcURLWk9HOUthSjE3M3VQdU5Vc1p3Q2FwdHh3NTE5aWxHbmVqdXlDY0E,English,,5,2014-10-14,Dinesh Babu,Lovely,nice game,,
2048,Google Play,com.uberspot.a2048,Z3A6QU9xcFRPRUZTcDVXN1lTVEwtZFJyekc1NFlOSjZ0TmJOV1FpMm1DcmlLUm9DT1h6RjNJdDZwMnk4aVI4R0pscld5TDBRNTY2eGwybXFXVzFwWmVQVmc,English,,5,2014-10-14,Faruq zal,terbaik,i love it,,
2048,Google Play,com.uberspot.a2048,Z3A6QU9xcFRPRlhILVZVNTEzWHFFSkE1T0I4OUszcFhiaG45OTdNVjdFd19rUVV2aUxyQTNnaFk5N1Y5SFJVUEV3TmpsZWRKeDF2cENIWGs5RXQ1cU13TWc,English,,4,2014-10-14,Christopher Robin,Addictive.,might have to just i get some work done,,
2048,Google Play,com.uberspot.a2048,Z3A6QU9xcFRPRlhILVZVNTEzWHFFSkE1T0I4OUszcFhiaG45OTdNVjdFd19rUVV2aUxyQTNnaFk5N1Y5SFJVUEV3TmpsZWRKeDF2cENIWGs5RXQ1cU13TWc,English,,4,2014-10-14,Christopher Robin,Addictive.,drain battery faster any other i use,,
2048,Google Play,com.uberspot.a2048,Z3A6QU9xcFRPSFNJMktfektoMDhyQXBCQ2VZQ2ZvRTFaVUY5SnVpenJZTmphWUM1cExZeWF1VUNKaWNNOXloN1B2RlRjdXhzeXUtbERwSjV6aHQzSEFaMEE,English,,1,2014-10-13,Lucinda Rehfeldt-Roberts,The update broke it,i loved this the update broke it so longer display correctly on my phone,,
2048,Google Play,com.uberspot.a2048,Z3A6QU9xcFRPSFNJMktfektoMDhyQXBCQ2VZQ2ZvRTFaVUY5SnVpenJZTmphWUM1cExZeWF1VUNKaWNNOXloN1B2RlRjdXhzeXUtbERwSjV6aHQzSEFaMEE,English,,1,2014-10-13,Lucinda Rehfeldt-Roberts,The update broke it,the bottom row is not visible in either viewing mode,,
2048,Google Play,com.uberspot.a2048,Z3A6QU9xcFRPSFNJMktfektoMDhyQXBCQ2VZQ2ZvRTFaVUY5SnVpenJZTmphWUM1cExZeWF1VUNKaWNNOXloN1B2RlRjdXhzeXUtbERwSjV6aHQzSEFaMEE,English,,1,2014-10-13,Lucinda Rehfeldt-Roberts,The update broke it,very frustrated,,
2048,Google Play,com.uberspot.a2048,Z3A6QU9xcFRPRW5yVEU5aEF6YkxzMHViOUZVeVMwNEM3M01hd2pTbVNBTE5ucjdvd0NJeHp5T2JqVkMwS1RYblhBTlR3NU5nUWk1Y3V4cEt1Wk04NEd3OEE,English,,1,2014-10-13,S VIGNESH,Waste what i thinked it is a great game but i can't think that it is a bad game bad bad bad bad bad bad bad bad bad bad this is a bad game,bad game,,
2048,Google Play,com.uberspot.a2048,Z3A6QU9xcFRPSDhqWFpxb01HMER0WGhZZF9hckF5QlpLSXY0OUVnVzZzNm05ZUZKUTNXLTczaTRHNVh3YnUyNDFtT3dtaVJyUmlWSFlfMlNZMXdpTi1GZkE,English,,4,2014-10-12,Mike Kennedy,Fun,this game is yet so addictive,,
2048,Google Play,com.uberspot.a2048,Z3A6QU9xcFRPRnNJTnJUaGtpeVZNMmNKR0JVcDBvdGozTDZXMHVkanprX0VsQ1l0SF9mQmFxTE0yZmhrMFU3ZXJxeE5YLXpxbk5NamxjWXItcW5oRnBSRGc,English,,1,2014-10-11,Suryin Duad,,cant fit screen,,
2048,Google Play,com.uberspot.a2048,Z3A6QU9xcFRPRzU5ZkVkNnh2VS1RQzl1S19LZ2d6Uk9BeFZlSm5sT1UyZ0g1MFBFZ1RVRVZtWWl2NmlYM0F6QXlQSEZrel9VX01rbG8yN3luaG5UMllrVFE,English,,5,2014-10-11,abdul azeez,Banu,john,,
2048,Google Play,com.uberspot.a2048,Z3A6QU9xcFRPRlNPSnY0ZnFESElEd0d2cjFia0dSRDdRR2laR3AxMWRVUlpwb25pdXc1ZDF2UGFmTXh6b2lpRjlWQ2NUdWhoMy04a01ub25PeFk2MFdGOVE,English,,5,2014-10-10,Zack Johnson,Fun,make you think,,
2048,Google Play,com.uberspot.a2048,Z3A6QU9xcFRPRkNqY0JVaVk0Mk41RnpKV0NPS1ZINlRZMGw5cnBpemVuc2ZTNkZCRENQZWxEV0E1dWhsZUVGandnZnVXTzJsalBuQTVGM0JnX24tQVlqc3c,English,,5,2014-10-10,Azim Syed,Classy app,too good love playing this,,
2048,Google Play,com.uberspot.a2048,Z3A6QU9xcFRPRkFFcWNKMzloZ3NMbDFDVnBZNm45bVRhT3VKQk81UnlxeFVLTmFaUFlzeFB2OXZMNlhfQnFQb0x5NDFRUG1hT3J3YWkybG9CYXEzUnBUamc,English,,5,2014-10-10,Ng Sing,,best man,,
2048,Google Play,com.uberspot.a2048,Z3A6QU9xcFRPRU1HNkwwVkFrdXhmNDFmRVM0UGs2c3J4el96U1QxRzRBQlFxMWdXcFJMZGhpeEw5Vjl5Uk4zbTM4UWpscjN5cmRSTnRidWlEWHVhNDFYMVE,English,,5,2014-10-10,Dhruv Chevli,I like this game,game is good but excellent also,,
2048,Google Play,com.uberspot.a2048,Z3A6QU9xcFRPRktJTkVLWUhFTGRwTWo4OUl2ejJuSWd3Z2ktWVc4VnBaelhGYlRkMmo3UkZ2YU5KYUxCMmw0eDE0SVpYaHZ4SE8wQlpPSmppQkRrMHVMRXc,English,,5,2014-10-10,Sumayya F. Syed,,,,
2048,Google Play,com.uberspot.a2048,Z3A6QU9xcFRPRkhhTVMtcmMyVlYyZHlxcFFLTW5fME9yVURKbmo0WUZsM18wQ2ZEN3ZjdnFYZEJVTjAzWjR4WlVIbFB0aDl6djhBMFJKY29lNUhweFlEQUE,English,,4,2014-10-07,SWAMY DADI,,,,
2048,Google Play,com.uberspot.a2048,Z3A6QU9xcFRPR3hwTUd0VVVLZWxCT3gxclUxaDdkTlliSFJlRFloeHR3MUpub25YNTdLMU42M1M2SzE2LS1xWFJLSk1rOHU2Z1RfSTVDcTJlQ2dUY2VYa2c,English,,5,2014-10-04,Leonardo Figueroa,Truly free,no permission needed at all,,
2048,Google Play,com.uberspot.a2048,Z3A6QU9xcFRPSFBfbVdRVjBUcHd6cGY3ZEpFZ0ZQMkh3eURpQmZSWHE5Y0UtR0h4VTcyZ1FYTUN4MzVLbXdqQVZ4SzdvQmM3RmQ4VUUweTB5Ylh1ckoxQ2c,English,,4,2014-10-03,fadyah Ad-hass,,good,,
2048,Google Play,com.uberspot.a2048,Z3A6QU9xcFRPSENiSDd1UDlZUUh5UTJ4bUl0N045N0FONzc0cUk3Z3VYbVBqbkRhQ3FoTmtVTjlwYVpDNlNhVFZaNGdBbXhGTFJ2TGNIOVRsSWtLM3ljcmc,English,,5,2014-10-02,Haineypotsxz Garcia,Mineypotsxz,it,,
2048,Google Play,com.uberspot.a2048,Z3A6QU9xcFRPRjZkXzVrTHl5U21VUVVGb2VXLWo5ZWN2Wi1iZFNaMVV1MGtEbkpOV09jOVhwZDA0Q1J0b3NCVS03dTAwNnJUdnc2REFNenpsN2pHRjJON2c,English,,4,2014-10-02,John Early,,it fun,,
2048,Google Play,com.uberspot.a2048,Z3A6QU9xcFRPRkxpb3UtOHZ5OUFkUENrc3Bpc1JlVlhpMnZIejhZeHR0UnBKU19NWEZhdmt0Y05tWnFvY2YwQkpJQXZsVk9QdDd5Qm5mOWVCREU0NEFYY2c,English,,5,2014-10-01,vipul savliya,,great,,
2048,Google Play,com.uberspot.a2048,Z3A6QU9xcFRPRjBkc0NVNU16UWN4ZUZDUk9kM2luV2NoeWJXVDQ2eVFUYkIxeXdBaW9ZVkgzTUtjMFEtZE9kajRrc1N6VFBXc2NJTUVUbFF3OHBMdV9UYkE,English,,5,2014-09-30,arkarup biswas,,awesome,,
2048,Google Play,com.uberspot.a2048,Z3A6QU9xcFRPSHRMYkRSSWx6dEhwZHB6bFB2RUhqb0NaTjFfR0l3ZVZqcEIyUUxNWUZUYlVaUTJFQzdFU3hUMVVuS2dQUjlkb0tpRl8wY3pyU05EVkw0X3c,English,,3,2014-09-27,Leonard Clarke,,fun great time waster,,
2048,Google Play,com.uberspot.a2048,Z3A6QU9xcFRPSFFlT0FjVmt4bzEya3lJTE9lY2l6SC04UnQySE5laDVuY2w5SGxEd0haLW54LWpyTUlaOV9zREZuSHVONW1OXzNrZWJ2SUhwc0hpYlF2U3c,English,,5,2014-09-26,Reynaldo Galapon,2048,nice,,
2048,Google Play,com.uberspot.a2048,Z3A6QU9xcFRPSFFlT0FjVmt4bzEya3lJTE9lY2l6SC04UnQySE5laDVuY2w5SGxEd0haLW54LWpyTUlaOV9zREZuSHVONW1OXzNrZWJ2SUhwc0hpYlF2U3c,English,,5,2014-09-26,Reynaldo Galapon,2048,very fun,,
2048,Google Play,com.uberspot.a2048,Z3A6QU9xcFRPRmJSd2RlWVZ5V2tFOU9nTFg0ZURoR3JlVk0yOC1XeDFMQjl6aVpnNEpLYlEwWl9Pb3BGbnRLVkp0U2Z4NEtTcFhzN2g1RjE5ZzllUEcydGc,English,,5,2014-09-25,Marie Noel Dames,,,,
2048,Google Play,com.uberspot.a2048,Z3A6QU9xcFRPRzFINFVnUGNsVzFlWnNtRkFxeF9MdHE0TUhJZGFWVHI1bHBfc05SR1dIbWota1JESWQwWmFHZnZSanJBVnlqeHpINkRTLW5hT0V2dnl4QkE,English,,5,2014-09-25,Abbas Norozi,,very nice game,,
2048,Google Play,com.uberspot.a2048,Z3A6QU9xcFRPRnpXUmRWOEhZZ0U0ZUM2MzVKaXNfMEI0cXBmYmU1V0hmZGxLXzhXNUxSMlpRcFptTFpneUx2bkNEVjc1dlQ1XzVna3lSZnpGcUt5cjVMWFE,English,,5,2014-09-22,Tidy Tibs,"Great app, lots of fun",it might not have an undo feature but just make you a better player,,
2048,Google Play,com.uberspot.a2048,Z3A6QU9xcFRPRnpXUmRWOEhZZ0U0ZUM2MzVKaXNfMEI0cXBmYmU1V0hmZGxLXzhXNUxSMlpRcFptTFpneUx2bkNEVjc1dlQ1XzVna3lSZnpGcUt5cjVMWFE,English,,5,2014-09-22,Tidy Tibs,"Great app, lots of fun",great,,
2048,Google Play,com.uberspot.a2048,Z3A6QU9xcFRPR1h0OU5mbUh0MVVwalg5YlhfaVpsQV9wSUsxSGlYNl9kaEM2ZHpDc0lMZmxkZGlDdzRsbGtmejJCTndBdExtUmlVZFRuME0ySFBGTENHRFE,English,,3,2014-09-22,Pat Recker,Good app,great,,
2048,Google Play,com.uberspot.a2048,Z3A6QU9xcFRPR1h0OU5mbUh0MVVwalg5YlhfaVpsQV9wSUsxSGlYNl9kaEM2ZHpDc0lMZmxkZGlDdzRsbGtmejJCTndBdExtUmlVZFRuME0ySFBGTENHRFE,English,,3,2014-09-22,Pat Recker,Good app,would be 5 start otherwise,,
2048,Google Play,com.uberspot.a2048,Z3A6QU9xcFRPRlJ4dm1QdjJ4clFjZ2MwSXZDMkpDNzA4SGFWODN1eFZ4NTZGSG5HTWRoSkhORjh3N1ZKOTVLcTRRWFdvOU9MeG42bU9KNllZQ1FTRFh1Q3c,English,,4,2014-09-22,Corey Mayo,"Fun, addictive",continues to challenge long you defeat it the first time,,
2048,Google Play,com.uberspot.a2048,Z3A6QU9xcFRPRjlBTGVHRXhhNlpGUFhhdXd6V3pYZ0Iwa0U2TndtZlRhOTIyT2VtMnFNYUxvNlg0bTNDdDRXVDkxWkk5dkpxcGZxUkg1RVlURElia2tCTHc,English,,5,2014-09-22,Koen van Leeuwen,Just you and the numbers,no ad or long loading,,
2048,Google Play,com.uberspot.a2048,Z3A6QU9xcFRPSDA2c18xTFgwVlMweXQwcXlZaWRIU1BsTldfNkpKaWZkbTFDbUVOWmpHMGRQaFRCcG5aTWJuNTdyck4yWU9JcHRmWU5PSUQzYlZ2dW5sOHc,English,,4,2014-09-22,Nirav Gheewala,Time Pass,i would like to suggest this,,
2048,Google Play,com.uberspot.a2048,Z3A6QU9xcFRPRlhTSzlzNm8wSHlpRXNEWVMtdEhIRmVfbHEtS2xvZ3ZHU0Z3dkE2c0ozNzZHWk1INkIzeWdNb0s3b1Z1dktrYko5d2NRMlJvaUxuWnJQcUE,English,,4,2014-09-21,Karim Nil,rough around the edges,give it a try,,
2048,Google Play,com.uberspot.a2048,Z3A6QU9xcFRPRlhTSzlzNm8wSHlpRXNEWVMtdEhIRmVfbHEtS2xvZ3ZHU0Z3dkE2c0ozNzZHWk1INkIzeWdNb0s3b1Z1dktrYko5d2NRMlJvaUxuWnJQcUE,English,,4,2014-09-21,Karim Nil,rough around the edges,warning this game is addicting,,
2048,Google Play,com.uberspot.a2048,Z3A6QU9xcFRPRURfLW9EdUwtT0xxRXVaX0duQVp1WVRKVWJXT2s1ZVd5UFp2bTQxZ1ZaV1ZqQnZfVnBMZks4OS1EUE8yYU5FNjJheFJqaVNoc0ZxcWphRkE,English,,4,2014-09-21,samsung test,"FUN,Best But...",this game is fun and best but sometimes it is auto and jam cannot press the number maybe i will 4 star i like it and is,,
