Topic Index 1,Topic Index 2,Topic Similarity
19,17,1.2875999999999999
15,10,1.0399
2,7,0.6893
4,15,0.5376000000000001
17,19,0.4247999999999999
7,4,0.3604
5,5,0.3565
9,14,0.3296
8,6,0.2808
0,0,0.22830000000000003
12,12,0.209
6,18,0.1949
16,3,0.1584
18,13,0.14
13,16,0.10640000000000001
1,2,0.08910000000000001
3,1,0.0
10,8,0.0
11,9,0.0
14,11,0.0
