Topic Index 1,Topic Index 2,Topic Similarity
12,3,3.2230000000000003
10,12,2.9916
16,8,1.9456000000000002
18,7,1.6100000000000003
2,16,1.3332000000000002
0,0,0.0
1,1,0.0
3,2,0.0
4,4,0.0
5,5,0.0
6,6,0.0
7,9,0.0
8,10,0.0
9,11,0.0
11,13,0.0
13,14,0.0
14,15,0.0
15,17,0.0
17,18,0.0
19,19,0.0
