Topic Index 1,Topic Index 2,Topic Similarity
19,3,2.8706
16,10,2.355
4,15,1.4575
3,19,1.0261
0,11,0.8190000000000001
10,8,0.8122
1,5,0.507
11,14,0.4872
9,0,0.4644
13,4,0.4432999999999999
8,18,0.3968999999999999
7,17,0.2871
2,1,0.0
5,2,0.0
6,6,0.0
12,7,0.0
14,9,0.0
15,12,0.0
17,13,0.0
18,16,0.0
