Topic Index 1,Topic Index 2,Topic Similarity
0,5,11.11111111111111
10,0,11.11111111111111
1,4,5.263157894736842
2,8,5.263157894736842
3,6,5.263157894736842
4,1,5.263157894736842
6,10,5.263157894736842
7,15,5.263157894736842
8,18,5.263157894736842
14,16,5.263157894736842
15,13,5.263157894736842
17,9,5.263157894736842
5,2,0.0
9,3,0.0
11,7,0.0
12,11,0.0
13,12,0.0
16,14,0.0
18,17,0.0
19,19,0.0
