Topic Index 1,Topic Index 2,Topic Similarity
1,5,5.263157894736842
2,14,5.263157894736842
7,10,5.263157894736842
9,2,5.263157894736842
10,13,5.263157894736842
11,17,5.263157894736842
12,7,5.263157894736842
14,1,5.263157894736842
15,0,5.263157894736842
16,8,5.263157894736842
17,18,5.263157894736842
18,16,5.263157894736842
19,6,5.263157894736842
0,3,0.0
3,4,0.0
4,9,0.0
5,11,0.0
6,12,0.0
8,15,0.0
13,19,0.0
