Topic Index 1,Topic Index 2,Topic Similarity
0,0,5.263157894736842
1,5,5.263157894736842
2,1,5.263157894736842
3,4,5.263157894736842
5,6,5.263157894736842
7,8,5.263157894736842
8,13,5.263157894736842
9,9,5.263157894736842
10,10,5.263157894736842
11,17,5.263157894736842
14,16,5.263157894736842
16,2,5.263157894736842
18,18,5.263157894736842
4,3,0.0
6,7,0.0
12,11,0.0
13,12,0.0
15,14,0.0
17,15,0.0
19,19,0.0
