# deletions,date,commit message
8,2014/11/11,update build date
1,2014/11/10,update version number
4,2014/11/10,remove debug info
77,2014/11/10,post to doc off the main thread
102,2014/11/10,update developer documentation showing how to use the message result
10,2014/11/10,let to make use of class instead
5,2014/11/10,update
3,2014/11/09,and disable run for portal
18,2014/11/09,upgrade build tool to the latest and update changed property
13,2014/11/08,validate email address if positive button is tapped
1,2014/11/08,remove annotated serialized name
2,2014/11/08,change from to make it easier to be compatible with old release
1,2014/11/08,change failed notification icon to the new notification icon
12,2014/11/08,code clean up to message result
2,2014/11/07,fix changing of object cause incorrect in task
9,2014/11/07,issue 220
5,2014/11/06,upgrade
1,2014/11/06,update version number
2,2014/11/06,issue 217
2,2014/11/06,fix for task and
1,2014/10/28,update with the correct code
1,2014/10/27,fix broken entry
2,2014/10/27,updated version number
2,2014/10/27,add few more entire to the change log
8,2014/10/27,commented out all code related to enabling this feature at the setting screen
43,2014/10/27,document message result
