# deletions,date,commit message
2,2014/11/17,use SSLTrustManager to verify user-trusted certs
64,2014/11/17,splite license into sperate files
12,2014/11/17,remove unused imports
63,2014/11/17,improve code of AuthImageDownloader
8,2014/11/17,improve code & docs
3,2014/11/17,revert changes to project.properties
1,2014/11/15,show cached data on resume
3,2014/11/15,apply Guava's static collections utilities
26,2014/11/15,trust all host when load avatars
17,2014/10/29,delete "is_default" column from table "Avatar"
53,2014/10/28,use cached SSLSocketFactory  use self keystore trust manager rather than trust all host  reference nostra13/Android-Universal-Image-Loader#240
1,2014/11/14,update licenses
4,2014/11/14,code cleanup
12,2014/11/12,update README and pom
8,2014/11/12,remove pull-to-refresh dependency
224,2014/11/14,change Gesuture Lock background color
1,2014/11/12,update pom
7,2014/11/12,remove pull-to-refresh dependency
11,2014/11/12,update reference text
22,2014/11/12,remove support-v4-PreferenceFragment dependency
1,2014/11/06,update pom.xml README.md and project.properties
5,2014/11/06,update pom.xml README.md and project.properties
57,2014/11/05,add pull to refresh to ActivitiesFragment
32,2014/11/05,add pull to refresh feature  only supports ReposFragment and StarredFragment now resolve Refresh files list when pulling down #125
38,2014/11/01,update Utils
33,2014/11/01,code cleanup
237,2014/11/01,code cleanup
2,2014/11/01,update README and pom files
2,2014/10/28,code add paddings to Gesture Lock layout
23,2014/10/28,code cleanup  close #124
20,2014/10/28,add Gesture Lock layout screen size adaptation
289,2014/10/28,remove hard code strings  translate Chinese strings
13,2014/10/27,code cleanup
300,2014/10/27,add backward compatibility support  1. create a new package "com.seafile.seadroid2.gesturelock" 2. add Chinese translations
498,2014/10/27,optimize Gesture Lock
15,2014/10/27,use custmoized PreferenceFragment for pre 3.0 compatible  fix haiwen/seadroid#124
10,2014/10/24,add perference header for legacy preference
5,2014/11/06,update pom.xml README.md and project.properties
57,2014/11/05,add pull to refresh to ActivitiesFragment
32,2014/11/05,add pull to refresh feature  only supports ReposFragment and StarredFragment now resolve Refresh files list when pulling down #125
13,2014/11/11,code cleanup
2,2014/11/11,apply orange ui to SSL confirm dialog
68,2014/11/10,show certificate warning details #142
32,2014/11/10,show certificate warning details #142
23,2014/11/05,code refactor
11,2014/11/04,code cleanup
56,2014/11/03,fix camera photo upload cancell all error  only cancel camera upload tasks exclude other file upload tasks  when user stops camera upload service
4,2014/11/02,mark code that need improvement with "XXX"
4,2014/11/06,update pom.xml README.md and project.properties
57,2014/11/05,add pull to refresh to ActivitiesFragment
32,2014/11/05,add pull to refresh feature  only supports ReposFragment and StarredFragment now resolve Refresh files list when pulling down #125
100,2014/11/07,apply Guava's static collections utilities
75,2014/11/06,Revert "Merge pull request #148 from Logan676/camera"  This reverts commit 6e3fb44e56d331ba3aca0166afbaa598e5d585d5 reversing changes made to 43535712ba5c47649a0a14ac8cb49d2ff8e38f95.
24,2014/11/05,fix #150
13,2014/11/04,fix #139
33,2014/11/01,update Utils
33,2014/11/01,code cleanup
237,2014/11/01,code cleanup
2,2014/11/01,update README and pom files
4,2014/10/31,fix get photo path from external SD card #140
11,2014/10/31,add menu layout to specifically target 480dp width screen
9,2014/10/29,fix error when delete account
2,2014/10/28,code add paddings to Gesture Lock layout
23,2014/10/28,code cleanup  close #124
20,2014/10/28,add Gesture Lock layout screen size adaptation
289,2014/10/28,remove hard code strings  translate Chinese strings
13,2014/10/27,code cleanup
300,2014/10/27,add backward compatibility support  1. create a new package "com.seafile.seadroid2.gesturelock" 2. add Chinese translations
502,2014/10/27,optimize Gesture Lock
15,2014/10/27,use custmoized PreferenceFragment for pre 3.0 compatible  fix haiwen/seadroid#124
10,2014/10/24,add perference header for legacy preference
2,2014/10/24,upgrade version to 1.2.0
2,2014/10/24,close haiwen/seadroid#133
