# deletions,date,commit message
39,2013/10/31,improve encrypted repo password mechanism
4,2013/10/31,use android.text.ClipboardManager for compatiability
12,2013/10/30,fixed #21 the bug of using mobible network
6,2013/10/30,fixed download file of encrypted repos
1,2013/10/29,improve REAME
1,2013/10/28,improve login account server url filed
7,2013/10/28,support rename a file
13,2013/10/28,delete "remove cache" menu item
8,2013/10/28,support share a folder
120,2013/10/28,support share file
2,2013/10/25,display correct file size if modified
2,2013/10/25,add a hint for server url when login
5,2013/10/25,allow export file from seafile when no network
86,2013/10/24,improve repos cache
196,2013/10/24,improve dirents cache
3,2013/10/22,quote http get params
9,2013/10/22,update file type icons
4,2013/8/19,Improve how to build seadroid in Readme.md
40,2013/7/25,copy uploaded file to local cache after uploading
2,2013/7/25,Update to 0.6.1
