# deletions,date,commit message
10,2015/4/25,apply dimens to manage layout
237,2015/4/24,implement tool bar in another way
10,2015/4/24,share a photo
1,2015/4/24,star a photo
19,2015/4/24,refresh pages after photo was deleted
24,2015/4/24,improve code style
7,2015/4/24,catch request thumbnail links exceptions
57,2015/4/24,improve method and class names
15,2015/4/24,improve code logic
2,2015/4/24,remove unused strings
1,2015/4/24,correct hostname validation method
