# deletions,date,commit message
8,2015/4/01,improve layout
56,2015/4/07,fix review tickets
315,2015/4/07,support camera upload configuration helper
1,2015/4/07,revert loading
1,2015/4/03,fix NPE
1,2015/4/03,fix NPE
20,2015/4/01,catch parse repo exceptions
1,2015/4/01,show loading when resume the App
106,2015/3/31,improve code style
13,2015/3/28,SeafileProvier: fix: refresh directory  change the way we avoid infinite refresh loops. previously the user had to change the directory to trigger a refresh. this is problematic if there is only one directory (the list of repos). the user will never be able to trigger a refresh.  this fixes the following issue: There is only one server and that server is greyed out due to unreachability. Then the user won't be able to get SeafileProvider to retest if the server has become available again.
14,2015/3/28,SeafileProvider: disable access if server is unreachable  If the server is unreachable we don't allow download of any files. To make this fact more clear to the user grey out all entries in an Seafile account.  The reachability test is done for every server individually.  This should mostly avoid issues of users trying to download files from unavailable servers.
3,2015/3/28,SeafileProvider: fix: rootID and the documentID of the root are seperate things  Previously I treated them as the same. After re-reading the API of DocumentContract I've become convinced that this way it adheres more to what the API designers had in mind.  (The old way did not cause any bugs as far as I'm aware)
29,2015/3/27,SeafileProvider: fix: hang during thumbnail download  sometimes the SAF file chooser can choke up when displaying high resolution thumbnails (like on a tabled in grid view). The reason was that we tried to write into a pipe with an unconected end. the pipe buffer would run fill and then block.  Fix this by returning the file descriptor early and then agressively close the pipe if we get a cancellation signal.
2,2015/3/27,remove gitter-badge
10,2015/3/20,review
46,2015/3/19,Revert "SeafileProvier: use TransferService"  Causes SAF gui to hang sometimes. Not sure what's going on yet so revert it for now..  This reverts commit 89c7216196d6c0416c379dd9edd6f1fb87cf728b.
1,2015/3/17,SeafileProvier: use TransferService
14,2015/3/13,Cancellation signal may be null
2,2015/3/13,SeafileProvider: stop openDocument future more aggressively
21,2015/3/13,style fixes
23,2015/3/13,fix: SAF hangs if thumbnail download failed  previously if a thumbnail couldn't be downloaded we would return a file descriptor that was not closed but couldn't be read() on either. Understandably this confused the SAF causing it to hang.  Now we only a filedescriptor if the thumbnail download was successful.
11,2015/3/23,fix crashes if server unreachable #309
5,2015/3/22,remove unnecessary if
2,2015/3/21,fix: error when uploading same file again  Reasoning: Temp files aren't deleted after upload. If the user tries to upload the same file twice the temp file cannot be created again causing an  throw new RuntimeException("could not create temporary file");  We can't delete or overwrite the existing temp file as the upload might still be in progress.  There are other ways to fix this issue but this is the simplest solution as far as I can see.
7,2015/3/21,fix NPE when selecting a single file
42,2015/3/21,refactor SAFLoadRemoteFileTask  I used classic arrays as AsyncTask encourages one to use them.
2,2015/3/20,File upload: allow to select multiple files
15,2015/3/18,fix review ticket
20,2015/3/18,fix review ticket
38,2015/3/13,hide Activities-tab on non-pro edition server  fix hide Activities-tab #280
11,2015/3/18,always close the streams (re-apply)  (and never cross them)
72,2015/3/18,Revert "upload file with custom file name"  This reverts commit c2ae1919557afc491ca95fc580b70546be545531.
7,2015/3/18,Revert "refactoring: Pair<...>"  This reverts commit 5c2f7f3bb6b672c8fd66362af3b9ffaea41afe0d.
14,2015/3/18,Revert "always close the streams"  This reverts commit cb7dab1899d77eb371a4a2ab9ef36307f004aa3f.
8,2015/3/18,always close the streams  (and never cross them)
6,2015/3/18,refactoring: Pair<...>
10,2015/3/18,small change to provider timestamp
49,2015/3/17,upload file with custom file name  previously when uploading a file the file will have the same filename on the server as locally. Now the internal API allows to give a custom filename.
13,2015/3/17,avoid concurrent exceptions
3,2015/3/17,use ArrayList instead of CopyOnWriteArrayList  Element-changing operations on iterators of CopyOnWriteArrayList (remove set and add) are not supported. These methods throw UnsupportedOperationException.
43,2015/3/16,review
2,2015/3/14,go directly into document chooser in newer Android versions  It has integrated file and image chooser support
23,2015/3/14,fix: fix compatibility with older Android versions  turns out just using another query() variant was enough. :)
22,2015/3/13,partial fix of issue #297  this fixes file upload from all sources (local or remote).  Remaining issues:  - temp file/dir aren't deleted after upload - makes use of API level 16 call
1,2015/3/13,fix refresh via menu bar
3,2015/3/13,update server url
2,2015/3/13,update version code
