App,Store,App ID,Review ID,Country,Version,Rating,Date,Author,Subject,Body,Translated Subject,Translated Body
Seafile,Google Play,com.seafile.seadroid2,Z3A6QU9xcFRPRWlNQ0VqcFNmYndLRFp0aWNSNnhBRDNvTkVnNTZhWGdBRWZyaHJJSlEtQ2tkOEp2TnVLYlFkblNUdG1fcVJtandBSnVnM3djaUNTSWRqX2c,English,,4,2013-10-28,Michiel Scholten,It's ok,"Some minor things: if I edit a file on my device, the text seems to be saved locally, but the new version is not synchronised to the server. Also, the app registers as a share activity for url's, but does not know what to do with them. Otherwise shaping up quite nicely!",,
Seafile,Google Play,com.seafile.seadroid2,Z3A6QU9xcFRPR09oMjU1NXQ4YWVFbWVveEg2SlBJNWJ1MlZjb0E0SGNuRGlHYjNfbTV3V1VwSzNJRlhkclpwTW5sYmxaWXA3M3pnQTVPZFlHcjEtRjNTY3c,English,,1,2013-10-17,de Muji,can't download file,can't download file from private seafile server,,
Seafile,Google Play,com.seafile.seadroid2,Z3A6QU9xcFRPRVpIckR5RXVoeUJDNzltWTR6bWgyN2ZnNTloT3RtU0tIdWZ2a05QRndIQkVkOVo3YW14OGV6ZWxfcG5hczVwcmctYlJqVHNEWno1Y1ItUXc,Dutch,,4,2013-09-20,Joost Vogels,Big thumbs up,"No nonsense app, best part is that the server works very well with raspberry pi! Having your own cloud server at home really rocks!",,
Seafile,Google Play,com.seafile.seadroid2,Z3A6QU9xcFRPRkdITGRGbFJrQmFGTjY2MFIyaDJRXzRWZjZiZ2JMSU9ZNGZ0bm13Q29NQW0wRTRuNE5OcjVzSDNSS3RWRmQxeXVuTXR2M3h4WHl2ODAybFE,German,,4,2013-07-31,Marcel Bochtler,Automatic Picture Upload needed!,"An automatic picture upload would be great. Because seafile isn't offering this, I am still using Dropbox.",,
Seafile,Google Play,com.seafile.seadroid2,Z3A6QU9xcFRPSGtkWUdwUElMUU9LYzBETmhXRUNTQ2Z2Zy0zYVJqV0I1TjFwQjZIOUhhc09sVW9vTWlneHZHc0ZHSTdoQUJNcklkT1ZjblZpWWlrb3RaakE,Spanish,,5,2013-08-23,Jorge Palma Escobar,"",Lo mejor para tener tu propia nube de archivos,,
