add missing string,b,2015/3/04,,
remove string,f,2015/3/03,,
add missing string,b,2015/3/03,,
add missing string,b,2015/3/03,,
fix failed build,b,2015/2/27,,
update translation,b,2015/2/26,,
update supported count,b,2015/2/25,,
remove unused import,f,2015/2/25,,
adapt welcome message to new version,b,2015/2/24,,
remove unused custom exception,o,2015/2/24,,
remove unused import,f,2015/2/24,,
throw standard instead of custom,b,2015/2/24,,
modify property to use new package name,b,2015/2/24,,
move model class to model package,b,2015/2/24,,
