package,release ID,UI element,related topic,average polarity,# reviews,average rating,average objectivity,# uninstalls,delta rating,element deleted next release
com.gelakinetic.mtgfam,v3.2.2,@+id/deck_counter_1$deck_counter_1,7835,0.2529166666666667,2,4.5,0.46249999999999997,0,-0.013513513513513153,0,0
com.gelakinetic.mtgfam,v3.2.2,@+id/deck_counter_count$,7838,0.18333333333333335,1,5.0,0.4749999999999999,0,0.48648648648648685,0,0
com.gelakinetic.mtgfam,v3.2.2,@+id/deck_counter_count$,7840,0.3225,1,4.0,0.45,0,-0.5135135135135132,0,0
com.gelakinetic.mtgfam,v3.2.2,@+id/deck_counter_history$,7844,0.18333333333333335,1,5.0,0.4749999999999999,0,0.48648648648648685,0,0
com.gelakinetic.mtgfam,v3.2.2,@+id/deck_counter_history$,7843,0.3225,1,4.0,0.45,0,-0.5135135135135132,0,0
com.gelakinetic.mtgfam,v3.2.2,@+id/deck_counter_3$deck_counter_3,7848,0.2529166666666667,2,4.5,0.46249999999999997,0,-0.013513513513513153,0,0
com.gelakinetic.mtgfam,v3.2.2,@+id/deck_counter_2$deck_counter_2,7852,0.18333333333333335,1,5.0,0.4749999999999999,0,0.48648648648648685,0,0
com.gelakinetic.mtgfam,v3.2.2,@+id/deck_counter_2$deck_counter_2,7851,0.3225,1,4.0,0.45,0,-0.5135135135135132,0,0
com.gelakinetic.mtgfam,v3.2.2,@+id/deck_counter_4$deck_counter_4,7857,0.18333333333333335,1,5.0,0.4749999999999999,0,0.48648648648648685,0,0
com.gelakinetic.mtgfam,v3.2.2,@+id/deck_counter_4$deck_counter_4,7856,0.09166666666666666,1,4.0,0.7041666666666666,0,-0.5135135135135132,0,0
com.gelakinetic.mtgfam,v3.2.2,@+id/deck_counter_4$deck_counter_4,7858,0.3225,1,4.0,0.45,0,-0.5135135135135132,0,0
com.gelakinetic.mtgfam,v3.2.2,@+id/deck_counter_reset$deck_counter_reset,7863,0.18333333333333335,1,5.0,0.4749999999999999,0,0.48648648648648685,0,0
com.gelakinetic.mtgfam,v3.2.2,@+id/deck_counter_reset$deck_counter_reset,7861,0.3225,1,4.0,0.45,0,-0.5135135135135132,0,0
com.gelakinetic.mtgfam,v3.2.2,@+id/deck_counter_undo$deck_counter_undo,7868,0.2529166666666667,2,4.5,0.46249999999999997,0,-0.013513513513513153,0,0
com.gelakinetic.mtgfam,v3.2.2,@+id/commander_plus1$life_counter_plus_one,7871,0.09166666666666666,1,4.0,0.7041666666666666,0,-0.5135135135135132,0,0
com.gelakinetic.mtgfam,v3.2.2,@+id/commander_minus1$life_counter_minus_one,7877,0.09166666666666666,1,4.0,0.7041666666666666,0,-0.5135135135135132,0,0
com.gelakinetic.mtgfam,v3.2.2,@+id/player_minus1$life_counter_minus_one,7882,0.09166666666666666,1,4.0,0.7041666666666666,0,-0.5135135135135132,0,0
com.gelakinetic.mtgfam,v3.2.2,@+id/player_minus1$life_counter_minus_one,7883,0.625,1,4.0,1.0,0,-0.5135135135135132,0,0
com.gelakinetic.mtgfam,v3.2.2,@+id/player_plus1$life_counter_plus_one,7888,0.09166666666666666,1,4.0,0.7041666666666666,0,-0.5135135135135132,0,0
com.gelakinetic.mtgfam,v3.2.2,@+id/player_plus1$life_counter_plus_one,7890,0.625,1,4.0,1.0,0,-0.5135135135135132,0,0
com.gelakinetic.mtgfam,v3.2.2,@+id/add_card$wishlist_add_card,7894,0.0919270833333333,1,5.0,0.6366666666666667,0,0.48648648648648685,0,0
com.gelakinetic.mtgfam,v3.2.2,@+id/add_card$wishlist_add_card,7895,0.3833333333333333,1,1.0,0.7666666666666666,0,-3.513513513513513,0,0
com.gelakinetic.mtgfam,v3.2.2,@+id/add_card$wishlist_add_card,7891,0.3333333333333333,1,4.0,0.5439814814814815,0,-0.5135135135135132,0,0
com.gelakinetic.mtgfam,v3.2.2,@+id/add_card$wishlist_add_card,7892,0.22833333333333336,1,1.0,0.48555555555555563,0,-3.513513513513513,0,0
com.gelakinetic.mtgfam,v3.2.2,@+id/addCardLeft$trader_add_card,7899,0.23453125,3,2.3333333333333335,0.6296296296296297,0,-2.1801801801801797,0,0
com.gelakinetic.mtgfam,v3.2.2,@+id/addCardLeft$trader_add_card,7896,0.3333333333333333,1,4.0,0.5439814814814815,0,-0.5135135135135132,0,0
com.gelakinetic.mtgfam,v3.2.2,@+id/starting_life$life_counter_twenty,7902,0.0919270833333333,1,5.0,0.6366666666666667,0,0.48648648648648685,0,0
com.gelakinetic.mtgfam,v3.2.2,@+id/starting_life$life_counter_twenty,7903,0.3833333333333333,1,1.0,0.7666666666666666,0,-3.513513513513513,0,0
com.gelakinetic.mtgfam,v3.2.2,@+id/starting_life$life_counter_twenty,7904,0.8708333333333332,1,5.0,0.7666666666666666,0,0.48648648648648685,0,0
com.gelakinetic.mtgfam,v3.2.2,@string/gathering_starting_life$,7910,0.0919270833333333,1,5.0,0.6366666666666667,0,0.48648648648648685,0,0
com.gelakinetic.mtgfam,v3.2.2,@string/gathering_starting_life$,7908,0.6270833333333332,2,3.0,0.7666666666666666,0,-1.5135135135135132,0,0
com.gelakinetic.mtgfam,v3.2.2,@+id/rt_action_button$timer_start,7915,0.0919270833333333,1,5.0,0.6366666666666667,0,0.48648648648648685,0,0
com.gelakinetic.mtgfam,v3.2.2,@+id/rt_action_button$timer_start,7911,0.3833333333333333,1,1.0,0.7666666666666666,0,-3.513513513513513,0,0
com.gelakinetic.mtgfam,v3.2.2,@+id/rt_action_button$timer_start,7914,0.8708333333333332,1,5.0,0.7666666666666666,0,0.48648648648648685,0,0
com.gelakinetic.mtgfam,v3.2.2,@+id/widget_trade$,7920,0.16013020833333333,2,3.0,0.5611111111111111,0,-1.5135135135135132,0,0
com.gelakinetic.mtgfam,v3.2.2,@+id/widget_trade$,7918,0.3833333333333333,1,1.0,0.7666666666666666,0,-3.513513513513513,0,0
com.gelakinetic.mtgfam,v3.2.2,@+id/widget_trade$,7919,0.5,1,4.0,0.475,0,-0.5135135135135132,0,0
com.gelakinetic.mtgfam,v3.2.2,"@+id/ability${T}: Search your library for a legendary card, reveal that card, and put it into your hand. Then shuffle your library.",7923,0.0919270833333333,1,5.0,0.6366666666666667,0,0.48648648648648685,0,0
com.gelakinetic.mtgfam,v3.2.2,"@+id/ability${T}: Search your library for a legendary card, reveal that card, and put it into your hand. Then shuffle your library.",7922,0.36124999999999996,4,2.5,0.5678009259259259,0,-2.013513513513513,0,0
com.gelakinetic.mtgfam,v3.2.2,"@+id/ability${T}: Search your library for a legendary card, reveal that card, and put it into your hand. Then shuffle your library.",7921,0.6666666666666666,1,2.0,0.6833333333333332,0,-2.513513513513513,0,0
com.gelakinetic.mtgfam,v3.2.2,@string/card_view_price_dialog_medium$,7926,0.23763020833333331,2,3.0,0.7016666666666667,0,-1.5135135135135132,0,0
com.gelakinetic.mtgfam,v3.2.2,@string/card_view_price_dialog_medium$,7929,0.3333333333333333,1,4.0,0.5439814814814815,0,-0.5135135135135132,0,0
com.gelakinetic.mtgfam,v3.2.2,@string/card_view_price_dialog_medium$,7928,0.22833333333333336,1,1.0,0.48555555555555563,0,-3.513513513513513,0,0
com.gelakinetic.mtgfam,v3.2.2,@string/card_view_price_dialog_low$,7931,0.2592317708333333,4,2.75,0.6082175925925926,0,-1.7635135135135132,0,0
com.gelakinetic.mtgfam,v3.2.2,@+id/addCardRight$trader_add_card,7937,0.16013020833333333,2,3.0,0.5611111111111111,0,-1.5135135135135132,0,0
com.gelakinetic.mtgfam,v3.2.2,@+id/addCardRight$trader_add_card,7939,0.3583333333333333,2,2.5,0.655324074074074,0,-2.013513513513513,0,0
com.gelakinetic.mtgfam,v3.2.2,@+id/show_card_button$wishlist_view_card,7945,0.0919270833333333,1,5.0,0.6366666666666667,0,0.48648648648648685,0,0
com.gelakinetic.mtgfam,v3.2.2,@+id/show_card_button$wishlist_view_card,7943,0.3833333333333333,1,1.0,0.7666666666666666,0,-3.513513513513513,0,0
com.gelakinetic.mtgfam,v3.2.2,@+id/show_card_button$wishlist_view_card,7941,0.3333333333333333,1,4.0,0.5439814814814815,0,-0.5135135135135132,0,0
com.gelakinetic.mtgfam,v3.2.2,@+id/show_card_button$wishlist_view_card,7944,0.22833333333333336,1,1.0,0.48555555555555563,0,-3.513513513513513,0,0
com.gelakinetic.mtgfam,v3.2.2,@+id/type$Legendary Creature - Human Soldier,7948,0.17071874999999997,5,3.6,0.4682407407407408,0,-0.9135135135135131,0,0
com.gelakinetic.mtgfam,v3.2.2,@+id/type$Legendary Creature - Human Soldier,7946,0.5249999999999999,2,1.5,0.7249999999999999,0,-3.013513513513513,0,0
com.gelakinetic.mtgfam,v3.2.2,@string/card_view_price_dialog_high$,7951,0.16013020833333333,2,3.0,0.5611111111111111,0,-1.5135135135135132,0,0
com.gelakinetic.mtgfam,v3.2.2,@string/card_view_price_dialog_high$,7952,0.3833333333333333,1,1.0,0.7666666666666666,0,-3.513513513513513,0,0
com.gelakinetic.mtgfam,v3.2.2,@string/card_view_price_dialog_high$,7955,0.3333333333333333,1,4.0,0.5439814814814815,0,-0.5135135135135132,0,0
com.gelakinetic.mtgfam,v3.2.2,@+id/tradeListLeft$,7956,0.3250868055555555,3,3.3333333333333335,0.6261111111111112,0,-1.1801801801801797,0,0
com.gelakinetic.mtgfam,v3.2.2,@+id/tradeListLeft$,7957,0.22833333333333336,1,1.0,0.48555555555555563,0,-3.513513513513513,0,0
com.gelakinetic.mtgfam,v3.2.2,@+id/tradeListRight$,7964,0.23453125,3,2.3333333333333335,0.6296296296296297,0,-2.1801801801801797,0,0
com.gelakinetic.mtgfam,v3.2.2,@+id/tradeListRight$,7962,0.5,1,4.0,0.475,0,-0.5135135135135132,0,0
com.gelakinetic.mtgfam,v3.2.2,@+id/traderDialogResetPrice$trader_edit_dialog_reset_price,7969,0.39940476190476193,2,3.0,0.7583333333333333,0,-1.5135135135135132,0,0
com.gelakinetic.mtgfam,v3.2.2,@+id/rules_item_text$app_name,7973,0.3833333333333333,1,1.0,0.7666666666666666,0,-3.513513513513513,0,0
com.gelakinetic.mtgfam,v3.2.2,@+id/rules_item_text$app_name,7972,0.3333333333333333,1,4.0,0.5439814814814815,0,-0.5135135135135132,0,0
com.gelakinetic.mtgfam,v3.2.2,@+id/rules_item_text$app_name,7971,0.22833333333333336,1,1.0,0.48555555555555563,0,-3.513513513513513,0,0
com.gelakinetic.mtgfam,v3.2.2,@+id/traderRowName$search_name,7976,0.3583333333333333,2,2.5,0.655324074074074,0,-2.013513513513513,0,0
com.gelakinetic.mtgfam,v3.2.2,@+id/traderRowName$search_name,7979,0.22833333333333336,1,1.0,0.48555555555555563,0,-3.513513513513513,0,0
com.gelakinetic.mtgfam,v3.2.2,@+id/rules_item_header$app_name,7982,0.3833333333333333,1,1.0,0.7666666666666666,0,-3.513513513513513,0,0
com.gelakinetic.mtgfam,v3.2.2,@+id/rules_item_header$app_name,7984,0.2808333333333333,2,2.5,0.5147685185185186,0,-2.013513513513513,0,0
com.gelakinetic.mtgfam,v3.2.2,@+id/player_name$app_name,7986,0.30583333333333335,2,1.0,0.6261111111111111,0,-3.513513513513513,0,0
com.gelakinetic.mtgfam,v3.2.2,@+id/player_name$app_name,7988,0.625,1,4.0,1.0,0,-0.5135135135135132,0,0
com.gelakinetic.mtgfam,v3.2.2,@+id/player_name$app_name,7989,0.3333333333333333,1,4.0,0.5439814814814815,0,-0.5135135135135132,0,0
com.gelakinetic.mtgfam,v3.2.2,@+id/custom_name$,7993,0.3833333333333333,1,1.0,0.7666666666666666,0,-3.513513513513513,0,0
com.gelakinetic.mtgfam,v3.2.2,@+id/custom_name$,7995,0.3333333333333333,1,4.0,0.5439814814814815,0,-0.5135135135135132,0,0
com.gelakinetic.mtgfam,v3.2.2,@+id/custom_name$,7992,0.22833333333333336,1,1.0,0.48555555555555563,0,-3.513513513513513,0,0
com.gelakinetic.mtgfam,v3.2.2,@+id/player_name$life_counter_default_name,7996,0.30583333333333335,2,1.0,0.6261111111111111,0,-3.513513513513513,0,0
com.gelakinetic.mtgfam,v3.2.2,@+id/player_name$life_counter_default_name,7997,0.625,1,4.0,1.0,0,-0.5135135135135132,0,0
com.gelakinetic.mtgfam,v3.2.2,@+id/player_name$life_counter_default_name,7999,0.3333333333333333,1,4.0,0.5439814814814815,0,-0.5135135135135132,0,0
com.gelakinetic.mtgfam,v3.2.2,@+id/foil$app_name,8004,0.30583333333333335,2,1.0,0.6261111111111111,0,-3.513513513513513,0,0
com.gelakinetic.mtgfam,v3.2.2,@+id/foil$app_name,8005,0.3333333333333333,1,4.0,0.5439814814814815,0,-0.5135135135135132,0,0
com.gelakinetic.mtgfam,v3.2.2,@+id/traderDialogInfo$trader_edit_dialog_info,8007,0.3833333333333333,1,1.0,0.7666666666666666,0,-3.513513513513513,0,0
com.gelakinetic.mtgfam,v3.2.2,@+id/traderDialogInfo$trader_edit_dialog_info,8010,0.4154761904761905,1,5.0,0.75,0,0.48648648648648685,0,0
com.gelakinetic.mtgfam,v3.2.2,@+id/format$app_name,8015,0.315,3,2.0,0.5987345679012345,0,-2.513513513513513,0,0
com.gelakinetic.mtgfam,v3.2.2,@+id/traderDialogRemove$trader_edit_dialog_remove,8020,0.3833333333333333,1,1.0,0.7666666666666666,0,-3.513513513513513,0,0
com.gelakinetic.mtgfam,v3.2.2,@+id/traderDialogRemove$trader_edit_dialog_remove,8019,0.4154761904761905,1,5.0,0.75,0,0.48648648648648685,0,0
com.gelakinetic.mtgfam,v3.2.2,@+id/low$app_name,8022,0.3833333333333333,1,1.0,0.7666666666666666,0,-3.513513513513513,0,0
com.gelakinetic.mtgfam,v3.2.2,@+id/low$app_name,8024,0.3333333333333333,1,4.0,0.5439814814814815,0,-0.5135135135135132,0,0
com.gelakinetic.mtgfam,v3.2.2,@+id/low$app_name,8021,0.22833333333333336,1,1.0,0.48555555555555563,0,-3.513513513513513,0,0
com.gelakinetic.mtgfam,v3.2.2,@+id/status$app_name,8027,0.30583333333333335,2,1.0,0.6261111111111111,0,-3.513513513513513,0,0
com.gelakinetic.mtgfam,v3.2.2,@+id/status$app_name,8028,0.3333333333333333,1,4.0,0.5439814814814815,0,-0.5135135135135132,0,0
com.gelakinetic.mtgfam,v3.2.2,@+id/name_search$,8034,0.4611111111111111,3,2.3333333333333335,0.6646604938271604,0,-2.1801801801801797,0,0
com.gelakinetic.mtgfam,v3.2.2,@+id/name_search$,8035,0.22833333333333336,1,1.0,0.48555555555555563,0,-3.513513513513513,0,0
com.gelakinetic.mtgfam,v3.2.2,@+id/name_search$,8031,0.5,1,4.0,0.475,0,-0.5135135135135132,0,0
com.gelakinetic.mtgfam,v3.2.2,"@+id/name$Vorinclex, Voice of Hunger",8039,0.3833333333333333,1,1.0,0.7666666666666666,0,-3.513513513513513,0,0
com.gelakinetic.mtgfam,v3.2.2,"@+id/name$Vorinclex, Voice of Hunger",8038,0.3333333333333333,1,4.0,0.5439814814814815,0,-0.5135135135135132,0,0
com.gelakinetic.mtgfam,v3.2.2,"@+id/name$Vorinclex, Voice of Hunger",8036,0.22833333333333336,1,1.0,0.48555555555555563,0,-3.513513513513513,0,0
com.gelakinetic.mtgfam,v3.2.2,@+id/rt_time_picker$,8043,0.19166666666666665,2,1.0,0.3833333333333333,0,-3.513513513513513,0,0
com.gelakinetic.mtgfam,v3.2.2,@+id/rt_time_picker$,8045,0.6666666666666666,1,2.0,0.6833333333333332,0,-2.513513513513513,0,0
com.gelakinetic.mtgfam,v3.2.2,@+id/rt_time_picker$,8044,0.5,1,5.0,1.0,0,0.48648648648648685,0,0
com.gelakinetic.mtgfam,v3.2.2,@+id/pricelink$app_name,8049,0.3833333333333333,1,1.0,0.7666666666666666,0,-3.513513513513513,0,0
com.gelakinetic.mtgfam,v3.2.2,@+id/pricelink$app_name,8047,0.3333333333333333,1,4.0,0.5439814814814815,0,-0.5135135135135132,0,0
com.gelakinetic.mtgfam,v3.2.2,@+id/pricelink$app_name,8050,0.22833333333333336,1,1.0,0.48555555555555563,0,-3.513513513513513,0,0
com.gelakinetic.mtgfam,v3.2.2,@+id/med$app_name,8051,0.3583333333333333,2,2.5,0.655324074074074,0,-2.013513513513513,0,0
com.gelakinetic.mtgfam,v3.2.2,@+id/med$app_name,8052,0.22833333333333336,1,1.0,0.48555555555555563,0,-3.513513513513513,0,0
com.gelakinetic.mtgfam,v3.2.2,@+id/high$app_name,8059,0.3583333333333333,2,2.5,0.655324074074074,0,-2.013513513513513,0,0
com.gelakinetic.mtgfam,v3.2.2,@+id/high$app_name,8058,0.22833333333333336,1,1.0,0.48555555555555563,0,-3.513513513513513,0,0
com.gelakinetic.mtgfam,v3.2.2,@+id/traderDialogChangeSet$trader_edit_dialog_change_set,8062,0.42916666666666664,2,3.0,0.6833333333333333,0,-1.5135135135135132,0,0
com.gelakinetic.mtgfam,v3.2.2,@+id/traderDialogChangeSet$trader_edit_dialog_change_set,8063,0.4154761904761905,1,5.0,0.75,0,0.48648648648648685,0,0
com.gelakinetic.mtgfam,v3.2.2,@+id/player_readout$life_counter_twenty,8066,0.625,1,4.0,1.0,0,-0.5135135135135132,0,0
com.gelakinetic.mtgfam,v3.2.2,@+id/player_plus5$life_counter_plus_five,8074,0.625,1,4.0,1.0,0,-0.5135135135135132,0,0
com.gelakinetic.mtgfam,v3.2.2,@+id/player_history$,8079,0.625,1,4.0,1.0,0,-0.5135135135135132,0,0
com.gelakinetic.mtgfam,v3.2.2,@+id/player_minus5$life_counter_minus_five,8084,0.625,1,4.0,1.0,0,-0.5135135135135132,0,0
com.gelakinetic.mtgfam,v3.2.2,@+id/player_readout$mana_pool_zero,8089,0.625,1,4.0,1.0,0,-0.5135135135135132,0,0
com.gelakinetic.mtgfam,v3.2.2,@+id/widget_search$,8093,0.5833333333333333,2,3.0,0.5791666666666666,0,-1.5135135135135132,0,0
com.gelakinetic.mtgfam,v3.2.2,@+id/searchbutton$search_search,8100,0.6666666666666666,1,2.0,0.6833333333333332,0,-2.513513513513513,0,0
com.gelakinetic.mtgfam,v3.2.2,@+id/searchbutton$search_search,8099,0.5,1,4.0,0.475,0,-0.5135135135135132,0,0
com.gelakinetic.mtgfam,v3.2.2,@+id/clear_button$,8101,0.6666666666666666,1,2.0,0.6833333333333332,0,-2.513513513513513,0,0
com.gelakinetic.mtgfam,v3.2.2,@+id/clear_button$,8102,0.3916666666666667,1,4.0,0.7666666666666667,0,-0.5135135135135132,0,0
com.gelakinetic.mtgfam,v3.2.2,@+id/rules_item_header$mana_pool_zero,8109,0.22833333333333336,1,1.0,0.48555555555555563,0,-3.513513513513513,0,0
com.gelakinetic.mtgfam,v3.2.2,@+id/widget_rules$,8114,0.22833333333333336,1,1.0,0.48555555555555563,0,-3.513513513513513,0,0
com.gelakinetic.mtgfam,v3.2.2,@+id/rules$,8116,0.22833333333333336,1,1.0,0.48555555555555563,0,-3.513513513513513,0,0
com.gelakinetic.mtgfam,v3.2.2,@+id/widget_wish$,8122,0.7000000000000001,1,4.0,0.6666666666666666,0,-0.5135135135135132,0,0
com.gelakinetic.mtgfam,v3.2.2,@+id/widget_wish$,8123,0.3225,1,4.0,0.45,0,-0.5135135135135132,0,0
com.gelakinetic.mtgfam,v3.2.2,@+id/widget_dice$,8129,0.7000000000000001,1,4.0,0.6666666666666666,0,-0.5135135135135132,0,0
com.gelakinetic.mtgfam,v3.2.2,@+id/powChoice$,8131,0.3616666666666667,1,5.0,0.25,0,0.48648648648648685,0,0
com.gelakinetic.mtgfam,v3.2.2,@+id/cmcChoice$,8140,0.3616666666666667,1,5.0,0.25,0,0.48648648648648685,0,0
com.gelakinetic.mtgfam,v3.2.2,@+id/touChoice$,8142,0.3616666666666667,1,5.0,0.25,0,0.48648648648648685,0,0
com.gelakinetic.mtgfam,v3.2.2,@+id/seekBarPrefUnitsRight$,8147,0.5,1,4.0,0.475,0,-0.5135135135135132,0,0
com.gelakinetic.mtgfam,v3.2.2,@+id/seekBarPrefUnitsLeft$,8151,0.5,1,4.0,0.475,0,-0.5135135135135132,0,0
com.gelakinetic.mtgfam,v3.2.2,@+id/progress_bar$,8159,0.5,1,4.0,0.475,0,-0.5135135135135132,0,0
com.gelakinetic.mtgfam,v3.2.2,@+id/seekBarPrefValue$,8165,0.5,1,4.0,0.475,0,-0.5135135135135132,0,0
com.gelakinetic.mtgfam,v3.2.2,@+id/seekBarPrefSeekBar$,8166,0.5,1,4.0,0.475,0,-0.5135135135135132,0,0
com.gelakinetic.mtgfam,v3.2.2,@+id/checkBoxU$,8173,0.475,1,5.0,0.6000000000000001,0,0.48648648648648685,0,0
com.gelakinetic.mtgfam,v3.2.2,@+id/reset_button$,8179,0.3916666666666667,1,4.0,0.7666666666666667,0,-0.5135135135135132,0,0
com.gelakinetic.mtgfam,v3.2.2,@+id/life_button$,8183,0.3916666666666667,1,4.0,0.7666666666666667,0,-0.5135135135135132,0,0
com.gelakinetic.mtgfam,v3.2.2,@+id/poison_button$,8190,0.3916666666666667,1,4.0,0.7666666666666667,0,-0.5135135135135132,0,0
com.gelakinetic.mtgfam,v3.2.2,@+id/transform_button_divider$,8192,0.3916666666666667,1,4.0,0.7666666666666667,0,-0.5135135135135132,0,0
com.gelakinetic.mtgfam,v3.2.2,@+id/commander_button$,8200,0.3916666666666667,1,4.0,0.7666666666666667,0,-0.5135135135135132,0,0
