Topic,Words
0,0.098*love,0.095*debate,0.087*timing,0.087*we,0.083*a,0.076*helps,0.069*lot,0.054*would,0.043*help,0.036*too
1,0.151*this,0.102*would,0.077*debate,0.073*me,0.072*change,0.060*my,0.053*love,0.052*the,0.049*too,0.041*we
2,0.176*alike,0.142*best,0.083*this,0.067*official,0.064*love,0.056*my,0.052*could,0.051*we,0.047*me,0.046*timer
3,0.115*my,0.096*change,0.092*official,0.087*alike,0.072*would,0.060*me,0.060*lot,0.057*help,0.047*love,0.046*we
4,0.181*timers,0.139*best,0.099*timer,0.097*we,0.069*my,0.064*alike,0.054*would,0.040*if,0.036*this,0.033*and
5,0.124*timer,0.100*alike,0.093*for,0.076*if,0.073*best,0.070*official,0.060*the,0.055*timers,0.052*debate,0.048*we
6,0.178*this,0.175*timers,0.153*timing,0.104*alike,0.055*timer,0.040*lot,0.039*we,0.032*my,0.031*could,0.028*change
7,0.215*my,0.101*if,0.077*change,0.074*me,0.063*the,0.056*timing,0.054*for,0.049*best,0.044*adjudicators,0.034*and
8,0.127*if,0.093*alike,0.092*lot,0.088*for,0.084*the,0.082*me,0.064*debate,0.049*too,0.038*official,0.037*a
9,0.140*helps,0.086*timer,0.076*too,0.074*adjudicators,0.071*would,0.067*we,0.067*love,0.054*my,0.048*best,0.041*the
10,0.123*the,0.095*and,0.094*love,0.080*adjudicators,0.069*if,0.065*for,0.065*a,0.059*timer,0.046*alike,0.042*official
11,0.159*my,0.139*we,0.107*the,0.079*change,0.078*if,0.053*help,0.051*official,0.046*best,0.043*too,0.039*would
12,0.183*alike,0.170*timing,0.166*help,0.101*my,0.062*this,0.052*could,0.045*a,0.038*official,0.026*debate,0.025*lot
13,0.150*official,0.119*alike,0.081*timer,0.081*debate,0.079*lot,0.056*for,0.052*helps,0.044*this,0.041*timing,0.034*if
14,0.127*my,0.111*me,0.100*would,0.082*this,0.068*timers,0.063*official,0.061*and,0.052*adjudicators,0.047*too,0.044*we
15,0.108*timing,0.105*helps,0.102*debate,0.081*alike,0.075*official,0.075*timer,0.064*love,0.061*if,0.057*adjudicators,0.049*change
16,0.166*adjudicators,0.121*a,0.089*alike,0.067*for,0.064*love,0.061*this,0.060*me,0.043*helps,0.043*change,0.036*would
17,0.151*best,0.079*if,0.071*timers,0.069*for,0.060*we,0.059*a,0.054*debate,0.052*my,0.047*official,0.044*timer
18,0.125*official,0.111*would,0.104*a,0.094*change,0.080*best,0.068*timer,0.063*the,0.057*debate,0.056*alike,0.042*too
19,0.171*lot,0.095*timer,0.091*could,0.088*would,0.064*official,0.064*help,0.051*debate,0.048*a,0.042*timing,0.033*love
