remove reference to inexistent string these were removed in but not removed from the preference,b,2014/8/04,,
improve preference summary string,b,2014/8/04,,
remove some redundant summary,o,2014/8/04,,
for interval slider,o,2014/8/04,,
fix color picker layout,b,2014/8/04,,
cleanup resource in this avoid causing problem in thread purging some undesired texture,b,2014/8/04,,
update string update string to make them easier to understand,b,2014/8/04,,
