App,Store,App ID,Review ID,Country,Version,Rating,Date,Author,Subject,Body,Translated Subject,Translated Body
GreenBits Bitcoin Wallet,Google Play,com.greenaddress.greenbits_android_wallet,Z3A6QU9xcFRPR2ppVEkyRWFIeHVMSmlIN3IzcWtWTHZ1Ri14bUt3NDZwbkVFZVlSZWZKaTJkeEozTEd0OHZWdmg4NC1DQ1N0LWtBbm9pQ3FTaGNBZDJvZ1E,English,,5,2015-02-13,Zachary Winch,First TREZOR android wallet,i love being able to use my a hot wallet with,,
GreenBits Bitcoin Wallet,Google Play,com.greenaddress.greenbits_android_wallet,Z3A6QU9xcFRPR2ppVEkyRWFIeHVMSmlIN3IzcWtWTHZ1Ri14bUt3NDZwbkVFZVlSZWZKaTJkeEozTEd0OHZWdmg4NC1DQ1N0LWtBbm9pQ3FTaGNBZDJvZ1E,English,,5,2015-02-13,Zachary Winch,First TREZOR android wallet,i only wish there wa a way to create a 1 of 1 wallet with it if you wanted,,
GreenBits Bitcoin Wallet,Google Play,com.greenaddress.greenbits_android_wallet,Z3A6QU9xcFRPR2ppVEkyRWFIeHVMSmlIN3IzcWtWTHZ1Ri14bUt3NDZwbkVFZVlSZWZKaTJkeEozTEd0OHZWdmg4NC1DQ1N0LWtBbm9pQ3FTaGNBZDJvZ1E,English,,5,2015-02-13,Zachary Winch,First TREZOR android wallet,i know green address is all about the 2 of 2 or 2 of 3 but i would still like the option,,
GreenBits Bitcoin Wallet,Google Play,com.greenaddress.greenbits_android_wallet,Z3A6QU9xcFRPRXRkRXZfX1pkVHdubFl1bmdQZTNTWnFRRzd3M0hjVUcwOV9idWp2dGZodHh2WHBabng2MFNXZUx5ZmowcllERW5GUjVKX1VJRm9wVm5mRXc,English,,1,2015-02-13,Simon Levesque,Extremely buggy. Unusable,i thought the issue were limited to the but same story confirmation of qr code crash on galaxy,,
GreenBits Bitcoin Wallet,Google Play,com.greenaddress.greenbits_android_wallet,Z3A6QU9xcFRPRXRkRXZfX1pkVHdubFl1bmdQZTNTWnFRRzd3M0hjVUcwOV9idWp2dGZodHh2WHBabng2MFNXZUx5ZmowcllERW5GUjVKX1VJRm9wVm5mRXc,English,,1,2015-02-13,Simon Levesque,Extremely buggy. Unusable,zero star,,
