App,Store,App ID,Review ID,Country,Version,Rating,Date,Author,Subject,Body,Translated Subject,Translated Body
GreenBits Bitcoin Wallet,Google Play,com.greenaddress.greenbits_android_wallet,Z3A6QU9xcFRPRklCeTJ3Yy1JQ016WUM2OGpKdDlQYzdkTmlucWhKVlRadzFTTnFYV0ZQQVpPaENhQVJmT2xqbHNTazItVXpYQ0h5T0kxWEJYUGt4RkdFZ1E,English,,5,2016-03-22,Ferdz D.,,awesome,,
GreenBits Bitcoin Wallet,Google Play,com.greenaddress.greenbits_android_wallet,Z3A6QU9xcFRPRklCeTJ3Yy1JQ016WUM2OGpKdDlQYzdkTmlucWhKVlRadzFTTnFYV0ZQQVpPaENhQVJmT2xqbHNTazItVXpYQ0h5T0kxWEJYUGt4RkdFZ1E,English,,5,2016-03-22,Ferdz D.,,must try this one,,
