# deletions,date,commit message
6,2012/12/23,Added new tanks of WoT 8.2 update extended changelog (Spanish translation by Christina Vidal) fixed typo in German AboutText changed version number to 1.7/9
3,2012/12/23,Now tanks generate from xml tanks.xml
582,2012/12/23,Branch up to actual version of master
25,2012/11/21,Set textColor values for buttons with custom style to #000000 to avoid problems on phones with modified system styles
229,2012/11/10,Added tanks of WoT 8.1 update made new screenshot revised LICENSE.txt extended Changelog changed version number to 1.6/8 removed seperation of premium tanks in All Images folder and removed isPremium property from Tank class
1,2012/10/12,Changed android:targetSdkVersion to 16
7,2012/10/12,Fixed spelling mistake in resource files that made the app crash when displayed in english changed InputType of EditText in highscoredialog.xml again into textCapWords
3,2012/10/12,Changed InputType of EditText in highscoredialog.xml from text to textPersonName
38,2012/10/12,Solved problem about the textAllCaps different now: deleted the additional resource entries again generating the strings programmatically now
13,2012/10/11,Removed the textAllCaps attribute due to compatibility for older Android version added additional resources instead
313,2012/10/11,Added new Spanish translateion by Christina Vidal revised READMEplease.txt again removed German Copyright notices from source code changed version name to 1.5 and versin code to 7
41,2012/10/11,Tanks of WoT 8.0 Update added revised AboutText ChangelogText (within that also Changelog.txt; already translated to German) and READMEplease.txt cleaned up Font folder
6,2012/10/06,Fixed padding of Play button
2,2012/10/06,Removed unused import
26,2012/10/06,Preparations for Russian translation removed
1,2012/9/08,About-dialog button text was hardcoded fixed.
2,2012/9/08,Added Spanish translation by Christina Vidal added Spanish characters to the Destroy font
12,2012/8/20,Corrected last commit (alternate answer selection) every tank is only once selected as a solution now (until all tanks where selected once)
34,2012/8/18,Improved Answer selection (no more blanc fields Typ 59 possible as correct answer now)
12,2012/8/17,Removed Easy-Medium-Hard array from resource files
0,2012/8/14,New Header finished. WoT logo downscaled from 1000px width to 500px width
4,2012/8/13,Removed Kate temp file >.<
92,2012/8/13,Revomed unused fonts improved button padding
92,2012/8/13,Revomed unused fonts improved button padding
22,2012/8/13,Bugs fixed new design is finished
40,2012/8/11,First draft
93,2012/8/11,Localisation nearly finished Russian translation not implemented yet
9,2012/8/08,Removed two desktop.ini files from repository
112,2012/8/08,Made all strings translatable translated all strings exept the about text to German applied new style to buttons tried some fonts added Changelog Button for debug purposes
2,2012/8/07,All tanks of German Tankopedia WoT version 7.5 included
13,2012/8/07,First preparations
18,2012/8/07,Version 1.4
4,2012/8/07,Version 1.3
10,2012/8/07,Version 1.2.1
13,2012/8/07,Version 1.2
5,2012/8/07,Version 1.1
