App,Store,App ID,Review ID,Country,Version,Rating,Date,Author,Subject,Body,Translated Subject,Translated Body
WoT Tank Quiz,Google Play,mazechazer.android.wottankquiz,Z3A6QU9xcFRPR2lpQmZEZVpzbHQzejY3MTI4TFYzN2wxWjNlVzFSWjN0RUlwVktRRE9meXJibUJBOGRSWUNTYVNCemk4UzlYYzdMN3BjRjdjcjlzZFd2UmpR,English,,3,2017-04-06,H Smith,"",Omg i cant see the tanks. They are way small and dark. Change background to white please.,,
WoT Tank Quiz,Google Play,mazechazer.android.wottankquiz,Z3A6QU9xcFRPRkJiSlBvQUtmdnNsekVYREJpLXBkZDlOOHlIZ3NLdlZjZHJJUktmalotN25iVlpCdWg4UXIwMDZQd1lzbVRCMnJ6SElRMXdVSXFhU2xPZ0d3,English,,5,2017-01-10,Abdul Qayyum,Android 263,Great !,,
WoT Tank Quiz,Google Play,mazechazer.android.wottankquiz,Z3A6QU9xcFRPSEpPV0pVSzhodjdMaENtWHEyR0JrTUd1MG42RUROVDNEVTNrTzJHai1uV1hCdlZxZHZuazI2U1p2dmxOSzA4TEpBQXd3YUJvSUdmN1FRT1o0,English,,2,2017-01-06,The Charger,"",I know the tanks at first glance but its hard finding the the right one to the wrong ones so could you make it easier to see the options like seriously once i failed a question just cause it was so hard reading the m (hated the game only 2 stars ONLY cause cood time killer but otherwise bad game),,
WoT Tank Quiz,Google Play,mazechazer.android.wottankquiz,Z3A6QU9xcFRPRkVMbm1Oem43cGFleWtRT2hCNW80T01HbGp1VTBMenNPUllUUlZaNDBpb3NGdVg2WTZodmw3WUp1UWY3Q3I5aU9Vb1JGUFRiaEdScXVGOU1n,English,,1,2016-04-20,mr. deefoster,Look at me ma!! I learning about tank!!,Useless!,,
WoT Tank Quiz,Google Play,mazechazer.android.wottankquiz,Z3A6QU9xcFRPRk1SMmN1WUNqYzZjQU95QnFLTlJxbG45a0ktZ1NqUFRNS0pqOHBsWjJLNmNFZC1yRm5xaEE3TjdfdVlhMTJNdGdYV3JYVjBXMGEwbHVnTWxn,English,,5,2016-03-24,Stefan Kolov,"",Add tanks from 9.14 update :),,
WoT Tank Quiz,Google Play,mazechazer.android.wottankquiz,Z3A6QU9xcFRPR2R0RWR3UUVMRVE4VGVNLUZfYWh1b2xndkhsdmNRSF9pZWQ1akpKZ2FyWDNsd25oSEl2UXUyWlN2bXRCV3lNYVZqYWtFdUhBM2p3OWN6X1Yw,English,,4,2016-03-05,Roland Ramos,Good,Good game,,
WoT Tank Quiz,Google Play,mazechazer.android.wottankquiz,Z3A6QU9xcFRPRl9RY2xwWDVrSk9lc3A5dTZTTndqYU9KMTdsOERRcWZkMFZESWNmeGlKY2FwdDlncXNSekZkTVFTdERuaFRDZm1pYTdPRndtdkdlYlBOekNZ,English,,5,2016-03-04,Bobby Apelian,Awesome time waster,Great if you're just sitting around. But it does need to be updated.,,
WoT Tank Quiz,Google Play,mazechazer.android.wottankquiz,Z3A6QU9xcFRPRjJBX2JRaS1weXJna2tMcnJFN3dGZHNrSzhrS2FjbEpPTE9zVGFsSElkbzdLOUZya0t4eWtybkNlNXh5UW9haDN1Ymh6c0cxcWYySzhHQWRn,English,,3,2016-02-24,king Baka,"",Its OK,,
WoT Tank Quiz,Google Play,mazechazer.android.wottankquiz,Z3A6QU9xcFRPRXZpTm9mUEtRbVRUclY2RHM5dE9vR2ZnclJLaENFMHhCVTlYNHBSdmo1dFJPaGJGZi1LcGNZN053QzQ2Z1ZwdXlxMW1WOFJSbWhDaEFtYmZn,English,,4,2016-01-14,darkspineshadow100,Nice as expected.,"Just for the hell of it, I've been looking for one of these to keep busy. This one is quite nice, but one issue I have is that after about 20 tanks, it asks me for a name, and when I put a name in, it boots me to the home page.",,
WoT Tank Quiz,Google Play,mazechazer.android.wottankquiz,Z3A6QU9xcFRPR25feUpTSFJTY0JhaWUtWXROX0N1Rmp1N2JSendkdnhzLTg0cDhKeEN6ZElPeEdXMmJXbGVqSHU4d3VQaTViaENIRU1FY2tGWGtJYUUwU1VB,English,,1,2015-06-20,Raidon Reyes,Not fun,All you have to do is guess the name of the tank,,
WoT Tank Quiz,Google Play,mazechazer.android.wottankquiz,Z3A6QU9xcFRPRkRXVVItS0RDaU1ZYm1PM1c4d2RGT2YyOVVwV3V4M1hDdm91NUdtTUdNdTJXcmVCb2dvMGVzMExkVEtXdklDYkYxZk5pSVFONUVDMlBUcTJZ,English,,4,2015-02-22,main d,"",Pics are too small. Otherwise it is fun.,,
WoT Tank Quiz,Google Play,mazechazer.android.wottankquiz,Z3A6QU9xcFRPSHkyTmFTb2RjX3BubDBEak9vUTdUWFBneWFCMl9Hcm1vXzRkd1ozdjB4U083eDFjUjF0MVdxRWoyTUl6eFZZNjdDSUNmQWVQVkowcVpqU2Yw,English,,4,2014-12-30,Ariunbaatar Temuulen,Awww yeah,"Been lookong for quite some time for a mobile app of wot, and if u add a hall of fame that includes other people i will surely give 5 stars btw nice app",,
WoT Tank Quiz,Google Play,mazechazer.android.wottankquiz,Z3A6QU9xcFRPRmlpdE56V3VULVBqek10NHE1VUw5Y2czYWdOLVNKUUtPVl93SEZfSmlnVnpBUnZmSUtDUW1Cd09jNjcxZlplVVI2a3h1TjlSX1ctMTF4bWlV,English,,5,2014-12-09,jay headly,Nevec,I love this app. Its fun showing people that i know too much about wot,,
WoT Tank Quiz,Google Play,mazechazer.android.wottankquiz,Z3A6QU9xcFRPRno0OVRfUlpDZ2ZxWDEyM0lQTFlaR3BKRFZ3bURRQ2JidmdyLVFtamUwMTVOODhUUHhtQ3ZNZkd3bE1fQzJnRkdTd1BZWlZic3AwOVFtVWlB,Korean,,5,2016-09-07,L ARK,재밌음,.,,
WoT Tank Quiz,Google Play,mazechazer.android.wottankquiz,Z3A6QU9xcFRPSDFUblVpMHVWUjFiRWkyUEtSLS1sNWdXajBMLXZPQnVsRHF0akk2TjFHT29NQy0tVGdmeERoajduMXdvX2NETUs2dDJpUUk5NHc3SUhGSmJj,Korean,,5,2015-01-25,윤찬호,OMG,It soHARD www,,
WoT Tank Quiz,Google Play,mazechazer.android.wottankquiz,Z3A6QU9xcFRPR21xRnNORmVwUFhNWFpYaW5lZm9nQTV2RFl4YVkyTHptVlU4Qzg2TThkX21GU3UteXpfRVFWeW44Q1lrMHdJc2VwQ3Vpd190RWQyNXVHX184,Dutch,,3,2016-01-26,Floris Martens,Wot,9.13 is out.....,,
WoT Tank Quiz,Google Play,mazechazer.android.wottankquiz,Z3A6QU9xcFRPSEtKdl9tNEpQR3EyVV8wLW9UazVGWUQ3eFlPOHZpb0VFZVNRRWxwZ25HSlJEQjJyY01RaDdZRmJ5dEU5d2VfZ3E5dUM0bzRmM3l0dkQ1RkFz,Dutch,,5,2015-04-27,Poar Neem'n TITOM,"",Echt nice zo ken je alle tanks heel snel  echt top,,
WoT Tank Quiz,Google Play,mazechazer.android.wottankquiz,Z3A6QU9xcFRPRXd0QkY1ajhvQ0t4ZXMwRzNpQ0RadXNINHdZSTBjYXllaHZGbnkyRktodi1yYzZDejN6ckU2M0RKSUQ3WGNTaWRSVlpKNjJMdUdWS2dBWm9B,Dutch,,4,2015-02-01,Aaron van Wattum,Leuk spel,Deze quiz is wel grappig maar het is van de 9.3 update en 9.6 komt bijna uit dus jullie lopen bijna 3 patches achter... Wanneer komt update voor dit spel??,,
WoT Tank Quiz,Google Play,mazechazer.android.wottankquiz,Z3A6QU9xcFRPSERobHc2a0JTUk9fSDNBMW1rTnM2bTlrQkVaTUlkRGp6eWRPVUNWQi1qTlYxM3NVWmUtVDRGSGdLdWlPYWR6a21xc29TNFlpaWJVNVk0eWh3,French,,5,2017-02-19,"","",J'adore cette apli :),,
WoT Tank Quiz,Google Play,mazechazer.android.wottankquiz,Z3A6QU9xcFRPSDl5Rm5pSjRZNGZSaTBIY19oeDVMLS1tSUtsR2RLR1RwaHVmaExsS0NLOTJ3MG9WcGE4cFFNT2p6WU44OENNVEpfdy1NcjBaa0Y4dlk1OEFF,French,,5,2015-10-04,_M38_,Simpa,Mais pas assez de questions,,
WoT Tank Quiz,Google Play,mazechazer.android.wottankquiz,Z3A6QU9xcFRPRUdrT0ZiM044dU0zZDNUdldaWXdtbDRmbnRDaGo3c21seVFkQkVQdHI1RjBnRkY1MEJPNzRhVjE2SmcwUTF3dTNHUHBhU21OamthaDBOSnpJ,Greek,,5,2016-04-04,gianos kostis,"",I love world of tanks,,
WoT Tank Quiz,Google Play,mazechazer.android.wottankquiz,Z3A6QU9xcFRPSF9NS3d4UGdDWllBOEs3RGJ3VjRlelhQSTluTFZ0NGxQMW1XTjlyWkpzMDFBeEdKNExxbl9jUGZzX1V5cUNwdHg1RGxNbVVEUVVVZVdUdFFJ,Italian,,5,2015-07-17,Mattia sette,"",Carina quando nn si ha un cazz da fare,,
WoT Tank Quiz,Google Play,mazechazer.android.wottankquiz,Z3A6QU9xcFRPRkcyZmhyelFvb2NJSTltT1VjNktBSUtPM0xuYm90Vkdyc3JlaW92WDhJTDJTbWlhcndXd3VrenF2SC1HenUwOGpmdDNIQks5UW5IcVN1MTVR,Chinese (Traditional),,1,2015-08-08,蔡坤豆,白痴遊戲,非常智障,,
WoT Tank Quiz,Google Play,mazechazer.android.wottankquiz,Z3A6QU9xcFRPSE5maXhqNnBCNm5OWHFUcGVnVjRkU21WWjVYTzFSUE5Pa1M0S3hYZ0UtbHI4T1VNNFJxbFdXRU9jeU1BZXdYbnpoeW1Tc1k0dXYzd0NBVDBj,Arabic,,3,2016-04-28,سليمان. سليمان.اولك يا اغبياء انتم شوهتو الإسلام,تلعفر ✌ ✌💖,بعدنا ما شايفين اللعبة ..........,,
WoT Tank Quiz,Google Play,mazechazer.android.wottankquiz,Z3A6QU9xcFRPR3Mwd2EyMkhFYmVSYWRiNnhRSnowY2tVZ21leUMzb2t5ZjA5UjdaOHdJOGpLLW9abl9qdlVycnFfcGdKV2tUMEhwNWtpQnFEU21hVW5oeUlB,Bulgarian,,5,2016-09-18,Georgi Popov,Dobro e,Mnogo,,
WoT Tank Quiz,Google Play,mazechazer.android.wottankquiz,Z3A6QU9xcFRPSHNHcFRGVzlndW9fVEI1MlRlcl9fWTMyY2libWIwOWFva19QV1F4RW9UVWNpSDVsSVQwTFNTNG9QY2JOZEkwRno4WV93VXZoVTJORTlEdzM4,Bulgarian,,5,2016-04-19,FreeKillsBG,Супер игра,Много е яка теглете без да мислите,,
WoT Tank Quiz,Google Play,mazechazer.android.wottankquiz,Z3A6QU9xcFRPSHdUY3dSR2xxYkMxUjUyd3preDlrSnJlUjVpbVlLb0JGZW1RNnBtNXltRDZqZUsxdlp4ajF1Z1lMMTc0U21zTThnZWNfVHkwYzhLdjJCRnVZ,Croatian,,5,2016-06-27,Nicof_ Killer,Najbolje sto sam ikad probao,Svi instalirajte ovo,,
WoT Tank Quiz,Google Play,mazechazer.android.wottankquiz,Z3A6QU9xcFRPSHNCYkhrcl85OGRzcW5ZdE1fX0UzdFFvZmdYUDFEM2g2WXBxTDRGM0s0bkRsbHQwcEJVMEYtd2xnLUJ3eTVCSHBnRkdaSjVzNUZOZjRUZmww,Croatian,,5,2016-02-12,Jagi Jagi,Wot,Za one kaj igraju wot je super,,
WoT Tank Quiz,Google Play,mazechazer.android.wottankquiz,bGc6QU9xcFRPRUcwRnpTWDkyTFF2Z01OaDR1SlZxcE1Eekhna0xJZ045Wjl0RXdwanMzY1lmdW85MGs5OUJqdFdSSGY0WFlzbjdNY0NZU0ZrcmxsOHY5Wlo0,Croatian,,5,2015-12-08,Googleov korisnik,"",Najbolja!!!!,,
WoT Tank Quiz,Google Play,mazechazer.android.wottankquiz,Z3A6QU9xcFRPRUJ4aG9GckgzRlZPN2pYYVh4ZmRaWXpFNE9YUk9MLXBfNTZVWktPUE96MlVMZDdaREQzV05MTmJxZ2xlRFJkR1l5b0F1aTVsbE9VSVJCVVVJ,Croatian,,5,2015-02-22,Ante Raić,Znao sveeeee,Predobraaaa,,
WoT Tank Quiz,Google Play,mazechazer.android.wottankquiz,Z3A6QU9xcFRPSGwzVDVVaDFzNkFnazlLQlBvMVBCUGpkNzRZNjc2MkJScVp2eDJuUUxtNElJazJleG5fa05tMHdfNTdaNmtMdC1BRDdEa2l6NmFFX3Q1M19r,Czech,,3,2017-03-06,sukulent,"",Stará verze.  Prosím update.,,
WoT Tank Quiz,Google Play,mazechazer.android.wottankquiz,Z3A6QU9xcFRPSHphbU1xUklxSUlQdm1IQzVvQlZReWtxbmN2MTE5eXpVME5ReTEzME52OEtLUHppTzMzcHBuVUpST3lHX2tWUTAzMlBsT2tSaDliX2xyNTJv,Czech,,5,2017-01-23,Klára Urbanová,"",Nice  wot quiz :-) :-) :-),,
WoT Tank Quiz,Google Play,mazechazer.android.wottankquiz,Z3A6QU9xcFRPSGg5U2cxUGtpR1BHdjBLMXQxMWZPR2h2ZnhXdk1kT2ZCMzZQb3I1dE1wdEZKdFNLRGxQc1EzNXhtenN1MElhNlAyU2xQT1hpUWlURWx3NThj,Czech,,4,2016-11-22,Jirkas Kriz,Dávám 4,Mě se to furt seka kdyby se mi to nedělalo tak dávám 5 hvězd,,
WoT Tank Quiz,Google Play,mazechazer.android.wottankquiz,Z3A6QU9xcFRPSDBVMWZVb3VzM0NVXzR0RVhWcUJBS1JwcU1MbmZNTnRCZVgzZjlRUUlOdjl1WFM3WnFoRGJVN1cwcXhQVGZoYnBId19mSjRlS2xCSXY3RFpN,Czech,,5,2016-11-20,Oldřich Vaněk,"",Super Quiz,,
WoT Tank Quiz,Google Play,mazechazer.android.wottankquiz,Z3A6QU9xcFRPRkJqZ1lVaUwxTlR4N2pSZEtwSGFiZ3JIT2psVDJNTzlwOU9oWGs0ZzJnbTJha0w3UDlSRXpGMXlrXzVlS25kZWQxQkZHcldZMEtONWxCanNR,Czech,,5,2016-10-31,Stanislav Pumr,"",Super test tanků,,
WoT Tank Quiz,Google Play,mazechazer.android.wottankquiz,Z3A6QU9xcFRPRWJDWVFUUnNkVzdWU0xhWG9xd3FTWWNuMU13QlBOMElTZXUydVN1cEppZjl0dUtDdVFpbWJJeWVsM3pRZFZncFlPb3lJZDNfUnd4UkNDUzZV,Czech,,5,2016-10-31,Girl_Atty _WoT,Gj,"super hra pro ty,co si neumí zapamatovat tanky. Já je znám všechny,ale i tak jsem sem se nedala a stáhla :D",,
WoT Tank Quiz,Google Play,mazechazer.android.wottankquiz,Z3A6QU9xcFRPRjlhLTJseWlISWZjVGJrUDYyZlZoR3EzbjdGVWN5WVlBbUpxTDIwVnRFOFhXUUY0bHRCZi1xMGQtUFExVVFwRlhRcmlWbEFJRzdyYkJaNGt3,Czech,,5,2016-10-29,Lord Rocsen,"",hoohoo,,
WoT Tank Quiz,Google Play,mazechazer.android.wottankquiz,Z3A6QU9xcFRPRUxxOWt4NkhiNlp3c1A5MEtFM252Qks5MHBRYTZ5cFYtVVNibXg0akFjaVQtcWVtSER0VUlncnBDdWhvSFBIRXo3VjZYSjVsdDMxNkJmR3Z3,Czech,,5,2016-10-19,Jan Martinák,Super,Nejlepší hra pro milovníky tanků,,
WoT Tank Quiz,Google Play,mazechazer.android.wottankquiz,Z3A6QU9xcFRPRXlvWk5BaDNrdmVUWlhrOUZCOTVTVWI4Y0RFMEl3d0V3ekVlaGZzY0RpdnZBMlpfc3dPVm55XzZCb0x4UlVVZVFZdHhpVWhDamtpN2xPeTNV,Czech,,4,2016-09-17,Gud Fors,Docela dobrý,Jen je to hooooooooodně starý,,
WoT Tank Quiz,Google Play,mazechazer.android.wottankquiz,Z3A6QU9xcFRPRmxDbUJUSnFxVGY1bmhZLUh2MXpaZW5Ba0xmQ29iN01fbTFzNHY0U3hpMG93cFdadHA4V3pWYUdkaWpfa3ZETW5uSGR3MGxRekJfc1lOYXU4,Czech,,5,2016-05-20,Miroslav Maslo,Mega hra,Jenom by mohl zvetsit obrazky jinak super hra,,
WoT Tank Quiz,Google Play,mazechazer.android.wottankquiz,Z3A6QU9xcFRPRWdOU2p1SFdnbnVob1UtbXZnc3JFVkZQeFNNSVJLcGQ5TGIxcTJqYnRubG92OVNjajREbXctZ1dtdWdMTUo0NzI4bTd2QWYyZFNIamFwYm0w,Czech,,1,2016-04-20,Kappa Cool,Debilita,Twl to je debilní Sexton I i Sexton II vypadají na flek stejně to jděte někam s takovou appkou **,,
WoT Tank Quiz,Google Play,mazechazer.android.wottankquiz,Z3A6QU9xcFRPRmVJWEFlYTFlM2FycVBQSHAxV0dQZ19kdVZ0MzY0NXNscWtONDVuT3lFZkJGQWNBYVZXWlJfRDRUYkFVNHFfMkc2d3hjd0p4d3hhR2pvOTVZ,Czech,,5,2016-04-20,KEGAN Havlicek,"",Ja vyhrát oú je,,
WoT Tank Quiz,Google Play,mazechazer.android.wottankquiz,Z3A6QU9xcFRPR2tCYk5nZWV5MTVmZVREdEpjZ2FxYWQyUDdZdUE2Ujh5bFA1cFJjbXQ0aUhkcWY1OEVXa3RWdWNoc1Vld3NRVlVtUlFMbDFsb2lHQ1ItSnpF,Czech,,5,2016-04-10,Kvok Kvok,"",Dobré,,
WoT Tank Quiz,Google Play,mazechazer.android.wottankquiz,Z3A6QU9xcFRPSHhGOFlyOTlXWGFLU21qTDdSSk5WUGdLcXItdDBNZEJyQnBGZ0lLbVNDNHRGMGJ1SnZaRDh1NHRSbzFxZVZfMEtidFFMbFhEanNtbV9hR09B,Czech,,5,2016-02-28,Matas 03,Jsem nej,Mám rekord 34!,,
WoT Tank Quiz,Google Play,mazechazer.android.wottankquiz,Z3A6QU9xcFRPRndqVTBqVHBjcXpVVU9fcmZ0WGJkLXM4MmdDLXNCaDlYdmVFVk5fYUg4UW1XZi1ZRDFWaUl5RFNhREJNdGdEVlJub1RnbUZDYjI3MEVESGxr,Czech,,5,2015-12-18,Martin Hrubý,"",Moc lehke,,
WoT Tank Quiz,Google Play,mazechazer.android.wottankquiz,Z3A6QU9xcFRPSHFwU2NqVzc2ejl6UndKYVlSZkJpWGtZWDZwYmtDZjJWS05wdENtdlppRi1idV9IeGd3V2lyejBwb0RjeFhRN19GdFZRakVXN0g5eEhBLXBr,Czech,,5,2015-07-03,Jana Krafkova,Vynikajici,Je to dobra aplikace pro ty co hraji world of tanks a uz ho dlouho nehrali tak si zopakuji tanky. Dekuji Jana Krafkova,,
WoT Tank Quiz,Google Play,mazechazer.android.wottankquiz,Z3A6QU9xcFRPRlJIVVpZYU83cXQtOXZjakF3STh6emJSTnBjU09saDM1ZUROMmJ1SHVGRWt4N0ZDdldtLXB5V3BUMHR1TVc0TVBySFJpdlZ1OHlpaW1HLVUw,Czech,,5,2015-05-05,Matysacek_21 Wis.,"",Kdyz chces znat tanky lip tak je to dobry        pro mě naprd,,
WoT Tank Quiz,Google Play,mazechazer.android.wottankquiz,Z3A6QU9xcFRPRWlWTHljWnFRNzQwcUJrTGdPeUtXYms2UzZNTzlDZ0FRRXdmVkpELTRhVkw5UzhXVWJWUEQwWVRKbDlxaTN6ZjlxVGhKRlhQTHRmNVliTUZv,Czech,,5,2015-03-13,Vít Volánek,Wau,Super hra ale krátký,,
WoT Tank Quiz,Google Play,mazechazer.android.wottankquiz,Z3A6QU9xcFRPRzJzd0ZiMXpXa0NqOTJBUXRweXBqckdORmJTR2JCTUcwaVRvdGxLVkhQTlVwMWd4UUpCTHVZNkNZUzBOYlFqMm5kMUxHRjJxUDAwclpyUElB,Czech,,5,2014-12-18,Roman Dramor,Huawei P6,"Kvalitní aplikace ... Snadné ovládání, pokud se chcete stát mistry v poznávání tanků z WoT, tak určitě stahuje ... Ale není to na dlouhodobé používání a po čase omrzí, čekal bych také nějaké lepší vylepšení ... I přesto pět hvězdiček .",,
WoT Tank Quiz,Google Play,mazechazer.android.wottankquiz,Z3A6QU9xcFRPRmpQc0x4MUZmckVGUzFIem9pZGpxX3FmbW80QVFvRFVIbi05b0NzS0JFZWI5VmI2UzlJTlBhcE15YXE4cHNHZmlGbE5pUHZBV1c3U1pva2tR,Finnish,,4,2016-04-19,Arttu Sihvonen,Nice!,You need to add mode where is no timer.,,
WoT Tank Quiz,Google Play,mazechazer.android.wottankquiz,Z3A6QU9xcFRPSEU1dUhCdzA2bjB6OWNrbmFUSmRkRGVLN2JxRXRFZnIzMUdIYjlqX1RtUi1IUEtYLXF6SmRQXzBnd19ZNVlac3kzZ1VCX2FtUXRxQ1dCdzdn,Finnish,,5,2015-05-15,Niklas R,"",Hyvä mutta aivan liian helppo,,
WoT Tank Quiz,Google Play,mazechazer.android.wottankquiz,Z3A6QU9xcFRPRXQ0YWVlYy1jdWdkXzNFOHRITXFSQ3FXck1UUnc1T2ptRlpLcjkxR3JkbDVEZjRqRnRacTREYXN2M05MaXBiTzFobGtLVEtJb0dtcVNNZ2R3,Finnish,,5,2015-04-10,Ismo Palviainen,Mahtava,Jos haluu opetella tankkien nimiä ulkoa nii tää on best app,,
WoT Tank Quiz,Google Play,mazechazer.android.wottankquiz,Z3A6QU9xcFRPR08zVmtNRFZ2S09TU0RaWWNWWXFUb3lVRlFXYWk1ZTAzbnZEdFJiVE9aVEk2eFg5cU5yTFhVNmc5OGpqWjhRbS1BX0tTc1BtdXJkSUVxYUFB,Finnish,,3,2015-02-08,Pipsunen,Minä pidän itse:,"Näyttää hyvältä en ole vielä kokeillut, joten aion kokeilla. Hei kaikille.",,
WoT Tank Quiz,Google Play,mazechazer.android.wottankquiz,Z3A6QU9xcFRPSGFmdUVBb2ZQTmtTUjBPMXRSaEhWVkVVMFM1QUVFbjIzOHNtTnlvdmUzVGhlNjhmbU1tV2c3alFBRlRxaVdORzY2RUJBejVJUkRPU28wVnQ0,German,,5,2017-05-07,The Destroyer,"",Super Spiel Mega gut für WoT Fans,,
WoT Tank Quiz,Google Play,mazechazer.android.wottankquiz,Z3A6QU9xcFRPRnUzX3BsWHJUa2xzVFNqWnI3RlVTZEdHM1hBYTBtQ1VlT1pqbTBXT0xEZGNodVFrS3hFWmtpZ2s4TmE2M25yR1l5X1hmOVdicEVxYmlLa2xn,German,,3,2017-04-25,Jörk Zawadzinski,"",Gutes Spiel nur leider ist das Bildmaterial Grotten schlecht etwas größere Darstellung und einige Modell etwas heller wer besser. Top wenn die Modelle sich heransummen lassen würden oder 3D animiert sich drehen würden.,,
WoT Tank Quiz,Google Play,mazechazer.android.wottankquiz,Z3A6QU9xcFRPRVhOTmlWUGt3dzlnTTNEbHJBMWhRUHMtaTBrMEsteE8zclRoaGNJR3p4TUNxWG1FS0dyQW9jTFY1U1MtWnlDUGlHYmVybmNYOTIxd3laM1Zz,German,,4,2017-03-13,Maria Grötzl,"",Relativ gutes quiz für zwischendurch aber schon ziemlich leicht wenn man sich in wot gut auskennt,,
WoT Tank Quiz,Google Play,mazechazer.android.wottankquiz,Z3A6QU9xcFRPRjNuanFwSlhfUEwzSnJqd05TalNhZ3ZLallUTmVNY1lvdU9xX1hTRHpWTUNhLXkwYkRtcXJDbElzM0hCZkstclhmdE9COW82SFdQQ21md3BR,German,,4,2017-01-20,Jakob Hermann,Nice aber nicht perfekt!,"Es kommen immerwieder die selben panzer drann... es wechselt nicht sehr oft oder garnicht... positiv: das logo von woT ist oben drauf, die rätselschwierigkeitsstufen kann man angeben, und es ist genauso schwer wie mans haben will... nur was mich noch stört: viel zu wenig zeit! Aber das spiel ist super an sich, eine gute idee! Und nochetwas: es gibt in woT keinen t18 mehr! Bitte ändern! Aber trotz allem nice game ! ! ! :)",,
WoT Tank Quiz,Google Play,mazechazer.android.wottankquiz,Z3A6QU9xcFRPRktnUG5MZU9MQk8tbkJJZHVlM3Q2am12OWFVb3dHQkYzRjFoNnlhQTJyR3h4QVBMVEpsTDctRW9ZbS0xcGdISGpQTmloNlVUNVRINjBycGhn,German,,3,2017-01-05,"omat Let,s play",New Update??,Da es wot in der Version 9.17 gibt fehlen zu viele Tanks,,
WoT Tank Quiz,Google Play,mazechazer.android.wottankquiz,Z3A6QU9xcFRPRTRGU2FJcml6VUVPbkIyZlRSMTcwWDd5Vzl6NDlxd1NKNnBJcHVpdlZaMExibkhXMVN2aVNLaV9adkhrMFN0a0t4LWZheGx3RktSLWxrMHlV,German,,4,2017-01-02,Alexander Hummler,Cool,Joker könnte man einfügen.,,
WoT Tank Quiz,Google Play,mazechazer.android.wottankquiz,Z3A6QU9xcFRPRUcxOURoOUp0S0lac1hlRFZ5eEd6T0Etdm5rZ2hoUkdlUXFCNktrTmF3UUtlR0EtbjZLbGwwODBhSDR5VXRJZ1ZpdVhrT2wwS1ZQWEEyOFdV,German,,5,2016-12-17,Andreas Weidner,Schweden?,Werdet ihr auch dir schwedischen panzer hinzufügen,,
WoT Tank Quiz,Google Play,mazechazer.android.wottankquiz,Z3A6QU9xcFRPRmtuQnoyTlFPMGFFWDRybUtGT1FDLXdDZVhZRHdPckIybFZObzlzV1Z5dmlhOEcwck1GZ2pyRXl0SW9tcW9va04zNjQ2ZTNYYnlXMldaNkZr,German,,3,2016-10-15,LKCrafter l,3,Das Spiel macht Spaß aber es ist nicht auf den aktuellen Versionen nicht angepasst,,
WoT Tank Quiz,Google Play,mazechazer.android.wottankquiz,Z3A6QU9xcFRPRzNYQjl2R0xGcURIZUt2cjlDZnBfNTlrUzZWZ3BtcVpRS3JLM0lnNXR3aTFGM0M4N3VNamV2WjctbGRscXZxaW5NR0FXYnNKdVJZNjFIbXRz,German,,4,2016-08-28,E Play,"","Gute idee, war für mich aber zu einfach. Mein Rekord bei Leicht liegt bei 38 :)",,
WoT Tank Quiz,Google Play,mazechazer.android.wottankquiz,Z3A6QU9xcFRPR2F5TlBuVGVITWwzMjhGSDlDN0NJNUIxSnA0LVFicTJ2U19OYWFnNENuQjVBY0c1NDRSbXIxWTk3dmtYQ3VBX1JCRUVRM19xNXp6VUttWTVn,German,,5,2016-08-26,Diana Suesse,Nice!,Ich bin ja auch ein WOT Spieler und kenne fast alle Panzer.,,
WoT Tank Quiz,Google Play,mazechazer.android.wottankquiz,Z3A6QU9xcFRPR1plN3hIdXo1OTFtdnJuME9Fck9XWFh1UV9KSmluWG84dGU3SWNpV3U3YmR3eW5sMS1iaFU3Wlo0OTN3SWRsN01uekVHM2VUVWFIVEd2WmRJ,German,,4,2016-08-08,Eric Lau,Gut,"Das Spiel ist gut, nur ein bisschen zu einfach für sehr erfahrene oder gute Spieler. Mein Highscore (schwer) liegt bei 29, die anderen Schwierigkeitsstufen habe ich nicht gespielt. Ingame Name: XxdaswirdwohlnixX",,
WoT Tank Quiz,Google Play,mazechazer.android.wottankquiz,Z3A6QU9xcFRPR2NGUE5xRW42SGppdHN5OHk5SmJScUNrd1cxR09Yd19TZW9QNnFZaW5ONVJlbVZWLUFPTkRNLV9sN0h5UEFJU0MySlc2aG9kZFhCazJ2azdV,German,,5,2016-05-17,David Krämer,"",Coole Idee und macht Mega Spaß,,
WoT Tank Quiz,Google Play,mazechazer.android.wottankquiz,Z3A6QU9xcFRPR0ZVYzloR3NZcWFKWDJ3Z0k0ZDV3bTBqUE8zd1lObDdmYVZ6UUp0XzlMamY2Y2pfYVZtV2ZpbEpxdUZNeVNsMHdSZTdJU2ZqZTA1eDA1VW9J,German,,5,2016-04-27,Leon Wa,"",Es ist meger gut,,
WoT Tank Quiz,Google Play,mazechazer.android.wottankquiz,Z3A6QU9xcFRPRTZNMXFrbzVBNURiS082aVNETzh2blR0M2hFdGphTTVBX3BSZUx6WTAwYnJLRklOdnc4VzhUR2xCdlBuNk8tRTYza3dzVEVpMlluWFRSck1N,German,,5,2016-04-12,Robin Schlegel,RICHTIG TOLL,Einen fehler habe ich gefunden.Bem T29 ist nicht der beste Turm abgabildet.,,
WoT Tank Quiz,Google Play,mazechazer.android.wottankquiz,Z3A6QU9xcFRPRVY2WTNnSGZiaFlCTlBpOUtaY0p6Z1pVT0NRbUdPeWtiX1pZQTZzZlR0Y2ZLSmZfZ2V6c0JMckJLVFVOR2s3QWtFWm4xQ1BTVTlMbTcyWl9N,German,,4,2016-04-06,Naddi HD,gut,"sehr gut.. aber was mich bissl aufregt ist, dass es mit nem timer is.. könnt ihr nen freien modus hinzufügen, also das man auch ohne zeitdruck spielen kann? wäre nice ^^ dann auch 5★ :)",,
WoT Tank Quiz,Google Play,mazechazer.android.wottankquiz,Z3A6QU9xcFRPRXR5TXNlNjBiNU04M3BHcDAzWjExblpWM3pFeER0SUlqeWpiZ3prTjRrdWZfSDZlbnphaUJkdURUVGRzY2J3eTdXM21tZmRMY00tdWNseDhR,German,,4,2016-03-06,Dozent1111 Klopapier,"",Ganz gut für zwischendurch,,
WoT Tank Quiz,Google Play,mazechazer.android.wottankquiz,Z3A6QU9xcFRPRThoaUx6aTBLbW9ISUs4ZDdJRUZYSGk1MTN5VzNUVDg3UjhiazJpeHVNYkFNaE9ndWVuMG1ndjlIa240S2JGRHpmZXM4c1hGR05sTFkyTV9z,German,,5,2016-01-28,BBMizzdieGang,Gut,Man kann eimfach besser das Spaß an den Spiel kennenlernen etc. super einfach!,,
WoT Tank Quiz,Google Play,mazechazer.android.wottankquiz,Z3A6QU9xcFRPRk5oZHJ2SDM0eDF0RXY5QVo1MDVEYk82NXJxUjBXU19xd0VtX2N3V2RheC1vME5tM0ppd0RldVF5Vmd0MlpQbzlFUUh5clVNM2FyREZxWWc0,German,,5,2015-12-26,Daniel 460,Ich finds cool,Schöner Zeitvertreib,,
WoT Tank Quiz,Google Play,mazechazer.android.wottankquiz,Z3A6QU9xcFRPRWc5d3o1d0tveTBCT2xUeGxvU1RCdXZJdy1ieWpZeGRuRVc0NHg5cTBxUFVmZHRTSkJuUG5rcDZsbTRwdlRZZ3NOY3hXSXpoQWI2SEJlNHVN,German,,5,2015-08-22,Rexi Alfred,Haha geiles spiel,Es ist voll geil das man wenn mann unter 0 punkte hat das dann :haha du hast unter null punkte kommt ^^ es macht spaß ist total lustig ich heisse bei wot __rexi__ ....aber man sollte anstad zeit drei versuche nehmen oder sich wenigstens entscheiden ... Aber sonst geiles spiel (:,,
WoT Tank Quiz,Google Play,mazechazer.android.wottankquiz,Z3A6QU9xcFRPR2JiSWUzeUdwWHc2WTluV0R3UU9GNGNYR3dXQUtyT0JxRFBJUDA4S2lZWXBIcHV6TnM4eGloNjJSeDRESjY0dVpfUEZHLWN0WVFjN1BIMnZJ,German,,4,2015-07-22,Pastworld2010,Nettes Spiel zum Probieren,Ganz amüsant für hin und wieder zwischendurch zum spielen. Jedoch meiner Meinung nicht so schwer wenn man sich einigermaßen in WoT auskennt.  Schwierigkeiten bereiten dann höchstens auf schwer die verschiedenen Chinesen mit ihren ähnlichen Panzern.,,
WoT Tank Quiz,Google Play,mazechazer.android.wottankquiz,Z3A6QU9xcFRPRi1EUDhsSWdlaTJNQmFUd1dzMTU0dHVlY3JKUHFjS0FwTmFnYUhrX0diUi1Wcjg5dndfTmt1SFAyNzdsNTNuSXFHRngwUkdNRy1CNnVIcnBR,German,,5,2015-06-22,Luca Winklmann,Recht cool,Mann lernt so die Panzer in World of tanks kennen,,
WoT Tank Quiz,Google Play,mazechazer.android.wottankquiz,Z3A6QU9xcFRPSC1rUEo0SkVjZjAtYU5xM3hqNWpTcDdpdFpyWFpmYldRWC1VWXZ1S0Q0SjV2TGtXZGFWaXhjeGVJTWdkU05xeHNwT19rUWI0cXdnSEF5eFVj,German,,5,2015-05-24,Lukas Leikam,Ha zu einfach,Ich spiel WoT auf dem Computer und kenn fast jeden der Ca. 150 Panzer aber das Spiel ist richtig gut,,
WoT Tank Quiz,Google Play,mazechazer.android.wottankquiz,Z3A6QU9xcFRPRnBBZzZ4U1QtVFo3cjN4UjJLOTQxMTRleG0yZ0NHc2F2aEZ0LXVKT203U2VRaU1XcmhoVnZtYXZUcGowVDNkTW51cHdGZmJQMXNlTlFfVHhN,German,,3,2015-05-12,Tim Seyer,Joooaaar,"Das spiel is an sich ganz ok aber es is eher für einsteiger und unerfahrenere spieler zu gebrauchen. Man lernt (wenn mans nich schon weis) viele panzer kennen jedoch stellt die app selbst auf schwer für erfahrene spieler keine herausforderung da (hab selbst bei schwer easy 20-25 pkt). Zudem erfährt man leider nichts über die panzerung und eigenschaften usw der panzer. Schade eigentlich, könnte man mit einbringen :/",,
WoT Tank Quiz,Google Play,mazechazer.android.wottankquiz,Z3A6QU9xcFRPSEZyZ09DZmtUTEhFamZudWtPRjdjLU5DM2xYNVN1TE5kOWdFTnVFM0ZOc0NiWkhqbnN6aFdmVTk1MVRSX0taOURldGhuRFdnNlV2cG9GZDJF,German,,5,2015-04-09,Schildkröten mit Style,Supi,"Super Spiel, die haben sich Mühe gegeben, bin bei einfach auch 24,bei Mittel auf 11 und bei schwer auf 6. Wäre cool, wenn bei den Highscores das Datum oder die Uhrzeit stehen würde.",,
WoT Tank Quiz,Google Play,mazechazer.android.wottankquiz,Z3A6QU9xcFRPSDM2TV9Ka0ctc0UzRExaV3VuNEF2RzZyOHlxa2p6bERYMk5kR3IyNTZtWFRfdzFJSi0xZnQ3MzVOM0RsdGk1aDNTbGZ3Qm9mcFU3SDdTV3JB,German,,5,2015-04-04,Pascal Thurau,Ist n super spiel!,Macht spass :),,
WoT Tank Quiz,Google Play,mazechazer.android.wottankquiz,Z3A6QU9xcFRPRWhqWUZxd19nc25qMGM3ckFUMlZxTDU2Zk04RVpTbGUwQVpTckJDTHpIX0tXTG1lLS1GSmxhb3RUWHVmVnN1bHo3LTlMTUE4eGo0emVhMXFj,German,,5,2014-12-31,Justin Freimann,Perfekt,Perfekt um zu wissen welcger panzer welcher ist,,
WoT Tank Quiz,Google Play,mazechazer.android.wottankquiz,Z3A6QU9xcFRPSElyRDR0V2QzcXNLbXFhbnA1M2dWMUs4YmgtVm84Yzd2czFSS0xoSkIzMzMzQjRkNVBsN08ySHNGZE5obnNxbzJVNk1ocnZxUE8ySjkzbERJ,German,,4,2014-11-28,Marvin Burkhard,"",Ich finde man kann ein paar mehr Sekunden ranhengen aber sonst was tolles um das aussehen von tanks zu lernen,,
WoT Tank Quiz,Google Play,mazechazer.android.wottankquiz,Z3A6QU9xcFRPRUlqUGl1VDNZNzlnYzlreEplR01qd2M1NjY0dXMwbktJalJNMVdGZzdwcWJVZHUxbFBkd2VUMzZVMzYxU182SkNCRFgxOUZ2dExXZFpKanlr,Hungarian,,5,2017-05-17,Máté Páncél,"",Jól esne egy kis frissítés.,,
WoT Tank Quiz,Google Play,mazechazer.android.wottankquiz,Z3A6QU9xcFRPR3VCRy0xR2RxMzlETkhGWXZqRWYzQTZuVTQ4NU5ORHRmOEQwUVZkYm5JOVNyWl9JUTdxZ3N0dnp1WkNMajBDLWZDR0xBZlRVN1VaNkNRLWNV,Hungarian,,4,2017-03-27,"","",Jó gyakorlås,,
WoT Tank Quiz,Google Play,mazechazer.android.wottankquiz,Z3A6QU9xcFRPRW9ZMXZoNlR2dDdXZllUZXJWZk9NdUxiWGsxazJFRDRGVEVvNU83MDBwXzYwU0RQWVFrQnlrSE4wc0RXcUxyYUt1NGphSVhrU19JUTFJb0tj,Hungarian,,3,2016-11-26,Szabo Dominik,"",Hát az arosz bene hogy időre mrgy :-(  de meg kapja a 3***,,
WoT Tank Quiz,Google Play,mazechazer.android.wottankquiz,Z3A6QU9xcFRPRWFDWXU3ekxvaXJaT0cwaEpkVmFCNWlPVWhXWnJtb0MzMTlMNzVJdFNBeXdrRHB0TzA4ejNGQzA2Y0FXS01LYkhFZzdtWVkxUVlvd1JoUHh3,Hungarian,,4,2016-11-17,Márton Szilágyi,"",Időtöltésnek tökéletes,,
WoT Tank Quiz,Google Play,mazechazer.android.wottankquiz,Z3A6QU9xcFRPRWJ4QTJWX0RZTnRKdU9ILWtiS3hud01xdEVhXzk1aGRadDQtZjJ1akpJS3pYZUVSMWI2ME5QR2tHYjFBM2dfM1g5ejB1UW9leWZ2MG8tTnNj,Hungarian,,5,2016-11-03,Kristóf Papp,Jó,Hardba 65 a rekordom,,
WoT Tank Quiz,Google Play,mazechazer.android.wottankquiz,Z3A6QU9xcFRPR2FjV0F5RVk3TmdkQ2hEbU9pZkF0R1J4MHk1QUF5ajBwU3VXZ3MwX0htX0wyVmo5UTNCTUxYN1A3b280SmZpT01tSzQxeUJNNGFwWU45elRj,Hungarian,,5,2016-10-29,Kardos Attila,"",58 easybe :DDD ki tudja meg dönteni? :D,,
WoT Tank Quiz,Google Play,mazechazer.android.wottankquiz,Z3A6QU9xcFRPRWVhRHVuelZVaU5iRWxxc3Y5RDJTUGdRcllXZGt2cjNGS0JXa0xsWTFHUW1XcjIzQ0ZyRVRCaE1waUtMUHA4LXRFWFoydmFWSTJ0M0VCTDRZ,Hungarian,,4,2016-10-28,Poch Balint,Yeah,"Hiányolom, hogy csak egy játékmód van",,
WoT Tank Quiz,Google Play,mazechazer.android.wottankquiz,Z3A6QU9xcFRPR19XSG9nTDAzbEh0aFdsN2lmVF9IX0NQNFBYNDRfb0JnZ1hKem1TQkk5elNidzNjbTBmU3ZiamsyR1plV1NUVF9obVd2S3RqaTdodkYwNTFr,Hungarian,,5,2016-08-18,bence nagy,Könnyű,Simán megy aki nagy wotos annak könnyű,,
WoT Tank Quiz,Google Play,mazechazer.android.wottankquiz,Z3A6QU9xcFRPSFVZLVZneWxUc2t6ZWxCaFVjXzIxenVibFVEd2Z2TG91UDJtbDZwYUZTM210ZnotNjZveVNKZmpIanBZWDJyZXpqMVUwV0lTLVBBRXJ6bWpj,Hungarian,,4,2016-07-29,sz_l_zs,"","Kár, hogy időre megy...másképp végtelent csinálnék :))",,
WoT Tank Quiz,Google Play,mazechazer.android.wottankquiz,Z3A6QU9xcFRPRTEyR0tnOTMyV2xnaTZxOWJ5T2pwb3hiMFkzeG1TVUdTbEFkbXpLRGlFX1B5M1Rwc1I0Q05yQS1NNlpRNVJOc3hfOXRYLTBKYkV0RC0yYVVn,Hungarian,,5,2016-02-10,István Tóth,New rekord,Hardba 52 easy pedig 54,,
WoT Tank Quiz,Google Play,mazechazer.android.wottankquiz,Z3A6QU9xcFRPRVNFSjR3X2ZoRXdQU0hMWDhBVVZjZHNlZDFLejF4WC1rVUtOYXBOdmE3YTFZZkN6bHNuWERhekxxRzZTV1dmUGdCNTl5YVVQcUVfYVdEYWFj,Hungarian,,5,2016-01-26,Bence Nagy,Pro,42 a rekordom hardban !!! Nem vicc!,,
WoT Tank Quiz,Google Play,mazechazer.android.wottankquiz,Z3A6QU9xcFRPR3dITnZoVzhxRXFnRURfN19PbDhKaW8yU01PY2M0OTZSMGN0NTBQZkZ1VTkwYVZtV0tUZ2JZOEFfUGRaTFR4QXQ3eVZ2aWpNWXRGd0FkNE44,Hungarian,,4,2015-08-29,Ninjon HUN Zsizsi,Elmegy,Nekem mediumba 22 lett,,
WoT Tank Quiz,Google Play,mazechazer.android.wottankquiz,Z3A6QU9xcFRPRklQZlhvb2JERV95TUlZY3Blal9uNFE0QzVnYnhaMXRXb2hXSV9sM1U0VGJJUXhDZnFZSEVvOHdZNloxbVlXcTdkQk1mUHUyUDU0b1ZMQnkw,Hungarian,,5,2015-08-19,KEK,"","Könnyűbe 39, nehézbe 34 a rekord",,
WoT Tank Quiz,Google Play,mazechazer.android.wottankquiz,Z3A6QU9xcFRPSEs3RTUzU2pMeVZJWGdDUUFMYm5Bd2FHM0pRb2gzQ0VVLXN6STNHUjN4RmVXdmdlYnRiOExxdnZGcnhvNDBDZnBZbG9iOGxIMTdSSUtpdmtJ,Hungarian,,5,2015-01-10,Hajnal Zalán,Rekord,Könnyűbe 33 a rekord és nehézbe 30,,
WoT Tank Quiz,Google Play,mazechazer.android.wottankquiz,Z3A6QU9xcFRPSGpDcGFVbHFBczJUN1FfenMwalo0OWZFUjlQaE9RNUoza0pQM2JyNzJEeGtRalU0OTFZTUdNNjYxazFSbG9vLXJOUXFPajJ4RjkxakNQTlFV,Hungarian,,5,2014-11-13,Pèter Dombai,"",25 rekord es kovessetek a nevemez,,
WoT Tank Quiz,Google Play,mazechazer.android.wottankquiz,Z3A6QU9xcFRPR2VPc1BybGZ3Z2RXd01DSjhkbVlNTWN4M2dXTlNMRTRZVFRsbGljNkpZTVU2bHAwZ0NsNG9SYXJxNUItMF8zY0RaTm1HZGxFVUVXRGo4LVpF,Hungarian,,5,2014-11-01,BENCE MAJOROS,:),Könnyűbe 24 a rekordom.:),,
WoT Tank Quiz,Google Play,mazechazer.android.wottankquiz,Z3A6QU9xcFRPRXRBSDBOYkZpRWZ3UkZTMXM1SlV1d0JCcENZTEh3elptLU9qdTJXYnZKdmVsdXBYOUtaNnJKVEJzOGZPN0drbGt6UFBfTXhPMmJGYUVpQU9z,Polish,,5,2017-05-02,"","",Wspaniała ja znam wota,,
WoT Tank Quiz,Google Play,mazechazer.android.wottankquiz,Z3A6QU9xcFRPSERKRGJHZXRhdFJXcGEtQnlYdW1HMy1oVXpGTUJPNi1hYi1tNmdZUmlhSUZKRlYxdVU4N0pLX1NGc2g3VWZsVVozT0RtNE5URVFQMUZra0Q4,Polish,,5,2017-03-03,Grzegorz koksus:DDD,"",Kozackie ale troche za łatwe :D,,
WoT Tank Quiz,Google Play,mazechazer.android.wottankquiz,Z3A6QU9xcFRPRUZYYWVRVi03M3hvOVlva1pjY283RE1EMVFUUmpSTHJKM2otZXdST1c0TlZoWGlDZ24xc2g5S1RhdVd5UEVaN0RkQjBsaVFuUS1sWHN2dVZN,Polish,,5,2017-03-01,Tymek Terech,"","Fajne, chociaż wszystko wiem",,
WoT Tank Quiz,Google Play,mazechazer.android.wottankquiz,Z3A6QU9xcFRPRWFtQzJjano1cU5wWm9ZX29UWnF2U0N4dVFYMFUtdlQyLUpOSXozeUtMcV91OXhmN2RvcTVwR2ZCWTM1RzVoUy1UNU9TTnljZG1VNFFnMXZV,Polish,,5,2016-12-23,Paweł Jaworek,"",Fajna gierka ogólnie  polecam,,
WoT Tank Quiz,Google Play,mazechazer.android.wottankquiz,Z3A6QU9xcFRPRWd5NmZ3WF9lSk9xaFl0UHgtYUt0WXl5MUllbXFCRmIzLWI2VFRETkVqc0VsNFNBU1F1NlgtUWlYbUltSTZvNlVtMV83M1F0VHJRMzBvWFN3,Polish,,5,2016-12-22,Piotr B.,Apka 100%,Ta apka ma pelno wiadomosci na temat wota,,
WoT Tank Quiz,Google Play,mazechazer.android.wottankquiz,Z3A6QU9xcFRPR1NfUjdOelJzdUhHc1dvMGQydlJSbXE4bG5UWXpFdzZETTVOcXRLd2xLcERpTF8wcTM0bHlTX1czQkthYm41T3JYamUxU0x3WFY2NzNPRVdR,Polish,,4,2016-11-20,Sky Isn't Limit,Mogli by to poprawić.,"ale mimo to, jest ok.",,
WoT Tank Quiz,Google Play,mazechazer.android.wottankquiz,Z3A6QU9xcFRPRTJGVm40YXV1RzE4bmFUbzd6TklzYmhqQjFRMkxfWW9sUGRHWmxsUnZnY3dZOUo0a2MtRFpPVmVrbHM0aXJiTmlRUUE0bEhGNm1WQXlLb0o0,Polish,,5,2016-11-15,Dziecko Marihuany,Fajne,Jeśli gra się troche w wot to ten quiz nie jest trudny,,
WoT Tank Quiz,Google Play,mazechazer.android.wottankquiz,Z3A6QU9xcFRPSDdVRzJiZjhTcnVCN2I2ZXhGT0Z0eTFqTVZEMUlVLUlPVWRRZzMwaDUybXN5Qk56amJBTDlZZjliUzFTR3VlWDIxVmZhd3ZBTDFSQ1VheXUw,Polish,,1,2016-09-27,PietrekP,Gówno,Zabawa dla dziecka 2 letnigo,,
WoT Tank Quiz,Google Play,mazechazer.android.wottankquiz,Z3A6QU9xcFRPSEtxSWdKOFpsbFphbjR5S1RkMXNYRmgyOFVqU3lBX3NvN0puYnNuTy1xSGN5cHhENm5ZdDV3QkVLVUJtLWQzQk5POUJsd3QyZW12Tk9EeFU4,Polish,,5,2016-09-09,Zosia,"Gram w Wota 2,5 lat a mam 11 muj rekord na hard to135   O:-):-)",Mega :-Do_O,,
WoT Tank Quiz,Google Play,mazechazer.android.wottankquiz,Z3A6QU9xcFRPSDZnUzVjeFg2eHkwLURDMHVXeHFSRWFQWVNSSWZ6bjlHdmJ1UjVETGdLdnFBa3JhZm9maXplR3k4aDJoYkRWWlI1dTExMFhLNl9YaEVKeHdr,Polish,,5,2016-09-08,Stanislaw Jazownik,Świetne,"Jest super, bo się nie zacina.",,
WoT Tank Quiz,Google Play,mazechazer.android.wottankquiz,Z3A6QU9xcFRPR3RrVGhxQXlkS1FySFBLdHZZZmNLRWdMVjhpR0FyTzNJek5ib0pFSTEzb1hidFVLZHVOQ0xJaVp3YUNrUjhTLUZjVjk4ME5kazZ2QzRFUEdJ,Polish,,5,2016-08-26,Mateusz Czarniecli,No,Wajne moja nazwa w wocie to zico1995. Hyba,,
WoT Tank Quiz,Google Play,mazechazer.android.wottankquiz,Z3A6QU9xcFRPR1VfOXRqSUVLQ0xSVHFfWk9UVGJzS21oMFB4eU84bTNUNE5fS0pTUERGTU1wYWtQR050UVdNeWFIVi1EeGhEaHE1U3VYTDFRUGhPZ0w0VEM0,Polish,,1,2016-08-17,THE SNIPER KASJAN,bez kitu,poco ta gra?,,
WoT Tank Quiz,Google Play,mazechazer.android.wottankquiz,Z3A6QU9xcFRPR2R2WmZVdjlVb3hDc0QtejFKNWF1UHdqZVFmdVc4c0RnZ2xpMFh4QUxzSG9oUWZyVFlvOS13bFF5SnlVeVh5Q2V5UVg1OW03bTZqLS1EcDR3,Polish,,5,2016-08-01,Jędrzejeł,Fajne,Idealna dla graczy wota którzy chcą przetestować swoją wiedzę o world of tanks,,
WoT Tank Quiz,Google Play,mazechazer.android.wottankquiz,Z3A6QU9xcFRPRVA5UmZNUWdzajVjekxtTWZRMWdLQ0ZUbnZ0ZVk0WlFTWjJWMFVKQ2RmbjJKcF9Ra3pEWjBCcFBjT2dsM180b3AtX1hkcHQzeHk0NHVoODRV,Polish,,5,2016-07-31,Kalimo233 Wejss,H,Zaczepiste,,
WoT Tank Quiz,Google Play,mazechazer.android.wottankquiz,Z3A6QU9xcFRPR1VmbVRZaTZxVkppX0F4ZkRmbXZydVk1TDl1Q1R5cElIMV9XS2RxdW4xMVZYVzdVcXJpOUNpTGEtSi1qbGwyaFRXRTlGZ2pRalJ5d2phanRJ,Polish,,5,2016-07-14,Wiktor Debski,Świetny quiz,Ja trochę znam wota i czołgi i gram już prawie 3 lata mój rekord na Easy to niestety tylko 32 :(,,
WoT Tank Quiz,Google Play,mazechazer.android.wottankquiz,Z3A6QU9xcFRPRnRCM0hrTDlqV3dsU0M3SndBUlItbkpjN3BSRk9SYXpidkJnOGF3WmtaS0xMWUxmcE15Q0FZRHNhSnRTNEJSVmpXbHZhR0R2dXRFcDZ3M01j,Polish,,1,2016-07-03,Hubert Dudela,Hujowa !!!!!,Klikamy pasek z nazwą a klika mi pasek obok !!!,,
WoT Tank Quiz,Google Play,mazechazer.android.wottankquiz,Z3A6QU9xcFRPSHoxcWl4UjhxUjZvT0FTMFpYVm9Zb2JrVWtwUlNDMXdKNkVzUXR2LU1KSkJrT1pNVGtQX1RFUERoNVhoSGloT3FsUjM0ems4OWhNZE1QUkhr,Polish,,5,2016-06-13,Lanos Games,"",Bardzo fajna aplikacja polecam :),,
WoT Tank Quiz,Google Play,mazechazer.android.wottankquiz,Z3A6QU9xcFRPRWs5cTlSQWZOX0ZER3VvX2x0UnRVb19JOXY4WVZQM3NYR1ZXMDFjRS15TVBnN1Z0SlV4TWdaVnJMOThha1JqMnNpaktIQUJ0X21RTTNBWlRz,Polish,,5,2016-03-20,Patrycja Cyganik,Polecam!!,Bardzo fajna apka!,,
WoT Tank Quiz,Google Play,mazechazer.android.wottankquiz,Z3A6QU9xcFRPR3BjMUpVWmRwTEJTZXprbFZYQkpQbDJwMzR3OTRFMG03bFZuTThKdDZ3cGFEX3VfSGk0bFZ5MXNtM2NvNHVHYjViTXBRdUtaMWdrZi1rUUNj,Polish,,1,2016-02-04,Wymiatacz990,Debilna apka,Śmiać sie ze mnie bedzie?! Najgorsza apka ever!!!,,
WoT Tank Quiz,Google Play,mazechazer.android.wottankquiz,Z3A6QU9xcFRPRmcxLWNaY1NVNy1mNmhUZ3dwcDY3SnZOYWZuNlhQc0RpaW9FNTNjZXVyMl9OZXMzMW5qU29EN2hHT0tGakplVjZIYXR4Q1ZqRU5aSnVPbnBz,Polish,,5,2016-01-12,Maciej Mroczkowski,"",Super gra,,
WoT Tank Quiz,Google Play,mazechazer.android.wottankquiz,Z3A6QU9xcFRPR2cyQmR6YzlYRlYxWDN6bE1fS21HamNTNHZHWm1TcUNqeUF3TFhNay1ydHluOXFPVm5LemE4d3V2bmZydWNVblFoQXd4Z2FCQmhxUHZwdVRR,Polish,,2,2015-12-26,Sipodem,Słabe,Obrazki czołgów są bardzo małe i trudno je rozpoznać,,
WoT Tank Quiz,Google Play,mazechazer.android.wottankquiz,Z3A6QU9xcFRPRmdIZ2N5a0dMWFo3MXNHRmNWME5mMU53Y3ZNZUN1R0EyR2ZwTTdlSWVqTS1ibHRkTGp5RGl1ckdxLUFFWHAtTXNULWlhaXBvOTUySHFiU2ln,Polish,,5,2015-07-04,Adrian WOT,Fajne,Na hardzie mam 31 a na easy 39,,
WoT Tank Quiz,Google Play,mazechazer.android.wottankquiz,Z3A6QU9xcFRPR1d4TDdmYlEtRVJiMkFSV1dtbnhlV0I1eFNjcDZQZkZMY1ZzZWdYcTN5c2M1RHpxT1pvdGc0NXRSaVFUMUM5Z185Wi1TYUJIZ19BRUdyTU9J,Polish,,5,2015-06-24,Valdfor TV,Świetne,Bardzo mi się podoba,,
WoT Tank Quiz,Google Play,mazechazer.android.wottankquiz,Z3A6QU9xcFRPRmtBS0RKNlcwdTNNbWQ1MXlxa19Zdkg5ZnhoMXJWVWlubDFiSzdONldLd0JpTjBJYkRYRzBHWWZyNVZWbTZpSUNsaWQtZWl2WFFXd3N2QWdj,Polish,,2,2015-06-10,19mta71,"",Słabej jakości zdjęcia,,
WoT Tank Quiz,Google Play,mazechazer.android.wottankquiz,Z3A6QU9xcFRPRVBxUFZaRXBGY1VOMXprVzdmNDFuRzRBZkQ2ZEZuRFE2NVloVmFxcUZkSThkVV9SQ3RBTlB5a01fN3NyV1M4Rkg4dXNfR2FXd004cDJLZE9v,Polish,,5,2015-06-06,SEBA PL,"",Super można się nauczyć rozpoznawać cziołgi i można pograć np. gdy się jedzie,,
WoT Tank Quiz,Google Play,mazechazer.android.wottankquiz,bGc6QU9xcFRPSGRTTWZWQUstOV9ITDVRbFJOMjJMZmdwQUk1U2FKODVadktjMHAyMHRYUmtXREs0dVdQb21QRy1mRzZmY1lIdWVqS25iMUQwQ3VkVGVGYzBr,Polish,,5,2015-05-31,Użytkownik Google,"",Gra jest przeznaczona dla osób grających w Wot-a.Bardzo polecam wszystkim graczom Wot.,,
WoT Tank Quiz,Google Play,mazechazer.android.wottankquiz,Z3A6QU9xcFRPRTFpeXA5NTRsRWFSak5lNzhRNlRieWt1M0pxT2U0V1lKSUx3b2FmSG1tdlVwRVNidUhHd3hHREVRQVFqREVfWWRyWGp4aThCeXh3Y3g2QWE0,Polish,,5,2015-05-31,przemek_248 on blitz,Bardzo fajowskie,Popierdzielona ta gra ze jest super,,
WoT Tank Quiz,Google Play,mazechazer.android.wottankquiz,Z3A6QU9xcFRPR1dtN2pOVnIteE5MaTRTQWZXMFZxWHdXc2VtRnVfQ0steENYakFnYTBRZnlmS21leTJBYWVXYm1uU3lyTHNrLUtYQ0dmUHFLdmV4MlloMTVF,Polish,,5,2015-04-20,Grzegorz Gadek,Niezła,"29 na hardzie, 31 na easy. Fajna gierka :-) Zapraszam do plutka gg1999, mam 9X",,
WoT Tank Quiz,Google Play,mazechazer.android.wottankquiz,Z3A6QU9xcFRPSEtYRUw5d3QtSTN2bjlOTHZ2YjhyTXItRFBsZWYwS1JYV2pHbFRwZTBMNi04dE1ITWtTSTV5amtDUzlyYkI0TTJFR0FHcThTY2xMMmZ6UWFN,Polish,,5,2015-04-06,Agnieszka Dobrowolska,"",:-) aplikacja jest naprawde fajna dla osób wprawionych w wot nie jest trudna ale dla nowicjuszy,,
WoT Tank Quiz,Google Play,mazechazer.android.wottankquiz,Z3A6QU9xcFRPR00xVllpUzY0blZYM2tPR3B6R2hUb0U2UWlJZVpIREI0MDNmUk1XWTdmNURGUUxBSHZCZEtDUG1KQV9qTE4xdjZUNjF0X016MHRqdHZmZVhF,Polish,,5,2015-04-03,Kamila Fuławka,"",Jestem tajemnicy tak dokładnie danej wota i nie mam trudności w tym Qizie. Nieznane tylko 5 tankuw.,,
WoT Tank Quiz,Google Play,mazechazer.android.wottankquiz,Z3A6QU9xcFRPRzdQR0hTSldkcnlhUmoyWjVwNmlyaE1pZnJzaHExdU41UTk0SkF3bi0xT3hoVkRHREtSTVE0Ri12QVlSYUZFM2QzM1JueDNkcDM4bWkySUZr,Polish,,5,2015-03-30,Przemoo XD,Super,Fajne po kilku rundach nie popełniłem żadnego błędu,,
WoT Tank Quiz,Google Play,mazechazer.android.wottankquiz,Z3A6QU9xcFRPSEM3YjQzVjlnX08zWXVyZVR1SkU1MDVwQ1kwWWE1N3NjN2RLQ3B2ZmRsUEo3emxoWmxSVzNxYWdmRW1VdVBrOHJPWWZvZXIxTXpoUDZiRlVV,Polish,,5,2015-03-29,Wiktor Szeligowski,"",FFAAJJNNAA,,
WoT Tank Quiz,Google Play,mazechazer.android.wottankquiz,Z3A6QU9xcFRPR0VtSFp6WTNPamJqaE9RY0RGTkpMV1NpNGIwV3BBeXVIQ3BRZ3JOdUUycWdENEhtSHBfZm9mUTlIMlBydmNBa0JZTC1HNEctSWZIRDZiZFlV,Polish,,2,2015-03-03,The ProGaming,Słaba grafika czołgów ale jak ktoś się zna na czołgach to nieprzydatna 2 gwiazdki,:-(,,
WoT Tank Quiz,Google Play,mazechazer.android.wottankquiz,Z3A6QU9xcFRPRklkUlhJRmE3eU9KN2VtYjdYLWprT0s3RVBtb1FzXzVScG5wQnZqWUFzTFA1eE55bVNjbU1YcjFXaDg4ME9aa2R5QWFONXRfeDRpSHc0bXZZ,Polish,,5,2015-02-21,Tomek Klonowski,Super,Pomaga nauczyć się rozpoznawać czołgi po kształcie co pomaga  w WoT,,
WoT Tank Quiz,Google Play,mazechazer.android.wottankquiz,Z3A6QU9xcFRPRnhYSlRMUDhUVWdFeHlBSHhDSnE4clFPQ0l3c0tlcnJUaHFhQ0gtXzRtM2VWbTd3ZDlqYmpmeWlwUVRxbi02QTd4M21qbHJtT0FGU0kzcjRF,Polish,,5,2015-02-18,maciej lebiest,Fajnie,"Zrobione, 5*",,
WoT Tank Quiz,Google Play,mazechazer.android.wottankquiz,Z3A6QU9xcFRPRkF2RjdoOUVXV3hlSmQ2UXhmMnYxSlB4WklsQkdVRW5Ybm5nUGk0bVFmZjZySlZ6WUVmVWItVG9BWFZhY0Z5YUVLb2owMEZEbXNxajlxOFBj,Polish,,5,2014-12-28,Ola Oleńka,"",Fajne,,
WoT Tank Quiz,Google Play,mazechazer.android.wottankquiz,Z3A6QU9xcFRPR1cwdmZqUjEyQTY0eV9OaUFkMldZc2xzTEhSVEw4elFMX0l3Q3hKeFpsTmhiU1BVNVlIRWNsa1BWOTdCZk1ra3BPT0RSQ3RmYjA4REZmQThF,Polish,,5,2014-12-22,Gryczpan ツ,Jeaaa!,Najlepsza apka na świecie!!!,,
WoT Tank Quiz,Google Play,mazechazer.android.wottankquiz,Z3A6QU9xcFRPRVNTOGVnRU8xeHRGNDZ2cVZqdHZuNlgyLTE5Y3BSWVhSaTRRajBsaTdlcVI1MlZxeGwyUVBFZHpCWXlOWkRYS09KTlMtczB5N1FoR3V2M3RB,Polish,,3,2014-12-14,mati matoł,Super,Aplikacja podszkala I ma ładna grafe,,
WoT Tank Quiz,Google Play,mazechazer.android.wottankquiz,Z3A6QU9xcFRPR1FGNTNYS0ZtSUhkNmp2TXAwVUswODdzdVZpanBFSnRVQ3gtcGtSUERvWHlWSjN6eVNYTkczLUp3TjUyNjZmUnFJYlVIUzhuUXJPSzVlTGtV,Polish,,5,2014-11-20,Cezary Wójcicki,...,Ja mam 10tiery :-),,
WoT Tank Quiz,Google Play,mazechazer.android.wottankquiz,Z3A6QU9xcFRPSC1qMlc1WHVkVWdQOWZkNnl2X3c3aENjSTQteHlyb3ZuTXBWQ3g2Z1N1WGFpN19PempYQnJGVDhpLUxMVE1oX0FuMkdYVFVYX2xFZDExd2FJ,Polish,,5,2014-11-03,Piotrek Marczak,Fajne,"Gram w WoTa i mam 6 tier,polecam.",,
WoT Tank Quiz,Google Play,mazechazer.android.wottankquiz,Z3A6QU9xcFRPR3NpcUlwUWJPWmpPZUVBaXdtN1VFRmxDMnJCaHYweFI3amJYNVNxdGRGN0ZybUJ2UzhjSzczWl9fSGNyUFYxYVNCT3B0aHBMMGNpTEJ6TURr,Portuguese,,5,2015-11-08,Leandro Xavier,"",Bom,,
WoT Tank Quiz,Google Play,mazechazer.android.wottankquiz,Z3A6QU9xcFRPSFRkSm5OYXJGRjhMSnA5ekI1ek1XR0p4QlRBa3RfUVhPYS1ZbmVGWkVKVXppWmwtZlVwUlBZVkFHcU03aFNVRmNkZlhwM1JDbUQ0RFZWZi1R,Russian,,3,2016-09-25,XxX XxX,Кидалово,Кидалово,,
WoT Tank Quiz,Google Play,mazechazer.android.wottankquiz,Z3A6QU9xcFRPR0hpUlQ0YTRCVVhVQ3Q4anp3QnhadHRXdXlwNnVmWFpqN0R6cDNZNXQ4Z1hrblBBTkNWb0kzQ25kWG9NQXVXalRsS0ZhMW0xMU5fMXpDd0p3,Russian,,3,2016-09-11,Дмитрий Колодий,"",Как получить золото,,
WoT Tank Quiz,Google Play,mazechazer.android.wottankquiz,Z3A6QU9xcFRPSGwxcTQ2c2JoRXYxS29KYWNaMDhzSTdURjlUNjg0dmQ0OXd2SWo5Sk0xM3JzMFlNREw4ZnFsY09zajZzQW1oVXdzNnEtUzVKUjRKbm12Szh3,Russian,,5,2016-07-02,Артем Алексеев,Как здесь зоробатывать,Как ты получал золото???😉,,
WoT Tank Quiz,Google Play,mazechazer.android.wottankquiz,Z3A6QU9xcFRPRURSYzBtcjZaU2dndHAtNzAwcWtzQkVpUU1BdGN4SUpRY0lXaU5oSWRXdkd4N1I0Tk5ud1lReWJMS0NMQ0ZrZy1uMmh0UHVEaDNsR1ZCVXBZ,Russian,,1,2016-06-07,lucky gamer,"",Танки не похожи,,
WoT Tank Quiz,Google Play,mazechazer.android.wottankquiz,Z3A6QU9xcFRPRnNBd25Nd3JOVUpPcXl5RFpIRldYcGtZdW1kemFGQXJNV2tDMHFJa0IwOERVMDdvSGxJZUEtbTNTRzg3eVVFRUxVU18tOUxWcDd4ZTFNdjBR,Russian,,5,2016-02-29,AlexNight,Nice,"Игра понравилась,советую.",,
WoT Tank Quiz,Google Play,mazechazer.android.wottankquiz,Z3A6QU9xcFRPRlQ1bDY3ZXRhSW9vX20xTWgyOVFNV3F4TEt5YVNWOGtSMzFERnFxOFFKRjJSMXBMck5lY1VpWkJoSXlteHJLa3JXMTF1ZG9kQW1FSk1zSVl3,Russian,,5,2016-02-24,Sachyuka Aliaksei,Скачивайте Gold for Tanks,"Я на этой программе уже 3100 годы получил,при регистрации пишите tvc3y",,
WoT Tank Quiz,Google Play,mazechazer.android.wottankquiz,Z3A6QU9xcFRPRkg5Z1g5ZlhfdmpfVmswTldiSlhsNUQ5eWh1RDJWTkFaamd2bFRBWk5yeGVOYU5nZW05dHpiQlJKV3NoMGVjSS03NENCYzJ3NkxZb2pJR0JB,Russian,,5,2015-09-02,Atai Djatkambaev,Глобус мобайл.,Круто,,
WoT Tank Quiz,Google Play,mazechazer.android.wottankquiz,Z3A6QU9xcFRPSEF5NDFLcG1ONHdnT0ctV0R0bjNBbHdqaFBRbXJjVFRMUk1xa3FsdEhLVk00YnNra0stR1RYaDM2cWQzSklHTUFkUFlheko2NjRBVVhZZzA0,Russian,,3,2015-09-01,Ярослав Розов,У меня вопрос,Как получить золото я игра и как мнедадут золото,,
WoT Tank Quiz,Google Play,mazechazer.android.wottankquiz,Z3A6QU9xcFRPRXZLeUlZVUNpTWVTM2Y1aVZYRFBfVlZUaGE5RldXdU5kcm5lLXE4WUltOG16MkRHM094RTE2NHZVTDJTQk1RSktpWVFGNUV3UVExdzZ5WVNv,Russian,,5,2015-08-03,Артём Папш,Very good,!!!!!!!!!!!,,
WoT Tank Quiz,Google Play,mazechazer.android.wottankquiz,Z3A6QU9xcFRPSG9LSERYdzRsWG1YUm1kSDlwTnlNLXBSWEF1ZE12RHk5ZW5aNll0d3ZvV3Nfc0JNTnFXUVNCMFF5UEVvbmVZdG9zeWgweHNueklLeldMSGlV,Russian,,5,2015-06-15,Артем Транковский,Норм,"Ха когда нех , делать и хочешь проверить себя на знание танков вотки супер приложение)))",,
WoT Tank Quiz,Google Play,mazechazer.android.wottankquiz,Z3A6QU9xcFRPSHpGNUNYbGpjMXFWeVhQUUFSa1pidktqbWRLNUJrWWVWNW1BcWdva2tOUXdqazg5WE1NUHY3V0J0MDRtQ3JYd29Ta2t5STA2eWUxdFdpdk93,Russian,,5,2015-06-13,Александр Левченко,"Прикольно,но...",Для чего это? тупо угадывать танки и набирать очки? или что?,,
WoT Tank Quiz,Google Play,mazechazer.android.wottankquiz,Z3A6QU9xcFRPR0VWb1BIbUJ6dWNEeXUwaVdyZzlZMXdiZmRvMjdtd3NFNWZZU0FpdWY1WHlKbmhfWGRoSXhtQ2tiLXpvUXA5dGdKdDhGTTVXV09zQnlUaXZB,Russian,,5,2015-04-11,Никита Дубинин,Uin Zor,Zor,,
WoT Tank Quiz,Google Play,mazechazer.android.wottankquiz,Z3A6QU9xcFRPR2NwWlpOcXlsaGc5YkQwWXFOcEM5V2dIdE9ZVTB0RjdCa0k2T25Dd2VxTUJDUG80bmh5UEpwUXpnYkhCZmFHMjN4a0pSTVRhZmcyWXVMTlB3,Russian,,5,2015-04-08,Андрей,"",Gold for tanks приложение в котором можно получить халявную голоду. можно накопить на любой прем 8 уровня не потратив ни копейки. Когда вы запустите gold for tanks то введите j1828 и вы получите немного халявной голды + 25% моего заработка,,
WoT Tank Quiz,Google Play,mazechazer.android.wottankquiz,Z3A6QU9xcFRPR3dDbUMtbUIxREp6VHFKX0Q4QWNuM3d6ZzRfTjZSZy1kTzJBSE5keUZNM1ZTUm9PQ28xd1lkYl9UU0xWQXJBX2ZKWWh1YWZFV18zclFqSXMw,Russian,,5,2015-04-05,Дима Инамходжаев,"",Прикольна,,
WoT Tank Quiz,Google Play,mazechazer.android.wottankquiz,Z3A6QU9xcFRPSFZ3ZUlJWWdDYjdudFlmX0ItaklHR2ZfaUxDTmQ4QnY5S3ZadklnNzlEZ2xldTNHaHVYLTRod0FBOHpmYmdIRkNPTGpBT3hHeFVkRlc2bUFR,Russian,,5,2015-02-01,Dark Veyder,"Кто хочет бесплатную году в WoT качайте ""Gold for tanks"" при загрузке введите код 1ds98","Уже перевёл 1300 голды,отличное приложение",,
WoT Tank Quiz,Google Play,mazechazer.android.wottankquiz,Z3A6QU9xcFRPR0U5V21vSXh6bU9VT1pMVnNoVVZlczc3MGFCcktZSVV4ektac21GRzk4aTlESFVqTzlNYjdYa0lsd3BCOFQ5WUpPMXUycjVxVjk2RFAyb0Z3,Russian,,5,2015-01-01,Матвей Поладыч,У меня в ангаре,17-10лвл;7-5;2-4;4-7арти;3-9;,,
WoT Tank Quiz,Google Play,mazechazer.android.wottankquiz,Z3A6QU9xcFRPRmtRYVZBMGNrVjhOblotcUVxblp4MVNSR0hBUWoxZHJHbnpyeVF6UmxENGlNTUdxWkRoWXVUSlN0X0xGbFZkSVlpSjJKMWVGemRKOWVkaWhF,Russian,,5,2014-11-29,dima mosin,"",Оу да детка,,
WoT Tank Quiz,Google Play,mazechazer.android.wottankquiz,Z3A6QU9xcFRPRl9ZQkl1NmtzM2hrbEFEUjE3aVRqeVZYMHZhaWNSSDBITUJsTnM0MlNocTlOZERQeGFwTWpxNS1XYlFzUlZkNngxdzE3WXUzNm4zMVlsb3Uw,Russian,,3,2014-11-17,Mr.Hocoчek,"",маленькие картинки,,
WoT Tank Quiz,Google Play,mazechazer.android.wottankquiz,Z3A6QU9xcFRPR0lVcFlfV0s3YkEzUVE0bXlnWVRjTTVsOFE3UnAzbWVEZy1xYjFVbTZWYmVVZk5fMkh5UE5maUo0cUlKbEx1RjhqcGlIM2FQa3NxRmhia2I0,Russian,,4,2014-11-08,Коля Печенкин,"",Не очень если кто-то сказал свои танки и я скажу: тигр 2 ис-3 и т-62а не играю в wot около месяца и отлично знаю танки,,
WoT Tank Quiz,Google Play,mazechazer.android.wottankquiz,Z3A6QU9xcFRPSFY2NmRNSVlVNHFWVGVMMHdzRVozYkhzM3M4cmxUTEhINFBTZzBUclI4RXRCdXlCckZnaWFaWUlBdHVHYXlWZ01NQXlicFNKTW0wRk9JTlAw,Serbian,,5,2016-06-27,DidzejDi,Emotivno sam vezan za WOT,"World of tanks je najbolja igrica na svetu , ovde sam malo hakovao i najbolji rekord mi je bio 108 na hardu , igra i moja mama p.m.s. wot &amp;lt;3 &amp;lt;3 ♡ ♥ ♡ ♥",,
WoT Tank Quiz,Google Play,mazechazer.android.wottankquiz,Z3A6QU9xcFRPRWgzUWFWMVFDd2hTanhFZW10c2hENXp4dWcxRFo4YmtiNlBtLVJrUGo4dVhydkFKTlZpX1VLQm9henVXVzkxUUFwRFVCdF9MYjNuZDlCWXdN,Slovak,,4,2016-10-28,FxGuruMan 123,Celkom dobrá hra,Hrám Wot a aspon sa naučím názvy tankov :),,
WoT Tank Quiz,Google Play,mazechazer.android.wottankquiz,Z3A6QU9xcFRPRlZWc3FSY1E1QWtJQWR5R3BwMmtqbm1RR096Q0hQRFdVWGM0RW9XTEhMZkNoNXdVc3RDS2pNQWZ3S3J0NDRGVm9VUlFkRl9HY1pzQmk5RU9v,Slovak,,3,2016-09-11,LukyTV Assassin,Update,This game rly needs update pls.,,
WoT Tank Quiz,Google Play,mazechazer.android.wottankquiz,Z3A6QU9xcFRPRVlXSm5xUWs0MDlqLUx4WlYzdUZ3ZllhR0tpVXZRQ3JuMmpUakNsMjB6bTdzRDNUUEFidVlTTGZScExXT0N1UjNDZGtjb1R0d3VrZmNGNl9B,Slovak,,5,2016-09-10,Samuel German,"",Polhodinka,,
WoT Tank Quiz,Google Play,mazechazer.android.wottankquiz,Z3A6QU9xcFRPR3o5VUVLeW9kY0VkN0xsc0pvM0gwc19WUFhPXzNMa2d3X1ZKX29VOEFQQ0E2M1A2Z0ZjY202Zk1sdHNhdFZMY01Uc3JnNEpTbjVHODhVSE1j,Slovak,,5,2016-07-26,Palko Zlatnansky,Naj,Naj quiz na svete,,
WoT Tank Quiz,Google Play,mazechazer.android.wottankquiz,Z3A6QU9xcFRPR215N2FzY2NlTDZmV3BtRTRoYlNDMTBQRnU2aV9Hd1RoYUdkODdvXzF6cVV3RmJCYmE2VmJncGNXWVc4YlRyNk9mRWZua3NDS2NHVVVPMlM4,Slovak,,5,2015-04-07,APG 777,Acer Iconia One 7,Super kazdy hrac wotka sa v tom najde,,
WoT Tank Quiz,Google Play,mazechazer.android.wottankquiz,bGc6QU9xcFRPRVprcm5NQlRvNEs1NXhRemRvMGkycGIzVEZJbXhXbE1iQ1d2S250WTkzN0E0M1M5amlFVkFfMng5TEFaVHpoX21tYXQ1elk2bFpFdm9wZDNz,Spanish,,5,2017-03-19,Un usuario de Google,"",Es.    Muichido.,,
WoT Tank Quiz,Google Play,mazechazer.android.wottankquiz,Z3A6QU9xcFRPRXZyUUl6aXFuaVZVcGJoaGMwOWNadHFMby1pNjAyTkpsaGNRTWg4X2wtQU9ZOWU0TzEyNy1QZHRVY1J6c1dvZW5ENmZrQTB1ZXdkb1JGUmxF,Spanish,,5,2016-08-19,Benjamin Sosa Gregori,Buenísimo,Buenísimo,,
WoT Tank Quiz,Google Play,mazechazer.android.wottankquiz,Z3A6QU9xcFRPR3Z3dWNIMmhVelRzLWRTVjZQbHhMdENoZjhScXYwRVhCNmJadjdDZzZnRmV4SGZMTkVkamtHaElYQ3ZfU001QVNVYTUwYkFVOWF2d3NENnZr,Spanish,,5,2015-12-29,antidoto35,Mola,"Pesa poco y es muy divertida, mas dificil de lo que parece.",,
WoT Tank Quiz,Google Play,mazechazer.android.wottankquiz,Z3A6QU9xcFRPSFdkV0hYR0ctUktsYW9Wck10dWFyN1VuLVlGSkFubnlKVVhGZUF1cVY1T09ldWVXN3lNN3NkanRnVi1pN0xrUVBiNzlKUVRQUDhZdzhsaDZZ,Spanish,,5,2015-07-05,Patricio Pardo,Genial,Unbelivable,,
WoT Tank Quiz,Google Play,mazechazer.android.wottankquiz,Z3A6QU9xcFRPSGFXQVZNcjRtbHpHVWlYeW9wLUNrakI0dGZ4Z3diOWRIRWp2N2FPNEQ5SnRGZnUtdmJQcUJfbWdtUXhzbElZNFFLa0RFd0VlSUZFa2haYkZN,Turkish,,5,2016-08-29,evmahsuru,"",Good :),,
WoT Tank Quiz,Google Play,mazechazer.android.wottankquiz,Z3A6QU9xcFRPRWR0ckFJNlAwREFoRy1aenZqVFNJM3NSYUpXcXZhbVB0cVZZa3I5V3NZcFVVZ3dPMlFGZUNhaXFSdmJQNDlXODFrbUVIOHNtUlpucG5ZSG1z,Turkish,,3,2016-05-27,Batuhan Zamir,3,Süre olmasın yada seçenek şeklinde olsun istediğimiz zaman süreli istediğimiz zaman süresiz oynayabilelim ve tanklar daha büyük ve net olmalı kesinlikle bunları yapın benden size 5,,
WoT Tank Quiz,Google Play,mazechazer.android.wottankquiz,Z3A6QU9xcFRPR3hOWmV5MURSTVFVZ1dHTXdlQ3dES0pxcl9IVlNyT2NiT0pwdmM2UlJEX0cySEJfdkU1T05EOEV6QWt6aFZiMDBsVXRqV2drN1QtQmV2ZEtv,Turkish,,4,2015-12-29,Kubilay Yıldız,HARD,"Daha zor olsun GG ""D",,
WoT Tank Quiz,Google Play,mazechazer.android.wottankquiz,Z3A6QU9xcFRPRXRpTlcxRlI5dkcyMzVuOTV1QXJxZDFSUUFmMXdsT3RnZmhWQjdmbnNOa3VKNzlvODVwTUNLck03dFM1cjRmaTZCMkl3VTN1aU1ERnp3V0w4,Turkish,,1,2014-11-26,Mustafa Ince,Boo,Ne surumu,,
WoT Tank Quiz,Google Play,mazechazer.android.wottankquiz,Z3A6QU9xcFRPR21jWEptbC1UTGVUMDdzQkQ5SWU3MDhrWWYtSWFTQmkxMzlNby1RQzAwVzVrNXQ3djB1MTlIcHlFMFFoa052X082TGsxOFJBLWJudzl1b0Uw,Vietnamese,,5,2015-06-20,Caoky Huynh,Admin,Wa tuyet voi,,
