App,Store,App ID,Review ID,Country,Version,Rating,Date,Author,Subject,Body,Translated Subject,Translated Body
WoT Tank Quiz,Google Play,mazechazer.android.wottankquiz,Z3A6QU9xcFRPRlVGX2xUZ2c2bDlVUlNLTlR0UU4wSWtLNkxIbnZqZmkybGpaa3dxb21OVk1JMFI1NzU3dXJnSmxsb2VkVXFLSU15V09OdlZyM0diZjVRTnRr,Czech,,5,2013-03-24,Vít Unčovský,"Nej, doporucuji",Best na procviceni a nasledne poznavani tanku. Moc doporucuji!,,
WoT Tank Quiz,Google Play,mazechazer.android.wottankquiz,Z3A6QU9xcFRPRnBnM3VIQ3doRWZwMUthZE5lcXVTUkhoY0RZdWJvSkhFSXpvMGFhNnNhTW4yaGY1SjlwWm9WQW1WdjRKMWVfMnNxb3N4M2dKOUI5bGtXMmdv,German,,5,2013-04-22,simon l,Gut,Macht fun :-),,
WoT Tank Quiz,Google Play,mazechazer.android.wottankquiz,bGc6QU9xcFRPRVRxOWhxMXNObDBJOEJRalUtM0tXWTA3aVZ1emZXMzhVRGhfbUw1NlZ5TVV1U3BoaGR5cXlYcFM3bmN1Q3hEc2ZKZ0tLZ1dscHNaeTlSUVlv,German,,5,2013-04-21,Ein Google-Nutzer,"",Super Spiel,,
WoT Tank Quiz,Google Play,mazechazer.android.wottankquiz,Z3A6QU9xcFRPSDdFR3NvM2FCMWx0NVBtY1Q5aVJzSnRpZWZsT2NsR1RBVnI3Y25IbVhhZUZJVUhOUGJXcHJrcmpqRndQczFmZVlzWVFhNTdZbGRsZHRHWTFr,German,,5,2013-04-18,SirNik_OdTW,!Super Spiel!,"Ist zwar, wenn man WoT noch nicht so lange spielt schwer, aber man wird immer besser.  Super Spiel. EIN MUSS FÜR WoT FANS!",,
WoT Tank Quiz,Google Play,mazechazer.android.wottankquiz,bGc6QU9xcFRPRmVvLU9McS0zd0l2YlhiYlpQNUphMnZ6SWF0LWlQT2ltY2gteG9RODBZdl93cW0tRG4wVmFBZWprdkExTTNhUzlGSFZlLWItQzFiSmRpWng0,German,,5,2013-04-06,Ein Google-Nutzer,"",Wer bock auf Zug hat schreibt mir einfach.Nickname kerem2002.Bitte max.13 Jahre alt und stufe 2-8.,,
WoT Tank Quiz,Google Play,mazechazer.android.wottankquiz,Z3A6QU9xcFRPSENQQ1NwVUl5X3FHdGpscm9EdkNtck0wLXdOQS1McWtIU3BPaFJoaXlycm9KMTBZalRDazRYd3BmYWh2NS1iYkVVblZvVGIya09zazVDZ3lF,German,,5,2013-04-03,Marian Ollhoff,Für fans ein muss,"Macht mega spass,da es immer wieder verschiedene panzer sind die man erraten muss,ist aber selbst auf der stufe schwer ziemlich einfach für erfahrene spieler,aber viel schwerer könnts man glaub auch nich machen,höchstens dass man auch die fahrzeugstufen erraten muss.aber ansonsten ist die app richtig gut Mein höchstes tier ist 7,mein name ist superkiller1998",,
WoT Tank Quiz,Google Play,mazechazer.android.wottankquiz,Z3A6QU9xcFRPSHNCUTM4REhlaVp0R1JUR0g0V0x4X25odXFkZ29PX20wSlgwYkY2dXhBS1B6QlpJTjdZVjZqdUVGWmZuRFhXRUc0aktZQ1NkdERBRkM3T0VV,German,,4,2013-03-27,Juli Juli,Zu leicht,Also ich finde das ap oder die app ka ganz gut nur zu dumm das es für Fans seeeeehr leicht ist ansonsten Top game.Schreibt doch mal in die Kommentare was eurer höchstes tier ist...achso wenn mal jemand bock aufZug hat ich heißebin wot Killer_Juli,,
WoT Tank Quiz,Google Play,mazechazer.android.wottankquiz,Z3A6QU9xcFRPSE4zc05aNDRpLVpwcW5QckxlS2x5X3ZxWlM2N3VPVkg4QWZNMXVLcEdMWUdWaG5nOS1YZXhBZlBhT0FFaUVwT2swV1pFeVptNDQ1b0Y2c0hN,Russian,,1,2013-04-13,SENPAI 1337,Это была моя идея!!!,Я же твои мысли не читаю!!!,,
WoT Tank Quiz,Google Play,mazechazer.android.wottankquiz,Z3A6QU9xcFRPR2MzT2Nta0hkc0hfNUIwZndRdW5HaTd1X251MnVfcS1ZQ1IxZl93TmhPWVdDOE1iV3dMeVdSLTFMYjJvdFpnNlE4anRhMERlWlZDZS00VlA4,Spanish,,5,2013-04-04,elvio mora,Perfect,Es para las personas que conocen de tanques..a mi me gusto muy bueno,,
WoT Tank Quiz,Google Play,mazechazer.android.wottankquiz,Z3A6QU9xcFRPRU1PVHQ3SlNPemFsdEVSTFhHbktCRlMyVXNNRUFGcmtsMnV6aDV6bnVGY3hBcTdoWUdQcHlCNjc0ek83UnA4WnJEMU9pbGJXZ3dkblF6YXdz,Spanish,,5,2013-03-27,Javier Bustamante,Perfecto,"Solo los conocedores saben como jugarlo,si sabes de tanques te lo recomiendo",,
