terrible did not work,o,2017-04-05,,1
so i can control over the light,f,2017-01-05,adi vardhan,5
fake,b,2016-12-20,Martin Petersen,1
non,o,2016-10-22,Takkun Kesaeng,5
awesome it control the bulb at home,o,2016-09-20,Mohamed Nisthar,5
can not control house light,f,2016-09-15,Dartick Jackson,1
not working,o,2016-09-14,Salam Barqawi,1
it doe not work,o,2016-08-27,mic.c conradie,1
but can you add a scheduler to turn light on and off,f,2016-08-21,Shane BLACKBURN,5
how do you even use this,o,2016-06-11,Its Ioan,1
great,o,2016-06-02,Christian Wolf,4
one think i am missing is the ability to hide the control i am not logged into my at home,f,2016-06-02,Christian Wolf,4
doe not provide set up instruction,o,2016-05-19,C PHILLIPS,1
developer unresponsive,b,2016-05-19,C PHILLIPS,1
wish i could assign zero star,f,2016-05-19,C PHILLIPS,1
mind u guy,f,2016-05-19,Freddy Alonso,5
over the default,f,2016-04-14,Anton Stoyanov,5
keep up the great work,o,2016-04-14,Anton Stoyanov,5
nice great widget and nice integration but kill my battery,o,2016-03-29,Chris Hudson,2
excellent,o,2016-03-25,Morgan McDaris,5
really good work really well and is very stable,b,2016-03-20,Peter La Fontaine,5
there are some problem need to be ironed out,o,2016-03-11,Adam Harris,2
this is a wonderful to control my bulb,o,2016-03-05,Stephen Del Rose,5
wish is had better integration with,f,2016-03-05,Stephen Del Rose,5
would love an alarm mode simulated a maybe a sleep alarm that dims the light at a certain time a well,o,2016-03-05,Stephen Del Rose,5
ability to create custom light pattern within the would also be awesome,o,2016-03-05,Stephen Del Rose,5
ha potential,o,2016-02-25,Loreal Kelly,4
easily took control of my just had to modify the address,o,2016-02-25,Loreal Kelly,4
could see a few thing added to improve it,b,2016-02-25,Loreal Kelly,4
would like to see these addition allow widget all light control to show up entering not just control of 1 particular alarm feature added,f,2016-02-25,Loreal Kelly,4
work really well,o,2016-02-18,Richard Lennon,5
nice short cut in the,o,2016-02-18,Richard Lennon,5
night light,f,2016-02-18,Richard Lennon,5
i like i have the plus and is not compatible with my tablet,b,2016-01-30,luis segovia,5
so i downloaded this and it work it seems more responsive the and it make the light brighter since it actually up the,o,2016-01-30,luis segovia,5
i can control my clone with my very nice,o,2016-01-12,Ruud Griepsma,4
enabled the notification on my lg it stop the phone from turning on in so disabled that,b,2016-01-12,Ruud Griepsma,4
very fast and work well,b,2016-01-11,Darren Duffy,4
i would love to see android support we can switch off the light with the remote,o,2016-01-11,Darren Duffy,4
work fine the first time i open it,o,2016-01-08,Dragos Olar V,1
i close the an reopen it no matter what i try it wont to my,b,2016-01-08,Dragos Olar V,1
i reinstall the it will again i close the and i can kiss it goodbye terrible,b,2016-01-08,Dragos Olar V,1
struggling to get to work on wear device though,b,2016-01-06,Jonathan Durrans,5
360,o,2016-01-06,Jonathan Durrans,5
it look but cannot get the to talk to my light,o,2016-01-04,Daniel Brittain,3
the mi light work fine but this ha way more feature,o,2016-01-04,Daniel Brittain,3
all it missing is a color chooser in the wear and the same functionality in the form of a widget then this will be the only lighting controller we would need it would have it compared to competing,f,2015-12-30,Majid Jackson,4
i bought some bulb age ago and could never get control of the white bulb,b,2015-12-26,nomad ‌ ‍ ‎,5
all i had to do wa install the and i instantly have control,b,2015-12-26,nomad ‌ ‍ ‎,5
can i donate,o,2015-12-26,nomad ‌ ‍ ‎,5
i love the adding a quick switch panel to my home screen,o,2015-12-23,Jonny Wilson,5
lot more to play with,o,2015-12-23,Jonny Wilson,5
very impressive,o,2015-12-23,Jonny Wilson,5
i used it for fun in the party,o,2015-11-24,Vinay Kumar,5
not working,o,2015-11-22,Riza Ortiz,1
awesome,o,2015-11-06,John Ballington,5
wear support could do with a few more configuration option,f,2015-11-06,John Ballington,5
,o,2015-11-06,John Ballington,5
this is by far the best,o,2015-11-01,Shuie Katz,5
i really liked the and the integration with and wear but since i upgraded to android 511 the program crash all the time and i keep receiving notification this is making my phone slow and asks for fix this issue,b,2015-10-27,Yuri Tupá,5
functionally it work but i had trouble stopping disco mode a few and my kept throwing warning it wa slowing down the system and it wanted to close it,b,2015-10-19,Paul Hansen,3
i think this is a step in the right but there are a few feature i would love to see implemented,o,2015-10-18,Matthew Troth,4
i would like to see a function if i a notification on my it flash one or all of the light a predetermined and be able to turn on and off my light automatically if connected to the network and determining or not it dark outside by using information,b,2015-10-18,Matthew Troth,4
willing to pay for these feature,b,2015-10-18,Matthew Troth,4
thanks,o,2015-10-18,Matthew Troth,4
i have a question doe you control the technology,f,2015-10-15,Marc Oggier,3
,o,2015-10-15,Marc Oggier,3
nicely designed and ha way more feature than the official but crash several time per day in beyond what would be tolerable,b,2015-10-12,Heber Acquafreda,2
for now,o,2015-10-12,Heber Acquafreda,2
love the but the latest version crash a lot,o,2015-09-22,Tomer Siani,2
work great with lg g watch r would be great to have a fade feature in,o,2015-09-22,Tomer Siani,2
work exceptionally well with,o,2015-08-28,Matthew Neuhoff,5
i replaced ton of useless code i needed with the other and replaced it with a few simple command from this,o,2015-08-28,Matthew Neuhoff,5
very well done,o,2015-08-28,Matthew Neuhoff,5
most recent update with wear support and designated button is perfect,b,2015-08-28,Matthew Neuhoff,5
great work on this,o,2015-08-28,Matthew Neuhoff,5
it work great but the only problem i have with it is every time go into the setting menu it stop working i clear data for the,b,2015-08-27,Keith Quaale,4
