# deletions,date,commit message
5,2016/2/15,capi (Martin Carpella) fix for issu #8
284,2016/2/14,Convert to Gradle (Android Studio) project
7,2016/1/04,Add workaround to handle Umlaut from posteo.de
15,2015/12/19,this solves github issue #13
35,2015/11/13,add a search function on titles
19,2015/11/03,Bug correction
2,2015/11/01,Change README.md
62,2015/11/01,Add account update and account removal
0,2015/10/31,reorg lib. lib ise removed and jars are in libs
13,2015/10/31,minor changes for syncinterval management
521,2015/10/27,Offline mode has been added
22,2015/9/04,Use namespace to find Notes folder
579,2015/9/04,Multiple accounts can be used. Use Android account manager.
32,2015/7/18,manage errors at login time remove some extra spaces and correct unwanted undelines
5,2015/6/29,Bug fix
0,2015/5/16,Add apk file
84,2015/5/16,manage colors with Kerio Connect keyboard is not displayed by default
3,2015/5/09,Change version number in AndroidManifest.xml and text in README.md
1,2015/5/09,Bug correction. In case tere are many folders in a namespace
3,2015/5/08,Do some more cleaning
2,2015/5/08,Do some cleaning
61,2015/5/08,Manage namespaces (Courier-imap) use UIDs instead of numbers and app ico is modified
12,2015/4/30,about menu item added textNoSuggestions added for the EditText supress refresh when changing orientation
0,2015/4/26,test apk for <div> <p> problem
25,2015/4/26,test apk for <div> <p> problem
0,2015/4/26,Delete imapnote2.apk
0,2015/4/21,test apk for <div> <p> problem
0,2015/4/21,test apk for <div> <p> problem
0,2015/4/21,test apk for <div> <p> problem
256,2015/4/19,add portnum and security type (can be plain text SSL/TLS or STARTTLS)
35,2015/1/04,Accept untrusted certificates and Kerio Connect servers
12,2014/12/14,Bug in manipulating html body notes corrected
2,2014/12/13,when a message was modified or created note number remained empty
5,2014/12/12,Change README file
82,2014/12/12,Change navigation using ActionBar
47,2014/12/10,Move add note and delete note processing in asynctasks
12,2014/12/03,Manage account connection (success or failure). Refresh list when app first starts.
2,2014/11/30,Small changes
16,2014/11/30,List is now not refreshed when a note is modified added or deleted
1,2014/11/15,Cosmetic update
1,2014/11/15,Added AOL
8,2014/11/15,Added Yahoo\!
112,2014/11/11,add the ability to edit existing notes
0,2014/11/09,put forgotten apk in bin
28,2014/11/09,renaming some files
15,2014/11/09,Add the ability to create new notes
21,2014/11/03,Added the ability to remove notes from imap server by the mean of a menu option on detail screen
85,2014/11/02,Some minor modifications
3,2014/10/26,minor changes
0,2014/10/26,added release apk
