App,Store,App ID,Review ID,Country,Version,Rating,Date,Author,Subject,Body,Translated Subject,Translated Body
Imapnotes2 sync iOS OSX notes,Google Play,com.Pau.ImapNotes2,Z3A6QU9xcFRPSGZvNHpORmVWYWFYUW9OYWlVbVkzOW02UWM3SXBGQjRGUjNjaVRPNXpFRHh4RHd5TWswUTdveHNxcHJKNkpJRHFmdG0xQnlRTzI1QmRyUHRz,English,,1,2017-02-20,Steve M,"",Imap Only!  NO iCloud support   junk.  garbage.  avoid,,
Imapnotes2 sync iOS OSX notes,Google Play,com.Pau.ImapNotes2,Z3A6QU9xcFRPRWc5VWM3eUhyaG8xUXk1MUs4bVZKU1piWkpYR2FNb196djViTnFERHVNNlN2YlRjdFdkTXRIVjhyZWM5UGpHMFo2UTAxZ2FYUFJqNnd0bnpB,English,,2,2017-02-05,Mike Renwick,"",It wiped out notes on my mac and phone,,
Imapnotes2 sync iOS OSX notes,Google Play,com.Pau.ImapNotes2,Z3A6QU9xcFRPRTJaSUVrTmh2RWVqbm9MRVJVUUFtWUt4SUlvLXM0SjZkX1M1UUsyNExTVmxkajBlSkVWckJ3Tk5ZX3dqLTVhV2pBZWZ0cEl3Tk5GM185WXZv,English,,4,2017-01-16,richard myer,"","lack of delete confirmation is a danger. (Note: ive used a apk editor to remove the delete option from this app, was very easy to do. Any deleting of notes I do from the pc client side). Fantastic and simple program, syncs with outlook with no problems. Useful little tool (android 5.1 / arch Linux with dovecot IMAP SSL)",,
Imapnotes2 sync iOS OSX notes,Google Play,com.Pau.ImapNotes2,Z3A6QU9xcFRPR3E1aEFwLVZuV1Q2eS1TSUxKbDIzTnhIMmZjZ0RKd3l4NXNVUkJpSDJrZGtCYWl6NUR3Wk5QZGhuVUk4X2hfTkFBR3BPOFRCVGV3ZWNET0lR,English,,3,2016-12-16,Sasmita Sarangi,Does not sync folders in notes,"Neither syncs folders nor displays hyperlinks as hyperlinks, but plain text. Hyperlinks with images shown as plain image. Lot more needs to be done to make this app the best. If need be add the features as paid version. Evernote does good job, but it's worthless for me as I prefer OSX notes, where in I can have notes from all IMAP servers. Hence this app after trying many. iNotes does the trick but only Google account supported. Same hyperlink issue as well. Thanks for the app.",,
Imapnotes2 sync iOS OSX notes,Google Play,com.Pau.ImapNotes2,Z3A6QU9xcFRPRjZUY2tmek1pWHJlckRXdTNuVUZKM3dEeWJiQzlFclVOV1BSQU9PTUN5bnlPSV9nZUhnVWw4NWFJdEFlZ2ZxYkhIUExFUXhDdlJRb3JMSzdV,English,,2,2016-12-13,Eric Lui,"",Suggest to have confirmation for deletion. ...... It works perfect to sync existing note to this app. BUT the sync didnt work when I created or edited notes.,,
Imapnotes2 sync iOS OSX notes,Google Play,com.Pau.ImapNotes2,Z3A6QU9xcFRPSDFXWl95RmttdV9ZQzhiZHVnXzhIaDJBS2xmV1doU2VwbVJud3lZSVNNYWl3M1ozd1VwOFBkTTEtYUZURzM2UnphRlZuMVJKYmM0eEc4YXBz,English,,4,2016-12-12,Sam W.,It works and its a good app.,"Thank you very much. I use this almost daily and it is great to sync with my mac. It tends to crash a lot, I always get notifications that ""imapnotes2 has stopped,"" but other than that, it does what it is supposed to and that's all I could ask. Thank you (:",,
Imapnotes2 sync iOS OSX notes,Google Play,com.Pau.ImapNotes2,Z3A6QU9xcFRPSDVTRVk4WHJTRWU2V0hLYTRTU3FleWFocDJsNTh3QnpSTmRLUUxySWxNeUNuNm1qczMzYU9FTktCZkpHWjhJUWE4VnpOblEwMnBFVVhVMzBV,English,,1,2016-12-10,Waqar Aslam,Apple,Change the description of the app to does not work with apple. Stupid misleading app.,,
Imapnotes2 sync iOS OSX notes,Google Play,com.Pau.ImapNotes2,Z3A6QU9xcFRPRk9DYmdSbUZ1eHQyTkFRTHZUM19paXZlRDZkZ183TFJGY28tcWpVWkw5Tm94dHpFUkFTT3hZWjB6eEJ1RVl4dUxFeUpoNGg1V1BqeDBkbW5n,English,,1,2016-11-13,Alex Lucky,Please Support TLSv1.2,This app is insecure! Please add proper TLS cipher support!!!,,
Imapnotes2 sync iOS OSX notes,Google Play,com.Pau.ImapNotes2,Z3A6QU9xcFRPRVBmZEtHU1R1c09aamVEUVdvcE9FaklZcjhTMjNFVjZyam11cHRJMG1aVW1hTVpucWY5bFcxRXBPMW80MVd3MFVPZ3NjeEtLV28yQlVQMlMw,English,,3,2016-10-22,kwhitefo,Actually it's not OK,"But the source is on github.  It doesn't work for more using Yahoo IMAP.  I cloned the repository and ran it in Android Studio and found that the ConnectToRemote method fails with res.returncode=-2, res.errorMessage=Cannot obtain UIDValidity.",,
Imapnotes2 sync iOS OSX notes,Google Play,com.Pau.ImapNotes2,Z3A6QU9xcFRPRUZONzVVNi1zQkl5RlhKUi1OTWwyMnNGaVo1R3YxZDRaZmFlcGV2VllJQ2Z1VWppRGtiRUZzRDJaYUU4eTRCY3FBdTZMdkpqcjRScVhGb3NV,English,,3,2016-08-17,Nate1829,Doesn't work,Couldn't configure. Says couldn't connect to host;port 143 timeout 1000,,
Imapnotes2 sync iOS OSX notes,Google Play,com.Pau.ImapNotes2,Z3A6QU9xcFRPR2lReWNiOEhtOFpFR0swTWxHcXJGOHoxYV85QmRIeTNXT2pYcllyTjJXTlFQQW5kQVR1MXktZkN6WFdYZlI1RXk2RmdYaTJiUGVhQ0ZxWmlR,English,,1,2016-06-26,Michael D,"","Deleted all my notes from iCloud, but did not download them",,
Imapnotes2 sync iOS OSX notes,Google Play,com.Pau.ImapNotes2,Z3A6QU9xcFRPRVdyTkx1b1EzS2ktMzhXdF9ReXFlU0hPbjRkSVZnajdJaEdLS2xpcld6ZzRtaTc5NU1yZ0NfVl9obU9Ja1U2VTN6YXRVRVpLNjhDM2xZOWRF,English,,5,2016-05-28,"",Great app,It may not work with iCloud but it works for every other type of IMAP server. Love it. It's ugly but works. Could do some improvements in the UI a bit. Do not change the functionality of this app for iCloud people. Perfect.,,
Imapnotes2 sync iOS OSX notes,Google Play,com.Pau.ImapNotes2,Z3A6QU9xcFRPRWd6TGVaSzI4N3hfSVd2bnotV2g3VlNqSVM1a0pidXppSmpCZkxub3B0SEFTN1hpdHAwaU5DcGx2ckpYMjlrdUU1c29hU3FUT1IzVmJ2YzhZ,English,,1,2016-05-17,Kevin McGachy,"",Doesn't work,,
Imapnotes2 sync iOS OSX notes,Google Play,com.Pau.ImapNotes2,Z3A6QU9xcFRPRUNLSkx2RWRjRTN3elJQR3RWOTdWclBEN1Uwcm1wbVh2SEhQaG9aVmYyMVp5aWgyZE5KdTlTeU1nZHdJSDZueFE2X1p4dDMtVnBRM0JCTllr,English,,1,2016-05-12,Ralph Muenstermann,Destroys my notes,"As soon as edit one of my notes on an Android device, it actually deletes it when I press Save. So bad!!",,
Imapnotes2 sync iOS OSX notes,Google Play,com.Pau.ImapNotes2,Z3A6QU9xcFRPR3RWZ21JODF3Vllmc2JKYnZybm9udEFiLW1kcWN2SnJKdFBKRlo1Skt2MVI0bzU5cjkxaVRsNkQ2N3gzcDFhWnFVZ3VKLVgyZVdOYU0taVVZ,English,,5,2016-05-04,Korezx Buritr,ASMAULHUSNA,ASMAULHUSNA,,
Imapnotes2 sync iOS OSX notes,Google Play,com.Pau.ImapNotes2,Z3A6QU9xcFRPRTFYMmFyVVpTSE92WVpuZzhTN3l6SHhodkxWSC1vUkpqd1dzSG9ZcllfNWZ4eE9tdDBFMnB2aDNjcWRGR2V4SVVuVlZNX2k2cWlKVFA1S013,English,,2,2016-03-18,John Murphy,Wtf?,Installed it... Syncs alright but if I create a new note and hit the save icon... Message gets deleted. Same if I try edit an existing note. Will NOT create apple account... Authentication error every time no matter what authentication ... Only Google account works! Piece of crap!!,,
Imapnotes2 sync iOS OSX notes,Google Play,com.Pau.ImapNotes2,Z3A6QU9xcFRPRWVqSHpKSjVlbUM3M2laNXZFNkN2NnBvNjlSc0JaaWFjTGZCbEkwd2k4bDJQWGpuMlMtc0JNUzdDcnE3S1poTGc4UEJVbDhLbGhvRlFWeWU4,English,,1,2016-02-22,"",False advertising.  Stopped syncing with Apple,Authentication error.  Was awesome just over a month ago. It's useless now. And they still trick you with latest update like there's nothing wrong.  😕,,
Imapnotes2 sync iOS OSX notes,Google Play,com.Pau.ImapNotes2,Z3A6QU9xcFRPR19EbFpKUTdNUkpzSWQxRmF4Zm1KQzZBeE94ZERXbnAzSDJkTW92RXEzVnNJMWlmMF9WaGNaX1NZcFo2amdCSjl6N1pXZDEwMkM0RWE3V1NV,Japanese,,4,2016-03-02,tomomi Otas,good,it works on my imapserver.,,
Imapnotes2 sync iOS OSX notes,Google Play,com.Pau.ImapNotes2,Z3A6QU9xcFRPR2d1a0RZSlJsSWNIN3dwNXZUbGhyTW55X0wwVDhESDFoM1QxX3lQakpDcEdSZm1sbEpOOWU0SXZaUjNWMFJCdHNxRnFTaXdkM3VkNUo1WHZz,French,,4,2016-10-06,Christoph Dürr,"",Easy application. Synchronizes well with an IMAP account and therefore works will with the MacOS program Notes. Just the yellow background is to bright and cannot be changed.,,
Imapnotes2 sync iOS OSX notes,Google Play,com.Pau.ImapNotes2,Z3A6QU9xcFRPRnFHVFR6OUI0MlN3b3FCb29leVl3anZrMFppQmpTWTRKdlhBMjZ2ZGYxeXBfbnc5cVd0WThZZ3AtZEtxOU9SRWUxbFFRdndvczYyazhyLUQ4,French,,1,2016-04-11,Famille Bonnet,Impossible de créer un compte,"Je n'ai pu ni créer de compte iCloud, ni Gmail...",,
Imapnotes2 sync iOS OSX notes,Google Play,com.Pau.ImapNotes2,Z3A6QU9xcFRPRk9qdXhwbzc0QVNydmhsTjhqUFNpSm00YnU4LVNGekxRVjNJcXo4eVg1LTA3UlRybHFZSnlwNUNUMFhZM2dUOF94Sk1lSDZaREI0dllSTVBV,Greek,,5,2016-10-11,stratus stratus,"",exellence,,
Imapnotes2 sync iOS OSX notes,Google Play,com.Pau.ImapNotes2,Z3A6QU9xcFRPRTdfM05FYjIwejROcXBjRl9VR0FzeXMwanFXOUxreDNsV1JaejVlWVZmb2kxOURFU1JvclQyQm4xQTlYaVQ4ekFrUmhlMWNLWTljM3NWNHpn,Portuguese,,1,2017-01-17,"",Não consegui sincronizar,Falta muita informação para podermos configurar o aplicativo,,
Imapnotes2 sync iOS OSX notes,Google Play,com.Pau.ImapNotes2,Z3A6QU9xcFRPSDRPNVYtMERGbGlHLVdEYmpSbElsY0ZadThZM1BaNk9UaXhPdjJiTWZVSVdtcWFDMm5jUmpEUzdNaVJkWXo5blZOR09uaUVvMS1mOTdCYjZR,Portuguese,,2,2017-01-10,Sidnei Miranda,Alguém pode ensinar como sincronizar?,Baixei mas não sei como sincronizar do icloud para meu Android. Alguém teria um link de um vídeo explicando?,,
Imapnotes2 sync iOS OSX notes,Google Play,com.Pau.ImapNotes2,Z3A6QU9xcFRPRkFsRnFDYmxmMUR4VG4tYjVHWEx4MXo4THo4VkVraFhtZEVWZFNfZGtzdHpMVHVLUzQ3b3VSWVozdTVBNEdvdVZFVGJ5R1k0UFA2VEplOEhN,Russian,,5,2017-02-25,Александр Верещагин,"","Не хватает только сортировки по последнему изменению - и можно делать платным! Рублей 200-300 я бы счёл разумной ценой! Перепробовал 10 аналогов - из них синхронизируются именно с IMAP только 2! Но у Гугла виснет поиск, а у MailNotes поиска нет совсем.",,
Imapnotes2 sync iOS OSX notes,Google Play,com.Pau.ImapNotes2,Z3A6QU9xcFRPR3k5UFFmOWRlMGtQTEJLUTgtNjZaSWVUZ1dPbVZJSUpFV1RrZ1d3SjNteGxneE1MQU0xbjE1Vl84MDlSenRQYWFiVURpOWpaOTJLY1Job2hv,Spanish,,1,2016-07-21,David Quidware,"10,000 chars. Limit","Same way as Gnotes, this app doesn't load more than 10,000 characters from the IMAP backup, really sad.",,
Imapnotes2 sync iOS OSX notes,Google Play,com.Pau.ImapNotes2,Z3A6QU9xcFRPRmk2YUJfaEtfbXpkeDZwdVZyWEVwX0UtNGU0MTcxN2V1QTZrdktmVHBsdk5rTFlTenR0WjdJSHlncDVHMkhSbWRCYUlpZFJyMkhPcVhrT0o0,Spanish,,5,2016-03-22,Andros Fenollosa Hurtado,No muy bonito pero funciona genial!!,Es rápido y eficiente.,,
