App,Store,App ID,Review ID,Country,Version,Rating,Date,Author,Subject,Body,Translated Subject,Translated Body
Autostarts,Google Play,com.elsdoerfer.android.autostarts,bGc6QU9xcFRPSENieVg5ZEpadUxCOWdXY3VXSmxORUNyOHRxR3c4WTI5ZHZWUUxmalA4WTVoYTU0U2J6VlJNektwQVFsOUZLUk9mdlVqVllUcVZodjRObUE,English,,3,2014-11-16,A Google User,Gets root but can't utilize it on 5.0,using super,,
Autostarts,Google Play,com.elsdoerfer.android.autostarts,bGc6QU9xcFRPSENieVg5ZEpadUxCOWdXY3VXSmxORUNyOHRxR3c4WTI5ZHZWUUxmalA4WTVoYTU0U2J6VlJNektwQVFsOUZLUk9mdlVqVllUcVZodjRObUE,English,,3,2014-11-16,A Google User,Gets root but can't utilize it on 5.0,root is granted but unable to deny from starting,,
Autostarts,Google Play,com.elsdoerfer.android.autostarts,Z3A6QU9xcFRPRkZobkpncUlaeXlGdGpIcWNMdUdvdGN2TVVFWmFYZ3JkSmVCdlZ1aXVvTVlzN3ZCdk9POS13MGNLRnNuU3lsby1VaGljVlU1ZlNwLTNPRWc,English,,1,2014-11-16,Enrique Leon,Lollipop,can get root access,,
Autostarts,Google Play,com.elsdoerfer.android.autostarts,bGc6QU9xcFRPRlFhcFJRTExPY0NOU25qWEsyVlJpejlJbmVtZl83THU4Y1B2SkowdVgwQloxcXdHdzl5NEh1elgzZW5ZM2VEZkpLV0F5OU5xNGRjTHREVUE,English,,1,2014-11-14,A Google User,5.0,cannot acquire please fix,,
Autostarts,Google Play,com.elsdoerfer.android.autostarts,Z3A6QU9xcFRPR2l3R0pTamxBLVlQU1R2LXRDYnFaRExZSmlXOXhUUk94U1pGcF9SREsxRUxZQU1Ca1BzamVZakVBZ3NLMXJDaG5EZ0FzWnJXdjhQd0E2Wnc,English,,5,2014-11-08,Google User,Latest Update,thank you for your latest update,,
