# deletions,date,commit message
2,2014/11/08,inc version number
1424,2014/11/08,merge new string from into file
2222,2014/11/08,include new translation from
1,2014/11/08,fix build
0,2014/11/08,new icon
1,2014/11/08,update play label
1,2014/11/08,turn out the bug still exists
1,2014/11/08,this reverts commit
55,2014/11/08,get rid of our custom workaround too
55,2014/11/08,i have to believe this ha no been fixed in android proper
55,2014/11/08,certainly the ha been rewritten and this is liable to cause problem at some point
345,2014/11/08,get rid of another class
1,2014/11/08,prevent unnamed receiver from hiding
1,2014/11/08,i am surprised they can even exist
1,2014/11/08,use ellipse character
2,2014/11/08,add search feature
5,2014/11/08,new info icon
5,2014/11/08,remove the colored version instead rely on 50 tint
5,2014/11/08,older version will lack a highlight color
