# deletions,date,commit message
3,2013/11/04,Bug fix for crash #9. Delete async task must be created on the UI thread.
13,2013/11/01,. Updated version to 0.2.2 (12) . Stability fixes: catch exceptions and display toast message when failing to open email in K-9 or delete an email
16,2013/10/29,. Log level clean up . Minor thread optimization . Only start EmailNotification thread to auto close activity when needed (dup of service thread in lots of cases) . Notify EmailNotification thread to stop when activity is closed manually
6,2013/10/29,Now show next popup (if any) as soon as the 'Close' button is pressed
1,2013/10/28,Updated 'About' text
906,2013/10/28,Removing private workspace.xml IntelliJ file
1,2013/10/28,Updated Intellij VCS file to GIT
15,2013/10/28,Added option to display or not the 'Delete' button
3,2013/10/28,. Increased versiont to 0.2.2 (11) . Removed emai popup notification from recent list + no history
29,2013/10/21,Added keyguard unlocking security option ie whether or not the user needs to unlock the screen when he/she clicks on the popup's 'Delete' or 'Open' button
12,2013/10/19,Cleanup preference screen: externalized all strings
38,2013/10/19,Deleted some old testing code
2,2013/10/19,Fixed minor typos in log messages
7,2013/10/13,Update README.md
10,2013/10/14,Author email cleanup
37,2013/10/14,. Updated some strings . Preliminary for sound preference
2,2013/10/14,Cleaned up popup buttons (now applying Holo theme on devices that support it)
2,2013/10/13,More verbose logs (trying to get swipe to close to work...)
2,2013/10/13,Cleaned up test data
127,2013/10/13,. Updated version to 10 / 0.2.1 . Added delete email feature . Popup now in it's own task (seperate from preference screen) + Many updates to the test activity
1,2013/10/13,A little bit more detailed log
15,2013/10/10,Merged branch 0.1.6 into trunk
5,2013/9/30,Temp implementation of swipe to close
82,2013/9/27,. Updated build.xml to latest SDK . Updated release.sh. Note: the new build.xml now automates signing and zipalign. Make sure to update key.store and key.alias in ant.properties
9,2013/9/27,Import clean up
118,2013/9/27,Updated IntelliJ files
4,2013/9/27,Removed private NB files
0,2013/9/27,Updated Crashlytics to v1.0.4
24,2013/9/27,Updated from deprecated Contact API to ContactContracts API. This allows up to display contact photos from all sources (FB LinkedI Skype etc...)
2,2013/9/26,Test buttons now use name and email from form vs hard coded ones
5,2013/9/18,Fixed typo in variable name
18,2013/9/14,Added support for 'from self' extra intent --> if true no popup
16,2013/9/14,. Increased to v0.1.6 . Min sdk is now 10 (2.3.3) . Added Crashlytics support Note: We still need to get it to work when users don't visit the prefs page . Fixed crash when only popup on starred contacts and email sender is not a contact
4,2011/10/09,Honeycomb / large screen support + v0.1.5
1,2011/10/09,Delete bin/ so that zipalign does not complain about exisiting files
2,2011/10/09,Escaped quote char in string
1,2011/10/09,Fixed 2 crash fixes . bad app logic . no from email address...
2,2010/2/20,. v0.1.4: Added more display time options
2,2010/1/06,v0.1.3
1,2010/1/06,Fixed bug with keyguard coming back even when the open button is clicked
1,2009/12/24,0.1.2
1,2009/12/24,0.1.2
33,2009/12/24,. Filtering out email order than 8hours TODO: Make this a preference . Added support for K-9 2.3x (package name change) . Added scripts for local deploy and building release
2,2009/11/21,v0.1.1
26,2009/11/21,Added 'Open' and 'Close' buttons
9,2009/11/21,Clicking on the notification opens K-9
0,2009/11/04,screenshots/email-popup.png | Bin 25650 -> 0 bytes
21,2009/11/04,. Better icon . Better about text . Hid test button . Removed unsued persmission request
42,2009/10/28,. Cleaned up test screen . Better about text . Mechanism for screenshots
2,2009/10/27,better about text
87,2009/10/25,. About screen . Better layout . Better default photo
11,2009/10/21,. Switched default photo to droid one . Added icon to notification title . Hit test screen
70,2009/10/19,. Added icon . Added service . Added more preferences: display & filtering TODO: About screen
