# deletions,date,commit message
2,2013/11/30,Check if calender insert failed with CMs privacy guard  If CyanogenMod's privacy guard is enabled ContentResolver.insert returns null. Before the result is checked we pass the result to the logger and give rise to an unhandled null pointer exception.  Put the statements in the right order to fix this. The user now gets the appropriate warning.
6,2013/11/30,Add gradle wrapper
13,2013/11/20,Fix #25 remove lines from HoloColorPicker build file
173,2013/10/26,Update HoloColorPicker to current master
1,2013/10/26,Fix button string
7,2013/10/26,Update translations from transifex
2,2013/10/26,increment version to 1.4
1,2013/10/26,Check that offline calendar is installed on internal storage
