# deletions,date,commit message
5,2016/1/18,SelectLanguageActivity: Use MenuHelper.createSearchIntent
14,2016/1/18,MenuHelper: Use a Context where possible instead of an Activity
6,2016/1/18,SearchAdapter: Add a note when an alternative language is used
19,2016/1/18,Add a convenience function to get the language name with ‘la’  This adds a second method to LanguageList to get the language name but this one has a parameter to specify whether the article should be added. It now returns ‘esperanto’ instead of ‘esperanta’ for eo and never adds the article.
13,2016/1/18,SearchAdapter: Keep track of the language number that had results  The number of the language that was finally used to return results is now tracked by making the filter return a new object which has this in addition to the actual results.
47,2016/1/18,Search alternative indices instead of just the main one  When searching if no results are found it will now try searching in up to two other of the main languages. If at least one match is found it will display the results from that language instead.
23,2016/1/18,SearchAdapter: Don't save the trie index  The trie is now loaded on-demand from the cache whenever a search is initiatied rather than keeping it around forever. This should usually hit the trie cache so it shouldn't cause any delays but it also has the benefit that if the user opens a bunch of activities with many different languages then the garbage collector will get a chance to collect the tries. They will be loaded again when a new search is started on the activity.
6,2016/1/18,Cache the trie indices  Instead of each SearchActivity loading its own copy of the trie they are now cached in a static class so that they can be shared. The cache only keeps the last 5 used indices so that if the user switches between a lot of languages it won't use up too much memory.
2,2016/1/18,Update the TODO list
1,2016/1/16,SearchActivity: Put the language shortcuts on the action bar  The menu items to select the most used two languages are now shown in the action bar with just the language code as the condensed text.
1,2016/1/16,Add 2016 to the copyright message
4,2016/1/16,SearchActivity: Fix the name of menu item for searching in esperanto  Otherwise it says ‘serĉu en la esperanta’ which is a bit weird.
5,2016/1/16,SearchActivity: Add menu items to rapidly switch to the main languages  The menu in the search activity now has dynamically added items to switch to the 2 other most used languages.
3,2016/1/16,MenuHelper: Add a helper method to create an intent for SearchActivity  The helper function sets the language for the intent.
12,2016/1/13,Convert the README to markdown
6,2016/1/12,SearchActivity: Remove the search menu item  This is removed when the menu is created so it is pointless to list it in the menu resource. This was left around from when the menu resource was shared between multiple activities.
2,2016/1/12,Remove the debuggable option from AndroidManifest.xml  The default value is false is anyway.
3,2015/11/27,Release 0.12
