Topic Index 1,Topic Index 2,Topic Similarity
8,1,17.647058823529413
2,0,11.11111111111111
3,4,11.11111111111111
0,2,5.263157894736842
4,5,5.263157894736842
9,7,5.263157894736842
10,8,5.263157894736842
13,10,5.263157894736842
17,9,5.263157894736842
1,3,0.0
5,6,0.0
6,11,0.0
7,12,0.0
11,13,0.0
12,14,0.0
14,15,0.0
15,16,0.0
16,17,0.0
18,18,0.0
19,19,0.0
