Topic Index 1,Topic Index 2,Topic Similarity
6,19,0.2805
1,14,0.1979
3,0,0.1578
8,2,0.1554
9,7,0.1389
15,3,0.10779999999999999
13,13,0.09480000000000001
14,8,0.091
18,6,0.084
11,15,0.078
4,4,0.0756
12,18,0.0589
5,17,0.058
19,12,0.05740000000000001
2,9,0.0462
16,5,0.0322
0,1,0.0
7,10,0.0
10,11,0.0
17,16,0.0
