Topic,Words
0,0.204*interface,0.138*what,0.105*a,0.093*quality,0.082*easy,0.074*high,0.065*great,0.065*with,0.053*creative,0.044*content
1,0.222*content,0.214*super,0.183*easy,0.123*creative,0.066*graphics,0.053*total,0.052*and,0.026*a,0.024*great,0.013*high
2,0.249*a,0.178*super,0.163*and,0.081*great,0.068*high,0.054*total,0.049*easy,0.039*interface,0.034*graphics,0.028*content
3,0.164*super,0.158*graphics,0.126*content,0.119*great,0.102*high,0.096*what,0.084*and,0.047*creative,0.042*total,0.023*easy
4,0.322*a,0.149*high,0.092*great,0.074*easy,0.068*with,0.057*interface,0.046*creative,0.043*total,0.042*super,0.041*graphics
5,0.178*easy,0.154*super,0.111*what,0.102*creative,0.094*quality,0.080*and,0.068*interface,0.056*high,0.046*total,0.039*great
6,0.346*quality,0.182*creative,0.174*total,0.056*interface,0.049*great,0.047*easy,0.037*what,0.035*high,0.024*graphics,0.018*with
7,0.173*content,0.144*what,0.117*high,0.097*graphics,0.078*quality,0.077*interface,0.060*and,0.059*with,0.058*great,0.048*super
8,0.358*a,0.134*interface,0.109*what,0.076*super,0.048*content,0.047*high,0.046*with,0.045*easy,0.039*total,0.034*and
9,0.175*quality,0.152*interface,0.115*easy,0.107*what,0.105*super,0.101*and,0.063*a,0.055*great,0.051*content,0.035*creative
10,0.238*graphics,0.132*with,0.128*quality,0.112*high,0.099*a,0.088*interface,0.082*creative,0.030*easy,0.027*what,0.026*content
11,0.146*with,0.113*quality,0.104*high,0.092*a,0.080*super,0.071*great,0.061*creative,0.060*and,0.057*easy,0.053*content
12,0.158*super,0.150*total,0.099*content,0.083*graphics,0.078*easy,0.071*a,0.065*high,0.059*interface,0.057*creative,0.054*what
13,0.294*graphics,0.192*and,0.125*easy,0.095*high,0.088*what,0.065*total,0.034*super,0.028*with,0.019*great,0.018*quality
14,0.222*graphics,0.149*quality,0.134*interface,0.123*and,0.115*content,0.079*total,0.046*creative,0.039*with,0.024*easy,0.022*great
15,0.323*what,0.226*easy,0.196*a,0.039*content,0.036*great,0.035*quality,0.035*high,0.024*total,0.020*and,0.018*super
16,0.180*what,0.172*creative,0.133*a,0.129*easy,0.113*super,0.073*great,0.067*interface,0.032*total,0.027*and,0.027*content
17,0.173*quality,0.145*easy,0.119*high,0.112*what,0.097*a,0.090*interface,0.075*graphics,0.063*content,0.053*with,0.024*super
18,0.365*easy,0.231*quality,0.093*great,0.092*graphics,0.065*creative,0.038*interface,0.034*super,0.025*what,0.022*content,0.020*total
19,0.193*great,0.159*total,0.127*super,0.098*easy,0.076*graphics,0.067*content,0.062*creative,0.054*and,0.049*high,0.046*what
