Topic,Words
0,0.120*only,0.095*added,0.086*strange,0.081*it's,0.080*looking,0.074*bit,0.068*as,0.063*feature,0.061*is,0.058*that
1,0.184*all,0.108*added,0.107*bit,0.103*strange,0.084*only,0.074*to,0.065*looking,0.063*there,0.056*as,0.037*the
2,0.373*to,0.143*that,0.069*forward,0.061*feature,0.059*as,0.052*inverse,0.050*is,0.034*only,0.032*there,0.025*it's
3,0.226*being,0.118*bit,0.097*it's,0.080*is,0.078*added,0.063*the,0.061*forward,0.057*looking,0.051*as,0.049*to
4,0.190*the,0.137*as,0.132*it's,0.111*feature,0.097*added,0.061*a,0.055*inverse,0.034*that,0.031*strange,0.030*being
5,0.133*is,0.132*it's,0.108*looking,0.107*that,0.070*strange,0.070*being,0.068*to,0.052*all,0.049*the,0.046*a
6,0.143*is,0.120*the,0.119*strange,0.116*it's,0.094*a,0.068*bit,0.063*only,0.057*inverse,0.040*added,0.040*looking
7,0.159*it's,0.142*only,0.094*looking,0.092*that,0.081*being,0.063*added,0.062*feature,0.057*strange,0.055*as,0.047*all
8,0.150*forward,0.134*feature,0.127*to,0.088*inverse,0.083*looking,0.082*that,0.066*bit,0.049*a,0.044*all,0.039*only
9,0.210*strange,0.109*that,0.101*feature,0.097*to,0.096*the,0.062*all,0.052*forward,0.049*inverse,0.048*bit,0.047*only
10,0.150*to,0.150*looking,0.136*there,0.124*that,0.118*being,0.066*added,0.053*only,0.045*strange,0.045*is,0.036*a
11,0.138*there,0.130*added,0.111*only,0.085*bit,0.073*inverse,0.057*as,0.051*strange,0.050*being,0.048*forward,0.043*all
12,0.259*forward,0.117*that,0.108*a,0.099*looking,0.093*added,0.077*only,0.065*feature,0.041*all,0.028*to,0.024*there
13,0.167*inverse,0.159*to,0.113*a,0.076*the,0.056*looking,0.056*being,0.056*all,0.054*forward,0.054*feature,0.046*added
14,0.139*as,0.125*feature,0.108*to,0.097*looking,0.091*all,0.089*it's,0.084*strange,0.075*is,0.041*added,0.034*being
15,0.264*all,0.124*strange,0.103*there,0.076*that,0.059*the,0.059*feature,0.055*being,0.049*as,0.039*a,0.039*it's
16,0.165*looking,0.149*bit,0.105*there,0.095*as,0.090*being,0.061*the,0.056*only,0.054*strange,0.051*that,0.039*inverse
17,0.193*inverse,0.160*that,0.085*it's,0.081*being,0.072*strange,0.066*there,0.056*a,0.049*added,0.041*as,0.038*forward
18,0.207*forward,0.172*to,0.133*being,0.110*a,0.101*it's,0.098*is,0.047*bit,0.030*inverse,0.029*only,0.017*feature
19,0.225*added,0.215*bit,0.112*the,0.079*feature,0.064*as,0.048*a,0.045*forward,0.039*to,0.036*that,0.033*is
