Topic,Words
0,1.000*awesome
1,1.000*awesome
2,1.000*awesome
3,1.000*awesome
4,1.000*awesome
5,1.000*awesome
6,1.000*awesome
7,1.000*awesome
8,1.000*awesome
9,1.000*awesome
10,1.000*awesome
11,1.000*awesome
12,1.000*awesome
13,1.000*awesome
14,1.000*awesome
15,1.000*awesome
16,1.000*awesome
17,1.000*awesome
18,1.000*awesome
19,1.000*awesome
