App,Store,App ID,Review ID,Country,Version,Rating,Date,Author,Subject,Body,Translated Subject,Translated Body
Network Monitor,Google Play,ca.rmen.android.networkmonitor,Z3A6QU9xcFRPSE9GLXR3eTFYeEhnMk5IX1JRXzRjSUQzdmotVHBTX1RlTkRrUUo3TzZ0LVRVb0RXZjhVR2Jva0lPYy11WTBGbFd4SjJUR1hGNlN5NjN3ODFz,French,,2,2015-03-10,Daniel Luquette,Attention,"Cette application fonctionne très bien. Mais elle gruge votre data à vitesse grand V. J' ai dû payer des surplus à mon fournisseur internet. Après avoir installer une app pour voir la provenance, Network monitor avait gruger 4 G en 24 hrs.",,
Network Monitor,Google Play,ca.rmen.android.networkmonitor,Z3A6QU9xcFRPSDN6Ti1fajY1dkJIaXBzLVM0M2lzQzlITy1qQXJwZlJuYnBfRHV4bVgxY0Q3TW95U2NDcDZoVzJWRWU0aEhGRE5qREJ6WW9pQ0pSdVFLNnFj,Spanish,,5,2015-03-19,"",Excelente,Excelente,,
Network Monitor,Google Play,ca.rmen.android.networkmonitor,Z3A6QU9xcFRPSFUyOHdsYlE2QUxUc0lySjFJdUNfNTJOaTdNcDk2OS1uOGplSUJ4U2RCS0tmN3prNkplT21ydE9VQnh3Q2lCdF85MzFJMmR6T2tGR252ZUtv,Thai,,4,2015-03-08,คนาสิน หนูน้อย,"",ไม่ ค่อยเท่าไร,,
