just what i have been searching took the place of two to search hard to find it,b,2014-05-25,Mr Clean,5
thank you drop some change in the cookie jar for this thank you i love it,f,2014-05-25,Mr Clean,5
extremely useful,o,2014-05-21,Dylan v.d Merwe,4
not sure why this is not built into android itself,b,2014-05-21,Dylan v.d Merwe,4
auto opening of notification menu is epic,b,2014-05-21,Dylan v.d Merwe,4
battery life with the proximity sensor is terrible however,b,2014-05-21,Dylan v.d Merwe,4
this allows you to use and reply on the fly even the screen is locked,b,2014-05-21,Giorgio Chiodi,5
battery killer,o,2014-05-19,Bryan Wainhouse,1
it work,o,2014-05-14,James Handshoe,5
5 star,b,2014-05-14,James Handshoe,5
many notification can wake up the screen but then the display timeout default to the system setting,b,2014-05-13,John Shea,5
i want a much shorter timeout for notification what i set for normal device use,b,2014-05-13,John Shea,5
this solves problem by letting me have an independent display timeout setting just for notification,f,2014-05-13,John Shea,5
it pair nicely with other notification,f,2014-05-13,John Shea,5
it quite annoying that it ha to be turned back on every time the device is it would be better if it just stayed on,b,2014-05-13,PairedPrototype,5
