it show the tab i can enter the,v2.0.2,2013-06-13,Kalema Leon,1
i cannot send the response from the server via,v2.6.1,2014-10-17,Joseph Kasera,3
it just return the an error,v2.6.1,2014-10-17,Joseph Kasera,3
i could select individual failed message and sync them and ignore the rest,v2.6.1,2014-10-16,Morris M,3
i have to sync all message,v2.6.1,2014-10-16,Morris M,3
properly synchronizes message with server,v2.6.1,2014-09-12,Imaorise Umobong,4
need more work on crash and handling of message history above 20 message,v2.6.1,2014-09-12,Imaorise Umobong,4
new version crash i try to go to setting,v2.6.1,2014-07-15,Vahid Mafi,4
please fix and it will be 5 again,v2.6.1,2014-07-15,Vahid Mafi,4
using it for my project,v2.7.3,2015-02-16,okoli lemuel,5
i can just goto setting page by clicking on menu key,v2.8.0,2015-06-01,Lokesh Jain,2
please fix this bug,v2.8.0,2015-06-01,Lokesh Jain,2
using this for many project,v2.8.0,2015-05-09,Ali Damji,5
what happens you have a dual,v2.8.3,2015-08-22,Leon Muasya,3
also the is very confusing,v2.8.3,2015-08-22,Leon Muasya,3
too many issue starting with regular crashing repeating on refresh one synced more,v3.0.4,2017-05-22,Musa Muliro,2
it crash without any reason,v3.0.4,2017-04-03,,3
cannot delete multi,v3.0.4,2017-04-03,,3
i click it will reload all on include,v3.0.4,2017-04-03,,3
please fix it,v3.0.4,2017-04-03,,3
disappointing,v3.0.4,2017-02-18,Vincent Mukiiri,1
it insists on being set a the default resulting in not receiving notification for it keep resending request to the server for the same it is not able to detect the server setting up the web service even though the server is fine,v3.0.4,2017-02-18,Vincent Mukiiri,1
too many bug and poor design,v3.0.4,2017-02-18,Vincent Mukiiri,1
it is offering much for a paid,v3.0.4,2017-01-23,George Thuo,5
crash trying to delete select all and delete auto delete doe not work,v3.0.4,2016-03-10,Naz Ahmed,3
work but crash i try to remove the from the list and sends same multiple time on auto sync,v3.0.4,2016-02-29,,4
not working with refuse to upload,v3.0.4,2015-11-30,Kemei,2
