# deletions,date,commit message
20,2014/3/04,Added updated translations for Bokmal Dutch French German and partial other translations. Also fixes #109.
1,2014/3/04,Transmission: only forcefully add trailing slash to download location if it is not yet there. Fixes #52.
8,2014/3/04,Added options to use a RSS item as new search to follow its link or to view the item description. Fixes #45.
5,2014/2/25,Prevent crash when labels are not yet loaded yet the label dialog is somehow started (race condition?).
116,2014/2/25,Fixed transfer rates dialog size on layouts with a small height (such as phone landscape views). Fixes #74.!
22,2014/2/24,Increase size of the rTorrent set_xmlrpc_size_limit to better reflect the real request size whil not having to encode the string twice. Sicne Base64-encoded content is about 1.37 time larger than the original byte strea a multiplication of 2 is roomy enough (while small files fit in the default max request size anyway so the Base64 header is no problem).
11,2014/2/12,Prevent auto refresh when searching or selecting files (in tabletinterface).
15,2014/2/07,Integrated the auto refresh timer with its setting after @spacecowboy merge which fixes #7.
72,2014/2/07,Prepared for #7 auto refresh by adding a system setting (and moving help options to a separate screen).
1,2014/2/07,Remove any empty label that the server sends as we maintain out own empty label. Fixes #79.
30,2014/2/06,Support adding of magnet links via the Add by url dialog. Fixes #96.
22,2014/2/06,Added support for the new Torrent Search module private sites feature (to download a torrent via the Torrent Search module).
1,2013/12/25,Fix classpath for generated transdroid.jar lib
7,2013/12/18,Upped version number to 2.1.2 for new release.
