# deletions,date,commit message
1,2016/1/19,Fix type in AWD name. Fixes #273.
9,2016/1/19,Upgrading dependencies preparing new release.
32,2016/1/19,Prevent potential crashes (based on Play Store console reports).
1,2015/12/11,Use our own SSL socket factory implementation so support all TLS variants and SNI in RSS feed parser. Fixes kat.cr feeds for example.
2,2015/11/23,Release version 2.5.5.
3,2015/11/23,Seems I was wrong in a2a8f1960d4ee2576eff35170508a88cb6b024ac. Actually the problem was in the arguments. Please rTorrent document! Fixes #251 and fixes #227 again again.
3,2015/11/23,Fixed title in search screen (search query on larger screens site selector only on smaller screens). Fixes #248.
1,2015/11/23,It seems that rTorrent started using load.start since 0.9.4 but load.start_raw not until 0.9.7. What a mess!
