# deletions,date,commit message
1,2013/12/06,Filter remains selected in the NavigationSpinner after rotation. Fixes #55
30,2013/12/04,Handle RSS feeds that do not properly sort dated items (fixes #82) and those who do not provide a date at all (fixes #78 by relying on the last viewed url instead).
18,2013/12/04,Created a boolean property to easily enable/disable the app update feature at all via a bools.xml setting. Helpful for #60.
10,2013/12/04,Fix Xirvik seedbox settings.
1,2013/12/04,Provide an ant script to export transdroid.jar  The Connect project can now be easily exported to the correct location with the provided build.xml.
7,2013/11/28,New 2.1.1 release (mainly to get the rTorrent bugfix out).
36,2013/11/28,Added support for adding Xirvik and Seedstuff seedboxes with super simple settings.
