App,Store,App ID,Review ID,Country,Version,Rating,Date,Author,Subject,Body,Translated Subject,Translated Body
Hayai Search Launcher,Google Play,com.hayaisoftware.launcher,Z3A6QU9xcFRPRktfSFNESE9sRHB0ak5qWEZhVlpBWFYxV0VJQTI4NGdET1l3dDdCY2twalBrMElQTVhjaWw2TjkyTGtmUHJUd1ZnVVFkUEQwZGpPVFFvdlRN,English,,4,2016-01-26,Sugoi Ya,Some feedback,"Overall, it's an extremely great piece of software. However, the lack of control over priority ordering is quite irritating. I would advise at least some customization to be permitted.",,
Hayai Search Launcher,Google Play,com.hayaisoftware.launcher,Z3A6QU9xcFRPSHhPNHdQa0pFa3RMY0lOajJPMG94ZzZoOFVHMW12RFFnLXVPamh3WXBDb0dSNE9FN0hTbUVCQWNxQlM0MWZ1RkZHc1BhUnpOWmZ4eEtOZVZn,English,,5,2016-01-11,Kenneth Malicay,Pretty cool,I probably need some time to get used to it though coming from sense. It would be nice if you would auto clear the search bar when I press home or back. Although I'm kinda missing the widget for my greenify.,,
Hayai Search Launcher,Google Play,com.hayaisoftware.launcher,Z3A6QU9xcFRPRTNLb3I3NG15X2YwTnRrUHlyR2tMRndqU0JYZGd2aUhsbUdkaTNKTm85QlNEbzNfd3lEa09mVXVNeE1oUVc0TGF0U3V3R2lHY2N3WmN6Tm9J,German,,5,2016-01-07,Dirk M,Great,Thank you!,,
