Topic Index 1,Topic Index 2,Topic Similarity
0,1,2.0
1,5,2.0
2,7,2.0
4,6,2.0
6,17,2.0
18,13,2.0
5,16,1.0
7,3,1.0
8,14,1.0
9,8,1.0
10,2,1.0
11,10,1.0
12,12,1.0
13,0,1.0
14,19,1.0
15,4,1.0
16,18,1.0
3,9,0.0
17,11,0.0
19,15,0.0
