App,Store,App ID,Review ID,Country,Version,Rating,Date,Author,Subject,Body,Translated Subject,Translated Body
Remote Keyboard,Google Play,de.onyxbits.remotekeyboard,Z3A6QU9xcFRPSDN2Zmd3NmFyMk9GbVNtcy1YM0w1c3N3em5vZjBtcXotSXhGRVBpOTB5VzZ6eE45d0c0M3VJVnhvMEN6NXo5OFZtcEFUN0VaV1JiM3lQUkdv,English,,5,2013-07-08,Mufid Afif,Work As Is,this really work without hassle,,
Remote Keyboard,Google Play,de.onyxbits.remotekeyboard,Z3A6QU9xcFRPSDN2Zmd3NmFyMk9GbVNtcy1YM0w1c3N3em5vZjBtcXotSXhGRVBpOTB5VzZ6eE45d0c0M3VJVnhvMEN6NXo5OFZtcEFUN0VaV1JiM3lQUkdv,English,,5,2013-07-08,Mufid Afif,Work As Is,no client needed,,
Remote Keyboard,Google Play,de.onyxbits.remotekeyboard,Z3A6QU9xcFRPSDN2Zmd3NmFyMk9GbVNtcy1YM0w1c3N3em5vZjBtcXotSXhGRVBpOTB5VzZ6eE45d0c0M3VJVnhvMEN6NXo5OFZtcEFUN0VaV1JiM3lQUkdv,English,,5,2013-07-08,Mufid Afif,Work As Is,just use and then you are good to go,,
Remote Keyboard,Google Play,de.onyxbits.remotekeyboard,Z3A6QU9xcFRPSDN2Zmd3NmFyMk9GbVNtcy1YM0w1c3N3em5vZjBtcXotSXhGRVBpOTB5VzZ6eE45d0c0M3VJVnhvMEN6NXo5OFZtcEFUN0VaV1JiM3lQUkdv,English,,5,2013-07-08,Mufid Afif,Work As Is,excellent,,
