# deletions,date,commit message
3,2015/6/07,Fix for Android 4.0 https://stackoverflow.com/questions/15162821/why-does-removeongloballayoutlistener-throw-a-nosuchmethoderror
33,2015/6/07,Count wrapping addressed optional count multiplier added.
