App,Store,App ID,Review ID,Country,Version,Rating,Date,Author,Subject,Body,Translated Subject,Translated Body
BeeCount Knitting Counter,Google Play,com.knirirr.beecount,Z3A6QU9xcFRPSEZBazJ1TXhfYlF3Nzcwck10a2dRRnppd0Q1U2pTSXlIRGtiakdoaHhYdEdFZzVaaFNRQWQxQl8zbEVDeEh4Q3Yza0RyWGtaSWVOMEF1TkE,English,,5,2015-06-26,Colette Conway,Brilliant,Love the customisation and the interface is really easy to use. Also ad-free 😁,,
BeeCount Knitting Counter,Google Play,com.knirirr.beecount,Z3A6QU9xcFRPSHdnSHlWX0hvSGltNUNDZjMweHdNWmNfY01nVW5abXNxQ3ZHZk1rTGt5Wi00TDZaMUJ6OE8xdUhyTG5BX3Vqc0VWZE5PeEJ2dWlXaXhuUUE,English,,4,2015-06-07,Kim Cain,"","I love this app but it will not let me change the background. I keep getting ""a custom background image is not defined; the default will be used instead"" :(",,
