problem were quickly fixed,b,2015-02-11,Tomás Sironi,5
amazing,o,2015-02-09,Edoardo Fiorentini,5
this is shaping up to be a really amazing wallet designed with security in mind and hardware implementation,o,2015-02-06,Darsh Parsh,5
still having issue though crash every time,b,2015-02-06,Darsh Parsh,5
