no permission needed,b,2017-05-21,arpjr11 gmail,5
can see what other are looking at,o,2017-05-21,arpjr11 gmail,5
love it,o,2017-05-15,Muhammad Zakwan,5
will be more useful we can modify the permission of other,o,2017-05-15,Muhammad Zakwan,5
nice,o,2017-04-20,mmr shaheen,5
ti but no link to click to change permission of an,b,2017-04-16,silencio matteo,3
ha raised my awareness,b,2017-04-05,Leslie Hui,5
thanks,o,2017-04-05,Leslie Hui,5
awesome,o,2017-03-30,Pam Hstadt,5
satisfy,o,2017-03-03,,3
great,o,2017-02-26,Billy Nelson,5
do you really think are taking picture of you in your sleep,b,2017-02-11,mikel augustine,1
maybe you actually read the full description you would realize your notepad need the camera permission to import from your gallery,b,2017-02-11,mikel augustine,1
doe this by default,f,2017-02-10,John Galt,1
i wanted to revoke network permission for,b,2017-02-10,John Galt,1
work,o,2017-01-05,shkelzen dedaj,5
okay a billion day later i finally went through all my and this really truly work guy,o,2017-01-01,Sheila I. Reilly Camacho,5
great job,o,2017-01-01,Sheila I. Reilly Camacho,5
very useful i love this,o,2016-12-19,,5
we need more like this,o,2016-12-19,,5
i use this every few month to review my and suspect one,b,2016-12-17,frank job,5
frankly using a secured browser is best,b,2016-12-04,Ernest Yeap,3
last would be itself,o,2016-12-04,Ernest Yeap,3
cant permission,b,2016-11-25,yass ine,1
so good,o,2016-11-17,,5
,o,2016-11-12,Prass Ngawi,1
sweet this is not my endorsement,o,2016-11-10,Gone Igconito,5
wow,o,2016-11-04,Seara Opt,5
awesome,o,2016-11-04,Seara Opt,5
it is quite an a learning curve,o,2016-10-14,,5
i like the idea of rating an based on it intrusiveness,b,2016-10-09,fluxie 38,3
informative,o,2016-09-24,Christopher Wood,5
great,o,2016-09-18,Glen Lazona,5
a very good but the result need to be interpreted with care,b,2016-09-18,Lester James,5
this is to be expected in most case,b,2016-09-18,Lester James,5
for the lookout security ha a very high score it need access to almost everything,o,2016-09-18,Lester James,5
most developer want to know how you use their for analytical purpose so they can improve so this generally mean network access is required,b,2016-09-18,Lester James,5
use this a guide only,o,2016-09-18,Lester James,5
,o,2016-09-18,Lester James,5
working,o,2016-09-17,Masum Ahmed Sarkar,5
i have a lg rebel,b,2016-09-16,Matthew Keller,5
angel with wing,o,2016-09-12,,5
pointless a you can see permission required installing,b,2016-09-10,Fake. Name,1
i thought it listed with no permission but this is honestly pointless,b,2016-09-10,Fake. Name,1
a must have,o,2016-09-04,El Slayer,5
play give the bare minimum with regard to what permission involve,b,2016-08-25,Chaz Miller,5
good very interesting,o,2016-08-19,Jasmine Bunday,5
just showing the permission of all,b,2016-08-18,XuCheNz Wou,1
thats it,b,2016-08-18,XuCheNz Wou,1
it just a common sense for all people,o,2016-08-18,XuCheNz Wou,1
install an,b,2016-08-18,XuCheNz Wou,1
make sure to take time reading it permission,b,2016-08-18,XuCheNz Wou,1
thats it,b,2016-08-18,XuCheNz Wou,1
it run in the background,b,2016-08-18,XuCheNz Wou,1
like hell of all you like this,b,2016-08-18,XuCheNz Wou,1
,o,2016-08-18,XuCheNz Wou,1
doe what it say,o,2016-08-10,OFFICER BANYAMYAN,5
give info about which permission each ha,b,2016-08-08,Eldad Seter,5
i downloaded this without but it work i removed the file ha be effecting my phone must get guy and lass,b,2016-07-15,Trimster V.G.F,5
it work quite well kind of scary of the thing it doe tell you about your other,o,2016-07-11,Nick Force,5
i see the permission,b,2016-06-20,Innu Endo,1
need to fix resizing for horizontal view and need you to allow modification of permission from the itself,b,2016-06-19,Timothy T.,4
crashed during scanning,b,2016-06-09,Rio Wong,2
,o,2016-06-05,Ralph Miller III,1
great for user,b,2016-06-01,frtu frtu,5
however you do have marshmallow it is necessary to distinguish between granted and blocked permission,b,2016-06-01,frtu frtu,5
even some of my are listed a safe but do produce irritating and sometimes aggressive add,b,2016-06-01,frtu frtu,5
nice,o,2016-05-27,Robert Lewis,5
doe exactly what it claim to do with no,o,2016-05-26,Miles Carriere,5
good to know what your are doing,o,2016-05-26,Miles Carriere,5
just yes,o,2016-05-24,Scott Little,5
star,o,2016-05-23,Bryan Ochoa,5
a great tool,o,2016-05-16,Kerri Marr,5
excellent keep it update thank you,o,2016-05-12,marvin casubuan,5
can view only,b,2016-05-11,Mark King,3
cannot adjust permission,b,2016-05-11,Mark King,3
easy to use and useful,o,2016-05-05,A Google User,5
good work,o,2016-04-29,parimal madhu,5
love it,o,2016-04-29,Royal Wolfe,5
can save future trouble,b,2016-04-21,Ashok Shah,5
love it,o,2016-04-21,Tim Owenby,5
very essential for android phone,b,2016-04-21,Tim Owenby,5
thanks guy,o,2016-04-21,Tim Owenby,5
see exactly what yours can do and access,o,2016-04-13,Christopher Hughes,5
a noble,o,2016-04-13,Christopher Hughes,5
very alarming,o,2016-04-12,LL NN,5
the reason i installed this is because i am privacy seeker,f,2016-04-09,Mantas Surgautas,5
you can even filter the by sort them by severity score or name which i believe every user will find it,b,2016-04-09,Mantas Surgautas,5
recommend,o,2016-04-09,Mantas Surgautas,5
nice,o,2016-02-15,Bestin,4
demand no permission for itself,b,2016-02-15,Bestin,4
but just informative,o,2016-02-15,Bestin,4
tell me and are bad,o,2016-02-15,Scott Johnson,1
cool,o,2016-02-14,jojo canda,4
good,o,2016-01-31,abdellatif abdo,5
another i figure out how to prevent gaining access to my account why make them difficult to use,b,2016-01-22,KG UK,1
been telling one i know to get this people can understand relate to your ranking system,b,2016-01-12,1107ducky,5
helped me to find a and also to delete came with the phone,b,2016-01-05,Євген Хуторний,5
thank you,o,2015-12-21,Modern Bushcrafter,5
eye opener,o,2015-12-16,Tom O'Brien,5
really see the point of having it,o,2015-11-30,Kris Dee,2
caution unable to find specific permission info relating to this itself,b,2015-11-28,Andrew Cirulis,1
excellent,o,2015-11-23,Sanjay Kashyap,5
really,o,2015-11-01,Sara Silva,2
,o,2015-11-01,Sara Silva,2
now i know how unsafe my are,o,2015-10-24,Karen Filby,2
now what,o,2015-10-24,Karen Filby,2
it could show the permission on and then show the for that,b,2015-10-14,Fabricio PH,3
,o,2015-10-02,,5
need to list all privacy exposure for an display a list of installed have above average exposure for their category,f,2015-09-27,Dennis Laplant,2
deceptive application using this,o,2015-09-13,moumita sarkar,5
display permission for downloaded only,b,2015-09-08,Karl S.,3
all this add is score for each and function,f,2015-09-08,Karl S.,3
good job,o,2015-08-29,Ahmed Abdulaziz,5
nice,o,2015-08-18,Kenneth Holder,5
work really no permission required,b,2015-08-12,Yannick Le Saint,5
ignoring the permission aspect is compromising one mobile data security n privacy,b,2015-07-23,zombinow,5
one the most popular ask for most unnecessary you developer for this,o,2015-07-23,zombinow,5
this is amazing,o,2015-07-08,Millie Young,5
doe what it say it doe but now what,o,2015-07-03,zeds ded,3
i wa unimpressed to find the i had already downloaded because they needed no special permission attached to them somehow,b,2015-06-30,Jordi Monkman,5
very good but let me do the one thing i downloaded this for,o,2015-06-24,G Guy,2
work just described and contains a description of the criterion used for rating,o,2015-06-11,Lisa Mattu,5
it said all my were bad,o,2015-05-29,Raena Corey,3
probably slowing down my,o,2015-05-29,Raena Corey,3
frustrating,b,2015-05-15,Rayne De laurentis,1
waste of time,o,2015-05-03,Paul Cummins,1
if i wa able to actually deny or limit certain access rather having to delete this would be a 5 out of 5 for me but still a great,b,2015-04-25,Trace Pink,4
,o,2015-04-23,,5
cool,o,2015-04-20,slipsream47,4
great,o,2015-04-20,JJ Raymer,5
thanks,o,2015-04-06,Serinee Vagnoni,5
love this,o,2015-04-03,Bob Jonas,5
never had a problem with it,o,2015-04-03,Bob Jonas,5
must be great,o,2015-03-31,Cisco Kidd,5
check it out,b,2015-03-31,Cisco Kidd,5
good to know what is being etc,b,2015-03-28,Ralph Davis,5
work great,o,2015-03-28,Ralph Davis,5
you can delete or keep the,b,2015-03-25,Paul Costa,3
doe what it say on the tin,o,2015-03-23,Joey Hanlon,5
and note 4,b,2015-03-22,fent avius,5
and must have thank you,o,2015-03-22,Leonard Baker,5
according to this 9 out of 10 on my phone might just try to kill me in my sleep,b,2015-03-21,Rich Purcell,3
an unnecessary space gobbler,o,2015-03-21,Sage Wisdom,3
love work great,o,2015-03-20,Mike Barela,5
you wanna know what to ask if you use them,o,2015-03-19,brennan loeffler,3
not very clear,o,2015-03-19,Haley Garrett,3
work good i would recommend this,o,2015-03-19,Josue Enriquez,5
using lollipop,f,2015-03-19,Craig Phillips,1
great,o,2015-03-19,dhruv pratap,5
move on to another,b,2015-03-18,Matthew Moore,4
this could rate on the and offer device specific instruction to turn them it should get 10 star and be worth 499,b,2015-03-18,Matthew Moore,4
stop all the never worked,b,2015-03-18,S Falcon,1
good scotch,o,2015-03-18,Jimmy Guadalupe,4
,o,2015-03-18,Blazej K,1
most have a need to send data to the,b,2015-03-18,Frank Fain,1
you flag this permission on every and then say browser already can send data to the so is not needed to be the need to peruse each they rate and provide info a to what the is doing with permission and whether it is valid for that not some generic description,b,2015-03-18,Frank Fain,1
it tell your choice,o,2015-03-18,Gary Manyblessings,3
how do i use this to my best advantage,o,2015-03-18,Solo Stryder,1
not enough information to know how to use it or how it work,b,2015-03-18,Solo Stryder,1
great not enough about the working of the,o,2015-03-18,Solo Stryder,1
provides easy to understand info on which use private data the most,o,2015-03-18,Brian Jenkins,5
informative,o,2015-03-18,Muslim Saleem,5
snoop,o,2015-03-17,Mark Ham,5
lightweight,o,2015-03-09,Grace Sin,4
but better the score are explained,o,2015-03-09,Grace Sin,4
also allows,o,2015-02-28,Fenton Bevan,5
thank you,o,2015-02-28,Fenton Bevan,5
thanks again,o,2015-02-28,Fenton Bevan,5
great,o,2015-02-26,Manno Joe,5
very informative,o,2015-02-26,Manno Joe,5
this tell you what they access and why,o,2015-02-26,Manno Joe,5
why doe the camera come with my phone need to spread my life without my knowledge or per mission all over the world,b,2015-02-25,HADY Operations,5
,o,2015-02-25,HADY Operations,5
god bless,o,2015-02-25,HADY Operations,5
why,o,2015-02-25,HADY Operations,5
go eat a dictionary,b,2015-02-25,HADY Operations,5
thank you guy who fight against these fascist folk,o,2015-02-25,HADY Operations,5
thank you,o,2015-02-25,HADY Operations,5
the receive,b,2015-02-22,Krissy Lane,5
great easy,o,2015-02-15,Art Juwo,5
thank you,o,2015-02-14,Vladimir Mihailovic,5
helpful and informative,o,2015-02-09,Jeff Haysbert,5
no permission required,b,2015-01-30,Glen Norris,5
thanks much,o,2015-01-17,Hr Joseph,5
i love this and have used it a but i wish it would let me store on an external card,f,2015-01-14,Evan McArdle,4
would rate it 5 star it did,b,2015-01-14,Evan McArdle,4
always install this every i get,b,2015-01-12,,4
keep you inform on your some ask to much permission,b,2014-12-18,Eric,5
store need to be careful about giving to much freedom at the at least with this i know thank you,o,2014-12-18,Eric,5
to view the permission,b,2014-12-01,sharath k,4
why is missing,b,2014-11-21,B Johnson,4
it appears to work,b,2014-11-20,John Michaels,4
i even went to their website but still could not find an explanation of score number,o,2014-11-20,John Michaels,4
would be nice to know,o,2014-11-20,John Michaels,4
rate on permission excess,b,2014-11-13,Eva Cheney,5
these day everyone want to control your phone,b,2014-11-11,,5
thanks to this,o,2014-11-11,,5
i think is a problem,o,2014-11-11,,5
awesome,o,2014-11-11,,5
a quick rating check to all the permission we have allowed application to run in our you may learn a thing or two about what the is learning about u too,o,2014-11-10,A Google User,5
very good,o,2014-11-10,vukrmaaditya d,5
