Topic Index 1,Topic Index 2,Topic Similarity
2,15,11.11111111111111
0,1,5.263157894736842
1,13,5.263157894736842
3,18,5.263157894736842
4,12,5.263157894736842
5,16,5.263157894736842
6,2,5.263157894736842
8,14,5.263157894736842
9,17,5.263157894736842
10,19,5.263157894736842
7,0,0.0
11,3,0.0
12,4,0.0
13,5,0.0
14,6,0.0
15,7,0.0
16,8,0.0
17,9,0.0
18,10,0.0
19,11,0.0
