Topic,Words
0,0.028*the,0.020*it,0.018*i,0.017*to,0.015*a,0.014*and,0.011*is,0.009*this,0.009*screen,0.009*my
1,0.020*the,0.016*i,0.014*it,0.012*to,0.010*and,0.010*a,0.008*is,0.007*this,0.006*my,0.006*screen
2,0.017*the,0.012*to,0.012*it,0.012*i,0.008*and,0.008*a,0.006*this,0.005*my,0.005*is,0.005*screen
3,0.015*the,0.011*i,0.010*it,0.009*to,0.006*and,0.006*a,0.005*is,0.005*this,0.004*but,0.004*lock
4,0.006*the,0.004*i,0.004*it,0.004*to,0.003*accessible,0.003*and,0.003*exception,0.002*a,0.002*this,0.002*would've
5,0.005*the,0.004*to,0.004*it,0.003*i,0.003*and,0.003*is,0.002*but,0.002*a,0.002*slide,0.002*moments
6,0.006*the,0.005*i,0.004*it,0.004*to,0.004*that,0.003*and,0.003*a,0.003*behave,0.003*is,0.002*screen
7,0.006*the,0.004*it,0.004*i,0.003*a,0.002*to,0.002*indeed,0.002*this,0.002*second,0.002*and,0.002*time
8,0.003*the,0.003*it,0.003*to,0.003*i,0.003*modeling,0.002*in,0.002*adore,0.002*administrative,0.002*trigger,0.002*refuses
9,0.002*hangs,0.002*like,0.002*the,0.002*accident,0.002*dimming,0.002*impressed,0.002*disables,0.002*entirely,0.002*gesture,0.002*too
10,0.003*hands,0.002*starts,0.002*to,0.002*excellent,0.002*access,0.002*if,0.002*we're,0.002*missing,0.002*pockets,0.002*light
11,0.003*will,0.003*phrase,0.002*consumer,0.002*form,0.002*terms,0.002*irksome,0.002*this,0.002*fancier,0.002*taking,0.002*bummed
12,0.003*seldom,0.002*who's,0.002*appreciate,0.002*tuned,0.002*weren't,0.002*beautifully,0.002*asked,0.002*their,0.002*itself,0.002*needs
13,0.003*the,0.003*but,0.003*lock,0.003*a,0.003*it,0.002*screen,0.002*i,0.002*arrival,0.002*to,0.002*applause
14,0.004*the,0.003*content,0.003*a,0.003*i,0.003*there'll,0.003*whatsoever,0.003*it,0.002*peak,0.002*not,0.002*to
15,0.003*week,0.003*reports,0.003*although,0.002*who,0.002*buttons,0.002*screw,0.002*send,0.002*breaths,0.002*reasons,0.002*spoiled
16,0.003*selective,0.002*where,0.002*mod,0.002*suggestions,0.002*mad,0.002*briefly,0.002*frosted,0.002*connection,0.002*safe,0.002*there's
17,0.003*gave,0.003*situation,0.002*delivery,0.002*deactivating,0.002*music,0.002*you,0.002*how,0.002*constantly,0.002*snooze,0.002*lo
18,0.003*the,0.003*whole,0.003*pinkish,0.003*alerts,0.003*charge,0.002*top,0.002*must,0.002*promising,0.002*to,0.002*disabling
19,0.003*loving,0.002*name,0.002*arrive,0.002*complex,0.002*frequent,0.002*slide,0.002*consume,0.002*watch,0.002*rectify,0.002*note
