loved the recent material design update,b,2015-04-01,Prempal Singh,5
just give the old icon back or the possibility to change it back,b,2015-04-01,František Diviš,5
itself is just perfect,o,2015-04-01,František Diviš,5
good,o,2015-04-01,Agung Saputra,5
is not found there a problem,b,2015-04-01,M Faisal,1
i like the new but i really liked the old one an option to revert to the old icon,b,2015-04-01,Ben Hepler,5
how to paste in terminal,f,2015-04-01,Haroon tai,4
working on,o,2015-04-01,Alfred Scamman,5
very nice,o,2015-03-31,Ugochuckwu Ojimadu,5
always work great i need it,o,2015-03-30,Eric Wedel,5
another review prompted me to and landscape on a still work very well,b,2015-03-30,Eric Wedel,5
just before,o,2015-03-30,Eric Wedel,5
good,o,2015-03-30,Ega Anugrah,5
work just great,o,2015-03-30,Steve Haslin,4
for dummy,o,2015-03-30,Radu G.,5
useful,o,2015-03-30,Chau Huynh,5
,o,2015-03-30,Nyoman Iriandi,4
fast,o,2015-03-30,Daniel Buch,5
but old icon wa better,b,2015-03-30,Md. Ziaus Samad,5
love the new update,o,2015-03-29,Josiah Mch,5
despite landscape bug this is 5,b,2015-03-29,Nedim Tabakovic,5
horrible implementation of material design,o,2015-03-29,Kristijan Žic,1
i expect this to have much better implemented material design and much more of design it self,b,2015-03-29,Kristijan Žic,1
thanks,o,2015-03-29,Galileo Garin,5
nice,o,2015-03-29,Ashish Nerkar,4
edit after latest instead of typed a single box is displayed on terminal,b,2015-03-29,Rajesh Deshpande,5
excellent for a rooted device,o,2015-03-29,Rajesh Deshpande,5
a must have and highly recommended,o,2015-03-29,Rajesh Deshpande,5
it revived my sweet,o,2015-03-29,Carlos Maldonado,5
great with new update,b,2015-03-29,Zero Day,5
why the need for daily update,b,2015-03-29,Christian Tye,4
great,o,2015-03-29,Diego Gramajo,5
a must have,o,2015-03-29,Diego Gramajo,5
great,o,2015-03-29,Michael Erb,5
the present icon look like a boring default icon,b,2015-03-29,Prashant Karmakar,5
p,o,2015-03-29,Prashant Karmakar,5
old icon wa better,b,2015-03-29,,3
it work for me i have at the moment an old galaxy model,b,2015-03-29,Fernanda Merino,4
never had any issue on my rooted acer,b,2015-03-29,Alicia Etler,5
thanks for the wonderful and your continued work at increasing it capability,o,2015-03-29,Alicia Etler,5
essential tool for,o,2015-03-29,Thamizhanda Aadhi,5
combo clavier on,o,2015-03-29,Davy Tran,4
utile pour shell en super user on est root,f,2015-03-29,Davy Tran,4
