update to android studio 12 beta 3,b,2015/4/14,,
more level of parent for padding calculation,b,2015/4/13,,
change margin,b,2015/4/13,,
use padding instead of margin,f,2015/4/13,,
check for null,b,2015/4/13,,
margin update position in for a more logical flow,o,2015/4/13,,
android output safe margin preference,o,2015/4/10,,
should be on by default the mode is a but not tested,f,2015/4/10,,
fix crashing on android wear,b,2015/4/05,,
eliminated maddening code duplication in term,b,2015/4/04,,
fix failure to display title of,b,2015/4/04,,
fix issue with closing window created via,b,2015/4/04,,
install current package installing on,b,2015/4/04,,
allow hiding of material design,f,2015/4/03,,
increment version number to,f,2015/4/02,,
make overlay work again,o,2015/4/02,,
the overlay work by swapping the main view between two custom style and,o,2015/4/02,,
it turn out action bar style must show the window title otherwise the will be invisible and code that call will get a null action bar,b,2015/4/02,,
the bug wa that i updated the custom theme to support material design i mistakenly changed the custom theme to inherit from the custom theme which hide the window title,b,2015/4/02,,
hence the window had a theme which hid the window title and returned null,b,2015/4/02,,
fixed by undoing the earlier change of theme inheritance,o,2015/4/02,,
now the custom theme inherits from the system and this mean the code get a action bar and the can be again,o,2015/4/02,,
tested on emulator running level 19,f,2015/4/02,,
fix issue 410,b,2015/4/02,,
make overlay work again,o,2015/4/02,,
the overlay work by swapping the main view between two custom style and,o,2015/4/02,,
it turn out action bar style must show the window title otherwise the will be invisible and code that call will get a null action bar,b,2015/4/02,,
the bug wa that i updated the custom theme to support material design i mistakenly changed the custom theme to inherit from the custom theme which hide the window title,b,2015/4/02,,
hence the window had a theme which hid the window title and returned null,b,2015/4/02,,
fixed by undoing the earlier change of theme inheritance,o,2015/4/02,,
now the custom theme inherits from the system and this mean the code get a action bar and the can be again,o,2015/4/02,,
tested on emulator running level 19,f,2015/4/02,,
check for null value in pressing the back key,b,2015/4/02,,
