finally is in my pocket,o,2015-01-24,Hitesh Pura,1
crucial,o,2015-01-24,Nikhil D Suvarna,5
i love this,o,2015-01-24,Prithwi Halder,5
good,o,2015-01-23,Anderson Forrest,5
would be awesome to have some of the additional desktop keyboard key like right on the keyboard instead of having to use a key combo,f,2015-01-23,aboodankaboot,4
if i could pay you guy for your hard work,b,2015-01-21,Muhammad Hamza,5
you guy are the best,o,2015-01-21,Muhammad Hamza,5
just what i needed thank you,o,2015-01-21,Tovyy One,5
good,o,2015-01-19,Arief Dwi,4
please provide button for instantly call previous command rather to use combination key,f,2015-01-19,Arief Dwi,4
thanks,o,2015-01-19,Arief Dwi,4
great,o,2015-01-19,bikash das,4
very useful,o,2015-01-19,Andrew Sumsion,4
cool tool doe the job,o,2015-01-19,Chew Kian Leng,4
using l,o,2015-01-18,Muzz Brando,5
my problem wa gone,b,2015-01-17,Park qyo rin,5
great way to play with your rooted device,b,2015-01-17,sandeep sunny,5
,o,2015-01-17,Naiem da Legend,4
worth getting,f,2015-01-16,ALEX_pigeon_killer,5
jack,o,2015-01-16,thania CFT,5
too much,o,2015-01-16,Prince Khurana,5
5 star for such a great and functional terminal emulator,b,2015-01-15,,5
nice one,o,2015-01-15,Amersaid Hamsiraji,5
just started studying programming,b,2015-01-14,Sean McCarthy,5
this look like a fun toy,b,2015-01-14,Sean McCarthy,5
i love it cool,o,2015-01-14,Manish Angolkar,5
it tiny but not tiny,b,2015-01-14,Bucib,5
great,o,2015-01-14,Joe Delano,5
thanks a ton awesome work,o,2015-01-14,Doctor Who,5
superb,o,2015-01-14,shreyas kulkarni,5
,o,2015-01-13,Marcus Patterson,5
missing many basic feature and command,b,2015-01-13,A Google User,2
helpful so much,o,2015-01-13,Leo Leo,5
work fine update,b,2015-01-13,Metal russian,5
i never expect it would update but it updated to be awesome,b,2015-01-12,Namor,5
it have five star however more function to be,b,2015-01-12,Namor,5
i use it in the daily for various task,f,2015-01-12,Drew Whitehurst,5
thanks,o,2015-01-11,Ken Fisher,5
thanks for this,o,2015-01-11,Rtag Rheem,5
it just give unknown error 505 and abandon installation,b,2015-01-11,Daniel Svindseth,3
awesome,o,2015-01-11,Tauseef Ali Khan,5
great,o,2015-01-10,Brian C.,5
thank,o,2015-01-10,Ye Htut,5
exactly what i wa looking for,o,2015-01-10,Joshua Nye,5
very good handy in some situation,o,2015-01-09,Stefan-Lucian Bucur,5
the best,o,2015-01-09,Buster Gonad,5
it work fine,o,2015-01-09,,5
nice tool,o,2015-01-08,Tomy Alma Arif,5
anyone with just a little bit of a nerdy side should definitely try it out,f,2015-01-08,Ryan Ogden,5
work great and,o,2015-01-08,nozz nozz,5
thing i would add is,f,2015-01-07,Kevin Partridge,5
is there however,o,2015-01-07,Kevin Partridge,5
and it work well with,o,2015-01-07,Kevin Partridge,5
an incredibly useful little tool for those knowledgeable enough to use it,o,2015-01-06,David Davidson,5
a others have you may not need it all too often but you this is the right tool for the job,o,2015-01-06,David Davidson,5
good,o,2015-01-06,Ahmed Nasir,5
i use this for script,o,2015-01-06,Ultra Rare,5
i had been using this to ssh into on my android a year,f,2015-01-05,Manish K. Baranwal,4
kindly add ssh feature again for lollipop update,f,2015-01-05,Manish K. Baranwal,4
quick fast and efficient but large and,o,2015-01-05,Charles Henderson,3
it deserves the 4 star,b,2015-01-04,ankesh srivastav,4
good,o,2015-01-04,Fauzy Hamzah,5
tau,o,2015-01-04,Soop Abdul,3
best,o,2015-01-03,Zlatko x,5
absolutely this useful tool is amazing you have root access,b,2015-01-02,Ethilin Arriaga,5
very useful,o,2015-01-01,Vu Tuan Dat,5
one of the on my device,b,2015-01-01,Vu Tuan Dat,5
someone can help me,o,2014-12-31,ModiFlasher,2
,o,2014-12-31,Master Rahool,5
i often use this in a pinch to manage my home server,b,2014-12-31,Elliott Partridge,5
error code 505,b,2014-12-30,Shane Smiskol,1
have needed feature to use the shell,f,2014-12-30,Steve Mc Gregor,5
i can not type to do,o,2014-12-29,R-MAx,2
doe everything i want,o,2014-12-29,Aaron H,5
serf the purpose ever needed,f,2014-12-29,Mohsin Bhutta,5
recommended terminal,o,2014-12-29,Mohsin Bhutta,5
always working,o,2014-12-28,divyarth singh,5
my favorite,o,2014-12-27,Srikanth M,5
,o,2014-12-27,Movinm Targetm,2
awesome,o,2014-12-27,Johnathan Brooks,5
every new is a full in your pocket,o,2014-12-26,SeaJay Oceans,5
getting a real terminal emulator screen let you make full use of the tech you paid good money for,b,2014-12-26,SeaJay Oceans,5
for best result unlock your phone install pro,b,2014-12-26,SeaJay Oceans,5
help me how can i use this,o,2014-12-26,sohan bhatta,1
get the job done,o,2014-12-25,Parth Sareen,5
thank you,o,2014-12-24,Phil Porada,5
every device need a terminal,b,2014-12-24,Phil Porada,5
yours wa the first i found and one i needed,b,2014-12-24,Phil Porada,5
goody,o,2014-12-24,riyan smith,4
nice,o,2014-12-24,Om Sahrma,2
galaxy,o,2014-12-24,Pranav Ramachandran,5
it good tool it is very helpful for me for making this good,o,2014-12-24,Mukul Kumar,1
can i hack clash of clan,f,2014-12-23,Unique Style,5
nice emu,o,2014-12-23,Leenard Lacay,5
,o,2014-12-22,martawi rumnah,5
best for programmer would suggest another with command input for beginner,f,2014-12-22,Andrew Fronce,5
now i can manage my all application,o,2014-12-22,Himanshu Varshney,5
also work on platform,o,2014-12-22,Himanshu Varshney,5
keep saying my device rooted even tho other admit that my phone actually is rooted,b,2014-12-22,The Marionette,1
feel like,o,2014-12-22,Bedanta Bayan,5
nice,o,2014-12-22,Jonathan Wiz,5
access to bash rock,o,2014-12-21,Winson Cheung,5
the is solid,o,2014-12-21,Winson Cheung,5
a for any engineer,o,2014-12-21,Winson Cheung,5
jack,o,2014-12-21,Winson Cheung,5
whatever this is for,o,2014-12-21,Karen Williams,4
smooth and not choppy,b,2014-12-21,calvin david,3
,o,2014-12-20,Pranav Dukuria,5
great,o,2014-12-20,Yan Hooligan,5
unbelievable,o,2014-12-20,CHANDRA KANTA SAMANTA,4
work fine,o,2014-12-18,TheVigiIante,5
simple yet helpful tool,o,2014-12-18,gayuh tri satria,5
will be much better lollipop style applied to the,f,2014-12-18,gayuh tri satria,5
for different color for etc,f,2014-12-18,,5
set initial command bash,o,2014-12-18,,5
cant ping on my galaxy 70,b,2014-12-17,Yefraim Yef,3
still get the basic job done pretty well,o,2014-12-17,Faiz Ahmed Faiz,5
nicely done mate,o,2014-12-17,Faiz Ahmed Faiz,5
good,o,2014-12-17,Kang Unay,4
nice,o,2014-12-17,Ari Saeful Dinata,4
easy to use,o,2014-12-16,A Google User,5
this good for making some tweak or script,o,2014-12-16,mus lih,5
simple and efficient,o,2014-12-16,Amador Cuenca,5
good,o,2014-12-16,Pragnesh Prajapati,5
useful,o,2014-12-16,Dale LaRoe,4
install a successful,b,2014-12-15,Edwin Lopez Dela Cruz,1
,o,2014-12-15,Edwin Lopez Dela Cruz,1
edit installing added the command,f,2014-12-15,Jonathan Pena,4
thought it wa built in though,b,2014-12-15,Jonathan Pena,4
awesome,o,2014-12-15,Ali Mohammed,3
great that get the job done called upon,b,2014-12-15,,5
straight to the point,o,2014-12-15,A Google User,5
i do not use,o,2014-12-15,Vaughn Max,1
i want to,o,2014-12-15,Vaughn Max,1
running the latest version of it sometimes work and other time it just sits there with a black screen,b,2014-12-15,Dennis Fratiani Jr.,3
hope you will fix it soon,b,2014-12-15,Suyash Bansal,4
and very customizable,b,2014-12-15,Dan The-Man,5
even better with sh shell,f,2014-12-15,Dan The-Man,5
work perfect each and i need it,o,2014-12-15,Spero Betas,5
keep up the great work,o,2014-12-15,Spero Betas,5
5 star indeed,o,2014-12-15,Spero Betas,5
this is the best terminal emulator for hand down,f,2014-12-15,Cobin Bluth,5
new to the whole terminal i installed on my yesterday and wa to see most of the command that i learned work in this,b,2014-12-15,Walker Firmin,5
i will be looking forward to using this in the future,b,2014-12-15,Walker Firmin,5
good,o,2014-12-15,Momin Sohel,5
great,o,2014-12-14,Wolf acp,5
work perfectly,b,2014-12-14,Phillip Landmeier,5
work perfectly,b,2014-12-14,A Google User,5
never have any issue using it,b,2014-12-14,A Google User,5
then it get 5 star,b,2014-12-14,Jonathan Blake,4
,o,2014-12-14,hengky irawan,4
