application bump to version 344,o,2013/9/25,,
startup script try default a runner selected fails,b,2013/9/25,,
preference fix crash issue due to,b,2013/9/24,,
bump to version 343,b,2013/9/20,,
fix reported crash,b,2013/9/20,,
preference fix reported crash loading configuration,b,2013/9/20,,
fix internal being restored on boot even thought it wa removed,b,2013/9/20,,
upstart script unmount if not on,o,2013/9/20,,
342 message translation,b,2013/9/18,,
application bump to version 342,o,2013/9/18,,
update to version 132,b,2013/9/18,,
preference fix reported,b,2013/9/18,,
preference fix typo which break on device,b,2013/9/18,,
preference fix bug is not mounted,b,2013/9/18,,
major rewrite complete rewrite of the entire application updated added debug file builder to the log tab added separate configure option for converted system application,o,2013/9/18,,
