Topic Index 1,Topic Index 2,Topic Similarity
0,0,0.18850000000000003
2,8,0.1324
3,9,0.11480000000000001
1,2,0.10290000000000002
7,4,0.094
16,19,0.086
4,7,0.08330000000000001
18,15,0.07809999999999999
14,3,0.05740000000000001
19,1,0.05589999999999999
9,18,0.0504
5,5,0.0
6,6,0.0
8,10,0.0
10,11,0.0
11,12,0.0
12,13,0.0
13,14,0.0
15,16,0.0
17,17,0.0
