Topic Index 1,Topic Index 2,Topic Similarity
19,4,17.647058823529413
0,6,11.11111111111111
1,0,11.11111111111111
5,2,11.11111111111111
6,9,11.11111111111111
12,16,11.11111111111111
16,14,11.11111111111111
17,12,11.11111111111111
2,11,5.263157894736842
3,15,5.263157894736842
4,3,5.263157894736842
7,13,5.263157894736842
8,7,5.263157894736842
9,18,5.263157894736842
10,10,5.263157894736842
11,5,5.263157894736842
13,19,5.263157894736842
14,17,5.263157894736842
15,1,0.0
18,8,0.0
