Topic,Words
0,0.006*to,0.006*love,0.006*suggest,0.006*right,0.005*doesn't,0.005*the,0.005*say,0.005*plays,0.004*3rd,0.004*anyone
1,0.007*provides,0.006*couple,0.006*fixes,0.005*session's,0.005*random,0.005*helpful,0.005*want,0.005*smoothly,0.005*navigation,0.004*do
2,0.007*geek,0.006*gaming,0.006*my,0.006*organized,0.005*the,0.005*words,0.005*poison,0.005*helpful,0.005*nothing,0.005*me
3,0.006*without,0.006*pay,0.006*collisions,0.005*otherwise,0.005*may,0.005*has,0.005*complain,0.005*amount,0.004*saver,0.004*collections
4,0.008*suggest,0.007*copies,0.007*having,0.006*intuitive,0.006*despite,0.005*incredible,0.005*from,0.005*upgrade,0.005*designers,0.005*isn't
5,0.009*unforgiving,0.009*half,0.006*collisions,0.005*sure,0.005*believe,0.005*save,0.005*titles,0.005*request,0.005*highly,0.005*classes
6,0.009*keeping,0.009*computer,0.008*they,0.007*mobile,0.007*useful,0.006*completely,0.006*thorough,0.006*weren't,0.005*received,0.005*found
7,0.007*possibly,0.007*beat,0.006*maybe,0.006*gm,0.005*frequently,0.005*phone,0.005*downfall,0.005*too,0.005*open,0.005*want
8,0.009*terms,0.006*indexing,0.005*to,0.005*particular,0.005*expanded,0.004*ball,0.004*convenient,0.004*it,0.004*heartbeat,0.004*galaxy
9,0.006*of,0.006*rooted,0.006*fly,0.006*specially,0.006*getting,0.005*ability,0.005*masterwork,0.005*wait,0.005*does,0.005*before
10,0.008*unforgiving,0.007*maybe,0.007*have,0.006*descriptions,0.006*linked,0.006*working,0.005*clunky,0.005*charm,0.005*slowing,0.004*encounter
11,0.007*figure,0.006*because,0.006*interested,0.005*sub,0.005*second,0.005*along,0.005*forth,0.005*haven't,0.005*and,0.005*download
12,0.006*made,0.005*hang,0.005*view,0.005*am,0.005*presented,0.005*worth,0.005*text,0.005*because,0.005*bot,0.005*pictures
13,0.010*clear,0.006*it'll,0.006*compendium,0.005*wise,0.005*extremely,0.005*left,0.005*view,0.005*party,0.005*several,0.005*bother
14,0.007*6,0.007*ads,0.006*article,0.006*always,0.005*just,0.005*example,0.005*now,0.005*pathfinders,0.005*issue,0.004*super
15,0.007*available,0.007*through,0.006*expanded,0.006*diagrams,0.006*can't,0.006*lot,0.005*constantly,0.005*possibly,0.005*rooted,0.004*that's
16,0.006*stating,0.005*easy,0.005*convenient,0.005*why,0.005*having,0.005*pauses,0.005*awesome,0.004*bless,0.004*base,0.004*product
17,0.007*completeness,0.006*monsters,0.006*state,0.005*going,0.005*myself,0.005*to,0.005*setting,0.005*encounter,0.005*great,0.004*remaining
18,0.010*tree,0.006*matter,0.006*finding,0.005*browsing,0.005*trouble,0.005*lack,0.005*half,0.005*up,0.005*less,0.005*pay
19,0.007*however,0.007*beats,0.007*fluid,0.006*them,0.006*your,0.005*improve,0.005*most,0.005*planning,0.005*sessions,0.005*clean
