App,Store,App ID,Review ID,Country,Version,Rating,Date,Author,Subject,Body,Translated Subject,Translated Body
"RSS리더(팟캐스트, 뉴스, 블로그 등)",Google Play,free.yhc.feeder,Z3A6QU9xcFRPR2VTMlh5X2tSUUl4WGFNcVRVdEgxYUpCV2s5cmRjTVVCQXEyNUg3TkVDMUJWa0dXUUo5UnNJMmg3WU00UmJyUXJuMXNwNF96SUR6S3Q3NHc,English,,5,2017-03-26,"","",최곱니다. 광고가 없다는데서 제작자에게 정말 가슴 깊이 감사하게 됩니다.,,
"RSS리더(팟캐스트, 뉴스, 블로그 등)",Google Play,free.yhc.feeder,Z3A6QU9xcFRPR0hyUjN6WkRPaE9fRVpqSFIydEVoQXpkdUVxWDdrcU9DckRrZDZmMm0zN3NqemlLemRMRWFyaW8wNDlydUFzdnNXVGl6SC1NRzZHU1RHd1E,Korean,,4,2015-09-06,김병주,좋은데 ..,들으면서 다른거 못하나요??,,
"RSS리더(팟캐스트, 뉴스, 블로그 등)",Google Play,free.yhc.feeder,Z3A6QU9xcFRPR3ZYMHkxb0ljbXRwaklBWTdOd1dNbVllQmpGNDhNWjJfLWpUcFZ1dEc1M0ZiZHhkdjVzQVd4WndEeTVxNjFNQUlQOV9ibUJoV2JvZkRzNHc,Korean,,5,2015-07-12,조순옥,라디오시대,이시대의공기를 공유.공감할수있는울지못할웃지못할 .함께느끼며웃으며눈물나는  프로예요 넘넘감사드리며 또한 때를봐서 제삶의눈물로써살아온흠담을올려볼까해요^^,,
