# deletions,date,commit message
2,2016/3/07,Open Flood 1.2.0
1,2016/3/07,Adjust text on color buttons so that it always fits
2,2016/3/07,Slightly adjust color button drawable
2,2016/3/07,Rename ColorButton.setText to ColorButton.setColorBlindText
20,2016/3/07,Clean how settings are handled in SettingsActivity.java
1,2016/3/07,Remove extra semicolon
8,2016/3/07,Add color blind mode
