Topic Index 1,Topic Index 2,Topic Similarity
13,1,0.27899999999999997
18,14,0.2081
17,8,0.1648
0,17,0.1638
11,7,0.1343
16,3,0.12
1,4,0.11730000000000002
5,15,0.11200000000000002
10,16,0.1072
15,13,0.0972
9,19,0.088
19,0,0.0817
2,9,0.06899999999999999
3,2,0.0
4,5,0.0
6,6,0.0
7,10,0.0
8,11,0.0
12,12,0.0
14,18,0.0
