Topic Index 1,Topic Index 2,Topic Similarity
6,16,2.9547
2,17,2.4513
1,18,1.7227999999999997
13,0,1.6296000000000002
12,19,1.4385000000000001
18,11,1.1405000000000003
8,7,1.0695
16,2,1.0586
3,10,1.0230000000000001
14,9,0.8342999999999999
4,4,0.7821
5,15,0.5624
7,13,0.39690000000000003
15,1,0.36850000000000005
10,6,0.354
17,3,0.33060000000000006
9,5,0.1122
0,8,0.0
11,12,0.0
19,14,0.0
