# deletions,date,commit message
2,2013/5/01,Revving versions for play store release
101,2013/5/01,3 major changes: 1. Add a lock to the seekTo method so that multiple seek threads don't stop on each other. 2. Prevent thread from getting interrupted if waiting on decoder thread. 3. Destroy method for the service...which should have been done a loooong time ago.
2,2013/4/25,Stupid me left in some print statements.
2,2013/4/24,Updating queue buffer timeouts to peg CPU a little less
6,2013/4/02,DoggCatcher fix.
0,2013/4/02,Removing apk in preference to play store link.
5,2013/4/02,New version with no queue timeouts and a looser 'end of track' requirement.
2,2013/3/24,Updating Readme to link to play store instead of APK.
2,2013/3/19,Remove streaming limitation
133,2013/3/19,Adding streaming functionality and adding source via URI.
1,2013/3/17,Better wording
0,2013/3/17,Updated APK
1,2013/3/17,Updating APK link
539,2013/3/17,Some general cleanups
1,2013/3/15,Update Readme.md
1,2013/3/15,Update Readme.md
407,2013/3/15,Lots of bug fixes and use multiple sessions
4,2013/3/11,Adding logging info.
0,2013/2/19,Adding qr code and fixing Windows newlines.
