# deletions,date,commit message
16,2015/12/17,working on preferences activity as preparation for issues 86 - 89
24,2015/12/17,working on preferences activity as preparation for issues 86 - 89
272,2015/12/15,working on preferences activity as preparation for issues 86 - 89
18,2015/12/10,started working on preferences activity as preparation for issues 86 - 89
17,2015/12/01,bugfixing
