# deletions,date,commit message
6,2015/7/30,inline images are now syncing in both ways
6,2015/7/30,deletion of notebooks is now synced in both ways
1,2015/7/30,fixed GitHub issue #54
4,2015/7/27,fixed possible nullpointer exception
12,2015/7/27,fixed overlay of soft keyboard on tablets
2,2015/7/27,fixing overlay of soft keyboard on tablets
33,2015/7/27,fixed overlay of soft keyboard on smartphones
19,2015/7/25,working on fixing the overlay of the soft keyboard when richeditor has many rows
2,2015/7/24,fixed german translation
3,2015/7/24,fixed german translation
2,2015/7/24,fixed german translation
8,2015/7/23,l&f of sorting configuration dialogs
21,2015/7/23,sorting tested und works
86,2015/7/22,testing/debugging configureable sorting
8,2015/7/22,testing/debugging configureable sorting
11,2015/7/22,testing/debugging configureable sorting
15,2015/7/22,implemented configureable sorting
21,2015/7/20,started implementing configureable ordering
3,2015/7/17,implemented sharing via android share provider
4,2015/7/17,implemented sharing via android share provider
13,2015/7/17,implemented sharing via android share provider
5,2015/7/13,it is now possible to delete notebooks from within the app
0,2015/7/13,new icons
1,2015/7/13,GitHub issue 49
6,2015/7/13,various fixes for issues which were reported from aseigo on GitHub. @aseigo thank you for the input!
5,2015/7/09,new kolbanotes-java version fixed editing of notes with inline images
1,2015/7/06,richtext does not work correct start and end html tags were missing. quickfix now but this breaks images
2,2015/7/06,richtext does not work correct start and end html tags were missing. quickfix now but this breaks images
1,2015/7/06,richtext does not work correct start and end html tags were missing. quickfix now but this breaks images
2,2015/7/06,richtext editor now working
0,2015/7/06,richtext editor now working
35,2015/7/06,richtext editor now working
79,2015/7/04,started working on richtext editor image inserting is buggy at the moment
5,2015/7/02,using big notifications instead of small
6,2015/7/01,when sync fails app doesn't crash it informs the user with notifications
44,2015/7/01,fixed some files after git merge
68,2015/6/30,bugfixing and added support for Android 4.4
9,2015/6/29,refactorings for better performance and stable switching between main and detail with selected notebook. work is not finished yet
10,2015/6/29,note which is selected is has now elevation
21,2015/6/29,all widgets should now update
4,2015/6/29,fixed bug => when account is changed because of start from widget drawer now shows correct selected account
1,2015/6/29,Update README.md
1,2015/6/29,Update README.md
2,2015/6/27,alpha 4
53,2015/6/27,hacking on tablet interface
23,2015/6/26,hacking on tablet interface
2,2015/6/26,Date/Time formatting no bare timestamps anymore :-)
68,2015/6/26,created tablet ui now bufixing
3,2015/6/26,removed template
3,2015/6/26,Merge branch 'fragments'  Conflicts: app/src/main/java/org/kore/kolabnotes/android/fragment/OverviewFragment.java
600,2015/6/26,Merge branch 'fragments'  Conflicts: app/src/main/java/org/kore/kolabnotes/android/DetailActivity.java app/src/main/java/org/kore/kolabnotes/android/fragment/OverviewFragment.java
3,2015/6/26,Merge branch 'fragments'  Conflicts: app/build.gradle app/src/main/java/org/kore/kolabnotes/android/DetailActivity.java app/src/main/java/org/kore/kolabnotes/android/fragment/OverviewFragment.java
123,2015/6/26,Merge branch 'fragments'  Conflicts: app/build.gradle app/src/main/java/org/kore/kolabnotes/android/DetailActivity.java app/src/main/java/org/kore/kolabnotes/android/fragment/OverviewFragment.java
5,2015/6/26,fixed GitHub issue 37
3,2015/6/26,MainActivity is now fully functional again
6,2015/6/26,DetailActivity fully functional again
778,2015/6/26,DetailActivity now uses the DetailFragment
12,2015/6/26,overviewfragment now working as expected
192,2015/6/25,overviewfragment now embedded into mainactivity and runs (but there are bugs at the moment). code is not soo ugly any more but I am not proud of it ;-)
106,2015/6/24,implementing overview fragment it is one of the most ugliest codes I have ever written :-(
939,2015/6/24,changed main layout to use overview fragment
95,2015/6/24,copied logic from MainActivity in OverviewFragment
2,2015/6/23,unused import
12,2015/6/23,debugging
11,2015/6/23,debugging
1,2015/6/22,formatting
60,2015/6/22,bugfixing
3,2015/6/19,Update README.md
18,2015/6/17,debugging
11,2015/6/16,sync intervall and kolab extension (imap annotatemore extension) is configureable per account
1,2015/6/16,debugging
26,2015/6/16,debugging
10,2015/6/16,debugging
14,2015/6/16,debugging
1,2015/6/16,debugging
63,2015/6/16,working on list widget german translation
6,2015/6/16,working on list widget
75,2015/6/15,working on list widget
1,2015/6/15,fixed switching accounts and changing toolbar title
4,2015/6/15,sticky note widget now working as expected. except of scrolling the note text
3,2015/6/15,ui tweaks
1,2015/6/15,sticky note widget has now same background as color defined for a note
1,2015/6/11,bugfixing
51,2015/6/11,bugfixing
3,2015/6/08,updated kolabnotes-java version
23,2015/6/02,continued working on sticky note widget
1,2015/6/02,continued working on sticky note widget
8,2015/6/01,continued working on sticky note widget
3,2015/6/01,NoteListAdapter
1,2015/5/31,continued sticky widget
1,2015/5/30,continued sticky widget
6,2015/5/30,started sticky widget
147,2015/5/25,continued working on list widget
15,2015/5/24,continued working on list widget
24,2015/5/24,continued working on list widget
25,2015/5/24,continued working on list widget
89,2015/5/22,tags are now handle correct also self created ssl certificates should be supported
3,2015/5/19,started on implementing richtext support. the html tags are gone ;-) text is displayed as plain text but already converted to html (html is used for richtext) if edited
11,2015/5/19,fixes (nullpointer reported by grote selection of tags valditation of user inputs in DetailActivity)
1,2015/5/18,fixes
2,2015/5/18,fixes
11,2015/5/18,fixes
2,2015/5/18,new bugfix version of kolabnotes-java (order of tags in kolab.xml)
2,2015/5/18,new bugfix version of kolabnotes-java (modification date handling)
2,2015/5/18,new bugfix version of kolabnotes-java (modification date handling)
6,2015/5/17,implemented color support
12,2015/5/17,implemented color support
2,2015/5/17,started implementing color support
7,2015/5/17,refactored ui of note overview cards cards now displaying more information about the note
277,2015/5/17,refactored ui of note overview cards cards now displaying more information about the note
3,2015/5/16,version 0.5.0 of kolabnotes-java (contains Color support)
7,2015/5/14,fixed loading notes on startup fixed sync intervall account switching is no synchronized for better stability
10,2015/5/13,added widget template
2,2015/5/12,working on 2 way sync
1,2015/5/12,working on 2 way sync
21,2015/5/09,fixed back button in detail activity fixed search for note summary
1,2015/5/03,debugging
63,2015/5/03,debugging
13,2015/5/02,reverted integration of richtexteditor instead EditText no has gravity top. We need a own RichTextEditor :-(
13,2015/5/02,started integration richtexteditor
31,2015/5/02,finished refactoring of account handling
74,2015/5/02,continued refactoring of account handling
11,2015/5/01,refactored account handling not finished yet
55,2015/5/01,refactored account handling
42,2015/4/30,switch to new account handling
94,2015/4/19,sync runs but is very very buggy...
4,2015/4/19,debugging syncing
1,2015/4/19,implemented one way sync. tests missing ;-)
38,2015/4/19,implemented one way sync. tests missing ;-)
1,2015/4/18,adopted required permissions changed a string so that the build runs fine
444,2015/4/18,implemented SyncAdapter and Authenticator next step is to implement one way sync from server
770,2015/4/18,implemented Authenticator
12,2015/4/18,fixed searching for tag
14,2015/4/17,implemented tagging implemented edit of classification
149,2015/4/17,started implementing account management fixed bugs in detail activity added change classification menu option in detail
32,2015/4/17,implemented detail activity started implementing account management
10,2015/4/17,implemented detail activity
32,2015/4/17,implemented share button in detail activity changed icon colors
54,2015/4/17,new Toolbar icons reordered navigation drawer items
22,2015/4/14,started implementing detail activity
7,2015/4/13,implemented search dialog
106,2015/4/13,added support for multiple accounts and different root folders in Repositories
1,2015/4/13,added richeditor-android dependency
70,2015/4/09,implemented NavigationDrawer and creation of notebooks and tags
16,2015/4/09,removed google play dependency
140,2015/4/09,implemented navigation mainactivity - detailactivity
1,2015/4/06,kolab-notes java now from jitpack.io
2,2015/4/05,updated dependencies
49,2015/4/03,started implementing detail activity
1,2015/4/03,added icon for add button
5,2015/4/03,now using MaterialDrawer API from Mike Penz
49,2015/4/03,now using MaterialDrawer API from Mike Penz
264,2015/3/22,implementing UI
11,2015/3/22,implemented persistent tracking of notes/notebooks
17,2015/3/14,implemented NotebookRepository
19,2015/3/14,implemented DatabaseHelper started implementing NotebookRepository
3,2015/3/12,changed icon created templates for all aspects of the app. Now it is time to implement it :-)
36,2015/3/12,added settings activity
2,2015/3/12,app runs again
474,2015/3/11,refactoring with help of LollipopShowcase from Mike Penz
709,2015/3/11,refactoring: now activity supports navigationdrawer
2,2015/3/08,added card and recycler support dependencies
1,2015/3/08,version updated from kolabnotes-java
62,2015/3/08,fragment handling adopted
102,2015/3/08,refactored repository handling
