App,Store,App ID,Review ID,Country,Version,Rating,Date,Author,Subject,Body,Translated Subject,Translated Body
BeeCount Knitting Counter,Google Play,com.knirirr.beecount,Z3A6QU9xcFRPSHZVQ0tkbGFFbk9DeVlGOVdrX09ycjZJdnlBN0cxUDEtSVZIQy13emEzV1hnZzkyQU5sQkx2VTJHZlVrdTFvR082TTd1LXJPN1NIbG5NWnc,English,,5,2016-04-18,Karen Siegel,Indispensable!,fantastic,,
BeeCount Knitting Counter,Google Play,com.knirirr.beecount,Z3A6QU9xcFRPSHZVQ0tkbGFFbk9DeVlGOVdrX09ycjZJdnlBN0cxUDEtSVZIQy13emEzV1hnZzkyQU5sQkx2VTJHZlVrdTFvR082TTd1LXJPN1NIbG5NWnc,English,,5,2016-04-18,Karen Siegel,Indispensable!,great replacement of the little notebook i used to carry everywhere to track row,,
