# deletions,date,commit message
3,2014/6/14,fixed hint text in count edit widget
37,2014/6/13,ready for release
6,2014/6/13,crashing bug fixed
0,2014/6/09,improved icon
18,2014/6/08,added in counting activity
53,2014/6/07,some lint cleanup
53,2014/6/07,more to do later
1,2014/6/07,fix for layout on nexus 7 and background image on galaxy nexus
1,2014/6/06,tablet layout for editing complete
7,2014/6/06,link can now be deleted well
16,2014/6/06,it look like link can now be created
1,2014/6/05,comment fix
13,2014/6/05,further linking widget improvement
2,2014/6/04,layout of linking widget sorted
7,2014/6/04,some layout change for a presentation
26,2014/6/04,count can be added deleted and renamed
26,2014/6/04,will now save if the save button is pressed
11,2014/6/03,attempt to fix memory problem
90,2014/6/03,widget refactoring can now edit project title and note background image causing crash
10,2014/6/02,database added back in can create project from list activity
67,2014/6/02,layout improvement fixed alert saving bug
8,2014/6/02,now work
11,2014/6/01,layout now worked various fix added to
19,2014/5/30,layout change using to pas to
40,2014/5/27,start but layout need work
6,2014/5/26,fixed crash caused by null
26,2014/5/26,finished counting activity setup
5,2014/5/26,multiple alert per count now working
13,2014/5/26,project deletion working
95,2014/5/25,better background image management decent count widget layout
1,2014/5/25,changed list background
23,2014/5/25,counting work
298,2014/5/24,much database refactoring
2,2014/5/22,updated version
9,2014/5/21,missing setting start from new project activity added
39,2014/5/21,project creation now work
43,2014/5/17,database upgrade and project listing should now work
443,2014/5/14,improved error handling for failure to select picture
39,2014/5/07,worked on v 9 database updated and redoing both need further work
10,2014/5/06,finished adding data object
0,2014/5/05,first commit
