package,release ID,UI element,related topic,average polarity,# reviews,average rating,average objectivity,# uninstalls,delta rating,element deleted next release
com.nolanlawson.keepscore,v1.5.1,@android:id/button2$button_resume_game,4,0.08209016688385311,14,3.7857142857142856,0.4833303148099067,0,-0.24841540711847898,0
com.nolanlawson.keepscore,v1.5.1,@android:id/button2$button_resume_game,9,0.4967943322109989,6,4.666666666666667,0.673029902196569,0,0.6325369738339024,0
com.nolanlawson.keepscore,v1.5.1,@android:id/button2$button_resume_game,8,0.20309523809523808,5,3.6,0.5710595238095237,0,-0.4341296928327645,0
com.nolanlawson.keepscore,v1.5.1,@android:id/button2$button_resume_game,5,0.25,1,1.0,0.375,0,-3.0341296928327646,0
com.nolanlawson.keepscore,v1.5.1,@android:id/button2$button_resume_game,10,-0.004333333333333339,5,2.8,0.3708177655677656,0,-1.2341296928327647,0
com.nolanlawson.keepscore,v1.5.1,@android:id/button2$button_resume_game,2,0.3121178571428571,4,3.75,0.6136619047619047,0,-0.28412969283276457,0
com.nolanlawson.keepscore,v1.5.1,@android:id/button2$button_resume_game,6,0.2466666666666667,4,4.25,0.5682738095238096,0,0.21587030716723543,0
com.nolanlawson.keepscore,v1.5.1,@android:id/button2$button_resume_game,0,0.016137566137566152,3,3.6666666666666665,0.508994708994709,0,-0.36746302616609805,0
com.nolanlawson.keepscore,v1.5.1,@android:id/button2$button_resume_game,3,0.13326530612244897,2,2.5,0.4604081632653061,0,-1.5341296928327646,0
com.nolanlawson.keepscore,v1.5.1,@android:id/button2$button_resume_game,7,0.3833333333333333,2,5.0,0.48035714285714287,0,0.9658703071672354,0
com.nolanlawson.keepscore,v1.5.1,@android:id/button2$button_resume_game,1,0.4486111111111111,3,5.0,0.7061342592592593,0,0.9658703071672354,0
com.nolanlawson.keepscore,v1.5.1,@+id/text_game_name$My Game with a really long name that is totally unrealistic but whatever,22,-0.023356830421562585,6,2.6666666666666665,0.44047266225837656,0,-1.367463026166098,0
com.nolanlawson.keepscore,v1.5.1,@+id/text_game_name$My Game with a really long name that is totally unrealistic but whatever,19,0.4930555555555556,3,4.666666666666667,0.6888888888888888,0,0.6325369738339024,0
com.nolanlawson.keepscore,v1.5.1,@+id/text_game_name$My Game with a really long name that is totally unrealistic but whatever,14,0.12419753086419753,9,2.888888888888889,0.44030202821869485,0,-1.1452408039438757,0
com.nolanlawson.keepscore,v1.5.1,@+id/text_game_name$My Game with a really long name that is totally unrealistic but whatever,13,0.2084190476190476,3,4.666666666666667,0.571073015873016,0,0.6325369738339024,0
com.nolanlawson.keepscore,v1.5.1,@+id/text_game_name$My Game with a really long name that is totally unrealistic but whatever,17,0.18698639455782312,10,3.6,0.5619268707482992,0,-0.4341296928327645,0
com.nolanlawson.keepscore,v1.5.1,@+id/text_game_name$My Game with a really long name that is totally unrealistic but whatever,11,0.27543430335097,6,4.5,0.4988897368064034,0,0.46587030716723543,0
com.nolanlawson.keepscore,v1.5.1,@+id/text_game_name$My Game with a really long name that is totally unrealistic but whatever,18,0.4408333333333333,1,5.0,0.725,0,0.9658703071672354,0
com.nolanlawson.keepscore,v1.5.1,@+id/text_game_name$My Game with a really long name that is totally unrealistic but whatever,21,0.1523888888888889,3,4.0,0.47968253968253965,0,-0.03412969283276457,0
com.nolanlawson.keepscore,v1.5.1,@+id/text_game_name$My Game with a really long name that is totally unrealistic but whatever,16,0.22875,2,5.0,0.6046180555555556,0,0.9658703071672354,0
com.nolanlawson.keepscore,v1.5.1,@+id/text_game_name$My Game with a really long name that is totally unrealistic but whatever,12,0.3344444444444445,5,4.2,0.5361706349206349,0,0.1658703071672356,0
com.nolanlawson.keepscore,v1.5.1,@+id/text_game_name$My Game with a really long name that is totally unrealistic but whatever,15,0.7270833333333333,1,5.0,0.8583333333333334,0,0.9658703071672354,0
com.nolanlawson.keepscore,v1.5.1,@+id/text_game_name$My Game with a really long name that is totally unrealistic but whatever,20,0.4277777777777778,3,5.0,0.6999999999999998,0,0.9658703071672354,0
com.nolanlawson.keepscore,v1.5.1,@string/app_name$,33,0.043596440166975864,3,3.6666666666666665,0.4923552257266543,0,-0.36746302616609805,0
com.nolanlawson.keepscore,v1.5.1,@string/app_name$,34,-0.008912037037037052,4,3.5,0.6065806878306879,0,-0.5341296928327646,0
com.nolanlawson.keepscore,v1.5.1,@string/app_name$,30,0.5305555555555556,4,2.5,0.5944444444444444,0,-1.5341296928327646,0
com.nolanlawson.keepscore,v1.5.1,@string/app_name$,36,0.2333333333333333,1,4.0,0.7583333333333333,0,-0.03412969283276457,0
com.nolanlawson.keepscore,v1.5.1,@string/app_name$,23,0.3825119047619048,10,4.4,0.6049880952380953,0,0.3658703071672358,0
com.nolanlawson.keepscore,v1.5.1,@string/app_name$,24,0.5599999999999999,5,4.6,0.5916666666666667,0,0.5658703071672351,0
com.nolanlawson.keepscore,v1.5.1,@string/app_name$,25,0.3365685626102293,9,3.5555555555555554,0.5391402116402116,0,-0.4785741372772092,0
com.nolanlawson.keepscore,v1.5.1,@string/app_name$,35,0.37896825396825395,3,4.666666666666667,0.6623015873015873,0,0.6325369738339024,0
com.nolanlawson.keepscore,v1.5.1,@string/app_name$,31,0.09999999999999999,1,1.0,0.35555555555555557,0,-3.0341296928327646,0
com.nolanlawson.keepscore,v1.5.1,@string/app_name$,29,0.2739896985730319,2,4.0,0.5895703062369728,0,-0.03412969283276457,0
com.nolanlawson.keepscore,v1.5.1,@string/app_name$,26,0.13799999999999998,5,4.6,0.404040293040293,0,0.5658703071672351,0
com.nolanlawson.keepscore,v1.5.1,@string/app_name$,28,-0.2,1,1.0,0.2,0,-3.0341296928327646,0
com.nolanlawson.keepscore,v1.5.1,@string/app_name$,32,-0.4,1,2.0,0.4,0,-2.0341296928327646,0
com.nolanlawson.keepscore,v1.5.1,@string/app_name$,27,0.45000000000000007,1,5.0,0.65,0,0.9658703071672354,0
com.nolanlawson.keepscore,v1.5.1,@+id/button_2_players$button_2_players,37,0.1807532177643785,10,3.5,0.5432368454957741,0,-0.5341296928327646,0
com.nolanlawson.keepscore,v1.5.1,@+id/button_2_players$button_2_players,41,0.07222222222222223,1,5.0,0.48571428571428577,0,0.9658703071672354,0
com.nolanlawson.keepscore,v1.5.1,@+id/button_2_players$button_2_players,38,0.34012761904761907,5,4.8,0.49526285714285717,0,0.7658703071672353,0
com.nolanlawson.keepscore,v1.5.1,@+id/button_2_players$button_2_players,39,0.3253896103896104,2,4.0,0.6709415584415584,0,-0.03412969283276457,0
com.nolanlawson.keepscore,v1.5.1,@+id/button_2_players$button_2_players,40,0.0,1,3.0,0.0,0,-1.0341296928327646,0
com.nolanlawson.keepscore,v1.5.1,@+id/edit_player_2$,44,-0.017069336541434752,4,2.75,0.47417594310451455,0,-1.2841296928327646,0
com.nolanlawson.keepscore,v1.5.1,@+id/edit_player_2$,43,0.2964415584415584,5,3.6,0.43251948051948047,0,-0.4341296928327645,0
com.nolanlawson.keepscore,v1.5.1,@+id/edit_player_2$,45,0.3654166666666667,4,4.75,0.5729042658730159,0,0.7158703071672354,0
com.nolanlawson.keepscore,v1.5.1,@+id/edit_player_2$,42,0.3109714285714285,1,5.0,0.6679809523809525,0,0.9658703071672354,0
com.nolanlawson.keepscore,v1.5.1,@android:id/empty$text_no_saved_games,55,-0.02095089871347989,11,2.090909090909091,0.47934847259522595,0,-1.9432206019236737,0
com.nolanlawson.keepscore,v1.5.1,@android:id/empty$text_no_saved_games,50,0.18931972789115648,3,4.0,0.5553514739229025,0,-0.03412969283276457,0
com.nolanlawson.keepscore,v1.5.1,@android:id/empty$text_no_saved_games,54,0.28599137634851923,21,4.190476190476191,0.5546512746512745,0,0.15634649764342612,0
com.nolanlawson.keepscore,v1.5.1,@android:id/empty$text_no_saved_games,57,0.22314814814814812,2,4.0,0.6983862433862433,0,-0.03412969283276457,0
com.nolanlawson.keepscore,v1.5.1,@android:id/empty$text_no_saved_games,56,0.11107619047619048,4,3.25,0.5544952380952382,0,-0.7841296928327646,0
com.nolanlawson.keepscore,v1.5.1,@android:id/empty$text_no_saved_games,48,0.2006666666666667,5,3.8,0.5932307692307692,0,-0.23412969283276475,0
com.nolanlawson.keepscore,v1.5.1,@android:id/empty$text_no_saved_games,49,0.23708333333333334,2,5.0,0.6636656746031746,0,0.9658703071672354,0
com.nolanlawson.keepscore,v1.5.1,@android:id/empty$text_no_saved_games,51,0.2833333333333333,2,5.0,0.49952380952380954,0,0.9658703071672354,0
com.nolanlawson.keepscore,v1.5.1,@android:id/empty$text_no_saved_games,52,0.19166666666666668,1,4.0,0.5499999999999999,0,-0.03412969283276457,0
com.nolanlawson.keepscore,v1.5.1,@android:id/empty$text_no_saved_games,53,0.3166666666666667,1,5.0,0.5599999999999999,0,0.9658703071672354,0
com.nolanlawson.keepscore,v1.5.1,@android:id/button1$button_new_game,59,-0.02502109208582423,6,3.3333333333333335,0.4371958464815608,0,-0.7007963594994311,0
com.nolanlawson.keepscore,v1.5.1,@android:id/button1$button_new_game,67,0.17145500927643784,10,3.4,0.5626178880643166,0,-0.6341296928327647,0
com.nolanlawson.keepscore,v1.5.1,@android:id/button1$button_new_game,69,0.20547848616030437,11,3.5454545454545454,0.5145795618522891,0,-0.48867514737821915,0
com.nolanlawson.keepscore,v1.5.1,@android:id/button1$button_new_game,64,0.28737373737373734,3,3.3333333333333335,0.45661616161616164,0,-0.7007963594994311,0
com.nolanlawson.keepscore,v1.5.1,@android:id/button1$button_new_game,65,0.06666666666666667,2,3.5,0.2765567765567766,0,-0.5341296928327646,0
com.nolanlawson.keepscore,v1.5.1,@android:id/button1$button_new_game,68,0.3486686318972033,7,5.0,0.6360291194255481,0,0.9658703071672354,0
com.nolanlawson.keepscore,v1.5.1,@android:id/button1$button_new_game,66,0.3980952380952381,7,4.428571428571429,0.6133418367346939,0,0.39444173573866426,0
com.nolanlawson.keepscore,v1.5.1,@android:id/button1$button_new_game,60,0.02023809523809525,2,3.0,0.5595238095238095,0,-1.0341296928327646,0
com.nolanlawson.keepscore,v1.5.1,@android:id/button1$button_new_game,70,0.033333333333333326,1,2.0,0.3,0,-2.0341296928327646,0
com.nolanlawson.keepscore,v1.5.1,@android:id/button1$button_new_game,61,-0.017833333333333323,1,5.0,0.35333333333333333,0,0.9658703071672354,0
com.nolanlawson.keepscore,v1.5.1,@android:id/button1$button_new_game,63,0.4625,1,5.0,0.5625,0,0.9658703071672354,0
com.nolanlawson.keepscore,v1.5.1,@+id/player_2$,73,0.036287806315708104,4,3.0,0.46411641929499076,0,-1.0341296928327646,0
com.nolanlawson.keepscore,v1.5.1,@+id/player_2$,75,0.3,3,2.6666666666666665,0.3333333333333333,0,-1.367463026166098,0
com.nolanlawson.keepscore,v1.5.1,@+id/player_2$,71,0.19024603174603172,3,4.666666666666667,0.5258730158730158,0,0.6325369738339024,0
com.nolanlawson.keepscore,v1.5.1,@+id/player_2$,74,0.36658961038961035,2,4.5,0.6477891774891775,0,0.46587030716723543,0
com.nolanlawson.keepscore,v1.5.1,@+id/player_2$,72,0.41875000000000007,2,5.0,0.6446180555555556,0,0.9658703071672354,0
com.nolanlawson.keepscore,v1.5.1,@android:id/button3$button_load_game,83,0.1792244540722625,11,3.4545454545454546,0.5864969734450254,0,-0.57958423828731,0
com.nolanlawson.keepscore,v1.5.1,@android:id/button3$button_load_game,85,0.03718820861678004,7,3.7142857142857144,0.46150793650793653,0,-0.31984397854705016,0
com.nolanlawson.keepscore,v1.5.1,@android:id/button3$button_load_game,78,0.25,1,1.0,0.375,0,-3.0341296928327646,0
com.nolanlawson.keepscore,v1.5.1,@android:id/button3$button_load_game,77,0.1940128205128205,13,4.0,0.49559206818822205,0,-0.03412969283276457,0
com.nolanlawson.keepscore,v1.5.1,@android:id/button3$button_load_game,79,0.4422777777777778,5,4.4,0.704404761904762,0,0.3658703071672358,0
com.nolanlawson.keepscore,v1.5.1,@android:id/button3$button_load_game,82,0.1654320987654321,3,3.6666666666666665,0.5193087776421109,0,-0.36746302616609805,0
com.nolanlawson.keepscore,v1.5.1,@android:id/button3$button_load_game,86,0.3904761904761905,1,5.0,0.5190476190476191,0,0.9658703071672354,0
com.nolanlawson.keepscore,v1.5.1,@android:id/button3$button_load_game,81,0.21194444444444446,3,3.0,0.4141666666666666,0,-1.0341296928327646,0
com.nolanlawson.keepscore,v1.5.1,@android:id/button3$button_load_game,76,0.14166666666666666,2,4.0,0.46770833333333334,0,-0.03412969283276457,0
com.nolanlawson.keepscore,v1.5.1,@android:id/button3$button_load_game,80,0.3383793650793651,3,5.0,0.6224056878306877,0,0.9658703071672354,0
com.nolanlawson.keepscore,v1.5.1,@+id/text_date_saved$Saved: June 15,87,0.005555555555555554,1,2.0,0.3777777777777778,0,-2.0341296928327646,0
com.nolanlawson.keepscore,v1.5.1,@+id/player_5$,93,0.1707738095238095,4,3.75,0.49339285714285713,0,-0.28412969283276457,0
com.nolanlawson.keepscore,v1.5.1,@+id/player_5$,94,0.2522781385281385,4,3.75,0.6266166125541126,0,-0.28412969283276457,0
com.nolanlawson.keepscore,v1.5.1,@+id/player_5$,95,0.255,7,3.857142857142857,0.48645549886621314,0,-0.17698683568990736,0
com.nolanlawson.keepscore,v1.5.1,@+id/player_5$,92,0.043333333333333335,2,4.0,0.34404761904761905,0,-0.03412969283276457,0
com.nolanlawson.keepscore,v1.5.1,@+id/player_5$,96,0.20714285714285718,2,4.0,0.6285714285714286,0,-0.03412969283276457,0
com.nolanlawson.keepscore,v1.5.1,@+id/button_5_players$button_5_players,97,0.20716666666666664,11,4.0,0.5423160173160174,0,-0.03412969283276457,0
com.nolanlawson.keepscore,v1.5.1,@+id/button_5_players$button_5_players,101,0.25,1,1.0,0.375,0,-3.0341296928327646,0
com.nolanlawson.keepscore,v1.5.1,@+id/button_5_players$button_5_players,99,0.1438015873015873,5,4.2,0.537954365079365,0,0.1658703071672356,0
com.nolanlawson.keepscore,v1.5.1,@+id/button_5_players$button_5_players,98,0.18520833333333336,4,4.5,0.3968452380952381,0,0.46587030716723543,0
com.nolanlawson.keepscore,v1.5.1,@+id/button_5_players$button_5_players,102,0.39027056277056277,2,4.5,0.5512987012987013,0,0.46587030716723543,0
com.nolanlawson.keepscore,v1.5.1,@+id/button_5_players$button_5_players,100,0.3109714285714285,1,5.0,0.6679809523809525,0,0.9658703071672354,0
com.nolanlawson.keepscore,v1.5.1,@+id/button_6_players$button_6_players,106,0.2714285714285714,1,4.0,0.5738095238095239,0,-0.03412969283276457,0
com.nolanlawson.keepscore,v1.5.1,@+id/button_6_players$button_6_players,104,0.024404761904761898,4,2.0,0.33886904761904757,0,-2.0341296928327646,0
com.nolanlawson.keepscore,v1.5.1,@+id/button_6_players$button_6_players,107,0.16546296296296298,3,5.0,0.5043650793650793,0,0.9658703071672354,0
com.nolanlawson.keepscore,v1.5.1,@+id/button_6_players$button_6_players,105,0.505,2,4.5,0.5675,0,0.46587030716723543,0
com.nolanlawson.keepscore,v1.5.1,@+id/button_6_players$button_6_players,103,0.31476049783549787,8,4.75,0.5878934749278499,0,0.7158703071672354,0
com.nolanlawson.keepscore,v1.5.1,@+id/button_4_players$button_4_players,109,0.19107571428571427,10,3.6,0.5251314285714287,0,-0.4341296928327645,0
com.nolanlawson.keepscore,v1.5.1,@+id/button_4_players$button_4_players,108,0.07116512345679013,4,4.25,0.43133818342151675,0,0.21587030716723543,0
com.nolanlawson.keepscore,v1.5.1,@+id/button_4_players$button_4_players,111,0.43374999999999997,4,4.75,0.5283804563492064,0,0.7158703071672354,0
com.nolanlawson.keepscore,v1.5.1,@+id/button_4_players$button_4_players,110,0.4222077922077922,1,4.0,0.6275974025974026,0,-0.03412969283276457,0
com.nolanlawson.keepscore,v1.5.1,@+id/button_4_players$button_4_players,112,0.45000000000000007,1,5.0,0.65,0,0.9658703071672354,0
com.nolanlawson.keepscore,v1.5.1,@+id/button_plus$+,116,0.20382426303854875,7,4.571428571428571,0.5120068027210884,0,0.5372988785958066,0
com.nolanlawson.keepscore,v1.5.1,@+id/button_plus$+,114,0.34923571428571426,2,5.0,0.6536085317460318,0,0.9658703071672354,0
com.nolanlawson.keepscore,v1.5.1,@+id/button_plus$+,113,0.3375,1,5.0,0.5625,0,0.9658703071672354,0
com.nolanlawson.keepscore,v1.5.1,@+id/button_plus$+,115,0.65,1,4.0,0.625,0,-0.03412969283276457,0
com.nolanlawson.keepscore,v1.5.1,@+id/button_3_players$button_3_players,119,0.08798941798941796,6,3.1666666666666665,0.5171825396825397,0,-0.867463026166098,0
com.nolanlawson.keepscore,v1.5.1,@+id/button_3_players$button_3_players,121,0.3242522254288921,10,4.4,0.5165643390251724,0,0.3658703071672358,0
com.nolanlawson.keepscore,v1.5.1,@+id/button_3_players$button_3_players,118,0.24961111111111114,3,5.0,0.5211111111111112,0,0.9658703071672354,0
com.nolanlawson.keepscore,v1.5.1,@+id/okButton$ok,124,0.33121693121693124,3,4.333333333333333,0.5615079365079366,0,0.29920364050056847,0
com.nolanlawson.keepscore,v1.5.1,@+id/okButton$ok,123,0.23365079365079366,3,4.333333333333333,0.5526190476190477,0,0.29920364050056847,0
com.nolanlawson.keepscore,v1.5.1,@+id/okButton$ok,126,0.1465690476190476,2,5.0,0.5106571428571429,0,0.9658703071672354,0
com.nolanlawson.keepscore,v1.5.1,@+id/okButton$ok,127,0.3875,1,5.0,0.6392361111111111,0,0.9658703071672354,0
com.nolanlawson.keepscore,v1.5.1,@+id/edit_player_5$,129,0.2616269841269841,6,4.666666666666667,0.6161111111111112,0,0.6325369738339024,0
com.nolanlawson.keepscore,v1.5.1,@+id/edit_player_5$,131,0.25,1,1.0,0.375,0,-3.0341296928327646,0
com.nolanlawson.keepscore,v1.5.1,@+id/edit_player_5$,128,0.05396536796536796,5,3.2,0.3216147186147186,0,-0.8341296928327644,0
com.nolanlawson.keepscore,v1.5.1,@+id/edit_player_5$,132,0.30700000000000005,5,4.2,0.6060376984126984,0,0.1658703071672356,0
com.nolanlawson.keepscore,v1.5.1,@+id/edit_player_5$,130,0.1767857142857143,2,3.5,0.5602678571428572,0,-0.5341296928327646,0
com.nolanlawson.keepscore,v1.5.1,@+id/button_minus$-,134,0.1547269841269841,4,4.25,0.5836619047619048,0,0.21587030716723543,0
com.nolanlawson.keepscore,v1.5.1,@+id/button_minus$-,136,0.3507222222222222,3,4.666666666666667,0.4896825396825397,0,0.6325369738339024,0
com.nolanlawson.keepscore,v1.5.1,@+id/button_minus$-,135,0.3875,1,5.0,0.6392361111111111,0,0.9658703071672354,0
com.nolanlawson.keepscore,v1.5.1,@+id/button_minus$-,133,0.3166666666666667,1,5.0,0.5599999999999999,0,0.9658703071672354,0
com.nolanlawson.keepscore,v1.5.1,@+id/aboutTextWebView$,139,-0.16666666666666666,1,2.0,0.6666666666666666,0,-2.0341296928327646,0
com.nolanlawson.keepscore,v1.5.1,@string/text_player_names$,146,0.125,2,2.0,0.1875,0,-2.0341296928327646,0
com.nolanlawson.keepscore,v1.5.1,@string/text_player_names$,144,0.10137987012987011,6,3.5,0.5737579665704665,0,-0.5341296928327646,0
com.nolanlawson.keepscore,v1.5.1,@string/text_player_names$,143,0.49375,2,4.5,0.48214285714285715,0,0.46587030716723543,0
com.nolanlawson.keepscore,v1.5.1,@string/text_player_names$,145,0.36,1,5.0,0.51,0,0.9658703071672354,0
com.nolanlawson.keepscore,v1.5.1,@string/text_player_names$,147,0.45000000000000007,1,5.0,0.65,0,0.9658703071672354,0
com.nolanlawson.keepscore,v1.5.1,@+id/player_4$,148,0.31875,2,3.0,0.5071180555555556,0,-1.0341296928327646,0
com.nolanlawson.keepscore,v1.5.1,@+id/player_4$,151,0.0971523809523809,2,3.0,0.5206571428571429,0,-1.0341296928327646,0
com.nolanlawson.keepscore,v1.5.1,@+id/player_4$,152,0.20455246913580247,2,3.5,0.5436287477954145,0,-0.5341296928327646,0
com.nolanlawson.keepscore,v1.5.1,@+id/player_4$,150,0.35805555555555557,3,4.666666666666667,0.5507936507936507,0,0.6325369738339024,0
com.nolanlawson.keepscore,v1.5.1,@+id/player_4$,149,0.24049098124098123,6,4.333333333333333,0.47586940836940833,0,0.29920364050056847,0
com.nolanlawson.keepscore,v1.5.1,@+id/player_1$,157,0.24365079365079367,6,2.3333333333333335,0.5146031746031746,0,-1.700796359499431,0
com.nolanlawson.keepscore,v1.5.1,@+id/player_1$,154,0.29715238095238095,2,4.0,0.6018476190476191,0,-0.03412969283276457,0
com.nolanlawson.keepscore,v1.5.1,@+id/player_1$,153,0.3243333333333333,5,5.0,0.5653234126984127,0,0.9658703071672354,0
com.nolanlawson.keepscore,v1.5.1,@+id/player_1$,155,0.2739896985730319,2,4.0,0.5895703062369728,0,-0.03412969283276457,0
com.nolanlawson.keepscore,v1.5.1,"@+id/text_player_names$Leonardo, Michaelangelo, Donatello, Raphael",162,0.25,1,1.0,0.375,0,-3.0341296928327646,0
com.nolanlawson.keepscore,v1.5.1,"@+id/text_player_names$Leonardo, Michaelangelo, Donatello, Raphael",161,0.26666666666666666,2,2.5,0.49916666666666665,0,-1.5341296928327646,0
com.nolanlawson.keepscore,v1.5.1,"@+id/text_player_names$Leonardo, Michaelangelo, Donatello, Raphael",160,0.29198206555349415,7,4.571428571428571,0.49345920944135235,0,0.5372988785958066,0
com.nolanlawson.keepscore,v1.5.1,"@+id/text_player_names$Leonardo, Michaelangelo, Donatello, Raphael",159,0.2285714285714286,1,4.0,0.7142857142857143,0,-0.03412969283276457,0
com.nolanlawson.keepscore,v1.5.1,@+id/edit_player_4$,167,0.25,1,1.0,0.375,0,-3.0341296928327646,0
com.nolanlawson.keepscore,v1.5.1,@+id/edit_player_4$,165,0.08333333333333331,2,2.0,0.45452380952380955,0,-2.0341296928327646,0
com.nolanlawson.keepscore,v1.5.1,@+id/edit_player_4$,164,0.19714735984180431,6,4.5,0.545690102078991,0,0.46587030716723543,0
com.nolanlawson.keepscore,v1.5.1,@+id/edit_player_4$,166,0.3597452380952381,6,4.5,0.5153695105820105,0,0.46587030716723543,0
com.nolanlawson.keepscore,v1.5.1,@+id/text_num_players$4 players,170,0.29375,2,3.0,0.35714285714285715,0,-1.0341296928327646,0
com.nolanlawson.keepscore,v1.5.1,@+id/text_num_players$4 players,171,-0.1166666666666667,1,1.0,0.37333333333333335,0,-3.0341296928327646,0
com.nolanlawson.keepscore,v1.5.1,@+id/text_num_players$4 players,169,0.3096428571428571,4,4.0,0.46232142857142855,0,-0.03412969283276457,0
com.nolanlawson.keepscore,v1.5.1,@+id/text_num_players$4 players,172,0.3365936147186147,4,4.75,0.651232187950938,0,0.7158703071672354,0
com.nolanlawson.keepscore,v1.5.1,@string/text_num_players$,174,0.06666666666666665,2,1.0,0.37416666666666665,0,-3.0341296928327646,0
com.nolanlawson.keepscore,v1.5.1,@string/text_num_players$,173,0.16875,2,4.0,0.16964285714285715,0,-0.03412969283276457,0
com.nolanlawson.keepscore,v1.5.1,@string/text_num_players$,175,0.470551948051948,4,4.5,0.6031493506493506,0,0.46587030716723543,0
com.nolanlawson.keepscore,v1.5.1,@string/text_num_players$,176,0.15761904761904763,2,4.5,0.7011904761904761,0,0.46587030716723543,0
com.nolanlawson.keepscore,v1.5.1,@string/text_num_players$,177,0.3875,1,5.0,0.6392361111111111,0,0.9658703071672354,0
com.nolanlawson.keepscore,v1.5.1,@+id/player_6$,180,0.25,1,1.0,0.375,0,-3.0341296928327646,0
com.nolanlawson.keepscore,v1.5.1,@+id/player_6$,181,-0.1166666666666667,1,1.0,0.37333333333333335,0,-3.0341296928327646,0
com.nolanlawson.keepscore,v1.5.1,@+id/player_6$,182,0.449301948051948,4,4.5,0.557779806998557,0,0.46587030716723543,0
com.nolanlawson.keepscore,v1.5.1,@+id/player_6$,179,0.18,2,4.0,0.255,0,-0.03412969283276457,0
com.nolanlawson.keepscore,v1.5.1,@+id/player_6$,178,0.2550793650793651,3,4.666666666666667,0.684126984126984,0,0.6325369738339024,0
com.nolanlawson.keepscore,v1.5.1,@+id/edit_player_1$,183,0.2804857142857142,2,3.0,0.5214904761904762,0,-1.0341296928327646,0
com.nolanlawson.keepscore,v1.5.1,@+id/edit_player_1$,184,0.30011904761904756,7,3.4285714285714284,0.624482709750567,0,-0.6055582642613362,0
com.nolanlawson.keepscore,v1.5.1,@+id/edit_player_1$,185,0.3375,1,5.0,0.3392857142857143,0,0.9658703071672354,0
com.nolanlawson.keepscore,v1.5.1,@+id/edit_player_1$,187,0.25885027523916415,3,4.0,0.6311421089198866,0,-0.03412969283276457,0
com.nolanlawson.keepscore,v1.5.1,@+id/edit_player_1$,186,0.22500000000000003,2,4.0,0.325,0,-0.03412969283276457,0
com.nolanlawson.keepscore,v1.5.1,@+id/edit_player_3$,189,0.2804857142857142,2,3.0,0.5214904761904762,0,-1.0341296928327646,0
com.nolanlawson.keepscore,v1.5.1,@+id/edit_player_3$,192,0.166875,4,4.0,0.47767857142857145,0,-0.03412969283276457,0
com.nolanlawson.keepscore,v1.5.1,@+id/edit_player_3$,190,0.29086860670194004,5,4.0,0.5081657848324515,0,-0.03412969283276457,0
com.nolanlawson.keepscore,v1.5.1,@+id/edit_player_3$,191,0.4222077922077922,1,4.0,0.6275974025974026,0,-0.03412969283276457,0
com.nolanlawson.keepscore,v1.5.1,@+id/edit_player_3$,188,0.3875,1,5.0,0.6392361111111111,0,0.9658703071672354,0
com.nolanlawson.keepscore,v1.5.1,@+id/player_3$,193,0.33767278911564624,7,4.142857142857143,0.622799716553288,0,0.10872745002437867,0
com.nolanlawson.keepscore,v1.5.1,@+id/player_3$,194,-0.1166666666666667,1,1.0,0.37333333333333335,0,-3.0341296928327646,0
com.nolanlawson.keepscore,v1.5.1,@+id/player_3$,197,0.29515979904868794,3,4.333333333333333,0.5061421089198866,0,0.29920364050056847,0
com.nolanlawson.keepscore,v1.5.1,@+id/player_3$,196,0.36,1,5.0,0.51,0,0.9658703071672354,0
com.nolanlawson.keepscore,v1.5.1,@+id/player_3$,195,0.0,1,3.0,0.0,0,-1.0341296928327646,0
com.nolanlawson.keepscore,v1.5.1,@+id/edit_player_6$,199,0.354926948051948,4,3.75,0.5379583784271285,0,-0.28412969283276457,0
com.nolanlawson.keepscore,v1.5.1,@+id/edit_player_6$,202,0.05595238095238095,2,2.5,0.5438095238095239,0,-1.5341296928327646,0
com.nolanlawson.keepscore,v1.5.1,@+id/edit_player_6$,201,0.3810416666666667,4,4.75,0.575595238095238,0,0.7158703071672354,0
com.nolanlawson.keepscore,v1.5.1,@+id/edit_player_6$,200,0.0,1,3.0,0.0,0,-1.0341296928327646,0
com.nolanlawson.keepscore,v1.5.1,@+id/text_history$,203,0.31425505050505054,2,4.5,0.5101028138528139,0,0.46587030716723543,0
com.nolanlawson.keepscore,v1.5.1,@+id/text_history$,204,0.3166666666666667,1,5.0,0.5599999999999999,0,0.9658703071672354,0
com.nolanlawson.keepscore,v1.5.1,@+id/text_history$,207,0.3109714285714285,1,5.0,0.6679809523809525,0,0.9658703071672354,0
com.nolanlawson.keepscore,v1.5.1,@android:id/list$,211,-0.1166666666666667,2,1.0,0.37333333333333335,0,-3.0341296928327646,0
com.nolanlawson.keepscore,v1.5.1,@android:id/list$,212,-0.03571428571428572,2,2.0,0.38928571428571423,0,-2.0341296928327646,0
com.nolanlawson.keepscore,v1.5.1,@android:id/list$,209,-0.017833333333333323,2,5.0,0.35333333333333333,0,0.9658703071672354,0
com.nolanlawson.keepscore,v1.5.1,@+id/list_header_title$,216,-0.07619047619047621,2,1.5,0.38130952380952376,0,-2.5341296928327646,0
com.nolanlawson.keepscore,v1.5.1,@+id/list_header_title$,217,-0.017833333333333323,1,5.0,0.35333333333333333,0,0.9658703071672354,0
com.nolanlawson.keepscore,v1.5.1,@android:id/edit$0,221,0.0,1,3.0,0.0,0,-1.0341296928327646,0
