package,release ID,UI element,related topic,average polarity,# reviews,average rating,average objectivity,# uninstalls,delta rating,element deleted next release
com.nolanlawson.keepscore,v1.2.4,@android:id/button2$button_resume_game,584,0.2875,1,5.0,0.7625,0,0.9722222222222223,0
com.nolanlawson.keepscore,v1.2.4,@android:id/button2$button_resume_game,579,0.15000000000000002,1,5.0,0.7749999999999999,0,0.9722222222222223,0
com.nolanlawson.keepscore,v1.2.4,@+id/text_game_name$My Game with a really long name that is totally unrealistic but whatever,585,0.21875,2,5.0,0.7687499999999999,0,0.9722222222222223,0
com.nolanlawson.keepscore,v1.2.4,@string/app_name$,596,0.2875,1,5.0,0.7625,0,0.9722222222222223,0
com.nolanlawson.keepscore,v1.2.4,@string/app_name$,592,0.579,5,4.6,0.6816666666666666,0,0.572222222222222,0
com.nolanlawson.keepscore,v1.2.4,@string/app_name$,597,0.275,2,5.0,0.5291666666666666,0,0.9722222222222223,0
com.nolanlawson.keepscore,v1.2.4,@android:id/empty$text_no_saved_games,603,0.2875,1,5.0,0.7625,0,0.9722222222222223,0
com.nolanlawson.keepscore,v1.2.4,@android:id/empty$text_no_saved_games,604,0.15000000000000002,1,5.0,0.7749999999999999,0,0.9722222222222223,0
com.nolanlawson.keepscore,v1.2.4,@android:id/button1$button_new_game,606,0.21875,2,5.0,0.7687499999999999,0,0.9722222222222223,0
com.nolanlawson.keepscore,v1.2.4,@android:id/button3$button_load_game,611,0.2875,1,5.0,0.7625,0,0.9722222222222223,0
com.nolanlawson.keepscore,v1.2.4,@android:id/button3$button_load_game,616,0.15000000000000002,1,5.0,0.7749999999999999,0,0.9722222222222223,0
com.nolanlawson.keepscore,v1.2.4,@+id/player_1$,617,0.4000000000000001,1,5.0,0.2833333333333333,0,0.9722222222222223,0
com.nolanlawson.keepscore,v1.2.4,@+id/player_1$,619,0.5611111111111111,1,5.0,0.6472222222222223,0,0.9722222222222223,0
com.nolanlawson.keepscore,v1.2.4,@+id/edit_player_1$,626,0.4000000000000001,1,5.0,0.2833333333333333,0,0.9722222222222223,0
com.nolanlawson.keepscore,v1.2.4,@+id/edit_player_1$,625,0.5611111111111111,1,5.0,0.6472222222222223,0,0.9722222222222223,0
com.nolanlawson.keepscore,v1.2.4,@string/text_player_names$,627,0.5611111111111111,1,5.0,0.6472222222222223,0,0.9722222222222223,0
com.nolanlawson.keepscore,v1.2.4,@android:id/list$,636,0.5611111111111111,2,5.0,0.6472222222222223,0,0.9722222222222223,0
com.nolanlawson.keepscore,v1.2.4,@+id/player_4$,641,0.5611111111111111,1,5.0,0.6472222222222223,0,0.9722222222222223,0
com.nolanlawson.keepscore,v1.2.4,@+id/player_5$,646,0.5611111111111111,1,5.0,0.6472222222222223,0,0.9722222222222223,0
com.nolanlawson.keepscore,v1.2.4,@+id/button_5_players$button_5_players,649,0.5611111111111111,1,5.0,0.6472222222222223,0,0.9722222222222223,0
com.nolanlawson.keepscore,v1.2.4,@+id/button_6_players$button_6_players,652,0.5611111111111111,1,5.0,0.6472222222222223,0,0.9722222222222223,0
com.nolanlawson.keepscore,v1.2.4,"@+id/text_player_names$Leonardo, Michaelangelo, Donatello, Raphael",658,0.5611111111111111,1,5.0,0.6472222222222223,0,0.9722222222222223,0
com.nolanlawson.keepscore,v1.2.4,@+id/edit_player_4$,665,0.5611111111111111,1,5.0,0.6472222222222223,0,0.9722222222222223,0
com.nolanlawson.keepscore,v1.2.4,@android:id/edit$0,667,0.5611111111111111,1,5.0,0.6472222222222223,0,0.9722222222222223,0
com.nolanlawson.keepscore,v1.2.4,@+id/text_num_players$4 players,675,0.5611111111111111,1,5.0,0.6472222222222223,0,0.9722222222222223,0
com.nolanlawson.keepscore,v1.2.4,@string/text_num_players$,677,0.5611111111111111,1,5.0,0.6472222222222223,0,0.9722222222222223,0
com.nolanlawson.keepscore,v1.2.4,@+id/button_2_players$button_2_players,684,0.5611111111111111,1,5.0,0.6472222222222223,0,0.9722222222222223,0
com.nolanlawson.keepscore,v1.2.4,@+id/button_4_players$button_4_players,691,0.5611111111111111,1,5.0,0.6472222222222223,0,0.9722222222222223,0
com.nolanlawson.keepscore,v1.2.4,@+id/player_6$,694,0.5611111111111111,1,5.0,0.6472222222222223,0,0.9722222222222223,0
com.nolanlawson.keepscore,v1.2.4,@+id/edit_player_2$,697,0.5611111111111111,1,5.0,0.6472222222222223,0,0.9722222222222223,0
com.nolanlawson.keepscore,v1.2.4,@+id/edit_player_3$,704,0.5611111111111111,1,5.0,0.6472222222222223,0,0.9722222222222223,0
com.nolanlawson.keepscore,v1.2.4,@+id/player_2$,708,0.5611111111111111,1,5.0,0.6472222222222223,0,0.9722222222222223,0
com.nolanlawson.keepscore,v1.2.4,@+id/button_plus$+,712,0.5611111111111111,1,5.0,0.6472222222222223,0,0.9722222222222223,0
com.nolanlawson.keepscore,v1.2.4,@+id/player_3$,721,0.5611111111111111,1,5.0,0.6472222222222223,0,0.9722222222222223,0
com.nolanlawson.keepscore,v1.2.4,@+id/list_header_title$,725,0.5611111111111111,1,5.0,0.6472222222222223,0,0.9722222222222223,0
com.nolanlawson.keepscore,v1.2.4,@+id/button_3_players$button_3_players,730,0.5611111111111111,1,5.0,0.6472222222222223,0,0.9722222222222223,0
com.nolanlawson.keepscore,v1.2.4,@+id/okButton$ok,734,0.5611111111111111,1,5.0,0.6472222222222223,0,0.9722222222222223,0
com.nolanlawson.keepscore,v1.2.4,@+id/edit_player_5$,741,0.5611111111111111,1,5.0,0.6472222222222223,0,0.9722222222222223,0
com.nolanlawson.keepscore,v1.2.4,@+id/edit_player_6$,745,0.5611111111111111,1,5.0,0.6472222222222223,0,0.9722222222222223,0
com.nolanlawson.keepscore,v1.2.4,@+id/button_minus$-,747,0.5611111111111111,1,5.0,0.6472222222222223,0,0.9722222222222223,0
