# deletions,date,commit message
2,2016/6/30,Update to the latest twitter api (#44)  The latest way for links is: `https://twitter.com/${user_name_without_at}`
3,2016/5/06,Release 1.8.1
3,2016/5/06,Allow editing current hackerspace api url in preferences
