the combination of suffering with and a great love of sound make this a good one to have,o,2017-03-16,Chaz Miller,5
it chromatic capability make it a very special one among noise,o,2017-03-16,Chaz Miller,5
in i do indeed love it,o,2017-03-16,Chaz Miller,5
amazing,o,2017-02-24,Davyd Ford,5
you can fine tune the audio to suit your need,o,2017-02-24,Davyd Ford,5
i suffer from tinnitus so the ability to create an audio signal i can use with my tinnitus and produce sound that really do help me to sleep,b,2017-02-24,Davyd Ford,5
i would give it more 5 star,b,2017-02-24,Davyd Ford,5
it would be nice to be able to save an audio signal to an file of maybe up to an hour,b,2017-02-24,Davyd Ford,5
i just installed the and already know it will be amazing for relaxing and sleep,o,2017-02-22,Tony Stewart,5
you can draw you own spectrum of i prefer lower end brown noise in the,b,2017-02-22,Tony Stewart,5
forget the rest this is the and tried quite a few,b,2017-02-22,Tony Stewart,5
quality software,o,2016-12-20,Peter Neilon,5
laughing silent ecstasy void now divine,f,2016-12-12,Darry Lobos,5
sound is fabulous,o,2016-12-08,,2
but it regularly pause for the briefest of moment totally waking me up,o,2016-12-08,,2
what am i doing wrong,o,2016-12-08,,2
create your own white noise pattern,o,2016-11-18,Rob Rippengale,5
adjust the pulse modulation,f,2016-11-18,Rob Rippengale,5
this doe exactly what is needed without any clutter,o,2016-11-18,Rob Rippengale,5
fantastic,o,2016-11-18,Rob Rippengale,5
doe the job,o,2016-11-15,Emma Jane,3
,o,2016-11-15,Emma Jane,3
what can i say,o,2016-10-24,Joop Reijenga,5
simply working fantastic,o,2016-10-24,Joop Reijenga,5
great job,o,2016-10-24,Joop Reijenga,5
wa gonna ask if there wa a way to backup stream to external storage for example but read on that option wa removed,f,2016-10-24,Joop Reijenga,5
is there a way to do just that,o,2016-10-24,Joop Reijenga,5
or is it possible to program such an option in,b,2016-10-24,Joop Reijenga,5
ah deserves the full rating anyway,b,2016-10-24,Joop Reijenga,5
no and the new autostart feature make it even easier to use,f,2016-09-28,Timothy Cooper,5
i love you can make custom sound profile too,o,2016-09-28,Timothy Cooper,5
nice work well,o,2016-09-25,James Gilchrist,5
this is the first ha actually worked for me,b,2016-09-21,Jacqueline Fitzgerald,5
wow,o,2016-09-21,Jacqueline Fitzgerald,5
thankful,o,2016-09-21,Jacqueline Fitzgerald,5
feature detailed noise color allowing me to match the exact frequency of my which made it possible for me to focus on a sound coming from outside and on my own thought,f,2016-09-21,D J Szenfeld,5
i suffer from tinnitus and found this to be a good masking,b,2016-09-15,HUGO CELLMOFF,5
thank you,o,2016-09-15,HUGO CELLMOFF,5
can we please have a display of frequency on the,f,2016-09-14,Tim Paton,4
great but would be even better with some number,o,2016-09-14,Tim Paton,4
thanks for creating and updating,b,2016-09-13,brady fowler,5
this is a part of my and i am grateful,b,2016-09-13,brady fowler,5
support better concentration and especially handy at the dentist office too,b,2016-09-13,brady fowler,5
cream of the just phenomenal,f,2016-09-12,Carlos Skinner,5
great idea,b,2016-08-31,Zach Stout,5
reasonably awesome execution,o,2016-08-31,Zach Stout,5
sleep excellently to this,f,2016-08-07,Sarienn Music,5
all the left side slider are like,f,2016-08-07,Sarienn Music,5
best white noise maker in history,b,2016-07-30,Bits 360,5
i usually need to listen to space sound to sleep my is a life can make it sound pretty much like the magnetic field of or you for this awesome,f,2016-07-18,Bee Why,5
simple to use minimal,b,2016-07-10,Paul Allaway,5
best,o,2016-07-10,Paul Allaway,5
this is easy to look really sharp and is very customizable,b,2016-06-17,Otto Fox,5
it requires no special permission and is licensed under,b,2016-06-17,Otto Fox,5
beautiful,o,2016-06-17,Otto Fox,5
a fantastic noise generator,f,2016-06-17,A Google User,5
thank you,o,2016-06-17,A Google User,5
no excess battery no excess permission,b,2016-05-31,Jeff B,5
one suggestion allow fine control of each individual bar,f,2016-05-31,Jeff B,5
this one ha a very small and it performs great,b,2016-05-30,Brian Carp,5
excellent,o,2016-05-30,Brian Carp,5
how many noise have you downloaded give you complete control over every aspect of what you hear,b,2016-05-22,Righteous Indignation,5
is nothing short of amazing,o,2016-05-22,Righteous Indignation,5
perfect for any situation a noise buffer is desired sleep,b,2016-05-22,Righteous Indignation,5
infinite noise amplitude volume setting save slot,b,2016-05-22,Righteous Indignation,5
all for free zero add,b,2016-05-22,Righteous Indignation,5
white noise is a little too bright for me,f,2016-05-09,John Miller,5
i can adjust the higher tone to make a blend of noise,f,2016-05-09,John Miller,5
i love it,o,2016-05-09,John Miller,5
2016 i honestly wish there wa some way to pay for this,b,2016-04-18,Rod Van Beek,5
this solves problem forever and i really appreciate it,b,2016-04-18,Rod Van Beek,5
i have saved setting my speaker tablet,b,2016-04-18,Rod Van Beek,5
just what i wanted,o,2016-04-07,Chris Young,4
no small,o,2016-04-07,Chris Young,4
would be nice it stopped on headphone but the lock screen widget make it easy to stop it,b,2016-04-07,Chris Young,4
it work perfectly,b,2016-01-27,Scott Pruitt,5
this ha been a lifesaver for me i am trapped living out of a hotel room for work,b,2016-01-27,Scott Pruitt,5
i like to sleep to the sound of a fan i am home and this is an excellent substitute,o,2016-01-27,Scott Pruitt,5
thank you much,o,2016-01-27,Scott Pruitt,5
the best,o,2016-01-25,Jared Olson,5
this is perfect,o,2016-01-24,Alex,5
i have used this every night for year,b,2017-04-24,Grace Treherne,5
i love how reliable and basic it is,o,2017-04-24,Grace Treherne,5
