disable the backup feature entirely,f,2016/1/17,,
downgrading to 22 broke the play store upgrade process this is my only remaining option,f,2016/1/17,,
increment version code to 20,b,2016/1/17,,
delete the color hack,f,2016/1/17,,
this is no longer needed is now able to render the spinner correctly in 8,b,2016/1/17,,
