Topic Index 1,Topic Index 2,Topic Similarity
4,8,3.0
9,2,3.0
1,5,2.0
2,7,2.0
15,13,2.0
0,0,1.0
3,1,1.0
6,3,1.0
10,4,1.0
11,11,1.0
12,6,1.0
14,9,1.0
16,12,1.0
17,10,1.0
19,14,1.0
5,15,0.0
7,16,0.0
8,17,0.0
13,18,0.0
18,19,0.0
