# deletions,date,commit message
2,2013/7/24,Use aliases for view columns
14,2013/7/24,Add possibility to delete a meeting from the meeting screen
6,2013/7/24,Ran UCDetector
9,2013/7/24,Fix to show the soft keyboard when bringing up an edit text dialog. Fix to capitalize the first letter of each word in the edit text
2,2013/7/23,Correction for checking if a team has members before starting a meeting
2,2013/7/21,New version 1.0.8
5,2013/7/21,Issue #21 - keep deleted members
60,2013/7/21,Moe meeting refactoring
3,2013/7/21,Made it easier to click on the "Name" column in the members list
312,2013/7/21,Refactoring meetings.
113,2013/7/21,Refactoring logic for creating and deleting members
37,2013/7/21,Ran UCDetector
30,2013/7/21,Refactoring packages.
3,2013/7/20,New version 1.0.7
2,2013/7/20,Improve the list header style
4,2013/7/20,Issue #24 - themed radio buttons in 2.x in dialog
