Topic Index 1,Topic Index 2,Topic Similarity
0,9,11.11111111111111
1,13,11.11111111111111
2,0,5.263157894736842
3,2,5.263157894736842
4,4,5.263157894736842
5,5,5.263157894736842
6,8,5.263157894736842
7,10,5.263157894736842
8,11,5.263157894736842
9,15,5.263157894736842
10,19,5.263157894736842
11,1,0.0
12,3,0.0
13,6,0.0
14,7,0.0
15,12,0.0
16,14,0.0
17,16,0.0
18,17,0.0
19,18,0.0
