Topic Index 1,Topic Index 2,Topic Similarity
4,1,5.263157894736842
6,4,5.263157894736842
7,11,5.263157894736842
10,18,5.263157894736842
11,0,5.263157894736842
13,14,5.263157894736842
0,2,0.0
1,3,0.0
2,5,0.0
3,6,0.0
5,7,0.0
8,8,0.0
9,9,0.0
12,10,0.0
14,12,0.0
15,13,0.0
16,15,0.0
17,16,0.0
18,17,0.0
19,19,0.0
