group,o,2014-11-12,Deepak chaudhary,5
simple to use and doe a fairly good job,o,2014-11-12,Tee H,4
thanks to the development team,o,2014-11-12,Tee H,4
super lightweight and doe the job,o,2014-11-11,Alejandro Gonzalez,5
it to use n work use guy,o,2014-11-10,Nikesh Naik,5
good,o,2014-11-08,Muthu Kumar,4
all i wanted wa a cache cleaner,b,2014-11-01,Joe Ringeisen,1
great,o,2014-10-12,Dragan Adamov,5
