App,Store,App ID,Review ID,Country,Version,Rating,Date,Author,Subject,Body,Translated Subject,Translated Body
Easy xkcd,Google Play,de.tap.easy_xkcd,Z3A6QU9xcFRPR0dIWFV1ZmVLSldZVVJoZDZjTW5qcjVDdkNTSWMyOUhHblJoeGFsZWZKR18taEdpcW9TTVNhTjBqOHFsV0wzdFVFM3dQbE1zYlpEUk12RDVF,English,,5,2016-01-10,Patrick Gelvin,Pretty great except for one thing,this is it doe what it need to do and work without any ad and for free,,
Easy xkcd,Google Play,de.tap.easy_xkcd,Z3A6QU9xcFRPR0dIWFV1ZmVLSldZVVJoZDZjTW5qcjVDdkNTSWMyOUhHblJoeGFsZWZKR18taEdpcW9TTVNhTjBqOHFsV0wzdFVFM3dQbE1zYlpEUk12RDVF,English,,5,2016-01-10,Patrick Gelvin,Pretty great except for one thing,i had a slight issue and within 24 hour the developer updated the,,
