synced with and the best,b,2013-05-04,Roger Bannister,5
handy helpful,o,2013-05-04,Tom Bean,5
been using it nearly for 3 year,b,2013-05-04,Marek Drnak,5
doe the job,o,2013-05-04,Yang Chi,5
and never asks for more permission just storage,o,2013-05-04,Yang Chi,5
great job,o,2013-05-04,Yang Chi,5
very good,o,2013-05-04,,5
,o,2013-05-04,,5
it all worked fine previous release which forced to install file now the latest version upon launch,b,2013-05-04,Nelson Rodriguez,3
i have used on many platform for the last 6 year,o,2013-05-04,Dale Offret,5
h made keeping my password file synchronized a breeze,o,2013-05-04,Dale Offret,5
keep up the good work,o,2013-05-04,Dale Offret,5
this is a real professional and on top of ha kept it free what a dude,o,2013-05-04,Ranjan Kant,2
thanks,o,2013-05-04,Ranjan Kant,2
now with beta support make it absolutely perfect,o,2013-05-04,A Google User,5
others need to understand it is only beta for so it may not be perfect yet,o,2013-05-04,A Google User,5
i would suggest regular backup just in case,f,2013-05-04,A Google User,5
thank you for this,o,2013-05-04,Ozzie Cisneros,5
work awesome,o,2013-05-04,Ozzie Cisneros,5
work without fail,b,2013-05-04,Hermy Halloween,4
group and everything is it should be,o,2013-05-04,Hermy Halloween,4
great,o,2013-05-04,Hermy Halloween,4
all it need is a way to get back to the from the notification shade,b,2013-05-04,Hermy Halloween,4
is an amazing,o,2013-05-04,Michael Vinci,5
it doe a great job securing my password,o,2013-05-04,Michael Vinci,5
the ability to easily copy password is a godsend,o,2013-05-04,Michael Vinci,5
thank you for the,o,2013-05-04,Michael Vinci,5
now it ha support for writing although developer is constantly working on this so issue are being addressed,b,2013-05-04,John Blackburn,5
paired with drop box i now have my password accessible on multiple platform,b,2013-05-04,John Blackburn,5
work beautifully with zero stuffing around required,o,2013-05-04,Nick Coad,5
i use drop box to sync between device,b,2013-05-04,A Google User,5
awesome,o,2013-05-04,A Google User,4
in combination with an encrypted volume and allows me to have all my account security and all my other secure data with me on my phone and other mobile device,b,2013-05-04,A Google User,4
is easy to use and doe what it need and doe it well,o,2013-05-04,A Google User,4
i also use the desktop client,o,2013-05-04,Aaron Schaffer,5
nice work,o,2013-05-04,Aaron Schaffer,5
in conjunction with this is able to store all of your password and make it dead simple to use them in any highly recommended,o,2013-05-04,A Google User,5
brilliantly simple,o,2013-05-04,Anthony Dunstan,5
this is a great doe exactly what it need to do and it doe it well,o,2013-05-04,Terry Chipperfield,5
keep up the great work,o,2013-05-04,Terry Chipperfield,5
not sure if problem with my understanding but have created possible type of database with extension,o,2013-05-04,Marjan Pregelj,1
then installed window version telling me is old obsolete i should create first new format file then import,b,2013-05-04,Marjan Pregelj,1
did it,o,2013-05-04,Marjan Pregelj,1
then have tried to open this new database with android version which open but i get message me support for this format is experimental and on my own risk,b,2013-05-04,Marjan Pregelj,1
i do not see any reason giving android version more then 1 star,o,2013-05-04,Marjan Pregelj,1
re n also for 1 a it look to me it is impossible to create new field,o,2013-05-04,Marjan Pregelj,1
maybe problem i have been spoiled by using pocket so far,f,2013-05-04,Marjan Pregelj,1
but it look will have to give up pocket probably is not being updated anymore and have changed their for sync,b,2013-05-04,Marjan Pregelj,1
