# deletions,date,commit message
1,2013/10/05,auto commit for translation
2,2013/10/02,Revert "auto commit for translation"  This reverts commit 413cbc61475d4800fb204e72b1b86f66ad918764.
2,2013/10/01,auto commit for translation
9,2013/9/27,auto commit for translation
97,2013/9/25,simple prefs for sim2/websms/voip
6,2013/9/23,auto commit for translation
62,2013/9/10,new default rule set with dual sim/websms/voip
102,2013/9/07,lazy load images
7,2013/9/07,Revert "auto commit for translation"  This reverts commit 8d8201e9c4febc2a8c6aadd564a4889a03f7b75b.
7,2013/9/05,auto commit for translation
3,2013/9/04,use new import url
4,2013/9/01,rules
193,2013/8/16,rules
10,2013/8/26,introduce sim_id to sms
1,2013/8/26,bump api
5,2013/8/26,Revert "auto commit for translation"  This reverts commit 137b9d0a97282ec183b4e0973950c5f6431c06cd.
5,2013/8/23,auto commit for translation
24,2013/8/17,fix RuleEdit for dual sim phones
2,2013/8/15,auto commit for translation
4,2013/8/12,auto commit for translation
2,2013/8/12,auto commit for translation
2,2013/8/09,auto commit for translation
2,2013/8/09,auto commit for translation
2,2013/8/08,auto commit for translation
3,2013/8/08,auto commit for translation
2,2013/8/07,auto commit for translation
6,2013/8/07,auto commit for translation
2,2013/8/07,auto commit for translation
2,2013/8/06,auto commit for translation
2,2013/8/06,auto commit for translation
2,2013/8/06,auto commit for translation
2,2013/8/05,change default for 'limit not reached' to false
4,2013/8/05,auto commit for translation
2,2013/8/05,auto commit for translation
2,2013/8/04,auto commit for translation
3,2013/8/04,auto commit for translation
1,2013/8/03,auto commit for translation
32,2013/7/25,rules
2,2013/7/25,auto commit for translation
11,2013/7/24,auto commit for translation
0,2013/7/24,bump ub0rlib
2,2013/7/24,auto commit for translation
3,2013/7/23,bump to CallMeter3G v3.9.1
