App,Store,App ID,Review ID,Country,Version,Rating,Date,Author,Subject,Body,Translated Subject,Translated Body
Call Meter 3G: THE monitor app,Google Play,de.ub0r.android.callmeter,Z3A6QU9xcFRPRWxHVUNvWFNkZ3pVUWQ2VHZsVm5pbXdxZmNSSjRsYmFIejVPWHdBelNNRFdTSEFWdkJhS1dfZHNvNDU5eVJYZnNoZkJheGd3b3RpRDZIb2c,English,,5,2013-03-08,Colin Slater,complex means powerful,"You can't have such a flexible and powerful app and not have a little complication! Blame the phone companies for not having clear and simple billing. I cannot come close to finding an app that can cope with the vast majority of convoluted mobile plans, and we have quite a few in Australia. A brilliant app, Thankyou for sharing it.",,
Call Meter 3G: THE monitor app,Google Play,de.ub0r.android.callmeter,bGc6QU9xcFRPSElfaDFVM0JTTUZ0SFFCeTNrOC1jZ0tnQV9rVF9VNTVpWTdjQTR4WmpURmdYTmIzTFRQMXlfU21PLS1kY01RX3UxOVV2Uzh1ek00YUVsdUE,English,,4,2013-03-07,A Google User,Good app but,I was using this app but it don't differ between two sims on a dual SIM phone. Please resolve this problem Thanks,,
Call Meter 3G: THE monitor app,Google Play,de.ub0r.android.callmeter,Z3A6QU9xcFRPRzdVU0dDR2N4clpvQkRGY054aXRNalMxb0VjNEJUT3o0d25CcU01QVpOWGVjaWNreVFXQWcwaDNCMk5kekl6YU9MQ1BOdTcxNjNsUjVaaFE,English,,5,2013-03-05,Saravana kumar Jayendran,Work great,Kindly provide dual sim support,,
Call Meter 3G: THE monitor app,Google Play,de.ub0r.android.callmeter,Z3A6QU9xcFRPR3BBajFCMTF1bm1McWx0YzRUcTBDZFFGcmhGb2ZYYkJMX2dnYzJ0TjlQM25BOXQ5N2JfZ0l5QXludWNFUE5keHR4a2YyMFlNT0NyOERySnc,English,,4,2013-03-04,Roopak kumar Agarwal,Very good effert,Weldone,,
Call Meter 3G: THE monitor app,Google Play,de.ub0r.android.callmeter,bGc6QU9xcFRPRmNqWTIzS1lqUDNoN2xwbzZzSm9xZ2s3Mnp3dy1hVy0yelpFeEozRkpTbDVTRFBmSTlpWmRvU19pcUE0eFhmZjJ4ejEtVEs0NHZzTkU4SkE,English,,4,2013-03-01,A Google User,"",Powerful App! Many thanks for sharing :^),,
Call Meter 3G: THE monitor app,Google Play,de.ub0r.android.callmeter,Z3A6QU9xcFRPR1FSY1hFTTlUREdNWjdNeUZtMVRBOEswSkZLeUUxSnZQR1lGMkhiZTYwRVZJd1BEejY0dmZ3eU5pd2JRTm5YcjRLVVNYNE03ZXBjakxTMEE,English,,5,2013-02-27,Subha Bis,good,fine product,,
Call Meter 3G: THE monitor app,Google Play,de.ub0r.android.callmeter,bGc6QU9xcFRPR3duUzZpRHBUT0U2MmVpTjBXZGV3eWZmU0hQLWZUa2I3SWRILUlZbGs2UHZCYTAzcVVUSEw3WXVuVTVXQmhQWDhvOHctelNDdy11OGUtT1E,Greek,,4,2013-02-27,Ένας χρήστης του Google,Πολύ καλό,Πολύ καλό.,,
Call Meter 3G: THE monitor app,Google Play,de.ub0r.android.callmeter,Z3A6QU9xcFRPSGNta0d4UW15ZnRKTV9WMER0V0tveFA1Mmc5dkN1R294bXRVZHZnSE5MbGVCWXQwcUtCSjhVTEwwM1lnNXZRb3p1TElSZmw3UWZkNWVaSEE,Italian,,4,2013-02-28,Roberto Oselladore,Bello,"Tutto molto bello e funzionale, solo non riesco ad escludere dei numeri dalla tariffazione (p.es. il numero per contattare il gestore dele servizio di telefonia [155 o 160 o 190 etc.)",,
Call Meter 3G: THE monitor app,Google Play,de.ub0r.android.callmeter,Z3A6QU9xcFRPSFZwSHNpLWQ4QlBhdmFGbVB6ZS1WUTFfTTlPRGxRNFZtMEJRd01MM3B5TXhfV2FIUy1Sd0dDamVqckVrdjF4WF9aWEtySmlBRWZpSl9EMVE,Czech,,2,2013-03-16,"",Nevim,"Komplikované nastavení, nenašel jsem widgety, reklama, škoda...",,
Call Meter 3G: THE monitor app,Google Play,de.ub0r.android.callmeter,Z3A6QU9xcFRPSGxvd21CaEhyTVFPZGdfc0hMY2FNZHZ0Rk1TVzZfN2dEemNwczRhdDZYeU1lbElZeDRlSDhhSDdOZHhhRVV6Ums4MUpUeXFjU05wdjBHSWc,Czech,,5,2013-03-13,Jindra Krejčíř,5*,"Dělá co má, trochu trvá nastavení, ale pak pracuje jak má.",,
Call Meter 3G: THE monitor app,Google Play,de.ub0r.android.callmeter,Z3A6QU9xcFRPSGJVU2lhbGlxWGdLbE5DT2JwaDEtWk1JSFRQNWs2d2tUYUdCNUtudUNLZWcwRUhSTWFaSDZFX00wcG8tUG1xd09kellldWFFT1Y5UDZWRWc,Czech,,5,2013-03-12,Tomáš Stodůlka,Doporučuji,"Přesně něco takového jsem hledal ke kontrole odchozích, příchozích hovorů, SMS a dat. Přehledné rychlé - skvělé.",,
Call Meter 3G: THE monitor app,Google Play,de.ub0r.android.callmeter,Z3A6QU9xcFRPSHpFV3VWdDZHWl9kVml1eHJaSmJNLUJqX2s4WmdFOFlKaXNzSmVKOWZVYUVhVnR0Y3hqOVBvZFVOX2ZOVFdmVUNSV3dDRnZLMkRMc3ZZd1E,Czech,,5,2013-02-26,David Rod,Výborné,"Super nástroj na kontrolu provolanych minut, SMS a dat.",,
Call Meter 3G: THE monitor app,Google Play,de.ub0r.android.callmeter,Z3A6QU9xcFRPSDhGeFJXYmJueTJvXzlOdVM0ZlhOTlRwc0VsTGptcmowSklhVFh3WnJNUFIyVzFWVUtkSWt4M2t1bEFXWERMWTVxdUZ4TjVoZmtLYnpQcXc,German,,3,2013-03-12,"",Ganz OK,aber Wochen- u./o. Monatsstatistiken wären schon hilfreich.,,
Call Meter 3G: THE monitor app,Google Play,de.ub0r.android.callmeter,Z3A6QU9xcFRPSGZVWTJJWW02cnVhMUh2S0tGY1FyNjh1Qjh4QkU3NDdXLVRlTm5nMFVVUzJmLVJhemFMMHU4Z3NZUGxpdUV6cGFtU285OWtWVU43S2RjN1E,German,,3,2013-03-05,Amanda Schmidt,Enttäuschung pur nach dem UpDate,Aufgrund der vielen Updates wurde der erste Rechnungstag immer als der erste des Monats gezählt...dadurch hatte ich meine SMS nicht im Blick wie ich das wollte und habe bis jetzt über 200sms zu viel geschrieben ohne es zu wissen! DANKE ! War generell eine gute Applikation nur die Einstellungen sind zu kompliziert aufgebaut...das kann man einfacher programmieren ohne viel Aufwand :),,
Call Meter 3G: THE monitor app,Google Play,de.ub0r.android.callmeter,Z3A6QU9xcFRPR2JBZVA4SmNzMUU3SE5YNm1wcm9iM2JfS0VrREFvUWQ5cExjMWJ0bGtIUXdJbTRNd3ZWRUVVclpvUkdnNEh6c1Q1QmRhVnNOSjlLZmViMVE,German,,4,2013-02-26,Andreas Gutapfel,Gute App,"Leider wird als 1. Rechnungstag immer der 1. des Monats gewählt, unabhängig davon, was man in der Konfiguration wählt.",,
Call Meter 3G: THE monitor app,Google Play,de.ub0r.android.callmeter,Z3A6QU9xcFRPRl9BX0JweHdnR01NR0cyTFhGbTZLTzZiZ0hlODJXRm5LZHZKWnNzM1lOeWZqLWJTeUREM214Tmx6YTNyN2pOOTRGQm5lbHh3MXV4TFR5T0E,Hungarian,,5,2013-02-28,Péter Pajor,szuper,"kb. 5ft-tal tért el a számlán szereplő összegtől. Bonyolult beállítani, de nagyon hasznos app!",,
Call Meter 3G: THE monitor app,Google Play,de.ub0r.android.callmeter,Z3A6QU9xcFRPRm5EMDV6S2k4bmFPbk9aQTN3QWRLOHBjUnpCMjZYNG5TckRUcHZPWnh1aWVZNkZDWnRZNUlOcnM1a1JYQzNfS21uSjB1Mmt4Q0FyXzNXakE,Polish,,4,2013-03-14,Adam Kordel,4,Nie mozna ustawic powiadomienia na pasku i widget jest za maly. Jesli te rzeczy beda poprawione daje 5,,
Call Meter 3G: THE monitor app,Google Play,de.ub0r.android.callmeter,Z3A6QU9xcFRPRTlRSzMyZTlQS2hrUmRmRE8zeUdhaWVHSC0yOUUxOTNHN0NsMjdDdl81ZXJhaW9Ka3k2dUhPa1FTTEM3NEhCdnFBMk5rWE9Ib3F2ZjZzM0E,Portuguese,,4,2013-03-10,Davi Angelo,Muito bom,"Controla bem a ligação, só o 3G que não tenho certeza do controle, 4 stars vale",,
Call Meter 3G: THE monitor app,Google Play,de.ub0r.android.callmeter,Z3A6QU9xcFRPSHFPTFF0NmY2WmFxZ0JkZVV5aUhqNDRpRVRTNU9DaTh3cXhHMFZ5dU5yYUIyT011b0tmYjN5ZXQzUjVUOW1vUWNrMEtBVlJwUEVyLUJwRXc,Russian,,5,2013-03-08,Ян Чейлях,Help,"Друзья, есть ли у кого опыт настройки проги под контрактный киевстар? Очень надо. Прога вроде норм - настроек куча только разобраться не получается. Заранее благодарен...",,
Call Meter 3G: THE monitor app,Google Play,de.ub0r.android.callmeter,Z3A6QU9xcFRPRnNwb3UxNzBJUmdEUTdWT3cyTjNITEFiZjdMaU00RXFGUF9DTFlqY0EwX0J0QmxZS0JIaEs3bnJKcmw0MnBsSDFSS1BiNzFvRXpJV2k2YVE,Spanish,,5,2013-03-13,Mu te,App excelente,"Para gente que tiene tarifa plana, para saber cuantos minutos llevas y te queda,para que no te cobren mas por los excesos de minutos.Muy recomendable.",,
Call Meter 3G: THE monitor app,Google Play,de.ub0r.android.callmeter,Z3A6QU9xcFRPRm1sMWVLNG1sVVZMUW5BWmlVWWZwQmN1RGY4MGlja2huM00wV0hkb1Q1bS1IY2JrSGxhUVl6ZWxTX2pUY3lYM09sTUdMUGI4SlE2S1l6NXc,Spanish,,5,2013-03-08,Saul Torres,Excelente,Hace más de un año que la uso y nunca ha dado problemas...,,
Call Meter 3G: THE monitor app,Google Play,de.ub0r.android.callmeter,Z3A6QU9xcFRPRXZLeE5UYWplMWtRaGV6VkpZY3NYNjZ1a2hoN1Rkd05sSG5xRDdfWWdiMVVUZ093UVJ2ZFZEVnppY3JzZlR1dDBZQUl5THl4Wi1xNWpNVnc,Spanish,,3,2013-03-05,Arturo Ventura,Problema,"Despues de usarla a la perfeccion por un tiempo, hoy formatie mi cel y reinstale la aplicacion llevandome la sorpresa que no puedo editar ninguna regla, espero que exista alguna solucion",,
Call Meter 3G: THE monitor app,Google Play,de.ub0r.android.callmeter,Z3A6QU9xcFRPRjFWSEZmSm1GWHEwQUcxV1VfcTNaUU5naXV3MmhKdUE3VDFNaGR3X1NoMXAtOFFmR3o4Q2UyM2FlLW9XN3BTNkVhdmhza2lzZnVyV25fa0E,Spanish,,4,2013-03-04,Iörch' Bukowski,Excelente,"Me gusta esta aplicación; tiene posibilidad de configurarse mucho, lo cual puede volverla confusa, pero sin cambiarle nada es bastante sencilla para mantener registro de llamadas, sms's, datos, etc.",,
Call Meter 3G: THE monitor app,Google Play,de.ub0r.android.callmeter,Z3A6QU9xcFRPR0YtTHd5bFdTX0l3UlAtQnlseXRtMTE5cUxKM1plN1I2LUdZM29PQktHUkNKOExXWTl0ZUhNQ2tPeEMyNUUtbVFjdUFSU0hMSDcxREp5X3c,Spanish,,1,2013-03-01,Uriel Ventura,No funciona en mi htc vivid,"No registra el flujo de los datos móviles poemas k le trate de  configurar, o inclusive reinstalar la apk y sigue sin  funcionar. Como allí que?",,
Call Meter 3G: THE monitor app,Google Play,de.ub0r.android.callmeter,Z3A6QU9xcFRPSFBWSXU4Xy0ySEUxeGJYTDNONjlDWEtkbEZxLWYyMTExTEFkdGhQNjNmTlRXWklQS1lMOEg1TXlObk5vYmltaS1OSTM2TC1aR2pIWlI0NFE,Spanish,,4,2013-02-27,Jose Alvarez J,Exelente,No le entiendo al configurar el plan mensual pero es muy util sigan asi,,
Call Meter 3G: THE monitor app,Google Play,de.ub0r.android.callmeter,Z3A6QU9xcFRPRm1ySzd4OGlZMFhCbFdGRGtqQUkzVHhHWVR1SE1lcmhIXzByaXRmaGlfZUpBcmpCa2R1Ml9EcURjS2ZvNnpPNUx5dHcxTW1xSzM0dU85b3c,Spanish,,5,2013-02-26,Luis Larrazabal,"",Muy bueno,,
Call Meter 3G: THE monitor app,Google Play,de.ub0r.android.callmeter,Z3A6QU9xcFRPR3ByRF9VakZqbWoxbmhBTmYtVTNKVXphUjF5Q0lkRDVfTlFiVmFjNmZYTW1ET3E1dUlDWVliTk1XdlJsZmpKREYzUlZ2M3RrenlYYlRwQXc,Spanish,,5,2013-02-26,Carlos Narvaez,Mmmmmb,Excelente,,
Call Meter 3G: THE monitor app,Google Play,de.ub0r.android.callmeter,Z3A6QU9xcFRPRlNHcDFveDNHQWNBSXRfSTgzaE1Zc2NhaTJkcGxLQlc0T3NFVkhwVjFGSmxiQVBhQ2dQLTFfc0hnQWxkYkM2dDAzemVGWl9ieHdqMXZubUE,Ukrainian,,5,2013-03-11,Roman Cherednychenko,great,Great application with lots of customization options.  Good for you battery.,,
