App,Store,App ID,Review ID,Country,Version,Rating,Date,Author,Subject,Body,Translated Subject,Translated Body
Call Meter 3G: THE monitor app,Google Play,de.ub0r.android.callmeter,Z3A6QU9xcFRPSHNONzFiUlFuUFo1RTE5b2J2SERJX0QwVlhoSDZLR2IzNjhCc0hPRXB1TXBMN0dXLVJrS2pjN3VjTVdJRkI1R3REZm5vYTFvODRaYk54S3c,English,,5,2015-02-09,shubham verma,Good app,Real works......,,
Call Meter 3G: THE monitor app,Google Play,de.ub0r.android.callmeter,Z3A6QU9xcFRPRkUteUtISWpMWklkd0ZaUkdrZ1ZyS3F4YXFtSFczVi12Rk0wV1ZXeUpoY3pXMjZPYk9wMHlnVnNGV0NaRkhzNEkyNVJiSzAtNmVrZWZfSFE,English,,5,2015-02-07,Lani George,Magnificent,"This app accurately counts my calls, text and data to give me a good idea of how I am using my plan. I have no major complaints, just that it can be a bit more customizable; namely, the ability to frequently change when my bill cycle starts.",,
Call Meter 3G: THE monitor app,Google Play,de.ub0r.android.callmeter,Z3A6QU9xcFRPSGlrd3ZLQU1nN0VoSHU5bWdrdGh1dU9YNUxaZE9HX3ZxNFFHblJhREJULTFyMndxcTRjU2xiNHB0d2VoTEhqSFpLTVUwZkRVRzFIcGE3TlE,Italian,,5,2015-02-14,Mirko 17,Ottima applicazione,La migliore nel suo genere. Semplice e completa.,,
Call Meter 3G: THE monitor app,Google Play,de.ub0r.android.callmeter,Z3A6QU9xcFRPR3VDT2htZl9kcDBoRkNhZ3hWZHMyVG42d3p2MWZpRU5zanRNZmRmckl0MzVTcDZuRW5xYTVMMFU3cEF5dlY2dGtvMFRMWFRjc3c2Y29uX0E,Italian,,4,2015-02-08,Gabriele Olivieri,Indispensabile,Dovrebbero aggiornare un po ' la grafica,,
Call Meter 3G: THE monitor app,Google Play,de.ub0r.android.callmeter,Z3A6QU9xcFRPRzRUZGtTczhRb19tNEVzMVctT3h2M2RqcUVZZk1ab1lXTkxEM3BMUmc4el9EMHhlSUxHTnAyZm1BN1ZfT1RjWWtqVEwyY0w2dDV3b3o3RlE,Czech,,5,2015-02-08,Milena B,Super,"Nastavení sice chvilku trvá, ale stojí to za to. A je to opravdu přesné a souhlasí s vyúčtováním.",,
Call Meter 3G: THE monitor app,Google Play,de.ub0r.android.callmeter,Z3A6QU9xcFRPSFAxTFlYMkdZcV9KQmlIbTRUdTZlWnRhU2ZDd3l5UTZDd002S2VDbXZtRzQ4NEU5OGZBNmQ4dm1DQWlfZkY2X1RnWjd4c1Q1RDNrQXVXd1E,Czech,,5,2015-02-07,Gavenda Miroslav,Umí,Jednoduchá ale velmi přehledná aplikace. Rychlé a pohodlné nastavení,,
Call Meter 3G: THE monitor app,Google Play,de.ub0r.android.callmeter,Z3A6QU9xcFRPRXh2R2ZjY2ptWU91ZU1GUlNpaFBiVl9RWE5lWVFVYTRJWGVIY2pKV0NObU10eW5Lcmo4MEVTX01MUmlvcmhjTzVSZnZsM2dJRVFfb3pqZWc,Czech,,5,2015-02-07,Kateřina Sturmová,Skvělá aplikace,"Jednoduchá a skvělá aplikace, díky které si můžu hlídat limity svého paušálu ;-)",,
Call Meter 3G: THE monitor app,Google Play,de.ub0r.android.callmeter,Z3A6QU9xcFRPR3BjdVFxbTJ4T2xtQjR6UzNDMC1sWmJfMkt4ZjUxUm10Wi1acHhLejhUV3FsUldlVzBBYUN6MFV0SDhtVUhLTkFHWnp4bC05dUg3eFFvMlE,German,,2,2015-02-10,Abdullah Antika,Nur Klingeln wird auch berechnet??,"Hallo, warum werden nicht angenommene Anrufe auch zu den Minuten gezählt? So weiß ich leider nicht wie viele von meinen 100 Freiminuten übrig bleiben. Wo liegt der Fehler?",,
Call Meter 3G: THE monitor app,Google Play,de.ub0r.android.callmeter,Z3A6QU9xcFRPRUVDMExmVnRpbFBEVEExWlV6YTVPWE5kU2xfMWxLcU9wWDZvTVFwOGN0UjAtZjNRLUtpa2s4ODZUWmxqcDAxS1gzRzFyRTIzRGIwVzdkaFE,German,,5,2015-02-07,Celal Elitas,"",Empfehlenswerte App,,
Call Meter 3G: THE monitor app,Google Play,de.ub0r.android.callmeter,Z3A6QU9xcFRPRVU5WUI3d1FSM0Z5aXVvVnVkelVRRjItU1pjbGFNR0N5blphcnZVWDgxSmNzbGpncFRQUzFpUWhjX3ZwTENRSkdZMVBudFZRdWNtV0c0X2c,German,,5,2015-02-07,Anjo Triste,Absolut Top,"... wenn es darum geht, den Überblick über sein Guthaben im Auge zu behalten.",,
Call Meter 3G: THE monitor app,Google Play,de.ub0r.android.callmeter,Z3A6QU9xcFRPSHI1aG5NUThkUkpBeFlNMmJackFBZGhuLU9aM2xudGdCNUxrZ3YyZGRGMjdnQU5vZjlvNUt0dU96WEtMY0hYVUlraGdmbVZUZFh0bXRHUVE,Spanish,,4,2015-02-12,baltazar beltran,buena,me permite llevar un control de lo que consumo de datos y llamadas en mi celular,,
Call Meter 3G: THE monitor app,Google Play,de.ub0r.android.callmeter,Z3A6QU9xcFRPRU1YV2ppOThzU1BUMmpxQlEtOHh0NXBWV3VqQU84dngyVk1TWHgtT28tZTFwSnprLXJrUGJSblRtVHpKWGt3RmhkYTJoVGlXMWxZWlphbmc,Spanish,,5,2015-02-08,francisco magro,muy buena app,bien configurada no es necesaria ninguna mas,,
Call Meter 3G: THE monitor app,Google Play,de.ub0r.android.callmeter,Z3A6QU9xcFRPRjYyclVKa0hJbGNkdHM0TnplRkVBUjA5RlZRQkhKUGJiTkFmVVAtd0xRRjV0YXoyaEZVb1lPOUk0UHJMbW5McGpGYk84QXZCcy1tWWZTSGc,Spanish,,5,2015-02-07,Sayonara Masis,Excelente,Todo lo que necesitaba,,
Call Meter 3G: THE monitor app,Google Play,de.ub0r.android.callmeter,Z3A6QU9xcFRPRm9GbTRLWXJwUGs1WG9LSVFNMU9kQ21yMkpXTmE0a09iLWhCdjhITkNoemFhR3ZfSm9ZbnNLTV9Rc2pnUUxJRGMtdDNGeXprMkhGcU1SeUE,Turkish,,5,2015-02-08,sfk kfs,Bence alanında tek,Düşünmeden indirebilirsiniz,,
