App,Store,App ID,Review ID,Country,Version,Rating,Date,Author,Subject,Body,Translated Subject,Translated Body
Call Meter 3G: THE monitor app,Google Play,de.ub0r.android.callmeter,Z3A6QU9xcFRPR0cycmNVOGY1Y1pTa1lzcjdmY092ZkFlaGNTck9XeXozS3NMd3dGeV9nb3ZXZW5zM191emVUNHhNQmRjV1VsTENNaUpHVnhjQy1FUlZnZ0E,English,,5,2017-04-08,Drasko Divic,"","Very Good (excellent)! Very good app. In addition it have also the Dark theme and adjustable colors and transparency of the Widgets! Good job! DEFINITELY USABLE! IT EVEN DO NOT SPEND CPU TIME IN STANDBY!! PLEASE ADD THE OPTION FOR ""UNITS"" (CALL/SMS/DATA SUM) BILLINGS",,
Call Meter 3G: THE monitor app,Google Play,de.ub0r.android.callmeter,Z3A6QU9xcFRPSEo1aDUzcHg3ZDJYaTFrTmZFQnZuR3Z5U1RZeXRVMFJ2Y3hZLUVDcnp5OWlRbXdCX0ZoZFRJSGo2YjZOb0g0V2cyOXZQYVRxODE3QWJ6N1E,English,,2,2017-03-25,Arkan Noah,"",Very good app but it leaks the main important feature which is showing wrong derails if you use dual simcard phones...it count both Sims as one in the details and shows the scnd simple as zero minutes,,
Call Meter 3G: THE monitor app,Google Play,de.ub0r.android.callmeter,Z3A6QU9xcFRPR1ZKUUJaU0stdTdONTBGRnVvcTRRV0FqUzEzdGlzVHZzWlo2dzR6alY3NEpjTEtEQ3dmOXJwQWtfX0ljbWhwa3JFa2dERXVJWUFjTTRwaXc,English,,5,2017-03-18,crosshair Grmone,"",The best counter ever,,
Call Meter 3G: THE monitor app,Google Play,de.ub0r.android.callmeter,Z3A6QU9xcFRPRm9xblhoLVl3Y1h4aFVDSFNVal80N0txUndKRF9NRVBfT1dPa1VkclJhd2daMkMySWduVGlVUU80bUxTc1pzNjlXU1ZlVUNvUmozaktYblE,English,,3,2017-01-30,Vinicius Thedim,"","Yes, it controls your bill someway but Configuration is not  user friendly at all and interface can lead to some confusion to configure and get precisely information.  App has some obscure bugs and doesn't allow to account short billing periods (e.g weekly and  daily).  Also it is not possible to disable data billing,  although it works well. Updates are not frequent and app is somewhat outdated",,
Call Meter 3G: THE monitor app,Google Play,de.ub0r.android.callmeter,Z3A6QU9xcFRPSFg2TnFQWDNnTVctaGh6MGRfbDY2WkFsM2RyMW9reWx0bTN5bXY1ZU5tUjd3cm5obGJLR05KUDRxZjZlelhFWEJOcHlsYnNGX3hLY3VWeUE,English,,4,2017-01-29,hari raj,"",It's nice...,,
Call Meter 3G: THE monitor app,Google Play,de.ub0r.android.callmeter,Z3A6QU9xcFRPR3dTcW1xOEk0bHBJQldJRUVSZF9KeVpCM3hlWnVwZ0VhMzkxVFJFN3Q1XzZKUmc1cEZvNndjZ29xbUZ2SWV0SUYzQ3ktT1RyVEpLa0VEZlE,English,,1,2017-01-10,Paul Burton,Absolute rubbish,Totally useless at counting data on my Samsung s7. According to this app I've used 14 GB of data since yesterday morning. It worked OK on s5 bit this app has clearly not moved with the times. Just a shame I had to even give it one star,,
Call Meter 3G: THE monitor app,Google Play,de.ub0r.android.callmeter,Z3A6QU9xcFRPRTdHY1RKOVZMZGs1QmFCdWw5VVdLNXYxSmY3OUctXzhYTTJsLXBCY3JCV2hnbzVRQks1dGhxNG5CMTdia0VleE5iOEdGMjZOWDFGNTZqN2c,English,,3,2016-12-10,Carl Jefferson Jones - Horsley,Great app,But there is a problem with SIM 2 not at all accurate.,,
Call Meter 3G: THE monitor app,Google Play,de.ub0r.android.callmeter,Z3A6QU9xcFRPR1FmRGlrcG5OVVhCY0otV1hmVG10T1ZYbVdDLU03UG9WM0Y5YzZtRVlQaHlIS1RwdXNjVnlyelFJaGhTQ0JiNzl6V2FtOVZqaktNZTk2MXc,English,,5,2016-11-28,Srikant Tiwari,Superb,Earlier Every thing is perfect  !!!,,
Call Meter 3G: THE monitor app,Google Play,de.ub0r.android.callmeter,Z3A6QU9xcFRPRjFVaHJYMmpsd3I5WDFSZzlaeV8zMXNVTFJUWERPWkVWSnNuRGFrZnBpTkwzUWxQdlpNMjdHd0hldEVxWHZPaDQ5dEF6dTBiRmU4LUpTa3c,English,,5,2016-09-16,Asim Gulzar,"",Best App For Call Management,,
Call Meter 3G: THE monitor app,Google Play,de.ub0r.android.callmeter,Z3A6QU9xcFRPSExTRF9RTll3SXFpUnFHVmlRZGxweW9wdUl1bnkwczFJV3Z2N3d6OXlfd3gxOW1Xb3NRZFFSWVFpbzZtd3VpN1FBYUQyeWZiVjVheUZQMHc,English,,5,2016-09-15,Gaurav Paliwal,Awesome app,"Awesome app. Total Info about your usage. Few minor improvements and this app will become a rock star. In case you find it difficult to set initially, just refer the help given by designer. Cheers!",,
Call Meter 3G: THE monitor app,Google Play,de.ub0r.android.callmeter,Z3A6QU9xcFRPSG12OG9qVEZRWDl5ZjNfeEVaWmZQR3dHMmozc095cUY4b18zaThSYWpHcFU5WmF5MXRhZWdQaWNLakQ1SEp2YUJFLVBYcFJ2V1EycEMwYkE,English,,1,2016-08-03,Thomas L,It worked fine before...,Now its not counting my data anymore. How can I go back to a older version? Please help,,
Call Meter 3G: THE monitor app,Google Play,de.ub0r.android.callmeter,Z3A6QU9xcFRPRmZXX0pZcXV5a0pTajItSWc2V18wTzRWV29yLVV0eFpoTjRyTEZ6dTlqaDN5Wk90REZMZ2NFNkN0bFNzLW9CdVllSnZjdDdqQWRGUVB4RVE,English,,1,2016-08-03,NAVNEET KUMAR,Rating down till addition of feature,Really appreciable work.. there should be option to input consumed minutes in plan setting. Also option to select multiple numbers at a time/ select contact group in number groups needed,,
Call Meter 3G: THE monitor app,Google Play,de.ub0r.android.callmeter,bGc6QU9xcFRPRlRJaEFMdGNDTmJfeFNET2lmclJOSko3Tm1qbHJlaTJPOUZJRnlZRGxqOURIYWlEV3psMlgzVEcyX2hWSmloM3gzdW1ENm1ueGFoSEs4SVE,English,,1,2016-08-01,A Google User,"Bit complex to set up, but does the job very well","Stopped working in mid June 2016. Grossly overestimating data usage, developer says it cannot be fixed. Samsung galaxy s7 edge",,
Call Meter 3G: THE monitor app,Google Play,de.ub0r.android.callmeter,Z3A6QU9xcFRPSGEtekM4TW1qTkY4UXdidjdNS0FIaDZTWW1NT2djV0ozVHQ5TjVXR3V5OU5PT3FVeHpfUmd3eEFTRnpSVlJmV3dUcWtwdXQ4YlBOSDR0OHc,English,,3,2016-07-11,Muneeb Ansari,"",It's perfect but need some improvements,,
Call Meter 3G: THE monitor app,Google Play,de.ub0r.android.callmeter,Z3A6QU9xcFRPRk0tUlVLWDVUSHlPV04xVmhFQjJYR1Z1VDdLcFFUZGxSZzUyUmVwbllCTEIzSDdqTE1zU3dKSWd4X01FMDJjd1gxLXBCT052MVp5MVZnVkE,English,,4,2016-06-23,Arun kumar,Cool one,"Hai, very well done app. Can you people please add service tax and monthly bill option ? So that we can get exact monthly bill in our pocket.... thanks to team",,
Call Meter 3G: THE monitor app,Google Play,de.ub0r.android.callmeter,Z3A6QU9xcFRPRVl6WklfdGY0bjhDWWQwV3M0SG53UlU5dERJTEhrTlYxY3Q4RlRzVGFvY2tRMjAyajBlbWktRFU3M2EwNjdNVndJM1l1SGdfTTlScV9adFE,English,,1,2016-06-17,Hooman Ashaghi,"","",,
Call Meter 3G: THE monitor app,Google Play,de.ub0r.android.callmeter,Z3A6QU9xcFRPRTdvU0p1YXpFdU5LdWVHcEhJS3plc3NjY29QcHNER2xvR242QTZHeGIwRWNPNXNuU3NVR0twY2xNNUJEeFExUUFxa05kNF9iV0hPVGFJU0E,English,,3,2016-06-17,antonis lioumis,Does not count sms,"When using openwhisper signal app as default sms client, call meter does not count ""traditional"" sms sent to non signal users. How can overcome this?",,
Call Meter 3G: THE monitor app,Google Play,de.ub0r.android.callmeter,Z3A6QU9xcFRPSHR5bWlBSlpnMTJaSC1ZQldhOER3bW9wS2hGSzJTZDk2OHh4UjE3Qy1hckUyN1otYzF3bmNKV0lRMThIbE5mQ3JfZzY5R25HNkFfLXc3VHc,English,,4,2016-05-21,Saptarshi Majumdar,Was a excellent almost flawless app,"This was working quite good till a few versions earlier. But now with the new updates I am facing a few problems. First of all with 60/60 billing mode it is considering a call which was not even picked up as a 60 sec call and adding it to the widget statistics. Secondly, it sometimes stops working, like it doesn't update the call and sms statistics. It again becomes active after the end of the billing period. Please look into this and give me a solution. I really loved this helpful app.",,
Call Meter 3G: THE monitor app,Google Play,de.ub0r.android.callmeter,Z3A6QU9xcFRPR0lhVk9DSjRQRnJpdERJODRYT1gxMDhfbDRMQTJTNGo3T3BhRXR1TmxTUXh5Z3FYNE9ScVFDUzFxYzhRZ0lUS1JnV3RvUFMwZHhzemFRY1E,English,,5,2016-04-29,Kerolos Leshaa,"",Very very good,,
Call Meter 3G: THE monitor app,Google Play,de.ub0r.android.callmeter,Z3A6QU9xcFRPRzB2b3E0cHhaSk5JcGZHSVI5UjJKNFl1bFZGU1pfb2UyUFNZMklTVzV5R0ZONll6Mmh2X1NMRFFuVzZ0UVFUQXZsZ19uaExkS0tSdVEzWWc,English,,5,2016-04-22,Rafique A. Majumder,Fantastic Apps,This is a fantastic Apps. Can we keep records of calls made by SIP Dialer separately like Zoiper etc?,,
Call Meter 3G: THE monitor app,Google Play,de.ub0r.android.callmeter,Z3A6QU9xcFRPRVZWOFE1RHU2OGotSlpYY3dhbFdEdmZNd3hoT0YxazAzWVlVWEs4TVZIbmJ0Z0xOSzdaMmQ4X2ppX05KX0Y5bnQwRGJBNlR5NHpLUlpsVmc,English,,5,2016-04-11,Ashok Upputuri,Excellent,Its perfect app for dual sim,,
Call Meter 3G: THE monitor app,Google Play,de.ub0r.android.callmeter,Z3A6QU9xcFRPSDY5bmtWR3llLWpLVTlsN2drVnBIakhiWTVSVnJLWW00LXd1N1NqSy1LOXZpN09iU28tQW5ObEFKWGNIam91cVNidXJzckFJMk9sWjc5YlE,English,,5,2016-04-05,Pavle Kis,Really satisfied with the application,"I've been using this and previous versions of this app for quite some time and I am very satisfied how it works. The only thing I would like to do, is to import billing rules from my operator.",,
Call Meter 3G: THE monitor app,Google Play,de.ub0r.android.callmeter,Z3A6QU9xcFRPRjVHM3VVclFYRFN5aGpDRzViYUZ5aHpfMkQ4and3SGMwYzNzOWFNZ2V1ZDZQZldqSEtlN2FodmJLTWRfdmw1OEZ5NTNRZlF4U0ZPaV96X2c,English,,5,2016-03-28,mudasir rather,Wonderful app,Thanks so much,,
Call Meter 3G: THE monitor app,Google Play,de.ub0r.android.callmeter,bGc6QU9xcFRPRjYwa1RVZEIzbGJ3ZVQ0eXNLVE9NV3dJUzhobmN3UURWcmxJUDNjWlNGb3hpaWlKUUJxaFFEWWFQVFFtYlFYRTJCVHlSY0lOVTJKNUlEMFE,English,,5,2016-03-18,A Google User,"",very accurate. top app.,,
Call Meter 3G: THE monitor app,Google Play,de.ub0r.android.callmeter,Z3A6QU9xcFRPRnRYZTZ6M2Q4NEJTQTZxb0pET3ZLSEEzcHVaNDV1U2tvLWRoT2xUWkg0bjRCNHFoNUVFNEJKMVJkQi1nUzZkLWRJTzIxVThwdXF5bnFuemc,English,,3,2016-03-12,k aren,Good for payg,"Widget shows cost and other usage. Setting it up is a pain. There are preconfigured settings that you can import. This is good with Dodo $2 payg or yomojo payg. You can set up widget to show either remaining balance or how much you have used. Plans have to paired with rules. If there are special numbers, rules have to be paired with numbers. Best app for payg, doesn't have anything to exclude first 200mb or first 100 minutes.",,
Call Meter 3G: THE monitor app,Google Play,de.ub0r.android.callmeter,bGc6QU9xcFRPSDJ3ODBsUG4wVVpSWTNQYkl3OTVmQnMxczQ1cWpJdTUzVEVUZWNIQk8yMmsyRkNQOVp6QXlZdXJfandkWTR5S2VuaVFjdE1oVjFQUlpzYlE,English,,5,2016-02-16,A Google User,Useful,Easy to use and configure,,
Call Meter 3G: THE monitor app,Google Play,de.ub0r.android.callmeter,Z3A6QU9xcFRPSDRqWUZHYUY3c3lVWTQtZVZFZ2ZwblJWTklSekREVURYTm10amtvcTBzVzRwTGJPRVpnWGEyby1NekRsaTFHZml2bTVwN3owUDV0Q000UVE,English,,1,2016-02-05,Mel F,Not working,No wideget and no method to set cost. 4.4 version is better. But 4.4 also have no widget,,
Call Meter 3G: THE monitor app,Google Play,de.ub0r.android.callmeter,Z3A6QU9xcFRPSHFpMUc2QVluMlhmWENick9qcjZYaHRydGwwS2RraG5wWk01QWJKQ3FzcHJvWS1pQVdiSUhqREphTEtISGhZVHhxX2VxRFQ5Q3Jsb0RIY0E,English,,5,2016-01-27,jubaid khan,Gooooooooooooooood,This is too much. ....,,
Call Meter 3G: THE monitor app,Google Play,de.ub0r.android.callmeter,Z3A6QU9xcFRPRjM4UXl5azFJMnRIMmRlZ1VKRHVSRFpmRzRBZWZ0amxRZng3SHFEY0M4dGFSaXp2M2hWNjNJVnhPVXVSN21CY0J5NzVhT3V2a0Y1dFVGbXc,English,,1,2016-01-25,Santhosh Kumar,Not supporting for dual sim,My device is updated to marshmallow and it is not showing 2nd sim details.....,,
Call Meter 3G: THE monitor app,Google Play,de.ub0r.android.callmeter,Z3A6QU9xcFRPRWZfMVhXUVNFTEtrckRhZ1hnc3FMNWk5cndMbGNsNkVRZjhoZDBaUUtIQ2ZBZnpaeEdoVHRFMXNic1NYdUZodjVpODF2Y1pfZGo5cG1zUEE,English,,5,2015-12-29,Doug H,"","I've been using this on my Samsung S5 for almost two years and it has been flawless, indispensable. Calls, data, SMS, other weird billing, no prob!",,
Call Meter 3G: THE monitor app,Google Play,de.ub0r.android.callmeter,Z3A6QU9xcFRPRTNYbC1ta1hkdE00cVNvSTRGUURFZ3lMbGs1bmdIT1ZOenQ0cjN0RjVTTTN3Zl9LaXphN1ZyQjRrRmFqd0lUR21LVER3X2ptMHFIajhyWEE,English,,3,2015-12-13,Ee Mien Low,Data counter inaccurate with S6,The 4G data usage counter has been inaccurate ever since the Android 5.1.1 update for the Galaxy S6. My data usage is shown as 40+ GB per month when I've actually used much less than 4GB which is my plan's limit. Suspect it has something to do with the VOLTE traffic. Pending update from developer.,,
Call Meter 3G: THE monitor app,Google Play,de.ub0r.android.callmeter,Z3A6QU9xcFRPSHRIa3ZmWElWODkydV9GaHFiYnZxQ0plNGI2d1ZSd0FTemdfX3ZkY1N0TGlWWmpKaEg4OGliMG9MUU9mWGlxWFM2eXNpbUc1MGJsY1JIV0E,English,,3,2015-12-09,Lakshminarayanan K,Issues,When checking previous month used data eg sms as 42. Long pressing and view logs displays entire logs of sms without filtering previous month only 42,,
Call Meter 3G: THE monitor app,Google Play,de.ub0r.android.callmeter,Z3A6QU9xcFRPRkozM21kWXZqSllyT0xjS3JuSU9XSGh2V3RfMUlSaWFBOXc0WndobWJpZmdWZjRHWHYyQU95dUtsVnZ5djl3TEtpRFo4NW1ZY0lRVUYtZHc,English,,5,2015-12-02,same haddad,"",Very good,,
Call Meter 3G: THE monitor app,Google Play,de.ub0r.android.callmeter,Z3A6QU9xcFRPRXdpYjR0Z19hNjdDWTlmUkNrb1M3djdGSV9xWkY0TE1abTQxcmh5cDBEa2NxZXB0OVFXWDJIdVpGSzlEMGp6bHN3dnA5NFM4VGwxVUd1N3c,English,,5,2015-11-30,Ankit Jain,All in all good app...,"Overall a very good app. Does what it says. But it can still be improved, as it can have data counter for WiFi also.",,
Call Meter 3G: THE monitor app,Google Play,de.ub0r.android.callmeter,Z3A6QU9xcFRPSHQtYVFqR0VxTEJ1WVZycms5aHVpQWtHN3AzY2M0OTdNMDc1dE0tSFp3UEUtNnlUQ1dDQWpiRTFsNThNRXA5ZnVsSk0xWU9mXy1SLUZuMFE,Korean,,5,2017-03-20,"","","사용량 볼 때 가장 좋은 앱. 배터리 적게 먹고, 듀얼심 대응, 고급기능으로 정확한 사용량 산출 가능",,
Call Meter 3G: THE monitor app,Google Play,de.ub0r.android.callmeter,bGc6QU9xcFRPRUZnRGJET1R0VWxHV3BrakRlUlF1NHZSTGp2dldMYk5YMWVjdERBMkVEOUF0RWlrRV9EdzdSaDZKVWVJX1dwTnpGandveWg2OWllelBjNVE,Dutch,,2,2016-03-26,Een Google-gebruiker,4G data is not counted correctly.,"Samsung Note III. Since I changed my 3g sim for a 4g sim, not all the used data is counted.",,
Call Meter 3G: THE monitor app,Google Play,de.ub0r.android.callmeter,Z3A6QU9xcFRPR1BVSTFUR3NNWXFRZXVQT3ppdWhjMElSTWMzMW1ndnN0N1hOb3R6QXVyc3B5a1VyeFF2RjBuRWY3a2RjMkhmNTBPY0JnZHlZTHpmcDhKQnc,French,,5,2017-03-08,Lionel Comte,"",Permet de pouvoir suivre l'évolution de la consommation de son forfait de manière efficace. Les widgets sont également bien pensés,,
Call Meter 3G: THE monitor app,Google Play,de.ub0r.android.callmeter,Z3A6QU9xcFRPRmZzZmdIdTY0bm9kdUN5Vk0tWXh5aW55Ry12RVZ2VlVyUWR3SHNDbHBsekN1alNOTXNtWGhjV2tOMVg3UUZRSzZFenRHdURtM05peFZyTVE,French,,5,2017-01-15,"",Good,Très bonne application. Adaptable et efficace ! Un grand merci au développeur,,
Call Meter 3G: THE monitor app,Google Play,de.ub0r.android.callmeter,Z3A6QU9xcFRPRzBueDBkd1JrRmRpeDdhcGp6bnNGRVZzel9rckhuOF9pLTVDOERTV0NmWkxpSmRab3VDc3VVZmlIbGJvYXlqVkozbmE4TWxYcVFsZ0xpc1E,French,,4,2016-07-23,Mohamed Ben Camara,"",Bien,,
Call Meter 3G: THE monitor app,Google Play,de.ub0r.android.callmeter,Z3A6QU9xcFRPR0lhVmk5bU5JVmp1RXRpeklUbzduUW4xT1AzWXV6cVZTdEFocTdlNndCeHRTbmh4aW9sdDF2b0VYMGc3bGJ1ZzNFU2MxWUNxWl9zZl9uT1E,French,,5,2016-05-18,"",Bbbb,Sa a l air cool,,
Call Meter 3G: THE monitor app,Google Play,de.ub0r.android.callmeter,Z3A6QU9xcFRPRnRNdUNPeEtTWjV1OXRsbzUyVHJhUDZpNmRPSkZwTGRGV0NTdWdSZGE2VVhkckgzem1Ha1ExX3NWdzY3eEpralpmNU4tZUM1WXl5aENuWGc,French,,3,2016-01-20,Aladje Sangare,Vérité,Cool,,
Call Meter 3G: THE monitor app,Google Play,de.ub0r.android.callmeter,Z3A6QU9xcFRPR0UwdktpbkJWQURlN2FYbURqbG84M2wwX3c0bWxsRjFaTnVkUk4yNGlZR0pLUjA0alNZLVV1U2xiUFNOUkFfazlaWkgyVTNPT1g3NnJ4eGc,Greek,,4,2016-12-28,Christos Demetriou,Apexto!!!,Einai oti prepi gia na ri8misis ta e3oda s to sinisto!!!,,
Call Meter 3G: THE monitor app,Google Play,de.ub0r.android.callmeter,Z3A6QU9xcFRPRlBCbGRXdlpHWXRxQ2Yxa0NoNTlZZGV1SzZXMkM1bnBCdkVPRHhkS3JhcGg5QXZnSDhjbDYteG9FRlQ3bzlhVHptYUdsaE5wa1FjSGRPX3c,Greek,,1,2016-09-01,Stser K,"",Μηδεν,,
Call Meter 3G: THE monitor app,Google Play,de.ub0r.android.callmeter,Z3A6QU9xcFRPRjZ1LTdhZ2N0THFtVXUteURQZVNkMzRpUjl5ZE1uNnQ1TEZwOTJRclR3RDhabFJaMmNieXR5cUZPRnV1ajFPN0Rac2didXl3bm5xM2hwclE,Greek,,4,2016-01-27,ΔΗΜΗΤΡΗΣ ΠΑΡΑΣΚΕΥΑΣ,Πολύ καλό,Το μόνο πρόβλημα ότι ζεσταίνει τη συσκευή και δημιουργεί κολληματα καποιες φορές.,,
Call Meter 3G: THE monitor app,Google Play,de.ub0r.android.callmeter,Z3A6QU9xcFRPR1h6cHE3eTFKQURYa2hpbFAzV0FTbTIyR1M4clRldkMycXpwU1NUcVJfQ2ZjTGRBVEVqWllMQ3BCeXMzQmZidHJnV1dYMzFWem1VRmx1UGc,Italian,,1,2016-07-07,More Srl,Pubblicità,Banner pubblicitario invasivo,,
Call Meter 3G: THE monitor app,Google Play,de.ub0r.android.callmeter,Z3A6QU9xcFRPSHZDMWF2WTFQVE84U3c0R00tODNsRzhDVGVRZlhfZFVDNFpNaGRydDlpc25pWmltRElib1hVUlk2Y0RjTnluN2lQV2xVQnRtYUZ0ckk3M2c,Italian,,1,2015-11-15,Ivano R,No,No backup and restore registry,,
Call Meter 3G: THE monitor app,Google Play,de.ub0r.android.callmeter,Z3A6QU9xcFRPSDNfYjFfM0NTOFNhakJfb1RHdjk2WGFDeWRPYURPSXl6WUtGYWxoY3BQR1N4LW5wOU4tUllhSGZOLTlFcERQT01pODkwT1QtakczR1RLX1E,Chinese (Traditional),,1,2016-05-22,楊萬能,"",有中文版的嗎,,
Call Meter 3G: THE monitor app,Google Play,de.ub0r.android.callmeter,Z3A6QU9xcFRPRnlnemNCcElPdXNWVWhmZUpXRlFXUVRmSERNZ0c5eDZnalZzTmY3RmtmZ05oVUZxRnZWOVpfMmpoMktRRGhTbXEyMDBGUXVVV2JvYm5RVkE,Arabic,,2,2016-08-27,Wsam Wwe,"",كولشي مفتهمت منه,,
Call Meter 3G: THE monitor app,Google Play,de.ub0r.android.callmeter,Z3A6QU9xcFRPRk4tNkZPTnhTM2pwLVM4Zm4zYVVHZzIzUE42cGJuWmV1WVBsRlZxd0R6YkZES0M0bzBYblY1c0pQcUNZQnRPbDJCS2F2Y0NGRU8wNVphT0E,Bulgarian,,1,2016-10-13,Ivaylo Lichev,"",Не отчита 4g,,
Call Meter 3G: THE monitor app,Google Play,de.ub0r.android.callmeter,Z3A6QU9xcFRPRzAtMkVoU1lfRWRNbjd0cXZTMHJOdVBXeXRiQ3JXQ0VZbGVGQmF0YzM4bEpKSTN1dmhkQUxUN0JUdnlPZ194ZWp3endCVHIyMmwwVzZZUVE,Czech,,5,2017-01-19,Zbyněk Drápela,"","Perfektní aplikace. Dá se nastavit tak, že naprosto přesně spočítá, kolik za měsíc utratíte.",,
Call Meter 3G: THE monitor app,Google Play,de.ub0r.android.callmeter,Z3A6QU9xcFRPR3FMbGhXX1ZVVHd3RG1DeE1kXzNoa0IzMjdoXzFza2NWYXI5VDM0ZE9XTE9tMFJfVlppcVRtVWFseHRFMWRMUGtaeFR3VUNSNmJjUU1kOXc,Czech,,4,2016-11-30,Jaroslav Ille,Špatně počítá SMS,"Sleduji to už cca 3 měsíce celkový počet SMS je ok,  ale  nepočítá jednotlivé měsíce.",,
Call Meter 3G: THE monitor app,Google Play,de.ub0r.android.callmeter,Z3A6QU9xcFRPRXhNRHRMdmJMV2dzUGxrZVFFWW1IWW1EanljOU9ZVWZJc0hEUEc0MDE3b0hoLWRCZDBfUXFBWGxPNGNHVzk5RktOU0U5UGM4M0FqQ3pLTUE,Czech,,3,2016-11-01,Blanka Hurárová,Chybová hlaska,"Neustále na horní liště výstražný vykřičník o téměř plném limitu sms,bohuzel to obtěžuje nejde to vyrusit ani po ukončení měsíce a vynulování dat.apka je ok,ale aktualizace buď app nebo android vytvořila chybu. Co s tím?",,
Call Meter 3G: THE monitor app,Google Play,de.ub0r.android.callmeter,Z3A6QU9xcFRPSC1VaXRFLVNwU1JsU3Rzd09CUHZzQ0FZbTFSZDJrWW9LTzlNYm1WcUVxWkdNNkJwajdJaV93LTFydWVKMWlLTWtScTFyR3gtd2tlNE9jS2c,Czech,,5,2016-10-24,Lukas Hrabovsky,Super,Super App - počítá skvěle. Jen pro budoucí aktualizaci - zaměřte se na 4G - tam se nezapočítávají data.,,
Call Meter 3G: THE monitor app,Google Play,de.ub0r.android.callmeter,bGc6QU9xcFRPRmJ2aVpZS1Z6elRxc3lPVkp1WW1JcVBEckQ4aGl0RmJHN2MyREswT3MtY0xmb1FuWmJhQ3J3Q0FQWXRNODdaOWlqc19iMXhoeXNpVzBrVWc,Czech,,4,2016-04-19,Uživatel Googlu,Dobrá aplikace,"Fakt dobrá aplikace, kterou zatím testuji. Jsem zvedav jak půjde v roamingu. U počítání SMS jsem zjistil, že dokut aplikace neprovede aktulizaci nesmím odeslanou SMSku smazat. Když smažu před aktualizaci, aplikaze tuto SMSku nezapočítá.",,
Call Meter 3G: THE monitor app,Google Play,de.ub0r.android.callmeter,Z3A6QU9xcFRPRkJCR1QtNXpZMTVtc1I0UXptSVBBT2RfWWNhbjVCUWliVnBycTk4U2pVLXlaa25Bc29RZmx6bmxhUnI3Vl8zWnFTUk9yal82dzhwRzRSdUE,Czech,,1,2016-02-23,Vladimír Vaněk,Samsung s6,"Reklama přes  půl  display, není  vidět čerpání dát. ..odinstalováno.",,
Call Meter 3G: THE monitor app,Google Play,de.ub0r.android.callmeter,Z3A6QU9xcFRPRVVRZUp0VEFZeEk3Mm4xNkowNUR0dU1PVjA3dTd3dTQzZnFhMUJXbDRYY2s4cGdpdTZKT2I0Tmtrdl8taE1rZ05ndFJ2OEVDQmtNWlRlblE,Czech,,5,2015-11-14,Petr Komar,"",Super,,
Call Meter 3G: THE monitor app,Google Play,de.ub0r.android.callmeter,Z3A6QU9xcFRPR0E2UDgzUWdFSFc1VlVVSVptYjVEUExielRfVVVZUmVCa2FHQ2p2bS1ha1c5SjVqVE9TRmdtWkMxTzdObE83N3RUOTBST1ZsZlF6Q01wekE,Czech,,5,2015-11-13,Jan Vodháněl,"",Super,,
Call Meter 3G: THE monitor app,Google Play,de.ub0r.android.callmeter,Z3A6QU9xcFRPSE12SjZjUmZwOEhIZ1RDTHhkZ1hVZ192ZHZpUC1mdFQ4TXo0c0szYVlZT1dNX3FjUjlTOFg4MENwS2ljQ2NtamNUZThSd0k5SXVNd1MzYWc,German,,5,2017-04-02,E. Piccoche,"","Einmal richtig eingerichtet (wenn auch etwas mühsam, denn die Einstellungen können einen leicht überfordern) ist diese App sehr hilfreich. Sehr schneller support. Habe gerne gespendet.",,
Call Meter 3G: THE monitor app,Google Play,de.ub0r.android.callmeter,Z3A6QU9xcFRPRzlxVDRXM01WcHFCQlh5c0hVdXFoTGowcWI0QmFQaFpFUkN5MjlaN0hlZWVCU1RkNkdCS3VJeFhYczRDd09LTEJlZE4zRTZWckZRSDZRTnc,German,,2,2017-01-13,Harry Hirsch,Viel zu kompliziert.,"Nichts für Normalnutzer. Unlogischer Aufbau und wenig intuitiv. Z. B. finde ich zwar den Abrechnungsbeginn, aber wo wird Abrechnungsende eingestellt (30 Tage)? Wo wird die Taktung für Gespräche hinterlegt (60/60)? Alles sehr unübersichtlich. Schade.",,
Call Meter 3G: THE monitor app,Google Play,de.ub0r.android.callmeter,Z3A6QU9xcFRPR0VMcVVpOWo2cmJOTlRfT3NYWmRFNjEzZWdyald5QzRPSEN4TFp3aWhoVnNLVFdmbTZYOXdjeFZObWlmWEY5dmszMkJuSHcxS0pvOTJFWGc,German,,5,2017-01-02,"","","Zugegeben, nicht für jeden das Richtige, aber exakter geht es kaum !",,
Call Meter 3G: THE monitor app,Google Play,de.ub0r.android.callmeter,Z3A6QU9xcFRPRm5WVkF0SVZ6WlBuTDVXbXRXZXZQRVJieXhBNFg0MGZJb09hX1NFWUFneTlyLVZNRTVwUC1ncVF3dEphLVpaWDc4S0dlYjZGU25RMmJ6bEE,German,,5,2017-01-02,Oliver R.,"","Die App ist genial. Wenn man sie denn erst mal richtig konfiguriert hat, liefert sie genau das, was ich wissen möchte / muss. Die Konfiguration der Regeln, Abrechnungszeiträume etc. ist ein wenig erschlagend - oder ich bin zu blöd dafür - aber dafür auch allumfassend. Es scheint nichts zu geben, was man nicht einstellen / kombinieren kann.",,
Call Meter 3G: THE monitor app,Google Play,de.ub0r.android.callmeter,Z3A6QU9xcFRPRmJFLWJOQ3VsY3JYLThWX2k3N2lQbUg3TEZoN1hwZVNTc0Y2ZXlFdkJvOHU0UnlsVDVRWllzTWZhQnhqbHhQeG9RNFUwVmlaRWItMmZzSXc,German,,4,2016-12-16,Fritzerich L,Eigentlich immer gut.,"Hat immer zuverlässig gezählt. Nur seit dem ich jetzt ein S 7 Edge habe, werden die WLAN Daten immer bei den mobil Daten mitgezählt. Wie kann man das abstellen.",,
Call Meter 3G: THE monitor app,Google Play,de.ub0r.android.callmeter,Z3A6QU9xcFRPRVIxcjhlWkNLSDNLTlNtWnBvQ0ppNWZPNGhYeFphMWZNSG16RTdFaGZ6aExHR3d6U0NabEY5TTNmRWJtNDZUbkVyamNSRGVrRmxYdDNicXc,German,,1,2016-12-07,Stefan Dingfelder,"Idee super, leider ungenau.","Von der Idee her super, aber leider stimmen die errechneten Daten nicht. Bei der Messung wurde in der Regel die Hälfte der tatsächlichen Werte ermittelt. Schade.",,
Call Meter 3G: THE monitor app,Google Play,de.ub0r.android.callmeter,Z3A6QU9xcFRPRmROTU9mY2U2cjlJQ0VsMmNKajJqUkVfZjV4c2QzM0hHRzZSYW00X21vODNsV3diMVpxZGpRR2ppa3YyaGg5a0JrSzFhMWw5ZkxNa09JLXc,German,,2,2016-10-27,Timo Fischer,Sammelt Daten,"App sammelt Daten und verschickt sie an den Anbieter. Immerhin mit Hinweis, leider erst nach der Installation zu lesen. App wurde umgehend wieder deinstalliert.",,
Call Meter 3G: THE monitor app,Google Play,de.ub0r.android.callmeter,Z3A6QU9xcFRPRmpGZXlRUnp4WWZVWEtoa2JCS0xBQ1RxRHBGaWItOHVnRHFkYzNDbnBfdGlYdUM0cmJlS05MZzd1Z1B6UUs5b1V3cWp2cE9ZVGJyZkJsbkE,German,,5,2016-10-09,Franz Jun Steinmel,Tool,Zur Auswertung sehr gut. Für die Kostenkontrolle doch nicht brauchbar und sehr schlecht.,,
Call Meter 3G: THE monitor app,Google Play,de.ub0r.android.callmeter,Z3A6QU9xcFRPSHBtLXhoTVBrZ01JU3o4OFJOUVgwWFVsdUE0ZUpidzZfQkJiam9Zdm9BMnE4UXkwQWxYTlo1MmZBUDVjZ3pfTGZTNmR5bHJsZnlHR0ZNcVE,German,,1,2016-09-14,Uwe Höß,"",Ohne Funktion,,
Call Meter 3G: THE monitor app,Google Play,de.ub0r.android.callmeter,Z3A6QU9xcFRPSGVEcTVETk9feVJacWZxeFQ0ZFk1T3gwQ2U5SXY0dzloV29wcVgxQTMyYmc1c2tDQXdYN08zUk1rUVl2RW5mc01FbzZfaFM0azhBZ09HYlE,German,,1,2016-08-31,Jörg Dietz,Schönes Tool,War mal gut. Datenzählung unzuverlässig bis gar nicht. Es gibt Tools die besser funktionieren. Alternative: 3G Watchdog,,
Call Meter 3G: THE monitor app,Google Play,de.ub0r.android.callmeter,Z3A6QU9xcFRPRkxkV0FVaWFGSmVOQk8tSlZMSU1fNE5tUmR1TGJMNVRFRHllVEFzMERTWi1RSllKMGlKbWlfaEF0SkQxV1ZwdC16U1pOZHNrcXJzR1RTTFE,German,,1,2016-08-07,Thomas Katsch,Datenzähler zeigt nichts an.,Huawei p8 Android 6.0,,
Call Meter 3G: THE monitor app,Google Play,de.ub0r.android.callmeter,Z3A6QU9xcFRPR2xhQ0NlTVZGQTVUMmJ6cTJFOGFIdUc0cV9UQ2s3eEFzQVgyRHhxd2F4T0JrYzVhVzF1VFA2RGtOc2F6TTRNbkhLMV92SUppT2hxMUZQc3c,German,,2,2016-07-16,Smoký Whitè,"",Letzte aktualisierung 2015 ?! dann wird es aber mal zeit !,,
Call Meter 3G: THE monitor app,Google Play,de.ub0r.android.callmeter,Z3A6QU9xcFRPRV9YZllVV3JHY1NfOEJON1lCZmd4TFplcDVfOUhDNEIyZmFwWVFMYXdIYWc0cDljcEI4ejN1MXNPUEFLNGhzV1NLVUlhZF9xcWJKUVRSLVE,German,,1,2016-07-04,Bernd Meier,Ich will nicht durch die Welt gereicht werden.,"Nachdem mitgeteilt wurde dass durch die APP gerätespezifische Daten einschließlich deren Nutzung weitergereicht werden, habe ich die APP schnell deinstalliert.",,
Call Meter 3G: THE monitor app,Google Play,de.ub0r.android.callmeter,Z3A6QU9xcFRPRkgtSFRNVzhSNERsb3JRYXFLYmhCazBxS1dYXzV1WUNLLUYybi13czJzNFM0RXRjMzVoNFI1TzJHT2dzc0JZR1R1Qm9oT3oyX2V3dFdSM2c,German,,5,2016-06-16,Julian Schmitt,Perfekt für meine Bedürfnisse,"Habe lange das die kostenlose Version benutzt. Bin so zufrieden, dass ich jetzt gespendet habe. Danke für die App.",,
Call Meter 3G: THE monitor app,Google Play,de.ub0r.android.callmeter,Z3A6QU9xcFRPRy1vOFJxVDBVQmMxU0xZcDBZX3M5QWVHZ0d0aFpjZnVUalFtM0c1ajd6aE5Za2owZzFpZ204U1VPZWx0RXNEYzhVSXp6ajR6c000U285Nnc,German,,2,2016-05-23,Heinz Bastians,"",Leider sehr ungenaue Messungen. Habe doppelt soviel verbraucht ( laut Handy vertrag ) als die App angezeigt hatte.,,
Call Meter 3G: THE monitor app,Google Play,de.ub0r.android.callmeter,Z3A6QU9xcFRPSF9nTDhWWXk4RWctNHBFZ09udjJzWlB1UlFKc2ZibW9JV2F4cVJ1eWhMTWx0S1JNcUZhOWFMZnRZUkt2bjFBcnhTZ2RjUXpOODFfVHRSRlE,German,,4,2016-05-07,Christoph B.,"",sau kompliziert,,
Call Meter 3G: THE monitor app,Google Play,de.ub0r.android.callmeter,Z3A6QU9xcFRPRVJITEpzRDJWSnRhMmpuUno0S2xYSFFxa2NoZklPX1BKNF9PUkQwVFRfYl83eTkyYlpNVXA4UVBBb1AzbHZPUmJHX0FCa0VZRXhBckp0MWc,German,,4,2016-04-21,Kai Schultz,Honor 7,"Ich war bis jetzt Jahre lang sehr zufrieden, aber bei meinem neuen Honor 7 zählt er leider nur die Daten auf SIM 1",,
Call Meter 3G: THE monitor app,Google Play,de.ub0r.android.callmeter,Z3A6QU9xcFRPSGFSU3JjVnJFczZVT2tPanJTYnhTTHoyd2FBNG00aGJ6VWM0MXMxUkY4bFhkWHhoWENIenlkRVJVZXozN2VlMUFaOUhlZVFLZGVTQmM5Z2c,German,,2,2016-04-20,Andreas Leo Faulstich,"",NEGATIV: Unübersichtlich. Die wichtigsten Einstellungen sind nicht auf die Schnelle zu finden. ALTERNATIVE: Callistics Telefonstatistik MobileSoft.,,
Call Meter 3G: THE monitor app,Google Play,de.ub0r.android.callmeter,Z3A6QU9xcFRPSFhnNjdtRm5pRWxuYW1Hb3pmMEZWaDhkUkZjN3NuSGFGQi1mOG5BT0VmMzNST2JUSHNFOGxfMVlxY1Bic2U5WlY3TE5zUGJZMkFZaGI1Z2c,German,,3,2016-04-19,Alexander Horn,Kompliziert,Nicht genau. Dazenzäler,,
Call Meter 3G: THE monitor app,Google Play,de.ub0r.android.callmeter,Z3A6QU9xcFRPRU9mMkx5Z3k5cXJGUzBROVptZUJLV0g1eXkzaU1EVGhhd3c4OEpMRWZkM2E2N1Z0REN6ejZPY0tkQnplQ3lHNE52UjV1UmZsMWR1VXA2dVE,German,,1,2016-04-12,Sergej Ott,Kaiser,Seid ungefähr 3-4 Monaten werden die Daten falsch gezählt.,,
Call Meter 3G: THE monitor app,Google Play,de.ub0r.android.callmeter,Z3A6QU9xcFRPSFRZcm42MnduNmdHNFlqRnZBT2psZkxfTlVHV3VrSW9Sa290Vl9vY1JwbHRTWUVyVmMtcEsydHNoTldfR3JDZWpVV1p2dmR4YTU1WmdVd0E,German,,5,2016-03-20,Se Bi,Klasse übersichtlich,Top app mit vielen Einstellungen. Besser als das Programm vom Provider.,,
Call Meter 3G: THE monitor app,Google Play,de.ub0r.android.callmeter,Z3A6QU9xcFRPRTRwM1RhaVdoN2pLSWNSNUhiR2lUbGc0VlJlM2ZBZ0p0LWY1Q2tPM2x4OUxYdGxMWVFTdnhEd0lmYTVqcGM1dkJpNTFqeWozMFBsMDdoa2c,German,,3,2016-03-05,Frieder Winter,"Wäre super, wenn sie sich einstellen ließe","Tolle App. Ziemlich durchdacht und mit vielen Einstellungsmöglichkeiten - wenn auch etwas kompliziert. Leider funktioniert die Festlegung des ersten Rechnungstages beim Kontigent überhaupt nicht, wodurch die App für mich nutzlos ist.",,
Call Meter 3G: THE monitor app,Google Play,de.ub0r.android.callmeter,Z3A6QU9xcFRPRjdKenhJeUhmeUZEWFRlNDhWRVpnMm52WkpoUjFvMDRiaUtNSVp0SHFtT284NXVOeHRRS0czNU5hdmVQdkQ0eVgwM2QwS0hvYi0xYU9xS1E,German,,4,2016-03-04,Pöge Andreas,Volumenkontrolle,"Ohne viel drum herum, tut was ich erwarte.",,
Call Meter 3G: THE monitor app,Google Play,de.ub0r.android.callmeter,Z3A6QU9xcFRPRndZWV9MbGZ5emItOVFUTFVxa1AyeFVOYWR5WDRuM0Y0OENjRnkyelVnYlVTcTFFQlNjQnd4Ry1yZG5zNldPRHRmdm9CQ2hBZjFiSExqT3c,German,,5,2016-02-28,Mathias Müller,"",Gut,,
Call Meter 3G: THE monitor app,Google Play,de.ub0r.android.callmeter,Z3A6QU9xcFRPRS1fUXhxaElVbjJsN1JXQTBjbC1nUXUzbTAwb0lXcXoyWEJiRmwtRTk4azNzaEZVUmJWdGExVFlSanhFWjhoRGNLZDVEbGxPNnFaS1BhaUE,German,,5,2016-02-16,Jan Stübe,Genial,"Sehr geniale App. Flexible Anpassbar, stabil und übersichtlich. Top!",,
Call Meter 3G: THE monitor app,Google Play,de.ub0r.android.callmeter,Z3A6QU9xcFRPSEVuS2MtTVY3aFpwbTFLbEdRcmtPWmNWN2dGOXQzeGxMenYxX0F1RVAzNWxJeUROZ1FKYVZ6ZFdpSklBTWh2LTlBN3lOUF9LRDB2WEs5cVE,German,,5,2016-02-14,S L,Sehr gut,Vor allem die Widgets sind sehr nützlich und bieten viel Überblick.,,
Call Meter 3G: THE monitor app,Google Play,de.ub0r.android.callmeter,Z3A6QU9xcFRPSG5YT3pOcFlyajJXYWpHczZuaVd2M2RuZjd6QUdET0ZwdUREQjRjRWpyQWptd1ZMLTBvbHpMN3FFazVLZGJPZTBWc1lVWTVjTVZCWUEzNmc,German,,2,2016-02-11,Marian Pietrowski,Fehlerhaft ...,"Statistik zurücksetzen funktioniert nicht richtig, Anrufe werden nicht zurückgesetzt.",,
Call Meter 3G: THE monitor app,Google Play,de.ub0r.android.callmeter,Z3A6QU9xcFRPRlpoUko4ZnF5ZnZNVTk3dzRRazJ2R1JsVDNkbk01T1R1RldlaDZTbVotdVpjTUctUzY5S1MwdDViRnowZUZnY2ZmQ09NbUJRamNrdm5xNVE,German,,5,2016-02-07,Yakup Köfte,"Bestes Programm für diesen Zweck,","gibt kaum kein anderes, das Anrufe / SMS so kontrollieren kann. Alles einstellbar, top! Die Widgets sind auch super. Etwas mehr material design wäre wünschenswert.",,
Call Meter 3G: THE monitor app,Google Play,de.ub0r.android.callmeter,Z3A6QU9xcFRPRWtscTUxYWN0OURVOFNSdHQzUmszMXA5cFpITWRoaV9BdnZLWlpRWTBMeDQzVDRyN2Z2R01sZWRTT2VjMUlPU1RiNHluWEFqY3Q5cE95eHc,German,,4,2016-02-06,Anton Weber,Gute app,Das einzige doofe ist dass man die verbrauchte Datenmenge nicht manuell korrigieren kann ansonsten top,,
Call Meter 3G: THE monitor app,Google Play,de.ub0r.android.callmeter,Z3A6QU9xcFRPRnh6b0lONXZmY2F4V2R4M0tsbURTWEROeFZMNUlzQ0VxRnZNSjZfbXRzV3A5UEV1dTlLcUxoZHkxQzJETkpwcmpaVHlZc0RGVUQ4Wlo1MUE,German,,1,2016-01-13,Martin S,War mal gut,Funktioniert leider nicht mehr. Die Datenmenge wird falsch berechnet.,,
Call Meter 3G: THE monitor app,Google Play,de.ub0r.android.callmeter,Z3A6QU9xcFRPRnhtUmkxWjdrRU5pMUdIamJjOXE4aEtEeDlvWXA4d3J2cVRhM01zcE5PNnRaODNaVXcxWEdRUTdEdkVTekpLaU80WDdNMTBURkNJWkF3QVE,German,,5,2016-01-05,Ulf Daunke,"","Macht, was es soll. Danke.",,
Call Meter 3G: THE monitor app,Google Play,de.ub0r.android.callmeter,Z3A6QU9xcFRPSFZ6a1RJUmUteE9nNktUNUsxYm5rZmwxSXFkYjU2SWdwVUM4Wjlub2VUWkxFbXZkc1VJcG84eXdTLXJtT3BQd0xvN2l6SFg3T1hOclhicGc,German,,5,2015-12-31,R. Frenzel,"",Exzellente App,,
Call Meter 3G: THE monitor app,Google Play,de.ub0r.android.callmeter,bGc6QU9xcFRPRXZLblF3c2hrOVlJcmhHQXpwNmFxelRrOWkyc0N4ejN5ZXd1bFNCR2hVUkFBcjJBc0lvZ3FQN2NyR1FCUjk4ZFRvS05idlBKS054ZGdJQlE,German,,5,2015-12-28,Ein Google-Nutzer,"",rechnet genau ab. beim 1.ten mal einstellen zeitaufwendig. aber es funzt 100%ig!!!,,
Call Meter 3G: THE monitor app,Google Play,de.ub0r.android.callmeter,Z3A6QU9xcFRPSFBLTzZXbUdtTU0wdDdHaHBDbzNSSkU4N3hKOHFVRzB5eThfanhreWJQU1lYM0E4VFhQTndRazdRRUZfaDB5N3dMMGM4NmZISVh5bjE5cHc,German,,1,2015-12-21,Jens Rieck,Müll,"Seid dem update ist echt nur Müll. Datenübertragung zeit nichts realistisches an.  Ich habe das lange genutzt,  jetzt trenne ich mich davon.",,
Call Meter 3G: THE monitor app,Google Play,de.ub0r.android.callmeter,Z3A6QU9xcFRPRnNIZy1LbVZGdmg4QzRJaXFROGxtU3VFVENNSVlwQ1RWRmw2YURGcDlaZnotX1hUaXhPWE9PNkljVXNsb2xjOE9wR2lFV1JaNHA4ZGdiRkE,German,,5,2015-11-20,"",Super,Einwandfreie Anzeige meiner verbrauchten Daten. Die Werbung kann mit einmaliger Bezahlung abgestellt werden.,,
Call Meter 3G: THE monitor app,Google Play,de.ub0r.android.callmeter,Z3A6QU9xcFRPRjNIWmc3MlJfRGpUd2k1dUVVNld0NklkR0Z6M3BHbWZZc1RfWHdJQzZDNmJ5bDg4SUhQcndaZEh2UDU4czN5bzQ1dTM0bGpRUmRMWDlVMWc,German,,5,2015-11-16,Andreas Kuhnert,Nach dem Update,"Schade, war eine gute App. Nach dem letzten Update geht nichts mehr.   Korrektur: Neues Update, Fehler behoben! Vielen Dank!",,
Call Meter 3G: THE monitor app,Google Play,de.ub0r.android.callmeter,Z3A6QU9xcFRPRnJXcTYzLS14d2YyZXo4d3VhVDNGWU42emtuMGVkMHJBMlZJZGUtQWU2aXFjZVkxc2NiN05BLVl3NEE5SWFJZUN6VEhJM0ZNUXZxV2xPWVE,German,,5,2015-11-13,Jörg Heidrich,Kompliziert aber Excellent,"... zugegeben, die ganze Einrichtung schreckt so ab, dass man die App am liebsten sofort wieder löschen will. Als dann aber auch von meinem Tarif (GMX 300 Einheiten, 2GB) ein Profil herauskam, musste ich nix mehr einstellen. Einfach zwei Widgets auf den Startbildschirm. Eins für die Einheiten und eins für den Datenverbrauch und schon ist alles perfekt.",,
Call Meter 3G: THE monitor app,Google Play,de.ub0r.android.callmeter,Z3A6QU9xcFRPRXlBTkFjS0MzQWlXdFVhLUtuV0NTZkNabzdsWjZyMGNZRGZwVFpoWWl6TTBEQW15c0xWcDVqLUQzWUxKdHpDWlpYb2hITmV2SFBwejFhWUE,German,,5,2015-11-13,Andreas Köbe,Exzellente App,Sehr gute Optionen,,
Call Meter 3G: THE monitor app,Google Play,de.ub0r.android.callmeter,Z3A6QU9xcFRPRzRuVFVBRFpjcGY0N0xXVko4WjhaQUtZbVFJYXN6dHc4UGdFSkY5Nlc5RVpGMmZrcDItTVpaRmFGZXVJR09sVEQtLXRseUozQmJ6b3FRenc,Hungarian,,1,2017-02-15,Zoltan Hajdok,"","Ezt a szart. Eddig a 20-as  hivószámot be tudtam állitani, hogy ne számolja. Most már nem is találom a lehetőségét.  Egyetemi diploma kell a beállitásáho ,vagy még az is kevés? Olyan nehéz egy rendesen, megbizhatóan működő tarifaszàmláló progit megirni? Akkor felejtsétek el. Hagyjátok a profikra.  Szar az egész úgy ahogy van. Legujabban már akkor is rádob néhány százalékot a számláló ha nem történt kimenő hivàs.",,
Call Meter 3G: THE monitor app,Google Play,de.ub0r.android.callmeter,Z3A6QU9xcFRPSGhIY042dWo3QlJYXzZQSDVNdXczUkpqMmRSby0wZXlMMy1FdERBV0daZjdBVElYVWl4Mk5Yb2p4dE5TZkdZQjlNVURmeGVSLW9GZzZzR1E,Hungarian,,4,2017-01-10,Balázs Beke,"","Eddig nagyon tetszik, de egy kicsit bonyolult a beallitas. Manualis frissitesre allitottam,igy viszont csak akkor mutat helyes mobil adatforgalmat,ha bekapcsolt mobilnettel lepek be a programba.",,
Call Meter 3G: THE monitor app,Google Play,de.ub0r.android.callmeter,Z3A6QU9xcFRPSHFlWnhPZ084ZnE2M2p4dzdzZ0taQXlLMnFnaFp1a083UGVJSUpLdmF4bzhONUNCR0pzQllOQlYxTVR4MDFwTVg2eEVvNXBXMDk1eWlyS1E,Hungarian,,5,2017-01-02,Dunár Attila,S6,Nagyon jó!,,
Call Meter 3G: THE monitor app,Google Play,de.ub0r.android.callmeter,Z3A6QU9xcFRPR3dlR3VQcnZzcDJYdllEV0xrY1ZiZlM4Z2NBM3g2TnFUU2FRazJyUTJUSm9KWlRXVTZVVkZyTDVZQXF1OXZrYnNSX21sbTRZTU90TFpHaUE,Hungarian,,5,2016-07-02,Tibor Keller,Nagyon jol mukodik.,"Kicsit pilótavizsgás a beállítása, de nagyon sokmindent tud. Pár MByte és pár perc eltéréssel ugyan, de összhangban van a szolgáltató méréseivel. A wodgetek is nagyon hasznosak. Ez így egészen jó. Sajnos a beállításaimat nem tudom exportálni 6-os Androidon, így mindenkinek egyénileg kell beállítania. Ez jó volna ha menne.",,
Call Meter 3G: THE monitor app,Google Play,de.ub0r.android.callmeter,Z3A6QU9xcFRPSEVKejRJdFNEYWJYQ1I3VFZleUwtaEwzWW4xUGF5ejNiYmp4Vks1VDVWLVBINjNwUGVVd2h0YUR6RXZLOVZ3aFUwa2FxNnhlckEteVVDLUE,Hungarian,,5,2016-03-28,Tóték Sanyika,Egyszerűen jó,Pontos és jól testreszabható.,,
Call Meter 3G: THE monitor app,Google Play,de.ub0r.android.callmeter,Z3A6QU9xcFRPSFFibnN5LS1DX2pld000Q1pWS3BneXdJMXg2WkZMREY1RmdyR1E5UjNpQ2x5aURka3RTemhXaTV5Y01TWEktTmF5TzJqTWt1Tl9YNS1xd2c,Polish,,3,2017-03-18,Marcin Ś,"",Bardzo dużo opcji możliwych do ustawienia. Niestety nie można ustawić identyfikatora karty sim dla reguł mms i mmsy zliczane są bez podziału na karty.,,
Call Meter 3G: THE monitor app,Google Play,de.ub0r.android.callmeter,Z3A6QU9xcFRPRTcycExLQXRyZkVDUGZnTURoWjYxRUhfQTQ3U29pQzBTWktNelNoZ3BnRHJTTUo5ZC02N3VBMVFNSFZYeTBfZGg5QjRmRkN4SnB3V2xnZkE,Polish,,3,2017-02-05,Tomek F,"","Błędy w zliczaniu transmisji danych. Pokazuje pobrane pakiety po kilka gb, ktore nie mają potwierdzenia w bilingu operatora.",,
Call Meter 3G: THE monitor app,Google Play,de.ub0r.android.callmeter,Z3A6QU9xcFRPRXZ2MGlYOXFWemw3WmVZZ1NsQnFpY0ZsYTNrNTJjVFFmV1lvb0pVNjVVUElVM3k1MlNhMEhqLXRSZVpXZXZPdl9Kb2FQanYyVnVnUkRsSUE,Polish,,3,2016-08-23,"","",Źle odczytuje połączenia,,
Call Meter 3G: THE monitor app,Google Play,de.ub0r.android.callmeter,Z3A6QU9xcFRPSGxfUXJOd0JtMVJQczNRa3c3bmtpTWVVa0NLQ0VaM2MxSUlIWGh2bFE3cDFDQkZFZmNhZlRKeXBMMk9wcGllYVFKSTl3YWpzTmd6azVFQXc,Polish,,5,2016-08-02,Bones Winter,Bomba !!!,Nie da się opisać jaka radość kiedy wiem kiedy ile czasu i jak długo transmisja danych ... 👍 GODNIE POLECAM  !!!,,
Call Meter 3G: THE monitor app,Google Play,de.ub0r.android.callmeter,Z3A6QU9xcFRPRXVfQ0tMaTJ1eTJSNjlJYS1ua01ZOFFlbkV2TmVSUllmR1hGa2pyYkVJSFY1SGs3a1p4RWIzQ1g5ZU5ZcTE4XzB1SGZTcjVkMWViWHJHNUE,Polish,,4,2016-02-14,Krzysztof Tokarski,"","Świetna aplikacja. Posiada dużo możliwości konfiguracyjnych. Teoretycznie można dostosować ustawienia do każdej taryfy. Mnie tylko brakuje wyłączania pojedyńczych aplikacji z transferu danych. A po za tym super apka. Najważniejsze, liczy to czego oczekiwałem po tego typu aplikacji.",,
Call Meter 3G: THE monitor app,Google Play,de.ub0r.android.callmeter,bGc6QU9xcFRPR09ROUR6NlJIakVBQ1ltaGFtbjhVbGlPNEtjaXN3cGp3UnpPTi1rNHd1YW1UZzlhSmU0WFByVDJHME9WWEtTb0RndnBwdEFqRlFhVzNHX0E,Polish,,5,2016-01-30,Użytkownik Google,SUPER,"great app , super app , must have - zlicza wszystko - jeśli tylko porządnie ją skonfigurować - polecam każdemu ....",,
Call Meter 3G: THE monitor app,Google Play,de.ub0r.android.callmeter,Z3A6QU9xcFRPRXFteFRIbTNhTlVBdWFDbkJ1eS1PVWxNSGR6c00ycDVjc1k5a0RFeHJMV293QUJjMXktV2VzVzJCZ2lfZURkamFWTWk4Z1F1N2k3aGhUclE,Polish,,5,2016-01-29,marverek,"",Fajna appka. Czytelna..prosta..liczy co nalezy.,,
Call Meter 3G: THE monitor app,Google Play,de.ub0r.android.callmeter,Z3A6QU9xcFRPRVlEYWhMQUdyZjFPOHJLQmFyeHR6WGUxUno5dG9OcnpmRTV4LTM5ZDRqNWVVazNqMFo0ZG9NaFdWS2x3eGhMN1c4LW50bVlUS2h4LXhWQVE,Polish,,5,2015-11-30,NewtoneMr,THL 5000t,"Przetestowałem kilka podobnych aplikacji i ta jest najlepsza.Wszystko czytelnie widac dobrze mierzy koszta i ilości.(trzeba w regułach dobrze walute ustawić...)Zmiennych opcji też sporo, Gdy załadują nam się zasoby sms,mms itd. Można śmiało usunąć np.smsy ze skrzynki.Stan licznika zostanie bez zmian,jednak gdy chcemy reset liczników, opcja takowa jest w programie. Dla mnie najlepszy 5\5",,
Call Meter 3G: THE monitor app,Google Play,de.ub0r.android.callmeter,Z3A6QU9xcFRPRkpNQ1M1NEVSTnJGRnBCWU9FSWprQVJMZ05FQU9Pd1pTc3BKUHRlZzYyX1M4MHRHakpZUjNBTjFyM2NJSV9PcnhBM1lrbnVQenhranBOM0E,Polish,,5,2015-11-16,Edward Tusinski,"",Świetna apka. Działa poprawnie na v 5.x i na v 6.0. Po ostatniej aktualizacji przestały działać widżety. No widgets :(,,
Call Meter 3G: THE monitor app,Google Play,de.ub0r.android.callmeter,Z3A6QU9xcFRPRnBHMnlBaEEwT3g4MlZJZWxoMHZobV9rR3pJR2RPaWNSYnJPOWpiUnJodXk5dm5sd0dCYjJ5Z0lkZXhWOFprbk5yanpva2hnTF81U0ZLYUE,Portuguese,,2,2017-02-12,Marcel Silva,"",The widget doesn't work on Samsung Galaxy S7. Help please,,
Call Meter 3G: THE monitor app,Google Play,de.ub0r.android.callmeter,Z3A6QU9xcFRPR1g4aEdzT05BMVhMTVVfVWw0ZUtBQS1pQm10M1VwcDAzMUJiak1JOEZBUFhldUpqT2xmd1htb1R0aHhYYXg5dWlfc01ialdNdDFFcTVtRVE,Portuguese,,4,2016-10-06,Romulo Carlos Reis Alves,Very good,But it don't shows mobile data. I'm using a custom rom with Android 6,,
Call Meter 3G: THE monitor app,Google Play,de.ub0r.android.callmeter,Z3A6QU9xcFRPRmhqMjhONEY4UHNMV19qZHl6d1Faa1dkMVJpYk5vYWpQS0RKX0k1cG1yc3cyTElyTUo5Wm00UEM1SHZCR09acFAzZkJHZER5Z2tsSEJVZmc,Portuguese,,4,2016-09-02,Lucineide Souza,"",🌹💐,,
Call Meter 3G: THE monitor app,Google Play,de.ub0r.android.callmeter,Z3A6QU9xcFRPSHBqaWlRRmJtVzZLVXMzbERGZXNFTklqSS1hdjY0R1ZHNU9RZFNocEY3UWVoU0lmcFdxOTVTMUw4Ynd5eGs3TVM3WGJoZVNpZ29nbDgyenc,Portuguese,,5,2016-04-27,janin santos,Otimo,Depois q acostuma com configuraçao é o melhor de todos,,
Call Meter 3G: THE monitor app,Google Play,de.ub0r.android.callmeter,Z3A6QU9xcFRPRzg5SmVrM0phVEx2NTFjUURSNlBuenYtZWJiUWQ3bXF1WGhncDdEckxzSU1GQ0hla3paakcwT0V1Vk1oaDZ4aWxkaFpRUW5PX0JMWXNVTkE,Portuguese,,4,2016-03-28,Magno Gomes Baquero,Muito bom.,Pena que não zera quando inicia o mês.,,
Call Meter 3G: THE monitor app,Google Play,de.ub0r.android.callmeter,bGc6QU9xcFRPSHV6Ym15cGhDT2daNFB6T1VuT3VIMERUNkJLM2VXLVhnT3Yxalh0LWJwdEFzdU1BM1lCdkNmTHpBcUhBZ01YUTAxWks0SDRha0NJOVBvWHc,Portuguese,,5,2015-11-15,Um usuário do Google,O melhor!,"Com a atualização agora consigo incluir e excluir os números na regra, obrigada desenvolvedores, o aplicativo ficou perfeito!",,
Call Meter 3G: THE monitor app,Google Play,de.ub0r.android.callmeter,Z3A6QU9xcFRPSGplRTE4QkstYTVhdndNNWpxc1Vwck9RQzBlLTlhMkxFSHhWWW1Sd0RUUWNMLU11OXltLWV1V0QxN3JNTk5TOUtqTG13czFfdWFKbWc4UVE,Russian,,5,2017-04-02,Николай Братуха Сергеевич,"",Хорошая программа.,,
Call Meter 3G: THE monitor app,Google Play,de.ub0r.android.callmeter,Z3A6QU9xcFRPRVc5U3h4WnBWUlRRVHhtWW9jZ2hVWExMR0xxZ3cwM0pUVFdhTmYxemoybHh4Y2JVSElUbkxDZEZpNkFReGR4VE91ZzhpNjFzc3NLRGktdmc,Russian,,4,2017-03-19,Сергей Братуха,"",Неудобно как-то выглядит. Но в целом работает. Даже по двум SIM считает.,,
Call Meter 3G: THE monitor app,Google Play,de.ub0r.android.callmeter,Z3A6QU9xcFRPSFJjaW9ZMFpiUmdFVEFTc19pbkpELXhqN0NlV1BwT2tFRk1od05rZURqR1BoZkZaR0lRbkRhbFRaUXlmaXJ5NnZBeDZTeHVIVmRaOXptWnc,Russian,,4,2017-01-18,Sergey Bykov,"",Неплохо,,
Call Meter 3G: THE monitor app,Google Play,de.ub0r.android.callmeter,Z3A6QU9xcFRPR0txTVlmWXBHNnpLeFVhazJZaDFFSUZFd1hVVS1jWWFPQkFOZlhuUG9LZEpQOEwwdFIyNlRaX0pnYnJKS0JIaVc3X2szT3k4Vk1ESTB6Y1E,Russian,,4,2016-11-23,Pavel Pyltsin,Sony z3 dual,"Не видит вторую сим, как настроить не нашёл.",,
Call Meter 3G: THE monitor app,Google Play,de.ub0r.android.callmeter,Z3A6QU9xcFRPRWpZVVNjaktfVEVtTzN3eEpkenhxaUF0dUVVX2ZIcGdDNlVkLWRoVmpZdUY3TXh5cHJrSlZhdERrMGtBd05oQUVDMk5saHN6UndEMmdSOUE,Russian,,4,2016-01-17,Антон Самохвалов,Вопрос разработчику.,"Можно ли сделать так, чтобы подсчет интернет-трафика не обнулялся при перезагрузке телефона?",,
Call Meter 3G: THE monitor app,Google Play,de.ub0r.android.callmeter,Z3A6QU9xcFRPR2lrXzlKNjlDUjZMQjhEdGhSRTRHcU5oREZ1TmQxYktpVWdmblRuTmdGOTFZR0dNRFlYLWY0TUhLOXp4M2UyMVVMaElaWTl1bFhpWkR3WHc,Russian,,5,2015-11-13,Алексей Горюшин,"",Ошибка исправлена,,
Call Meter 3G: THE monitor app,Google Play,de.ub0r.android.callmeter,Z3A6QU9xcFRPSENrcjYtU2ZzeElBbUhMSVlsb01KNWpfeHZfUGVaVlhqSUxCVUlYdndXRlpFSDh4d3Nlb0J2VTZpZldDRDFDa3Rwbk1PbVB5Q3NBNElSTXc,Serbian,,4,2016-11-10,Mira Sladojevic,Nije lose,Moglo bi biti i bolje,,
Call Meter 3G: THE monitor app,Google Play,de.ub0r.android.callmeter,Z3A6QU9xcFRPRjFpajlEOFEtaGdNdklyLUxrOVpDeEJSVW5rT2V1T1QwaTBXX084MGptUXZieTI5UlgxZ3FETTdEQnpGa1RtZ0pPVXI2cmJXN0JMM1J0SlE,Slovak,,1,2016-07-11,Vladimír Gajdoš,"","doteraz fungovala bez problémov, a teraz vôbec :-(",,
Call Meter 3G: THE monitor app,Google Play,de.ub0r.android.callmeter,Z3A6QU9xcFRPR2M4RFdla01qM0pYZjFrelI2MHBrZUwzS2FsQ3R3MXhkR1AtOVU4T0pUTlZfeXVpalJ5VDR4Nzl6OTZRc2F0a19OSW92b0RfbkFJT21INkE,Slovak,,1,2016-05-09,Jozef Vjatrák,"",3 krát ste mi vy vy vy... odstrelili xperiu. U mňa ste 1000000minus!!!,,
Call Meter 3G: THE monitor app,Google Play,de.ub0r.android.callmeter,bGc6QU9xcFRPRVZIWUlCM0o1T0VXMUVEVmRrRXBUVjhFSlliRWg4aUQyS1JFRjJVTTR3MlVqYnIwcS1JNGJiSkh1bGUxVjRjUFlIV1h6bTFXQnByZS1HNkE,Slovak,,5,2016-03-09,Používateľ služieb Google,"",Not working Samsung Galaxy S7 edge,,
Call Meter 3G: THE monitor app,Google Play,de.ub0r.android.callmeter,Z3A6QU9xcFRPRXVjdTVvY1dPc0paLUw5OHBncjItMWk2a05hS2JLR09rOW8zd0lueVNmVW1oRC0wVjZ5TTNjUzYwRERRdTFOTmp5S201VjFBTU4wMTJ1N1E,Slovak,,5,2016-03-03,Ján Plavnický,"",Dáta,,
Call Meter 3G: THE monitor app,Google Play,de.ub0r.android.callmeter,Z3A6QU9xcFRPSHdLWkU2VnRiOFdJTGJISjRYTEtGckJkUHJjZE1Ta3RoY05PVFRpb09seFBZQmpsMzlUSWU1RG42OFJKZmNnMlU2Z1VhLXJ2VTg2X055S1E,Slovak,,1,2015-12-07,Peter Pavelek,Shit app!!!!!!!!!!!,This app is big fail!!!!!!!!!!,,
Call Meter 3G: THE monitor app,Google Play,de.ub0r.android.callmeter,Z3A6QU9xcFRPR1lTVVZMRVprUVozZWRpcTlTUmRKaEdDNkV4VkFXakJqZXk3Z3BZZlktVXBXU05XdHRXMVFfaG4ySTRLMzNzZjhsUVFjU2hRbWlYdmFNWVE,Spanish,,5,2017-03-20,charraun,"",Excelente,,
Call Meter 3G: THE monitor app,Google Play,de.ub0r.android.callmeter,Z3A6QU9xcFRPRmJiRnNlV0drYWhjRDFHeVpiY3Vja0RwdjFocHpNZGhsYkd2aFRRWmZLQ3B6S2d3ZEg0emFWczBHTmtOa3JRSjBuQVF6VTRfNUFFSkNGNlE,Spanish,,5,2016-12-06,Carmen Prendas Pereira,"",Muy buena,,
Call Meter 3G: THE monitor app,Google Play,de.ub0r.android.callmeter,Z3A6QU9xcFRPRlFUY2N3Yk16RjlUVHZfeVlrMzRsR0lDWU53b1AxYnNSUW9rRHVJMUZGcGx2RTBBaUNrcXZUd0pPMTU1UG5yYWQ1LWh4S1BjZVRFUmlPX2c,Spanish,,3,2016-07-24,Jose Hidalgo,Doble sim,"Si tienes doble sim no distingue el uso de datos de cada sim, los acumula juntos. Las llamadas y los sms si los separa para cada una de las sims",,
Call Meter 3G: THE monitor app,Google Play,de.ub0r.android.callmeter,Z3A6QU9xcFRPSEZJRXpQaGxFOUNNeDNON0NYMnZJZ3l3bUxKTjVsYjhTWXhqdlFvT2RwR0dEUzRMTHJaNGFtU0ZnUUxGbzBSMmpTZHlMRXBDU1RjOXZ3NGc,Spanish,,5,2016-06-16,Maria cruz Rsmirez,Muy buena,Me facina,,
Call Meter 3G: THE monitor app,Google Play,de.ub0r.android.callmeter,bGc6QU9xcFRPR3NmZHFURlFwRmVaSDZuTEMzOElWeTVyMTU2N2RYNU1lTEh5MGh1VUdrQXROZHh4TE1McTAyQzJSNllOUjd1MExNT0ZUOU5OZzdGRWlCMWc,Spanish,,5,2016-05-06,Un usuario de Google,Excelente,Al principio es un poco difícil de entender pero ya que lo haces esta de poca,,
Call Meter 3G: THE monitor app,Google Play,de.ub0r.android.callmeter,Z3A6QU9xcFRPR29ROWZUWmUtdklaUndtd250S3AxTDVIRjU2dnF5TDJPWTQ1UVUycV9aSDZzeXRvQUF3Q2dZNGxOZU9wWkdTLTlnRUZNWTNMRkk4WlliVGc,Spanish,,4,2016-04-15,Rudy Guzmán,Me entristece dejarla,"Desde que la probé ha sido mi preferida, porque es simple y completa a la vez, y cumple lo que necesito; medir mi consumo de Internet, mensajes y llamadas. Lastimosamente, desde que cambié al Huawei P8 mide menos datos de los reales. Supongo que será por el sistema de ahorro de energía del teléfono, pero me veo obligado a buscar otra App.",,
Call Meter 3G: THE monitor app,Google Play,de.ub0r.android.callmeter,Z3A6QU9xcFRPSGJRemNyMUYtVzVCMXY4M1B0NmwwYms1Slg2dzRaSXdTdEVJWlJqbmdPaWxRVEV2Q2Q3czBOU2NrZXZxdFR2MklHNTVlRnpCYUdxRE12LXc,Spanish,,5,2016-02-20,Luis Amador,Galaxy S6 edge,Muy buena la aplicación la mejor que he probado la recomiendo al 100 %,,
Call Meter 3G: THE monitor app,Google Play,de.ub0r.android.callmeter,Z3A6QU9xcFRPR2FfZF9kMkp3LW11eVFyUGlQUlVzS0M2UUt0bTk1bTJRWGhzMjBjM3ZEOC02NlhOdDZqdjUzQ21sVXVmRmdBZEJhX2ZfRVlrWVNNN2VsUXc,Spanish,,2,2015-12-15,Jesus Lopez,A peor...,Ultimamente no calcula bien los datos... llevo 2 gigas gastados y me pone que llevo casi 4. Supongo que estará sumando el wifi o quien sabe!,,
Call Meter 3G: THE monitor app,Google Play,de.ub0r.android.callmeter,Z3A6QU9xcFRPSE9aSGFoMTFFLW91aG8xU1k1VjNCeF9Sc2p5elNVY0pvSEZiQ0JJYjBIX0taeWtyM0JMZFVQZE1sbEZiOHBGM2JaSlo1MGwzbUpVTkVJWWc,Turkish,,3,2016-07-15,Zubeyde Karaduman,Puan Hk,İyi fena degil,,
Call Meter 3G: THE monitor app,Google Play,de.ub0r.android.callmeter,Z3A6QU9xcFRPSEpCeDBqc2hYZEYtX0hHOFV2LWhqLXVqZFRuZjN5aFJTanRkSHQwbXJCd25nbUExb3BmOVFyb1hpdnoyRDZYaTRiVmlLYjVUVGt4VWJ5NkE,Turkish,,5,2015-11-30,Enes Biter,"",Benim tel 3G ye uyumlu ama hangi purogmamı yuklemem lazım acill,,
Call Meter 3G: THE monitor app,Google Play,de.ub0r.android.callmeter,Z3A6QU9xcFRPRVE0UFVoV1lkdGJtbFVGY3NzLVJMV1QtX0dWbldYNjEtQWpiRXNIeDd4cEJxZDZVVThVMVBKc0VuNmI2NHFnX0p1Y1drRDlpZnpnXzczaFE,Turkish,,4,2015-11-12,Zafer KOÇER,"",Çift sim kartlarda çalışmıyor ve manuel ikinci sim kart girişi yapılmıyor.,,
