H M M M M M M M M M H M M M M H M H M H M M M M ,0.20588235294117646
L ,0.4310344827586207
M ,0.9333333333333333
M ,1.7777777777777777
M M L ,1.5146198830409359
M ,0.27906976744186046
L L M ,0.7741935483870968
M M ,0.5301455301455301
M ,1.0725388601036268
H M ,0.30841121495327106
M M H M M M H M H M M H M H M M M M H H H H M ,0.0
H M H M H ,1.2076023391812867
H ,0.3586278586278586
L L M M M L H L M L M L M H H M H H L H M L M H H L H L M M M M M M M M M M M ,0.37037037037037035
H M M L ,0.0
H ,0.10551181102362205
M M ,0.12650602409638553
L ,0.2898550724637681
H H L M H M L L H L M L M M M M M H M M M H M H H M M M M H H M M M H M M M M M M H M M M ,1.1666666666666667
M ,0.2
H L M M M M M M M L M M M H M L M M L L M L M M L L M M H M M L H M M L H H H H H M L M L L M ,0.0
H M L ,0.5910290237467019
M M ,3.687150837988827
M M M H M M M H H M ,1.894915254237288
H H H ,0.96
H ,0.5498960498960499
M ,0.14492753623188406
M M M M ,0.054000000000000006
H M ,0.32
M M M ,0.6330708661417324
L ,3.4206060606060604
H ,0.0
H ,3.189189189189189
L ,0.2110236220472441
H ,0.6666666666666666
M H ,0.8620689655172414
H H ,10.096969696969696
L ,0.0
H ,0.12727272727272726
H M H M M L H ,1.1606299212598425
M ,0.12650602409638553
L M H L L L L L L L L ,2.423728813559322
L H L H L M M M M M ,0.10638297872340426
M ,0.3575129533678756
L ,0.12650602409638553
M ,1.1428571428571428
L L ,1.68
M L ,0.15789473684210528
M ,0.0
M M ,1.0297482837528604
M ,0.9496062992125984
M M H M L L L L L L L M L M L L L L M M M L M M M H M L L L M L L M L L L L L M L M M L M M H L M H H M L H L M L M M M M H L M L M M ,0.09929906542056076
M M M L L ,0.0
H M M M M M H M M ,0.0
L ,2.025906735751295
M ,0.4
M M M M H H H M M M H M M M M M M M M H ,1.2295081967213115
H ,3.004158004158004
L L ,0.7941176470588236
H ,0.08241758241758242
H H H H H H H H M M H H M H M M H H M H H M M H M H H M H M M L M ,2.3684210526315788
H L ,6.490272373540856
H L ,1.7730870712401055
H H M L M L H M M ,0.24390243902439027
L M M M ,0.48780487804878053
H M M M ,2.0
M ,0.17671517671517672
H ,1.1224018475750577
M L L L H H L M M L L L L L L L M M L M M M M L M L M M M M M M M H M H M M M M ,0.3687150837988827
H M H M ,0.2801556420233463
H M ,0.10551181102362205
M H M ,0.3795180722891566
L M M H ,0.3529411764705882
L ,0.7941176470588236
H M L L M L L M M ,0.14173228346456693
L ,8.64507042253521
H H H H L L L ,0.24942263279445726
M H M M H L ,0.01267605633802817
H L L ,0.3741339491916859
H M M L L M L L ,0.24942263279445726
M ,1.1606299212598425
M ,1.0666666666666667
H ,0.7150259067357512
L M L L M M L L L L ,0.04093567251461989
H ,1.4300518134715023
M ,1.0393700787401576
H M M ,0.21517671517671516
H M M M M L L M L L M L L M L L M ,10.766743648960738
M ,0.989010989010989
H ,0.08484848484848484
L L L L L L ,3.518324607329843
M M M ,1.498247663551402
H M M M M M H M H ,2.272727272727273
M L M L M M M L L M L L L L M M M L L L L L L L L M L M M M L M L M M L L M H H H H L H H H M M M M M H M M M M M M M ,0.2518248175182482
L L L ,0.020942408376963352
M M M L L M H L H M M M L L L L L L H H H L H L L M H M H H H M M M M M M M M H H H M M M H H M M M M M M M M M H M H M ,0.27999999999999997
M M M M M M M M M M M ,0.5531914893617021
M L ,0.7657657657657657
L ,0.08484848484848484
H ,0.0
H L M M H L M M H M L H M M M M M H L M H M M M H M M M M M H M M L L L M L L M L M L L M L ,0.20689655172413793
M ,0.35343035343035345
H ,1.331877729257642
H ,0.6941747572815534
H H L M L M M M M H M H L L L M L M M M L M M M M M L L L L L L L L L M M L M L M L M M M M M L M L L L L L M M M M M M L M M M M L M L M L L M M L ,0.7520891364902508
M M M M M M ,0.8
H M H M M H M M M M M M M M H H M M H H H M M M ,1.2
H M M M M L L L H ,1.6448598130841123
H H H ,0.1111111111111111
M ,0.0
L ,0.10551181102362205
M ,0.6330708661417324
L M M M M L M L L L H L H M ,0.20786516853932585
M M H M M L M M L L L H H M M M M M M M H H M H M M M M M M M H M H ,0.09375
H ,1.4137214137214138
H H H M ,0.24390243902439027
M L ,1.293103448275862
M M L M L M M H L M ,0.2801556420233463
M M H M M M M M M H M L M H M L M H M L H M L H M M L L H M H H H M M M M M H M M M H H M H L M ,0.45774647887323944
H ,0.8484848484848484
H M L L ,8.530376940133038
H M ,0.12328767123287672
M M ,0.26666666666666666
M M M M M M H ,0.797244094488189
H H H M L M M H M M L L L M M L L H M M M M L M L L L M L L M H M M M H H H M H M H M H M H M M H M M M M M M M H H M M M H H M M H H M M H M M M H M H H M M H M M H M M M M M M M M M M H M M M ,0.16216216216216217
L ,0.10551181102362205
L M H H M M M L L M M L M M M L M L M ,0.646551724137931
M M M H M M M M M M ,0.9533678756476683
L L M L M L L ,0.4157303370786517
H ,0.2121212121212121
M H M M H M M M M H M H H M M M H M H M M M M M H M M M M H H ,0.17400000000000002
M ,1.7875647668393781
L M ,0.11917098445595854
M ,0.8654353562005277
H M L M L H M H H H M H M M M ,0.6113537117903931
L L L L ,1.6888888888888889
H ,0.4444444444444444
M ,1.1842105263157896
M ,0.980544747081712
H L ,0.12195121951219513
M M M H ,0.851063829787234
M L M M H H M L H M L L M H L L L H M M L M M L L M M M M H M M M M M M H H M H M M H H H M M H M M H H M L M L L M M M M M L H M M L L M L H ,0.2768361581920904
M H ,0.08241758241758242
M ,1.178101178101178
H H M L ,0.1266490765171504
H M M H L L H M M L M L ,0.23076923076923078
M M M M H M M ,0.11954261954261954
L ,0
H ,0.32967032967032966
M H ,0.2909930715935335
M H H H H M M M M H M M M ,1.0975609756097562
H M H H H M H H ,1.3716535433070867
M M M L M M L L L L L H H M H M H L H M H L M H M L M M L H H H H H H ,0.4148936170212766
H H M M M M ,1.5826771653543308
M ,4.5
L ,3.1304347826086953
M M L L L M M M H H H M M M M M M M M M M M M M M H H H M H M M H M H H M M M M H M M M ,0.0
M ,14.219178082191782
H M ,0.2110236220472441
H H H H H H H H H M H M M H M M L M M M L M ,0.03832116788321168
M ,1.826056826056826
M H H L L H L L H L M H M M M M M M M ,0.5925925925925926
H ,0.11781011781011781
M M M ,0.49180327868852464
L L ,0.32038834951456313
L L ,0.3575129533678756
H M ,1.6483516483516485
H M H H L M M L L M ,0.5945945945945946
H M M L M M H M H M H M L M H H M M M H M L M M M H M L H M M H H H M M H M M M M L M M M L M M M M L H H H M M M M M H L H H M H M M M M M H M L L H H H M H H H H L M M M M M M L M M M M H M L M M M M ,0.4157043879907621
M M H M H H H M M H M M H H H H H H H M M H H M M M ,0.11781011781011781
M ,2.269503546099291
M M M M H H ,0.0
L ,0.32
L ,0.96875
H H ,1.2578740157480315
H M H M ,1.5862068965517242
L ,1.3716535433070867
H H M M M ,0.46062992125984253
L L M L ,1.4
L ,0.17647058823529413
M ,0.5531914893617021
H M L ,0.7941176470588236
M H ,0.47413793103448276
M ,0.1779359430604982
L L H ,0.23562023562023562
H L M M ,0.07142857142857142
H H L L L M H L L L L L H L M M M M ,0.03730569948186528
H ,0.4242424242424242
M ,0.49427917620137296
H ,0.0
H L ,0.7795275590551182
H L M L L M M L M L M M H M L ,0.0
H M M ,0.08241758241758242
L ,1.2661417322834647
H ,0.4109589041095891
M ,1.2
M ,0.052770448548812667
M ,0.8855421686746987
M ,0.0
M M H ,0.0
M ,0.8
L ,1.125
H ,0.20594965675057209
M M H M ,0.31578947368421056
M M M M M ,0.0
M M M M ,1.4137214137214138
L ,3.5217391304347827
M ,0.581986143187067
M ,0.2
L L M ,0.0
M ,0.237467018469657
H ,0.0
H H H ,2.1968503937007875
L ,0.4123354123354123
H L M M L M M L L L H L H L H M M M M M H M L M M ,0.08219178082191782
H ,0.01267605633802817
H L L L L ,0.3165354330708662
H M ,0.04157043879907621
H ,0.3575129533678756
M ,0.5288135593220339
M ,0.9230769230769231
L ,0.647955647955648
H M M L M M H L M M L M M H M H H M L M M M M M L L M L H H M M M M M M H H M M L L M M L M H M H H M M L ,0.04109589041095891
H H M H ,3.032258064516129
H M H M H M L M L L L M H L L H H L M M M M M L M L L M M H H L M M L M L M M L H L H L H H H M H M M H M L L M L L M M M M M H M L L L H L M H H H M H L M M M H L M M L L M M L M L M M H L H H M M M H M H M M H H M H M H M M H M M M M H M M M M M H M M M M M H M M M H M M M M M M ,0.4112149532710281
H ,0.48780487804878053
M M ,0.47058823529411764
M L H M H M H M M M M ,1.2837837837837838
H ,2.4890829694323147
M ,0.10303030303030303
M M M L L M M M H M M H H M M ,0.0
H H M M M L L M L M L M M M L M H M M H ,0.6575342465753425
M M M ,0.30434782608695654
H ,0.5555555555555556
L ,0.10551181102362205
L ,0.09836065573770493
H H M H L ,0.16628175519630484
M M H H M M M H M M M M M H H M H ,0.0
H M M L L ,0.847450110864745
M L M M ,0.11781011781011781
M ,0.8835758835758836
M M M M M M M H M M M H H H H H ,1.1121281464530892
L ,0.0
M ,0.0
H M ,0.64
H ,0.0
H ,1.0760869565217392
L M M M ,0.0
M ,0.0
H M H H H M M H M L H L M M M L M L L M M L M H L L L L L M H M ,1.2446808510638299
L H H H L L ,0.29411764705882354
H M M L L L M L L M ,0.1478102189781022
H H H M M H M ,0.6315789473684211
M ,0.1022196261682243
H ,0.25149700598802394
M L ,1.1191961191961193
M M M M M M M H H ,0.17844727694090382
H M M H H M M H M M ,0.1
M M L H L M M H M M M H ,1.2252252252252251
M ,0.3295194508009153
M M M M H H M H M M M M M M H H H M M H H M M M H ,0.16014234875444838
M H H H H M H H M ,0.0335195530726257
M M H M M M ,0.576923076923077
L ,0.11408450704225352
H M L H H M ,0.3274853801169591
L H L ,4.65625
H ,0.3575129533678756
M M L L M L L L L L L M L M M L M ,0.48780487804878053
M ,0.0
L L M L L L L L M H M L H M M M H M M M H H M M M M H H M M M M M H M M M H M M H M M M M M H H M ,0.2647058823529412
H L ,1.28
M M M M M H H M M H M M M H M M M H M M M M H H M M H H M H M M M H M ,0.3
H ,0.4310344827586207
L ,0.49427917620137296
L ,1.884961884961885
M H M L L ,0.021108179419525065
M M M ,0.47124047124047125
L ,0.7150259067357512
H L H M H ,0.7777777777777778
M M ,0.5869565217391305
H ,0.12328767123287672
L M M ,0.3772455089820359
M ,0.275
L L ,0.28169014084507044
H M M M M M M ,0.13220338983050847
M H H M H M M L M M L L M M M L H M H M L M M M M M M M M L M M H L L L L L M L L L M M H L L H M M M M M M H M H H M H M M H H M M H M H H H H H H H H H H M M H M M M H M H M M H M M H H L M M M M M L M M M M L H H H M M L M M L L L L L M ,0.6097560975609757
L L L L L H L L L L H L L L M M ,2.7720000000000002
M H M ,1.2
M ,4.580474934036939
H M M M ,0.16735966735966734
M M ,0.7491525423728813
L L ,1.1917098445595853
L M H H M M ,0.23076923076923078
M M M L L H M M L L H ,0.0
M M M ,0.8
M L M M M M L M L H M H M ,0.2765957446808511
M ,0.23218997361477572
M L L M L M M ,1.795774647887324
H H ,0.04406779661016949
L L ,0.12356979405034324
H L H M M M L M H ,1.6296296296296295
H H M H H H M H H H L M M M M M M M H H H M M M L L M L H M M M H M L L L H M M M H M H H H L L L H M M M H M M M M H M H M H L H M M M M M H M M H H H H H M H M H L M L L M L L M H M M L M H H M M M M H L M M M M H M M M M M M M H M L L M M L L M M M L M L M H M L M L M M M M M M L M L M M M L H L H L L L L M M M L ,0
L ,1.8123569794050343
M L L M H L L L M H M L L M M L ,0.023908523908523906
L L L M M M H ,0.09733487833140209
M ,0.0
L L M M ,4.953216374269006
M L M M L M M M H L H H H L M M H L L L L H M H M M L M L M L M L M M L H M H H M M M M L H M H L L H L M H H L M M L M H L H M H H L L M L H L M M L H H M H L H H L L L M L L M M M H M H M M H M M M M H M M M M M M M M M M M M M M M M H M M H M M M ,2.0
H ,0.47124047124047125
H M ,0.12328767123287672
H H M M M L M ,0.27586206896551724
H H ,1.0391061452513968
H M ,4.0
H ,1.2661417322834647
H H M ,0.0
H M M M M H L L L M M M M L M L H M H M M M M L M M M M H M M H M M M M M H H M M H H M ,0.20547945205479454
M L H H H H ,0.9090909090909091
M L ,0.16886543535620052
H L H M M M M M M L M L H H M M H L M M L M H H M L M M H ,0.5
M ,0.1732283464566929
M ,0.27999999999999997
H M M H L M M M M M M M H M M L M M M M M M M L H M L M L M H L L H H L H M H M H M M L H M M H M M L M M M M H L M L M L M M M M L M ,0.16666666666666666
H ,0.3165354330708662
H L ,0.28767123287671237
L ,0.10393258426966293
M H M M M M H M M M H M H H M M M M M M M M M M H M H M M M H H H M H ,0.08383233532934131
H L M ,0.0633245382585752
M ,0.5333333333333333
M ,0.7826086956521738
L H ,8.852941176470589
L ,0.0
M ,0.7058823529411765
H H H H H M M H H L M M M L L M H H L M M H M M L M L H M M M M M L M M M M M M H M ,0.0
H H H H H H H H L ,0.8
L L ,0.35294117647058826
H ,0.2898550724637681
M L L L ,0.0
H L L M M L M H L M H M L M M M M L M L L M L M L L M M M L L M L H M H ,0.0
M M H H ,0.6070038910505836
M M M L L L L L M L M L H L M L H H M H M L M H L M H H M H M H L H M M H L L L H M M H H M M H M M M M M M H M M M M M M M M H M H M M M H M M ,0.0
M ,0.24713958810068648
M L ,0.989010989010989
H M H L M M H H H H M H H H H H M M M M H M M M M M M M M L M M H H M M L M M M L L L M M M L M L M M M L M H M M M M L M M M L M M L L L L L L M M M M L M L M L L L L M ,0.08484848484848484
L H H M M M M L L H L M M L L H H H L M H M L L M M M M M L M H H H M M H M M M M L M M M M M L L M L H M M M M M M L H H H M M M L L H H L L L M M ,1.853448275862069
H M H M H M M M H M M H M M H M H M M M H M H H H M H M H M H L M M L ,0.9416058394160585
H ,0.8246708246708246
H M M L L L L M L M M M L L ,3.5555555555555554
H L L ,0.1111111111111111
L L H L M L M L M L M H H H M M M M H M M M M M M M M ,0.07636363636363637
H H M M ,5.1
M M M H ,0.2
L ,0.2945252945252945
L M ,2.1018181818181816
H ,8.176129779837774
H L M M M M M M M M M M M M M M M M M M H M H H M M M H M M H M M M M M M H H ,1.6521739130434783
M H H H H H H M M M H H H H H M M H H H M M M M M H M M H H M H M M H H M M M M H H H M H H M M H H ,0.27158774373259054
H L H M L L L M ,1.1191961191961193
H L ,0.7317073170731707
M ,0.7385826771653543
L ,7.8048780487804885
H M M M ,0.8
H ,3.1764705882352944
L ,0.24647887323943662
M ,1.6379310344827587
L ,0.9533678756476683
M ,0.2945252945252945
L ,1.5315315315315314
L ,0.0
M ,6.383575883575883
H H ,0.8923357664233577
H M M M M M H H H H M M H M ,0.35
H ,2.425196850393701
M ,1.644578313253012
M L M M ,0.7714285714285715
H M M L L L L L H M L M M M M L H L M M L M L M L L M M M M L M L M M M M M H H M M M L M M M M M L M M M M M L L L L M H L H L M L M M M M M H M M M H M H M M H H H H H M M M H H M M M H M M M H H H H M H H H H M H H H H H M M H M ,0.13333333333333333
L H L L ,0.0
L L L L M M H M M H ,1.1842105263157896
M ,0.8297872340425532
H L ,0.08219178082191782
M L M L L M L ,0.2
H H L M M M H M M H M M M M H H ,0.21359223300970875
H L ,2.1951219512195124
H H H ,0.8
M M ,1.5315315315315314
L L L L L L M M M M H M M M M M M M M M M M M M ,0.96
M ,0.9782608695652175
M H L ,1.6683937823834196
L ,6.065420560747664
M ,0.0
L ,0.5196850393700788
L ,0.1732283464566929
L ,7.70236220472441
M H L M L M M M H H H M M M M H M M M L L M L L L M L L M H L L M M L M M M L L M M M M M L M ,0.06338028169014084
L ,0.3165354330708662
L ,6.0359281437125745
L ,0.6235955056179776
L ,1.1191961191961193
H ,0.647955647955648
H M M L L M M M M M M H L H M L M H L M M L L M ,0.3741339491916859
M M M M M M M H M ,0.3036649214659686
H M M M M M ,0.502079002079002
M L H ,0.5294117647058824
M M L L H ,0.9415204678362573
H M H ,0.9655172413793104
L M M M M M M ,0.2222222222222222
L ,0.28832951945080093
M L L M H M L L H L L ,0.3
H ,2.888888888888889
M L M L ,0.2669902912621359
H M L M M H ,0.0
H H H L H M L L L L M L M M L H L L L L L L L M L L M L H H H L L L L M M L L L M H M H M M M H M M M M M M M M M H M M M M M M M M H M M H M M M M M M M M M M M M M ,0.45454545454545453
M L L L L M L M ,0.854368932038835
H ,1.40045766590389
M ,0.2222222222222222
L ,0.647955647955648
M M ,0.17671517671517672
M ,0.2110236220472441
H ,0.2121212121212121
L L M L M L ,0.30841121495327106
M M M M M L ,0.12195121951219513
M L L L M L ,3.7777777777777777
L ,0.4310344827586207
H L H H ,0.04587155963302752
L ,0.5196629213483146
H ,0.33939393939393936
M H ,1.1355735805330243
M M L L H L M M L M M H M M H H L M H L M M L M L M H L ,0.7222222222222222
M M M M M M M M M M M M M M H M M M H H H H M M M M M H H M H H H ,0.49119170984455957
M ,0.0
L L ,0.23562023562023562
M M ,0.14345114345114343
M ,7.843373493975903
M ,0.0
H M H ,1.0
H ,0.5301455301455301
M ,0.7068607068607069
H ,1.92
M ,0.005474452554744526
M ,10.77962577962578
H ,0.6070038910505836
H ,0.7096774193548387
L L H L M L L M H M M L H H M M H L H H ,0.0
M L L L L ,0.0
L H ,0.3795180722891566
M ,0.28832951945080093
M L M M M H M L L L H H L L L L M M L M M L L H L M L L L M M M H M M M M M M M M H M H H M M M H M M H M M H H H M M M M M ,0.0
M ,0.8246708246708246
M M M M H ,1.1191961191961193
M L L L L L M M ,2.3834196891191706
L L L ,0.2757821552723059
H ,0.11781011781011781
H M M H M H ,1.7276264591439687
M ,1.3571428571428572
L ,0.0
H ,0.7657657657657657
L ,0.8661417322834646
M ,0
M M ,0.1388888888888889
L ,1.0211267605633803
M L L M L H L M M M L M H ,5.121951219512195
H ,0.049180327868852465
L ,1.7105263157894737
M ,0.6330708661417324
M ,0.0
M ,0.5346534653465346
H ,0.9411764705882353
H ,0.20560747663551404
M M ,0.12356979405034324
M ,0.4310344827586207
M ,1.0760869565217392
H M H M L M M M M M ,0.29696969696969694
M M M M M M H M M M M M M M M M M M M M H H H M H H H M H H M H H H H H H H H H H H H H H H H M H H M M H H M M M M H L M M M M M M M M M M H M M H M M M M M M L L M M M M L M M M L L M L L M M M M M M M L M L M L M L L ,1.0666666666666667
H ,0.0
H H ,0.025454545454545455
M M M ,0.3575129533678756
L ,1.7710843373493974
H L M ,0.07058823529411765
L ,0.020467836257309944
H H M M H M H M H H M H H M H M H M H M H H M M M H H M M H M M H H H H H M M M M M M M H M M H H M M M ,0.0058411214953271035
H ,0.9444444444444444
M M M M H H H H M H M M M M H H H M M M H M M M M H H M H M H M H M M M ,0.0
H ,1.0714285714285714
H M M M ,0.37250554323725055
M M H M ,0.3108108108108108
M H H H M M H H M L H L M M M M M L M M M L L M L M L M H M L M L L M H M M M M M M M M L H M M L ,0.512249443207127
M ,3.0
L L ,1.237006237006237
H ,0.0
H ,0.5142857142857143
M ,8.117647058823529
H M ,0.6666666666666666
H M M M M L L L L M L L H H M L M M L L M M M M L M M L L L M H M M M M M H M L M M M M ,0.11408450704225352
H ,0.3
L ,0.10554089709762533
M ,2.7433070866141733
H M ,1.0602910602910602
L L L M L L L M L L L L H H M M L L ,0.12574850299401197
M M ,2.4893617021276597
H ,0.7385826771653543
L L L ,0.5405405405405405
H H M M L M ,0.10948905109489052
H H M H ,0
H H H H H M H M H H H H M H H H ,0.03802816901408451
H L L M L L H M H ,1.55
L L L L L L L L L L L M ,0.35555555555555557
L L L M M L M L M L H L M L L H L L L L L M M M M H M M H ,1.8327402135231317
M ,0.07058823529411765
M ,0.10554089709762533
H H M ,1.4835164835164836
M ,0.14760638297872342
M ,0.16019417475728157
M L L L M H L L ,0.55
H L H L M M H M M M M H ,0.17391304347826086
M M M M M M M M M M L M L L M L M L L M M L M M M M L L L M L M M M L L M L M M M M L L L M L M L M M L L L L L M L M M L H H M H H M M M M M M M H H L ,0.15789473684210525
H ,0.2765957446808511
M ,0.47668393782383417
M H ,1.3130820399113081
M ,0.23562023562023562
H L L L M L L L L L M L M L M M H M L M L L M H M ,1.3
H ,0.45727482678983833
M H M M M ,0.09836065573770493
L ,1.4726264726264726
H H L L M L M ,1.452755905511811
M ,0.4157303370786517
H ,0.647955647955648
H M ,0.2110236220472441
H H ,0.5240174672489083
M ,1.15
M ,0.5301455301455301
M ,0.7657657657657657
H H L M L ,0.3295194508009153
H L M M H L H L ,0.5603112840466926
H H ,0.7590361445783133
L ,2.456140350877193
L ,0.6206896551724138
M L M L L L L ,0.0062176165803108805
L L L L H L L M M M M M M M M M H M M H ,0.15789473684210528
M ,1.455056179775281
M ,1.9188829787234043
H ,0
M L L M L L L M L L L H L L M H L L L M L H ,1.6
M ,2.1205821205821205
H L L L H L L L L H M L H L L M L H H L L L H ,0.34782608695652173
H H H H M H M M M M H M M M M M M M M H H M ,0.8888888888888888
M ,0.0
H L ,0.4581818181818182
M L L M M L M H L M L M H ,6.134545454545455
L ,0.0
H M ,1.4113557358053301
H ,0.23834196891191708
M ,0.28368794326241137
H ,4.123354123354123
M ,0.24713958810068648
M ,0.8297872340425532
M M L L L M L L ,0.043795620437956206
L ,0.6593939393939394
L L L L ,0.8888888888888888
M H L ,1.0013860013860014
L ,0.6486486486486487
H L L L L L L L L L L L L M M L L M H M M M H M H M H M M H M M H M M M M M M M M M M ,0.6666666666666666
M L H L ,0.35343035343035345
M ,0.45308924485125857
M ,0.10676156583629892
M L L M H L H ,0.55
H M M H H M H ,1.1917098445595853
H M L M H H M M H L H M ,0.47368421052631576
H M M H M M M ,0.4310344827586207
L M H M ,0.4310344827586207
L ,0.9680851063829787
M M ,0.8865435356200527
M ,1.826056826056826
M ,0.6
H M ,0.9563409563409563
M M M ,0.0
L L H ,0.37994722955145116
M ,0.09782608695652174
H ,0.11917098445595854
H ,0.20547945205479454
H M H M M L H L H M L L L M M L H L M M M L M M H M M H L M L M M H H ,0.16438356164383564
H ,0
L ,0.20785219399538105
H L L M H M M M M H L M H L L M L M L H L L L M L L L L M M H H M M M M M M M H M M M M M M H M M M M M M M M M M M M M M H ,0.25806451612903225
M ,0.2765957446808511
M ,0.4112149532710281
M H ,0.3054545454545455
M L H M M ,0.21517671517671516
M H M L M M M H L L ,0.7915742793791575
M ,2.210526315789474
L ,0.0
L ,1.4
H H H M H ,0.36363636363636365
L M L M L M ,0.765072765072765
H ,0.08187134502923978
L ,0.6787878787878787
M M L M H M M M H M M L M L M M L L M M H M L L M H H H L M M M M M M M M M M L M L M ,1.8992125984251969
L ,1.3403141361256545
L L M L L H M L H M L L M M ,2.2
M ,0.14492753623188406
L ,2.2383922383922386
L M ,0.20560747663551404
