Topic,Words
0,0.095*everything,0.062*believe,0.062*i,0.061*for,0.053*thats,0.045*done,0.042*ever,0.041*well,0.037*it,0.035*looks
1,0.130*used,0.069*for,0.063*i,0.055*almost,0.048*ever,0.042*everything,0.041*android,0.041*well,0.041*intuitive,0.038*thanks
2,0.075*probably,0.065*and,0.061*suffering,0.060*for,0.059*the,0.057*perfect,0.050*6,0.047*on,0.044*update,0.040*thats
3,0.142*everything,0.071*well,0.070*perfect,0.067*believe,0.052*so,0.049*is,0.041*long,0.037*done,0.033*to,0.032*stars
4,0.097*can't,0.079*ever,0.071*it,0.046*thanks,0.045*done,0.042*so,0.039*6,0.036*and,0.033*on,0.032*this
5,0.079*it,0.071*almost,0.054*so,0.053*long,0.052*i,0.051*new,0.049*the,0.049*official,0.041*absolutely,0.035*thanks
6,0.071*thats,0.059*to,0.054*on,0.043*done,0.042*great,0.038*been,0.037*android,0.036*nice,0.035*does,0.030*absolutely
7,0.087*everything,0.075*well,0.072*long,0.048*almost,0.045*i,0.039*to,0.038*so,0.036*probably,0.035*ever,0.034*and
8,0.105*so,0.062*looks,0.062*thanks,0.049*use,0.043*android,0.043*is,0.042*the,0.035*works,0.032*been,0.031*it
9,0.075*absolutely,0.070*is,0.059*stars,0.055*android,0.049*the,0.046*update,0.046*does,0.035*so,0.035*i,0.035*for
10,0.130*use,0.079*perfect,0.073*long,0.071*this,0.071*used,0.050*ought,0.047*version,0.041*does,0.039*probably,0.038*wonderful
11,0.094*been,0.078*does,0.059*a,0.049*official,0.049*ought,0.043*for,0.039*wow,0.038*suffering,0.035*new,0.035*looks
12,0.070*perfect,0.055*absolutely,0.055*best,0.052*almost,0.051*this,0.051*wow,0.045*i,0.044*thats,0.044*wonderful,0.040*stars
13,0.071*is,0.070*long,0.066*use,0.066*perfect,0.059*looks,0.050*used,0.046*so,0.042*probably,0.040*this,0.039*for
14,0.088*new,0.084*is,0.072*for,0.047*believe,0.040*wonderful,0.038*a,0.037*ever,0.036*used,0.035*this,0.032*so
15,0.090*is,0.081*with,0.065*android,0.064*and,0.050*thanks,0.050*new,0.043*to,0.042*wonderful,0.033*a,0.028*works
16,0.114*great,0.090*update,0.057*wow,0.055*believe,0.055*everything,0.055*is,0.049*and,0.046*long,0.045*intuitive,0.036*been
17,0.083*nice,0.081*and,0.058*stars,0.056*with,0.046*probably,0.045*can't,0.039*the,0.037*wow,0.036*version,0.033*ought
18,0.084*material,0.081*is,0.073*used,0.072*thanks,0.048*probably,0.046*thats,0.045*absolutely,0.043*almost,0.038*ought,0.037*suffering
19,0.087*it,0.062*been,0.062*ever,0.056*and,0.056*well,0.047*believe,0.039*probably,0.039*perfect,0.038*intuitive,0.034*wonderful
