tested against android level 17,o,2013/2/15,,
required update to 36,b,2013/2/15,,
test take care to reset the input field on each test,b,2013/2/15,,
this fix new lint warning and improves security,b,2013/2/15,,
prepare release 131,f,2012/11/07,,
updated polish translation,f,2012/11/07,,
set on main window,f,2012/11/07,,
prevents automatic with possibly sensitive data being displayed in recent menu,b,2012/11/07,,
fixed deprecation message in test,b,2012/9/18,,
also build test against,f,2012/9/18,,
prepare release 130,f,2012/7/09,,
make main layout scrollable,b,2012/7/09,,
this make the usable even the screen is too small for the complete dialog,b,2012/7/09,,
only save the last used site address not exiting via the copy button,f,2012/7/09,,
if the copy button is used it is more likely that the user will enter a new address loading the next time,b,2012/7/09,,
in this case the new feature is more helpful,o,2012/7/09,,
removed confusing on input,f,2012/7/09,,
enable on,b,2012/7/08,,
some history fix use default android layout for list fixed saving duplicate entry perform database update in the background,b,2012/7/08,,
auto suggestion for domain name,b,2012/7/08,,
the previously used domain name are stored and presented to the user auto suggestion,b,2012/7/08,,
tested with android 41,o,2012/7/08,,
some cleanup for the previous merges,b,2012/7/08,,
package structure,b,2012/3/21,,
more lint optimization added icon fixed small performance fix by using instead of new integer,b,2012/7/08,,
ignore deprecation warning of,f,2012/6/13,,
use real instead of device theme,b,2012/6/13,,
also fixed button not being disabled initially,b,2012/6/13,,
use theme on android 3 and later,b,2012/6/07,,
some string cleanup,b,2012/6/07,,
store the domain part of the,o,2012/5/31,,
release 123,f,2012/5/18,,
project configuration change introduced in 140,b,2012/5/18,,
android lint fix,b,2012/3/16,,
release 122,f,2012/1/16,,
release 121,f,2011/9/28,,
fixed license text,b,2011/7/01,,
release 12,f,2011/6/30,,
add and eclipse project setting,f,2011/6/30,,
remove unused resource string,b,2011/6/30,,
move all dimension to resource file,o,2011/2/09,,
bumped version to 11,f,2011/2/08,,
limit max,b,2011/2/08,,
width on large screen,b,2011/2/08,,
galaxy tab,b,2011/2/08,,
set copy button inactive unusable,o,2011/2/08,,
updated,f,2010/12/14,,
use density independent pixel,o,2010/12/13,,
set a style license for the source,f,2010/12/12,,
update password hash on text change and get rid of the generate button,b,2010/12/12,,
do not allow empty password this make no sense at all,f,2010/12/12,,
and is not supported by the implementation,o,2010/12/12,,
implemented some quirk handling character,b,2010/12/12,,
handle send event for,b,2010/12/10,,
translation,o,2010/12/09,,
display toast notification password wa copied to the clipboard,b,2010/12/09,,
highlight on missing input,f,2010/12/09,,
enabled copy to clipboard button,o,2010/12/09,,
somewhat working password hash implementation,b,2010/12/09,,
still ha problem with character and very short input password,b,2010/12/09,,
changed to dialog layout added resolution dependent icon,b,2010/12/08,,
added a simple icon,b,2010/12/08,,
set android 22 build target,o,2010/12/08,,
basic implementation of password hashing,b,2010/12/08,,
