simplified the by defining language code mapping,f,2014/4/09,,
ignore backup file in git,o,2014/4/09,,
added configuration and updated all translation,b,2014/4/09,,
prepare release 139,f,2013/12/27,,
fixed test updated to latest run test against android 44,b,2013/12/27,,
better input checking to avoid null pointer exception,o,2013/12/27,,
the default send intent should include the extra text there is not guarantee it doe,b,2013/12/27,,
