Topic Index 1,Topic Index 2,Topic Similarity
18,14,17.647058823529413
0,7,11.11111111111111
1,18,11.11111111111111
6,9,11.11111111111111
8,8,11.11111111111111
10,6,11.11111111111111
12,16,11.11111111111111
2,3,5.263157894736842
3,1,5.263157894736842
4,5,5.263157894736842
5,11,5.263157894736842
7,4,5.263157894736842
9,10,5.263157894736842
15,2,5.263157894736842
16,0,5.263157894736842
11,12,0.0
13,13,0.0
14,15,0.0
17,17,0.0
19,19,0.0
