# deletions,date,commit message
36,2016/2/27,minor remove some from the rt loader class
1,2016/2/26,upgrade to
38,2016/2/26,use a context menu for the in the reader tab
1,2016/2/25,improve the placement of the menu in the reader
3,2016/2/25,what am i doing
8,2016/2/25,reverted change making the suggested word
1,2016/2/25,try to fix annoying bug with the suggested word list popping up
10,2016/2/25,improved some issue related to suggested word
14,2016/2/25,database upgrade new file
2,2016/2/25,new version 120
3,2016/2/25,fix to handle a blank filter no filter
5,2016/2/25,issue 5 show strict rhyme first
34,2016/2/25,issue 4 use a instead of an to lookup a word from the reader
34,2016/2/25,the is intended for action which modify the content
13,2016/2/25,upgrade to 2320
3,2016/2/25,minor cleanup
121,2016/2/25,rework the layout of the result list fragment
2,2016/2/25,new version 110 with filter feature
139,2016/2/24,filtering
10,2016/2/24,moved rhymer and thesaurus class to a common rt package
4,2016/2/22,new version 107 update suggested search word based on entered text
