# deletions,date,commit message
3,2015/2/28,Removed whitespace at end of file
37,2015/2/27,move workout handling into own methond StartActivity::prepareWorkout()
4,2015/2/27,Make sure internally generated locations are always saved. Should hopefully fix e.g RunKeeper
40,2015/2/27,lastest translations
2,2015/2/27,Added android-maven plugin to allow publishing of hrdevice aar file
2,2015/2/27,Moved GraphView dependency back to app module
1,2015/2/26,Lowered targetSdkVersion to match that of the other builds
23,2015/2/26,removed dependencies from 'app' that are now in 'hrdevice'
2,2015/2/26,Copied heart rate to own module
117,2015/2/25,fixed a cursor position bug (time was computed based on a wrong value) fixed checkstyle FindBugs PMD bugs
46,2015/2/25,Moved inner class declaration to bottom of class
33,2015/2/25,Grouped inherited Android methods
19,2015/2/25,Moved OnClickListener's to the top with the rest of the variable definitions
6,2015/2/24,pull latest translations
8,2015/2/24,add sentances for activity started etc...issue #189
58,2015/2/24,rename Scope.WORKOUT to Scope.ACTIVITY
14,2015/2/24,rename cue_activity to cue_interval
1,2015/2/24,fix use of DEFAULT
19,2015/2/24,Fix untranslated strings issue #189
12,2015/2/23,issue #189 untranslated parts of gui
8,2015/2/23,issue  #130 fix scrolling of pending uploads
3,2015/2/22,set language on tts too
16,2015/2/22,issue #190 - allow setting of audio language independent of phone language settings
6,2015/2/22,reinit tts so that new settings take effect
6,2015/2/18,v1.42
