App,Store,App ID,Review ID,Country,Version,Rating,Date,Author,Subject,Body,Translated Subject,Translated Body
RunnerUp,Google Play,org.runnerup,Z3A6QU9xcFRPR0lsZTJhZFBHdzFia0FnMmdXNWpTU01pQVYwbUtLU0t0bVlxTEd4ZlhvUDF1c2I5YTZWcUhpUUVQeFBsSy1FUDRVTWtsQjJZallIcFE0dEE,English,,5,2015-10-04,Mit Humor,Great App w some improvement potential,Pulse Heart Rate Monitor H7 works w S6. Improvement suggestions: 1. add altitude graph and statistics. 2. Show major statistics (current and avg time/speed/dist/hart rate) in big chars while running.,,
RunnerUp,Google Play,org.runnerup,Z3A6QU9xcFRPRnNtMkxpY2hVRzluLWJJWFdoMzBLbkpGeDJMYjJMSGxxRlAwYkhsS0VHSVVxNHRoeVpKb1BtdlY4T2FsNk1RQks1RFpMWDJ3eVB0eGVKZXc,English,,5,2015-09-28,Andrew Bohanna,Best for custom intervals,"I've tried all the big running apps but none (even when premium) offer the level of customisation I'm looking for with my interval training. The gui may not be pretty, but it does everything I need.",,
RunnerUp,Google Play,org.runnerup,Z3A6QU9xcFRPRjM1VG1EOFJFWDFIMlc4SkZyTmcyaVBXTmJ4S3lvd2xUWVY4a1lYem9pdmU0UXJKNVp5eGY0cGdaTHlkRjZyS2JoalFiWnJqSEZoOVBqOFE,English,,5,2015-09-27,Yoppy Hidayanto,Best running training app,"Functionality-wise it's the best app for running. It has features that even some of the expensive / premium apps don't. Not only it's free, it can easily syncs to other services (garmin Connect, strava, you name it..)",,
RunnerUp,Google Play,org.runnerup,Z3A6QU9xcFRPSDRCQjdZMzdsTFRMLTlUUkZxRm9SRE5xMU5ZQWVUNEJFeHU3aHVwX0NucTlZTWxMeGVDX0JJeWUwZVloaUFDU0tJdXJzbUtudlk0bE5MNnc,English,,3,2015-09-25,Rex Lee,hope to return map to google',It's too bad accurate data of map trace and graph after change map.,,
RunnerUp,Google Play,org.runnerup,Z3A6QU9xcFRPRXdCNXVRbDhlcERGTWxFTjF2TkZ3QmpKd3NIV1NWXzh4UlBRVDVYMXJkcDE4ekxsQVp3WVNNM2c1Rm5YQ0FFSVl1eTE3SHJCNEJ6dDN5Qmc,French,,5,2015-10-04,Alex Blazquez,"","Gratis, sin publicidad y opensource!! Ademas incluye el entrenador por voz para regular la velocidad  Que mas se puede pedir!!!",,
RunnerUp,Google Play,org.runnerup,Z3A6QU9xcFRPRnN0Mk1mdTFOaVhpOF9zdzNzWW1aZTNrWDM4SnB2VW45X1p5OFdrRk9XVzV4MGhOYXlyM05EUTRmQ2s4VENkZjRUTVgxcEtYNWQyZkU4YVE,French,,5,2015-09-15,Samuel Perrot,"","Excellente alternative à ismoothrun. Parfait pour la programmation des entrainements et liaison avec garmin connect sans soucis. Allez, une suggestion : la gestion des équipements depuis l'App.",,
RunnerUp,Google Play,org.runnerup,Z3A6QU9xcFRPRk9OLUJjNlU3MUpRcHdaY19oeUhfNkZlRlBrWWtlS1A1dnRaUlhyM2RHUmNPOGNkN1NscElDb2F3LXpNRm1mX0ZkeEhuMy12TGFGTUFOclE,German,,5,2015-09-20,Martin Schleyer,"Viele Funktionen, perfekt konfigurierbar","Bietet alle Funktionen, die man von einem Running Tracker erwartet, und das ohne nervige Werbung oder Zusatzabos. Unterstützt problemlos Bluetooth LE Herzfrequenzmesser, da kann sich Runkeeper mal eine Scheibe abschneiden...",,
RunnerUp,Google Play,org.runnerup,Z3A6QU9xcFRPRjBLcUVnbWxReVhWZlM4RVdqakJZX1dzUndFRVBIeUcyMEVrbndzSTRhZWFJWHRQbE1Pa19ES0lmYlpiODRGMFZsSy1TS0JDeHc5R3JqWmc,Portuguese,,5,2015-09-21,DANIEL AZEVEDO ALVES MACHADO,"",O melhor. Apesar de estar em inglês somente. O único que permite compartilhar os dados com qualquer aplicativo,,
RunnerUp,Google Play,org.runnerup,Z3A6QU9xcFRPRmJnZUQ2OW1peTNSTWllYTJ1M3pVV1BFZkV2TDhmdlg3VTEwN1FCX3V5OUgtclRrbmhVeUhDTVFuczJtS3VHYlJaeldjQWFGMTFXZUN6bUE,Russian,,5,2015-09-22,Evgenii Lepikhin,"",Это просто находка!,,
RunnerUp,Google Play,org.runnerup,Z3A6QU9xcFRPRm0xWm90XzJGS0NiRlVaV2U5Rzk1TzBQR3JYeHhDeEVRNmx2dTloU0tOR0JJMGJJS3VPVDFja0R3cGRXRlRNVnQxTnpvR2dXOF9VbW5KZ1E,Swedish,,5,2015-10-02,Mats Lindquist,Bäst och...,"...mest tillförlitlig av de appar jag provat. Nu, är kartorna mer översiktligare.                                    Jag kan inte ladda ner från Garmin connect. Hur gör jag det?",,
RunnerUp,Google Play,org.runnerup,Z3A6QU9xcFRPRlo5cG5wZ2VfdzhaMndyZWRUMG9tSzJsckFtclRLbzgzdmt5dmdBbUNPSXU5MjBzOXdNZXRKc3dyWEhzc19fdFVZNjZFbUV4TzNROGNhSXc,Swedish,,5,2015-09-16,Annica Oreland,"",Fyller mitt behov och mycket mer därtill!,,
