Topic Index 1,Topic Index 2,Topic Similarity
1,1,17.647058823529413
2,0,11.11111111111111
6,2,11.11111111111111
8,9,11.11111111111111
9,3,11.11111111111111
11,10,11.11111111111111
16,6,11.11111111111111
3,8,5.263157894736842
10,11,5.263157894736842
19,4,5.263157894736842
0,5,0.0
4,7,0.0
5,12,0.0
7,13,0.0
12,14,0.0
13,15,0.0
14,16,0.0
15,17,0.0
17,18,0.0
18,19,0.0
