Topic Index 1,Topic Index 2,Topic Similarity
0,13,17.647058823529413
4,2,17.647058823529413
2,5,11.11111111111111
3,1,11.11111111111111
6,11,11.11111111111111
10,6,11.11111111111111
11,8,11.11111111111111
17,17,11.11111111111111
1,16,5.263157894736842
5,0,5.263157894736842
7,15,5.263157894736842
8,3,5.263157894736842
9,18,5.263157894736842
13,7,5.263157894736842
14,4,5.263157894736842
16,9,5.263157894736842
19,14,5.263157894736842
12,10,0.0
15,12,0.0
18,19,0.0
