Topic Index 1,Topic Index 2,Topic Similarity
19,0,2.0
0,2,1.0
1,6,1.0
2,3,1.0
3,9,1.0
4,8,1.0
5,12,1.0
6,7,1.0
7,14,1.0
8,10,1.0
10,15,1.0
11,5,1.0
12,13,1.0
13,11,1.0
15,16,1.0
9,1,0.0
14,4,0.0
16,17,0.0
17,18,0.0
18,19,0.0
