if the made this i wish you cloud ad on this a weather radio by the state of that a new to this i love the but it do not the city or the name of town that are the bald weather just the that is in the state that is in and i love it be it is 100 free to get this and i love weather,o,2014-05-31,Andrew Brown,5
click open nothing but a white blank screen,b,2014-05-09,Jason Barnes,1
the widget all it say is widget loading,b,2014-05-09,Jason Barnes,1
ha really done anything,b,2014-05-09,Jason Barnes,1
just an for entire state you should put the county next to it for easier viewing,f,2014-04-20,Samantha Good,2
first time,o,2014-03-17,randall Owen,4
