# deletions,date,commit message
2,2013/7/02,Update to version 1.2  Release notes: - Not using the ActionBar anymore. Use a right drawer menu instead. - Better video playback implementation ability to do fullscreen video playback. - Code cleanup improvements and optimizations.
92,2013/7/02,Add functionality to drawer menu
1,2013/7/02,Add TODO and cleanup
33,2013/7/02,Organize preferences
