App,Store,App ID,Review ID,Country,Version,Rating,Date,Author,Subject,Body,Translated Subject,Translated Body
Tinfoil for Facebook,Google Play,com.danvelazco.fbwrapper,Z3A6QU9xcFRPRi0tRTVxNUlzOW1Mem9pLTZ3SEhCMGRUQWtaME1TLTBDV1FQSm9qdGFnQlBlRENhRkFnbVdyUEl2WWl6TzlxZVhWa29Fd0xnU1NrYUtiWkE,English,,3,2014-12-02,kirsty phoenix,"",I did love it until the latest update.... Now the pictures are way too big please fix as I don't want to use another app!!,,
Tinfoil for Facebook,Google Play,com.danvelazco.fbwrapper,Z3A6QU9xcFRPR3haRV9OVEFSR19uVkg5YkIxMkF2ZlNqTmktY3RTWEx4b2JuT2ttd3I3WHNvT2JtX0hxRVZKNEFybDJsNGN6bmxtX3ZYWlRMTFJOb1NDNlE,English,,5,2014-12-02,pmc Retro,Excellent,"Great app, does what it says, does it well.",,
Tinfoil for Facebook,Google Play,com.danvelazco.fbwrapper,Z3A6QU9xcFRPSFlCUm5NQnpSVFpoRWR5Nld5ZEcxVl8tZEkyWENRck1CMk1NN0pGXzVYbDJzTzAxRm1yYUlqcExEYldMSW1HX3owWU1IaWZmWGlORGNZY0E,English,,5,2014-12-02,Michael Gates,The tinfoil,keeps the aliens out of my brain.,,
Tinfoil for Facebook,Google Play,com.danvelazco.fbwrapper,Z3A6QU9xcFRPRmhkcURWTFdMWlBOcnNOUnpublA2eUNROVhzQWE5bzRhOTduc3NlSG1oS3hZWGJvOTNESHl1djk1bzdvbXBHQkprT01MX2duV1pKa0E3SlE,English,,5,2014-12-02,Rouge Leon,Very timely,The FB official app is one big hell of a resource hogger. This app (Tinfoil) does a great job of insulating FB from the device. Though there is a price to pay - no notification on your mobile notification bar. But that is part of the appeal - no interference when u don't want.,,
Tinfoil for Facebook,Google Play,com.danvelazco.fbwrapper,Z3A6QU9xcFRPRXpIT2VPOUFRQVRyZDBvSzhMalZ6WU9RQzlCbUZ2bnNSQnBMeUg3UUF6dm03S21uZXl2bmtaMXhmQ2F6VGtmN0NsQjR0NDd1ZEI1WmNWS1E,English,,5,2014-12-02,Ateeq ur Rehman,Best,Latest update fixed every thing.,,
Tinfoil for Facebook,Google Play,com.danvelazco.fbwrapper,Z3A6QU9xcFRPRVoxaloyME9Vak05YXFYcXBqY1hlVmZUMG5ZaVVEdVZ6WXRwMUwtUEQzYnZjdzlFNE0wbkh3em5kR1hqUkhFTWtOZjdsWlZqeHpaU1JoSHc,English,,3,2014-12-02,Jessica J,Better than Facebook's app,Just got the newest update and everything is messed up. Videos are tiny and pictures are extra large without the option to see the whole thing. Please fix it soon!,,
Tinfoil for Facebook,Google Play,com.danvelazco.fbwrapper,Z3A6QU9xcFRPSG5hTkxNNE00MnUzQVc1QUtVeEZwT2V4MGFpWHNDMUtweTF1Znc4UURfbXBDdFVkM05GWlVRN21JQ0dUVkY0ZFlRY0RZQXZtZFNPQ2xuTkE,English,,5,2014-12-02,Jody W,I've been using it for years,Continues to impress,,
Tinfoil for Facebook,Google Play,com.danvelazco.fbwrapper,Z3A6QU9xcFRPSFpTVG16cnJ1YkdrWnQwMl9IY2U4MjcxYkIxY1VkcVlVMmY5NG5VTHZxY281djc4VTFhak1Td0JpcWYtQWhTYWlLTE4zbGl5alB6WDFmM3c,English,,3,2014-12-02,Kyle Van Helmond,Awesome free app,I hated Facebook mobile's intrusive nature. This is an excellent solution. Great application. Most recent update broke picture resizing...,,
Tinfoil for Facebook,Google Play,com.danvelazco.fbwrapper,Z3A6QU9xcFRPR041UjR0MFFvdi1qNVhZOEV3X1pmdW5uSUhqSmZ1NjMzX3d3dnAxSEwzQmVibl9STVp4RGhmbWsxMUM5RWtPcmxMcTh6ZENQUl9kVVhDVmc,English,,3,2014-12-02,Caitlin Eubel,"usually cool, but lately",why are all timeline pictures giant?,,
Tinfoil for Facebook,Google Play,com.danvelazco.fbwrapper,Z3A6QU9xcFRPRWtBTUVtR3o1cEdJZzNWb3dZVFVwNGk4WnZBM2pxbnQxbHVUelVJdGtGaUl1aGVJWnFLM0EyRXJCSG85enZmaTdtX0tVU2RadHNNbFBQZEE,English,,3,2014-12-02,chris connolly,Fix it!,The new update makes all the images zoomed in. It's very irritating!! 5 stars when fixed.,,
Tinfoil for Facebook,Google Play,com.danvelazco.fbwrapper,Z3A6QU9xcFRPSEYyeFpLZjZiQzlfcWx4UFNwSU9FRzh0YU1Jb0VINmNac3F2ZHh5Q0JINnN6eHUwUnZ1YzBISDlKSUItcGNIU1U5RklLSVFQLUczb2F2WUE,English,,3,2014-12-02,Alejandro Mondaca,What's wrong?,Pictures are huge. Please fix this latest update.,,
Tinfoil for Facebook,Google Play,com.danvelazco.fbwrapper,bGc6QU9xcFRPRTR6bFNwNktndmdOS2Z4M2g5dTFoUWhwV2t1STNSTE13anp2aWk5dGZLc2p2aVU1S3F2Nm5WdVcxc1lpMTJiQkVQSnhyWEZ5U3o2d05ZVWc,English,,4,2014-12-02,A Google User,Photo layout,New update breaks layout of photos in news feed.,,
Tinfoil for Facebook,Google Play,com.danvelazco.fbwrapper,Z3A6QU9xcFRPRVJ4OGxZNDdqcGZ6VkVGZk1jQS10N2tlMk1hMnpXc0JvTE05X2Zac195NlJFS0l1aklLdDZUc3RNZjEzVlg4eGd1RHhTUU11cl9GUXRCQWc,English,,4,2014-12-02,Thomas Kreutzer,Best alternative yet,After the last update images do not scale properly.,,
Tinfoil for Facebook,Google Play,com.danvelazco.fbwrapper,Z3A6QU9xcFRPR3lDZ1JOMjIzNEdtVGdUUjB0YmtMR1g2VnpLVTlnb2t4Z1IxQTZMTHEzRVhIM2wwWUJsWGQzQTMyMV9JenUtR3llUHptejFOS1NGOWZscGc,English,,3,2014-12-02,Darren Rushton,Good stuff.,"Been using for a while. Only held back by the mobile site. The pictures are not the correct size in the feed, since recent update. Hope they can fix. I like Facebook not having access to my phone!",,
Tinfoil for Facebook,Google Play,com.danvelazco.fbwrapper,Z3A6QU9xcFRPSFIzdUhnc05wMzZibDJzVzdNaGlKWkFwLW5ocU1uYkFJWDVIS19rSDVfOTZuNER5aVZ2Tm1UT2tvNlRDTWFPbmZ1aXlabXhpOFcwMGFkcHc,English,,3,2014-12-02,Dee Marie,"","Photos are too zoomed in and huge now, can only see half the photo. Fix this, it looks awful.",,
Tinfoil for Facebook,Google Play,com.danvelazco.fbwrapper,Z3A6QU9xcFRPR1ZZWEhGdTJSc3ZIbnVPTnFiVkhvX1hYODJmWTF5XzlLc2VBaXoza3lzbGhyZjdob09taGxLOXpZZEZKQk5tX2hTNUR5TlQxY0RPWWtoRWc,English,,2,2014-12-02,Charla Nabor,Its blah now,Even tho its better than the original f.b. app.. Its little things that don't work.. For me videos won't hardly play.. Can't even type anything without it deleting or not spacing or using all caps.. Can't upload videos.. Its gone down..,,
Tinfoil for Facebook,Google Play,com.danvelazco.fbwrapper,Z3A6QU9xcFRPRWs5UHJ5a2t5LWlsSGhGY1F0NjRvZDhnaDBFM1ExbS1VbHM4ekhEanFyekp2SDJ4ck1aVEg3Y29ldDlpQnRITlh1UkxzTzBNdGsyVEpaSEE,English,,5,2014-12-02,Jesse R,"",Thanks,,
Tinfoil for Facebook,Google Play,com.danvelazco.fbwrapper,Z3A6QU9xcFRPSDMyWEtxUE5LUHB5blF0WWlHUzg0Z1BxWXlJUU5IRjFza29tUDlQVFM0ZW1qNkNYYlE4dGZFSHB1ZFlvZGctOUk0dDhBeHk0XzJCWlo4M1E,English,,5,2014-12-02,James Cridland,Good stuff,"Don't want Facebook helping themselves to your address book, every single photograph you have ever taken, and know what apps you have installed? You'll be wanting this.",,
Tinfoil for Facebook,Google Play,com.danvelazco.fbwrapper,Z3A6QU9xcFRPRkZ4WVFiOThNZWd6VHpDaVFPcy1PMzNFOGtuUGdWbVR0eG5JSGdPNWNFVVZsbW9XS1VTOGZvM0phQUgxUU1JRUk4bnhKZV9KQnkwLWM3d2c,English,,4,2014-12-02,Stephen Eggleston,Photo upload has been broken since 4.3,"Other than that, it's great.",,
Tinfoil for Facebook,Google Play,com.danvelazco.fbwrapper,Z3A6QU9xcFRPRUZyVWdPYVlnWVZ6MjFIejlWR2FsWW12QlJGUzA2bjY2Ykw1RWZqdHlqOC1xbndMclRoS2dYU29tb1l0UzNHejJmT1ktcTdmM3BfVjRncEE,English,,5,2014-12-02,Dave Holland,Just the job,"Works fine, doesn't need the intrusive permissions that the official Facebook app wants. Thanks!",,
Tinfoil for Facebook,Google Play,com.danvelazco.fbwrapper,Z3A6QU9xcFRPR2RweTNka2dOUnM0NXZlUlNfdkd6MkZja0lfUDUwbm9SSzhQV0N2VHV3Vk1NWUNPUUtBVWJ3Ynh1Y2tuY3pTeUltOFF2TFpOcmJOQTVsTGc,English,,5,2014-12-02,Lloyd Dista,Great tool!,There are some glitches but this app makes FB suck a lot less.,,
Tinfoil for Facebook,Google Play,com.danvelazco.fbwrapper,Z3A6QU9xcFRPRUVIZWVzeWEzYUNwWVVpY2VYU0EwM19XMzZlNTdNTlZwVnBTUW1jR2lyRmhZOGdxTFdIbzEwMUdYSm5SZzhXTkdMYlViUVdENmowcW5xLVE,English,,5,2014-12-02,David Leibowitz,Suits My Needs,"With the little I have to do with Facebook, this app is just about perfect.",,
Tinfoil for Facebook,Google Play,com.danvelazco.fbwrapper,Z3A6QU9xcFRPRlpvLUpaUzRFWVE4MzVERGZLcU5RZzAxeWRmbjFOUDIyME5NWEJKaE1RWDZRX1VDTW9fbWhVZDRNWjNiLVhqNnY5a1ljaTV5T1ZTZXdxOGc,English,,5,2014-12-02,Shaik Azaan,Freaking awesome,Hope u can add for tagging friends in comments and entering a new line in comment :),,
Tinfoil for Facebook,Google Play,com.danvelazco.fbwrapper,Z3A6QU9xcFRPSDF6SG9DTTRFell4dlN6WTlROFQ3aUs0WlRUdll5ME05djVQTlJQb2FQZklEODZ5LTVDOWJ1dHl5cUNidDBMZjhxOHY3eTFReGJMWjh0cXc,English,,2,2014-12-02,Shane Enochs,Can't type statuses or comments from Moto X,"This has been going on for a month or so now. The space bar no longer works in Tinfoil. I can type statuses just fine from the browser, but something is wrong with Tinfoil.",,
Tinfoil for Facebook,Google Play,com.danvelazco.fbwrapper,Z3A6QU9xcFRPRlZxMXprUDNsbEZvbHJqbjFtYzhnUUdzdU1kQlowQ3RhelNwRkdnSkp5R3hkNE9SVzY2Wm9PeHllUV8tRTh5VXdlaVY0ZWpmMWNNRWxZTFE,English,,3,2014-12-02,Kushal Adsod,Great app.. update ruined it..,Photos are going out of screen please fix. Also when you open links and after you come back to app the news feed reloads again.. the feed should continue from last location..,,
Tinfoil for Facebook,Google Play,com.danvelazco.fbwrapper,Z3A6QU9xcFRPRkFYNkVMNzBONnRkcHZFRHNVa1FUb3FSaXpPQUdUM3J0bjg1aDJjWTdfdkhVamd0TTY3TDlRTVcwV0NuQmtRRVJyMkdxU3hJX1lXWGZkV2c,English,,5,2014-12-02,Paul Jacques,"",Fantastic wrapper,,
Tinfoil for Facebook,Google Play,com.danvelazco.fbwrapper,Z3A6QU9xcFRPSHdReUdxVU04Z1BBRkpCQ2RXcjNtemJMdGhYR3FSYXZSNzFvS2w3TU9JS2dMS09aRGI3TEZaUmtvbk1nNGRic3lRbWQ1WWQ5T2dOM1VfMlE,English,,5,2014-12-02,Carin Basson,So much better than native app,"Small footprint, not so intrusive. New update required me to set mobile site manually to correct photo display issue. Had a small bug with uploading pics from Gallery App (Samsung galaxy s3 mini), but using a different app to pick the picture worked.",,
Tinfoil for Facebook,Google Play,com.danvelazco.fbwrapper,Z3A6QU9xcFRPRTMwZE1BbnQwVUtXa0hSTDRZZjQwUUVGOWsyNFduZHZ3X2FyOEJJdUtuRE91SHB5Z21jNU1uSGd6QjFfRm5haGl2MHpaZXljY29QdDYxZkE,English,,4,2014-12-02,M. Fady Bassyouni,Like it,Very nice and light application that protects your privacy. Just needs to be faster in loading.,,
Tinfoil for Facebook,Google Play,com.danvelazco.fbwrapper,Z3A6QU9xcFRPSHBmSkQyVlIxaHY1YjU4aEVkYVMyWlBhUDVWVExtaUwzYk1UM2lQbGZZb3BpOVA5R0FaOTdSSkdMMUN6b0NXVm91MVVHS3RwTTlPanBMeFE,English,,3,2014-12-02,Faris,Recent update,"Breaks photos. Photos in my feed are are incorrectly sized, please fix!",,
Tinfoil for Facebook,Google Play,com.danvelazco.fbwrapper,Z3A6QU9xcFRPRTk0MEdlRE81R21mRkxOV1JwdGN1T21TR0RoMEN4eHpvYTJHaElrakVrNk03WW9GU2pKMGIzcHZ6XzdEamdlQlI0WXhSalhKcUJLUHRWSUE,English,,5,2014-12-02,Francisco Galván Reyes,Real Facebook Alternative,"This app is just great, and a real alternative to the Facebook app. This app is light, fast and adverts free. My battery last longer since I have decided to replace the Facebook app for Tinfoil for Facebook, you can also use the app to share links, photos, videos, etc, that you find interesting enough to share on your Facebook timeline from outside Facebook... So thank you developer for this great app!",,
Tinfoil for Facebook,Google Play,com.danvelazco.fbwrapper,Z3A6QU9xcFRPRUhJUTB0eThoZU5TbWRiaHZ1cWU5WTMzNlFVZVJ2MllwbEpSeU1fX19RMjRnWTVqM2laQ2I3emk2MjlDbkg4Y2lBSXZIbFRZZ0hVRDMycHc,English,,5,2014-12-02,Philip Cotter,Love it,It takes much of the frustration and most of the annoyance of using Facebook.,,
Tinfoil for Facebook,Google Play,com.danvelazco.fbwrapper,Z3A6QU9xcFRPRnByTWljOTNJcnZlNVRCcnhSYjc3VDAwNUthSjhaNll6TWZvT0ZHaVNSNWI1czJvRTR3NXBWOWJFVzc4NTBNRngxVFhoLWlUX0gtc3NVV2c,English,,5,2014-12-01,Wahab Hameed,"",No problem so far,,
Tinfoil for Facebook,Google Play,com.danvelazco.fbwrapper,Z3A6QU9xcFRPR0pILW56ZldIQnFLVmpIN2tIaGR3LTgzdnhuaThQTHZ3X1dZOEdNVk40UDRHMGtsdlp4RTV1ek1kdEhMVks0NWwwYlhXYl91MEFaUXRJN2c,English,,1,2014-12-01,Ariane Broome-Hopkins,"Malfunctions ↑, Satisfaction ↓","Can't post photos, can't share them in messages, stickers work HALF of the time, but on the mobile website I can do all of these things. Running Android 4.4.2 Edit: Can't highlight within app, preventing me from pasting links. Can't share anything w/o lag. Can't control where posts go. The FB Onion addition seems to have broken further portions of this app. I love this app enough to provide financial backing once it gets working properly &amp; stops blaming FB code for completion failures when FB mobile works.",,
Tinfoil for Facebook,Google Play,com.danvelazco.fbwrapper,Z3A6QU9xcFRPRV9HeUt4dURxUTVneVprTXd0dTNLaWp6X3RkelpSMkI3eWM5bU9IVW4xUkpMWFBDVjZOcmVndmpNU3FuMDR1UjRvYXNXWVlsVTZQV3ZXbkE,English,,3,2014-12-01,Bhushan Agarwal,Can't upload pictures,Can't upload pictures. Then it will be a 5 star,,
Tinfoil for Facebook,Google Play,com.danvelazco.fbwrapper,Z3A6QU9xcFRPSEhvdlIzODNZamg0eHVqVDQtbVZ3VzVjT09EdC1HbmhrQTY3MTJUNW1hN2tlLWZjaE85WndRNlNRRlNwZDh1elNqLU9Bc0lRNUNXMlJhUXc,Italian,,2,2014-12-02,mentecorpo77,Peggiorata dopo l'aggiornamento,Era l'applicazione di riferimento x usare facebook in maniera leggera. Dopo l'aggiornamento le immagini sono ingrandite e non si riescono a visualizzare x intero. Correggere il bug please.,,
Tinfoil for Facebook,Google Play,com.danvelazco.fbwrapper,Z3A6QU9xcFRPRmg5U1I4WHc4dmgyN0NEV2pLTWplRktKQk5PUFdKQmNjNFNJUEhUdUhJLVMtaHY0Yzhyb28xcHVPSXloZ1lzUy1tanNQYldNZWI1anA4aFE,Italian,,5,2014-12-02,Pietro Monero,"",Eccellente alternativa alla pesantissima app di Facebook,,
Tinfoil for Facebook,Google Play,com.danvelazco.fbwrapper,Z3A6QU9xcFRPRkdaV1AzUHhRVkNiOVZHWjZaemFTR00xV0pzckEzMndLRUNPczB0UUVKeEpWVVBzQmZKYlF0NHJhc1Uyc3RyV1lnLWlzcmNOUWw1MWppTUE,Arabic,,5,2014-12-02,amir al hamad,خمس نجوم رائع,احسن الفيس الأساسي,,
Tinfoil for Facebook,Google Play,com.danvelazco.fbwrapper,Z3A6QU9xcFRPRTBBSmozTWpyVVE1NU9DWGdvb29sZGJjWExTdDlMYWt5SGNzeGtOYWZCbHBaREgydm5yUGhkUnZHaFAxS0R1RmlMRkE3UVJpVThaM1JOT2c,German,,4,2014-12-02,Vanessa Stranz,"",Bilder werden nach uptate viel zu gross angezeigt :( bitte beheben,,
Tinfoil for Facebook,Google Play,com.danvelazco.fbwrapper,Z3A6QU9xcFRPR0k1N042djM5VGtVekloMnVQU3RqWVRvS0lOenl5eTEyblFob1RnaEV2Mkl5b2dpVzIwbl8wX3M1VlJtYWtMVmdkYkMtYkhNNnNuX3dkMnc,German,,4,2014-12-02,Alexander Lindner,Bilder zu groß,Nach dem neuen Update werden die Bilder zu groß angezeigt bitte fixen,,
Tinfoil for Facebook,Google Play,com.danvelazco.fbwrapper,Z3A6QU9xcFRPR0dGNi1UUzloWFJuNnNzdHdWNko3S2pLMGJyMWFvZTVKc3NhYjZOSDFLRkZQNml3VFRCd2JYZjUyUXFSa084TXRlWmZGUWMyM2QxOUZmdFE,German,,4,2014-12-02,Michael Urban,Pictures are too large/big,"After this recent update, the pictures are all larger and bigger so that I can't see the whole one...",,
Tinfoil for Facebook,Google Play,com.danvelazco.fbwrapper,Z3A6QU9xcFRPRXJfaDVKb2VhalRubHVYRS03UVZlV3pWRzFSZ1RlV3dBZEw0RWxtVmlGWGVhajMxMTYtR1YyWUY1TXllZnEzbk5qNjBHYWE0SzZqeXFqYVE,Portuguese,,4,2014-12-02,Nuno T,Light and smooth,"But with the last update, the pics in timeline are huge and we only see the left half..",,
Tinfoil for Facebook,Google Play,com.danvelazco.fbwrapper,Z3A6QU9xcFRPSHFpSi1abUNwWmNERWhMb1F0Y2dCcmtvc3RRQUROMUpyQWJJU0t6d21FVlNRUGVacnI0aThWZjdYLXFjYzJQdnllSmoxdDNnZmFnOFhYUlE,Spanish,,1,2014-12-02,Samuel Armenta Gutierrez,"",Las imágenes en la nueva actualización mandaron todo a la basura.. Tanto que me gustaba....... :(,,
