App,Store,App ID,Review ID,Country,Version,Rating,Date,Author,Subject,Body,Translated Subject,Translated Body
Tinfoil for Facebook,Google Play,com.danvelazco.fbwrapper,bGc6QU9xcFRPR3FuTVl4STFYQWR3cG0zQ2pDU2hqQ29zOHllZGxPQlZFVEl5WGVBNzJ3UTFnNjRpcXVmcndPZFFwNWt4NWJVMVU5YXRiWFFlc3kxaE52dFE,English,,5,2013-07-01,A Google User,not just for the paranoid...,"I've said for a long time that m.facebook is better than the facebook app. Well, tinfoil is better than m.facebook with a few better organized extras, and way better than fb app, This even allows better posting and commenting on your Pages than the Page Manager app, including ability to toggle between posting as you the Person or as the Page. Not just for the paranoid, but also for anyone tired of the slow, clunky FB app or the janky ""social app"" version of FB that came built into your phone. Bonus that it works so well while taking such a tiny portion of your phone's memory. THERE SHOULD BE A DESKTOP VERSION.",,
Tinfoil for Facebook,Google Play,com.danvelazco.fbwrapper,Z3A6QU9xcFRPRVFnenZnOVp0WXFzSjh3ZDV0UjREUXFGeHVWcXFudGRfVXhuOElBWlN1eFhQQWxLX1lURU82S3FwSHhTS0pZbGhfa0N4eFhhSGV4ZG5tbkE,English,,1,2013-06-30,funguyga89,"",For conspiracy nutters. REPLY FOR CREATOR: A review is in fact one's opinion on something. It indeed was related to the product. Maybe you are just angered because I stated the onbvious?	This is an app for those that fear the world and believe bullshit conspiracies.,,
Tinfoil for Facebook,Google Play,com.danvelazco.fbwrapper,Z3A6QU9xcFRPRmdDY0tKWWlxYzZ2THRhNGlNMzZFdWd3U045UFJVSlhxenVtZ1I3eFZ1WVF5Rl9fTFVGRTV6TWF3aGIzRno4bXljUWk2QlRPTDgxbVpjcXc,English,,5,2013-06-29,Alice Cheung,Excellent,Fast and smooth. Mobile site is better than the official app.,,
Tinfoil for Facebook,Google Play,com.danvelazco.fbwrapper,Z3A6QU9xcFRPSHZHRmhwaVVaMG1yejJqTnNlZXFKV2VyZUJZWjIwRlIwT3lOR3RmNkFsVWxMeWhkWkdiSGpSWkJhQkZzWG9VNUN1d0J5VG5MMHZoQTN1bnc,English,,5,2013-06-23,Aaron Davis,Very nice!,Taking a little of the NSA out of Facebook.,,
Tinfoil for Facebook,Google Play,com.danvelazco.fbwrapper,Z3A6QU9xcFRPSDJqRDhpRjZQTmpLRlRrU1NQblNuSVRoX094NEF4MTBJY2YxNmxqZ3FhR2h4bEJaa1l0Q216elFRWHZQOEd1VlF4YTJ5cmhqYVdpcWpuRVE,English,,5,2013-06-22,Artis Robinson,No,Please fix it i love this app,,
Tinfoil for Facebook,Google Play,com.danvelazco.fbwrapper,Z3A6QU9xcFRPR1hpcG13MFhhakZVMU4tQ2lfZndqb1RXSy1ZNGN1NXJ1c0hBalQySFU3b0hGUEFTZm4zc29oRTIxZWNqNGJJenNEeXpXU18xdWFBVVdZeHc,English,,5,2013-06-20,antione drakeford,Great!,Simple and lightweight!,,
Tinfoil for Facebook,Google Play,com.danvelazco.fbwrapper,Z3A6QU9xcFRPSFNyTHppQzJtWUpWRzdycDd0WEhFeGhvc2lfTVcweFZDWjJ2OVlUM0J2WGZBb1FXVEUzNE93MGxNdlJuZ1J0dnRaR01WckVmb0pxcTkzSUE,English,,3,2013-06-20,Ally Agate,Love this app but,Since I've upgraded my phone from HTC dersie HD to Samsung galaxy s2 it won't let me post a status or comment on posts it takes forever to go threw disappointing that i can't use this app as i do love it why??,,
Tinfoil for Facebook,Google Play,com.danvelazco.fbwrapper,Z3A6QU9xcFRPR3J1djJVUnhyMTAtQ3JoZ29oZVFZTmVUQ2V0Y2c2dGFtakhESVdCcy1HbnQyeXFhRTlJMVZicTdyTGI4V2VyWlF1cXBtc1RxSHVpNWN5N0E,English,,4,2013-06-19,will b,Great app!,"Since uninstalling all the FB updates and cancelling sync my phone is smoother, faster and has way more memory. This app means I can still keep in touch without FB harvesting all my privacy. Almost perfect, but glitch that flips to top of feed is a tad annoying. Fix for 5 stars :)",,
Tinfoil for Facebook,Google Play,com.danvelazco.fbwrapper,bGc6QU9xcFRPSG9XS3F6ZW5aUVl3TFhPQjhnMHZ0N3dlWVNjVjhMZ2hkdF9fcm1BVlRJRWZkOHRWYXVOX3BSR3hOOFNnUWNKM2prdVdsN2lNSzlEZUJMZVE,English,,1,2013-06-17,A Google User,"",Unfortunately won't work in my Samsung galaxy S,,
Tinfoil for Facebook,Google Play,com.danvelazco.fbwrapper,Z3A6QU9xcFRPRi1KdWQ0TTR1MU5JeHJrQ0dqYVZwTUY4X3ViN1VDOHpIUUk3YUVGeE1rMGIyR0QySDZjYTBnU3E3R0xJU2l1d1J3OWNPUEktd0czeHdfUFE,English,,5,2013-06-13,Artis Robinson,Wow,Please fix it please it want load up,,
Tinfoil for Facebook,Google Play,com.danvelazco.fbwrapper,Z3A6QU9xcFRPRkxGWjVoYkZFUWtJS3pwcTI5UFVCbHd2ZVVVZ0FZWFZjM05vZGR6VkVuU2trY3NQdTZNZFAtUXVEN2VwWE1zZVFEOGlSRjBWZ0lCRjF1N3c,English,,5,2013-06-13,Thinn Airr,It's really fast,I'm also using a Droid2 that can hardly use the mobile fbook website,,
Tinfoil for Facebook,Google Play,com.danvelazco.fbwrapper,Z3A6QU9xcFRPSDVnelIxTTMtVVdLUzlWMXZEVWhNT0JlYXJYRlBTc25TRTIzeEd0Zm9UT0Y2Z25NUnlDZzhpQmp3Rl9NdHBWWkgybndxTjItc1FUVU1Oa1E,English,,5,2013-06-12,Artis Robinson,Wow,I love this thanks,,
Tinfoil for Facebook,Google Play,com.danvelazco.fbwrapper,Z3A6QU9xcFRPRW9ZWUFGQ19zNlJoZVlNMzlSQnVyOWd0Wk1SLWY4djBvWk1ic2s0SGgtQjhGSTVMM0ZlcXNOSHlOMHM1YXNMei0xNnphN25EZ2MwdE9va2c,English,,5,2013-06-12,Adam Shea,"",Facebook is usable again,,
Tinfoil for Facebook,Google Play,com.danvelazco.fbwrapper,Z3A6QU9xcFRPRWRzaTFSLTFpTENVZXNiRUlyMXNGZjA0Rm1LeS1aRFVFUUxwV3g1bU9CVHpaY284VzU4bjFyeWMwcl93SG9FUHM4ZnBSVF9wYWRkam5aM1E,English,,3,2013-06-11,Hugh Man,Bugs. Won't let me type sometimes.,I love this app. I love the idea of this app. But for some reason I frequently have trouble typing in it. Probably it's just me as I am rooted and I am using SwiftKey but this problem makes Tinfoil unusable and sometimes quite disconcerting.,,
Tinfoil for Facebook,Google Play,com.danvelazco.fbwrapper,Z3A6QU9xcFRPRlVaMUgyckc4MHh5bll5d2p0Z3hNZlM3WC0teFVtVUxmdkFfWXF3Nm9pSE1HelV5QXZ2VGROX3dFeDFaV0tna2FHaktDY1czQzFkbFI5WWc,English,,5,2013-06-08,A.J. Toogood,Very Smooth and Trouble Free,I have used Tinfoil for several months on three different phones and currently have a Samsung Galaxy S4.   Tinfoil is  the best Facebook App far and away.  Simple to use and completely trouble free unlike every other Facebook App I tried.   I strongly recommend it to everyone Facebook.,,
Tinfoil for Facebook,Google Play,com.danvelazco.fbwrapper,Z3A6QU9xcFRPR1lDdU52VlNMeFpJUU92dzFEOWZxSzNLRWt5ajJKbUZFNHRaaFlMWEFPT0JUR09hOExjUDVBbnRQQVBMMUhaMU9XeURyMXgyY2IxVGpXTVE,English,,5,2013-06-08,Derek Goodridge,One suggestion,"App is great! When you're done viewing a picture or comment and go back, app takes you to the top of the news feed instead of where you left off. You have to scroll all the way down each time.",,
Tinfoil for Facebook,Google Play,com.danvelazco.fbwrapper,Z3A6QU9xcFRPSDBsRmRvWUtqcTR6VWFqcjY4OW1sZ25fU3FmOGV1MjJpVE5kN214ZXl6WHJJd3BuUDFEQ0Q5TjlrYTRiN3dZeHphTUdWZEpPaW9kenRzY0E,English,,5,2013-06-07,Rodney Badgett,Thank you,This by far is the smoothest Facebook apk hands down.,,
Tinfoil for Facebook,Google Play,com.danvelazco.fbwrapper,Z3A6QU9xcFRPRThLQXZCSTlubmJ6TmNFWjY4N3BhMWtjZklMNjk3eHJqUnF4aE9WQ29idEw4QVJnYk1JdFhoYzVQTGEwblUza0FSd1hfR2R1dGxxLW5aX2c,English,,5,2013-06-05,joel vazquez,Epic 4g rooted,Great app. If only facebook could learn from small developers like this guy,,
Tinfoil for Facebook,Google Play,com.danvelazco.fbwrapper,Z3A6QU9xcFRPRXZsWGNfMFNuQmE4SERZNGZSZFRsS3d6dWpyb2cwMVYtNV9Yc3Nzd1RBTGljdUdLdjQwbUpTbjk3R0FSYldlTDF6cEs1d3FIZ2E4UlBWWWc,English,,2,2013-06-05,Aston Clulow,Links don't work,"Still won't follow links, which is the reason I wanted something other than the browser.",,
Tinfoil for Facebook,Google Play,com.danvelazco.fbwrapper,Z3A6QU9xcFRPSC1oN0RJeW9fMURvSzNTcDdmaEZCaXJaUDhGb01OY1FhLWFiTW9rUEtTald2MW55amxSUHVwZko0NDNNRnJQWFF4OURTM3ZWSERWd0RzR1E,English,,4,2013-06-04,alex C,"","Does what I want it to, without all the permissions the facebook app wants",,
Tinfoil for Facebook,Google Play,com.danvelazco.fbwrapper,Z3A6QU9xcFRPSFBfRklsTnhyZkx2UGVkUHB1RU5XMzBtTWNVWDJTUzk1Z0lqaTFDLW93LTJQdi03TnZUVHluMXNxNFJSelVjLUtxTXJFeVBmT2k1Z2w3MGc,English,,4,2013-05-29,Kasir Abbas,Great app but needs updates,"This app is perfect if you don't want Facebook snooping around on your phone and killing your battery. Looks good but the only problem I have,  is that when scrolling it jumps to the top of the page. Really annoying and needs addressing. Other than that its perfect. Please update the scrolling. Thanks",,
Tinfoil for Facebook,Google Play,com.danvelazco.fbwrapper,Z3A6QU9xcFRPRlBHNHROeTY5bmotSUlaS01GQmh5b3I4Z2stc21adVVRZ09ZYkVHcGJrNjFTNFFjV1NiUmxqRkU4UUhtRW9BRFIzdGdCaENhWDJ3RU5Vb0E,English,,5,2013-05-29,Matthew Bridger,Brilliant,"I was fed up of the standard battery draining facebook. Although this is only the mobile website with a few more added features, it is so so much faster and more efficient to use then the site in my mobiles browsee. The guys who made this are legends! 5 Stars, thanks!",,
Tinfoil for Facebook,Google Play,com.danvelazco.fbwrapper,Z3A6QU9xcFRPRS0wMmoxaWNsZzJYNzVSUUJZdkJqRWx4RzA1NU1IVmgtcXRsTjNiRXotODF5ZjRMZlBjajBfbm9INW52akE2UTNtSHhnbHZaQnNmaWl4ZUE,English,,1,2013-05-29,John B,Worse than FB...,"A good idea, but...  After ""quitting"" the app, it continues to use 15-25% CPU running in the background on my SGS3 (4.2.2).  When I quit an app of this type, I want it to either freeze or exit completely.  Can't anyone do this right?  Uninstalled, and once again using a web browser for FB.",,
Tinfoil for Facebook,Google Play,com.danvelazco.fbwrapper,Z3A6QU9xcFRPRk9qcVdhNmQyZWVlakVLVHhIeU81UTNTdTMtUmRhSGJaSVUwRGJmZUo0bWhwdnlISjRnTFdRMVBwLWpzcUY4MUhteHY5Rk00QlJELVBzeEE,English,,5,2013-05-29,Jorge Martins Rosa,A Facebook wrapper with a few twists,"There are lots of Facebook wrappers hanging around -- apps that, through the browser invoke the mobile version of the Facebook site in order to mimic the official application (and to it faster and occupying much less memory, a must for less powerful phones). This one, though a bit bigger, is more robust, inforces your privacy, and if used in a tablet you can even opt for the regular version of the site, instead of the mobile one.  (**Suggestion to the developer: in tablets, there should be an option to detect if it is in portrait or in landscape mode, and switch accordingly between the mobile and the full version of the FB site.***)",,
Tinfoil for Facebook,Google Play,com.danvelazco.fbwrapper,Z3A6QU9xcFRPSGxFdDQ5TnZhQ1ZvVGNIdzROcGVORHhiR0dVUTZBRWtTNGtkdjB6MG0tb0FvWnJrdmlhZ1h6bGdCS0tLMGlXa2I4Wmw3WWxaTEZlREFfa1E,English,,4,2013-05-28,drew peacock,This is nice,Better than the normal fb app. In fastbook there is no way to comment or post statuses.,,
Tinfoil for Facebook,Google Play,com.danvelazco.fbwrapper,bGc6QU9xcFRPRUQxckR4SlNnVmxtRzdiRklFUUthRG1PZjAyclBLTFJsc2dMX2xZdUYwMUYxaWt6STlmV1lpVVRWTWlieDNvdjFpeGJfTGQ4bUhmSVh1a1E,English,,1,2013-05-26,A Google User,"",R u kidding me...crashing totally worst.....,,
Tinfoil for Facebook,Google Play,com.danvelazco.fbwrapper,Z3A6QU9xcFRPSGZWTGlKSXh5dm1JRUpDb2MybU94Z0d6Y2w1c2RtOGJUQ1B6cm43aTRWNU5vTUZmMEZ5cVpGM0t5bjNBYm1manp2RFpCcFhzUlVVX2FhZFE,English,,5,2013-05-25,Ashley Padget,Excellent,"For those worried about what Facebook sees and does on your phone, this is the app for you",,
Tinfoil for Facebook,Google Play,com.danvelazco.fbwrapper,Z3A6QU9xcFRPSG40VFVYMXRXOWdwb1ZGbW90eEtDc2pISHJIU2xCNllYVnJZS1NPMHhyZ0dZejRhSjUwTHZfaG5qc1UxMGVlYTRaUjZDbTZlYWkyRmxHd3c,English,,2,2013-05-24,Hillary Wills,I wanted to like this app,But it doesn't work on my galaxy s3. Trying to update my status or search for friends makes the keyboard force quit every time.,,
Tinfoil for Facebook,Google Play,com.danvelazco.fbwrapper,Z3A6QU9xcFRPR1JWU3ZRTkR3ZWFuU3BEZXpiRmJBVGhmMzIzTXdESHF3dFNxRko5alphMnV1VkJqSW9mUUNFRXBqUlV6UGJ1dUMzaEY3N3VrcnRMRmRaR3c,English,,3,2013-05-23,Carrie van der Zee,Just the ticket!,"I love this, it's just like having Facebook block for your phone. If, like me, you love Facebook but don't want it snooping on what other websites you visit, where you've been and what's written in your text messages, get it- it's no less reliable than the Facebook for Android app. Highly recommended!",,
Tinfoil for Facebook,Google Play,com.danvelazco.fbwrapper,Z3A6QU9xcFRPRkFvUUYtSE5aYTRWaUUyTHhNdkxVNFRlZFFfX0RkTGdiQXpfMVo3OFAwYmxrUHd3TU9lQWN2VE56WU01RjFXWWpyMzdpaGd1bVUwWmNkTWc,English,,5,2013-05-22,Onyi Cho,Very smooth,"Runs smoothly on my A2109. Oh also, how does this app only has 10000+ download? This is a great app in my opinion!!!! PS : Hmmm Flash is not working anymore on this app with sideload......well whatever this app is still awesome!",,
Tinfoil for Facebook,Google Play,com.danvelazco.fbwrapper,Z3A6QU9xcFRPR0FsM3FJaExqZGZwb3VhYTZwNHEwN1FfVXByWGZEQl9fTFdlU0ZoN0xEbHBxU0JQWFl5eGc3cUlpVWx4elcwMjBuUnl0RDN1U2JDbU9BVXc,English,,5,2013-05-22,James Chow.,Thank you!,"Privacy is important and should be respected, but the Facebook app wants all your data on phone as well. Thank you again Tinfoil.",,
Tinfoil for Facebook,Google Play,com.danvelazco.fbwrapper,Z3A6QU9xcFRPRkF1X2FLOWFZb3VnNG0zMGp4MTAxZWRJb3RZTE42ck14aVJmV3lDRENVblJBSDZRNk9fMFpfT2lnQmJKb2t6bXdCbGNVMzhoSU16UmZUdmc,English,,5,2013-05-21,Greg Hromalik,Facebook minus the cavity search,"Finally I can use facebook on my phone and not have to sign my soul over to facebook. Thank you for taking time to create a free app that helps keep facebook's overly intrusive app of my phone. We may just avoid ""A Brave New World"" yet.",,
Tinfoil for Facebook,Google Play,com.danvelazco.fbwrapper,bGc6QU9xcFRPR2VQZnlmeUVjc2JaeDRrdVhxa0Y0ZHdudEh5d09jQ2JNT0pJZ3hEV1JOTFhxdlhtTi1ndUNKcmo1bEV3c0o2MExwZElndnRzcElWSk5wUlE,English,,4,2013-05-21,A Google User,Nice but has issues,Cool app but I can't launch YouTube app from links it only lets me open thru browser,,
Tinfoil for Facebook,Google Play,com.danvelazco.fbwrapper,Z3A6QU9xcFRPSGFuZkhtcjJ3NF8wTjZmSTdGVGZpUXpKb1RIYnhXY3RVd2NmdEU0aDQ1QTFoV1NwclFBeVhEN0loZzJ1UmFXaVVpOTctbmNHNDNqNzVuMWc,English,,3,2013-05-21,Ben Lutgens,Not bad!,"Would love to see some way to filter out sponsored posts and app/game nonsense posts like ""ZOMG INSTALL THIS!"" type sponsored shiznit.",,
Tinfoil for Facebook,Google Play,com.danvelazco.fbwrapper,Z3A6QU9xcFRPRWc0V0ZlQjZadGdabHNXM0hvSDlKZDJaal9GV1hrRm5hbUp6dUx2REtUX2ZFOWJtZ1Y1NGVwTFpxbUZLZU9tc1lBbjRjbmM3bEVZaUFndmc,English,,5,2013-05-21,Haythem Khanfar,new update,"the new update fixed all my gripes, great app",,
Tinfoil for Facebook,Google Play,com.danvelazco.fbwrapper,bGc6QU9xcFRPRjgwMnRKQlp4WFlWSmNHdktmZzNZUEdIdGhlcFBFOVkta0hzLUZvQUZwaTJYN3Q1eEI3c2NuNGNSYWRpMXpwMTlQWmE1T0JUa0M3dUFPZkE,English,,5,2013-05-21,A Google User,Better than FB app.,"Sensible permissions and limited FB tracking are what brought me to this app. It meets my needs nicely and should mean Facebook knows less about my habits elsewhere online. Now if you'll excuse me, where did I put that tin hat.....",,
Tinfoil for Facebook,Google Play,com.danvelazco.fbwrapper,Z3A6QU9xcFRPRzRVWFhvWDd3UXRjTW90X1FPWlUtRzNnM0NWZ1pKOW1Kb19MV0xRSlFZY1EyM3A2eWNXb0NwdXpVVXpqRG9hVGhIa29Uek5jaUZRdWs1Z1E,English,,5,2013-05-20,thewaydownmachine loom,A fb app that's fast!!,"This is exactly what the Facebook app should be! The Facebook app sucks so bad it's pathetic. This app isn't a ""Browser"" and isn't ""The Facebook App"", yet it does opens links and let's you fully use Facebook! Its not even that big of an app :D big things come in small packages",,
Tinfoil for Facebook,Google Play,com.danvelazco.fbwrapper,bGc6QU9xcFRPRzdSVVVQaDlUcWhHdHhZVzhJbXQ5TTVSRVF4ekRfVUJzckxNSDhCWEFReGJJMGNhZVpNMXo3YVBmQ182OVJsbzVteUFGemZyVEFta0lqZmc,Dutch,,4,2013-06-08,Een Google-gebruiker,Prima app,Werkt bij mij sneller dan de standaard Facebook app. Wel wat omslachtig met sommige functies.,,
Tinfoil for Facebook,Google Play,com.danvelazco.fbwrapper,bGc6QU9xcFRPSFRjQXljdE5CUF91cGpITjF4b0Y1Q2ZRdlBVckZiWjk1YVlCZzhTS2d5YThuQVhBLXhSdG8yX2Q4SVhzWWpfcEFKV1BGNFlkMjFIeGhjSUE,Portuguese,,1,2013-06-17,Um usuário do Google,"","Q porra e essa vei? Ja vi q esses filhos da puta nao tem mas o q fazer msmo, filhos da puta",,
Tinfoil for Facebook,Google Play,com.danvelazco.fbwrapper,bGc6QU9xcFRPR1MtTjNCV3pvcXFaU3lVenZRM0k1XzhwTnJpV3lKOWpTTk1jVWNJRUJnVXlQV0RVdHB4UE5PTl9tYmFkZlhtOGY5b1BqVzVSakhXTnpYSEE,Spanish,,5,2013-05-21,Un usuario de Google,Awesome,"Does what it says, and using very little space. If it had support for notifications and messages it would be perfect.",,
Tinfoil for Facebook,Google Play,com.danvelazco.fbwrapper,Z3A6QU9xcFRPRzUzM2NuVE1Qa1FybXJvZ0dHVWlDUEI1WmM0V3NSOHdJekF6cFQzZU9WQXU4bGtPU04yYjBLQWs0RWNhb1o4Z1BXZDdVbm5fdkI3LWxiR3c,Thai,,4,2013-06-11,dao joobjoob,โน๊ต2,ดีค่ะ เร็ว แต่เวลาจะคลิกโหลดรูป แล้วจะกลับไปหน้าเก่า มันย้อนไปโพสแรกเลย เสียตรงนี้แหละ โดยรวมดี,,
Tinfoil for Facebook,Google Play,com.danvelazco.fbwrapper,Z3A6QU9xcFRPR1dtcUlraUsxRHByWE5qLWppb3VGTllHZmlHU0RhOFp2anQzUEJidHRib3Y4aWdHdWpzR0prcVdBblVuTDQxb003MGo3cXIyd2JEeGhtVVE,Thai,,4,2013-06-04,ไอซ์ ลิ้มตระกูล,ดี,ดีอ่ะเจรง,,
Tinfoil for Facebook,Google Play,com.danvelazco.fbwrapper,Z3A6QU9xcFRPRmFodUc1ZXE3X19nTU41QnM1anpUbUVncE9oTjd0a0RBWGZfRHdyNzdIUHVTaWxmd1V6aUVITHgyOC1VTU4tV1laRi1GdW5KQW92LUVpaFE,Thai,,4,2013-05-23,The Devil King,kannoon,เราว่าโอเค สำหรับมือถือพื้นที่น้อย,,
Tinfoil for Facebook,Google Play,com.danvelazco.fbwrapper,Z3A6QU9xcFRPRXBfVFAyRGtPa2FLdngzUzRwY1V1OFpoUmxxOGdoVnZWeVkwRzJhUWlkN0txTDl5cnlGS05jS0NfazhzYUhKY25qWGJCV0tCeFRjTDVVdHc,Vietnamese,,5,2013-06-28,Trinh Hieu,Good,Tai nhanh- nhe-kha giong fb tren pc,,
Tinfoil for Facebook,Google Play,com.danvelazco.fbwrapper,Z3A6QU9xcFRPSFdtaGRQbkFpVTduOTJhZmc4TnU4LW1Hcy1kM1BSN2tDVWFKSnJwTlkyOWoyR1pXNWVrZVZrWkkzeU1rU21QVWctQkR1aGVpTV84YzlDSWc,Vietnamese,,5,2013-06-19,Nguyễn Thảo,***** ok,"Hay,nên tải.dùng thử sẽ biết ntn. Nhẹ,tiện dụng.ok Thanks tg nhé",,
