App,Store,App ID,Review ID,Country,Version,Rating,Date,Author,Subject,Body,Translated Subject,Translated Body
PassAndroid Passbook viewer,Google Play,org.ligi.passandroid,Z3A6QU9xcFRPSGthc3RBalB2d2ZhVGNTUld1SzJCZl9zd0ZoRm5yVkRDeDB0bVlRVUVQQzZXTXV2S3NxNkU3REQyYnFMQnpKaHNYbWQyaW1sM0Y0Zm9pYUFv,English,,4,2014-09-18,Margarita Rayzberg,Amtrak PDFs,"So,  I know Amtrak doesn't actually scan their tickets,  or at least,  it sends the tickets in PDF format,  but I would still love to have them in here so I don't have to dig through my downloads.  Is there any way to ""import"" PDFs?",,
PassAndroid Passbook viewer,Google Play,org.ligi.passandroid,Z3A6QU9xcFRPRi04WGNyUUM3RkNIblFNUEVzYWxSNGlsSkhiWnEyOE12WWxhMVo2VEQwZWxFMTZIT0o2UXZsNlNtU3hzb1RWZGNEdHhuQUVobVVocDNwZWRR,English,,5,2014-09-17,Brian Anderson,Works great,"Got tickets from Ticketfly, no idea what to do with them. Found this app, now I'm all set. Thanks",,
PassAndroid Passbook viewer,Google Play,org.ligi.passandroid,Z3A6QU9xcFRPRzVoTzVUY2NIbVFheHg4cXNfSWdZa1lVeFNDU1BvSTRBOFpQLUpGeWFSNnlKck9PMl84b2JzeWpiRXp1Ty1yZkxQdmhkb0dLWmxwbEUzc0p3,English,,5,2014-09-17,Christopher Taylor,Easy to use,"Significantly better than PassWallet, this app has no ads and it doesn't lag at all when switching tickets.",,
PassAndroid Passbook viewer,Google Play,org.ligi.passandroid,Z3A6QU9xcFRPRUstUDV1T3lnbWhORDlpbEhiby1WM2owUEswMnlrNmNRTGNlMGF5aXItTVVYT2pjTmRMRE5PNlZnXzAyYWxhUVNvOVZJNldXTXBsMTZ2RVFj,English,,4,2014-09-17,Riri,Good....,And very useful. Tks!!,,
PassAndroid Passbook viewer,Google Play,org.ligi.passandroid,Z3A6QU9xcFRPRU13NER6UzFIQ29rblJUaXN5VmV5d3VIS0xaUmM3VjRxZTRxeEkzeWFFcG01RjEzdEJ4TExmYzRxOWJYV3VhSTFoUmd1clhrNS1OYXl2bTdn,French,,1,2014-09-19,Franckey S,Sur Galaxy S5,Ne détecte pas les billets d avion AIR FRANCE ?,,
PassAndroid Passbook viewer,Google Play,org.ligi.passandroid,Z3A6QU9xcFRPRWtJMXJnaFYtRTRYeXA1R05iTzNJSmVBQkZJcjBzc0E5X3BkTnB4WGNJa2c5Wm1aSEJYZmo4Q3FIMjlkelp0ZTMwS2UxVVkxeldGS3V6R3pn,Italian,,5,2014-09-18,Enrico Gec,Funziona bene,"Fa il suo dovere, molto utile per evitare stampe inutili",,
PassAndroid Passbook viewer,Google Play,org.ligi.passandroid,Z3A6QU9xcFRPR0V5SGlIUW1CNEg4dkFTWmw1ZHlicmtxTjZJVXZHSHpSSEVwRkVjRWVsclNwZzJseVBsLS1LWHRMLXUwLVdZWjcyMm9JVXppN3h0V2FNM29F,German,,5,2014-09-20,four seasons,"Gut und einfach, aber...","im Gegensatz zu anderen Apps, wird die Nummer (Buchungsnummer) hinter dem Barcode leider nicht angezeigt. Funktioniert der Scanner beim Gegenüber nicht oder hat er gar keinen (zum Beispiel in einigen Kinos) hat man ein Problem! Vielleicht im nächsten Update!? Es wäre Schade wenn es daran scheitert, denn insgesamt ne super App ohne viel Schnickschnack! (****)  Nachtrag: Seit neuem Update jetzt mit Nummer! Von meiner Seite absolut empfehlenswert! Dafür jetzt auch *****",,
PassAndroid Passbook viewer,Google Play,org.ligi.passandroid,Z3A6QU9xcFRPR1RrMC14ODl4Q3VUWmdTWDNyYmNQRjZzOGNNNW1WcldsYW40MGdMYjNxVlJJczItWXYyelEtdFFYUjZxcmFkQVJNR21RZ2w5U0VwX2VEZ2kw,German,,4,2014-09-17,Gernot Zoeller,super,benoetigt im vergleich zu anderen apps minimale rechte und wenig speicherplatz und tut was sie soll. wunsch: bei vielen unterschiedlichen passarten koennte eine unterteilung in kategorien hilfreich sein.,,
PassAndroid Passbook viewer,Google Play,org.ligi.passandroid,Z3A6QU9xcFRPSEM2U3hBOFVXdXdkcW1NSDRPcjhVQVhIV1ZpcHpreFFHeEtxYjMyUVVQcmlJeXZBRGpUekJOMDRfUXp5Uk1BZUllSFJqdV9HSktrQWpZaGlz,Portuguese,,5,2014-09-18,Pedro Antonio,"",Aprovo,,
