App,Store,App ID,Review ID,Country,Version,Rating,Date,Author,Subject,Body,Translated Subject,Translated Body
PassAndroid Passbook viewer,Google Play,org.ligi.passandroid,Z3A6QU9xcFRPSGFFSS1zc2xoYUgxUDVOMGFtelhTQXlvakF1NEtBaXZUaUFPMGpEYWRyb0N0M1QzSDMzUEN1ZFpmaTlvU29Gb0V4X1NwWF9MM0ZJakpLM2ln,English,,4,2015-02-26,Joe Tufano,Almost perfect,Plz add support to display TSA precheck,,
PassAndroid Passbook viewer,Google Play,org.ligi.passandroid,Z3A6QU9xcFRPSF9rbmVCRTZQRC1WcTZiQ2hqVlcwNEY0YXRtenNuZ3JraWE5QkZFR0NGWXgzU1luX3JPa2JKSWhYZTQ5eEpwd1VYLTNrbDdIV1gyVWVRVldr,English,,5,2015-02-26,Andy Barnes,Great App,"Works well,very quick,would recommend",,
PassAndroid Passbook viewer,Google Play,org.ligi.passandroid,Z3A6QU9xcFRPR2RFQ2RsR1FnckFqeU1jT09WWVB6RlZWbmcxeklyU0VkQkZXSXI0VkVrU3dVZXZFbk5OWGswVlRGMjlTVVlEZ0JHeURNancxaVFDc3dFSFNR,English,,5,2015-02-22,Robert Carcasses Quevedo,"",It does what is promised,,
PassAndroid Passbook viewer,Google Play,org.ligi.passandroid,Z3A6QU9xcFRPR0FZYWpYbW1Nb1M1VjFxN3o2ZlMxQ0NZWkNNbU1pWHcxejd6SXIyRFl4c2lVRktvaFRjaXRJUDBDS2Rud0dMYlRuTXZBNUFJUDBmVTBzMUpZ,English,,4,2015-02-20,Gato SinMás,I found it nice,Its a easy way which allow you to manage your tickets  very fast,,
PassAndroid Passbook viewer,Google Play,org.ligi.passandroid,Z3A6QU9xcFRPRWZUUzhuamJsYm4yaTFnUncyVGNWR2VwVjk2aDJJTXNBTEQ0YUFmODA4YXRsc3haTjA5ZG9TRmNUY3JoOTVFc3lFaS12MFppMGRVcjZYcUhn,English,,1,2015-02-16,John DeHaven,Does not display TSA Pre-Check,This makes this unusable as far as I am concerned. This is a critical piece of information on your boarding pass to have been left out.,,
PassAndroid Passbook viewer,Google Play,org.ligi.passandroid,Z3A6QU9xcFRPRnp1cWJ1M01fR19XSEk1SXEtMWY5MzhxSnBIM2kxSUdNWnFHdWtfMk1kVVpWdWszd01IMEN1VHJucWxNUEJuYW5IQ2ZlN1NfNzlya1JVUV80,English,,5,2015-02-13,Adrian-Cornel Popa,Good app,Satisfied my needs,,
PassAndroid Passbook viewer,Google Play,org.ligi.passandroid,Z3A6QU9xcFRPSE1leHVITzVBUlpReTJrWG9pUHpfUDB3aTNIYUl5MTRLRlU1b3BteUUtVTlDVV9PM0wyc01RRUpQd3hORWZCdkxCVUljb2VBcGFQLWFKSndr,English,,4,2015-02-06,Sai Venkata Cherla,"",Decent app.,,
PassAndroid Passbook viewer,Google Play,org.ligi.passandroid,Z3A6QU9xcFRPSGwyNlIzWjUzSk1YeEZBNERUNnFoTjktWGpQdlhWOTZEOWpLOWRSREw5WXBseENUZmI5Q3hmQm5RRTJta00ya1NSS2NFZnlDZzlqTzIzcHpR,English,,1,2015-02-05,Alicia Hitchcock,Cannot get anything to work.,Samsung 5s cannot get it to work at all.  Delta airline boarding pass.,,
PassAndroid Passbook viewer,Google Play,org.ligi.passandroid,Z3A6QU9xcFRPRmR3TURXYXR6TTZROVlyTl9LM1hJaHdXZGV2bXd6OVQ0MUlNOUY0clJONl9vS0sxYnhnemtSMzdGMmR0NWZvSDdKVGVhRWxiMHlWaVcwZHhr,English,,1,2015-02-02,David Frame,Wasn't working,Wasn't working,,
PassAndroid Passbook viewer,Google Play,org.ligi.passandroid,Z3A6QU9xcFRPSFJhOFN0anRWOFNyM1dWaHRQaGtLeTlBRkpaWFhUTXIyWmtBRmhLaTNKYjVEc0w4T2ZyOVp4SzN1Zm15SnRvaHVwakowS2duS0tiVjEtbUxB,English,,1,2015-01-30,Amit Chakraborty,"",Doesn't work. No manual search option. Enough time wasted on this.,,
PassAndroid Passbook viewer,Google Play,org.ligi.passandroid,Z3A6QU9xcFRPR1dOY1ZtWlZma2JXRnQ4SDB1TUxRN3JLbERVTV9pUFN6dXRlSDBKb29qbEpCeTlDcFJMSUhId2sxTEdaTXRVYzNMQnhyeG1rcGF3U1JLSTM0,English,,1,2015-01-29,JJ Johnson,Doesn't work with my AlaskaAir App.,"Using Verizon Galaxy S3 and Note 4, the application doesn't see/read info from my AlaskaAir application.  I have tried on both phones and it doesn't recognize a check-in or boarding pass.",,
PassAndroid Passbook viewer,Google Play,org.ligi.passandroid,Z3A6QU9xcFRPRzJRVnJsSmMxV0lhODlYREExV3d6Nk4yZzBfWGllWWw2WUFSSFplQWs1aERhenV3UmpOQXlhNXNfMjl6Rk1nOVh3X2tBd3owbUlGbFhLcHFF,English,,1,2015-01-25,Ann merrill,Doesn't work,Can't get my boarding pass.,,
PassAndroid Passbook viewer,Google Play,org.ligi.passandroid,Z3A6QU9xcFRPRjcwTGpWaUhvUmktN1MtQUNmQ3JOUEVMd0RMLU9yR0J1UlNrRXozSjRsUTBZWm84WXZuRUtPcXM0aDBSaU14WEg4RzUzU3RGVmpGWjBQZVU0,English,,1,2015-01-23,Artur Nóbrega,Failed to open pkpass link,Does not support link with multiple boarding passes,,
PassAndroid Passbook viewer,Google Play,org.ligi.passandroid,Z3A6QU9xcFRPSG4zajVPc1c3WHUtMFNIUXB0SUh2eWgwTHFMbHpwY3l0WEU2V0Z5RmxaVGFyWGNWajZ3b0Z5VUpoVm40elk1TEpBcjZWTGFEdlJwakZTOUVR,English,,3,2015-01-23,Brandon Palana,Missing info,"Detail missing - pre check, airline status",,
PassAndroid Passbook viewer,Google Play,org.ligi.passandroid,Z3A6QU9xcFRPRTM2cXhOSUc3c29oblZvSXhEM1JkNmNnVjNwVGloWWdMVGk5RTBrWDAxTDZnWDRqUnJSN190Y2VTaHliTl8zS2x4QWt4cThKV2c5bDRKc0lZ,English,,1,2015-01-22,Dimple Shah,Doesn't work to download for united,I already have boarding pass for united and it can't find on the phone,,
PassAndroid Passbook viewer,Google Play,org.ligi.passandroid,Z3A6QU9xcFRPSFRnbjk3SkNtdnhaVlVmY28zeHJZMVpfcXEzdUduZXlJVFNsS0hUYU40ckpMN2tXa21hV2V5aW40LWlRQlJUWGE5UVpEZlJFN21JQkM4WDRr,English,,5,2015-01-18,Edgar Alvarez,The best!,It's so easy to use compared to a,,
PassAndroid Passbook viewer,Google Play,org.ligi.passandroid,Z3A6QU9xcFRPR2J5aVhGT0hlMzNDV0ZNY2xoNEpsUWZYNHBKQURqdmplTEZ5bHRRakpyNGFpa1ZDcHhNMlk2U1BGQWlHMklLSHY3aEFIUnZvUVljZTczbG9R,English,,5,2015-01-17,Matthias Berse,"","Great, one less reason for an iPhone",,
PassAndroid Passbook viewer,Google Play,org.ligi.passandroid,Z3A6QU9xcFRPSGNRYWdhQ3o3QlhtTUQ2ZEVWNFQyMU52aWltS0JhTzhOSTNWSWlfSzV6bUwwMkFNZTlLbHktbXlXM2RSamYwcmFNLTIwei1pek0xRm9sa0lj,English,,5,2015-01-13,Brent Williams,Looked all over...found it!,"Tried many different wallet apps and boarding pass apps, and none were this easy.  While not quite Passbook, closest so far for boarding passes.  Only with this was integrated with Google Wallet or Samsung Wallet.",,
PassAndroid Passbook viewer,Google Play,org.ligi.passandroid,Z3A6QU9xcFRPRmZ0V2JLaE1SNkJaWGtZVDN0R08taEIzSng0a1B3OS1KYlUxZWNYYlRibkdkb3BRTXJtd1pnTzNuN0tWSERsUmZNdUxLNHAxMVRNMndhWXFR,English,,5,2015-01-12,Michael Barnett,Works really well,Surprisingly useful.,,
PassAndroid Passbook viewer,Google Play,org.ligi.passandroid,Z3A6QU9xcFRPRXA3dnpuLTB5cmw0d3owQ2E2RENtcVRwQW92blF1bFN6cjVpempkN1JNek1nMGZDa3ZBWmMtZ2ZoblNLdkxlSThGMTlWdFhCbldmMkQ4bGRr,English,,5,2015-01-11,Jokies Trunk,Work like charm,"Will not block by lock screen once opened so no trouble unlocking your phone again and again. No weird permission required, another big plus.",,
PassAndroid Passbook viewer,Google Play,org.ligi.passandroid,Z3A6QU9xcFRPSE5KTEkyMmhfcl8ydHpQV244VHp6YXZmbkt3b2haOXhFMFp4Nzh0YjBpT3BBNm5QX2hVZ3lzQnZBODlPTDRDbS1YNUhyQldXOUJHMGpuUTlv,English,,5,2015-01-09,Tushar Dighe,Best so far!,Only passport app (including the iPhone one) that correctly added multiple passes from the same provider on the same date and time.,,
PassAndroid Passbook viewer,Google Play,org.ligi.passandroid,Z3A6QU9xcFRPRl9aM3hFVW1FMi1idWRKZEpZRExQeWNFbXdNTGdBY1gyLWUtQjN0aGVMRlhMUkVlczFyNmFBY1Vud0dCc3pvbm9mUTZ1V3NfR0FMc29PVGlB,English,,5,2015-01-04,Sarkis Elia,"",Simple but effective.,,
PassAndroid Passbook viewer,Google Play,org.ligi.passandroid,Z3A6QU9xcFRPRlZPcVZXSUVFLXhFNUFtWElNQ2dZdTlTSHQ1WkxVZmJ6ODN0VmpJQ1VZTlo4N2s3RVNtbm8wdHNRVTFHYm5wUm94ekw3NGdjTl83Y0dDUjAw,English,,1,2015-01-02,Clive Hunt,"",Unable to see BA boarding passes,,
PassAndroid Passbook viewer,Google Play,org.ligi.passandroid,Z3A6QU9xcFRPRmQ5YkdaUzlXYnRNa2RFN3NHclJPTGs1eHVOUHliWXNIeDF5RDhkLWVMbnM0Ml9jZXRqdDBscHI1bUkyUWMxTjRsRzlPdEVIQnJEOVppaFdN,English,,5,2014-12-25,Phil Howard-Brand,"Perfect, works like a dream",I've flown on Norwegian air loads of times using this app and it has never let me down. Great reliable app and quick to access when rushing at the airport,,
PassAndroid Passbook viewer,Google Play,org.ligi.passandroid,Z3A6QU9xcFRPSEkzYW93bEp5U3lpdFFTaXc0alRNMWU2cXgxWmxHR01QcTRPZVF6UW5iTFpzUEREclV4T0gzYnhIcUV4aWtqQzBxaDQ0Y0VkdEx1ZElfbjJF,English,,5,2014-12-25,Bernhard Tittelbach,"Lightweight, Fast, Stable, Clean","Everything I want from a PassBook App. Show my passes fast when I need them, don't get in the way the rest of the time. Add Map and Calender functionality and everythings perfect :-)",,
PassAndroid Passbook viewer,Google Play,org.ligi.passandroid,Z3A6QU9xcFRPR3dhYVZtZHNMYm85ZXFTMHFjNGkzTkRMRXE2Y2ZDV1VMU0M4MXdpQnZFUFc1QnJneWZidWxrYlV5ZHFMQXJpMXdmckdfTV9JaU1wVmtkNWNz,English,,5,2014-12-25,Ashu Choudhary,"",Merry Christmas,,
PassAndroid Passbook viewer,Google Play,org.ligi.passandroid,Z3A6QU9xcFRPSGFqbksxWTJhMFNIaXpaQjdWSjhmX2NsbWJ5ZDlqZ0hnWEpXRE44SnRyRHdSS08xRWlNR3lFdUJkRERJbWNvWkJ6M1JVZFZIVzA1c0JkZWRz,French,,3,2015-02-12,Fran Imbert,Regular,"Prefiero passwallet, que permite cambiar entre los tickets arrastrando con el dedo",,
PassAndroid Passbook viewer,Google Play,org.ligi.passandroid,Z3A6QU9xcFRPRWRNVXVoZGxUdlVFYnN6ZUljeGRYdzE4bkNXdTdwY1pmMWl1TUJLQjNaUUtsVGtwV252cjRnTFhTYW9hanVsNDgyRXdMWGxYMk50X0d2aW9N,Greek,,5,2015-02-08,"","",Πολύ καλή,,
PassAndroid Passbook viewer,Google Play,org.ligi.passandroid,Z3A6QU9xcFRPSGxyZ0k5ZW0xaFVMVWxWMVJvV29oMUtaUks2R2xsclUyZmxEVkpnZGRILVlYak9CS1JoNFpLUVlkaUVyblY4MURWdXg2Q3lMVFpMQ1dZU3M4,Greek,,5,2015-01-30,Pavlos Bentillas,Nice app,Very nice app.Working fine with aegean.,,
PassAndroid Passbook viewer,Google Play,org.ligi.passandroid,Z3A6QU9xcFRPRU9vREdKZWNHM3hGUXB2bzJaMTZFMWNFM1hUcVFOd2lwLXExM09PQTdxbHVXUjg4cFRiZlc5TVAwR19qX2ZFNDU0VjR1WDRON25nX2pTM3Aw,Chinese (Simplified),,4,2014-12-26,Shawn Zhang,Good but...,Finally got one passbook app working. Thumb up for the material design. However can you please work on the typesetting of the boarding pass? I mean all of the information are centered above the QRcode and it looks ugly. Please make it at least looks like a boarding pass. Then I would definitly pay for your app (if you want to have in app purchase). You did something that Google were not able to do in the past few years. All you have to do is make it better! Way to go man.,,
PassAndroid Passbook viewer,Google Play,org.ligi.passandroid,Z3A6QU9xcFRPRnhmckhhQW9ITnhhQkJaVE84RFJTaWVWVmlkYlMzb0NDVU9oTm9IY25raWZpQ0VNUm5ZTWttWV9VR0lBOUlqNmpIZ1RCWlRtRWdRaU9zZ0pn,Italian,,1,2015-02-22,Eros Papagna,HTC one m7,Codice a barre troppo piccolo,,
PassAndroid Passbook viewer,Google Play,org.ligi.passandroid,Z3A6QU9xcFRPSHhCdTFlSlpMNkQySkdIbkYtWi0yeXVHZmFDYjdqaFo5eERDb0NOUkRkM0h2cHFFWDlzZXg5R0stNHBZcU9mbFI3akZCVmdrVENydldzb1FV,Italian,,4,2015-01-01,carmelo fronterre,"",Funzionale ma non tanto,,
PassAndroid Passbook viewer,Google Play,org.ligi.passandroid,Z3A6QU9xcFRPR1oyWXR5d0ZhQ21NY1hDa3lHdll1WERVcDh0ZklmcEFmVldpYnpxUXprRHNxdGM2UHRYb3BsNk9ZaEhLZXlJUWJ3S1VaX0tzUnRHNERFMXZJ,Catalan,,4,2015-01-23,Josep Bosch i Andreu,Esta vé,Ok,,
PassAndroid Passbook viewer,Google Play,org.ligi.passandroid,Z3A6QU9xcFRPRnhqUzBfX0VpQWpjbWY0aEtIOVJMdG1mQ1BXNVYyNGVWZGlDRWJfZnRGX2x4TkE3bU01cDJqZFNodHJOX3puOFFubEE4WGYwdnM3MEpkNGdV,German,,5,2015-02-26,Kurt Rösser,"","Klein, schnell, optisch angenehm, macht exakt das was sie soll. Klasse",,
PassAndroid Passbook viewer,Google Play,org.ligi.passandroid,Z3A6QU9xcFRPR3Y3TV9hSEtKTm1IUnFjeGxPbF84N01qQmxCMUJjLTd2SlA4NUNHYy00OVA2SGRDMGJ1Y1UzQlZmTlhzUkwtSDZWZUtZbDdjdVZJLVJQaWdn,German,,5,2015-02-26,Christian Kuhfuss,Funktioniert einwandfrei,Gute App funktioniert einwandfrei!,,
PassAndroid Passbook viewer,Google Play,org.ligi.passandroid,Z3A6QU9xcFRPRVdVSVZKWFZWdkQxZmJPQU5ELWVWT2dzMUVRQzNRaXByT2NDdTFMYlMxX2pFMmdlWndBemJiLVFQNmN3UllldmVqMGE1cmFiUWNXYm1XMFBz,German,,5,2015-02-24,Bernd Kammereck,"",Zuverlässig und schnell. Macht genau das was es soll.,,
PassAndroid Passbook viewer,Google Play,org.ligi.passandroid,Z3A6QU9xcFRPSHpBOUhoQnZxV1RGYWJBOTQzelE2blJxTTR3NEl3RFMxWDV5NWQ0X21lSTdlVmpqdW51bVAyTldqWXluRWk3Sk5zZkZNNnI0NUs4OXpIQ1Zj,German,,5,2015-02-16,Tino Ballentin,"",Das gute Gefühl umfassender Unterstützung ist immer wieder schön.,,
PassAndroid Passbook viewer,Google Play,org.ligi.passandroid,Z3A6QU9xcFRPRkRuVms0MDQzT3pRM05RMHc0U2pXVHo4bW9TYnY0UHVUMGFhNFRBaVlKNVNJUXNqQUlCam5uVl9NMlBxdmptM3VKa3JMRFBiMWRRb0pmSi1n,German,,5,2015-02-16,"","",It's working as it should. Nice simple design. Compared to the others I tried this is the only real working,,
PassAndroid Passbook viewer,Google Play,org.ligi.passandroid,Z3A6QU9xcFRPSGIwRUlELVR5T0sxTnVlb0pyYUZSVVFLWFk3Uk5pVTNKMUVCQXB1N3U2ak5BNUZaYVJkQjBrTlpYMXZJczluRzVLOHlZM0RIYXNPRmJwUi1R,German,,4,2015-02-16,Sven Rohweder,Funktioniert einfach,und das ist das Wichtigste. pkpass Dateien (das sind die Buchungsbestätigungen) werden einfach importiert und sind übersichtlich absehbar. Ich würde mir noch wünschen dass man einstellen kann wo nach neuen Dateien gesucht wird damit nicht bei jeder Aktualisierung das ganze Gerät durchsucht wird.,,
PassAndroid Passbook viewer,Google Play,org.ligi.passandroid,Z3A6QU9xcFRPRnRUS3JhNndEbkplSzkzOERRZUJJemhvZUk0aUs0UldENEhxZTNSeUxZNWZyOUZPY1UtelFKdTJaRDlncWtKSldqRkx5aGI2X0JWMWxoM0pZ,German,,5,2015-02-10,Hans-Peter Mittermeier,Unkompliziert und optisch schnörkellos,"Sehr gut umgesetzt, intuitiv, keine Hintertüren! Dafür würde ich auch zahlen. Perfekt!",,
PassAndroid Passbook viewer,Google Play,org.ligi.passandroid,Z3A6QU9xcFRPR2l5RzByTTdnLVB1NGtXLVk3Tzl0WjllVWtGQlpCOGVZa2szenpOOE1XUjdmd0hoM0JMQ0ctSWVFMkFWNkx4Sl9MR19IM3g1em5USnN6a1Bn,German,,4,2015-02-07,Frida Hirt,Erfüllt,App erfüllt die Basisaufgaben. Könnte optisch optimiert werden. Kategorien können nicht erstellt werden. Keine Werbung. Super,,
PassAndroid Passbook viewer,Google Play,org.ligi.passandroid,Z3A6QU9xcFRPRk95WFpXdGp6Nlo5WV9GN0N2NUNrbWdQTVVUS1lDRmNiRFhoVXpaNTlOcmtFTjktdXdRd0hZVTNxLWdybVBZQzRYaDYtQ241YXh3M1lGUnhj,German,,5,2015-01-25,Rainer Fritsch,Gute Passbook App,Tut was sie soll ohne Werbung,,
PassAndroid Passbook viewer,Google Play,org.ligi.passandroid,Z3A6QU9xcFRPSGRpWjV2MHc2OHlzeTl2bjlCUXpWSDlyQUkwU3BfOERuc3FhY2NPVkhUQkxvS0YtSWsyYkNpbW42b2FFRm1USVRnS1VYWDVHODNBWjlJLW1V,German,,5,2015-01-23,Siggi Langauf,Passbook-Viewer ohne Nebenwirkungen,"Die App tut genau was sie soll, ohne Werbung, vollständigen Internet-Zugang oder sonstige unerwünschte Nebenwirkungen",,
PassAndroid Passbook viewer,Google Play,org.ligi.passandroid,Z3A6QU9xcFRPRjR5VGVkUEFzaV9HOVF1ZktBZ1ZSbkUxNXZUWlNxbjdOWTZNS3lGNEFIc085eXFuZVMwOWhqN0xmcmxaZHF4YXQzT3pMUzZXNUNscXZXSjdn,German,,3,2015-01-19,"",Tut was es soll aber...,"...sehr unübersichtlich. Meine Kinotickets waren zusammen, konnte die einzeln nur sehr mühsam anschauen",,
PassAndroid Passbook viewer,Google Play,org.ligi.passandroid,Z3A6QU9xcFRPRU1TZlc4eEEtY1A1N0NOOXhWZkEtMmVfQ2pYVnhCZmI4S3Z5TzI1dVY2d21qVVg1Ykp3UVozRGVDYmFPQUFrWmhSZTI2LU0tU240THFHem40,German,,4,2015-01-18,Paul Boeck,"",Leider schon einige Male Probleme mit den Scannern gehabt. Zoom für den großen QR Code wird oft gefordert.,,
PassAndroid Passbook viewer,Google Play,org.ligi.passandroid,Z3A6QU9xcFRPR0JBM0laTWc1cXJsRGtQWHVhcDVGRDB3dnJ3Q0E2c3VDYzZWTGlBSlJOX0dtdjh1NlR2VGhNYktrTDVmVHRic0g2WVR6TEU4X1V2MDNpdHh3,German,,5,2015-01-18,dd iq,ausgezeichnet,"tut, was es soll ohne werbeeinblendungen mit minimalen rechten",,
PassAndroid Passbook viewer,Google Play,org.ligi.passandroid,Z3A6QU9xcFRPR0UtczJNcThiLVlZb3J0c05OdWJaSE9zaU10elRadWxKTkcwWHZuYnRLMFFwVzAxZFhITjFlVDVBOEJVVk1NaVZwMDRhdG1xMGotNjRUdExz,German,,5,2015-01-09,Falko Richter,"",Best passbook app in the universe,,
PassAndroid Passbook viewer,Google Play,org.ligi.passandroid,Z3A6QU9xcFRPRUVYdzlnR3F3ck1RLTlhM3FkbW1odDUyamhENnpTcHZQemRBSktyYnJsV3ZoaGtwR2Y0RjUzNE9qVHNPd1ZoOVJRTGhxT2NaS0tRYUR1VGxB,German,,1,2015-01-02,Harz Knopf,Kann seit dem update nicht mehr hochscrollen,"Wenn ich hochscrollen will, sucht die App nach Tickets. Das macht die App ziemlich schwer nutzbar bis unbrauchbar. Außerdem sind in der Ticketübersicht die Namen der Ticketbesitzer, oder der Flugziele nicht angezeigt.",,
PassAndroid Passbook viewer,Google Play,org.ligi.passandroid,Z3A6QU9xcFRPRU5wa2IwN3M4cGxURUZveGc2X2NpcHFBSHphdENkeXl1QkJ1b1JFeEZxcTBGQTR0SkJuZHlXVXdTS0VZUTFPMFZMaEJKZWVhRVNtNmZMS2x3,German,,5,2014-12-30,Martinho Sousa,Gut,Tut das was es soll nicht mehr und nicht  weniger,,
PassAndroid Passbook viewer,Google Play,org.ligi.passandroid,Z3A6QU9xcFRPR2MtdERFX0NNbzZVRHVtQWJZTHR3cFBmRFJlbkt6Q1g0dk1wUXZjeHp6WFN1d1JpLWRGVDBDUWdoRFQxdmJJRTNSd0NUbW1fNERuU2o3NWdv,German,,5,2014-12-30,Martin Sternberg,"",tut perfekt was er tun soll. könnte optisch etwas netter gestaltet werden.,,
PassAndroid Passbook viewer,Google Play,org.ligi.passandroid,Z3A6QU9xcFRPSGJWNTRwQUpzaUhZU2lvcDRBSGRTWDVkUk9ISzdSMVJlYUVYcTVJbzAyVFRubzV4Q2NPcDZacy1PMHlmekw5SVNzbGJWM3JTVGlHSGxhaHdj,German,,5,2014-12-29,Sebastian Stiffel,"Love it, BUT...","...would love it even more if it would support Google Wear. I'd love to board a plane using the QR code shown on my smart watch! (Should work technically, some airlines are already doing experiments with proprietary apps)",,
PassAndroid Passbook viewer,Google Play,org.ligi.passandroid,Z3A6QU9xcFRPRXA0ZUxLMDd2TzlEcGt1UHI3MjhNNXNSSnBwVXBwWDRtRUxEVnpJSDRwYVBUQ1FLQkVCSzNzdWtfOGlyUU8wczdoRzhCRjlMVndvSmQ0TXJz,German,,3,2014-12-26,Lukas Roth,Naja,"Handhabung ist einfach. Manchmal muss man es ein paar mal probieren bis das Flugticket erkannt wird. Der eigentliche Negativpunkt ist, dass am Flughafen Helsinki der QR Code entweder zu groß oder zu klein war.",,
PassAndroid Passbook viewer,Google Play,org.ligi.passandroid,Z3A6QU9xcFRPR1dkb1RQNEhQNm9Id0x5ZVY4by1Yc1RtSEZsZm1IU3htemF3OHBzbk5XOG1ETXRlU0dIc0pDR0c3STRPWnlTTE9KVG11NEx2a0FrdjhROFlB,German,,4,2014-12-23,Henry Tinney,"",Gut funktionsfähig,,
PassAndroid Passbook viewer,Google Play,org.ligi.passandroid,Z3A6QU9xcFRPR25sMk9VSDBybW5lOTFoN3Q0bUxtSUJxMm1KZ1NPQ19MaXJwZWROWGJKcFhtbGs4YXFNelR1YzdKU3lqcC1KaEt2UHJrUk5VVmZPeWlTa2Jv,German,,5,2014-12-20,Bodo Allenberg,Perfect,Works brilliant,,
PassAndroid Passbook viewer,Google Play,org.ligi.passandroid,Z3A6QU9xcFRPRTRxMWpzc0EtRDZNb0VUcGNMcTJ1bHF6MDRDU19lUS1NNDFxRUNmcWtMa1FQRDNUUmFXSGhXSU8tV0M1S1lIVlZTNG9HZnFhM29SUVdSc1Fn,Portuguese,,5,2015-02-06,Renan Borges,Simples e intuitivo,"Muito bom, simples, intuitivo, visual clean, era só isso que eu queria, excelente",,
PassAndroid Passbook viewer,Google Play,org.ligi.passandroid,Z3A6QU9xcFRPSGhUd2ZsOU9MSFNZaXNlMEhrdnlXTUVvWXZadWl3WjNKQlllQXUxTDdHc1FkdENuQ0RVbUJ2dkh5MGMtRWRXSU1ydmF6amxTM014ZVlTbFdN,Portuguese,,4,2015-01-29,Alexandre Chabert,Faz o que promete,TAM OK,,
PassAndroid Passbook viewer,Google Play,org.ligi.passandroid,Z3A6QU9xcFRPRUpNVUJ0bWcxYlFPdXdYRWlodU4xZ295SHdMWmR5dVhLb3dnN01oazNUNkpZLWctYnVWMGFvWm9xd2IzNUhFa3ZyRTJEdVhveW5zazFKekI0,Portuguese,,2,2015-01-10,Daniel Prudente,"","Quando precisei, ele não funcionou",,
PassAndroid Passbook viewer,Google Play,org.ligi.passandroid,Z3A6QU9xcFRPSEdpUEg0YTc0MnowajNCUExFbmNCMlRVbTktQzlGVF8xLVNHVm5OSHNhWnF4TURqTF85WTNBYy1jM1JxX2lEU2NFS01pY1pUVHJrckZrRHRB,Portuguese,,1,2015-01-08,Eduardo Mota,"","Faz searching por todo o lado mas nunca abre o meu flight doc. Aconselha a descarregar ""outros"" modelos e so funciona o da Lufthansa....complicado quando existem muitas mais companhias!! :( Horrivel...",,
PassAndroid Passbook viewer,Google Play,org.ligi.passandroid,Z3A6QU9xcFRPRWxIZUF0QlY2VUxDYktNUHk0NnhvRkp0M1Q0X2hRLUhDNFhCb3ZDTVB2bWJCNGItR0U1VjI4bDZob1N1SkNhZWI4aW1YUUdpMWtlc3lvYUpV,Portuguese,,5,2014-12-29,Alexandre A. Reis,"",Excelente,,
PassAndroid Passbook viewer,Google Play,org.ligi.passandroid,Z3A6QU9xcFRPRTBfckpzUUNoZE53V1o3TURzckpqUG8xSEF6aW9YcWctRVUxWTdhdXh0VDJySFIzQ2FNY01zVU4wcFNRQmxFTzRMclhWck5BRS1aYTZiU1FJ,Russian,,4,2015-02-09,Аристарх Петросяпович,Не ищет на карте памяти.,Пришлось перенести пасс вручную с карты в память устройства,,
PassAndroid Passbook viewer,Google Play,org.ligi.passandroid,Z3A6QU9xcFRPR1ZQSVNkS1N2UFhDQk9OczVDamJIVUl5bHN6Vmw0NU1CREpkSGpoaFhISG4yUEl1ei1pY3Fqa3ZFZlRFTkVQa1RmVFBXcXpQMWFHZ0xuUHJn,Russian,,4,2015-02-07,Евгений Данилюк,"Ничего лишнего, работает как надо","Хорошее приложение! Работает как надо, ничего лишнего, надо немного причесать вывод дат, локализицию сделать. Good app, good interface. To do: date of coupon (starbucks coupons) is displayed with TZ, regular user does not need TZ. And if it possible - localization buttons like 'more'  'less'. Also, on big screens (Samsung Note 3) barcode view looks giant, does the barcode needs to be displayed such big?",,
PassAndroid Passbook viewer,Google Play,org.ligi.passandroid,Z3A6QU9xcFRPRk5QU2NBQjhNVFRNeXNEVFc1Tlg5TktaakpMNkRtQVJBY0F4RTJUSE8zeGR4VlFTNEhhNGdpTFhTRENUQlJIQlBDWHAwSFVIbzdNMzBWRVVz,Slovak,,5,2015-02-12,Marián Chodák,"","Super, nemá chybu.",,
PassAndroid Passbook viewer,Google Play,org.ligi.passandroid,Z3A6QU9xcFRPR1g3YnVyV2UtRXA0MXFPM0ZCMW5jQ2llbTRCd0kyd3FKZXJfa1NsM0VEd0FwMWYxU1VBOU00MTR6YzlFSklzOWtmTWtLbFhTN3paNXBWcV8w,Spanish,,5,2015-02-14,Manolo Jma,"",Funciona,,
PassAndroid Passbook viewer,Google Play,org.ligi.passandroid,Z3A6QU9xcFRPR09uVkdwcWt3NXVyZTk4eUNPbXRvRkJ6TzF0Yzc2RXdOWGt4VUZuU1VwdHkwTTZYS01XZVV2UjNwa0l3eldJNHIwT3FHMnRmRkt2b2pRSGhV,Spanish,,4,2015-02-10,Manuel Angel Garcia Ruiz,"",Cumple bien lo esperado,,
PassAndroid Passbook viewer,Google Play,org.ligi.passandroid,Z3A6QU9xcFRPRldzUThmRm9meV9XVTJxbV9Tc0J6bDNhS01Ma21ieDNTdnBnUk52VngyRXZiU2J4LW9OSE1sdG5lbkNKVXN1S2dOa0xZTmJlUzduaWhBeGg0,Spanish,,5,2015-01-27,Amin Boumediane,Simple y sencilla,Un 5,,
PassAndroid Passbook viewer,Google Play,org.ligi.passandroid,Z3A6QU9xcFRPR0p3MTFyQngwY2tLTUIyU0hGbEZpVTRvdTlXM2dLMzAzeS1XazQ3VURWZHFBbjNIQ0pOVWFFTFh6MkQteTBDZTRjTXhySmVZMGRaVHNXa0I0,Spanish,,5,2015-01-23,Aniol Esquerra,Suficiente: lo que se necesita,Quieres tener tus billetes en el móvil? Pues esta aplicación lo hace y además sin ningún tipo de permiso que pueda vulnerar tu privacidad.,,
PassAndroid Passbook viewer,Google Play,org.ligi.passandroid,Z3A6QU9xcFRPRl9NVk5ZUnZER0ZnWGVScFBVZ3EwamtGQW1rby05ejFKZHV1dnRNbTZkUXJUZmJ5aGhyN2EtSWdTYkVLeWViYmJUMzNyaVo5Wkc1bXB5ZUd3,Spanish,,4,2015-01-18,Arturo Gutierrez,Todo muy bien,Por ahí le falta un poquito mas de facilidad en la administración de bp viejos pero todo lo demás ok,,
PassAndroid Passbook viewer,Google Play,org.ligi.passandroid,Z3A6QU9xcFRPSEdVOXFEWmFFVVFCN1NJT3dvX1QzOWw3TXNib3drcE1GU2NFRjJvRGdWZlJIbF9lS0xSSHlqdmRjWWY1eE9rY2ZtWVVrOHg3UzI1eWFOV2NN,Spanish,,3,2015-01-17,Patricia Galán,La experiencia puede mejorar,"Es necesario que los billetes ""caducados"" desaparezcan de la pantalla principal (he perdido un tren por confundir los horarios). Estos billetes podrían tener su propia sección.",,
PassAndroid Passbook viewer,Google Play,org.ligi.passandroid,Z3A6QU9xcFRPRTBTNG1LZ0JnRFdVUnZJdS01VjFyS2FPQjY2WnBNdV82VHlldWVXeXNtc2VjdmpnNWhZYUZfem9pU1BzNVpRSlpObjl4WXdyTDZUbzh6VzdV,Spanish,,5,2014-12-31,Sebastian Ramón,Muy buena pero...,"La aplicación funciona bn, hay un problema con las autoridades de los aeropuertos porque la mayoría reconoce es el diseño de su igual para iOS lo que me a causado varias discusiones explicando porque es diferente, seria Buenos estandarizar el template.",,
PassAndroid Passbook viewer,Google Play,org.ligi.passandroid,Z3A6QU9xcFRPSFloVzl2VVVaanktMDVraVF3MFNaelpaM1ZUQmJwNVhobEdGM180aE9FWEttNnEtM3N1WnFMSHF3bGE2WGJabVJ3NWZYVmZRQkJhSHNGNV9r,Spanish,,1,2014-12-21,Carlos Toro,"",Útil,,
