good,o,2015-01-08,Sina Radmehr,5
best one,o,2015-01-07,Sina Pooya,5
excellent,o,2015-01-05,AMIR H,5
calendar,o,2015-01-02,elena salemi,5
good,o,2014-12-30,Armansa Rohani,5
suck,o,2014-12-27,Re mo,2
switch to telegram,b,2014-12-27,Re mo,2
ya,o,2014-12-21,Hamid Momeni,5
good for,o,2014-12-19,hamed samadian,5
to,o,2014-12-17,milad keyto,1
very,o,2014-12-17,Javad Mand,5
it but need to upgrade,b,2014-12-17,Sohrab Azhdari,3
very good,o,2014-12-16,Hamed Prn,5
,o,2014-12-15,muraki camui,1
ye o,o,2014-12-15,muraki camui,1
man,o,2014-12-15,muraki camui,1
,o,2014-12-15,muraki camui,1
but for me this application is worthless,o,2014-12-15,muraki camui,1
it,o,2014-12-15,muraki camui,1
but it need more improvement please,f,2014-12-14,Alireza Eskandarpour Shoferi,5
loved it,o,2014-12-13,Mohsen KInG,5
,o,2014-12-13,Hasan Heydari,5
yes this is no big deal,o,2014-12-12,ali talebi,5
best,o,2014-12-12,Davoud Hasanzadeh,5
,o,2014-12-12,Sajjad Arefi,5
,o,2014-12-12,hamed maddah,5
tank you,o,2014-12-09,MAHDY M,5
,o,2014-12-09,dezham farid,4
,o,2014-12-08,saeid Kalantar,4
,o,2014-12-08,amir heidari,5
very good,o,2014-12-01,saeid morsali,5
masterpiece,o,2014-11-28,Ramin Babapour,5
very good,o,2014-11-28,kamal hosseini,5
simple useful,o,2014-11-28,Ali Kalirad,3
best calender,o,2014-11-25,ahoora samadi,5
i love it,o,2014-11-25,Ham Moh,5
thanks,o,2014-11-25,Ham Moh,5
thanks,o,2014-11-24,yunes bagheri,5
best,o,2014-11-22,Mohamad GFX,5
this is a great,o,2014-11-22,Ali Sadeghi,4
i gave 4 star just date converter from to calculated wrong,o,2014-11-22,Ali Sadeghi,4
very light and useful,o,2014-11-18,Hosain Omidvar,5
like it,o,2014-11-17,jupiter bahman,4
in,o,2014-11-09,saeed shahbazi,4
good,o,2014-11-09,Edi Diba,4
perfect,o,2014-11-07,Soren Zand,5
bad b ham b ham b ham,o,2014-11-04,hossein rahbari,2
ham k,o,2014-11-04,hossein rahbari,2
,o,2014-11-04,hossein rahbari,2
,o,2014-11-04,Mohammad Sanki,5
good,o,2014-11-03,Omid Hossein Abadi,5
excellent,o,2014-11-03,Reza Fotohi,5
calender e,b,2014-10-31,Arash Jafary,5
perfect,o,2014-10-31,Amirhossein Heydari,5
awesome,o,2014-10-29,Danial Daneshmand,5
iii,b,2014-10-27,Hassan Gh,5
the best calendar,o,2014-10-22,hamy lexus,5
very good,o,2014-10-21,Jasa Saja,4
fine,o,2014-10-16,ali ghorbanzadeh,5
,o,2014-10-15,Hamid Bakhshi,5
very nice calendar,o,2014-10-10,THE PROTO,5
i wish i had option to change the font,f,2014-10-09,Mahdi Mohammadi,5
add a selection to select language for this a well,f,2014-10-04,Pouyan JR,5
thank you,o,2014-10-04,Pouyan JR,5
number more five star,o,2014-10-03,Amirhossein Barekati,5
love it,o,2014-09-30,Youness Maredi,5
great,o,2014-09-29,King AA,5
,o,2014-09-26,mahdi mahdi,3
,o,2014-09-20,yasi nz,5
it good,o,2014-09-19,Shapour Dahaz,4
i really needed like this,o,2014-09-18,Pegah Mehrabzadeh,5
best calendar found ever,b,2014-09-18,Ali Abulhallaj,5
awesome and practical,o,2014-09-14,Amirali Rayegan,5
the best,o,2014-09-12,مجتبی میرکمالی,4
but it is not complete,o,2014-09-11,Mojtaba Sadri,3
nice,o,2014-09-11,Seyedreza Kazemi,4
,o,2014-09-09,اکبر چراغ سحر,5
no thats i hate ad,b,2014-09-08,Siavash Takallo,5
,o,2014-09-04,Morteza Khlivfavi,5
perfect,o,2014-09-01,Alireza Nofel,5
best,o,2014-09-01,mostafa abolghasemi,5
i like this,o,2014-08-31,behzad g.,4
simple and friendly,o,2014-08-31,behzad g.,4
the other calendar by need access to which is not needed for a calendar,o,2014-08-31,behzad g.,4
,o,2014-08-27,Kaveh Vahidi Naeini,1
thanks a lot,o,2014-08-27,Reza Poorghasem,5
,o,2014-08-24,hamed hedayat,3
,o,2014-08-14,Farzad Sameer,5
good one,o,2014-08-12,Meysam Gasemzade,5
it could have bring a notepad and reminder syncing with too,f,2014-08-12,hossein shams,5
good,o,2014-08-11,Sara Y.p.t,1
love it,o,2014-08-10,Hoda Arvandi,5
the best calendar in the world,o,2014-08-09,Davood Taghipour,5
i found this very useful,o,2014-08-05,Armin Ghassemi,5
nice,o,2014-07-31,Farzad Forozmehr,4
best and yet free,o,2014-07-28,shahriar ebrahimi,5
thanks bro,o,2014-07-28,shahriar ebrahimi,5
good job,o,2014-07-28,shahriar ebrahimi,5
,o,2014-07-27,Benyamin Saeedi,5
fast and simple interface,o,2014-07-25,Farzad Ghanei,5
support character and come with a nice compass built in,o,2014-07-25,Farzad Ghanei,5
thanks for this nice,o,2014-07-25,Farzad Ghanei,5
good,o,2014-07-08,bahram n,5
,o,2014-07-04,jamshid ezadpanah,5
,o,2014-07-03,kourosh zare,5
,o,2014-07-02,A Google User,5
,o,2014-07-02,A Google User,3
good,o,2014-07-01,Farshad Salamat,5
awesome,o,2014-06-27,peter wilson,5
i love,o,2014-06-27,peter wilson,5
good at all,o,2014-06-26,Sina Masihpour,4
very,o,2014-06-23,Hazhar Latif,5
it ha a good composition,b,2014-06-20,Mostafa Ramezani,5
,o,2014-06-20,Pouya Std,5
,o,2014-06-20,fazrad behzadi,5
thanks,o,2014-06-20,Shabnam Noori,5
simple good open source calendar,o,2014-06-18,Bersam Karbasion,5
best calender for android user with good feature,b,2014-06-18,Behnam Ahmad Khan Beigi,5
clear and well organized,b,2014-06-18,Bahram Raufi,5
and lovely,o,2014-06-11,Moji Jan,5
and delete the message of the day of,o,2014-06-09,Mohammad Rassoli,5
,o,2014-05-28,Ali 1989,5
very good,o,2014-05-26,Moein Rabieh,5
the best helpfully,o,2014-05-19,alireza jafarnia,5
very good,o,2014-05-19,A Google User,3
,o,2014-05-09,A Google User,3
,o,2014-05-04,Hewa Banazery,5
very good,o,2014-05-04,reza khalafinia,5
well done mate,o,2014-05-04,reza khalafinia,5
nice job,o,2014-05-01,Shawn Lp,5
very good,o,2014-05-01,milad taram,5
nice,o,2014-04-20,ali jan,5
good,o,2014-04-20,saman masha,5
thanks,o,2014-04-19,Re za,5
for this,o,2014-04-17,mahziyar leo,5
excellent,o,2014-04-07,Nissar Nooree,5
minimal and excellent,o,2014-04-06,,5
,o,2014-03-27,Mehran Ghee,5
perfect proud,o,2014-03-23,mohammad ghayem,5
i like it,o,2014-03-22,,5
thanks for creating,o,2014-03-22,,5
thanks,o,2014-03-12,Saeed Mahmoudi,5
i like it very much,o,2014-03-12,Saeed Mahmoudi,5
simple and complete,o,2014-03-12,Saeed Mahmoudi,5
work perfectly and great transparent widget,b,2014-03-07,Reza Ahmady,5
well done,o,2014-03-07,Reza Ahmady,5
,o,2014-03-01,A Google User,4
,o,2014-02-24,Sahar Aghapour,5
perfect,o,2014-02-24,amir Emami,5
you are my hero man,o,2014-02-24,amir Emami,5
nice,o,2014-02-22,ms Farokhi,5
mate,o,2014-02-21,Ben Johnson,5
keep up,o,2014-02-21,Ben Johnson,5
like,o,2014-02-13,Omid Rajabagha,5
functionality is just recommend a different color palette for the calendar to mark current day and holiday,o,2014-02-09,Reza Behrouzi,5
i enjoy it,o,2014-02-02,Eli Kh,5
thanks,o,2014-02-02,Eli Kh,5
it had problem to show under the calender in main page,b,2014-02-01,Hamed Bashiri,3
my device is rooted and ha,b,2014-02-01,Hamed Bashiri,3
i rated a 3,b,2014-02-01,Hamed Bashiri,3
,o,2014-01-21,A Google User,4
,o,2014-01-19,Sheraz Janan,1
,o,2014-01-18,Mahmoud Mohebbi,5
great,o,2014-01-17,Ebi Dashty,4
in,o,2014-01-17,Iman Mdd,5
work well,o,2014-01-09,Behzad Biglarbegian,5
this is one of the best calendar,o,2014-01-04,Mo A,5
it work nice and i love the widget it come with,o,2014-01-04,Mo A,5
i have it the date right on my home screen and also have the date well,b,2014-01-04,Mo A,5
i have also set up my latitude and longitude to setting to show me the prayer time,b,2014-01-04,Mo A,5
this is just flawless,f,2014-01-04,Mo A,5
thank you much for making this,o,2014-01-04,Mo A,5
,o,2014-01-04,mar gh,2
,o,2013-12-30,A Google User,2
too help,o,2013-12-30,A Google User,2
excellent,o,2013-12-28,Zohreh Ebrahimian,5
,o,2013-12-25,ALEX ROSHAN,5
,o,2013-12-21,hossein naseri,5
,o,2013-12-19,Farid Senior,5
not so bad is best d,o,2013-12-15,Milad Hashemi pour,5
good,o,2013-12-14,Arshia karimi,4
,o,2013-12-13,mohammad raei,5
useful,o,2013-12-12,Siamak SIS,4
fine,o,2013-12-12,Shabzadeh7,5
recommended,o,2013-12-12,Shabzadeh7,5
need more setting,b,2013-12-12,Ahmad HE,4
great calendar,o,2013-12-12,Sadeq Naqashzadeh,5
the best,o,2013-12-12,Mirza Khanjer,5
