it,o,2016-02-28,Siavash Heydari,5
wa better on last version,f,2016-02-28,Mohamad.H Be,5
icon may cause reading mistake on lock is better to change program icon,b,2016-02-28,Mohamad.H Be,5
very good,o,2016-02-27,علی مجدی زاده,5
very good,o,2016-02-27,Amin Oghani,5
handy and useful,o,2016-02-27,Reza Ardalani,4
the new look is great,o,2016-02-27,Damon Vm,5
