App,Store,App ID,Review ID,Country,Version,Rating,Date,Author,Subject,Body,Translated Subject,Translated Body
"Kore, Official Remote for Kodi",Google Play,org.xbmc.kore,Z3A6QU9xcFRPRVR0am9fWkdaY3hSNnpZWHlQRUZxa2o5TVVhVURTU01rcHlXNk9pMTlaZkViOTNtU0JHWkdSRHJQdjZpRGFGVlZGSmc5b0xKeGc2SEk0QkE,English,,5,2015-04-22,Emir Adha,the best !!!,easy to use,,
"Kore, Official Remote for Kodi",Google Play,org.xbmc.kore,Z3A6QU9xcFRPRXUtaXFwVkRzYlRkZVlXdmVTMk1TeEkzNXdzd2F2R0lvNGNfeXZfd1JvdDRWQ2FWNXlTRHFubHlHQWNQMEgwemVhY3lLUUI5QXdibXNOb2c,English,,4,2015-04-22,Shane Kennedy,"",Excellent considering it is for free. Thanks,,
"Kore, Official Remote for Kodi",Google Play,org.xbmc.kore,Z3A6QU9xcFRPRTF6VzByN0lvbnAtNmZfUWs2V3FiVDVMNjlOLUpGVmI0b2c1QTJDRDlKTW5fNVNCY3lpNnlDWWNOdlBWXzZhdVZCeXhSa2lMaGt1M0IwTmc,English,,5,2015-04-22,Steve Tolley,"",The nuts,,
"Kore, Official Remote for Kodi",Google Play,org.xbmc.kore,Z3A6QU9xcFRPRjBwOTU0blpuV0REY3JIRVZ4ME9CZ19STktTU3JudExLZ1hOMDRqak5zazBVZzFOUzJOTnZEUlBPWGRlMXk2QW1KVjhMZlFNQy1FVUNRS1E,English,,5,2015-04-22,Gaetano Catalli,"",Amazing!,,
"Kore, Official Remote for Kodi",Google Play,org.xbmc.kore,Z3A6QU9xcFRPSEFxdlR2X2haa0l5WHBRN2szTzZRNzh6bG5DX2N3ZTVWYUN5TGRKQTBncEdZX2dzLU1jcmdCeWN3Si1ZRE03eWJHeEE4Tk1QZThkQml0S1E,English,,5,2015-04-20,Ben l,Love it,App works great. Connects every time all ways work.. I just wish when trying to cue a song the button was a bit bigger for us people with big fingers.,,
"Kore, Official Remote for Kodi",Google Play,org.xbmc.kore,Z3A6QU9xcFRPSFpQenNjcW56M0FIaHlCV0xBYlo1aXZRQ2pod0Z2bHRtV3ZjdGFsTzJmanJteFJZS1h6cVNrTUNZNmlzWk5QZkVieDZnNXczSDgxY2lZTXc,English,,5,2015-04-20,Rev.Erebus Sulphur,Perfect,No problems with it and easy to setup.,,
"Kore, Official Remote for Kodi",Google Play,org.xbmc.kore,Z3A6QU9xcFRPSExyQlpQbmdqZGxvWlRCTXJGay1wcWlWOUxpOUE2MThvWFlHVXhBYnFOT25xWkhaUXhXMTlNNUg0Yk9jd3hDOTNXTk0wWFdWbmNSeVlqelE,English,,2,2015-04-19,boazpr,"",Problem connecting,,
"Kore, Official Remote for Kodi",Google Play,org.xbmc.kore,Z3A6QU9xcFRPRno4SDZqbnNCSGpNS3ZpOG5McEtZT2w3ejZvMHdGamV3R2hScktmdUVxa1pwaHdwRVJBdk1EaUJqTUhhVm1WaFZlVFNUMU00YldVWURvc1E,English,,3,2015-04-17,Onno van der Stelt,Unable to control add-ons,"Great remote control app for Kodi, but unfortunately doesn't allow me to start and play from a music or video add-on.",,
"Kore, Official Remote for Kodi",Google Play,org.xbmc.kore,Z3A6QU9xcFRPRTFCTlB6T0JnUDJKVkh2cUExeklXMF8yUjJtNFl1QkhsaV91T3V4YVVuQlZzU1N0c3RJXzd0b0tIUE5ITmplY1ZzYVJhN1N5ZnhDWHp0M1E,English,,3,2015-04-16,Dishon Mitchner,"",Needs a widget,,
"Kore, Official Remote for Kodi",Google Play,org.xbmc.kore,Z3A6QU9xcFRPR1BUZmZPWFNQMW9SUE0xU2dUeFozMWh0YzhCeHd5Tmp4ZzJLWVVLcy1MYWpBaFBIWFI3ZG41LVlXRG5CTDNiaVdGX013anN0Z3dfay1adVE,English,,3,2015-04-16,Jason Alexander,"Very slim and fast, unfortunately missing some features","Yatse still beats this for me, I'm missing a couple of button(s and) functions such as skipping through a video with the up,dn,left,right buttons. And toggling fullscreen/overlay without having to jump through a menu first. Yatse's navigation keys are also bigger which is nice even on my 5"" moto g panel. Being able to send video URLs to Kodi from the Android share menu would be nice.",,
"Kore, Official Remote for Kodi",Google Play,org.xbmc.kore,Z3A6QU9xcFRPSDNkQUdrZVZCclNJTEFKZzV5d2tMbEY4YWhQQkZRQTc1X242d1ZsVHlycEh0VTN2ZWVMYjdnYWxoNGQwTUlfNEhlRjNLSk4wbG1YbVlsQlE,English,,5,2015-04-15,Jay Pettigrew,Very slick,"Awesome app, pulls in all the meta from the server. Very clean.",,
"Kore, Official Remote for Kodi",Google Play,org.xbmc.kore,Z3A6QU9xcFRPRk9nbzMzR2RiUV9XVEpPYTMxeC1Qd3lLMjNvYUY0Rmg2a3dwcjB2Ri1aNnpFYW43OThfakliUUVCYVZQZ0ZYTEFIazJmOE9ibnFhYTZlTmc,English,,5,2015-04-15,Sebastien Poisson,Nice app!,Works perfectly.,,
"Kore, Official Remote for Kodi",Google Play,org.xbmc.kore,Z3A6QU9xcFRPR2JvWjhTRFhodGhabTE0cUM4aVhNd24yWlhDZV8zY0JPOXJidG82Tm5RTnB1Q1dyMkE5UlJxUEF4LUlicFlxbmszaVhucGo3M3F0Qy1hZ3c,English,,3,2015-04-14,Shawn Brandel,"Looks good, lacks functionality","Lacking functionality that is found in the original XBMC remote. Vibration on press, left/right should be short step advance/rewind, a stop button on the main remote screen. Would like to see the ability to display notifications from selected apps.",,
"Kore, Official Remote for Kodi",Google Play,org.xbmc.kore,Z3A6QU9xcFRPRUV5NGxjN0w3R0VORXlmQWxLR2hQN05XLXZyU3lSZkU4SV9QYXNkVS10TFJDbHNkZzlMTi1KanZPT2NFNlVRVnAtM1ZWOU9kUTQ1R3pEMUE,English,,5,2015-04-13,"",Beautiful App That Works,Just switched from the old XBMC app. This is fully functional and a very nice looking app.,,
"Kore, Official Remote for Kodi",Google Play,org.xbmc.kore,Z3A6QU9xcFRPRVMtMkptenM0eUVla2ZBMjJtNFJqWFU3SHdiaVRnSmxEckNoSkRUb2tZdktTZmRRc1RFTm92SXdsVktqcGl6VGhYSlBLNGsyOEp2a0hJOFE,English,,3,2015-04-13,Anna Holtz,"",I really miss using the arrow keys for the 30 second skips.,,
"Kore, Official Remote for Kodi",Google Play,org.xbmc.kore,Z3A6QU9xcFRPRmdKcnZjNDU2NmZZb2RKNVVjMXJuVGxrN1JuTDJjTmt6SVY3cGUwX1lFajRNVDQwUjhzM1JHYVJVdzhvbGlWRm9tNHRUM2VQTldWS2FNOXc,English,,5,2015-04-12,Ollie Lucas,Great!,"Great app but really need haptic feedback, I'm so clumsy and most of the time I'm looking at the Tele!",,
"Kore, Official Remote for Kodi",Google Play,org.xbmc.kore,Z3A6QU9xcFRPSDdueklGdjBjaEhNT1dmcTJpYTFhcF95RnZ6MkY2TFBrUXFQd1JkbDlaM1BlM3ZxWThWTWtYbzFOUXdxWTdvRExsaWR0bENKZFFCUHRoekE,English,,5,2015-04-12,Andrew Tomlinson,Playlist,"This is brilliant, I have 3 media centers, living room, bedroom, kids bedroom and have it setup for all of them. Would it be possible to save a playlist from the phone?",,
"Kore, Official Remote for Kodi",Google Play,org.xbmc.kore,Z3A6QU9xcFRPR2Y2Ry1KRnVoNkRGRGk2cHJmeXNCdC0zRzZJVWc4VU5WUnlGRUdUSGhxS3IwUVVvTGNkaDA5bVk0OWpPakR1T3lKTmoxMmRiVzdrOVFqWlE,English,,3,2015-04-11,Awadi F,Its OK,As a remote control but it will not play the media from kodi onto your phone or tablet. No addons good app but needs work. Thanks,,
"Kore, Official Remote for Kodi",Google Play,org.xbmc.kore,Z3A6QU9xcFRPRnJhUzMyNktrdEItUEkzcVUyLXdlRC13SnVyaUZwWXNDbGlKNmhCQzNNcXdsRTZCVlh4NXVkYTJnRzY1U3lGUUhoSFIzQ2tobkpselBta3c,English,,1,2015-04-11,Charles Delroy,Nothing like Yaste,Tried it... Deleted it. Going back to yaste.,,
"Kore, Official Remote for Kodi",Google Play,org.xbmc.kore,Z3A6QU9xcFRPR2EwLTdhNUVndFZyUTVpcmhHZ3F5Mmt3ejFOdENIX1VMc0Q4N0ZTc0dacTRITTR5Vm1WTHpnWHJRRkNMUzB5RFEydWN5eGpDY1JGRGZjdFE,English,,4,2015-04-11,Jesse Beard,shaping up to be real nice,App is currently very nice.  Looking forward to more updates.,,
"Kore, Official Remote for Kodi",Google Play,org.xbmc.kore,Z3A6QU9xcFRPRWhSTl9WY1JhVEF1SW1jVldHQmp6RURLNHNmLVNKY0FIRzdNX2Jqb05WVVJiRW9Ubmdfc1FxS0dDY1ZHbGVEd2hlSFFETlh6d01EdkJPRlE,English,,4,2015-04-11,Oladele Arilesere,Awesomeness in the making,"The potential is clearly visible, I only expect it to get better over time even though it's already great.",,
"Kore, Official Remote for Kodi",Google Play,org.xbmc.kore,Z3A6QU9xcFRPRU1qNzY0bEgtc3JjX2w0endLMm9ka3RSYnRPeUtlcmF3VDhrc0xQWi1KU09tOUlfV2l4SUxLWWZFd3dEUGtiVjAtYW82dnAzRXFvd0VfeVE,English,,4,2015-04-10,Costa kavvouras,Great app,Glad to see there is an official version of kodi remote. I would love to a track pad option.,,
"Kore, Official Remote for Kodi",Google Play,org.xbmc.kore,Z3A6QU9xcFRPR0JlNEp4dm55dk9FMjEtd0tSM2JvdXlGNnBneUh4WnlCbDA4WW9yZlVrenFnOHJUenVCTVlvWUN5emVFQmsxYjl3SklLSUlRVE1GUzl6WEE,English,,4,2015-04-10,Chris Foure,Chromecast,Please add Chromecast support.,,
"Kore, Official Remote for Kodi",Google Play,org.xbmc.kore,Z3A6QU9xcFRPR3lDYUE5RWRLSU94UVlKaTduemFVbmlPSnRDMFVpWnFUdHI0aWlWRWtvSkx2UFlLYjZiR3JXYWZEVjdXN2I4cVN2ODh6d29PVnBnd21uQlE,English,,3,2015-04-07,Brent Papenfuss,Good,"Definitely better looking than Yatse, but needs Wear support",,
"Kore, Official Remote for Kodi",Google Play,org.xbmc.kore,Z3A6QU9xcFRPR1h3TktPWl91bFhMdWo3ZmZza2pKbTNoNDkyODZPWkg4Y3h5Rm41eFM2NGxwVFQ0QlphVkIyamZwb3NsLWFlelFTRnlUZjR3LWtvQ2thZHc,English,,4,2015-04-07,"",Add EPG feature.,"Awesome app, now I only needs EPG browser to see what's on.",,
"Kore, Official Remote for Kodi",Google Play,org.xbmc.kore,Z3A6QU9xcFRPSDVhT0JuUVV4YmJsOTlrSGQ4cDdyR3pUTnNSVVdqOGVjd3VrNXBkd0phdy1LcjNPc2Q4RmNTX2JUeVluaGwzZktMN3ZoMW5jTDJZNGhqbkE,English,,5,2015-04-07,Garry Owens,"",Brilliant,,
"Kore, Official Remote for Kodi",Google Play,org.xbmc.kore,Z3A6QU9xcFRPRVRxclhreHBhdVM0cFpKSk9qSTBBNGVoTjBweXJTWmZNaDFRUVhRQ3czWXVHaUZDRXU5M1otZkF0R2dENjJwYXZhRXh1R1lYbGpRa1NzUmc,English,,1,2015-04-06,Josh Tofflemire,Doesn't connect...,It had connected to update now no go,,
"Kore, Official Remote for Kodi",Google Play,org.xbmc.kore,Z3A6QU9xcFRPRW1qTi1zc3cwcUxCN2NxdmtHUDVZYURsQ2kzZUVuVklzVURSWGNZejlVZXAxYnFSR1I1QzVwX1g0TTN5UkQxQVRCUTdoR016M0M4UXVlTXc,English,,5,2015-04-06,Pașca Alexandru,"",When I first saw XBMC I said: This is an amazing program! Kodi and Kore now rule my cloud media experience.,,
"Kore, Official Remote for Kodi",Google Play,org.xbmc.kore,Z3A6QU9xcFRPRVRqTmdxZG1tSjFSbGJsTkFBT21UM01Dd2ZOQUllM3AwQ3ZaUGhNRy1xTGlqY1NISE1kZ04zenZkdXlzWVp3S08weFpDb05ySWkxX2VzZmc,English,,5,2015-04-06,Mark Waterbury,Awesome,The XBMC Remote deserved an update and you guys delivered. Way to go! This is so much easier to use.,,
"Kore, Official Remote for Kodi",Google Play,org.xbmc.kore,Z3A6QU9xcFRPRUY4b3Y0MWFhemdxX1lXem4zSV9KQWlWNTdCRVZHd3ppNDkzNnhMUmpzN1lDUUszWE00aGI4Vmw2MXhMQXdDRUxwYmxmM0pMRXZoTFUyaHc,English,,5,2015-04-06,David Madden,Ignore all the imitations!,Run everything from your phone including addons!,,
"Kore, Official Remote for Kodi",Google Play,org.xbmc.kore,Z3A6QU9xcFRPR1AwZHY5VHhrdk4yRnVqclRlT2VCUXJ1bldGNmRZU25FazBVT0huMTN6aEJtdEoweFVrWkg1eFZSRV85NGh4R01WWlZlNk1WNHhQRmtQc3c,English,,5,2015-04-05,Christopher Meadors,1.3 Update is Amazing,"The file list makes this remote so much easier to use. It is a little difficult to scroll down a long list on a TV screen with the arrow button because there's no physical guidance to keep one's finger centered. Being able to look at the phone to see the list is so much better. Add Android Wear support so I can pause playback from my watch, and I'd give it 6 stars.",,
"Kore, Official Remote for Kodi",Google Play,org.xbmc.kore,Z3A6QU9xcFRPRnkzRHJXcWhBM3NFbDE3SWc2YTlpTFNQUE1OTjZXMGFBQWc4R1Nxd3FBc3h3OTB4RmVZWExwV1JibGQ2SzNVaEZGN1BuMjE1M0ZtNWR6NXc,English,,1,2015-04-05,Erik Johnson,They actually made it worse than it was before.,"They fixed the ""Toggle Fullscreen"" bug, but now the remote drops the connection every few seconds and has to reconnect. Also, how do the up/down/left/right controls not perform the jump forward/back actions? So, if I want to jump back 30 seconds, I have to rewind, then pray to the Flying Spaghetti Monster that the remote doesn't drop it's connection before I need to hit Play. This app is completely unusable. I hope it gets better, but until then I don't see any reason to stop using Yatse.",,
"Kore, Official Remote for Kodi",Google Play,org.xbmc.kore,Z3A6QU9xcFRPR2t6VzUweUY1U05mV2tvb1d5MG5vNnlLNnFfR21DbTlIQW53a3RQM21NdnRYU0NzcXRpa1hnNlRtN2JldVZELXVreWVrTHprR3JxcDdTWkE,English,,1,2015-04-05,Anthony Wolf,Too hard to install,Needs to be easier setup. Could not find my media center.,,
"Kore, Official Remote for Kodi",Google Play,org.xbmc.kore,Z3A6QU9xcFRPR1I0aWdLMDg1YTFUS2EzNzFBSklheDRqc2RhRng1b0ZoMUpsWXhIZE1pekt4X0d5RWdnVG1TU1IzN3RJaGoxQktXNFZPSDJqcEZZNFJnZ1E,English,,5,2015-04-05,Barnabás Bae Horváth,Love it,"I really liked the old remote, and I was kinda worried of changing it, but after 2 minutes of use, I just love it. Nice UX with some clever materialish improvements!",,
"Kore, Official Remote for Kodi",Google Play,org.xbmc.kore,Z3A6QU9xcFRPR1VWcVZva0N6bmlMSG1iOFd6SFQ4aDBYa2hnZkwwbVY0NWhjSjFSR2xGRTZTU3dSa0pIUHd2OHhZdk45bEgyLXVmdTUtYWhuRV9KVlQwN2c,English,,4,2015-04-04,Isa Erginyavuz,I am happy with it,"I was disappointed that volume icons on Yatse remote did not work well. This application does the basics without any problem, so it gets better review. Thanks!",,
"Kore, Official Remote for Kodi",Google Play,org.xbmc.kore,Z3A6QU9xcFRPR29HR2xpZDc3cHVCa1JHVkwzRThvU1VhcTJOYXItNjlLdGt0eWwwTEZsVVpFMEY0YmRobVhPRkpjTXByekFKZWJxNDl5OFRxakZGWjNqdFE,English,,5,2015-04-04,Ramses H. Trejos,Awesome,Great functionality.,,
"Kore, Official Remote for Kodi",Google Play,org.xbmc.kore,Z3A6QU9xcFRPSEJXT21kZ1NyMmNSRm4xLWRqV2llb0p6WWJwYzhjUzFOVVN4N0hmYklRYlRJM2NBS1pTb3Y2QTJRdnMydGdzbDZDSC1LM1FzVHc2SG1kRUE,English,,3,2015-04-04,Alexander Petrusa,"","Looks good, BUT I am using it to watch my saved series... and all the ones that have more than one season have all the episodes doubled?",,
"Kore, Official Remote for Kodi",Google Play,org.xbmc.kore,Z3A6QU9xcFRPRVFsYlpGNV92blFXUXg5LWI1ZEFYcTJLUzQxWGJJUnJhMFM5RXlmQUlYSlhkMmF2ODV0OVF0MkloTmloWkNmcmc5UWxkb3JHNnpSNnp0MXc,English,,3,2015-04-04,Dean Parry,Well presented!,Lacks PVR!,,
"Kore, Official Remote for Kodi",Google Play,org.xbmc.kore,Z3A6QU9xcFRPR0wyMTNGNmlhZVB1UWx2eHY1UWRQekRVTm5vcnFZTTZlT09Vc29VbXdwTjhDa0JiWGxubWhPNGZVWGlWeGRsNnM0TDE4dmZzU0VLOWdWRkE,English,,3,2015-04-04,Carlo Chilingirian,Ok,"I like the app but it will be more useful if I can use it to open the addon, tv show, episode instead of just going to the menu and having to get to it the long way. Or give a way to pick our favorites from here.  Thank you for your hard work.",,
"Kore, Official Remote for Kodi",Google Play,org.xbmc.kore,Z3A6QU9xcFRPR0tocS1HMGphUVVLVjU3YTBRUGR4Zl9FZ3cxQkFIa3dvOHJGOXAtN1I3dThpU1JIMjI2bU1vZzMzUXZna1E5dUxJbzBEa3R2OVV3OTFFZmc,English,,4,2015-04-04,Michael Monreal,Great app,"Kore is a beautiful and functional app. Only thing I rally miss is the ""send to Kodi"" functionality Yatse offers. Hope you add this soon and I will add the missing star.",,
"Kore, Official Remote for Kodi",Google Play,org.xbmc.kore,Z3A6QU9xcFRPRm1KMmctM1ptaFJLUFVSemhDVlRWckF4LWVmWk5ac3d5a19oU2U1a3RPdDNEWEFRNXhDV0tESVFqb3FFZTFqdzE2emVBMVlaNUxvNHE4TlE,English,,5,2015-04-04,Nezih Çetinsöz,Great just great,"Absolutely fantastic. Running OSMC on a raspberry pi2 with a stunning performance and with kore app, and this is exactly media center and library management I had in my mind.",,
"Kore, Official Remote for Kodi",Google Play,org.xbmc.kore,Z3A6QU9xcFRPRUR6Q0tVZWhYZVJIOGR2WFN1MlptXzUtaVlac29RMi1oWm9mcVBxaUdvTXVoTnd1dFJfZ1ZkTmpuN2FCajZ2b0JWaVBaVTBDRmxmalU4NGc,English,,4,2015-04-04,Adam Thomas,Nice,Excellent remote! Needs a widget though!,,
"Kore, Official Remote for Kodi",Google Play,org.xbmc.kore,Z3A6QU9xcFRPRWpCVWNFb2FreHVlRFRkUlhpR0NfRE1jeFhYeFhVY181dUwzTURkMjNodjNuREdVUmRheUYyTlNDTEpMZnIxZHE0UzRpNF9iSDlMM0xvU3c,English,,4,2015-04-03,Lou Fourquet,"",Could use number pad for entering TV channels.,,
"Kore, Official Remote for Kodi",Google Play,org.xbmc.kore,Z3A6QU9xcFRPSEFuQllJSnVLNGl0cUhqMHBRZGxzTEZqckFSYTVoV0lYT2I3NHZRUHRMdVhRTjJBZ2VkYlgzUlZBNzYxbWpPeG52UUJXZXcyTXlfN2R4bmc,English,,5,2015-04-03,mujtaba zaki,"",Loving it,,
"Kore, Official Remote for Kodi",Google Play,org.xbmc.kore,Z3A6QU9xcFRPRnI2Q2VwNVM2Y00zUlpJLWtkbDJEcTJBLTJkc09KNWx4N19RaDBONGxJZUFWZ1lzVlFSbk54N09HMjZmRlNXeDVkNm90Sy1NZHR4dU5Ed3c,English,,4,2015-04-03,"",Good but missing media streaming,This app is the second best remote after Tatse. Just missing streaming options to view and listen to content on other devices.,,
"Kore, Official Remote for Kodi",Google Play,org.xbmc.kore,Z3A6QU9xcFRPRmpHQ2FxdFQ1WXowd29lMVMwYWsycWJCQ24td215VW1LaTA2WWlvcU16cE4yVmpiejJ2TnhxWTdocjJNVXROemVuREFoTkN0cF9sMEFYWUE,English,,3,2015-04-03,Courtney Dagenais,"",App is a little off. App keeps popping up,,
"Kore, Official Remote for Kodi",Google Play,org.xbmc.kore,Z3A6QU9xcFRPR3JZZUtMRms3XzBQdHJTY1lnODQwRU1CQU5YZnpaNXpaT1JPVW1XTWd2M054cE55Q1UyMDdrbWI1RXlINlBqTHplWmk0TGEwQlVmQnlqUkE,Dutch,,3,2015-04-16,Indra Fransens,Nice app,.. But it often loses con'ection while playing something on xbmc,,
"Kore, Official Remote for Kodi",Google Play,org.xbmc.kore,Z3A6QU9xcFRPRWxKcU1PcjdIVl82OUF3SVhuOVRFaHczMG12WDRLZ004V25xUmk1V1Zwcmw3M0FaVXAwb1QxY0dKaTY3bllEQVVHakdVWFVDZ2NJWW9rNkE,Dutch,,2,2015-04-06,jacques van Enthoven,mappen,leuke app kan alleen niet door mappen zoeken. jammer.,,
"Kore, Official Remote for Kodi",Google Play,org.xbmc.kore,Z3A6QU9xcFRPRmNkSGF5R2VWeER5Y2g4THRIcWN4VkhXSU5wb1QtRVF0cktsUmlOTm42MmlMTWxQd1dPbzhXMDIxa1FFYjh1d2NXRVE3Q2NSRjl3dmtPWUE,Dutch,,5,2015-04-04,henk dekkers,"",Oke,,
"Kore, Official Remote for Kodi",Google Play,org.xbmc.kore,Z3A6QU9xcFRPSER6SUhlMnl1Z3NsVGVNaU1nd1VHSlVPSEVLX2VQUGpsRVJtN2ZNQzQ0czRCUVdxVnh6aVFCMWZ3c1cweTVTeHlYRGJOZmp1RE5RYUU3bFE,French,,4,2015-04-21,mathes9505 Tube4All,Un bonne alternative,Pour Yalses en plus officiel 😀 Enorme en tout cas il manque juste la lecture à distance par dlna.,,
"Kore, Official Remote for Kodi",Google Play,org.xbmc.kore,Z3A6QU9xcFRPRVlSUGFvcGNubC1rVmpoWFdGWGFoU1JzeXN1VjUxUTFEVVBjU0Noc1JyaG0wNDVpbkVTeGhMZjI1VjJvQmFHTFdJVjhSeGc2WnMyNXpwc1E,French,,4,2015-04-11,Gauthier Bastien,Vraiment très bien,Malheureusement on n'a pas accès à l'entièreté des fonctionnalités comme les lyrics qui sont eux bien dispos sur kodi mais c'est qd même très complet!,,
"Kore, Official Remote for Kodi",Google Play,org.xbmc.kore,Z3A6QU9xcFRPR3pPRVVEekJvWkVyN24tYkVxVVotZlJKRm9PQWQ0M2dPa25jeW9MNlRQYUtveW9rRjg0YUJEdXFFRm5OQVZLVzg0MmFkR2dKbEpKZmpoQnc,French,,5,2015-04-09,Damien Telle,Parfaite,Rien a redire,,
"Kore, Official Remote for Kodi",Google Play,org.xbmc.kore,Z3A6QU9xcFRPRTU2M0xxU1BzeHBHN2RyNmRTcE1OMEY0dEExVTAyZTJWakdtMGVNVnFVS1hPNHF5RlptWDdZZGdJZm05Vzl6MTVGLXY4MmZ6elBZQktUU1E,French,,3,2015-04-08,pascal collet,A great start but...,"Sorry but yatse remain the Best app to control xbmc, kore is missing à lot of functionnality",,
"Kore, Official Remote for Kodi",Google Play,org.xbmc.kore,Z3A6QU9xcFRPR3E3NFBVc1FVWDVZb3N2dEIxd290Q2VQM21EajZYT0c3QzFwQUJrV0RRbmlRYWlOUlpuN1RNcHVtVzNIUjZPWFVsbDZEQnRkTUo5ZzU4eUE,French,,1,2015-04-03,Yann Guyot,Mouais,Yatse mériterai largement plus d'être la télécommande officielle.,,
"Kore, Official Remote for Kodi",Google Play,org.xbmc.kore,Z3A6QU9xcFRPRkxZTU9STFhISkxZWGN1My1MVzYyWU1nN3E5TjU1blVKdmQyOHhMQ3NuQ3hLSS1TVEdtb1BicDVVbk9kMlVXOWxyWEZBMFFsZ2RPU3RWTlE,Greek,,4,2015-04-06,Vasilis Tsap,"",Sometimes it loses the connection and you have to refresh...,,
"Kore, Official Remote for Kodi",Google Play,org.xbmc.kore,Z3A6QU9xcFRPRmVKYWpmeVE4TUZZNElMa1ExWUZZUHlVclJYSl93QVdKbEpaTmlNczF1czlaaXQxYlpncWx4X3pYRExtRmQ1bWM0dTJERW9PdGtZYjRENEE,Chinese (Simplified),,2,2015-04-16,结夜野棠,there is a bug！,direction keys are unable when playing video.,,
"Kore, Official Remote for Kodi",Google Play,org.xbmc.kore,Z3A6QU9xcFRPR18yR2F2Y3RhNlFwT0FoWnNDcnRiRXhibm9Vc2M0UzFTS0NPcFRxOUtoTjdPQ0ctTmdRaFZvMVR3VFVjT0lYcUlhN21NanIzcnp6YWJOTnc,Italian,,5,2015-04-21,Simone Dagli Orti,"",Sfiora la perfezione,,
"Kore, Official Remote for Kodi",Google Play,org.xbmc.kore,Z3A6QU9xcFRPRThRQTVyVkFWWHRkQVVCQ2t2UEtiSDQ4ekZBVElKdnc2TDFFZ3BpUm9xa21obnBlcm1rSWlMUEE4d0M3el9CTThlUkdoRDd6TnlaWFlYbFE,Italian,,5,2015-04-19,Enrico Talmelli,Perfetta (quasi),"L'app funziona veramente bene e l'interfaccia é stupenda. Sono veramente gradite funzioni come il download automatico di copertine, trama è cast di film e serie TV. Diventerà veramente perfetta solo quando sarà aggiunto un widget con il telecomando",,
"Kore, Official Remote for Kodi",Google Play,org.xbmc.kore,Z3A6QU9xcFRPR1VLLVAxekhTa2MwTFJiRHY4V0g0emYtUnhUeFhic0hxdlZPUm40dGp4STNId19TTXVQYlZYTXo0ZF9hZGxiXzlfOVF1dVd2V2JoZjYwVXc,Italian,,5,2015-04-13,Matteo Sacco,Wow!,Telecomando perfetto,,
"Kore, Official Remote for Kodi",Google Play,org.xbmc.kore,Z3A6QU9xcFRPRVV5LXlaWDh6RTRtQ0lSVUJkdUlpWUhjN1pvM3I2c1djY2kyQ0NROTM5TFJUVTRTTHBGei1qSy13VThoWjRsSDJRLU9XdXVxeV9VVzI0X2c,Italian,,4,2015-04-10,Gerardo Doro,OK ma...,"Mancano ancora molte funzioni, come la possibilità di esplorare le estensioni direttamente dall'app",,
"Kore, Official Remote for Kodi",Google Play,org.xbmc.kore,Z3A6QU9xcFRPR3RiRWkySEJVTmg1VGZicWxVemNrazgtdnNieHJOSXBXUmt5MkpiOUt0QUMxeDNPTUxpR3JMekZYeDhQZGxITjFuQm1heWpKWHBUeTZobnc,Chinese (Traditional),,5,2015-04-04,Frank Hu,TV show,It always jump to season 1…,,
"Kore, Official Remote for Kodi",Google Play,org.xbmc.kore,Z3A6QU9xcFRPRXdTQnh5c0lfbE5FZlF4aHlidWRVSEJnVTZ6cEFobzFJX3ppTFMtX1RBUzNXWE5OQXhVUVpCNEs3WmJrd1FFT0l5VzVLVTBfNmNiTzA5ZlE,Czech,,5,2015-04-08,Michal Pěnka,"",Vynikající,,
"Kore, Official Remote for Kodi",Google Play,org.xbmc.kore,Z3A6QU9xcFRPRzJ1TUtqTVBDZVp4YkE2VjMwUWhuNmVRS2NnR0VtNG9wMlZvN0c0b1Itbi1DWE03a1VpMzZwamJ0QWZhTnBlMUt5Q2ZIaDdCYWM5cjFEMlE,Estonian,,2,2015-04-21,Jass Seljamaa,"",No keyboard :(,,
"Kore, Official Remote for Kodi",Google Play,org.xbmc.kore,Z3A6QU9xcFRPR1VIRmMtUVJqdndxQjR0YUlmMVVQTUFHbjlHWFprUXozY1NuOS13YmdWSHltOU1SVjVQSlhPZG9HQk9FcXNkdUlQZmMwRDAtWjhfYUtqdXc,German,,5,2015-04-19,Richard Degenfellner,bestens,funktioniert prima. Tastatur wird nicht mehr benötigt,,
"Kore, Official Remote for Kodi",Google Play,org.xbmc.kore,Z3A6QU9xcFRPRkZaZEs0ZzZIQTRaWnFkQUR0c25RSEhkNjBnR0RQMVhYNFNvNENIZkxJalVybFNoRVktYTNETmlrTk1NeFhndlNiNXUwOTJBbjVyME9LeXc,German,,3,2015-04-16,Tobias Gertz,Dauernder Reconnet,App baut immer wieder die Verbindung erneut mit Kodi auf. Das ist sehr störend wenn mal gerade mal Pause machen möchte oder ähnliches. Außerdem dauert dieser Reconnect  auch gerne mal einige Sekunden.,,
"Kore, Official Remote for Kodi",Google Play,org.xbmc.kore,Z3A6QU9xcFRPSC1Tb2xjcG4yQllaNktrZDMwSHpXSzNGX3lNUERZdUJNeUFxei12bG1icjlRMEUxRWI3bG5QbzZYejFDUllaazZJNVBWUGhEcHBSa1RZRWc,German,,4,2015-04-09,Flo Pro,Fast Perfekt,Bis auf die fehlende live TV Unterstützung gut umgesetzt.,,
"Kore, Official Remote for Kodi",Google Play,org.xbmc.kore,Z3A6QU9xcFRPSGFpeTFORjJaMjJJQ0hGQU11T2g1OHVVRjdxZzRVYlAwSFc5NHQzMG9FbE9wNHd5NFprQ3gycWpEcVhBNGJOcTgtLXJkOWsxa1ZuT0NHSXc,German,,5,2015-04-08,Dirk Schwarze,Intuitiv,Schneller Abgleich der Bibliotheken. Die Einrichtung geht automatisch. Prima,,
"Kore, Official Remote for Kodi",Google Play,org.xbmc.kore,Z3A6QU9xcFRPRlFoV3dKWWRkbDFfdWhqMGp5c1EzUGFWU2pJaU5hLS1IWmR6cFNqY2dFS0RmbURORGc2MS1kN1dwaXREaC1KQ0FGNGZaakpERThTeXI3ZGc,German,,5,2015-04-07,Andreas Steinhoff,Optisch auf der Höhe der Zeit,Gefällt besser als die alte xbmc-app. Nen Widget wäre noch schön,,
"Kore, Official Remote for Kodi",Google Play,org.xbmc.kore,Z3A6QU9xcFRPSF95M3AxRFR0b1pOUm85UkZxalhSU05pN2VJajdZTzNFTW9XQ01COFB3dlRuT1dnMUk5YlAtUm8tU3RhTWRibW1CZ1NNQ05yTEd6akFFWWc,German,,4,2015-04-07,Daniel Heib,tolle app,"ansprechendes design, alles funktioniert wie es soll. eine streaming option wäre noch wünschenswert :)",,
"Kore, Official Remote for Kodi",Google Play,org.xbmc.kore,Z3A6QU9xcFRPRlhDTnBxWm5pNDkwQ3pEdXFEMkhLWkVUNTRNbUdBbm5RbmFkT0JqMWdzX2ZWNzIzTmVYUlJNOGJ2aTV1dW5ES0oyZ0cwVGF5ay0wOWZiM1E,German,,1,2015-04-04,A User,"",Always crashing on start,,
"Kore, Official Remote for Kodi",Google Play,org.xbmc.kore,Z3A6QU9xcFRPRTlkYlhjR0ZkRDJnRzU3SF9aWXpyS281ODVWeWNFQkx3SUxFNlBJNzJOMnQtZ3BCa3Jvb2VLd1FSd0FOblJrUzhOVVA5Y2NzNXAtSC1Ha3c,German,,2,2015-04-04,Jean Barth,Merkwürdig,Warum erinnert  mich diese  App an eine andere mit dem Namen  Y...? Achja eine Ähnlichkeit  ist wohl vorhanden.,,
"Kore, Official Remote for Kodi",Google Play,org.xbmc.kore,Z3A6QU9xcFRPSGdJNDBKV2ZQSVFSYXprQ0dxbnhYcV9nVE9fc3hrZmVlejhzYnVaRUlOdHJKY1cwWDJObmdyTVNERWxSQ3FzeHNUSUZWYnRzZzVRWU9ocFE,German,,1,2015-04-04,Danir Toma,Very Bad Performance with Addons,"I cant use the remote if i start playing a YouTube Video over the Video Addon . The only thing thatsworkingis the volume changing. Whenthe Video stops, itsworking how it should again. Fix this please!!",,
"Kore, Official Remote for Kodi",Google Play,org.xbmc.kore,Z3A6QU9xcFRPRWpwSDFkdnVOYkJGSjlTRkhyNER5aDVndHZUa3JXb21YZ0NZUloxdi14NmJxNHZ1alhrbXFyeHdYMFBMQ01nZjlQam1xWUU5OFpVem5HNmc,German,,2,2015-04-03,de fim,Ich bleibe bei Yatse,Auch wenn es genau jetzt verbannt wurde...,,
"Kore, Official Remote for Kodi",Google Play,org.xbmc.kore,Z3A6QU9xcFRPRzBVNTU2czhPeXNUOVhJay1ZU21jSlYyUnBDWmdIMWVDTnQ2bFFIR1VtM0lTY0F0UXdJTWhkN09yYVZPdGJ3d21ZdEEyX29rSFVBZ2Q1Zmc,Norwegian,,5,2015-04-06,Eirik Schølseth,Bra app,Flott app til å fjernstyre kodi.,,
"Kore, Official Remote for Kodi",Google Play,org.xbmc.kore,Z3A6QU9xcFRPRXd5ZW9QdFRuSHFQNHJtZEp0VFpncUdrU29Fb25OX2tNWXJaa0lnVjdZT1RoUTkwQnBEaFhnUDVVcWthS3FRYzh0c2t3RU5peklKT1BqUUE,Portuguese,,5,2015-04-22,Dirley Rodrigues,Finally a Kodi/XBMC controller that works,"I've used them all. From cropped UIs to unusable delays in the remote to completely unexpected behavior... I've suffered it all. This is the first time I've put my hands on a decent Kodi controller. This is amazing. The UI is beautiful, it has the same response time of the old XBMC Remote (which was to  only acceptable one around) and it just works. Great job!",,
"Kore, Official Remote for Kodi",Google Play,org.xbmc.kore,Z3A6QU9xcFRPRUYzZlBuUVBKVHdXb1pTYkVRUF9tcUZuRXNEc2E4dW53TTFJMjkwTWRDQW56RTFyemVZdkRhRVhxMnZUc1RNY21Fai1DMG1VQnhBemJmZkE,Portuguese,,4,2015-04-21,Juninho Rodrigues,Gostei muito,Muito msmo,,
"Kore, Official Remote for Kodi",Google Play,org.xbmc.kore,Z3A6QU9xcFRPSEhsNnh6NDlsWlJySTlhRmZQTXd6eS1RUGJZd0M5a1hkNlotN0ZucHdjamg0NWpKSDZOdkFDN1pCcF90WElWMEdOdURwekJvVFRkVXh0T1E,Portuguese,,5,2015-04-21,joão marcelino Martins,Kodi,E um ótimo programa muito funcional,,
"Kore, Official Remote for Kodi",Google Play,org.xbmc.kore,Z3A6QU9xcFRPSDBIcTYzWGpRZHFWNk84eEI0bEpkbkFtS1RNbHh1REhDZ3Z2amJ2MmhuZE9HSkV3TndvV1djSm1VRERvNW04bE9nTlJQTWdlMl9mbTgyRFE,Portuguese,,5,2015-04-16,Ricardo Reis,Beautiful UI and works great!,"",,
"Kore, Official Remote for Kodi",Google Play,org.xbmc.kore,Z3A6QU9xcFRPRUtNaC1ham1ZMlFsdzJvb3F0MUx5dlFaLTRpamVRWmhLWG12OHpiVS1WdGlaWDNRcUZTd2JEbFREdHR1Q3ZtRFVTZ1BXdUJmNWRBTExoRmc,Portuguese,,5,2015-04-14,Junior silva costa,"",Perfeito no raspberry!,,
"Kore, Official Remote for Kodi",Google Play,org.xbmc.kore,Z3A6QU9xcFRPRm1lT2VzTTI1UzJSYTZsYm5ySkZSS0ppTmVIUk9KNWRQeFdiY3NBV3RMb1pMOFE1NnVCRG5vTjhKQ3AxUk5rTEJFR3RlMzN6bG5lbXZ5SUE,Portuguese,,5,2015-04-06,Paulo,"",Perfect,,
"Kore, Official Remote for Kodi",Google Play,org.xbmc.kore,Z3A6QU9xcFRPR3liOUY4OG1WSk9mOHRzOXZMNG02cmtrZktSMkNESTdnYnBnTDl1QU1TeW1aOEVlMy00cGVqa29kU2lVVWsyRzMxNHdpMmo0OG9YTVd2OWc,Russian,,5,2015-04-20,Evgeni Ko,Хорошее приложение но,"Когда я пытаюсь проиграть видео из веб библиотеки то самопроизвольно включается блютуз, иногда когда я проигрываю видео из телефона им нельзя управлять через пульт на том же телефоне, но все же ребята проделали большую работу за что им огромное спасибо!",,
"Kore, Official Remote for Kodi",Google Play,org.xbmc.kore,Z3A6QU9xcFRPR1RuRGRnNE43U2hpb3BrSHkwWXJVU09qSzBoNi1UdDZ6bGxoVUdfTVRPY2tobkZTcUdlRzkzbGhHcjBYZkJqcE9FaEZkVDFNNy1TMjVvLWc,Russian,,4,2015-04-16,Vadim Prokopenko,Очень достойный пульт но есть маленькие гедороботки,Зделайте возможность управлять аддонами прямо с телефона без надобности включать ТВ.,,
"Kore, Official Remote for Kodi",Google Play,org.xbmc.kore,Z3A6QU9xcFRPRnh4bUljZHp5YThJNFJSSzdUa3M2d2NiUWdCX1ktS0RpeXRsTGFNUDdVUTFOWWtPTkhJUjlaZDhxV3ZhVHlLMHp6NGdQdW84S243MldqMkE,Russian,,4,2015-04-10,Александр Фролов,Неплохо,"Если бы экран не гас — было бы совсем хорошо. Сделайте, пожалуйста.",,
"Kore, Official Remote for Kodi",Google Play,org.xbmc.kore,Z3A6QU9xcFRPR1FqTDRfQUZxb25ENU5OZjFJMTR2NC1FV3VOTW4tSU9iclk1ZzlPSEwtLUdUaExmazRMMjY0X0NjYUtHbEN0aXY4VlRDNGlnUnA1eExJckE,Serbian,,5,2015-04-05,Predrag Puharic,"",Odličan program,,
"Kore, Official Remote for Kodi",Google Play,org.xbmc.kore,Z3A6QU9xcFRPRzZkNlBzWTNvTktOXzFsNGlMandmX3ZrckhmemRoMVVtY0pabnRRVjlFeFFtcGtnVWtZZHlCZUxydlNzV1dTdW1BUVlPalZ3X0JIcE1IaHc,Spanish,,5,2015-04-21,Alvaro Zúñiga,Muy bueno,Me preguntaba si existía algún control tan bueno como este.,,
"Kore, Official Remote for Kodi",Google Play,org.xbmc.kore,Z3A6QU9xcFRPSHdqQ0pEU0s4RVNtRl82dzMtbklrQkxIaFFYNElIX1Y0WFlKQ3Z5ZE9DMGh1WWY2QXBrM1R1MEJxQzNfV3QzSG5iblRmYXpzRGN5bjVvbGc,Spanish,,4,2015-04-17,William Hernández,Excelente,"Solo una pregunta, como hacer si el media center remoto cambia de dirección dinamicamente?",,
"Kore, Official Remote for Kodi",Google Play,org.xbmc.kore,Z3A6QU9xcFRPR2VXamlSYjFnZ1FzLW8tenFuYjJFVVBPcHVYLVUtakNhQnpaaHhyc2I0aTdkX19UNW5Pc2d3bE43SmFZak1TeFFhLUR6cjVmVElzN1FTcHc,Spanish,,5,2015-04-13,Juan Antonio Quiroz Navarro,Perfecto,Cumple.,,
"Kore, Official Remote for Kodi",Google Play,org.xbmc.kore,Z3A6QU9xcFRPSHVpaDB6SkQ0UXF4SEdxZjdvUV9UR00yaU5wRWlFV2NfRXAwVy1yU1FmVkI1cFNvUG9KQzFfMnNZZDNwcWtFUjBEczF6bnZ3cDFNTkpYY0E,Spanish,,4,2015-04-12,Alfredo Castillo,Buena app,Las cinco estrellas cuando metan un acceso directo a favoritos =  ),,
"Kore, Official Remote for Kodi",Google Play,org.xbmc.kore,Z3A6QU9xcFRPR1hJSllJSFJPRUJuMzlKY2FTSko5UXVENmEzNldKS3FldUZ5YjFub3FFWkUzZ0huYWp6YTNGcVpNa1p0MlRmNFRWUkl3SmdRTTBtSm9PTXc,Spanish,,5,2015-04-05,Gastón Alegre Stotzer,La solución completa,Kore + Kodi en la PC.,,
"Kore, Official Remote for Kodi",Google Play,org.xbmc.kore,Z3A6QU9xcFRPR29GUFNfRUdoa1Z6SE5BM0dEcjZMelp0WE1WZm1LQ29na1V1UlNwZWV6SXpxdXUwREI3MmtwQWZaZnNzUGpyaXYxODAyT21HVVZVYzFfNkE,Spanish,,1,2015-04-05,Raul Huens,Andaba perfecto.,Actualice la version de v1.10 a v1.3.0 y dejo de funcionar  el toggle fullscren que me daba la posibilidad de realizar ciertos cambios en mi sesión mientras funcionaba Kodi vean que sucedió gracias. Por ahora regrese a la version anterior,,
"Kore, Official Remote for Kodi",Google Play,org.xbmc.kore,Z3A6QU9xcFRPRVV2X2tjam43YWVQM1A4YXlvSnpqSHJPTnZ4dVE5WURBaWRtSkNXLTZsbEwxdkxfeTBNclFKVUEyY0F2SHdicHBfT0JwWHRHZ2d5Y2RfVWc,Thai,,4,2015-04-05,devilshura,Devilshura,เร็ว หน้าตาเรียบร้อย เช็ตง่าย ใช้งานสะดวกดี ลูกเล่นอาจดูน้อยกว่าบางตัว แต่เข้าใจง่าย สมเป็นรีโมทตัวหลัก,,
