Topic Index 1,Topic Index 2,Topic Similarity
4,0,3.0
8,2,3.0
0,16,2.0
9,18,2.0
10,3,2.0
14,17,2.0
15,19,2.0
17,12,2.0
1,8,1.0
2,7,1.0
5,1,1.0
6,4,1.0
7,11,1.0
11,9,1.0
19,13,1.0
3,5,0.0
12,6,0.0
13,10,0.0
16,14,0.0
18,15,0.0
