# deletions,date,commit message
1,2013/5/14,== Version 1.48 == * New Preference-Layout new Icons * Fixed progressbar for ImageCache * Fixed Exceptions when returning from article * Fixed problem with ImageCache * Added spanish translation (thanks to Eduardo Ruiz from http://www.edubox.org)
38,2013/5/14,- Fixed problem with ImageCache (was downloading only some of the image-urls from content)
