# deletions,date,commit message
8,2013/5/21,Try to fix problem with android opening the first preference-entry by default when displaying preferences while the intent is still null. Also apply better layout to preferences.
19,2013/5/15,== Version 1.48 (1) == * New Preference-Layout new Icons fixed compatibility with old devices * Fixed progressbar for ImageCache * Fixed Exceptions when returning from article * Fixed problem with ImageCache * Added spanish translation (thanks to Eduardo Ruiz from http://www.edubox.org)
