# deletions,date,commit message
966,2014/11/08,Enable SSL- and HTTP-Auth-Preferences to be specified per Wifi network too (Issue #261)
48,2014/10/30,Fixed download of attached media files (Issue #256) by trying to guess the filename from the URL in a better way.
1,2014/10/30,Debug
9,2014/10/30,Fixed SSL problems (Issue #233) by adding more of the disabled cipher suites
1,2014/10/26,Push
1,2014/10/26,== Version 1.77 (1) == * Added support for TLS v1.3 dropped support for SSL v3 * Fixed problems with ImageCache not downloading images * Added menuitem to filter "articles with cached images" * Fixed some locking problems * Updated translations license statements and thanks * Dropped support for android versions below 4.0 (Api-Level 14) * Fixed SSL problems (Issue #258)
5,2014/10/26,Fixed #258 ("1.77 fails to connect to TLS site - SSL errors ") by allowing more cipher suites for TLS
27,2014/10/26,Fixed #258 ("1.77 fails to connect to TLS site - SSL errors ") by allowing more cipher suites for TLS
