# deletions,date,commit message
92,2013/8/13,Completely redesigned HTML-Template based on the template from owncloud (https://github.com/owncloud/News-Android-App): - CSS-Styles - dark/light Theme - Different layout - Changed colors
159,2013/8/13,- Fixed bug which lead to unnecessary refreshing of starred/published articles - Fixed bug which prevented starred/published articles from beeing displayed or refreshed at all - Better method to ensure articles are displayed when first try returns empty cursor - Better method to mark everything read in DB - Removed updateCounters since counters are implicitly updated with feeds and categories - Initially hide ActionBar and reset state on each article change
20,2013/8/13,Added "markRead/unread" button to actionbar in articleview added functionality to switch icon depending on status quickly change status internally to represent changes in UI.
8,2013/8/13,Fixed "no feeds displayed in uncategorized feeds"
3,2013/8/13,Ignore tiny movements
181,2013/8/13,Fixed update of unread-count
12,2013/8/13,Different approach: Only store sinceId when doing a full update (like in cacheArticles()) use the id as before...
23,2013/8/13,- Implemented getSinceId in DBHelper for Feeds/Categories but removed it from Data since it doesn't really do what it should do.
11,2013/8/13,- Reduced timeout for showing the actionBar - Fixed bug in DBHelper when retrieving unread counts
213,2013/8/13,- Moved functionality form different Fragments into new parent class MainListFragment - Implemented a main ScrollListener for Article-View and the Lists to allow hiding of ActionBar scroll down hides scroll up shows it again. - Reduced title-size - Removed unused code and commentary
2,2013/8/09,Change title so it matches the title used in the market.
247,2013/8/09,- When displaying articles use smaller ActionBar only for buttons - Display title/time/date and attachments/labels within HTML-Template - Implemented Scroll-Listener for Webview which triggers a method when scrolling reached top or bottom bottom doesn't work yet. Currently unused. - Changed some texts and icons and the HTML-Template
100,2013/8/09,HTML-Buttons finally work star publish menu implemented. Needs images for current status (starred not starred) and better layout.
838,2013/8/08,Applied formatting template to all source files again.
43,2013/8/08,- Added Buttons to HTML-Template (not working yet) - Minor modifications of last merge - Removed "go back after mark read" on main activity
421,2013/8/08,Merged changes from Igor Lyubimov (https://code.google.com/r/igorlyubimov-ttrss-reader/) up to Revision 5fce288273cf from 2013-08-02.
8,2013/7/29,Small fixes
204,2013/7/28,- Formatted the code - Own ActionBar style - Disabled unread-count formatting - Parse and store labels display with foreground and background color - Disabled title and date/time in HTML template - Fixed title for starred articles
960,2013/7/28,Merged changes from Igor Lyubimov: - Formatted code and xml - Changed default values for preferences (en-gb hyphenation default off) - Added "thanks" - Changelog and version bump
161,2013/7/19,navigation buttons mode in article view can now be selected in preferences.
92,2013/7/19,set update time to 30 min
4,2013/7/17,add CSS background setting for WebView (theme dependent)
3,2013/7/17,show unread articles amount in activity title
45,2013/7/17,hide "Refresh" menu item if work offline
59,2013/7/17,use different formats for activity title and category/feed title to present amount of unread articles
47,2013/7/17,introduce function to allow different formats for activity title and category/feed title to present amount of unread articles
70,2013/7/17,skip DB records which could not be processed (IllegalStateException)
343,2013/7/12,remove obsolete article url injection
27,2013/7/12,improve article html template: - add header with: * linked title (adding article url is now obsolete); * article labels (if set); * article update date-time (configurable) - add footer with "previous" and "next" buttons; - add javascript interface object to be used for switching to previous/next article; - remove obsolete article url addition.
37,2013/7/12,- improve article html template preparation with the aid of StringTemplate library (http://www.stringtemplate.org/) - add custom date with time format support functions.
8,2013/7/12,improve article html template and styles
107,2013/7/12,fix file encoding (replace umlauts)
27,2013/7/12,add date-time format to be used in article view
0,2013/7/12,add String Template (http://www.stringtemplate.org/) to the library
607,2013/7/04,- add option to preferences to disable zoom controls in web view; - implement word hyphenation in article view with the aid of Hyphenator.js.
26,2013/7/04,change replacement pattern in getFileNameForKey to improve performance
1,2013/7/03,== Version 1.51 (2) == * Replaced article-header with a custom actionbar-layout (click title to view the full title if it doesn't fit in the space) * Reduce memory usage when low-memory conditions are detected * Bugfixes * Resolved locking issue which prevented the ImageCache from ever finishing
4,2013/7/03,Resolved locking issue which prevented the ImageCache from ever finishing
3,2013/6/30,== Version 1.51 (1) == * Replaced article-header with a custom actionbar-layout (click title to view the full title if it doesn't fit in the space) * Reduce memory usage when low-memory conditions are detected * Bugfixes
30,2013/6/30,Bugfixes
2,2013/6/12,- Fix build problems
79,2013/6/12,- Removed unused strings
11,2013/6/12,Update actionbarsherlock to newest version fix build problems
142,2013/6/11,- Fixed some Lint errors and suggestions - Removed unused strings
1,2013/5/26,...
5,2013/5/26,== Version 1.51 == * Replaced article-header with a custom actionbar-layout (click title to view the full title if it doesn't fit in the space) * Reduce memory usage when low-memory conditions are detected
159,2013/5/26,Replaced article-header with a custom actionbar-layout
