# deletions,date,commit message
1,2014/1/19,- Re-organized layout-folders - Fixed layout bug when no size for divider was stored
2,2014/1/15,Moved MyApplication.java Model was the wrong package.
36,2014/1/15,More structured info in error report
9,2014/1/15,Fix display of author in html template
1,2014/1/15,Add css style for blockquotes
34,2014/1/15,- Added unused fields to improve article parsing - Improved logging output - Removed unused code
35,2014/1/13,Directly access getActivity instead of SherlockActivity where it is not necessary.
2,2014/1/10,== Version 1.72 (2) == * Implemented better error reporting mechanism * Modified tablet layout reduced complexity of code * Bugfixes * Added author to html template if available
128,2014/1/10,Implement display of author in html template
42,2014/1/10,Attempt to fix the preference for "disable tablet layout" user RelativeLayout in all view variants
