App,Store,App ID,Review ID,Country,Version,Rating,Date,Author,Subject,Body,Translated Subject,Translated Body
TTRSS-Reader,Google Play,org.ttrssreader,Z3A6QU9xcFRPRnNzUlZFZ2I3TExGbmZkS3N6OVVEVFZEbTZZNE5uMVB0M1JmY0hrX0duODlsMnA3Q1h5VVJBVWdyUTU0ZENlcEsyYTgyalozZ3VxOVRY,English,,3,2013-07-21,nevetsg g,It is Free,It works well enough for a Free App. The new unread items seem to get sorted randomly amongst the existing ones. But they are there to be found.,,
TTRSS-Reader,Google Play,org.ttrssreader,Z3A6QU9xcFRPSE9iYk50WGoyc0tJT1A2QVl3WmlKMG4zaWZGSDZpMlJpa0I0OXNldjRNYTkycmRobmNUemYtOWhkQkd5Z0dvaUd4T0ZfbnRQc1BXb2ph,English,,2,2013-07-15,Ángel F,Mark as read at random,I am not sure of there is a pattern but it looks like the app mark items as read without open them.,,
TTRSS-Reader,Google Play,org.ttrssreader,Z3A6QU9xcFRPRzZrXzBRQUFjQldNU2lXQmRUSUVyejZQNVJ5VmpKN0VwalhOWHhwSXlSeVJoWVNiWEY2bU1wN2Job1paNEI4VE1wbnRvSmdMV3R1Zm1M,English,,5,2013-07-06,Lukas Jecny,Love it,Working great...   The only thing I miss is hiding feeds with all read...,,
TTRSS-Reader,Google Play,org.ttrssreader,Z3A6QU9xcFRPR05yNmdMYUFFdGNiQUcyUTJaQUlDbUNZWlZreFhpNUJLdHBsVjRub3FXSnNtbjZNek5GR09maExKbHZ4MGh5TmdMNXNWS3pDLUY1MENx,English,,4,2013-07-04,Riyan Shaik,Missing a proper widget,"Love this application, but what's missing is a desktop widget to check the feeds on desktop.",,
TTRSS-Reader,Google Play,org.ttrssreader,Z3A6QU9xcFRPRmJyWmNTeGoybEIyRkFhZWhmUk1sUzNEZjd2alBXdUhDMWs4TXVmUzdid1R3WURrSmQ1VmVkelJvenQya0hQYnJtdmdNdl9ZZTEwRV80,English,,4,2013-07-04,Martin Sanderson,Pretty amazing,I find this better than the official app as it works with my podcasts which while not as good as Google listen is still nice to have. I think that any issues with podcasts are related to my player would be nice to have an in app podcast player?,,
TTRSS-Reader,Google Play,org.ttrssreader,Z3A6QU9xcFRPSHJJT3hXM3JVdEg4a3VOYmt3VXRCbDYxS09IVmVqQmNuSGhFeG5pdlhLTnE0QnFYSFp6LVNseHF2ZzhERWk4Ml9oVDhjY3dhZWN4cUt1,French,,5,2013-07-27,André Cotte,Fabuleux Tiny Tiny RSS,J'ai installé Tiny tiny RSS sur mon serveur partagé et je cherchais un client pour y accéder à partir de mon téléphone Android.  TTRSS - Reader fait le travail merveilleusement bien.  Je crois même que je vais prendre l'habitude de lire mes  RSS sur le téléphone.,,
TTRSS-Reader,Google Play,org.ttrssreader,Z3A6QU9xcFRPSE9ocFhnS0JVc1JuaFRHbzlSYUt1OFVyS2pVSVYySkVwRHA5djg0aGs1ZXBnR2tZYTRWdUFWSl9XYlB4V3NNTml5RjFxcnROWXpCbFg5,French,,5,2013-07-03,Olivier Chorier,Conquis,"Voilà un vrai lecteur rss ! Et les données sont chez vous (ou vous voulez en fait). Application très aboutie, félicitations !",,
TTRSS-Reader,Google Play,org.ttrssreader,Z3A6QU9xcFRPRnotaTRkbWxDRms3d3NzbERPMzhkelZab2pFaUNzUVRKaFlCeTFEWjgxcTNrZ0xnQzFHOTFLVFV1WVZJb2E4ZnQtbkNsdmRBaXZxT21C,French,,3,2013-05-26,Nicolas PECOUL,Good app but missing swipe,Good job but swipe gestures are missing in articles list. I like gesture for read/unread and star/unstar in the articles list si please could you add this missing features?,,
TTRSS-Reader,Google Play,org.ttrssreader,Z3A6QU9xcFRPRUhFLUpYOUpENVVIUlBPZ2stNTdqeGdQT0lubWxrdHk5dmhocWhzdktIRlRPMEpySW9BT0hYaXcyQzNTSlVOVUFCREY0Y1J1M2VCdWhB,Italian,,4,2013-06-28,Fabiano Tarlao,Molto buona,Meriterebbe 5 stelle se mettesse i favicon dei siti sui feed.,,
TTRSS-Reader,Google Play,org.ttrssreader,Z3A6QU9xcFRPRXVRUE91TUdnYzdvLUhVT2FmSUZvV192VnZUWHVjN0hmVkJBMTlkRTJncXpyNllPakpUWEpUdDVTM284STZVUF95dG5tYlZsdjh5U1hj,Czech,,5,2013-07-01,Tomáš Hák,"",Great rss reader,,
TTRSS-Reader,Google Play,org.ttrssreader,Z3A6QU9xcFRPRS1XMnJIa1VlTHhFblowdDRqNkNJb3ZLMWJPcHlMQWlpaklPWmpCWW9nc2tBN0Rack0xQ1JqOTd2d3had2hMZl9vbUEtbm9Xa2RoLUFF,German,,1,2013-07-07,Maximilian von Dannen,Background synchronization,Bitte die Synchronisation der Feeds über einen  regelmäßigen background job erledigen. Synchronisation bei jedem Wechsel der activity hilft _nicht_ weiter...,,
TTRSS-Reader,Google Play,org.ttrssreader,Z3A6QU9xcFRPRW1CSnkwRUlFaHhoVVdWZHZzNGNWYmRUVlBHX2JyV0hqVFRCZDU4UW5WLWlVOGxSajk3Ung2U3VHUlVTUEJzV0tFOW1MWTVEMnlvM2Iy,German,,5,2013-07-05,Band5alat,Top Newsreader für Android,Ein wiklich gelungener ttrss Client und dann auch noch Gratis. Vielen Dank! Optisch gefällt mir bsw. Newsify auf ios zwar besser aber von den Funtionen her habe ich hier nichts zu bemängeln :),,
TTRSS-Reader,Google Play,org.ttrssreader,Z3A6QU9xcFRPR3FMWDdnaXhVOF9JRVFNU1BPbzgwTUl5SmJkaEduaW9ORWhLT2hOTjd6b21YNDhWQ09RZjM2NTFvbGp6Sk1VTVNFc0FmY2hKZUl5cmpK,German,,5,2013-06-11,Matthias Geist,So wünsche ich mir das,"Offline Funktionen wären zwar auch klasse, aber so ist das schon gute Arbeit..  ;-) wie wäre es mit gesten?",,
TTRSS-Reader,Google Play,org.ttrssreader,Z3A6QU9xcFRPSHAzcEI4R01MRzg3TkhMTkt1NGc4dmN4MkpHNHNBMjVNTkNTcThBTDJQRS02ckZ6b3BkeE9na1REMlZucS02TGtmR1FiaUQzRDNLdXB3,Portuguese,,5,2013-06-22,Carlos Madera,"","Don't show YouTube videos embedded, but it's the best reader",,
TTRSS-Reader,Google Play,org.ttrssreader,Z3A6QU9xcFRPSEZYS2pubUpYZW1faTBMZXN4SUFsZm9iQ1BDYktyaEptcWNFTGoyVzFBMHEtTXdhSm1TX082YzZ2Umg1bzhyUU9aeERTSEF1aVJ1bUwz,Russian,,2,2013-07-02,Midas King,Good app,"Problems: 1) database in internal memory too fat. On low end with small internal memory devices it's problem. 2)  Offline mode work strange: I am run Tasker plugin to ""sync""; turn off WiFi; read articles; turn on WiFi; ""Sync"" with Tasker plugin; Run app and see unread articles. ""Stop"" app, run sync *in* app and see normal ""read"" status",,
TTRSS-Reader,Google Play,org.ttrssreader,Z3A6QU9xcFRPRTRjMHBmd3dUVTduZmFvS1Y1OE1pTmpqZHpKZ0xKQVVPR1NLSXRKZG0wWWx0TzNvQk5JTHBvNHlVQjcwTHRUOGlucEFKbUZ2VEUtUFlo,Russian,,3,2013-06-22,Сергей Сульженко,Error with ssl,I can not run it... =( There is an error with the self-signed ssl certificate: No trusted server... Configuration is OK. Another client works fine with the same server of tt-rss..,,
