minor clean to release script,f,2015/1/12,,
fix website compilation script,b,2015/1/12,,
update to include required dependency,b,2015/1/12,,
updating,b,2015/1/12,,
updating,b,2015/1/12,,
updating,b,2015/1/12,,
updating,b,2015/1/12,,
updating,b,2015/1/12,,
updating,b,2015/1/12,,
updating,b,2015/1/12,,
update date stamp on website file,b,2015/1/12,,
bump version number up,b,2015/1/12,,
add command for compiling website in the release script,f,2015/1/12,,
fix potential crash on certain device,b,2015/1/12,,
include any error message may be present up a execution of a task,b,2015/1/12,,
add more task debug info to the log,f,2015/1/10,,
to make use of the message module,b,2015/1/08,,
message model to be reusable by response object,b,2015/1/08,,
fix issue with server not sending from server,b,2015/1/08,,
attempt to fix object not being initialized,b,2015/1/08,,
remove debug comment,b,2015/1/08,,
remove real email address from test case,b,2015/1/08,,
annotate activity with override,f,2015/1/06,,
remove needle unit test,b,2015/1/06,,
retrieve payload error from response model,b,2015/1/06,,
fix message enable issue,b,2015/1/04,,
fix message result process the response,b,2015/1/02,,
change time out to 20 second,b,2015/1/02,,
switch to using for manipulation,b,2015/1/02,,
initialize object in time preference constructor instead of p it a constructor,f,2015/1/02,,
work with body not the response itself,o,2015/1/02,,
add testing framework,f,2015/1/02,,
minor cleanup,b,2015/1/01,,
minor cleanup,b,2015/1/01,,
update build tool to,b,2015/1/01,,
upgrade android,b,2015/1/01,,
bump version number,b,2014/12/02,,
remove signing of new tag,b,2014/12/02,,
update date stamp on website doc,b,2014/12/02,,
