i cannot send the response from the server via,b,2014-10-17,Joseph Kasera,3
it just return the an error,b,2014-10-17,Joseph Kasera,3
i could select individual failed message and sync them and ignore the rest,b,2014-10-16,Morris M,3
i have to sync all message,b,2014-10-16,Morris M,3
properly synchronizes message with server,b,2014-09-12,Imaorise Umobong,4
need more work on crash and handling of message history above 20 message,b,2014-09-12,Imaorise Umobong,4
very bad,o,2014-09-02,Chandan Singh Virat,1
cool for with,o,2014-08-24,lucas oketch,5
total waste seriously,o,2014-07-20,Ved Parkash Grover,1
new version crash i try to go to setting,b,2014-07-15,Vahid Mafi,4
please fix and it will be 5 again,b,2014-07-15,Vahid Mafi,4
