App,Store,App ID,Review ID,Country,Version,Rating,Date,Author,Subject,Body,Translated Subject,Translated Body
Galaxy Zoo,Google Play,com.murrayc.galaxyzoo.app,Z3A6QU9xcFRPRkJrSkxVSk1vMTc4azh5WlVvck8zSnFoajhQUDRsQ0VwX0F4OWtBUkdJdllVS2VicU0zZlY1ZlE2Z0VOZTJHa3lRVzV1a3NqNm1rUm9aSy0w,English,,5,2015-07-02,Daniel Neill,Brilliant app,More futhering of the species get done in my lunch and coffee breaks than get done in my job.  More zoo apps please,,
Galaxy Zoo,Google Play,com.murrayc.galaxyzoo.app,Z3A6QU9xcFRPR3psMzZHYkM3b1ltYlJXb1hKYXd3NzMtTmpkdlV5WDdYSVI1VUlzVGc1Snh1b2loWGNKbmJQT296aVZ0Snl0UDJHMWtsUG04VEJkVEQ3b2FR,English,,2,2015-07-02,TJ Nicholas,Cannot download new subjects,I've been a member for a long time.  Now I cannot download new subjects,,
Galaxy Zoo,Google Play,com.murrayc.galaxyzoo.app,Z3A6QU9xcFRPRTB4V3lEYnRHTGlwcDJvb29NV1lMdDBWNFhPRkdZNFVBRnVTU0RmNFl0LXRDQUxWLXMzUS1obzBfeWZva1pQX2ZJNHpFc2kxdHExZUNrSFRJ,English,,5,2015-05-16,Plant Head,"",Awesome!!!,,
Galaxy Zoo,Google Play,com.murrayc.galaxyzoo.app,Z3A6QU9xcFRPRVZuSDdfYV8xcEJMQ3Y3NC04c0lUQThwTzc0OFlhNzF1bDVPVklURXc1NFVBRFJZVU5LalVRaWZzOEJ1MkJPNlFNYTNkWVVwRTc5LXBCcUUw,Portuguese,,1,2015-06-27,Matheus Ferreira,"",E ingles,,
