improved translation,b,2015/12/12,,
release 31,f,2015/5/26,,
improved translation,b,2015/5/26,,
fixed contact parcel bug,b,2015/5/26,,
changed package id started translation fix,b,2015/5/26,,
improved all painting method layout,o,2015/1/13,,
improved color method layout,f,2015/1/12,,
added,b,2015/1/11,,
enabled batch assign added shadow painting,b,2015/1/10,,
created,o,2015/1/09,,
started using separate class,o,2015/1/08,,
started work on batch mode,b,2015/1/08,,
added grain effect,b,2015/1/08,,
version 292 release,f,2014/12/01,,
release,f,2014/11/13,,
moved image generator into engine package,b,2014/11/12,,
added idea and file to,b,2014/11/12,,
improved distribution,b,2014/11/11,,
added translation for image,b,2014/11/11,,
mostly cleanup comment,b,2014/11/11,,
added first draft of solid square painter,o,2014/11/11,,
mostly stylistic improvement,f,2014/11/10,,
27 release,f,2014/11/09,,
26 release,f,2014/11/05,,
improved tablet support,b,2014/11/03,,
improved contact db querying re drawing,b,2014/11/03,,
added support for device rotation,b,2014/10/27,,
25 release,f,2014/10/25,,
added support library material for all version,b,2014/10/24,,
started adding material design,o,2014/10/22,,
moved project back,o,2014/8/10,,
auto,b,2014/8/04,,
started preparation for 20 21,b,2014/7/27,,
release version 2,f,2014/6/15,,
issue with character resolved for old too no polygon painting issue fixed,b,2014/6/07,,
update,b,2014/5/27,,
update,b,2014/5/27,,
18 release,f,2014/4/24,,
