Topic Index 1,Topic Index 2,Topic Similarity
0,0,12.5
16,1,12.5
17,2,12.5
18,3,12.5
3,4,5.88235294117647
4,5,5.88235294117647
8,6,5.88235294117647
9,7,5.88235294117647
12,8,5.88235294117647
13,9,5.88235294117647
14,10,5.88235294117647
19,11,5.88235294117647
1,12,0.0
2,13,0.0
5,14,0.0
6,15,0.0
7,16,0.0
10,17,0.0
11,18,0.0
15,19,0.0
