Topic Index 1,Topic Index 2,Topic Similarity
0,0,6.25
2,1,6.25
5,2,6.25
6,3,6.25
7,4,6.25
10,5,6.25
11,6,6.25
13,7,6.25
14,8,6.25
15,9,6.25
16,10,6.25
17,11,6.25
18,12,6.25
19,13,6.25
1,14,0.0
3,15,0.0
4,16,0.0
8,17,0.0
9,18,0.0
12,19,0.0
