Topic Index 1,Topic Index 2,Topic Similarity
10,12,2.0
13,7,2.0
0,1,1.0
2,14,1.0
3,4,1.0
6,0,1.0
7,3,1.0
9,5,1.0
11,2,1.0
14,6,1.0
16,9,1.0
17,10,1.0
1,8,0.0
4,11,0.0
5,13,0.0
8,15,0.0
12,16,0.0
15,17,0.0
18,18,0.0
19,19,0.0
