App,Store,App ID,Review ID,Country,Version,Rating,Date,Author,Subject,Body,Translated Subject,Translated Body
Network Log,Google Play,com.googlecode.networklog,Z3A6QU9xcFRPRXZyOEFGZ3BGSUhXRWhPQmgxY3FaTm1XdkN5VExEaDc3cTRsLU9wb2Q2VXZJblVUNWpIWVhpN1oxWnlvc1FNWGk0bU1UUnJLUTgtTzdDX1V3,English,,1,2013-09-11,sumit jain,Not working,Waste. Not working in my Ace.,,
Network Log,Google Play,com.googlecode.networklog,Z3A6QU9xcFRPSFlLOS1mTkZ6X0g3dW9tUndiZHFzMW5jLUh5V3NoNGlhT2RMQmZYY3NNUWhkSGk4N3ZkMm1uNVVjWjVXV3M0UFZvRHBGQWt2cHFXYl9HZDU0,English,,3,2013-09-05,Fadi Moussa,SuperSU permissions??,You want access to everything?? No thanks!,,
Network Log,Google Play,com.googlecode.networklog,Z3A6QU9xcFRPRjFjLWhYVnR1M0wwd1Y2VGl4XzgzX3NPWnNEUnQ4Q0RTSUVsaFFNNHZRWVRKeTRtbU94aEFBT2RLT0M4TXVubGZLS1NLaWpBOXp6TG5fek9r,English,,5,2013-09-03,Jan Colpaert,just what I need !,"With lots of detail, and possibility to reset the logs to limit the time window.",,
Network Log,Google Play,com.googlecode.networklog,bGc6QU9xcFRPRVAxNXh5V2F1UTZJQ0I4a21NWnpfLWJVUXRLdW9WRno4WmVVQ3NmRzlnSWJiZUNGWnJHNEZGN2p3aWR2TFlEY2dTMk1iSXlHaWlFdEJRdEFr,English,,5,2013-08-11,A Google User,"","ABSOLUTELY NOTHING BETTER for seeing in real time the specific apps using the net, their destination IP's, ports,and bytes s/r as they occur. Great!",,
Network Log,Google Play,com.googlecode.networklog,Z3A6QU9xcFRPRlE3LTFLMW9FajU4WTNCVk1QRVNaaXFPdW1IUl9aajhnbFBia0FzcU56emNWd3l6UHFtRE5EVWJoUnRudUNhVEdjTzJKay11Y1V0a3NrRjJv,English,,5,2013-08-05,Stefan Wimmer,Good stuff!!!,Now I finally can see where my traffic goes :),,
Network Log,Google Play,com.googlecode.networklog,Z3A6QU9xcFRPRzdOcVVWTnhGYS1GTGJSVm03WXBBN2ZWYlpKOERrZ0ZiTXlmaXRTTVJwN1BTeEc4ODk4WUNBSHdodThYY0pFS1JRMk44czZiWnVvdWFkdWJv,English,,5,2013-08-03,King H,Excellent,Now i know which apps consume a lot of data,,
Network Log,Google Play,com.googlecode.networklog,Z3A6QU9xcFRPSHZ5MV9GclB4T0ZxV204c0lDODA2aGZyTFRvYW5WdUc4cHZCQXgwYkYwYS1tVHVyZDZ4UEJJbTVhMW9xWTEwZy1CWVZFb005RElMRzBwQXdR,English,,5,2013-08-01,A Google User,I Like,Good n Nice App,,
Network Log,Google Play,com.googlecode.networklog,bGc6QU9xcFRPR1ZNRkp4TUJBN3lGem8zVWs4cGVlVGFwTnBLOEtsOFZsWHlsUkg3UG9LVUN3R0UyOXhOOFUxdGIzYzdJVkk4UENpbGVnVkVaeTRHdXFaOHl3,English,,5,2013-07-29,A Google User,√,"Good job. I suggest smaller indicator icon, and counter for whole interface traffic (3g, and wifi) by period time like last mouth, week, day, hour etc. Also following log positions of the same app could be squeezed to one position with packet counter, and opened for details by touch.",,
Network Log,Google Play,com.googlecode.networklog,Z3A6QU9xcFRPRVJzN1MxbjgyYkgwTGxpbjZOd19XT1JraE95R05EbFNveTBTT25QelpiR29UbF96RkRnRjVHNXR1a293dk9NeDY1OVZNRDVPQkFLelRGYVhr,English,,5,2013-07-20,Jayesh Abhishek,Awesome,Pretty impressive app. Was lookin for this one. Grt work.,,
Network Log,Google Play,com.googlecode.networklog,Z3A6QU9xcFRPSEh3Sm1LWU5wcW9MWU9uQURhdU5USFFYeHNMLVBFZ1dMTGxrZUhESTR6ejFTd1J2c3ppU3FZLWJmWkt3QTBqY0phTk9sU0xiNExNdVpEdkJj,English,,5,2013-07-14,oyelakin james,Network Log,"This app is great,it help me to solved the problem of error 491 when downloading from google play.Big thanks to the developer",,
Network Log,Google Play,com.googlecode.networklog,Z3A6QU9xcFRPSFJ5eFNWZlVuNXVqYkFFRGc5bGh1NFZZeWxlS3NZSHRicnd1S21qM2RRV1ZYNmxvWlRqVk53ZHhHN3dyS1ZJQTRvajZFOVhIazY0RUNGNkdv,English,,4,2013-07-08,Eric Brent Gingell Junior,SGS2/4,"I disable Facebook notifications with JB's nifty new notification Disabler because FB seems to want to turn it back on randomly, but as a result, I can't tell when a pic or vid falls to upload. I use this app to ""watch"" and see if it fails. It is an adiquate work-around.",,
Network Log,Google Play,com.googlecode.networklog,Z3A6QU9xcFRPRmhwUm5mdVVxOEh1M0lodFlRYTNHa2VOYjExSFRJcjBxNi1vRXpBS1VBX2ZGelFrVndTTlhLejB6V3RaaWRlZEVXZVAzamFwRDlMekZBa0pz,English,,5,2013-06-28,Michael T. Delgado,Trying to..,Filter out just the DNS queries but can't seem to be able to.  I want to see everything but that.,,
Network Log,Google Play,com.googlecode.networklog,Z3A6QU9xcFRPRzViRThuMlp0U1BOS3ZVMXRlLThXMkI2RGxySkhYd0llZ3gzUWwtZjZoMzRjUmpaVGJFcFJPRDZ1WFhjS0lsYWRpblVZOURDRXRqbUhVdURv,English,,5,2013-06-22,Nigel D,Very comprehensive app,Provides excellent logging of live network activity information. Good user interface with nice app options. Easy to filter log results and display in graph form. Great work developer! Thanks for sharing for free =),,
Network Log,Google Play,com.googlecode.networklog,Z3A6QU9xcFRPRi1FQ2xtR2ZNSDJPeXVNdGg1NlczMno4RkZVLTB0V1NFN0kxTmdGSEdob2xRSXpxOXktT1hyNkl5QloyZ0RCSk93dDJ2a0FVMm8yMlpUMG9Z,English,,5,2013-06-22,Avery Howell,Nice,Perfect,,
Network Log,Google Play,com.googlecode.networklog,Z3A6QU9xcFRPR1I5elVJVUlqZDZCWlNiOGpOdHBDLWgzUWp6OUJrZWg5VXhXWUVlNW1iYXlwN3E3NjdaXzloQTV1X0ZUdnBTZ2JXUGxUdG5KZ2JNT2w5MWk0,English,,5,2013-06-22,Alexander Wolf,seriously awesome,I was looking for something like this with live stats and only found out about these features after trying it. this app does way more than its name implies!,,
Network Log,Google Play,com.googlecode.networklog,Z3A6QU9xcFRPRkVlNTdhaUJ1T2VVUW9jNHRld1pKeUNDZlE4QW11dklTaE9lSjdFVW9EU1RMb2ZmS1ZpVFdLSkhRXzBqaEh3aERoTEdBZjdxVGtFOEZqdjV3,English,,5,2013-06-10,Jordan Burke,Great app!,"This is a great app, and I've created a new logo on the fly for this app and I hope it gets used! Looking forward towards updates!!!",,
Network Log,Google Play,com.googlecode.networklog,Z3A6QU9xcFRPRm9wZjg5ME1Ib0xodVg2QW95dFJUc1F5MXNhMGZzQ2p1LWFrY2RTWGZFQmtFallIbWhYVUhCVlJaeXNCXzF4bFpueEJDV1MycmIyN0xFd0FJ,English,,5,2013-06-08,Paco Vega,"",Great app. Good work,,
Network Log,Google Play,com.googlecode.networklog,Z3A6QU9xcFRPSDlHZ2lzdjhsYWVLb21JbHpZYzhTdm1rQ24zRFR5Y3QyaDhlYXkzSFFkRDU4VFlTVHlydzN6cWdzZjBGUjlZMEt6aFdBYVlSVEVFTk9LTWtN,English,,5,2013-05-22,Pat Phillips,Good app,Works great no problems so far. It really helps with determining which apps are accessing Internet and how much data its using.,,
Network Log,Google Play,com.googlecode.networklog,Z3A6QU9xcFRPSFpTX1pROWctWTN2dUh5TVlDZEh3M01pbVFicE9EM1Q3XzhNTERiYW9jdVFfdVY0Z3kzcDR1S0s1Y2R3WGtaQXJMZE1vLVV2MzZLZDktWGFZ,English,,5,2013-05-19,Shane Alex,EXACTLY WHAT I NEEDED!,"This is 2 apps in one that I've been wanting for months now! And above all, it's free! Thanks!",,
Network Log,Google Play,com.googlecode.networklog,Z3A6QU9xcFRPRW5jQ2pvUEdaRkFjOW9mRllFWEE0Y3ZTeWZDZWM1T1hZYXpSYU9teFNSd0NkMlprbHEyeE1rTHhxbmgzcmtnellxOUxVV0RCaDZ5T3l4dE9B,English,,3,2013-05-09,se hd,Quite good but needs improvement,"Needs a more identifying icon. Also, opacity for toast notifications should make text transparent not just the backgrounds. Would also be nice to set duration with a slider instead of just a few options.",,
Network Log,Google Play,com.googlecode.networklog,Z3A6QU9xcFRPSGRMWmtCOWVQeTFaUW5fN1VER0h0amY5NHQ2ZEN3c2MwRko3RXhwR1VBeDdkVDBxaU15RzM2LXcySnpFY29FVVlkY1V1SHpRVjhTdXJXVlQ0,English,,5,2013-05-08,Greger Hansson,"Great app, fast support from dev",Unfortunately it's a battery eater.,,
Network Log,Google Play,com.googlecode.networklog,Z3A6QU9xcFRPSGlGUmhoUExYRFJZOWdITTFsVkJ2U2dVMlBJWmE0Z3JFbVcxWkFjUWg5TEpIWkJOcHVBdmZCWTIzRGNKaHhQeXJZeHpCZHV3YkNiQUt2UExN,Korean,,5,2013-08-26,Hjoo Same,왜 이런 걸 이제야 알았을까ㅠ,최고임. 와이파이 아이콘에 계속 다운로드아이콘이 떠 있길래 뭐가 계속 어디서 뭔가를 받고 있나 알고 싶었는데 이걸로 알아 낼 수 있음. 원인은 이 미친 안드로이드 커널이 공유기에 연결된 컴터에서 계속해서 300바이트~500바이트씩 뭔가를 받고 있었음. 젠장 뭥미?(결국 왜 뭔가를 계속 받고 있었는지는 못 알아냈음 ㅠ),,
Network Log,Google Play,com.googlecode.networklog,bGc6QU9xcFRPSFNkQjEtQlhtMUhXUk4zMWk0SERSWDVIVFhGNXNGSW9Xd1hwUmtXR2pmaG9HbmZkNm1DMVJ5cWlQSXpRa1VVVk1uMENDd1V2ZEFaRFp5Znhj,Russian,,5,2013-07-10,Пользователь Google,"","Полезное приложение-Sniffer, чтобы быстро проверить, куда ""стучится"" приложение.  С трудом нашел в маркете.",,
Network Log,Google Play,com.googlecode.networklog,Z3A6QU9xcFRPRmdLSy1Jc3BTM2FXUUVDRFFwQy1fM2hXemFFeFVuRVZGeXdmQnZERGw0bXZXcFJiLVd3QXcxU3ZzeGtMTEFHSXZDTVp1em9BZUlOTW5CU3JZ,Russian,,5,2013-05-09,Kevin Kevin,Лог трафика,"Давно уже хотелось отследить куда андроид постоянно трафик тратит, какие адреса и как часто, чтобы чуть умерить его аппетит.  Спасибо.",,
Network Log,Google Play,com.googlecode.networklog,Z3A6QU9xcFRPRXlsNmE3WGY5N1BGRWcxblZmZGc4b3hZclZMandnSXJrRUtpZE1TUUVkNXR5RllJaUNSSkN5bzh3YlpTLWRQbElGUUYtVE5ITUZEYk1Sbk9F,Russian,,5,2013-04-30,Roman SB,Отлично,Все здорово. Добавьте возможность закрепить toast pop-up у края экрана и выравнивать текст по правому и левому краю. А также выбирать цвет текста.,,
Network Log,Google Play,com.googlecode.networklog,Z3A6QU9xcFRPRWlIcnRiek0xdFZsbWhkQnY5ZGlicU5DVWxqZnpwcHc0bnZMNGV0QTFtUS1TYUlpZG42cmtsWDZweUY5T3ZXU0pMNmVmWHlIQzhvUlJZTEY0,Spanish,,4,2013-08-06,hector bayona,Nombre de la app,Solo faltaria que en el log este el nombre de la app,,
Network Log,Google Play,com.googlecode.networklog,Z3A6QU9xcFRPSEM5RTR2OC1Pc1dXVl9kN2xMdHIySTBDWnJJM3pKX3NfZmtReTllbFQ5TzJCMlJkZkhfZjk5LXJGQzNsOW42bVhlUV8xNENpSVlLcUJRVWFR,Spanish,,5,2013-05-01,José Ugarte,Muy buena,Es imprescindible para cualquier usuario root,,
Network Log,Google Play,com.googlecode.networklog,Z3A6QU9xcFRPRUtqSFQ3VU5RT1ZXOGpiUXJZd2FmczQzR21VMUUtMTFwZ0VtNnFMRWZCeHBzZnc0cjF1NlQ2YUYwWVFjbXlQYUdLUzZlYl85TXdwNHd0Wlhn,Spanish,,5,2013-04-30,Andres Goio,Andy,Muy buena app!,,
