App,Store,App ID,Review ID,Country,Version,Rating,Date,Author,Subject,Body,Translated Subject,Translated Body
Network Log,Google Play,com.googlecode.networklog,Z3A6QU9xcFRPSGFZT1JKbENUeGJNbGlMWTYwU0ZRTVlQOGlDSXZrdldjMUtkOTJ0Vld0X0pXQXNpcXBNY3R6Tm91NDNWcm92NTJSS0dJV0xtWExIVHQ2Z01B,English,,5,2013-09-23,Juliusz Jusz,Best network app so far!,Just awesome. Need to try it to fell the full power. Best served with Honey Badger firewall.,,
Network Log,Google Play,com.googlecode.networklog,Z3A6QU9xcFRPRkhYMDhFMk5aNVZXUDUyMzd4UGNiZjdoTHdkNUp3LTdpeTd1OEFtUlVHLWJjZWtFbjRiX2poaTdoU21wTEt5MnBHdzZyNUNQcUZmYy1HWTBv,English,,5,2013-09-19,Joey Badua,keeps crashing,"restarts my device whenever i turn logging ""on""  Re: giving u ur 5 stars back. Thnx dev for fixing the issue.",,
Network Log,Google Play,com.googlecode.networklog,Z3A6QU9xcFRPRWhoeXVDdVEwb3lNZjBSQmVwa1luY2hHRThEelZrQjdFYmx6TXFWQmdlaHA1NWNLUk5hTWM4QlBnN1E5cGJaWFhpbllMcl9vcGI2d2VuaVVj,Czech,,4,2013-09-24,Stanislav Ščuglík,Note2,Celkem spokojenost. 24.9 Dobře přidám jednu za to že přestal nečekaně padat. Ale 5 dám až se budou informace o tom jaké aplikace stahují data a kolik zobrazovat ve stahovací liště jako notifikace a ne v plovoucím okně to mně totiž nevyhovuje a musím používat další ap co na to má  aspoň widget.,,
