please add user name font bold or allow to change,f,2015-12-21,Kamal Abbas,4
you can share image,f,2015-12-21,Morris Zarifpoor,2
what about sound etc,o,2015-12-21,Morris Zarifpoor,2
would love to see the first letter of a contact avatar instead of a number more than one person in a conversation,b,2015-12-21,Daliana Guerrero,4
also i get a ha stopped notification pressing reply from notification bar,b,2015-12-21,Daliana Guerrero,4
need to work on opening speed and the logo design,b,2015-12-21,Chengming Wang,3
wish there wa more attachment option like voice etc,b,2015-12-21,Asdulla Khan,3
this deal with lot of text and ha no problem with performance,b,2015-12-21,Ember Fox,5
being able to get text over my lock screen is also great,b,2015-12-21,Ember Fox,5
too much battery usage,b,2015-12-21,Traian Dorin,4
smart ultra 6,b,2015-12-21,Traian Dorin,4
stock 502,o,2015-12-21,Traian Dorin,4
sent 100 text and over 50 of battery is gone,o,2015-12-21,Traian Dorin,4
