i love this i love the design and it sleek feature,o,2015-11-01,Retlaw Paragas,4
hopefully they will address this problem soon a possible,b,2015-11-01,Retlaw Paragas,4
especially dark mode useful one,o,2015-11-01,Thiyaga Rajan,5
it crashed i get a long message,b,2015-11-01,Michael Lambert,2
if it could run more like messenger i would be okay with that because i user my phone a and i hate i get a message and i have to dismiss it so i can use the again,b,2015-11-01,Michael Lambert,2
i use this because it ha many feature and customizations,b,2015-11-01,Harrison Goldstein,3
being it doe have a bunch of bug to watch out for,o,2015-11-01,Harrison Goldstein,3
good for not for all,o,2015-11-01,Harrison Goldstein,3
a really beautiful with grew functionality,o,2015-11-01,Antony Zacharias,4
but otherwise keep up the great work,o,2015-11-01,Antony Zacharias,4
crash too often,b,2015-11-01,Mike Galdamez,3
totally unusable at time,b,2015-11-01,Justin Hayman,1
there is an excessive amount of bug make this not worth the feature it provides at all,b,2015-11-01,Justin Hayman,1
this is by far my favorite,o,2015-11-01,Omar YMA,5
way to get rid of it rate it,b,2015-11-01,Keith Davey,5
this would be my main of the way it work on my and automatically turning on data i receive a picture,b,2015-11-01,Jacqueline Ollison,3
however,o,2015-11-01,Jacqueline Ollison,3
please fix it,b,2015-11-01,Jacqueline Ollison,3
system run slow,b,2015-11-01,Yoshe Estrella,1
fix it,b,2015-11-01,Yoshe Estrella,1
but my phone is now vulnerable to,b,2015-10-31,Bonzi Buddy,5
please add setting to turn off,b,2015-10-31,Bonzi Buddy,5
overall great,b,2015-10-31,Panduka Liyanathanthri,5
love the quick reply and call back straight from the notification card,b,2015-10-31,Panduka Liyanathanthri,5
would like to see more font to use,f,2015-10-31,Gregory Moss,4
enable more use of background,b,2015-10-31,Gregory Moss,4
what i like most no ad like others,b,2015-10-31,Gregory Moss,4
how do i enable the camera to send,b,2015-10-31,Gregory Moss,4
kinda good with few bug,b,2015-10-30,Tilen košec,5
according to this is the biggest use of my battery,b,2015-10-30,Jarryd Bentley,1
my phone ha also been running insanely hot and i suspect this may be affecting that,b,2015-10-30,Jarryd Bentley,1
cause me to have to restart my phone i can recover them,b,2015-10-30,Gregory Higbee,2
i have to stop using it now of the various problem,b,2015-10-30,Dragosh Castravet,3
,o,2015-10-30,Viet Le,5
excellent,o,2015-10-30,Robert Vedutis,5
it amazing very cute stylish and awesome,o,2015-10-30,ShoaiB NaQvi,5
support for so i know putting in exactly also more medium option would be great otherwise great update add system font option,b,2015-10-30,Ashley Manzano,4
fix this,b,2015-10-29,Enricky17,4
i wish they enable the enter button rather have it a smiley face shortcut,b,2015-10-29,Chridtopher Shorees,4
ha not been writing properly the most recent update,b,2015-10-29,Lark Weller,3
y,o,2015-10-29,emirate ezeani,2
gotta fix battery drain,b,2015-10-29,Eric Rosenquist,5
i liked this i figured out it wa the cause for poor battery life,b,2015-10-28,Jason Zolnosky,2
great,o,2015-10-28,Justin Spitzer,5
every update get better,b,2015-10-28,Justin Spitzer,5
my favorite but it ha it flaw,o,2015-10-28,Andrew Estrada,3
it look great and reply is awesome,f,2015-10-28,Andrew Estrada,3
looking forward to seeing improvement,b,2015-10-28,Andrew Estrada,3
work perfectly thanks for the bug fix,b,2015-10-27,Callum Hain,5
maybe add read feature,f,2015-10-27,L P,4
wa working fine besides some problem receiving group especially with,b,2015-10-27,Varun Kapoor,4
new update ha made this plus some other issue,b,2015-10-27,Varun Kapoor,4
i want to see preview of sender and message like before,b,2015-10-27,Varun Kapoor,4
wake lock function still broken,b,2015-10-27,Varun Kapoor,4
how do i downgrade to previous version,b,2015-10-27,Varun Kapoor,4
otherwise will have to move to a different text messaging even i really liked this one,o,2015-10-27,Varun Kapoor,4
black out once and a and slow on the small pop up window but still good,b,2015-10-27,Odis Noble,4
love easy to good feature,o,2015-10-27,Christian Piscioneri,5
cool,o,2015-10-27,Luis Oliverio Ambriz Garcia,5
thanks for the quick reply,b,2015-10-27,Brandon Le,3
great,o,2015-10-27,Andres Perez,5
just need a few color theme have like bubble,f,2015-10-27,Ri Robinson,5
needed a messaging compatible with android saw this in the store,f,2015-10-27,Jesse Pettit,2
edit thanks for the speedy response,b,2015-10-27,Greggory Mirth,5
some bug and but the design is lovely,o,2015-10-27,Cassandra Niedzwiecki,3
still like it,o,2015-10-27,Cassandra Niedzwiecki,3
please work on the bug,b,2015-10-27,Cassandra Niedzwiecki,3
nice dual user might have be some problem,b,2015-10-27,kani rajan,4
have being using it beginning,b,2015-10-27,Darren Morrell,5
continually get better and better,o,2015-10-27,Darren Morrell,5
keep up the good work,o,2015-10-27,Darren Morrell,5
love it,o,2015-10-26,Chantell Brown,1
love it,o,2015-10-26,Ethan Parker,5
this is simple and i love the quick reply and all the feature it ha,b,2015-10-26,Truman Thompson,5
it doe occasionally have an issue or two but they are usually fixed in the next update a day or two later,b,2015-10-26,Truman Thompson,5
what are you thinking,b,2015-10-26,Robert Kayhs,1
lost a long complex message and could not find it,b,2015-10-26,Robert Kayhs,1
ha no ability to save message ready to send,b,2015-10-26,Robert Kayhs,1
,o,2015-10-26,Robert Kayhs,1
not ready for prime time,b,2015-10-26,Robert Kayhs,1
all jabbering about the look mean nothing of user loses message,b,2015-10-26,Robert Kayhs,1
seriously,o,2015-10-26,Robert Kayhs,1
what are you thinking,b,2015-10-26,Robert Kayhs,1
also the quick reply window is terribly,b,2015-10-26,Vytenis God,4
just need quick reply with handle non group great,b,2015-10-26,Samuel Stranzin,4
really nice,o,2015-10-26,sten stensson,5
it a and clean with regular update keep the bug free,o,2015-10-26,Syed Arslan Ali Kazmi,5
and great ever,o,2015-10-26,Ethan Franz Cueva,5
i really like this look good and doe what it need to well,o,2015-10-26,Simon Taylor,4
latest update ha made all my conversation disappear all of them,b,2015-10-26,Simon Taylor,4
o,o,2015-10-26,Simon Taylor,4
really fast send of photo compared to hangout and stock,o,2015-10-25,Jose Aguirre,4
only drawback is annoying message box in middle of screen get new message,b,2015-10-25,Jose Aguirre,4
many time it interferes with note taking,b,2015-10-25,Jose Aguirre,4
please add blocking feature,f,2015-10-25,Trung Ly Huynh Tien,5
hi,o,2015-10-25,Mornay Delport,4
this is a really beautiful and clean which ha much potential,o,2015-10-25,Mornay Delport,4
but group message will show up in different order sometimes,b,2015-10-25,Redford Lenhart,3
there is this bug recently if i minimize the and come back to it look like i have no conversation,b,2015-10-25,Sunny Jones,3
and then it crash,b,2015-10-25,Sunny Jones,3
latest version restarting often clear the bug,b,2015-10-25,Karthik M N,2
not open friend my,o,2015-10-25,pawan kumar prajapat,1
i really like the but can you add an individual notification setting,b,2015-10-25,Jade Fabella,4
i really like to have important people like my family have different message tone with other contact,b,2015-10-25,Jade Fabella,4
just a suggestion tho,f,2015-10-25,Jade Fabella,4
thanks for the,o,2015-10-25,Jade Fabella,4
i hope you read my review,b,2015-10-25,Jade Fabella,4
i am using this for quite a long time and i wa very happy with but every time i do becomes worse,b,2015-10-25,Milan Petrovic,1
for example there is no more enter key you compose message and cannot bring it back in like it could before,b,2015-10-25,Milan Petrovic,1
i compose message and change from landscape to portrait or vice draft message is lost and i have to type it all again,b,2015-10-25,Milan Petrovic,1
cannot send contact and phone number,b,2015-10-25,Deepti Mirchandani,2
