Topic Index 1,Topic Index 2,Topic Similarity
1,5,2.0
3,4,2.0
7,18,2.0
9,13,2.0
0,14,1.0
2,11,1.0
4,9,1.0
5,2,1.0
6,8,1.0
8,6,1.0
10,16,1.0
11,10,1.0
12,3,1.0
13,0,1.0
14,7,1.0
15,12,1.0
17,19,1.0
19,15,1.0
16,1,0.0
18,17,0.0
