App,Store,App ID,Review ID,Country,Version,Rating,Date,Author,Subject,Body,Translated Subject,Translated Body
Yubico Authenticator,Google Play,com.yubico.yubioath,Z3A6QU9xcFRPR2pfckNPVzFLOGFmWWkwX1FzYjZMMTNrSXdRdE9GZVJNSW16UmZmUHB1bzdNbDQxV2V5Zl9MWmNCRnZ3UmxQMmlXaVY1MDZ5VmVIa3NmLUw0,English,,4,2015-04-17,Joseph Webb,Not working on galaxy s6 with android beam,this need to be addressed p a i will be unable to authenticate using many service without it,,
Yubico Authenticator,Google Play,com.yubico.yubioath,Z3A6QU9xcFRPR2pfckNPVzFLOGFmWWkwX1FzYjZMMTNrSXdRdE9GZVJNSW16UmZmUHB1bzdNbDQxV2V5Zl9MWmNCRnZ3UmxQMmlXaVY1MDZ5VmVIa3NmLUw0,English,,4,2015-04-17,Joseph Webb,Not working on galaxy s6 with android beam,edit i had to turn off android beam in order to get it working correctly,,
Yubico Authenticator,Google Play,com.yubico.yubioath,Z3A6QU9xcFRPR2pfckNPVzFLOGFmWWkwX1FzYjZMMTNrSXdRdE9GZVJNSW16UmZmUHB1bzdNbDQxV2V5Zl9MWmNCRnZ3UmxQMmlXaVY1MDZ5VmVIa3NmLUw0,English,,4,2015-04-17,Joseph Webb,Not working on galaxy s6 with android beam,very strange,,
Yubico Authenticator,Google Play,com.yubico.yubioath,Z3A6QU9xcFRPRXRacmpSMWhQdHpnQkNtZ29fOHptTk03RlJkNWE0UmdfMDRvZFk1Z3RjNEFjNkMzUFlnSE1RVVJILUVlUC14bllkN29aSE93VURxamFrT05r,English,,4,2015-04-16,Jimmy Arogén,"Amazing tool, must have for all Yubikey Neo",i bought the i could use it for on my phone,,
Yubico Authenticator,Google Play,com.yubico.yubioath,Z3A6QU9xcFRPRXRacmpSMWhQdHpnQkNtZ29fOHptTk03RlJkNWE0UmdfMDRvZFk1Z3RjNEFjNkMzUFlnSE1RVVJILUVlUC14bllkN29aSE93VURxamFrT05r,English,,4,2015-04-16,Jimmy Arogén,"Amazing tool, must have for all Yubikey Neo",i had no idea i could store these thing on my and use verification code on ton of site,,
Yubico Authenticator,Google Play,com.yubico.yubioath,Z3A6QU9xcFRPRXRacmpSMWhQdHpnQkNtZ29fOHptTk03RlJkNWE0UmdfMDRvZFk1Z3RjNEFjNkMzUFlnSE1RVVJILUVlUC14bllkN29aSE93VURxamFrT05r,English,,4,2015-04-16,Jimmy Arogén,"Amazing tool, must have for all Yubikey Neo",this is i must tell others about this,,
Yubico Authenticator,Google Play,com.yubico.yubioath,Z3A6QU9xcFRPR012ZDdjYlhITzdIZVA5Xzd5dHRvYnZYRXJXcVdEQ0ZaTUhRYm9tbFNNdzZ3YWFsYUt5UDhOazIyLXNQTjBqQjJVeXVLSUlxTzFZVnNWRmR3,English,,1,2015-03-31,Dan C,not working on Galaxy S6,is not working on galaxy huge issue i use it daily,,
Yubico Authenticator,Google Play,com.yubico.yubioath,Z3A6QU9xcFRPRTBuQ3YtSlJSTXBfZGNHdGxVeE9pS3pZWlA5MkxlS21NY25hSFhmLUVMODA0RGtSVjZldVVLb3VmaWlsTFl4WFBEc3dXU2lYSzFIRURrUUE0,English,,3,2015-03-20,Martin Che,Does not work with a non-camera phone,it work on a camera but doe not work on a phone,,
Yubico Authenticator,Google Play,com.yubico.yubioath,Z3A6QU9xcFRPRTBuQ3YtSlJSTXBfZGNHdGxVeE9pS3pZWlA5MkxlS21NY25hSFhmLUVMODA0RGtSVjZldVVLb3VmaWlsTFl4WFBEc3dXU2lYSzFIRURrUUE0,English,,3,2015-03-20,Martin Che,Does not work with a non-camera phone,should incorporate feature to manually key in code,,
Yubico Authenticator,Google Play,com.yubico.yubioath,Z3A6QU9xcFRPRkJlOFlnbm1MNG5CSklPWVQ2WjRlUDlLVzZJcGFkNkVXLWU2SThIMnhzX1BDd3FHN1Q0RVFpN1ZUVUU4ZFFJbTRrTWxQQ0lLVjdORzFTYnkw,English,,4,2015-03-17,Naftuli Kay,"Great, but needs options to manually enter and edit",excellent work great with my and break the tie between me and using one device for an authenticator,,
Yubico Authenticator,Google Play,com.yubico.yubioath,Z3A6QU9xcFRPRkJlOFlnbm1MNG5CSklPWVQ2WjRlUDlLVzZJcGFkNkVXLWU2SThIMnhzX1BDd3FHN1Q0RVFpN1ZUVUU4ZFFJbTRrTWxQQ0lLVjdORzFTYnkw,English,,4,2015-03-17,Naftuli Kay,"Great, but needs options to manually enter and edit",i can bring it to a tablet or even a foreign device for a onetime password and not have to trust the device the key stay on the,,
Yubico Authenticator,Google Play,com.yubico.yubioath,Z3A6QU9xcFRPRkJlOFlnbm1MNG5CSklPWVQ2WjRlUDlLVzZJcGFkNkVXLWU2SThIMnhzX1BDd3FHN1Q0RVFpN1ZUVUU4ZFFJbTRrTWxQQ0lLVjdORzFTYnkw,English,,4,2015-03-17,Naftuli Kay,"Great, but needs options to manually enter and edit",it lack the ability to manually enter a secret key and also lack the ability to previous key,,
Yubico Authenticator,Google Play,com.yubico.yubioath,Z3A6QU9xcFRPRzduYWNoU2dvMDdmZ2hBMUk5THlDa0xKTjJ3WUNwcTd3dEpmeGNQckJJZjE3bXFpN0J1LXg1YWEzLWhmMzBvUmIwa0cxUW9LLUNTQkVzR1Vv,English,,5,2015-02-25,David Woodhouse,Encodes non-ASCII passwords incorrectly,work nicely,,
Yubico Authenticator,Google Play,com.yubico.yubioath,Z3A6QU9xcFRPR0Rmcl9iTDlVTzJ0N3p4TTZrdWtnN3ZINXNqWk13QXI3dkxaMXk0QVRua3JIT0xHckxEemQ0T2JTYVhEMWE0ZGF4dnc5eVJzMUpPczRTblkw,English,,5,2015-02-06,Robert Ray,Works!,still want to be able to add account by typing in the secret,,
Yubico Authenticator,Google Play,com.yubico.yubioath,Z3A6QU9xcFRPRkcwb29DSi1QeHdXTE9uV0NLbk91c2dGLTBVYzR5ZFM4UmphamtYeEs5S1haMVk5b1lXNUhVTmZsclFfY0U2YmgzdW5McVoxWDg4OVlWak1v,English,,4,2015-02-06,John Welborn,,an update broke functionality for a day but it wa quickly fixed,,
