Topic,Words
0,0.047*thanks,0.046*phone,0.040*someone,0.035*cloned,0.033*be,0.031*that's,0.031*one,0.027*source,0.027*is,0.023*fixed
1,0.044*i,0.030*this,0.026*go,0.026*it's,0.026*do,0.023*is,0.022*can,0.022*email,0.022*that's,0.022*have
2,0.055*from,0.033*know,0.031*someone,0.028*done,0.027*your,0.026*that's,0.024*need,0.024*must,0.023*it,0.021*of
3,0.029*developers,0.028*phone,0.028*without,0.028*found,0.026*project,0.026*after,0.026*everything,0.024*thanks,0.023*would,0.023*crashes
4,0.046*phone,0.046*really,0.045*there,0.039*severe,0.037*a,0.035*are,0.027*report,0.024*update,0.023*submitted,0.022*after
5,0.052*go,0.045*clarify,0.043*know,0.040*annoying,0.037*your,0.031*almost,0.029*tried,0.028*single,0.027*to,0.027*errors
6,0.050*this,0.049*submitted,0.044*report,0.030*run,0.028*cloned,0.025*everything,0.025*see,0.022*tried,0.021*completely,0.020*latest
7,0.060*someone,0.033*feature,0.033*clarify,0.031*need,0.031*your,0.030*is,0.030*they,0.028*awesome,0.028*one,0.027*there
8,0.040*one,0.040*but,0.038*really,0.033*found,0.032*that's,0.031*see,0.031*must,0.030*can,0.029*that,0.027*after
9,0.035*really,0.035*completely,0.033*fixed,0.029*that,0.029*someone,0.029*update,0.028*cloned,0.028*try,0.028*report,0.028*source
10,0.043*awesome,0.039*feature,0.036*studio,0.035*secure,0.034*use,0.033*single,0.029*understand,0.028*update,0.028*crash,0.028*of
11,0.046*of,0.042*do,0.040*almost,0.037*i,0.034*report,0.033*developers,0.032*please,0.032*works,0.029*studio,0.024*more
12,0.070*remember,0.053*when,0.035*go,0.031*in,0.030*perfectly,0.025*was,0.024*project,0.023*it's,0.022*really,0.021*found
13,0.056*remember,0.051*tried,0.040*android,0.032*in,0.030*thanks,0.029*almost,0.029*would,0.027*are,0.027*single,0.026*from
14,0.050*from,0.044*sufficiently,0.041*be,0.037*source,0.034*submitted,0.033*severe,0.031*this,0.031*without,0.029*was,0.026*use
15,0.050*to,0.048*thanks,0.039*is,0.037*have,0.035*latest,0.034*severe,0.032*that,0.031*update,0.029*must,0.027*need
16,0.044*help,0.044*tried,0.036*one,0.034*it's,0.033*source,0.032*know,0.032*go,0.031*do,0.029*submitted,0.028*that's
17,0.041*thanks,0.040*works,0.038*on,0.037*someone,0.037*know,0.034*cloned,0.031*of,0.030*need,0.028*feature,0.028*don't
18,0.044*was,0.042*perfectly,0.041*have,0.035*built,0.028*after,0.027*cloned,0.026*but,0.024*galaxy,0.024*source,0.022*don't
19,0.058*developers,0.046*most,0.041*severe,0.038*without,0.033*be,0.029*recent,0.028*your,0.026*on,0.025*everything,0.024*studio
