critical bug in new engine due to weirdness,b,2016/5/21,,
new engine,o,2016/4/29,,
checking in current manifest,b,2016/4/01,,
implemented callback,b,2016/4/01,,
occasional in some device,b,2016/4/01,,
tutorial paging now work properly,b,2016/3/14,,
android n,o,2016/3/14,,
service crash on device boot,b,2016/3/11,,
reimplementing from ab to,f,2016/3/05,,
checking back into git,b,2016/2/23,,
release 104,f,2015/7/07,,
layout change to,o,2015/7/07,,
