# deletions,date,commit message
2,2015/1/18,Fix: Remove the EventDetailsFragment from the FragmentManager after switching from dual pane to single pane mode to prevent its ActionBar icons from showing up.
27,2015/1/18,New dual-pane tablet layout featuring extended height Toolbar and CardView.
3,2015/1/18,Fix: properly clear the links container view with the new layout in EventDetailsFragment.
1,2015/1/18,Added support for direct search from Google Now
52,2015/1/15,New styles for headers and metadata in event details.
7,2015/1/14,Removed unnecessary titles and use the same titles for TrackScheduleActivity and TrackScheduleEventActivity
7,2015/1/14,- Make tabs in SlidingTabLayout focusable for keyboard input - Use the Support Library's selectableItemBackground instead of the platform one to allow selectable backgrounds on API<14.
27,2015/1/13,Added extended title Toolbar for PersonInfoActivity + Fixed toolbar elevation value.
1,2015/1/11,Restored: emulate allCaps for API<14 in SlidingTabLayout
9,2015/1/11,Make DialogTheme inherit from the new AppCompat dialog theme to simplify styles.
1,2015/1/10,Fix: main progress now properly uses the Material style on Android 5.
233,2015/1/10,New sliding tabs implementation for Material Design
2,2015/1/08,Use FOSDEM colors for dialogs and AlertDialogs under Material theme.
2,2015/1/08,Set notification color & category (Lollipop specific)
2,2015/1/08,Updated manifest for hotfix release 1.1.1.
4,2015/1/08,Added proper small notification icon respecting the OS guidelines.
0,2015/1/08,Updated main app icon shadow 15px omnidirectional 90% black
