Topic,Words
0,0.052*the,0.031*is,0.030*ghosts,0.027*style,0.027*as,0.024*your,0.024*and,0.024*a,0.023*this,0.022*developers
1,0.089*art,0.056*earlier,0.045*for,0.040*hand,0.031*of,0.029*the,0.028*replaying,0.027*drawn,0.027*complicated,0.027*on
2,0.054*character,0.051*earning,0.036*serving,0.034*unique,0.033*jump,0.033*very,0.032*on,0.031*with,0.031*past,0.029*while
3,0.058*quick,0.055*great,0.043*drawn,0.043*your,0.037*simple,0.036*presentation,0.035*for,0.034*art,0.030*best,0.028*pieces
4,0.056*make,0.053*your,0.039*quick,0.039*jump,0.035*to,0.033*runner,0.030*ragtime,0.028*glance,0.028*into,0.027*unique
5,0.058*past,0.050*nice,0.039*ragtime,0.035*things,0.033*from,0.032*as,0.030*a,0.029*for,0.028*gesture,0.026*glance
6,0.070*get,0.065*art,0.065*pieces,0.045*presentation,0.043*a,0.040*turns,0.039*for,0.037*great,0.034*which,0.026*along
7,0.058*pieces,0.052*more,0.048*get,0.041*even,0.037*actions,0.034*drawn,0.032*you,0.032*with,0.029*game,0.025*the
8,0.064*previous,0.054*looks,0.038*points,0.036*things,0.034*unique,0.031*some,0.031*open,0.031*concept,0.029*into,0.027*pieces
9,0.064*open,0.053*with,0.041*of,0.035*based,0.033*ghosts,0.029*earn,0.026*maximizing,0.026*avoiding,0.026*and,0.026*earlier
10,0.123*things,0.054*earning,0.043*some,0.043*glance,0.033*developers,0.032*earlier,0.027*actions,0.026*at,0.026*quick,0.026*art
11,0.063*serving,0.057*the,0.053*quite,0.050*quick,0.037*more,0.032*some,0.031*maximizing,0.028*having,0.028*gesture,0.028*your
12,0.094*drawn,0.060*replaying,0.058*arcade,0.042*things,0.041*character,0.035*some,0.030*of,0.028*from,0.028*gesture,0.026*start
13,0.092*some,0.068*looks,0.053*and,0.052*with,0.042*famous,0.038*while,0.037*recursive,0.036*at,0.036*arcade,0.031*drawn
14,0.049*quick,0.041*having,0.039*turns,0.038*make,0.037*of,0.035*into,0.033*open,0.033*drawn,0.031*runner,0.031*art
15,0.065*arcade,0.060*unique,0.052*into,0.048*music,0.042*great,0.038*art,0.037*along,0.031*for,0.030*earlier,0.027*earn
16,0.061*score,0.040*along,0.038*glance,0.032*get,0.031*open,0.030*a,0.029*while,0.029*is,0.029*famous,0.027*best
17,0.056*replaying,0.055*game,0.054*with,0.039*which,0.038*more,0.034*character,0.032*and,0.031*runner,0.031*from,0.031*get
18,0.058*the,0.047*drawn,0.043*best,0.036*open,0.034*earn,0.033*a,0.033*make,0.032*more,0.027*while,0.027*to
19,0.062*to,0.060*past,0.048*jump,0.043*music,0.038*quick,0.036*score,0.032*with,0.032*recursive,0.031*gesture,0.027*of
