Topic Index 1,Topic Index 2,Topic Similarity
7,11,0.6635
3,5,0.36739999999999995
1,17,0.3608
13,9,0.3402
12,8,0.3350000000000001
11,3,0.29159999999999997
6,19,0.2854
10,18,0.2814
16,12,0.24989999999999998
4,4,0.2415
2,13,0.1425
0,0,0.0
5,1,0.0
8,2,0.0
9,6,0.0
14,7,0.0
15,10,0.0
17,14,0.0
18,15,0.0
19,16,0.0
