App,Store,App ID,Review ID,Country,Version,Rating,Date,Author,Subject,Body,Translated Subject,Translated Body
AcDisplay,Google Play,com.achep.acdisplay,Z3A6QU9xcFRPSGVvUnJTZWtSNTdzR1Y2ek5odXdKZTFLR1NzeEFoU2JPbjRSak9wY205bXlCVS16SDB5TjRRdzVjalBiZXJDTlZpSjhTOFlRbWEyTmtPaGxR,English,,3,2015-05-07,Tim Gibson,Snoozes Alarm,i love this lock screen,,
AcDisplay,Google Play,com.achep.acdisplay,Z3A6QU9xcFRPSGVvUnJTZWtSNTdzR1Y2ek5odXdKZTFLR1NzeEFoU2JPbjRSak9wY205bXlCVS16SDB5TjRRdzVjalBiZXJDTlZpSjhTOFlRbWEyTmtPaGxR,English,,3,2015-05-07,Tim Gibson,Snoozes Alarm,the only problem is that it snooze my alarm they go off,,
AcDisplay,Google Play,com.achep.acdisplay,Z3A6QU9xcFRPSGVvUnJTZWtSNTdzR1Y2ek5odXdKZTFLR1NzeEFoU2JPbjRSak9wY205bXlCVS16SDB5TjRRdzVjalBiZXJDTlZpSjhTOFlRbWEyTmtPaGxR,English,,3,2015-05-07,Tim Gibson,Snoozes Alarm,i realize i can use the inactive hour for the lock screen but the alarm should still function without it,,
AcDisplay,Google Play,com.achep.acdisplay,Z3A6QU9xcFRPR0h5ZFFEa0h3bG01blYyRXlYNWhhaGZxMVJnY2RraUdaWEVWTXduZHhsbUM2Q1N2NmlnZjVUXzREQ3JIazNrdUxoU0hxOWJVMWlNZFFUWXgw,English,,5,2015-05-07,Liam Lyons,Problem with animation,unlocking the white circle spread to the whole but now it just stop getting larger at like half an inch on diameter,,
AcDisplay,Google Play,com.achep.acdisplay,Z3A6QU9xcFRPR0h5ZFFEa0h3bG01blYyRXlYNWhhaGZxMVJnY2RraUdaWEVWTXduZHhsbUM2Q1N2NmlnZjVUXzREQ3JIazNrdUxoU0hxOWJVMWlNZFFUWXgw,English,,5,2015-05-07,Liam Lyons,Problem with animation,this is fixed it deserves a 5 star,,
AcDisplay,Google Play,com.achep.acdisplay,Z3A6QU9xcFRPRW5HWlVUQUtjcGNDcFFmM1hlZkJEOTdYLXFvMlE4VHlVeUZhUzBuaFg2WVU3NnNGOFdqVTdVeEU5TUZsNzdxd25iTWF3amNwNUI0RjVoOUhZ,English,,3,2015-05-07,Alin Patru,Perfect app but,there is a glitch music is the screen keep on blinking between clock and player,,
AcDisplay,Google Play,com.achep.acdisplay,Z3A6QU9xcFRPRW5HWlVUQUtjcGNDcFFmM1hlZkJEOTdYLXFvMlE4VHlVeUZhUzBuaFg2WVU3NnNGOFdqVTdVeEU5TUZsNzdxd25iTWF3amNwNUI0RjVoOUhZ,English,,3,2015-05-07,Alin Patru,Perfect app but,how can i solve this,,
AcDisplay,Google Play,com.achep.acdisplay,Z3A6QU9xcFRPRW5HWlVUQUtjcGNDcFFmM1hlZkJEOTdYLXFvMlE4VHlVeUZhUzBuaFg2WVU3NnNGOFdqVTdVeEU5TUZsNzdxd25iTWF3amNwNUI0RjVoOUhZ,English,,3,2015-05-07,Alin Patru,Perfect app but,i cant figure it out,,
AcDisplay,Google Play,com.achep.acdisplay,Z3A6QU9xcFRPRW5HWlVUQUtjcGNDcFFmM1hlZkJEOTdYLXFvMlE4VHlVeUZhUzBuaFg2WVU3NnNGOFdqVTdVeEU5TUZsNzdxd25iTWF3amNwNUI0RjVoOUhZ,English,,3,2015-05-07,Alin Patru,Perfect app but,g note 4,,
AcDisplay,Google Play,com.achep.acdisplay,Z3A6QU9xcFRPR2FQTEtKbUhnLXZDRTJsdEVlWW1QQ0VwZkx4N3JFamF5TFBnZ0lzLUlvYnc1NnR4SU9ZOVBSQVB3ZDA1U2xXZWtuc3NQcTZHNVZuaVUzbWgw,English,,4,2015-05-07,Camila Cuya,Doesnt show up,why music button and art show up in i play my music,,
AcDisplay,Google Play,com.achep.acdisplay,Z3A6QU9xcFRPRjFrdlNta0x2UTRpYWV3cVc2OHl2UThTOXNPUUJ3Rm1oclpsRzVXcG5SS3hrd0RyRFdpcUJ4YUw4cFBGRk5iUXMyOEFuNHFWSXVaVm5CV29V,English,,4,2015-05-07,Shaker ElGargawy,Okay,very good concept and used to work great on galaxy,,
AcDisplay,Google Play,com.achep.acdisplay,Z3A6QU9xcFRPRjFrdlNta0x2UTRpYWV3cVc2OHl2UThTOXNPUUJ3Rm1oclpsRzVXcG5SS3hrd0RyRFdpcUJ4YUw4cFBGRk5iUXMyOEFuNHFWSXVaVm5CV29V,English,,4,2015-05-07,Shaker ElGargawy,Okay,lollipop update the animation are a bit,,
AcDisplay,Google Play,com.achep.acdisplay,Z3A6QU9xcFRPRjFrdlNta0x2UTRpYWV3cVc2OHl2UThTOXNPUUJ3Rm1oclpsRzVXcG5SS3hrd0RyRFdpcUJ4YUw4cFBGRk5iUXMyOEFuNHFWSXVaVm5CV29V,English,,4,2015-05-07,Shaker ElGargawy,Okay,the cause a moderate battery not too bad,,
AcDisplay,Google Play,com.achep.acdisplay,Z3A6QU9xcFRPRjFrdlNta0x2UTRpYWV3cVc2OHl2UThTOXNPUUJ3Rm1oclpsRzVXcG5SS3hrd0RyRFdpcUJ4YUw4cFBGRk5iUXMyOEFuNHFWSXVaVm5CV29V,English,,4,2015-05-07,Shaker ElGargawy,Okay,please fix that,,
AcDisplay,Google Play,com.achep.acdisplay,Z3A6QU9xcFRPRjFrdlNta0x2UTRpYWV3cVc2OHl2UThTOXNPUUJ3Rm1oclpsRzVXcG5SS3hrd0RyRFdpcUJ4YUw4cFBGRk5iUXMyOEFuNHFWSXVaVm5CV29V,English,,4,2015-05-07,Shaker ElGargawy,Okay,a pin or password protection is very much required,,
AcDisplay,Google Play,com.achep.acdisplay,Z3A6QU9xcFRPRjFrdlNta0x2UTRpYWV3cVc2OHl2UThTOXNPUUJ3Rm1oclpsRzVXcG5SS3hrd0RyRFdpcUJ4YUw4cFBGRk5iUXMyOEFuNHFWSXVaVm5CV29V,English,,4,2015-05-07,Shaker ElGargawy,Okay,the ha few sometimes it just lock using the phone,,
AcDisplay,Google Play,com.achep.acdisplay,Z3A6QU9xcFRPRjFrdlNta0x2UTRpYWV3cVc2OHl2UThTOXNPUUJ3Rm1oclpsRzVXcG5SS3hrd0RyRFdpcUJ4YUw4cFBGRk5iUXMyOEFuNHFWSXVaVm5CV29V,English,,4,2015-05-07,Shaker ElGargawy,Okay,i like the team keep updating the,,
AcDisplay,Google Play,com.achep.acdisplay,Z3A6QU9xcFRPRjZwU0l6ZTJodm00QU1vRVVvLUI3eVhkMnd2VjdXZWt6YXRGN2RsVmotMmduUmRyUXdHRzRtZ2tmLXB0NUdiZ2NsNXcyVVl6MDZQYnlmd0NR,English,,5,2015-05-07,Michael Westermann,Perfect,you like this is perfect,,
AcDisplay,Google Play,com.achep.acdisplay,Z3A6QU9xcFRPRjZwU0l6ZTJodm00QU1vRVVvLUI3eVhkMnd2VjdXZWt6YXRGN2RsVmotMmduUmRyUXdHRzRtZ2tmLXB0NUdiZ2NsNXcyVVl6MDZQYnlmd0NR,English,,5,2015-05-07,Michael Westermann,Perfect,work great,,
AcDisplay,Google Play,com.achep.acdisplay,Z3A6QU9xcFRPRjZwU0l6ZTJodm00QU1vRVVvLUI3eVhkMnd2VjdXZWt6YXRGN2RsVmotMmduUmRyUXdHRzRtZ2tmLXB0NUdiZ2NsNXcyVVl6MDZQYnlmd0NR,English,,5,2015-05-07,Michael Westermann,Perfect,would really love it,,
AcDisplay,Google Play,com.achep.acdisplay,Z3A6QU9xcFRPRlZxb2drZEJtVVJpZEF6VVFrdURPSFNOaUFtTFFSZU9MYmVabmpfYVd5d1o2UjZ2SlEwOW84aE9WdFNsZ2hUcm5KaVZfcjczanh2TFFSWDBz,English,,5,2015-05-07,manu pruthi,,and the best far,,
AcDisplay,Google Play,com.achep.acdisplay,Z3A6QU9xcFRPRjYwdkg4QVBOcm5ya2lxcHB1YzRrbmVhTmxlcDVRMDJoTGlyWG9rSUE2dFNSVU9STC1mV2NXQlktNnhpMDBVak5tTDN1bEttNGwwNEhTbEtr,English,,5,2015-05-07,Nestor Muralles,,like it,,
AcDisplay,Google Play,com.achep.acdisplay,Z3A6QU9xcFRPRm5Ec3Z6eGxCTURpYS1OaXUtZW8tZG1mRWw3V1N0eWI3TzA5YU9sOUpvdWZ4YnJ1TEV4NUltWmh5VkRhejkzRTdfNnZENUlYSkl0LWx1Q053,English,,1,2015-05-06,,Bugs with Textra,i see how clicking on a message notification with messenger etc,,
AcDisplay,Google Play,com.achep.acdisplay,Z3A6QU9xcFRPRm5Ec3Z6eGxCTURpYS1OaXUtZW8tZG1mRWw3V1N0eWI3TzA5YU9sOUpvdWZ4YnJ1TEV4NUltWmh5VkRhejkzRTdfNnZENUlYSkl0LWx1Q053,English,,1,2015-05-06,,Bugs with Textra,make the contact the but doe not happen with,,
AcDisplay,Google Play,com.achep.acdisplay,Z3A6QU9xcFRPRm5Ec3Z6eGxCTURpYS1OaXUtZW8tZG1mRWw3V1N0eWI3TzA5YU9sOUpvdWZ4YnJ1TEV4NUltWmh5VkRhejkzRTdfNnZENUlYSkl0LWx1Q053,English,,1,2015-05-06,,Bugs with Textra,i really like but i also like the,,
AcDisplay,Google Play,com.achep.acdisplay,Z3A6QU9xcFRPRm5Ec3Z6eGxCTURpYS1OaXUtZW8tZG1mRWw3V1N0eWI3TzA5YU9sOUpvdWZ4YnJ1TEV4NUltWmh5VkRhejkzRTdfNnZENUlYSkl0LWx1Q053,English,,1,2015-05-06,,Bugs with Textra,is there any way to make them both compatible with each other,,
AcDisplay,Google Play,com.achep.acdisplay,Z3A6QU9xcFRPRmVUOWNMY1Y2MWdvRzVvTFdRWUNLbEtYU04yaUJ0YzJYVlVPcDBfbm95MmJvdi0zNFRHcnI3ekJ4TWdHbGFtWkhqU2xHeHlwcXRMM0JnVXdV,English,,4,2015-05-06,Patrick Jackson,Very nice!,great way to get notification,,
AcDisplay,Google Play,com.achep.acdisplay,Z3A6QU9xcFRPRmVUOWNMY1Y2MWdvRzVvTFdRWUNLbEtYU04yaUJ0YzJYVlVPcDBfbm95MmJvdi0zNFRHcnI3ekJ4TWdHbGFtWkhqU2xHeHlwcXRMM0JnVXdV,English,,4,2015-05-06,Patrick Jackson,Very nice!,very helpful and is under active development,,
AcDisplay,Google Play,com.achep.acdisplay,Z3A6QU9xcFRPRmVUOWNMY1Y2MWdvRzVvTFdRWUNLbEtYU04yaUJ0YzJYVlVPcDBfbm95MmJvdi0zNFRHcnI3ekJ4TWdHbGFtWkhqU2xHeHlwcXRMM0JnVXdV,English,,4,2015-05-06,Patrick Jackson,Very nice!,1 for being open source,,
AcDisplay,Google Play,com.achep.acdisplay,Z3A6QU9xcFRPR0FkeFhqYlBJdEZHVEFKcG9IT2dpa3FvY0I1YmxGZ09oT2VUZ25KNFNpMUhsQXdNZ1ZOcmxRSVdZY05sQXBCaTU1VVVFTlZSX0xSMk9zdV9Z,English,,3,2015-05-06,Santiago Gil,Password,like it but will be better with some security please answer and fix,,
AcDisplay,Google Play,com.achep.acdisplay,Z3A6QU9xcFRPR09lMllCS1BtSUtVLXhOelQtR2o2N2EzdkNReUlTbTN2WVpnSkttM3h2UG1pc1BDQkxtUll4U1FtYmFEaVJTYlFEa1paSktFZTNOWDN4eG9r,English,,2,2015-05-06,Kushan Dodanwala,Used to love it,used to love but now crash often and make my phone unresponsive,,
AcDisplay,Google Play,com.achep.acdisplay,Z3A6QU9xcFRPR09lMllCS1BtSUtVLXhOelQtR2o2N2EzdkNReUlTbTN2WVpnSkttM3h2UG1pc1BDQkxtUll4U1FtYmFEaVJTYlFEa1paSktFZTNOWDN4eG9r,English,,2,2015-05-06,Kushan Dodanwala,Used to love it,will come back fixed,,
AcDisplay,Google Play,com.achep.acdisplay,Z3A6QU9xcFRPSG1LTnMxaFJxdmE1VlhPTU9pWEQwbm5NY3EzTHZvZ2NodXdPNnU4RTJOeWVxMDVrbjlOMmhpNDQ3dmJReW5RQkNNcGhORWhkbDI5NEFKT2o0,English,,5,2015-05-06,H Othman,Lockscreen,this is by far my available in the play store,,
AcDisplay,Google Play,com.achep.acdisplay,Z3A6QU9xcFRPRmhWUmtBXzZFTEpHNUFlNGhGVHFUZXZXckJsc090dUdSbHI4YUQ4NGJOTVJxV0Z2WkRXSXE4Z2pTb2daOXNrU1c0dHZocjNBcUtQVmVUTDlF,English,,5,2015-05-06,Jesus Vazquez,,keep crashing i open the,,
AcDisplay,Google Play,com.achep.acdisplay,Z3A6QU9xcFRPRTR1VHpLangtZF9QQ2VGeGlyNkZWNHNIZWZscllwazZ3cHdEUEhlWGFnUlM4Wkc1OVdQUkwxYWNBRWFKUlJVMlpUUC1JZS0tV1lEeHhyX3o0,English,,4,2015-05-06,A Google User,One thing makes it perfect,double tap screen on feature badly needed,,
AcDisplay,Google Play,com.achep.acdisplay,Z3A6QU9xcFRPR2J0RlJrVzZudjl1VU52TnZEeXZHaG5SVjVNdWZ2dkxLYjA4azJUaU14YjBkR1hCTGVKb211eDcwcW9oT2UtR1FqNlMxUDRiZDRCRV8wR0pF,English,,4,2015-05-06,Soham Manjare,Best lockscreen app,update it more power usual,,
AcDisplay,Google Play,com.achep.acdisplay,Z3A6QU9xcFRPRmhfaVdMaTRFUFVleHM0YUM1dDl4NjZ4NVh5ekhBemIyYU9nQkFFN3JWRFR1eU9uZEltOElmaExUZGEtRjIzb1d6LXNwNUw2VnRPcVdMbG9n,English,,5,2015-05-06,tarun rahul,,great,,
AcDisplay,Google Play,com.achep.acdisplay,Z3A6QU9xcFRPRmhfaVdMaTRFUFVleHM0YUM1dDl4NjZ4NVh5ekhBemIyYU9nQkFFN3JWRFR1eU9uZEltOElmaExUZGEtRjIzb1d6LXNwNUw2VnRPcVdMbG9n,English,,5,2015-05-06,tarun rahul,,hope the developer keep making more like this,,
AcDisplay,Google Play,com.achep.acdisplay,Z3A6QU9xcFRPRnVvamRZQmJjMjZxbTZQSGpuMGdZbWZGbDUwb0FiYVRsQnpaVnhTOVJEQ1p6MW5nUXFTbUNrS05kLTFOaS1IREQzZ05rZ2dXRW5QeDAtU1pr,English,,5,2015-05-06,Renz. zneR,AWESOME!,keep up the good job,,
AcDisplay,Google Play,com.achep.acdisplay,Z3A6QU9xcFRPRWVoaGFFamVpb25meXNsSTdVdEpuLWdhdE81TnFpX19wTGxnQ0NMS09pOFBBNk1oMFJvQ0VDQ0Y3dTRJRnhoRnBBS1dLVi1lUTNXWGFPVzY4,English,,5,2015-05-06,Alexander Mancevice,Better than stock,either this is a fantastic,,
AcDisplay,Google Play,com.achep.acdisplay,Z3A6QU9xcFRPR3cyc28wYlpudzFXcDJmVWFLeW5NSG5KcDFBdHN6ajJqUnNnaGhkSlVUaXFpUmRya3MtWENwTVJtdS10eGlhQWF3Ul95cDZoazhPN3JQMFlV,English,,5,2015-05-06,sam legodi,Awesome App! BUT screen security would be perfect!,great job to the thumb up,,
AcDisplay,Google Play,com.achep.acdisplay,Z3A6QU9xcFRPSHFhZGJ0eWszLWQ1bTdnS1BBa01zSllTVm1wNF9WMDRtYnJURThDMjBzeFF5Ni1nMlFNbEtDVDQtRGJpNnY5ejA3TVc5ZF9NS2tZVXJVQWlR,English,,4,2015-05-06,Alan Magallanes,Try it out,the thing i would like is to be able to set a wallpaper without having to have it a home screen wallpaper a well,,
AcDisplay,Google Play,com.achep.acdisplay,Z3A6QU9xcFRPR1RXTjRyQWFkbjBOemtFbERaU2l1UFNwU1FrdGNnd0VScWI1RGlMdW42ZWhQcTZOOFFEVElraE5fMDVQTkM0and4bWozbEEtdDd4VmZmUlpv,English,,1,2015-05-06,Ariel Miranday,How to Deactivate?,how to deactivate,,
AcDisplay,Google Play,com.achep.acdisplay,Z3A6QU9xcFRPRlJTRzFqYngtNVdsaW9ndm5aNExOazdVRndydER4dHhGeHlfVlhiUUJCU1QwUzBabGtvWE1fQmVkYVRFZ0NPM0RucC1Sakp3RW1wbUtKVDRB,English,,5,2015-05-06,Jan Cyrus M.,Great App...,thanks,,
AcDisplay,Google Play,com.achep.acdisplay,Z3A6QU9xcFRPRlJTRzFqYngtNVdsaW9ndm5aNExOazdVRndydER4dHhGeHlfVlhiUUJCU1QwUzBabGtvWE1fQmVkYVRFZ0NPM0RucC1Sakp3RW1wbUtKVDRB,English,,5,2015-05-06,Jan Cyrus M.,Great App...,all fixed now and awesome,,
AcDisplay,Google Play,com.achep.acdisplay,Z3A6QU9xcFRPRlJTRzFqYngtNVdsaW9ndm5aNExOazdVRndydER4dHhGeHlfVlhiUUJCU1QwUzBabGtvWE1fQmVkYVRFZ0NPM0RucC1Sakp3RW1wbUtKVDRB,English,,5,2015-05-06,Jan Cyrus M.,Great App...,anyways,,
AcDisplay,Google Play,com.achep.acdisplay,Z3A6QU9xcFRPRlJTRzFqYngtNVdsaW9ndm5aNExOazdVRndydER4dHhGeHlfVlhiUUJCU1QwUzBabGtvWE1fQmVkYVRFZ0NPM0RucC1Sakp3RW1wbUtKVDRB,English,,5,2015-05-06,Jan Cyrus M.,Great App...,implement a custom wallpaper on the,,
AcDisplay,Google Play,com.achep.acdisplay,Z3A6QU9xcFRPRlJTRzFqYngtNVdsaW9ndm5aNExOazdVRndydER4dHhGeHlfVlhiUUJCU1QwUzBabGtvWE1fQmVkYVRFZ0NPM0RucC1Sakp3RW1wbUtKVDRB,English,,5,2015-05-06,Jan Cyrus M.,Great App...,thank you,,
AcDisplay,Google Play,com.achep.acdisplay,Z3A6QU9xcFRPSGVBUXBxYUtxcTRhUTJldWYtMXNZT0FKR1NwUFAzSzR0c1pwbmo3TkktUWV6c2VWOWlpc3BVa3VZd1oyamFTQ1g5UnZIbVFaZ21oS2dwTHNN,English,,5,2015-05-05,Yatharth Vichare,,please try custom clock and widget option on,,
AcDisplay,Google Play,com.achep.acdisplay,Z3A6QU9xcFRPRml4V05CdEJVOTh0YkpGMk5lTUduTF9SdmFrLS1ld0R5ZWV1Qk5RRl94SFg3VHRqMjlFMTdUdWZPclhDcV9MTzl3OTcyNTlLYTlFM0tyV2dv,English,,3,2015-05-05,Farbod Jahan,,good but lot of bug,,
AcDisplay,Google Play,com.achep.acdisplay,Z3A6QU9xcFRPRml4V05CdEJVOTh0YkpGMk5lTUduTF9SdmFrLS1ld0R5ZWV1Qk5RRl94SFg3VHRqMjlFMTdUdWZPclhDcV9MTzl3OTcyNTlLYTlFM0tyV2dv,English,,3,2015-05-05,Farbod Jahan,,constant crash with and endless notification with,,
AcDisplay,Google Play,com.achep.acdisplay,Z3A6QU9xcFRPSDdaRllvMWlaU3NIbTM0Q0s4M2xqY1pEOUNtQ0VCSTRlSDItY1QzTTU0S0JZZFB3aG1TWVU0SkVVVUJtcEFEenVEcHVVc2UzOU5lT0ExNE0w,English,,5,2015-05-05,Bill Alexis Pepito,Awesome App!,keep it up,,
AcDisplay,Google Play,com.achep.acdisplay,Z3A6QU9xcFRPR3N4eEpnMEY5clZCS3JOS3FSRGJnY3N1TURTclZCOU9WTjBsN19yYjRTMjZfNnk4Vk9oUHBMWWV4dGwzcXNocUcyX0ZsNjhfakFqUDlGeXk0,English,,5,2015-05-05,Davor Tomic,"Elegant, useful, functional",great job by the developer,,
AcDisplay,Google Play,com.achep.acdisplay,Z3A6QU9xcFRPRWVEbTNzdmtITTFCdklhM2tZZFhDemlob2lvTEdtbVA3NjRwZzJ1VDNMMERpdnNQR1Z3TENuUjVrQ1lpbjB6U0g2Q0drRjJLVWRNRHp5cmhz,English,,5,2015-05-05,Steven Mancera,Feature request,i will be very nice this will have double tap to and also double tap anywhere to sleep or lock,,
AcDisplay,Google Play,com.achep.acdisplay,Z3A6QU9xcFRPRWVEbTNzdmtITTFCdklhM2tZZFhDemlob2lvTEdtbVA3NjRwZzJ1VDNMMERpdnNQR1Z3TENuUjVrQ1lpbjB6U0g2Q0drRjJLVWRNRHp5cmhz,English,,5,2015-05-05,Steven Mancera,Feature request,or will have the knocking code to unlock it,,
AcDisplay,Google Play,com.achep.acdisplay,Z3A6QU9xcFRPRVBrWXBNcHFzQ2luZ1ZIWXJudmRNMlFEeHFJOUItRkJjVlFwcjA5aDdfTFFBckY3bEo2aWIxUDdINnVMY2xhTEJ5cVNEdThkTGVhQkJHdDVN,English,,5,2015-05-05,CH Gooi,Getting better per iteration,keep up the good work,,
AcDisplay,Google Play,com.achep.acdisplay,Z3A6QU9xcFRPSEx5X21vbGZQQW5heGxkRkdqQlpXMHVmZHRFOGRWRXBUYTZDVGEyTFF4bWdTb0RkUVVXcFRQN04wZWtLejVOcFUzaEFidWhIcmg2dXFIV1Fz,English,,4,2015-05-05,Quentin Weaver,Security,it had a security 5 star,,
AcDisplay,Google Play,com.achep.acdisplay,Z3A6QU9xcFRPRXV0cHV4N3hJYlZ4cVZ3ekNVLTJ1ZDhZZlNEZm1vVTBTc3A5TWZXNDhCVVd3akE4U3JydmZVM29vWXEyWjFMRnVnOUpSODBLX2R5OGtGTEF3,English,,5,2015-05-05,Francesco Cusimano,Genius,my set up is to leave background black and set circle to random,,
AcDisplay,Google Play,com.achep.acdisplay,Z3A6QU9xcFRPRzFsVUY3N1FvRmtUWXJFSFptaG1Ed2VSRkJ4WFpwVXZrSDFNd1VBMFNNdEVGc2tFS2gtdTA5aWpVNFpoM3puNU10akRxTmtVWHZpUzBQOHV3,English,,1,2015-05-05,Keenan Franklin,Bug,1 star rating because press the home button 3 time an the phone unlocks,,
AcDisplay,Google Play,com.achep.acdisplay,Z3A6QU9xcFRPRXNGWkZDZk5EUDN4ZzNXUEhBOGZJbmhVVmhqdFh2TmhNWl9vNGN1U3hjR1MzLXRUaWRVakZtM1NGa3NWd3lFY3hEZk1YMTFaOXdUUENvTVRV,English,,4,2015-05-05,,,u solved this problem i must give you five the is really good,,
AcDisplay,Google Play,com.achep.acdisplay,Z3A6QU9xcFRPRVVVLW5GRkt3eVk2SFFUMDRXN1hTb1VxNDQ1WTlnWFdGOG9QckxnTWhZeTRubXZyUjh5NTRnVW5hck8tc2VCZVFuZkdHc0lKc0JCd3U1NkFF,English,,5,2015-05-05,Steve Bird,Broke recently,sometime in the last few day this ha stopped working,,
AcDisplay,Google Play,com.achep.acdisplay,Z3A6QU9xcFRPRVVVLW5GRkt3eVk2SFFUMDRXN1hTb1VxNDQ1WTlnWFdGOG9QckxnTWhZeTRubXZyUjh5NTRnVW5hck8tc2VCZVFuZkdHc0lKc0JCd3U1NkFF,English,,5,2015-05-05,Steve Bird,Broke recently,i get the vibrate on double press but nothing happens,,
AcDisplay,Google Play,com.achep.acdisplay,Z3A6QU9xcFRPRVVVLW5GRkt3eVk2SFFUMDRXN1hTb1VxNDQ1WTlnWFdGOG9QckxnTWhZeTRubXZyUjh5NTRnVW5hck8tc2VCZVFuZkdHc0lKc0JCd3U1NkFF,English,,5,2015-05-05,Steve Bird,Broke recently,reinstalled and issue persists,,
AcDisplay,Google Play,com.achep.acdisplay,Z3A6QU9xcFRPSDlBQkZ3ekptSkVWRnVtRVBLWlhVU0w3UVRVYk1nUVpoRlZBZ056Ym8xdkNhSnJWcmt5bzZwVzVoZjcyc3hCbTl6UmVvUzBCMTJydEhXNWY0,English,,1,2015-05-05,eric camirand,Dangerous app,this began well but later became turning the screen on and off to,,
AcDisplay,Google Play,com.achep.acdisplay,Z3A6QU9xcFRPSDlBQkZ3ekptSkVWRnVtRVBLWlhVU0w3UVRVYk1nUVpoRlZBZ056Ym8xdkNhSnJWcmt5bzZwVzVoZjcyc3hCbTl6UmVvUzBCMTJydEhXNWY0,English,,1,2015-05-05,eric camirand,Dangerous app,but it made itself a device administrator,,
AcDisplay,Google Play,com.achep.acdisplay,Z3A6QU9xcFRPSDlBQkZ3ekptSkVWRnVtRVBLWlhVU0w3UVRVYk1nUVpoRlZBZ056Ym8xdkNhSnJWcmt5bzZwVzVoZjcyc3hCbTl6UmVvUzBCMTJydEhXNWY0,English,,1,2015-05-05,eric camirand,Dangerous app,i have some effort,,
AcDisplay,Google Play,com.achep.acdisplay,Z3A6QU9xcFRPR1hEQUJzdXJuLUlfTjlYeVlZNm1KeTF4RDd0U2hUcEFObTNQS0xkbHNRMXc0ZU02bGx1RnFkbUZCT19TTW54NDFXVTRlMEZSdWRvWHZZZWpr,English,,4,2015-05-05,Ferrica Ramos,,password option please,,
AcDisplay,Google Play,com.achep.acdisplay,Z3A6QU9xcFRPR2tSRjFtdTMxd25XdmkwWHNJQWstS1RTcWREdDliU3dDdWVxc19RWGw3LWtIR0lTWFM3dmtGYmFBb2NtcTM3TVZlLVVxUHBkYU96SU9RTUp3,English,,4,2015-05-05,Manaf Alhashimi,Great,gesture shortcut are bad it a very necessary add to the but not way you need make it swipe to right or left like the stock lollipop lock screen because like this every time i unlock the device the camera open by mistake good job,,
AcDisplay,Google Play,com.achep.acdisplay,Z3A6QU9xcFRPR08xYWlQTGt2dThRTk9GT01qVjNMeC1rSzZZVjMxM1FvSmJteG1PeDJmaXI4Y0VoQm53NElpYlc1dDRYRVB5YXBKNTEyWjVxZ2lvWVhMbzhV,English,,5,2015-05-05,Zhu Bridget,Love it!,love the concept,,
AcDisplay,Google Play,com.achep.acdisplay,Z3A6QU9xcFRPR08xYWlQTGt2dThRTk9GT01qVjNMeC1rSzZZVjMxM1FvSmJteG1PeDJmaXI4Y0VoQm53NElpYlc1dDRYRVB5YXBKNTEyWjVxZ2lvWVhMbzhV,English,,5,2015-05-05,Zhu Bridget,Love it!,save countless clicking power button for checking message,,
AcDisplay,Google Play,com.achep.acdisplay,Z3A6QU9xcFRPR08xYWlQTGt2dThRTk9GT01qVjNMeC1rSzZZVjMxM1FvSmJteG1PeDJmaXI4Y0VoQm53NElpYlc1dDRYRVB5YXBKNTEyWjVxZ2lvWVhMbzhV,English,,5,2015-05-05,Zhu Bridget,Love it!,can even fast forward song with this thing,,
AcDisplay,Google Play,com.achep.acdisplay,Z3A6QU9xcFRPR08xYWlQTGt2dThRTk9GT01qVjNMeC1rSzZZVjMxM1FvSmJteG1PeDJmaXI4Y0VoQm53NElpYlc1dDRYRVB5YXBKNTEyWjVxZ2lvWVhMbzhV,English,,5,2015-05-05,Zhu Bridget,Love it!,amazing,,
AcDisplay,Google Play,com.achep.acdisplay,Z3A6QU9xcFRPRTU2eHg0amppbkZqbEM4VERpUGV5bUdZNjRWdGd0a0tYRzdlZTJtYWNxOGpBX3VBYjQtTkNBTXo0bDZLd2E5UGtDMlJwYzFhd19mSVEtMXpZ,English,,1,2015-05-05,Dana Like a Danish,,i round it,,
AcDisplay,Google Play,com.achep.acdisplay,Z3A6QU9xcFRPRWlRUlY2LW1ka1A2VFdfOEZQb2ZYYzlRcklZVTVWc2lBeWd1T2JyajlmenZlT1lKQXVlVHJKOGc5QUJIUzZpOFdvdjUweHlVRmVHUTNId3hZ,English,,4,2015-05-05,Sorab Pithawala,Thanks,work great again,,
AcDisplay,Google Play,com.achep.acdisplay,Z3A6QU9xcFRPRnVOMXd6aVE4Q3dOeld2YUcwUFlvRndVaXB5OU91dFhfTE5zTFVjWjBvUUF0TV9ubmRuNXBFZGdXQW55MUZRVElyNmd0aG1NSV9veFdpbFFz,English,,4,2015-05-05,Gursimran Bedi,Awesome app!,awesome material design and work great,,
AcDisplay,Google Play,com.achep.acdisplay,Z3A6QU9xcFRPRnVOMXd6aVE4Q3dOeld2YUcwUFlvRndVaXB5OU91dFhfTE5zTFVjWjBvUUF0TV9ubmRuNXBFZGdXQW55MUZRVElyNmd0aG1NSV9veFdpbFFz,English,,4,2015-05-05,Gursimran Bedi,Awesome app!,could not help but donate,,
AcDisplay,Google Play,com.achep.acdisplay,Z3A6QU9xcFRPRnVOMXd6aVE4Q3dOeld2YUcwUFlvRndVaXB5OU91dFhfTE5zTFVjWjBvUUF0TV9ubmRuNXBFZGdXQW55MUZRVElyNmd0aG1NSV9veFdpbFFz,English,,4,2015-05-05,Gursimran Bedi,Awesome app!,edit i have an i had the notification bar down and the also ha the notification bar,,
AcDisplay,Google Play,com.achep.acdisplay,Z3A6QU9xcFRPRnVOMXd6aVE4Q3dOeld2YUcwUFlvRndVaXB5OU91dFhfTE5zTFVjWjBvUUF0TV9ubmRuNXBFZGdXQW55MUZRVElyNmd0aG1NSV9veFdpbFFz,English,,4,2015-05-05,Gursimran Bedi,Awesome app!,please fix,,
