# deletions,date,commit message
92,2015/5/07,make build all notification
12,2015/5/07,add for android
3,2015/5/05,update version to
2,2015/5/05,correct translation
2,2015/5/05,bump version to
94,2015/5/05,translation
20,2015/5/05,corner gesture
