Topic Index 1,Topic Index 2,Topic Similarity
0,1,1.0
1,3,1.0
2,7,1.0
3,13,1.0
4,15,1.0
5,18,1.0
6,19,1.0
7,0,0.0
8,2,0.0
9,4,0.0
10,5,0.0
11,6,0.0
12,8,0.0
13,9,0.0
14,10,0.0
15,11,0.0
16,12,0.0
17,14,0.0
18,16,0.0
19,17,0.0
