remove unnecessary,o,2014/12/29,,
fix sorting and filtering,f,2014/12/29,,
multiple improvement,f,2014/12/27,,
bump build tool version,b,2014/12/23,,
bump and version,b,2014/12/13,,
bump version,b,2014/12/10,,
cache cleaner,b,2014/11/29,,
