Topic Index 1,Topic Index 2,Topic Similarity
10,10,11.11111111111111
12,18,11.11111111111111
14,19,11.11111111111111
0,5,5.263157894736842
1,1,5.263157894736842
2,12,5.263157894736842
3,15,5.263157894736842
4,3,5.263157894736842
5,6,5.263157894736842
7,9,5.263157894736842
8,17,5.263157894736842
9,11,5.263157894736842
11,14,5.263157894736842
6,0,0.0
13,2,0.0
15,4,0.0
16,7,0.0
17,8,0.0
18,13,0.0
19,16,0.0
