# deletions,date,commit message
2,2013/9/01,v2.6
8,2013/9/01,Add dark theme preference to support both dark/light themes
2,2013/9/01,Fixed empty clipboard crash
9,2013/9/01,Add set root preference
326,2013/8/27,Separate vim executable and libvimtouch  - Make the vim executable as libvimexec.so ( but still a executable instead of share library use the name because of the apk rule) - Implement a new local server socket in Exec to accept events from vim exec - Re-implement all vim function invokes in termExec to use local socket
0,2013/6/02,add android-support-v4.jar to aFileChooser
1,2013/6/02,update project aFileChooser
0,2013/6/02,add android-support-v4.jar
2,2013/5/14,v2.5r2
1,2013/5/14,Fix white space in the file path
