# deletions,date,commit message
7,2014/3/06,A help menu everywhere
2,2014/3/04,Changed ordering of items in the menu
2,2014/3/04,Changed ordering of items in the menu
8,2014/3/04,Added 'Help' item to the menu
4,2014/3/04,Better labels
28,2014/3/04,Apps can now be tagged in the annotations and selected as a group.
4,2014/3/03,Added NOW and COUNT variable to header/footer.
1,2014/3/03,typo
3,2014/3/03,Added a shameless plug to the footer of the default templates.
2,2014/3/03,BUGFIX: BBCode does not use quotes around and url.
2,2014/2/23,Preemptive version bump
3,2014/2/13,When a list becomes too large for sharing automatically copy it to the clipboard.
2,2014/2/13,Added targetsdk variable to translation and fixed a typo.
3,2014/2/13,Added targetsdk as a variable
3,2014/2/13,Preemptive version bump
