Topic,Words
0,0.096*can't,0.088*was,0.083*to,0.078*much,0.058*twitter,0.058*translation,0.049*clients,0.046*where,0.043*i,0.038*while
1,0.079*much,0.075*where,0.074*other,0.072*to,0.052*while,0.051*tweet,0.047*the,0.044*can't,0.042*worth,0.035*better
2,0.123*start,0.095*work,0.073*a,0.062*it,0.058*but,0.052*option,0.051*can,0.046*make,0.046*while,0.041*translation
3,0.077*twitter,0.062*was,0.058*tweet,0.058*work,0.058*find,0.054*can,0.054*much,0.048*improve,0.040*the,0.038*where
4,0.122*a,0.086*it,0.065*action,0.063*can,0.053*twitter,0.053*worth,0.050*took,0.047*like,0.040*can't,0.040*to
5,0.137*the,0.129*a,0.076*while,0.072*where,0.055*i,0.051*than,0.043*it,0.043*can't,0.041*took,0.040*make
6,0.154*make,0.091*where,0.088*me,0.084*took,0.057*but,0.051*translation,0.048*option,0.047*it,0.035*to,0.034*crashing
7,0.144*find,0.109*translation,0.101*option,0.063*twitter,0.058*work,0.053*improve,0.044*can,0.042*than,0.041*other,0.036*action
8,0.107*it,0.103*while,0.087*action,0.085*where,0.082*make,0.072*than,0.053*on,0.049*a,0.042*took,0.041*was
9,0.197*official,0.072*to,0.068*took,0.051*can't,0.048*other,0.041*while,0.036*find,0.033*clients,0.031*better,0.029*option
10,0.143*can,0.101*make,0.068*than,0.062*but,0.061*the,0.046*can't,0.046*twitter,0.040*start,0.039*tweet,0.038*to
11,0.149*crashing,0.117*it,0.081*where,0.072*better,0.065*can't,0.054*other,0.043*took,0.039*hope,0.034*option,0.028*can
12,0.146*start,0.085*can,0.075*much,0.056*improve,0.055*hope,0.054*to,0.047*it,0.046*the,0.041*a,0.040*where
13,0.157*translation,0.085*work,0.067*a,0.067*can't,0.063*hope,0.062*tweet,0.056*crashing,0.048*much,0.041*i,0.031*find
14,0.070*work,0.069*the,0.068*than,0.066*other,0.062*much,0.056*on,0.056*where,0.054*me,0.043*a,0.037*hope
15,0.144*official,0.105*it,0.104*i,0.066*twitter,0.053*tweet,0.051*but,0.050*make,0.047*a,0.046*me,0.033*crashing
16,0.098*work,0.082*was,0.061*on,0.051*make,0.050*official,0.047*can't,0.047*clients,0.046*improve,0.044*it,0.043*while
17,0.098*action,0.067*me,0.066*tweet,0.063*was,0.058*clients,0.053*while,0.049*better,0.047*find,0.042*on,0.039*the
18,0.140*hope,0.091*to,0.087*on,0.073*clients,0.068*better,0.059*but,0.040*tweet,0.040*work,0.038*the,0.036*a
19,0.136*i,0.093*where,0.076*other,0.062*me,0.060*clients,0.059*twitter,0.056*much,0.048*option,0.034*official,0.033*the
