Topic,Words
0,0.044*reliably,0.036*work,0.032*tab,0.032*best,0.032*of,0.032*tabs,0.030*excellent,0.028*is,0.025*read,0.025*really
1,0.052*looking,0.039*yours,0.029*need,0.026*thing,0.026*doesn't,0.025*read,0.023*beautiful,0.023*another,0.022*can,0.022*for
2,0.050*can,0.041*actual,0.035*clicking,0.034*update,0.032*too,0.029*it,0.029*load,0.025*is,0.023*earning,0.023*the
3,0.050*proxy,0.049*major,0.042*can't,0.040*it,0.031*design,0.029*say,0.024*use,0.024*can,0.023*so,0.022*donate
4,0.042*please,0.039*is,0.032*can't,0.027*perfectly,0.026*thumbnail,0.026*black,0.026*actual,0.025*clicking,0.025*only,0.023*work
5,0.076*best,0.039*leave,0.039*my,0.037*image,0.031*a,0.030*doesn't,0.029*the,0.027*yours,0.026*experience,0.024*can
6,0.042*available,0.041*by,0.033*thing,0.033*problem,0.028*clicking,0.028*a,0.028*one,0.026*need,0.024*of,0.023*really
7,0.041*say,0.030*one,0.028*do,0.028*way,0.027*issue,0.027*if,0.027*read,0.027*tabs,0.025*lists,0.023*need
8,0.056*i,0.038*can't,0.033*my,0.032*do,0.031*major,0.030*once,0.029*thing,0.025*thumbnail,0.023*recent,0.022*earning
9,0.067*other,0.034*recent,0.032*then,0.031*once,0.030*load,0.030*and,0.028*black,0.027*need,0.026*this,0.025*can
10,0.049*do,0.045*then,0.043*far,0.032*way,0.029*no,0.029*loads,0.029*image,0.028*a,0.027*looking,0.027*perfectly
11,0.043*load,0.043*it,0.041*then,0.033*if,0.033*available,0.032*issue,0.029*once,0.029*thing,0.029*tabs,0.026*looking
12,0.034*recent,0.030*work,0.029*doesn't,0.029*i,0.027*to,0.025*with,0.025*my,0.024*buggy,0.023*makes,0.022*other
13,0.038*experience,0.038*update,0.037*load,0.032*of,0.032*tweets,0.027*the,0.026*tab,0.025*proxy,0.024*longer,0.022*need
14,0.035*lists,0.034*switch,0.034*you,0.031*the,0.028*excellent,0.028*twitter,0.027*slow,0.027*work,0.025*sometimes,0.025*problem
15,0.044*it,0.044*buggy,0.043*when,0.033*way,0.028*to,0.025*so,0.025*tabs,0.023*loads,0.023*add,0.019*other
16,0.039*beautiful,0.038*once,0.034*experience,0.031*problem,0.030*a,0.029*looking,0.028*major,0.023*slow,0.023*quotes,0.022*my
17,0.048*when,0.034*can,0.034*say,0.033*black,0.030*of,0.029*load,0.027*a,0.027*all,0.027*donate,0.026*so
18,0.040*on,0.038*need,0.036*loads,0.032*switch,0.032*thumbnail,0.030*of,0.030*way,0.027*no,0.027*makes,0.026*available
19,0.035*image,0.035*switch,0.034*older,0.031*read,0.030*too,0.028*slow,0.027*nicest,0.027*shows,0.027*other,0.027*getting
