# deletions,date,commit message
6,2014/8/15,lint fixes
30,2014/8/15,cleanup
2,2014/8/15,bump tooling
7,2014/8/15,use jcenter
4,2014/8/12,use travis-ci build status badge
1,2014/7/21,bump slf4j version
2,2014/7/21,bump version
1,2014/7/21,bump butterknife version
2,2014/7/21,format
2,2014/7/21,bump build tooling versions
