Topic Index 1,Topic Index 2,Topic Similarity
15,15,3.0
19,0,3.0
1,6,2.0
8,9,2.0
9,19,2.0
11,5,2.0
17,1,2.0
0,10,1.0
2,14,1.0
4,3,1.0
5,18,1.0
6,17,1.0
7,8,1.0
10,12,1.0
13,2,1.0
14,11,1.0
18,16,1.0
3,4,0.0
12,7,0.0
16,13,0.0
