pretty useful,o,2017-05-23,bado baroon4,5
very good,o,2017-05-16,,5
thank you,o,2017-05-16,,5
good,o,2017-05-14,Ali Goli,5
for,o,2017-05-03,alireza asakereh,5
great calendar,o,2017-04-30,khadija April,5
great,o,2017-04-24,,5
,o,2017-04-20,sirvan barani,5
great,o,2017-04-20,Nima Karimpour,5
perfect,o,2017-04-20,mohammad hadavand,5
,o,2017-04-17,,3
best calender over play store,b,2017-04-16,Alireza Pishdadian,5
,o,2017-04-10,mohammad rassoli,5
best especially it includes,o,2017-04-09,,5
very nice,o,2017-04-08,sepideh familirani,5
perfect please free,o,2017-04-08,MostAfA,5
love the simplicity and very meticulous,o,2017-04-07,Prince M,5
please correct this,b,2017-04-07,Prince M,5
the best calendar,o,2017-04-03,Mir Iran,5
good and very applicable,b,2017-03-31,,5
a perfect indeed,o,2017-03-31,Sady Qavipisheh,5
doe it and it is a rare thing nowadays,o,2017-03-31,Sady Qavipisheh,5
very nice,o,2017-03-27,,5
nice one,o,2017-03-21,,5
it is calender,o,2017-03-16,Ali Shamaei,5
lite and simple,f,2017-03-11,Reza Heidari,4
just good,o,2017-03-06,Ali Ghanbari,5
very good and thanks,o,2017-03-06,Hojjat Momen,5
good,o,2017-03-06,Amir Farahany,5
thanks for this,o,2017-03-04,Nazirhussain Azimi,5
low used,b,2017-03-04,Sajjad Sam,5
awesome,o,2017-03-04,Khalid Orakzay,5
best design,o,2017-03-03,Amir Mahdavi,5
run smooth,b,2017-03-03,Amir Mahdavi,5
like it,o,2017-03-03,Amir Mahdavi,5
,o,2017-03-01,mahdi moradi,5
nice calendar,o,2017-02-28,A Google User,4
good calendar,o,2017-02-20,Rasoul Yousefi,5
best and useful,o,2017-02-19,رامین کارن,5
a perfect calender,o,2017-02-17,shima garousi,5
very good and easy,o,2017-02-16,siamak sharifian,5
great calendar,o,2017-02-16,Hesam Etemadi,5
practical,f,2017-02-15,Hooman Borsipour,5
thanks,o,2017-02-15,Mina Kenan,5
very good and nice 10000,o,2017-02-15,Karami_Mogaddam _Ahmad,5
nice,o,2017-02-15,sam kaye,5
my need are met,o,2017-02-15,sam kaye,5
very good,o,2017-02-15,Mohammad reza Sheikhian,5
it,o,2017-02-12,farhad kazemi,5
this widget is very interested related to other i love it and thanks a lot for,b,2017-02-06,Fazel Dehghani,5
it ha a very nice the calendar look date conversion is quite happy with it,o,2017-02-05,Soheil Tajahmadi,5
best,o,2017-02-03,mohamad mottaghi,5
wonderful and useful,o,2017-02-03,siavash sotodeh,5
good one,o,2017-02-02,Murtaza Mohammadi,3
really nice,o,2017-02-02,Sanaullah Armani,5
lovely calendar,o,2017-02-01,hom ka,5
good,o,2017-02-01,Amin Delavar,5
shah,o,2017-02-01,hamed donyavi,5
thanks,o,2017-01-31,Mohammad Garoos,5
,o,2017-01-31,Mirwais Maleki,5
good,o,2017-01-30,Gphone Gphone,5
the best calendar,o,2017-01-30,Maxacia A,5
the widget is too,b,2017-01-30,Maxacia A,5
useful,o,2017-01-30,emad tabadkani,5
hi,o,2017-01-30,,5
my love calender,o,2017-01-29,arash jahangiri,5
love it,o,2017-01-28,Ehssan Riazi,5
thank you,o,2017-01-28,Ehssan Riazi,5
best in this type,o,2017-01-28,,4
android 4 2,b,2017-01-28,المیرا آبتین,5
awesome,o,2017-01-28,Amir Hosain Sharifianpour,5
,o,2017-01-27,M.Samei Farahani,5
great,o,2017-01-27,,5
force close on android 6,b,2017-01-27,Amir Sarvestani,4
fix it,b,2017-01-27,Amir Sarvestani,4
just awesome,o,2017-01-27,Mehrdad nejat bakhsh,5
useful,o,2017-01-27,Mohd Neamat,5
wonderful,o,2017-01-27,Arman Tarasi,5
it repeatedly with no reason and closed,b,2017-01-27,Arsalan AA,3
very good,o,2017-01-23,Samad Ghasemkhani,4
good,o,2017-01-18,Ziynab alb,5
it,o,2017-01-15,ARASH K,4
,o,2017-01-14,Motahareh Najar,2
man to,o,2017-01-14,Motahareh Najar,2
it really good,o,2017-01-11,Islom Islomov,5
great,o,2017-01-07,Ali Alishahi,5
lg,b,2017-01-06,Mehdi Nooripoor,3
this is lovely,o,2016-12-06,Hassan Huseinyar,5
,o,2016-11-30,lock furton Gneral bakht,5
awesome,o,2016-11-30,,5
good,o,2016-11-26,Nicefarid 2,5
the best application,o,2016-11-23,m.n.sorush@gmail.com atayee,5
,o,2016-11-19,,1
cool,o,2016-11-17,Puriya JahanBakhsh,5
nice,o,2016-11-06,Mohammad Deh,5
,o,2016-11-04,Ebrahim Samsamian,4
,o,2016-11-02,lion happy,5
this w a special for me particularly a my android 234 support it font,f,2016-10-30,Siamak Ensafi,5
thanks for the release,f,2016-10-30,Siamak Ensafi,5
it also work flawlessly on my android 6 device,b,2016-10-30,Siamak Ensafi,5
i like the conversion feature,f,2016-10-27,Hamidullah Akbari,5
great,o,2016-10-22,,5
good,o,2016-10-20,Mansoor Reyaz,5
great one,o,2016-10-20,Sabawoon Stanikzai,5
best calendar for android,o,2016-10-15,,5
open source clean,o,2016-10-15,,5
hood,o,2016-10-13,Reza,5
good luck,b,2016-10-08,,5
,o,2016-10-06,,5
,o,2016-10-05,hojat mohamadi,5
,o,2016-10-03,Asad Bozorgi,5
it great and doe it job well,o,2016-10-01,Farzad Alipour,5
very,o,2016-09-30,Dr.Hamid Jamal,5
good enough,o,2016-09-28,Hamed Biregani,5
,o,2016-09-25,mehrshad tuning,3
very useful,o,2016-09-24,raha leoraha,5
the ha a nice and smooth which is easy to use and i liked it,o,2016-09-18,Leo James,5
i love it,o,2016-09-14,Aida noori,5
great,o,2016-09-13,Hosein sharifi,5
a lot,o,2016-08-31,Hami Orman,5
add calendar sync,o,2016-08-31,amir hossein,5
good and enough and take small capacity,b,2016-08-23,shahin shamsa,4
great and widget,b,2016-08-20,Mehran Balaei,5
doe the job,o,2016-08-20,Mehran Balaei,5
good,o,2016-08-16,Mohammad Reza Kheirkhah,5
awesome,o,2016-08-11,Navid Fathollahzade,5
thanks very much,o,2016-08-07,reza ser,5
i love you,o,2016-08-07,reza ser,5
perfect,o,2016-08-01,MILAD KOLYAEI,5
just for be,o,2016-07-20,Mohammad Abaee,5
good,o,2016-07-19,,5
easy to it ha everything you want from a calendar,o,2016-07-17,Parvin Yousefie,5
thanks,o,2016-07-13,boy models,3
this ha virus bad soft ware,b,2016-07-12,Behrouz Feyzi,1
best thanks a lot,o,2016-07-11,David Lakatos,5
,o,2016-07-09,zakaria mahmoudi,3
i like this accurate and nice,o,2016-07-08,A Google User,5
,o,2016-06-26,javad Abdi,3
thanks for update and support,b,2016-06-20,Nima Behroozi,5
the best,o,2016-06-05,ميدو مودي,5
awesome,o,2016-06-02,Salar Rastari,5
perfect,o,2016-06-01,Behzad B,5
this software is very useful,o,2016-05-31,,5
very good,o,2016-05-30,Mohammad Azizi,5
most good speed and also nice graphic design,b,2016-05-30,Dri Ebz,4
simple but great,o,2016-05-28,hamed hani,5
perfect,o,2016-05-27,Amir Emami,5
good,o,2016-05-26,mohammad reza Haghani,4
accurate calendar with smooth and friendly interface,o,2016-05-24,Bijan Jalali,4
you set appointment in the calendar it show up in the calendar,o,2016-05-24,Bijan Jalali,4
thank you,o,2016-05-24,Mahyar Hatami,3
,o,2016-05-24,Vahid Mehdipour,5
love it,o,2016-05-23,Mohsen Panahi,5
,o,2016-05-22,Reza Jaberi,5
very good,o,2016-05-14,Ehsan Mahjoob,4
one of the best in play come close multi calendar with prayer time highly recommended,o,2016-05-10,Tarek Salami,5
nice,o,2016-05-06,nokhbegan bbs,5
,o,2016-05-04,GonbadBoy 2015,5
this is really amazing and useful,o,2016-05-01,Ali Abdolahi,5
a good calendar for everyone,o,2016-04-30,morteza hassanzadeh,5
truly the best calendar i have ever come across,o,2016-04-30,Kamyar Nemati,5
well done,o,2016-04-27,Sajjad Komeyli,5
ha,b,2016-04-24,Saeid Saremi,1
,o,2016-04-23,mikaiil rohani,5
perfect,o,2016-04-22,Maryam H,5
simple and practical,f,2016-04-22,habib ezati,4
best calender,o,2016-04-21,Sina Gh,5
,o,2016-04-21,amir sartipi,5
thank you for this application,o,2016-04-21,Siamak Farahi,5
very light weight which ha most you need from a calendar,b,2016-04-18,saeed serpooshan,5
thanks,o,2016-04-18,saeed serpooshan,5
could be better add more setting like a text more widget option,b,2016-04-18,saeed serpooshan,5
it is helpful and easy to use,o,2016-04-13,Abbas Zarei,5
excellent,o,2016-04-08,Zandani Darvesh,5
really handy thanks,o,2016-04-07,Kamran Kaveh,5
simple and best,o,2016-04-07,Mohammad Moradkhani,5
the best calendar supporting and city,b,2016-04-06,Nasri Mohseni,5
android 6,o,2016-04-06,Hassan Barlak,5
nice quite colorful,o,2016-04-05,Alireza Sahebi,5
why doe a calendar need location permission,o,2016-04-05,Baabak Sunrise,1
it is for time zone or such a it could be done by simpler method,f,2016-04-05,Baabak Sunrise,1
is it going to spying,o,2016-04-05,Baabak Sunrise,1
very good,o,2016-04-04,mohamadreza afshari,5
,o,2016-04-04,sohail moradi,5
,o,2016-04-04,Ali Bemana,5
short voice duration for prayer notification,o,2016-04-04,Mohammad Rahmandoost,4
great,o,2016-04-03,Reza Kar,5
perfect,o,2016-04-03,Jawad Bait Sayah,5
simply the best,o,2016-04-03,Sia Alavian,5
i love the new material design,o,2016-04-03,Mostafa Moghaddam,5
the best calender,o,2016-04-03,Saleh Sorkhei,5
,o,2016-04-03,changiz pirouz,5
excellent,o,2016-04-03,Shabbir Hassanally,5
