Topic,Words
0,0.147*a,0.136*is,0.134*from,0.087*stared,0.069*far,0.068*events,0.068*way,0.030*would,0.029*awesome,0.029*there
1,0.171*far,0.141*so,0.113*to,0.112*schedule,0.092*way,0.056*is,0.051*from,0.038*stared,0.036*that,0.033*the
2,0.236*best,0.137*events,0.131*so,0.100*to,0.089*awesome,0.062*from,0.059*that,0.056*far,0.033*way,0.029*would
3,0.199*list,0.147*schedule,0.107*events,0.095*there,0.087*way,0.086*would,0.066*that,0.055*the,0.033*awesome,0.031*from
4,0.114*the,0.114*a,0.110*that,0.104*way,0.082*so,0.071*to,0.068*generate,0.068*list,0.058*would,0.051*schedule
5,0.122*schedule,0.119*to,0.113*best,0.096*way,0.087*list,0.072*far,0.063*stared,0.060*is,0.059*events,0.052*the
6,0.250*far,0.113*stared,0.080*list,0.078*a,0.077*there,0.073*the,0.070*way,0.038*from,0.034*best,0.032*schedule
7,0.211*list,0.162*way,0.139*a,0.053*be,0.052*from,0.047*stared,0.047*there,0.047*generate,0.045*best,0.042*far
8,0.169*the,0.128*list,0.111*be,0.096*awesome,0.090*best,0.073*generate,0.065*to,0.048*schedule,0.030*from,0.028*way
9,0.195*be,0.161*best,0.138*events,0.114*schedule,0.092*the,0.080*there,0.040*from,0.036*far,0.026*is,0.023*generate
10,0.147*stared,0.112*way,0.103*there,0.098*best,0.074*a,0.072*to,0.069*the,0.058*list,0.054*from,0.032*awesome
11,0.227*the,0.119*would,0.113*a,0.072*be,0.070*is,0.064*to,0.064*from,0.047*schedule,0.039*way,0.035*there
12,0.141*list,0.135*schedule,0.122*there,0.078*best,0.078*stared,0.072*is,0.059*events,0.059*a,0.050*would,0.047*so
13,0.161*best,0.157*generate,0.107*awesome,0.087*a,0.073*schedule,0.069*far,0.064*would,0.060*stared,0.043*from,0.042*be
14,0.138*that,0.128*far,0.112*best,0.105*so,0.080*be,0.076*generate,0.064*to,0.056*is,0.048*there,0.045*from
15,0.202*stared,0.200*that,0.090*be,0.086*events,0.072*a,0.053*best,0.046*far,0.043*list,0.043*way,0.040*would
16,0.157*be,0.152*there,0.123*generate,0.099*the,0.090*awesome,0.059*way,0.055*stared,0.048*is,0.043*so,0.036*that
17,0.264*there,0.111*generate,0.102*schedule,0.081*is,0.074*from,0.054*so,0.052*that,0.049*awesome,0.042*be,0.042*to
18,0.193*would,0.181*awesome,0.128*to,0.108*generate,0.090*be,0.055*far,0.044*schedule,0.043*best,0.035*a,0.031*is
19,0.165*from,0.142*generate,0.103*far,0.097*is,0.090*there,0.077*best,0.068*the,0.051*awesome,0.046*so,0.038*stared
