Topic Index 1,Topic Index 2,Topic Similarity
0,12,17.647058823529413
1,3,11.11111111111111
2,17,11.11111111111111
6,8,11.11111111111111
7,19,11.11111111111111
10,14,11.11111111111111
13,2,11.11111111111111
3,4,5.263157894736842
4,5,5.263157894736842
5,7,5.263157894736842
8,9,5.263157894736842
11,6,5.263157894736842
12,13,5.263157894736842
9,0,0.0
14,1,0.0
15,10,0.0
16,11,0.0
17,15,0.0
18,16,0.0
19,18,0.0
