# deletions,date,commit message
2,2016/7/03,auto refresh changed icon urls
0,2016/7/03,bigger icon
4,2016/7/03,PlayerService: Replay current stream instead of stopping in case of proxy problems  StreamProxy: Increase buffer read timeout more detailed logging
3,2016/7/02,catch all errors on stop
1,2016/6/26,strict mode -> abort on lint errors
4,2016/6/26,fix lint errors?
1,2016/6/26,apk already in correct dir
2,2016/6/26,correct package name for starting the app
2,2016/6/26,version 0.21
4,2016/6/26,crash fix on stop
