# deletions,date,commit message
2,2016/6/04,version to 0.17
19,2016/6/04,do not save null bitmaps
2,2016/6/04,hide null bitmaps
3,2016/6/04,fixed crash on screen rotate
9,2016/6/04,fixed crash on screen rotate
8,2016/6/01,use new hidebroken api for attribute lists
