Topic Index 1,Topic Index 2,Topic Similarity
0,2,2.0
2,14,2.0
5,15,2.0
10,9,2.0
11,5,2.0
1,7,1.0
3,0,1.0
4,3,1.0
6,4,1.0
7,6,1.0
9,11,1.0
13,17,1.0
15,18,1.0
17,10,1.0
18,13,1.0
8,1,0.0
12,8,0.0
14,12,0.0
16,16,0.0
19,19,0.0
