Topic Index 1,Topic Index 2,Topic Similarity
2,16,2.0
4,4,2.0
17,7,2.0
0,1,1.0
1,10,1.0
3,13,1.0
5,5,1.0
6,14,1.0
7,0,1.0
8,6,1.0
10,19,1.0
11,12,1.0
12,2,1.0
13,9,1.0
14,8,1.0
15,18,1.0
16,15,1.0
18,17,1.0
19,11,1.0
9,3,0.0
