# deletions,date,commit message
14,2015/6/10,support overwrite shared file from other
11,2015/6/09,improve variable name
6,2015/6/13,upgrade database without losing user data carefully update bumping database version to make sure user data is saved
7,2015/6/15,drop the old context menu
5,2015/6/15,support multi choice via action mode
16,2015/6/13,restart task in an elegant way
13,2015/6/11,use the same flag to mark a transfer task
3,2015/6/11,review
11,2015/6/11,support manage download upload task
6,2015/6/11,improve code style
4,2015/6/11,add new string
3,2015/6/11,improve comment
31,2015/6/11,
2,2015/6/11,sort by name
57,2015/6/11,beautify code
22,2015/6/11,support sort file in descending order
1,2015/6/11,beautify string
2,2015/6/11,add new string
10,2015/6/15,update
1,2015/6/15,update
2,2015/6/15,update
3,2015/6/08,fixed typo
5,2015/6/05,fix typo
