App,Store,App ID,Review ID,Country,Version,Rating,Date,Author,Subject,Body,Translated Subject,Translated Body
Seafile,Google Play,com.seafile.seadroid2,Z3A6QU9xcFRPSGp6UTk5SG9VaFk3NEZnT3RBdEM0WDdEQ2t0YWtjUER3Rm1kLVVkekcxWHpPRjZkak9qMnlJS0VpMFNjVUxYcHNkVG9iYm1seXI5WmlSMEE,English,,5,2015-05-23,Zeyang Meng,Nice,useful,,
Seafile,Google Play,com.seafile.seadroid2,Z3A6QU9xcFRPRlZVZDNkOVVYc2NiamZvNm5WVkZnSmFuZ2NLZ1EyaHdxbFhidGxlbThJckJkcmtFTFNGYndmSVFDcnhWOG1QNUxTZ1h2WEV1ekJZU0M0a1E,English,,5,2015-05-18,Rich Lott,,fantastic,,
