# deletions,date,commit message
10,2015/10/18,fixed bug where thread layout state was not saved on rotation
2,2015/10/18,bump for release
1,2015/10/18,added breaks
0,2015/10/18,Change logo to white eyed one
4,2015/10/18,Moved margins on reply and more buttons
