# deletions,date,commit message
5,2015/10/17,Stop/start update functionality when searching thread.
33,2015/10/17,Moved back to regular fragments instead of support library
7,2015/10/17,Added search thread. Still have to add open close listeners to prevent thread from refreshing. Potential bug on nested threads
3,2015/10/17,Added copying comment text
2,2015/10/15,Bump for release
11,2015/10/15,Fixed bug crashing layout manager in watchlist Fixed bug with multitouch+viewpagers+photoview (This needs to be properly addressed still) Fixed bug where no activity was called for getactivity in thread fragment.
