App,Store,App ID,Review ID,Country,Version,Rating,Date,Author,Subject,Body,Translated Subject,Translated Body
Wigle Wifi Wardriving,Google Play,net.wigle.wigleandroid,Z3A6QU9xcFRPRUNLZlRObW8tRnUxczhhaHdJbXlpTWNIS2d4NU1MSzd3TDB6dUxBSXZOM2syazd5ZFhyM3ZZRVlfNHNpMnB4MWpITGM1WFV4OWZlbV9FR19Z,English,,5,2015-11-01,,Wigle wifi,,,
Wigle Wifi Wardriving,Google Play,net.wigle.wigleandroid,Z3A6QU9xcFRPRVlGbVBBd09UOUZfdDhwTm12LVAtTHl3dEZmWXh2elZfUVh1V3ZRZjhpVjExZkN1eFV3V2NZT3JVajN1bFJZMnFPNy14aTR6U1cyWjduQXE4,English,,5,2015-10-26,Todor Tihomirov,Aweseme,it drain the it us and,,
Wigle Wifi Wardriving,Google Play,net.wigle.wigleandroid,Z3A6QU9xcFRPRVlGbVBBd09UOUZfdDhwTm12LVAtTHl3dEZmWXh2elZfUVh1V3ZRZjhpVjExZkN1eFV3V2NZT3JVajN1bFJZMnFPNy14aTR6U1cyWjduQXE4,English,,5,2015-10-26,Todor Tihomirov,Aweseme,sometimes the upload stop disappointing you have thousand and thousand of log,,
Wigle Wifi Wardriving,Google Play,net.wigle.wigleandroid,Z3A6QU9xcFRPSHFxa29fLXBVak1RbG9zT3lXTXNTTkpfQXlLWDZobmVsMFBLWGg1bjhkQUxqbGsyTlZBbzU5dTlLNVpUbEdrV29aTHJwTnJSOW5TNUgwdlQ4,English,,3,2015-10-25,,All right but.,i give it 5 u fix,,
Wigle Wifi Wardriving,Google Play,net.wigle.wigleandroid,Z3A6QU9xcFRPR1AyeS1nWDEybVVHTGY3REhFbFdpckpSeFFqMF9GZHBJWmM4OUc2NWZwTXBiVFphVUVfVnloU3REdmtueFR0OTdiSWg2OFFDNm5vQ0lGTlNZ,English,,1,2015-10-21,paul harmsworth,,seem to show cell tower on after using this i found that i returned i could not use my,,
Wigle Wifi Wardriving,Google Play,net.wigle.wigleandroid,Z3A6QU9xcFRPR1AyeS1nWDEybVVHTGY3REhFbFdpckpSeFFqMF9GZHBJWmM4OUc2NWZwTXBiVFphVUVfVnloU3REdmtueFR0OTdiSWg2OFFDNm5vQ0lGTlNZ,English,,1,2015-10-21,paul harmsworth,,,,
Wigle Wifi Wardriving,Google Play,net.wigle.wigleandroid,bGc6QU9xcFRPR2tQRlk5Y09FNmFPMzdDMHJKY2JqcHJseE54ODNzb2Z4MFFTcXFsUlB0NVJRUEFTdmFld0czcGVDb3lSSG1RTkdoN29MWTU5blY5REFCekgw,English,,5,2015-10-05,A Google User,Awesome,great,,
Wigle Wifi Wardriving,Google Play,net.wigle.wigleandroid,bGc6QU9xcFRPR2tQRlk5Y09FNmFPMzdDMHJKY2JqcHJseE54ODNzb2Z4MFFTcXFsUlB0NVJRUEFTdmFld0czcGVDb3lSSG1RTkdoN29MWTU5blY5REFCekgw,English,,5,2015-10-05,A Google User,Awesome,useful in placing wireless router,,
Wigle Wifi Wardriving,Google Play,net.wigle.wigleandroid,Z3A6QU9xcFRPR3FNZGZTMlFjUVB5NjNIN0dmTFNCajczd0QxckQwR21mcV9EcGs3ME1WWmxGNUc2ZG9BQmR2YW4waklTZnZpQUoyVFNyZ0FoS0JGX2FicmI4,English,,5,2015-09-19,Peter Gamache,Indispensable!,doe what it say on the tin,,
Wigle Wifi Wardriving,Google Play,net.wigle.wigleandroid,Z3A6QU9xcFRPR3FNZGZTMlFjUVB5NjNIN0dmTFNCajczd0QxckQwR21mcV9EcGs3ME1WWmxGNUc2ZG9BQmR2YW4waklTZnZpQUoyVFNyZ0FoS0JGX2FicmI4,English,,5,2015-09-19,Peter Gamache,Indispensable!,love the ability to export local record,,
Wigle Wifi Wardriving,Google Play,net.wigle.wigleandroid,Z3A6QU9xcFRPR3puNWlNeU1hYzBObWtBUEd2bXNLNXZuYmd6cG13Y0h1X3owTDFDZG9BTGhyX053aFlCem5tNWtGME9XQnNHeTlMZjU5VlJOU3Y4am9jRlEw,English,,4,2015-09-03,Jerry Cattell,Aweweee yeah,love this program,,
Wigle Wifi Wardriving,Google Play,net.wigle.wigleandroid,Z3A6QU9xcFRPR3puNWlNeU1hYzBObWtBUEd2bXNLNXZuYmd6cG13Y0h1X3owTDFDZG9BTGhyX053aFlCem5tNWtGME9XQnNHeTlMZjU5VlJOU3Y4am9jRlEw,English,,4,2015-09-03,Jerry Cattell,Aweweee yeah,get it,,
Wigle Wifi Wardriving,Google Play,net.wigle.wigleandroid,Z3A6QU9xcFRPR09DWnhmMGlpMlJZd2Z1dloxNndkb0xEdVI1eVR0bW9BTlZBU1ZsREZ2LVZRMzJDTS1WRTJnbC05dnlyWVlfUWtuQlNnZUdDMVZfd1ByV0pN,English,,3,2015-08-14,Kerry Slone,Good app but with some annoying bugs,i have a problem with the max database marker pin it to a dismally low figure and nothing i do seems to fix it,,
Wigle Wifi Wardriving,Google Play,net.wigle.wigleandroid,Z3A6QU9xcFRPSEF3N0xHNGVsMldGdGtXX3doV1RFQWlqanBVZG5iZzJJdVMtekZZT2ZNdkQ0MHpoODZncU1QMDFZZXFwcjhNZ1BWS0g5ak5Yb1phLUtEcV9r,English,,5,2015-07-01,Roberto Borges,Excellent,should have a version for,,
Wigle Wifi Wardriving,Google Play,net.wigle.wigleandroid,Z3A6QU9xcFRPRnNhTVZ2eGJrRE5DN2JjSGJYX1lQTlVkQjBqOXQwNlVJRDdVb1lmNTRQMnZJUnZWNDV4bGRhYXNqSHk1UHZTT2FuaHdHZjBmVW9vMzlTVENj,English,,3,2015-06-27,mak deni,,,,
Wigle Wifi Wardriving,Google Play,net.wigle.wigleandroid,Z3A6QU9xcFRPSDdHRkU5TDM5djVxb2JudTY3aXBrb244UHNERTQwMWpCOS1rVTZwS0M1VE5JQVU4SjQzUW5xaXZnRDRMaU5iVWFvUG9IRzNWXzdOTktYVHo4,English,,3,2015-06-15,Guy Kramer,,it is a useful and i get what they are trying to do,,
Wigle Wifi Wardriving,Google Play,net.wigle.wigleandroid,Z3A6QU9xcFRPSDdHRkU5TDM5djVxb2JudTY3aXBrb244UHNERTQwMWpCOS1rVTZwS0M1VE5JQVU4SjQzUW5xaXZnRDRMaU5iVWFvUG9IRzNWXzdOTktYVHo4,English,,3,2015-06-15,Guy Kramer,,the two issue i have are follows 1,,
Wigle Wifi Wardriving,Google Play,net.wigle.wigleandroid,Z3A6QU9xcFRPRjVJb3hHc1lucVZFbXZZZHdNbjNBYnd2OHRwZDZmZmJMcFZmWDRSLVE2RjY5eUYxQTZxU091RklTTUs0YUh5Y3IxcG5OTHkwd0xSSldBNEFR,English,,5,2015-06-06,Mohamed Kepey,,later,,
Wigle Wifi Wardriving,Google Play,net.wigle.wigleandroid,Z3A6QU9xcFRPSDdqOEJnZldQWjFMeGJZa3F3cHd1YWxMN0dmSlBaN2hRZE9QU2wtUWtXOXFzVFNqRVlNMnNsRVdFMFp2OHJINWV3YVpkbFRqVmxRUTY4WlNR,English,,5,2015-06-04,Carrie Ann,,can i make call and text without and phone service with this,,
Wigle Wifi Wardriving,Google Play,net.wigle.wigleandroid,Z3A6QU9xcFRPRzNadEZ1ZFFneW4wQnkwOUlPQk9CRGlIS1czSDJydEtPNEszTWZUeExJNW5Gc1NPWHRLcjhUUDR6ZVlkbFdwN2JkUXhqRWFIMDhxcDdfdXNV,English,,5,2015-06-01,Juan Pa M,,great,,
Wigle Wifi Wardriving,Google Play,net.wigle.wigleandroid,Z3A6QU9xcFRPSE5jVmVZM3pMRVFVaDdTYjdKR1I2cXY5Ry1nTmhWXzZTbm1UY3FiYXBHZm92Mk9BZUVwX3lrRkFpRU5LRTZybXNXb3hJaDhEa1ViYVNIOUhj,English,,5,2015-05-31,Alex Patrenko,Great App,work advertised,,
Wigle Wifi Wardriving,Google Play,net.wigle.wigleandroid,Z3A6QU9xcFRPSE5jVmVZM3pMRVFVaDdTYjdKR1I2cXY5Ry1nTmhWXzZTbm1UY3FiYXBHZm92Mk9BZUVwX3lrRkFpRU5LRTZybXNXb3hJaDhEa1ViYVNIOUhj,English,,5,2015-05-31,Alex Patrenko,Great App,great for or just checking whats around you,,
Wigle Wifi Wardriving,Google Play,net.wigle.wigleandroid,Z3A6QU9xcFRPRTlLZTBfQUhfcGtpTzNiZmtMZkhsWXgtUWhJMUNHbF9pallKVVVPZEtyTjZGNnlMMXpuS3lsUXlSODBvaDMtZEFUaDZtRko5UHJwWTRsMU84,English,,5,2015-05-29,ekrem biqkaj,Dardan@home,single,,
Wigle Wifi Wardriving,Google Play,net.wigle.wigleandroid,bGc6QU9xcFRPRkg3Qk9ITzQ1eHVpVFRueDlTVXNUOEY0U2pUMWhPUHNzYUxFNGh1dEJ4QTA4cGRzUXJCajEzQk5pTkVCc0FPdjBIT0wyS05iRkdlQ1E3SmhZ,English,,2,2015-05-13,A Google User,good little app,the latest update caused me to lose my entire database,,
Wigle Wifi Wardriving,Google Play,net.wigle.wigleandroid,bGc6QU9xcFRPRkg3Qk9ITzQ1eHVpVFRueDlTVXNUOEY0U2pUMWhPUHNzYUxFNGh1dEJ4QTA4cGRzUXJCajEzQk5pTkVCc0FPdjBIT0wyS05iRkdlQ1E3SmhZ,English,,2,2015-05-13,A Google User,good little app,thousand of network over several country,,
Wigle Wifi Wardriving,Google Play,net.wigle.wigleandroid,bGc6QU9xcFRPRkg3Qk9ITzQ1eHVpVFRueDlTVXNUOEY0U2pUMWhPUHNzYUxFNGh1dEJ4QTA4cGRzUXJCajEzQk5pTkVCc0FPdjBIT0wyS05iRkdlQ1E3SmhZ,English,,2,2015-05-13,A Google User,good little app,unable to upload from despite seeing all my uploads on the website,,
Wigle Wifi Wardriving,Google Play,net.wigle.wigleandroid,Z3A6QU9xcFRPRlJSVzZ6YndmMlZjalJFR05WQWlZLTRIRXU3QmVSbGg1MW9kNmQ0d1ViQTJhcmM2c1hNV0tUbjZsd0NBVW5YZXhwNFBHdXZhWWhYekpVV0s0,English,,4,2015-05-05,Amr Hesham,How can i use it app...?,please help,,
Wigle Wifi Wardriving,Google Play,net.wigle.wigleandroid,Z3A6QU9xcFRPRWRwd1RodXdBbm9OSThBY0hxdVluUGdBWUh1ZHJxVVczS1V3N3JFVURiclJid19rRE9hMG1rRmduXzdjRmdndjJOOGo4d254QmVlOTN3ZXlF,English,,5,2015-03-19,Richard Hoedebecke,,interesting and entertaining,,
Wigle Wifi Wardriving,Google Play,net.wigle.wigleandroid,Z3A6QU9xcFRPSDFtRU53M21mYm1fcVQwbVRrdkF6VWhiQ0JzN05YMV9DX2o3NjZhMFVCTHpGQ0lMZEhBNGNKelh1Y0RNeWtDUE16enIweU1Jcm96c21rQ2Yw,English,,5,2015-03-18,Joel C,Very good app.. One thing,i love this,,
Wigle Wifi Wardriving,Google Play,net.wigle.wigleandroid,Z3A6QU9xcFRPSDFtRU53M21mYm1fcVQwbVRrdkF6VWhiQ0JzN05YMV9DX2o3NjZhMFVCTHpGQ0lMZEhBNGNKelh1Y0RNeWtDUE16enIweU1Jcm96c21rQ2Yw,English,,5,2015-03-18,Joel C,Very good app.. One thing,very easy to use and a ton of feature,,
Wigle Wifi Wardriving,Google Play,net.wigle.wigleandroid,Z3A6QU9xcFRPSDFtRU53M21mYm1fcVQwbVRrdkF6VWhiQ0JzN05YMV9DX2o3NjZhMFVCTHpGQ0lMZEhBNGNKelh1Y0RNeWtDUE16enIweU1Jcm96c21rQ2Yw,English,,5,2015-03-18,Joel C,Very good app.. One thing,i wish you could organize by network etc,,
