great,o,2014-11-02,Mariusz S,5
what would get it 5 star,o,2014-10-26,Jacques Bensimon,4
a shortcut way of disabling all event notification for a given,b,2014-10-26,Jacques Bensimon,4
still the best 170 you can spend,o,2014-10-26,Jacques Bensimon,4
by limiting background activity on certain application this save my phone a lot of battery life and increase general phone performance,b,2014-10-02,Brent M,5
my phone is rooted say it not still broken update root fixed by back thank you for your hard work,b,2014-09-20,Terry Mickel,5
ha worked but stopped receiver for exchange service on account change because it force closing but it continues to,b,2014-09-07,ajpearce,3
guess it a bug,b,2014-09-07,ajpearce,3
this is a must have for anyone looking to make their phone run smoother and save battery life,b,2014-08-23,A Google User,5
i said save battery life,o,2014-08-23,A Google User,5
it is worth it money and you combine it with a your battery life will skyrocket,o,2014-08-23,A Google User,5
root required,b,2014-08-23,A Google User,5
this is one of the first i install my phone,b,2014-08-20,Elspeth Murday,5
the make it easy to identify which begin running which system trigger,o,2014-08-20,Elspeth Murday,5
i know most people use it to reduce bloat and regain some processing and ram and extend battery and it certainly help with all those thing,o,2014-08-20,Elspeth Murday,5
your phone will be faster and hold charge longer without all of the automated process add up over time,b,2014-08-20,Elspeth Murday,5
it best utility is probably in term of privacy protection,o,2014-08-20,Elspeth Murday,5
you would not believe how many of your start invisible background process to send your data home,b,2014-08-20,Elspeth Murday,5
i made change to service framework and cannot activate them anymore,b,2014-08-06,Luiz Demenicis,1
i did a whole restore and the change could not be reverted,b,2014-08-06,Luiz Demenicis,1
how,o,2014-08-06,Luiz Demenicis,1
there must be a file in the card the change are written,b,2014-08-06,Luiz Demenicis,1
,o,2014-08-06,Luiz Demenicis,1
not no backing up option,f,2014-08-06,Luiz Demenicis,1
is irresponsible,b,2014-08-06,Luiz Demenicis,1
thank you for making this work with new,o,2014-07-24,HECKMO HECKMO,5
work fully for e,b,2014-07-24,HECKMO HECKMO,5
after a long search for the right to turn off the program during the boot process i finally found the right application performs it task a i had envisioned,o,2014-07-06,Josip TheGreen,5
really worth every dollar and i will gladly recommend it to others,o,2014-07-06,Josip TheGreen,5
disabled continue running in the background,b,2014-05-20,Manjukiran S,2
waste of money,o,2014-05-20,Manjukiran S,2
an extensive manual or inbuilt is required for better understanding and usage,f,2014-05-20,Manjukiran S,2
good perfectly on,o,2014-05-15,Tengku Sulaiman,5
excellent control,o,2014-05-13,A Google User,5
need root,b,2014-05-13,A Google User,5
disabling certain from launching at startup help speed up the which is great for from unexpected restarts,o,2014-05-03,Tomo Takebe,5
great,o,2014-04-13,Paul Johnson,5
been using it for year and work every time,b,2014-04-04,James Maxwell,5
really cut down on wasted battery life and potential memory leak,o,2014-04-04,James Maxwell,5
disabling a single from a group from the same it appears to disable them all,f,2014-03-20,Top Cat,4
however upon the one i selected is disabled,b,2014-03-20,Top Cat,4
i disable another one in the it the last one i disabled in the group,f,2014-03-20,Top Cat,4
doe not seem to like c program a well,b,2014-03-20,Top Cat,4
doe what is say,o,2014-03-12,Jason Quire,5
well worth the purchase,b,2014-03-12,Jason Quire,5
a must have for every rooted user,b,2014-03-06,A Google User,5
take control of your phone by disabling continuously start for no reason in the background even if not in use,b,2014-03-06,A Google User,5
save precious ram,o,2014-03-06,A Google User,5
great,o,2014-02-08,Darwin Lau,5
and finally fixed to work on my,o,2014-02-08,Darwin Lau,5
good job and keep up the good work,o,2014-02-08,Darwin Lau,5
support,b,2014-02-08,Darwin Lau,5
this give great control and visibility to all the individual trigger start up in the background,b,2014-01-26,Joe Some-body,5
it may cause certain thing to stop functioning,b,2014-01-26,Joe Some-body,5
great root application and it work wonderfully on the nexus 5,o,2014-01-22,A Google User,5
very impressed with how the show how are triggered by different state,o,2014-01-21,Symmetrical Sounds,5
must have for any power user who like to have ultimate control over their phone,b,2014-01-21,Symmetrical Sounds,5
it must be 5 star,o,2014-01-15,Zhenyu LIU,5
i need it to prevent annoyed startup,b,2014-01-15,Zhenyu LIU,5
just good,o,2013-12-31,Omoikane Omake,4
not working on 412,o,2013-12-27,Reiss Nehme,3
essential tool for rooted device,b,2013-12-23,David Polasek,5
now faster,b,2013-12-23,David Polasek,5
work great on 442 thanks for updating,o,2013-12-18,Michael Zrinyi,5
very useful,o,2013-12-18,Christian Mathisson,5
it doe what it say and work very well,o,2013-12-18,Christian Mathisson,5
need a undo all option for a safety mode you stop something wrong or just want to do a true factory reset,f,2013-12-16,josh Brown,3
and upon it should undo all,o,2013-12-16,josh Brown,3
work well to control,f,2013-12-15,Jeff Bowles,5
the difference in speed make this a joy,b,2013-12-14,Kristopher Baker,5
thank you,o,2013-12-14,Kristopher Baker,5
it is minor thing and deserve 5 star it is,o,2013-12-01,Dim Moskalenko,5
would be easier to see the trigger is used by other,f,2013-12-01,Dim Moskalenko,5
wa now better,o,2013-11-30,שאול גבעולי,5
one more to help control what it going on behind your back,o,2013-11-30,A Google User,5
you have email he is extremely happy to help solve issue with different device,b,2013-11-30,A Google User,5
awesome speed on startup,o,2013-11-30,A Google User,5
thanks,o,2013-11-30,A Google User,5
