Topic,Words
0,0.017*prefer,0.017*journey,0.016*user,0.013*loved,0.011*quick,0.011*like,0.010*it's,0.010*times,0.010*covers,0.010*phone
1,0.018*143568,0.015*example,0.014*lower,0.011*testament,0.011*high,0.010*what,0.010*requiring,0.010*to,0.010*very,0.010*once
2,0.016*compared,0.014*get,0.012*was,0.011*too,0.011*non,0.011*searched,0.011*works,0.011*available,0.010*user,0.010*smallest
3,0.014*elements,0.012*clue,0.011*it's,0.011*hate,0.010*long,0.010*isn't,0.009*swiping,0.009*journey,0.009*trying,0.009*swipes
4,0.015*addicted,0.012*5,0.011*however,0.011*smallest,0.010*access,0.010*special,0.010*wonderful,0.010*my,0.010*delay,0.009*it
5,0.017*several,0.015*genius,0.014*this,0.013*tries,0.011*good,0.011*cannot,0.011*waster,0.011*number,0.011*falling,0.010*your
6,0.015*every,0.014*moves,0.013*thank,0.012*spare,0.011*users,0.011*few,0.010*unresponsive,0.009*works,0.009*interesting,0.009*snappy
7,0.012*since,0.011*too,0.011*local,0.011*extra,0.011*thank,0.010*before,0.010*sized,0.010*us,0.009*compact,0.009*it's
8,0.015*be,0.013*most,0.012*nexus,0.012*read,0.012*lags,0.011*is,0.011*swiping,0.010*this,0.010*fun,0.009*slow
9,0.019*source,0.018*fast,0.012*developer,0.012*single,0.011*and,0.010*fill,0.010*area,0.010*for,0.009*2,0.009*frustrated
10,0.012*awesome,0.012*sensitivity,0.012*it's,0.011*twice,0.011*seems,0.011*back,0.011*too,0.011*learn,0.011*downloads,0.010*favorite
11,0.015*addictive,0.013*practically,0.012*developer,0.012*in,0.012*games,0.010*there,0.010*excellent,0.010*no,0.010*fix,0.010*covers
12,0.013*downward,0.012*move,0.012*lags,0.011*see,0.011*version,0.010*tiles,0.010*plain,0.010*falling,0.010*to,0.010*device
13,0.012*tried,0.011*fast,0.011*testament,0.010*clean,0.010*down,0.010*you're,0.009*cannot,0.009*its,0.009*feel,0.009*take
14,0.014*refreshing,0.013*touch,0.013*lag,0.011*puzzle,0.010*something,0.010*dislikes,0.010*loving,0.010*fantastic,0.009*k,0.009*example
15,0.016*addictive,0.015*lags,0.012*once,0.012*identical,0.012*in,0.012*me,0.012*ram,0.011*probably,0.011*thrill,0.010*2
16,0.015*ask,0.015*minute,0.013*happened,0.013*particular,0.011*isn't,0.011*state,0.011*responsive,0.010*5,0.010*port,0.010*hate
17,0.015*store,0.015*effect,0.015*back,0.014*alternatives,0.013*nice,0.013*previous,0.010*deeply,0.009*4096,0.009*waster,0.009*several
18,0.017*think,0.016*simple,0.011*since,0.010*4096,0.010*cannot,0.010*us,0.009*freaked,0.009*much,0.009*identical,0.009*34
19,0.020*pass,0.015*once,0.013*great,0.012*hours,0.011*but,0.011*us,0.010*the,0.009*work,0.009*fantastic,0.009*because
