# deletions,date,commit message
2,2016/3/20,Updated version number
47,2016/3/20,Fixed issues with "limit post count" feature
1,2016/3/20,Fix notification icon on Android Lollipop+
2,2016/3/20,Fixed issue where subreddit sidebar was inaccessible for logged out users
1,2016/3/20,Preemptive NPE fix (just in case!)
4,2016/3/20,Updated changelog + min score fixes
