App,Store,App ID,Review ID,Country,Version,Rating,Date,Author,Subject,Body,Translated Subject,Translated Body
RedReader,Google Play,org.quantumbadger.redreader,Z3A6QU9xcFRPR19JYzN0dnVfc2k3VXlHZHozaGE3MGVYZDJxUkloOGp1U2R4ZUF5LURVOUhOSG42aFpTQVRaa1dGT3hLQmVfT0dzR2p3a01sckZGZU1UVHc,English,,5,2013-06-27,David batic,Pure awesome!,"I love this app. It is light weight and looks great. There are a few bugs, but they get fixed quickly. Keep up the good work.",,
RedReader,Google Play,org.quantumbadger.redreader,Z3A6QU9xcFRPR0VFcGFzZHJLNndDNGVsQnk5bjFneDB2QnVHVTdoZFRzaFNsNWxsOEFHZkVJN19VWkJYSGRVWFhWX19ERzhkTGhEQXJZVnBHTW5XM09FZVE,English,,5,2013-06-27,C. Barrow,Love it,"Functional and pretty, I cannot use app that isn't :) Looking forward to being able to subscribe to subreddits. But I'm wondering why the ones I have aren't showing up? **Edit: now working logged in and out**",,
RedReader,Google Play,org.quantumbadger.redreader,Z3A6QU9xcFRPRkZTZkNTZ25VbnJyTFY5TldyeU1CaDhNYnpRZTBIYWFqQkV2TS1ENWRMMmlYSlpTOFNiMlRwVHZFeDR6aUZGM1BLLWVzX2JoeWpQSHNidlE,English,,5,2013-06-25,Francisco Compean,Great,I love the UI and really fluid.,,
RedReader,Google Play,org.quantumbadger.redreader,Z3A6QU9xcFRPSFoxNWh1NWpnLTdfem1kSjVpQ2NJUlFsRm1yTWVlOHUzOGkyR1JqUWpHR3kwVUZ0cEo5NGtFODBSSnJ2bjF5bHJodFhVWmM0c2hXaTZTb0E,English,,4,2013-06-24,Saki A,How do I..,"Subscribe to reddits in the app? Or is it a missing feature? Also, I wish I could swipe left/right on comments to upvote/downvote.  Great app :)",,
RedReader,Google Play,org.quantumbadger.redreader,Z3A6QU9xcFRPRjJHWTZnWGNMOEtLdWhrUnNSbW5VRkVWVlRNLXhqX29XRkkxMUJXMkFCUmQ0NUJ2QXZvM090M2ZUM2l4cVhYR09KSmhhTXFxOW1PTDdLZFE,English,,5,2013-06-22,Eduardo Bahena,Love it,"Could use an in-app YouTube player, but great overall. Can't wait to see the app come out of beta",,
RedReader,Google Play,org.quantumbadger.redreader,Z3A6QU9xcFRPRldjN1Q0SUVtUXZHcVVtdzFfVDRVZWVKQWt3ODRWN0phX0NEZHRWSy1lR2t0Ri1CT2NjTUNyV2RPQjZ3SnJBYXNXaElxdGp6SDlEZ0N4VGc,English,,3,2013-06-22,Adam D,Hopeful,"It's a well done app.  My complaint is that I'm on a galaxy S4, one of the fastest handsets available,  and it scrolls very choppy and lags quite a lot on the subreddit pages. Menus work fine.  I'm looking forward to trying the 2.0 version. It'll be a great app if the interface lag gets cleared up.",,
RedReader,Google Play,org.quantumbadger.redreader,Z3A6QU9xcFRPSGJSSWVIMHJ1dTlKNVk3bW1oR1ltMXdwUk5MOTVUUWVvX2FnSndVTHFKNzlQM2VhbEJYaXMxbXdXOGNDVzJ5dWdxMTBicGN6TUh5c2doYlE,English,,4,2013-06-21,Andrew Pennebaker,"Decent app, needs a few tweaks",Could benefit from an option to open links directly in the browser.,,
RedReader,Google Play,org.quantumbadger.redreader,Z3A6QU9xcFRPSHlMSFh2UW8zYjNxbVpBUGRCVmJiZ19TTzl0R1dHTXJJejhfTVpTTlY5WjR4Q0hCRjd2cWJFcEhWdlJrSk5ySW1WSExad0NlWWQxUjI4OVE,English,,5,2013-06-21,Ethan McCandless,Thank you so much!,"I love this app and use it every day, and it keeps getting better! Is there anywhere that I can donate to you?",,
RedReader,Google Play,org.quantumbadger.redreader,Z3A6QU9xcFRPRlc4alJxVWRYSDg4eGx2UWJtUTZlZWhaaDhwT3U3aGpSZ0JkdDh6ZkZQTy1zV3IxRDZlblhFWHpSdzlsa0dxZlREVk5IRE9SYXl4YUJCZXc,English,,5,2013-06-20,Efren Urena,Beautiful,"perfect, but I have problem.  I want to be able to open links in comments in external browser. :)",,
RedReader,Google Play,org.quantumbadger.redreader,Z3A6QU9xcFRPRVF5RGZXNWNxRGp4TmtjS1FTMUVENDg2Q0lRQkNWMjlSaFF6Vm5PdlJ1amlvZTc3UmhBZnBKUTg0RHhnNDhzeEx5WGpzRkRBNjVJVkdEbFE,English,,5,2013-06-20,Levi Nelson,Very good but not perfect,Gifs don't always load right and links to specific comments don't work. Also I can't find anyway to see my comments I've made. And no notifications! But it is the fastest by far. Great job,,
