good but can you possible add a keyboard function in there,f,2015-07-29,J Elliot Grant,5
it work,o,2015-07-28,Horia Matei,4
need option to toggle keyboard,f,2015-07-27,Rage delacruiz,4
spectacular,o,2015-07-26,Adam Anderson,5
this is a great specially you use on your laptop and connect it to your,b,2015-07-25,Carlos Lopez,5
work great,o,2015-07-25,Carlos Lopez,5
make easier to navigate and control,f,2015-07-23,Robert Zorzi,4
missing remote functionality,b,2015-07-22,Klynes House,3
failing change port to 9090 in setting,b,2015-07-22,Christopher Cordiner,5
work but the lack of skip forward backward keep this from being my daily driver,f,2015-07-22,Josh Downing,3
connected on and work great,b,2015-07-22,Maros Blacklisted,5
it would be nice to see a feature to switch between device or network setting for i have the device on a friend network,b,2015-07-22,Maros Blacklisted,5
other that it work awesome,o,2015-07-22,Maros Blacklisted,5
i tap the headphone i get a screen with only the two door to go up one level,f,2015-07-22,,3
work and more,o,2015-07-22,Gentleman Adventurer,5
it also give quick access to,o,2015-07-21,Erica,5
remote work great far,o,2015-07-21,Antonio Martinez,4
far so good,o,2015-07-21,chris r,4
but,o,2015-07-21,chris r,4
is there a keyboard to search,b,2015-07-21,chris r,4
this is just amazing,o,2015-07-20,Samuel Roldan,5
the previous official wa extremely buggy and hard to use,b,2015-07-20,Samuel Roldan,5
you have this is a must,o,2015-07-20,Samuel Roldan,5
it is amazing,o,2015-07-20,Landon Greer,5
i love this,o,2015-07-20,Landon Greer,5
i would like to see support for subtitle,b,2015-07-20,Meir Edrey,4
such an amazing,o,2015-07-20,Saif Jamil,5
finally a remote to go with,o,2015-07-19,Tabrays Nawab,5
the filename is truncated no matter the screen even on a browsing file,b,2015-07-19,Timothy Geitner,1
we should be able to use the phone keypad to search name etc,b,2015-07-18,aaron wilson,3
last time i used the official remote it wa very basic and ugly,b,2015-07-18,Simon Matthews,5
this is incredible,o,2015-07-18,Simon Matthews,5
loving it,o,2015-07-18,Simon Matthews,5
typing with my phone would be a lot easier navigating the letter on the screen with arrow,b,2015-07-17,Josh Morris,3
this one much better,o,2015-07-17,Gordon Hodson,4
working great,o,2015-07-16,Anthony Lockett,5
worked right away,o,2015-07-15,P Greck,5
best,o,2015-07-15,P Greck,5
awesome,o,2015-07-15,Dharni Raj,5
congratulation for another great i swear by it the medium player i use and i have it on 8 device,b,2015-07-15,michael fowler,5
love it,o,2015-07-14,vkmankotia,5
please add favorite button and 5 star,f,2015-07-13,Reyo 2K,3
to support the cause,b,2015-07-12,Darius Turner,5
donate you can,o,2015-07-12,Darius Turner,5
definitely worth a download and by far my favorite,b,2015-07-11,Jonathan Berry,4
i think we should,o,2015-07-11,Slayer herbdout,4
there is no delay,b,2015-07-11,Sohail Ahmed,5
loved it,o,2015-07-11,Sohail Ahmed,5
the design is intuitive everything work smoothly,o,2015-07-11,Atul Vinayak,5
of the had lock screen access the would be even better,b,2015-07-10,Cameron Walcott,5
the way i have found to bypass this issue is to and then reinstall the every time,b,2015-07-08,kmbomber,3
very annoying,b,2015-07-08,kmbomber,3
but not enough to make me switch yet,b,2015-07-08,Droider Dude,4
is still 1,o,2015-07-08,Droider Dude,4
,o,2015-07-07,Iván Sánchez Vallejo,5
great and remote for,o,2015-07-07,Joshua Huizinga,4
i found this an excellent to use for the past few month,o,2015-07-07,tissue misuse,5
one user mentioned the keyboard failed to show about a week ago but i deleted the and forced close and no issue since,b,2015-07-07,tissue misuse,5
brilliant,o,2015-07-07,tissue misuse,5
had issue with port 80 but soon a i went above port 20000 which are rarely used by other program i had no issue,b,2015-07-06,Kevin Scheller,5
great,o,2015-07-06,Kevin Scheller,5
originally i downloaded this it worked but for the last few week it ha been very inconsistent with connecting to,b,2015-07-05,Josh Froese,3
still work every time but i do like the of hopefully it will be fixed soon,b,2015-07-05,Josh Froese,3
brilliant,o,2015-07-04,Darren Walker,5
is the best medium program on the market and it free,o,2015-07-03,wes hiebert,4
yes the best the best price,b,2015-07-03,wes hiebert,4
this is how all software should be made,o,2015-07-03,wes hiebert,4
the example we all should follow and appreciate,b,2015-07-03,wes hiebert,4
no,o,2015-07-03,Kevin Tremblay,5
is it and sufficient for daily use,o,2015-07-03,Kevin Tremblay,5
yes,o,2015-07-03,Kevin Tremblay,5
well looking forward to what you roll in next,o,2015-07-03,Kevin Tremblay,5
love it,o,2015-07-03,Berj Yacoubian,5
typing on a screen can be tedious sometimes,b,2015-07-02,Javad Ayaz,4
keep up the good work,o,2015-07-02,Javad Ayaz,4
it wa great even now this is awesome,o,2015-07-02,Daniel Upshaw,5
the one thing the old had wa a large remote widget,b,2015-07-02,Neil Goward,4
it is very disappointing that this is the official of is way more user friendly and easier on the eye,b,2015-07-01,Jeff F,2
is only useful for the arrow key it come to,o,2015-07-01,Jeff F,2
do yourself a favor and use and not this,o,2015-07-01,Jeff F,2
step your game up,o,2015-07-01,Jeff F,2
just great now i can manage my 3 raspberry pi with without any additional remote,b,2015-07-01,stefano righi,5
just with the mobile,b,2015-07-01,stefano righi,5
great,o,2015-07-01,stefano righi,5
very nice,o,2015-06-30,jorge medina,4
just love it,o,2015-06-29,James Ringhof,5
working great,o,2015-06-28,kato7 youknow,5
almost good a,o,2015-06-28,Saarth Jauhari,4
the remote on this is better though,o,2015-06-28,Saarth Jauhari,4
i would really appreciate some help with this issue,b,2015-06-28,Patrick Johnson,3
very easy and user friendly,o,2015-06-27,Buu Nguyen,5
you can enter text using the phone keyboard and control volume with the phone volume button,b,2015-06-27,Felix Watts,5
brilliant,o,2015-06-27,Felix Watts,5
it really work,o,2015-06-26,Lucas Farias,5
add a keyboard rather the send and add mouse feature,f,2015-06-25,Del Harris,4
loving the,o,2015-06-24,Andre Arsenault,4
finally made it to mainstream long live,o,2015-06-24,tito cardona,5
lack important feature like proper control support,f,2015-06-23,Gergo Lippai,3
this combined with on is the greatest multimedia experience i have ever had,b,2015-06-23,Sander Skjegstad,5
even above on my workstation,o,2015-06-23,Sander Skjegstad,5
easy setup and use,o,2015-06-23,Sander Skjegstad,5
all around a fantastic experience,o,2015-06-23,Sander Skjegstad,5
work well for my usage,b,2015-06-23,Tha Monk,5
a welcome complement to my,b,2015-06-23,Tha Monk,5
thank you for the,o,2015-06-23,Tha Monk,5
i have to go to my to stop the video and then restart remote to get back the navigation button,b,2015-06-22,Nishant Kumar,2
i installed and it ha been great far,b,2015-06-22,Nishant Kumar,2
it amazing but it ha some flaw,o,2015-06-21,Dhawal Doshi,4
biggest problem i have it doe not connect to sometimes,b,2015-06-21,Dhawal Doshi,4
fantastic,o,2015-06-21,David L.,5
great way to use,o,2015-06-20,Iwan Winoto,4
at the i need to turn on the just to listen to music,o,2015-06-20,Iwan Winoto,4
one of not the best remote,o,2015-06-20,Tim Massing,5
i will change it to 5 start they add the widget back,b,2015-06-20,Javier Arellano,4
work perfect on running,o,2015-06-18,Joshua Grafton,5
thank you,o,2015-06-18,Joshua Grafton,5
slow reaction from arrow,b,2015-06-18,Jorge Marti,2
chapter selection in show not too many click to arrive to desired chapter,b,2015-06-18,Jorge Marti,2
still to be improved,b,2015-06-18,Jorge Marti,2
it take the official team to build the best remote,f,2015-06-18,Sham Sreedharan,5
this remote is easy to use and work well,o,2015-06-17,Taggert Smithson,5
a good looking but still not quite there yet,o,2015-06-16,Lee Hughes,4
a good start though,b,2015-06-16,Lee Hughes,4
no stop button,b,2015-06-14,Pierre Lizotte,3
i have to fast forward to the end,b,2015-06-14,Pierre Lizotte,3
and no widget either,b,2015-06-14,Pierre Lizotte,3
this is great,o,2015-06-13,Ron Franklin Jr.,5
100 it work at 100,o,2015-06-13,White Door Studios,5
i cannot really find much i need more,o,2015-06-13,Jarl Gjessing,3
so there is a lot of medium i cannot access via the remote using the,o,2015-06-13,Jarl Gjessing,3
2 thumb up,o,2015-06-13,Jasper Galang,5
must have,o,2015-06-13,JAMES FISHER,5
i like it,o,2015-06-12,Hector Rivera,4
love it,o,2015-06-12,Chris Sutherland,5
nice fresh and clean interface and two small issue i have experienced,o,2015-06-11,Richie Unstead,4
i have two profile but cannot login on restart of the doe not connect,b,2015-06-11,Richie Unstead,4
old remote threw an error but still allowed me access to the remote to select a profile and login,b,2015-06-11,Richie Unstead,4
please add a keyboard,f,2015-06-11,Shawn Dittrich,4
using the arrow on a virtual keyboard on the screen of my is the complaint one can really make about this,b,2015-06-11,Shawn Dittrich,4
other then this is thank you,o,2015-06-11,Shawn Dittrich,4
joined together with is pure perfectness,f,2015-06-09,Tero Kirjavainen,5
some extra feature like one key access to guide would be nice,o,2015-06-09,Philip Widdas,5
button reordered from previous layout for no apparent screwing with muscle memory,b,2015-06-09,Márton Braun,2
is so good i need to,o,2015-06-09,Tom Hughes,5
the issue i have with it is the speed of going next on a list it seems to have a cap is to low,b,2015-06-08,Colin Wood,4
other that it is a great remote,o,2015-06-08,Colin Wood,4
the interface is cleaner and a bit more intuitive,o,2015-06-08,JACKS inCalgary,3
a critical function the arrow control work part time,b,2015-06-08,JACKS inCalgary,3
it seems you can navigate the on screen but soon a you have a show running the arrow stop working for the purpose of navigating the show,b,2015-06-08,JACKS inCalgary,3
best thing ever,o,2015-06-08,Vladimir Jean,5
great,o,2015-06-08,angel cortes,5
i would like the interface to be prettier i know this may be a matter of taste,o,2015-06-08,Tim van Royen,4
,o,2015-06-07,Ademola Adeyokun,5
work great on my phone,b,2015-06-06,Mark Shepherdson,5
keep up the good work,o,2015-06-06,Hans-Henrik S. Hansen,5
great,o,2015-06-06,JayDz,4
the of the is great,o,2015-06-05,Dedi Basel,4
nice start,o,2015-06-05,jeff hafer,4
it need option like playing locally on my from server like competing,f,2015-06-05,jeff hafer,4
volume control with the phone button should work from anywhere in the,b,2015-06-05,Ash H,3
looking good but please make the arrow key skip portion of the content,f,2015-06-05,Rui Sardinha,4
just fast forward is not,b,2015-06-05,Rui Sardinha,4
miss one essential function,b,2015-06-04,Guillaume Leroux,4
great work fine i love it,o,2015-06-04,sylvia marcola,5
no support for music,o,2015-06-04,Mike Wilson,2
try it,b,2015-06-04,Abdulrahman Al Hammadi,4
i grabbed my popped this sucker open like nobody business and lowered the volume from the comfort of my own bed,b,2015-06-04,Andrew Flores,5
,o,2015-06-04,Andrew Flores,5
tried and reinstalling but still crashing,b,2015-06-03,Deepak George,4
work great look nice,o,2015-06-02,Logan Johnson,5
the arrow key do not skip and do nothing instead,f,2015-06-01,Jared Taylor,2
i have always had trouble getting remote to work with my but worked soon a i had changed the default port away from 80,b,2015-06-01,Scott Heckle,4
the only thing i can fault it on is it take me into and music but i would like to be able to those option for my system,f,2015-06-01,Scott Heckle,4
need better support for long file name,b,2015-06-01,Lyndon Sheppard,3
no info of port on the server side,b,2015-06-01,Özer Erke,1
watching a movie or series swipe from left to right to see a synopsis of what your watching and also greater control of pausing the movie,b,2015-06-01,Teufel Hund,5
the main screen with the arrow only doe much,b,2015-06-01,Teufel Hund,5
this doe it all flawlessly,b,2015-06-01,Teufel Hund,5
can we please get a cast feature,f,2015-05-31,Andrew,3
i love this remote,o,2015-05-30,Eric Townsend,5
get it,o,2015-05-30,Eric Townsend,5
the big one keeping me from switching from is not being able to start movie i left off,b,2015-05-30,Joshua Henderson,3
doe it better,o,2015-05-30,Acum Amcum,2
flawless movie and wonderful music among other stuff,o,2015-05-30,Germaine Brown,4
wow clean and well organized,o,2015-05-30,Jhon T,5
kudos for,o,2015-05-30,Jhon T,5
and no stop button on main remote,b,2015-05-30,Toep Aankope,3
same fully detailed,f,2015-05-29,Noah Palm,5
work no need to use you remote control,f,2015-05-29,Johyppo L,5
cool,o,2015-05-29,Johyppo L,5
i love it much,o,2015-05-29,faizah hamdan,5
great and save having another remote,o,2015-05-28,Mark Bennison,4
would like to see widget,b,2015-05-28,Mark Bennison,4
desperately need control,f,2015-05-27,Ben Renninson,4
way easier hacking together an sensor on the pi,f,2015-05-26,Michael Rainey,4
ha a few bug issue,b,2015-05-26,Dave Hobbs,4
the is pretty beautiful fresh and easy to use and connect,o,2015-05-26,Miloš Mirković,4
this is why would anyone use this you have good job it wa which is still too much,o,2015-05-26,James Versey,1
i like the fact you seem to have fix the two big issue i had with the rotate viewing file and the remote getting stuck,b,2015-05-22,don locke,2
but the file browser need to show more of the file name and the rotate should show 1 i rotate my phone to see more info,b,2015-05-22,don locke,2
fix these issue and i will gladdy give it another try,b,2015-05-22,don locke,2
,o,2015-05-22,don locke,2
toggle full screen is not working the update,b,2015-05-22,Ali Almoullim,4
other that this is awesome,o,2015-05-22,Ali Almoullim,4
used to interface with an work like a charm,o,2015-05-22,Meat Boy,5
good job guy,o,2015-05-22,Meat Boy,5
not good a,o,2015-05-21,Kurtis Garbutt,3
the is nice to look but the old worked better,o,2015-05-20,Mitja Mihelič,2
this with on the pi 2 and you have the perfect medium,o,2015-05-20,,5
5 star easy,o,2015-05-20,,5
the developer should look at the remote for a few idea to make this better,b,2015-05-20,Michael Ganong,3
in usual scenario connecting with computer,b,2015-05-19,Rishabh Jain,3
this is important will change every time with restart and there is no other option then to clear data,b,2015-05-19,Rishabh Jain,3
include this on context menu a well,b,2015-05-19,Rishabh Jain,3
it very well it hard to figure out how to did it manually,b,2015-05-18,ekj m,4
,o,2015-05-17,mohamed shaiye,5
love the design and the fact we can see the show and thumbnail,o,2015-05-16,V BM,4
i miss the genre filter available on the old it is very useful with large library,f,2015-05-16,V BM,4
the work like a charm on my running the way i can get it to work on my nexus 5 running lollipop is to manually it off,b,2015-05-16,V BM,4
great compare to previous remote,b,2015-05-16,Toshal Dudhwala,2
the missing part is an android widget,b,2015-05-16,Toshal Dudhwala,2
it wa handy,o,2015-05-16,Toshal Dudhwala,2
switching back to old remote have widget support in this one,b,2015-05-16,Toshal Dudhwala,2
amazing,o,2015-05-14,Planet Music,4
awesome,o,2015-05-14,Rod F,5
please add this,f,2015-05-14,Glenn Chon,4
library listing show up much faster,b,2015-05-13,Kienan Vella,4
remote is but i feel there is probably room on the main remote page for a seek bar,o,2015-05-13,Kienan Vella,4
it work great,o,2015-05-13,BioPilgrim,5
worked first couple hour downloading,o,2015-05-12,Cheeta Sayed,2
it a nice however the user interface need more work,o,2015-05-12,Daniel L,4
brilliant,o,2015-05-11,Mihir Pande,5
it work expected,b,2015-05-10,Kamlendra Chauhan,4
actually better that,o,2015-05-10,Kamlendra Chauhan,4
but sometime just stop responding,b,2015-05-10,Kamlendra Chauhan,4
even killing the will not work,o,2015-05-10,Kamlendra Chauhan,4
wow work thanks a million,o,2015-05-10,Marius Eysele,5
i like it,o,2015-05-10,David Okwii,4
easy to navigate,o,2015-05-10,David Okwii,4
need a widget,b,2015-05-10,,4
,o,2015-05-10,Marko Vinu,5
better the old more modern and visually appealing,f,2015-05-10,Igor Jerosimić,5
now playing toggle button like shuffle and etc also lag or get stuck,b,2015-05-09,Dan Morgan,3
must have for any user,b,2015-05-09,Olivier Meric,5
would love android wear support,o,2015-05-09,Alexis Gonzalez,4
instead of the button on the,f,2015-05-09,Mo Hamdi,5
also it work really well,o,2015-05-09,Jason Folding,5
doe everything i need it to do,o,2015-05-08,Greg Doucette,4
an improvement would be having a keyboard instead of navigating the keyboard on the,f,2015-05-08,Greg Doucette,4
rock,o,2015-05-08,Marcus Blakeney,5
need to stop the video manually and start a new one,b,2015-05-08,Omi Azad,2
is the best,o,2015-05-08,Omi Azad,2
awesome it ha le feature but it ha just what i need,o,2015-05-07,Charles Bonneau-Parquer,5
great job,o,2015-05-07,Charles Bonneau-Parquer,5
it would be great to be able to change the sort order for the listing,b,2015-05-07,Michael Pemberton,4
,o,2015-05-07,Michael Pemberton,4
sort album by year or recently added,b,2015-05-07,Michael Pemberton,4
there need to be a way to scrub video and change audio subtitle from the,b,2015-05-06,Anthony Beckford,4
it can be done in,o,2015-05-06,Anthony Beckford,4
clear and work well,o,2015-05-06,Alex Brownjohn,5
it work,o,2015-05-05,,5
no mucking around and no weird setup required,b,2015-05-05,,5
well polished for,o,2015-05-05,Brian Thomas,5
you have give it the remove a shot,b,2015-05-05,Brian Thomas,5
a very nice,o,2015-05-04,Ben Floro,3
nice and easy to use,o,2015-05-04,Colin Rudden,5
clean useful information displayed on every medium displayed,o,2015-05-04,Carlex Crespo,5
awesome,o,2015-05-03,Keith Maxwell,5
it took a for me to find an that worked and wa easy to setup,o,2015-05-03,Keith Maxwell,5
found it,b,2015-05-03,Keith Maxwell,5
we need the key pad number and option like,f,2015-05-03,mescal v,4
thank you,o,2015-05-03,mescal v,4
it cant find my and even i enter it manually it still cant find it,b,2015-05-03,mario olivarez,2
i loved this new work great on lollipop,o,2015-05-03,Paulo Paim,5
one minor thing is also in order to update a configuration change for a it need to be responding,b,2015-05-03,Pär Berge,5
thanks,o,2015-05-03,Erfan Patel,5
very good but last update broke the notification control for me,b,2015-05-03,Neacsu Mihai Adrian,3
i tried reinstalling but still not working,b,2015-05-03,Neacsu Mihai Adrian,3
please fix,b,2015-05-03,Neacsu Mihai Adrian,3
very easy to set it up,o,2015-05-03,Nefeli Κονταρακης,5
love it,o,2015-05-03,Nefeli Κονταρακης,5
not bad but is still a bit better,o,2015-05-03,Zdeněk Šmejkal,2
tick all the box,f,2015-05-03,,5
sleek and minimal but elegant design in parallel with unbelievably fast,b,2015-05-03,,5
love it,o,2015-05-03,,5
the more i use it the more i am loving this remote,o,2015-05-03,Jeremy Swaidner,5
neat and quick,o,2015-05-03,Alan Jeeves,5
work well,o,2015-05-02,David Robinson,3
look like ha some real competition now,o,2015-05-02,,5
well done,o,2015-05-02,Ed Wilcox,5
this work perfectly with for the raspberry pi b,b,2015-05-01,Anthony Aldridge,5
using this make thing even easier,f,2015-04-30,Christian Murphy,5
work great and look amazing,o,2015-04-29,Patrick Thompson,5
hopefully they will update it eventually,b,2015-04-29,Patrick Thompson,5
cant really fault ha every feature i can think of and work even on a bad connection,b,2015-04-29,Guy Mawson,5
a fantastically well written is fully look and handle any error that might pop up pretty gracefully,b,2015-04-29,Craig Lotter,5
beautiful design and extremely easy to set up,o,2015-04-28,Emilio Suárez,5
great,o,2015-04-28,nunya biznis,5
i love the sharing feature,o,2015-04-28,Alex Zelenko,5
this is the best looking remote on the play store,o,2015-04-28,Stephen Harris,5
i just wish it had streaming support for local play and etc,f,2015-04-28,Stephen Harris,5
became the second favorite,o,2015-04-28,Omer Haim,5
please add keyboard and it perfect,f,2015-04-27,Andre Limjap,5
very good,o,2015-04-27,Mohammed Arif,5
having some issue with i decided to give another go,b,2015-04-27,Paul James Muldoon,4
much better it used to be,o,2015-04-27,Paul James Muldoon,4
much better the previous official one,b,2015-04-27,Adrian Berriel,5
thank you,o,2015-04-27,Adrian Berriel,5
beautiful material design and super smooth to use,o,2015-04-27,Spencer French,5
design is really easy to and layout is very intuitive,o,2015-04-26,Aaron Morgan,5
thanks,o,2015-04-26,Vaughan Lee,5
it fine it work,o,2015-04-26,Alex M,2
it is slim and much more responsive the old official one,b,2015-04-25,James Osborn,3
it a good start,b,2015-04-25,James Osborn,3
easy setup work like a charm,o,2015-04-25,Jim Swan,5
pretty good,o,2015-04-25,Andre Green,5
highly recommended,o,2015-04-25,Shawn Fennell,5
the loss of feedback is a big miss,b,2015-04-25,Leigh Bennett,3
all in i used it for a but went back to the old,o,2015-04-25,Leigh Bennett,3
i give up,o,2015-04-25,Frank Rizo,1
i even installed the file which supposedly configures automatically,b,2015-04-25,Frank Rizo,1
really,o,2015-04-25,Frank Rizo,1
,o,2015-04-25,Frank Rizo,1
it wa,o,2015-04-25,Frank Rizo,1
is much better,o,2015-04-25,Callum Griffin,2
one thing i would change,b,2015-04-24,Ben Townsend,4
