fix not ignoring touch,b,2015/4/22,,
replace usage with,b,2015/4/22,,
add an ability to not ignore touch,f,2015/4/22,,
use my everywhere in layout,o,2015/4/22,,
update the code to fit new android support lib,b,2015/4/22,,
remove unused import,o,2015/4/22,,
update code cleanup,b,2015/4/22,,
remove dashed background,b,2015/4/21,,
fix the padding of,b,2015/4/21,,
update string,b,2015/4/20,,
leave small bottom padding,b,2015/4/20,,
code cleanup and fix freeze,b,2015/4/20,,
reuse existent,b,2015/4/20,,
add configuration,f,2015/4/20,,
add the configure action to picker activity,f,2015/4/19,,
remove the default preference value from,b,2015/4/19,,
initial custom widget implementation,b,2015/4/19,,
remove the unused generating,o,2015/4/18,,
use the official port,o,2015/4/18,,
increase version to,b,2015/4/17,,
use test medium controller,o,2015/4/17,,
load initial state in separate thread,b,2015/4/17,,
notify the correct object,o,2015/4/17,,
use the,o,2015/4/17,,
make protected,o,2015/4/17,,
,o,2015/4/17,,
fix,b,2015/4/17,,
increase version to,b,2015/4/17,,
translation,o,2015/4/17,,
override two more method,o,2015/4/17,,
