more amazing,o,2015-04-09,Shashank Setty,5
very buggy on the,b,2015-04-09,Antonio Figueroa,2
long delay opening notification,b,2015-04-09,Antonio Figueroa,2
please fix,b,2015-04-09,Dave Scupham,4
i use this along with another called gravity screen to make my similar to a with active notification,b,2015-04-09,Daniel Bressan,5
work great,o,2015-04-09,Daniel Bressan,5
the new it crashing fix this and also add a music widget for android 422 and a custom switch and also a different background for the lock,b,2015-04-09,Mayank Bhardwaj,4
outstanding,o,2015-04-09,Mayank Bhardwaj,4
in general i am really enjoying,o,2015-04-09,Shane O'Neill,4
it is attractively designed and work well for the most part,b,2015-04-09,Shane O'Neill,4
my biggest complaint thus far is how it function using normally navigation is allowed to be displayed without going to the but now with is displayed when i wake up my phone rather than the current this is a big issue when i need to be able to get right back to the direction without dealing with the lock screen,b,2015-04-09,Shane O'Neill,4
my last complaint is i often get the tutorial telling me about exiting full not a big deal but it doe get annoying,b,2015-04-09,Shane O'Neill,4
overall great work and great i see some or all of these complaint addressed i will definitely be donating,b,2015-04-09,Shane O'Neill,4
thanks for solving the problem related to autostart up 1 star for feature,o,2015-04-09,Aditya Bhandari,5
this will not let you put it on your phone do not put it on your phone,b,2015-04-09,Terry Leask,1
ram killer,o,2015-04-09,Ferid Elizade,3
i really like this but please add security feature like pin or pattern,f,2015-04-08,Kevin Culver,4
also please add the ability to see an alarm on the lock screen one is set,f,2015-04-08,Kevin Culver,4
thanks,o,2015-04-08,Kevin Culver,4
it a great,o,2015-04-08,alaparthi pavan,2
i love it,o,2015-04-08,alaparthi pavan,2
please fix active notification,b,2015-04-08,alaparthi pavan,2
yes i take it out of my pocket it work 7 of 10 time,o,2015-04-08,alaparthi pavan,2
it would only be useful i pick it up from the table to check for any notification or time,o,2015-04-08,alaparthi pavan,2
or i am in a meeting and with a minimal movement i want to check what is going on,b,2015-04-08,alaparthi pavan,2
i wa a x user and i loved it on the it needed no effort to use active notification,b,2015-04-08,alaparthi pavan,2
i am not able to use this effortlessly,f,2015-04-08,alaparthi pavan,2
please fix active notification,b,2015-04-08,alaparthi pavan,2
but please integrate security in the near future,f,2015-04-08,Rebecca Petsch,5
then it would be the lock screen to rule all lock screen,b,2015-04-08,Rebecca Petsch,5
i swipe to delete email from the lock screen it reappears,b,2015-04-08,Matthew Petrucci,4
great but stopped working for me updating to lollipop,b,2015-04-08,Marvin Brotherton,5
update got it working again,b,2015-04-08,Marvin Brotherton,5
back up to 5 star,o,2015-04-08,Marvin Brotherton,5
i love this lock screen but released the android 50 update for one no longer appears,o,2015-04-08,Another Hacker,4
please fix,b,2015-04-08,Another Hacker,4
the only bad thing is i press the home button it go out and close,o,2015-04-08,Maan Mohammed,4
my note 4 updated to lollipop ac display will not active even after i turn it on and off and back on,b,2015-04-08,Payton Guess,4
please address,f,2015-04-08,Payton Guess,4
working about 10 of the time,o,2015-04-08,Payton Guess,4
work would be better the active mode work like gravity screen,b,2015-04-08,Ian Dave Manguira,5
used it for a year with no prob,o,2015-04-08,Boris Tiomkin,2
last update got unstable and crash all the time,b,2015-04-08,Boris Tiomkin,2
the bad news is i cant it,b,2015-04-08,Boris Tiomkin,2
good,o,2015-04-07,Alex Fay,5
look beautiful,o,2015-04-07,M Afri Ongkowijoyo,5
something about managing timeout policy new update,b,2015-04-07,Dave Hall,2
i like it,o,2015-04-07,Zak Daniels,3
but need to allow background,f,2015-04-07,Zak Daniels,3
and it also can be extremely buggy and,b,2015-04-07,Zak Daniels,3
please let u date and time,f,2015-04-07,jd Li,4
more customizations will make this an even better,o,2015-04-07,jd Li,4
i love it much though,o,2015-04-07,jd Li,4
i press the home button twice the it open,f,2015-04-07,WJ DeastemS,2
preventing the locker from opening would have been and i would rate it a,b,2015-04-07,Abdullah Ali,4
i want to get a notification afterwards touching the screen even it is locked update that it will be useful for all,b,2015-04-07,Prashanth Renato,1
if u update all will be happy and will give 5 star,b,2015-04-07,Prashanth Renato,1
the is good overall but not what looking for,f,2015-04-07,Fraser Thomson,2
now i need to delete and know how to deactivate it first,b,2015-04-07,Fraser Thomson,2
thank u much it wa not compatible in jellybean but now you have brought in very happy,o,2015-04-07,Aashish Gautam,4
please fix this,b,2015-04-07,Shivam Agarwal,3
off with this crash,b,2015-04-06,Yousef Kahlon,4
it work i take it out of my pocket but not when i pick it i have root and hate the notification that persists in the notification bar,b,2015-04-06,Stephen Enzor,5
great my favorite,o,2015-04-06,Stephen Enzor,5
thank you,o,2015-04-06,Stephen Enzor,5
work very well with security like a pin or pattern wish it could have the color in background unlocking security but otherwise great,f,2015-04-06,Finley Curtis,4
,o,2015-04-06,Sonny W.,1
thanks for bringing this functionality to android,o,2015-04-06,Yuma M.,4
it make using an android phone that much more bearable switching over from my blackberry phone,b,2015-04-06,Yuma M.,4
good job,o,2015-04-06,sagar darade,5
it ha a pseudo lock screen function work but i really need a full blow lock replacement with locking option,f,2015-04-06,Bart Strauss,4
way of providing notification would make a awesome,o,2015-04-06,Bart Strauss,4
i hope the developer will make this happen soon,b,2015-04-06,Bart Strauss,4
too many accidental pocket tap,b,2015-04-06,Bart Strauss,4
awesome you made my phone amazing,o,2015-04-06,Kamil Multani,5
how to disable the notification shown in the status bar,f,2015-04-06,Ashish Gupta,4
but now the screen keep on waking up and repeating the notification even it timed out,b,2015-04-05,Martin Oliva,2
i would like to use my finger print with this,b,2015-04-05,Scott Nevins,4
thank you for bug fix,b,2015-04-05,Casey Warrer,5
need better function for lift to wake,b,2015-04-05,mb b,2
consumes battery much,b,2015-04-05,Arjun Anandh,1
i love this but i would love to see it have it own wallpaper on the,o,2015-04-05,,4
simple yet perfect,o,2015-04-05,Abhinav T K,5
not smooth a stock lock fiddly,b,2015-04-05,Yuri Kon,3
a bit of struggle,o,2015-04-05,Yuri Kon,3
i hate using my default but one thing preventing me from replacing it completely with is the lack of a security option,f,2015-04-04,Bryan Lee,4
perhaps a pattern and password lock,b,2015-04-04,Bryan Lee,4
this used to be a great and i am sure it will be but the latest update is very buggy,b,2015-04-04,Benjamin Carr,2
sometimes upon waking the screen fails to start despite being set to work the lock leaving me on my home screen,b,2015-04-04,Benjamin Carr,2
also if i have music playing 9 time out of 10 the music control fail to display on instead causing the clock and notification info to leaving a blank screen,o,2015-04-04,Benjamin Carr,2
it is now i simply cannot recommend it,o,2015-04-04,Benjamin Carr,2
awesome,o,2015-04-04,Alejandro Sc,5
finally i found perfect glance,o,2015-04-04,Artur Ja,5
thanks,o,2015-04-04,Artur Ja,5
the text is way the animation way and the dark area of the screen is actually completely dark now w the on top,o,2015-04-04,Jorge Corrales,5
super keep it up,o,2015-04-04,Jorge Corrales,5
use it on my shield tablet and would be great it also worked in landscape mode,b,2015-04-04,Onur ÖREK,4
may you include it such an auto orientation option in your next update perhaps,b,2015-04-04,Onur ÖREK,4
new update restored faith,b,2015-04-04,Derek Fritts,5
music working no new feature,o,2015-04-04,Derek Fritts,5
psyched,o,2015-04-04,Derek Fritts,5
well done,o,2015-04-04,Derek Fritts,5
clean perfect,o,2015-04-03,Amit Jayant,5
could be the best you can put a security or pin code for security purpose just like the maybe,f,2015-04-03,Mikee Cortes,5
second if this can have it own wallpaper rather getting the wallpaper of the home screen,b,2015-04-03,Mikee Cortes,5
thank you developer,o,2015-04-03,Mikee Cortes,5
the work fine and lock screen ha swipe to unlock option more protection such a pattern or pin method to unlock,f,2015-04-03,karthik raja,4
the interface is i love it,o,2015-04-03,Noble Wright,5
best lock screen on the market by far,b,2015-04-03,Nick Jenne,5
this is great,o,2015-04-03,Ly Ar,4
amazing you get a you can simple get a quick glance at the notification,o,2015-04-03,Grant Meinerding,5
with the new mode and active this becomes even more convenient,o,2015-04-03,Grant Meinerding,5
color for unlock too,f,2015-04-03,Grant Meinerding,5
very material design friendly,o,2015-04-03,Grant Meinerding,5
guess so yea,o,2015-04-03,Grant Meinerding,5
keep it up,o,2015-04-03,Grant Meinerding,5
best replacement lock screen,b,2015-04-03,Jonathan Erickson,5
the best active display ever,o,2015-04-03,Enrique Favila,5
with this recent update it just got even better,b,2015-04-03,Enrique Favila,5
amazing job guy keep it up,o,2015-04-03,Enrique Favila,5
amazing,o,2015-04-03,Jackson F,5
simply gorgeous,o,2015-04-03,Troy Mignott,4
such an option would be nice,f,2015-04-03,Aditya Pandey,4
interested to see the next updated version,f,2015-04-03,DANIEL COLON,5
i simply love this,o,2015-04-02,Javier Blanco,5
i wish the developer could include more option,f,2015-04-02,Javier Blanco,5
knowing what contact is you would be great,b,2015-04-02,Javier Blanco,5
the best,o,2015-04-02,Rahul Ronaldo,5
amazing,o,2015-04-02,Joshua King,5
i loved,o,2015-04-02,Ragul Ragul,5
i like it cover the stock ugly lock screen if you had a password or pattern on,b,2015-04-02,Awaise Tahir,5
it much nearer and nicer now,b,2015-04-02,Awaise Tahir,5
444,o,2015-04-02,Awaise Tahir,5
it finally took over my note 3 lock it doe wake up randomly at time but it is in beta 5 start still,b,2015-04-02,Jonathan Hoover,5
simply awesome,o,2015-04-02,Timothy James,5
this doe what it say and ha always worked flawlessly for me,b,2015-04-02,Colin Simone,5
loving it on my one running,o,2015-04-02,Colin Simone,5
i am flattered,o,2015-04-02,Kshitiz Keshav Bhardwaj,5
such a convenience right on the screen,b,2015-04-02,Kshitiz Keshav Bhardwaj,5
loved it,o,2015-04-02,Kshitiz Keshav Bhardwaj,5
a glitch seen,o,2015-04-02,Kshitiz Keshav Bhardwaj,5
color tab is inactive,f,2015-04-02,Kshitiz Keshav Bhardwaj,5
wow,o,2015-04-02,Meghal S.,5
i really like the new interface and color for circle and background,o,2015-04-02,Beny Febrian,4
great job,o,2015-04-02,Beny Febrian,4
the recent this is simply the best active display,o,2015-04-02,RICHARD NEEDHAM,4
slight learning curve to set up with more,o,2015-04-02,RICHARD NEEDHAM,4
i need one can give me access to my content without overtly sacrificing security,o,2015-04-02,Heinrich Thurston,5
all the information i need is front and center and is presented in a simple and clean way,o,2015-04-02,Heinrich Thurston,5
even show medium player control and info over a dynamic background of the album art being played,b,2015-04-02,Phlippie Bosman,5
thing you could still want is to use a custom wallpaper instead of your home screen wallpaper,b,2015-04-02,Phlippie Bosman,5
would like to be able to see message content on other just the icon,b,2015-04-02,Ch Br,5
heckle,o,2015-04-02,Ch Br,5
put it on none,o,2015-04-02,Ch Br,5
very easy to use and nice made,o,2015-04-02,Rafael Fischel,5
love this and used it for a but the version sometimes unlocks my device entirely,o,2015-04-02,Johan André Vatvedt,4
reverting to for now,o,2015-04-02,Johan André Vatvedt,4
running android sense 6,o,2015-04-02,Johan André Vatvedt,4
how exactly do i make this my lock screen,b,2015-04-01,Brean Hayes,3
of right my regular lock screen come then after unlock this unlock screen come up any help would be greatly appreciated,b,2015-04-01,Brean Hayes,3
what this lack in customization it more make up for in pure and simple beauty,o,2015-04-01,charles williams,5
this is wonderful and there is only one thing i wish to see would make this five star,f,2015-04-01,Daniel Schmidt,4
edit now it always bother me i turn on screen saying that i can swipe down to exit etc,b,2015-04-01,Ambar Munett,5
best ever but can u please add the option to change the will b great,f,2015-04-01,Vicky Suraj,5
thank you,o,2015-04-01,Vicky Suraj,5
look work great,o,2015-04-01,Ratnesh Parekh,5
simple and elegant,o,2015-04-01,Ratnesh Parekh,5
awesome,o,2015-04-01,Aditya Bolt,5
u x active display,f,2015-03-31,prakash k vel,5
love it,o,2015-03-31,Shyam Sundar,5
popularity best locker ever used date,b,2015-03-31,Suhasendu Bera,5
unfortunately pressing the home button on device bypass the lock screen this wa fixed and next alarm info on added this would be perfect,b,2015-03-31,Sean Thompson,3
please remove icon in notification panel,b,2015-03-30,Vinsmoke Black Leg,4
charge s becoming use this,o,2015-03-30,Bpk Praveen,1
maybe some security,f,2015-03-30,Jose Cast,4
very nice,o,2015-03-30,Калоян Дончев,5
i wa running with,b,2015-03-30,Ben Stinson,3
ever upgrading to lollipop it get stuck in a weird flashing loop on some notification,b,2015-03-30,Ben Stinson,3
real shame a it a great feature to be able to glance at notification in a similar manner to found on the x hopefully it get fixed in an but have disabled for now,b,2015-03-30,Ben Stinson,3
thank you younger brother love you,o,2015-03-30,Tam OOr,5
you can add shortcut like phone and camera making this lock screen flawless great job,b,2015-03-30,Paramveer Singh Mewara,5
can u add pattern lock to it would be great,f,2015-03-30,Paramveer Singh Mewara,5
work great how many time do i have to okay the notification swiping down pull it our of full screen mode,b,2015-03-30,Chris Marquardt,3
annoying hell,b,2015-03-30,Chris Marquardt,3
fix it,b,2015-03-30,Chris Marquardt,3
and could u some help with the,o,2015-03-30,Chris Marquardt,3
more user friendly,b,2015-03-30,Chris Marquardt,3
otherwise great alternative to active screen,b,2015-03-30,Chris Marquardt,3
can u add a clear all notification button,f,2015-03-30,harshana srimal,5
loved it,o,2015-03-30,Aniket Pawar,5
great but the best part is that it know you need to use your phone and turn the screen on automatically,b,2015-03-30,Aleksander Løve,5
how to remove,o,2015-03-29,Jahangir Hussain,3
thumb up,o,2015-03-29,Juan Trevino,5
my girlfriend ha version 322,f,2015-03-29,LumyQuix,4
do not,o,2015-03-29,LumyQuix,4
i have 27,o,2015-03-29,LumyQuix,4
please put a music visualizer,f,2015-03-29,,5
otherwise if i used it worked great,o,2015-03-28,Samuel Laffoon,2
i think this is a really good and is really useful,o,2015-03-28,Fazy_11,5
better you add a camera shortcut,f,2015-03-28,Aria S,5
i stopped using my active display wa sorely missed,b,2015-03-28,Andrew Conver,4
that i found this great,b,2015-03-28,Andrew Conver,4
i love this but it crashing last update,o,2015-03-28,Qsub Chung,4
work i love pulling out my phone and it just turn on for long a you want i set it on 3 second,o,2015-03-28,Nikita Annenkov,5
great job man,o,2015-03-28,Nikita Annenkov,5
the version on play is really old,b,2015-03-28,,5
get the latest version with material design on the open source market,b,2015-03-28,,5
switched from x to compact and this ac display ha more feature,f,2015-03-28,Johnathan Do,5
look clean and work well,o,2015-03-28,Johnathan Do,5
option but turning it off and using my stock one,f,2015-03-28,Anthony Ly,4
please add the ability to customize background to be anything you want it to be,f,2015-03-28,Tiffany M,3
right now the option is black or mimic home screen,f,2015-03-28,Tiffany M,3
thank you,o,2015-03-28,Tiffany M,3
i wa never a big fan of 3rd party they never worked a well a the default slower and more,f,2015-03-28,Damir Franc,5
but this one definitely doe all extremely convenient to access notification paired with some super handy small feature like the screen timeout and double tap to sleep,b,2015-03-28,Damir Franc,5
fantastic,o,2015-03-28,Damir Franc,5
developer doe a great job of constantly updating it to make it better,b,2015-03-28,Paul Curry,4
super simple and easy to use,o,2015-03-28,Moby D,5
complaint is the persistent notification tray icon,b,2015-03-28,Moby D,5
