App,Store,App ID,Review ID,Country,Version,Rating,Date,Author,Subject,Body,Translated Subject,Translated Body
Turbo Editor PRO | Text Editor,Google Play,com.maskyn.fileeditorpro,Z3A6QU9xcFRPRVBnVHhqQW9teklfTTNxdUJWNEhwYTQ2YWpUNzlQY2d1RHBReUM2ak5ZcXhwdXpudUxkM3g5WnlCSmx0VEtRQm1UVGVQQU5RR2FqZGd4NXc,English,,5,2014-10-24,Ben Getchell,Blazingly fast app with stunning interface,is in fact i use but slow on phone like mine,,
Turbo Editor PRO | Text Editor,Google Play,com.maskyn.fileeditorpro,Z3A6QU9xcFRPRVBnVHhqQW9teklfTTNxdUJWNEhwYTQ2YWpUNzlQY2d1RHBReUM2ak5ZcXhwdXpudUxkM3g5WnlCSmx0VEtRQm1UVGVQQU5RR2FqZGd4NXc,English,,5,2014-10-24,Ben Getchell,Blazingly fast app with stunning interface,turbo editor work great with turbo and is blazingly fast,,
Turbo Editor PRO | Text Editor,Google Play,com.maskyn.fileeditorpro,Z3A6QU9xcFRPSEY4TWE0SndaZF9jdTdwa3lLY0ozaTNIUHBVZXNwRUlyaWIyYTBUVXdzOVhPdjlrMDNVS2RSNVdRbUd3VTkxMHczam1Qa2ZnVFI5QzkwUUE,English,,2,2014-10-01,Adam Seare,Bug Found.,typing at any time the blinking line will just auto bounce to top of page,,
Turbo Editor PRO | Text Editor,Google Play,com.maskyn.fileeditorpro,Z3A6QU9xcFRPSEY4TWE0SndaZF9jdTdwa3lLY0ozaTNIUHBVZXNwRUlyaWIyYTBUVXdzOVhPdjlrMDNVS2RSNVdRbUd3VTkxMHczam1Qa2ZnVFI5QzkwUUE,English,,2,2014-10-01,Adam Seare,Bug Found.,even backspacing text it will bounce and start deleting text from a different line,,
Turbo Editor PRO | Text Editor,Google Play,com.maskyn.fileeditorpro,Z3A6QU9xcFRPSEY4TWE0SndaZF9jdTdwa3lLY0ozaTNIUHBVZXNwRUlyaWIyYTBUVXdzOVhPdjlrMDNVS2RSNVdRbUd3VTkxMHczam1Qa2ZnVFI5QzkwUUE,English,,2,2014-10-01,Adam Seare,Bug Found.,make editing code very difficult,,
