Topic Index 1,Topic Index 2,Topic Similarity
5,12,11.11111111111111
8,18,11.11111111111111
19,17,11.11111111111111
0,1,5.263157894736842
1,9,5.263157894736842
2,6,5.263157894736842
3,7,5.263157894736842
6,5,5.263157894736842
7,2,5.263157894736842
10,10,5.263157894736842
14,4,5.263157894736842
15,0,5.263157894736842
16,14,5.263157894736842
4,3,0.0
9,8,0.0
11,11,0.0
12,13,0.0
13,15,0.0
17,16,0.0
18,19,0.0
