App,Store,App ID,Review ID,Country,Version,Rating,Date,Author,Subject,Body,Translated Subject,Translated Body
WordPress,Google Play,org.wordpress.android,Z3A6QU9xcFRPRXRQSGRpX1lYaUVLeEJCVFA1bnNVSUViTUlCS2FyUTZnY2NjY1Z3V0l4eEw4eDliYnJ5MWZZRnFsMk9sbm1oQXFHZTgtVWZjTkhWWmFPN0E,English,,5,2014-09-01,Paulina Cintia,Great app...,e to login a always and easy to use love it very much,,
WordPress,Google Play,org.wordpress.android,Z3A6QU9xcFRPR1JUaUR1ZndORzNqN2NOZVk2N2tjVHpBR1Z0S1I4RndnUDdJaVpqWlJ0UDktMm9EMkhqbW52MkY5eHA3RGVMd2c1Q1FJeW8xMTRGVjFMS2c,English,,5,2014-09-01,Bijan Saha,Ananda Bazar Bangala paper,sport news,,
WordPress,Google Play,org.wordpress.android,Z3A6QU9xcFRPRW12MUN3a0dTMzhuYWFoQWxQLTh6MDZBYk91WDVCTHFxejBEZXJHYXVENWVQNE84RnpqZllpZjEwMmFka25JaGR1ZWZhMHdlOS1lRlFPbXc,English,,2,2014-09-01,Michael Kahre,,not easy,,
WordPress,Google Play,org.wordpress.android,Z3A6QU9xcFRPRmd4ckQxRDJ1LUJ4RzhXQVhxY1hyc2FNZ1hqOW1qVEttbnVzNU9sbmF2RzE3MW80RkFSRGJfQTk4WWpJRVI2VGFDclpuempRWC1CNzVtQXc,English,,5,2014-09-01,fahim nasir,,very nice stuff,,
WordPress,Google Play,org.wordpress.android,Z3A6QU9xcFRPRU1jMHZQSDVPcjlFVHg4TXB1bFZtUEEwWldreXlaSUJGQmk4N1FreXJLVWRJZnlGNXFWU0N6TVBIWTZjWWY1UVRKeklLRzlKaXFHN19UMUE,English,,5,2014-09-01,Sumit Jangir,,superb,,
WordPress,Google Play,org.wordpress.android,Z3A6QU9xcFRPRzVoRFVtNTFVMGtLaXBvZUlfbUwyci1USE94dG1QQmY0R1FtV3RMVDR3bFNnRWxxak5GUnF4VFhDeG85MkFVNVdNTk9EUTVoRHllTEJnUlE,English,,3,2014-09-01,Rajeev Kishore,NO SUBJECT,i just got the installed and now trying to handle it with care i presume this box go to each and every corner of the world and i want to fool around,,
WordPress,Google Play,org.wordpress.android,Z3A6QU9xcFRPRzVoRFVtNTFVMGtLaXBvZUlfbUwyci1USE94dG1QQmY0R1FtV3RMVDR3bFNnRWxxak5GUnF4VFhDeG85MkFVNVdNTk9EUTVoRHllTEJnUlE,English,,3,2014-09-01,Rajeev Kishore,NO SUBJECT,friend will catch up later after learning this,,
WordPress,Google Play,org.wordpress.android,Z3A6QU9xcFRPRzVoRFVtNTFVMGtLaXBvZUlfbUwyci1USE94dG1QQmY0R1FtV3RMVDR3bFNnRWxxak5GUnF4VFhDeG85MkFVNVdNTk9EUTVoRHllTEJnUlE,English,,3,2014-09-01,Rajeev Kishore,NO SUBJECT,then bye,,
WordPress,Google Play,org.wordpress.android,Z3A6QU9xcFRPRmh5SkQ4aUVUXzhRZ3RReDlxUEdkdHFqdXQzWmhCa01ESVRFanVpUnRSLW4xelQ1UVgxSEQ3eXZHbk15TFpLazc3Ni1wbkc2RnpLZEt6cGc,English,,1,2014-09-01,Julio Marqez,Very simple....,i installed this because i thought it might be a replacement for the but this wa simple without any simple a for example being able to remove a border of an decide a link for an choosing to show thumbnail instead of full image etc,,
WordPress,Google Play,org.wordpress.android,Z3A6QU9xcFRPRmh5SkQ4aUVUXzhRZ3RReDlxUEdkdHFqdXQzWmhCa01ESVRFanVpUnRSLW4xelQ1UVgxSEQ3eXZHbk15TFpLazc3Ni1wbkc2RnpLZEt6cGc,English,,1,2014-09-01,Julio Marqez,Very simple....,sorry to say compared to other for this is almost a shame,,
WordPress,Google Play,org.wordpress.android,Z3A6QU9xcFRPRXZCQ3ZzVXlqVldPT2hoQ1Q3VTZWdm8yT0NCUDBiR2Jhc0V0QmpOTVdJUFhRcEZFc0pxZUx6RThxWUxIbENCMkNZbUowZExRWkdKeVVBNmc,English,,5,2014-09-01,Abbas Hosseini,Good,very nice,,
WordPress,Google Play,org.wordpress.android,Z3A6QU9xcFRPRmhsdnRTMkpTYzN6ekkzay1PdUJzMlhldDVkVkV3RjNXdkxraFJYdHdkdXotNHRRY2VNZzBDV2FXNVREX2NQWFpuc3d1dGlGaTV6VHliWnc,English,,1,2014-09-01,azharuddin akhtar,"No functions except for notification and reading,  what is this nonsense?",please resolve the issue,,
WordPress,Google Play,org.wordpress.android,Z3A6QU9xcFRPR3NPY0tQMWdBM3dqa0RXeVJzSEhiQWpmVFMzMVpydkxQLUdSZTJfTDNjRXlvYUprWEgzTHc5NVl3TTBRak9nNTdUckZocUtRZGJGS3lsaGc,English,,1,2014-08-31,Mehr Jawad,"Typed whole article , arranged images , toolbar disappeared multiple times , after raw text editing couldn't save as draft.",i it removed my web browser with it,,
WordPress,Google Play,org.wordpress.android,Z3A6QU9xcFRPR3NPY0tQMWdBM3dqa0RXeVJzSEhiQWpmVFMzMVpydkxQLUdSZTJfTDNjRXlvYUprWEgzTHc5NVl3TTBRak9nNTdUckZocUtRZGJGS3lsaGc,English,,1,2014-08-31,Mehr Jawad,"Typed whole article , arranged images , toolbar disappeared multiple times , after raw text editing couldn't save as draft.",,,
WordPress,Google Play,org.wordpress.android,Z3A6QU9xcFRPSDBEQXdac2x0WFZuY2tubVhYaTdGaUdyY09abmQ0blN5M18wY1NlbzJFSnFMTl9nd2xWNVNoa3A2R0gzdnFGc01JcHlOYkhkVmFjQnpzMnc,English,,4,2014-08-31,sriram raj,WordPress through mobile,my for mobile,,
WordPress,Google Play,org.wordpress.android,Z3A6QU9xcFRPRjl6US12aThSSTJRZEV1bVRfSjBTNXBPTmk4YUR4Z1R6WUJVMnFLamthMVVwVW1MQnJxRTFxWGplSDNfWmpJenN2UGM2UDlMU084WS03QXc,English,,5,2014-08-30,Sondu Kiama,,awesome,,
WordPress,Google Play,org.wordpress.android,Z3A6QU9xcFRPRS1RR3dkQnFfb3kyOUtZMWVhSWZaY0lld1R3MWtULW1UM0tHTXhfaUxnRzdISGRaUTFOd21jeWFycE9MT0FwR1otRkl0OEh6OW9zZDU3R1E,English,,3,2014-08-30,zmutaqin mutaqin,,problem inserting medium like,,
WordPress,Google Play,org.wordpress.android,Z3A6QU9xcFRPRUJpbDNPdENicU9CWG85ZU9LenVkWVcta3RJYXRYYVhGRUpYenFTelZzRVB3by1HeWJQOEtucEJ4VjlvUWxuOUxCLWlmXzRWZ0hja0FzNkE,English,,5,2014-08-30,Heriziman Ahmad Tarmini,G,,,
WordPress,Google Play,org.wordpress.android,Z3A6QU9xcFRPRVBHVTFaMklpbE9XM2JRdFFRVkFMYTg3S0ktMUJTelVoR1pJaE1wdEMyRTNSSEhMNWdLdUtSZTg3dDBtRlZURHVLazNMU2YzRTZxZWRWdmc,English,,5,2014-08-30,Pavan Mondreti,Great!,nice tool,,
WordPress,Google Play,org.wordpress.android,Z3A6QU9xcFRPRVpmMU1JWlNfYUNfS2d1eUw3ZDZJMzhEQk4wSElIcnJ6UGJSUWc4MUJCV0ZnY3oxU3FhU0xFY0g4ejJyWkUzRGhhRjZNYXlvVE82MV9ZZ2c,English,,3,2014-08-30,Tyas Meuthia,,a bit different with web version,,
WordPress,Google Play,org.wordpress.android,Z3A6QU9xcFRPRVpmMU1JWlNfYUNfS2d1eUw3ZDZJMzhEQk4wSElIcnJ6UGJSUWc4MUJCV0ZnY3oxU3FhU0xFY0g4ejJyWkUzRGhhRjZNYXlvVE82MV9ZZ2c,English,,3,2014-08-30,Tyas Meuthia,,hope they would add feature for formatting text,,
WordPress,Google Play,org.wordpress.android,Z3A6QU9xcFRPRTg0TkJXS1pHUkpLeHNUX2pEOFVENGo3VG1CSFZnVGRJZjlnNmJER3lTaWtfRE9RUTVTRXVvZU1hXy1vSlc4TmNLSTY4aEMtcHJYTHMteVE,English,,5,2014-08-30,Sabok Das,i like this,good,,
WordPress,Google Play,org.wordpress.android,Z3A6QU9xcFRPRjhYYXQ3RV9Memp3aFJfRjFZNzMyUWZMc0Y2N25mSTZVZ0ZiUF9icDNzby1TTS03WXdiWDZIN1F6ZnNvVDQ0OWVNOUtaajQxXzdta1QyRUE,English,,5,2014-08-29,Tifani Zulfiana,Better now than before!,thank you for the upgraded version,,
WordPress,Google Play,org.wordpress.android,Z3A6QU9xcFRPRUZ4SjJha0d4cUNfUzAweEhzVk9SQVNQRnoyeVhnZzhyY2pPUXZzTVdTaWJ4TVZQSFBYNmFRWHZidEpPMTgwWGkwLXJEOV85UzlYWjgxcUE,English,,5,2014-08-28,SONU singh,loved it,good work on s 5360,,
WordPress,Google Play,org.wordpress.android,Z3A6QU9xcFRPRUFWRUZEcW9xZG8xbU9xbWI4MHBEVnp0aHpDeTMxMFN2U3R2dFNiQmR6cjBWaV9US2VCSXFOcmVDQzgweHVXWDFLeHdJS3hOMzduZHhhQWc,English,,2,2014-08-28,Mayur Wadhwani,Atleast change the font size!!,can there be any way to change and increase the font it is too small,,
WordPress,Google Play,org.wordpress.android,Z3A6QU9xcFRPSG9VaExOalp5MWJiU2FyX2dqN1FnMjB4RHJWTzBNRHpzSm1mSUlhcXl3Q2dPbGcycWNxS2o0czNCbXk3QXctMElkSkY5UkdlUl9iUUVrSXc,English,,5,2014-08-28,Yusuf Sonara,,good,,
WordPress,Google Play,org.wordpress.android,Z3A6QU9xcFRPR1VjcHJyVy0tcW00WU5EMmNZUTNSN2Y2X2dfbDRwYjNtUVBfTmpGWHNDTlhldlhUWG9BeEtyb2pRNGU1clQ4bndoWDc0U0xROHpJS0EzNUE,English,,4,2014-08-28,Angel Bn,,the is really good but you have too fix the issue i write something and then when i go fix something i wrote and come back to writing from i stopped it wont work it wont let continue the just jump between a word i wrote at the start and wont let me write anywhere else,,
WordPress,Google Play,org.wordpress.android,Z3A6QU9xcFRPRnZpd0hPNWlES0FRZGV1ZTM5ZDJUdnhsbzhFbUhoUFo3ZHUxTUJoR0NFY2pFTVBvWThUVWZEV0xrMHVIN3pRY095ZWNoNkkyTjZQSzk4RXc,English,,5,2014-08-28,Robinsh Vernwal,WordPress,a great for in the easiest way,,
WordPress,Google Play,org.wordpress.android,Z3A6QU9xcFRPR1BWMXFJYjJIQ1hReFM1MnFOYTBia0VKa0Q3UTlMRGZ2YjgwRjM1QS00ODlkYy1BeEdlcjdxOE9LemNvWXh2cENubDlHcFRYVkZ3aFdhMXc,English,,4,2014-08-28,Sherinne C.A.Z. Albao,,there are the post made me post twice,,
WordPress,Google Play,org.wordpress.android,Z3A6QU9xcFRPSDdpNWU1alBsamUxZUloS24wNkhPR085V3B5dmZfaWFNbGxiR1dIOG05X3hIVk9kM1dXaHg2R2tGclpTczdudFFiWjdJdktyNnRNbzV1Mnc,English,,3,2014-08-28,Keshav OS,Awesome,brilliant,,
WordPress,Google Play,org.wordpress.android,Z3A6QU9xcFRPSDdpNWU1alBsamUxZUloS24wNkhPR085V3B5dmZfaWFNbGxiR1dIOG05X3hIVk9kM1dXaHg2R2tGclpTczdudFFiWjdJdktyNnRNbzV1Mnc,English,,3,2014-08-28,Keshav OS,Awesome,love the new interface,,
WordPress,Google Play,org.wordpress.android,Z3A6QU9xcFRPSDdpNWU1alBsamUxZUloS24wNkhPR085V3B5dmZfaWFNbGxiR1dIOG05X3hIVk9kM1dXaHg2R2tGclpTczdudFFiWjdJdktyNnRNbzV1Mnc,English,,3,2014-08-28,Keshav OS,Awesome,please add a fix to this and keep it awesome,,
WordPress,Google Play,org.wordpress.android,Z3A6QU9xcFRPSDdpNWU1alBsamUxZUloS24wNkhPR085V3B5dmZfaWFNbGxiR1dIOG05X3hIVk9kM1dXaHg2R2tGclpTczdudFFiWjdJdktyNnRNbzV1Mnc,English,,3,2014-08-28,Keshav OS,Awesome,thanks,,
WordPress,Google Play,org.wordpress.android,Z3A6QU9xcFRPRU9mVkpqdFVJdFhUa3JOaU8ybVE0RHRJbkhrTnMwdEpjZUkwcGNpRW9SNVducmxGd05CMERDdHJKRi1SRUNIS0ZLU09qVUNuYXJ5WVJrNFE,English,,3,2014-08-28,Cicha Zakir,Cannot reply comments,would be nice we can reply comment directly from the,,
WordPress,Google Play,org.wordpress.android,Z3A6QU9xcFRPRU9mVkpqdFVJdFhUa3JOaU8ybVE0RHRJbkhrTnMwdEpjZUkwcGNpRW9SNVducmxGd05CMERDdHJKRi1SRUNIS0ZLU09qVUNuYXJ5WVJrNFE,English,,3,2014-08-28,Cicha Zakir,Cannot reply comments,would give 5 star if feature work,,
WordPress,Google Play,org.wordpress.android,Z3A6QU9xcFRPSDFOdzdpM19ZQU5Pd3otTzFnNVV6QVNJeURLeFdnVXZiQ1QxWXlqU2xvTU9GTmlSZWtKRE8tT1lLelg1ajdJRE5TLVBPTWlYbFNzcEFIUmc,English,,4,2014-08-27,Oliver Pinto,,not bad at all,,
WordPress,Google Play,org.wordpress.android,Z3A6QU9xcFRPR01OVjllN3VJY3llYVNfaTdwRXNfRkZoOGdydWxHM2kzd0tab1RXX0R6VVkzNjJzU0c1U3hVeGRXWl9JOG5IWkNncmFNSWJJWXltZEFoV0E,English,,1,2014-08-27,Gary Thinks,I can't rate it!,it refuse to let me sign in via the but no problem i use the mobile site,,
WordPress,Google Play,org.wordpress.android,Z3A6QU9xcFRPSDcyenhINUYtbUNpZmQyOHItMmJ0amRwZ1hMRlFDTGNBSTJYTjJtUVBUanQ5NDlRX3QxbWZDaTNSbExRd3RyYWE3MmI4dVoza0lVWW0yWXc,English,,5,2014-08-27,Asif Ikbal,,not correct statistic,,
WordPress,Google Play,org.wordpress.android,Z3A6QU9xcFRPRjNwQlJTU1pXSS1pUlJNN2RKZTZkV3VybFh3V1QyMV9WaEltUUhuTXJpcjczT3lGdzNBRHIyZVpfZkpPeWJETTFvb2R5VG4zcVpEckdSbkE,English,,5,2014-08-27,Caretta Black,Yes,love,,
WordPress,Google Play,org.wordpress.android,Z3A6QU9xcFRPRjhZNGtCQXNaQzdoblNkN3l1S0lQQjZFRlpnOEZYNWRlM05QMFFVVTNLSTR5Q3p0a19fcTlqa3hyUUFtMUlFNWNTNmhLOHlsNHdyWm1MTXc,English,,5,2014-08-27,Len Len Saspa,,nice,,
WordPress,Google Play,org.wordpress.android,Z3A6QU9xcFRPRVJGOXllQk5FQmxQMnRLSElsWXpDakpkTXZnSTNYZW5xS0FuX3d4amNiZFVlWWZacE1tLXd5MlZ6ZTVzblJGNmxlbXB6MzVPQnZwRUpYbFE,English,,4,2014-08-26,Gina Priadini,,easy to use,,
WordPress,Google Play,org.wordpress.android,Z3A6QU9xcFRPRzZCcWdoTEZNQTJHZVp1U0FuVW01T3Z0QWF0aHNYUHlPdWNHV0xxR2lXMnlwdm5IU05QWVR4bnF5emtTUHdjblB0Z0ZBbkZkVWJ0eEJKdHc,English,,3,2014-08-26,M Freytag,Nice,good organized but the data consumption is incredible high,,
WordPress,Google Play,org.wordpress.android,Z3A6QU9xcFRPRzZCcWdoTEZNQTJHZVp1U0FuVW01T3Z0QWF0aHNYUHlPdWNHV0xxR2lXMnlwdm5IU05QWVR4bnF5emtTUHdjblB0Z0ZBbkZkVWJ0eEJKdHc,English,,3,2014-08-26,M Freytag,Nice,sad,,
WordPress,Google Play,org.wordpress.android,Z3A6QU9xcFRPSDdhWEVVSG12MnhfVWlVUjdwa2Y3R3ByZUFiMHRydjFYRlRDcERsVlFFWU1IY01ZR2hRclVGcmtKZkxWZ3VvNG5vNWNjLTdpQ2JBRDZlUHc,English,,5,2014-08-26,lisa white,Word press,,,
WordPress,Google Play,org.wordpress.android,Z3A6QU9xcFRPRVdTZGlDWjAyeHRnZUtneE1qeC1JQl9sb1lZZDhkZlZ3OEdyZWFVWFZQM1F0YWJETU5RWThWbWR0REZWSnJzTjYzWlJET1J6M0hIeDlpZmc,English,,5,2014-08-26,Kumar Jat,Awesome,fantastic bro,,
WordPress,Google Play,org.wordpress.android,Z3A6QU9xcFRPRWZsaUw2RS14SC1xU1hSTGpFY00xSXc1UU9UamY1SVZUWFlQMVN3b0h3YnM1UnE4aHZnalpYZTJPMkI2WmE3T3VrOTBqVHAzZFVibVJzSlE,English,,5,2014-08-26,Pedro Collado,Nice,love these feature update in the run,,
WordPress,Google Play,org.wordpress.android,Z3A6QU9xcFRPR2hyWkpsZFFLYUhhdnVsYThsamVBeHd3RlR3VDl5NG1BbUdXYWZRb1ZIcFBaVU45MDFhdGJjMDZfMWRHNVBwU250TzZhb3hQQWozNDRVb0E,English,,2,2014-08-26,Ashraf Ahmed,,i tried many time to post some thing but all it told me wa to upgrade and i know how to,,
WordPress,Google Play,org.wordpress.android,Z3A6QU9xcFRPR3ZVQ3FMdjBrd2FSaG5rUUxYODJxM25KQlJhVmlNUnVUamJRVTRZSXhWZFgweE5hVmZkZGxOZUJpZDkyZXhpQzlBejJSWC11NGRzTTlOenc,English,,1,2014-08-26,Jessica Mei,Terrible,please fix this,,
WordPress,Google Play,org.wordpress.android,Z3A6QU9xcFRPR29RRUVxOFItOTlKa2syWDlydWlCd0xPV2drYU9sOHA2bWJILVNWX2FCUHppX0pzQ25MYzVXYTc2bThMel9aS3BKRUpkLW0yMm1rU1RBNmc,English,,5,2014-08-26,HarDiik KhatRii,Working flawless.,i can access easily by this,,
WordPress,Google Play,org.wordpress.android,Z3A6QU9xcFRPR29RRUVxOFItOTlKa2syWDlydWlCd0xPV2drYU9sOHA2bWJILVNWX2FCUHppX0pzQ25MYzVXYTc2bThMel9aS3BKRUpkLW0yMm1rU1RBNmc,English,,5,2014-08-26,HarDiik KhatRii,Working flawless.,it have a easy to use user interface,,
WordPress,Google Play,org.wordpress.android,Z3A6QU9xcFRPR29RRUVxOFItOTlKa2syWDlydWlCd0xPV2drYU9sOHA2bWJILVNWX2FCUHppX0pzQ25MYzVXYTc2bThMel9aS3BKRUpkLW0yMm1rU1RBNmc,English,,5,2014-08-26,HarDiik KhatRii,Working flawless.,helped me a lot,,
WordPress,Google Play,org.wordpress.android,Z3A6QU9xcFRPR29RRUVxOFItOTlKa2syWDlydWlCd0xPV2drYU9sOHA2bWJILVNWX2FCUHppX0pzQ25MYzVXYTc2bThMel9aS3BKRUpkLW0yMm1rU1RBNmc,English,,5,2014-08-26,HarDiik KhatRii,Working flawless.,thanks,,
WordPress,Google Play,org.wordpress.android,Z3A6QU9xcFRPR29RRUVxOFItOTlKa2syWDlydWlCd0xPV2drYU9sOHA2bWJILVNWX2FCUHppX0pzQ25MYzVXYTc2bThMel9aS3BKRUpkLW0yMm1rU1RBNmc,English,,5,2014-08-26,HarDiik KhatRii,Working flawless.,keep it up,,
WordPress,Google Play,org.wordpress.android,Z3A6QU9xcFRPRXpKSmgwdFhSU1VPVDdDNl9uVGlWVEYzODJQdjdNek1kamE0dW1XVVJubmpJanRxRXJkVndFamRTS0pBUjRIeGc3VmxTeTc1aC1PU1ByVEE,English,,5,2014-08-25,Yemi Oyetoro,WordPress,very,,
WordPress,Google Play,org.wordpress.android,Z3A6QU9xcFRPSGZpRmotOExjSDgtR0VJU1RKbkpIN0N4VGlrUl9RMGVuajRFa1E4RmROMDdCUHpwd0xjT0pSamcxMnh1OXdNV0JtZWxhYm5jRGhTVmxyNWc,English,,3,2014-08-25,Vir S,Two step authentication problem.,the design and usability of this is very good but recently i enabled two step authentication and started having after selecting to remember my code for 30 it log me out immediately after login i try to browse different section of the like comment,,
WordPress,Google Play,org.wordpress.android,Z3A6QU9xcFRPSGZpRmotOExjSDgtR0VJU1RKbkpIN0N4VGlrUl9RMGVuajRFa1E4RmROMDdCUHpwd0xjT0pSamcxMnh1OXdNV0JtZWxhYm5jRGhTVmxyNWc,English,,3,2014-08-25,Vir S,Two step authentication problem.,please fix the problem with two step authentication and it will be a five star,,
WordPress,Google Play,org.wordpress.android,Z3A6QU9xcFRPSHVFNUpRWWU1RTUyaWYxVWNRX3BlVnV0UkRac0UxNjF5VnIzZkFLdTlFVmJiWHYyRGlrQUVVaFlCRHRidUJKcHJhSWhXalV2Skp6eG5yb3c,English,,5,2014-08-25,Himanshu Rawat,Love it,thanks,,
WordPress,Google Play,org.wordpress.android,Z3A6QU9xcFRPRmJqajc1YVBEWUktNko1VkJDZkNKZ2FOTHNzSmFieUVkaDNZNFRwc3kyamdiTDFBU0htNUNiYlpMM2l5Y0dUYTZmMU9vWENSQWVFRjR6bmc,English,,4,2014-08-25,Margaret Riach,"Great app, good for reading offline",love that i can refresh the reader feed then read the post,,
WordPress,Google Play,org.wordpress.android,Z3A6QU9xcFRPRmtDYVpTWkhyUURiUk1HNE1qRHBSa0xtZjctNVhncllpTVNua1dQM05KM3Q2aUZ5ZFR1Mk1YQ3JWOE92NVdfSWN6OU9rdnJvY01BNnZlSkE,English,,5,2014-08-24,Zawmin Tun,Good,good,,
WordPress,Google Play,org.wordpress.android,Z3A6QU9xcFRPRWJWajF1N0d4LWdTTlN4d2JzWVdyeXFGZlBWUkFvVVh3ZzNLTWtTRm5UMDQ4aWJTRXFmMGQ2V1lOR1NLX19DcGpKbmkxRGxtanotOGJuZWc,English,,5,2014-08-24,Dz Wonderland,Empress,i remember all i had wa my,,
WordPress,Google Play,org.wordpress.android,Z3A6QU9xcFRPRWJWajF1N0d4LWdTTlN4d2JzWVdyeXFGZlBWUkFvVVh3ZzNLTWtTRm5UMDQ4aWJTRXFmMGQ2V1lOR1NLX19DcGpKbmkxRGxtanotOGJuZWc,English,,5,2014-08-24,Dz Wonderland,Empress,now all i have is my,,
WordPress,Google Play,org.wordpress.android,Z3A6QU9xcFRPRW5GNmtXMjZkUGlhRWdZYXNJZjNsa3laeXFkZHJueTd0dWIwRlRHalZ1dU05dFF1ZFZUVmNxMG5sU0RwWHQ3aFMtRDNYV0hLb2ZwaXFrN2c,English,,5,2014-08-24,DAVID SMARRTLI,,great,,
WordPress,Google Play,org.wordpress.android,Z3A6QU9xcFRPRlJobUoxNndsQ3o3NE1OUXFBUk11WFpMTFdZamNEWTFLTTVaR2ZSZkhCNFJsd1QyNDlzSkxoV3lDbm5OMXRPSFBGVUQxVVM2Mm5xX296Snc,English,,5,2014-08-24,Ajay Kr. Maddheshiya,,awesome,,
WordPress,Google Play,org.wordpress.android,Z3A6QU9xcFRPSDVaQmdIdk5pNUNEQ1I1WFdDS0ZGOUIxZ1c5Zm1fT1RTemdwVE92X1VUSkNlcWVpb0xHNThkc2xKLWtZOWY4UTAyenB0UDd1Y1A0V05Ia1E,English,,5,2014-08-24,okky gilang,Yeah!,download write publish,,
WordPress,Google Play,org.wordpress.android,Z3A6QU9xcFRPSDVaQmdIdk5pNUNEQ1I1WFdDS0ZGOUIxZ1c5Zm1fT1RTemdwVE92X1VUSkNlcWVpb0xHNThkc2xKLWtZOWY4UTAyenB0UDd1Y1A0V05Ia1E,English,,5,2014-08-24,okky gilang,Yeah!,repeat,,
WordPress,Google Play,org.wordpress.android,Z3A6QU9xcFRPSGR4dEZqSXFaQWdYT29NNFJfRlRhLWd2cHJ0Tk1JTzAybjRVMjRid0xwSzlzd05SRUZ3NWQtNG1BdWtWMC00X0hLcFc0cVNXVXVUR0tWa0E,English,,5,2014-08-24,Solution Seo,,very useful,,
WordPress,Google Play,org.wordpress.android,Z3A6QU9xcFRPRXBoVjJrTHFwQ09vRmpXUUw2cmdwSVlnTDBSN0hwRTBDbjBHQU1zaGlfVUZHbnhmUm5KUzVwZnVCVFZ2WDZTdFRSTXRqc2VXRWM3UEZhb1E,English,,5,2014-08-24,Antoney Gracian Fernando,I like,i like,,
WordPress,Google Play,org.wordpress.android,Z3A6QU9xcFRPR1NoVDB6a2g5bUFJZWhkMFdHSGdCcVdCQ05TaTNfX2tuSkVKLWVkVjZ0Y1pfMC1EWUlrMEREaFFtX3ZFSDFWdUlpcWh0SGFQaG5qd2Q1VWc,English,,1,2014-08-24,SRIRANGATHEVAR NELLAI Town,,king sport club,,
WordPress,Google Play,org.wordpress.android,Z3A6QU9xcFRPRlk1SUpKOWp4S2sxQ19rdTBIaW8xRm9MRmhUUFp2amFMQ0I2MWNRVXlQRTlJbWRIeG5JLWZ6cXVBd1Ayd1JaeW80anpReC14dFpyc2plamc,English,,4,2014-08-24,Arpit Shah,,nice,,
WordPress,Google Play,org.wordpress.android,Z3A6QU9xcFRPRjB6TkZleWE5VHQ5elprUk83S1d4WTBRLWVxVmotNzQ5VjNXeE1NMF9aVUZnT2FXaDFLOUNGV19LUTRfN25ra3YyMm1QTkpwYXpuQXdidHc,English,,4,2014-08-24,Vinu Varughese Oommen,"Good, one impt feature missing",the is fast and way better the mobile site,,
WordPress,Google Play,org.wordpress.android,Z3A6QU9xcFRPRjB6TkZleWE5VHQ5elprUk83S1d4WTBRLWVxVmotNzQ5VjNXeE1NMF9aVUZnT2FXaDFLOUNGV19LUTRfN25ra3YyMm1QTkpwYXpuQXdidHc,English,,4,2014-08-24,Vinu Varughese Oommen,"Good, one impt feature missing",why is the co schedule option to create message missing in the please add feature,,
WordPress,Google Play,org.wordpress.android,Z3A6QU9xcFRPR0I2MUdDNXpEdGg1eFZmQ21JYzhzRnAzUHJnN0lGNzFXOGhHcjhWRmxsU21WWmJWSnlBYUpqRm93VUxJaUpZR3VYMkx6XzBYNFpPSWNnWHc,English,,4,2014-08-24,Nida Zubair,Doesn't work.,is amazing and the make it even more fun,,
WordPress,Google Play,org.wordpress.android,Z3A6QU9xcFRPR0I2MUdDNXpEdGg1eFZmQ21JYzhzRnAzUHJnN0lGNzFXOGhHcjhWRmxsU21WWmJWSnlBYUpqRm93VUxJaUpZR3VYMkx6XzBYNFpPSWNnWHc,English,,4,2014-08-24,Nida Zubair,Doesn't work.,the have the basic functionality with some cool feature too,,
WordPress,Google Play,org.wordpress.android,Z3A6QU9xcFRPR0I2MUdDNXpEdGg1eFZmQ21JYzhzRnAzUHJnN0lGNzFXOGhHcjhWRmxsU21WWmJWSnlBYUpqRm93VUxJaUpZR3VYMkx6XzBYNFpPSWNnWHc,English,,4,2014-08-24,Nida Zubair,Doesn't work.,there are a few glitch can be rid and the made better,,
WordPress,Google Play,org.wordpress.android,Z3A6QU9xcFRPR0I2MUdDNXpEdGg1eFZmQ21JYzhzRnAzUHJnN0lGNzFXOGhHcjhWRmxsU21WWmJWSnlBYUpqRm93VUxJaUpZR3VYMkx6XzBYNFpPSWNnWHc,English,,4,2014-08-24,Nida Zubair,Doesn't work.,but over all it a fine,,
WordPress,Google Play,org.wordpress.android,Z3A6QU9xcFRPR3BPSklCMVBfZm1ZbHdOUXdtR0V1T3Vjdno3TWZNbFNabHpSUGJwamhKTW0wNktsVWZlWUVadzNxZ2VhcGtIX2ViOGxjaWlTYjhMMlhwR2c,English,,4,2014-08-24,Emmanuel Marshall,one big flaw,so easy to publish a new post,,
WordPress,Google Play,org.wordpress.android,Z3A6QU9xcFRPR3BPSklCMVBfZm1ZbHdOUXdtR0V1T3Vjdno3TWZNbFNabHpSUGJwamhKTW0wNktsVWZlWUVadzNxZ2VhcGtIX2ViOGxjaWlTYjhMMlhwR2c,English,,4,2014-08-24,Emmanuel Marshall,one big flaw,thank you,,
WordPress,Google Play,org.wordpress.android,Z3A6QU9xcFRPR3BPSklCMVBfZm1ZbHdOUXdtR0V1T3Vjdno3TWZNbFNabHpSUGJwamhKTW0wNktsVWZlWUVadzNxZ2VhcGtIX2ViOGxjaWlTYjhMMlhwR2c,English,,4,2014-08-24,Emmanuel Marshall,one big flaw,love the,,
WordPress,Google Play,org.wordpress.android,Z3A6QU9xcFRPR3BPSklCMVBfZm1ZbHdOUXdtR0V1T3Vjdno3TWZNbFNabHpSUGJwamhKTW0wNktsVWZlWUVadzNxZ2VhcGtIX2ViOGxjaWlTYjhMMlhwR2c,English,,4,2014-08-24,Emmanuel Marshall,one big flaw,love the simplicity,,
WordPress,Google Play,org.wordpress.android,Z3A6QU9xcFRPR09xUks2eFd4NHAxdF9qQWFyNE9JQTdxZHQ1Q0V1YUhhWl9mbTdyOFlwNU5BY0FjRmxYeU5QRlpDZGZtbno5LXF1d1gwdXdMb0pxV0d3bnc,English,,3,2014-08-24,Moiz Afzal,Post failed,every time i post something it show the post is failed to upload,,
WordPress,Google Play,org.wordpress.android,Z3A6QU9xcFRPR09xUks2eFd4NHAxdF9qQWFyNE9JQTdxZHQ1Q0V1YUhhWl9mbTdyOFlwNU5BY0FjRmxYeU5QRlpDZGZtbno5LXF1d1gwdXdMb0pxV0d3bnc,English,,3,2014-08-24,Moiz Afzal,Post failed,3 or 5 attempt it upload my post,,
WordPress,Google Play,org.wordpress.android,Z3A6QU9xcFRPR09xUks2eFd4NHAxdF9qQWFyNE9JQTdxZHQ1Q0V1YUhhWl9mbTdyOFlwNU5BY0FjRmxYeU5QRlpDZGZtbno5LXF1d1gwdXdMb0pxV0d3bnc,English,,3,2014-08-24,Moiz Afzal,Post failed,i will give 5 star you solve the problem please,,
WordPress,Google Play,org.wordpress.android,Z3A6QU9xcFRPR0w1djdzZFJ2U1Z5ZWM3QmpFWFlJcVRKcXVkVU5URzhWd2RESjZBY2xsT0xCbEdCY3AzaUVSbTljSlRqa0VfWGFvU1dXMTJjc3h1c2NwZkE,English,,5,2014-08-23,Putu Suwariyawan,Good,good,,
WordPress,Google Play,org.wordpress.android,Z3A6QU9xcFRPRks0QjhGN0VocnFlQ09GenVPOGl4XzlNcjJMbDF5ZnNlVU43TmgtTUotRmMwUXZyMGNJcU1vSTlJMFBlZ2ZkemZ1MzllcEVuVUhJNWVFaFE,English,,4,2014-08-23,M. Romeo LaFlamme,,there is a learning curve but overall it is a nice gateway to my,,
WordPress,Google Play,org.wordpress.android,Z3A6QU9xcFRPRTlNbGFvY0Q1VGZtbllOUEVaejVDTGtnZUhPTXZyaXhndDNFcmx3QzdsVzB1UzBDRzBOa1JRUE9sWXAxOHFxNWlWSjh2S3hMajRLTWtqS2c,English,,5,2014-08-23,Laguerre Carlos,Readable,long a i can read the review it all right for me,,
WordPress,Google Play,org.wordpress.android,Z3A6QU9xcFRPRmhBNEZJcTUtTDNfZVdKNDBCSGRPX2VtbjN1MWh6WF9rYy1UOUl0X2lyQjY3VWtLemxtZXQxYW42a21ycVZ6M3VvTWVqSWlLbjhIYV9jcGc,English,,5,2014-08-23,"eleanor Hawkinsunter,sc",Word press,outstanding,,
WordPress,Google Play,org.wordpress.android,Z3A6QU9xcFRPRmhBNEZJcTUtTDNfZVdKNDBCSGRPX2VtbjN1MWh6WF9rYy1UOUl0X2lyQjY3VWtLemxtZXQxYW42a21ycVZ6M3VvTWVqSWlLbjhIYV9jcGc,English,,5,2014-08-23,"eleanor Hawkinsunter,sc",Word press,software,,
WordPress,Google Play,org.wordpress.android,Z3A6QU9xcFRPSHhZQ2FMeWo5RF9kMXdMbUZPNmJMOFpxckRPckF3MXJrSm5oNEk0c3JIYjR5UFBQZlFWU2lmbG5wTTdiQU9RT1lWcDdqbUNnMjRuRzdOd1E,English,,3,2014-08-23,Cromwell Bayon,Great if this will be fixed.,sometimes the say medium upload error and i try to update it back now found several duplicate of all the attached image,,
WordPress,Google Play,org.wordpress.android,Z3A6QU9xcFRPSFhTS21QMWpwNkwyS1c1RVNrZy02eFFhTVdSZXVwQ2xpLV9kZzY1R1hIMEpQUlRUOVZaOXdWYmsxNVdpZWZrdW9vMkJYdTV2Y0w2ZkJwY1E,English,,5,2014-08-22,Nwoko Chuksy,,great,,
WordPress,Google Play,org.wordpress.android,Z3A6QU9xcFRPSFhTS21QMWpwNkwyS1c1RVNrZy02eFFhTVdSZXVwQ2xpLV9kZzY1R1hIMEpQUlRUOVZaOXdWYmsxNVdpZWZrdW9vMkJYdTV2Y0w2ZkJwY1E,English,,5,2014-08-22,Nwoko Chuksy,,i love it,,
WordPress,Google Play,org.wordpress.android,Z3A6QU9xcFRPRlFtT2djcnFsaEpTenVIMWpoT1ZVRzdoSURKWmZEUHFyZlFFY3RFRThCd1MzbWtLa1dWa0pVbUJCNWFDdnBYSERvdFNPajZzVmxldVZzMlE,English,,5,2014-08-22,Pyi Tha Linn,,,,
WordPress,Google Play,org.wordpress.android,Z3A6QU9xcFRPRzJzOWN6SmtLWDd4VURwWjd4bjJvZ0dfaHpuRmJJY3RyeGN6RmJuYmxyNmJqRDNVa201alV4c1lseUFDWk1rWjFIel9NcGxjY3hWY3hhQWc,English,,3,2014-08-22,Novita Anggraini,Good Enough,nice but quite difficult i want resize the photo in article,,
WordPress,Google Play,org.wordpress.android,Z3A6QU9xcFRPR0l5RlROS2dMS0VLR0hMbWJJQWRmRHg4QTVTemQ4SUlPV3Q4NnhLN28zRF9FWjY4Vm5JenNTNGQ3a1RhMHlSOFR0LWJZX2RXUUtBaE5RaUE,English,,5,2014-08-22,Hellen Masido,,love,,
WordPress,Google Play,org.wordpress.android,Z3A6QU9xcFRPR0l5RlROS2dMS0VLR0hMbWJJQWRmRHg4QTVTemQ4SUlPV3Q4NnhLN28zRF9FWjY4Vm5JenNTNGQ3a1RhMHlSOFR0LWJZX2RXUUtBaE5RaUE,English,,5,2014-08-22,Hellen Masido,,period,,
WordPress,Google Play,org.wordpress.android,Z3A6QU9xcFRPRXNHNlVic0JRRDk5dzBCRzZDaVNFcjJBbkpEa0ZzSnhWcTVVeTNMMGdCNlhjVDYtT2xSblBfSFBWczNXWFE0M3pXcXRpdFRpQmtGU3U3Ymc,English,,5,2014-08-21,syed azeem,,,,
WordPress,Google Play,org.wordpress.android,Z3A6QU9xcFRPRWNlZU1mNURYVFpfdkpWRGhIMUlxR2JhZFFvOXd0dTZfdHBNUll6OVl3LTM2cGlkd2tPMjFGY1JUVW9hLVo5eTRESDM3eVRlS3BtS0p2b0E,English,,4,2014-08-21,Freeman Little,Good to blog,word,,
WordPress,Google Play,org.wordpress.android,Z3A6QU9xcFRPRjR1QnpXR1cxNFlLbHFXZWx6anNSelJnVVpEWnlWUDEwcUltLTVPSmJQLUNQblpyeU51ZmgwcTJLWWNpVGtIaC03SE51eDlzZjRnOVJtQWc,English,,4,2014-08-21,Abhishek Raj,Please don't mix visual and HTML editor,can you please make two different tab so that a user can quickly switch between visual editor and the editor composing a post,,
WordPress,Google Play,org.wordpress.android,Z3A6QU9xcFRPRjR1QnpXR1cxNFlLbHFXZWx6anNSelJnVVpEWnlWUDEwcUltLTVPSmJQLUNQblpyeU51ZmgwcTJLWWNpVGtIaC03SE51eDlzZjRnOVJtQWc,English,,4,2014-08-21,Abhishek Raj,Please don't mix visual and HTML editor,would certainly make editing and composing a lot more productive,,
WordPress,Google Play,org.wordpress.android,Z3A6QU9xcFRPSExKSEVmRnkyWlppak1vdUEwaklrUVptVnhhRDdCYmFiMWhzb3IwTmJBYTNxbWl5UTE2MDZDTEtLYmZpbVVVNmxRdkd3R2hOUk1EWlkyQmc,English,,2,2014-08-21,Emilene T,Updating posts,i downloaded it so that i can write my post on my i am,,
WordPress,Google Play,org.wordpress.android,Z3A6QU9xcFRPSExKSEVmRnkyWlppak1vdUEwaklrUVptVnhhRDdCYmFiMWhzb3IwTmJBYTNxbWl5UTE2MDZDTEtLYmZpbVVVNmxRdkd3R2hOUk1EWlkyQmc,English,,2,2014-08-21,Emilene T,Updating posts,sadly it doe not update nor save my change,,
WordPress,Google Play,org.wordpress.android,Z3A6QU9xcFRPSExKSEVmRnkyWlppak1vdUEwaklrUVptVnhhRDdCYmFiMWhzb3IwTmJBYTNxbWl5UTE2MDZDTEtLYmZpbVVVNmxRdkd3R2hOUk1EWlkyQmc,English,,2,2014-08-21,Emilene T,Updating posts,,,
WordPress,Google Play,org.wordpress.android,Z3A6QU9xcFRPSExKSEVmRnkyWlppak1vdUEwaklrUVptVnhhRDdCYmFiMWhzb3IwTmJBYTNxbWl5UTE2MDZDTEtLYmZpbVVVNmxRdkd3R2hOUk1EWlkyQmc,English,,2,2014-08-21,Emilene T,Updating posts,i am better off writing on an email for post,,
WordPress,Google Play,org.wordpress.android,Z3A6QU9xcFRPRUtMa2psZ2gydnRfbnBhX255Q1pUelBXaWpHUmFwQXZWLVJ5cWd5dnZRZlMxUC04VExmQ1dkUC1ua0dvU25KUnRYNnhMWnA2S01XZWl3V3c,English,,5,2014-08-20,Manoj Kumar Singh,,perfect for lover,,
WordPress,Google Play,org.wordpress.android,Z3A6QU9xcFRPRmt1czJrLUhBNlJEcDhhR2RZTmJLSWk4bF90a0U3UnRJREVxZnVjc1d2UWRYY2o3Q3E5NUgzRXFkLVp3TlRoaTYzMlpBUERSb0tWc21pOUE,English,,3,2014-08-20,PINKCHEEKS CATER,,not it load for long,,
WordPress,Google Play,org.wordpress.android,Z3A6QU9xcFRPRmt4bjdLUnVtTmFLUG90OXNybXlFalFMN0Foc3R6dzB4ODBRWGlxSnZpVXlSTHRQSkRLQkVwVmpQUHViWjdWZ0tSeE82a1J2RFBzZjJkbGc,English,,5,2014-08-20,Noor Bahawi Mohammad Laila,I like it.,and easy function,,
WordPress,Google Play,org.wordpress.android,bGc6QU9xcFRPSHJOeHVTRDY3RVVDYjBjazNwV0dMTHJqcnFpYmZyRmZFeVllVXJJcjRYN2p3T3hwV1ZGenk4UHRvcHh4MjJfSWVma2dFOExBaGhENmZaWVE,English,,2,2014-08-20,A Google User,,forever freezing and force ell a picture not loading,,
WordPress,Google Play,org.wordpress.android,Z3A6QU9xcFRPRVVIN0VUcWViNXNTYjRIVFg1ak8xNE4xeWFrOTZsc3NRVnUzZUpOSTdxaVc3YnliRUQ1cnEtYV9fal9lWVJvM2lGTWpxVWtBSEwxem9iLWc,English,,5,2014-08-20,Irwan Gunawan,,very,,
WordPress,Google Play,org.wordpress.android,Z3A6QU9xcFRPRVVIN0VUcWViNXNTYjRIVFg1ak8xNE4xeWFrOTZsc3NRVnUzZUpOSTdxaVc3YnliRUQ1cnEtYV9fal9lWVJvM2lGTWpxVWtBSEwxem9iLWc,English,,5,2014-08-20,Irwan Gunawan,,good luck for,,
WordPress,Google Play,org.wordpress.android,bGc6QU9xcFRPR1JfZDBINUotdjFQbHg1bklSM0xlbUw5Z21tYkJuQTVUc1JiN2xDbEkycWIzbmRjdTdtQkhCd0FBY0JWd1FPQUxmdmtJTTF4T3VpTVVmX2c,English,,5,2014-08-20,A Google User,WP is cool,there no good a for me to,,
WordPress,Google Play,org.wordpress.android,Z3A6QU9xcFRPRld1cnFLcThLZzNBX05VbWFDaVNPejlOV3NvOEhXVWZoM0kxXzFXWTk2QnZNQXpET2JrMWJrUW9kMlgwN21aX3ZhZjRwX3ZueFRRMGc1R2c,English,,5,2014-08-20,ABHISHEK SRIVASTAVA,,good,,
WordPress,Google Play,org.wordpress.android,Z3A6QU9xcFRPRWxUQVRScGJmYk41YVlrSE90Nk5LeFU2eUhwc25FdzUzdlh6ZTd0MUVjQlpzTVVVYU5RWXUzbld4TDR6Z1dQT0FJZ2l5ZFdYblctUlA0SFE,English,,4,2014-08-20,EGBUNU EZEKIEL,,nice love it,,
WordPress,Google Play,org.wordpress.android,Z3A6QU9xcFRPRzMyY0xpaTMzZGoycW56anJNelA3ajZuZENKcjZ1TG5WcjR5QTZwY3BlTzYzM1FXS3dtbXk0cTZPd3AzQWFGbkRTSXN6MW02MEtRMFFzUXc,English,,5,2014-08-20,Angelini Sollistifani,Love,love,,
WordPress,Google Play,org.wordpress.android,Z3A6QU9xcFRPRmVhQi1PNm1fMUVYdVJkU0NienpxWnlsNkVqazl2WXQteGNiXy11UmwtRlVibXNuUmcwNDlpMVdGVUNCRDBaWFNKX3N5S2Rrb3RmYlVNcFE,English,,5,2014-08-20,Susheel Seth,,just what i needed,,
WordPress,Google Play,org.wordpress.android,Z3A6QU9xcFRPR2JMZGdvOTlSblMyNnUwTUtralA5Z1lkMWxCcmw1LW9RRm1KT0oyN19ick9JLW5BVmFjc2trUkdadFVWTUliWGtWUUxmaFBXVERBaTJxY1E,English,,4,2014-08-19,Joel Dávila,Good...,never found a,,
WordPress,Google Play,org.wordpress.android,Z3A6QU9xcFRPRkZvcVo0Q2hQTF81Ui1zUmVldVhQZjU3TkthdFkzbEZ6d2U0LW1JeXRUY1ZGSWlUWlFyTThJZW14UmNVdVprN0twdlJNaExTS2g5RmFELVE,English,,5,2014-08-19,Wanda Ricca,Amazing.,but still ha a lot of and everything is logical and easy,,
WordPress,Google Play,org.wordpress.android,Z3A6QU9xcFRPRkZvcVo0Q2hQTF81Ui1zUmVldVhQZjU3TkthdFkzbEZ6d2U0LW1JeXRUY1ZGSWlUWlFyTThJZW14UmNVdVprN0twdlJNaExTS2g5RmFELVE,English,,5,2014-08-19,Wanda Ricca,Amazing.,much better which ha almost and amazing on it own,,
WordPress,Google Play,org.wordpress.android,Z3A6QU9xcFRPRkZvcVo0Q2hQTF81Ui1zUmVldVhQZjU3TkthdFkzbEZ6d2U0LW1JeXRUY1ZGSWlUWlFyTThJZW14UmNVdVprN0twdlJNaExTS2g5RmFELVE,English,,5,2014-08-19,Wanda Ricca,Amazing.,i switched from to because it much better,,
WordPress,Google Play,org.wordpress.android,Z3A6QU9xcFRPRkZvcVo0Q2hQTF81Ui1zUmVldVhQZjU3TkthdFkzbEZ6d2U0LW1JeXRUY1ZGSWlUWlFyTThJZW14UmNVdVprN0twdlJNaExTS2g5RmFELVE,English,,5,2014-08-19,Wanda Ricca,Amazing.,now i cant live without it,,
WordPress,Google Play,org.wordpress.android,Z3A6QU9xcFRPRlZMQzVqdzBCUzdBQnpzNU5MMGI3RTUtazVaTFJ6M0Jid0pUVlNaWGYzd0F2UmxZX1JUOFh3SkR4Zm5GaTlPTUUycXFUQm5oVzBTNDJUVlE,English,,5,2014-08-19,Chris Denton,Words worth cumin 4,i dirty,,
WordPress,Google Play,org.wordpress.android,Z3A6QU9xcFRPSFhYR0NDQmxzeXp6X3BQMnZfdnRFRktXeFlsUExkOG13WGlBVW53WEF5TjZhMmlKSldJV1ZzaVlmUWlSUk92SUN5dl9EOXhiQ0wwaVd3c2c,English,,5,2014-08-19,Mohamed Anees,Good app,i like it,,
WordPress,Google Play,org.wordpress.android,Z3A6QU9xcFRPSE9kNWRqYnZrRUtOUkdicFk1cGp6dm5jdWVGd1FkZFJVQ1F3QjUxVXd4RTEtR3Nucm5sNWg2LThpUUVsdXh0M3pLaXRRTTIzUXdHc0dnV1E,English,,5,2014-08-19,Elva Yohani,I love it..,it easy to make me enjoy to create my daily note,,
WordPress,Google Play,org.wordpress.android,Z3A6QU9xcFRPSDg3clhxTWpBaGM4NmltZW95N19FN2V2T0hHMU9OUzFha2xMOUtUaGRTOERwbFp3WHdraU5GOFEwZkppQTFiVXVSS3Ywb0Rkb2VLV1BlcEE,English,,3,2014-08-19,javed Abbasi,Political crises in Pakistan,looking blood shed in,,
WordPress,Google Play,org.wordpress.android,Z3A6QU9xcFRPRXltbjBnMHU5OTdVZTkwZWw5Z3dCeUNhYk5ENXJ4WDRHbE80SGNHR2YxN0tnQ3BSRFpQakJVRHF5ZVdqVHpOWHhXZkZTSkRTX2QwQmlhemc,English,,5,2014-08-19,Zoe D.,,great,,
WordPress,Google Play,org.wordpress.android,Z3A6QU9xcFRPRk5uTWNsVW5LV3FQSWJlU0NRYzFyZzM0UFdrUGM1R2tZYllTaEVFTG5BakxyRGVhSnNYNGtXYWtlUk9WZU8yY3dDNVBtYkxkSnAxTHRjeGc,English,,3,2014-08-19,Anthony ayo,Good Work Wordpress,i love include in upgrade,,
WordPress,Google Play,org.wordpress.android,Z3A6QU9xcFRPSFVHN1FucExjWC1tdk5OdWhqdWpCMmtZQmkyaXlZOTBaZVpScW5XWVZ0Mkp0VjdXeEZyV19sWm12VXhtcV93c1hEdDUtSnFDakwzWVI5QUE,English,,5,2014-08-18,Asif Chowdhury,Have nothing to say.,i am loving it,,
WordPress,Google Play,org.wordpress.android,bGc6QU9xcFRPSHFUY0tNQVgtanFKSDU2U1pCbWY5SjlpRkJOZzVRWmgyWEdWMTJHVW5DT0t6N3NrYmwtYlR4Z09ZMkhxYjNaYWV4UGhxTXM2Qk5DV0F5Z3c,English,,4,2014-08-18,A Google User,Great Response from Developer,responded promptly to an issue which i great service from the team there,,
WordPress,Google Play,org.wordpress.android,Z3A6QU9xcFRPRl9HY2FmQm1jczRLZlF3VmVGMzZFQXVjU1NZUGdMOHZWQ19qdmc4YTV1aWpLNkJ3TGEwQ1dTc2RveEtkd0djMlBIWHVUMVlaSlJMZVNheVE,English,,5,2014-08-18,Ali Alaqaby,Amazing,really great and a hosting service,,
WordPress,Google Play,org.wordpress.android,Z3A6QU9xcFRPR2xvN2JUWXBtMWZCVHdRZ0JtTVhUTFk5VWNWTUZEajVkMjlDM3lieVA4OEJRUW45dUt2aDd5MUg0cGE5NDQzVVUxTklXWjRuYXBnR3pSR3c,English,,1,2014-08-18,Melissa Butch,Posts fail,after i have to delete 4 post because it publishes 5 post,,
WordPress,Google Play,org.wordpress.android,Z3A6QU9xcFRPR2xvN2JUWXBtMWZCVHdRZ0JtTVhUTFk5VWNWTUZEajVkMjlDM3lieVA4OEJRUW45dUt2aDd5MUg0cGE5NDQzVVUxTklXWjRuYXBnR3pSR3c,English,,1,2014-08-18,Melissa Butch,Posts fail,getting really old,,
WordPress,Google Play,org.wordpress.android,Z3A6QU9xcFRPRUQ5NTdGc2hFMW9IUTFyY0ZfampoYVF4MUgwUzRDZzhIZkhSem15WjkxbThpOHdoUVhHWWJic2FwVEMzc1ZlOXA2b1N0TkdrQ0t2Rkkya1E,English,,2,2014-08-18,Emorej Salif,All of a sudden images will not oost,i get a error message i try to post image,,
WordPress,Google Play,org.wordpress.android,Z3A6QU9xcFRPRUQ5NTdGc2hFMW9IUTFyY0ZfampoYVF4MUgwUzRDZzhIZkhSem15WjkxbThpOHdoUVhHWWJic2FwVEMzc1ZlOXA2b1N0TkdrQ0t2Rkkya1E,English,,2,2014-08-18,Emorej Salif,All of a sudden images will not oost,please fix thus,,
WordPress,Google Play,org.wordpress.android,Z3A6QU9xcFRPSHJ2RFBPQ3gtZ011YkdMZWxQTU9CWmFlWXRIZk5MMkliUzVzRndUcU96SUs1c2VkbUVCX0dJQ01udGt3eVRUeTU1WVVxdzZkQ2I2NVVOZWc,English,,5,2014-08-18,Mohassin Hassan,Awosone publisher app,simply perfect need some fix about speed post update,,
WordPress,Google Play,org.wordpress.android,Z3A6QU9xcFRPRWdCRzB6c0o0VUZWbUNCMGY0TlZoMGltSWNkYzA3RVpCTnRtbUVWSzc5MXFtVG1VUnFfajFBaG1DcjAzV1BxemJpb2cwN2FwdHc5aVcydkE,English,,5,2014-08-18,Diana Gonzalez Del Orbe,Blogger,love the simplicity,,
WordPress,Google Play,org.wordpress.android,Z3A6QU9xcFRPRi0zdWtRamR0UE1QUEtTd0hYZVFYa3Rfd1ItMFgyYkxsWF9yTGFGNGotM3lKekEzUkhlc184QWhuNkRYeXJBYmRGbU5EaEVUamxJOGRrcWc,English,,5,2014-08-18,Graves Nikia,,great,,
WordPress,Google Play,org.wordpress.android,Z3A6QU9xcFRPRXlOVHFXcTRYeHA3TUNTbnJkbUZwUGowRHdzZEdXQ3ViZEh5cUlkTWx6OC1tSFBJblhrVVNrRnZmSV91MTY0cy1TV2MwdEVMdU9PdlAyV1E,English,,5,2014-08-18,Sarang Pitale,Good App.,really a great application to on the go,,
WordPress,Google Play,org.wordpress.android,Z3A6QU9xcFRPRXlOVHFXcTRYeHA3TUNTbnJkbUZwUGowRHdzZEdXQ3ViZEh5cUlkTWx6OC1tSFBJblhrVVNrRnZmSV91MTY0cy1TV2MwdEVMdU9PdlAyV1E,English,,5,2014-08-18,Sarang Pitale,Good App.,like it,,
WordPress,Google Play,org.wordpress.android,Z3A6QU9xcFRPRnlXZjZGQkp5WVhUYnpVdFcteHM2MzNyRFAtc0ZaUUF0MXpUX0xxOUlrSmlZQUN1RTAzODhadXhsbnhQcGZnOEl4WXBUUV9wVWU3VGxCQWc,English,,5,2014-08-17,Mike Garcia,Great app,very useful,,
WordPress,Google Play,org.wordpress.android,Z3A6QU9xcFRPRlFmWjhlcFhrZlo0dVduekJzcGZ2LVRXd09BYjg4eFZiRk83OWR2dFg1dnE4VkVLZzNoZDFMU2NzMEVoNUFybHJvV2lUVnlQcWNEclFkdHc,English,,5,2014-08-17,Matt Bowman,just what I,need,,
WordPress,Google Play,org.wordpress.android,Z3A6QU9xcFRPR0RocW1QRTd0UGdHdlZmUVJib3Q0MHNhR0F3cVRXekNaUDRKLVM3c2k5dVUtTHJJRVh5eEh2S2xiMXZNVnUzcUpMaFYzZWZLcUQwV25tREE,English,,3,2014-08-17,Mary Roxas,Working but not exceptional performance,uploading photo still nightmarish i continue to post from the,,
WordPress,Google Play,org.wordpress.android,Z3A6QU9xcFRPSEhIRzgyWWpzcUY3OEFEMzl3djM3S0k0cC1PbFhva254Y3pTMFp3UUpfRFhTaEFhemdZQUFRejV2VDJDdWFuWkRXczQzQV9iMXBKT3dJcmc,English,,5,2014-08-17,zahidah murira,Simply the best,new to never thought it would be this easy and manageable,,
WordPress,Google Play,org.wordpress.android,Z3A6QU9xcFRPSDViYVRFbXF2T2JnclN5bG1MZHRJeHY3ampHYlFSTnpnNENPUkJwUHMzY1I5aExBQlVGMVVGM1JncUx0ekhuMjRYT0hFcWJBYlg1Y0dLTXc,English,,5,2014-08-17,Lutendo Raymond Mabata,,great,,
WordPress,Google Play,org.wordpress.android,Z3A6QU9xcFRPRllIN05WUkpEQ1dIZ2xFOG5STUh3akdZdzQ3d1ZkeldkSjQ4VDk2Z0lIN1otX2hkQXlJUXFwcXNGQzBkbmVmMlloUkx5VVVxRXE5NGZLb0E,English,,5,2014-08-17,vikas choudhary,Good work,it is very good for knowledge sharing,,
WordPress,Google Play,org.wordpress.android,Z3A6QU9xcFRPRllIN05WUkpEQ1dIZ2xFOG5STUh3akdZdzQ3d1ZkeldkSjQ4VDk2Z0lIN1otX2hkQXlJUXFwcXNGQzBkbmVmMlloUkx5VVVxRXE5NGZLb0E,English,,5,2014-08-17,vikas choudhary,Good work,articled from eminent writer make it outstanding,,
WordPress,Google Play,org.wordpress.android,Z3A6QU9xcFRPSEtwdEZiSlFsa0V4R043Nm1ZUUNBREhINmR6cS1hU0ZvbENWT0x2cWRyRnFqMDEtWElvSFdYaUxqWm1mZVhUdTI4bGJLZGJOMHVvSGc4Z0E,English,,5,2014-08-17,adicherla shravan kumar,,it is good for new generation,,
WordPress,Google Play,org.wordpress.android,Z3A6QU9xcFRPSHJ2OGpicV9oWTBNNTlaWUticzhhSEl3V0NUU0F2MmNfZExfbkpwbHZqV01DVHpUS2ZIMnRjWi1EbFJkbW00YS14VHB2UDAzVlAtSVVRWXc,English,,5,2014-08-17,Anirudh Babbar,,perfect,,
WordPress,Google Play,org.wordpress.android,Z3A6QU9xcFRPRjVHdWsxTEpjOV9qa2RwQzFyNHM0bDVrWEkxLWs5a0ZCeU5SaEY4czVQLXlWaEFENEthVzYxNGZwNlFCc081c01OaVVjTnFjd3Z4amNuOXc,English,,5,2014-08-16,Donna Taylor,,absolutely brilliant in my opinion,,
WordPress,Google Play,org.wordpress.android,Z3A6QU9xcFRPRjRRcDJydnVKOUdZSFNJN0ZFdnZsX19wNE51YU1PZHZ5bVdyMDRLXzdQYkZxXzdNOWVhUmVmV2ptYUxOc2Q5UVI5TWh5aHBGU3RCYWU5WkE,English,,5,2014-08-16,Christopher Dryden,Brilliant for Blogging,i regularly and this is superb for that especially it come to just text,,
WordPress,Google Play,org.wordpress.android,Z3A6QU9xcFRPSGdzdUt1SmphLVpFNWZNc1BJNkpfdUVHVllucGYyUTBOQ3hxeXA5MFNKNHI1R0NCbzZWZ19Wb2dUcWVXem5kXy1iY3c5aUk3TnRJY05NeUE,English,,5,2014-08-16,Stephen Ganous,Love It,love,,
WordPress,Google Play,org.wordpress.android,Z3A6QU9xcFRPSGdzdUt1SmphLVpFNWZNc1BJNkpfdUVHVllucGYyUTBOQ3hxeXA5MFNKNHI1R0NCbzZWZ19Wb2dUcWVXem5kXy1iY3c5aUk3TnRJY05NeUE,English,,5,2014-08-16,Stephen Ganous,Love It,work great,,
WordPress,Google Play,org.wordpress.android,Z3A6QU9xcFRPRmtvaUl4bW9Jb0w0QkpPYkV1cGZjSzdZejl4dk9SSzRKX3NHSVBPeWJtVjV0QWlGZmxMWEE4amJqWk5CUVcxWjdaazI0RllkbWxqbjFfcEE,English,,4,2014-08-16,Isiac DaGraca,Great app but featured images is broken,please fix featured image,,
WordPress,Google Play,org.wordpress.android,Z3A6QU9xcFRPRmtvaUl4bW9Jb0w0QkpPYkV1cGZjSzdZejl4dk9SSzRKX3NHSVBPeWJtVjV0QWlGZmxMWEE4amJqWk5CUVcxWjdaazI0RllkbWxqbjFfcEE,English,,4,2014-08-16,Isiac DaGraca,Great app but featured images is broken,putting them in the post itself is not effective at all,,
WordPress,Google Play,org.wordpress.android,Z3A6QU9xcFRPRmtvaUl4bW9Jb0w0QkpPYkV1cGZjSzdZejl4dk9SSzRKX3NHSVBPeWJtVjV0QWlGZmxMWEE4amJqWk5CUVcxWjdaazI0RllkbWxqbjFfcEE,English,,4,2014-08-16,Isiac DaGraca,Great app but featured images is broken,a simple set featured image box is all i need,,
WordPress,Google Play,org.wordpress.android,Z3A6QU9xcFRPRmtvaUl4bW9Jb0w0QkpPYkV1cGZjSzdZejl4dk9SSzRKX3NHSVBPeWJtVjV0QWlGZmxMWEE4amJqWk5CUVcxWjdaazI0RllkbWxqbjFfcEE,English,,4,2014-08-16,Isiac DaGraca,Great app but featured images is broken,also support for custom field would be nice for post format,,
WordPress,Google Play,org.wordpress.android,Z3A6QU9xcFRPRmtvaUl4bW9Jb0w0QkpPYkV1cGZjSzdZejl4dk9SSzRKX3NHSVBPeWJtVjV0QWlGZmxMWEE4amJqWk5CUVcxWjdaazI0RllkbWxqbjFfcEE,English,,4,2014-08-16,Isiac DaGraca,Great app but featured images is broken,also thank you for multiple support,,
WordPress,Google Play,org.wordpress.android,Z3A6QU9xcFRPR0xqYm5CNENUcVdQOHpQTkpvTlBWM0dBTWdwemF6M2VIajZNbUJsNUNNNGFUMGhuNnJ5NS1DMWMzd2pJdVpLQTBEWEYzRnpNUUpLUlFaX2c,English,,5,2014-08-16,Dr. AKHIL VYAS,Awesome,i m using this,,
WordPress,Google Play,org.wordpress.android,Z3A6QU9xcFRPR0xqYm5CNENUcVdQOHpQTkpvTlBWM0dBTWdwemF6M2VIajZNbUJsNUNNNGFUMGhuNnJ5NS1DMWMzd2pJdVpLQTBEWEYzRnpNUUpLUlFaX2c,English,,5,2014-08-16,Dr. AKHIL VYAS,Awesome,it awesome,,
WordPress,Google Play,org.wordpress.android,Z3A6QU9xcFRPR0xqYm5CNENUcVdQOHpQTkpvTlBWM0dBTWdwemF6M2VIajZNbUJsNUNNNGFUMGhuNnJ5NS1DMWMzd2pJdVpLQTBEWEYzRnpNUUpLUlFaX2c,English,,5,2014-08-16,Dr. AKHIL VYAS,Awesome,now i can write my from mobile,,
WordPress,Google Play,org.wordpress.android,Z3A6QU9xcFRPR0xqYm5CNENUcVdQOHpQTkpvTlBWM0dBTWdwemF6M2VIajZNbUJsNUNNNGFUMGhuNnJ5NS1DMWMzd2pJdVpLQTBEWEYzRnpNUUpLUlFaX2c,English,,5,2014-08-16,Dr. AKHIL VYAS,Awesome,it easy and best,,
WordPress,Google Play,org.wordpress.android,Z3A6QU9xcFRPR0xqYm5CNENUcVdQOHpQTkpvTlBWM0dBTWdwemF6M2VIajZNbUJsNUNNNGFUMGhuNnJ5NS1DMWMzd2pJdVpLQTBEWEYzRnpNUUpLUlFaX2c,English,,5,2014-08-16,Dr. AKHIL VYAS,Awesome,with,,
WordPress,Google Play,org.wordpress.android,Z3A6QU9xcFRPRTVmRE5tOTJ3cU5NUFVNUHMtQ0hLYlk0MWpyb0NfejJJX1E4NC1IdWlwaVdyZlFlM1Q3YWRsUFFpN19vWG5FdkhRNXB4XzFDVXVmTVplT3c,English,,5,2014-08-16,b roy,,nice,,
WordPress,Google Play,org.wordpress.android,Z3A6QU9xcFRPSHQtT0xpVDFZVXcyUmNKRjlrMmZSSnlsV2ljOE1pcnpTMG54MnpMUXVRYW0tM1ZlQWhyTFpkWmFDdlpkMlJtaGtiWEo1REJyVXVsc1ZrSUE,English,,5,2014-08-16,Ambika Gopinath,Good,good,,
WordPress,Google Play,org.wordpress.android,Z3A6QU9xcFRPSHQtT0xpVDFZVXcyUmNKRjlrMmZSSnlsV2ljOE1pcnpTMG54MnpMUXVRYW0tM1ZlQWhyTFpkWmFDdlpkMlJtaGtiWEo1REJyVXVsc1ZrSUE,English,,5,2014-08-16,Ambika Gopinath,Good,not bad,,
WordPress,Google Play,org.wordpress.android,Z3A6QU9xcFRPRnM0SFVId3c0MWhRcXp3SGZKa2FjOHh2ajF6RExRZFp1aFlHVTFrd2syR0ptSTdRVmJHelZOZlE2Z2NJRmIxbEVtb1k0UnpnMWI2U1J4akE,English,,5,2014-08-16,Rusman R. Manik,Good!,,,
WordPress,Google Play,org.wordpress.android,Z3A6QU9xcFRPRUl6ZTQzOUZ0NGFuQ1B6bFlYaVk4N2xfWm1YWV9aY2NfeFN6S3FtczRmVHR0c1NwMWhRZk5OUzEzLU9LOXVITFBQMHJWWGxIMVpZaVBzVHc,English,,3,2014-08-16,dishank shah,ErrOrs!,i come across a whole new world of error like error no peer unfortunately ha stopped this or email address is not incorrect password,,
WordPress,Google Play,org.wordpress.android,Z3A6QU9xcFRPR1p1cDVmVWMtRF9Pd0RndEVONUYwMFY0UGJGanBDYVJLYWtwQzJFUFEwby1mYWVZY2tsXzNJQ29jZ1lfWjBybDdvRk96Q0w3SVJzTGozWkE,English,,5,2014-08-15,Abinash Anonymity,Grt app,o yes,,
WordPress,Google Play,org.wordpress.android,Z3A6QU9xcFRPRk5QWWRJUzZxZW5qQVg1NmhZdWtCVExUcXRuemVJTG5Lb04wZjNqRGpCRGRiaTFvNkhWMjhDNUUzMGl2WThsSV90NlQwQkhVUlB3VFMzcXc,English,,4,2014-08-15,Vince Pass,Its cool.,i like it need more flexibility in choosing background for post,,
WordPress,Google Play,org.wordpress.android,Z3A6QU9xcFRPRTNkV2lWN3duMWZGT2RVUE1FZk5YaTJCTkJnTFJQaEtfV044OTh2bnNLXzFxWU9MT3AtWTlYcXIyYXB3dzRBb2o2Y1k1cWFaR3hZMjY4MlE,English,,5,2014-08-15,John Dillinger,Excellent,i love to have it,,
WordPress,Google Play,org.wordpress.android,Z3A6QU9xcFRPRVBjV3VVMTFoWUIzSkZNSEtjbGk5ZHl6OWwwb0lpXzAwWmpPMUpRX01XUXBLZHhUTlNwd3YwR0tMNjB1NGlRbFVwWU1TYW1vQUVFaEFmdWc,English,,4,2014-08-15,azzura mustapha,,great for and sharing photo and moment,,
WordPress,Google Play,org.wordpress.android,Z3A6QU9xcFRPRVBjV3VVMTFoWUIzSkZNSEtjbGk5ZHl6OWwwb0lpXzAwWmpPMUpRX01XUXBLZHhUTlNwd3YwR0tMNjB1NGlRbFVwWU1TYW1vQUVFaEFmdWc,English,,4,2014-08-15,azzura mustapha,,some of the feature are confusing to use,,
WordPress,Google Play,org.wordpress.android,Z3A6QU9xcFRPRktWZFk2MnZIazRIMkxiRDVJaGYyQmJOa2ZiNlcxcW1uZHh6eHNjdzN1MTNRZE56Ukx4UWQ4WkxYSy05TER6Snpqd2JWR1B2eXNtZE5EblE,English,,1,2014-08-15,aasimali aasimali,Loss of time,save your time,,
WordPress,Google Play,org.wordpress.android,Z3A6QU9xcFRPSFR5QnJtRXIyRDRpOFpvdEpEdkFyZHMzQ29UV2hWZGszZENvVnk1a1R2bVZxMEZRaVVmaHJMeUEzY3hUa3pURlR3Y2YzdTkyQlRVTEVBWWc,English,,2,2014-08-15,Raj Shrestha,,6,,
WordPress,Google Play,org.wordpress.android,Z3A6QU9xcFRPSEkyMUU3RmQzdXN0R28xSUk4clAxd0YtcU5KaDhkSGRSS0cyaGJGOEY1UWNDRlB5bmw0QU54SEswTzZBdERqWVpvendhVUR6N2pnbXd4Y2c,English,,4,2014-08-15,Elica Dobreva,,like it,,
WordPress,Google Play,org.wordpress.android,Z3A6QU9xcFRPSFRlZzE5REZZQTVMbHRLWFpzbWNkM3JPcFRIeFZfcWVXZmtkdmMwSEZlMUpxWGZuYkdHc3dmdHZJNGtzWU9UWTFKSUMwWDl6S0Zhc3lBVVE,English,,2,2014-08-15,Jose Brand,Photos aren't posting,the photo do not post,,
WordPress,Google Play,org.wordpress.android,Z3A6QU9xcFRPSFRlZzE5REZZQTVMbHRLWFpzbWNkM3JPcFRIeFZfcWVXZmtkdmMwSEZlMUpxWGZuYkdHc3dmdHZJNGtzWU9UWTFKSUMwWDl6S0Zhc3lBVVE,English,,2,2014-08-15,Jose Brand,Photos aren't posting,i am really looking forward to using this all it work,,
WordPress,Google Play,org.wordpress.android,Z3A6QU9xcFRPSFRlZzE5REZZQTVMbHRLWFpzbWNkM3JPcFRIeFZfcWVXZmtkdmMwSEZlMUpxWGZuYkdHc3dmdHZJNGtzWU9UWTFKSUMwWDl6S0Zhc3lBVVE,English,,2,2014-08-15,Jose Brand,Photos aren't posting,still not working the last update,,
WordPress,Google Play,org.wordpress.android,Z3A6QU9xcFRPRlROMlZvLVB3R24wYVNJbDhRRURqX2c1OXM5ZGw1MzhsUWZudHBwalpfRldHenRmTVFHUDgxbk1sbFVNYlJ4XzBSaGRobnBMLTVZYWFrVmc,English,,1,2014-08-15,Elisabeth S Reinsertsen,Fantastic when it works,i got i tried to post,,
WordPress,Google Play,org.wordpress.android,Z3A6QU9xcFRPRlROMlZvLVB3R24wYVNJbDhRRURqX2c1OXM5ZGw1MzhsUWZudHBwalpfRldHenRmTVFHUDgxbk1sbFVNYlJ4XzBSaGRobnBMLTVZYWFrVmc,English,,1,2014-08-15,Elisabeth S Reinsertsen,Fantastic when it works,will get back to 5 star i can use it again,,
WordPress,Google Play,org.wordpress.android,Z3A6QU9xcFRPRW0taWZoMXQwelhjVk1nYXBxaGY3eWNGRDZ1a1NJQ0ZBT2tWY3dvMGhCZ3RPTEhpNjZWVzE4R1FUVnVuVlhhNmFpWjhWdGRCV1IwT1RuQ2c,English,,2,2014-08-15,Alex H Yong,Warning!,not cool,,
WordPress,Google Play,org.wordpress.android,Z3A6QU9xcFRPRW0taWZoMXQwelhjVk1nYXBxaGY3eWNGRDZ1a1NJQ0ZBT2tWY3dvMGhCZ3RPTEhpNjZWVzE4R1FUVnVuVlhhNmFpWjhWdGRCV1IwT1RuQ2c,English,,2,2014-08-15,Alex H Yong,Warning!,2 star,,
WordPress,Google Play,org.wordpress.android,Z3A6QU9xcFRPRW0taWZoMXQwelhjVk1nYXBxaGY3eWNGRDZ1a1NJQ0ZBT2tWY3dvMGhCZ3RPTEhpNjZWVzE4R1FUVnVuVlhhNmFpWjhWdGRCV1IwT1RuQ2c,English,,2,2014-08-15,Alex H Yong,Warning!,i get confused i find myself and reinstalling,,
WordPress,Google Play,org.wordpress.android,Z3A6QU9xcFRPRW0taWZoMXQwelhjVk1nYXBxaGY3eWNGRDZ1a1NJQ0ZBT2tWY3dvMGhCZ3RPTEhpNjZWVzE4R1FUVnVuVlhhNmFpWjhWdGRCV1IwT1RuQ2c,English,,2,2014-08-15,Alex H Yong,Warning!,crazy i know,,
WordPress,Google Play,org.wordpress.android,Z3A6QU9xcFRPRW0taWZoMXQwelhjVk1nYXBxaGY3eWNGRDZ1a1NJQ0ZBT2tWY3dvMGhCZ3RPTEhpNjZWVzE4R1FUVnVuVlhhNmFpWjhWdGRCV1IwT1RuQ2c,English,,2,2014-08-15,Alex H Yong,Warning!,great productivity booster i recommend this to colleague,,
WordPress,Google Play,org.wordpress.android,Z3A6QU9xcFRPRW0taWZoMXQwelhjVk1nYXBxaGY3eWNGRDZ1a1NJQ0ZBT2tWY3dvMGhCZ3RPTEhpNjZWVzE4R1FUVnVuVlhhNmFpWjhWdGRCV1IwT1RuQ2c,English,,2,2014-08-15,Alex H Yong,Warning!,an update fixed another bizarre unrelated save issue,,
WordPress,Google Play,org.wordpress.android,Z3A6QU9xcFRPRi1aNVhheHhDWG54RjhETU1DR29MUmpDMjJNckpTb01pX2tvcVVwM3QyTVNIY29sd2xCMmd0RXhpX0E0cDVpWGEtN3Y3OWNJTjk5c0JzWkE,English,,4,2014-08-15,Niels van Dijk,It's getting beter andere better,the ha improved big time in the last 8 month,,
WordPress,Google Play,org.wordpress.android,Z3A6QU9xcFRPRi1aNVhheHhDWG54RjhETU1DR29MUmpDMjJNckpTb01pX2tvcVVwM3QyTVNIY29sd2xCMmd0RXhpX0E0cDVpWGEtN3Y3OWNJTjk5c0JzWkE,English,,4,2014-08-15,Niels van Dijk,It's getting beter andere better,instead of just writing simple it ha more advanced feature now,,
WordPress,Google Play,org.wordpress.android,Z3A6QU9xcFRPRi1aNVhheHhDWG54RjhETU1DR29MUmpDMjJNckpTb01pX2tvcVVwM3QyTVNIY29sd2xCMmd0RXhpX0E0cDVpWGEtN3Y3OWNJTjk5c0JzWkE,English,,4,2014-08-15,Niels van Dijk,It's getting beter andere better,keep up the great work,,
WordPress,Google Play,org.wordpress.android,Z3A6QU9xcFRPR1FLWHRhR0lENFZ0ZFNOZk1oYjRUVzJRdWJOSGVvWm5sNDc5WkVlVk9wRXk2d1dpQmJ1d3RWTkF4R1dERjh1QmY3d1RHeGhnVnllUG95dlE,English,,4,2014-08-14,Vickram Aadityaa,Good!,it could have been great,,
WordPress,Google Play,org.wordpress.android,Z3A6QU9xcFRPRldob251alp5NnZRN3A4MVdFUWJfM0QtTG1pb1ZnSTRGWmNhdUowcnpVSTdVdXFYQWxjaUFZV0k1S3JTVHZMcjRkMEtqam9VaUJzeWF3SGc,English,,5,2014-08-14,Asteria Agusti Rani,Works well for me,i like this,,
WordPress,Google Play,org.wordpress.android,Z3A6QU9xcFRPRldob251alp5NnZRN3A4MVdFUWJfM0QtTG1pb1ZnSTRGWmNhdUowcnpVSTdVdXFYQWxjaUFZV0k1S3JTVHZMcjRkMEtqam9VaUJzeWF3SGc,English,,5,2014-08-14,Asteria Agusti Rani,Works well for me,installed it in my blackberry and it worked well,,
WordPress,Google Play,org.wordpress.android,Z3A6QU9xcFRPRldob251alp5NnZRN3A4MVdFUWJfM0QtTG1pb1ZnSTRGWmNhdUowcnpVSTdVdXFYQWxjaUFZV0k1S3JTVHZMcjRkMEtqam9VaUJzeWF3SGc,English,,5,2014-08-14,Asteria Agusti Rani,Works well for me,this one for android is even better,,
WordPress,Google Play,org.wordpress.android,Z3A6QU9xcFRPRnZORGVSOWtXOHlnWXQxakphNjBiVWtkdHVFaUQzOU5ZYndpSmhDazBfdUpTNW1zM3BOdjFnQkdhU3lMYlNPU2tfcHF4Wm9aTWhjSkVwLXc,English,,5,2014-08-14,Mz. Brooklynn,Awesome,love this,,
WordPress,Google Play,org.wordpress.android,Z3A6QU9xcFRPRnZORGVSOWtXOHlnWXQxakphNjBiVWtkdHVFaUQzOU5ZYndpSmhDazBfdUpTNW1zM3BOdjFnQkdhU3lMYlNPU2tfcHF4Wm9aTWhjSkVwLXc,English,,5,2014-08-14,Mz. Brooklynn,Awesome,nothing like easy access to my right from my phone,,
WordPress,Google Play,org.wordpress.android,Z3A6QU9xcFRPR3JVbmxJSDVCZS1HeGZMSHBEUDY0eU1jZ182dVRPWVBVUFZpQUViSi1BbXBEbUhRZTNZNV9INGJRRjJEX3A0X0hOM1VOYnFLbC13UVU4b1E,English,,3,2014-08-14,Nicole Spurlock,Won't let me post,please fix,,
WordPress,Google Play,org.wordpress.android,Z3A6QU9xcFRPR2VXVkMtZTZ4QUNMY2dTdHlLdllFV3pzd0pBT1J6ejgxRlptY1VxN3NvVm9nV01YeENWcy1QbHBfby1YdVlmdjBOMFhXSU5pb2lydmtoQmc,English,,5,2014-08-14,Nitin Nair,Great,i like this keep me updated in world,,
WordPress,Google Play,org.wordpress.android,Z3A6QU9xcFRPSEM5UUlKMFFnS3FsWFloLXFBUk9xNVF1RXY2TzZUc1cwOWRldUFza0p4cTJuX2RvSXo0emY2UW02M1kwTEtNU3VUR0NJWS1QZGtCRDNHUkE,English,,5,2014-08-14,jacob mexin,Fantastic,help me write on the i can start it on my phone or tablet and pick up i left of on the computer seamlessly,,
WordPress,Google Play,org.wordpress.android,Z3A6QU9xcFRPSEM5UUlKMFFnS3FsWFloLXFBUk9xNVF1RXY2TzZUc1cwOWRldUFza0p4cTJuX2RvSXo0emY2UW02M1kwTEtNU3VUR0NJWS1QZGtCRDNHUkE,English,,5,2014-08-14,jacob mexin,Fantastic,love this,,
WordPress,Google Play,org.wordpress.android,Z3A6QU9xcFRPRVpnVnpfSmVoTVJDWXhBZFBGT3JJLTlTbm5HTkVPUi1uWDJQenpRQjJNdjVhNnVCeWRKenRPemlBNHZwUTYtWHlJRUV3aU9zNGRsS1BxR2c,English,,5,2014-08-14,Sunil Kumar,Great Development,very easy to create post,,
WordPress,Google Play,org.wordpress.android,Z3A6QU9xcFRPSDNsc2FGdXNidDN5RXIyV3VRUDFqSDlzYzRTSVlrc3U2NHZTTjhWa0I4SXV2bWlNYUNNcjctdkpEWUJRSlZQZEhQVmEyci1FTlZSdlE2cEE,English,,5,2014-08-14,Jeremy Williams,,i love it,,
WordPress,Google Play,org.wordpress.android,Z3A6QU9xcFRPRW55NXJOd3M0T1N0LUpOWHAxSEVLOU9JM1B3WW5EUmU0VHV1LWRIeFJoSkZ3eFRPQ0g4MG9xazNDMkZDNmlvMGhxTFN3ZmRxQ29pNUl4Rnc,English,,5,2014-08-14,Norman Muzanni,,great,,
WordPress,Google Play,org.wordpress.android,Z3A6QU9xcFRPRlAyMmNwUTZOOWFZU1lqSk43eWZHUFhmQk43MURGdmpJNGlOMDhDMVUyVnRzRTl3TUEyd0w3OGxvcllRRGpQenliOHZjV3VUMUZ5ZGdFR3c,English,,5,2014-08-14,Ammar Ali,It's perfect,all the feature the web version offer in mobile size,,
WordPress,Google Play,org.wordpress.android,Z3A6QU9xcFRPRlAyMmNwUTZOOWFZU1lqSk43eWZHUFhmQk43MURGdmpJNGlOMDhDMVUyVnRzRTl3TUEyd0w3OGxvcllRRGpQenliOHZjV3VUMUZ5ZGdFR3c,English,,5,2014-08-14,Ammar Ali,It's perfect,simply amazing,,
WordPress,Google Play,org.wordpress.android,Z3A6QU9xcFRPRktNR1Q2ckd4NTZDV0JxSGdoc0ZZQ25fNGhGUzd1UHQ2anpkT2lGN3h6bUJUcnVmN2NfSlBIMnZianpzcnpLWUxiNDc1NXJOYVVvNEJfb2c,English,,5,2014-08-14,Stillpool Monk,"Good, and getting better",ideal for creating new content and making quick edits on free or site,,
WordPress,Google Play,org.wordpress.android,Z3A6QU9xcFRPR1k3OWJZWUhJdFRGZkNFczlUQmlpay1zSzNKZW9kN3ExNm1jcUJGeDl5TVB1aDRMQTM1bE1DeFR0YlZ4OG5UV2dYT3dHbFg4UHVKQ256U2c,English,,1,2014-08-14,Anjana Rinne,Upsetting experience,this is useless,,
WordPress,Google Play,org.wordpress.android,Z3A6QU9xcFRPR1k3OWJZWUhJdFRGZkNFczlUQmlpay1zSzNKZW9kN3ExNm1jcUJGeDl5TVB1aDRMQTM1bE1DeFR0YlZ4OG5UV2dYT3dHbFg4UHVKQ256U2c,English,,1,2014-08-14,Anjana Rinne,Upsetting experience,i love my girlfriend me have a we post our but this is awful,,
WordPress,Google Play,org.wordpress.android,Z3A6QU9xcFRPR1k3OWJZWUhJdFRGZkNFczlUQmlpay1zSzNKZW9kN3ExNm1jcUJGeDl5TVB1aDRMQTM1bE1DeFR0YlZ4OG5UV2dYT3dHbFg4UHVKQ256U2c,English,,1,2014-08-14,Anjana Rinne,Upsetting experience,every time i tried to upload picture it worked for then hour of working on it everything just disappeared,,
WordPress,Google Play,org.wordpress.android,Z3A6QU9xcFRPRXFwdjRjOXFvOXJJWmJBdHFKZFpNRTNnWjlLLUdQYmlDdTctS0lDOFpuMzh0UmFPYjE1SDdPMEc0TmFWNV9BbmNsa2VOV3Y1LTJfNVhHTFE,English,,5,2014-08-14,wahyu hermawan,Awesome,this is what i need,,
