App,Store,App ID,Review ID,Country,Version,Rating,Date,Author,Subject,Body,Translated Subject,Translated Body
WordPress,Google Play,org.wordpress.android,Z3A6QU9xcFRPSDJKajNHSmREOXM4R0kzVE1iQzM5QktOR0lXcUVyU1hUS2FYU2NIeFp6MHJWQzBYT1BsZE1LWWZPSjVOR003TWhVN3FVaGdTb1RkS1FPd1E,English,,3,2016-05-03,latif mohammed,,cool,,
WordPress,Google Play,org.wordpress.android,Z3A6QU9xcFRPR24xWXNsS0otc2dMTDl5dUNna0EwYU1FRlpUUGlIWFVISTY1em04YXhhRTNOVlQ5M2lvMmRfLWUwb2JlNnVTQkRoUktLZ2c1Qmx5NWwxQXc,English,,1,2016-05-03,Gorvika Rao,Worse,i updated the today and it ha become worse,,
WordPress,Google Play,org.wordpress.android,Z3A6QU9xcFRPR24xWXNsS0otc2dMTDl5dUNna0EwYU1FRlpUUGlIWFVISTY1em04YXhhRTNOVlQ5M2lvMmRfLWUwb2JlNnVTQkRoUktLZ2c1Qmx5NWwxQXc,English,,1,2016-05-03,Gorvika Rao,Worse,such bad interface,,
WordPress,Google Play,org.wordpress.android,Z3A6QU9xcFRPR24xWXNsS0otc2dMTDl5dUNna0EwYU1FRlpUUGlIWFVISTY1em04YXhhRTNOVlQ5M2lvMmRfLWUwb2JlNnVTQkRoUktLZ2c1Qmx5NWwxQXc,English,,1,2016-05-03,Gorvika Rao,Worse,irritating,,
WordPress,Google Play,org.wordpress.android,Z3A6QU9xcFRPR24xWXNsS0otc2dMTDl5dUNna0EwYU1FRlpUUGlIWFVISTY1em04YXhhRTNOVlQ5M2lvMmRfLWUwb2JlNnVTQkRoUktLZ2c1Qmx5NWwxQXc,English,,1,2016-05-03,Gorvika Rao,Worse,wish i could just undo it,,
WordPress,Google Play,org.wordpress.android,Z3A6QU9xcFRPRVlRUTdTUUlwTDRTY1ZJNlpxVUVfczFodnhVdzZBaE56MFZDVjROQmJWSzZhM1NmLXM5V3E5NVVZX2FuUVA2Qy1YdWxRaVctOHBxT2R3RlE,English,,4,2016-05-03,Progyadeep Moulik,Good so far.,i have a,,
WordPress,Google Play,org.wordpress.android,Z3A6QU9xcFRPRVlRUTdTUUlwTDRTY1ZJNlpxVUVfczFodnhVdzZBaE56MFZDVjROQmJWSzZhM1NmLXM5V3E5NVVZX2FuUVA2Qy1YdWxRaVctOHBxT2R3RlE,English,,4,2016-05-03,Progyadeep Moulik,Good so far.,the let me do everything i need to,,
WordPress,Google Play,org.wordpress.android,Z3A6QU9xcFRPRVlRUTdTUUlwTDRTY1ZJNlpxVUVfczFodnhVdzZBaE56MFZDVjROQmJWSzZhM1NmLXM5V3E5NVVZX2FuUVA2Qy1YdWxRaVctOHBxT2R3RlE,English,,4,2016-05-03,Progyadeep Moulik,Good so far.,the most helpful thing is i can add code in the post editing area and they actually effect,,
WordPress,Google Play,org.wordpress.android,Z3A6QU9xcFRPRWVoV09yNml2VTZWQXlySWQ5bmdtRTBSVVc0Vk1ONEdPaF9WTGhtWDF2dkRvblJHNU5qRVhqWkZwS1ZuY3FvMC0tWjEwemxwYkNqaE5nOUE,English,,1,2016-05-03,vaidehi sharma,Recent update has screwed up,i am unable to upload any of my post of high data speed,,
WordPress,Google Play,org.wordpress.android,Z3A6QU9xcFRPRWVoV09yNml2VTZWQXlySWQ5bmdtRTBSVVc0Vk1ONEdPaF9WTGhtWDF2dkRvblJHNU5qRVhqWkZwS1ZuY3FvMC0tWjEwemxwYkNqaE5nOUE,English,,1,2016-05-03,vaidehi sharma,Recent update has screwed up,irritating,,
WordPress,Google Play,org.wordpress.android,Z3A6QU9xcFRPRWVoV09yNml2VTZWQXlySWQ5bmdtRTBSVVc0Vk1ONEdPaF9WTGhtWDF2dkRvblJHNU5qRVhqWkZwS1ZuY3FvMC0tWjEwemxwYkNqaE5nOUE,English,,1,2016-05-03,vaidehi sharma,Recent update has screwed up,fix it up asap,,
WordPress,Google Play,org.wordpress.android,Z3A6QU9xcFRPR3lwVzk1V1ZPTE9lQVFWclZWWFlBakNBYnBUY0VuazNLbU1XOG5iY3czdUJicW9fVDEwTk9BQzJ6bXN1b0hkOVZsamcwOE10WlB4bm5zeVE,English,,4,2016-05-04,Kenneth Ashley,New website,all good,,
WordPress,Google Play,org.wordpress.android,Z3A6QU9xcFRPR1NLal9zSWkxWmQxc2hZSWR0aV94NVNvTmFHZUlHc0Y1SnRtWmpRQ0prdURLSGZvTXZvQ3FfT0Fod1dOMU5POWkxdjVlU3JLaG9QLXN0NWc,English,,2,2016-05-04,Wong JW,Irritating notification bar,suck i view my own post the notification bar pop up and block everything,,
WordPress,Google Play,org.wordpress.android,Z3A6QU9xcFRPRmFKQTM5bzRLcWFZcUVCMklVckY5dlFXY2lLSDdaQnVOcldtMkJ4TkVrb1lteHUwcmkwM1B5dHd4dlRGNVZfY1B5bGYxeG1FQ0oxa05pY1E,English,,5,2016-05-04,Stephanie A. Pequeño,Great App,by far my favorite,,
WordPress,Google Play,org.wordpress.android,Z3A6QU9xcFRPRkticXk1QjhvS1FLNS1ERkpYbE5qS0prdVBwQUx2NVlJNFppZ2VwYndSLV9KQVBNYTNvLW1wcDRnZXR2NW5udG9RLUNJbWhFSkFBMXlielE,English,,5,2016-05-03,Faizhal Arif Santosa,Light !,easy to use,,
WordPress,Google Play,org.wordpress.android,Z3A6QU9xcFRPRTVQbHBLSkxNRENZcmJRYll5M2dvZ1hxbUM3NlUzenNmbUdBa1d2dXpBTjlnZFRDWjdDVnM0VERjNVBhYkNYWlVtUGJMUkFRbDFNT2VUd1E,English,,5,2016-05-05,Don Olami,Wordpress,i love this,,
WordPress,Google Play,org.wordpress.android,Z3A6QU9xcFRPSDFQTEZlQUgzQ0pJb2dMNTJYdldjRkVSNnJmWnUyYXoyWnJiVzdFX3kxS0k5a2N5ODBUeXZONmFFOGIySzZiNzdZUlFRaEY0cjhiODM3bmc,English,,5,2016-05-05,Siti Mardiana Sanusi,,love it,,
WordPress,Google Play,org.wordpress.android,Z3A6QU9xcFRPSFdQUlB0Wkt6VmdqTmZaWjFsQ0pkT3BtQXY5VlhyNXNyUXZZNWVza01GWHg4c25lV3VheWpLbzVzM0x3VENJaTZCTU9CUjgxOTRUYnBNTWc,English,,5,2016-05-05,Janie Nel,Awesome,i love it,,
WordPress,Google Play,org.wordpress.android,Z3A6QU9xcFRPSFdQUlB0Wkt6VmdqTmZaWjFsQ0pkT3BtQXY5VlhyNXNyUXZZNWVza01GWHg4c25lV3VheWpLbzVzM0x3VENJaTZCTU9CUjgxOTRUYnBNTWc,English,,5,2016-05-05,Janie Nel,Awesome,my first and it wa easy,,
WordPress,Google Play,org.wordpress.android,Z3A6QU9xcFRPRnRsdklsNk04YmVOUy1PNTNDN2J0X3FRaHN1MnMxdWFGczVycy13UG1Hck1qSU1MaFp5MFVpdUZnWHRRRTY3S1I5N2JkUERuVHY1MDd1UHc,English,,3,2016-05-05,katlego lefine,Best,best,,
WordPress,Google Play,org.wordpress.android,Z3A6QU9xcFRPR2IyUHFMUi1Wa0FyNDI2TFJfX012T1lSNG5UMXVqQkluVE5oQldGUTZsbUtvQXJWNkhKeHVlVGRiQVBCM2Y5bWVqVmRVZHFzODVDWG0xY3c,English,,5,2016-05-05,Ching Labao,❤,,,
WordPress,Google Play,org.wordpress.android,Z3A6QU9xcFRPRmQ3SHZBYktPazQ2ZnMxUEFaNGpoWmFaY3JwZ1BxTTdCTFFITFFvQ0FYWFRVX2IzNUxmZkw0bFpsRnZ2YkNlcmJfQmlhdW5MQW10OXFQMnc,English,,5,2016-05-05,Eran Arbel,Very useful interface,extremely useful for updating your on the go,,
WordPress,Google Play,org.wordpress.android,Z3A6QU9xcFRPRmQ3SHZBYktPazQ2ZnMxUEFaNGpoWmFaY3JwZ1BxTTdCTFFITFFvQ0FYWFRVX2IzNUxmZkw0bFpsRnZ2YkNlcmJfQmlhdW5MQW10OXFQMnc,English,,5,2016-05-05,Eran Arbel,Very useful interface,and u especially like the fact i can upload photo the web interface prohibits,,
WordPress,Google Play,org.wordpress.android,Z3A6QU9xcFRPRlBEUTFaSFVrczBTNDdrdmEyaHNvV1o3UzcxMHo4T2dXeWVPMTV0V0sxMnU5ZXVPZlo4WUdOOXh2OUFWNE80RTl0RFZDT2tLalVWWFdXdVE,English,,5,2016-05-04,Param,,awesome,,
WordPress,Google Play,org.wordpress.android,Z3A6QU9xcFRPSDBPWmU1Q3NpYWI4ZmNTN0h5Q3JrRHdDWkNKeUNFcVNWd1dFRDJhUThGZi1haWdPTDJYTVVHSk94NGZBLUpaeEhiMmg3a19NeFdmUlFxNnc,English,,3,2016-05-06,Hifza Marij,,over all user friendly and easy for beginner,,
WordPress,Google Play,org.wordpress.android,Z3A6QU9xcFRPSEp4cGZNb0RKbHdJTkdGbWhTSW1pRThKZ1JFYnY1dkFGWHQ3S0lDOU9hR2hveGdyOVJHelBYR1VNYTNLTE0yQ0p5LW40Xzlld3NwTW5OMlE,English,,5,2016-05-06,peter wachira,,really cool,,
WordPress,Google Play,org.wordpress.android,Z3A6QU9xcFRPRmFmSTRmMHI3Szg3eE5NMG1DZldkUEIwZS11OGVzQlZveDJxTWFoTjFvYzZCcFhXX1hqN3lBdGFDOTh3REI5MmVzNDBQenVyelNuTEJPV1E,English,,5,2016-05-06,Abdul Gafur Emon,,it is awesome to improve writing,,
WordPress,Google Play,org.wordpress.android,Z3A6QU9xcFRPSERZcU05X3lZdWZmMjA4U3poLWpCOWdaTUozbmx4QlF3TmZ6cXhlc2hvZW45MXNPU0tuN2c2S3ktX3NWMTJnLXhZWkdfN1JPUzFSVllIdVE,English,,5,2016-05-06,prasoon singh,Love it...,download and enjoy,,
WordPress,Google Play,org.wordpress.android,Z3A6QU9xcFRPRnJJYkNmX2tmekhYNVE4S3RzWlduWFlOdE11MWdld3VpeTgtaGVlc2xkMHJDSGlzSS1xX3U0RXRrRnJhbHpHS2w5RHdjNWI5bWw1bTRjR1E,English,,5,2016-05-06,ranjeetanath ghai,,love it,,
WordPress,Google Play,org.wordpress.android,Z3A6QU9xcFRPRmc3d0EyZ3c1RExxVHBUZ1VDMXc2Z1VPVGVQb3JKU1RGdkJuV18xN1haWS15R3lTakowbHdfcmZ3TmsyOWNhN01uR2hoMDlNbGtaNDVUZWc,English,,4,2016-05-06,Sean Piercy,Excellent customer support but app could definitely use some work.,i recently had an issue but they helped me fix the it,,
WordPress,Google Play,org.wordpress.android,Z3A6QU9xcFRPRmc3d0EyZ3c1RExxVHBUZ1VDMXc2Z1VPVGVQb3JKU1RGdkJuV18xN1haWS15R3lTakowbHdfcmZ3TmsyOWNhN01uR2hoMDlNbGtaNDVUZWc,English,,4,2016-05-06,Sean Piercy,Excellent customer support but app could definitely use some work.,i do have one request for the developer,,
WordPress,Google Play,org.wordpress.android,Z3A6QU9xcFRPRmc3d0EyZ3c1RExxVHBUZ1VDMXc2Z1VPVGVQb3JKU1RGdkJuV18xN1haWS15R3lTakowbHdfcmZ3TmsyOWNhN01uR2hoMDlNbGtaNDVUZWc,English,,4,2016-05-06,Sean Piercy,Excellent customer support but app could definitely use some work.,it would be nice i could edit my post in more of a way like on the website,,
WordPress,Google Play,org.wordpress.android,Z3A6QU9xcFRPRmc3d0EyZ3c1RExxVHBUZ1VDMXc2Z1VPVGVQb3JKU1RGdkJuV18xN1haWS15R3lTakowbHdfcmZ3TmsyOWNhN01uR2hoMDlNbGtaNDVUZWc,English,,4,2016-05-06,Sean Piercy,Excellent customer support but app could definitely use some work.,right now i have to edit the to make change which can be but many time more of a hassle,,
WordPress,Google Play,org.wordpress.android,Z3A6QU9xcFRPRmc3d0EyZ3c1RExxVHBUZ1VDMXc2Z1VPVGVQb3JKU1RGdkJuV18xN1haWS15R3lTakowbHdfcmZ3TmsyOWNhN01uR2hoMDlNbGtaNDVUZWc,English,,4,2016-05-06,Sean Piercy,Excellent customer support but app could definitely use some work.,you could add a visual mode to the it would be useful,,
WordPress,Google Play,org.wordpress.android,Z3A6QU9xcFRPRmc3d0EyZ3c1RExxVHBUZ1VDMXc2Z1VPVGVQb3JKU1RGdkJuV18xN1haWS15R3lTakowbHdfcmZ3TmsyOWNhN01uR2hoMDlNbGtaNDVUZWc,English,,4,2016-05-06,Sean Piercy,Excellent customer support but app could definitely use some work.,the support chat is excellent though,,
WordPress,Google Play,org.wordpress.android,Z3A6QU9xcFRPRVg0aHF3SU9zMUh5d3RTZkVkdnBMaVpISWtwWjE4SE1BaVUwVUVQOUVkX1hOWF9wbVM4d1pzMEZ1ZXAwQ2o2anduS0NiWUw5MWZyb0xmMVE,English,,5,2016-05-05,kanon hasan,Useful,nice,,
WordPress,Google Play,org.wordpress.android,Z3A6QU9xcFRPR1dPVmFEcHpyZFVUSmRlbE5pTTd1R183Sk91X3hPVnE1YmNXMXhlR05mVGdfSmxVbUxiV25nbGtQR2gxd042OXVHMmR5Q1gtcXYtelhWWXc,English,,3,2016-05-05,Jessica Spaulding,Difficult to use,it hard to use on a phone you want to add or link,,
WordPress,Google Play,org.wordpress.android,Z3A6QU9xcFRPR1dPVmFEcHpyZFVUSmRlbE5pTTd1R183Sk91X3hPVnE1YmNXMXhlR05mVGdfSmxVbUxiV25nbGtQR2gxd042OXVHMmR5Q1gtcXYtelhWWXc,English,,3,2016-05-05,Jessica Spaulding,Difficult to use,i tried adding a badge i had and it would show up,,
WordPress,Google Play,org.wordpress.android,Z3A6QU9xcFRPR1dPVmFEcHpyZFVUSmRlbE5pTTd1R183Sk91X3hPVnE1YmNXMXhlR05mVGdfSmxVbUxiV25nbGtQR2gxd042OXVHMmR5Q1gtcXYtelhWWXc,English,,3,2016-05-05,Jessica Spaulding,Difficult to use,and hard to understand the tool basically guessing on what you do,,
WordPress,Google Play,org.wordpress.android,Z3A6QU9xcFRPSEJqc3UxUDRKa1ZfSzVINVByaWVEa0MzamVyWTV5QjJJWFgwN0c4ai1Ua00xcnVPemhoUm5TelpZTUNUWDBOQzZQQmtKRDBGWnRiWll6R3c,English,,3,2016-05-05,JYOTI JETHMALANI,Not much usful,i can not see my profit and my page are not visible to everyone fix it,,
WordPress,Google Play,org.wordpress.android,Z3A6QU9xcFRPRVdyMjhjN1dlZDdsZWdIYXg5X0xEUFFsT0VuSW52Q0dvWGNrM0t4M2dUQ0JFZ3d3WlpvdGF1OU5JX1NXcjhZRVNIZUE0NF9obzdPZ2Nvc3c,English,,1,2016-05-07,Karis Mauyy,Last version error,the last version is not working on my note 2,,
WordPress,Google Play,org.wordpress.android,Z3A6QU9xcFRPSHNhUDR1cFJGRGk0ZXFYZUxfS2lhaVNkVkJUZjN1clVraDR5Y1ZkY2tBYXJnQlU4YV9lMHcxVkhUNmJla1pvWnV6V1Q3VDZnU2lYYWdCbXc,English,,3,2016-05-07,NewsZoneBD. com,I cant set featured image with this app.,fix this problem a soon a possible,,
WordPress,Google Play,org.wordpress.android,Z3A6QU9xcFRPSFhld1pscUptcnkxaU1HTTdDak9WN0YzdXo4RmdkZXpabktGWWNWbTZuamJUM1RYdUVCaW1hSTk2aW5CUFFzV2QyTlE3OGMwQWcyd1dmR1E,English,,5,2016-05-07,Mukunda Panchal,Moto G2,really loved it,,
WordPress,Google Play,org.wordpress.android,Z3A6QU9xcFRPSFBPV3RsSHF6WDdWelRsWnNxU3BoUWlHUmJmWFBjM2p6ZzE5bW4tVUhXMTFsOE42dGlka0doSVRiQk9FLVowcFRKNXlsY1hsWl9MbEs3VXc,English,,1,2016-05-07,David Bradshaw,Used to work fine,of latest update now hang and crash instead of doing anything,,
WordPress,Google Play,org.wordpress.android,Z3A6QU9xcFRPSHlXbGVVdDg3c3pKamNBSVZKSXpNc0RyUGl3RnMzdy1PUzBWN0dGZWp1YXhzTUNSeXZVcGRleWE3bjREX2JDa3RaM1Q0X2QtSjV0ejQ0Y1E,English,,5,2016-05-07,TUSHAR D JAIN,I would recommend everyone abt dis app,it,,
WordPress,Google Play,org.wordpress.android,Z3A6QU9xcFRPSG1NYzFTcXJ2Tl9zSjZ4N0RMdzZVd2VRVG1qVG9JQWVwMDlianFJVC1BaXlmRXN5dkQ1UWNLclVCNGkzQ1ZrSzZPNS1oQk1rWHdNQkZEZ0E,English,,5,2016-05-07,Muskan Manglani,It is good,for making website,,
WordPress,Google Play,org.wordpress.android,Z3A6QU9xcFRPRlMzNnZnaGplMndVdGR0ZktQNjRSUFV1d3VNVU5VUHo1VWxDbURyTm9idVBzeXEzWkZGa3U4bmFNLTZlYjVGSkN1dm9MRFh5SmFEamhEc0E,English,,1,2016-05-06,boobal.G Krishna,,cant able create account showing error,,
WordPress,Google Play,org.wordpress.android,Z3A6QU9xcFRPRmRxN3dKZjhEcTQ0dmZqbEZESV9jVmNlZExybUY1TWRxaTRRSmhqbDJUelhES1M2b2JzOFpKWWJ3S2NjZzN5c0pKakNfZ1B3bjFoX0VoYWc,English,,5,2016-05-06,Shan Ellis,Love WordPress!!!!,my own little dairy,,
WordPress,Google Play,org.wordpress.android,Z3A6QU9xcFRPSEl4d2YtTU5BMVJRRVZWeGFlSzlpcGFtY0EtTVBlc0wxRm5kNnhRQTV1dUZGZWFMdFU2ZEEwOE84dnBFSTlqN0pnaEZKT2Q1aG5VUlV4WlE,English,,4,2016-05-06,Charlie Moritz,Useful but broken now,i use it a lot but the is broken on my,,
WordPress,Google Play,org.wordpress.android,Z3A6QU9xcFRPSEl4d2YtTU5BMVJRRVZWeGFlSzlpcGFtY0EtTVBlc0wxRm5kNnhRQTV1dUZGZWFMdFU2ZEEwOE84dnBFSTlqN0pnaEZKT2Q1aG5VUlV4WlE,English,,4,2016-05-06,Charlie Moritz,Useful but broken now,launch to frozen page,,
WordPress,Google Play,org.wordpress.android,Z3A6QU9xcFRPSEp4cGZNb0RKbHdJTkdGbWhTSW1pRThKZ1JFYnY1dkFGWHQ3S0lDOU9hR2hveGdyOVJHelBYR1VNYTNLTE0yQ0p5LW40Xzlld3NwTW5OMlE,English,,4,2016-05-06,peter wachira,,good but how come i have trouble logging into my i do it well on the web,,
WordPress,Google Play,org.wordpress.android,Z3A6QU9xcFRPSG42VG91VWFkWkt5ZjVIc3ptUTQ0VEdXYVJMaXRQWEZiUmJ3aXVFU3p3RUlvX1doMF9YUEl5TkUyNjRtX1Z5Y1ItekRfSlhuM2YzVkU4Tnc,English,,3,2016-05-06,Pieter Mario,Can't delete cagegories,really ruin my work,,
WordPress,Google Play,org.wordpress.android,Z3A6QU9xcFRPR0xGS2dBNF94dVE1STJDWkFCUG40VDJRb3YyNGJreTl0X3JBLU1RTWlDZ2lmRTlsdFdNUGtDNUhmT3cwS3RnWS1yeWl0aVFSRWFITW9TZHc,English,,2,2016-05-08,Mick Shea,Handy way to reboot my phone,it take several try to publish,,
WordPress,Google Play,org.wordpress.android,Z3A6QU9xcFRPR0xGS2dBNF94dVE1STJDWkFCUG40VDJRb3YyNGJreTl0X3JBLU1RTWlDZ2lmRTlsdFdNUGtDNUhmT3cwS3RnWS1yeWl0aVFSRWFITW9TZHc,English,,2,2016-05-08,Mick Shea,Handy way to reboot my phone,the majority of attempt result in a soft boot,,
WordPress,Google Play,org.wordpress.android,Z3A6QU9xcFRPR0xGS2dBNF94dVE1STJDWkFCUG40VDJRb3YyNGJreTl0X3JBLU1RTWlDZ2lmRTlsdFdNUGtDNUhmT3cwS3RnWS1yeWl0aVFSRWFITW9TZHc,English,,2,2016-05-08,Mick Shea,Handy way to reboot my phone,it also loses the draft is supposedly saved,,
WordPress,Google Play,org.wordpress.android,Z3A6QU9xcFRPR0xGS2dBNF94dVE1STJDWkFCUG40VDJRb3YyNGJreTl0X3JBLU1RTWlDZ2lmRTlsdFdNUGtDNUhmT3cwS3RnWS1yeWl0aVFSRWFITW9TZHc,English,,2,2016-05-08,Mick Shea,Handy way to reboot my phone,rewrite of the same post over and over is lame,,
WordPress,Google Play,org.wordpress.android,Z3A6QU9xcFRPR0xGS2dBNF94dVE1STJDWkFCUG40VDJRb3YyNGJreTl0X3JBLU1RTWlDZ2lmRTlsdFdNUGtDNUhmT3cwS3RnWS1yeWl0aVFSRWFITW9TZHc,English,,2,2016-05-08,Mick Shea,Handy way to reboot my phone,this is all on a nexus with the latest marshmallow,,
WordPress,Google Play,org.wordpress.android,Z3A6QU9xcFRPRmdiQk9FOEFJTWdEUFdSZjQzTS1wLS1JM0k2NDkwbEpfTG5ja0g5SlFYNi0wbktWdWtrVDctTGNlLWE4VnFKeUp4UFMyRlRuWTRqbllXTUE,English,,5,2016-05-08,Bonga Ngwenya,Great app ever,the interface exceptionally excellent,,
WordPress,Google Play,org.wordpress.android,Z3A6QU9xcFRPSGd5a1dxcEZMeWJ4Mnllb2ZjMFdDY2RLUk5XY0xtc1ZKcktKdmNNWElWcHlicDBVUzVSUmR3aTEwWF95ZEtEaVFVa1laMzN0SV9lRUFIR0E,English,,5,2016-05-08,Bhatti Naishadh,So usefull,best,,
WordPress,Google Play,org.wordpress.android,Z3A6QU9xcFRPRURxT3VKc2ptTWE2N0ZCcjk4SGdlTm9QT2M4SWt5OFpnMXpHQ2pfZWc3TW02NkZBekpsV0VrWG9QY0NwaWNYZ2pIQnI1a3BmMWhpMTJJQlE,English,,4,2016-05-07,Mellow Notions,Need to fix the customization,for i want to change pallet i have to tap it an absurd amount of time in order for it to go through,,
WordPress,Google Play,org.wordpress.android,Z3A6QU9xcFRPRnN4SzZxNkJWRF80MHk2NFZOY0FoQS1HZUlqOFhiV3d1bmhnOVpoemNiSlZoVlVtRmtVYnZiME04OGw5V3drb0tuRWZlVHF3Rncwcl9QeGc,English,,5,2016-05-09,Aloka Naik,This is an amazing app!,posting is convenient,,
WordPress,Google Play,org.wordpress.android,Z3A6QU9xcFRPRklwbVY4NU90dTdZMVlUZ3JrdktrYXRQQTZRVGN4cVNWNFdXNlVnVk8yRzE3T1NkMUtFczU5YUp6d0M0UmkxZlB0NGY1WUtlZldhbnhGU2c,English,,5,2016-05-09,jibrin reuben,Good!.,the new update is far much live it and would highly encourage any one to download and update it,,
WordPress,Google Play,org.wordpress.android,Z3A6QU9xcFRPRWdnM3VRSjQyNkFYbGdtcVc4YkoxNmV6UkZvSkRvU3AyX1VfTkZ0SHVDVVZSTTRnX1lYY2dFc1NVZ1hJRzlORndhRUR5S2pfc2hYMDRaOHc,English,,5,2016-05-09,Yuying Pan,给点面子。,it for sch project actually,To the point of face.,Its for sch project actually so idk
WordPress,Google Play,org.wordpress.android,Z3A6QU9xcFRPRm5PSVZNNVd5eW5yUHZSN0hrUUYzS2xkQkZFOGdydndFLTJXVVlTUTBHWXU1WjdjVHlsR0ZFZmNDSjdTOU9xX0NaZkxRSVptSlN1MmYxblE,English,,2,2016-05-09,Muthia Husnul,My Local Draft Was Lost,i update the my draft wa lost,,
WordPress,Google Play,org.wordpress.android,Z3A6QU9xcFRPRm5PSVZNNVd5eW5yUHZSN0hrUUYzS2xkQkZFOGdydndFLTJXVVlTUTBHWXU1WjdjVHlsR0ZFZmNDSjdTOU9xX0NaZkxRSVptSlN1MmYxblE,English,,2,2016-05-09,Muthia Husnul,My Local Draft Was Lost,i put my important article draft there,,
WordPress,Google Play,org.wordpress.android,Z3A6QU9xcFRPR0hCX2xtbmJVZnR0WE1zVXQxbXc1WDFrektXdGJ4TUs1cjJXakx2ajFmTl9XNlRfZlR6eEFsaEtOVGdGNW10dk5WVFdWazJyeDNSQnVxV3c,English,,1,2016-05-10,Derek Lim,Bug?,keep causing my edge to crash and reboot,,
WordPress,Google Play,org.wordpress.android,Z3A6QU9xcFRPR0hCX2xtbmJVZnR0WE1zVXQxbXc1WDFrektXdGJ4TUs1cjJXakx2ajFmTl9XNlRfZlR6eEFsaEtOVGdGNW10dk5WVFdWazJyeDNSQnVxV3c,English,,1,2016-05-10,Derek Lim,Bug?,same thing happened,,
WordPress,Google Play,org.wordpress.android,Z3A6QU9xcFRPR0hCX2xtbmJVZnR0WE1zVXQxbXc1WDFrektXdGJ4TUs1cjJXakx2ajFmTl9XNlRfZlR6eEFsaEtOVGdGNW10dk5WVFdWazJyeDNSQnVxV3c,English,,1,2016-05-10,Derek Lim,Bug?,tried on another factory reset edge to same effect,,
WordPress,Google Play,org.wordpress.android,Z3A6QU9xcFRPR0hCX2xtbmJVZnR0WE1zVXQxbXc1WDFrektXdGJ4TUs1cjJXakx2ajFmTl9XNlRfZlR6eEFsaEtOVGdGNW10dk5WVFdWazJyeDNSQnVxV3c,English,,1,2016-05-10,Derek Lim,Bug?,this is useless now,,
WordPress,Google Play,org.wordpress.android,Z3A6QU9xcFRPRV9qWU9pN2dMWjM1NW1LeUdwRENlbjU0RDZnMHlBSTR6M2F0ZTZDRUlmeVFjRERLbU1oOWs0bUlUclQxaE5adXhhS0xuMTFaMW43aTBJM3c,English,,2,2016-05-09,Chance Mcgee,Good but...,there are a few other bug with editing post are annoying too,,
WordPress,Google Play,org.wordpress.android,Z3A6QU9xcFRPRmN6RFQ2QVhLYlR0MF9yWThfMGpXWG9pTXU2SkV6VzJGWXFzS3cwWjI2SWN6bDBpVDFmQ1l4cGJuNTFBLWNJbjJLLXQ3UnVCczNWQUlkdWc,English,,2,2016-05-11,Ankit sharma,Can't upload Images,why cannot i upload image now,,
WordPress,Google Play,org.wordpress.android,Z3A6QU9xcFRPRmN6RFQ2QVhLYlR0MF9yWThfMGpXWG9pTXU2SkV6VzJGWXFzS3cwWjI2SWN6bDBpVDFmQ1l4cGJuNTFBLWNJbjJLLXQ3UnVCczNWQUlkdWc,English,,2,2016-05-11,Ankit sharma,Can't upload Images,i keep tapping the upload medium option but nothing happens,,
WordPress,Google Play,org.wordpress.android,Z3A6QU9xcFRPRmN6RFQ2QVhLYlR0MF9yWThfMGpXWG9pTXU2SkV6VzJGWXFzS3cwWjI2SWN6bDBpVDFmQ1l4cGJuNTFBLWNJbjJLLXQ3UnVCczNWQUlkdWc,English,,2,2016-05-11,Ankit sharma,Can't upload Images,kindly fix the issue for,,
WordPress,Google Play,org.wordpress.android,Z3A6QU9xcFRPRnlkTm5taW1XZ1BLbW5MWlllQlV1UTlvRDNoNWNILUppc3FLSXpRZEhhT1lONXdnSHJYUkpKOVFoMjRvM1dZYkFOU1BHVDh2ZlJHdXFJemc,English,,3,2016-05-11,Begnas Online,Nice app,just download will write more use,,
WordPress,Google Play,org.wordpress.android,Z3A6QU9xcFRPSFBDX1lCNk85RFptY25XSUtRaXZkVV9MR1hfdkV2VTExeWdoVGRqZkZZQ1VvclN2dUhZaGpId1BFalJZamFSNmNhX2ZEOURxcWtic1pHRVE,English,,5,2016-05-10,Tamal Uits,CONFIRM,your booking,,
WordPress,Google Play,org.wordpress.android,Z3A6QU9xcFRPSEthTm5xR05KYjlkSFdzMDRRbEFsSHlab2IyYTZIODRrOW5RdUFWTE5zekwtMkpTNEYtQXh4ZVVhN0gyV2VxWHdyNTVMTHQ5bFZwRE9RS1E,English,,2,2016-05-12,mohammad sirajuddin Rayyan,Cant upload images via mobile...,big disappointment the major functionality fails to work,,
WordPress,Google Play,org.wordpress.android,Z3A6QU9xcFRPSElzQXplWW9rNVVCR0o4a3VBMUhjMzNhUGVDUkMxNWRWMHIzVEprM1Z3OFlpaFlRMXhYY3kyN0ZvQ1NkY3NoS1pwUkkzU2x3bmdsZUxmdEE,English,,3,2016-05-12,Prisma Gita Puspapuan,Used to be perfect,why slow now after the last update,,
WordPress,Google Play,org.wordpress.android,Z3A6QU9xcFRPRnhFU2k1MXFfckFSVzdJMjl6TjhlS21NczdHZUpwZ0xIZlJBd0RqbHNKQ1RvWGh1U21rbkViZGU5NXUxdnNmbEMwUDY1OG5HbXIwdzU4QXc,English,,5,2016-05-12,Farhad Hossain,Nice,i like this,,
WordPress,Google Play,org.wordpress.android,Z3A6QU9xcFRPR3M5MlhZbXdBRmN1Zjd5VjJxa3NDRnJzVDdkakpZTW1HcnJ3em5COTQtN1NLSjJhTm9xc2JlZmhFdzdEODJyNVpPc25NblRZSmJrLUtzZGc,English,,1,2016-05-11,Chie Lamperouge,Updates problem,it always crashed i updated the,,
WordPress,Google Play,org.wordpress.android,Z3A6QU9xcFRPR3M5MlhZbXdBRmN1Zjd5VjJxa3NDRnJzVDdkakpZTW1HcnJ3em5COTQtN1NLSjJhTm9xc2JlZmhFdzdEODJyNVpPc25NblRZSmJrLUtzZGc,English,,1,2016-05-11,Chie Lamperouge,Updates problem,help please,,
WordPress,Google Play,org.wordpress.android,Z3A6QU9xcFRPRU93am1Yd25VUTJxeFpDTHB1ZVgyZXdjdkp1V3k4dVB3RVE0bllTUzNGMjVTN3lIcVFtMXYtY0xxdHd5U2MwajVNZjVDTVRZTFBpbzBOOHc,English,,5,2016-05-11,golap rana,nicr,very,,
WordPress,Google Play,org.wordpress.android,Z3A6QU9xcFRPRWcwTV9XbE1VMEdoMDBKTENQd3AxZ1FiMHJGNjN3VzVIR3FNMzJrZm00Ty1tbkdvSnljU3VGd1hjMklmVEgtRGxWblFLT09FZXgwTDgxd1E,English,,1,2016-05-13,SURAJ LOHAR,,not good,,
WordPress,Google Play,org.wordpress.android,Z3A6QU9xcFRPRTZFUnB0MlRUWTNsbGJTOXVCVzZ2UEJIcjRTd1lBYlNUVnJHSXUxUWUtOHVqdVNtVTJzUTdfUmI0SW5oTHdDNFl3TmxkbnFmaTBkZGJ4NWc,English,,5,2016-05-12,Novia Rika,Great,i really love it and it is very useful,,
WordPress,Google Play,org.wordpress.android,Z3A6QU9xcFRPRnctUzZCZzdFMDVDU2FTMmExVDljNllzYkxsQzBRa3pYd2tNY28zc2Z1Ty1VZXB6dWpValJHTTlfN3VSYzh1V3RDellrYXJTOTI1U0Ywamc,English,,5,2016-05-12,Ayo Barhlo,Barhlo,,,
WordPress,Google Play,org.wordpress.android,Z3A6QU9xcFRPR1l3Z0lObWhiekZSWmpDaEhzbmJpcXdfWXV4RFotMlg1U2tVOVRPcnllemN0cExOdlRSVTVfbllqS1BQWTA4cUV3ZUdNbEZOT1N1SGhlMmc,English,,4,2016-05-12,Muthukumar Shanmugham,Good,good web hosting and environment,,
WordPress,Google Play,org.wordpress.android,Z3A6QU9xcFRPRVBITHJWc2NEcERRQmVZOHpOcFowdkpiQUxrd1h4WTQ4Y3hma3ZITUpyQ1NSbVI3ZnhvTVBFUnk2OHlNaUpJRl81Q0R6TFNQVUlMWkxTVmc,English,,4,2016-05-12,Kawaii Krumpet,Please reply,can i access this from,,
WordPress,Google Play,org.wordpress.android,Z3A6QU9xcFRPRS1rcnlWX2JLMkxaOGFPZlhiZ2pIM2xkc1dYckdxQVpUVWl6Szd1TW5VRHJVVURMRDd3ZmlneWRYTG5kcE1BR2xJUmprN3ZtenE5OTVsbmc,English,,5,2016-05-12,mukesh sharma,Cool app,working fine,,
WordPress,Google Play,org.wordpress.android,Z3A6QU9xcFRPRWtlOG5yRVA5WUVlRUVTa3FyanJCWThZeldyTVdMQWpMODR3QkY1OUJkdW43dVAzb21uMUpjVk9GVmNwdFFkbDRjQUxGXzJCRnVKd2tHV0E,English,,5,2016-05-14,kamrul islam,,no doubt,,
WordPress,Google Play,org.wordpress.android,Z3A6QU9xcFRPR244c0lZN3JTaTVzODJRdGF1SGpXbGZaaW1GUzNFbC1HY2VlRUFxU2p3NmxvWG8xVlNTQk1EdllyUElidHh5UEJDRGNWSkpYVEV1cGw2Unc,English,,3,2016-05-14,brainy brains,,great,,
WordPress,Google Play,org.wordpress.android,Z3A6QU9xcFRPR0ZRTXprOEoyNFE3clVOUXExNERYc3pfUm5JTnFyX1RRVURNQXd0aUZtV0R3Q0F6QkFkaGV4TGNQdS16dDFMUHFzYzdVRlk1RzV6T1FHQVE,English,,4,2016-05-13,Fixing Issues,Like it,some freezing issue a drop action button not working,,
WordPress,Google Play,org.wordpress.android,Z3A6QU9xcFRPRWVSUDZjcTA2MHpFLUEyWm1lX05oMWp1bDVNcjR6UGl6dXo1TnljVWU1bFZjdHlhVjJ6cnpjR2t4Uk51ejRxajZkOE5rN2xJS203RmV2eHc,English,,4,2016-05-15,olaropo sholanke sholanke,Myman,good,,
WordPress,Google Play,org.wordpress.android,Z3A6QU9xcFRPRjVRRThvMzVGY2ctalp5T1hkVnhEaUFoVDVTVm9qVlNyS0FYNjE1bWg2U2ZOcXk1SkFpektnTmxpaElCTFNtVGRKTVkyczlMeE16ekgtcXc,English,,1,2016-05-15,Michael Jackson,,awful,,
WordPress,Google Play,org.wordpress.android,Z3A6QU9xcFRPRjVRRThvMzVGY2ctalp5T1hkVnhEaUFoVDVTVm9qVlNyS0FYNjE1bWg2U2ZOcXk1SkFpektnTmxpaElCTFNtVGRKTVkyczlMeE16ekgtcXc,English,,1,2016-05-15,Michael Jackson,,used on self hosted site with good database but gave nothing but refresh permission upload error,,
WordPress,Google Play,org.wordpress.android,Z3A6QU9xcFRPR0xxbW5xaHU2bWNHZTZSRG9qX0hMME5VWFJaLTdORGlHdDdscFhzX2xRdjZPNHZrNGtwWWNfRlpvdmRmTlk1ZGxoUEVRaVg1RVdKNmFBVEE,English,,4,2016-05-15,Prateek Yadav,,is good but cant use upload button uploading a new theme,,
WordPress,Google Play,org.wordpress.android,Z3A6QU9xcFRPRWlSaVd0U29ZeDBFLTFDQUx1VU5lWnM3QUFudkZDTF9LS0hfNTVFdkQ3OXhjc2hSUDJGLUZNM2RFWDRMV0lTdU5HcnJGZUI0NV8yc2pLNlE,English,,4,2016-05-15,Bob Gangwer,Works as it should,feel just about like being on the desktop working on self hosted site,,
WordPress,Google Play,org.wordpress.android,Z3A6QU9xcFRPRWlSaVd0U29ZeDBFLTFDQUx1VU5lWnM3QUFudkZDTF9LS0hfNTVFdkQ3OXhjc2hSUDJGLUZNM2RFWDRMV0lTdU5HcnJGZUI0NV8yc2pLNlE,English,,4,2016-05-15,Bob Gangwer,Works as it should,easy on the eye and intuitive navigation make maintaining site a breeze mobile,,
WordPress,Google Play,org.wordpress.android,Z3A6QU9xcFRPRzF5a0JtVmgxb1h4OF9GVk9LZzZNTEFOTUdiMmt1WElvQk5LbDFYWTR6bmVScmNKMnczbHg3TDdzeHFfTnB2bnlweV9Ja0RKM0hlMXFGd1E,English,,5,2016-05-15,Chitransh Waghmare,,awesome,,
WordPress,Google Play,org.wordpress.android,Z3A6QU9xcFRPR0lrNzdwOWhoS1AxMzJNS011cTctRDJRNXdPa1FvQUhwallSZU54OUNnODRvZVQxZndVQlY0UlNfOUgxZDVBVDc4SmhyY3hSY01HbGxUV1E,English,,4,2016-05-15,Prem Tamang,Soo Nice app,loved it,,
WordPress,Google Play,org.wordpress.android,Z3A6QU9xcFRPRVNwUWxGQ0U4d2xDRlQ5R2RrU19jM2dqRzhFbEdLV05wVldjdGJnY1M2bURCeF9md0U3SW1CMnBHaUlmVkR0X2VSTzExRUdxYklRdnhpQ1E,English,,2,2016-05-15,Olurotimi Olawoye,,how do i upload my avatar,,
WordPress,Google Play,org.wordpress.android,Z3A6QU9xcFRPRno5R21wM2lYZkVUcEhVR01tcFpyOWNoSXp4eURYU2JISmRhWmlFcXJ6VlRuRXdiWV81cUpDd0VvMkxrTWFTYlphTzRmZnZwR0otVEc3akE,English,,4,2016-05-15,ashutosh thakre,,get the job done,,
WordPress,Google Play,org.wordpress.android,Z3A6QU9xcFRPRk9VUTNUS3pkcGJHOC1WSEdTRTEybTJsTmhTenc0MC0zcVRyU21TbEtmcEhIaFMwZjdXWklXdFE2ZGxvTnNma1g4WHBOWFQ3T3dqdWpGZUE,English,,4,2016-05-14,Grace Suhendro,Keranjangbuah,like it,Fruit basket,Like it! Its very useful to reply all the comments
WordPress,Google Play,org.wordpress.android,Z3A6QU9xcFRPRk9VUTNUS3pkcGJHOC1WSEdTRTEybTJsTmhTenc0MC0zcVRyU21TbEtmcEhIaFMwZjdXWklXdFE2ZGxvTnNma1g4WHBOWFQ3T3dqdWpGZUE,English,,4,2016-05-14,Grace Suhendro,Keranjangbuah,it very useful to reply all the comment,Fruit basket,Like it! Its very useful to reply all the comments
WordPress,Google Play,org.wordpress.android,Z3A6QU9xcFRPSFhQQlNOS0NqeklyTWtYVnpZVkJ4Q1lubGM1WndKZTR5ZEQxUTRPbjlTeDBYVVd4QV9SZ2t2allvdXpQY0xuQWltTzl2WF9sU0ZLeEpZaGc,English,,3,2016-05-14,Brandon Stimmel,Great app,please fix this,,
WordPress,Google Play,org.wordpress.android,Z3A6QU9xcFRPSFhQQlNOS0NqeklyTWtYVnpZVkJ4Q1lubGM1WndKZTR5ZEQxUTRPbjlTeDBYVVd4QV9SZ2t2allvdXpQY0xuQWltTzl2WF9sU0ZLeEpZaGc,English,,3,2016-05-14,Brandon Stimmel,Great app,almost everything is breaking for self hosted site with this,,
WordPress,Google Play,org.wordpress.android,Z3A6QU9xcFRPSFhQQlNOS0NqeklyTWtYVnpZVkJ4Q1lubGM1WndKZTR5ZEQxUTRPbjlTeDBYVVd4QV9SZ2t2allvdXpQY0xuQWltTzl2WF9sU0ZLeEpZaGc,English,,3,2016-05-14,Brandon Stimmel,Great app,hope it get used to be great,,
WordPress,Google Play,org.wordpress.android,Z3A6QU9xcFRPSE1hSzN4WlNUcFFObEJ6WEd2aFBWVWpya0JiOEx3TmsyZ0ViUzZpT2hpOXg2czZPeF9SZFNCcWpSN2h5eUxKcWlxaTBhSlUxR2RmOG8ya1E,English,,4,2016-05-16,MocTubing,Little bit confused,hey can anyone tell me how to setting the number for shown of the post,,
WordPress,Google Play,org.wordpress.android,Z3A6QU9xcFRPRUdneS1uX2JpSTA2R0ItR2Y1cmRKQjNvZVhDRFdQYkNwMGdmZGozX00xbThaaUppZVhPWXdFNkJzZ2xjZWJIUE5zeDU5c0JfRXdXNU9XelE,English,,4,2016-05-16,Gustavo Adolfo Tapia,,the best,,
WordPress,Google Play,org.wordpress.android,Z3A6QU9xcFRPRzdra1AzZ0tZZGg1SF9ZU3NFUTZLcTZ5UDZDc0FlWEwwQzBhU19lcXZTcnpZMTR4TEFsMWNEWjRMZzdudWxKeVk4NEpLRzUtUFFvTXVsaXc,English,,2,2016-05-16,Niki Napier,Too buggy for anything professional,every post i write is accompanied with extra hour of and rewriting a the site seems to pick and choose what to keep you hit save draft,,
WordPress,Google Play,org.wordpress.android,Z3A6QU9xcFRPRzdra1AzZ0tZZGg1SF9ZU3NFUTZLcTZ5UDZDc0FlWEwwQzBhU19lcXZTcnpZMTR4TEFsMWNEWjRMZzdudWxKeVk4NEpLRzUtUFFvTXVsaXc,English,,2,2016-05-16,Niki Napier,Too buggy for anything professional,the application never ever work without several bug to work around,,
WordPress,Google Play,org.wordpress.android,Z3A6QU9xcFRPRzdra1AzZ0tZZGg1SF9ZU3NFUTZLcTZ5UDZDc0FlWEwwQzBhU19lcXZTcnpZMTR4TEFsMWNEWjRMZzdudWxKeVk4NEpLRzUtUFFvTXVsaXc,English,,2,2016-05-16,Niki Napier,Too buggy for anything professional,logging force nothing work,,
WordPress,Google Play,org.wordpress.android,Z3A6QU9xcFRPR3RjcUNVNUo4cTVMR2dTZXNSZGF3TUQwNlNrMzlIam44OFRjNnVkSUczQXlmSHc2bGtKWlE2ajdoNy1QSHNLYXdrTUdvRnh1enQxMXZiQ2c,English,,2,2016-05-16,Karl Miller,STRESS INDUCING,user friendly and easy to but it ha a nasty habit of deleting saved draft you try to edit them later,,
WordPress,Google Play,org.wordpress.android,Z3A6QU9xcFRPR3RjcUNVNUo4cTVMR2dTZXNSZGF3TUQwNlNrMzlIam44OFRjNnVkSUczQXlmSHc2bGtKWlE2ajdoNy1QSHNLYXdrTUdvRnh1enQxMXZiQ2c,English,,2,2016-05-16,Karl Miller,STRESS INDUCING,completely infuriating,,
WordPress,Google Play,org.wordpress.android,Z3A6QU9xcFRPSFJ5UUtYT1hsNkstTGlOdmpPWTBpSG1BZkJMLVgyelBQRkRXeTJkTDZMZ19NSVl2MHh1c2Z1cjF6ZW9OM2tLcEhXaW1naXZJNHV0OHZnaXc,English,,5,2016-05-17,Ethan Hopkins,Love the app. Multiple accounts?,just want to i love and the,,
WordPress,Google Play,org.wordpress.android,Z3A6QU9xcFRPSFJ5UUtYT1hsNkstTGlOdmpPWTBpSG1BZkJMLVgyelBQRkRXeTJkTDZMZ19NSVl2MHh1c2Z1cjF6ZW9OM2tLcEhXaW1naXZJNHV0OHZnaXc,English,,5,2016-05-17,Ethan Hopkins,Love the app. Multiple accounts?,but it would be really cool if there wa a feature to have multiple account logged in at the same time you could switch from site to site you know,,
WordPress,Google Play,org.wordpress.android,Z3A6QU9xcFRPRW9ZTW82Zm5QNmIwenB3ZHFaZGw0X1VEUFFBMlljQV93b0lVOWRDRU51X0c3N0MzbFlCS25KWElXOU1NekczeVkxVHduQmZvT2EzQzZQOXc,English,,5,2016-05-17,Rowena Robinson,Amazing,amazing,,
WordPress,Google Play,org.wordpress.android,Z3A6QU9xcFRPRWVSUDZjcTA2MHpFLUEyWm1lX05oMWp1bDVNcjR6UGl6dXo1TnljVWU1bFZjdHlhVjJ6cnpjR2t4Uk51ejRxajZkOE5rN2xJS203RmV2eHc,English,,5,2016-05-17,olaropo sholanke sholanke,Myman,good,,
WordPress,Google Play,org.wordpress.android,Z3A6QU9xcFRPR1VrZ2FtWnVqcEZXNEtMS2ViSjFTcFgtaHhKb3hvekNMa0pRM3J1XzJyRnFKczZwOURvMmlNTUFzdS1mVEZjSlBGWl95M2F3SHBGbFB1ZVE,English,,4,2016-05-17,noushad p,,good one,,
WordPress,Google Play,org.wordpress.android,Z3A6QU9xcFRPR3cyQ0pmaXNuSUc0d0JzR1Bxd2g3WGp4VWozN0tSZUJoT3RVbnJiWGtoNURBdWdVYklOVlFhNTNhNEl0TnJFd05rYU9ZaU9vOUlDSnlURGc,English,,4,2016-05-17,Ashley Woo,,,,
WordPress,Google Play,org.wordpress.android,Z3A6QU9xcFRPRVVEN1ZQZjVIRjh4U2t4ak5iejVQYWJyRm1CSTM2WkVfdTVqdHdFaFBka3pEVjQ3MTJSMEl0LWc3a2xsX1pDc1hnTVZwSFZDZ0FsYURONlE,English,,5,2016-05-17,Bethel Oreunomhe,Thumbs up,really nice,,
WordPress,Google Play,org.wordpress.android,Z3A6QU9xcFRPRVVEN1ZQZjVIRjh4U2t4ak5iejVQYWJyRm1CSTM2WkVfdTVqdHdFaFBka3pEVjQ3MTJSMEl0LWc3a2xsX1pDc1hnTVZwSFZDZ0FsYURONlE,English,,5,2016-05-17,Bethel Oreunomhe,Thumbs up,easy to use and nice theme,,
WordPress,Google Play,org.wordpress.android,Z3A6QU9xcFRPR2lEMm9rTFFkM0puTmpjT3pVTXBhZ0I2X2VQOERQendQUF9CQlNBRmdZNDV5bVI2YWR1VXRIMTRvZU1zYmFVSGVzM0JlbnZCSlp4ZjBoNWc,English,,3,2016-05-17,Luke McQuade,Good app with a couple of rough edges,a way of putting together post on a this is a great to have,,
WordPress,Google Play,org.wordpress.android,Z3A6QU9xcFRPR2lEMm9rTFFkM0puTmpjT3pVTXBhZ0I2X2VQOERQendQUF9CQlNBRmdZNDV5bVI2YWR1VXRIMTRvZU1zYmFVSGVzM0JlbnZCSlp4ZjBoNWc,English,,3,2016-05-17,Luke McQuade,Good app with a couple of rough edges,the handling for especially image need work,,
WordPress,Google Play,org.wordpress.android,Z3A6QU9xcFRPRXM1ZEtJZVAtbHhJOWdpcm04cDlHSFRMbDd1TTgzbEhkTGNlSlVrbVZLaUZKNXN3QW9QV3dud0g1S0h0c3V1T2Z4NXQ4WkNGVGVncWN1Y2c,English,,4,2016-05-17,Vivek Jain,Can't add pages,been trying this all day but not a way to add page from,,
WordPress,Google Play,org.wordpress.android,Z3A6QU9xcFRPRXM1ZEtJZVAtbHhJOWdpcm04cDlHSFRMbDd1TTgzbEhkTGNlSlVrbVZLaUZKNXN3QW9QV3dud0g1S0h0c3V1T2Z4NXQ4WkNGVGVncWN1Y2c,English,,4,2016-05-17,Vivek Jain,Can't add pages,please help,,
WordPress,Google Play,org.wordpress.android,Z3A6QU9xcFRPRjJTbkoyQmVNOGMtRDRmN0RzMkd2MTd4YnNFUHpUZlZpN3JqMWNQOF9Cc0w4dnBCeGpFd0hRMFRHLXBuZXJJZ010QTN1bE9xSWQ1Um4xLVE,English,,4,2016-05-16,Felicia Holden,Excellent tool,dope,,
WordPress,Google Play,org.wordpress.android,Z3A6QU9xcFRPRWNFbjhaODNNTmlXSDNGNllLRTk3dURiTVlUbDJQV012VGI1ek9RVlNkV0V0amxwOFg1OGhrbFJZM2pZY1FhYkJvRmdpblJGWjRNTHoxSXc,English,,5,2016-05-18,Gowtham Ds,,very useful,,
WordPress,Google Play,org.wordpress.android,Z3A6QU9xcFRPRTR1UWFrYUs4ekNtQ2F1RVIxR3pkRkllNGVMLXpublVGemVKcWtkblRESGp5bzR3VFlEUzJwNno1Nkh0bWhkaUx2Q1c1WlYtaXVzTU9GcFE,English,,3,2016-05-18,Rupan Roy,Need to add some features.,the stats not update correctly,,
WordPress,Google Play,org.wordpress.android,Z3A6QU9xcFRPRTR1UWFrYUs4ekNtQ2F1RVIxR3pkRkllNGVMLXpublVGemVKcWtkblRESGp5bzR3VFlEUzJwNno1Nkh0bWhkaUx2Q1c1WlYtaXVzTU9GcFE,English,,3,2016-05-18,Rupan Roy,Need to add some features.,and need to add some writing tool and some of feature,,
WordPress,Google Play,org.wordpress.android,Z3A6QU9xcFRPRTR1UWFrYUs4ekNtQ2F1RVIxR3pkRkllNGVMLXpublVGemVKcWtkblRESGp5bzR3VFlEUzJwNno1Nkh0bWhkaUx2Q1c1WlYtaXVzTU9GcFE,English,,3,2016-05-18,Rupan Roy,Need to add some features.,thank you,,
WordPress,Google Play,org.wordpress.android,Z3A6QU9xcFRPRUs0UFBqcXl1TjBCRGpmS0VtM0xQVWlPU3N5S0pYcE0xd0VzdE13c0Y0MzRJOXdfZWR4bnN0NWUtZVNsQTJ6Z2pxVFpkaWg0RTZkeXRRX0E,English,,5,2016-05-18,Jen P,Great app,this ha made life better,,
WordPress,Google Play,org.wordpress.android,Z3A6QU9xcFRPRUs0UFBqcXl1TjBCRGpmS0VtM0xQVWlPU3N5S0pYcE0xd0VzdE13c0Y0MzRJOXdfZWR4bnN0NWUtZVNsQTJ6Z2pxVFpkaWg0RTZkeXRRX0E,English,,5,2016-05-18,Jen P,Great app,thank you,,
WordPress,Google Play,org.wordpress.android,Z3A6QU9xcFRPSFFDUlk5NFYtOXdHNXpYM1NfeUxjRGJ6RllGX3dUVU9sdW5MblVyeVZOTGRXaGVlR3NYSFRfTGpUeVFfaUMwQ1habzcwYXRkYktPd0ZCNlE,English,,5,2016-05-18,AngeLica Mars,,awesome,,
WordPress,Google Play,org.wordpress.android,Z3A6QU9xcFRPRmZaYnJEMnRqaVN2MHU4V09KeWtmY0VyTi1IcE5LLWRkbnI5Rk5STE9mZnFoTlRPN2hObGhDaVNtNUpfQUNkX2dibm5CRHdUdUQwNFYyLXc,English,,5,2016-05-17,Sergio Morales,,great,,
WordPress,Google Play,org.wordpress.android,bGc6QU9xcFRPRnJwZDhzRlhWV014NGRNT1Zpb2JjZUdMR2lIVUJPaU55ZjNGbGdfeElHWURhQ1NaZTlSd3MweXJtX0stTWx1cmpWa3lCMVVPcGpDS245ZXc,English,,1,2016-05-19,A Google User,Freezing after update to 5.3,having had a trouble free run of nearly six month daily the new update ha killed the for me,,
WordPress,Google Play,org.wordpress.android,Z3A6QU9xcFRPSHVBMHBaWXd6T3hST25ZRE5RalUtb25xbXlzbTZkREU0MkJldVpSM0hiM3ZPWnZqb3ZGNk9vbENVeFBROExsTElGYVdCQ25oTUdpVlA2TEE,English,,5,2016-05-19,IT'S ZENALOVE,#REALTALKWITHZENA,dream,,
WordPress,Google Play,org.wordpress.android,Z3A6QU9xcFRPRVhvakVjeUE5VUtXRUVoOWxDMEZCZjlhQWhmR1pOelJWM2Q1RmlhaHc2OWpHaEx6WDR3R1RscjFJOGw3R0lFb2dtRWFhdWpjUElQZk01YUE,English,,5,2016-05-19,Carolyn Lee,Best way to live my days!,i love this life ha always been and i am able to live and function by releasing my daily struggle,,
WordPress,Google Play,org.wordpress.android,Z3A6QU9xcFRPRzJFNXNZU0VOcVBWdFZMSnpTRFVyYUtzYjRzRDB0U3l4V2lNS2hUR1IwVHdwaEphdy1QalpoREJmbGEzZmNjNnNuLVBQS2NQaWZvM3pwN2c,English,,1,2016-05-19,OLUBAYO PAUL,Very poor,giving me error message,,
WordPress,Google Play,org.wordpress.android,Z3A6QU9xcFRPRzJFNXNZU0VOcVBWdFZMSnpTRFVyYUtzYjRzRDB0U3l4V2lNS2hUR1IwVHdwaEphdy1QalpoREJmbGEzZmNjNnNuLVBQS2NQaWZvM3pwN2c,English,,1,2016-05-19,OLUBAYO PAUL,Very poor,i login via my web browser without issue,,
WordPress,Google Play,org.wordpress.android,Z3A6QU9xcFRPR2ZPOU5abEtUNG1QbGR2dld0SmhVclhsSVVuamZvcEtrQ2kyM3VKSnZnNVFjZ25BNkptYjR2b0F0Z1o1WlJ2b2x4TnJ4MmotTDNzVjRxdlE,English,,5,2016-05-19,MUKESH KUMAR,,good,,
WordPress,Google Play,org.wordpress.android,Z3A6QU9xcFRPSDB3MEIxNmJWcDJudXFDRGRnaGt0WUNwNy1SXzRTa3RRQXRwM3JNVWYweTlxUFdnUl8zOUZnN3FCMTdhdGczZERHeENTTV9rRVZNaW1rNFE,English,,5,2016-05-18,young peter,,fantastic,,
WordPress,Google Play,org.wordpress.android,Z3A6QU9xcFRPR3liQk1kbTA3cGFXRnhTQmtfdVBNTHhJSWNpZ2FRRjhPTmtmLW1vWnlFWnotMzljaG1jaTVzZTBPWFhHejZseURCZFdWelJqVmcyTGZieUE,English,,3,2016-05-18,Kevin Ashburner,Instant notifications after a new visitor views our blog.,are you able to add a mobile notification on this every new visitor go to our,,
WordPress,Google Play,org.wordpress.android,Z3A6QU9xcFRPR3liQk1kbTA3cGFXRnhTQmtfdVBNTHhJSWNpZ2FRRjhPTmtmLW1vWnlFWnotMzljaG1jaTVzZTBPWFhHejZseURCZFdWelJqVmcyTGZieUE,English,,3,2016-05-18,Kevin Ashburner,Instant notifications after a new visitor views our blog.,would be a great step forward,,
WordPress,Google Play,org.wordpress.android,Z3A6QU9xcFRPRjRVRFB2ZFNPZGpuaE9FbFQtNThnUE83dkJ4VjBTbEljWVFTeTdOUV9SNnlXbERBOENEQjhoY3pjc3RjNDQ1YzFleTJHME9rVGtRSzk0M0E,English,,5,2016-05-18,kamal Runi,,d,,
WordPress,Google Play,org.wordpress.android,Z3A6QU9xcFRPRWcwTV9XbE1VMEdoMDBKTENQd3AxZ1FiMHJGNjN3VzVIR3FNMzJrZm00Ty1tbkdvSnljU3VGd1hjMklmVEgtRGxWblFLT09FZXgwTDgxd1E,English,,5,2016-05-20,SURAJ LOHAR,Its Good,love it,,
WordPress,Google Play,org.wordpress.android,Z3A6QU9xcFRPRzJFUGo0QmViMm5yTDE2U2s1aWFidEl0dmI0U0Z2S3kxRXhhbmc3UGhjbnBkNHlEaU1zdFV4akwwLU1sVWdJSTM3Q19NVWlkRHpack9QcHc,English,,5,2016-05-20,Rahul Kumar,,good,,
WordPress,Google Play,org.wordpress.android,Z3A6QU9xcFRPRXJ1OVlrN2xfdmdEOTV0bGkwc0pwQUJMbHZDcnhDVzdFRk81b0RTemxiSUpsanFrZjBRWUQwaTFHWHE1NkJEVDdYOWpoNmRSLWV1bTBzOWc,English,,3,2016-05-20,Amanda Shelton,I am having issues with the application not displaying my blog.,all i get is a white page,,
WordPress,Google Play,org.wordpress.android,Z3A6QU9xcFRPRXJ1OVlrN2xfdmdEOTV0bGkwc0pwQUJMbHZDcnhDVzdFRk81b0RTemxiSUpsanFrZjBRWUQwaTFHWHE1NkJEVDdYOWpoNmRSLWV1bTBzOWc,English,,3,2016-05-20,Amanda Shelton,I am having issues with the application not displaying my blog.,it buggy and hard to use,,
WordPress,Google Play,org.wordpress.android,Z3A6QU9xcFRPRXJ1OVlrN2xfdmdEOTV0bGkwc0pwQUJMbHZDcnhDVzdFRk81b0RTemxiSUpsanFrZjBRWUQwaTFHWHE1NkJEVDdYOWpoNmRSLWV1bTBzOWc,English,,3,2016-05-20,Amanda Shelton,I am having issues with the application not displaying my blog.,other wise i do like it not having issue,,
WordPress,Google Play,org.wordpress.android,Z3A6QU9xcFRPRUFMN2NuZFduNmFISlp4cThVTENYVE1Qa1puMGpLSTJ5VDFaX1dnRWVBdVhnUkhkc1VHYnA0RTNJckNNV0t5R1lzMnh2T2MwU0RhOTBtQlE,English,,1,2016-05-20,Medusa Homeed,Can't add new pictures from my storage,this new update suck,,
WordPress,Google Play,org.wordpress.android,Z3A6QU9xcFRPRUFMN2NuZFduNmFISlp4cThVTENYVE1Qa1puMGpLSTJ5VDFaX1dnRWVBdVhnUkhkc1VHYnA0RTNJckNNV0t5R1lzMnh2T2MwU0RhOTBtQlE,English,,1,2016-05-20,Medusa Homeed,Can't add new pictures from my storage,this render the useless to me,,
WordPress,Google Play,org.wordpress.android,Z3A6QU9xcFRPR084OC1ab0xFc1lFQUZkM0c1R2xFTEJacWJoeFZIS0l6QXJDSDBldHR4TmczUVUzU1IzX0F4QnFMaDdoZllkbkVvcmdsSVRjS3puZEdmQUE,English,,5,2016-05-20,RAVI CHANDRAN.B,Good app,good for publisher,,
WordPress,Google Play,org.wordpress.android,Z3A6QU9xcFRPSGFsMTFVZ2Vub3lMVmNFMDRHRHJBU3hFcmNUM1NoYU91d3R6M1dnMm96b1RUYnRBdmN4RGI5Z2FUWFVseG5yTnpkSWF6RFRDdGlqN1pFSmc,English,,5,2016-05-20,Godwin Itanyi,Excellent,excellent,,
WordPress,Google Play,org.wordpress.android,Z3A6QU9xcFRPSGFsMTFVZ2Vub3lMVmNFMDRHRHJBU3hFcmNUM1NoYU91d3R6M1dnMm96b1RUYnRBdmN4RGI5Z2FUWFVseG5yTnpkSWF6RFRDdGlqN1pFSmc,English,,5,2016-05-20,Godwin Itanyi,Excellent,you can still improve on this,,
WordPress,Google Play,org.wordpress.android,Z3A6QU9xcFRPSFpadkhuZnlMdzZRUnFZYmpnb2ROY21HLWtsRHA1SFY4S2JxdUxaNGZiWXF5c2YwVnZaQlhkbXktSWNvOWdLcUFBV2Zfdzl3TVZaS1BYUmc,English,,1,2016-05-20,Abay Jr,Cannot login,i have host my domain and using theme,,
WordPress,Google Play,org.wordpress.android,Z3A6QU9xcFRPSFpadkhuZnlMdzZRUnFZYmpnb2ROY21HLWtsRHA1SFY4S2JxdUxaNGZiWXF5c2YwVnZaQlhkbXktSWNvOWdLcUFBV2Zfdzl3TVZaS1BYUmc,English,,1,2016-05-20,Abay Jr,Cannot login,but using this i cannot login,,
WordPress,Google Play,org.wordpress.android,Z3A6QU9xcFRPSFpadkhuZnlMdzZRUnFZYmpnb2ROY21HLWtsRHA1SFY4S2JxdUxaNGZiWXF5c2YwVnZaQlhkbXktSWNvOWdLcUFBV2Zfdzl3TVZaS1BYUmc,English,,1,2016-05-20,Abay Jr,Cannot login,is there something i should install,,
WordPress,Google Play,org.wordpress.android,Z3A6QU9xcFRPSFpadkhuZnlMdzZRUnFZYmpnb2ROY21HLWtsRHA1SFY4S2JxdUxaNGZiWXF5c2YwVnZaQlhkbXktSWNvOWdLcUFBV2Zfdzl3TVZaS1BYUmc,English,,1,2016-05-20,Abay Jr,Cannot login,help me,,
WordPress,Google Play,org.wordpress.android,Z3A6QU9xcFRPRlU4b2xydDdGVjZMNExnczV4OUxaTTlsQk9uOHhfY1VDTFVrMUVwT01QQk03Q2VGVU5lakc3VVAzT3RpcDZLdVk0Y01Sc2ZJMDhWTG1zbFE,English,,4,2016-05-19,Heena Patel,,my query wa solved,,
WordPress,Google Play,org.wordpress.android,Z3A6QU9xcFRPRlU4b2xydDdGVjZMNExnczV4OUxaTTlsQk9uOHhfY1VDTFVrMUVwT01QQk03Q2VGVU5lakc3VVAzT3RpcDZLdVk0Y01Sc2ZJMDhWTG1zbFE,English,,4,2016-05-19,Heena Patel,,but i wish there wa a button to publish a draft directly instead of all those step,,
WordPress,Google Play,org.wordpress.android,Z3A6QU9xcFRPRUxERFg2Z2dpRGZTNmhJb21faF9RMjJHVDQ4Vlhxa1ZPcW4xRFM5ZmZZTl94dGd6TUx4NVFLY1RCcWl4RXhTSGFJWFB4QzhFM3l1RFdPOEE,English,,3,2016-05-21,Marc Hamel,,on the whole this is an easy to use and creates a nice clean using the default template,,
WordPress,Google Play,org.wordpress.android,Z3A6QU9xcFRPRUxERFg2Z2dpRGZTNmhJb21faF9RMjJHVDQ4Vlhxa1ZPcW4xRFM5ZmZZTl94dGd6TUx4NVFLY1RCcWl4RXhTSGFJWFB4QzhFM3l1RFdPOEE,English,,3,2016-05-21,Marc Hamel,,there is a way to do it must be rather convoluted and because nothing i have tried seems to work,,
WordPress,Google Play,org.wordpress.android,Z3A6QU9xcFRPRUxERFg2Z2dpRGZTNmhJb21faF9RMjJHVDQ4Vlhxa1ZPcW4xRFM5ZmZZTl94dGd6TUx4NVFLY1RCcWl4RXhTSGFJWFB4QzhFM3l1RFdPOEE,English,,3,2016-05-21,Marc Hamel,,i can do it from my but not from my galaxy edge plus,,
WordPress,Google Play,org.wordpress.android,Z3A6QU9xcFRPRUxERFg2Z2dpRGZTNmhJb21faF9RMjJHVDQ4Vlhxa1ZPcW4xRFM5ZmZZTl94dGd6TUx4NVFLY1RCcWl4RXhTSGFJWFB4QzhFM3l1RFdPOEE,English,,3,2016-05-21,Marc Hamel,,i have to add to the medium library i start the post,,
WordPress,Google Play,org.wordpress.android,Z3A6QU9xcFRPSHpqNG1hTDdoVks4R3dTNWVUWkZQV3ZUVTduZllTV2FyOFZZUmY4Y2FiRnVKRTVUMlZTMFowbUlRNVkwR3diNDhNREsxWXZ4al9ZSzJQOUE,English,,5,2016-05-21,Firoz Diwan,,good,,
WordPress,Google Play,org.wordpress.android,Z3A6QU9xcFRPR2lnNWRwX29wVWhYejZ6UTRqY2tOeTNmYUZweWFyZ0pqMHdfNkUtYkl5Zk52cXZRQnFHYlNUam54cEVmaC1BRkRhSWtkcTgwMWlOYk4xcEE,English,,3,2016-05-21,Eva Campos Suárez,I like the easy way to publish content but,it still need to improve some little thing to have some function we have on the for example to center or justify the text or for to create a with your local file from your,,
WordPress,Google Play,org.wordpress.android,Z3A6QU9xcFRPR0xSaTQzLUc0VHgwRUF6cjJPTW5nRlZMZW01SnowUGR2dklvaW94aVIyOGlGSk11S3phYVNFSEM3LVQ0V25ILXlmTUhWVktwT0JqRDJoSHc,English,,1,2016-05-21,Asad Khan,Application Lags,i love no doubt but the application is just not right,,
WordPress,Google Play,org.wordpress.android,Z3A6QU9xcFRPR0xSaTQzLUc0VHgwRUF6cjJPTW5nRlZMZW01SnowUGR2dklvaW94aVIyOGlGSk11S3phYVNFSEM3LVQ0V25ILXlmTUhWVktwT0JqRDJoSHc,English,,1,2016-05-21,Asad Khan,Application Lags,it lag much,,
WordPress,Google Play,org.wordpress.android,Z3A6QU9xcFRPR0xSaTQzLUc0VHgwRUF6cjJPTW5nRlZMZW01SnowUGR2dklvaW94aVIyOGlGSk11S3phYVNFSEM3LVQ0V25ILXlmTUhWVktwT0JqRDJoSHc,English,,1,2016-05-21,Asad Khan,Application Lags,it get stuck every second,,
WordPress,Google Play,org.wordpress.android,Z3A6QU9xcFRPR0xSaTQzLUc0VHgwRUF6cjJPTW5nRlZMZW01SnowUGR2dklvaW94aVIyOGlGSk11S3phYVNFSEM3LVQ0V25ILXlmTUhWVktwT0JqRDJoSHc,English,,1,2016-05-21,Asad Khan,Application Lags,you definitely cannot work using this application,,
WordPress,Google Play,org.wordpress.android,Z3A6QU9xcFRPR0xSaTQzLUc0VHgwRUF6cjJPTW5nRlZMZW01SnowUGR2dklvaW94aVIyOGlGSk11S3phYVNFSEM3LVQ0V25ILXlmTUhWVktwT0JqRDJoSHc,English,,1,2016-05-21,Asad Khan,Application Lags,it right away,,
WordPress,Google Play,org.wordpress.android,Z3A6QU9xcFRPRk9FVWgtRGJBVl8tYmE3eTB0cXl6U2dNVFZMNi1XQVpNdzFLSHhiX1FLWEtJeWlOMF9iZGlpN2Z6d1Q4UXl5YnlPYkxnVTUwTEZMSmxBc1E,English,,1,2016-05-20,Brian Clopp,"Does not let you add new Pages, only posts",and editing page is in mode,,
WordPress,Google Play,org.wordpress.android,Z3A6QU9xcFRPRk9FVWgtRGJBVl8tYmE3eTB0cXl6U2dNVFZMNi1XQVpNdzFLSHhiX1FLWEtJeWlOMF9iZGlpN2Z6d1Q4UXl5YnlPYkxnVTUwTEZMSmxBc1E,English,,1,2016-05-20,Brian Clopp,"Does not let you add new Pages, only posts",also i think the feature to delete your entire site is just dumb,,
WordPress,Google Play,org.wordpress.android,Z3A6QU9xcFRPRVdLZDJlWTBrVVJrX3FuMGJZOTBVV0lCSjJ3M285SG1xUDdMY2VCWUtBM0tTckduMlhIREZEVlhsNHBYSzBTS1hPbWZCYXlfQmxGaGlSSkE,English,,5,2016-05-20,Tom Saint,New WordPress app,great,,
WordPress,Google Play,org.wordpress.android,Z3A6QU9xcFRPR1dYdmgzUlNFRXJXZmJyeldIWjRJUlFMd3hVRmRGcXFfSGVKa3czbC1zRkUxRFFPZzFNYk5lcnF4SWpfSkxDa3h2bHpYXzBuVUYxZEloSnc,English,,5,2016-05-22,Jeremy Yeung,Blessed,thanks for the continue with the great work,,
WordPress,Google Play,org.wordpress.android,Z3A6QU9xcFRPRTZZOV9YbDRJSVVGNGMtS1RtckttazRib2NVejdSREpid0pJdG1SNzdlVFpWVFV6VV85cUpmUnl5ZlpWVWpMUjR2amVtdkNzR1NZcHpzYXc,English,,3,2016-05-22,Eva Jeffers,Buggy,i generally like the ha some problem,,
WordPress,Google Play,org.wordpress.android,Z3A6QU9xcFRPRTZZOV9YbDRJSVVGNGMtS1RtckttazRib2NVejdSREpid0pJdG1SNzdlVFpWVFV6VV85cUpmUnl5ZlpWVWpMUjR2amVtdkNzR1NZcHpzYXc,English,,3,2016-05-22,Eva Jeffers,Buggy,i save a local draft with picture and exit out of the even for just a few the formatting go wonky and half the picture disappear,,
WordPress,Google Play,org.wordpress.android,Z3A6QU9xcFRPRTZZOV9YbDRJSVVGNGMtS1RtckttazRib2NVejdSREpid0pJdG1SNzdlVFpWVFV6VV85cUpmUnl5ZlpWVWpMUjR2amVtdkNzR1NZcHpzYXc,English,,3,2016-05-22,Eva Jeffers,Buggy,now just i wrote up a really long hit and i checked on it had saved a local draft,,
WordPress,Google Play,org.wordpress.android,Z3A6QU9xcFRPRTZZOV9YbDRJSVVGNGMtS1RtckttazRib2NVejdSREpid0pJdG1SNzdlVFpWVFV6VV85cUpmUnl5ZlpWVWpMUjR2amVtdkNzR1NZcHpzYXc,English,,3,2016-05-22,Eva Jeffers,Buggy,i hit edit and the entire post disappeared,,
WordPress,Google Play,org.wordpress.android,Z3A6QU9xcFRPRmtHSUxoVmJhZVN3WktVaU41ODM5NDUtV1E0SUJSRjM5S053VGNKMmJEc1RyX1hyMmhMei1iclR0Nk1nQlE1RXpVTU1oTTZTbENGc2o3MEE,English,,5,2016-05-22,Naftali Budamba,,good,,
WordPress,Google Play,org.wordpress.android,Z3A6QU9xcFRPSGlOeTFWNHZKdUtZajZIZF81azdCdjJHb1piRE56MTkwZGtlN2haaHl0VUh0dTNNUkl6WDJ0ZnhUUTJ2N0ZhcmdaSW9fN0E1R2ZLdTNSLXc,English,,5,2016-05-22,SANJAY MANN,Awsome,a very nice,,
WordPress,Google Play,org.wordpress.android,Z3A6QU9xcFRPR0l3b2ZRNzFvNDdGT0M0X3VuYnFDV1lXTWdjVXZGMkp5MV9VSG10bmZZU2gycllZVVQxbS1UdG12NjY5aWZOZDR2UXlQTldyeEpEX0p3TWc,English,,5,2016-05-21,Dominique Simpson,Visit my YouTube channel,visit my channel,,
WordPress,Google Play,org.wordpress.android,Z3A6QU9xcFRPR3JDZTdpU3pZNmtzcXZLc0lkQjZGT2JYQ1hlY2I3M1pWZW1uNVVYcUFlTUJ4UW5OQzhxRW9lZnFjUllEVFFaLUtvSXVyRGl5d2lDTXJNX0E,English,,1,2016-05-21,Matthew Lowe,"Wanted to create blog, but....",they claim and yes part are,,
WordPress,Google Play,org.wordpress.android,Z3A6QU9xcFRPSGxYLTZudHVLeVRrN0ttWExfa0ZCYXFLSzhrRDNJRUR5blNpZ1R3SFZ1S3Y0ZFN4aE5MRFRlOGMzc3dTenpIc1E0OTBmRENONE14ZW9lNkE,English,,3,2016-05-21,Michelle Fourie,Pictures,help please,,
WordPress,Google Play,org.wordpress.android,Z3A6QU9xcFRPR0ZaaHJITUlPdDloQ2Q0cHRxZmZLYW1PN1hMejBkRExpVm9GRGNsSkFLU2pxN0MyQ1BLMUtZNG5aN3h4Skh5R1FyTjVScXFjMWJVQlA4Z3c,English,,4,2016-05-21,LUNA Alexa,Help a lot actually...,i like i can create many with just 1 email with this i also that i can make my like it wa made by computer sort beginner should try this,,
WordPress,Google Play,org.wordpress.android,Z3A6QU9xcFRPR0ZaaHJITUlPdDloQ2Q0cHRxZmZLYW1PN1hMejBkRExpVm9GRGNsSkFLU2pxN0MyQ1BLMUtZNG5aN3h4Skh5R1FyTjVScXFjMWJVQlA4Z3c,English,,4,2016-05-21,LUNA Alexa,Help a lot actually...,really yeah some problem like cant use the multiple pick for choosing more 1 image for my it kinda to pick 1 by 1,,
WordPress,Google Play,org.wordpress.android,Z3A6QU9xcFRPR2pld3RtRUJfTUZMNENLNUJ4N1U4SF9TU1VwNGNwNzdBNzZvcXBOQWxGMmxVZEdodmRySldrZHpsSDNXV042WjJpcjUwcDJBZXN4TTd4QkE,English,,1,2016-05-23,Lucas Black,Used to be great,now crash bogging down my whole phone with it,,
WordPress,Google Play,org.wordpress.android,Z3A6QU9xcFRPRjBMR0gzNGFNUFNBMXhkMldGNEVpX3AwcTJxLUdhZWV5OEJ0eHBjU3oyQjE3VndodHNzSnRkd3N3VnVOSDZxZGNXc3pjbUd5ZTJlbFhsM2c,English,,1,2016-05-23,Jim McD,,this give zero explanation of what this actually doe,,
WordPress,Google Play,org.wordpress.android,Z3A6QU9xcFRPRjBMR0gzNGFNUFNBMXhkMldGNEVpX3AwcTJxLUdhZWV5OEJ0eHBjU3oyQjE3VndodHNzSnRkd3N3VnVOSDZxZGNXc3pjbUd5ZTJlbFhsM2c,English,,1,2016-05-23,Jim McD,,i keep saying to check the is right,,
WordPress,Google Play,org.wordpress.android,Z3A6QU9xcFRPRjBMR0gzNGFNUFNBMXhkMldGNEVpX3AwcTJxLUdhZWV5OEJ0eHBjU3oyQjE3VndodHNzSnRkd3N3VnVOSDZxZGNXc3pjbUd5ZTJlbFhsM2c,English,,1,2016-05-23,Jim McD,,this is a useless,,
WordPress,Google Play,org.wordpress.android,Z3A6QU9xcFRPRmxKanpOZUllZEhaUlZ3Tk9oSk00YWJrTlB1Z0xjVUhtY19vQTBnOVpyTkRCbWVzVzVNaGQtdnRkSzV3ejdjT3FUek1tUUZYaEg2Z3FTTWc,English,,1,2016-05-23,Amy Lam,Signature gone?,what happen to the signature function provided last time,,
WordPress,Google Play,org.wordpress.android,Z3A6QU9xcFRPR0g2SFUxal9kTXRIejN2VjhTYkxUTTFqRXdhellmUWQ3RWxlMW5YbEhDZ2RlWHhHWnY4bVlhdHNlaDBIZ1BSTUotcmN1bjR2MWJEclY1UUE,English,,4,2016-05-23,Syed mohammed Fuzail,Very easy and simple to use,very nice and faster,,
WordPress,Google Play,org.wordpress.android,Z3A6QU9xcFRPR2YtcnRWd1l3a2VTeGVfN0ZRaEVuM2ZGU1pTeFdxTzlvRGZ4bXdkeGhWWE01bjBwbDBFZmdrSHRodGpPMWFCQ2o2SUptdGJpUTBmQ2dUekE,English,,2,2016-05-23,Elijah Pamintuan,Cant upload images,fix it please,,
WordPress,Google Play,org.wordpress.android,Z3A6QU9xcFRPRVgzcjlkcHh5RUNCT1BRa3Z5OUdCYkJtZWY2MDg2bkkzRUFGa3p5d1Axc1RqY2s1LWxtN1dHR29RTUNUWXNGVWlJaEJPbjFKaWJnOTVUb0E,English,,5,2016-05-23,Momen Abdelsalam,Best to use...,oh my this thing ha awesome feature,,
WordPress,Google Play,org.wordpress.android,Z3A6QU9xcFRPRjkwb1R4bjdHS3d4blRIUEVaTmhVWXpBNm1tTzQ4MWdtTU5Ga0xMVGNHd2V5SFYyRFh3YURScEExVkRNa3pyRXlYSG1BWHRrQ0JUMV9FbGc,English,,5,2016-05-23,abanum eddie,,useful,,
WordPress,Google Play,org.wordpress.android,Z3A6QU9xcFRPSDhOaDZzVWV2OV84Zno5Z2lyeG5jYjV2bFBzN3JGOERRSWZlQllFQTdIdUM1MVZRVDF5YjJqdVpHdHMyRmgtZThicXdObk1BaGxhTm1Fb2c,English,,4,2016-05-23,F Sertage,Makes my life so much easier,update from anytime,,
WordPress,Google Play,org.wordpress.android,Z3A6QU9xcFRPSDhOaDZzVWV2OV84Zno5Z2lyeG5jYjV2bFBzN3JGOERRSWZlQllFQTdIdUM1MVZRVDF5YjJqdVpHdHMyRmgtZThicXdObk1BaGxhTm1Fb2c,English,,4,2016-05-23,F Sertage,Makes my life so much easier,thank you crew,,
WordPress,Google Play,org.wordpress.android,Z3A6QU9xcFRPR2MtNmNHbzR2RFhmS1gtQ0xreFVDWHF1S0NZTFEzZEdhTDNRTlBNSnZrWlcwODE2eUZtNmk4NnVHbzRxdzFlMDlrMTNRd1JOUnJFNFl2MUE,English,,1,2016-05-22,Rishabh Sharma,Annoying,this is too annoying,,
WordPress,Google Play,org.wordpress.android,Z3A6QU9xcFRPR2MtNmNHbzR2RFhmS1gtQ0xreFVDWHF1S0NZTFEzZEdhTDNRTlBNSnZrWlcwODE2eUZtNmk4NnVHbzRxdzFlMDlrMTNRd1JOUnJFNFl2MUE,English,,1,2016-05-22,Rishabh Sharma,Annoying,i love too but one day i forgot my password but i try to reset the password it not helping me at all wasted time,,
WordPress,Google Play,org.wordpress.android,Z3A6QU9xcFRPSFNwNHhqdGwxbGNOMDc4QWt4ZnkyMGp3WEFCTUdZRV9CRzMzeENSZHNXeHh6Tzh1Vy10LXc5NnFqX2RUWFZwZTMyMEktMXdXVnFFWVlfcHc,English,,5,2016-05-22,Loniasia Vicky,Very good,this is but how can i transfer my file and content to another site,,
WordPress,Google Play,org.wordpress.android,Z3A6QU9xcFRPSFNwNHhqdGwxbGNOMDc4QWt4ZnkyMGp3WEFCTUdZRV9CRzMzeENSZHNXeHh6Tzh1Vy10LXc5NnFqX2RUWFZwZTMyMEktMXdXVnFFWVlfcHc,English,,5,2016-05-22,Loniasia Vicky,Very good,,,
WordPress,Google Play,org.wordpress.android,Z3A6QU9xcFRPRm15U1ViYk5wRFYwRVd2UVBOWG9aNG5YdXBhRGRzSHdlTGM2cXN5b0FhNkVnWldhZzdWSG9sTV84U3htRmhkT2xWaFlIV3JJdXdXWGhWeGc,English,,1,2016-05-24,Florife Fornoles,Unable to login,my credential are right,,
WordPress,Google Play,org.wordpress.android,Z3A6QU9xcFRPR1dYaWpiMmtUM1o0bzIxczdSRGNvN1BXZTBWSEFTMi0tRVFUSXZjZ182NGh2Ujl1c3NLdnp0VjIyR09NWUVvbGlWa2VZYWhGZ3FvVzB6SWc,English,,1,2016-05-24,Muhammad Irfan,,waste of time,,
WordPress,Google Play,org.wordpress.android,Z3A6QU9xcFRPR2MtNmNHbzR2RFhmS1gtQ0xreFVDWHF1S0NZTFEzZEdhTDNRTlBNSnZrWlcwODE2eUZtNmk4NnVHbzRxdzFlMDlrMTNRd1JOUnJFNFl2MUE,English,,4,2016-05-24,Rishabh Sharma,Thank you.. 😃,thank you much,,
WordPress,Google Play,org.wordpress.android,Z3A6QU9xcFRPR2MtNmNHbzR2RFhmS1gtQ0xreFVDWHF1S0NZTFEzZEdhTDNRTlBNSnZrWlcwODE2eUZtNmk4NnVHbzRxdzFlMDlrMTNRd1JOUnJFNFl2MUE,English,,4,2016-05-24,Rishabh Sharma,Thank you.. 😃,your reply helped me,,
WordPress,Google Play,org.wordpress.android,Z3A6QU9xcFRPRm5TSGE0TUhMU2JCRDhlZkZsdWhad1VnZEgzZWVUYXZqWTctVm5tdE41cFBCNEFFM1FkZHdiNWtSZnBHZU51bi1rczcyQVNFSU1mRWRHWFE,English,,2,2016-05-24,Ton Machielsen,,i hope you guy read this is getting horrible,,
WordPress,Google Play,org.wordpress.android,Z3A6QU9xcFRPRm5TSGE0TUhMU2JCRDhlZkZsdWhad1VnZEgzZWVUYXZqWTctVm5tdE41cFBCNEFFM1FkZHdiNWtSZnBHZU51bi1rczcyQVNFSU1mRWRHWFE,English,,2,2016-05-24,Ton Machielsen,,writing an article is although a bit but you press the button havoc begin,,
WordPress,Google Play,org.wordpress.android,Z3A6QU9xcFRPRm5TSGE0TUhMU2JCRDhlZkZsdWhad1VnZEgzZWVUYXZqWTctVm5tdE41cFBCNEFFM1FkZHdiNWtSZnBHZU51bi1rczcyQVNFSU1mRWRHWFE,English,,2,2016-05-24,Ton Machielsen,,first my galaxy note completely lock then apparently it cannot handle the stress anymore and just reboots,,
WordPress,Google Play,org.wordpress.android,Z3A6QU9xcFRPRm5TSGE0TUhMU2JCRDhlZkZsdWhad1VnZEgzZWVUYXZqWTctVm5tdE41cFBCNEFFM1FkZHdiNWtSZnBHZU51bi1rczcyQVNFSU1mRWRHWFE,English,,2,2016-05-24,Ton Machielsen,,and this happens every time i post something more a with an image,,
WordPress,Google Play,org.wordpress.android,Z3A6QU9xcFRPRm5TSGE0TUhMU2JCRDhlZkZsdWhad1VnZEgzZWVUYXZqWTctVm5tdE41cFBCNEFFM1FkZHdiNWtSZnBHZU51bi1rczcyQVNFSU1mRWRHWFE,English,,2,2016-05-24,Ton Machielsen,,more then one image video impossible,,
WordPress,Google Play,org.wordpress.android,Z3A6QU9xcFRPRm5TSGE0TUhMU2JCRDhlZkZsdWhad1VnZEgzZWVUYXZqWTctVm5tdE41cFBCNEFFM1FkZHdiNWtSZnBHZU51bi1rczcyQVNFSU1mRWRHWFE,English,,2,2016-05-24,Ton Machielsen,,i upload via,,
WordPress,Google Play,org.wordpress.android,Z3A6QU9xcFRPRm5TSGE0TUhMU2JCRDhlZkZsdWhad1VnZEgzZWVUYXZqWTctVm5tdE41cFBCNEFFM1FkZHdiNWtSZnBHZU51bi1rczcyQVNFSU1mRWRHWFE,English,,2,2016-05-24,Ton Machielsen,,please debug this thing or crate something work,,
WordPress,Google Play,org.wordpress.android,Z3A6QU9xcFRPR2dNVEtXN3RGTVRPeHo2Skpzdjl3Nmc4M1l6aUJLQlVSY3ZTU2c3RzRDZDI2MFZUS3o3NHN2SGtHX2ROUUcxYXU3aEptMXpjSnJxY2xJNFE,English,,4,2016-05-24,patrick liw,"Yes, i like it...but",i try to add multiple it will disappear after i off it,,
WordPress,Google Play,org.wordpress.android,Z3A6QU9xcFRPSDY0N0RoSE9Rek5rRUkxX1ZjUXA5VVk2X1dhQjBSaFB3aGhBSkhXbThCOXktM2VDV0VpaXF6TG5lNDRpMWM2bHFuSmxKZW5fX1YyUjI3cnc,English,,3,2016-05-24,Dharmendra Sharma,Images don't upload!,please fix it,,
WordPress,Google Play,org.wordpress.android,Z3A6QU9xcFRPR3dYMXB6YjVKVWU4anprc0RINFJOdjZtX2JIYkRpRXZob0xnT0Q1MzcwX2w3WGNTa0k1blR4QU52VXhyMmIxU2dwUnRGaTQ4Z0ZHQ2ExNnc,English,,5,2016-05-24,Pintu Rathod,Rights of write,anything write you,,
WordPress,Google Play,org.wordpress.android,Z3A6QU9xcFRPRkZtZDdvLUpLVWRmVUNwS3E0WG9KUjA4alB1NXNETGVLWU5la3BCNTNoeUh1TmZHX3lxOE0xeUROVkhVcXh1X0lZR21MYnEzeENLRDhHOUE,English,,5,2016-05-24,ayush solanki,,i made a site but how can it be added to search engine,,
WordPress,Google Play,org.wordpress.android,Z3A6QU9xcFRPSDFGaWRvU2swNTdfY2NBVm5nTEhFaHFucWJoSVAxSkZLc3ZqbHlpaDd4NkNOUEdEZXBZVWxkWDR1cVczNy01MFluNlVNZG5UWVVuT1dzS0E,English,,1,2016-05-24,CHAMPION 4IN,Very bad,very bad,,
WordPress,Google Play,org.wordpress.android,Z3A6QU9xcFRPRzhrc2M3RzVoYlVZUUFjOGFZOWRWWERmX0xSd2pTUTFCTEs1TkJEWGZrMjJMUVVtVVk2NGNBUmJVY1VUeHN4MWVieTFRaG9ZcTJ5UnF5NkE,English,,5,2016-05-23,rahul mandal,love it,love it,,
WordPress,Google Play,org.wordpress.android,Z3A6QU9xcFRPR3dYTFpNVHUyOS1zUVM3a3VVY0tSQUxhOTRCRGpCYUI2bWx4MUlmeHotUFVXUG82Ym94cUtnZkZGb0JBX1JCOW94RkJIdmtpbTNrVk9XVWc,English,,4,2016-05-25,nishesh patel,,like it,,
WordPress,Google Play,org.wordpress.android,Z3A6QU9xcFRPSEhweTN2cXBPOWVYZ2NQczJ1d21fMF9SdTUzakFMNEFlUnJqbUlXYlZ4VjI0b3BDWDlyU1lZbjhiX0ZFbVU2U1dlejM2Ukp3bTdsMzN5WWc,English,,5,2016-05-25,Boy Amh,,,,
WordPress,Google Play,org.wordpress.android,Z3A6QU9xcFRPR2RSdUVmcUd1cTc3WVhrd3hfMmRFbFZ4c3NWNERGLS1WVnA1QmZEaHFNemdlUjdCd3VQZUVfelpnUHpIWmxSMjlxNWVIQkFES1hWNVo0LXc,English,,1,2016-05-25,Airinna Nazri,Bad,just bad,,
WordPress,Google Play,org.wordpress.android,Z3A6QU9xcFRPR2RSdUVmcUd1cTc3WVhrd3hfMmRFbFZ4c3NWNERGLS1WVnA1QmZEaHFNemdlUjdCd3VQZUVfelpnUHpIWmxSMjlxNWVIQkFES1hWNVo0LXc,English,,1,2016-05-25,Airinna Nazri,Bad,,,
WordPress,Google Play,org.wordpress.android,Z3A6QU9xcFRPR2lnNWRwX29wVWhYejZ6UTRqY2tOeTNmYUZweWFyZ0pqMHdfNkUtYkl5Zk52cXZRQnFHYlNUam54cEVmaC1BRkRhSWtkcTgwMWlOYk4xcEE,English,,4,2016-05-24,Eva Campos Suárez,Easy to publish but,it need to improve little detail of text for example an icon to center the text instead to write code,,
WordPress,Google Play,org.wordpress.android,Z3A6QU9xcFRPRzBSSHVhemY0bnB4ZXJxY254aDgwQmJKTUpjRFg4QmtSLU1zTnJSRlJJR2JTNjdlbnZWN0FHRzlGQ1VWNTJVT2E4WHIyeXBoY1BydmNSeUE,English,,5,2016-05-24,Homayra Rahman,My Beloved!,go ahead,,
WordPress,Google Play,org.wordpress.android,Z3A6QU9xcFRPSHF4MzhRQl9EaVd4a3pSMzZ3NlhEdmZxZW5KWlhQbTNZOXpteDdDXzRyNFJrSXUxaGJ3TGtRY0RXVTZmZTNTd0JyWXAtVTk1TjBjVWEtdHc,English,,3,2016-05-26,Anthony Tran,Functional But Flawed,i wrote an article and wa saving it for later and then got a new phone and logged in and the article wa deleted,,
WordPress,Google Play,org.wordpress.android,Z3A6QU9xcFRPSHF4MzhRQl9EaVd4a3pSMzZ3NlhEdmZxZW5KWlhQbTNZOXpteDdDXzRyNFJrSXUxaGJ3TGtRY0RXVTZmZTNTd0JyWXAtVTk1TjBjVWEtdHc,English,,3,2016-05-26,Anthony Tran,Functional But Flawed,stored locally,,
WordPress,Google Play,org.wordpress.android,Z3A6QU9xcFRPSHF4MzhRQl9EaVd4a3pSMzZ3NlhEdmZxZW5KWlhQbTNZOXpteDdDXzRyNFJrSXUxaGJ3TGtRY0RXVTZmZTNTd0JyWXAtVTk1TjBjVWEtdHc,English,,3,2016-05-26,Anthony Tran,Functional But Flawed,come on,,
WordPress,Google Play,org.wordpress.android,Z3A6QU9xcFRPSHF4MzhRQl9EaVd4a3pSMzZ3NlhEdmZxZW5KWlhQbTNZOXpteDdDXzRyNFJrSXUxaGJ3TGtRY0RXVTZmZTNTd0JyWXAtVTk1TjBjVWEtdHc,English,,3,2016-05-26,Anthony Tran,Functional But Flawed,i logged into my i should have all my draft,,
WordPress,Google Play,org.wordpress.android,Z3A6QU9xcFRPSHF4MzhRQl9EaVd4a3pSMzZ3NlhEdmZxZW5KWlhQbTNZOXpteDdDXzRyNFJrSXUxaGJ3TGtRY0RXVTZmZTNTd0JyWXAtVTk1TjBjVWEtdHc,English,,3,2016-05-26,Anthony Tran,Functional But Flawed,do they do much for the community of user also because i have had 3 follower in 3 year,,
WordPress,Google Play,org.wordpress.android,Z3A6QU9xcFRPSHF4MzhRQl9EaVd4a3pSMzZ3NlhEdmZxZW5KWlhQbTNZOXpteDdDXzRyNFJrSXUxaGJ3TGtRY0RXVTZmZTNTd0JyWXAtVTk1TjBjVWEtdHc,English,,3,2016-05-26,Anthony Tran,Functional But Flawed,they should feature website,,
WordPress,Google Play,org.wordpress.android,Z3A6QU9xcFRPSHF4MzhRQl9EaVd4a3pSMzZ3NlhEdmZxZW5KWlhQbTNZOXpteDdDXzRyNFJrSXUxaGJ3TGtRY0RXVTZmZTNTd0JyWXAtVTk1TjBjVWEtdHc,English,,3,2016-05-26,Anthony Tran,Functional But Flawed,i cannot figure out how to do a sub category link from the main link,,
WordPress,Google Play,org.wordpress.android,Z3A6QU9xcFRPSHF4MzhRQl9EaVd4a3pSMzZ3NlhEdmZxZW5KWlhQbTNZOXpteDdDXzRyNFJrSXUxaGJ3TGtRY0RXVTZmZTNTd0JyWXAtVTk1TjBjVWEtdHc,English,,3,2016-05-26,Anthony Tran,Functional But Flawed,it go dead,,
WordPress,Google Play,org.wordpress.android,Z3A6QU9xcFRPSHF4MzhRQl9EaVd4a3pSMzZ3NlhEdmZxZW5KWlhQbTNZOXpteDdDXzRyNFJrSXUxaGJ3TGtRY0RXVTZmZTNTd0JyWXAtVTk1TjBjVWEtdHc,English,,3,2016-05-26,Anthony Tran,Functional But Flawed,i will keep researching but some of it can be frustrating,,
WordPress,Google Play,org.wordpress.android,Z3A6QU9xcFRPRjI2Rm5Hb0FGS0hhQzFWZnZEMXNnYTRkd1NldEJzMUo2WGFSYlFOeUI3dXZ5U2o1OEVmcS1mcUpOcDFvTkVYWWdOR2h4QVNoU1NTb1dWX0E,English,,5,2016-05-26,Rokayya Laguilayan,Ilke me,love it,,
WordPress,Google Play,org.wordpress.android,Z3A6QU9xcFRPRjkxRTFXTmZkMzl5WkxFR3V4akFpS2lpbXJyRXVxdVpGUXBraXpZdHIyM0FMUmZYX3JOdGxIVVdyMGkxWjYxaFJoMFFOZTNJMElYVEdZY1E,English,,5,2016-05-26,Sujeet Singh,,love it provides fantastic feature and even for free,,
WordPress,Google Play,org.wordpress.android,Z3A6QU9xcFRPR0pjalZzbXRuQ19MbG1TcjFvUmFPT0pjcEJNbXZzVEFxX3AtYXU5SG93WXo5d0JkcFZvc3FENktJRDhEM2ZQX1ZUSDUyak5oZkpySTk3VVE,English,,3,2016-05-26,David Swan,Overall ok,great for basic function,,
WordPress,Google Play,org.wordpress.android,Z3A6QU9xcFRPR0pjalZzbXRuQ19MbG1TcjFvUmFPT0pjcEJNbXZzVEFxX3AtYXU5SG93WXo5d0JkcFZvc3FENktJRDhEM2ZQX1ZUSDUyak5oZkpySTk3VVE,English,,3,2016-05-26,David Swan,Overall ok,but i wish page editing w not just but had visual editing a well,,
WordPress,Google Play,org.wordpress.android,Z3A6QU9xcFRPR0pjalZzbXRuQ19MbG1TcjFvUmFPT0pjcEJNbXZzVEFxX3AtYXU5SG93WXo5d0JkcFZvc3FENktJRDhEM2ZQX1ZUSDUyak5oZkpySTk3VVE,English,,3,2016-05-26,David Swan,Overall ok,would make think a lot easier for a quick edit,,
WordPress,Google Play,org.wordpress.android,Z3A6QU9xcFRPR3ZzVUFQTnJkU05rZ19rbmxqTTAybXZYQV9fTFVGMmNyTXZNaXlGUWdRdXFTUzdKWmJYLXpHdEZERGNPcVp6blR1X2VRZ000ZTg1d01kMGc,English,,1,2016-05-25,Dan Able,,terrible,,
WordPress,Google Play,org.wordpress.android,Z3A6QU9xcFRPSDZUWDlxZjgwM3VuWXdlTGpPR2dXLWV5a0FRWEJrUnVPeXVkUHdUOUVmNlFpcVpNdDU2b2NYZE9NNzI2OERpSlE5ODJiN19Wd291blVqTnc,English,,1,2016-05-27,Rishav Bajaj,,this is just not fair 3 hour of complete i wa just going to publish my post what just happed all the text this is not the way i want my post back totally disappointing,,
WordPress,Google Play,org.wordpress.android,Z3A6QU9xcFRPRnZIaXBXNXdZbkIzdnNkQzZTTEdDZGF2d2w5bTdkcHRwdXdnZlJKQ3dNaVRKLTY4WFdKanBRaVpFSDRmcVY4S3BtQUIxRTQtZHl1UWI3WXc,English,,2,2016-05-28,linda randall,Not working,cant it freezing cell,,
WordPress,Google Play,org.wordpress.android,Z3A6QU9xcFRPSFBYbl9kVTJDTXMxT3ZJOFVnb0NEU3RndXYtdldJVHdxd2h0X0dsYmItVmtTeFM1ck9LNmdMckk1Mk5MX2ZVQWw4OUkxWFFidk5BcHFpNVE,English,,4,2016-05-28,suhaib roomi,Easy to work,i have even worked it on my but generously have a better experience on my phone,,
WordPress,Google Play,org.wordpress.android,Z3A6QU9xcFRPSFBYbl9kVTJDTXMxT3ZJOFVnb0NEU3RndXYtdldJVHdxd2h0X0dsYmItVmtTeFM1ck9LNmdMckk1Mk5MX2ZVQWw4OUkxWFFidk5BcHFpNVE,English,,4,2016-05-28,suhaib roomi,Easy to work,great work,,
WordPress,Google Play,org.wordpress.android,Z3A6QU9xcFRPSFBYbl9kVTJDTXMxT3ZJOFVnb0NEU3RndXYtdldJVHdxd2h0X0dsYmItVmtTeFM1ck9LNmdMckk1Mk5MX2ZVQWw4OUkxWFFidk5BcHFpNVE,English,,4,2016-05-28,suhaib roomi,Easy to work,good job,,
WordPress,Google Play,org.wordpress.android,Z3A6QU9xcFRPRUJCdTRYMWpVUWMwV2lQMXVKOVZOcGpGREd6VnE1bjhrOFpPVGxLaGN2M0FNdnhGY0htMnhLUkxpMFFTTXpWVW1DNlJMT05kTGwzYU5yd0E,English,,1,2016-05-28,Renz Gamboa,Photos,i add photo on my it keep distorting the text and the photo are not in place,,
WordPress,Google Play,org.wordpress.android,Z3A6QU9xcFRPRUJCdTRYMWpVUWMwV2lQMXVKOVZOcGpGREd6VnE1bjhrOFpPVGxLaGN2M0FNdnhGY0htMnhLUkxpMFFTTXpWVW1DNlJMT05kTGwzYU5yd0E,English,,1,2016-05-28,Renz Gamboa,Photos,fix this sooner please,,
WordPress,Google Play,org.wordpress.android,Z3A6QU9xcFRPRUJCdTRYMWpVUWMwV2lQMXVKOVZOcGpGREd6VnE1bjhrOFpPVGxLaGN2M0FNdnhGY0htMnhLUkxpMFFTTXpWVW1DNlJMT05kTGwzYU5yd0E,English,,1,2016-05-28,Renz Gamboa,Photos,very unprofessional,,
WordPress,Google Play,org.wordpress.android,Z3A6QU9xcFRPSHNSN0w5b295X2lzQnpQN1FKWVZzY3RSZlBkWFd4YmhWZ2dkSTVaZW02c25qcTBnVUVXMmJKSFM2c2RxYzk0c1Q5bVktRHdWS0FQSjllU2c,English,,1,2016-05-28,Tara Cheesman,What happened?,this used to work but the last update it ha been permanently frozen on my comment tab and i have been unable to do anything with it,,
WordPress,Google Play,org.wordpress.android,Z3A6QU9xcFRPRUVodnNqSlU2LXdrenpZZWFSQmFfa2xTcFNDd1FoSVBNazNlbE1zOGpxc0RpSjNvVTJ1akhMZGZhdlVOUDlsSmZYUUZ4cnR5cXE1LXVEVGc,English,,3,2016-05-27,Ganteng Polnotok,,great love it,,
WordPress,Google Play,org.wordpress.android,Z3A6QU9xcFRPR0Rnb0sxd3ZfcGttZGgzN1VKc0JtakFseE9QTEtxT05vOGxpVHIzbG84WndETGswSm5Ua2tTdFNyemYtS0l4bkN5SUpFS1FFYWh6Z0JBR1E,English,,2,2016-05-27,Yash Hatekar,Is It Possible?,is it possible we write something and save that to further continue writing,,
WordPress,Google Play,org.wordpress.android,Z3A6QU9xcFRPR0Rnb0sxd3ZfcGttZGgzN1VKc0JtakFseE9QTEtxT05vOGxpVHIzbG84WndETGswSm5Ua2tTdFNyemYtS0l4bkN5SUpFS1FFYWh6Z0JBR1E,English,,2,2016-05-27,Yash Hatekar,Is It Possible?,i had wrote a paragraph,,
WordPress,Google Play,org.wordpress.android,Z3A6QU9xcFRPR0Rnb0sxd3ZfcGttZGgzN1VKc0JtakFseE9QTEtxT05vOGxpVHIzbG84WndETGswSm5Ua2tTdFNyemYtS0l4bkN5SUpFS1FFYWh6Z0JBR1E,English,,2,2016-05-27,Yash Hatekar,Is It Possible?,but then i cant find an option to save,,
WordPress,Google Play,org.wordpress.android,Z3A6QU9xcFRPR0Rnb0sxd3ZfcGttZGgzN1VKc0JtakFseE9QTEtxT05vOGxpVHIzbG84WndETGswSm5Ua2tTdFNyemYtS0l4bkN5SUpFS1FFYWh6Z0JBR1E,English,,2,2016-05-27,Yash Hatekar,Is It Possible?,will u help me,,
WordPress,Google Play,org.wordpress.android,Z3A6QU9xcFRPRmszaFBqYndYS0tKazc4ZmlGd2Z1STVseG9BOXJ4bExCOFl5VExMSmF2Ym5qQ3Q3VjI4ZDQ3d3F1bG4yR1BIR0l2R0hEX2dvbjg3NVYzUXc,English,,2,2016-05-27,Jav Munguia,Ehh Having Issues,also when editing my menu from the on my a soon a i try to drag a page to reorder the menu it automatically scroll all the way down making it impossible,,
WordPress,Google Play,org.wordpress.android,Z3A6QU9xcFRPRmszaFBqYndYS0tKazc4ZmlGd2Z1STVseG9BOXJ4bExCOFl5VExMSmF2Ym5qQ3Q3VjI4ZDQ3d3F1bG4yR1BIR0l2R0hEX2dvbjg3NVYzUXc,English,,2,2016-05-27,Jav Munguia,Ehh Having Issues,please fix these issue and thanks,,
WordPress,Google Play,org.wordpress.android,Z3A6QU9xcFRPR1I5Z3lCUThCbFVnam9zUFU4YzQtZUtVSFdlYWZRN01KdmtqdFZKSTFpSHAyeExpWi1qaFY2NUQyREhwdTFJdzZGelliOS1DaERZdzRnUkE,English,,1,2016-05-27,Rachael fasan,DO NOT DOWNLOAD,it is boring and difficult to use,,
WordPress,Google Play,org.wordpress.android,Z3A6QU9xcFRPRV9vR3JHV3ZvVFVra1JnbU5STWRFZGdaTy1NWHhDcnRiZ2lJUmJEYjlaMXlBVG95eUFUVFVKR0V2b1VUY01uQU9ndlg3RjlGcjhXWnU5LVE,English,,2,2016-05-29,Lani Clarke,Deletes my posts at random,this is a terrible,,
WordPress,Google Play,org.wordpress.android,Z3A6QU9xcFRPRV9vR3JHV3ZvVFVra1JnbU5STWRFZGdaTy1NWHhDcnRiZ2lJUmJEYjlaMXlBVG95eUFUVFVKR0V2b1VUY01uQU9ndlg3RjlGcjhXWnU5LVE,English,,2,2016-05-29,Lani Clarke,Deletes my posts at random,it ha delete partial or whole post even published one with comment seemingly at random with no way to retrieve them,,
WordPress,Google Play,org.wordpress.android,Z3A6QU9xcFRPRV9vR3JHV3ZvVFVra1JnbU5STWRFZGdaTy1NWHhDcnRiZ2lJUmJEYjlaMXlBVG95eUFUVFVKR0V2b1VUY01uQU9ndlg3RjlGcjhXWnU5LVE,English,,2,2016-05-29,Lani Clarke,Deletes my posts at random,extremely frustrating,,
WordPress,Google Play,org.wordpress.android,Z3A6QU9xcFRPSEx1VE1Oc1V1Ql9xc3U2a01iZVF6QlhSWGZzUWE0OHgyaUkzcmY3MzJvWGFVemxVTS1nT2Q4MUxqQ1VkOEV1SVNoWTdGTUU1S0ljOUV5M2c,English,,2,2016-05-28,Emmanuel Muema,,the latest version of keep freezing and making my phone hang,,
WordPress,Google Play,org.wordpress.android,Z3A6QU9xcFRPSEx1VE1Oc1V1Ql9xc3U2a01iZVF6QlhSWGZzUWE0OHgyaUkzcmY3MzJvWGFVemxVTS1nT2Q4MUxqQ1VkOEV1SVNoWTdGTUU1S0ljOUV5M2c,English,,2,2016-05-28,Emmanuel Muema,,please fix it,,
WordPress,Google Play,org.wordpress.android,Z3A6QU9xcFRPSEx1VE1Oc1V1Ql9xc3U2a01iZVF6QlhSWGZzUWE0OHgyaUkzcmY3MzJvWGFVemxVTS1nT2Q4MUxqQ1VkOEV1SVNoWTdGTUU1S0ljOUV5M2c,English,,2,2016-05-28,Emmanuel Muema,,i even had to downgrade to an older version,,
WordPress,Google Play,org.wordpress.android,Z3A6QU9xcFRPSEx1VE1Oc1V1Ql9xc3U2a01iZVF6QlhSWGZzUWE0OHgyaUkzcmY3MzJvWGFVemxVTS1nT2Q4MUxqQ1VkOEV1SVNoWTdGTUU1S0ljOUV5M2c,English,,2,2016-05-28,Emmanuel Muema,,,,
WordPress,Google Play,org.wordpress.android,Z3A6QU9xcFRPRWJMUTRqMnN2WElYQ0tqSGhhQVFCRkhiaVdMYUJIREIyNGJEVVpLLS1fd0V3dWp4U1JKWHAteTJ4ejQyWWdaSlZhUDhXQnAwOF9YWDJQTGc,English,,3,2016-05-28,Kyrsten Nielsen,Where are the widgets gone?,like the,,
WordPress,Google Play,org.wordpress.android,Z3A6QU9xcFRPRWJMUTRqMnN2WElYQ0tqSGhhQVFCRkhiaVdMYUJIREIyNGJEVVpLLS1fd0V3dWp4U1JKWHAteTJ4ejQyWWdaSlZhUDhXQnAwOF9YWDJQTGc,English,,3,2016-05-28,Kyrsten Nielsen,Where are the widgets gone?,miss the widget,,
WordPress,Google Play,org.wordpress.android,Z3A6QU9xcFRPR0xoUFV2dVBFUi1tRmdvUmFqZHhMLTdIdkVndV9YTXQ3dXcwX01ydG5YLWt4SGN4cGxJTUxFZ2JUSklSaTlkLXF2cy1kZXhGOWNZb0Joenc,English,,1,2016-05-28,Kendra Wong,Cannot see or update anything,same for page and medium,,
WordPress,Google Play,org.wordpress.android,Z3A6QU9xcFRPR0xoUFV2dVBFUi1tRmdvUmFqZHhMLTdIdkVndV9YTXQ3dXcwX01ydG5YLWt4SGN4cGxJTUxFZ2JUSklSaTlkLXF2cy1kZXhGOWNZb0Joenc,English,,1,2016-05-28,Kendra Wong,Cannot see or update anything,i cannot add anything new either,,
WordPress,Google Play,org.wordpress.android,Z3A6QU9xcFRPR0xoUFV2dVBFUi1tRmdvUmFqZHhMLTdIdkVndV9YTXQ3dXcwX01ydG5YLWt4SGN4cGxJTUxFZ2JUSklSaTlkLXF2cy1kZXhGOWNZb0Joenc,English,,1,2016-05-28,Kendra Wong,Cannot see or update anything,update a i would love to be able to use this to during my summer travel,,
WordPress,Google Play,org.wordpress.android,Z3A6QU9xcFRPRWZxc1ZXWnhFRnBFM281R0F4YmZBZElNWWhvSEhTTXppaW44bjA4QWJmWWFfTzhSdHdKVFZTaGk2UDA2eTQ4bG96X0xWVHRNdWl6NDJIVHc,English,,5,2016-05-30,Terry Fergusson,,it doe what i want it to do,,
WordPress,Google Play,org.wordpress.android,Z3A6QU9xcFRPSGl4bkN4OFBNZTljcDdjZTdsakI3Y0lvSXZFNmduVFd3b2RrYkJPSWdwbFozU2c3b3FscGJIYS02TzVLMG9GLTg4ejBQSEplZk1NTk9oaUE,English,,5,2016-05-30,Pratik Jadhav,Amazing. :),this ha increased it efficiency on a great level,,
WordPress,Google Play,org.wordpress.android,Z3A6QU9xcFRPSGl4bkN4OFBNZTljcDdjZTdsakI3Y0lvSXZFNmduVFd3b2RrYkJPSWdwbFozU2c3b3FscGJIYS02TzVLMG9GLTg4ejBQSEplZk1NTk9oaUE,English,,5,2016-05-30,Pratik Jadhav,Amazing. :),run smoothly,,
WordPress,Google Play,org.wordpress.android,Z3A6QU9xcFRPSGl4bkN4OFBNZTljcDdjZTdsakI3Y0lvSXZFNmduVFd3b2RrYkJPSWdwbFozU2c3b3FscGJIYS02TzVLMG9GLTg4ejBQSEplZk1NTk9oaUE,English,,5,2016-05-30,Pratik Jadhav,Amazing. :),thumb up,,
WordPress,Google Play,org.wordpress.android,Z3A6QU9xcFRPRjNXUXVYNm5aRWh1VERpSnVGTk10MHY4TlBnWXpvMXhkelU5T19ReGt4T3NQNXpTbzUydEVfYkRPX1dVdmhKSHpiWkJRdkFnd1BVa3c0eEE,English,,1,2016-05-30,Melissa Becker,Latest update,i open it by clicking on a i cannot do anything else a it freeze,,
WordPress,Google Play,org.wordpress.android,Z3A6QU9xcFRPR0ZfWDRJTDRfRnNZNmZkeGhqYmhHQTB6WGU2TDV3b2ZnMzgzM0dDX2VxQXRuQ0JodW4wZjBFd1ZLUW5vT2NKV3htaHRQWVp3TTdqbGFUWGc,English,,1,2016-05-30,Wendy van Eijnatten,It used to work very well.....,i wa working with a beta version which started to lag and hang,,
WordPress,Google Play,org.wordpress.android,Z3A6QU9xcFRPR0ZfWDRJTDRfRnNZNmZkeGhqYmhHQTB6WGU2TDV3b2ZnMzgzM0dDX2VxQXRuQ0JodW4wZjBFd1ZLUW5vT2NKV3htaHRQWVp3TTdqbGFUWGc,English,,1,2016-05-30,Wendy van Eijnatten,It used to work very well.....,i removed the beta this problem wa tackled,,
WordPress,Google Play,org.wordpress.android,Z3A6QU9xcFRPR0ZfWDRJTDRfRnNZNmZkeGhqYmhHQTB6WGU2TDV3b2ZnMzgzM0dDX2VxQXRuQ0JodW4wZjBFd1ZLUW5vT2NKV3htaHRQWVp3TTdqbGFUWGc,English,,1,2016-05-30,Wendy van Eijnatten,It used to work very well.....,but a couple of week the ha started hanging and crashing again,,
WordPress,Google Play,org.wordpress.android,Z3A6QU9xcFRPR0ZfWDRJTDRfRnNZNmZkeGhqYmhHQTB6WGU2TDV3b2ZnMzgzM0dDX2VxQXRuQ0JodW4wZjBFd1ZLUW5vT2NKV3htaHRQWVp3TTdqbGFUWGc,English,,1,2016-05-30,Wendy van Eijnatten,It used to work very well.....,i am very unhappy about this a i am now unable to use an worked very well,,
WordPress,Google Play,org.wordpress.android,Z3A6QU9xcFRPR18ydDRIRS1sQWlGMWlzeEo5M1VtTl9oZ2FNSmVwYmdpNHllM3doNVhVcm8xbnBfQ2YyYmp5SWhab1FRX3piMFdwWDlzVTFwQXpsTzZ4OXc,English,,5,2016-05-30,Dhurba Jyoti Boruah,,it is a good,,
WordPress,Google Play,org.wordpress.android,Z3A6QU9xcFRPR0VtUGQ3bmVIQkVic2UxX2lDY3phbUpvREt4bWJmZE9sWFQyWERfU1lfYWVVME5WY0c5d1FNSUNlaGM4aDNjZDI4U3hLRlhaNFJQNWtVOHc,English,,5,2016-05-31,Eshete Osman,Firm,,,
WordPress,Google Play,org.wordpress.android,Z3A6QU9xcFRPSDc0R2ktMzFuVVdQNGg0UXFCVTJjUVhzQVU2Q2t5OVVqcC1LenB6c0NKU2UtNlVaTGVwUllMRFVmWFZ1NnFTWEJNdENKZ2poWXJFdEFyVGc,English,,5,2016-05-31,James Martin,Love it!,i can work on my across phone and,,
WordPress,Google Play,org.wordpress.android,Z3A6QU9xcFRPRmdGX1hXMmRqZV9hc3QyMzRVNC1SNTB6Y1BlOXdSSTRGVlFBZ2tJb1RQUWk1VERzVFhQeUplQ3JEMlhEekVlUUpBbl84RGY5bFF5RDlNOVE,English,,5,2016-05-31,Arnold Samlan,Love using it,great way to on the go,,
WordPress,Google Play,org.wordpress.android,Z3A6QU9xcFRPRmdGX1hXMmRqZV9hc3QyMzRVNC1SNTB6Y1BlOXdSSTRGVlFBZ2tJb1RQUWk1VERzVFhQeUplQ3JEMlhEekVlUUpBbl84RGY5bFF5RDlNOVE,English,,5,2016-05-31,Arnold Samlan,Love using it,easy to use,,
WordPress,Google Play,org.wordpress.android,Z3A6QU9xcFRPRUJ1V21PeDVCRmYydEpqLUp2MXlGclVsSnJZcXFNN2lzdTNFNWx6RkMySzNhWXFlYmp0ZG1qSkZRMkVfeWx1ekhyTGtManBQNGZTLWYwX1E,English,,4,2016-05-31,Wiafe Mintah,,handy,,
WordPress,Google Play,org.wordpress.android,Z3A6QU9xcFRPRUJ1V21PeDVCRmYydEpqLUp2MXlGclVsSnJZcXFNN2lzdTNFNWx6RkMySzNhWXFlYmp0ZG1qSkZRMkVfeWx1ekhyTGtManBQNGZTLWYwX1E,English,,4,2016-05-31,Wiafe Mintah,,love it,,
WordPress,Google Play,org.wordpress.android,Z3A6QU9xcFRPRk9DVjBDSkg5dkU4WVRFMlNyTDh4X1lrakI5RElzUE96NjZDUW9jV2NDSEhuSDQ5MHNRdjk5M3dEQnltckU1VG8tc29kVzdoWkRjN3BnSmc,English,,5,2016-05-30,adekoya abimbola,,it,,
WordPress,Google Play,org.wordpress.android,Z3A6QU9xcFRPR1dSRDBmcGlXX0FkSjgxNENJTDZsdEoyN2RPT0E3Vl81aFNMZk5tY3hoWlliZHZfbmMzT3djcFd1S1ROT0s3aU5mM2I0Q3NYQ1dZX3JwN2c,English,,5,2016-05-30,Veeresh Karnik,,very useful,,
WordPress,Google Play,org.wordpress.android,Z3A6QU9xcFRPRlcxNVd4TDRMbVZYMDFwYmFZZmpEYXFCa2oxR1VYc2E3aVdHOGpBWnRJelA2eVdlOExTQmZLM2o4S2ZjVGNRZm1ES3BLOHlFdFBqWkx2c3c,English,,4,2016-05-30,Dipti Shastry,"Except the speed, it's pretty good",the reaction time of the seems very especially for the notification comment section,,
WordPress,Google Play,org.wordpress.android,Z3A6QU9xcFRPRWY0aVJwUmFtMldoRWROS1hsSmlON0JJemM1QzZQV1ZUX1dGUVU3NXoxNnppWkxBWkVpNXF5SUMtSlBIWmVnbkxEckFUdXd0MjUzUE1lUXc,English,,5,2016-05-30,adjie kromodiwirjo KRMT,Wow,and fun,,
WordPress,Google Play,org.wordpress.android,Z3A6QU9xcFRPRkJLNzFDajdKTmVQbGhZTFk0Z0J0UkFYQV9qMkcwMnBBSktVWXpEQnBuTGpjQklha05Rbk5KSUp4bzNQM0FUZW9ERTc5N09QWTJ6dE1PeEE,English,,1,2016-05-30,Kaylea Clark,It's not working,it will not update my stats or view my post,,
WordPress,Google Play,org.wordpress.android,Z3A6QU9xcFRPRkVUS1FOcVNjSkIxZHp4UWdobzlWa3FwRWphaUJZb0NIY21lalZCaG9vbVVtclNka1hHZEswbUhUOUdXSkFxQkVGanI1Zl96QkgzRnVmb0E,English,,5,2016-05-30,Kent Balansag,,loving it,,
WordPress,Google Play,org.wordpress.android,Z3A6QU9xcFRPSF9yclNCbnNyRmYtaDF3N01lejFyb2h0cldZMzZPZ2FMa2JjeVJHdFhsT0x4SWhTeEVUeGNPTXFxd2hZaWIzN0Y4U192SHBjQkdHSGtXcUE,English,,3,2016-05-31,Dinkar Taneja,Few important options are missing,1,,
WordPress,Google Play,org.wordpress.android,Z3A6QU9xcFRPSF9yclNCbnNyRmYtaDF3N01lejFyb2h0cldZMzZPZ2FMa2JjeVJHdFhsT0x4SWhTeEVUeGNPTXFxd2hZaWIzN0Y4U192SHBjQkdHSGtXcUE,English,,3,2016-05-31,Dinkar Taneja,Few important options are missing,no option to set the main thing of the post featured image 2,,
WordPress,Google Play,org.wordpress.android,Z3A6QU9xcFRPSF9yclNCbnNyRmYtaDF3N01lejFyb2h0cldZMzZPZ2FMa2JjeVJHdFhsT0x4SWhTeEVUeGNPTXFxd2hZaWIzN0Y4U192SHBjQkdHSGtXcUE,English,,3,2016-05-31,Dinkar Taneja,Few important options are missing,not all option of editor are present first 2 line of editing tool should be there,,
WordPress,Google Play,org.wordpress.android,Z3A6QU9xcFRPSF9yclNCbnNyRmYtaDF3N01lejFyb2h0cldZMzZPZ2FMa2JjeVJHdFhsT0x4SWhTeEVUeGNPTXFxd2hZaWIzN0Y4U192SHBjQkdHSGtXcUE,English,,3,2016-05-31,Dinkar Taneja,Few important options are missing,3,,
WordPress,Google Play,org.wordpress.android,Z3A6QU9xcFRPSF9yclNCbnNyRmYtaDF3N01lejFyb2h0cldZMzZPZ2FMa2JjeVJHdFhsT0x4SWhTeEVUeGNPTXFxd2hZaWIzN0Y4U192SHBjQkdHSGtXcUE,English,,3,2016-05-31,Dinkar Taneja,Few important options are missing,please these issue,,
WordPress,Google Play,org.wordpress.android,Z3A6QU9xcFRPRV9qWU9pN2dMWjM1NW1LeUdwRENlbjU0RDZnMHlBSTR6M2F0ZTZDRUlmeVFjRERLbU1oOWs0bUlUclQxaE5adXhhS0xuMTFaMW43aTBJM3c,English,,4,2016-05-31,Chance Mcgee,"Great, fixed the image problem",this is a great,,
WordPress,Google Play,org.wordpress.android,Z3A6QU9xcFRPRV9qWU9pN2dMWjM1NW1LeUdwRENlbjU0RDZnMHlBSTR6M2F0ZTZDRUlmeVFjRERLbU1oOWs0bUlUclQxaE5adXhhS0xuMTFaMW43aTBJM3c,English,,4,2016-05-31,Chance Mcgee,"Great, fixed the image problem",very nice design though,,
WordPress,Google Play,org.wordpress.android,Z3A6QU9xcFRPSG1NTTN5UzFIejBITGxHS2UwaTNIeVMxajExampSNnpwdFU2ZS1Ld2Z0RFV0WlVSSjN1TEU3aWFleHAzZW5NY3NXeTdsdmNoRmlpdldJRnc,English,,5,2016-05-31,Tanish mishra,Mast.....      ......  .......... ......    ........  ...,,,
WordPress,Google Play,org.wordpress.android,Z3A6QU9xcFRPSGZXc2RSRU12RmgzRmszdVNka2szbnlpY3ZxdzhkN0VpOV9UcHdLbko2VWNBT3VtQ1VNWWs5OXRpMWN2dVBkZmMtYm1SRDh3MjQtckRyM3c,English,,5,2016-05-31,Jeremy Shank,Way better than Blogger,this work and look just like the website,,
WordPress,Google Play,org.wordpress.android,Z3A6QU9xcFRPSGZXc2RSRU12RmgzRmszdVNka2szbnlpY3ZxdzhkN0VpOV9UcHdLbko2VWNBT3VtQ1VNWWs5OXRpMWN2dVBkZmMtYm1SRDh3MjQtckRyM3c,English,,5,2016-05-31,Jeremy Shank,Way better than Blogger,no complaint,,
