Topic Index 1,Topic Index 2,Topic Similarity
0,9,11.11111111111111
1,2,5.263157894736842
2,0,5.263157894736842
4,6,5.263157894736842
6,7,5.263157894736842
7,13,5.263157894736842
8,8,5.263157894736842
12,12,5.263157894736842
15,18,5.263157894736842
3,1,0.0
5,3,0.0
9,4,0.0
10,5,0.0
11,10,0.0
13,11,0.0
14,14,0.0
16,15,0.0
17,16,0.0
18,17,0.0
19,19,0.0
