App,Store,App ID,Review ID,Country,Version,Rating,Date,Author,Subject,Body,Translated Subject,Translated Body
MicroPinner,Google Play,de.dotwee.micropinner,Z3A6QU9xcFRPSG5RVDFOTEtIbDI4bHF3RzlfSWczT2JvMWtNTXZta09DOUdlRUlKOXIyXzgxeHlZaXVfdEV0ekhFMG1YVVJpaXNKY1NOLTdkSEtYN1YzX3ZV,English,,1,2015-06-29,Peter and Tracy,Almost great,nexus 5 lollipop reboot i lost all my persistent is this normal,,
MicroPinner,Google Play,de.dotwee.micropinner,Z3A6QU9xcFRPSEZaWmx6aS1zZk1fMzdQbXZKaS1VampWQnFzQzFublFGYV9PWS01bkhrRFpQb2Q5RWl4MDJQZzBQZEZ1dV9hVGJ1WVE5U0phR0F5X3I1dlRR,English,,5,2015-06-22,Ina Ari,,user friendly and lightweight,,
MicroPinner,Google Play,de.dotwee.micropinner,Z3A6QU9xcFRPSG1qX1hQaW5JMmd6NkpybFZlamhwemlmMmhOX2RWS0Z1cFZwVzF2c2tIUXpfeFE4dTBNeUtyMEtGaTFydDlxWDIzWXN3SnVpVWFPcnZwckow,English,,5,2015-06-17,Irfan Yilmaz,developer that really cares,awesome little love your work man,,
MicroPinner,Google Play,de.dotwee.micropinner,Z3A6QU9xcFRPSG1qX1hQaW5JMmd6NkpybFZlamhwemlmMmhOX2RWS0Z1cFZwVzF2c2tIUXpfeFE4dTBNeUtyMEtGaTFydDlxWDIzWXN3SnVpVWFPcnZwckow,English,,5,2015-06-17,Irfan Yilmaz,developer that really cares,in the span of a week it ha become invaluable for me,,
MicroPinner,Google Play,de.dotwee.micropinner,Z3A6QU9xcFRPSG1qX1hQaW5JMmd6NkpybFZlamhwemlmMmhOX2RWS0Z1cFZwVzF2c2tIUXpfeFE4dTBNeUtyMEtGaTFydDlxWDIzWXN3SnVpVWFPcnZwckow,English,,5,2015-06-17,Irfan Yilmaz,developer that really cares,love it,,
MicroPinner,Google Play,de.dotwee.micropinner,Z3A6QU9xcFRPRmlkYmgxVXBwVkRpZllwWnNGSXpORWpybVZ3NGEtTFR2WGxBVjFlcXNrVDY0NmQ4UW9NeTFOcXl2czNTQ2Y2QjZPM0hTZTlXd25CT09QOGFZ,English,,5,2015-06-16,Albert Stam,,finally a better alternative sticking a written on the back of my phone,,
MicroPinner,Google Play,de.dotwee.micropinner,Z3A6QU9xcFRPRmlkYmgxVXBwVkRpZllwWnNGSXpORWpybVZ3NGEtTFR2WGxBVjFlcXNrVDY0NmQ4UW9NeTFOcXl2czNTQ2Y2QjZPM0hTZTlXd25CT09QOGFZ,English,,5,2015-06-16,Albert Stam,,love the simplicity of it,,
