# deletions,date,commit message
2,2015/2/08,Increased version code
3,2015/2/08,Fixed java.lang.RuntimeException when not logged in  java.lang.RuntimeException: Unable to start receiver de.hfu.studiportal.network.RefreshTaskStarter: android.util.AndroidRuntimeException: Calling startActivity() from outside of an Activity context requires the FLAG_ACTIVITY_NEW_TASK flag. Is this really what you want? at android.app.ActivityThread.handleReceiver(ActivityThread.java:2617) at android.app.ActivityThread.access$1800(ActivityThread.java:147) at android.app.ActivityThread$H.handleMessage(ActivityThread.java:1373) at android.os.Handler.dispatchMessage(Handler.java:102) at android.os.Looper.loop(Looper.java:135) at android.app.ActivityThread.main(ActivityThread.java:5260) at java.lang.reflect.Method.invoke(Native Method) at java.lang.reflect.Method.invoke(Method.java:372) at com.android.internal.os.ZygoteInit$MethodAndArgsCaller.run(ZygoteInit.ja va:898) at com.android.internal.os.ZygoteInit.main(ZygoteInit.java:693) Caused by: android.util.AndroidRuntimeException: Calling startActivity() from outside of an Activity context requires the FLAG_ACTIVITY_NEW_TASK flag. Is this really what you want? at android.app.ContextImpl.startActivity(ContextImpl.java:1249) at android.app.ContextImpl.startActivity(ContextImpl.java:1236) at android.content.ContextWrapper.startActivity(ContextWrapper.java:322) at android.content.ContextWrapper.startActivity(ContextWrapper.java:322) at de.hfu.studiportal.network.RefreshTaskStarter.startRefreshTask(RefreshTa skStarter.java:63) at de.hfu.studiportal.network.RefreshTaskStarter.onReceive(RefreshTaskStart er.java:34) at android.app.ActivityThread.handleReceiver(ActivityThread.java:2610) ... 9 more
2,2015/2/08,Increased version code
2,2015/2/08,Removed unnecessary Log
0,2015/2/08,Added function graphics for Google Play Store
0,2015/2/08,Second attempt to fix launcher icon mismatch
1,2015/2/08,Fixed Windows leaked Dialog error on login
0,2015/2/08,Fixed launcher icon color mismatch
0,2015/2/08,Added Pixelmatr file of launcher icon
8,2015/2/08,Fixed cellular network bug and optimized handling of overdue updates  Fixed bug causing the app to use cellular networks even if it is prohibited by preferences. Overdue updates will now be done as soon as wifi is available
1,2015/2/08,Fixed vertical row spacing in lists
19,2015/2/08,Removed preference "Login"
68,2015/2/08,Redesigned Login screen
0,2015/2/08,Made ic_be darker
3,2015/2/08,Reorganized imports
3,2015/2/08,Revert "Merge branch 'design-dev'"  This reverts commit f959052b74cb1f971b3e3d356ca69170acaa4aa7 reversing changes made to 49bcaa8358393646a4b9331668e9ac0b57bfd9ee.
