Topic,Words
0,0.023*of,0.023*on,0.022*5,0.021*lazy,0.021*anymore,0.020*per,0.019*a,0.018*easy,0.017*i,0.017*no
1,0.042*a,0.028*to,0.026*again,0.022*i,0.021*main,0.020*exactly,0.019*have,0.019*is,0.018*background,0.015*the
2,0.035*look,0.033*and,0.029*without,0.026*to,0.022*one,0.022*or,0.021*good,0.020*defaults,0.020*only,0.017*certain
3,0.030*working,0.028*choose,0.028*do,0.028*change,0.022*you,0.019*case,0.019*lived,0.018*or,0.017*count,0.016*look
4,0.029*anymore,0.025*needed,0.024*good,0.021*look,0.021*whistles,0.020*because,0.020*without,0.019*bonus,0.019*working,0.018*multiple
5,0.044*counts,0.034*background,0.033*too,0.022*change,0.020*a,0.020*more,0.019*very,0.019*past,0.019*projects,0.018*lighter
6,0.033*fact,0.026*love,0.025*add,0.023*way,0.022*it,0.021*change,0.021*easy,0.019*yarn,0.018*1,0.017*without
7,0.031*say,0.027*at,0.026*image,0.024*save,0.024*watches,0.022*timer,0.020*actively,0.019*delete,0.019*yarn,0.019*auto
8,0.034*amazing,0.028*my,0.025*bunch,0.024*use,0.024*change,0.021*and,0.020*good,0.020*background,0.020*scroll,0.018*bottom
9,0.052*real,0.048*bunch,0.036*others,0.026*save,0.024*widget,0.021*this,0.020*at,0.018*before,0.018*amazing,0.018*just
10,0.047*before,0.030*defaults,0.024*me,0.023*go,0.022*fact,0.022*didn't,0.022*1,0.020*certain,0.020*bunch,0.018*would
11,0.032*very,0.028*watches,0.026*but,0.026*bonus,0.023*just,0.023*no,0.023*go,0.020*look,0.020*this,0.020*have
12,0.034*of,0.031*needed,0.030*wonderful,0.029*was,0.026*or,0.026*be,0.023*lazy,0.020*don't,0.019*go,0.016*finding
13,0.032*what,0.030*multiple,0.025*do,0.023*use,0.022*this,0.019*image,0.019*them,0.019*at,0.018*to,0.018*choose
14,0.037*one,0.033*before,0.031*counts,0.028*it,0.027*lived,0.026*wish,0.025*several,0.021*and,0.021*plus,0.020*even
15,0.035*there,0.033*it,0.027*anymore,0.024*to,0.024*down,0.023*what,0.021*bells,0.019*working,0.019*why,0.019*too
16,0.031*just,0.031*that,0.026*how,0.024*too,0.023*and,0.019*for,0.018*or,0.017*5,0.017*can,0.017*option
17,0.033*fact,0.033*like,0.029*do,0.027*reordering,0.027*tapestry,0.025*bunch,0.022*just,0.022*my,0.021*make,0.021*go
18,0.034*very,0.030*anymore,0.029*option,0.028*easy,0.028*was,0.028*how,0.026*bottom,0.025*why,0.021*finding,0.021*case
19,0.031*because,0.030*like,0.030*way,0.029*choose,0.027*tapestry,0.024*just,0.024*notes,0.024*is,0.024*fact,0.023*do
