App,Store,App ID,Review ID,Country,Version,Rating,Date,Author,Subject,Body,Translated Subject,Translated Body
Ghost Log (logcat viewer),Google Play,com.readystatesoftware.ghostlog,Z3A6QU9xcFRPSHlrVjF5YVhMS1BWNzFNUmdBTFBRZmFMZ2tpajRLbmhsSFRYZ0lmZGQ4SS0wLVJfVF9mSVM3OS1sbUVZY3FqNTRmY29UZHVGSEh0SWh3V0E,English,,1,2015-11-26,Hai Tám Tám,"",Don't need,,
Ghost Log (logcat viewer),Google Play,com.readystatesoftware.ghostlog,Z3A6QU9xcFRPSFA5Q04xWkxUckZlX3pYNWJkUmhnOWgyWmVkMkpwR3NwTU4xNklUUlFYWDk1Y0FRQTRvMFpzZkNWZ2hjb2VzajI5TFRWMjNLRVZHUjVmOEE,English,,2,2015-05-30,Anthony Campos,Same problem as the guy below me,Everytime I press grant to allow superuser access nothing happens. Like it ignores my presses.,,
Ghost Log (logcat viewer),Google Play,com.readystatesoftware.ghostlog,Z3A6QU9xcFRPSG9Wd0owOTR5OWFHaE1aVndQUkpIbDJDaTlycmdjU3lZOUpHNHktSGtURjlFVDVxeFRXaUU5UTJwWlBBTU91ek1vWlJkcl9SZTBvc0pOVVE,English,,4,2015-05-26,Bhuvanaganesan L,Good app -,Its a good.. app.. to get log data's n even mail it Thanks for good apps,,
Ghost Log (logcat viewer),Google Play,com.readystatesoftware.ghostlog,Z3A6QU9xcFRPR3RmeWN4WDRIeVZ5enVVOXY0MnlnNDZxTDR0WS1wSEpFcVMzcEU4a3ZDT0pQY29kNDBBYmhjT2dtcmVwc05oMXljTEVrR21HcUNnZFRZY0E,English,,5,2015-05-11,Jay Rambhia,Thoughtful app,I'm a developer and need to test a lot of things based on logs. I have crashlytics installed but it's not the complete package since my team's Q&amp;A don't have much knowledge about android. This app helps us in performing some basic tests based on logs and the best part is you do not need to have root access. A lot of thought has gone in building this app. Thanks!,,
Ghost Log (logcat viewer),Google Play,com.readystatesoftware.ghostlog,Z3A6QU9xcFRPRzg1WlpiRVZpZWJwWHlfdElmYUlYRXNGVWo5dEhZX1lRMkdfT0R5RENEdVRqSzJ3UHd0NEVNNVdsSi1uQVhZb3lIdXlWbUtzM2loUW1fVWc,English,,1,2015-04-27,Chris Jones,Useless,Takes me to settings page just after granting root acess immediately after fresh install where I'm unable to do anything except back out and.. uninstall... Is android 5.0 lollipop supported?,,
Ghost Log (logcat viewer),Google Play,com.readystatesoftware.ghostlog,Z3A6QU9xcFRPRy1vY0lFdVBYSXRiREg5bmVYME9YWFFXVGpNLWRfV29KaUlpSGF0dndheGphSGFpR1prdWk3U09VYkpKMFF2aGRJSXJ5MFZZTzBrOFBfZEE,English,,2,2015-04-03,Kate Seaman,Cant share,Cant share log info for an app that doesnt work with the developer ... any thoughts guys???,,
Ghost Log (logcat viewer),Google Play,com.readystatesoftware.ghostlog,Z3A6QU9xcFRPR0xLLV9GM1ZnOWlGbXY1ckpNZkVUejRwX2x0dG9SOENrWTFhYmI0amNqT2ZXZ09yV2htNlF0c0M3UFZQcTA3SzdYNVR6NG1BbkdQNkh4Y3c,English,,5,2015-01-23,hexxsmith,Awesome!,Neat way of finding out how stuff works!  TCT Alcatel OT  7040E -rooted,,
Ghost Log (logcat viewer),Google Play,com.readystatesoftware.ghostlog,Z3A6QU9xcFRPSENyS3pBdm5HRTM2Z1MyNFRIMXMxcEtLYTRDSEw1WHVQX244MVIwNjJYV0VSLXVWRHZxeV9QZm5hdlFCZUtDbzBBOG9fNjJpaEFEN1FwLVE,English,,5,2015-01-21,Scott Tromley,Great log viewer,"This is a very clever app that does a great job of allowing you to troubleshoot strange crashes and see what your device up to. Like others I was not able to hit grant in the sudo window that popped up, but I was able to go into SuperSU and grant access in the list of apps there.",,
Ghost Log (logcat viewer),Google Play,com.readystatesoftware.ghostlog,Z3A6QU9xcFRPRjk3MTNjSEJxMkRncGFwM29vRjdsZC1GQ3lnUkcxWWlveXpTNjFuNFBiXzFlVWVMaU1wN3lnSm9Cdy1Ucmw5Uzl0R1lWNDlDZ1JCV0xKRnc,English,,3,2015-01-18,Neil Craig,"","Can't select allow for SU. I see others had same problem, running Lollipop 5.02",,
Ghost Log (logcat viewer),Google Play,com.readystatesoftware.ghostlog,Z3A6QU9xcFRPSGFiSF8yV0Q1RDljcmNfcE9qLUhXSk1iREp2SUR2ZVVMb0w0ODlhNjBkU04tZVBmU3pWcnBkcDJ2TFpmY0kteG44aEVyaWtscDhqQVpuTlE,English,,5,2014-12-04,Farzan Moradi,"","",,
Ghost Log (logcat viewer),Google Play,com.readystatesoftware.ghostlog,Z3A6QU9xcFRPRlhDNHJtUzJXcll4eE1SdFRPQ2s1bzVSSnR6WlZDcmpITmtJUGxwb0tKTENWSWo5RXpVN0dMSDB1NEVmazlzOEpfck9idGYzdzhLenI1OHc,English,,5,2014-10-24,Erica,Very cool logger with different filters and logs.,The thing that makes this logging app stand out is that it is always displayed. You can watch what's going on in real time without having to switch back and forth to check the log. You can change the opacity and the text size. No problems with 4.4.4 2012 Nexus 7 and SuperSU,,
Ghost Log (logcat viewer),Google Play,com.readystatesoftware.ghostlog,Z3A6QU9xcFRPRWRYcVlxZHZrUDA2eWpqS2FSUFhXWFRWdmdUWC1EeDBBc2FXYTNtLXBkUHhzT05EbjRlNVZ4S09PN2ZXbzZ1MFBXc282Tl85aDE2SGI1cXc,English,,5,2014-09-17,Alberto Solis Blanco,Launch Those Rockets,Ditto Ditto Ditto,,
Ghost Log (logcat viewer),Google Play,com.readystatesoftware.ghostlog,Z3A6QU9xcFRPR254bHF4ekhWYXR0dkx1SjhfUHVWY2dKTDMwcmpndi12bG9TSGRzSHFzU3oxOVBuWUxXdUNpYzhCakZNY2JFcE9PVmRSMG9ZZkhaSVlPTlE,English,,3,2014-09-10,"",very odd,"cm 11 m9 when requesting su,  it wont let me press allow,  ive reinstalled and same issue,  very very strange.  I can select deny but not accept,  this is first time its happened.",,
Ghost Log (logcat viewer),Google Play,com.readystatesoftware.ghostlog,Z3A6QU9xcFRPRmw3dUVmc3M0RmllOVlDd2x6WTU0QzN2VmQ2dkxpMFFhSWRRVjctZ3UzWGwxcnh1NEFNVFdfaGNQZGVSSmx4TmRmaTlSd25SWkVLM2VaNlE,English,,5,2014-06-09,"",Galaxy S5,It's simply awesome. A must-have app for backtracing the bugs!  I really ove your overlay screen idea 👍,,
Ghost Log (logcat viewer),Google Play,com.readystatesoftware.ghostlog,Z3A6QU9xcFRPRUZYQ0pzWjIzczFCZlJ3cUtGam1qaDF1ZEtSazVGLXU0VTh2WEZncktDc1h2aS1WUVBZcHMyWlJxLU9rcE9LOS1kWkxSQUEyVVFTRUx4SFE,English,,5,2014-05-22,Anthony Boggs,"",100%,,
Ghost Log (logcat viewer),Google Play,com.readystatesoftware.ghostlog,Z3A6QU9xcFRPRlphbzRJdzEyWEx2SUMyQjVnNV9RN280bFpyZk94anllSV9id2lIeXRGaXd4Y3lhbEFwMnZvTk5BbHQyMUlzZ1RsWWVEX0c4eU9ZRGI3ZkE,English,,5,2014-04-29,Aaron Sinclair,Excellent,Well done. Makes it very easy to watch logs locally while using phone,,
Ghost Log (logcat viewer),Google Play,com.readystatesoftware.ghostlog,Z3A6QU9xcFRPRndPN1JadHlXa3UxbnBvajAtMmVhVWl3SVFlUEdpSmwwWmZJZ1N6anFVd25CMWhnTmluMkRZNUVJbTQyZ2ZyWGJibEt3RXBOQWc1NmhnaEE,English,,5,2014-03-21,Harry Toumbas,Excellent app,A huge help would pay for a pimped out version.,,
Ghost Log (logcat viewer),Google Play,com.readystatesoftware.ghostlog,Z3A6QU9xcFRPRjB5WFBUV2Ftc0lxM0tYcW9wZ2lwTXFVWFRFakVPdWFuTjF4NW15YktQUXlRZ0dYYlhkc1B3SGNmQTY5bDl6all3UlpFNnNrMTVNMTNHNEE,Chinese (Simplified),,5,2016-12-02,Ji Huang,"",That's actually what I want!!,,
Ghost Log (logcat viewer),Google Play,com.readystatesoftware.ghostlog,Z3A6QU9xcFRPRWMzLUJYb2RWN3oxQzZJYWtkMEl2MnNqZXR5VXNGV0FvdUVURV9mbnMteEpNWndQSGV5SlhCY0VKMU1VelUxV2ExemxKNndlTlJFYk9Hb0E,Italian,,5,2015-02-22,Roberto Lombardini,Work like a charm,"This application is great, it does what it should do and the integration for non rooted device is incredibly simple. I have to admit that sharing info via email is not the easiest task to do with a bunch of logcat message on the screen, but i still love it.  Thanks to Mr. Gilfelt",,
Ghost Log (logcat viewer),Google Play,com.readystatesoftware.ghostlog,Z3A6QU9xcFRPSDdsanotOHQzS2ptczVJRDZxbTNJUlZlcXNvYWo5dW5BNGtEZjVPdE9kaWZEVmNrTDF2eTR4cGxYVTRCdkU0dmlucDZKUjZTcGpiUWdRTnc,Italian,,5,2014-07-07,Samuele Rini,Totally rocks...,Badass stuff.  Awesome.,,
Ghost Log (logcat viewer),Google Play,com.readystatesoftware.ghostlog,Z3A6QU9xcFRPRUtEaWlpU2ZTTEFFLVd5MUVUTWNCUjJIbGNON0ZMY3puMjczSTV3cWhCZW5CM0ZhVXlaald3N2NQcnRwOGNEamhOX0lXR2x1OTcxS0t2N2c,Chinese (Traditional),,4,2016-01-15,old tcd,Tag Filter,Tag Filter 沒有效果。Android5.1.1,,
Ghost Log (logcat viewer),Google Play,com.readystatesoftware.ghostlog,Z3A6QU9xcFRPRi1DSE1UVWJsOW1EeFhZZFp3cHpaanBpdE1zTU4zR1V6TDd1ODVxSUl6YmRoNHp6UUtVbmZxQUh6VVBNcWxUTk9jaGdzSWlPWEJmVHE1YWc,German,,5,2015-06-06,Aschot Mkrtchyan,Super App,Ideal um zu sehen wieso Apps nicht funktionieren wenn man kein PC zu Verfügung hat,,
Ghost Log (logcat viewer),Google Play,com.readystatesoftware.ghostlog,Z3A6QU9xcFRPSDR0MWhCZU51X0d4QXdxb0dxdFZOX3U0S3lNSUNnbkpQRWdkT1pyRmN1cGVfMnhlU056S2RpZ2RrelpvVy1KcFd6U3NaMF8yWGNJWWlnTkE,Polish,,5,2014-06-30,Michał Wolski,"",Dla programistow. Oryginalny i bardzo wygodny sposob prezentacji  logow na urzadzeniu.,,
Ghost Log (logcat viewer),Google Play,com.readystatesoftware.ghostlog,Z3A6QU9xcFRPSEhtcHo1N2E4V09CRG5wQU83M1JTYmRMNW9IODhxXzkwTzh5eDBVZ3A2c3BPR19idDgyRGZ5dFB0UmpjX3d3QVdyaU91dTRGVnVDYWZkMGc,Russian,,1,2016-05-26,Technology Forever,Если ты прочитаешь,Твоя умрет,,
Ghost Log (logcat viewer),Google Play,com.readystatesoftware.ghostlog,Z3A6QU9xcFRPRlF5bnlrTXBYb0tUbFItQUtHRTVXTG9NTERaODlSRE52cnFweWs5b05RbUt1UThxYTlJYWVobmxmTTJ3SE5IWU1OZUF1NzlmRURRdjl0SVE,Russian,,5,2014-10-24,Алексей Гержевич,"",Great,,
Ghost Log (logcat viewer),Google Play,com.readystatesoftware.ghostlog,Z3A6QU9xcFRPRXFlSnlFUFczQ3lidE5GQ3Y3TEpEazh2RFVrTWZXUXRfZ3VBYllRblM4SEdkNFE4dGVPTzhLMEZxUW9GVk03VUxvWERmaTVNSUdPVWVMQ3c,Russian,,5,2014-08-22,Oleg A,"",Good job!,,
Ghost Log (logcat viewer),Google Play,com.readystatesoftware.ghostlog,Z3A6QU9xcFRPR3F0OG5PNjdKZkM0M190Mk83T0RjSTRlQ3BSUVlXMUdxcTEzTlNrZmRRRGp0ZjNkc2dxWGYwN2huZG5hZmg3YTZpM0FkNWk1bF9CSGlJekE,Spanish,,1,2015-11-29,"","",Not workink on note 4,,
Ghost Log (logcat viewer),Google Play,com.readystatesoftware.ghostlog,Z3A6QU9xcFRPRXl3UXVWTldpUmdnV3piSG9OOXhxV0U1UFZJVWNybG1TTTBDZjVvdjFRWnUwSm1Ja0lpR0VYMkIwT19PWFhIQVI1ZldNMmtqNlRhbVNjdnc,Spanish,,3,2015-04-15,Lopez Laura,"",Para usuarios root,,
Ghost Log (logcat viewer),Google Play,com.readystatesoftware.ghostlog,Z3A6QU9xcFRPR3VZeG9BdUF2bUtlWWhwYW96OUpfaGVMRUJNMUdKNXpiSV9PTk9NV2ZxdUU4THBpMHJLYzBIWU12VldFdFUtRVlxY2VnUlVmbTc0aGQyc0E,Swedish,,5,2015-01-15,FT VoM,Bra som live wallpaper -  levande bakgrund,"Snyggt att ha som levande bakgrundsbild. Verkar inte gå att göra något annat med texten än att bara se den rulla förbi. Förslag: lägg till loggning på nivå ""matrix"" där texten från nivå ""verbose"" visas med översatt till typsnittet från filmerna.",,
