update of polish translation,f,2016/2/02,,
solves 62,f,2016/2/02,,
update of polish translation,f,2016/2/02,,
solves 62,f,2016/2/02,,
made array in of preference translatable,f,2016/2/02,,
update,b,2016/2/01,,
prepare new release,b,2016/1/30,,
add missing image file,b,2016/1/30,,
update translation,b,2016/1/29,,
prepare new release,b,2016/1/28,,
fix broken on certain device,b,2016/1/28,,
prepare new release,b,2016/1/28,,
more fix and prepare new release,b,2016/1/28,,
improve tablet layout,o,2016/1/28,,
