package,release ID,UI element,related topic,average polarity,# reviews,average rating,average objectivity,# uninstalls,delta rating,element deleted next release
com.f2prateek.dfg,v1.1.2,@+id/tv_device_resolution$,587,0.2604166666666667,1,4.0,0.3666666666666667,0,0.4825174825174825,0,0
com.f2prateek.dfg,v1.1.2,@+id/iv_device_thumbnail$,591,0.2604166666666667,1,4.0,0.3666666666666667,0,0.4825174825174825,0,0
com.f2prateek.dfg,v1.1.2,@+id/tv_device_size$,599,0.2604166666666667,1,4.0,0.3666666666666667,0,0.4825174825174825,0,0
com.f2prateek.dfg,v1.1.2,@+id/tv_device_name$,602,0.2604166666666667,1,4.0,0.3666666666666667,0,0.4825174825174825,0,0
com.f2prateek.dfg,v1.1.2,@+id/iv_device_default$,608,0.2604166666666667,1,4.0,0.3666666666666667,0,0.4825174825174825,0,0
