package,release ID,UI element,related topic,average polarity,# reviews,average rating,average objectivity,# uninstalls,delta rating,element deleted next release
com.f2prateek.dfg,v3.0.2,@+id/debug_device_model$,238,0.30250781625781625,9,3.4444444444444446,0.4134078884078884,0,-0.3214285714285712,0,0
com.f2prateek.dfg,v3.0.2,@+id/debug_device_model$,240,0.29478787878787877,5,3.6,0.41084848484848485,0,-0.16587301587301573,0,0
com.f2prateek.dfg,v3.0.2,@+id/debug_device_model$,239,0.5872708333333333,4,4.25,0.6041666666666666,0,0.4841269841269842,0,0
com.f2prateek.dfg,v3.0.2,@+id/debug_device_model$,235,0.3,1,3.0,0.4666666666666666,0,-0.7658730158730158,0,0
com.f2prateek.dfg,v3.0.2,Device Information$,243,0.4073041125541126,7,3.857142857142857,0.5275386518243661,0,0.09126984126984139,0,0
com.f2prateek.dfg,v3.0.2,Device Information$,245,0.3113492063492063,3,3.0,0.5051587301587301,0,-0.7658730158730158,0,0
com.f2prateek.dfg,v3.0.2,Device Information$,241,0.521875,2,3.5,0.45,0,-0.2658730158730158,0,0
com.f2prateek.dfg,v3.0.2,Device Information$,242,0.35000000000000003,3,3.6666666666666665,0.4222222222222222,0,-0.0992063492063493,0,0
com.f2prateek.dfg,v3.0.2,Device Information$,246,0.15,2,3.5,0.275,0,-0.2658730158730158,0,0
com.f2prateek.dfg,v3.0.2,Device Information$,244,0.6666666666666666,1,5.0,0.7333333333333334,0,1.2341269841269842,0,0
com.f2prateek.dfg,v3.0.2,@+id/iv_device_thumbnail$,249,0.38135416666666666,8,3.625,0.42928571428571427,0,-0.14087301587301582,0,0
com.f2prateek.dfg,v3.0.2,@+id/iv_device_thumbnail$,247,0.23973214285714284,2,2.5,0.4035714285714286,0,-1.2658730158730158,0,0
com.f2prateek.dfg,v3.0.2,@+id/iv_device_thumbnail$,250,0.36196969696969694,2,4.0,0.6521212121212121,0,0.23412698412698418,0,0
com.f2prateek.dfg,v3.0.2,@+id/iv_device_thumbnail$,252,0.5701388888888889,3,4.0,0.5611111111111111,0,0.23412698412698418,0,0
com.f2prateek.dfg,v3.0.2,@+id/iv_device_thumbnail$,253,0.29364646464646466,3,4.0,0.4764141414141414,0,0.23412698412698418,0,0
com.f2prateek.dfg,v3.0.2,@+id/tv_device_size$,255,0.38972222222222214,3,3.3333333333333335,0.4475396825396826,0,-0.43253968253968234,0,0
com.f2prateek.dfg,v3.0.2,@+id/tv_device_size$,258,0.3084166666666667,5,3.2,0.5016666666666667,0,-0.5658730158730156,0,0
com.f2prateek.dfg,v3.0.2,@+id/tv_device_size$,260,0.54375,1,4.0,0.4,0,0.23412698412698418,0,0
com.f2prateek.dfg,v3.0.2,@+id/tv_device_size$,257,0.15,2,3.5,0.30000000000000004,0,-0.2658730158730158,0,0
com.f2prateek.dfg,v3.0.2,@+id/tv_device_size$,256,0.40797979797979794,3,4.333333333333333,0.5847474747474747,0,0.5674603174603172,0,0
com.f2prateek.dfg,v3.0.2,@+id/tv_device_size$,254,0.09285714285714286,2,2.5,0.35357142857142854,0,-1.2658730158730158,0,0
com.f2prateek.dfg,v3.0.2,@+id/tv_device_size$,259,0.4603131313131314,3,4.0,0.6153030303030302,0,0.23412698412698418,0,0
com.f2prateek.dfg,v3.0.2,@+id/debug_device_make$,262,0.28764285714285714,5,2.6,0.4032857142857143,0,-1.1658730158730157,0,0
com.f2prateek.dfg,v3.0.2,@+id/debug_device_make$,266,0.49833333333333335,1,4.0,0.5583333333333333,0,0.23412698412698418,0,0
com.f2prateek.dfg,v3.0.2,@+id/debug_device_make$,264,0.3849378787878788,5,3.8,0.46584848484848485,0,0.034126984126984006,0,0
com.f2prateek.dfg,v3.0.2,@+id/debug_device_make$,261,0.4263365800865801,7,4.0,0.5363203463203463,0,0.23412698412698418,0,0
com.f2prateek.dfg,v3.0.2,@+id/debug_device_make$,263,0.5,1,4.0,0.5,0,0.23412698412698418,0,0
com.f2prateek.dfg,v3.0.2,@+id/tv_device_resolution$,273,0.523125,2,4.0,0.5296428571428572,0,0.23412698412698418,0,0
com.f2prateek.dfg,v3.0.2,@+id/tv_device_resolution$,269,0.39916666666666667,2,3.5,0.5125,0,-0.2658730158730158,0,0
com.f2prateek.dfg,v3.0.2,@+id/tv_device_resolution$,270,0.54375,1,4.0,0.4,0,0.23412698412698418,0,0
com.f2prateek.dfg,v3.0.2,@+id/tv_device_resolution$,271,0.47219047619047616,7,3.857142857142857,0.5023809523809524,0,0.09126984126984139,0,0
com.f2prateek.dfg,v3.0.2,@+id/tv_device_resolution$,267,0.27038528138528134,5,3.4,0.5214588744588744,0,-0.3658730158730159,0,0
com.f2prateek.dfg,v3.0.2,@+id/tv_device_resolution$,272,-0.2,1,3.0,0.05,0,-0.7658730158730158,0,0
com.f2prateek.dfg,v3.0.2,@+id/iv_app_logo$,278,0.6307602813852812,14,4.214285714285714,0.7065507111935683,0,0.4484126984126986,0,0
com.f2prateek.dfg,v3.0.2,@+id/iv_app_logo$,276,0.6128888888888889,3,4.333333333333333,0.7861111111111111,0,0.5674603174603172,0,0
com.f2prateek.dfg,v3.0.2,@+id/iv_app_logo$,280,-0.5,1,1.0,0.5,0,-2.765873015873016,0,0
com.f2prateek.dfg,v3.0.2,@+id/iv_app_logo$,274,-0.010000000000000009,1,5.0,1.0,0,1.2341269841269842,0,0
com.f2prateek.dfg,v3.0.2,@+id/iv_app_logo$,277,0.17690972222222218,2,4.0,0.42671130952380953,0,0.23412698412698418,0,0
com.f2prateek.dfg,v3.0.2,@+id/iv_app_logo$,279,0.275,2,4.5,0.38749999999999996,0,0.7341269841269842,0,0
com.f2prateek.dfg,v3.0.2,@+id/iv_app_logo$,275,0.44738636363636364,2,4.5,0.7729545454545454,0,0.7341269841269842,0,0
com.f2prateek.dfg,v3.0.2,@+id/debug_device_density$,285,0.3981204390847248,7,3.5714285714285716,0.5785590599876314,0,-0.1944444444444442,0,0
com.f2prateek.dfg,v3.0.2,@+id/debug_device_density$,286,0.5695833333333332,3,4.333333333333333,0.5805555555555556,0,0.5674603174603172,0,0
com.f2prateek.dfg,v3.0.2,@+id/debug_device_density$,281,0.09999999999999999,3,2.6666666666666665,0.20000000000000004,0,-1.0992063492063493,0,0
com.f2prateek.dfg,v3.0.2,@+id/debug_device_density$,284,0.3875,4,3.75,0.44166666666666665,0,-0.015873015873015817,0,0
com.f2prateek.dfg,v3.0.2,@+id/debug_device_density$,283,0.5,1,5.0,0.5,0,1.2341269841269842,0,0
com.f2prateek.dfg,v3.0.2,@+id/debug_device_release$,287,0.4175,3,4.0,0.4697619047619048,0,0.23412698412698418,0,0
com.f2prateek.dfg,v3.0.2,@+id/debug_device_release$,290,0.2468095238095238,5,2.6,0.38642857142857145,0,-1.1658730158730157,0,0
com.f2prateek.dfg,v3.0.2,@+id/debug_device_release$,288,0.4916843434343435,6,3.8333333333333335,0.5645959595959597,0,0.06746031746031766,0,0
com.f2prateek.dfg,v3.0.2,@+id/debug_device_release$,289,0.2333333333333333,2,4.0,0.3916666666666667,0,0.23412698412698418,0,0
com.f2prateek.dfg,v3.0.2,@+id/debug_device_release$,292,0.47113636363636363,2,5.0,0.5729545454545455,0,1.2341269841269842,0,0
com.f2prateek.dfg,v3.0.2,@+id/tv_device_name$,298,0.4423214285714285,7,3.857142857142857,0.4822789115646259,0,0.09126984126984139,0,0
com.f2prateek.dfg,v3.0.2,@+id/tv_device_name$,297,0.4212676767676768,6,3.5,0.546540404040404,0,-0.2658730158730158,0,0
com.f2prateek.dfg,v3.0.2,@+id/tv_device_name$,294,0.54375,1,4.0,0.4,0,0.23412698412698418,0,0
com.f2prateek.dfg,v3.0.2,@+id/tv_device_name$,296,-0.13214285714285715,2,2.0,0.22857142857142856,0,-1.7658730158730158,0,0
com.f2prateek.dfg,v3.0.2,@+id/tv_device_name$,293,0.47113636363636363,2,5.0,0.5729545454545455,0,1.2341269841269842,0,0
com.f2prateek.dfg,v3.0.2,@+id/iv_device_default$,306,0.4060912698412698,6,3.5,0.5207936507936507,0,-0.2658730158730158,0,0
com.f2prateek.dfg,v3.0.2,@+id/iv_device_default$,304,0.17187499999999997,2,3.5,0.225,0,-0.2658730158730158,0,0
com.f2prateek.dfg,v3.0.2,@+id/iv_device_default$,300,0.38881313131313133,6,3.8333333333333335,0.5222474747474748,0,0.06746031746031766,0,0
com.f2prateek.dfg,v3.0.2,@+id/iv_device_default$,301,0.54375,1,4.0,0.45,0,0.23412698412698418,0,0
com.f2prateek.dfg,v3.0.2,@+id/iv_device_default$,302,0.275,2,3.5,0.3833333333333333,0,-0.2658730158730158,0,0
com.f2prateek.dfg,v3.0.2,@+id/iv_device_default$,305,0.6386666666666667,1,4.0,0.7333333333333333,0,0.23412698412698418,0,0
com.f2prateek.dfg,v3.0.2,@+id/debug_device_product$,307,0.34874999999999995,3,3.0,0.35309523809523813,0,-0.7658730158730158,0,0
com.f2prateek.dfg,v3.0.2,@+id/debug_device_product$,311,0.4851515151515151,4,4.25,0.551060606060606,0,0.4841269841269842,0,0
com.f2prateek.dfg,v3.0.2,@+id/debug_device_product$,308,0.3085890151515151,4,4.0,0.4843939393939394,0,0.23412698412698418,0,0
com.f2prateek.dfg,v3.0.2,@+id/debug_device_product$,309,0.07857142857142857,3,2.3333333333333335,0.2912698412698413,0,-1.4325396825396823,0,0
com.f2prateek.dfg,v3.0.2,@+id/debug_device_product$,312,0.5462222222222223,3,3.6666666666666665,0.5944444444444444,0,-0.0992063492063493,0,0
com.f2prateek.dfg,v3.0.2,@+id/debug_device_product$,310,0.375,2,4.5,0.4,0,0.7341269841269842,0,0
com.f2prateek.dfg,v3.0.2,@+id/debug_device_resolution$,318,0.3473712121212121,5,4.0,0.5093722943722944,0,0.23412698412698418,0,0
com.f2prateek.dfg,v3.0.2,@+id/debug_device_resolution$,313,0.5264242424242425,3,4.333333333333333,0.6458585858585858,0,0.5674603174603172,0,0
com.f2prateek.dfg,v3.0.2,@+id/debug_device_resolution$,316,0.23392857142857143,4,2.75,0.3642857142857143,0,-1.0158730158730158,0,0
com.f2prateek.dfg,v3.0.2,@+id/debug_device_resolution$,315,0.5145833333333333,3,4.0,0.48333333333333334,0,0.23412698412698418,0,0
com.f2prateek.dfg,v3.0.2,@+id/debug_device_resolution$,317,0.375,2,3.5,0.4,0,-0.2658730158730158,0,0
com.f2prateek.dfg,v3.0.2,@+id/debug_device_resolution$,314,0.3,1,3.0,0.4666666666666666,0,-0.7658730158730158,0,0
com.f2prateek.dfg,v3.0.2,@+id/debug_device_api$,323,0.3960595238095238,5,3.4,0.514952380952381,0,-0.3658730158730159,0,0
com.f2prateek.dfg,v3.0.2,@+id/debug_device_api$,321,0.54375,1,4.0,0.4,0,0.23412698412698418,0,0
com.f2prateek.dfg,v3.0.2,@+id/debug_device_api$,324,0.49965800865800863,7,4.142857142857143,0.558939393939394,0,0.3769841269841274,0,0
com.f2prateek.dfg,v3.0.2,@+id/debug_device_api$,322,0.09999999999999999,3,3.0,0.18333333333333335,0,-0.7658730158730158,0,0
com.f2prateek.dfg,v3.0.2,@+id/debug_device_api$,319,0.3,1,3.0,0.4666666666666666,0,-0.7658730158730158,0,0
com.f2prateek.dfg,v3.0.2,@+id/debug_device_api$,320,0.22393939393939394,1,4.0,0.7542424242424242,0,0.23412698412698418,0,0
com.f2prateek.dfg,v3.0.2,@+id/debug_picasso_cache_size$,326,-0.5,1,1.0,0.5,0,-2.765873015873016,0,0
com.f2prateek.dfg,v3.0.2,Product$,331,0.0,1,3.0,0.0,0,-0.7658730158730158,0,0
com.f2prateek.dfg,v3.0.2,Model$,339,0.0,1,3.0,0.0,0,-0.7658730158730158,0,0
com.f2prateek.dfg,v3.0.2,@+id/debug_picasso_cache_miss$,341,0.15,2,3.5,0.30000000000000004,0,-0.2658730158730158,0,0
com.f2prateek.dfg,v3.0.2,   Misses$,348,0.15,2,3.5,0.30000000000000004,0,-0.2658730158730158,0,0
com.f2prateek.dfg,v3.0.2,@string/developer$,351,-0.0642857142857143,1,1.0,0.40714285714285714,0,-2.765873015873016,0,0
com.f2prateek.dfg,v3.0.2,@string/developer$,352,1.0,1,5.0,0.75,0,1.2341269841269842,0,0
com.f2prateek.dfg,v3.0.2,@string/developer$,350,1.0,1,5.0,1.0,0,1.2341269841269842,0,0
com.f2prateek.dfg,v3.0.2,@+id/tv_version_number$,359,0.0,1,5.0,0.0,0,1.2341269841269842,0,0
com.f2prateek.dfg,v3.0.2,@string/application_name$,364,0.27083333333333337,2,4.0,0.4625,0,0.23412698412698418,0,0
com.f2prateek.dfg,v3.0.2,@string/application_name$,363,0.8,1,3.0,0.75,0,-0.7658730158730158,0,0
com.f2prateek.dfg,v3.0.2,Make$,365,0.5,1,2.0,0.5,0,-1.7658730158730158,0,0
