Topic Index 1,Topic Index 2,Topic Similarity
14,13,0.6499
5,16,0.319
1,3,0.3081
12,8,0.26280000000000003
6,7,0.2483
8,1,0.2444
15,2,0.2268
11,17,0.21080000000000002
2,11,0.189
3,18,0.15960000000000002
0,10,0.136
18,9,0.11179999999999998
19,4,0.10880000000000002
16,6,0.10560000000000001
13,15,0.08990000000000001
4,0,0.0
7,5,0.0
9,12,0.0
10,14,0.0
17,19,0.0
