335 for song with identical title base title off of filename,o,2014/5/20,,
catch error is somehow null,b,2014/5/20,,
fix most recent sync with tag make sure to use tag check on first result well,b,2014/5/19,,
remove another worthless log,b,2014/5/19,,
fix web commits,b,2014/5/19,,
display notification if something downloaded return true if anything wa actually downloaded,b,2014/5/19,,
add delayed call to filling buffer is no longer called in a loop which wa how the queue got filled after clearing and refreshing the shuffle buffer,f,2014/5/19,,
fix wa to add a delayed call which call a refill action occurs,b,2014/5/19,,
do synchronized logic in event thread,b,2014/5/18,,
fix freeze info is already cached,b,2014/5/16,,
fix crash off object being null,b,2014/5/16,,
fix header showing in hybrid directory,b,2014/5/16,,
check moved to broadcast handler,b,2014/5/16,,
broadcast paused in prepared state for device,b,2014/5/16,,
create in music folder well a home subsonic maintains two separate directory one for music and one for artwork etc to be stored,o,2014/5/15,,
only broadcast paused in prepare state for device require a song be in the paused state for the to be updated properly,b,2014/5/13,,
add to buffer log,f,2014/5/13,,
remove pointless log,b,2014/5/08,,
remove accidental log,b,2014/5/08,,
463 released,f,2014/5/07,,
remove attempt to remove album star,o,2014/5/07,,
update translation,b,2014/5/07,,
fix refreshing adding multiple instance of grid,b,2014/5/07,,
