perfect subsonic companion and frequently,o,2014-05-29,Rick Reilly,4
all performs much better the standard subsonic player,b,2014-05-23,Scott Carver,5
different feature playback is caching of song is more playback work better,o,2014-05-23,Scott Carver,5
it appears to be under much more active development the standard sub so the 2 price tag is actually going toward something substantive,o,2014-05-23,Scott Carver,5
crash receiving call over,b,2014-05-22,Niek Brasa,4
