developer really invested a lot of time stabling it and adding feature,o,2014-07-22,Ofer Groman,5
nice,o,2014-07-22,Ofer Groman,5
it a really good,o,2014-07-22,Benjamin Copeland,4
it worth the purchase,b,2014-07-22,Benjamin Copeland,4
two improvement are needed,f,2014-07-22,Benjamin Copeland,4
please put them in next version,f,2014-07-22,Benjamin Copeland,4
1,o,2014-07-22,Benjamin Copeland,4
resume,o,2014-07-22,Benjamin Copeland,4
it annoying it doe not save position,b,2014-07-22,Benjamin Copeland,4
2,o,2014-07-22,Benjamin Copeland,4
mark listened,b,2014-07-22,Benjamin Copeland,4
it easy to keep a record,o,2014-07-22,Benjamin Copeland,4
best subsonic by far,o,2014-07-18,Willy Jenkins,5
would love i could listen to a song without losing my place in though,o,2014-07-18,Willy Jenkins,5
