fix shuffle buffer sometimes trying to refill forever,b,2013/6/05,,
slight tweak to player description,o,2013/6/05,,
added option to do raw video,f,2013/6/05,,
added option to overwrite existing for 47,f,2013/6/05,,
fix for not always setting parent id,b,2013/6/05,,
close 132 fix removing the active server,b,2013/6/05,,
fix typo in,b,2013/6/05,,
added dialog file found to now ignore or just delete it made a function so it can be called from fragment,o,2013/6/05,,
added ha function to so the fragment can query and if the file exists can prompt to process ignore or delete,o,2013/6/05,,
throw exception if g not found so it can be put back on the list removed unneeded log line,b,2013/6/05,,
changed to use a proper query from using just parsed from filename,f,2013/6/05,,
this change made loading slow,b,2013/6/05,,
set suggested name merged old download activity method,b,2013/6/04,,
supposed to be protected not private,o,2013/6/04,,
added ability to create new from add to menu,f,2013/6/04,,
added functionality new function to return name of file added code to appends to file a search query made from song path and the time of that song play override function that also take time in of new function to look for file and process it by using to get the song id using the cached query added call to in,b,2013/6/04,,
updated project file and,o,2013/6/04,,
add refresh to genre for doing manual refresh,f,2013/6/03,,
finished adding widget,b,2013/6/03,,
fix for some edge case in sorting surround with to never bother user it fails,b,2013/6/03,,
apply sorting on version 47,f,2013/6/02,,
forgot to enable fast scroll on genre fragment,b,2013/6/02,,
added genre fragment,f,2013/6/02,,
added genre combo to shuffle dialog,f,2013/5/31,,
upped version to 403,f,2013/5/31,,
