fix using the wrong id for cover art,b,2014/11/25,,
lib update calling after throw error,b,2014/11/25,,
simplify some of the theme add to them,f,2014/11/25,,
use system default,b,2014/11/25,,
484 released,f,2014/11/22,,
