update translation,b,2014/5/27,,
possible fix for some device not sending a log might be returning a relative path sometimes,b,2014/5/26,,
move out of finally block possible fix for multiple downloads running switching current playing song,b,2014/5/22,,
346 update translation,b,2014/5/22,,
464 released,f,2014/5/21,,
346 add song count to about dialog,f,2014/5/21,,
