always work great for music and,o,2017-04-15,Karl Zlotnicki,4
is a little annoying,b,2017-04-15,Karl Zlotnicki,4
also wish video worked,f,2017-04-15,Karl Zlotnicki,4
i love and use it everyday,o,2017-04-11,Matt Stephens,5
amazing,o,2017-04-11,Matt Stephens,5
solved the drain for me,b,2017-03-15,Sileem Farghaly,4
solid but the design is a little all over the place,o,2017-03-15,Sileem Farghaly,4
still make it the best subsonic currently available,f,2017-03-15,Sileem Farghaly,4
jukebox mode is not working in subsonic or sub,o,2017-03-13,Stuart Gerber,4
best for period,o,2017-03-12,Conor Shenk,5
been a paid user for year,b,2017-03-12,Conor Shenk,5
fantastic is consistently updated that i have used forever with subsonic,o,2017-02-28,Christian Williams,5
a recent bug i have discovered relates to usage and switching back to normal use,b,2017-02-28,Christian Williams,5
i have duplicated this issue on 3 different device,b,2017-02-28,Christian Williams,5
keep up the great work,o,2017-02-28,Christian Williams,5
edit disabling resolved the issue,b,2017-02-28,Christian Williams,5
may want to disable by default,f,2017-02-28,Christian Williams,5
thanks again,o,2017-02-28,Christian Williams,5
froze up minute of same thing,b,2017-02-26,Gez Page,1
going back to subsonic and refunding this,o,2017-02-26,Gez Page,1
shame,b,2017-02-26,Gez Page,1
headphone playback speed with cable is normal,b,2017-02-24,Kevin Hodges,4
all device play fast,b,2017-02-24,Kevin Hodges,4
this is a great in almost every respect but it ha one major flaw no playback casting to my audio,o,2017-02-19,Mike Stuart,4
this mean that there is a gap of silence between each track during playback which really interrupt the flow i play an album which ha seamless transition between song or a comedy album,b,2017-02-19,Mike Stuart,4
great,o,2017-02-07,James Valente,4
only drawback is the apparent inability to save to external storage even rooted,o,2017-02-07,James Valente,4
the option is there but not selectable,f,2017-02-07,James Valente,4
the is clunky and the ha many bug,b,2017-02-05,Jostein,1
to name a few the volume control never seem to work casting and if you stop a song and close the to cast from another this will try to reconnect to and override whatever other you tried to cast from which is really annoying,b,2017-02-05,Jostein,1
i am really enjoying this with android auto,o,2017-01-30,Bertram Joseph,5
thanks,o,2017-01-30,Bertram Joseph,5
the best subsonic music player,o,2017-01-25,,5
i had an apache configuration issue preventing the from connecting,b,2017-01-22,Daniel L,5
now i nailed it the is working a advertised,o,2017-01-22,Daniel L,5
beautiful,o,2017-01-22,Daniel L,5
none of the others can remotely the working one at least,o,2017-01-22,Daniel L,5
i want to thank the developer,o,2017-01-22,Daniel L,5
there is a glitch when you go back to a previous menu still scrolling where the previous screen stay visible and mess everything up,o,2017-01-20,ramicaza,4
need to be restarted to fix it,b,2017-01-20,ramicaza,4
apart from this i love this and i use it almost daily,o,2017-01-20,ramicaza,4
i think the just took the free version and modified it,o,2017-01-17,Jim Blaich,2
you can see this in the error position of the screen and overall conceptual design,b,2017-01-17,Jim Blaich,2
the new version there are issue with connecting to the server,b,2017-01-17,Jim Blaich,2
from my work connecting to my home via the browser it work great,b,2017-01-17,Jim Blaich,2
connecting from my work to my home with the product i get constant timeouts,o,2017-01-17,Jim Blaich,2
i can do this back to back within a matter of minute back and forth,b,2017-01-17,Jim Blaich,2
it seems ha become unstable and unusable,b,2017-01-17,Jim Blaich,2
tried contacting the,b,2017-01-14,Kartik Gaje,4
but no rating,b,2017-01-14,Kartik Gaje,4
thanks for the fix,b,2017-01-14,Kartik Gaje,4
great,o,2016-12-31,Nick Alvarado,5
great,o,2016-12-14,Davide Depau,5
my favorite overall android,f,2016-12-11,Erik Larson,5
simply the best one for subsonic,o,2016-12-11,Erik Larson,5
is always updating and expanding this,b,2016-12-11,Erik Larson,5
i cant use android without,b,2016-12-11,Erik Larson,5
some of the killer feature for me are android auto support playback great widget of on,b,2016-12-11,Erik Larson,5
most feature work well out of the box,f,2016-12-03,Scott Belisle,5
android auto integration is great,f,2016-12-03,Scott Belisle,5
up i updated my nexus to this wa perfect,o,2016-12-02,Clark Wright,5
it is the single largest battery consumer,b,2016-12-02,Clark Wright,5
an overnight it drained 30 of the battery simply being resident in memory,b,2016-12-02,Clark Wright,5
of the not enabling doe appear to fix the battery issue,b,2016-12-02,Clark Wright,5
a few thing are annoying,b,2016-11-30,Sven Moelter,3
1,o,2016-11-30,Sven Moelter,3
2,o,2016-11-30,Sven Moelter,3
awesome always,o,2016-11-29,Eric Dunn,5
thanks for continuing development of this great,o,2016-11-29,Eric Dunn,5
awesome,o,2016-11-29,Joshua Harvey,5
work great with new device but not playing anything on android 442,b,2016-11-28,Yossi Haddad,3
it seems the latest update doe not authenticate correctly with basic anymore,b,2016-11-26,,5
i am using an reverse proxy in front of,b,2016-11-26,,5
resource not found,b,2016-11-26,,5
my log show a 401 for the get request to,b,2016-11-26,,5
i disable basic the test is successful and the work,f,2016-11-26,,5
the update wa included in the next play store and everything is 100 again,b,2016-11-26,,5
great developer and amazing,o,2016-11-26,,5
appears to struggle even music is on local when other are doing stuff like map,o,2016-11-21,Stephen Hill,4
i suspect maybe not enough ram caching or not high enough priority for playback thread,f,2016-11-21,Stephen Hill,4
i love this,o,2016-11-17,Lane Russell,5
coming from to the combo is like seeing the light,o,2016-11-17,Lane Russell,5
a and responsive development creates this unparalleled masterpiece,b,2016-11-17,Lane Russell,5
is heating up and draining my battery on lg and android,b,2016-11-16,Dave Spedzia,1
please fix this thanks,b,2016-11-16,Dave Spedzia,1
downloaded on my compact and proceeded to add my server work fine with the default subsonic android,b,2016-11-14,Dan Morgan,2
no dice,o,2016-11-14,Dan Morgan,2
i used to love this,o,2016-11-10,Doug Dorman,5
but i got my pixel it ha been unusable edit wa contacted by floss and an update wa immediately provided and now is back to being the i love,o,2016-11-10,Doug Dorman,5
nougat issue have been fixed,b,2016-11-10,Matt Malone,5
been a great for year,o,2016-11-10,Nate Paystrup,1
somethings up with nougat,o,2016-11-10,Nate Paystrup,1
used almost 50 battery on my commute to and from work today,b,2016-11-10,Nate Paystrup,1
computed battery usage,b,2016-11-10,Nate Paystrup,1
almost 3 hour,b,2016-11-10,Nate Paystrup,1
this is a very good,o,2016-11-08,P Lo,4
it will great the ability to search by composer is added,b,2016-11-08,P Lo,4
the feature will be welcomed by the classical music lover,o,2016-11-08,P Lo,4
i bought family library how to install on family device,b,2016-10-22,Caleb Bahler,5
developer is amazingly responsive,b,2016-10-21,A Google User,3
is a huge improvement over official subsonic,f,2016-10-21,A Google User,3
will go back to 5 star this is fixed,b,2016-10-21,A Google User,3
this is a fine and i use it daily,o,2016-10-14,Tim Smith,4
playback is great,b,2016-10-14,Tim Smith,4
you use subsonic and your not using your doing something wrong,b,2016-10-11,Jeff M,5
the developer floss is very helpful and did a great job making this,o,2016-10-11,Jeff M,5
i recommend to anyone using subsonic to give this one a try,b,2016-10-11,Jeff M,5
update still the best to use with subsonic,b,2016-10-09,Curtis Mowry,5
the support is phenomenal,b,2016-10-09,Curtis Mowry,5
no other can compare,o,2016-10-09,Curtis Mowry,5
original the support for this is fantastic,o,2016-10-09,Curtis Mowry,5
the developer is always striving to make it better and listening to feedback from customer,o,2016-10-09,Curtis Mowry,5
all the feature you want and a developer who care,b,2016-10-07,Julius Fingerle,5
awesome,o,2016-10-07,Julius Fingerle,5
playing and managing and casting directly to my server are some example,b,2016-10-04,yefim schubert,5
last top similar and artist radio are also nice in helping me rediscover my library,o,2016-10-04,yefim schubert,5
the developer is also very responsive and always improving the,b,2016-10-04,yefim schubert,5
speaking of artist radio stopped working for me last update,b,2016-10-04,yefim schubert,5
using android 7,o,2016-10-04,yefim schubert,5
please fix and thanks for creating a great,b,2016-10-04,yefim schubert,5
wa but is broken on nougat,b,2016-09-28,John Andrews,1
just skip through song very quickly without playing,b,2016-09-28,John Andrews,1
it wa awesome the update to nougat,b,2016-09-25,Kevin Hanrahan,5
clearing the cache and data worked,b,2016-09-25,Kevin Hanrahan,5
thanks,o,2016-09-25,Kevin Hanrahan,5
still not,o,2016-09-22,Brook Zerihun,1
stop casting almost every song,b,2016-09-19,,2
cast again for 1 song and the same,o,2016-09-19,,2
setting,b,2016-09-19,,2
run well fro the most better other day but still ha annoying issue,b,2016-09-10,Kevin Raab,4
also using permanent cache the song freeze during syncing temp fix is to click the song and choose play next hit play then hit next song,b,2016-09-10,Kevin Raab,4
it will then load,b,2016-09-10,Kevin Raab,4
601,o,2016-09-10,Kevin Raab,4
very nice software,o,2016-09-07,Vigo Vigomand,5
but the subsonic server ha a few issue concerning browsing large collection you can list 1,b,2016-09-07,Vigo Vigomand,5
likewise the genre listing suffers the genre filed ha many since each combination of many genre is understood a one new unique,f,2016-09-07,Vigo Vigomand,5
many other database like handle all this but not subsonic,b,2016-09-07,Vigo Vigomand,5
conclusion is that though a excellent a it is limited navigate among your 100000,o,2016-09-07,Vigo Vigomand,5
still get 5 star,o,2016-09-07,Vigo Vigomand,5
but please do fix this,b,2016-09-07,Vigo Vigomand,5
developer very responsive to rare bug,b,2016-09-02,Jon Zastera,5
best of all of them,o,2016-09-02,Jon Zastera,5
buy it,b,2016-09-02,Jon Zastera,5
5 star nougat bug fixed,b,2016-08-31,Tristan Goget,5
please update this,b,2016-08-31,Tristan Goget,5
bug immediately resume the last song you first load the but doe not show the song a playing,b,2016-08-31,Tristan Goget,5
is totally unusable this is fixed,b,2016-08-31,Tristan Goget,5
please fix,b,2016-08-31,Tristan Goget,5
edit thanks for being such awesome responsive,o,2016-08-31,Tristan Goget,5
is working perfectly again,o,2016-08-31,Tristan Goget,5
thanks,o,2016-08-31,Tristan Goget,5
self hosted is the way to and this make it easy to play on the go,o,2016-08-30,MycahM,5
the regular update make this the best subsonic client,b,2016-08-28,chetan bhardwaj,5
is there anyway to listen to the radio station have been saved on the subsonic server 60,b,2016-08-28,chetan bhardwaj,5
author of this client is very aware of need and work on it regularly,f,2016-08-28,chetan bhardwaj,5
look like he is a music enthusiast also,o,2016-08-28,chetan bhardwaj,5
keep up the excellent work,o,2016-08-28,chetan bhardwaj,5
if you use subsonic a this is a great upgrade with lot of configuration option and more fully featured the stock,f,2016-08-28,Dylan Jackson,5
latest update fix issue with android 70 you need to wipe cache and data though,b,2016-08-27,Jamie Money,5
stopped developer not responsive,b,2016-08-26,Stanislav Khromov,1
edit work again on nougat manually clearing,b,2016-08-24,Andrew Chaney,5
this is hand down my favorite music,o,2016-08-24,Andrew Chaney,5
i can load a but it skip all the track without playing anything,b,2016-08-24,Andrew Chaney,5
the best for subsonic on the play store,o,2016-08-23,JJ Guaragno,5
despite a somewhat dated looking the is packed full of feature you want and expect from a music player,o,2016-08-23,JJ Guaragno,5
thanks,o,2016-08-23,JJ Guaragno,5
d,o,2016-08-23,JJ Guaragno,5
stock 70 on nexus and pixel c on no song will play,b,2016-08-23,Press Werden,1
the skip through the whole in a continuous loop without playing anything,b,2016-08-23,Press Werden,1
look like the playback is messed up updating to n,o,2016-08-23,Charish Patel,5
no playback a it constantly switch between same thing reported,b,2016-08-23,Charish Patel,5
i love this subsonic,o,2016-08-22,Marco A Morales,4
edit to the seems to constantly and never play a even if it ha already been previously,b,2016-08-22,Marco A Morales,4
the in general ha been no crash or anything,b,2016-08-22,Ganesh Sivalingam,5
not so much with file i sync audio file it syncs them a,b,2016-08-22,Ganesh Sivalingam,5
at first i thought i had just messed up the server but i download file from the web they are downloaded a update my had the server setting wrong,b,2016-08-22,Ganesh Sivalingam,5
five star for the and thanks for the help,o,2016-08-22,Ganesh Sivalingam,5
love this,o,2016-08-22,Frank Perez,4
i prefer to use but for i currently tend to go back to play music since i can browse file easier by just a list of everything is downloaded and i can scroll through everything,o,2016-08-22,Frank Perez,4
thank you,o,2016-08-22,Frank Perez,4
this really is a great piece of software,o,2016-08-21,Mark Brown,5
i use it daily,o,2016-08-21,Mark Brown,5
i love d sub,o,2016-08-16,William Schroeder,4
even i do have the setting to arrange by folder structure,f,2016-08-16,William Schroeder,4
used it with subsonic now with and it work great,o,2016-08-02,zingmars,5
great definitely recommend you have your own streaming server,b,2016-08-02,zingmars,5
work better the official and with regular update,b,2016-08-01,Danny Ben-Yakar,5
best subsonic,o,2016-08-01,Giorgio Marcianò,5
enjoying the however song play very quiet in the causing me to re scan audio folder of my music player of choice would be great for my purpose this wa,o,2016-07-31,chris goodall,3
work intuitive control great caching and ability to manage the,f,2016-07-20,Steve Gray,5
and most to is support,b,2016-07-20,Steve Gray,5
alone put it way above the competition,o,2016-07-20,Steve Gray,5
i am a long time subsonic user 5 year,b,2016-07-19,Jeffrey Balinsky,5
i am super stoked on this and it is now the primary way i interact with my server,b,2016-07-19,Jeffrey Balinsky,5
i recently bought my second license for this on my girlfriend phone,b,2016-07-19,Jeffrey Balinsky,5
i set up the jukebox mode and i am in love,o,2016-07-19,Jeffrey Balinsky,5
my dream feature at this point are being able to delete content off of my server and to be able to assign album art by pasting an keep up the great work,b,2016-07-19,Jeffrey Balinsky,5
great,o,2016-07-18,Michael Krizner,4
need radio station support,b,2016-07-18,Michael Krizner,4
i have 20 station set up server side,b,2016-07-18,Michael Krizner,4
update a suggestion by the developer to all is well,b,2016-07-04,Philip Nelson,4
i also actually tried the demo before loading my subsonic but it worked even wandering around town and listening via,b,2016-07-04,Philip Nelson,4
on the every now and again song will skitter and skip,b,2016-06-25,Joe Halpin,3
the is wired to my network and my medium server ha ton of fire power and fast drive,b,2016-06-25,Joe Halpin,3
i have playback turned off and the cache is set to 2000 on an external card,f,2016-06-25,Joe Halpin,3
would be nice this can get resolved,o,2016-06-25,Joe Halpin,3
really nice,o,2016-06-20,M. Omer Golgeli,4
it doe what i want it to do,o,2016-06-20,M. Omer Golgeli,4
what i wonder is can you make it play random song instead of random album,b,2016-06-20,M. Omer Golgeli,4
i like the it is a bit but still the best of all available alternative,f,2017-05-05,J. S.,4
i really wish the remote play on the server would be just a toggle and not show the album i am looking at in the player anyway,f,2017-05-05,J. S.,4
keep the double check turning on since i want to give anyone at home a heart attack,o,2017-05-05,J. S.,4
