consistently awesome endlessly improved,o,2014-05-03,A Google User,5
loving the new remote volume control phone is sleeping,b,2014-05-03,A Google User,5
thanks for adding,o,2014-05-03,A Google User,5
