replace internal with external applying redirect,f,2015/1/26,,
fix playback not proceeding starting from paused state,b,2015/1/25,,
rewrite cover art well,o,2015/1/25,,
change tag name,b,2015/1/25,,
everything support so just specify raw so content length is correct,b,2015/1/25,,
expand a bit on what is kept parsing wa broken,b,2015/1/24,,
update to remove beta info,b,2015/1/24,,
drop another from,f,2015/1/24,,
drop to save another,f,2015/1/24,,
reduce the number of for cling,b,2015/1/24,,
fix casting song in mode to,b,2015/1/24,,
upgrade version of with fixed header,b,2015/1/24,,
remove log constantly fill log with too much crap,b,2015/1/24,,
49 beta 3 released,b,2015/1/23,,
casting we still want to clear bookmark and setup for deletion,o,2015/1/21,,
also check to make sure the server support seeking,b,2015/1/21,,
check device support seeking,b,2015/1/21,,
add support for casting,f,2015/1/21,,
441 fix artist lookup with tag browsing,b,2015/1/21,,
add cover art to,f,2015/1/19,,
get some basic working,b,2015/1/19,,
fix issue with cast not going to idle size 1,b,2015/1/19,,
fix starred menu not having full set of option,b,2015/1/19,,
fix issue is a space instead of null and try to do same child lookup on failure,b,2015/1/19,,
fix index cache not being cleared changing,b,2015/1/19,,
440 hide folder selection if there is a single one anyways,f,2015/1/19,,
fix crash both artist info is null and cover art id is null,b,2015/1/18,,
436 on starred image try to load artist image instead of a,b,2015/1/17,,
fix setting standard text line to 10,b,2015/1/17,,
increase the number of description line on tablet,b,2015/1/17,,
put on bottom so it always get click event even put invisible space in front of it,b,2015/1/16,,
update to latest beta,b,2015/1/16,,
fix crash due to context menu being called for entry list on behalf of header,b,2015/1/16,,
fix crash on selecting context item with header,b,2015/1/16,,
49 beta 2 again for crash fix,b,2015/1/16,,
add block around device add,f,2015/1/16,,
49 beta 2 with fix for artist viewing on older server,b,2015/1/15,,
extend no error on fast,b,2015/1/15,,
fix error server is not 51,b,2015/1/15,,
49 beta 2 released,o,2015/1/15,,
fix crash we try to reference a null,b,2015/1/15,,
make text wrap from around image in header,b,2015/1/15,,
add artist header to grid well,f,2015/1/13,,
start of displaying artist info a header,b,2015/1/12,,
fix etc not being parsed correctly,b,2015/1/12,,
better fix for the issue now i understand why,b,2015/1/09,,
fix incrementing randomly,b,2015/1/09,,
simplify header menu logic,b,2015/1/05,,
remove comment,b,2015/1/05,,
438 add dialog to lookup missing artist,f,2015/1/04,,
missing artist start to data pulled,b,2015/1/04,,
cache artist info,f,2015/1/04,,
fix crash title is null for any reason,b,2015/1/03,,
increase right margin a bit more button is selectable,o,2015/1/03,,
put delete in a background loader,b,2015/1/03,,
move setting fragment to be placed like standard restore logic work,b,2014/12/30,,
add to ignore,f,2014/12/29,,
49 beta 1,o,2014/12/27,,
forgot to up version code past beta,f,2014/12/27,,
486,o,2014/12/27,,
fix crash album is null,b,2014/12/27,,
add detail for cling dependency,f,2014/12/27,,
49 beta 1 released,o,2014/12/27,,
486 released,f,2014/12/27,,
fix error trying to query status with no current song,b,2014/12/27,,
fix get status running too often skipping current song and starting on connect even paused,b,2014/12/27,,
