issue 18 improved the theme for the dialog for the log file,f,2013/11/02,,
issue 18 improve the behavior of the progress dialog resetting the log,f,2013/11/02,,
issue 18 introduced a transparent intermediate activity which allows sharing logic between a and a,f,2013/11/02,,
issue 18 refactoring to move logic for sharing and resetting the log out of,b,2013/11/02,,
ran,o,2013/11/02,,
use a basic instead of in the string file,b,2013/11/02,,
issue 17 new db version is 6,o,2013/11/02,,
issue 17 use connection test stats view for summary report,b,2013/11/02,,
issue 17 create view for summary report,f,2013/11/02,,
