new version 1102,f,2014/4/11,,
issue 38 simplify the scheduling of sending mail,b,2014/4/11,,
new version 1101,f,2014/4/07,,
ran,o,2014/4/07,,
import the custom log class,f,2014/4/07,,
issue 38 added the date of the last email sent in the email screen,b,2014/4/07,,
issue 38 separate email preference string into their own file,o,2014/4/07,,
issue 38 put email related file into a separate package,b,2014/4/07,,
issue 38 turn off verbose mail debugging on a release build,f,2014/4/06,,
issue 38 some cleanup of,b,2014/4/06,,
issue 38 add an info dialog exiting the email setting,b,2014/4/06,,
reset the report interval to 0,b,2014/4/06,,
issue 38 some cleanup in and in,b,2014/4/06,,
issue 38 change order of setting in the email setting screen,b,2014/4/06,,
new version 1100,f,2014/4/06,,
issue 38 use mixed instead of alternative,b,2014/4/06,,
issue 38 correction to get the from field and timeouts,f,2014/4/06,,
issue 38 correction for the port and protocol for,f,2014/4/06,,
issue 38 added a bit darker,b,2014/4/06,,
issue 38 style preference category title,o,2014/4/06,,
issue 38 category title are in all cap,o,2014/4/06,,
issue 38 added preference category,f,2014/4/06,,
issue 38 added icon for email preference,b,2014/4/06,,
issue 38 added,o,2014/4/06,,
issue 38 added,o,2014/4/06,,
issue 38 some correction for scheduling email report,b,2014/4/06,,
issue 38 implement sending the mail,b,2014/4/06,,
issue 38 created which is an,o,2014/4/06,,
issue 38 update the summary of the setting of the report format to email,b,2014/4/06,,
hide the email sending preference on,b,2014/4/06,,
new version 190,f,2014/4/06,,
