new version 171,f,2014/3/30,,
request at least one location update,b,2014/3/30,,
correction to refresh the log view clearing the log,b,2014/3/30,,
issue 26 translated string into e and fr,b,2014/3/30,,
issue 26 the user want high location accuracy make sure the network provider are enabled,b,2014/3/30,,
issue 26 cleanup in class,b,2014/3/30,,
issue 26 correction in register for location update in,b,2014/3/30,,
set fastest interval instead of interval,f,2014/3/30,,
issue 26 switch to the relevant location data source,b,2014/3/30,,
play service is enabled or disabled,b,2014/3/30,,
issue 26 add setting to choose between high accuracy or power saving for location update,b,2014/3/30,,
chanted package name in to,b,2014/3/30,,
add default value for cell id format in the,b,2014/3/30,,
moved package from to,b,2014/3/30,,
fix for the custom dialog title on,b,2014/3/23,,
updated copyright date in about screen,b,2014/3/23,,
fixing theme on to prevent crashing,f,2014/3/23,,
new version 161,f,2014/3/23,,
fixing theme on to prevent crashing,f,2014/3/23,,
removed hack from for the text color of the dialog title,b,2014/3/23,,
changed license of,f,2014/3/23,,
different layout for dialog title in versus centralize the code which set the custom dialog title,o,2014/3/23,,
custom dialog title working on,o,2014/3/23,,
use instead of,b,2014/3/22,,
new version 160,f,2014/3/22,,
issue 34 in the column filter chooser top put quote around the field name,f,2014/3/22,,
style refactoring,f,2014/3/21,,
style change license run,f,2014/3/21,,
style slightly le customization of dialog edge,f,2014/3/21,,
style simplify the styling of the progress bar indicator,f,2014/3/21,,
style making slightly le,o,2014/3/20,,
style cleanup of,f,2014/3/20,,
style cleaning up style a bit,f,2014/3/20,,
style button,f,2014/3/20,,
fix the dialog nine patch on,f,2014/3/20,,
customize the button and list selector for all version not just honeycomb,f,2014/3/19,,
style the format preference,o,2014/3/19,,
issue 34 remove deprecated method call,f,2014/3/19,,
issue 34,b,2014/3/18,,
issue 34 cleanup and document,b,2014/3/18,,
issue 34 add confirmation dialog deleting filter,f,2014/3/18,,
issue 34 minor layout fix,b,2014/3/18,,
issue 34 translate filter string into and,f,2014/3/18,,
issue 34 make filtered header italic,b,2014/3/17,,
issue 34 header cleanup make the header bold again,b,2014/3/17,,
make the filter icon easier to click on,b,2014/3/17,,
wrap header label,f,2014/3/17,,
issue 34 showing the possible value to filter only show the available value given the existing filter on other column,b,2014/3/17,,
issue 34 use filter for export,f,2014/3/17,,
issue 34 in the screen to filter on a column show how many row match each value,b,2014/3/17,,
issue 34 refresh the log view changing the filter setting,b,2014/3/17,,
issue 34 filter modification in the header show the right icon whether the column is filtered or not,b,2014/3/17,,
allow filtering certain column,f,2014/3/17,,
issue 34 use the column filter in the table export query,f,2014/3/17,,
issue 34 added screen to select value to filter,b,2014/3/16,,
issue 34 added filter icon in the column header,b,2014/3/16,,
new version 153,f,2014/3/16,,
fix for export so the file can be viewed on earth on android,f,2014/3/16,,
