improving some,f,2015/7/20,,
fixing in,b,2015/7/20,,
increase version to 1220,b,2015/7/19,,
fix in file chooser navigating on folder without permission,b,2015/7/19,,
fixed some logging,b,2015/7/19,,
add for,f,2015/7/19,,
use the new file chooser for import no external chooser is available,f,2015/7/19,,
add translation,f,2015/7/19,,
disable file selection for export,f,2015/7/19,,
move file chooser file into a separate package,b,2015/7/19,,
improve display of the file chooser,b,2015/7/19,,
save the selected export folder to shared,f,2015/7/19,,
put into a separate file and manage screen rotation,f,2015/7/19,,
improve the file chooser look,b,2015/7/19,,
add a file chooser for exporting file,f,2015/7/19,,
use 24,o,2015/7/19,,
use support library,f,2015/7/19,,
new version 1210,f,2015/7/18,,
issue 64 save to storage in an,b,2015/7/18,,
show in hex format,b,2015/7/18,,
update library version,b,2015/7/18,,
updated support material dialog and play service,b,2015/7/18,,
change the to 40,b,2015/6/14,,
issue 60 increase version to 1201,b,2015/5/31,,
issue 60 improve calculation of free memory during export,b,2015/5/31,,
issue 60 use a toast instead of dialog to warn about too big file export,b,2015/5/31,,
issue 60 prevent crash exporting large excel file,b,2015/5/30,,
declare some field a volatile,f,2015/5/30,,
these field are modified in the main thread but read in a background thread,b,2015/5/30,,
issue 59 add service state,b,2015/5/30,,
new version 1190,f,2015/5/17,,
small to,o,2015/5/17,,
translated speed test interval preference into fr and e,b,2015/5/17,,
speed test interval calculation fix,b,2015/5/17,,
fix for speed test execution decision based on network type and signal strength look at both the network type and the subtype,b,2015/5/17,,
moving speed test class moved to the package,b,2015/5/17,,
moved to the package,b,2015/5/17,,
speed test interval change only listen for signal strength we need it determine if enough network monitor test without speed test have passed by reading from the db instead of keeping an interval count in memory,b,2015/5/17,,
will be slower but the logic is closer to the other condition,b,2015/5/17,,
we just need one setting for the speed test interval with the default value set to do a speed test every time we do a basic network monitor test,b,2015/5/17,,
improve clarity in,o,2015/5/17,,
renamed the class to,o,2015/5/17,,
renamed some method for clarity,o,2015/5/17,,
read the last network type and signal strength from the db,b,2015/5/17,,
this is probably technically slower the previous implementation but the performance hit should be,b,2015/5/17,,
it seems easier to read this way,f,2015/5/17,,
fix code inspection issue on speed test interval change removed unused preference setter declare variable final call of the class reduced some of,b,2015/5/17,,
interval reformat modified file and remove unused import,f,2015/5/17,,
coffee deprived the default case should not always be true,b,2015/5/16,,
removed old comment,b,2015/5/16,,
factored out the advanced speed test interval,b,2015/5/16,,
removed alert for of speed setting,b,2015/5/16,,
changed description the advanced interval are implemented,b,2015/5/16,,
added function for checking network change and added function for network and change to upload test,b,2015/5/16,,
added function for checking change within a certain range,f,2015/5/15,,
added comment for the unimplemented advanced speed interval,b,2015/5/13,,
added alternating interval for download test,b,2015/5/13,,
added for toggling advanced speed test setting,b,2015/5/11,,
fix for speed test upload enter local passive mode,b,2015/5/17,,
for some reason this solves an unexplainable error trying to upload from the emulator closed without indication,b,2015/5/17,,
we can opt to disable connection test the test are not necessarily performed each iteration,b,2015/5/17,,
spelling correction,f,2015/5/17,,
android code inspection remove unnecessary method and method parameter,o,2015/5/17,,
code inspection correction remove unused import,f,2015/5/17,,
android code inspection suppress lint warning for layout file and the manifest using attribute available on newer,b,2015/5/17,,
removed unused file,b,2015/5/17,,
remove eclipse file,b,2015/5/17,,
update copyright header,b,2015/5/17,,
fixed the name and link of contributor in the about screen,b,2015/5/16,,
new speed test icon,b,2015/5/08,,
set both upload and download speed test buffer to,b,2015/5/08,,
trim user input in edit text preference,b,2015/5/08,,
new preference and notification icon,b,2015/5/08,,
new icon,b,2015/5/08,,
added icon to party library,b,2015/5/08,,
increase version to 1183,b,2015/5/08,,
fixed bug with upload causing it to cap due to low buffer size,b,2015/5/07,,
ran code inspector,b,2015/5/01,,
upgraded version,b,2015/5/01,,
isolate pure logic into,b,2015/5/01,,
remove workaround for buggy fake server,b,2015/5/01,,
remove apache email from the list of 3rd party libs,b,2015/5/01,,
increase version,b,2015/5/01,,
small refactoring in,o,2015/5/01,,
use apache instead of apache,f,2015/5/01,,
remove unused style,f,2015/4/26,,
the goal is to be able to release a version to,f,2015/4/26,,
use latest material dialog library,f,2015/4/26,,
run code inspection and fix some issue,b,2015/4/26,,
increased version to 1181,f,2015/4/26,,
use dialog,o,2015/4/25,,
2211 preference activity,f,2015/4/25,,
upgrade to 2211,b,2015/4/25,,
update,b,2015/4/25,,
update,b,2015/4/25,,
update,b,2015/4/25,,
update,b,2015/4/25,,
update,b,2015/4/25,,
use instead of option to deal with class,f,2015/4/25,,
update,b,2015/4/25,,
removed seems to not be needed,b,2015/4/25,,
remove unneeded code from module,b,2015/4/25,,
moved dependency to a separate module,f,2015/4/25,,
remove dependency on jar file,f,2015/4/25,,
use apache common mail instead of mail directly,b,2015/4/25,,
issue 54 move some dependency to dependency,b,2015/4/19,,
upgrade the material dialog library,f,2015/4/19,,
color fix in the filter activity,f,2015/3/30,,
fixed some issue,b,2015/3/30,,
how did this ever work before,o,2015/3/30,,
minor change,b,2015/3/30,,
mark file format string non translatable,b,2015/3/30,,
remove custom dialog title simplify color,b,2015/3/30,,
