previous commit close 5,b,2014/7/17,,
reset cooky user change credential on setting,b,2014/7/14,,
many improvement,f,2014/7/11,,
fixed issue close,b,2014/7/11,,
changed to fix small problem which close 4,b,2013/9/10,,
changed to fix small problem which close 4,b,2013/9/10,,
more refactoring and code cleanup,b,2013/9/10,,
refactoring,o,2013/9/10,,
this close 3 fixed inconsistent line break which messed up version comparison,b,2013/9/01,,
fixed a exception that would occur if the user closed the application fetching usage,b,2013/9/01,,
this close 3,b,2013/9/01,,
fixed a exception that would occur if the user closed the application it wa currently fetching data,b,2013/9/01,,
this close 3,b,2013/9/01,,
notification for expiring which close 2,b,2013/8/30,,
