the best for reading,b,2015-04-05,Peps Alik,5
2 is even better,b,2015-04-05,Peps Alik,5
die file 34 info,o,2015-01-11,Klaus Gebhart,5
i found it perfect,o,2014-08-25,A Google User,5
faced no problem,o,2014-08-25,A Google User,5
this is a good replacement for which ha been abandoned by and rendered unusable by some phone,b,2014-07-02,Allan Bernabe,4
i chose the bigger one,o,2014-07-02,Allan Bernabe,4
please add browse history or favorite option,b,2014-07-02,Allan Bernabe,4
and maybe bookmark,f,2014-07-02,Allan Bernabe,4
need a way to mark them and go to them in next reading,b,2014-07-02,Allan Bernabe,4
why forward button,f,2014-07-02,Allan Bernabe,4
need rewind button too,b,2014-07-02,Allan Bernabe,4
