Topic Index 1,Topic Index 2,Topic Similarity
17,17,0.317
16,18,0.286
15,13,0.24350000000000002
8,19,0.22800000000000004
11,3,0.214
3,4,0.1825
0,11,0.15929999999999997
12,7,0.1488
13,8,0.14850000000000002
1,16,0.1386
5,5,0.13799999999999998
7,1,0.0924
10,2,0.0897
9,0,0.0884
2,6,0.0704
4,14,0.06080000000000001
6,9,0.0
14,10,0.0
18,12,0.0
19,15,0.0
