new version 170,f,2015/6/14,,
issue 17 use library 130,o,2015/6/14,,
pas the calendar a an object to which save u from having to recalculate the date the user selects an option,b,2015/6/14,,
issue 17 add web search option to the,f,2015/6/14,,
fix link to article in,b,2014/12/14,,
new version 162,f,2014/12/14,,
string correction,f,2014/12/13,,
removed attribute from the manifest,b,2014/12/12,,
remove leading 0 from decimal time in share function,b,2014/12/12,,
upgrade the android,b,2014/12/12,,
fix for translation,b,2014/12/12,,
fixed some translation,b,2014/12/08,,
translate the into,o,2014/12/07,,
issue 14 new version 160 for the translation of the calendar,o,2014/12/06,,
issue 14 add to the list of calendar language,f,2014/12/06,,
