some for resizing,b,2014/7/19,,
the work from 2013 to make widget,b,2014/7/19,,
renamed package to and,b,2014/7/19,,
fixed lint warning about using dip instead of,b,2014/7/19,,
changed the about screen to retrieve the version from the,b,2014/7/19,,
fixed bug wrong scroll image wa being used,b,2014/7/19,,
fix ling warning about not having a description,b,2014/7/19,,
fix lint warning about missing drawable,b,2014/7/19,,
fix lint warning about string,b,2014/7/19,,
removed unused font,f,2014/7/19,,
update about screen,b,2014/7/18,,
renamed project from to,b,2014/7/18,,
issue 1 new version of with proper encoding,f,2014/7/18,,
added and file,b,2014/7/14,,
update,b,2014/7/14,,
new version 105,f,2014/7/14,,
target level 18,o,2014/7/14,,
use the weekday and month name from,f,2014/7/14,,
renamed class from to,o,2014/7/14,,
cleaning some lint error,b,2014/7/14,,
removing unnecessary translation,o,2014/7/14,,
add copyright header to file and reformat file,b,2014/7/14,,
added copyright header,b,2014/7/14,,
small refactoring,o,2014/7/14,,
refactoring,o,2014/7/14,,
refactoring,o,2014/7/14,,
added font class,f,2014/7/14,,
ran,o,2014/7/14,,
refactoring widget rendering,b,2014/7/14,,
rendering,o,2014/7/14,,
created,o,2014/7/14,,
use just one alarm for all widget wide and narrow,o,2014/7/14,,
have one preference activity for both narrow and wide widget,b,2014/7/14,,
minor cleanup,b,2014/7/14,,
some cleanup of the preference screen,b,2014/7/14,,
use the library,o,2014/7/14,,
committing,o,2013/2/02,,
show pref activity opening,f,2012/7/21,,
