App,Store,App ID,Review ID,Country,Version,Rating,Date,Author,Subject,Body,Translated Subject,Translated Body
Simple Thermometer,Google Play,fr.tvbarthel.apps.simplethermometer,Z3A6QU9xcFRPRXNMUFFrQnY4ck80VWlocm82eGZRZk1ieW9ZYmNpS0wtdDN3emR4UDZKaDgzMVpGci1lRnhaRUxBZUF0T3NucmcycmxGcDFxeW16dzVEbHc,English,,2,2014-06-06,Mohit Sharma,,,,
Simple Thermometer,Google Play,fr.tvbarthel.apps.simplethermometer,Z3A6QU9xcFRPRm5IQWlZeFVlMEpoRFlLbnlHN2FhS2lsTzlEQ1B2eFBzUVA0ZjFGWFNkTjBuRnE5SjNocnlxN1ZoUFRwYWxEVE9Fa3R3eHREMUVfeXphZlE,English,,5,2014-06-02,Lily Zhao,,good,,
