Topic Index 1,Topic Index 2,Topic Similarity
12,4,2.0
16,9,2.0
0,5,1.0
1,2,1.0
2,15,1.0
3,0,1.0
4,8,1.0
5,11,1.0
6,13,1.0
7,3,1.0
8,7,1.0
9,6,1.0
11,16,1.0
13,12,1.0
15,17,1.0
10,1,0.0
14,10,0.0
17,14,0.0
18,18,0.0
19,19,0.0
