Topic,Words
0,0.015*and,0.015*clearing,0.014*my,0.013*generated,0.013*authentication,0.013*the,0.012*your,0.011*detection,0.010*amazing,0.010*these
1,0.019*missing,0.016*so,0.012*don't,0.011*detects,0.011*help,0.011*chance,0.011*people,0.010*cumbersome,0.010*in,0.010*completely
2,0.020*don't,0.015*dependable,0.014*tied,0.013*even,0.013*another,0.012*unreliable,0.012*ever,0.012*feedback,0.012*nexus,0.011*that
3,0.019*use,0.017*secure,0.014*seed,0.013*took,0.013*today,0.012*nexus,0.012*every,0.012*display,0.011*if,0.011*uses
4,0.019*two,0.019*position,0.017*clearing,0.015*each,0.014*difficult,0.014*unnoticed,0.014*seeds,0.012*works,0.012*most,0.012*every
5,0.024*phone,0.023*it,0.021*minutes,0.019*testing,0.018*top,0.016*often,0.016*scan,0.014*yet,0.013*errors,0.013*standards
6,0.021*and,0.019*scan,0.018*external,0.016*before,0.015*the,0.013*any,0.013*authenticate,0.013*move,0.012*i,0.011*thing
7,0.019*minutes,0.018*difficult,0.016*thanks,0.015*clip,0.014*put,0.014*the,0.013*what,0.011*took,0.011*antenna,0.011*offered
8,0.020*seems,0.019*seeds,0.019*offered,0.017*by,0.016*passwords,0.016*antenna,0.016*basics,0.016*work,0.015*should,0.013*to
9,0.018*nexus,0.014*help,0.014*horribly,0.013*x,0.013*ever,0.012*would,0.012*refreshes,0.012*there,0.011*stopped,0.011*when
10,0.019*site,0.017*takes,0.017*qr,0.016*code,0.016*dependable,0.016*clearing,0.015*now,0.014*device,0.013*intermittent,0.012*x
11,0.017*thing,0.014*times,0.014*requires,0.013*galaxy,0.012*via,0.011*unreliable,0.011*internal,0.011*display,0.011*tied,0.011*our
12,0.023*got,0.022*cumbersome,0.021*cache,0.016*installed,0.014*generated,0.013*is,0.013*generating,0.012*worthless,0.012*scan,0.011*requires
13,0.020*black,0.017*your,0.016*one,0.014*can,0.013*horrible,0.013*the,0.012*with,0.012*codes,0.011*code,0.011*always
14,0.020*because,0.018*token,0.018*communication,0.016*difficult,0.016*there,0.015*latest,0.013*about,0.012*detects,0.012*scanner,0.011*support
15,0.021*point,0.019*tied,0.017*cache,0.015*just,0.014*how,0.013*uses,0.012*position,0.012*add,0.012*for,0.011*means
16,0.021*fixed,0.019*chance,0.017*thanks,0.016*crashed,0.016*a,0.016*detects,0.014*clearing,0.014*generating,0.012*layer,0.011*bar
17,0.017*antenna,0.013*disappear,0.013*point,0.013*will,0.013*there's,0.013*clip,0.013*reading,0.012*email,0.012*up,0.011*more
18,0.025*position,0.017*worried,0.013*to,0.013*great,0.013*retries,0.012*has,0.012*cache,0.012*use,0.011*take,0.011*internal
19,0.027*uses,0.022*idea,0.017*keys,0.016*horrible,0.016*via,0.014*help,0.013*ago,0.012*authentication,0.012*list,0.011*be
