# deletions,date,commit message
45,2015/9/12,Finally fixed the tests
0,2015/9/12,Update screenshot
11,2015/9/12,Add screenshots for tablet device
1,2015/9/12,Update screenshots
6,2015/9/11,Fix some warnings
4,2015/9/11,Use shorter labels
18,2015/9/11,Add an option to disable "Chromecast"
14,2015/9/11,Play downloaded videos in any video player not only VLC
13,2015/9/11,Use ChromeCustomTabs to integrate IMDb and TheTVDb into ShowsRage
2,2015/9/11,Update Travis configuration
38,2015/9/11,Remove TVRage access
51,2015/9/11,:up: Update dependencies
2,2015/9/02,Update versions
1,2015/9/02,Disable Proguard until properly configured
1,2015/9/02,Fix Chromecast playing the wrong episode
8,2015/9/02,Display the remote control in the menu immediately after the video start
4,2015/9/02,Fix "Mute" icon color when changing volume
26,2015/9/02,Fix episode URL in VLC by using the root dirs paths
3,2015/8/30,Update to Gradle Plugin 1.4.0-beta1
3,2015/8/22,Update to Gradle 2.6
1,2015/8/22,Fix FAB tint on episode detail
1,2015/8/22,Improve dynamic colors in show detail
67,2015/8/22,Update Support library improve dynamic colors in show detail [WIP]
1,2015/8/22,Let's try API 23 with Travis
2,2015/8/22,Let's try API 23 with Travis
3,2015/8/17,Keep build-tools to version 22.0.1 for the moment
8,2015/8/17,Let's try API 23 with Travis
8,2015/8/16,Update Constants
12,2015/8/16,Update volume control
4,2015/8/16,Dependencies update :up:
48,2015/8/03,Dependencies update :up:
21,2015/8/02,Change episode volume
162,2015/8/02,Scrollable statistics
24,2015/8/02,Drafting a remote control for Chromecast
1,2015/8/01,Add Contributing.md
1,2015/8/01,Update Readme
3,2015/7/31,Update Android Gradle plugin
2,2015/7/28,Restart SickRage after an update
2,2015/7/27,Add tests
8,2015/7/27,Fix network logging
15,2015/7/26,Only display Chromecast icon if the episode was downloaded
60,2015/7/26,Hide empty information from show overview
6,2015/7/26,Fix episode URL
14,2015/7/25,Chromecast integration
517,2015/7/25,Revert "Add "News" section [WIP]"  This reverts commit e8c272f65f43e526983a5a06c46bc5bd7571d13e.
13,2015/7/25,Add "News" section [WIP]
3,2015/7/24,Update versions
54,2015/7/24,Improve tablet support in history
3,2015/7/24,Improve tablet support in search results
65,2015/7/24,Remove show poster from search results
4,2015/7/24,Translate more data received from SickRage
2,2015/7/24,Don't checked "Settings" menu item
32,2015/7/24,Add banner to show overview
28,2015/7/22,Fix fanart layout
99,2015/7/21,Prepare fan art support
4,2015/7/20,Rename translation
15,2015/7/20,Display quality in history
1,2015/7/20,Request full plot from OMDb API
2,2015/7/20,Hide IMDb button on show overview if IMDb id is empty
3,2015/7/19,Only displays version check error message after a manual check
4,2015/7/19,Update versions
2,2015/7/19,Fix toolbar dynamic color
9,2015/7/19,Remove XML icon for SickRage update to fix crash
11,2015/7/19,Tint buttons on show overview
8,2015/7/19,Fix tab indicator in *Coming episodes*
3,2015/7/19,Update versions
6,2015/7/19,Display an error message if SickRage doesn't support version check
1,2015/7/19,Fix warning
14,2015/7/19,Dynamically change the color of show overview episodes list and episode detail based on the show poster
22,2015/7/18,Ability to specify options when adding a new show
2,2015/7/18,Run automatic version check every 4h
18,2015/7/18,:arrow_down: Downgrade to Support Library 22.2.20
355,2015/7/18,Enable more lint checks and fix warnings
40,2015/7/18,Fix lint warnings
11,2015/7/18,Warnings fixes
17,2015/7/17,Update support library
1,2015/7/16,Add tests
4,2015/7/16,Manually check for update from the menu
3,2015/7/16,Update versions
9,2015/7/16,Update icons
516,2015/7/16,Support tablet in the "Coming episodes" section
1,2015/7/15,Update Glide version
20,2015/7/15,Fix scrolling
5,2015/7/15,Display a notification while SickRage is updating [Needs testing]
22,2015/7/14,Fix pause/resume show button visibility
1,2015/7/14,Fix "Specials" season on episode detail
7,2015/7/14,New logo candidate
2,2015/7/14,Fix 2 potential NullPointerException
1,2015/7/13,Check for SickRage update from the application and propose to run the update [WIP]
91,2015/7/12,Add tests
42,2015/7/12,Add tests
11,2015/7/12,Fix potential NullPointerException
14,2015/7/12,Update Readme
26,2015/7/12,Remove LeakCanary until it's stable enough
17,2015/7/12,Simplify EpisodeDetailFragment
356,2015/7/12,Refactoring
21,2015/7/12,Circle show poster better cache configuration
57,2015/7/11,Add tests
4,2015/7/11,Add tests
6,2015/7/09,Update to Gradle 2.5
6,2015/7/07,Configure coveralls.io
37,2015/7/07,Add tests
6,2015/7/05,Configure signing
24,2015/7/05,Only use one request to get each show statistics
4,2015/7/05,Reenable Leak Canary
2,2015/7/01,Fix up arrow
5,2015/7/01,Update dependencies
1,2015/7/01,Add tests
143,2015/7/01,Add tests
84,2015/7/01,Remove duplicate code
2,2015/6/30,Update version
7,2015/6/30,Only trigger search when the submit key is pressed
5,2015/6/30,Properly display "Custom" quality setting
1,2015/6/30,Ability to set show quality
35,2015/6/28,Add tests
28,2015/6/28,Display show poster in search results
7,2015/6/28,Fix access to a specific episode
1,2015/6/28,Tablet format for seasons list
60,2015/6/28,Tablet format for seasons list
76,2015/6/28,Work on tablet support
1,2015/6/27,Fix history
3,2015/6/27,Update version
112,2015/6/27,Add tests
43,2015/6/27,Add tests
4,2015/6/27,Configure Travis
4,2015/6/27,Add a method to get poster URL
37,2015/6/27,Move TabLayout to the Activity layout
36,2015/6/25,Remove Changelog file in favor of GitHub releases
1,2015/6/25,Fix FAB color
1,2015/6/25,Fix Crash when trying to add a new show
2,2015/6/25,Update version and Changelog
12,2015/6/25,Add information about the application in the settings
5,2015/6/14,Pause/resume a show
1,2015/6/13,Update Changelog
2,2015/6/13,Update versionCode and Changelog
27,2015/6/13,Get API Key by using username/password
33,2015/6/13,Set API path and API key in each request
9,2015/6/13,Update global shows statistics
3,2015/6/13,Hide password in Settings
1,2015/6/13,Hide password in Settings
7,2015/6/13,Disable network logging in release
3,2015/6/08,Update versionCode
6,2015/6/08,Properly configure Proguard
1,2015/6/08,Don't display connection test result if the test was canceled
1,2015/6/08,Display preferences value
2,2015/6/08,Don't force English locale
3,2015/6/08,Setup the debug application to use a different package name
1,2015/6/07,Update versionCode
2,2015/6/07,Use temporary application icon
5,2015/6/07,Fix warning
1,2015/6/07,Update versionCode
2,2015/6/07,Add basic "Add show" feature
115,2015/6/07,Search an episode and set its status from the episode detail
1,2015/6/06,Include tool to count methods in the APK
2,2015/6/05,Update dependencies
19,2015/6/03,Enable and configure Proguard for release version
91,2015/6/03,Update menu remove "Shutdown" feature remove TagGroup dependencies
3,2015/6/03,Ability to test server connection in the settings
2,2015/6/02,Bump min sdk level to 15
2,2015/6/01,Add ability to search a show
9,2015/5/31,Fix annotations
17,2015/5/31,Fix TODO
6,2015/5/31,Simplify dependencies graph
86,2015/5/31,Replace Picasso with Glide
20,2015/5/31,Update menu design
10,2015/5/31,Update menu layout
170,2015/5/31,Use Support Library Navigation Drawer
1,2015/5/29,Fix Toolbar size on API 10
86,2015/5/28,Use Use Support Library TabLayout
25,2015/5/28,Use Support Library FloatingActionButton [WIP]
38,2015/5/28,Update all the things!
1,2015/5/28,Update Material Design Icons to version 2.0.0
1,2015/5/28,Add tests
6,2015/5/26,Update MaterialDrawer to version 3.0.3
6,2015/5/26,Hide "Clear history" button when the history is already empty
1,2015/5/26,Fix no history message
11,2015/5/26,Improve coming episodes when a section is empty
24,2015/5/26,Create generic response object
2,2015/5/26,Ability to clear history
2,2015/5/26,Enable "History" section
5,2015/5/26,Properly implement restart/shutdown feature
2,2015/5/26,Fix drawer menu selection when "Restart" or "Shutdown" is selected
5,2015/5/25,Update MaterialDrawer to version 3.0.2
7,2015/5/25,Add ability to shutdown and restart SickRage
2,2015/5/25,Tweak in translations
26,2015/5/25,Improve "Coming episodes" layout
6,2015/5/25,Always display episode status on episodes list
9,2015/5/25,Rename colors
4,2015/5/25,Add "Coming episodes" section
10,2015/5/25,Improve performance when receiving show stats on shows list
204,2015/5/25,Remove Dagger dependency
33,2015/5/25,Remove RecyclerView Animators dependency
23,2015/5/25,Simplify ShowActivity
12,2015/5/24,Update drawer menu and licenses list
24,2015/5/24,Update MaterialDrawer to version 3.0.0
7,2015/5/24,Add ability to search for an episode and change its status
6,2015/5/24,Display castings and awards on show overview
2,2015/5/24,Update licenses list
1,2015/5/24,Add default value for show's air date
1,2015/5/23,Add default value for show's location
3,2015/5/23,Reduce number of refreshes on shows list
1,2015/5/23,Use smaller ProgressBar size on shows list
14,2015/5/23,Update dependencies
3,2015/5/23,Update style colors
41,2015/5/23,Display show progress on shows list
1,2015/5/23,Add option to enable streaming in VLC
10,2015/5/21,Update dependencies
10,2015/5/20,Add ability to open downloaded episodes in VLC
1,2015/5/18,Support Android 3.0 and up
3,2015/5/18,Change versions
296,2015/5/16,Add ViewPager to navigate between episodes
25,2015/5/15,Display episode information
10,2015/5/14,Update episode access
20,2015/5/11,Move Activity creation out of the Adapters
5,2015/5/11,Make all models Serializable
19,2015/5/11,Only create Fragment when necessary
39,2015/5/11,Update project configuration
