App,Store,App ID,Review ID,Country,Version,Rating,Date,Author,Subject,Body,Translated Subject,Translated Body
ShowsRage,Google Play,com.mgaetan89.showsrage,Z3A6QU9xcFRPRzNjTjFaM3BuSElMeVlMMGU1VEdWbS1USkxKb3hqaU1pcENqdTZKMmhMeG9FOU9HYWctOVBqWHgzckRNTmI2czg3NVFfYWJuQmpKdVh4NUE,English,,2,2015-11-15,Stuart Greig,Can't connect at all,Inserted in ip/host/username and password. What am I putting in path? Any other app I've used doesn't require a path? Will not connect. Connection failed. Not good! . . . .  Update: Thanks to reply sorted my issue and got to say it's the best SickRage app I've used. Great work.,,
ShowsRage,Google Play,com.mgaetan89.showsrage,Z3A6QU9xcFRPSHNmeE1mbUpuSldOVDJPSHAxWmlEaVNyZktRUEtFa0JlVlRYRkdNbnRNYTVzamxOVWsxdHJvSjQ5N3ZLSU9uWjVMbnpCaGMzdHREdFh6RkE,English,,3,2015-11-13,Jay Noble,Post process,It'd be nice to select directories for post processing on the fly. All the processing happens off phone.,,
ShowsRage,Google Play,com.mgaetan89.showsrage,Z3A6QU9xcFRPRlk4VHdvWWp3bWwzOGtkVU5ObmwtYUVVaF9LLUpvZllTa1Z5TjE3MmQ5dVdnRW1LaF9JUHc1bS1BLXpFZ0JxQ0ZjVHduRlFzTV9wbUZMU1E,English,,5,2015-11-03,"Beny Spensieri, Jr.",Nice redesign!,This app works great! And the new icon is beautiful!,,
ShowsRage,Google Play,com.mgaetan89.showsrage,Z3A6QU9xcFRPRXo4VUo5cFNaWm1odFV1NmViWm5sbF9BRy1rMFdJU0kxVTFfcC1QNHBnSllMTVptWnN1cUdJRTVKQWtkX0RtVzduRUYzbXlqUnl4Q0dtRkE,Dutch,,4,2015-11-03,Iwan van den Broek,Works great,Does what it needs to do. Good app!,,
ShowsRage,Google Play,com.mgaetan89.showsrage,Z3A6QU9xcFRPRmtFMnhyTnp0WC1Da0dnZXBEOC02VHBaRjNoNkJvRzRQRGdiRVVFMERqM2RFVU1sZWIwWEc5VnVzMDNWcGFjYkpkeTZiNWhIRWJmZC1UOEE,French,,5,2015-11-04,Quentin Couvreux,Super application,Interface épurée et efficacité maximum.,,
ShowsRage,Google Play,com.mgaetan89.showsrage,Z3A6QU9xcFRPRXBHTUFtVlFXMUNpTGNSRWZaNlJQWmVQWGxmMktSOTlGZm9wVElGYTBnSnJtN0dkWGdmVDFXdXk0Y21hbE5TR3BJQzVFeUY1MFFlY0RJR3c,Polish,,5,2015-11-08,Małgorzata Perz,Bomba,+10000000 to awesomeness,,
