# deletions,date,commit message
9,2015/11/11,episode_list_element: restrict title size for more consistent look
3,2015/11/11,make space between cards equal on all Android versions
4,2015/11/11,update graphics with new colors
1,2015/11/10,episode_list_element: adjust divider line so it intersect another one
3,2015/11/10,adjust cards corner radius according to material design guidelines
1,2015/11/10,search_list_element: fix plus button layout making it look square
6,2015/11/10,adjust views elevation according to material design guidelines
27,2015/11/10,follow material design colors guide
13,2015/11/10,PlayerService: reset downloaded state when media file is absent
2,2015/11/09,gradle: bump version to 1.2.3
1,2015/11/09,gradle: upgrade to build-tools 23.0.2
1,2015/11/09,DownloadReceiver: reset download state when starting d/l
1,2015/11/09,PodcastOperaions: fix cursor close while iterating over it
2,2015/11/09,gradle: bump version to 1.2.2
1,2015/11/09,update podcast catalogue
160,2015/11/09,move download processing to PodcastOperations service
