App,Store,App ID,Review ID,Country,Version,Rating,Date,Author,Subject,Body,Translated Subject,Translated Body
MIFARE Classic Tool - MCT,Google Play,de.syss.MifareClassicTool,Z3A6QU9xcFRPRUlJNkNJWERlUDBuS01kbTlOTi0xdEZWMHgwbTM3RWJFa2VEeHhZLVhpVnBpUjRvTGZ2VHV5cGJkWWNiaHJabExHZ0ZVVXN2Q3BTRDg3Z1E,French,,1,2014-12-14,Jeff Sabardeil,Xperia Z2 --&gt; ne marche pas,Cette application fonctionne avec des smartphones chinois mais pas avec les grandes marques qui nous brident.,,
MIFARE Classic Tool - MCT,Google Play,de.syss.MifareClassicTool,Z3A6QU9xcFRPRkJ0cnhkX0gxdjBXZTFKWEgzX2pFUGJkZ1R2eE0zR2F3b1VuYWZySnBRRWVHYVZJVkUwNGI1b3R4bTB2eEMzMmZvYUNISWRuV3EwOHVEWlE,Polish,,5,2014-12-08,MAREK JARANOWSKI,must have this tools,all works fine on galaxy s3 9300 and xperia L fantastic :),,
MIFARE Classic Tool - MCT,Google Play,de.syss.MifareClassicTool,Z3A6QU9xcFRPR2haWE5sTjhIRkp0TUh2bU9oTHV4YmhJWXBYXzNsR21nck0waG1iWU56bVZ5em1PVFZLR1EyT2p6aGZHNmU3TGQ0enlXQ2ZSeUxrSzhNOGc,Spanish,,5,2014-12-11,Cristian Canales,Excelente,Será posible poder guardar mapas de claves? Para poder escribir en tarjetas iguales mas rápido. Saludos,,
MIFARE Classic Tool - MCT,Google Play,de.syss.MifareClassicTool,Z3A6QU9xcFRPRW1XaExZM0dJWlhBVE9nbmJzbUM2aHQwNjJlNnA4ZWxySDVVN1Jxbk14VXFlQmdmWVBKb3ZxWlVkYmNPT1VpTU51eDI0Z2F2dGhyUVVKaWc,Spanish,,5,2014-12-09,Edinson Ahumada,Es roox,Sirve mucho para editar tarjetas nfc,,
