# deletions,date,commit message
0,2015/1/12,old removed
0,2015/1/07,moved image
41,2015/1/07,more theming on the material design
249,2014/11/06,ongoing change for material design pattern
230,2014/10/24,started
4,2014/9/10,fixed minor discrepancy login screen wa shown and is not available
2,2014/8/22,updating for new release
2,2014/8/22,clearing cooky prior to refresh to overcome a change by 3
