@+id/buttonDiscard$discard,2016/6/15,restore dynamic button count
@+id/color_picker$,2016/2/17,save default color and frequency
@+id/date_picker_month$,2016/4/10,do not use habit color primary color on dark theme
@+id/done$done_label,2016/4/03,do not request layout on
@+id/label$Error drawing widget,2016/3/14,save to report
@+id/minutes_space$time_placeholder,2016/4/05,allow label to expand
@+id/scoreLabel$,2016/4/16,minor layout improvement for
@+id/scoreRing$,2016/5/13,add new translation and update list of contributor
@+id/tvCheck$,2016/3/30,task for better testability
@+id/tvFeedback$pref_send_feedback,2016/4/03,create index in database
@+id/tvHistory$history,2015/3/13,add notification action
@+id/tvRate$pref_rate_this_app,2015/3/12,add field and to habit
@+id/tvSource$pref_view_source_code,2016/4/05,width of chart label a needed
@+id/tvStreaks$best_streaks,2016/4/02,replace badge
@+id/tvStrength$habit_strength,2016/3/15,make label more clear and customizable
@+id/tvVersion$,2016/3/07,simplify list adapter
@string/links$,2016/3/11,show color button even for a single habit
@string/no_habits_found$,2016/5/13,ignore some branch
Adam Jurkiewicz (Polski)$,2016/3/13,wait toggling
OTHER,2016/3/13,disable animation testing
