@+id/buttonAccess$menu_setting_goto_redmine,2013/4/29,filter sort id from set data set key
@+id/editURL$,2014/7/04,add parent page
@+id/listViewTracker$,2014/6/05,add view ref 107 conflict
@string/message_first_time$,2013/12/03,support style
OTHER,2014/6/20,add note about certification fingerprint
