# deletions,date,commit message
7,2014/6/03,added wsola library created by dslamnig on elance
2,2014/6/03,fix warning in preference fragment
21,2014/5/24,fixed release notes dialog
31,2014/5/24,version bump and included licenses for open source libraries
56,2014/5/21,show dialog if release notes are new
30,2014/5/17,moved seeks to audioplayer thread
71,2014/5/17,refactored playerservice again added basic stats page
149,2014/5/15,reworked podcast player again
4,2014/5/13,added x86 compilation of ndk audio libraries for genymotion
1,2014/5/11,fix crash when there is no description bug #193
26,2014/5/04,updated build instructions in readme
31,2014/4/25,remove remaining uses of MediaPlayer attempt to fix audio completion handler
41,2014/4/12,fixed seeking in new audio player
27,2014/4/12,got playing and stopping working with native player
49,2014/4/12,moved files to match default gradle layout
1253,2014/4/12,intermediate commit for native player
12,2014/4/09,add clear button to search fix #124
172,2014/4/09,fix for podcast detail in landscape mode bug #193
37,2014/4/05,fix for #184 based on andyhelp's pull request
4,2014/1/30,fix moving to next podcast when one ends
