very nice reader,o,2014-04-04,Hemant Pedanekar,5
widget support is good too,b,2014-04-04,Hemant Pedanekar,5
thing i feel could be improved is sharing only is shared instead of title,o,2014-04-04,Hemant Pedanekar,5
,o,2014-03-30,boot legger,4
this is great,o,2014-03-28,Luca Bolgiani,5
question can you add a title text size option in a future update,f,2014-03-28,Luca Bolgiani,5
i have a but would like to take advantage of the mobilizer a it look clean,o,2014-03-21,B Mitch,5
keep developing,o,2014-03-21,B Mitch,5
the application is great but the problem is with the it get missed up with those language,o,2014-03-18,Saad Al-areeky,4
if there is an option in the setting for text direction would be great and will give 5 star,f,2014-03-18,Saad Al-areeky,4
i like this very for this,o,2014-03-09,hariharan R,4
i have about 50 difficult to know this finish a full manual refresh and is also improve a bit,b,2014-03-09,hariharan R,4
