updated translation for none,f,2014/10/16,,
updated translation for none,f,2014/10/15,,
add default translation everywhere instead of an empty string,f,2014/10/14,,
changed the summary line of the to show the name of the current,b,2014/10/09,,
,o,2014/10/02,,
fix possible,b,2014/10/02,,
new icon,b,2014/10/02,,
