remove useless code,o,2014/1/26,,
improve image downloading process,b,2014/1/25,,
update wrapper file,b,2014/1/25,,
fix possible crash,b,2014/1/20,,
fix bug with click on search result,b,2014/1/20,,
display the feed name the date,b,2014/1/18,,
improve downloaded image file name code cleanup,b,2014/1/13,,
fix crash,b,2014/1/13,,
favorite icon not always displayed correctly,b,2014/1/13,,
small code improvement,f,2014/1/11,,
fix bug with unread group display,b,2014/1/11,,
small code improvement,f,2014/1/11,,
reduce the update throttle time to improve reactivity marking everything a read,b,2014/1/11,,
small,o,2014/1/11,,
improve code readability and performance,b,2014/1/11,,
do not show empty group in drawer read feed are hidden,f,2014/1/11,,
improve the link retrieval there is several type of link,b,2014/1/09,,
added a menu option to hide read feed in the,f,2014/1/09,,
small code improvement,f,2014/1/08,,
fix icon issue on widget,b,2014/1/08,,
fix issue with the date formatting on 18,b,2014/1/08,,
date formatting into a new method in,b,2014/1/08,,
improvement to date formatting,f,2014/1/07,,
changed date formatting in list view to show only the time of the update for update within the last 24 hour and the short date and time for update older that,b,2014/1/07,,
changed to show a long format date and time,b,2014/1/07,,
improvement to the translation,f,2014/1/06,,
translation file renamed to the correct locale,o,2014/1/06,,
a tiny change to the translation,b,2014/1/06,,
minor tweak to the,b,2014/1/05,,
add again some custom cleanup,f,2014/1/05,,
improve entry display,b,2014/1/05,,
make entry update le often,b,2014/1/05,,
add unique constraint for task to avoid to add several same task,f,2014/1/05,,
improve display of some feed,b,2014/1/05,,
greatly improve the image downloading process,b,2014/1/05,,
add a mobilizer engine do not depend on a external anymore,f,2014/1/05,,
font size preference now work using the setting and the last element is removed from the,f,2014/1/05,,
minor tweak to the,b,2014/1/05,,
use to clean up the,o,2014/1/05,,
moved most of the style and layout definition into,o,2014/1/04,,
font size set in preference is still realized with a element,f,2014/1/04,,
reduce the throttled time,b,2014/1/04,,
add throttled time to the entry loader,f,2014/1/04,,
remove justified text alignment,o,2014/1/04,,
fix possible crash,b,2014/1/04,,
date formatting made more readable,b,2014/1/04,,
fix possible crash,b,2013/12/31,,
,o,2013/12/28,,
fix possible bug with entry display,b,2013/12/28,,
small code improvement,f,2013/12/28,,
use last lib,o,2013/12/28,,
use last,o,2013/12/28,,
fix display bug on,b,2013/12/28,,
remove dead code,b,2013/12/28,,
remove now useless code fix bug,b,2013/12/28,,
fix bug with loader,b,2013/12/28,,
also use the new for the widget,b,2013/12/28,,
also use the new for the widget,b,2013/12/28,,
small code improvement,f,2013/12/28,,
