improve en cleanup,b,2013/5/24,,
,o,2013/5/16,,
small code improvement,f,2013/5/15,,
add a light theme,f,2013/5/15,,
,o,2013/5/05,,
improve the feed search,b,2013/5/05,,
first version of helper,b,2013/5/04,,
greatly improve feed list refresh process,b,2013/4/26,,
license change,b,2013/4/26,,
several fix,b,2013/4/25,,
,o,2013/4/24,,
improve icon retrieval,b,2013/4/24,,
code simplification,o,2013/4/24,,
code simplification,o,2013/4/24,,
code simplification,o,2013/4/24,,
code,o,2013/4/24,,
code cleanup,b,2013/4/24,,
small code cleanup,b,2013/4/23,,
initial revision,o,2013/4/23,,
update,b,2013/4/23,,
