Topic Index 1,Topic Index 2,Topic Similarity
1,0,0.013499999999999998
9,16,0.0117
19,6,0.009899999999999997
0,9,0.009800000000000001
2,15,0.008400000000000001
13,3,0.008
7,4,0.0077
17,5,0.0077
5,18,0.007000000000000001
6,10,0.007000000000000001
14,14,0.006599999999999999
3,1,0.0
4,2,0.0
8,7,0.0
10,8,0.0
11,11,0.0
12,12,0.0
15,13,0.0
16,17,0.0
18,19,0.0
