package,release ID,UI element,related topic,average polarity,# reviews,average rating,average objectivity,# uninstalls,delta rating,element deleted next release
com.lukekorth.screennotifications,0.91,@+id/appsList$,52,0.2789682539682539,1,5.0,0.47619047619047616,0,0.9909909909909906,0
com.lukekorth.screennotifications,0.91,@+id/appsList$,54,0.15,1,5.0,0.49000000000000005,0,0.9909909909909906,0
