Topic,Words
0,0.029*like,0.025*problems,0.021*created,0.018*only,0.017*tell,0.017*491,0.016*logging,0.015*also,0.015*eater,0.014*filter
1,0.032*lot,0.025*how,0.021*logs,0.019*fly,0.018*unfortunately,0.016*the,0.016*work,0.015*user,0.015*filter,0.014*use
2,0.034*logo,0.024*instead,0.024*see,0.022*access,0.019*it,0.017*forward,0.017*perfect,0.016*backgrounds,0.015*results,0.015*after
3,0.026*set,0.025*good,0.025*for,0.021*disable,0.020*smaller,0.018*access,0.017*real,0.016*provides,0.015*toast,0.015*downloading
4,0.032*want,0.027*lots,0.021*user,0.020*text,0.019*activity,0.018*lot,0.018*sharing,0.018*possibility,0.016*after,0.015*set
5,0.023*problems,0.019*solved,0.017*use,0.016*whole,0.016*that,0.015*last,0.015*using,0.014*opacity,0.014*of,0.014*something
6,0.026*fails,0.020*be,0.018*know,0.018*that,0.016*looking,0.016*should,0.015*forward,0.015*user,0.015*specific,0.015*filter
7,0.025*would,0.024*ace,0.021*work,0.021*make,0.018*it's,0.018*me,0.017*want,0.016*no,0.016*when,0.016*does
8,0.033*finally,0.024*just,0.023*how,0.020*unfortunately,0.018*works,0.017*positions,0.017*to,0.016*live,0.015*workaround,0.015*problem
9,0.024*but,0.024*solved,0.024*log,0.020*more,0.019*only,0.018*features,0.016*looking,0.016*hour,0.015*logging,0.015*work
10,0.022*period,0.018*excellent,0.018*limit,0.017*bytes,0.015*their,0.015*also,0.014*whole,0.014*above,0.013*great,0.013*ace
11,0.033*filter,0.026*an,0.021*turn,0.021*good,0.020*by,0.020*ace,0.019*way,0.019*its,0.018*because,0.017*waste
12,0.023*problem,0.016*good,0.016*activity,0.016*to,0.015*following,0.015*nice,0.015*solved,0.014*turn,0.013*also,0.012*squeezed
13,0.022*these,0.021*log,0.020*needs,0.019*activity,0.019*work,0.019*about,0.018*destination,0.017*indicator,0.017*upload,0.017*display
14,0.027*results,0.025*lots,0.021*perfect,0.019*thanks,0.018*problems,0.017*duration,0.016*created,0.016*pretty,0.016*consume,0.016*able
15,0.027*just,0.022*occur,0.020*real,0.020*whole,0.020*developer,0.018*notification,0.017*features,0.016*same,0.015*indicator,0.015*as
16,0.030*everything,0.023*problems,0.019*used,0.019*etc,0.018*solved,0.018*more,0.018*not,0.018*could,0.017*problem,0.017*period
17,0.034*where,0.026*looking,0.022*solved,0.021*and,0.020*following,0.018*2,0.017*logging,0.015*as,0.014*something,0.014*but
18,0.032*lots,0.025*everything,0.020*time,0.018*live,0.017*options,0.017*these,0.017*slider,0.016*needs,0.013*limit,0.013*be
19,0.026*are,0.024*backgrounds,0.019*been,0.019*these,0.018*a,0.018*use,0.017*limit,0.016*an,0.016*something,0.015*also
