Topic Index 1,Topic Index 2,Topic Similarity
5,14,17.647058823529413
3,8,11.11111111111111
4,18,11.11111111111111
8,6,11.11111111111111
0,4,5.263157894736842
1,12,5.263157894736842
2,5,5.263157894736842
6,3,5.263157894736842
7,2,5.263157894736842
9,15,5.263157894736842
10,9,5.263157894736842
11,1,5.263157894736842
12,7,5.263157894736842
13,0,5.263157894736842
14,10,5.263157894736842
17,19,5.263157894736842
19,11,5.263157894736842
15,13,0.0
16,16,0.0
18,17,0.0
