Topic Index 1,Topic Index 2,Topic Similarity
1,5,11.11111111111111
2,17,11.11111111111111
9,15,11.11111111111111
18,2,11.11111111111111
0,6,5.263157894736842
3,14,5.263157894736842
4,1,5.263157894736842
6,18,5.263157894736842
11,7,5.263157894736842
12,19,5.263157894736842
15,9,5.263157894736842
16,10,5.263157894736842
5,0,0.0
7,3,0.0
8,4,0.0
10,8,0.0
13,11,0.0
14,12,0.0
17,13,0.0
19,16,0.0
