Topic Index 1,Topic Index 2,Topic Similarity
15,0,17.647058823529413
8,15,11.11111111111111
13,19,11.11111111111111
17,2,11.11111111111111
0,7,5.263157894736842
1,4,5.263157894736842
2,9,5.263157894736842
3,3,5.263157894736842
4,1,5.263157894736842
5,14,5.263157894736842
6,18,5.263157894736842
7,5,5.263157894736842
9,11,5.263157894736842
10,6,5.263157894736842
16,16,5.263157894736842
11,8,0.0
12,10,0.0
14,12,0.0
18,13,0.0
19,17,0.0
