# deletions,date,commit message
1,2013/2/25,Allow backups
1,2013/2/25,Add EzLoaders as submodule
4,2013/2/25,Remove numberpicker fork as submodule
1,2013/1/15,Change feedbackType in accessibilityservice config
3,2013/1/12,Bump targetSdk and version code for release
8,2013/1/12,Add experimental feature to open notification tray at user request
1,2013/1/11,Bump minSdk to 7 PowerManager.isScreenOn requires API level 7 and above
1,2013/1/10,Bump build target to 17
1,2013/1/09,Update numberpicker
7,2013/1/09,Fix errors due to comments...who knew!?
20,2013/1/08,Remove proguard-project.txt
2,2012/10/25,Bump version code for release
1,2012/10/25,Added option to turn screen on at full brightness
2,2012/10/21,Bump version code for release
65,2012/10/21,Update summaries onCreate and onChange for start and stop times
13,2012/10/21,Add quiet hour options
9,2012/10/21,Move launching of Activity to xml
2,2012/10/10,Bump version for Play Store update
1,2012/10/07,Update submodule to fork
1,2012/10/07,Update numberpicker
2,2012/10/07,Bump version code for release to market
1,2012/10/07,If proximity sensor is disabled in settings do not listen for sensor changes. After every notification re-register listener in case user has re-enabled proximity sensor in settings
13,2012/10/07,Listen and save proximity for use when there are notifications
41,2012/10/06,Remove ignored files
1,2012/10/06,Add eclipse files to .gitignore
3,2012/10/06,Remove and ignore lint.xml
30,2012/10/06,Whitespace
4,2012/10/07,Add batch selection options in AppsActivity to improve usability a bit.
28,2012/10/05,Async load app list
159,2012/10/04,Consolidate duplicate code into one class and extend for each required service. Greatly reduce memory used by service only check proximity senor when absolutely necessary and immediately stop listening
1,2012/10/04,Add numberpicker as submodule in git repo
1,2012/9/11,Add link to README.md
2,2012/9/11,Update version code for release
5,2012/9/11,Add option to disable proximity sensor [feature request]. TODO: disable listening to proximity sensor if sensor is disabled
47,2012/9/09,Disable proguard
0,2012/9/09,Resize and optimize launcher image
8,2012/9/09,Setup AccessibilityService with xml configuration
3,2012/9/09,Create alternative service with required permission for Jelly Bean
2,2012/9/07,Do not keep reference to SensorManager in order to reduce memory use
5,2012/9/07,Only create and use SharedPreferences object when needed reduce memory used while idle
1,2012/9/07,Whitespace
1,2012/9/07,Remove period from comment
2,2012/9/06,Update version code for new version
1,2012/9/06,Turn on proguard for optimizations
2,2012/9/06,Update target API to 16
1,2012/9/06,Rename project
29,2012/9/06,Remove merge artifact
57,2012/6/20,Add ability to only turn on screen for notifications created by certain apps
41,2012/6/20,Remove un-needed file
26,2012/6/20,Initial release
4,2012/3/27,Add preferences
40,2012/3/27,Move work to service
13,2012/3/26,Proximity test app
