# deletions,date,commit message
34,2014/11/19,Check proximity sensor on notification fix #10 #15
4,2014/11/19,Rename last notification time; Add null check
0,2014/11/14,Add xxhdpi and xxxhdpi icons fixes #43
18,2014/11/14,Delete unused file
1,2014/11/13,Add license to README.md
4,2014/11/13,Remove unneeded lint option
35,2014/11/13,Update gradle plugin build tools and compile sdk
2,2014/6/04,Bump version for release
8,2014/6/04,Move to async ExecutorService to turn screen on; Keep screen on until after last notification fixes #31 #33 #35
