App,Store,App ID,Review ID,Country,Version,Rating,Date,Author,Subject,Body,Translated Subject,Translated Body
Screen Notifications,Google Play,com.lukekorth.screennotifications,Z3A6QU9xcFRPR3BHdXZUZGN4VnVJZVl4dk9NcGdUVy00S2xwTTE4dDNxZEN3M0hQZkVGZXdkRVZqV1RHVmszZHUxRGxqQzZ2Vnc0TE1pMWpZTGp0dHNrNUVV,English,,1,2016-03-15,Matthew,"","It works quite well, but my display turns on for processes that are happening in the background too. Until this is fixed it's 3 stars from me. EDIT: I've just uninstalled and reinstalled the app and now it's only giving me the option to let the Google App illuminate the display for notifications? Where did all my other apps go?",,
Screen Notifications,Google Play,com.lukekorth.screennotifications,Z3A6QU9xcFRPRmNOVl84NTBjSE1LOEdTQU84LTgxVU1VeEtSSThEUnN5WGVaa0tSUzZlb3lIdFVuS24ydzZmeEFFT3JmOEtOc2k0dDVlTHMzQWkwSVY4Q3Bj,English,,3,2016-03-14,Ashley Patel,Keeps turning itself off,I don't know why this keeps doing it but it will turn itself off and the screen will not light up... Very annoying.,,
Screen Notifications,Google Play,com.lukekorth.screennotifications,Z3A6QU9xcFRPR2VQZGhHZGotdDdMMUF4LU5sYVdyZEZuenlvNGpPTUtYeXd0SXR5V1VYZ3NsQ0FFNGJLRk9yZEFnbk5ZTzduY3Bza1dXOEJZQzRMRVFhSElv,English,,2,2016-03-14,Neal Stidham,Breaks fingerprint lock,When this app is installed I'm not able to unlock the phone with fingerprint sensor. Please fix.,,
Screen Notifications,Google Play,com.lukekorth.screennotifications,Z3A6QU9xcFRPR1ZSWFlrMnZHcmNrSnN3VWtaU1ZYSUpSNVZHOW4tRDhLdW9tOTBYa3NnMzF4alk3UXRYd0xGODZmX1FDV0tjZ2ZOVzB1Szg2SHRDOG5CYUNv,English,,3,2016-03-13,mouni samanthapudi,"",Wake up screen automatically by taking out off pockets when new notification arrives,,
Screen Notifications,Google Play,com.lukekorth.screennotifications,Z3A6QU9xcFRPSGxPWG1Eb3U4ZHVXaFBRVkUxT0xHOHFPN3NOZURsYmZZcUFuYm5PY0d4WDc4bXl0ZXRzWm5CZ0hicXNnaTFKNjVma2tzMG5zOXAwR2JybjBV,English,,5,2016-03-13,Marcus Hallam,Simple and effective,Simple and effective. Just how it should be. Great app,,
Screen Notifications,Google Play,com.lukekorth.screennotifications,Z3A6QU9xcFRPRUVoS0RnYUtld3F1SGJLX0s4S0daM1k0eVJXMk45SGVsdmN4c3k5M25kSm83aXZld0JoUkU4SXJhUmVQR0FXS3JsXzRwMjktdFVqRnNsNGVZ,English,,5,2016-03-12,Marcelo Manzotti,"",Works flawlessly on Note 5!! Excellent app!,,
Screen Notifications,Google Play,com.lukekorth.screennotifications,Z3A6QU9xcFRPR2xoclVVal9uMUNITVdnelp3Z0d1ZmthdEdEeTJoVElHSEhzb1R0TDdZTi12UE5MTlprX253WDMtaWU3SFdMM091WnlkMjR5bG9FUnNKODFv,English,,3,2016-03-11,Jon Bradley,"",Causes an issue with the GS7 fingerprint sensor. After swiping to unlock the fingerprint sensor doesn't register to unlock intermittently. Tracked the issue down to this app. Please take a look at the bug as I love to use it.,,
Screen Notifications,Google Play,com.lukekorth.screennotifications,Z3A6QU9xcFRPR1RYYl9HV2QtUWlwYm4xXzYyeUxWQmxCZGZGYU5HQjFITmh3dnVsNWZLXzJhYjBCS19FN0dtR1Fvd1JwTnczUXRxbWZaSlBlcUpjRmJWTmhz,English,,5,2016-03-09,Bill Huttinger,"",Perfect,,
Screen Notifications,Google Play,com.lukekorth.screennotifications,Z3A6QU9xcFRPR2ZpMC04SEhXSlZuN3huUUlqdnUxSVAxbzlSZGwzZWs2MV9qLW95cnFmcExKMlloN3ZSU3BSZlp6V2RuaktPWTA4WlBKc0VTZElwV2l1ek5n,English,,2,2016-03-09,Raven Bonine,"",I used to have this app on my htc m9 and i totally loved it but i just changed to the note 5 and it says i have no notifications. I really wish this app would work on my phone,,
Screen Notifications,Google Play,com.lukekorth.screennotifications,Z3A6QU9xcFRPSHBmZExBTkZQVFRrTko0Y0kxcU5wQldqdWlqQVVfeVZNSHI0eTVXUmJEOFQ3N0l2SGZwUndtVmhlUVJXZWRPdk5jUkEycWZ3UVdVVVNtX2RR,English,,4,2016-03-06,Mohamed Raafat,Used to work great until I installed light flow,After installing light flow(Note5) the screen just keeos turning on and off repeteadly so please fix it.Thanks,,
Screen Notifications,Google Play,com.lukekorth.screennotifications,Z3A6QU9xcFRPRWY1YkpUQzRsT1NaTWF1YTJvWmNNZTh2M09zV1QwSENDS2lRdklSY29rME9DZ01LdlZjMS01WTIzbFEwYXdlUDItZEZReDdGY0F0ZFpBUWlz,English,,5,2016-03-03,Erich Carsten,"",Seems to work so far on vzw LG G4,,
Screen Notifications,Google Play,com.lukekorth.screennotifications,Z3A6QU9xcFRPRWh2LWxjM2RXcGY5alBJVFdrb1FpbVdUN1FWTm9YSlUtYU9MWGdsUksyLXNuLWpTSkQ1MjFERG5UQjZmV1dieFNnUktLWTNQM1gzQ3VZVDhV,English,,5,2016-03-03,Fadil fadil,The best,Just what I needed..thanks.,,
Screen Notifications,Google Play,com.lukekorth.screennotifications,Z3A6QU9xcFRPRjJOQ29mZF8xbEFlU29jYTEwc252ZktkSG9iSXlsWW82dm1yUGRNcC12SHJ5bWROZWoyWHdwN1lHOWdhSldwVW41V2RIMzQ5VXp6ekFGYmkw,English,,3,2016-03-02,Sean Parker,"",OK but I don't get sound notifications if I use it.,,
Screen Notifications,Google Play,com.lukekorth.screennotifications,Z3A6QU9xcFRPRXVtTmhZWktPMFZtYVQyN256ZjlCcUhTNm1aMmQxTHk1SGNzTVVnUzZ0VzFLS0Jzc0JYM09hcUxFYnFUemd5YjE2SWhld29yLUtuMW94SkFj,English,,5,2016-02-29,Kenji Tasaka,Does exactly what I need it to do,"The ambient display feature on the Nexus 6 is terrible and no one should use it. That being said, if you turn that off, then you don't get notifications automatically waking up your screen anymore. I searched all over for many solutions, and finally came to this one. I wanted something that would wake my screen on notifications without modifying it in any way like many other lock screen apps do. This does exactly that. It allows me to retain the stock Nexus lock screen and get Wake on notification back.",,
Screen Notifications,Google Play,com.lukekorth.screennotifications,Z3A6QU9xcFRPRmZLRDB2Rk5meVNfTFJMY0Vya0tVRUlveXM2R0RvSF85dXRzeEtyd0tJLXpJbktPbzYyemM3TnZicmZ1d2JhU1drLS1GS0k1WmgwcXJxdmlj,English,,2,2016-02-26,Crish Markyne Gonzaga,"",why i can't activate it!please help!,,
Screen Notifications,Google Play,com.lukekorth.screennotifications,Z3A6QU9xcFRPRXc4eUlQUFU4Mm1OQk40SnpsMXc4MkJEblZjWDFJWk1Nd3ozTnJDakJiaGVyRG5QU2MwRXBUNEY0b2FtWkZ5T21iRWJmUXNnSXJmU25xWW9J,English,,2,2016-02-22,Drew Lankford,Finger print reader no longer unlocks Nexus 6,"I've checked every setting I can find but don't see anything related to the finger unlock. It requires me to unlock with my PIN 9 times out of 10.  If this worked, it would easily be a 5 star app.",,
Screen Notifications,Google Play,com.lukekorth.screennotifications,Z3A6QU9xcFRPRVF6Sm02M0FVdVB2NmZrS2FQa250VVF3WHNiWnUxamNKcW9UVnMzMmJGVUVUUlpnam1KanJYdjk4djZrMkNhRGt6ajlEdnh0cmZic2xOYmdB,English,,5,2016-02-22,Alban Zeqiraj,"",Perfect app,,
Screen Notifications,Google Play,com.lukekorth.screennotifications,Z3A6QU9xcFRPRXVxV0J0RzRiTjZUb04wbFBZRnNpUHRTOUF6UTF2X0o5TVF2UzZwdVVPNnVxN0tFTF9zUWgxWl92NF8teWlCV21hNG56b29McEpkTERrcHpN,English,,5,2016-02-17,Tyler Kinch,A must coming from IPhone,This is something that bothered me a lot coming from IPhone. Now I can enjoy such a small feature on a much better phone. Thank you so much.,,
Screen Notifications,Google Play,com.lukekorth.screennotifications,Z3A6QU9xcFRPR1pfV2RFa1VROGlJc3RVM1dTbWVjWmNZTTV5eDd4LTlITUFzX084eThEd0xKM3Q3bHZVNFlDWEplWEJFeGE1blNXQTkweEwwMlAyZWwwUDY0,English,,5,2016-02-17,Steve Melrose,Excellent,Does exactly what it says. Perfect.,,
Screen Notifications,Google Play,com.lukekorth.screennotifications,Z3A6QU9xcFRPRnpoMXc2enVYWHlhc1pYa3dsVVcyOC1LUTVMUkU5SXZKYzFOSm9KNHJCb0RDSkhTOU5XVlQteUtJV3dERTlycWxmQm9EY21Gcm1wYTBFRElB,English,,4,2016-02-10,JL W,"",I just wish it had a reminder option.  So if I miss it the first time I can set it to go off again every minute or five minutes. Something like that.,,
Screen Notifications,Google Play,com.lukekorth.screennotifications,Z3A6QU9xcFRPR2huSzBiMV9rQ3ZQc05ndFlINGZxNWxrTDdRM2RCRTlKWmc5Y092Vk42dGZ2SXBXbUw4ZVZGUllXX2pxUWNPRTVIMHNvSUI2ZW5lajVyUDNv,English,,1,2016-02-08,Dana Foulkea,"",Stopped working,,
Screen Notifications,Google Play,com.lukekorth.screennotifications,Z3A6QU9xcFRPR0I3M3FDU1JvaFloWVBEZHN1OEo0cTNsb0ZMTkFfZVVqdUoxRGJlcFQyUW9TVlZoNlk3UnhPOUY3dFlDV3BBNHhKUmUyQXRfZTdPMXdHU0pj,English,,1,2016-02-08,Goh Jun Shen,"",How to uninstall?,,
Screen Notifications,Google Play,com.lukekorth.screennotifications,Z3A6QU9xcFRPRkJYSUlUN1NlYXJ6QVh5X2JqRWpnUTNPYVpfNXhYcEJvbl9vMnJhM3p5cnZTVVcyLVhvdkJwR2ZhczUzVTJYdWo2TElyU3JCMThIcGdRQ2hn,English,,5,2016-02-03,Curtis Cupples,Awesome!,Thanks,,
Screen Notifications,Google Play,com.lukekorth.screennotifications,Z3A6QU9xcFRPRjR0akhoQXMxdlJMYmExZnd6X3dUSmVoV19Yc3dwYklaTXp1WmdJWXh6dFVKbVZ1TUxlVWlDRmYxejQ5NllnSzBFX0pEdndqeUtRSWRnaWdz,English,,4,2016-02-02,Cliff Homan,"","Exactly what I've been looking for, great job! Is it possible to add an enhancement where the screen will come back on with persistent notifications as well?",,
Screen Notifications,Google Play,com.lukekorth.screennotifications,Z3A6QU9xcFRPR1ZMbnVhcllwZzgxd2hscXlzZ041a0dvQ3JhNm5qcEFoN1N1YUZjUVFhU2R5b2VwcnI5MU5mZXBzVFFlX1FNajROcjNSX2p2YjRBblcwWW5n,English,,4,2016-02-02,Adorjan Benke,"","Hi. So, this app is perfect, i only have one ""issue"" that would be really satisfying if you can cahnge it permanently, or add it as a feature. So when the screen wakes, it doesnt matter if i touch or not, its still gonna go back to black after X seconds, and would be really nice if it wakes up and i touch the screen or start interacting it would stay awake until i make it go to sleep or until the timer makes it sleep automatically. Apart from this, its a must app, really really appreaciate it",,
Screen Notifications,Google Play,com.lukekorth.screennotifications,Z3A6QU9xcFRPRmN2Z1NTU0Izc0lSSGNZX0l5cWFEUHJVcUVnTVY5QU1FQlVRS28tT1EzeUU2MURlQzBJdHI0YjJpZ3g0YW5SRGxwTDhqdGVjUmZuRHRkWDlz,English,,5,2016-01-30,Raj Vernekar,Loved the new notification simplification,Great job developer... The new version is cool,,
Screen Notifications,Google Play,com.lukekorth.screennotifications,Z3A6QU9xcFRPRnJibHYwYkVkNDNCQ3ljekN0T2ZDdHRmbVJiYlg3MkVFd2dSby1Wb2hDQWllZUozZGgxVVV3d3N5b0FXak4wR284ZDFDdnNxS1R6czFORkw4,English,,5,2016-01-29,Bernard Kwek,Very useful app.,Coming frm an iphone. This is a must have to me. One of the first apps i downloaded and one i cant live without,,
Screen Notifications,Google Play,com.lukekorth.screennotifications,Z3A6QU9xcFRPSHIxa3pnRmFrTDdic1hESkRZdlp4dzA0ZF9pSlZQREdueVVUNk1PUzJhQktxQ2VWZ2F6RzNDZThGRksxMUpFTGhGSEFuZkZiUDdVVGxjbklr,English,,5,2016-01-29,Denny Pettibone,Great,Does what it says it will. This is simple and works. Since update doesn't display all apps to add,,
Screen Notifications,Google Play,com.lukekorth.screennotifications,Z3A6QU9xcFRPRUlwWDhYYzBldGU0czVQc0xRemhuVFE1ZnVMQXJFTmNJV3VHZXpDTUtQcDJxUkphTDk5TVNFb21wVTc5bUlHSVpQNERNUjFLbWQzUE5ybE40,English,,5,2016-01-29,Maeve Kirby,Perfect,Just what I needed. OnePlus 2 is so dumb forgot to add screen wake to their OS. This app wakes my screen up when I receive notifications without any 3rd party lock screen and I can use my finger print lock screen!!,,
Screen Notifications,Google Play,com.lukekorth.screennotifications,Z3A6QU9xcFRPSHBBdDVmZnk0QnUzczRCazF4UXRURS1lY0dGSWtfeTkzTDNGVExsMTd4QXdQeEx1NWhCd2ZXVEV2RHhuM3lJVGVTVkJPUzItYW9sczdVek9V,French,,5,2016-02-12,Alex Hon'inbo,"",Fait son travail !,,
Screen Notifications,Google Play,com.lukekorth.screennotifications,Z3A6QU9xcFRPSHoyYmhHWXJZMk1rNnctSDlaT1dIM1FwR0EyQkRRYUlxSGIwOVpBcmpzWUVhTWJFZlJaT2VFaTcxTEFqdFJjNVFjd0tOei1sZGVDcllZajRv,Greek,,5,2016-02-28,Eva Ps,"",Κάνει ότι ακριβώς λέει!,,
Screen Notifications,Google Play,com.lukekorth.screennotifications,Z3A6QU9xcFRPRXZVbjR5bzN4Y2xrbEtqdGJwc2xiQ2lfVlpRdExGNlNLUXIwb3JVTE9LYWp5QURiOFQwQlhaRkNLb2N5VVoySFI3OHZHUmNxdzJPanZLTlZn,Italian,,4,2016-01-29,maria anna barone,"",Direi molto buona funziona bene...a parte qualche volta Che si disinstalla da sola😨,,
Screen Notifications,Google Play,com.lukekorth.screennotifications,Z3A6QU9xcFRPSFhXZGdCZEt4bllKYzEzLVhkeTJmWmpmNU41Mzg3SmR1SWRSb1hDb2p3T0gzVHNfTy1xU3NJcGRCWmEyY0RzQWE1Z3k4QXVMbGVBTmdSRlJN,German,,1,2016-02-29,Florian Wobb,"",lässt sich nicht deinstallieren 😠,,
Screen Notifications,Google Play,com.lukekorth.screennotifications,Z3A6QU9xcFRPR0FvZ0M2ak9wbmpmeVc5SHJmR1lpQ2xrLTQ2cEtNT1BvbHRWZG45VmVTYm9XZ1NpWkcyX3NONXBVdWY0WjBZNVFHeGNtQkMtVnZFb0RmQzFV,German,,4,2016-02-04,"",Works in LG G4,Works es Designer,,
Screen Notifications,Google Play,com.lukekorth.screennotifications,Z3A6QU9xcFRPR2JIRm1NQlFJQmt6d1JVLVgzWG94eXlna3JzWWZYNzFnTjN0dTZUdEFfZ19zZDdBb21kdVh0VllZU0NFaEJBaHVwcmt2OTdJalE4S21jMlY0,Indonesian,,5,2016-02-06,dorian donquixote,thanks,i always use this app when i change my phone cz this so heping.for the developer you did cool stuf n thanks a lot,,
Screen Notifications,Google Play,com.lukekorth.screennotifications,Z3A6QU9xcFRPR1U5LXMxb3hneWlDU0cySlNINlplem5OZEt1QmIyc1JDVDZKZWtMd3lEUkNkTHBUTjI1c1ByNm9SNkRwb3prbEw4dlhoM1Y4Vmg5dnJOMzRV,Polish,,4,2016-02-09,Kamil Rajkowski,Works almost greet,But i found one bug which make me uninstall app. Google calendar notification sound stop works when this app turn on screen,,
Screen Notifications,Google Play,com.lukekorth.screennotifications,Z3A6QU9xcFRPRWRZTkVzT18wQXZjOVNmRlJRQ0lJUUlCRk9kZ3JEclNWUFhIekVmSkUyenhzMFQ0QTJnZEF0MXFFWE9faENfTkN0N3o3aDYzckdtNmtQOFBn,Portuguese,,5,2016-02-01,Rubem Paul Bader,"","Muito bom, melhor de todos, liga a tela nas notificações,  era o que eu queria. Parabéns",,
Screen Notifications,Google Play,com.lukekorth.screennotifications,Z3A6QU9xcFRPRWhEazkyNUwtWXUwd25odDVhb2ZVSENHZGk1RW5sdk9HdFQ4ZUwwdnZsVTVRcHZjWFBBcTVVQmlKN28tRjlQYjhxSnpzWlFsM1ZpTEt1VDNB,Romanian,,3,2016-02-23,Doina Rotaru,"","It would be great, if the recurring notification would be integrated in thia app, for the cases you haven't opened it immediately, or just haven't seen it.",,
Screen Notifications,Google Play,com.lukekorth.screennotifications,Z3A6QU9xcFRPRWEwR2huUDVWQ2NtVklBRWNXWmxBcnp5T0wyUHNxdnRrSWM2YWRDTUhoQVVULU13QXk0dENmMGNFVDFEYmpNYXhBSGljbUFxUEtXNU90Y2Vn,Russian,,5,2016-02-27,Constantine S,"",Perfect app!,,
Screen Notifications,Google Play,com.lukekorth.screennotifications,Z3A6QU9xcFRPR0dxdEtJWmlZZms3d1FGZlRyc3dOWTZHMnpGRVhKOVg1dGVPM3hZd3hLXzY1MGJicGJKUzRLa1Q5MzRSUWY0eDRHREVjdDdPU25aWWZ6ejVF,Russian,,5,2016-02-27,Кетрин Смитт,"","Работает отлично, но только если не стоит пароль на разблокировку.",,
Screen Notifications,Google Play,com.lukekorth.screennotifications,Z3A6QU9xcFRPRUFoUk02Sm1SejZNd3Q5cW14YXI2Y3JsQnl0VktQTW5pVGJVUkRnNV9QVlhROFpCMWNzUXM1R19VNkpQZFlqdFIxV3dGQ245T21PdnZLMmVZ,Russian,,2,2016-01-31,Александр Румянцев,Плохо стало,"Раньше можно было выбирать любое приложение , а сейчас нету их вообще в списке. Исправьте пожалуйста и оценку подниму:)",,
Screen Notifications,Google Play,com.lukekorth.screennotifications,Z3A6QU9xcFRPRnhFZG0xM044ZWZfWUJrRFBlR2pnOExVMFN0ZmtGMzBOWVhwNlNrSW9uYkZWLTFjbHc1MjZOYUZVcURXTkVabzZjMkdBcFBldHhYandKNTVB,Russian,,2,2016-01-29,Дмитрий Петров,Включается без повода,После обновления 0.14.0,,
Screen Notifications,Google Play,com.lukekorth.screennotifications,Z3A6QU9xcFRPR0E0c016TEF3NTlKVUQyMUZVNDRBVVYzdF9ia1dxMUtVTVQ0YTlkc3ZIUTlnSk9yMWxVaFdqdkpXNVl2Vzd1N2Rndm1KZEVfYlZDZDljNk5v,Spanish,,5,2016-01-30,Matias Orozco,G3,funciona perfecto 👌,,
Screen Notifications,Google Play,com.lukekorth.screennotifications,Z3A6QU9xcFRPRXlwRmRUVDZIOUdqbVdTR0FCTkJlZmN6NUNJejZDeFViUG12TGF3YUVqNUVrS0tVMUs1NG1UTV84clVtaGhfQzVVVGRjUG1nYUQ2M2xLbF8w,Turkish,,5,2016-02-11,Can Aksoy,"",Samsung'da etkili şekilde işe yarıyor.,,
