App,Store,App ID,Review ID,Country,Version,Rating,Date,Author,Subject,Body,Translated Subject,Translated Body
QKSMS - Open Source SMS & MMS,Google Play,com.moez.QKSMS,Z3A6QU9xcFRPR3BHX19RX3NYWWJveXR2enR5LUwyOEVfQWo1TTl1RmpGLTJjMWZTYUpwbkMzajNqMEdHN0xFMjFZS3ozclZnOTlHNlZGWWJRaC1teGVQcnc,English,,4,2015-12-14,Ylai Go,Awesome!!! Simple and easy to use,i would putting a private box and a button for adding multiple contact in the recipient box,,
QKSMS - Open Source SMS & MMS,Google Play,com.moez.QKSMS,Z3A6QU9xcFRPRWR4OVBOR2NhbjZGWlUtMVhMaEpjamo1eG15c3dCdC0tYW9aRllIUE40M05aemtsWjB3SWJQdHl2NTdBbzRDOXQ0eWN4Rld5TjYzUEN2OUE,English,,5,2015-12-13,Kristian Sutanto,Such a Beauty,your is such a pleasure to my eye will be better there is sent symbol at the corner of each sent message,,
QKSMS - Open Source SMS & MMS,Google Play,com.moez.QKSMS,Z3A6QU9xcFRPRWU5OHo1ZkZnRnB4eDk0X0Z0bzhNOEV5Nk0wQzBnUmp0Q3RvVlRBUnk1bG9FZEFMODRtRTk1MVJVNzRMRGNmOEpJMElCTzRnWDNZR3FCNWc,English,,4,2015-12-13,Kristian Santiago,,good looking just need to fix a couple thing,,
QKSMS - Open Source SMS & MMS,Google Play,com.moez.QKSMS,Z3A6QU9xcFRPRWU5OHo1ZkZnRnB4eDk0X0Z0bzhNOEV5Nk0wQzBnUmp0Q3RvVlRBUnk1bG9FZEFMODRtRTk1MVJVNzRMRGNmOEpJMElCTzRnWDNZR3FCNWc,English,,4,2015-12-13,Kristian Santiago,,the animation you touch the 3 dot in the top right corner of the is very on the animation,,
QKSMS - Open Source SMS & MMS,Google Play,com.moez.QKSMS,Z3A6QU9xcFRPRWU5OHo1ZkZnRnB4eDk0X0Z0bzhNOEV5Nk0wQzBnUmp0Q3RvVlRBUnk1bG9FZEFMODRtRTk1MVJVNzRMRGNmOEpJMElCTzRnWDNZR3FCNWc,English,,4,2015-12-13,Kristian Santiago,,running 60 marshmallow,,
QKSMS - Open Source SMS & MMS,Google Play,com.moez.QKSMS,Z3A6QU9xcFRPSGQ0RFZxQUNFVXNOUUotNjVmLTZaTjZ4NllSQmlwSXN0THUyUnVNOVFZcHE3ZldPUnV5RURYc1ZXZkRrM3QxWnd1MVJEMWJiVEtTZWJ3YVE,English,,4,2015-12-13,Zeeshan Yazdani,Looks really nice,this look great and is very smooth,,
QKSMS - Open Source SMS & MMS,Google Play,com.moez.QKSMS,Z3A6QU9xcFRPSGQ0RFZxQUNFVXNOUUotNjVmLTZaTjZ4NllSQmlwSXN0THUyUnVNOVFZcHE3ZldPUnV5RURYc1ZXZkRrM3QxWnd1MVJEMWJiVEtTZWJ3YVE,English,,4,2015-12-13,Zeeshan Yazdani,Looks really nice,can you guy let me choose a different notification sound from the setting so i can set an tone is different from the regular notification one,,
QKSMS - Open Source SMS & MMS,Google Play,com.moez.QKSMS,Z3A6QU9xcFRPRWtjODNIemNKZEtPdmdKVUEycVlpY0JyUXJSU2ZnZHFwdW5hb1FiQnAxcnlRM01NcEtJc292WEkwZ0tRdWZMalVWa245d25JWi1XT3pTSlE,English,,5,2015-12-13,Arjun Jale,Good work,edit latest update fixed the problem,,
QKSMS - Open Source SMS & MMS,Google Play,com.moez.QKSMS,Z3A6QU9xcFRPRWtjODNIemNKZEtPdmdKVUEycVlpY0JyUXJSU2ZnZHFwdW5hb1FiQnAxcnlRM01NcEtJc292WEkwZ0tRdWZMalVWa245d25JWi1XT3pTSlE,English,,5,2015-12-13,Arjun Jale,Good work,good job,,
QKSMS - Open Source SMS & MMS,Google Play,com.moez.QKSMS,Z3A6QU9xcFRPSG4taXBfWjFXOEtDdkRoTUllSFd0NEtVMXgyYTdOVTBwYWFock5sUmxZWFdyU29HSkFzQS1OWUF2UDc3TGdsVEJoNXg2aEozQ0Z0MGF3ZlE,English,,3,2015-12-12,Lauren Ashley Zamora,Wish MMS was Fully Functional,absolutely love the look and design of the,,
QKSMS - Open Source SMS & MMS,Google Play,com.moez.QKSMS,Z3A6QU9xcFRPSG4taXBfWjFXOEtDdkRoTUllSFd0NEtVMXgyYTdOVTBwYWFock5sUmxZWFdyU29HSkFzQS1OWUF2UDc3TGdsVEJoNXg2aEozQ0Z0MGF3ZlE,English,,3,2015-12-12,Lauren Ashley Zamora,Wish MMS was Fully Functional,unfortunately i wa unable to receive or send picture message at this time on my note 5 for,,
QKSMS - Open Source SMS & MMS,Google Play,com.moez.QKSMS,Z3A6QU9xcFRPRUQ3OHVMYjI0RHZlN1h3cThJRmpYMm9SemdaUnRrTGxRYWNuSDFlUUhxby03Wlh3TUVsWWY2ZXVvQklJX19LVXpOX2EzWTE5RFQySElFanc,English,,2,2015-12-12,senthil kumar,Toooo much time to load,one plus one take solid 5 sec to load,,
QKSMS - Open Source SMS & MMS,Google Play,com.moez.QKSMS,Z3A6QU9xcFRPR19QRlpKVFFyWWN4d25ibU0zbDNpSkxVb3FkTlFadE1OSjdkV3dNb3VNYkJObW5FYnJxOXUzbmlyREpMY2hXNGhod0tXZTNnYTdwNXBjb1E,English,,5,2015-12-12,Patrick Elliott,"Looks great, works great",love it,,
QKSMS - Open Source SMS & MMS,Google Play,com.moez.QKSMS,Z3A6QU9xcFRPRlhSbXg2YzVVc29LbjhHdW1TRmg0WTFhMmRPY3RrVXROdDJmaU5JVEZFS3JWWk5xNWpBMTZJZk9zdjRwMkZ0Y0NaMFo0SjdyRmFBelpkUkE,English,,3,2015-12-12,Mary Josel Villanueva,,it getting better but sometimes,,
QKSMS - Open Source SMS & MMS,Google Play,com.moez.QKSMS,Z3A6QU9xcFRPRlhSbXg2YzVVc29LbjhHdW1TRmg0WTFhMmRPY3RrVXROdDJmaU5JVEZFS3JWWk5xNWpBMTZJZk9zdjRwMkZ0Y0NaMFo0SjdyRmFBelpkUkE,English,,3,2015-12-12,Mary Josel Villanueva,,fix,,
QKSMS - Open Source SMS & MMS,Google Play,com.moez.QKSMS,Z3A6QU9xcFRPRWJPOGNkMnZyWlBOTW9TUDRCLVVWRmVvaE00MWw2VENSdXhESzJmUldnbDZfei1pR0hFclE4aVVORG9sTVhxbFhPZFpKRjhRZXd6eHRtTlE,English,,2,2015-12-12,Brittney Marvét Johnson,,notification counter display wrong number,,
QKSMS - Open Source SMS & MMS,Google Play,com.moez.QKSMS,Z3A6QU9xcFRPRWJPOGNkMnZyWlBOTW9TUDRCLVVWRmVvaE00MWw2VENSdXhESzJmUldnbDZfei1pR0hFclE4aVVORG9sTVhxbFhPZFpKRjhRZXd6eHRtTlE,English,,2,2015-12-12,Brittney Marvét Johnson,,other that i love it,,
QKSMS - Open Source SMS & MMS,Google Play,com.moez.QKSMS,Z3A6QU9xcFRPRnlfbFZTQXE3c1J3bDRVMVBnUUU4YVNmeG5hbm9QM05TTDBWbjVEU09IblZGMGVNOUI4aTFlMVN3RTlfX08teVBTNkRSNzNNMGp4dGEwS3c,English,,1,2015-12-12,Zarnaz Arif,,worked for two week and then suddenly it started sending to wrong people,,
QKSMS - Open Source SMS & MMS,Google Play,com.moez.QKSMS,Z3A6QU9xcFRPRnlfbFZTQXE3c1J3bDRVMVBnUUU4YVNmeG5hbm9QM05TTDBWbjVEU09IblZGMGVNOUI4aTFlMVN3RTlfX08teVBTNkRSNzNNMGp4dGEwS3c,English,,1,2015-12-12,Zarnaz Arif,,i would send the to one person but it would send it someone else in my,,
QKSMS - Open Source SMS & MMS,Google Play,com.moez.QKSMS,Z3A6QU9xcFRPRkJDTENHTWtUa3RpLVVBdEltX2hWOXhfOXc1WklIQ1ZBXzZNZ2hlRHpVcWVGcUJ6SFU4ZlFQQ2pJd1V2SzJGT0FPNHVCb3JHWmhiZTNPLWc,English,,3,2015-12-11,Binh Luu,,is there a way to have a pop up window the phone is locked,,
QKSMS - Open Source SMS & MMS,Google Play,com.moez.QKSMS,Z3A6QU9xcFRPSEdTUmN3RXpEVzUtMzVxVXdVZHFkUXM3b0VDa1k1aHVseF9VWnpXaW1MV1ZPV3U0UURrNV9FNS1CUF9PVFc1ZzJFZkMyLW5UdzkzMUt3Vmc,English,,5,2015-12-10,Michelle Bryant,,very clean up,,
QKSMS - Open Source SMS & MMS,Google Play,com.moez.QKSMS,Z3A6QU9xcFRPSEdTUmN3RXpEVzUtMzVxVXdVZHFkUXM3b0VDa1k1aHVseF9VWnpXaW1MV1ZPV3U0UURrNV9FNS1CUF9PVFc1ZzJFZkMyLW5UdzkzMUt3Vmc,English,,5,2015-12-10,Michelle Bryant,,fast loading and love the theme,,
QKSMS - Open Source SMS & MMS,Google Play,com.moez.QKSMS,Z3A6QU9xcFRPSHdZVVA0NDFjdXdocEk1dU5FNlppeDREa01pRTJ5VmVvbDB2VkJITWhxNFlqNEN6SUtsX3pycmx0S191czg1azhhWnFjWjlxNEVQZHNXM0E,English,,3,2015-12-10,Ariana Pereira,,i need a new font,,
QKSMS - Open Source SMS & MMS,Google Play,com.moez.QKSMS,Z3A6QU9xcFRPSHdZVVA0NDFjdXdocEk1dU5FNlppeDREa01pRTJ5VmVvbDB2VkJITWhxNFlqNEN6SUtsX3pycmx0S191czg1azhhWnFjWjlxNEVQZHNXM0E,English,,3,2015-12-10,Ariana Pereira,,please,,
QKSMS - Open Source SMS & MMS,Google Play,com.moez.QKSMS,Z3A6QU9xcFRPR05GdHNfM3dtNU5UMmV4a0VZbFpxUU1VbUlseUFtUlYtVnBzbmhlY1BoamFzQnBQcUs0VW5NZlQwdFJVRlZaTGVTSGdCcDFCdWU5eTF3dXc,English,,4,2015-12-09,Crystal Rhodan,It's an okay app,keep freezing,,
QKSMS - Open Source SMS & MMS,Google Play,com.moez.QKSMS,Z3A6QU9xcFRPRWVrV0tTZlYyR0RGWklKc3prNUFGckhjbldhaG1YeXh6cEtqMnZPNGI2a2tmXzhlNGI1MFM3Nl94NXhrbE9CRDE1Qk9HQXlybE9aN1pVZkE,English,,5,2015-12-09,Jeff Gensler,Better than Textra!,well designed in every way,,
QKSMS - Open Source SMS & MMS,Google Play,com.moez.QKSMS,Z3A6QU9xcFRPR1Z4TnMySzZJeXc2LVc1UkFxTWg0bDZoNG03b1FMWlVyaHpMUmlHcEY5S1R2c1V0bEZ6ZG12V051S1BiaXNwMEU1Q0NIYWJvaWJsM3VmZGc,English,,5,2015-12-09,John Kilonzi,Awesome,more smaller size,,
QKSMS - Open Source SMS & MMS,Google Play,com.moez.QKSMS,Z3A6QU9xcFRPR1Z4TnMySzZJeXc2LVc1UkFxTWg0bDZoNG03b1FMWlVyaHpMUmlHcEY5S1R2c1V0bEZ6ZG12V051S1BiaXNwMEU1Q0NIYWJvaWJsM3VmZGc,English,,5,2015-12-09,John Kilonzi,Awesome,,,
QKSMS - Open Source SMS & MMS,Google Play,com.moez.QKSMS,Z3A6QU9xcFRPR1BYam1yQ0lNTjlwMXZYT3daNm0xTllGUEZxd2N0YXpocEZOUG5MN2ktM1ZaLVdzbEZ4Zmt4LXRFMEhONWRtZmxPUjd2NjRTM2Nma2xyWWc,English,,2,2015-12-08,Ben Calvert-Lee,,increasingly especially transitioning from to,,
QKSMS - Open Source SMS & MMS,Google Play,com.moez.QKSMS,Z3A6QU9xcFRPR1BYam1yQ0lNTjlwMXZYT3daNm0xTllGUEZxd2N0YXpocEZOUG5MN2ktM1ZaLVdzbEZ4Zmt4LXRFMEhONWRtZmxPUjd2NjRTM2Nma2xyWWc,English,,2,2015-12-08,Ben Calvert-Lee,,now,,
QKSMS - Open Source SMS & MMS,Google Play,com.moez.QKSMS,Z3A6QU9xcFRPRzl3ZzhuZUh0ZFZEa2tBQVdMVEs1aHBYMDdjMDczd1M4N2pEYy1rTTdJb3BpZlVid2piWEE5TkFHODZoTVdRQmpNZjRHWk0yRUhDams0dWc,English,,4,2015-12-08,Terry Watts,Very good,just started using this and like it very one thing i think would be good is to be able to schedule a,,
QKSMS - Open Source SMS & MMS,Google Play,com.moez.QKSMS,Z3A6QU9xcFRPRzl3ZzhuZUh0ZFZEa2tBQVdMVEs1aHBYMDdjMDczd1M4N2pEYy1rTTdJb3BpZlVid2piWEE5TkFHODZoTVdRQmpNZjRHWk0yRUhDams0dWc,English,,4,2015-12-08,Terry Watts,Very good,hope this feature is possible in future update,,
QKSMS - Open Source SMS & MMS,Google Play,com.moez.QKSMS,Z3A6QU9xcFRPRzl3ZzhuZUh0ZFZEa2tBQVdMVEs1aHBYMDdjMDczd1M4N2pEYy1rTTdJb3BpZlVid2piWEE5TkFHODZoTVdRQmpNZjRHWk0yRUhDams0dWc,English,,4,2015-12-08,Terry Watts,Very good,still a really good non the le,,
QKSMS - Open Source SMS & MMS,Google Play,com.moez.QKSMS,Z3A6QU9xcFRPSFF1MW9sUHdoRkVXZTJuXzBHaHFRUERYTUJ3cGdKdlItcEh6R0lTT2ZrR0ZKeWExemYxeE40ZlptSHk4ZDhCWHA2a1NsTTAwNnhhQ3ZSdVE,English,,3,2015-12-08,Joshua Lagare-Howard,,it work well enough,,
QKSMS - Open Source SMS & MMS,Google Play,com.moez.QKSMS,Z3A6QU9xcFRPRlV4MHZwczhDMTVTYWlTaDFndjctVUVqSTF6NXpmZzdVbzZQXy1QcUN6OGxzdEQxemN3ckJqejFCdXF6VGlKaUFlakNnMU9zZG8tV0F4UVE,English,,1,2015-12-07,Rick,Wish it worked for group messages,recipient report blank message help,,
QKSMS - Open Source SMS & MMS,Google Play,com.moez.QKSMS,Z3A6QU9xcFRPRlV4MHZwczhDMTVTYWlTaDFndjctVUVqSTF6NXpmZzdVbzZQXy1QcUN6OGxzdEQxemN3ckJqejFCdXF6VGlKaUFlakNnMU9zZG8tV0F4UVE,English,,1,2015-12-07,Rick,Wish it worked for group messages,just,,
QKSMS - Open Source SMS & MMS,Google Play,com.moez.QKSMS,Z3A6QU9xcFRPRlV4MHZwczhDMTVTYWlTaDFndjctVUVqSTF6NXpmZzdVbzZQXy1QcUN6OGxzdEQxemN3ckJqejFCdXF6VGlKaUFlakNnMU9zZG8tV0F4UVE,English,,1,2015-12-07,Rick,Wish it worked for group messages,seriously beautiful and customizable but no one could read my group message,,
QKSMS - Open Source SMS & MMS,Google Play,com.moez.QKSMS,Z3A6QU9xcFRPRlV4MHZwczhDMTVTYWlTaDFndjctVUVqSTF6NXpmZzdVbzZQXy1QcUN6OGxzdEQxemN3ckJqejFCdXF6VGlKaUFlakNnMU9zZG8tV0F4UVE,English,,1,2015-12-07,Rick,Wish it worked for group messages,sent message to with crash report too,,
QKSMS - Open Source SMS & MMS,Google Play,com.moez.QKSMS,Z3A6QU9xcFRPSHFpQ3N2VHVYbHBmMmhucEc4dmFYTEpBZGpHWE8yTmkyV0F4Sk5FMThXbUJLMk9QUnN0RUtJQXhsb0hxZEhfbUxOZS1xWEw3R19wdE1OZlE,English,,4,2015-12-06,Austin Brown,One major flaw,i would like it if it at least tried to send it or waited a little bit the signal improves instead of giving up instantly,,
QKSMS - Open Source SMS & MMS,Google Play,com.moez.QKSMS,Z3A6QU9xcFRPSHFpQ3N2VHVYbHBmMmhucEc4dmFYTEpBZGpHWE8yTmkyV0F4Sk5FMThXbUJLMk9QUnN0RUtJQXhsb0hxZEhfbUxOZS1xWEw3R19wdE1OZlE,English,,4,2015-12-06,Austin Brown,One major flaw,also some more option for customization would be nice,,
QKSMS - Open Source SMS & MMS,Google Play,com.moez.QKSMS,Z3A6QU9xcFRPRjl4b0hTdER2Um1pajF1LVBpYlNhRFQ0ZHN2a29TdGxodUM3cmY2LU1VZldiNkdYdnFGTnhJRW5sdm1aR1lrckNRTWJLdXFZV2owM3FYbWc,English,,4,2015-12-05,Casey Cleveland,Simply beautiful,beautiful yet light and fast,,
QKSMS - Open Source SMS & MMS,Google Play,com.moez.QKSMS,Z3A6QU9xcFRPRjl4b0hTdER2Um1pajF1LVBpYlNhRFQ0ZHN2a29TdGxodUM3cmY2LU1VZldiNkdYdnFGTnhJRW5sdm1aR1lrckNRTWJLdXFZV2owM3FYbWc,English,,4,2015-12-05,Casey Cleveland,Simply beautiful,you clean up a few bug and force close issue here and you would be able to challenge for top spot,,
QKSMS - Open Source SMS & MMS,Google Play,com.moez.QKSMS,Z3A6QU9xcFRPRjl4b0hTdER2Um1pajF1LVBpYlNhRFQ0ZHN2a29TdGxodUM3cmY2LU1VZldiNkdYdnFGTnhJRW5sdm1aR1lrckNRTWJLdXFZV2owM3FYbWc,English,,4,2015-12-05,Casey Cleveland,Simply beautiful,keep up the good work,,
QKSMS - Open Source SMS & MMS,Google Play,com.moez.QKSMS,Z3A6QU9xcFRPSF9RWVJyVHliX3Rocm9mdHdzeFVXeHdwRHBCa2JtVHV3bmxXUWhobWFPbTF0VmdleE9kV2NKamZLcFpvLWZJYUdyOXdnYjBmSzRpbzFGM1E,English,,4,2015-12-04,Mike Allen,Works great with Android Wear,normally an would have a of some kind to attach item,,
QKSMS - Open Source SMS & MMS,Google Play,com.moez.QKSMS,Z3A6QU9xcFRPR2JTb2IxWU5mRmszdm1sYVJYdU5LQWJiVnBJUWZUbmhLVmRkZzNpbWpaNGtBVENWRnM0ODJ0ZDJ3ZVg2T2ZyV08tMXJ3VjNqUkpGZXRKVGc,English,,4,2015-12-04,No Name,Great,you took away a few font option in the latest update,,
QKSMS - Open Source SMS & MMS,Google Play,com.moez.QKSMS,Z3A6QU9xcFRPR2JTb2IxWU5mRmszdm1sYVJYdU5LQWJiVnBJUWZUbmhLVmRkZzNpbWpaNGtBVENWRnM0ODJ0ZDJ3ZVg2T2ZyV08tMXJ3VjNqUkpGZXRKVGc,English,,4,2015-12-04,No Name,Great,any chance of making them available again,,
QKSMS - Open Source SMS & MMS,Google Play,com.moez.QKSMS,Z3A6QU9xcFRPRnhSVlAxYW43YjVfdWRvb1ExRFZMNmVzLVE5VFFQMkFrRWJINXRQNGRnaHhTTTBfQjJDQWI5cHFOTlBZRkdTQURNTllIZ2gxT2J6TTg4dFE,English,,3,2015-12-04,Logan Burke,Great but...,i set it to black mode in a few hour it reverts back to,,
QKSMS - Open Source SMS & MMS,Google Play,com.moez.QKSMS,Z3A6QU9xcFRPSHhRdEdHMjgxODJ3MUJVN0dTZUpmN0J6NmJxNnRsREZweXM0czNBNV9sYnoyTFZKSEJMZ1h3Qno1ajRMRHVHUlpJcXNIMFVoc0QwTTQwQUE,English,,2,2015-12-04,Andrey Loboda,"Leggy, crashes",it sends each person an individual message instead,,
QKSMS - Open Source SMS & MMS,Google Play,com.moez.QKSMS,Z3A6QU9xcFRPSHhRdEdHMjgxODJ3MUJVN0dTZUpmN0J6NmJxNnRsREZweXM0czNBNV9sYnoyTFZKSEJMZ1h3Qno1ajRMRHVHUlpJcXNIMFVoc0QwTTQwQUE,English,,2,2015-12-04,Andrey Loboda,"Leggy, crashes",there is a log of lag,,
QKSMS - Open Source SMS & MMS,Google Play,com.moez.QKSMS,Z3A6QU9xcFRPSHhRdEdHMjgxODJ3MUJVN0dTZUpmN0J6NmJxNnRsREZweXM0czNBNV9sYnoyTFZKSEJMZ1h3Qno1ajRMRHVHUlpJcXNIMFVoc0QwTTQwQUE,English,,2,2015-12-04,Andrey Loboda,"Leggy, crashes",it crash for me every other time i try to open it out open a message,,
QKSMS - Open Source SMS & MMS,Google Play,com.moez.QKSMS,Z3A6QU9xcFRPRi1EQlpmbEtCOEdVNjJpVXljZndQR2FDckVVQnA3RDNzTUFkSzBQQW9qVnNOWGxiZDBzZHZRaWEyQjZVVjZ3bFI1ZlVHbjljV0duMnJVYmc,English,,5,2015-12-03,Nesel Creme,,i love the neatness and sophistication of this plus it being ad free,,
QKSMS - Open Source SMS & MMS,Google Play,com.moez.QKSMS,Z3A6QU9xcFRPRi1EQlpmbEtCOEdVNjJpVXljZndQR2FDckVVQnA3RDNzTUFkSzBQQW9qVnNOWGxiZDBzZHZRaWEyQjZVVjZ3bFI1ZlVHbjljV0duMnJVYmc,English,,5,2015-12-03,Nesel Creme,,kudos team,,
QKSMS - Open Source SMS & MMS,Google Play,com.moez.QKSMS,Z3A6QU9xcFRPRlMxUDliMnBvaHcwNzQ4QmEwZHZGUmtNR25uM1RFU2tGQ1V0OVdGb0xmVlFmYVdzQ3pQNUVZMUx4TkNMcHhaV0ppSndsb3F3QmJ6YkRJOWc,English,,3,2015-12-03,Sean A,,i like but i keep losing draft message,,
QKSMS - Open Source SMS & MMS,Google Play,com.moez.QKSMS,Z3A6QU9xcFRPRlMxUDliMnBvaHcwNzQ4QmEwZHZGUmtNR25uM1RFU2tGQ1V0OVdGb0xmVlFmYVdzQ3pQNUVZMUx4TkNMcHhaV0ppSndsb3F3QmJ6YkRJOWc,English,,3,2015-12-03,Sean A,,also have the disappearing picture message issue,,
QKSMS - Open Source SMS & MMS,Google Play,com.moez.QKSMS,Z3A6QU9xcFRPRlMxUDliMnBvaHcwNzQ4QmEwZHZGUmtNR25uM1RFU2tGQ1V0OVdGb0xmVlFmYVdzQ3pQNUVZMUx4TkNMcHhaV0ppSndsb3F3QmJ6YkRJOWc,English,,3,2015-12-03,Sean A,,will give 5 star and buy the paid version these are fixed edit now the icon is showing a new message when i have read all message,,
QKSMS - Open Source SMS & MMS,Google Play,com.moez.QKSMS,Z3A6QU9xcFRPRlMxUDliMnBvaHcwNzQ4QmEwZHZGUmtNR25uM1RFU2tGQ1V0OVdGb0xmVlFmYVdzQ3pQNUVZMUx4TkNMcHhaV0ppSndsb3F3QmJ6YkRJOWc,English,,3,2015-12-03,Sean A,,can you please help with this,,
QKSMS - Open Source SMS & MMS,Google Play,com.moez.QKSMS,Z3A6QU9xcFRPR2dNczJtemt1R2xaSXVoSjVpdDJWbXlFRWxiSlIyeGZfckRJaXNsRmxmY0VyVHptcDlSVTJTdmpacW9VX0FjSVdMb1kyN2FOQVRKWFdPYkE,English,,3,2015-12-03,Dreaded Princess,Uh..ok,we should be able to change the background of the conversation to a picture,,
QKSMS - Open Source SMS & MMS,Google Play,com.moez.QKSMS,Z3A6QU9xcFRPR2dNczJtemt1R2xaSXVoSjVpdDJWbXlFRWxiSlIyeGZfckRJaXNsRmxmY0VyVHptcDlSVTJTdmpacW9VX0FjSVdMb1kyN2FOQVRKWFdPYkE,English,,3,2015-12-03,Dreaded Princess,Uh..ok,you guy should also invest in creating theme for the like go pro,,
QKSMS - Open Source SMS & MMS,Google Play,com.moez.QKSMS,Z3A6QU9xcFRPRWJUNVBlVTlNUmt2R20zR1hhRmZTQi1rQTRuaDkzTDJjWURVYkd5VTVBTzRFRkNBd2x3MGxiU0hiTFM4cEtCTXktbGJrQ1ZCX3piSFFFWFE,English,,5,2015-12-03,Josiah Clark,Best of the Best,i have tried a whole host of application and this is best,,
QKSMS - Open Source SMS & MMS,Google Play,com.moez.QKSMS,Z3A6QU9xcFRPRWJUNVBlVTlNUmt2R20zR1hhRmZTQi1rQTRuaDkzTDJjWURVYkd5VTVBTzRFRkNBd2x3MGxiU0hiTFM4cEtCTXktbGJrQ1ZCX3piSFFFWFE,English,,5,2015-12-03,Josiah Clark,Best of the Best,this provides a clean interface and work flawlessly,,
QKSMS - Open Source SMS & MMS,Google Play,com.moez.QKSMS,Z3A6QU9xcFRPRWJUNVBlVTlNUmt2R20zR1hhRmZTQi1rQTRuaDkzTDJjWURVYkd5VTVBTzRFRkNBd2x3MGxiU0hiTFM4cEtCTXktbGJrQ1ZCX3piSFFFWFE,English,,5,2015-12-03,Josiah Clark,Best of the Best,my only complaint is the link to donate remain after donation,,
QKSMS - Open Source SMS & MMS,Google Play,com.moez.QKSMS,Z3A6QU9xcFRPR05ZMXJoV3hqaDRjNW9oVXBUUW9mSHZ3eVlsMGNhekQtMDM3R3Z0RTByVEE3cmYtVEp1RE1hY2I5clBZaHFUenYzYWxqeGhtdHlwcDFkZnc,English,,5,2015-12-03,,,awesome software,,
QKSMS - Open Source SMS & MMS,Google Play,com.moez.QKSMS,Z3A6QU9xcFRPR2Q3dUZwSm1GRWZjcFhPS0U4MTNaMmppMDFqZ09feDBLYWU3YXIyelBUaFExbS0ya0pwbzBtbWVydG5GNDFvTnJBOEM4REFsSFlsQTFOZkE,English,,3,2015-12-03,Sean Moran,Potential,is the messaging i want to use but the bug just make it intolerable,,
QKSMS - Open Source SMS & MMS,Google Play,com.moez.QKSMS,Z3A6QU9xcFRPR2FBNzNEVDVyekEtNVVOM3YzTW9mb0NWbm52Rk50X3dzckVfV2ZXUVExTUQwczUwMkhfVTd3aERvRjhEd2poUF9aMlRXejVLV2hUODZCQ3c,English,,4,2015-12-03,Malick Afeef,Unread badge for blocked sms problem,why is there still a notification count badge for blocked,,
QKSMS - Open Source SMS & MMS,Google Play,com.moez.QKSMS,Z3A6QU9xcFRPR2FBNzNEVDVyekEtNVVOM3YzTW9mb0NWbm52Rk50X3dzckVfV2ZXUVExTUQwczUwMkhfVTd3aERvRjhEd2poUF9aMlRXejVLV2hUODZCQ3c,English,,4,2015-12-03,Malick Afeef,Unread badge for blocked sms problem,there should be no unread count badge for these apart from the is good,,
QKSMS - Open Source SMS & MMS,Google Play,com.moez.QKSMS,Z3A6QU9xcFRPR1lndklxOTlTQWowenhrT0RXb2k4RUlZT2d5X0t6SFFmdkxlanU2MS1HcHlLSU5aS3lBVnhOZmM4OEczWHUySkZzS2hyLXZUZEh4Y0xvNlE,English,,4,2015-12-03,Carlo Jacalan,Dual sim support?,can i manually press a or button to send,,
QKSMS - Open Source SMS & MMS,Google Play,com.moez.QKSMS,Z3A6QU9xcFRPRlRKbkQtQkZKQjFEQm9WaWl2THVGaFIwR0dXV0QteFZKZ3lhRkdVdGtoOVNEeXJOYVl2dHNKd0YwOUctT3FDeU1vOU4yN01kMHdHaW5HR2c,English,,1,2015-12-03,tinyiko maluleke,Force close always,beautiful but always force closing i get it so irritating am deleting it,,
QKSMS - Open Source SMS & MMS,Google Play,com.moez.QKSMS,Z3A6QU9xcFRPRmJPdy1ndERjZVFNcF95OXJzUDRrOXNlVm5lbW04b01ua3VRam40eW14Ml9PTlZYWVpxaGxIaGM2X1NkMTVsUHFoRUZPRXZEWHFTSGFacHc,English,,4,2015-12-02,Kamikaze_D50,Needs improvement...,you rotate your screen the pop up notification text message info disappears,,
QKSMS - Open Source SMS & MMS,Google Play,com.moez.QKSMS,Z3A6QU9xcFRPRmJPdy1ndERjZVFNcF95OXJzUDRrOXNlVm5lbW04b01ua3VRam40eW14Ml9PTlZYWVpxaGxIaGM2X1NkMTVsUHFoRUZPRXZEWHFTSGFacHc,English,,4,2015-12-02,Kamikaze_D50,Needs improvement...,this change then i give it 5,,
QKSMS - Open Source SMS & MMS,Google Play,com.moez.QKSMS,Z3A6QU9xcFRPR0VKUGJKTkhwUFgwQUE4MGxSdXRSWFVvUXkxMHlGMjhXWWNDOHNDWS1GUVh5ZzRNNDBFemY1UEFaRXBTamg1Qm14N3Joa2l1Ynhib3ZiQ0E,English,,4,2015-12-02,Shawne Canzater,Love,this is love,,
QKSMS - Open Source SMS & MMS,Google Play,com.moez.QKSMS,Z3A6QU9xcFRPR0VKUGJKTkhwUFgwQUE4MGxSdXRSWFVvUXkxMHlGMjhXWWNDOHNDWS1GUVh5ZzRNNDBFemY1UEFaRXBTamg1Qm14N3Joa2l1Ynhib3ZiQ0E,English,,4,2015-12-02,Shawne Canzater,Love,it doe have one problem for me,,
QKSMS - Open Source SMS & MMS,Google Play,com.moez.QKSMS,Z3A6QU9xcFRPR0VKUGJKTkhwUFgwQUE4MGxSdXRSWFVvUXkxMHlGMjhXWWNDOHNDWS1GUVh5ZzRNNDBFemY1UEFaRXBTamg1Qm14N3Joa2l1Ynhib3ZiQ0E,English,,4,2015-12-02,Shawne Canzater,Love,my phone say it stop working or so i have to delete and it every time,,
QKSMS - Open Source SMS & MMS,Google Play,com.moez.QKSMS,Z3A6QU9xcFRPRVNLMWppb1NFZWxVZDJ2VzFGNzVQNFVWNUp2RU5yYWRUZGdVOHRHcG9EV2JDbTdIekhSa0xsM0RtX3VBc2JxRnpZUVk3R3BOaG1RQ0w0SFE,English,,4,2015-12-02,Mina G.,Block function doesn't work.,please fix this,,
QKSMS - Open Source SMS & MMS,Google Play,com.moez.QKSMS,Z3A6QU9xcFRPRVNLMWppb1NFZWxVZDJ2VzFGNzVQNFVWNUp2RU5yYWRUZGdVOHRHcG9EV2JDbTdIekhSa0xsM0RtX3VBc2JxRnpZUVk3R3BOaG1RQ0w0SFE,English,,4,2015-12-02,Mina G.,Block function doesn't work.,thank,,
QKSMS - Open Source SMS & MMS,Google Play,com.moez.QKSMS,Z3A6QU9xcFRPR0VLbm53bV9JQlQxTFdYaTl0dVBMVGFvUnM2UjQxTnpmQWozbVlXY2Y3NFFvLXhNYTN6NHQtajdFazZ5RUJFNnpMY3FITE5EZHhWdDVEbnc,English,,4,2015-12-01,Bipin Borkar,,one small issue,,
QKSMS - Open Source SMS & MMS,Google Play,com.moez.QKSMS,Z3A6QU9xcFRPR0VLbm53bV9JQlQxTFdYaTl0dVBMVGFvUnM2UjQxTnpmQWozbVlXY2Y3NFFvLXhNYTN6NHQtajdFazZ5RUJFNnpMY3FITE5EZHhWdDVEbnc,English,,4,2015-12-01,Bipin Borkar,,we delete an old the message scroll up to show the newest message,,
QKSMS - Open Source SMS & MMS,Google Play,com.moez.QKSMS,Z3A6QU9xcFRPR0VLbm53bV9JQlQxTFdYaTl0dVBMVGFvUnM2UjQxTnpmQWozbVlXY2Y3NFFvLXhNYTN6NHQtajdFazZ5RUJFNnpMY3FITE5EZHhWdDVEbnc,English,,4,2015-12-01,Bipin Borkar,,this creates a problem we have to delete a bunch of old message,,
QKSMS - Open Source SMS & MMS,Google Play,com.moez.QKSMS,Z3A6QU9xcFRPR0VLbm53bV9JQlQxTFdYaTl0dVBMVGFvUnM2UjQxTnpmQWozbVlXY2Y3NFFvLXhNYTN6NHQtajdFazZ5RUJFNnpMY3FITE5EZHhWdDVEbnc,English,,4,2015-12-01,Bipin Borkar,,we have to constantly scroll up and down deleting every message,,
QKSMS - Open Source SMS & MMS,Google Play,com.moez.QKSMS,Z3A6QU9xcFRPR0VLbm53bV9JQlQxTFdYaTl0dVBMVGFvUnM2UjQxTnpmQWozbVlXY2Y3NFFvLXhNYTN6NHQtajdFazZ5RUJFNnpMY3FITE5EZHhWdDVEbnc,English,,4,2015-12-01,Bipin Borkar,,the window should stay on whichever message we are on,,
QKSMS - Open Source SMS & MMS,Google Play,com.moez.QKSMS,Z3A6QU9xcFRPR0VLbm53bV9JQlQxTFdYaTl0dVBMVGFvUnM2UjQxTnpmQWozbVlXY2Y3NFFvLXhNYTN6NHQtajdFazZ5RUJFNnpMY3FITE5EZHhWdDVEbnc,English,,4,2015-12-01,Bipin Borkar,,kindly fix this,,
QKSMS - Open Source SMS & MMS,Google Play,com.moez.QKSMS,Z3A6QU9xcFRPR0VLbm53bV9JQlQxTFdYaTl0dVBMVGFvUnM2UjQxTnpmQWozbVlXY2Y3NFFvLXhNYTN6NHQtajdFazZ5RUJFNnpMY3FITE5EZHhWdDVEbnc,English,,4,2015-12-01,Bipin Borkar,,thanks,,
QKSMS - Open Source SMS & MMS,Google Play,com.moez.QKSMS,Z3A6QU9xcFRPRkFhVGNISDAwS05BMzNyNm5yX2pkeWZwd2FDaDdkUmpJa19KSVRFM0c5QXlaWTc5Yi1MYVFZSTVYN00yM29oekp1MXVEdTNFSjBHNW83cGc,English,,3,2015-12-01,Keith Nguyen,MMS not working,work with off,,
QKSMS - Open Source SMS & MMS,Google Play,com.moez.QKSMS,Z3A6QU9xcFRPR2N4WXpnRGpUV2lESW9QbnViUjZfUWRRRnV4MXhoLTZPQ3NhU2RaeUY1a1ZTQWtnZHdGQl96QmhGSFdSWWVXUnNxUk9lcjE1ZGdhRzI0eXc,English,,2,2015-12-01,Ian Gonzaga,Quick reply,typing at quick reply is,,
QKSMS - Open Source SMS & MMS,Google Play,com.moez.QKSMS,Z3A6QU9xcFRPRjBSZWRZUXNnM292QTZLZUR6MGpjYVVkYm1XOFQ2NW85MDZrd2I5SzU2NmZPOVhTOXB3dHl4MEtGM1RWM3ctMDRlMGNJVEljRnJyT1ByeEE,English,,5,2015-12-01,Andrew Schmadel,Fast and simple,blazing even compared to simpler,,
QKSMS - Open Source SMS & MMS,Google Play,com.moez.QKSMS,Z3A6QU9xcFRPRjBSZWRZUXNnM292QTZLZUR6MGpjYVVkYm1XOFQ2NW85MDZrd2I5SzU2NmZPOVhTOXB3dHl4MEtGM1RWM3ctMDRlMGNJVEljRnJyT1ByeEE,English,,5,2015-12-01,Andrew Schmadel,Fast and simple,exceptionally clean,,
QKSMS - Open Source SMS & MMS,Google Play,com.moez.QKSMS,Z3A6QU9xcFRPRldLZzd1UWkwTFFidGdQYlNWQU95cE85Nk9pSnRFTm44T1RkdzB2UzI1ekVMVlUwOWE1M215UlJfVm1QWUtyZzRIM3RPU3owak1LY1lQWHc,English,,5,2015-12-01,Colton Porky,,hand down best,,
QKSMS - Open Source SMS & MMS,Google Play,com.moez.QKSMS,Z3A6QU9xcFRPRldLZzd1UWkwTFFidGdQYlNWQU95cE85Nk9pSnRFTm44T1RkdzB2UzI1ekVMVlUwOWE1M215UlJfVm1QWUtyZzRIM3RPU3owak1LY1lQWHc,English,,5,2015-12-01,Colton Porky,,it took a little for it to get this but i am in love with the current version,,
QKSMS - Open Source SMS & MMS,Google Play,com.moez.QKSMS,Z3A6QU9xcFRPRklSX1p4NnZsbXpoZ0tIZEsyUnZmSGtyQi1SOGZiR194V05aSDdKbDVNQmtzV3RzdmJuOWcxd1ozcF9iQ2JyMklQZ3FBMFk1T1BrSE1MbHc,English,,2,2015-11-30,Bill Caven,Disappearing mms,update from still did not fix the disappearing picture issue,,
QKSMS - Open Source SMS & MMS,Google Play,com.moez.QKSMS,Z3A6QU9xcFRPRklSX1p4NnZsbXpoZ0tIZEsyUnZmSGtyQi1SOGZiR194V05aSDdKbDVNQmtzV3RzdmJuOWcxd1ozcF9iQ2JyMklQZ3FBMFk1T1BrSE1MbHc,English,,2,2015-11-30,Bill Caven,Disappearing mms,picture sent to me disappears one viewing,,
QKSMS - Open Source SMS & MMS,Google Play,com.moez.QKSMS,Z3A6QU9xcFRPRklSX1p4NnZsbXpoZ0tIZEsyUnZmSGtyQi1SOGZiR194V05aSDdKbDVNQmtzV3RzdmJuOWcxd1ozcF9iQ2JyMklQZ3FBMFk1T1BrSE1MbHc,English,,2,2015-11-30,Bill Caven,Disappearing mms,have to close and reopen for the picture to show again,,
QKSMS - Open Source SMS & MMS,Google Play,com.moez.QKSMS,Z3A6QU9xcFRPRklSX1p4NnZsbXpoZ0tIZEsyUnZmSGtyQi1SOGZiR194V05aSDdKbDVNQmtzV3RzdmJuOWcxd1ozcF9iQ2JyMklQZ3FBMFk1T1BrSE1MbHc,English,,2,2015-11-30,Bill Caven,Disappearing mms,fix and it would be a 5 star,,
QKSMS - Open Source SMS & MMS,Google Play,com.moez.QKSMS,Z3A6QU9xcFRPRklSX1p4NnZsbXpoZ0tIZEsyUnZmSGtyQi1SOGZiR194V05aSDdKbDVNQmtzV3RzdmJuOWcxd1ozcF9iQ2JyMklQZ3FBMFk1T1BrSE1MbHc,English,,2,2015-11-30,Bill Caven,Disappearing mms,thanks,,
QKSMS - Open Source SMS & MMS,Google Play,com.moez.QKSMS,Z3A6QU9xcFRPSDZQYUFGTjNXZnhITHhHVG5aVkkzeGpNQ0liVFBYUUl1S0g5ZllhOGJuV3VKNmVON3BFX1l6Q0J0V2lTTEQzYU83UWlwNWUzX05tbFRQa0E,English,,3,2015-11-30,Sven Andresen,"Good, but",receiving i get two picture for every instead of one,,
QKSMS - Open Source SMS & MMS,Google Play,com.moez.QKSMS,Z3A6QU9xcFRPSGU1cDZWXzNxWmtDT3hOWm1leEFfbm8xb1BBT3hPZ2RhbUFUM25vay1sY015cFJyallMcTkxbDU5OEFOczhwSFdnWmFXSm1EMjcwYlo2bFE,English,,1,2015-11-30,Vikas Kumar,Very bad,no option to copy message and forward,,
QKSMS - Open Source SMS & MMS,Google Play,com.moez.QKSMS,Z3A6QU9xcFRPSGU1cDZWXzNxWmtDT3hOWm1leEFfbm8xb1BBT3hPZ2RhbUFUM25vay1sY015cFJyallMcTkxbDU5OEFOczhwSFdnWmFXSm1EMjcwYlo2bFE,English,,1,2015-11-30,Vikas Kumar,Very bad,are u serious,,
QKSMS - Open Source SMS & MMS,Google Play,com.moez.QKSMS,Z3A6QU9xcFRPSGU1cDZWXzNxWmtDT3hOWm1leEFfbm8xb1BBT3hPZ2RhbUFUM25vay1sY015cFJyallMcTkxbDU5OEFOczhwSFdnWmFXSm1EMjcwYlo2bFE,English,,1,2015-11-30,Vikas Kumar,Very bad,very bad experience,,
QKSMS - Open Source SMS & MMS,Google Play,com.moez.QKSMS,Z3A6QU9xcFRPR0tIRlpuNVZfN3FTUVRDb0p1VE5EdTZYeVoweGZ4NjZtdkhVTlFseThZX3BiXzFDaW8wVldiOXZ0RDg5YXpFZ29rUmotLVh6QWNIX3l3aEE,English,,2,2015-11-30,Malcolm Wyley,,i like it look really nice and but the auto setting threw my phone off so bad i had to factory reset it to get them back,,
QKSMS - Open Source SMS & MMS,Google Play,com.moez.QKSMS,Z3A6QU9xcFRPR0tIRlpuNVZfN3FTUVRDb0p1VE5EdTZYeVoweGZ4NjZtdkhVTlFseThZX3BiXzFDaW8wVldiOXZ0RDg5YXpFZ29rUmotLVh6QWNIX3l3aEE,English,,2,2015-11-30,Malcolm Wyley,,and every i get now show up a the same one picture,,
QKSMS - Open Source SMS & MMS,Google Play,com.moez.QKSMS,Z3A6QU9xcFRPRlM4SF8xSnFRd1RrS05vSmJLTi1uUzVKZzlDQzlPb2ZvTWVHTGFELWxGUjRSTnE4WVBHdmhIUm0zaTJEMFJYMWwxU1JxU0FKOEliRlFZOFE,English,,1,2015-11-29,Jusman Tuason,Dual sim problem,there is no switching for dual option,,
