App,Store,App ID,Review ID,Country,Version,Rating,Date,Author,Subject,Body,Translated Subject,Translated Body
QKSMS - Open Source SMS & MMS,Google Play,com.moez.QKSMS,Z3A6QU9xcFRPRzU4ZnpXbXVqdlJsa3FfamVTRUNHX01TQ2ZPQkF3UGxxNVhlZV9NX1lhd0pkWGsteWVvelNJQmtTYk13Ti01M0NjZGppU25GUmctaHE3T3c,English,,5,2015-10-24,Tre Fuentes,New user,i the today and i am loving it,,
QKSMS - Open Source SMS & MMS,Google Play,com.moez.QKSMS,Z3A6QU9xcFRPRzU4ZnpXbXVqdlJsa3FfamVTRUNHX01TQ2ZPQkF3UGxxNVhlZV9NX1lhd0pkWGsteWVvelNJQmtTYk13Ti01M0NjZGppU25GUmctaHE3T3c,English,,5,2015-10-24,Tre Fuentes,New user,far this is the fastest used,,
QKSMS - Open Source SMS & MMS,Google Play,com.moez.QKSMS,Z3A6QU9xcFRPRzU4ZnpXbXVqdlJsa3FfamVTRUNHX01TQ2ZPQkF3UGxxNVhlZV9NX1lhd0pkWGsteWVvelNJQmtTYk13Ti01M0NjZGppU25GUmctaHE3T3c,English,,5,2015-10-24,Tre Fuentes,New user,i fully explored it yet but far i like it,,
QKSMS - Open Source SMS & MMS,Google Play,com.moez.QKSMS,Z3A6QU9xcFRPSGZUck1jd09SRjNUT21ROEdFeHVBcVFBN0ktNVNXbGVDTlR5WDRjUVZ0NHI0dDhKYk9rakVXSTFLSzF0X19kZFRqUXA4U0RyZFUxT1FBVWc,English,,4,2015-10-24,Clifford Smith,"Great app,  needs better mms/SMS support",the only issue i have is that i cant send photo on it on,,
QKSMS - Open Source SMS & MMS,Google Play,com.moez.QKSMS,Z3A6QU9xcFRPRnBYYU1fWjl0X01DNERNb3d2STRpU3dVYmdNOEJMS1ZaUXpDdTFmN3ZIZ1g5VjUzU3dqSGVzYUtBcHlCRmphUHBPdEI2TXNWdGZ1QjRKVUE,English,,5,2015-10-24,,HeadsOff notifications slightly acting up - version 2.2.0,been a time user of,,
QKSMS - Open Source SMS & MMS,Google Play,com.moez.QKSMS,Z3A6QU9xcFRPRnBYYU1fWjl0X01DNERNb3d2STRpU3dVYmdNOEJMS1ZaUXpDdTFmN3ZIZ1g5VjUzU3dqSGVzYUtBcHlCRmphUHBPdEI2TXNWdGZ1QjRKVUE,English,,5,2015-10-24,,HeadsOff notifications slightly acting up - version 2.2.0,huge fan of this,,
QKSMS - Open Source SMS & MMS,Google Play,com.moez.QKSMS,Z3A6QU9xcFRPRUV5LUt6bE50ZTFjWUFJbXRkQjRGLTR6U0lTVDlSVm4zUjZiRXFMd2k2Ul9hQktmQWZzSVZaWmZHWTNaQmU4M2lkWmJDZDRFbGNxMDVhYVE,English,,5,2015-10-24,Julie Wright,Very nice,i had to switch from this to due to massive performance but the of this fixed every issue i had with the latest update,,
QKSMS - Open Source SMS & MMS,Google Play,com.moez.QKSMS,Z3A6QU9xcFRPRUV5LUt6bE50ZTFjWUFJbXRkQjRGLTR6U0lTVDlSVm4zUjZiRXFMd2k2Ul9hQktmQWZzSVZaWmZHWTNaQmU4M2lkWmJDZDRFbGNxMDVhYVE,English,,5,2015-10-24,Julie Wright,Very nice,a very nice looking and now performing,,
QKSMS - Open Source SMS & MMS,Google Play,com.moez.QKSMS,Z3A6QU9xcFRPSG56ZFh0VjNZcUNaR2w1NUNPYS1KMWpzSC1HQnhaNlpVWmZHUldneEVXZjN5ZkNzZUtQRE5GdEhjNElITU4wVzRlRkZYcnJvRDdGUUdETEE,English,,4,2015-10-24,Liam Callahan,So awesome,very good,,
QKSMS - Open Source SMS & MMS,Google Play,com.moez.QKSMS,Z3A6QU9xcFRPSG56ZFh0VjNZcUNaR2w1NUNPYS1KMWpzSC1HQnhaNlpVWmZHUldneEVXZjN5ZkNzZUtQRE5GdEhjNElITU4wVzRlRkZYcnJvRDdGUUdETEE,English,,4,2015-10-24,Liam Callahan,So awesome,is getting better too,,
QKSMS - Open Source SMS & MMS,Google Play,com.moez.QKSMS,Z3A6QU9xcFRPSEVXeVJSdGJ2WnJHQjFheVpiTUZ2aWJqMU5QSFlkSWgyRW9EVm1UbG14NjJpMWk3am9zTl9rSkhrN2NtZ0w4cVB3MXdHYW9RclRzaGJLUUE,English,,5,2015-10-24,Connor Miller,Great,best of them and i have tried everything,,
QKSMS - Open Source SMS & MMS,Google Play,com.moez.QKSMS,Z3A6QU9xcFRPSEVXeVJSdGJ2WnJHQjFheVpiTUZ2aWJqMU5QSFlkSWgyRW9EVm1UbG14NjJpMWk3am9zTl9rSkhrN2NtZ0w4cVB3MXdHYW9RclRzaGJLUUE,English,,5,2015-10-24,Connor Miller,Great,great customization and will actually have an option to wake the screen with a new message seeing this is rare among 3rd party,,
QKSMS - Open Source SMS & MMS,Google Play,com.moez.QKSMS,Z3A6QU9xcFRPSEVXeVJSdGJ2WnJHQjFheVpiTUZ2aWJqMU5QSFlkSWgyRW9EVm1UbG14NjJpMWk3am9zTl9rSkhrN2NtZ0w4cVB3MXdHYW9RclRzaGJLUUE,English,,5,2015-10-24,Connor Miller,Great,thanks much for this,,
QKSMS - Open Source SMS & MMS,Google Play,com.moez.QKSMS,Z3A6QU9xcFRPSEVXeVJSdGJ2WnJHQjFheVpiTUZ2aWJqMU5QSFlkSWgyRW9EVm1UbG14NjJpMWk3am9zTl9rSkhrN2NtZ0w4cVB3MXdHYW9RclRzaGJLUUE,English,,5,2015-10-24,Connor Miller,Great,keep making are a great a this one,,
QKSMS - Open Source SMS & MMS,Google Play,com.moez.QKSMS,Z3A6QU9xcFRPRWRzR0djV2JnUEhGc2NwdHp5elQ0cW5RNFAtVEk0aWdVZzZoOV9OVWFMODBMQ3g0UWsxUDdCNnhudkVxeFZ4S1dic3QxYTZuNldhYnh4aEE,English,,5,2015-10-24,Pawlu Saliba,,awesome,,
QKSMS - Open Source SMS & MMS,Google Play,com.moez.QKSMS,Z3A6QU9xcFRPR1BoUlBKdkF4TnBySXN4eUVLNUtvN0phWFZhSkNGWFdwRk56c0wtOWl5ZjZ1UnVYOWFoeW9YVW9KVXZRVGtCd2JZSWxhenp0TUM0MWt6bVE,English,,3,2015-10-23,Kady Sykora,I love it when it works,new version just crash all the time,,
QKSMS - Open Source SMS & MMS,Google Play,com.moez.QKSMS,Z3A6QU9xcFRPR1BoUlBKdkF4TnBySXN4eUVLNUtvN0phWFZhSkNGWFdwRk56c0wtOWl5ZjZ1UnVYOWFoeW9YVW9KVXZRVGtCd2JZSWxhenp0TUM0MWt6bVE,English,,3,2015-10-23,Kady Sykora,I love it when it works,the old version wa amazing,,
QKSMS - Open Source SMS & MMS,Google Play,com.moez.QKSMS,Z3A6QU9xcFRPRWZYVjh3eVJrc2tjZWtiS293VVFaMHZLU0luZUtkUDJkVHp3ZDVsbzFmNzh1UUV4blJfTEVQWnYyd3FYck51X3l6aU1nYWlKd1RMRHBrZVE,English,,5,2015-10-23,Lochy Wragg,Can't be beaten,ha all the feature you could want,,
QKSMS - Open Source SMS & MMS,Google Play,com.moez.QKSMS,Z3A6QU9xcFRPRWZYVjh3eVJrc2tjZWtiS293VVFaMHZLU0luZUtkUDJkVHp3ZDVsbzFmNzh1UUV4blJfTEVQWnYyd3FYck51X3l6aU1nYWlKd1RMRHBrZVE,English,,5,2015-10-23,Lochy Wragg,Can't be beaten,in built backup would be nice tho,,
QKSMS - Open Source SMS & MMS,Google Play,com.moez.QKSMS,Z3A6QU9xcFRPRXBLMGNrNnk4U01xRG9RTVdJNGNpTmxhUDNSTkFMWEdWbXVaYWtDRXotWUpBTGQtakJJMUZZM1JjTXBycVl2VmJ4ZG5NSFE0U0hwMGtMaVE,English,,1,2015-10-23,Brad B.,Battery drain,latest update keep running in the draining battery,,
QKSMS - Open Source SMS & MMS,Google Play,com.moez.QKSMS,Z3A6QU9xcFRPR1hrZEpmNGwtQkNVeFBQcW9iTV9LVERpWlBzcERkeE5Sb3gxM0c5QXd0ZmJwMExVYUgzZXZ3OFc5ekhlU2xCVndqellhSWF1ZkZIaUdwZ1E,English,,5,2015-10-23,Josh Piekarski,New stock replacement,great work,,
QKSMS - Open Source SMS & MMS,Google Play,com.moez.QKSMS,Z3A6QU9xcFRPRVNEbERXVUZQNlpYakI3OWlaRVBUamVUejZ0UTNmMEI0TWtnM0xnY0hpWEVfRFFwVnhfd0FmRGVwQl9nQllrQXp6V05qcVZOVGpmNTBMbFE,English,,4,2015-10-23,Roeland Wyns,Was great,it wa a great messaging smooth and a good black theme,,
QKSMS - Open Source SMS & MMS,Google Play,com.moez.QKSMS,Z3A6QU9xcFRPRVNEbERXVUZQNlpYakI3OWlaRVBUamVUejZ0UTNmMEI0TWtnM0xnY0hpWEVfRFFwVnhfd0FmRGVwQl9nQllrQXp6V05qcVZOVGpmNTBMbFE,English,,4,2015-10-23,Roeland Wyns,Was great,but last i get en the us a lot of,,
QKSMS - Open Source SMS & MMS,Google Play,com.moez.QKSMS,Z3A6QU9xcFRPR1Z0WHRZRTkyR2ZocS1aS1lzTjB2WU5QZlJLTUY3TlhGVzFvaG1mU29zV3dRVlJCMU51eE9JYWIzc1ZpN0x4cjRvNnFLQUJzLTBsemhjOUE,English,,5,2015-10-23,Madeleine Starky,Vv good,awesome,,
QKSMS - Open Source SMS & MMS,Google Play,com.moez.QKSMS,Z3A6QU9xcFRPSHR1b0ExRk5nVkp6dERacVZEWTU0UWQwa2tSWUlQZFVoSnk3eFh0Zmc1dnQ3SkUtcXdJeHV5MDRKZTVOWlVCLWpMSGROVmZ3eVNHQ1RBVHc,English,,5,2015-10-23,mark palmos,,great alternative are very responsive,,
QKSMS - Open Source SMS & MMS,Google Play,com.moez.QKSMS,Z3A6QU9xcFRPSHR1b0ExRk5nVkp6dERacVZEWTU0UWQwa2tSWUlQZFVoSnk3eFh0Zmc1dnQ3SkUtcXdJeHV5MDRKZTVOWlVCLWpMSGROVmZ3eVNHQ1RBVHc,English,,5,2015-10-23,mark palmos,,i am using this instead of and,,
QKSMS - Open Source SMS & MMS,Google Play,com.moez.QKSMS,Z3A6QU9xcFRPRUZ1Ni1MMXhZUVVhNWFiaXJXbzFleUIzVVlzc1BQWFJPVmVCNzNYWk5YY3Q5ZWdYX2pXWlVocFRMVjlsVHpLZEFoYzRyNExLWVZmdEVmTGc,English,,5,2015-10-23,Adam Krav,Love this app,best messaging by and no ad,,
QKSMS - Open Source SMS & MMS,Google Play,com.moez.QKSMS,Z3A6QU9xcFRPRUZ1Ni1MMXhZUVVhNWFiaXJXbzFleUIzVVlzc1BQWFJPVmVCNzNYWk5YY3Q5ZWdYX2pXWlVocFRMVjlsVHpLZEFoYzRyNExLWVZmdEVmTGc,English,,5,2015-10-23,Adam Krav,Love this app,would be even better notification icon can be changed and multiple added to single,,
QKSMS - Open Source SMS & MMS,Google Play,com.moez.QKSMS,Z3A6QU9xcFRPRWlLbmRQMFhaMG1oTFMtbWg4X2tnWG9RYVV0YjB6RU5FX0RVbnoxaU82eDA4UmhfeFN2MU5HMmMtVVliT0d5LXZ1V25kZXZ6bzgtcHE0QWc,English,,5,2015-10-23,Sen Gill,Nicely themed.,look great,,
QKSMS - Open Source SMS & MMS,Google Play,com.moez.QKSMS,Z3A6QU9xcFRPRjZPcWZfTGM4bGZueG9qVXhHX3NaVEprQmJWbW9WU3VESDQteU5oVlhkWlBPakpiamdSMkNFOG5IQVN3ZS1vRkJwN3h3VEVjQnJzcEhMMUE,English,,4,2015-10-22,Brandt Houssian,,pretty decent far,,
QKSMS - Open Source SMS & MMS,Google Play,com.moez.QKSMS,Z3A6QU9xcFRPRjZPcWZfTGM4bGZueG9qVXhHX3NaVEprQmJWbW9WU3VESDQteU5oVlhkWlBPakpiamdSMkNFOG5IQVN3ZS1vRkJwN3h3VEVjQnJzcEhMMUE,English,,4,2015-10-22,Brandt Houssian,,found this on and it is pretty quick,,
QKSMS - Open Source SMS & MMS,Google Play,com.moez.QKSMS,Z3A6QU9xcFRPRjZPcWZfTGM4bGZueG9qVXhHX3NaVEprQmJWbW9WU3VESDQteU5oVlhkWlBPakpiamdSMkNFOG5IQVN3ZS1vRkJwN3h3VEVjQnJzcEhMMUE,English,,4,2015-10-22,Brandt Houssian,,my issue is with the widget,,
QKSMS - Open Source SMS & MMS,Google Play,com.moez.QKSMS,Z3A6QU9xcFRPRjZPcWZfTGM4bGZueG9qVXhHX3NaVEprQmJWbW9WU3VESDQteU5oVlhkWlBPakpiamdSMkNFOG5IQVN3ZS1vRkJwN3h3VEVjQnJzcEhMMUE,English,,4,2015-10-22,Brandt Houssian,,i want to be able to adjust the font size and weight on the font setting do not carry over to the widget,,
QKSMS - Open Source SMS & MMS,Google Play,com.moez.QKSMS,Z3A6QU9xcFRPRjZPcWZfTGM4bGZueG9qVXhHX3NaVEprQmJWbW9WU3VESDQteU5oVlhkWlBPakpiamdSMkNFOG5IQVN3ZS1vRkJwN3h3VEVjQnJzcEhMMUE,English,,4,2015-10-22,Brandt Houssian,,thanks,,
QKSMS - Open Source SMS & MMS,Google Play,com.moez.QKSMS,Z3A6QU9xcFRPRWJESXlqQmR2THNHMVgyVGRMc1V2eHFROUtRUzVOaWY5VUxzblJlRHBNSnJ2c0g3RFFhbkpxTnJ4TE9uTXFhMGVPbmhkbWhURkxRb0NvRnc,English,,4,2015-10-22,Wolf Godie,Incredible app but....,i would give this five star it add feature such a scheduled and the ability to add custom background,,
QKSMS - Open Source SMS & MMS,Google Play,com.moez.QKSMS,Z3A6QU9xcFRPRm9CU2ozRzZTZ2hpNFd4OFBEb0h2MGNuaGI0Y2ttQ2hYMk5KZWZkbVktWWtOTkRxdmhyc3FwYVFteVhmUFdMVE9EREQ2TktVbDFlVzRJQ2c,English,,2,2015-10-22,James Privado,Private Notifications,i will give you complete 5 star you fix the privacy of notification,,
QKSMS - Open Source SMS & MMS,Google Play,com.moez.QKSMS,Z3A6QU9xcFRPRm9CU2ozRzZTZ2hpNFd4OFBEb0h2MGNuaGI0Y2ttQ2hYMk5KZWZkbVktWWtOTkRxdmhyc3FwYVFteVhmUFdMVE9EREQ2TktVbDFlVzRJQ2c,English,,2,2015-10-22,James Privado,Private Notifications,i receive 2 message from different person,,
QKSMS - Open Source SMS & MMS,Google Play,com.moez.QKSMS,Z3A6QU9xcFRPRm9CU2ozRzZTZ2hpNFd4OFBEb0h2MGNuaGI0Y2ttQ2hYMk5KZWZkbVktWWtOTkRxdmhyc3FwYVFteVhmUFdMVE9EREQ2TktVbDFlVzRJQ2c,English,,2,2015-10-22,James Privado,Private Notifications,the first message is private but the content of the second message is shown,,
QKSMS - Open Source SMS & MMS,Google Play,com.moez.QKSMS,Z3A6QU9xcFRPRm9CU2ozRzZTZ2hpNFd4OFBEb0h2MGNuaGI0Y2ttQ2hYMk5KZWZkbVktWWtOTkRxdmhyc3FwYVFteVhmUFdMVE9EREQ2TktVbDFlVzRJQ2c,English,,2,2015-10-22,James Privado,Private Notifications,,,
