App,Store,App ID,Review ID,Country,Version,Rating,Date,Author,Subject,Body,Translated Subject,Translated Body
QKSMS - Open Source SMS & MMS,Google Play,com.moez.QKSMS,Z3A6QU9xcFRPRXJlNEh1VWg3NGtBRC1vSUxuQnNldlhrOG45S3Z0MzEwcDV3Nm9UNFVMT3pRVGtRd2Q0SEFyS1k3Y3RQTlpkM1RfQUxIWWdvZE9lLVhweGc,English,,4,2015-12-21,Kamal Abbas,,please add user name font bold or allow to change,,
QKSMS - Open Source SMS & MMS,Google Play,com.moez.QKSMS,Z3A6QU9xcFRPSGl2cHRGbXNERTN0UEhRVmczdE9INGRabUtLSGVNSWdOWk9mUWRxa2VDM2JWSGZMWVVHcUNzaDNjUG4yQU9fUnNDN0ctSUVRbkxYcVBieUE,English,,2,2015-12-21,Morris Zarifpoor,,you can share image,,
QKSMS - Open Source SMS & MMS,Google Play,com.moez.QKSMS,Z3A6QU9xcFRPSGl2cHRGbXNERTN0UEhRVmczdE9INGRabUtLSGVNSWdOWk9mUWRxa2VDM2JWSGZMWVVHcUNzaDNjUG4yQU9fUnNDN0ctSUVRbkxYcVBieUE,English,,2,2015-12-21,Morris Zarifpoor,,what about sound etc,,
QKSMS - Open Source SMS & MMS,Google Play,com.moez.QKSMS,Z3A6QU9xcFRPRkZvRFAyYy02aWIwaUxENXJrM3M2V0FRSnRtYm04WUg3NGdObWtrd0ZCRnFMS3Y1dHc5TmxJWnVlZlExVW4ybmRjdUVWT0VCVnVuaFFhMFE,English,,4,2015-12-21,Daliana Guerrero,Love the app,would love to see the first letter of a contact avatar instead of a number more than one person in a conversation,,
QKSMS - Open Source SMS & MMS,Google Play,com.moez.QKSMS,Z3A6QU9xcFRPRkZvRFAyYy02aWIwaUxENXJrM3M2V0FRSnRtYm04WUg3NGdObWtrd0ZCRnFMS3Y1dHc5TmxJWnVlZlExVW4ybmRjdUVWT0VCVnVuaFFhMFE,English,,4,2015-12-21,Daliana Guerrero,Love the app,also i get a ha stopped notification pressing reply from notification bar,,
QKSMS - Open Source SMS & MMS,Google Play,com.moez.QKSMS,Z3A6QU9xcFRPSDRVU0w5dElQNFBobU9GbTJLV1JYRTJjM3pVT2IyNDVpWFBEQm90VEJCVUpkWXB4LVFvUVFmMjVydjBJcjFiOU40QlBKb3ZWNVBWelhPV1E,English,,3,2015-12-21,Chengming Wang,Need to work on something,need to work on opening speed and the logo design,,
QKSMS - Open Source SMS & MMS,Google Play,com.moez.QKSMS,Z3A6QU9xcFRPRTh0Nk9aeDNjZHJkYlR0UkxUSU9uQ2tNb01OcWRNN3NTMktCYmZiTEJnZ1BjeE1Cb1IxQWxJOVExZU9FS2R1blpFQWQ2YUVxMGVhZG5uTXc,English,,3,2015-12-21,Asdulla Khan,Decent app 👍,wish there wa more attachment option like voice etc,,
QKSMS - Open Source SMS & MMS,Google Play,com.moez.QKSMS,Z3A6QU9xcFRPRzJ4SVJQdmc4ZldjQ3AzZjMwdFc5LUVwWVNsNENMNkF6dnU5VUppZG5Ub1BLRUdrNzMxblN1Uk1VRzY0bVMxTV82MUlzR1kyRlE5SS0zNHc,English,,5,2015-12-21,Ember Fox,Much more responsive than the stock app,this deal with lot of text and ha no problem with performance,,
QKSMS - Open Source SMS & MMS,Google Play,com.moez.QKSMS,Z3A6QU9xcFRPRzJ4SVJQdmc4ZldjQ3AzZjMwdFc5LUVwWVNsNENMNkF6dnU5VUppZG5Ub1BLRUdrNzMxblN1Uk1VRzY0bVMxTV82MUlzR1kyRlE5SS0zNHc,English,,5,2015-12-21,Ember Fox,Much more responsive than the stock app,being able to get text over my lock screen is also great,,
QKSMS - Open Source SMS & MMS,Google Play,com.moez.QKSMS,Z3A6QU9xcFRPRzBjbVkwX0wySTFKZVlfTGxnU1h6NFJ0MFIzRGFEMVRfTEhxN3VaeUhOUDRseXJHSzVVSHFDUDA3MDJJMkpydlVMMjctcnVOc2laN3RKb1E,English,,4,2015-12-21,Traian Dorin,Thanks for the improvement of baterry usage,too much battery usage,,
QKSMS - Open Source SMS & MMS,Google Play,com.moez.QKSMS,Z3A6QU9xcFRPRzBjbVkwX0wySTFKZVlfTGxnU1h6NFJ0MFIzRGFEMVRfTEhxN3VaeUhOUDRseXJHSzVVSHFDUDA3MDJJMkpydlVMMjctcnVOc2laN3RKb1E,English,,4,2015-12-21,Traian Dorin,Thanks for the improvement of baterry usage,smart ultra 6,,
QKSMS - Open Source SMS & MMS,Google Play,com.moez.QKSMS,Z3A6QU9xcFRPRzBjbVkwX0wySTFKZVlfTGxnU1h6NFJ0MFIzRGFEMVRfTEhxN3VaeUhOUDRseXJHSzVVSHFDUDA3MDJJMkpydlVMMjctcnVOc2laN3RKb1E,English,,4,2015-12-21,Traian Dorin,Thanks for the improvement of baterry usage,stock 502,,
QKSMS - Open Source SMS & MMS,Google Play,com.moez.QKSMS,Z3A6QU9xcFRPRzBjbVkwX0wySTFKZVlfTGxnU1h6NFJ0MFIzRGFEMVRfTEhxN3VaeUhOUDRseXJHSzVVSHFDUDA3MDJJMkpydlVMMjctcnVOc2laN3RKb1E,English,,4,2015-12-21,Traian Dorin,Thanks for the improvement of baterry usage,sent 100 text and over 50 of battery is gone,,
