App,Store,App ID,Review ID,Country,Version,Rating,Date,Author,Subject,Body,Translated Subject,Translated Body
Mensa Balance,Google Play,de.yazo_games.mensaguthaben,Z3A6QU9xcFRPSENZMWNEdDNQZFRmaEpYRUlqRmdYMjJpUFBPYXB3ZzRlbzI1b3RHNHhPX29WTXBSOFFHazRtdjM5Z09pY2xQQnBJSzVlUnpkOTZ6ZzhpZldJ,English,,2,2015-04-24,GooglePlus Hater,working but crashes,crash almost every time i hold the card against the phone it need a couple of,,
Mensa Balance,Google Play,de.yazo_games.mensaguthaben,Z3A6QU9xcFRPSENZMWNEdDNQZFRmaEpYRUlqRmdYMjJpUFBPYXB3ZzRlbzI1b3RHNHhPX29WTXBSOFFHazRtdjM5Z09pY2xQQnBJSzVlUnpkOTZ6ZzhpZldJ,English,,2,2015-04-24,GooglePlus Hater,working but crashes,display current balance 2 star,,
Mensa Balance,Google Play,de.yazo_games.mensaguthaben,Z3A6QU9xcFRPRTlyUlpGaGN2VmJoWWJpQ21JVGE4TUVuNlZtWHFxdUFTbmU4WWNuOWQxLTZFaGZjYlE4T2pRSk9zeG5odV9QZDFEN0R2UzJkLWhsckRtM2RJ,English,,4,2015-03-25,Henning Brune,Schöne Sache,den terminal den an,,
Mensa Balance,Google Play,de.yazo_games.mensaguthaben,Z3A6QU9xcFRPRlBkOFVXb3RXaUVERkx6WnhfUXpaQ1E1dldfOUpkQkpUcTNaRVk0YVcycnZOcmp4elJOajNEeXRDNXRfeXduQ3VYeXZWeXQxXzZDa252X2lZ,English,,5,2014-12-20,,,thanks again for this,,
Mensa Balance,Google Play,de.yazo_games.mensaguthaben,Z3A6QU9xcFRPSHdxekJaX0gydkFyYjRXUXJFRTAtQ0IwQWtXbllFWE1iZXRBN2tFSERVWjV0a19RMWZIMUNYOUlMTFZRY2R4NWgxSVF4X1ZIZk1uN0xKRzBN,English,,1,2014-11-16,Andreas Fritsch,,tut nix,,
Mensa Balance,Google Play,de.yazo_games.mensaguthaben,Z3A6QU9xcFRPR2pHMVBuRlpFYkxPVFBBSUx1cnd2emtDeXcwM1ZjSFRZZ1pYMjJUcFlMVGxFOTI1Zk1WT3lYM0YyeHlVbnRDeWUwaUtUY0VaRF9tUWgtUkVR,English,,2,2014-10-14,Michael Macha,Neuer support bitte,,,
