package,release ID,UI element,related topic,average polarity,# reviews,average rating,average objectivity,# uninstalls,delta rating,element deleted next release
net.fred.feedex,v1.6.4,@+id/about_content$,1399,0.31717171717171716,1,5.0,0.45075757575757575,0,0.5750000000000002,0
net.fred.feedex,v1.6.4,@+id/applyContentRadio$filter_apply_to_content,1405,0.31717171717171716,1,5.0,0.45075757575757575,0,0.5750000000000002,0
net.fred.feedex,v1.6.4,@+id/name_textview$feed_title,1409,0.31717171717171716,1,5.0,0.45075757575757575,0,0.5750000000000002,0
