package,release ID,UI element,related topic,average polarity,# reviews,average rating,average objectivity,# uninstalls,delta rating,element deleted next release
net.fred.feedex,v1.8.0,@+id/hide_read_button$,811,0.20625000000000002,1,4.0,0.19374999999999998,0,-0.3781512605042021,0
net.fred.feedex,v1.8.0,@+id/retrieve_fulltext$get_full_text,817,0.20625000000000002,1,4.0,0.19374999999999998,0,-0.3781512605042021,0
net.fred.feedex,v1.8.0,@+id/filterText$,821,0.20625000000000002,1,4.0,0.19374999999999998,0,-0.3781512605042021,0
net.fred.feedex,v1.8.0,@+id/cb_science$google_news_science,829,0.20625000000000002,1,4.0,0.19374999999999998,0,-0.3781512605042021,0
net.fred.feedex,v1.8.0,@+id/cb_science$google_news_science,826,-0.006249999999999996,1,5.0,0.35000000000000003,0,0.6218487394957979,0
net.fred.feedex,v1.8.0,@+id/cb_sports$google_news_sports,831,0.20625000000000002,1,4.0,0.19374999999999998,0,-0.3781512605042021,0
net.fred.feedex,v1.8.0,@+id/cb_sports$google_news_sports,832,-0.006249999999999996,1,5.0,0.35000000000000003,0,0.6218487394957979,0
net.fred.feedex,v1.8.0,@+id/cb_entertainment$google_news_entertainment,836,0.20625000000000002,1,4.0,0.19374999999999998,0,-0.3781512605042021,0
net.fred.feedex,v1.8.0,@+id/cb_entertainment$google_news_entertainment,837,-0.006249999999999996,1,5.0,0.35000000000000003,0,0.6218487394957979,0
net.fred.feedex,v1.8.0,@string/google_news_indicator$,844,0.20625000000000002,1,4.0,0.19374999999999998,0,-0.3781512605042021,0
net.fred.feedex,v1.8.0,@string/google_news_indicator$,843,-0.006249999999999996,1,5.0,0.35000000000000003,0,0.6218487394957979,0
net.fred.feedex,v1.8.0,@+id/cb_top_stories$google_news_top_stories,847,0.20625000000000002,1,4.0,0.19374999999999998,0,-0.3781512605042021,0
net.fred.feedex,v1.8.0,@+id/cb_top_stories$google_news_top_stories,848,-0.006249999999999996,1,5.0,0.35000000000000003,0,0.6218487394957979,0
net.fred.feedex,v1.8.0,@+id/cb_world$google_news_world,854,0.20625000000000002,1,4.0,0.19374999999999998,0,-0.3781512605042021,0
net.fred.feedex,v1.8.0,@+id/cb_world$google_news_world,851,-0.006249999999999996,1,5.0,0.35000000000000003,0,0.6218487394957979,0
net.fred.feedex,v1.8.0,@+id/cb_health$google_news_health,858,0.20625000000000002,1,4.0,0.19374999999999998,0,-0.3781512605042021,0
net.fred.feedex,v1.8.0,@+id/cb_health$google_news_health,856,-0.006249999999999996,1,5.0,0.35000000000000003,0,0.6218487394957979,0
net.fred.feedex,v1.8.0,@+id/cb_technology$google_news_technology,861,0.20625000000000002,1,4.0,0.19374999999999998,0,-0.3781512605042021,0
net.fred.feedex,v1.8.0,@+id/cb_technology$google_news_technology,862,-0.006249999999999996,1,5.0,0.35000000000000003,0,0.6218487394957979,0
net.fred.feedex,v1.8.0,@+id/cb_business$google_news_business,867,0.20625000000000002,1,4.0,0.19374999999999998,0,-0.3781512605042021,0
net.fred.feedex,v1.8.0,@+id/cb_business$google_news_business,869,-0.006249999999999996,1,5.0,0.35000000000000003,0,0.6218487394957979,0
net.fred.feedex,v1.8.0,@+id/feed_ticker_circle$,872,0.41481481481481475,1,4.0,0.6796296296296296,0,-0.3781512605042021,0
net.fred.feedex,v1.8.0,@+id/favorite_icon$,876,0.41481481481481475,1,4.0,0.6796296296296296,0,-0.3781512605042021,0
net.fred.feedex,v1.8.0,@+id/main_icon$,882,0.41481481481481475,1,4.0,0.6796296296296296,0,-0.3781512605042021,0
net.fred.feedex,v1.8.0,@+id/refreshListBtn$,886,0.41481481481481475,1,4.0,0.6796296296296296,0,-0.3781512605042021,0
net.fred.feedex,v1.8.0,@+id/feed_icon$,891,0.41481481481481475,1,4.0,0.6796296296296296,0,-0.3781512605042021,1
net.fred.feedex,v1.8.0,@+id/about_icon$,897,0.41481481481481475,1,4.0,0.6796296296296296,0,-0.3781512605042021,1
net.fred.feedex,v1.8.0,@android:id/icon$,902,0.41481481481481475,1,4.0,0.6796296296296296,0,-0.3781512605042021,0
net.fred.feedex,v1.8.0,@+id/entries_list_fragment$,909,0.10714285714285714,1,5.0,0.5224489795918367,0,0.6218487394957979,0
net.fred.feedex,v1.8.0,@+id/entry_fragment$,913,0.10714285714285714,1,5.0,0.5224489795918367,0,0.6218487394957979,0
net.fred.feedex,v1.8.0,@android:id/empty$no_entries,919,0.10714285714285714,1,5.0,0.5224489795918367,0,0.6218487394957979,0
