update maven libs and use fixed version,b,2014/4/18,,
translation from,o,2014/4/18,,
do not show lookup button in decrypt activity for,f,2014/4/18,,
small language correction,f,2014/4/18,,
fix button,b,2014/4/18,,
26,b,2014/4/17,,
remove kill hack in,b,2014/4/17,,
remove hack in,b,2014/4/17,,
get rid of close 575,b,2014/4/17,,
for all method,o,2014/4/17,,
load data once in fix 571,b,2014/4/17,,
use project icon for certification status close 573,b,2014/4/17,,
update comment in,b,2014/4/17,,
fix even more whitespace,b,2014/4/16,,
fix more whitespace,b,2014/4/16,,
fix whitespace,b,2014/4/16,,
update fix,b,2014/4/16,,
fix,b,2014/4/16,,
stripped support implement support in and of secret key close 570,b,2014/4/16,,
stripped support add column to key table,f,2014/4/16,,
clarify comment,b,2014/4/16,,
version 26,b,2014/4/16,,
comment,b,2014/4/16,,
handle new exception in remote service,b,2014/4/16,,
fix,b,2014/4/16,,
fix in,b,2014/4/15,,
optimize import,f,2014/4/15,,
fix in,b,2014/4/15,,
center of cert fragment close 566,b,2014/4/15,,
improve verification result display close 568,b,2014/4/15,,
encapsulate creation of object inside to better constraint it output processing with,f,2014/4/15,,
some comment to constant,b,2014/4/14,,
cleanup,b,2014/4/14,,
move old to,b,2014/4/11,,
translation from,o,2014/4/14,,
fix,b,2014/4/14,,
rework,o,2014/4/13,,
implement in,b,2014/4/13,,
more change to,b,2014/4/12,,
more id removed,f,2014/4/11,,
is now,o,2014/4/11,,
put it belongs,o,2014/4/11,,
is now,o,2014/4/11,,
merge into main method,b,2014/4/11,,
get by master key id,o,2014/4/11,,
more cleanup in,b,2014/4/11,,
prettify,o,2014/4/11,,
prettify more layout,o,2014/4/11,,
split for the remaining use case close 549,b,2014/4/11,,
get rid of more usage work on,b,2014/4/11,,
fix,b,2014/4/11,,
cleanup close 547,b,2014/4/10,,
disable selection of user id and key in view key,f,2014/4/10,,
cleanup code for,b,2014/4/10,,
cleanup import,f,2014/4/10,,
integrate functionality into,b,2014/4/10,,
deleted wrong,b,2014/4/10,,
temporary disable of master key id extraction from,f,2014/4/09,,
prettify some layout,o,2014/4/09,,
fix for lint,b,2014/4/09,,
fix,b,2014/4/09,,
replaced toast in,b,2014/4/09,,
removed unused toast import in,f,2014/4/08,,
replaced toast in,b,2014/4/08,,
cleanup in,b,2014/4/09,,
hide keyboard hiding custom key length field,f,2014/4/09,,
instead of,b,2014/4/09,,
fix decrypt and send intent,b,2014/4/09,,
use in more place,o,2014/4/08,,
introduce remove dead code,b,2014/4/08,,
added possibility to enter custom key length,f,2014/4/07,,
fixed bug on window,b,2014/4/06,,
comment out due to bug on window,b,2014/4/06,,
license clarification in,f,2014/4/06,,
show key expiry status similar to revocation,f,2014/4/06,,
update,b,2014/4/06,,
update link,b,2014/4/06,,
update,b,2014/4/06,,
update,b,2014/4/06,,
rename folder structure from to,f,2014/4/06,,
pull from,o,2014/4/06,,
optimize comment remove dead code,b,2014/4/06,,
code style,o,2014/4/06,,
cert remove unused menu item,b,2014/4/06,,
cert display green dot for certified key in,o,2014/4/06,,
the number of ring with an expiration in a cert out there is likely negligible,b,2014/4/06,,
now verifies the key and display a status,f,2014/4/06,,
cert fix,b,2014/4/06,,
cert display cert type in cert view,b,2014/4/06,,
cert display status in list,f,2014/4/06,,
cert properly handle primary flag and revocation of,b,2014/4/06,,
use in,o,2014/4/05,,
fix make edit activity like a modal dialog move all menu action into view activity,b,2014/4/05,,
cert various improvement recognize save signature type save expiry time drop encoded data blob from db,b,2014/4/05,,
cert more fix almost working now,b,2014/4/05,,
change header in encrypt activity to be more descriptive,b,2014/4/04,,
cleanup,b,2014/4/04,,
calculate packet on demand,o,2014/4/04,,
fix loading indicator in and,b,2014/4/04,,
title for,o,2014/4/03,,
simplify,o,2014/4/03,,
demo 3,b,2014/4/03,,
version 25,f,2014/4/03,,
update from,b,2014/4/03,,
,o,2014/4/03,,
key lookup for,o,2014/4/03,,
key lookup for,o,2014/4/03,,
implement,b,2014/4/03,,
cleanup,b,2014/4/03,,
clarify,o,2014/4/03,,
also database redesign,f,2014/4/03,,
change entire database design,b,2014/4/03,,
some feature have been simply commented out for now they need serious reconsideration,o,2014/4/03,,
