handle,b,2013/9/08,,
use handler with messenger instead of binder for communication between service and activity,b,2013/9/08,,
lock thread for user input,b,2013/9/08,,
handle entering correctly,b,2013/9/08,,
sign via,b,2013/9/08,,
select pub key email could not be found,o,2013/9/08,,
make select fragment more reusable,f,2013/9/08,,
put method in helper,b,2013/9/08,,
change icon of demo for differentiation with main,b,2013/9/06,,
preparation for other setting,b,2013/9/06,,
sign and encrypt basically working,b,2013/9/06,,
update and about screen,b,2013/9/06,,
relicensing from apache license to,f,2013/9/06,,
this is only done on class or,o,2013/9/06,,
code by and remain apache license,f,2013/9/06,,
use instead of on activity,f,2013/9/06,,
always use instead of,b,2013/9/06,,
fix permission check,b,2013/9/06,,
testing encrypt by service,b,2013/9/06,,
register work basically,b,2013/9/06,,
remove dead code,b,2013/9/06,,
put logic into fragment for reuse,b,2013/9/06,,
adapter with icon,b,2013/9/06,,
select key for,o,2013/9/06,,
fix revoke and save,b,2013/9/05,,
rename consumer to,b,2013/9/05,,
show name in registered,b,2013/9/04,,
fix wording,b,2013/8/15,,
fix build,b,2013/8/15,,
type is set to so encrypted message can be sent with hangout etc,b,2013/8/09,,
implemented issue 53 change intent action from extra to intent action,b,2013/7/23,,
issue 61 unable to upload public key to,b,2013/7/22,,
issue 41 and 43,b,2013/7/22,,
implement issue 55,b,2013/7/22,,
implemented issue 56,b,2013/7/22,,
restructure,o,2013/7/01,,
more work on consumer,b,2013/7/01,,
add database column for consumer preference,f,2013/6/18,,
some fix all over,b,2013/6/17,,
better demo open activity from service discover provider with instead of register intent,b,2013/6/17,,
rename to,o,2013/5/29,,
check is needed in extend documentation,b,2013/5/29,,
update,b,2013/5/28,,
provider implementation start,b,2013/5/28,,
wrapper,o,2013/5/25,,
wrapper,o,2013/5/25,,
better version check wrapper,b,2013/5/25,,
check version building,b,2013/5/25,,
update for,b,2013/5/25,,
move lib add build file,f,2013/5/25,,
enable changing for,b,2013/5/13,,
use forked to speed up secret key import,f,2013/5/13,,
use forked to speed up secret key import,f,2013/5/13,,
describe,b,2013/3/20,,
sign key if private key ha capability,o,2013/3/19,,
change how empty private happen speed thing up,b,2013/3/18,,
correctly encrypt using symmetric key sign box checked,b,2013/3/15,,
fix issue 42,b,2013/3/14,,
fixed bug in secret key selection fragment it wa displaying public key,b,2013/2/26,,
extra for database broadcast,b,2013/1/19,,
error handling keyring is not found,b,2013/1/18,,
new import icon,b,2013/1/17,,
rename intent action to use keyring instead of key,f,2013/1/17,,
description and,o,2013/1/16,,
fix intent filter for service,b,2013/1/16,,
rename fix,b,2013/1/16,,
renaming to,o,2013/1/16,,
make thread safe,o,2013/1/10,,
,o,2013/1/08,,
fix update integration lib,b,2013/1/08,,
exporting secret also export public part,b,2013/1/08,,
improved import with preview of,f,2013/1/08,,
externalize all import action into,f,2013/1/07,,
fix bug on android 42 with especially with,b,2013/1/06,,
update,b,2013/1/03,,
fix referencing of,b,2012/12/26,,
fix,b,2012/12/21,,
support fragment in lib bug fix,b,2012/12/21,,
license into,f,2012/12/19,,
fix for email query add new email query with like,b,2012/12/16,,
change,b,2012/12/14,,
change,b,2012/12/12,,
update,b,2012/12/12,,
changed layout to have source on bottom in encrypt and decrypt fix for decrypt method,b,2012/11/22,,
update,b,2012/11/19,,
fix work new fix and test,b,2012/11/19,,
fix conflict between internal and external provider on android 41,b,2012/11/19,,
fix link to lib,b,2012/11/19,,
changed location of lib,b,2012/11/19,,
fix,b,2012/11/18,,
permission check not for own,b,2012/11/17,,
implemented security model,b,2012/11/16,,
wrote security concept,o,2012/11/15,,
removed deprecated code reworked service blob provider,b,2012/11/15,,
fix decrypt by searching for secret key based on not new for,b,2012/11/14,,
removed check again a of is working again,b,2012/11/02,,
and fix,b,2012/11/02,,
improvement workaround for jelly bean bug,b,2012/11/01,,
select secret key,o,2012/11/01,,
better help screen,b,2012/10/31,,
small improvement,f,2012/10/31,,
remove adding them again,o,2012/10/31,,
fixing and extending content provider update and delete,b,2012/10/31,,
removed unused code fixed certification bug editing existing key,b,2012/10/31,,
fix crash in by changing from different child layout to one which is changed on the fly in,b,2012/10/31,,
is working basically provider,b,2012/10/30,,
more work on content provider,o,2012/10/28,,
more provider helper method,b,2012/9/20,,
started restructuring provider and database,b,2012/9/18,,
code cleanup,b,2012/9/13,,
fixed user id bug restructured code,b,2012/9/13,,
intent improvement,f,2012/9/12,,
better definition of intent filter to open from file manager,f,2012/9/12,,
improved comment,b,2012/9/12,,
started on file ending problem,o,2012/9/12,,
fix preference,b,2012/9/12,,
fix for cache implementation,b,2012/9/12,,
new reworked password dialog,b,2012/9/11,,
fix refactoring,b,2012/9/11,,
fix cleanup,b,2012/9/10,,
started working on signing,b,2012/9/10,,
simplified use of with,o,2012/9/10,,
query key externalized into service,o,2012/9/10,,
qr code scanning basically work,b,2012/9/10,,
removed commented deprecated code,b,2012/9/08,,
new lib to fix,b,2012/9/08,,
fix signature view cleanup,b,2012/9/08,,
dialog for setting is now in a fragment,b,2012/9/05,,
debugging,o,2012/6/20,,
merging action in,o,2012/6/20,,
backward compatible extra restructuring,b,2012/6/20,,
log wrapper and update,b,2012/6/20,,
fixed more deprecation warning,b,2012/6/20,,
working on decrypt and,o,2012/6/20,,
fix for symmetric encryption check and securely deleting reworked,b,2012/6/19,,
fix,b,2012/6/14,,
imported old,o,2012/6/14,,
new qr code icon,b,2012/6/11,,
code cleanup and fix for encrypt,b,2012/6/09,,
fix for empty,b,2012/6/09,,
much work on,o,2012/6/09,,
code cleanup,b,2012/4/25,,
intent to create default key pair,f,2012/4/25,,
reworking,o,2012/4/25,,
externalizing code into service,b,2012/4/25,,
402,o,2012/4/20,,
started working on dialog,o,2012/4/20,,
changing package name back,b,2012/4/14,,
intent to create key with default keyring,f,2012/4/14,,
new icon and,b,2012/4/13,,
started reworking the key creation,o,2012/4/12,,
min,b,2012/4/11,,
integration lib and demo,f,2012/4/11,,
license header,f,2012/3/22,,
started working on demo,o,2012/3/22,,
,o,2012/3/12,,
,o,2012/3/12,,
,o,2012/3/12,,
help activity,o,2012/3/12,,
refactoring,o,2012/3/12,,
constantly modernizing the,b,2012/3/12,,
further development,o,2012/3/12,,
started implementation of dashboard design pattern,o,2012/3/11,,
dropping support mail support is more important in any c support is not working a of android 23 and later,b,2012/3/10,,
renaming permission and,b,2012/3/10,,
can now be build with ant,f,2012/3/10,,
changed directory structure to match default,b,2012/3/10,,
small change,b,2012/3/10,,
new icon new about dialog some,b,2012/3/09,,
renaming whole package to name,b,2012/3/09,,
fix to clipboard management,b,2012/3/09,,
this is opened a file by and to,o,2011/11/04,,
with the ha an own can be used like mentioned above,b,2011/11/04,,
this is,o,2011/11/04,,
ha been updated accordingly and can handle blob with and,b,2011/11/04,,
is a really easy way to large data,o,2011/11/04,,
note encrypting by blob should only be used for large file,b,2011/11/04,,
on all other case the data should be passed a string through the no temporary file must be created,b,2011/11/04,,
see for a complete example of how to connect to the and use it,b,2011/11/04,,
or use it in your own project,o,2011/11/04,,
the project moving all,o,2011/10/06,,
this way multiple people need to maintain version of,b,2011/10/06,,
upgraded to target,b,2011/9/11,,
documentation update of,b,2011/6/05,,
cleanup of code renamed,b,2011/6/05,,
possibility to not compile and in,o,2011/6/05,,
little better for of,o,2011/5/18,,
applied proposed patch by for issue 99,b,2011/3/19,,
string fix in it and no version,b,2011/2/05,,
log the android way,b,2011/1/25,,
allow to retrieve connection status this tell a connection to might be possible,b,2011/1/23,,
remove result and warning from result some more debug output too,b,2011/1/23,,
change the way the complete result can be retrieved,b,2011/1/23,,
not very tested,o,2011/1/23,,
work on error and documentation more,b,2011/1/20,,
some better error also some,b,2011/1/20,,
redefine some,o,2011/1/20,,
print some info about key on asymmetric encryption,f,2011/1/20,,
exception,o,2011/1/20,,
some more error output,b,2011/1/20,,
some better error some smaller fix and some new too,b,2011/1/20,,
fix wrong in doc,b,2011/1/20,,
allow execution of an call can now be executed,o,2011/1/19,,
callback method are supported too,o,2011/1/19,,
first try with,b,2011/1/19,,
check for version and this print out error on console cannot work with the help,b,2011/1/18,,
it will initialize correctly though,b,2011/1/18,,
update to reflect new argument name in addition redesign the comment a little bit,b,2011/1/18,,
more error,b,2011/1/18,,
some log,b,2011/1/18,,
update,b,2011/1/17,,
allow to sign and specify on decrypting,b,2011/1/17,,
update version information to reflect branch,b,2011/1/17,,
add asymmetric encryption,f,2011/1/13,,
prepare for enc and clean up,o,2011/1/13,,
actually check for unknown for function,b,2011/1/11,,
prevent null pointer exception should be better though,f,2011/1/11,,
make some thing static should speed up encryption or better doe not make encryption using slower using directly,b,2011/1/11,,
document new in,o,2011/1/09,,
reset error calling make some var final minor cleanup,b,2011/1/09,,
remove weird line,b,2011/1/09,,
in addition it completely around all input and output,b,2011/1/05,,
remove forgotten line,b,2011/1/04,,
add connection helper for other project this eas using the and is the recommended way for other project to implement the connection,b,2011/1/04,,
allow to regenerate shared preference merge of to trunk,f,2010/12/30,,
allow to regenerate shared preference i encountered a problem changing preference in did not change the preference in after it wa called once 1 call 2 change setting in 3 call again the result at 3 wa still having preference from 1,b,2010/12/30,,
to work around this the function ha been updated to force the new generation of preference not breaking any other code relying on the old,b,2010/12/30,,
remove weird char at the beginning of,b,2010/12/29,,
fix wrong placed backslash,b,2010/12/29,,
add first basic implementation of provides an for other to encrypt and decrypt a string symmetrically with a,f,2010/12/29,,
function name and is by no way finalized and will change,b,2010/12/29,,
support for will follow,b,2010/12/29,,
allow to be null no need to force people to use,b,2010/12/29,,
6,o,2010/12/26,,
trunk lifted to next beta version,f,2010/12/25,,
button using an intent with or fix issue 67,b,2010/12/25,,
added an intent and functionality to generate detached signature,b,2010/12/25,,
string fix,b,2010/12/22,,
apostrophe fix in a,b,2010/12/22,,
497,o,2010/12/08,,
start for if is used rather,b,2010/9/26,,
testing in,o,2010/9/12,,
catch null pointer exception the private key cannot be extracted also prevent such key from getting imported so the error message should never be encountered anyway fix issue 66,b,2010/9/10,,
trivial variable renaming,b,2010/8/31,,
change to translation,b,2010/8/22,,
enabled changed build target to level 8 for this fix issue 65,b,2010/8/18,,
starting new for beta build show on release build,f,2010/8/18,,
considering this issue fixed now,b,2010/8/18,,
moved to,o,2010/8/17,,
properly the file can be found fix issue 63,b,2010/8/17,,
added initial support for key server allowing searching and key import update issue 9 can search a key server now touch a result to import the key,b,2010/8/17,,
merge conflict fixed,b,2010/8/15,,
minor key,o,2010/8/12,,
apostrophe fix in translation,b,2010/7/30,,
mored translation to language added,f,2010/7/25,,
you need some key,o,2010/7/24,,
,o,2010/7/24,,
added secure file deletion overwriting the file with random data actual deletion update issue 56 added a method for secure file deletion,b,2010/7/24,,
i wanted to add an option at first but this seems reasonably fast and in general it should be what the user want so for now it will always securely delete,f,2010/7/24,,
small translation change,b,2010/7/22,,
added a language setting to change the language directly,b,2010/7/18,,
fixed two variable name,b,2010/7/18,,
set to for all file,o,2010/7/16,,
some small change in translation,b,2010/7/08,,
added some info about the speed of compression algorithm mostly to warn about also added support for content in file activity,b,2010/7/05,,
some fix among string,b,2010/6/22,,
much better version reading by directly looking for the package rather looping through all installed package,b,2010/6/18,,
removed an outdated comment,b,2010/6/17,,
using proper now tho the underlying storage of the value remained almost the same some change how the preference are accessed and how the cache service is started,b,2010/6/17,,
recent change into trunk,b,2010/6/17,,
update to translation,b,2010/6/10,,
lift trunk to 103,o,2010/6/08,,
in the encrypt activity automatically select the signature key a encryption key it is set and if the button is pressed,f,2010/6/07,,
content provider change especially querying key ring by email,b,2010/6/06,,
some activity intent filter cleanup pas message via string rather avoid some encoding issue,b,2010/6/06,,
working of text and file hand it over,o,2010/6/06,,
added search to option menu and make it pop up key on the physical keyboard are pressed,f,2010/6/05,,
added search feature for key management and select activity,f,2010/6/05,,
fix the list for account,b,2010/6/04,,
lifted to new version,f,2010/6/03,,
change adjusted more,b,2010/6/03,,
change adjusted,b,2010/6/02,,
some small,o,2010/6/02,,
trivial,o,2010/6/02,,
force message view the activity are called via intent,b,2010/6/02,,
store the information the intent demand an immediate return check action equality without verbose null check,b,2010/6/02,,
support and others for the file selection,o,2010/6/01,,
deliver the user id a well for secret key selection can use it to display the signature key,f,2010/6/01,,
working encryption out of,o,2010/6/01,,
update translation to,b,2010/5/30,,
some new string some dropped,b,2010/5/30,,
fixed a method name,b,2010/5/29,,
trivial,o,2010/5/28,,
fully removed old for now manage query clean up old database stuff,o,2010/5/28,,
some coding practice and potential bug fix,b,2010/5/27,,
some coding practice and potential bug fix,b,2010/5/27,,
use new key database for encryption and decryption,f,2010/5/26,,
give branch it version info,f,2010/5/21,,
preparing for version 097,f,2010/5/20,,
preparing for version 097,f,2010/5/20,,
promoted to next version,f,2010/5/19,,
keep track of the position the input stream for decryption make it possible to give accurate progress information,o,2010/5/17,,
default compression setting added also a setting for file decryption to change the default a file requires it,b,2010/5/16,,
unused import removed,f,2010/5/15,,
password cache introduced not cleared yet,b,2010/5/15,,
log removal and such,b,2010/5/11,,
brought change log up to date,b,2010/5/11,,
setting the min version to 15 it now should work for all android version 15,b,2010/5/11,,
fix a signature bug which resulted in wrongly read signature if there wa one line,b,2010/5/11,,
merged and into one well,o,2010/5/11,,
removal of old layout,o,2010/5/09,,
new to handle message and file encryption all in one,b,2010/5/09,,
minor,b,2010/5/09,,
reset for 094,b,2010/5/04,,
give decryption a moving progress bar for a data of unknown size,b,2010/5/04,,
close stream more consistently force a new output filename guess the state change,b,2010/5/04,,
use buffer for encryption large file work a well also showing encryption progress with better accuracy which is especially useful for large encryption fix issue 18,b,2010/5/04,,
recognize and key correctly which fix the problem,b,2010/4/29,,
file encrypt layout entirely rewritten should be much more and work on more device changed message encrypt layout to match,b,2010/4/26,,
set branch to next version reset,f,2010/4/24,,
choose the nearest prime for rather the next lowest,b,2010/4/24,,
support added fix of some minor bug added a bunch of safe prime for key creation,b,2010/4/24,,
reset for 091,b,2010/4/24,,
version lifted to 091,f,2010/4/24,,
swapped the button in main activity reasoning that message is more likely file encryption so they are at the bottom,b,2010/4/24,,
layout adjustment force portrait layout for now can now handle symmetric algorithm,b,2010/4/23,,
detail for 081,o,2010/4/15,,
minor layout fix replace non breakable space found in an encrypted armored message a they break the decryption the representation of introduces them for empty line ending in a normal space also adjusted the to allow for space after the which seems to be added by some implementation,b,2010/4/15,,
branch promoted to version 081 fixed list view of mail account not filling the main layout made a bunch of private class static,b,2010/4/14,,
