,o,2013-12-28,Vexxum K,5
give detail of network,b,2013-12-26,Dago Tshering,5
can be used for wireless environment also,b,2013-12-26,Dago Tshering,5
very nice application,o,2013-12-26,Dago Tshering,5
exactly what it thanks,o,2013-12-22,Jet Overboard,5
the ability to upload to drive is just icing on the cake,b,2013-11-16,TerraNovaMCers,5
