App,Store,App ID,Review ID,Country,Version,Rating,Date,Author,Subject,Body,Translated Subject,Translated Body
Simon Tatham's Puzzles,Google Play,name.boyle.chris.sgtpuzzles,Z3A6QU9xcFRPSHdqejBCR3o4eFFUbVhsOGpYSmZEd3lyaWlPcVdpbjRLdHplSWVzeHRMTFhHR1dMeVptVGh1a3hKV21JUnpFQ0F1T0RQaHVtdmJTTG9yalE,English,,5,2014-10-25,Aleksey Pirogov,Пользую с доандроидных времён!,android,,
Simon Tatham's Puzzles,Google Play,name.boyle.chris.sgtpuzzles,Z3A6QU9xcFRPRTV0NC1FNlExTUlHVG9LX01kOWFPOXhhNzFrRFcxcGdrTjFtZDdGRlpJZFlVVjFuZVFzbUVoemtSaXZoYVIyVEE2YkFTdG8wdkQ3VnJmQ2c,English,,5,2014-10-25,Christopher Lewis,,lot of fun,,
Simon Tatham's Puzzles,Google Play,name.boyle.chris.sgtpuzzles,Z3A6QU9xcFRPRnB6eVR6VTNHMW1ZY3RoeE9VRmJ6U0NhWUdZVk91OUFWZlFqeTZwQURRd0hhdWdHSXZKZVAxYWhKZjZGU1lmaWFxQjRuaVZERlVmaG9FMVE,English,,5,2014-10-25,Devin Hussey,Addicting!,this i first found on,,
Simon Tatham's Puzzles,Google Play,name.boyle.chris.sgtpuzzles,Z3A6QU9xcFRPRnB6eVR6VTNHMW1ZY3RoeE9VRmJ6U0NhWUdZVk91OUFWZlFqeTZwQURRd0hhdWdHSXZKZVAxYWhKZjZGU1lmaWFxQjRuaVZERlVmaG9FMVE,English,,5,2014-10-25,Devin Hussey,Addicting!,i really liked especially the net and untangle my favorite,,
Simon Tatham's Puzzles,Google Play,name.boyle.chris.sgtpuzzles,Z3A6QU9xcFRPRnB6eVR6VTNHMW1ZY3RoeE9VRmJ6U0NhWUdZVk91OUFWZlFqeTZwQURRd0hhdWdHSXZKZVAxYWhKZjZGU1lmaWFxQjRuaVZERlVmaG9FMVE,English,,5,2014-10-25,Devin Hussey,Addicting!,i wa curious the wa on the play which it wa,,
Simon Tatham's Puzzles,Google Play,name.boyle.chris.sgtpuzzles,Z3A6QU9xcFRPRnB6eVR6VTNHMW1ZY3RoeE9VRmJ6U0NhWUdZVk91OUFWZlFqeTZwQURRd0hhdWdHSXZKZVAxYWhKZjZGU1lmaWFxQjRuaVZERlVmaG9FMVE,English,,5,2014-10-25,Devin Hussey,Addicting!,and got a beta,,
Simon Tatham's Puzzles,Google Play,name.boyle.chris.sgtpuzzles,Z3A6QU9xcFRPRnB6eVR6VTNHMW1ZY3RoeE9VRmJ6U0NhWUdZVk91OUFWZlFqeTZwQURRd0hhdWdHSXZKZVAxYWhKZjZGU1lmaWFxQjRuaVZERlVmaG9FMVE,English,,5,2014-10-25,Devin Hussey,Addicting!,loved it,,
Simon Tatham's Puzzles,Google Play,name.boyle.chris.sgtpuzzles,Z3A6QU9xcFRPRnB6eVR6VTNHMW1ZY3RoeE9VRmJ6U0NhWUdZVk91OUFWZlFqeTZwQURRd0hhdWdHSXZKZVAxYWhKZjZGU1lmaWFxQjRuaVZERlVmaG9FMVE,English,,5,2014-10-25,Devin Hussey,Addicting!,five star for you,,
Simon Tatham's Puzzles,Google Play,name.boyle.chris.sgtpuzzles,Z3A6QU9xcFRPR2QyTUtxUk1Vb0ZOWjZTenZzRXlFR0o0NTJfdTk3emRFTmVoanpsR3dtSWNES2lGOFMyaXF1dnVFZTJRNkdHamUyeTA5U3JxVGFLYVFfSXc,English,,5,2014-10-24,Daniel V,Games for,the sophisticated gentleman,,
Simon Tatham's Puzzles,Google Play,name.boyle.chris.sgtpuzzles,Z3A6QU9xcFRPRm5uVlJ5MDlULVU3VFVpWXl0REhpRHhjZGJ1aWt2YWxCTGVhUUt4M1RzMmVza0VpS0RqMml1Ml9zSUt6TTc3WEc4UWNENEFkcU05Z0lxaUE,English,,5,2014-10-24,Alastair Ross,Outstanding,these are entertaining well a challenging,,
Simon Tatham's Puzzles,Google Play,name.boyle.chris.sgtpuzzles,Z3A6QU9xcFRPRm5uVlJ5MDlULVU3VFVpWXl0REhpRHhjZGJ1aWt2YWxCTGVhUUt4M1RzMmVza0VpS0RqMml1Ml9zSUt6TTc3WEc4UWNENEFkcU05Z0lxaUE,English,,5,2014-10-24,Alastair Ross,Outstanding,this latest version ha added some well thought out improvement to the interface improving the usability and overall experience,,
Simon Tatham's Puzzles,Google Play,name.boyle.chris.sgtpuzzles,Z3A6QU9xcFRPRm5uVlJ5MDlULVU3VFVpWXl0REhpRHhjZGJ1aWt2YWxCTGVhUUt4M1RzMmVza0VpS0RqMml1Ml9zSUt6TTc3WEc4UWNENEFkcU05Z0lxaUE,English,,5,2014-10-24,Alastair Ross,Outstanding,nice job,,
Simon Tatham's Puzzles,Google Play,name.boyle.chris.sgtpuzzles,Z3A6QU9xcFRPRU1PelV4UnlWRXZ5dEwtTzJBcnZuVmZQZ2kzRVVZNnNVN3hnWERBeks1dFhPRzR5UHBOVEhZOXNQMWxzZWlBYWRDVlhkZGxDQUhRb3hQVXc,English,,5,2014-10-24,Tobias Oscar,"Great port of the BEST ""pencil puzzle"" collection.",i wa thrilled to see it ported to android,,
Simon Tatham's Puzzles,Google Play,name.boyle.chris.sgtpuzzles,Z3A6QU9xcFRPRU1PelV4UnlWRXZ5dEwtTzJBcnZuVmZQZ2kzRVVZNnNVN3hnWERBeks1dFhPRzR5UHBOVEhZOXNQMWxzZWlBYWRDVlhkZGxDQUhRb3hQVXc,English,,5,2014-10-24,Tobias Oscar,"Great port of the BEST ""pencil puzzle"" collection.",you love dell puzzle you will love this collection,,
Simon Tatham's Puzzles,Google Play,name.boyle.chris.sgtpuzzles,Z3A6QU9xcFRPRU1PelV4UnlWRXZ5dEwtTzJBcnZuVmZQZ2kzRVVZNnNVN3hnWERBeks1dFhPRzR5UHBOVEhZOXNQMWxzZWlBYWRDVlhkZGxDQUhRb3hQVXc,English,,5,2014-10-24,Tobias Oscar,"Great port of the BEST ""pencil puzzle"" collection.",there are no word but there are just about every other type of puzzle you have ever seen in a newspaper or magazine,,
Simon Tatham's Puzzles,Google Play,name.boyle.chris.sgtpuzzles,Z3A6QU9xcFRPRU1PelV4UnlWRXZ5dEwtTzJBcnZuVmZQZ2kzRVVZNnNVN3hnWERBeks1dFhPRzR5UHBOVEhZOXNQMWxzZWlBYWRDVlhkZGxDQUhRb3hQVXc,English,,5,2014-10-24,Tobias Oscar,"Great port of the BEST ""pencil puzzle"" collection.",random shaped board,,
Simon Tatham's Puzzles,Google Play,name.boyle.chris.sgtpuzzles,Z3A6QU9xcFRPRU1PelV4UnlWRXZ5dEwtTzJBcnZuVmZQZ2kzRVVZNnNVN3hnWERBeks1dFhPRzR5UHBOVEhZOXNQMWxzZWlBYWRDVlhkZGxDQUhRb3hQVXc,English,,5,2014-10-24,Tobias Oscar,"Great port of the BEST ""pencil puzzle"" collection.",all of the puzzle have many configuration option a there are actually well over 100 way to play,,
Simon Tatham's Puzzles,Google Play,name.boyle.chris.sgtpuzzles,Z3A6QU9xcFRPRU1PelV4UnlWRXZ5dEwtTzJBcnZuVmZQZ2kzRVVZNnNVN3hnWERBeks1dFhPRzR5UHBOVEhZOXNQMWxzZWlBYWRDVlhkZGxDQUhRb3hQVXc,English,,5,2014-10-24,Tobias Oscar,"Great port of the BEST ""pencil puzzle"" collection.",and of those many you also have great control over the size and difficulty of each puzzle,,
Simon Tatham's Puzzles,Google Play,name.boyle.chris.sgtpuzzles,Z3A6QU9xcFRPRU1PelV4UnlWRXZ5dEwtTzJBcnZuVmZQZ2kzRVVZNnNVN3hnWERBeks1dFhPRzR5UHBOVEhZOXNQMWxzZWlBYWRDVlhkZGxDQUhRb3hQVXc,English,,5,2014-10-24,Tobias Oscar,"Great port of the BEST ""pencil puzzle"" collection.",this port is a fine work in and is actually easier to use in many way the version,,
Simon Tatham's Puzzles,Google Play,name.boyle.chris.sgtpuzzles,Z3A6QU9xcFRPRU1PelV4UnlWRXZ5dEwtTzJBcnZuVmZQZ2kzRVVZNnNVN3hnWERBeks1dFhPRzR5UHBOVEhZOXNQMWxzZWlBYWRDVlhkZGxDQUhRb3hQVXc,English,,5,2014-10-24,Tobias Oscar,"Great port of the BEST ""pencil puzzle"" collection.",for you can simply tap on icon in some game instead of remembering keyboard shortcut,,
Simon Tatham's Puzzles,Google Play,name.boyle.chris.sgtpuzzles,Z3A6QU9xcFRPRU1PelV4UnlWRXZ5dEwtTzJBcnZuVmZQZ2kzRVVZNnNVN3hnWERBeks1dFhPRzR5UHBOVEhZOXNQMWxzZWlBYWRDVlhkZGxDQUhRb3hQVXc,English,,5,2014-10-24,Tobias Oscar,"Great port of the BEST ""pencil puzzle"" collection.",note my initial review wa for a buggy which wa fixed within 24 is to be highly commended for his responsiveness,,
Simon Tatham's Puzzles,Google Play,name.boyle.chris.sgtpuzzles,Z3A6QU9xcFRPSG5raGxHN1hRaTNXZzU3T0RIS3BrUEhhVjZYdHc4LVFvQ1FXNkx0cXFoN0tFZm5SVkt2SDBJSURTTWFndjhGSEdQQjVQcHg5WTNGUWMwN2c,English,,5,2014-10-23,Aaron Hopkins,The best,these are the best little puzzle,,
Simon Tatham's Puzzles,Google Play,name.boyle.chris.sgtpuzzles,Z3A6QU9xcFRPSG5raGxHN1hRaTNXZzU3T0RIS3BrUEhhVjZYdHc4LVFvQ1FXNkx0cXFoN0tFZm5SVkt2SDBJSURTTWFndjhGSEdQQjVQcHg5WTNGUWMwN2c,English,,5,2014-10-23,Aaron Hopkins,The best,thanks for the update,,
Simon Tatham's Puzzles,Google Play,name.boyle.chris.sgtpuzzles,Z3A6QU9xcFRPSEU3WVQ1OThFaXg1VmNhQi1nS1A2N3VKSkM5QWZyeWdQRlFfbGVZS2lpVHZqQnlHQThTQ08tcnZoUFRWWVlnU29aUG9nYWV3Z1ZfRTVicXc,English,,5,2014-10-23,Luna CNC,Great logic puzzles!,thanks,,
Simon Tatham's Puzzles,Google Play,name.boyle.chris.sgtpuzzles,Z3A6QU9xcFRPRmlZdTdqV3U5NUwzNVJCVjZiaUdBM1QtNUx2d0lXY1d6d2RmY3FSbEVuOHZMLWlPZjBULVBNYnFaRmEzMWRlUFZRZU5MSW9hY1dhOHd0eGc,English,,5,2014-10-23,Aditya Rachakonda,Best puzzle game,i have been playing this on for year i played it on android,,
Simon Tatham's Puzzles,Google Play,name.boyle.chris.sgtpuzzles,Z3A6QU9xcFRPRmlZdTdqV3U5NUwzNVJCVjZiaUdBM1QtNUx2d0lXY1d6d2RmY3FSbEVuOHZMLWlPZjBULVBNYnFaRmEzMWRlUFZRZU5MSW9hY1dhOHd0eGc,English,,5,2014-10-23,Aditya Rachakonda,Best puzzle game,one of the best game out there,,
Simon Tatham's Puzzles,Google Play,name.boyle.chris.sgtpuzzles,Z3A6QU9xcFRPRmlZdTdqV3U5NUwzNVJCVjZiaUdBM1QtNUx2d0lXY1d6d2RmY3FSbEVuOHZMLWlPZjBULVBNYnFaRmEzMWRlUFZRZU5MSW9hY1dhOHd0eGc,English,,5,2014-10-23,Aditya Rachakonda,Best puzzle game,this new update add the required refresh to the,,
Simon Tatham's Puzzles,Google Play,name.boyle.chris.sgtpuzzles,Z3A6QU9xcFRPRjE0d280RFhVS2M1Z3pMN013TVVya1Vnbkg1NE9oTTM3T3E3YzctRUJnTlRFT1ZYRGFKcnRFQWFnVl80QVdfbVJJdnZFV0gzbkd6dGVJWEE,English,,5,2014-10-23,Scott Pagel,Endless fun,whether you are looking for a time waster or a genuine this is the you want,,
Simon Tatham's Puzzles,Google Play,name.boyle.chris.sgtpuzzles,Z3A6QU9xcFRPRjE0d280RFhVS2M1Z3pMN013TVVya1Vnbkg1NE9oTTM3T3E3YzctRUJnTlRFT1ZYRGFKcnRFQWFnVl80QVdfbVJJdnZFV0gzbkd6dGVJWEE,English,,5,2014-10-23,Scott Pagel,Endless fun,wonderful puzzle with option for all age and skill level,,
Simon Tatham's Puzzles,Google Play,name.boyle.chris.sgtpuzzles,Z3A6QU9xcFRPRjhBaDFjeVRMSzc5eGV2UkxSQ1o2bjRydGRsZ3U2S3FsWG1rX0hTY00wVFBPdW0zQnBHV1NaekRJczlHSUZGM3ZEcHkybjRXVUJFcTQtaHc,English,,5,2014-10-23,Kay Klutchko,Great fun!,love the update it fix the number font issue in enjoying new unruly game like binary without number,,
Simon Tatham's Puzzles,Google Play,name.boyle.chris.sgtpuzzles,Z3A6QU9xcFRPRjhBaDFjeVRMSzc5eGV2UkxSQ1o2bjRydGRsZ3U2S3FsWG1rX0hTY00wVFBPdW0zQnBHV1NaekRJczlHSUZGM3ZEcHkybjRXVUJFcTQtaHc,English,,5,2014-10-23,Kay Klutchko,Great fun!,thanks greatly for this,,
Simon Tatham's Puzzles,Google Play,name.boyle.chris.sgtpuzzles,Z3A6QU9xcFRPR08td2dFS0pXbV8zaFh5YjF2cUVTalNTaXpCNnNvN29iTTNaOGdBRjhfZVJGVUhOSF9oTHl1MGFPeUpWV3hVMzdDQ0hLNkdSV21SVTJLYWc,English,,5,2014-10-23,Gael Lafond,Excellent,thanks,,
Simon Tatham's Puzzles,Google Play,name.boyle.chris.sgtpuzzles,Z3A6QU9xcFRPR08td2dFS0pXbV8zaFh5YjF2cUVTalNTaXpCNnNvN29iTTNaOGdBRjhfZVJGVUhOSF9oTHl1MGFPeUpWV3hVMzdDQ0hLNkdSV21SVTJLYWc,English,,5,2014-10-23,Gael Lafond,Excellent,update the latest update ha zoom pan support,,
