package,release ID,UI element,related topic,average polarity,# reviews,average rating,average objectivity,# uninstalls,delta rating,element deleted next release
com.seafile.seadroid2,1.5.1,@+id/server_url$,2671,0.5041666666666667,2,4.5,0.5645833333333332,0,1.081818181818182,0
com.seafile.seadroid2,1.5.1,@+id/shibboleth_server_url_et$,2677,0.39166666666666666,1,5.0,0.6666666666666666,0,1.581818181818182,0
com.seafile.seadroid2,1.5.1,@+id/shibboleth_server_url_et$,2676,0.6166666666666667,1,4.0,0.4624999999999999,0,0.581818181818182,0
com.seafile.seadroid2,1.5.1,@+id/app_desc$,2680,0.0,1,5.0,0.0,0,1.581818181818182,0
com.seafile.seadroid2,1.5.1,@+id/app_desc$,2681,0.6166666666666667,1,4.0,0.4624999999999999,0,0.581818181818182,0
com.seafile.seadroid2,1.5.1,@+id/welcome_view$welcome_to_seafile,2685,0.30833333333333335,2,4.5,0.23124999999999996,0,1.081818181818182,0
com.seafile.seadroid2,1.5.1,@+id/app_icon$,2692,0.30833333333333335,2,4.5,0.23124999999999996,0,1.081818181818182,0
