package,release ID,UI element,related topic,average polarity,# reviews,average rating,average objectivity,# uninstalls,delta rating,element deleted next release
com.seafile.seadroid2,2.0.2,@+id/app_desc$,956,0.55,1,5.0,0.5625,0,1.3406593406593408,0
com.seafile.seadroid2,2.0.2,@+id/app_icon$,964,0.55,1,5.0,0.5625,0,1.3406593406593408,0
