package,release ID,UI element,related topic,average polarity,# reviews,average rating,average objectivity,# uninstalls,delta rating,element deleted next release
com.seafile.seadroid2,1.5.0,@+id/transfer_file_progress_bar$,2696,0.0,1,3.0,0.0,0,-0.34615384615384626,0
com.seafile.seadroid2,1.5.0,@+id/upload_selection_status$select_upload_files,2703,0.0,1,3.0,0.0,0,-0.34615384615384626,0
com.seafile.seadroid2,1.5.0,@+id/upload_selection_status$select_upload_files,2700,0.0,1,4.0,0.0,0,0.6538461538461537,0
com.seafile.seadroid2,1.5.0,@+id/delete_file_name$delete_file,2708,0.0,1,3.0,0.0,0,-0.34615384615384626,0
com.seafile.seadroid2,1.5.0,@android:id/empty$no_starred_file,2714,0.0,1,3.0,0.0,0,-0.34615384615384626,0
com.seafile.seadroid2,1.5.0,@+id/file_size$,2719,0.0,1,3.0,0.0,0,-0.34615384615384626,0
com.seafile.seadroid2,1.5.0,@+id/copy_move_file_hint$,2723,0.0,1,3.0,0.0,0,-0.34615384615384626,0
com.seafile.seadroid2,1.5.0,@+id/new_file_name$,2725,0.0,1,3.0,0.0,0,-0.34615384615384626,0
com.seafile.seadroid2,1.5.0,@+id/file_icon$,2732,0.0,1,3.0,0.0,0,-0.34615384615384626,0
com.seafile.seadroid2,1.5.0,@+id/file_name$,2739,0.0,1,3.0,0.0,0,-0.34615384615384626,0
com.seafile.seadroid2,1.5.0,@+id/transfer_file_state$,2740,0.0,1,3.0,0.0,0,-0.34615384615384626,0
com.seafile.seadroid2,1.5.0,@+id/transfer_file_icon$,2745,0.0,1,3.0,0.0,0,-0.34615384615384626,0
com.seafile.seadroid2,1.5.0,@+id/transfer_file_size$,2751,0.0,1,3.0,0.0,0,-0.34615384615384626,0
com.seafile.seadroid2,1.5.0,@+id/transfer_file_name$,2757,0.0,1,3.0,0.0,0,-0.34615384615384626,0
com.seafile.seadroid2,1.5.0,@string/select_account$,2763,0.0,1,3.0,0.0,0,-0.34615384615384626,0
com.seafile.seadroid2,1.5.0,@+id/empty$no_upload_tasks,2765,0.0,1,4.0,0.0,0,0.6538461538461537,0
