App,Store,App ID,Review ID,Country,Version,Rating,Date,Author,Subject,Body,Translated Subject,Translated Body
Open Flood,Google Play,com.gunshippenguin.openflood,Z3A6QU9xcFRPRS1KcGNNRXREa0haaG5VWkpicDhxeExRbVdJQjhWU1E3em14eF84alVEaHVfR240OHdoNzRQczJELWxmMGtCNEwxdzhmTGV3QkVseTREWWc,English,,5,2016-01-28,Andrew Merkur,,the best game on the play store,,
Open Flood,Google Play,com.gunshippenguin.openflood,Z3A6QU9xcFRPRS1KcGNNRXREa0haaG5VWkpicDhxeExRbVdJQjhWU1E3em14eF84alVEaHVfR240OHdoNzRQczJELWxmMGtCNEwxdzhmTGV3QkVseTREWWc,English,,5,2016-01-28,Andrew Merkur,,please keep up the good work,,
Open Flood,Google Play,com.gunshippenguin.openflood,Z3A6QU9xcFRPRS1KcGNNRXREa0haaG5VWkpicDhxeExRbVdJQjhWU1E3em14eF84alVEaHVfR240OHdoNzRQczJELWxmMGtCNEwxdzhmTGV3QkVseTREWWc,English,,5,2016-01-28,Andrew Merkur,,i would pay 510 for a game like this,,
Open Flood,Google Play,com.gunshippenguin.openflood,Z3A6QU9xcFRPRS1KcGNNRXREa0haaG5VWkpicDhxeExRbVdJQjhWU1E3em14eF84alVEaHVfR240OHdoNzRQczJELWxmMGtCNEwxdzhmTGV3QkVseTREWWc,English,,5,2016-01-28,Andrew Merkur,,this might go viral,,
Open Flood,Google Play,com.gunshippenguin.openflood,Z3A6QU9xcFRPRUpJTlZTTTF1ZjFZdHVqakU2UkpLMDExNVVZQ2xFNHNScFRXWUhWVjk0TWVBcFNLZGhBS2lRNGo4UTVrYVVpM1VDVUpRcVRHeGxTeVFSS1E,English,,5,2016-01-22,jordan del rosario,,,,
Open Flood,Google Play,com.gunshippenguin.openflood,Z3A6QU9xcFRPSHBUNmpXbUc1V2tsZkFoUmptZWstbUNsQjFzcnI1b2F1eThpUldrSHhuQ2tuMGliMi1fVUNvSC1iM0ZORlhBY2VpWHZTbFdyYm5oMlR4UWc,English,,5,2016-01-22,Ezra Savard,,this is a well made simple and work perfectly,,
Open Flood,Google Play,com.gunshippenguin.openflood,Z3A6QU9xcFRPSHBUNmpXbUc1V2tsZkFoUmptZWstbUNsQjFzcnI1b2F1eThpUldrSHhuQ2tuMGliMi1fVUNvSC1iM0ZORlhBY2VpWHZTbFdyYm5oMlR4UWc,English,,5,2016-01-22,Ezra Savard,,thanks for the game,,
Open Flood,Google Play,com.gunshippenguin.openflood,Z3A6QU9xcFRPSE1WYWlRdzRubU1Fbm9oRXhWWTVYV0hYYUJibUhzWUFMLXdoODJka0JwSWJ1bFZDRXdFWFMwbVdLUTV2SUQxZ0JxU2VGUGlqVnUxM2dCOVE,English,,5,2016-01-19,Derek Ip,Great game,well more addicting heroin,,
Open Flood,Google Play,com.gunshippenguin.openflood,Z3A6QU9xcFRPRUV5UU5sQWZmU2JfMUwyMWJwLU9rTk9rLXcxeG1BTW9YUWVKUmlTQ3ZsZXluNXdwMWJaWjBXcDgxUkt3dkJiRVpuM0N1dUlZN1FBbm8ySlE,English,,5,2016-01-19,Christopher Sims,,a fun and challenging game,,
Open Flood,Google Play,com.gunshippenguin.openflood,Z3A6QU9xcFRPRWd4ck5MUzFXdWhKMUZCLVJXOEJnSmFFa3RxSWJ4NElPUko3a2JmQWNTbXg2aTNPenNoUm9YaDhfSk9LUl9vRXc2Y0pybGV2dFVfSVlRUVE,English,,5,2016-01-18,Nicholas Horry,Amazing Game,i love this game,,
Open Flood,Google Play,com.gunshippenguin.openflood,Z3A6QU9xcFRPRWd4ck5MUzFXdWhKMUZCLVJXOEJnSmFFa3RxSWJ4NElPUko3a2JmQWNTbXg2aTNPenNoUm9YaDhfSk9LUl9vRXc2Y0pybGV2dFVfSVlRUVE,English,,5,2016-01-18,Nicholas Horry,Amazing Game,it ha a very simplistic style yet is difficult once you start doing 4 and 5,,
Open Flood,Google Play,com.gunshippenguin.openflood,Z3A6QU9xcFRPRWd4ck5MUzFXdWhKMUZCLVJXOEJnSmFFa3RxSWJ4NElPUko3a2JmQWNTbXg2aTNPenNoUm9YaDhfSk9LUl9vRXc2Y0pybGV2dFVfSVlRUVE,English,,5,2016-01-18,Nicholas Horry,Amazing Game,one of my game by far,,
Open Flood,Google Play,com.gunshippenguin.openflood,Z3A6QU9xcFRPRWd4ck5MUzFXdWhKMUZCLVJXOEJnSmFFa3RxSWJ4NElPUko3a2JmQWNTbXg2aTNPenNoUm9YaDhfSk9LUl9vRXc2Y0pybGV2dFVfSVlRUVE,English,,5,2016-01-18,Nicholas Horry,Amazing Game,great work,,
Open Flood,Google Play,com.gunshippenguin.openflood,Z3A6QU9xcFRPRWd4ck5MUzFXdWhKMUZCLVJXOEJnSmFFa3RxSWJ4NElPUko3a2JmQWNTbXg2aTNPenNoUm9YaDhfSk9LUl9vRXc2Y0pybGV2dFVfSVlRUVE,English,,5,2016-01-18,Nicholas Horry,Amazing Game,keep it up,,
