it not working anymore,b,2015-03-27,Agustín Sánchez,1
since the last update it just crash it open,b,2015-03-27,Agustín Sánchez,1
very but a serious like this deserves a serious icon,b,2015-03-27,Tim Wesson,5
best,o,2015-03-27,Paul R,5
but new icon look like the old cm superuser,b,2015-03-27,Paul R,5
no,o,2015-03-27,nawaz sk,5
i am using complete installer,b,2015-03-26,Narendra Singh Dinkar,1
,o,2015-03-26,Narendra Singh Dinkar,1
everything is free pretty cool huh,o,2015-03-26,andreykoi machuchu,5
it wa awesome,o,2015-03-26,Tammie Frew,3
how do i get it to work,o,2015-03-26,Tammie Frew,3
work great on my galaxy with thanks,o,2015-03-26,Kendall Larson,5
very small in size and very powerful,f,2015-03-25,Ashok Yadav,5
work nicely for me,o,2015-03-25,Lee Dunbar,4
love the new look,o,2015-03-25,Eric Selle,5
just awesome,o,2015-03-25,Aaditya Ravindran,5
not working,o,2015-03-25,ASHWINI MUJUMDAR,1
the best terminal emulator ever in my life,o,2015-03-25,Gung Wahyu,5
latest version keep crashing on opening,b,2015-03-25,Cedric Mallia,1
great,o,2015-03-25,Tom Davis,5
would re download this again,b,2015-03-25,Tom Davis,5
the recent the just close it self,b,2015-03-24,Lord-Ivan Acebuche,5
thanks for this,o,2015-03-24,Lord-Ivan Acebuche,5
great bit of kit for android power and us like me,o,2015-03-24,Forid Snm,5
not fond of the new hard to spot cartoon icon,b,2015-03-24,Andy M,5
just make the icon not to the point of including 10 just two or to keep the tiny size,b,2015-03-24,Andy M,5
now the new launcher icon mismatched with the icon,b,2015-03-24,Andy M,5
please reconsider,f,2015-03-24,Andy M,5
get the job done,o,2015-03-24,akshay salve,5
perfect,o,2015-03-24,akshay salve,5
root,b,2015-03-24,Gilberto Hernandez,5
i loved the old i assume the new icon is for lollipop,b,2015-03-24,Ruhan van der berg,5
can you add a setting to change the icon,b,2015-03-24,Ruhan van der berg,5
edit fixed 5 star,b,2015-03-23,Mr Turcot,5
having this i used cm,o,2015-03-23,Xiang Yann Lim,5
who like the new icon p,f,2015-03-23,Youri Catoire,5
plus like the new icon,b,2015-03-23,Jason Thomas,5
great work,o,2015-03-23,Jason Thomas,5
run most shell script long a you have installed,b,2015-03-23,Dylan Brady,5
not the newest design etc,o,2015-03-23,Leonard König,5
but recently development began to go up again a bit,o,2015-03-23,Leonard König,5
nice,o,2015-03-23,Leonard König,5
hand down the best on play store,o,2015-03-23,Derrick Laub,5
have to agree the new icon is kinda to the adult nerd,b,2015-03-23,Derrick Laub,5
the best,o,2015-03-23,,5
like it,o,2015-03-23,A Google User,5
really a good work,o,2015-03-23,Orlando Galiano Pupo,5
the is great nonetheless,b,2015-03-23,muhammad arsyad,5
the best terminal emulator for period,o,2015-03-23,Vilhelm VonWilrodt,5
superb,o,2015-03-23,Darari Hadyan,5
this help me testing my tool,o,2015-03-23,Dmitry Dudarenko,5
thanks,o,2015-03-23,Dmitry Dudarenko,5
like the new look,o,2015-03-23,Z3nn H3xx,5
just love it,o,2015-03-23,Al-Mehedi Hasan Ansary,5
this application is immensely useful,o,2015-03-23,Cheff Excellence,5
no nearby,b,2015-03-23,Cheff Excellence,5
wa on,o,2015-03-23,Cheff Excellence,5
done,o,2015-03-23,Cheff Excellence,5
very nice,o,2015-03-23,Mina Media,5
the first and the best,o,2015-03-23,Colin Anthony,5
you and you need one,o,2015-03-23,John Doh,5
this is the for you,o,2015-03-23,John Doh,5
now,o,2015-03-23,Can Barışcan,5
cant type more one character at a time with,b,2015-03-23,Jim Roland,1
recently i typed the command the command but nothing happened,b,2015-03-22,Chiraag Pandey,2
it wa like just blank page,b,2015-03-22,Chiraag Pandey,2
really hated it,o,2015-03-22,Chiraag Pandey,2
standard xterm emulator for the what more could you ask for with a rooted android phone,b,2015-03-22,madd_step,5
anyone know how to get my hand on a bash or binary for android,o,2015-03-22,madd_step,5
would the one on my desktop work,o,2015-03-22,madd_step,5
not working fake,b,2015-03-22,Prashant Ahire,1
best,o,2015-03-22,Corina Sechelariu,5
