App,Store,App ID,Review ID,Country,Version,Rating,Date,Author,Subject,Body,Translated Subject,Translated Body
Notification Notes,Google Play,com.khuttun.notificationnotes,Z3A6QU9xcFRPSGdadnZkT3dRYkxfSkJEemZ2aHludGtCRkVTQzJiT3RCUGJ6MUxCV0lhYWJubjlha0tJNHI4QWNNVFNScDdGeU5HemtBb3dILUp6Y0d6bld3,English,,5,2017-05-09,James Cowley,,no nonsense,,
Notification Notes,Google Play,com.khuttun.notificationnotes,Z3A6QU9xcFRPSGdadnZkT3dRYkxfSkJEemZ2aHludGtCRkVTQzJiT3RCUGJ6MUxCV0lhYWJubjlha0tJNHI4QWNNVFNScDdGeU5HemtBb3dILUp6Y0d6bld3,English,,5,2017-05-09,James Cowley,,exactly what i wanted and surprisingly difficult to find a decent like this,,
Notification Notes,Google Play,com.khuttun.notificationnotes,Z3A6QU9xcFRPR21IdEZydVNnMlBFUmVXSF9Lci1ablJPM3JrLVpnOWpmdEx1RHZLNDBSd1JKODE1R0otYzVCaHRYdTlHWS1kRVVhZHlaUUZKbFRTaTI5bzBJ,English,,5,2017-03-21,Alan os,,great,,
Notification Notes,Google Play,com.khuttun.notificationnotes,Z3A6QU9xcFRPRnRZbzJtUGVuc3REa1h5QWtQalF3d0tzUWFRVUVJb2NoaGJmLVBxVnFGcHpBRVN6NmYyZVB1YUJaUVQwTDFTVktJcjRvRUpFNVNTdkM2VEZF,English,,5,2016-11-20,Mark Wharton,Excellent app,quick to no ad,,
Notification Notes,Google Play,com.khuttun.notificationnotes,Z3A6QU9xcFRPRnRZbzJtUGVuc3REa1h5QWtQalF3d0tzUWFRVUVJb2NoaGJmLVBxVnFGcHpBRVN6NmYyZVB1YUJaUVQwTDFTVktJcjRvRUpFNVNTdkM2VEZF,English,,5,2016-11-20,Mark Wharton,Excellent app,good job,,
Notification Notes,Google Play,com.khuttun.notificationnotes,Z3A6QU9xcFRPRzNTdThJN0dieVU3LUdOdmMyRHotbEV0M3Jod081b0ZOMjdoeUw2OUxPbjZBdExYeS01bXBQamh3UTZLMUlWWFZGeXhnY0VCUEJmYzZGbmxv,English,,4,2016-09-01,Soh S.N.,"Good,stable & simple app.",very functional and user friendly notification note,,
Notification Notes,Google Play,com.khuttun.notificationnotes,Z3A6QU9xcFRPRjFWNlNDMU9JclVqbzYtaGc0U1JHbnNXRzJwdy1UZy1JaDJMWkJON25DTDJYcUpVeDF0eTMwVlhfYzNXUHE1cmVtMHlrMzJsdnNaRU5QSWJn,English,,5,2016-08-29,S Fu,Simplicity is best,get the job done,,
Notification Notes,Google Play,com.khuttun.notificationnotes,Z3A6QU9xcFRPRjFWNlNDMU9JclVqbzYtaGc0U1JHbnNXRzJwdy1UZy1JaDJMWkJON25DTDJYcUpVeDF0eTMwVlhfYzNXUHE1cmVtMHlrMzJsdnNaRU5QSWJn,English,,5,2016-08-29,S Fu,Simplicity is best,thanks for the,,
Notification Notes,Google Play,com.khuttun.notificationnotes,Z3A6QU9xcFRPSGR3RjV6c29kazBNblR5d1pfX01JSlNfMVJCWmJ0Wjg5TUdtdmo4ZTNtM1Y3NzRCVFpocHVJUHc4WndpYmNOVFlYOGl0alpsWVpVYU50Y2Q0,English,,1,2016-08-25,flora amistoso,,buy medicine,,
Notification Notes,Google Play,com.khuttun.notificationnotes,Z3A6QU9xcFRPRVNjczFrQktJLVF2ZDdWTWxtRVQ4TVQxU2pUT2hKNTNVdXRUbUNMTUNSdFllM2w4dGVHam42Z3hxRTF6YW5QQXlLVEx3aVpCUlpic0FyTW5B,English,,4,2016-06-21,PANKAJ KUMAR TIWARI,,few bug fix it smooth,,
