,o,2014-10-27,Blake Rosenhagen,5
i updated to newest game image would disappear when i clicked on any a game to view it,o,2014-10-25,Brian Kunze,3
i cleared all data and did a full collection sync,b,2014-10-25,Brian Kunze,3
now all image are gone,b,2014-10-25,Brian Kunze,3
i use the all the time and love it,o,2014-10-25,Brian Kunze,3
no way to add to a collection,f,2014-10-18,Ryan Langner,2
really is the only feature i wanted,f,2014-10-18,Ryan Langner,2
currently really useful for tracking if you like to do that,o,2014-10-09,Kevin Milton,3
good looking and though,o,2014-10-09,Kevin Milton,3
about the useful function is logging play,b,2014-09-09,Eric Goedtel,3
other that,o,2014-09-09,Eric Goedtel,3
great,o,2014-09-04,Amanda Devine,5
solidly useful,o,2014-09-04,R. Eric Reuss,4
i love this but the last update cause to forget login credential every time i restart the device,o,2014-09-03,Sharp Monkey,4
fix this and add ability to add game to collection for my 5 star,b,2014-09-03,Sharp Monkey,4
searching forum would be great too,b,2014-09-03,Sharp Monkey,4
thanks,o,2014-09-03,Sharp Monkey,4
very useful and the fix stuff,b,2014-09-01,Wil Wade,5
work great,o,2014-08-30,Scott Krebbeks,4
would love to post to forum from,o,2014-08-30,Scott Krebbeks,4
still not possible to add a game to your collection from the,f,2014-08-30,A Google User,3
well crafted just missing one thing,b,2014-08-30,A Google User,3
update constant sync error,b,2014-08-29,Jeremy Nilson,3
could use more but it is a great way of recording play and quickly looking up game,o,2014-08-29,Cyler Parent,4
new design is beautiful,o,2014-08-29,A Google User,5
is working without any problem,o,2014-08-29,A Google User,5
very unclear,o,2014-08-28,The Wolfkin,4
but it can get the job done,o,2014-08-28,The Wolfkin,4
it get bonus star for completeness,o,2014-08-28,The Wolfkin,4
more i would expect,b,2014-08-28,The Wolfkin,4
would love to see feature on the list especially adding to collection,o,2014-08-28,A Google User,4
search by scanner ala would be phenomenal,b,2014-08-28,A Google User,4
thanks for this i use it a lot,o,2014-08-28,A Google User,4
give 5 star is added,o,2014-08-28,Keith Koene,4
