Topic Index 1,Topic Index 2,Topic Similarity
8,3,2.0
13,7,2.0
16,5,2.0
1,8,1.0
3,2,1.0
5,4,1.0
9,11,1.0
11,13,1.0
12,9,1.0
17,14,1.0
18,10,1.0
19,16,1.0
0,0,0.0
2,1,0.0
4,6,0.0
6,12,0.0
7,15,0.0
10,17,0.0
14,18,0.0
15,19,0.0
