App,Store,App ID,Review ID,Country,Version,Rating,Date,Author,Subject,Body,Translated Subject,Translated Body
Prepay Credit,Google Play,damo.three.ie,bGc6QU9xcFRPRUx1WEViOUt6bUtUUUk4RHd2Q1dLM3hRYXptZWFOVUNQMVg3NEVxMHVvSndUbzVQUlN3S3o3RTRRMzdzWUh3TklCWS0yS2VFcmZLaVBralE,English,,5,2015-01-13,A Google User,Cool,Works perfectly!,,
Prepay Credit,Google Play,damo.three.ie,Z3A6QU9xcFRPSDlIR3IwZi1wcEV1T1BqUmFTYkRabFJ3OVdiSG5xeDNRYW5zTzlLNm84WXJFM21Ia2lycDdZUjFjYlZqN0F0SEh2OGpUZGptNE1ZZ2Y0VEE,English,,5,2014-12-25,Liam Lang,"",Great,,
Prepay Credit,Google Play,damo.three.ie,Z3A6QU9xcFRPRXBYS0g2bzl2S0k3dWJ6SERZdnIxLTJSWktaejcwNVRtemhJT0tYcndPOXZmWGxmMVYzSkNqeXNvd284ZW9ISWxFaXc3a3hnM3pNMmlvMVE,English,,5,2014-11-29,Colin Bond,Great app,Does what it says on the tin...keep up the good work!,,
Prepay Credit,Google Play,damo.three.ie,Z3A6QU9xcFRPR3dpMUxLazRId3JyVzU2NGZKLS05ckRMM2lqSDgtQWpWOUlLT1NBektib2Zic1RLekZtTFhLS3MxYUpVXzFTQ0tjcE9Uem5DNHZZcE5Qc0E,English,,4,2014-10-17,Conor Garry,Great to a point,"Automatic updates seem to wipe my details, therefore I don't always get a warning to top up because I'm signed out of the app without realising it. Could be specific to my device, apart from that it's a great, easy to use app.",,
Prepay Credit,Google Play,damo.three.ie,Z3A6QU9xcFRPSEpNRVYzOGdGRWxJT0k0SjZXcDhoTXllRVJ0bmlLYjR1elMxWnlEVG0wdEtFOFhCSm1FN0c3Y2piNDMtQktSR2dEbzZ5eWc5bEZNZ3ppRFE,English,,5,2014-10-09,Aj Maceoin,Great app,"This app has saved me a fortune,would love to be able to donate through play store  now that three allows us to use credit here ,thank you so much for a great app.",,
