improve layout,b,2015/4/01,,
fix review ticket,b,2015/4/07,,
support camera upload configuration helper,b,2015/4/07,,
revert loading,b,2015/4/07,,
fix,b,2015/4/03,,
fix,b,2015/4/03,,
catch parse exception,o,2015/4/01,,
show loading resume the,b,2015/4/01,,
improve code style,f,2015/3/31,,
fix refresh directory change the way we avoid infinite refresh loop,b,2015/3/28,,
previously the user had to change the directory to trigger a refresh,b,2015/3/28,,
this is problematic if there is one directory,o,2015/3/28,,
the user will never be able to trigger a refresh,b,2015/3/28,,
this fix the following issue there is only one server and server is out due to,b,2015/3/28,,
to make this fact more clear to the user out all entry in an account,b,2015/3/28,,
the reachability test is done for every server individually,b,2015/3/28,,
this should mostly avoid issue of user trying to download file from unavailable server,b,2015/3/28,,
fix and the of the root are thing previously i treated them the same,b,2015/3/28,,
fix hang during thumbnail download sometimes the file chooser can choke up displaying high resolution thumbnail,b,2015/3/27,,
the reason wa we tried to write into a pipe with an end,o,2015/3/27,,
the pipe buffer would run fill and then block,b,2015/3/27,,
fix this by returning the file descriptor early and then close the pipe we get a cancellation signal,b,2015/3/27,,
remove,o,2015/3/27,,
review,b,2015/3/20,,
this reverts commit,o,2015/3/19,,
use,o,2015/3/17,,
cancellation signal may be null,b,2015/3/13,,
stop future more aggressively,b,2015/3/13,,
style fix,b,2015/3/13,,
understandably this confused the causing it to hang,o,2015/3/13,,
now we a if the thumbnail download wa successful,b,2015/3/13,,
fix crash server unreachable 309,b,2015/3/23,,
remove unnecessary,o,2015/3/22,,
there are other way to fix this issue but this is the simplest solution far a i can see,b,2015/3/21,,
fix selecting a single file,b,2015/3/21,,
i used classic array a encourages one to use them,o,2015/3/21,,
file upload allow to select multiple file,o,2015/3/20,,
fix review ticket,b,2015/3/18,,
fix review ticket,b,2015/3/18,,
hide on edition server fix hide 280,b,2015/3/13,,
always close the stream,b,2015/3/18,,
always close the stream,b,2015/3/18,,
refactoring,o,2015/3/18,,
small change to provider,b,2015/3/18,,
upload file with custom file name previously uploading a file the file will have the same filename on the server a locally,b,2015/3/17,,
now the internal allows to give a custom filename,o,2015/3/17,,
avoid concurrent exception,o,2015/3/17,,
use instead of operation on iterators of are not supported,f,2015/3/17,,
these method throw,b,2015/3/17,,
review,b,2015/3/16,,
go directly into document chooser in newer android version it ha integrated file and image chooser support,b,2015/3/14,,
fix compatibility with older android version turn out just using another query variant wa enough,b,2015/3/14,,
partial fix of issue 297 this fix file upload from all source,b,2015/3/13,,
fix refresh via menu bar,b,2015/3/13,,
update server,b,2015/3/13,,
update version code,b,2015/3/13,,
