improve check message,b,2014/4/01,,
fixed a bug in,b,2014/4/01,,
improved check,b,2014/4/01,,
update,b,2014/3/23,,
update login request,b,2014/3/19,,
fixed crash bug reported on play,b,2014/3/13,,
updated version to 091,f,2014/3/13,,
load from all possible default location camera photo and ha default location on phone,b,2014/3/13,,
we try to load all of them choosing to upload,b,2014/3/13,,
