App,Store,App ID,Review ID,Country,Version,Rating,Date,Author,Subject,Body,Translated Subject,Translated Body
MTG Familiar,Google Play,com.gelakinetic.mtgfam,Z3A6QU9xcFRPRnh4VDN6V3FFdkF2STMxSk5EQ1kzdElNTURtUEtMTnZrQVhtRzJKYkd2V2NnR1hCRXdTYjdQQ2EtSHlRa1ozMGI4djhKX09oZUZXRWJUR1E,English,,5,2016-01-02,dustin warner,Still the best MTG app,the developer did an outstanding job,,
MTG Familiar,Google Play,com.gelakinetic.mtgfam,Z3A6QU9xcFRPRlNHakV2UnpocWxVVHZZQnZUZjdJZlR0UzVlbU16eTQyM1ZQNUxoT2xVQ2d2eHhnSW5kN2txUXNUeTEyWmFjV3Vxd0xZZHU1T0pjbU9hTFE,English,,5,2016-01-02,Jose Rene Ticsay,Vital App for an MTG player,this is a very important tool playing magic and it also come with the official rule,,
MTG Familiar,Google Play,com.gelakinetic.mtgfam,Z3A6QU9xcFRPRlNHakV2UnpocWxVVHZZQnZUZjdJZlR0UzVlbU16eTQyM1ZQNUxoT2xVQ2d2eHhnSW5kN2txUXNUeTEyWmFjV3Vxd0xZZHU1T0pjbU9hTFE,English,,5,2016-01-02,Jose Rene Ticsay,Vital App for an MTG player,the card searcher is also very and easy to use,,
MTG Familiar,Google Play,com.gelakinetic.mtgfam,Z3A6QU9xcFRPSGFzNDg2VlpWNENzN3MwTWFvcWIyeGVtcjg0dWV3bFpNaWZ4ci0xWGVJWnVJVU5OUWFNTjN4M2ZPODBPOTFjczFvWUhxVW43dlY1STB3dnc,English,,5,2016-01-01,Alex Miles,Fantastic!,i love how it work and is add free,,
MTG Familiar,Google Play,com.gelakinetic.mtgfam,Z3A6QU9xcFRPR0lLWW5pV0o2Wkw0NE5TY2ZvQ0tGcjBvZ0JnUURYS0ZwQWZQeHhwYUJ3UXpTZ1VDQ1dsbUJoVGVlNFpFMDZkUVBjWXUyNHhBNEhIbU5QT0E,English,,5,2015-12-29,Michael Bratkovich,Good Search Engine,really cool card database,,
MTG Familiar,Google Play,com.gelakinetic.mtgfam,Z3A6QU9xcFRPR0lLWW5pV0o2Wkw0NE5TY2ZvQ0tGcjBvZ0JnUURYS0ZwQWZQeHhwYUJ3UXpTZ1VDQ1dsbUJoVGVlNFpFMDZkUVBjWXUyNHhBNEhIbU5QT0E,English,,5,2015-12-29,Michael Bratkovich,Good Search Engine,it is effective and highly recommended,,
MTG Familiar,Google Play,com.gelakinetic.mtgfam,Z3A6QU9xcFRPR1pIbFBfSkxvaVlUa295ZDJuWUFhX1hkQjREa3l3dkdVNE9nVGtiMHhPVnlUU09lOWdDeTRadzZMWFNfUVJoTUMyQTZsT0hPWkdXOHE3aVE,English,,5,2015-12-29,The Scrawl Gaming,Great App,use it a staple for any magic player,,
MTG Familiar,Google Play,com.gelakinetic.mtgfam,Z3A6QU9xcFRPRXk0Y2J4X2lWVHowOWEzSTFhSFNxelVmTGNUUEhXeVphSmpmUkpNZ1UxZFJqX3J2dFlBamlNekg3T0ZmcktjclBTOTUya0JGRVoyVFlUMHc,English,,5,2015-12-27,Lucas Filipiak,Must Have!,every magic player in the world need this,,
MTG Familiar,Google Play,com.gelakinetic.mtgfam,Z3A6QU9xcFRPRXk0Y2J4X2lWVHowOWEzSTFhSFNxelVmTGNUUEhXeVphSmpmUkpNZ1UxZFJqX3J2dFlBamlNekg3T0ZmcktjclBTOTUya0JGRVoyVFlUMHc,English,,5,2015-12-27,Lucas Filipiak,Must Have!,i use it daily,,
MTG Familiar,Google Play,com.gelakinetic.mtgfam,Z3A6QU9xcFRPRXk0Y2J4X2lWVHowOWEzSTFhSFNxelVmTGNUUEhXeVphSmpmUkpNZ1UxZFJqX3J2dFlBamlNekg3T0ZmcktjclBTOTUya0JGRVoyVFlUMHc,English,,5,2015-12-27,Lucas Filipiak,Must Have!,full of almost every feature you would ever need,,
MTG Familiar,Google Play,com.gelakinetic.mtgfam,Z3A6QU9xcFRPRXk0Y2J4X2lWVHowOWEzSTFhSFNxelVmTGNUUEhXeVphSmpmUkpNZ1UxZFJqX3J2dFlBamlNekg3T0ZmcktjclBTOTUya0JGRVoyVFlUMHc,English,,5,2015-12-27,Lucas Filipiak,Must Have!,even if you know a few fragment of a the search can find it,,
MTG Familiar,Google Play,com.gelakinetic.mtgfam,Z3A6QU9xcFRPRXk0Y2J4X2lWVHowOWEzSTFhSFNxelVmTGNUUEhXeVphSmpmUkpNZ1UxZFJqX3J2dFlBamlNekg3T0ZmcktjclBTOTUya0JGRVoyVFlUMHc,English,,5,2015-12-27,Lucas Filipiak,Must Have!,i wish the wish list system wa more fleshed out and quick to use,,
MTG Familiar,Google Play,com.gelakinetic.mtgfam,Z3A6QU9xcFRPRXk0Y2J4X2lWVHowOWEzSTFhSFNxelVmTGNUUEhXeVphSmpmUkpNZ1UxZFJqX3J2dFlBamlNekg3T0ZmcktjclBTOTUya0JGRVoyVFlUMHc,English,,5,2015-12-27,Lucas Filipiak,Must Have!,i wish o could sort by deck,,
MTG Familiar,Google Play,com.gelakinetic.mtgfam,Z3A6QU9xcFRPRXk0Y2J4X2lWVHowOWEzSTFhSFNxelVmTGNUUEhXeVphSmpmUkpNZ1UxZFJqX3J2dFlBamlNekg3T0ZmcktjclBTOTUya0JGRVoyVFlUMHc,English,,5,2015-12-27,Lucas Filipiak,Must Have!,other that,,
MTG Familiar,Google Play,com.gelakinetic.mtgfam,Z3A6QU9xcFRPRXk0Y2J4X2lWVHowOWEzSTFhSFNxelVmTGNUUEhXeVphSmpmUkpNZ1UxZFJqX3J2dFlBamlNekg3T0ZmcktjclBTOTUya0JGRVoyVFlUMHc,English,,5,2015-12-27,Lucas Filipiak,Must Have!,and no ad,,
MTG Familiar,Google Play,com.gelakinetic.mtgfam,Z3A6QU9xcFRPSGNFeWdaS3VISWhtTGlrTF9NdVlFZGxadmNDcmNjaEVxeHIxTjJiRDJGYS10R2FMSldtNlE3TVNoVG1lQ3p2ZnZGc2UwM3ZHTm0yNy1uV3c,English,,5,2015-12-27,Mark Stoddard,Great free app!,it just time not sure why,,
MTG Familiar,Google Play,com.gelakinetic.mtgfam,Z3A6QU9xcFRPRkNXMEwxMkc1MS1sdHZQcW9rbTA5cTlIbFM5b3VSNV9GX3Vra3FQRmlrWFpJdnpaUHdidWtlQ1NoNU82NVFoMUg3LWh5N0plX0t6RVBEVnc,English,,4,2015-12-23,Jeremy Janowski,Awesome,great i use it to design all my deck and love the option to price the card too,,
MTG Familiar,Google Play,com.gelakinetic.mtgfam,Z3A6QU9xcFRPRkNXMEwxMkc1MS1sdHZQcW9rbTA5cTlIbFM5b3VSNV9GX3Vra3FQRmlrWFpJdnpaUHdidWtlQ1NoNU82NVFoMUg3LWh5N0plX0t6RVBEVnc,English,,4,2015-12-23,Jeremy Janowski,Awesome,the only thing i would suggest is being able to have multiple just i can keep all the different list separate from each other,,
MTG Familiar,Google Play,com.gelakinetic.mtgfam,Z3A6QU9xcFRPR0J6RWJwdnNWaGhESGM4bnRtbUt2TmpGcFkyTVZrbC1QZWVQU1FiYmhVMXRKR29UR0VWcmpQd0ZnZ0t6NVNtZjZXZUpWUmIwNmFLLUZSQmc,English,,5,2015-12-22,Kaelan Mick,Best MTG app out there!,possible you should add a way to sort your in folder,,
MTG Familiar,Google Play,com.gelakinetic.mtgfam,Z3A6QU9xcFRPR0J6RWJwdnNWaGhESGM4bnRtbUt2TmpGcFkyTVZrbC1QZWVQU1FiYmhVMXRKR29UR0VWcmpQd0ZnZ0t6NVNtZjZXZUpWUmIwNmFLLUZSQmc,English,,5,2015-12-22,Kaelan Mick,Best MTG app out there!,even without you earn every star,,
MTG Familiar,Google Play,com.gelakinetic.mtgfam,Z3A6QU9xcFRPRWZlUTFzN3RObFgwamQweEJLUjhvTHdjVzNKLUpRbjl4c1JvRFkyWGltT0E4bk1weVpNbkUzdzBsYXRHY2hkb09RcFEyc2t1M1JKZHNFWEE,English,,5,2015-12-21,Mike Brink,Great for beginners,it make it easy not to buy a bunch of dice and counter building i a collection,,
MTG Familiar,Google Play,com.gelakinetic.mtgfam,Z3A6QU9xcFRPRWR1Q2gwc1BsVURUSWJNeUlLZkJja3o2eTdhbkIzYjJvT3NKcWhTeFF0eXRiTHEzS0RaSEpDQ2RhcThZUDJWdzhBSi1IWl9ETjhqVmJUOVE,English,,5,2015-12-16,Savannah Brown,GREAT APP,i love it,,
MTG Familiar,Google Play,com.gelakinetic.mtgfam,Z3A6QU9xcFRPRWR1Q2gwc1BsVURUSWJNeUlLZkJja3o2eTdhbkIzYjJvT3NKcWhTeFF0eXRiTHEzS0RaSEpDQ2RhcThZUDJWdzhBSi1IWl9ETjhqVmJUOVE,English,,5,2015-12-16,Savannah Brown,GREAT APP,nothing like having price right there for trading,,
MTG Familiar,Google Play,com.gelakinetic.mtgfam,Z3A6QU9xcFRPRWZpaVRsRGhsUER1aHZtZEt1SmJ6NGJIcklnZnhLMC1iYU9jS0lEWWd6OUt0dUllOVpJdXd6OHlFM2dVeHVMQUw5TEZnOHA1dGhWdVZkdnc,English,,5,2015-12-10,Philip Sagnay,Best Free App Gets Better,first mtg should be on any device,,
MTG Familiar,Google Play,com.gelakinetic.mtgfam,Z3A6QU9xcFRPRWZpaVRsRGhsUER1aHZtZEt1SmJ6NGJIcklnZnhLMC1iYU9jS0lEWWd6OUt0dUllOVpJdXd6OHlFM2dVeHVMQUw5TEZnOHA1dGhWdVZkdnc,English,,5,2015-12-10,Philip Sagnay,Best Free App Gets Better,a deck builder feature to deck list would be great for brewing different format and to keep separate,,
MTG Familiar,Google Play,com.gelakinetic.mtgfam,bGc6QU9xcFRPR29zTXJWT2M1WU5YQ2dxR2ttZEN2ODktQWZ2RXRtWThvZlNFR1BBOUNFU0lnaWdnOHNkYS04OGdsbksxMVQ4R0dnQXhiOUdwOUVNbXlfaHc,English,,5,2015-12-09,A Google User,Finally an offline DB!,having an card database is gold you live in a small town with lousy data coverage,,
MTG Familiar,Google Play,com.gelakinetic.mtgfam,bGc6QU9xcFRPR29zTXJWT2M1WU5YQ2dxR2ttZEN2ODktQWZ2RXRtWThvZlNFR1BBOUNFU0lnaWdnOHNkYS04OGdsbksxMVQ4R0dnQXhiOUdwOUVNbXlfaHc,English,,5,2015-12-09,A Google User,Finally an offline DB!,the search widget is also very useful,,
MTG Familiar,Google Play,com.gelakinetic.mtgfam,Z3A6QU9xcFRPRzdMdzdpRWs1UXVqM195NkREdHlibl9GTGhoaEo5cjMyTWRTaHM1QUN5dmhicWhNRUVQUDY2SHVmT1FDNHRSU0E4NHNIUi1kZ3M0MUtnUHc,English,,5,2015-12-08,Doobie Keebler,,incredibly easy to use and functional,,
MTG Familiar,Google Play,com.gelakinetic.mtgfam,Z3A6QU9xcFRPRzdMdzdpRWs1UXVqM195NkREdHlibl9GTGhoaEo5cjMyTWRTaHM1QUN5dmhicWhNRUVQUDY2SHVmT1FDNHRSU0E4NHNIUi1kZ3M0MUtnUHc,English,,5,2015-12-08,Doobie Keebler,,i use it every day,,
MTG Familiar,Google Play,com.gelakinetic.mtgfam,Z3A6QU9xcFRPRzdMdzdpRWs1UXVqM195NkREdHlibl9GTGhoaEo5cjMyTWRTaHM1QUN5dmhicWhNRUVQUDY2SHVmT1FDNHRSU0E4NHNIUi1kZ3M0MUtnUHc,English,,5,2015-12-08,Doobie Keebler,,only shortcoming is sometimes it take awhile to get new set up,,
MTG Familiar,Google Play,com.gelakinetic.mtgfam,Z3A6QU9xcFRPRXVQanB0TFlHaU4zYTZnVnBROVhic25KUDRaOHhDZWVwU3AyUWVCUU9zVGIxZHVubEFUSWJYaTBMNXJESUo4VE5RZW80U0tCckNPUEZCV0E,English,,5,2015-12-08,Tyler Skalka,Best MTG app,by far the best mtg i have used,,
MTG Familiar,Google Play,com.gelakinetic.mtgfam,Z3A6QU9xcFRPRXVQanB0TFlHaU4zYTZnVnBROVhic25KUDRaOHhDZWVwU3AyUWVCUU9zVGIxZHVubEFUSWJYaTBMNXJESUo4VE5RZW80U0tCckNPUEZCV0E,English,,5,2015-12-08,Tyler Skalka,Best MTG app,definitely worth your time,,
MTG Familiar,Google Play,com.gelakinetic.mtgfam,Z3A6QU9xcFRPR2FGTXhDOVBCSTgtOTMwanZPZjJXY3kyZExDVExISkFSRDhCVTdrRHVoUjVOQzZjbWZETXFQN2IzTkl4LW5jZTNZTUoyalJqRTYzVEp6M3c,English,,4,2015-12-07,troy harper,,yo update it for the new commander,,
MTG Familiar,Google Play,com.gelakinetic.mtgfam,Z3A6QU9xcFRPSGNEa3QzWTBoR2pOYzlZcW1kUEdIblBiSWgyT25mU1RkdjRMdk04NlR2c3ZSZWRNd3Q0V1NlYlVMeFNOZTNGVlpXbkxoSDNTNFV2V0hIY2c,English,,5,2015-12-06,Arnel Ang,,great free,,
MTG Familiar,Google Play,com.gelakinetic.mtgfam,Z3A6QU9xcFRPRVBhbWNpMkVnMTg1TmxGU0ZwWFZpUXhzaWRIU2NzbFdxeHgwbF90a3dSRGVqRkNZXzF0RjNqbWVqNy1uQ3IxS2hFUWFXSXpwRU5JdVlRYXc,English,,4,2015-12-02,Jarrod Harris,Definitely my favorite MtG app,more frequent update are needed,,
MTG Familiar,Google Play,com.gelakinetic.mtgfam,Z3A6QU9xcFRPRWhIeFFYQzZULUo0V1A5M05qNEQwSk9EcVdpV1lkejJ5Rzk3cXdtbXA3U3Y3VFM2aTNaVGZScURiNzhIUkFQaWxkYmNDWU9ZVWpSSlljbWc,English,,5,2015-12-01,Catrina Hallett,Amazing!,0 complaint,,
MTG Familiar,Google Play,com.gelakinetic.mtgfam,Z3A6QU9xcFRPSENaTk5EQmp6UVU1T1h3VlV1Q2RVUVBtRU84SW9IM3lxdW13dEFJeXVaM0gtVUxRSFNFRE5oS1hPSG9ON2l0djJUMlhFNGNUV082elhxa2c,English,,5,2015-11-30,Scout Trooper,,very thanks for making the,,
MTG Familiar,Google Play,com.gelakinetic.mtgfam,Z3A6QU9xcFRPRlk0YXlZSngwLTFISF9GT1hIazVGWmh5R1kxZU9OWFBGX2VhYjc4NWJwRVpXbmpzZ0ZkbzIyX1BkS2R5eWw1Z0N6NElXVHRDaHNHVzlmUEE,English,,5,2015-11-28,Steven Rhodes,Go to,someone had a question at my local card shop i just pulled this up very handy,,
MTG Familiar,Google Play,com.gelakinetic.mtgfam,Z3A6QU9xcFRPRmZlLW9MaFhvQVdFUmE4VlZtMTNCS3NnMkhTMnFtUnFybzBzSVZFUDNXc0VKTi1XZ3hULW01Y2g3Z0ZXaGpQUVAyZ0FCenFYdEEwR1lEZGc,English,,4,2015-11-26,Trevor Tolk,Almost perfect...,please add the ability to search based on color casting for devotion,,
MTG Familiar,Google Play,com.gelakinetic.mtgfam,Z3A6QU9xcFRPSFRLQjgybDFXM0JNenJYaGt0Tng5b2tJMFNpUG5jSldPUnpHVC1teTI1aEgzZjh0QzZzWTRObU1CS3Nqel92bTB3dC12UU96dnlPTkxDYVE,English,,5,2015-11-25,Mike Crowl,Great app,dose what i need it to do,,
MTG Familiar,Google Play,com.gelakinetic.mtgfam,Z3A6QU9xcFRPRVhmc1V3UWxDU01zNzVHT1lIWGxMT3FhOEtWdE5OaHhvRV9IdEdYVVNCd0pJTDFQcjNhYlI4eXZZbnNBdHhRX1lhbFFDaHNFMGs4Wk1Fdmc,English,,5,2015-11-21,Sean Gold,Great App!,the entire is just amazing,,
MTG Familiar,Google Play,com.gelakinetic.mtgfam,Z3A6QU9xcFRPSEJlNmJ3bHJGNWhqeFcxYVhxU3ZOTmFVMFdTNlpJRVc4LVkzLTNua1BGVHp2amxXbXExQzZuOXFJVGNyTUFNSENQRk4yTnZEMW44T0RLQnc,English,,5,2015-11-20,Atreyu Franklin,Best MTG app I've ever used,i have been using this for 2 year now,,
MTG Familiar,Google Play,com.gelakinetic.mtgfam,Z3A6QU9xcFRPSEJlNmJ3bHJGNWhqeFcxYVhxU3ZOTmFVMFdTNlpJRVc4LVkzLTNua1BGVHp2amxXbXExQzZuOXFJVGNyTUFNSENQRk4yTnZEMW44T0RLQnc,English,,5,2015-11-20,Atreyu Franklin,Best MTG app I've ever used,this application ha everything you need for an mtg besides a deck which is totally acceptable for a free,,
MTG Familiar,Google Play,com.gelakinetic.mtgfam,Z3A6QU9xcFRPSEJlNmJ3bHJGNWhqeFcxYVhxU3ZOTmFVMFdTNlpJRVc4LVkzLTNua1BGVHp2amxXbXExQzZuOXFJVGNyTUFNSENQRk4yTnZEMW44T0RLQnc,English,,5,2015-11-20,Atreyu Franklin,Best MTG app I've ever used,the search engine is simple and easy to figure out and the option for what you are searching for are extremely broad,,
MTG Familiar,Google Play,com.gelakinetic.mtgfam,Z3A6QU9xcFRPSEJlNmJ3bHJGNWhqeFcxYVhxU3ZOTmFVMFdTNlpJRVc4LVkzLTNua1BGVHp2amxXbXExQzZuOXFJVGNyTUFNSENQRk4yTnZEMW44T0RLQnc,English,,5,2015-11-20,Atreyu Franklin,Best MTG app I've ever used,the life counter ha many including commander formatted life you have multiple people life countered,,
MTG Familiar,Google Play,com.gelakinetic.mtgfam,Z3A6QU9xcFRPSEJlNmJ3bHJGNWhqeFcxYVhxU3ZOTmFVMFdTNlpJRVc4LVkzLTNua1BGVHp2amxXbXExQzZuOXFJVGNyTUFNSENQRk4yTnZEMW44T0RLQnc,English,,5,2015-11-20,Atreyu Franklin,Best MTG app I've ever used,the ruling is up to date and the price are also always up to date,,
MTG Familiar,Google Play,com.gelakinetic.mtgfam,Z3A6QU9xcFRPSEJlNmJ3bHJGNWhqeFcxYVhxU3ZOTmFVMFdTNlpJRVc4LVkzLTNua1BGVHp2amxXbXExQzZuOXFJVGNyTUFNSENQRk4yTnZEMW44T0RLQnc,English,,5,2015-11-20,Atreyu Franklin,Best MTG app I've ever used,i would recommend this to anyone,,
MTG Familiar,Google Play,com.gelakinetic.mtgfam,Z3A6QU9xcFRPRXdsNFFOWk9PLUJyWWE0SkZOWG5FS2o1SEJWRWVsTXhMbVozOVgtWWoxRExTQW83M2M0cmdxdFBScHJYQmx2ZUt1LVhaWkNha2pLMmJpWXc,English,,5,2015-11-19,John Brooks,Great app!,highly recommend you use this for card rule question and even keeping track of life for many variation of the game,,
MTG Familiar,Google Play,com.gelakinetic.mtgfam,Z3A6QU9xcFRPRl9zbkN2ZmZlT3Y3UGlVUTE1eWRFVlVnaENNcnc0Wk1ZM1Vkb1I4WGtna21zblE3QnJURmE3VW4xQm1WYVZoMjA5Q1dKRmp0VE4zeVRGMWc,English,,5,2015-11-19,itachi uchiha,Awsome,best one iv use far,,
MTG Familiar,Google Play,com.gelakinetic.mtgfam,Z3A6QU9xcFRPR3Z0RGttT0xLQUYyWFlTOVRRQ1luZkFJNEZQTkI1OVJVUUVnT0VQVTZjeFd2VkhxYy0yUVVIdFFSa1N4UjFvUnpDQ1gyS2otOE1Cb1NvcHc,English,,5,2015-11-18,Judah Burlingame,,this is the best magic available for android phone,,
MTG Familiar,Google Play,com.gelakinetic.mtgfam,Z3A6QU9xcFRPRUwxY3ZQaXlSUVFzMzgxUXpJTy1ZRkR3ZDFubXZuTVA3Vk5mWmFER3g3RWRrMS1KSXlucGgtcDVubk9FZkw3M0VxUEdVSVA5U1RvS0ZSemc,English,,4,2015-11-18,Moses C,Awesome,would give 5 star for a list function,,
MTG Familiar,Google Play,com.gelakinetic.mtgfam,Z3A6QU9xcFRPRjRCczY4YWw3Zk16LWw2LUlzUGNfVkQ0ZGc2TjByc0FYYjJuY01CMUNmX2wtSUtYNHNLYjJIRUpSYWVuZWtUa3Azbm10XzR1SXAyeGgwOVE,English,,1,2015-11-17,Vinita Smart,Won't open,it crash instantly,,
MTG Familiar,Google Play,com.gelakinetic.mtgfam,Z3A6QU9xcFRPRjRCczY4YWw3Zk16LWw2LUlzUGNfVkQ0ZGc2TjByc0FYYjJuY01CMUNmX2wtSUtYNHNLYjJIRUpSYWVuZWtUa3Azbm10XzR1SXAyeGgwOVE,English,,1,2015-11-17,Vinita Smart,Won't open,every time i try to open it go white screen and say it crashed,,
MTG Familiar,Google Play,com.gelakinetic.mtgfam,Z3A6QU9xcFRPRjRCczY4YWw3Zk16LWw2LUlzUGNfVkQ0ZGc2TjByc0FYYjJuY01CMUNmX2wtSUtYNHNLYjJIRUpSYWVuZWtUa3Azbm10XzR1SXAyeGgwOVE,English,,1,2015-11-17,Vinita Smart,Won't open,very disappointing,,
MTG Familiar,Google Play,com.gelakinetic.mtgfam,Z3A6QU9xcFRPSFBGSnRJTmtwZ2xwbG4zOHFNbU9NcWxvaDlkQ1FlNldlSmJfY1lnbWJsRzZXWERwc2U2VjJCa3VXN0M4Vlg3VC1GYWgxSjFNdUMzaEZDSnc,English,,5,2015-11-17,Dindo Jardiolin,Literally the best,card search is one of the best feature for avid brewer like myself,,
MTG Familiar,Google Play,com.gelakinetic.mtgfam,Z3A6QU9xcFRPSFBGSnRJTmtwZ2xwbG4zOHFNbU9NcWxvaDlkQ1FlNldlSmJfY1lnbWJsRzZXWERwc2U2VjJCa3VXN0M4Vlg3VC1GYWgxSjFNdUMzaEZDSnc,English,,5,2015-11-17,Dindo Jardiolin,Literally the best,other function are handy well like trade and,,
MTG Familiar,Google Play,com.gelakinetic.mtgfam,Z3A6QU9xcFRPSFBGSnRJTmtwZ2xwbG4zOHFNbU9NcWxvaDlkQ1FlNldlSmJfY1lnbWJsRzZXWERwc2U2VjJCa3VXN0M4Vlg3VC1GYWgxSjFNdUMzaEZDSnc,English,,5,2015-11-17,Dindo Jardiolin,Literally the best,loving it,,
MTG Familiar,Google Play,com.gelakinetic.mtgfam,Z3A6QU9xcFRPRTQxOGU1SzBUdEZaekduN00wUnBOeV9nOVVSbUg3MDdsMUtRR3Nqd3VKeVY4NXFfVmJ4eWdpNW40aTQ5Tjk2TjNtVHN0bjYyRjBxTk9vTEE,English,,5,2015-11-14,Isaiah Kennedy,Great app,great,,
MTG Familiar,Google Play,com.gelakinetic.mtgfam,Z3A6QU9xcFRPRTQxOGU1SzBUdEZaekduN00wUnBOeV9nOVVSbUg3MDdsMUtRR3Nqd3VKeVY4NXFfVmJ4eWdpNW40aTQ5Tjk2TjNtVHN0bjYyRjBxTk9vTEE,English,,5,2015-11-14,Isaiah Kennedy,Great app,totally work easily,,
MTG Familiar,Google Play,com.gelakinetic.mtgfam,Z3A6QU9xcFRPRUxtXzlQMFFpbXA0blhLcVExcWM4RU4wWjVwR09xS21YS1NPU3NqRlpyd1ByZUFXQWRHR2hoOENMTkJaVXpRanE0a3hoZDF6OWJyUWFqREE,English,,5,2015-11-12,Brett Piva,Great app!,east to search for card,,
MTG Familiar,Google Play,com.gelakinetic.mtgfam,Z3A6QU9xcFRPRUxtXzlQMFFpbXA0blhLcVExcWM4RU4wWjVwR09xS21YS1NPU3NqRlpyd1ByZUFXQWRHR2hoOENMTkJaVXpRanE0a3hoZDF6OWJyUWFqREE,English,,5,2015-11-12,Brett Piva,Great app!,the dice and life counter are clean and east to use,,
MTG Familiar,Google Play,com.gelakinetic.mtgfam,Z3A6QU9xcFRPRUxtXzlQMFFpbXA0blhLcVExcWM4RU4wWjVwR09xS21YS1NPU3NqRlpyd1ByZUFXQWRHR2hoOENMTkJaVXpRanE0a3hoZDF6OWJyUWFqREE,English,,5,2015-11-12,Brett Piva,Great app!,a must have for any mtg player,,
MTG Familiar,Google Play,com.gelakinetic.mtgfam,Z3A6QU9xcFRPSERtWGNoaklxaC1sQmFrX3F6eUlxREw1Q2Vob1FLZEJ2QnEtd1VtbUJFN3MtcWYyaDEtOHJrSzBldjlIY1NFUTJhX05uLWJUX25UdlluaWc,English,,5,2015-11-11,Matthew Del Valle,Great,way better the gatherer,,
MTG Familiar,Google Play,com.gelakinetic.mtgfam,Z3A6QU9xcFRPRm9qY0V5ZGotRnktUUExcS10N1gzdTN1eVY5bUljZHhZNTM1bE43RmpXR29NVno2STZZNGsxYjJHci1ka3pJOTI5ZVF6cFdVY1VpazJoOXc,English,,4,2015-11-11,jean-francois florent,,reconnaissance la camera,,
MTG Familiar,Google Play,com.gelakinetic.mtgfam,Z3A6QU9xcFRPRm9qY0V5ZGotRnktUUExcS10N1gzdTN1eVY5bUljZHhZNTM1bE43RmpXR29NVno2STZZNGsxYjJHci1ka3pJOTI5ZVF6cFdVY1VpazJoOXc,English,,4,2015-11-11,jean-francois florent,,,,
MTG Familiar,Google Play,com.gelakinetic.mtgfam,Z3A6QU9xcFRPRWFyVlFscGJIS0tFbUNLY0JzeVVJMVljNEZrNjFnMEdrUnYteWhSenZCZTdJR2VETkVVazRnU1Atc0cyTms3YW1UU0oyV1ZEMHVZYmQ0ZWc,English,,5,2015-11-08,Antons Kijaņica,MTG player's best companion,simple and intuitive regularly updated card mtg comprehensive rule life total fully customizable card search and more,,
MTG Familiar,Google Play,com.gelakinetic.mtgfam,Z3A6QU9xcFRPRWFyVlFscGJIS0tFbUNLY0JzeVVJMVljNEZrNjFnMEdrUnYteWhSenZCZTdJR2VETkVVazRnU1Atc0cyTms3YW1UU0oyV1ZEMHVZYmQ0ZWc,English,,5,2015-11-08,Antons Kijaņica,MTG player's best companion,plus small bonus judge and card trading,,
MTG Familiar,Google Play,com.gelakinetic.mtgfam,Z3A6QU9xcFRPRWFyVlFscGJIS0tFbUNLY0JzeVVJMVljNEZrNjFnMEdrUnYteWhSenZCZTdJR2VETkVVazRnU1Atc0cyTms3YW1UU0oyV1ZEMHVZYmQ0ZWc,English,,5,2015-11-08,Antons Kijaņica,MTG player's best companion,really awesome,,
MTG Familiar,Google Play,com.gelakinetic.mtgfam,Z3A6QU9xcFRPR3R3cFN6MkExU1ExdUpidUtWNDFtV3M2Wkc5V1NGd2doMlJuYTVLRFRnZnpOR1VfUFNmdm9tQ09CQkpMb3prM240anVmMHpFellUOEJSN2c,English,,5,2015-11-07,Good _robot,Awesome,ha everything i would need for magic,,
MTG Familiar,Google Play,com.gelakinetic.mtgfam,Z3A6QU9xcFRPR0lteDl0dnFDUHkzdHJBMHFfMkVjSEp4UXBRRklYeHdQR2d6S1VBUElZRDBiSVoydTRITTBITW5pLVBpbU5ENHo3NzZJWmV5ZTBEdEFrRnc,English,,4,2015-11-06,Sam,Needs 1 more thing,would be 5 star it had a deck builder,,
MTG Familiar,Google Play,com.gelakinetic.mtgfam,Z3A6QU9xcFRPRXp4eGZSX2tnQUR3MTh3ZkhvR3k2N3dGYlg3RGc3UTRJckJrVTViVnJpWk81NlI3UkRpdTBENG9RMkUtZnJiZGlzYVhaNjE0SzNIZnBseVE,English,,5,2015-11-03,Ricardo Jota,,amazing,,
MTG Familiar,Google Play,com.gelakinetic.mtgfam,Z3A6QU9xcFRPRXp4eGZSX2tnQUR3MTh3ZkhvR3k2N3dGYlg3RGc3UTRJckJrVTViVnJpWk81NlI3UkRpdTBENG9RMkUtZnJiZGlzYVhaNjE0SzNIZnBseVE,English,,5,2015-11-03,Ricardo Jota,,easy to and fast search,,
MTG Familiar,Google Play,com.gelakinetic.mtgfam,Z3A6QU9xcFRPR3RzQ0c5NG9ra1ZMREhaTkJSdC1EX0ViYlUtZU45SjNERDhCYzkwbjNDSGlKRVFXSFd4Rml3TmNaSV9OM1V0UEVnSnZESWVKVzlBWVB1WWc,English,,5,2015-10-31,Marcus Leviticus Dela Cruz,,love it,,
MTG Familiar,Google Play,com.gelakinetic.mtgfam,Z3A6QU9xcFRPR3RzQ0c5NG9ra1ZMREhaTkJSdC1EX0ViYlUtZU45SjNERDhCYzkwbjNDSGlKRVFXSFd4Rml3TmNaSV9OM1V0UEVnSnZESWVKVzlBWVB1WWc,English,,5,2015-10-31,Marcus Leviticus Dela Cruz,,it ha enough filter and easy search,,
MTG Familiar,Google Play,com.gelakinetic.mtgfam,Z3A6QU9xcFRPSFFpd3FQVjVSQ1VHakVxY0UyZldOazExZjJzR200aktrd05uWFRmUmFMd0VDLVJOb3JSS2hpblItUks1d1EwdmhMNzk1VkVyT2gzY09FQ2c,English,,5,2015-10-31,Michael Chapman,Amazing,been using this for a few year and had never disappointed me,,
MTG Familiar,Google Play,com.gelakinetic.mtgfam,Z3A6QU9xcFRPSFFpd3FQVjVSQ1VHakVxY0UyZldOazExZjJzR200aktrd05uWFRmUmFMd0VDLVJOb3JSS2hpblItUks1d1EwdmhMNzk1VkVyT2gzY09FQ2c,English,,5,2015-10-31,Michael Chapman,Amazing,now i only wish there wa a option magic plain got removed,,
MTG Familiar,Google Play,com.gelakinetic.mtgfam,Z3A6QU9xcFRPRnMxX3c1djZ6SGdxQV9CUFVfZnBGVDE5eHhTTUVIeGxNS21DeWdBcnBJTTlRWk9IbExNdGd3RW5Ya1cyUlhrZGxnTTdpcDd5M3FXQmRCSXc,English,,5,2015-10-30,Tak Naal,Almost perfect,first a collection you can store a checklist showing how many of which card you already own,,
MTG Familiar,Google Play,com.gelakinetic.mtgfam,Z3A6QU9xcFRPRnMxX3c1djZ6SGdxQV9CUFVfZnBGVDE5eHhTTUVIeGxNS21DeWdBcnBJTTlRWk9IbExNdGd3RW5Ya1cyUlhrZGxnTTdpcDd5M3FXQmRCSXc,English,,5,2015-10-30,Tak Naal,Almost perfect,a deck which could reference the collection list and tell you which card you still need for the deck you want to build,,
MTG Familiar,Google Play,com.gelakinetic.mtgfam,Z3A6QU9xcFRPRnMxX3c1djZ6SGdxQV9CUFVfZnBGVDE5eHhTTUVIeGxNS21DeWdBcnBJTTlRWk9IbExNdGd3RW5Ya1cyUlhrZGxnTTdpcDd5M3FXQmRCSXc,English,,5,2015-10-30,Tak Naal,Almost perfect,would make this perfect for me,,
MTG Familiar,Google Play,com.gelakinetic.mtgfam,Z3A6QU9xcFRPRlRaYjFLNFdFbjhjdjVpYXlKUERsNVhVeXpyQkRXaDY1ODNjZlRmc1dteDBQVGtiVzNnWHZzZnJ1S254dExlSkFFNW1sTFBIakQ2WmhZamc,English,,5,2015-10-30,HaloDrama4247,Love this app. Only one issue for me.,is there a way to search for spell with x in it cost,,
MTG Familiar,Google Play,com.gelakinetic.mtgfam,Z3A6QU9xcFRPRlRaYjFLNFdFbjhjdjVpYXlKUERsNVhVeXpyQkRXaDY1ODNjZlRmc1dteDBQVGtiVzNnWHZzZnJ1S254dExlSkFFNW1sTFBIakQ2WmhZamc,English,,5,2015-10-30,HaloDrama4247,Love this app. Only one issue for me.,other no is better for mtg,,
MTG Familiar,Google Play,com.gelakinetic.mtgfam,Z3A6QU9xcFRPRkUyX2dkelo0eHRjaEdBZElXTW9KeTZqS09yeU42WE9DZjEyZW9MUmtJczNTSmxxVlk4em5ja0RXOGpQWHBPODJ1aFNNZFF2UENWVVliakE,English,,5,2015-10-27,Ando Opolis,Very nice,aside from a small lag spike and is really nice to have around trading,,
MTG Familiar,Google Play,com.gelakinetic.mtgfam,Z3A6QU9xcFRPRmZ3TWtEaDhzUFVSV2VFUTNmV2VJT3phN05kc000MktxWkV4MlJCU3Bhbm41LWNLYjlPX01tcDJMdXNkWDlRaXlBZFVSUDlPcnppSTgya0E,English,,5,2015-10-27,Vinzuki BernZ,Awesomeness!!!,,,
MTG Familiar,Google Play,com.gelakinetic.mtgfam,Z3A6QU9xcFRPSHhQb1NvMnFHaW56N3ZFWWo1UmlldFlyYWpUcER6YlZZcjVQbXEzdC04VDhabllvcEI5UkZBR21DVllqaVRLeGtWQW9wYzU4RHliaS1pTVE,English,,5,2015-10-25,Michael Looney,,if you could add a way to filter search by card would be amazing,,
MTG Familiar,Google Play,com.gelakinetic.mtgfam,Z3A6QU9xcFRPSEhMZ2RnWE5DNFNtLUNaV0tUWGp5THNvT0FpNHhXWlNVRF83Z3JmeXBPamp0cUpyTVplSlRXRHFQX1I4c2MxbHczSnhzZGgxV1hDLTZ5ZGc,English,,5,2015-10-24,Travis Cerone,Great App,very helpful,,
MTG Familiar,Google Play,com.gelakinetic.mtgfam,Z3A6QU9xcFRPSEhMZ2RnWE5DNFNtLUNaV0tUWGp5THNvT0FpNHhXWlNVRF83Z3JmeXBPamp0cUpyTVplSlRXRHFQX1I4c2MxbHczSnhzZGgxV1hDLTZ5ZGc,English,,5,2015-10-24,Travis Cerone,Great App,doe everything i need it to,,
MTG Familiar,Google Play,com.gelakinetic.mtgfam,Z3A6QU9xcFRPSEhMZ2RnWE5DNFNtLUNaV0tUWGp5THNvT0FpNHhXWlNVRF83Z3JmeXBPamp0cUpyTVplSlRXRHFQX1I4c2MxbHczSnhzZGgxV1hDLTZ5ZGc,English,,5,2015-10-24,Travis Cerone,Great App,card search is fast and responsive,,
MTG Familiar,Google Play,com.gelakinetic.mtgfam,Z3A6QU9xcFRPSEhMZ2RnWE5DNFNtLUNaV0tUWGp5THNvT0FpNHhXWlNVRF83Z3JmeXBPamp0cUpyTVplSlRXRHFQX1I4c2MxbHczSnhzZGgxV1hDLTZ5ZGc,English,,5,2015-10-24,Travis Cerone,Great App,no complaint,,
MTG Familiar,Google Play,com.gelakinetic.mtgfam,Z3A6QU9xcFRPR0FsN0ZPbDM1WkpDVE1WRGYwVnlPMVFMa1FQTi1XanBSQW5zN1c2dEs4TnMxdEo2QzVxbFl3R1V1T0dMWGxXVi1MaUkwUU9QZ2cyUF82V3c,English,,4,2015-10-22,Scott karkosky,Its preaty good.,i wa looking for gave the card but this doe not currently do price check,,
MTG Familiar,Google Play,com.gelakinetic.mtgfam,Z3A6QU9xcFRPR0FsN0ZPbDM1WkpDVE1WRGYwVnlPMVFMa1FQTi1XanBSQW5zN1c2dEs4TnMxdEo2QzVxbFl3R1V1T0dMWGxXVi1MaUkwUU9QZ2cyUF82V3c,English,,4,2015-10-22,Scott karkosky,Its preaty good.,but otherwise this is a decent,,
MTG Familiar,Google Play,com.gelakinetic.mtgfam,Z3A6QU9xcFRPR1RIa0hOVjU5SXBHNVVJaTJpM293dTRCazVZS2RqeHlFRUlNcFRsYUNvZl95TEdNaTRFTVUzUTRsbWpNVTNic0dhODFLNjRtbE1xeHFDa1E,English,,5,2015-10-20,Andrew Burrell,Fantastic free app.,for an with no charge this is unbelievably good and ha a superb,,
MTG Familiar,Google Play,com.gelakinetic.mtgfam,Z3A6QU9xcFRPR1RIa0hOVjU5SXBHNVVJaTJpM293dTRCazVZS2RqeHlFRUlNcFRsYUNvZl95TEdNaTRFTVUzUTRsbWpNVTNic0dhODFLNjRtbE1xeHFDa1E,English,,5,2015-10-20,Andrew Burrell,Fantastic free app.,thanks again 5,,
MTG Familiar,Google Play,com.gelakinetic.mtgfam,Z3A6QU9xcFRPRTFNN0p6Nm1GU3pZc1pmZm1EY3pCNi1hUEdGUDlHOFNJZkFnOHloU2lPYmxsRy1Zdmc4Ym5PbXowX0FLLU5mTFV2V2pVSE83UGotaU1JTEE,English,,4,2015-10-15,Israel Baker,Great overall,just missing deck,,
MTG Familiar,Google Play,com.gelakinetic.mtgfam,Z3A6QU9xcFRPRlpoVlZScEpTNkYzV3poVkd1STdQUGFZUnpzUENPelhjMnlIODdWeFdkTW5STm1ZY1hjc28xUFdheDhwMVJfc1lzMHVrRE5MTUxpTUFVRlE,English,,4,2015-10-14,Dan Zaetz,How do I search for (TAP)?,how do i search for card with the symbol in it,,
MTG Familiar,Google Play,com.gelakinetic.mtgfam,Z3A6QU9xcFRPRlpoVlZScEpTNkYzV3poVkd1STdQUGFZUnpzUENPelhjMnlIODdWeFdkTW5STm1ZY1hjc28xUFdheDhwMVJfc1lzMHVrRE5MTUxpTUFVRlE,English,,4,2015-10-14,Dan Zaetz,How do I search for (TAP)?,is it even possible in this,,
MTG Familiar,Google Play,com.gelakinetic.mtgfam,Z3A6QU9xcFRPSFdnY3poYzlJamZ0WWl0X000TGEwdlI5bDY3ZlFOUXRnUlpXOGYwNDA3Z3Mxa3FwZEFWRTRsejF6Sm5qVzlFeFRhZ0ZiMjA0MFk4S2JWVXc,English,,5,2015-10-13,Rodrigo Pereira,,awesome,,
MTG Familiar,Google Play,com.gelakinetic.mtgfam,Z3A6QU9xcFRPRk9qSjV3ZFVscG10ME45by1jenlGcW96WWt0b1dDYTg2OXk0enJ2bTFNalFyakp0Zzg5a2NHdC1jdk9nT3FSMEYtSXA4NUNDSG5LRl80WlE,English,,5,2015-10-13,Neil Patrick Ramos,By far the best mtg app there is,enough said,,
MTG Familiar,Google Play,com.gelakinetic.mtgfam,Z3A6QU9xcFRPRkFBWE5CTldobUFPZm1yNWhKck1ELTgyY3E0dEUzWGpBeHBIZkQ1X1BmZVZrZVU0LTBxZm9ZeEZtRFJ6aEJ6UlJaRm5VaDVlX0h6MFJmWVE,English,,5,2015-10-12,KeldonWarlord1,Great,convenient easy to use,,
MTG Familiar,Google Play,com.gelakinetic.mtgfam,Z3A6QU9xcFRPRkFBWE5CTldobUFPZm1yNWhKck1ELTgyY3E0dEUzWGpBeHBIZkQ1X1BmZVZrZVU0LTBxZm9ZeEZtRFJ6aEJ6UlJaRm5VaDVlX0h6MFJmWVE,English,,5,2015-10-12,KeldonWarlord1,Great,perfect,,
MTG Familiar,Google Play,com.gelakinetic.mtgfam,Z3A6QU9xcFRPRXB3Tm5lOHdOQlBKamdlWFVGbXJqVDRmMk9YSGoxaDl6bFpPN3ZfSGFHVlQxRVZvaDRTUGY5WEFVT0ZnU1RzZEhWaUE3aVhUMktrYUJfRkE,English,,3,2015-10-11,Brian Huyck,"Neat, but needs one thing",i like all the feature,,
MTG Familiar,Google Play,com.gelakinetic.mtgfam,Z3A6QU9xcFRPRXB3Tm5lOHdOQlBKamdlWFVGbXJqVDRmMk9YSGoxaDl6bFpPN3ZfSGFHVlQxRVZvaDRTUGY5WEFVT0ZnU1RzZEhWaUE3aVhUMktrYUJfRkE,English,,3,2015-10-11,Brian Huyck,"Neat, but needs one thing",problem i downloaded it hoping to save deck list and it ha no deck builder function,,
MTG Familiar,Google Play,com.gelakinetic.mtgfam,Z3A6QU9xcFRPRXB3Tm5lOHdOQlBKamdlWFVGbXJqVDRmMk9YSGoxaDl6bFpPN3ZfSGFHVlQxRVZvaDRTUGY5WEFVT0ZnU1RzZEhWaUE3aVhUMktrYUJfRkE,English,,3,2015-10-11,Brian Huyck,"Neat, but needs one thing",it ha but it need a deck builder,,
MTG Familiar,Google Play,com.gelakinetic.mtgfam,Z3A6QU9xcFRPRjUzMXdMWll5QndHc19oR2d0UHVlRm8yUHFkNUVGVlowVTBMT1RKQnVZaHBDYUh6NnF1QnJoTVdxQlppX2s2SWFucmNMeXlCWEcwSUNnLXc,English,,5,2015-10-09,Rob Mast,Very nice,all it need is a deck builder with like a price tally to let u know what your deck is i think would be awesome super convenient a well,,
MTG Familiar,Google Play,com.gelakinetic.mtgfam,Z3A6QU9xcFRPRjUzMXdMWll5QndHc19oR2d0UHVlRm8yUHFkNUVGVlowVTBMT1RKQnVZaHBDYUh6NnF1QnJoTVdxQlppX2s2SWFucmNMeXlCWEcwSUNnLXc,English,,5,2015-10-09,Rob Mast,Very nice,really like the pool and dice coin flip,,
MTG Familiar,Google Play,com.gelakinetic.mtgfam,Z3A6QU9xcFRPRjUzMXdMWll5QndHc19oR2d0UHVlRm8yUHFkNUVGVlowVTBMT1RKQnVZaHBDYUh6NnF1QnJoTVdxQlppX2s2SWFucmNMeXlCWEcwSUNnLXc,English,,5,2015-10-09,Rob Mast,Very nice,very good and run fast and efficient,,
MTG Familiar,Google Play,com.gelakinetic.mtgfam,Z3A6QU9xcFRPRjUzMXdMWll5QndHc19oR2d0UHVlRm8yUHFkNUVGVlowVTBMT1RKQnVZaHBDYUh6NnF1QnJoTVdxQlppX2s2SWFucmNMeXlCWEcwSUNnLXc,English,,5,2015-10-09,Rob Mast,Very nice,will be sending email about deck builder,,
MTG Familiar,Google Play,com.gelakinetic.mtgfam,Z3A6QU9xcFRPRWRWS0lOYm41bm1UeU1ZTVZGMWpkaGtRc2xrc3FpakdmQ3VJM1pIT0JyM3lNTVo1N3lkekJDVUJOV3pVYmlDODFGVXlaU2hVOU83TldrOFE,English,,5,2015-10-08,Ryan Jones,,excellent,,
MTG Familiar,Google Play,com.gelakinetic.mtgfam,Z3A6QU9xcFRPRUhIdzJLUnJVeTZnaDR4YnBBRjlzdFFRRkY2Mm5oR1Ezd2hwV3FfZURQMkVwUXk5amZMcm9SYWpBVE1jVnNRYTBReEtUOUlvazRNanZEV0E,English,,5,2015-10-08,Putu Swantara,3 yrs n counting,great,,
MTG Familiar,Google Play,com.gelakinetic.mtgfam,Z3A6QU9xcFRPRnljNUVTckxjMF82QU5tYjFpcjRjYnZudE9Mbi1nWjhyNjE1YUl3Rm1sMnJWd1RQQU05dV9rRF8wLXdwRVQ0alBHd25pUG5rNmUtcEJHSUE,English,,5,2015-10-07,Kass,Only thing lacking is a deck builder,this is the best for mtg fan both new and old,,
MTG Familiar,Google Play,com.gelakinetic.mtgfam,Z3A6QU9xcFRPRnljNUVTckxjMF82QU5tYjFpcjRjYnZudE9Mbi1nWjhyNjE1YUl3Rm1sMnJWd1RQQU05dV9rRF8wLXdwRVQ0alBHd25pUG5rNmUtcEJHSUE,English,,5,2015-10-07,Kass,Only thing lacking is a deck builder,a deck builder is the thing lacking is a deck builder,,
MTG Familiar,Google Play,com.gelakinetic.mtgfam,Z3A6QU9xcFRPRy1DdEFiTlE3MWZTSUZyam5IdzVtNTA5dWdwSHpZTEpuak9PYkduckJVWUhGdGhmWlIycEs3WkZkbW5YRUVqdzFHdERmbjctTmpMVFlsSXc,English,,5,2015-10-07,,Great,lg volt,,
MTG Familiar,Google Play,com.gelakinetic.mtgfam,Z3A6QU9xcFRPSFdqRmwxMV84LVlvTm13dkNGLXlSNjd6Tk1SRzNNcmhSdzg4OUc3anZtVnJIZGg0cE9sUVpmNlFocC1SaDFIdHprQURDUG1uLW8zTExGMHc,English,,2,2015-10-07,N/A N/A,Infect/Poison Bug,adjusting the life counter and infect counter cause the to crash 100 of the time,,
MTG Familiar,Google Play,com.gelakinetic.mtgfam,Z3A6QU9xcFRPSFdqRmwxMV84LVlvTm13dkNGLXlSNjd6Tk1SRzNNcmhSdzg4OUc3anZtVnJIZGg0cE9sUVpmNlFocC1SaDFIdHprQURDUG1uLW8zTExGMHc,English,,2,2015-10-07,N/A N/A,Infect/Poison Bug,this ha been a thing the last update or so,,
MTG Familiar,Google Play,com.gelakinetic.mtgfam,Z3A6QU9xcFRPSFdqRmwxMV84LVlvTm13dkNGLXlSNjd6Tk1SRzNNcmhSdzg4OUc3anZtVnJIZGg0cE9sUVpmNlFocC1SaDFIdHprQURDUG1uLW8zTExGMHc,English,,2,2015-10-07,N/A N/A,Infect/Poison Bug,i use it all the but this issue ha stayed,,
MTG Familiar,Google Play,com.gelakinetic.mtgfam,Z3A6QU9xcFRPRmM0N1FjeVVualpyRjVrVDBZbFhCbm1WektCYWQ5SmNsa1BncHZMZm9UT3lncGdSeFAxR2J1MHotWXF2VTExS1I5eTRrRjRhRkFjY3lmUmc,English,,5,2015-10-07,Jan Erik Madrigal,Convinient,very helpful,,
MTG Familiar,Google Play,com.gelakinetic.mtgfam,Z3A6QU9xcFRPRS1lVkJ1RHQ1UW5ucTFYVzhsSVJiWkFKaWNqU0tJN2NNX3FUWVhPa01xdWE1cVpYSTdpeDMxalA3NU4xUzJFTElCNzFmZGhDQTRPcldsWkE,English,,5,2015-10-07,Miggy Coo,BEST mtg App,complete and accurate pricing,,
MTG Familiar,Google Play,com.gelakinetic.mtgfam,Z3A6QU9xcFRPRWNZR1VGV0ZQMXoxa0N2TlMzLTVCOGoxZTQ5d19xS1JUM3hEdkJaT0RjUXY5M3lkZFBhcE5FaWVvRERjQ3dHa1BWczZzTUVLX2xxQmRYUHc,English,,1,2015-10-07,Jeremy Moore,Doesn't work,did not find card i searched for and i spelled them correctly they were right in front of me too,,
MTG Familiar,Google Play,com.gelakinetic.mtgfam,Z3A6QU9xcFRPRWNZR1VGV0ZQMXoxa0N2TlMzLTVCOGoxZTQ5d19xS1JUM3hEdkJaT0RjUXY5M3lkZFBhcE5FaWVvRERjQ3dHa1BWczZzTUVLX2xxQmRYUHc,English,,1,2015-10-07,Jeremy Moore,Doesn't work,deleted,,
MTG Familiar,Google Play,com.gelakinetic.mtgfam,Z3A6QU9xcFRPRWNZR1VGV0ZQMXoxa0N2TlMzLTVCOGoxZTQ5d19xS1JUM3hEdkJaT0RjUXY5M3lkZFBhcE5FaWVvRERjQ3dHa1BWczZzTUVLX2xxQmRYUHc,English,,1,2015-10-07,Jeremy Moore,Doesn't work,you need this you know what you are,,
MTG Familiar,Google Play,com.gelakinetic.mtgfam,Z3A6QU9xcFRPSHFJQmYwWmxPd0lGck9FTUlIVDQ3Yjl5Q2ViS3c5M0pLVzJMOTlaYmVlNjJ6NUVDNEVHc3ZPTGdZdV9RV01kWlA2cEtJME5obk9NdXk0c3c,English,,5,2015-10-07,Randy Verheyden,Fantastic app,great for deck building even allows for search a opposed to the gatherer,,
MTG Familiar,Google Play,com.gelakinetic.mtgfam,Z3A6QU9xcFRPRXlCdVVoMnBIbHV4SE5hRkswTEZCQnpkX1E2X2V6RlI0QWNfX3g0S0E1T3Z0OVFxTEFYZ0hybDR3S0QyeFpCZ19ob01lMC1KekZldXpoT0E,English,,5,2015-10-06,Ernest Sands,Awesome,i really like this,,
MTG Familiar,Google Play,com.gelakinetic.mtgfam,Z3A6QU9xcFRPRXlCdVVoMnBIbHV4SE5hRkswTEZCQnpkX1E2X2V6RlI0QWNfX3g0S0E1T3Z0OVFxTEFYZ0hybDR3S0QyeFpCZ19ob01lMC1KekZldXpoT0E,English,,5,2015-10-06,Ernest Sands,Awesome,i still highly recommend this to anyone,,
MTG Familiar,Google Play,com.gelakinetic.mtgfam,Z3A6QU9xcFRPRXlCdVVoMnBIbHV4SE5hRkswTEZCQnpkX1E2X2V6RlI0QWNfX3g0S0E1T3Z0OVFxTEFYZ0hybDR3S0QyeFpCZ19ob01lMC1KekZldXpoT0E,English,,5,2015-10-06,Ernest Sands,Awesome,like the new change,,
MTG Familiar,Google Play,com.gelakinetic.mtgfam,Z3A6QU9xcFRPRXlCdVVoMnBIbHV4SE5hRkswTEZCQnpkX1E2X2V6RlI0QWNfX3g0S0E1T3Z0OVFxTEFYZ0hybDR3S0QyeFpCZ19ob01lMC1KekZldXpoT0E,English,,5,2015-10-06,Ernest Sands,Awesome,easier to find card,,
MTG Familiar,Google Play,com.gelakinetic.mtgfam,Z3A6QU9xcFRPRTBkYlJmSVJiY0ZwR210SXJ1QVpxd2dmQXpQY3BsdnIzNDRLMWxjQVV6QXBoU0xqZERoVEx2eF9LX2xUWmtaRDhYbWoyLUVOcVVnYkhmUFE,English,,5,2015-10-06,Dylan Collier,Amazing,just do it,,
MTG Familiar,Google Play,com.gelakinetic.mtgfam,Z3A6QU9xcFRPRnR6R2hTd0xBZUp6MjMzU3pWNjl6TTl6ZW4tOEtrSF8zWTV0NjlzcmdqT2hHc1NWREtmQ1VLMEdKUTZrWjhKd1FhdElMUDRCYjZhVXJ1b2c,English,,4,2015-10-06,Eric Bachtiar,Previous bugs fixed.,work now,,
MTG Familiar,Google Play,com.gelakinetic.mtgfam,Z3A6QU9xcFRPRUI3bDdjT1c1eTVxbUpoWG1kM1JNaE16WVVQTVFHcW9hNnNNMEVBdFdXdlV1YkswMkpSLUw4YW1uMmNsS3hLa2VpSG1TLTEtQVRibVFOd0E,English,,5,2015-10-06,Danny Pacione,Invaluable application,this is incredibly convenient,,
MTG Familiar,Google Play,com.gelakinetic.mtgfam,Z3A6QU9xcFRPRUI3bDdjT1c1eTVxbUpoWG1kM1JNaE16WVVQTVFHcW9hNnNNMEVBdFdXdlV1YkswMkpSLUw4YW1uMmNsS3hLa2VpSG1TLTEtQVRibVFOd0E,English,,5,2015-10-06,Danny Pacione,Invaluable application,help make trade smooth and fair,,
MTG Familiar,Google Play,com.gelakinetic.mtgfam,Z3A6QU9xcFRPRUI3bDdjT1c1eTVxbUpoWG1kM1JNaE16WVVQTVFHcW9hNnNNMEVBdFdXdlV1YkswMkpSLUw4YW1uMmNsS3hLa2VpSG1TLTEtQVRibVFOd0E,English,,5,2015-10-06,Danny Pacione,Invaluable application,it ha been crashing on me and it never ha this past week,,
MTG Familiar,Google Play,com.gelakinetic.mtgfam,Z3A6QU9xcFRPRUI3bDdjT1c1eTVxbUpoWG1kM1JNaE16WVVQTVFHcW9hNnNNMEVBdFdXdlV1YkswMkpSLUw4YW1uMmNsS3hLa2VpSG1TLTEtQVRibVFOd0E,English,,5,2015-10-06,Danny Pacione,Invaluable application,hopefully get worked out,,
MTG Familiar,Google Play,com.gelakinetic.mtgfam,Z3A6QU9xcFRPRlVzU2FxV1NnX1d6VjhYQVZTdDlXdUxweEZ3WDVyVGpsb2xhNl9tWGFCeFF6dXRJTFpENUt0Qi1rRWVEVGR2dlpTMzh1YUNsZzNZT3hNNGc,English,,5,2015-10-06,Richard Romanowski,Best magic app,best magic with constant improvement,,
MTG Familiar,Google Play,com.gelakinetic.mtgfam,Z3A6QU9xcFRPRlVzU2FxV1NnX1d6VjhYQVZTdDlXdUxweEZ3WDVyVGpsb2xhNl9tWGFCeFF6dXRJTFpENUt0Qi1rRWVEVGR2dlpTMzh1YUNsZzNZT3hNNGc,English,,5,2015-10-06,Richard Romanowski,Best magic app,a developer,,
MTG Familiar,Google Play,com.gelakinetic.mtgfam,Z3A6QU9xcFRPRTFiNDZUQjVYczQxODc3eTlzdFBMRDNKYnZ6RGxiUW9XZFBPR3ZrLUJrTk9mMWxJNFZpVWZSeF94NEFxcDItbHRrWUNlTEVXRS13d190MFE,English,,5,2015-10-06,David Salery,New and old player's best friend!,the developer responds to bug quickly too,,
MTG Familiar,Google Play,com.gelakinetic.mtgfam,Z3A6QU9xcFRPSHd4V2s4NWp6Y3BrWmNWMkR5VTJHYzNYc1lQRkVjZEt3UmYwdjdrckVnMmRURTVvRzJodzBESEpkRWRpdnlIWWRkZEt0NEpfSXZfT25oQ3c,English,,4,2015-10-05,Charles H.,Traders Best Friend!!!,this make it ridiculously easy to do trade with people to ensure equal value trade,,
MTG Familiar,Google Play,com.gelakinetic.mtgfam,Z3A6QU9xcFRPSHd4V2s4NWp6Y3BrWmNWMkR5VTJHYzNYc1lQRkVjZEt3UmYwdjdrckVnMmRURTVvRzJodzBESEpkRWRpdnlIWWRkZEt0NEpfSXZfT25oQ3c,English,,4,2015-10-05,Charles H.,Traders Best Friend!!!,price are recent and,,
MTG Familiar,Google Play,com.gelakinetic.mtgfam,Z3A6QU9xcFRPSHd4V2s4NWp6Y3BrWmNWMkR5VTJHYzNYc1lQRkVjZEt3UmYwdjdrckVnMmRURTVvRzJodzBESEpkRWRpdnlIWWRkZEt0NEpfSXZfT25oQ3c,English,,4,2015-10-05,Charles H.,Traders Best Friend!!!,only negative is it doe not have the price of or promotional card,,
MTG Familiar,Google Play,com.gelakinetic.mtgfam,Z3A6QU9xcFRPSEtQcGlZODlXdkt2dFpBNkEzMXNtcjJtcWt2Tjc1VHRhM0pBdXU2aWx1SUgxX1hMemhSc1JrQS0wY1o0UmJvdlUwNks1UTA2Qi1PcEVaTmc,English,,5,2015-10-05,David Edwards,Very usefull,rule are a nice bonus too,,
MTG Familiar,Google Play,com.gelakinetic.mtgfam,Z3A6QU9xcFRPSHJfMnJGcnEwSDktd0hmMTVNdnhJYnZOMS0wNFhINDJ5MFF6VnFQNHdMXzYzMEl3c3RRMTRuMDF4bnFjOEEwNF9uSG5aMVM4d09SdXRyZVE,English,,3,2015-10-05,Al Cortez,Could use some improvements on the SAMSUNG EXHIBIT.,i honestly love the i am a using a exhibit,,
MTG Familiar,Google Play,com.gelakinetic.mtgfam,Z3A6QU9xcFRPSHJfMnJGcnEwSDktd0hmMTVNdnhJYnZOMS0wNFhINDJ5MFF6VnFQNHdMXzYzMEl3c3RRMTRuMDF4bnFjOEEwNF9uSG5aMVM4d09SdXRyZVE,English,,3,2015-10-05,Al Cortez,Could use some improvements on the SAMSUNG EXHIBIT.,one might ask,,
MTG Familiar,Google Play,com.gelakinetic.mtgfam,Z3A6QU9xcFRPSHJfMnJGcnEwSDktd0hmMTVNdnhJYnZOMS0wNFhINDJ5MFF6VnFQNHdMXzYzMEl3c3RRMTRuMDF4bnFjOEEwNF9uSG5aMVM4d09SdXRyZVE,English,,3,2015-10-05,Al Cortez,Could use some improvements on the SAMSUNG EXHIBIT.,what i mean is the work well in every aspect except updating the price of the new or even updating the new set in general,,
MTG Familiar,Google Play,com.gelakinetic.mtgfam,Z3A6QU9xcFRPSHJfMnJGcnEwSDktd0hmMTVNdnhJYnZOMS0wNFhINDJ5MFF6VnFQNHdMXzYzMEl3c3RRMTRuMDF4bnFjOEEwNF9uSG5aMVM4d09SdXRyZVE,English,,3,2015-10-05,Al Cortez,Could use some improvements on the SAMSUNG EXHIBIT.,please note this is an observation for the exhibit phone i have,,
MTG Familiar,Google Play,com.gelakinetic.mtgfam,Z3A6QU9xcFRPSHJfMnJGcnEwSDktd0hmMTVNdnhJYnZOMS0wNFhINDJ5MFF6VnFQNHdMXzYzMEl3c3RRMTRuMDF4bnFjOEEwNF9uSG5aMVM4d09SdXRyZVE,English,,3,2015-10-05,Al Cortez,Could use some improvements on the SAMSUNG EXHIBIT.,i would hope this problem is for i have tried force updating the several but to no avail,,
MTG Familiar,Google Play,com.gelakinetic.mtgfam,Z3A6QU9xcFRPRmQwRTRTenNnQlRIY2xCZ2dwb3M0WFdsWHM5Z1ZHZUhXZ0dIZDVCZTJUWHA5UGRmREhDQ1ZOdW5NbTQ3RU4yMmsxVkFxZEgtbEJOMWQ4VHc,English,,3,2015-10-05,Stuart Johnson,Badly needs a fix,cause an exception a card ha punctuation in the name,,
MTG Familiar,Google Play,com.gelakinetic.mtgfam,Z3A6QU9xcFRPRmQwRTRTenNnQlRIY2xCZ2dwb3M0WFdsWHM5Z1ZHZUhXZ0dIZDVCZTJUWHA5UGRmREhDQ1ZOdW5NbTQ3RU4yMmsxVkFxZEgtbEJOMWQ4VHc,English,,3,2015-10-05,Stuart Johnson,Badly needs a fix,very annoying this used to be a 5,,
MTG Familiar,Google Play,com.gelakinetic.mtgfam,Z3A6QU9xcFRPRlNYZHk1SnVScGp3ek14RHdSbVRKZ0NJSTdpMWdaN09rOTBxRWNxM0xSVEFLaFZvN1VQREtZYkNhdUZIamVOOE9wQWIwWHdTRC1qWWFxcmc,English,,3,2015-10-05,Mike chee,,not able to update,,
MTG Familiar,Google Play,com.gelakinetic.mtgfam,Z3A6QU9xcFRPSFMwdzB3RmpGQVozQkJRRnl5VTlrVm96cjFTQy05ckpZcndXbmxmY3MwbmVCYmlDMUZQSnhwS1dKckJNMjhlMktMaVNMcG5QUGlRc29RbEE,English,,5,2015-10-04,Yashil Jaganath,Great,awesome just waiting for update for a now,,
MTG Familiar,Google Play,com.gelakinetic.mtgfam,Z3A6QU9xcFRPSHNweWQwMU9tNWRQMS1pUDZvRGRVTFFJY2tka1pxQUhiVk5hLV9ibktRTTN5YzFhQkJBS0k0NV9wODFoV1VEaUZ4RW0xOGxhTmRVQUxGT0E,English,,4,2015-10-04,Elyse Polston,Love it but,battle for came out a few day ago and none of the set is showing up in the database yet at least for me,,
MTG Familiar,Google Play,com.gelakinetic.mtgfam,bGc6QU9xcFRPRk8tb2UwZnQ5ZW5VQzd3VW1uRkZUd1JWd0Jza18zYUdBQkZ0MGVmU1o0N2lWSm40WmFaS0V2bm5Ua1QzOWZ1TnN4UHNUYWRvb2FiN3VYbWc,English,,5,2015-10-03,A Google User,Thumbs Up,used for year very helpful,,
