App,Store,App ID,Review ID,Country,Version,Rating,Date,Author,Subject,Body,Translated Subject,Translated Body
MTG Familiar,Google Play,com.gelakinetic.mtgfam,Z3A6QU9xcFRPR1BoYnd6dU9mc0s5WjJ6YS1HZ0ZLN25EVVd6Ty1UdE5aa3ZxUjRRUm1ub0FKcy1MOThJbl9vem1BQjFkMHU0LVZzdU55T2x6cUFjYkRjREE,English,,5,2015-03-22,,Great app,doe just about everything i could want from a magic outside of deck building,,
MTG Familiar,Google Play,com.gelakinetic.mtgfam,Z3A6QU9xcFRPR1BoYnd6dU9mc0s5WjJ6YS1HZ0ZLN25EVVd6Ty1UdE5aa3ZxUjRRUm1ub0FKcy1MOThJbl9vem1BQjFkMHU0LVZzdU55T2x6cUFjYkRjREE,English,,5,2015-03-22,,Great app,the thing missing is support for multiple,,
MTG Familiar,Google Play,com.gelakinetic.mtgfam,Z3A6QU9xcFRPR2dQZkt1V2xPV25EM0YwNDhPTHgzSGxMYklTblR4cVVBMnRpSERfNHozbks2NjFRN293TjFVQm52dExWTUFMd24yclVhYXloR2ZidkJuM2c,English,,4,2015-03-22,_Mana _,i would give like 4 1\2 if possible,my complaint is a small one,,
MTG Familiar,Google Play,com.gelakinetic.mtgfam,Z3A6QU9xcFRPR2dQZkt1V2xPV25EM0YwNDhPTHgzSGxMYklTblR4cVVBMnRpSERfNHozbks2NjFRN293TjFVQm52dExWTUFMd24yclVhYXloR2ZidkJuM2c,English,,4,2015-03-22,_Mana _,i would give like 4 1\2 if possible,we should be able to choose our own color scheme,,
MTG Familiar,Google Play,com.gelakinetic.mtgfam,Z3A6QU9xcFRPR2xGbGcwNkNLRzgzMlIxdDFvN3puMVItWDdwUTg0bEZJU3c5bDF0aTlaTWtsWnIxd1ZtVHdqb0ZKVjllcjc5VDJ5a0tva3haSlBtdFlkbmc,English,,5,2015-03-22,Jonny Havoc,Bugs for days.,just really started playing magic this year and this ha helped me trade and buy card without getting ripped off,,
MTG Familiar,Google Play,com.gelakinetic.mtgfam,Z3A6QU9xcFRPR2xGbGcwNkNLRzgzMlIxdDFvN3puMVItWDdwUTg0bEZJU3c5bDF0aTlaTWtsWnIxd1ZtVHdqb0ZKVjllcjc5VDJ5a0tva3haSlBtdFlkbmc,English,,5,2015-03-22,Jonny Havoc,Bugs for days.,i also love it can help be find card,,
MTG Familiar,Google Play,com.gelakinetic.mtgfam,Z3A6QU9xcFRPR2xGbGcwNkNLRzgzMlIxdDFvN3puMVItWDdwUTg0bEZJU3c5bDF0aTlaTWtsWnIxd1ZtVHdqb0ZKVjllcjc5VDJ5a0tva3haSlBtdFlkbmc,English,,5,2015-03-22,Jonny Havoc,Bugs for days.,oh and call me lazy buy i hate the fact there is no auto fill on the trade system any it wa super useful,,
MTG Familiar,Google Play,com.gelakinetic.mtgfam,Z3A6QU9xcFRPR2xGbGcwNkNLRzgzMlIxdDFvN3puMVItWDdwUTg0bEZJU3c5bDF0aTlaTWtsWnIxd1ZtVHdqb0ZKVjllcjc5VDJ5a0tva3haSlBtdFlkbmc,English,,5,2015-03-22,Jonny Havoc,Bugs for days.,please fix the bug,,
MTG Familiar,Google Play,com.gelakinetic.mtgfam,Z3A6QU9xcFRPRTdfM1RzUTZKMVhvcml5aXBBNE9rOVQ3QTJ0S3RsNkt1TWtiVWpSd1hzZ1Q5T1Z3LUVNd0lnV0RkdHd4ZERkVHRHTGtSVW40cVY4MUFDOUE,English,,5,2015-03-22,Kyle Kalles,Still great,had it the update never fails me,,
MTG Familiar,Google Play,com.gelakinetic.mtgfam,Z3A6QU9xcFRPRTdfM1RzUTZKMVhvcml5aXBBNE9rOVQ3QTJ0S3RsNkt1TWtiVWpSd1hzZ1Q5T1Z3LUVNd0lnV0RkdHd4ZERkVHRHTGtSVW40cVY4MUFDOUE,English,,5,2015-03-22,Kyle Kalles,Still great,ha everything i could need for mtg,,
MTG Familiar,Google Play,com.gelakinetic.mtgfam,Z3A6QU9xcFRPSHJadlNpekx0TUFOVGdHMmt2aEFZanNCLVJIMEZkRG5STUJDR3NsVExod2JPbTVadXhBbmZKdi1GLXE5OWcxMFBhajNwTDEzcjk5RHFZNWc,English,,5,2015-03-22,Ankara Abulafia,Best Magic app available,ha everything you could ever need,,
MTG Familiar,Google Play,com.gelakinetic.mtgfam,Z3A6QU9xcFRPRndEUFQzOEJwVjBTUEVXS1ZHenc1d25ZN1J4Z1RFNVd0VnF4N3VCemdmelVqRHh4VHd3bTlqTkprQTNma25WaGVXOEd2bE44WlZzSHFzcmc,English,,1,2015-03-22,Josh Grimes,Worked great till update,the trade worked terrific the update now it will not find the card even if you type in the full name of the card,,
MTG Familiar,Google Play,com.gelakinetic.mtgfam,Z3A6QU9xcFRPRndEUFQzOEJwVjBTUEVXS1ZHenc1d25ZN1J4Z1RFNVd0VnF4N3VCemdmelVqRHh4VHd3bTlqTkprQTNma25WaGVXOEd2bE44WlZzSHFzcmc,English,,1,2015-03-22,Josh Grimes,Worked great till update,edit,,
MTG Familiar,Google Play,com.gelakinetic.mtgfam,Z3A6QU9xcFRPRndEUFQzOEJwVjBTUEVXS1ZHenc1d25ZN1J4Z1RFNVd0VnF4N3VCemdmelVqRHh4VHd3bTlqTkprQTNma25WaGVXOEd2bE44WlZzSHFzcmc,English,,1,2015-03-22,Josh Grimes,Worked great till update,now it crash every time you start typing in the trade section,,
MTG Familiar,Google Play,com.gelakinetic.mtgfam,Z3A6QU9xcFRPRVpuRlI1OThzNElfLXZqQ1Z2a1RQWXJiNHNVMUU2MVR6MmlyN2N4ZnF2M0Z5VUVWWlJJcnYyYXBOakJjOGFpTENnWGlwMG9uTktMYVlKb1E,English,,4,2015-03-22,Kenneth Valles,,a for any magic player,,
MTG Familiar,Google Play,com.gelakinetic.mtgfam,Z3A6QU9xcFRPSHdrN2ItUDNtS0drZmdybnNaSWZoclREcFNDaE9FUmJONzZTYU40QVpmN2FQeVZTRzVzOGdUOWs5cFMybko2RUJIWnRrS2N3ZGVjRF9va2c,English,,1,2015-03-22,soksaga,I used to like it.,i had this for year and really liked however the recent update cause it to crash constantly and is therefore unusable,,
MTG Familiar,Google Play,com.gelakinetic.mtgfam,Z3A6QU9xcFRPSHdrN2ItUDNtS0drZmdybnNaSWZoclREcFNDaE9FUmJONzZTYU40QVpmN2FQeVZTRzVzOGdUOWs5cFMybko2RUJIWnRrS2N3ZGVjRF9va2c,English,,1,2015-03-22,soksaga,I used to like it.,it is fixed i would recommend the,,
MTG Familiar,Google Play,com.gelakinetic.mtgfam,Z3A6QU9xcFRPRjg3MjVud0djTXVzX1B2LUJ5VDhOb0ZJcGhhdy1pajRJOEdydHRLQjE0aUNmU0M5Nm9YQW5USVBDVGR1cWJZRHloQmVlSW5XY1NwUGhORHc,English,,1,2015-03-22,Eric Weissert,Opens and crashes,i used to use this all the but now it open and crash,,
MTG Familiar,Google Play,com.gelakinetic.mtgfam,Z3A6QU9xcFRPSE9BVEpYMXlPRncyNHBOS2pjaUpYRTV6UVlGaUJSQ3FBNUVQSE92el9hbm96WDBITUlmQ1hScktnWGNEMXhrdkpkQjlYSHdEOFN0V0lLbnc,English,,4,2015-03-22,Lance Laurente,Automatically close,i type any thing it just forced close,,
MTG Familiar,Google Play,com.gelakinetic.mtgfam,Z3A6QU9xcFRPRi1HWFBvNGp6dzA4T0V3TFlOd21aSl9qcW9lZlZZaElNOV9mTTdndGVXcEZreHJCRzVNWDJCSndLSnBRYkdFRUFtWWxEdVduUWpqeEplSkE,English,,4,2015-03-22,yMichael95,Update has a bug,this is but the latest update ha a bug that cause the to crush i try to type the name of a card,,
MTG Familiar,Google Play,com.gelakinetic.mtgfam,Z3A6QU9xcFRPRk9Vd2ltcjlLVUtmUWlPVkZUbFdRZVEzZndBblFZMGgwNTZkdGRDc0tfMWR3WWpiZ3BDZHp1cTZiVnZWQTNvU3RXYUNZV0I5bW1ZWEJiTUE,English,,2,2015-03-21,Adam Watson,Crash!!!,loved this for year,,
MTG Familiar,Google Play,com.gelakinetic.mtgfam,Z3A6QU9xcFRPRk9Vd2ltcjlLVUtmUWlPVkZUbFdRZVEzZndBblFZMGgwNTZkdGRDc0tfMWR3WWpiZ3BDZHp1cTZiVnZWQTNvU3RXYUNZV0I5bW1ZWEJiTUE,English,,2,2015-03-21,Adam Watson,Crash!!!,update got better,,
MTG Familiar,Google Play,com.gelakinetic.mtgfam,Z3A6QU9xcFRPRk9Vd2ltcjlLVUtmUWlPVkZUbFdRZVEzZndBblFZMGgwNTZkdGRDc0tfMWR3WWpiZ3BDZHp1cTZiVnZWQTNvU3RXYUNZV0I5bW1ZWEJiTUE,English,,2,2015-03-21,Adam Watson,Crash!!!,everything wa great,,
MTG Familiar,Google Play,com.gelakinetic.mtgfam,Z3A6QU9xcFRPRk9Vd2ltcjlLVUtmUWlPVkZUbFdRZVEzZndBblFZMGgwNTZkdGRDc0tfMWR3WWpiZ3BDZHp1cTZiVnZWQTNvU3RXYUNZV0I5bW1ZWEJiTUE,English,,2,2015-03-21,Adam Watson,Crash!!!,then had a problem,,
MTG Familiar,Google Play,com.gelakinetic.mtgfam,Z3A6QU9xcFRPRk9Vd2ltcjlLVUtmUWlPVkZUbFdRZVEzZndBblFZMGgwNTZkdGRDc0tfMWR3WWpiZ3BDZHp1cTZiVnZWQTNvU3RXYUNZV0I5bW1ZWEJiTUE,English,,2,2015-03-21,Adam Watson,Crash!!!,every time i typed a search field the would crash,,
MTG Familiar,Google Play,com.gelakinetic.mtgfam,Z3A6QU9xcFRPRk9Vd2ltcjlLVUtmUWlPVkZUbFdRZVEzZndBblFZMGgwNTZkdGRDc0tfMWR3WWpiZ3BDZHp1cTZiVnZWQTNvU3RXYUNZV0I5bW1ZWEJiTUE,English,,2,2015-03-21,Adam Watson,Crash!!!,tried reinstall and clearing data,,
MTG Familiar,Google Play,com.gelakinetic.mtgfam,Z3A6QU9xcFRPRk9Vd2ltcjlLVUtmUWlPVkZUbFdRZVEzZndBblFZMGgwNTZkdGRDc0tfMWR3WWpiZ3BDZHp1cTZiVnZWQTNvU3RXYUNZV0I5bW1ZWEJiTUE,English,,2,2015-03-21,Adam Watson,Crash!!!,nothing work,,
MTG Familiar,Google Play,com.gelakinetic.mtgfam,Z3A6QU9xcFRPRk9Vd2ltcjlLVUtmUWlPVkZUbFdRZVEzZndBblFZMGgwNTZkdGRDc0tfMWR3WWpiZ3BDZHp1cTZiVnZWQTNvU3RXYUNZV0I5bW1ZWEJiTUE,English,,2,2015-03-21,Adam Watson,Crash!!!,fix and i will give 5 star,,
MTG Familiar,Google Play,com.gelakinetic.mtgfam,Z3A6QU9xcFRPRmZGYWVhZGc2MXpuYVZLTEZvNnduRzRfOXpGRXZ3aGs1R1ZJcVNWeFVIQlBMYVRWWFItbExveGRXaDFXYzYxNVFrNm1SVGZNTVBORkM2amc,English,,1,2015-03-21,Zach Hunt,Fix the trade page,used to be my favorite,,
MTG Familiar,Google Play,com.gelakinetic.mtgfam,Z3A6QU9xcFRPRmZGYWVhZGc2MXpuYVZLTEZvNnduRzRfOXpGRXZ3aGs1R1ZJcVNWeFVIQlBMYVRWWFItbExveGRXaDFXYzYxNVFrNm1SVGZNTVBORkM2amc,English,,1,2015-03-21,Zach Hunt,Fix the trade page,now it keep crashing i go to type in a trade,,
MTG Familiar,Google Play,com.gelakinetic.mtgfam,Z3A6QU9xcFRPRmZGYWVhZGc2MXpuYVZLTEZvNnduRzRfOXpGRXZ3aGs1R1ZJcVNWeFVIQlBMYVRWWFItbExveGRXaDFXYzYxNVFrNm1SVGZNTVBORkM2amc,English,,1,2015-03-21,Zach Hunt,Fix the trade page,wa really the only page i used except the occasional card ruling,,
MTG Familiar,Google Play,com.gelakinetic.mtgfam,Z3A6QU9xcFRPRmZGYWVhZGc2MXpuYVZLTEZvNnduRzRfOXpGRXZ3aGs1R1ZJcVNWeFVIQlBMYVRWWFItbExveGRXaDFXYzYxNVFrNm1SVGZNTVBORkM2amc,English,,1,2015-03-21,Zach Hunt,Fix the trade page,i need it back,,
MTG Familiar,Google Play,com.gelakinetic.mtgfam,Z3A6QU9xcFRPRmZGYWVhZGc2MXpuYVZLTEZvNnduRzRfOXpGRXZ3aGs1R1ZJcVNWeFVIQlBMYVRWWFItbExveGRXaDFXYzYxNVFrNm1SVGZNTVBORkM2amc,English,,1,2015-03-21,Zach Hunt,Fix the trade page,make sure it ha the auto predict function,,
MTG Familiar,Google Play,com.gelakinetic.mtgfam,Z3A6QU9xcFRPRmZGYWVhZGc2MXpuYVZLTEZvNnduRzRfOXpGRXZ3aGs1R1ZJcVNWeFVIQlBMYVRWWFItbExveGRXaDFXYzYxNVFrNm1SVGZNTVBORkM2amc,English,,1,2015-03-21,Zach Hunt,Fix the trade page,i love being able to type in half of a name and just click on the exact card,,
MTG Familiar,Google Play,com.gelakinetic.mtgfam,Z3A6QU9xcFRPRmZGYWVhZGc2MXpuYVZLTEZvNnduRzRfOXpGRXZ3aGs1R1ZJcVNWeFVIQlBMYVRWWFItbExveGRXaDFXYzYxNVFrNm1SVGZNTVBORkM2amc,English,,1,2015-03-21,Zach Hunt,Fix the trade page,why are all the color complaint getting response but not the complaint about the trade page not working,,
MTG Familiar,Google Play,com.gelakinetic.mtgfam,Z3A6QU9xcFRPRmZGYWVhZGc2MXpuYVZLTEZvNnduRzRfOXpGRXZ3aGs1R1ZJcVNWeFVIQlBMYVRWWFItbExveGRXaDFXYzYxNVFrNm1SVGZNTVBORkM2amc,English,,1,2015-03-21,Zach Hunt,Fix the trade page,who care what color it is,,
MTG Familiar,Google Play,com.gelakinetic.mtgfam,Z3A6QU9xcFRPRkxLdENwTHV1a0xGV0xiZzE1VU5rbkZvVUtMX2M1VFpPVk02YnFncjRhVXZoa01SbDRqejY5eHk4WlQ3cTNaY29xVzZ3QlRjaGJEZjBrNGc,English,,5,2015-03-21,Kevin Day,Can't please everybody...,i liked the purple,,
MTG Familiar,Google Play,com.gelakinetic.mtgfam,Z3A6QU9xcFRPRkxLdENwTHV1a0xGV0xiZzE1VU5rbkZvVUtMX2M1VFpPVk02YnFncjRhVXZoa01SbDRqejY5eHk4WlQ3cTNaY29xVzZ3QlRjaGJEZjBrNGc,English,,5,2015-03-21,Kevin Day,Can't please everybody...,of course,,
MTG Familiar,Google Play,com.gelakinetic.mtgfam,Z3A6QU9xcFRPRkxLdENwTHV1a0xGV0xiZzE1VU5rbkZvVUtMX2M1VFpPVk02YnFncjRhVXZoa01SbDRqejY5eHk4WlQ3cTNaY29xVzZ3QlRjaGJEZjBrNGc,English,,5,2015-03-21,Kevin Day,Can't please everybody...,have loved the i started using keep it up,,
MTG Familiar,Google Play,com.gelakinetic.mtgfam,Z3A6QU9xcFRPRXBYZ05GWDlieDFQXzFqVmxPaGRTWDVNX25vSDYyOTBUTnhGMzRmYmFoTTdHQ2E3ZnhRS1R6ZEYtWl9PaHZqQWU0anhuMzNnODVkOW9aenc,English,,5,2015-03-21,Sean Mullins,Don't listen to the haters,the purple wa awesome,,
MTG Familiar,Google Play,com.gelakinetic.mtgfam,Z3A6QU9xcFRPRXBYZ05GWDlieDFQXzFqVmxPaGRTWDVNX25vSDYyOTBUTnhGMzRmYmFoTTdHQ2E3ZnhRS1R6ZEYtWl9PaHZqQWU0anhuMzNnODVkOW9aenc,English,,5,2015-03-21,Sean Mullins,Don't listen to the haters,the way to satisfy everyone is a color picker,,
MTG Familiar,Google Play,com.gelakinetic.mtgfam,Z3A6QU9xcFRPRl9hdHQtOFlSYS1wWUgydGdmMlBENmJ4VVpURFNYN1E1X3dvZnBNNUdwa3BUOEVVQzhaTXBJTU1wb3lyQ1g1LWhjemlkMHNReXpsWkIxQkE,English,,5,2015-03-21,Giacomo,Great,i really love this,,
MTG Familiar,Google Play,com.gelakinetic.mtgfam,Z3A6QU9xcFRPRl9hdHQtOFlSYS1wWUgydGdmMlBENmJ4VVpURFNYN1E1X3dvZnBNNUdwa3BUOEVVQzhaTXBJTU1wb3lyQ1g1LWhjemlkMHNReXpsWkIxQkE,English,,5,2015-03-21,Giacomo,Great,thanks much,,
MTG Familiar,Google Play,com.gelakinetic.mtgfam,Z3A6QU9xcFRPR2ljb25saGU3V3czRjFvUGlyZHJRcVYteENhRkVNN2xsd3A0WHV0NFIyNmUwdVdVNEpjdnF4V2NqWDVLLUpNRmxUakVxR2N6ZFZQVG1JOEE,English,,5,2015-03-21,Eric Nemchik,Still the best,this is by far the best mtg for pretty much everything,,
MTG Familiar,Google Play,com.gelakinetic.mtgfam,Z3A6QU9xcFRPR1hBM19xMHgtVmV3eGZsWWNkampvTzBETTFNRTBrTUVPY1BJWUlFWGV0eU10ZHMxcW45Q2g5SkdsV0lGRW9xdlc0TGtDX3pabkxGS1drbUE,English,,4,2015-03-21,Jared Finder,,great,,
MTG Familiar,Google Play,com.gelakinetic.mtgfam,Z3A6QU9xcFRPR1hBM19xMHgtVmV3eGZsWWNkampvTzBETTFNRTBrTUVPY1BJWUlFWGV0eU10ZHMxcW45Q2g5SkdsV0lGRW9xdlc0TGtDX3pabkxGS1drbUE,English,,4,2015-03-21,Jared Finder,,i wish the dice roll icon looked a bit though,,
MTG Familiar,Google Play,com.gelakinetic.mtgfam,Z3A6QU9xcFRPR1hBM19xMHgtVmV3eGZsWWNkampvTzBETTFNRTBrTUVPY1BJWUlFWGV0eU10ZHMxcW45Q2g5SkdsV0lGRW9xdlc0TGtDX3pabkxGS1drbUE,English,,4,2015-03-21,Jared Finder,,everything else is great,,
MTG Familiar,Google Play,com.gelakinetic.mtgfam,Z3A6QU9xcFRPSEZYa29vRF8wT1JBdWtmNk1UY0pxX2xaamNXMWtZZjE4TUpFWFNLY1R0Qk4tclVYa19CRWJoZExmX01nbk5ZeTdGa1A3VmROTjVGSDUycUE,English,,5,2015-03-21,Lydia Drake,Color choice and icon,the developer are also quick to respond to user request,,
MTG Familiar,Google Play,com.gelakinetic.mtgfam,Z3A6QU9xcFRPSGw3WGpMZXRfU2JxdTc5VjlWQzhyNTVoeWRIeGc3OUswQkIxbjhmbDBFVTltajlXSDBiclJZX0ItTmk4ZFhnazQyc01iSkhpYWdOX1VFSkE,English,,5,2015-03-21,Gordon,Great app!,but now it kill my eye,,
MTG Familiar,Google Play,com.gelakinetic.mtgfam,Z3A6QU9xcFRPSGw3WGpMZXRfU2JxdTc5VjlWQzhyNTVoeWRIeGc3OUswQkIxbjhmbDBFVTltajlXSDBiclJZX0ItTmk4ZFhnazQyc01iSkhpYWdOX1VFSkE,English,,5,2015-03-21,Gordon,Great app!,yikes,,
MTG Familiar,Google Play,com.gelakinetic.mtgfam,Z3A6QU9xcFRPSGw3WGpMZXRfU2JxdTc5VjlWQzhyNTVoeWRIeGc3OUswQkIxbjhmbDBFVTltajlXSDBiclJZX0ItTmk4ZFhnazQyc01iSkhpYWdOX1VFSkE,English,,5,2015-03-21,Gordon,Great app!,edit the complaint i the color is corrected,,
MTG Familiar,Google Play,com.gelakinetic.mtgfam,Z3A6QU9xcFRPSENJc1Z6N3p5aHNjUDVmV3o5bUJ3Q2lKcVFHSzUzQWo4ZmJVcERzTlJLRkdQY0xLN0tBN2hWRmplUGRoZWdhb3UtYmNhcFVMUVdlT09QN3c,English,,4,2015-03-21,Gandalf TheHung,,great really but i keep having a problem when i type something into the trade or search the crash,,
MTG Familiar,Google Play,com.gelakinetic.mtgfam,Z3A6QU9xcFRPSFNIdkNhNHhpU2hzU1h6YktXbE10dHpSR0NGRlBtQ3dVNWVucHk0VDFkRElFZXprTllSOXZ2NUliUlRkYkRoZllYY2tvaFZoU01ockZkcWc,English,,5,2015-03-21,Alex Beleren,Material Changes,i love the but purple,,
MTG Familiar,Google Play,com.gelakinetic.mtgfam,Z3A6QU9xcFRPSFNIdkNhNHhpU2hzU1h6YktXbE10dHpSR0NGRlBtQ3dVNWVucHk0VDFkRElFZXprTllSOXZ2NUliUlRkYkRoZllYY2tvaFZoU01ockZkcWc,English,,5,2015-03-21,Alex Beleren,Material Changes,please let u choose or pick a universally loved dark,,
MTG Familiar,Google Play,com.gelakinetic.mtgfam,Z3A6QU9xcFRPSFNIdkNhNHhpU2hzU1h6YktXbE10dHpSR0NGRlBtQ3dVNWVucHk0VDFkRElFZXprTllSOXZ2NUliUlRkYkRoZllYY2tvaFZoU01ockZkcWc,English,,5,2015-03-21,Alex Beleren,Material Changes,i love material design and i love your,,
MTG Familiar,Google Play,com.gelakinetic.mtgfam,Z3A6QU9xcFRPSFNIdkNhNHhpU2hzU1h6YktXbE10dHpSR0NGRlBtQ3dVNWVucHk0VDFkRElFZXprTllSOXZ2NUliUlRkYkRoZllYY2tvaFZoU01ockZkcWc,English,,5,2015-03-21,Alex Beleren,Material Changes,please fix this,,
MTG Familiar,Google Play,com.gelakinetic.mtgfam,Z3A6QU9xcFRPSFNIdkNhNHhpU2hzU1h6YktXbE10dHpSR0NGRlBtQ3dVNWVucHk0VDFkRElFZXprTllSOXZ2NUliUlRkYkRoZllYY2tvaFZoU01ockZkcWc,English,,5,2015-03-21,Alex Beleren,Material Changes,i fixed the rate,,
MTG Familiar,Google Play,com.gelakinetic.mtgfam,Z3A6QU9xcFRPSFNIdkNhNHhpU2hzU1h6YktXbE10dHpSR0NGRlBtQ3dVNWVucHk0VDFkRElFZXprTllSOXZ2NUliUlRkYkRoZllYY2tvaFZoU01ockZkcWc,English,,5,2015-03-21,Alex Beleren,Material Changes,awesome,,
MTG Familiar,Google Play,com.gelakinetic.mtgfam,Z3A6QU9xcFRPRjN3blY5d1RyS3pKYlVxNGhEblMtZGtRQ2lNZFdjbzk5T2YtVm1ucUxNcThKNkRFVWVWY1ZDQTIxMDMxcEdmeGxOdThPZTJ5dGYtRUZ5cFE,English,,4,2015-03-21,Rasmus Källqvist,Good app bad update,maybe the button are looking a bit small on my running 442,,
MTG Familiar,Google Play,com.gelakinetic.mtgfam,Z3A6QU9xcFRPRzBqMG1oYzU4U3ZwY2JyVlRBazZ5SV9WY1JVX0dPSWlmZDk3akNlcGQ0c2tQbUJUeUNDZGUtalg3UGpkUVptTWJxYm1iTEpCeml6OXNxTVE,English,,5,2015-03-20,Jose Alfredo Cosio Guillermo,Great app,great,,
MTG Familiar,Google Play,com.gelakinetic.mtgfam,Z3A6QU9xcFRPRzBqMG1oYzU4U3ZwY2JyVlRBazZ5SV9WY1JVX0dPSWlmZDk3akNlcGQ0c2tQbUJUeUNDZGUtalg3UGpkUVptTWJxYm1iTEpCeml6OXNxTVE,English,,5,2015-03-20,Jose Alfredo Cosio Guillermo,Great app,thanks for the color change,,
MTG Familiar,Google Play,com.gelakinetic.mtgfam,Z3A6QU9xcFRPSEtTTERNT19zUXAtRWlQVHp5LTJ1XzFiNElESG5PY3h6SzBkU3VMdXVkM3VBdXk5VFZuWDlvbjlaV053QVBEbVkxVm5qQUxhOXBMN1VjOHc,English,,3,2015-03-20,Jeff Langlais,What did u do??!!!,why would you change the color to atrocious also not being able to get card price or card being recognized in trade card section is unacceptable please fix cause there wa nothing wrong with how thing just went ahead and made thing worse,,
MTG Familiar,Google Play,com.gelakinetic.mtgfam,Z3A6QU9xcFRPRXpyVGpwZVRSSjRWQVdBc0EzY0x6VzEzX0k4R0hqMkFKYVMtM3U4UUgxYlA5MlpKOVpPdVAyMVZBQTc2TkkxaDJJOExmYUxyOS1KekxYNkE,English,,3,2015-03-20,Robert Wright,Was good,trade list on new version say it cant find card,,
