habit class,o,2016/6/17,,
create a class for reminder,o,2016/6/16,,
replace query with raw query,o,2016/6/16,,
fix reordering,b,2016/6/15,,
hide empty message at startup,b,2016/6/15,,
cancel selection with back button correctly,b,2016/6/15,,
move ripple to correct place,b,2016/6/15,,
restore dynamic button count,f,2016/6/15,,
reformat and reorganize some code,b,2016/6/15,,
fix top navigation on setting and about screen,b,2016/6/15,,
reorganize instrumented test,b,2016/6/14,,
move command test to,b,2016/6/14,,
fix,b,2016/6/12,,
improve documentation,b,2016/6/12,,
add instrumented unit test for list,b,2016/6/12,,
move remaining model test to simplify implementation,b,2016/6/10,,
separate from model,f,2016/6/10,,
export allow space on filename and fix test,b,2016/6/04,,
major refactoring of,b,2016/5/29,,
show empty name in case of fix 116,b,2016/5/29,,
