Topic Index 1,Topic Index 2,Topic Similarity
1,3,17.647058823529413
0,1,11.11111111111111
2,4,5.263157894736842
12,5,5.263157894736842
13,7,5.263157894736842
15,8,5.263157894736842
3,0,0.0
4,2,0.0
5,6,0.0
6,9,0.0
7,10,0.0
8,11,0.0
9,12,0.0
10,13,0.0
11,14,0.0
14,15,0.0
16,16,0.0
17,17,0.0
18,18,0.0
19,19,0.0
