Topic Index 1,Topic Index 2,Topic Similarity
17,14,0.3856
10,1,0.24380000000000002
2,19,0.232
6,17,0.15
0,2,0.1387
16,12,0.11050000000000001
4,15,0.10500000000000001
9,11,0.1044
18,7,0.096
15,8,0.0871
13,18,0.050699999999999995
1,0,0.0
3,3,0.0
5,4,0.0
7,5,0.0
8,6,0.0
11,9,0.0
12,10,0.0
14,13,0.0
19,16,0.0
