Topic Index 1,Topic Index 2,Topic Similarity
19,7,0.026000000000000002
17,19,0.020800000000000003
4,13,0.02
11,11,0.0181
3,15,0.016800000000000002
16,5,0.0145
14,16,0.0114
2,2,0.0102
18,0,0.0102
8,9,0.008400000000000001
1,14,0.008
7,4,0.0075
0,1,0.0
5,3,0.0
6,6,0.0
9,8,0.0
10,10,0.0
12,12,0.0
13,17,0.0
15,18,0.0
