App,Store,App ID,Review ID,Country,Version,Rating,Date,Author,Subject,Body,Translated Subject,Translated Body
Persian Calendar,Google Play,com.byagowi.persiancalendar,Z3A6QU9xcFRPRzlpODBGT3ZfbkM1bE1BNFhuekRja1A5clpCR0s0Wk9Na0FYM0dWNDRzSGV5ZDBHVFh2OWhFdGxERV9NT1dnOUhSVWtsUndlWHlrQ3FEYXc,English,,5,2016-02-26,ReZo Sa,بهترین برنامه تقویم فارسی,,,
Persian Calendar,Google Play,com.byagowi.persiancalendar,Z3A6QU9xcFRPRUkwMnEyMHUwRlZhV01RTkJDY01WYVhVeGtRcFk2SkZLQmVveHkwck1UWldfc2ZhVTdVQ1lRbnVQcTQ2QWw2N3NzZVUxOFotbGFPa1FHakE,English,,4,2016-02-26,Mahdi Khorasani,"","",,
Persian Calendar,Google Play,com.byagowi.persiancalendar,Z3A6QU9xcFRPRWxTRlgzT0Vrb210MTlJaENKVGFubkswSEVGaU10dXFJT2VXZFBTTHNuaUJULVF3UHBvX2pGSGlyMzBUS0ZDaFFGQmtXczFzVnpfS3ZOOFE,English,,5,2016-02-26,Saeid Mah,Great app,Thans for the great work. Very handy and easy to use application . Well done.,,
Persian Calendar,Google Play,com.byagowi.persiancalendar,Z3A6QU9xcFRPR3hWT1VOcjEyR05WXzBiaTlFLVBXbGJzbEtfY0NXT0s3RC1SdzdJbkRrdmpoZFgxaVNaWDRQcUhhbWRzeG45NHgyZnpJcS1Vc09ySngzZnc,English,,5,2016-02-26,Nikoo Salehi,"","",,
Persian Calendar,Google Play,com.byagowi.persiancalendar,Z3A6QU9xcFRPSENzRVpZYy1yN0djMmo3amRBMHdHMlRST2hDWGdOV2FEVnJXU2UtajJGSkM3TGVoZVNYRDM5TzZFOFJhT3dhSlpEU0xROTVJb1RvQ3YxN1E,English,,5,2016-02-26,vahid cheshabi,"","",,
Persian Calendar,Google Play,com.byagowi.persiancalendar,Z3A6QU9xcFRPSDRPVDBpUjAzV0g2QkpUZHptSUk0UWw5blZvelAxQnhYTnh4UmgzaG54dXkxYjd5NVV3RE9pcnVzU0tNQVBzWWRrQVNxWTlzMFpHaXRWRXc,English,,5,2016-02-26,Anuva Math,"",The best!!,,
Persian Calendar,Google Play,com.byagowi.persiancalendar,bGc6QU9xcFRPR3lCbTNqaWlBMm0ydy0yVTFEdHdzZEdsOFl6ZEE2U2lXVkpoNE1Kem4yX1M1a0hablZ6Xzl2bWwyeXF4SHZ6bHlSR05KWlFFTW94cjFYZEE,English,,5,2016-02-26,A Google User,Very good,"The new look, new widget, and new icon are fantastic.",,
Persian Calendar,Google Play,com.byagowi.persiancalendar,Z3A6QU9xcFRPRzJ6UmM1Y0drQ2NuZzE0MTVRdmZyc0RTYV9GbjNLcWRwR3FpcFRqQkFmZ0ljdVFJdUpJX2VzaWFUY2JvMENzZVI4eTdnSkUyLXZCVkFLX3c,English,,5,2016-02-26,shaho 61,"","",,
Persian Calendar,Google Play,com.byagowi.persiancalendar,Z3A6QU9xcFRPSHJ4OVVzTlFDTllpejc1YlY5MVJGdWdsS1JGcW9UTjFFSFpjN3R5QVJnazdaUmxxd3lTTVNDWGFCWExNQnhOaDlvcjJ6elNEeUhRLVh1aFE,English,,4,2016-02-26,Rahmat Nikkhah,"","",,
Persian Calendar,Google Play,com.byagowi.persiancalendar,Z3A6QU9xcFRPR0dtTHdLaXltcXF3ckpfZmE0YVZ6Rl9mbkx4bV85elItR3ZqZV93Ql9wMERxVXhVRzVHR29qMUdqZ3F0SXdFSjRaWGZMX1R1MDN1WGx3Y3c,English,,4,2016-02-26,saber sheybani,Great Persian calendar,"",,
Persian Calendar,Google Play,com.byagowi.persiancalendar,Z3A6QU9xcFRPSGVycTNVeV9aQ3Y1d1JLNTBXak9vZzNEZUc3WFVLQzlhZDdHLWZUSXlJLUhjdFlVLU9Uc2NlRkVDdUZLUTg4NnpKZEtmNm1rTTlKaHUyV1E,English,,5,2016-02-26,سید محمد صالحی,عالی,,,
Persian Calendar,Google Play,com.byagowi.persiancalendar,Z3A6QU9xcFRPR3gxVUkzWXRPdUk1TWFZbDRUai1yNUlzYnlianpuY0ltWDVWZmkzUHNMb25ZUFdSbjQtUmxpNWpQUlJLd1JxTnREWUVfOUpPQl9WemxWT3c,English,,5,2016-02-26,Navid Afsharipour,Very good,Working well.,,
Persian Calendar,Google Play,com.byagowi.persiancalendar,Z3A6QU9xcFRPR1EtWWJoX242WnUybTJSdjBrd3lUS2tNX1laX0ppNU1zREtpeFZnbmdBLUdwQkstcS1xWVBrSEw0VS1qQUU2bGFhbGZwTlY5d2tnLVQ4UXc,English,,5,2016-02-26,Arsalan behroozi nejad,"",Wonderful,,
Persian Calendar,Google Play,com.byagowi.persiancalendar,Z3A6QU9xcFRPRkJlanpkMDdXU0w0YzZGalRmcTdwUjdtZmVzVXMyZk9wTXQyanpaQm9tcUprRkFFWEtMcWVZQTZQX0xUZU9HZHFJVjFvQkZvU21KWTFpQ3c,English,,5,2016-02-26,Babak Ahrami,خیلی خوب و کارآمد,,,
Persian Calendar,Google Play,com.byagowi.persiancalendar,Z3A6QU9xcFRPRlZsV3l4RXFuMWRndV91UzRwQTltajZVeUZQQ2RfYnZ6YUJ4QTBCSC1Sak5KWHdwMFBzVDJWMWhlZGNGM3N3cG83QmRVQ3RUQTZuZnFGNlE,English,,5,2016-02-26,مهرداد طاهری علا,"","",,
Persian Calendar,Google Play,com.byagowi.persiancalendar,Z3A6QU9xcFRPR2haY3lLejJqOVZ3cnZTQXBxSmNCeGxzZkY3WTRackRPUHM0cGRvSHZ2OFhJblUzUWhxY2xpWVY4OXQ3WXk4clVKOExDbElYc0pjV0g2RkE,English,,5,2016-02-26,A Hosseini,"",Great,,
Persian Calendar,Google Play,com.byagowi.persiancalendar,Z3A6QU9xcFRPSGZvLXBkX1d4clI1clh0WDdlM3B0U182U1VzTzI0Z1NSTjJ0Ym11V1FsMTNUSllWWUFXZzdIenR3M2VjNVRYcGJNTGZKNDJ0Tm1OVlBXSEE,English,,5,2016-02-26,Farshad Maftouhi,"","",,
Persian Calendar,Google Play,com.byagowi.persiancalendar,Z3A6QU9xcFRPR2tyZjFjTzlaYWJOU3c5TjYxS3Q0dUxVdFFkUnV6YnhFcktmdERROHJkYkp4ZktiTnFyeU9hV2JHb1NSbERrQmRWZ3pZUXV5aXZRNXB3dWc,English,,5,2016-02-26,Elyas Elyasi,"",Very very well  thanks,,
Persian Calendar,Google Play,com.byagowi.persiancalendar,Z3A6QU9xcFRPSGthU3NQSHk1cmxIWmU4Z1ByUmQzMmgycGhXN0tZRnFVWTZnUlRXRXhtT0swS3k5OVkwcXVuSUJFWEdxTDFLMkdLOUFnOUNGNzJfYkxUSEE,English,,5,2016-02-26,Mehrdad M,طراحی خیلی خوب اما,,,
Persian Calendar,Google Play,com.byagowi.persiancalendar,Z3A6QU9xcFRPRW9CaW9IazI2Wng1a19EZGM0M0JpbE0wdG9SSXgzeUdhMV9MbUtwS0NyWG81REpTa0c4eGI0eEwyem5pSnlpZ1Y1a2hZRWNzQUU2djFza1E,English,,5,2016-02-26,امین آقا,"",Thanks my bro,,
Persian Calendar,Google Play,com.byagowi.persiancalendar,Z3A6QU9xcFRPRmctcHc1TmF2S3ZJWndzTVRqQ2RTVjZBQU9NOHZ5Mi1VWEpmdV9zRmR4TkpvVjBvOHdrUWw0LVpfMVNwRkl5VUpMWUlma244ZF9YT191Tmc,English,,5,2016-02-26,Mahdi Beheshti,"","Best persian calendar ever! I suggest to add some color options for calendar's background in the main app. For example, blue instead of green. Thanks!",,
Persian Calendar,Google Play,com.byagowi.persiancalendar,Z3A6QU9xcFRPRnlYNUJ4UU1jSGo3Y0JiRnE5aUlHanZtRS1nRWhtZ1VPQ1p0bnd1YThEZVlidHRtZ3JaWkNSRm9GZGNWbDhSMDU2MDA2aDdsYUpqNWNVY3c,English,,4,2016-02-26,mohamadreza khoshmorovat,عالی,,,
Persian Calendar,Google Play,com.byagowi.persiancalendar,Z3A6QU9xcFRPSFUzbFpjM3VFR0tpWVlYQWlkMVFEN09aaE03a0cwT1ppaWY3SEJKRVVCeFI0Uk5WOFBicEctUjRGRDB4Vm9uWGRSb0dWdE9ZY0JPRURjUHc,English,,5,2016-02-26,Iman T.,Very Useful,Thanks for new design. Please add a goto date function.,,
Persian Calendar,Google Play,com.byagowi.persiancalendar,Z3A6QU9xcFRPRlI3ci1hcTVOVE5zd2ZFTUUybWE1YjRIbk04MmpieExCZFZ3LThXbUIxMEswci1TME4wMjRvb09Sb3lLR1lMaHM2YkNUc1ZaNG1uU3V1RFE,English,,5,2016-02-26,Mahmoud Hosseinzadeh,"","",,
Persian Calendar,Google Play,com.byagowi.persiancalendar,Z3A6QU9xcFRPR096bXFSXzFjd2h5SG5sRk1ZQlNRSmJDX1lYelZ5UUdTY2lkSkFrcUZ5MkVhY1FOSlduU2N5YWg3QVdDN0VaSXhILXJhNU1lU3duNXdLaUE,English,,5,2016-02-26,Amir Ashraf,"","",,
Persian Calendar,Google Play,com.byagowi.persiancalendar,Z3A6QU9xcFRPSHlCbzJhZGVhRGJ3czZsMFJ6MDRIYjA2VndvYzIxV0luSlJUanBfLXlRcERmcHJZLVlORDZIVXVyT0hycFUxUHVWVTVtYUMxTDRqWG9ETEE,English,,5,2016-02-26,elmiralover,best of persian apps,the best persian app and calendar. simple and useful,,
Persian Calendar,Google Play,com.byagowi.persiancalendar,Z3A6QU9xcFRPRmJfNUpxakY5WmpwZnREdk1XUnkzOG1YXzJxclk3ZEZiM2FKWHQ4VnQ3QXh5YUpKN0N0ZTIxQ2xSN1lxQ0tWUDF4YS1pcGVRUURnazAzT2c,English,,4,2016-02-26,Shahin K,"","",,
Persian Calendar,Google Play,com.byagowi.persiancalendar,Z3A6QU9xcFRPRTN0Qll5c1ZQbzFSbDJwWnZQWVFSeEhIVFQzcWRrcG54V1ZwY0RxeG1mamF6WXJ6QUwzOHR4ZnNHeldnUnpWUVgwZG1ZRFFnZmI1SDZoSHc,English,,5,2016-02-26,Sh Ahab,Fantastic,I need more stars!,,
Persian Calendar,Google Play,com.byagowi.persiancalendar,Z3A6QU9xcFRPRThHTHNkMEw5eHRrT0c4UHd1TjBxLUJ4allpZWs4WlRsYXBEVWVmU2ZhY09WWUFxb3FBS19mV3BDdlNZV3l3TWxPQ3NmdEtFd3lMbkFQQXc,English,,5,2016-02-25,zobair karimi,"","",,
Persian Calendar,Google Play,com.byagowi.persiancalendar,Z3A6QU9xcFRPSDduWEhVNnZLcHdUM0ZIeTdKS3psRFg0a0o5QllMOVNsLS1tQkZBU0E3MDhoaVhadmtiZzU5aTZSS3A3dmM2WTA5T3JBeHloU0RtNGxZRlE,English,,5,2016-02-25,Alireza Panahi,Perfect,Perfect,,
Persian Calendar,Google Play,com.byagowi.persiancalendar,Z3A6QU9xcFRPSHgtaVhxVTNnbmNDOTNKZW1BcFZYeUF1T094bm54UjlWei16ZmdGM0dRQXF2WjdLUk52UmlqZWtkdER0eWU0NVp0Wk1XR3BaMDNHWmo2MEE,English,,5,2016-02-25,Abdullah Faez,عالی,,,
Persian Calendar,Google Play,com.byagowi.persiancalendar,Z3A6QU9xcFRPR2hYeGVqZW1OQ3ZDZWJjUTdTN2huRnY1M01LM0pRVnN3ZFlRLTF0RnhHRzdsbmZ3YVlNampRVzhEWjJmdWtiQWRpVFFYdUxtOVZ5dGtleVE,English,,5,2016-02-25,Milad Mohammadi,"","",,
Persian Calendar,Google Play,com.byagowi.persiancalendar,Z3A6QU9xcFRPR0dncjZLV1VwbW5XWW1GRXlJVzI0ZjczT3VGOVRpYjhQTHVSQkN1eHN1U2J5b01XMzlZcU5RdzI4VGpYakVjaDlaQllaeHdXMkVDMENLLVE,English,,5,2016-02-25,Farzan maniee,"","",,
Persian Calendar,Google Play,com.byagowi.persiancalendar,Z3A6QU9xcFRPSEhrTEJETHA3eEUyUFJERi1CaDhIYXl4eFRPVEt0OXdGMFlCQzdGVEJEdjJhN1ptSFNnNUlzQmlLZkVQVE1MYXFKbG9JMjBGN1g1RUFXRUE,English,,5,2016-02-25,Amir Abbasfard,"","",,
Persian Calendar,Google Play,com.byagowi.persiancalendar,Z3A6QU9xcFRPR1pyUFJyNGhGVFVSMGFvbl9HRHdJVDdLN1FGb3dTczNEQTdwTFFPbWcxZ0RkVng1UXF4ZG9OZDR2SldhR1JITnpld2Uzd1ZlMXFUZ3p5bkE,English,,5,2016-02-25,Ali Mousaviyeh,واقعا عالیه,,,
Persian Calendar,Google Play,com.byagowi.persiancalendar,Z3A6QU9xcFRPRU9MTUR1TW9oRHd6ZjQwbVlCck91VGN1YVdQeG1MMzJfOFF1elF1T1doaGRtME9rQU5id0Z1NlFaRzY3M05tQ0NpaUtlMXJPb21aZ2RHRXc,English,,5,2016-02-25,MAHDI SHAHBAZI,"","",,
Persian Calendar,Google Play,com.byagowi.persiancalendar,Z3A6QU9xcFRPSGVtcXNSaU15N0hJdDlScnlPZmdWbEJwY1FqenNXeDB5TXlFZzdURVFSdjJaVHNUMjBIMHhoaU5lX1pFZVprZFRCX2ZjdnBSZzZmWGZWcWc,English,,5,2016-02-25,farullah azizi,عالیست.,,,
Persian Calendar,Google Play,com.byagowi.persiancalendar,Z3A6QU9xcFRPSHhGeTNRMEtDSGg0V3N0cXZnYTlpN05xRktIM1JvZUJrZXNXaXNQTEEtblNrSjV5Y0g4R1hXNDduQ2Z2eVlmNXVvT0VlVmFHWlBBWXJVSXc,English,,5,2016-02-25,Titan89 deh,Mmd,Love this calander,,
Persian Calendar,Google Play,com.byagowi.persiancalendar,Z3A6QU9xcFRPRWgxQnpSYl91WlVoeE8tWXZ1bVhfYk13Y0xuWGdzUW9saFZoNkRVQkJjTUFKOUFQVDBzbWRyYW02OG1kV2FhbVJSZDM2YXZBaEMzSWVWUUE,English,,5,2016-02-25,Mohammad Ghasemi,"",Great!,,
Persian Calendar,Google Play,com.byagowi.persiancalendar,Z3A6QU9xcFRPRVpXdWRSMFA2YUc5OFNwc2cwUVd2WmM3bDRTWERScHVCd2lxVDBibXRtYURPUUt3Ty1XWHgwM1NLRnl1dFdvQnNOUE9sMzBHRFhwN19QSkE,English,,5,2016-02-25,sia vash,It could be better,I gave this app 3 ✨ this time because I can't see any kind of progress &amp; improvement in it,,
Persian Calendar,Google Play,com.byagowi.persiancalendar,Z3A6QU9xcFRPR0VGSi1DaHFSMk85bTVWZ3RTOVgxZUxRUUhDS2pTTTVVWDAycjQ1MzlkczhwTEVNM1ZEOGV3R2xwQ3ZOX1RYcDdoNTE3Yk1mTlRQVkJvWmc,English,,5,2016-02-25,Hadi Afra,The best Persian calendar,"All you may want in the best possible package, and with no permissions requested. I would give more stars if i could. Dashclock extension is icing on the cake.",,
Persian Calendar,Google Play,com.byagowi.persiancalendar,Z3A6QU9xcFRPRWNRWkM1MDZOaE1tcnpHVGp5REdRdWpnaEdjVUVUbUdwSjFrbkhadzI5RFdadGk1NlNNbFhyekpuemFJUG4xVHF3dFV1eDloSjcyeWFzclE,English,,5,2016-02-25,Aphotic,Must have for every PersianCat!,With a busy modern life of today's human...this little tool makes our daily crappy routine in Iran easier to manage .. thanks for ur hard work... keep up the good work.,,
Persian Calendar,Google Play,com.byagowi.persiancalendar,Z3A6QU9xcFRPSDNXVktkUUpIVmdGZW9RSEVBbjBwMVpkNjl4b1hEVDdUc1J4Y1p4b1Z6M202REVLX1F1X3MxR2lkNG9PYlNVRWdCOC04Zks0ajlFa2xmSXc,English,,4,2016-02-25,Nephthys Goddess,رنگ تاریخ,,,
Persian Calendar,Google Play,com.byagowi.persiancalendar,Z3A6QU9xcFRPRlhLeDNtWFlCYzdyM2llVDlVbS1BSTZJU3BucU9MZXpHS2JfRGRJVVROd3l2ZU1ER1JKWEZGemdNS0FqS2k3QzZ4YUp1RzMtdUlyaFBxaFE,English,,5,2016-02-25,Saeed Mottaghian,Absolute perfectness!,"easy to use, beautiful UI with useful status bar notification!",,
Persian Calendar,Google Play,com.byagowi.persiancalendar,Z3A6QU9xcFRPRk8yU0RQeFE0YV92UnFlTkJsdHBxV0x6NU8yemdwdHVxWGpuSnRSaDVBUVg3bmJnV2JJVnJTWlptT0VBRVFLdTFHaFFkMzk1dWZTTElmSFE,English,,5,2016-02-25,ً enarzed,👍,"",,
Persian Calendar,Google Play,com.byagowi.persiancalendar,Z3A6QU9xcFRPR3ZGX3JMbndlYTdzUlVTdFVXQzFiR25tZV9MTFFvLXNfSHJqN0VLS3V1RDhoQTVhYnRzZ0h2U0YycTdmb3Z2RWVvejZDQmx4a1pQOGxBQUE,English,,5,2016-02-25,MajiD Kamali,"","",,
Persian Calendar,Google Play,com.byagowi.persiancalendar,Z3A6QU9xcFRPRkFFcE5vLW5oZllXRGI4aWxJRkVZWkN5akVEb2hRaFFQRFowcnF4Qy1iQkx3T2dHQ2NJNzlfb3BybGEtZ0s4UldPRDV2YUVfUFhDTTE3bWc,English,,5,2016-02-25,Mosleh Feyzinezhad,"","",,
Persian Calendar,Google Play,com.byagowi.persiancalendar,Z3A6QU9xcFRPRWZMNXljN3RicnZaQmRFT0dnaW96Qmh5VTZpRE5vY1pRMU1kWDVYZVdTdmVfV1RBYlZ4S0NhQ0V4bC1KMW5BemV0aDdmU09NcDNZUFpnb1E,English,,5,2016-02-25,Mahyar Hoseini,"","",,
Persian Calendar,Google Play,com.byagowi.persiancalendar,Z3A6QU9xcFRPSHJnUnNmMkE2djZJOGhwaWk0X043ZUY0NDVBNGRMNzc5VkE1NW9Lay0wTHJFc3l6VFVaMlZrcVc1bC0zLVBpOTd4SDU5WWRhT055dFBRTlE,English,,5,2016-02-25,Mehdi mehdi,بهترین,,,
Persian Calendar,Google Play,com.byagowi.persiancalendar,Z3A6QU9xcFRPSDV6eU9hQ2dHRVNkMEwwS3BhUUxWREtYa051XzlUNXc0ZHczMWRPdmJ5c1lwN1kzQVY1VnhhMUJCQ2RTTEVzSGlYaU83NFI4a1Q4R3NpUFE,English,,5,2016-02-25,Amirali Nematollahi,عالی,,,
Persian Calendar,Google Play,com.byagowi.persiancalendar,Z3A6QU9xcFRPR0oxcGI1RGluQ1BtazJFbWJWSDIyeEU4dDVoU214WTNDMUtidEJ4b1NzSUpyNGdSdk9TN05SVEM3WnYzTGo0TVlSOUQ5ZVhNLVdEQ2lSUXc,English,,5,2016-02-25,Ata Jabbarzadeh,"","",,
Persian Calendar,Google Play,com.byagowi.persiancalendar,Z3A6QU9xcFRPSGdWZW5sdmozTC1sYmk4NlNXbUdBaU15bEpLQW16RDBGeVh3RVRGbEtueFRyRGVHeFBmVVlmbXEwX1N3c1h2dDU2TmcyUDN2ZTlIUDNVMHc,English,,5,2016-02-25,Sodae Azadi,"","",,
Persian Calendar,Google Play,com.byagowi.persiancalendar,Z3A6QU9xcFRPR1RyVHdXU3d0WDhoazVfZlZoYTNYVjZpanZpMzQ5M0thbnpIX0RyU0NNN1ZMQTNBa0s0WFJ6cTN5UXpHVWZsbUJTWDRhbU40SmhwQURBaUE,English,,5,2016-02-25,Mirro Alexandrian,"","",,
Persian Calendar,Google Play,com.byagowi.persiancalendar,Z3A6QU9xcFRPRm9zMjFYTUdUUkRxSFNIZHNtcGg4cnRRRVh1MTJEMnJmZWZRS3NTbmZCQWhaQ1ozUzhkbmxfTzRVX19JR3VGS1BfUVNSMkRGbUxZdGt2MHc,English,,5,2016-02-25,Mohamad Madani,Good,Very good,,
Persian Calendar,Google Play,com.byagowi.persiancalendar,Z3A6QU9xcFRPRllrQmdMZ1gtSVg2OFY5UkpkcjZMYkFpN01mZlFITzU5QUxQcWNzQzNYZ0ZSbGlOaTBhRDdvZEVNc3J2c2QwOEtyTVFPOXZvc3d6QWZPX2c,English,,5,2016-02-25,Kamal M. TABIB,"","",,
Persian Calendar,Google Play,com.byagowi.persiancalendar,Z3A6QU9xcFRPRjA3Yzd6OF8zc0tyOHB2dkNPMTB6YzhQV0xxYmlicGhoYVdRRnRZVmZ1UFpCRVNrLVpvTFAtRW15Zk9hMlJSWlhkQ3MxMlFXcEtta0w5T3c,English,,5,2016-02-25,Ali Mahdavi,"","",,
Persian Calendar,Google Play,com.byagowi.persiancalendar,Z3A6QU9xcFRPR0I2NTdtRlRTbzNNSlRqMWNLTkZkX05GVF8tN1FFU3hxY09yc3BYQm9qaGhaTUxVMklfNVZlakRBN2EyRmJQVEZuUFlGWjdlU2dwM3V1Z2c,English,,5,2016-02-25,Aboozar Emrani,"",Its great specially with the update 👍👍👍👍👍👍,,
Persian Calendar,Google Play,com.byagowi.persiancalendar,Z3A6QU9xcFRPRmxNbkk0UE5hZjlpUWxxcV9XWWZsN0JKQU1JUHRlU0FnN3I4dkpaQkhRWV9UOWpab0VtaGIxQ3doMmc2NUVlUEhZV3FpelBwZDIzMWNHY3c,English,,5,2016-02-25,Koorosh Afshari,بدون نقص و مفید,,,
Persian Calendar,Google Play,com.byagowi.persiancalendar,Z3A6QU9xcFRPSFNKVlkwbll6REZjbjhKdDhOTkhzRnhENDc5SWhZYVc3VWNrM1IyZm50bUxFaE4yd0pzQmJFeU5acm9iU0x5WG1kWDE5TkxxMUpsUjJyRlE,English,,5,2016-02-25,Armin Abdi,Great,Light and useful. Plus the new version with material design has become even better.,,
Persian Calendar,Google Play,com.byagowi.persiancalendar,Z3A6QU9xcFRPSGpnYzQ4X0JienNHcDIyUy13aXVqbEZMcnNUMEtZTVVKTGtVel9hWWh4ZXlpb0JRT0Jrd0pzNFpzTl93TS1vaTRlR1ZhelRDWVhSVzB4b1E,English,,5,2016-02-25,Meysam Shahrashoub,"","",,
Persian Calendar,Google Play,com.byagowi.persiancalendar,Z3A6QU9xcFRPRkpsRVIzZjRFS1NwY1dnYkduM21wMkhnNmhGQ09JODBGNlBSWkZNb1BjSUZqYTNrWERQUk1Ec2NqUF8wTnVpdFhFejFrTG1GbHlpbXlXdlE,English,,5,2016-02-25,"",ساده و کاربردی,,,
Persian Calendar,Google Play,com.byagowi.persiancalendar,Z3A6QU9xcFRPR2xqOFF0dGhZT2lfOXRBVG9wNURLTHl6ZnVObDVzQ0tMTEFWM1dFRVVMWVdiSF9UVThneG5rMmRiXzB6T0NoSGZwQTRfajhycE81V0Q3eHc,English,,5,2016-02-25,zahra jamali,"","",,
Persian Calendar,Google Play,com.byagowi.persiancalendar,Z3A6QU9xcFRPRlZiYlNXS0lmanJXWUpsN004VEVFZ3BucGp4U1ZYYWMtUGpra0JGOXM3amRUbjkzT2dERmJRSDgyM04wbFp0alpPajZXMzlXdTUtOU5kZnc,English,,4,2016-02-25,zahra mohamadi,sara,excellet✔,,
