Topic Index 1,Topic Index 2,Topic Similarity
0,0,5.263157894736842
1,8,5.263157894736842
2,13,5.263157894736842
3,7,5.263157894736842
5,4,5.263157894736842
6,19,5.263157894736842
7,6,5.263157894736842
8,2,5.263157894736842
9,5,5.263157894736842
14,1,5.263157894736842
16,15,5.263157894736842
17,17,5.263157894736842
18,16,5.263157894736842
4,3,0.0
10,9,0.0
11,10,0.0
12,11,0.0
13,12,0.0
15,14,0.0
19,18,0.0
