Topic Index 1,Topic Index 2,Topic Similarity
7,16,11.11111111111111
16,12,11.11111111111111
0,0,5.263157894736842
1,7,5.263157894736842
3,2,5.263157894736842
4,18,5.263157894736842
9,10,5.263157894736842
13,3,5.263157894736842
14,11,5.263157894736842
15,4,5.263157894736842
17,13,5.263157894736842
19,5,5.263157894736842
2,1,0.0
5,6,0.0
6,8,0.0
8,9,0.0
10,14,0.0
11,15,0.0
12,17,0.0
18,19,0.0
