# deletions,date,commit message
1,2016/4/06,Consider an exception thrown while executing a SyncTask to be "worth" 10 IoExceptions in an attempt to make the service try less frequently.
11,2016/4/14,Revert "Attempt to prevent collection items from being deleted"  This reverts commit 104612870b80eeaf1e4cbc88886a841aef8628db.
3,2016/4/14,Show menu icons for the buddy collection
180,2016/4/14,In an effort to handle the 202 return status use an okhttp interceptor instead of the retrofit error handler
2,2016/4/14,Display the buddy name when viewing their collection
9,2016/4/14,Protect against an NPE when attempting to show the progress bar
9,2016/4/14,Bump version
8,2016/4/14,Handle null context when creating a task
14,2016/4/14,Show a re-sync button if the collection has been synced but is displaying an empty list
1,2016/4/13,Update Android Studio to 2.0.0
11,2016/4/13,Protect against an NPE trying to create an authenticated request
6,2016/4/13,Attempt to prevent collection items from being deleted
31,2016/4/02,Handle exception when trying to import a JSON file
1,2016/4/02,Fix not applying palette colors to the game fragment
5,2016/4/12,Avoid NPE trying to clear the password
2,2016/4/12,Correct log messages during a retry-able request
6,2016/4/12,Place the count of plays at a location to the left of the menu items
2,2016/4/13,Bump version
4,2016/4/13,Don't show the search icon when creating a shortcut
27,2016/4/13,Replace deprecated navigation mode with a spinner
11,2016/4/12,Tweak themes again
20,2016/4/12,Don't change the activity title when the drawer opens
42,2016/4/11,Restructure themes a bit
30,2016/4/12,Take further advantage of Icepick in the CollectionFragment
7,2016/4/12,Rename inflater variables
6,2016/4/12,Place the count of plays at a location to the left of the menu items
84,2016/4/12,Don't hide menu items when the drawer is open
15,2016/4/12,Clean up PlayStatView
2,2016/4/12,Correct log messages during a retry-able request
5,2016/4/12,Avoid NPE trying to clear the password
1,2016/4/09,Update aboutlibraries to 5.6.5
452,2016/4/09,Upgrade to ButterKnife 7.0.1
53,2016/4/09,Remove unused widget
5,2016/4/09,Update support libraries
2,2016/4/09,Update about and change log
638,2016/4/08,Remove old RangeSeekBar
1,2016/4/07,Correct title of my rating dialog
1,2016/4/07,Upgrade to Android Studio 2.0.0
168,2016/4/07,Remove the description text (rely on the pins)
4,2016/4/07,Format the year range correctly
3,2016/4/07,up/down buttons correctly handle when the pins are on the same value
9,2016/4/07,Always display the pins
0,2016/4/06,Change icon to black instead of white
28,2016/4/06,Move buttons to under the range bar so that it extends the full width of the dialog
32,2016/4/06,Swap out range bar for a material-styled version
7,2016/4/06,Use Butterknife in the SlideFilterDialog
28,2016/4/06,Remove the summary text in the play logging settings
1,2016/4/06,Update gradle to 2.0.0-rc3
5,2016/4/04,More icon refactoring
10,2016/4/04,Refactor icons in the nav drawer
0,2016/4/04,Remove the pre-api 14 drawables
10,2016/4/04,Update game page icons
3,2016/4/04,Update done icon
17,2016/4/04,Refactor the icons used in logging plays
4,2016/4/03,Rework the timer icon
12,2016/4/03,Correct icon styling
3,2016/4/02,Update icons in the game's links section
4,2016/4/02,Update icons for user feedback section of game fragment
38,2016/4/02,Remove a couple unused resources
3,2016/4/02,Update icons for game plays
0,2016/4/02,Update game detail icons
9,2016/4/02,Improve style of game icons
2,2016/4/02,Restyle navigation drawer item
1,2016/4/02,Fix not applying palette colors to the game fragment
28,2016/4/02,Icepick LogPlayerActivity
112,2016/4/02,Icepick ColorPickerDialogFragment and GameDetailRow
6,2016/4/02,Icepick PlayersActivity
23,2016/4/02,Icepick the play activity/fragment
43,2016/4/02,Icepick GeekListsFragment
18,2016/4/02,Icepick GameFragment and GamePlaysActivity
41,2016/4/02,Icepick BggListFragment and CommentsFragment
6,2016/4/02,Icepick SearchResults activity
3,2016/4/02,Correctly show the collection on first load
18,2016/4/02,Icepick the buddy fragments
19,2016/4/02,Use icepick in the collection activity/fragment
22,2016/4/02,Introduce Icepick into StickyHeaderListFragment
31,2016/4/02,Handle exception when trying to import a JSON file
84,2016/4/02,Remove all uses of VersionUtils
19,2016/4/02,Stop showing toast after creating a shortcut; clean up the code
1097,2016/4/02,Use native ActionMode everywhere and delete the compat shim
42,2016/4/02,Hotness fragment uses ActionMode directly.
12,2016/4/02,Clean up more useless API checks
58,2016/4/02,Remove unnecessary code (pre-15 API support) in settings
27,2016/4/02,Remove version check when adding an icon to a dialog
75,2016/4/02,Remove unnecessary version checks
6,2016/4/02,Improve style of import/export buttons
26,2016/3/31,Refactor member variable names in DataFragment
8,2016/3/31,Improve styling of import/export button
2,2016/3/31,Update build tools
2,2016/3/31,Respond to minor inspections
1,2016/3/31,Upgrade MP Android Chart to 2.2.4
2,2016/3/31,Upgrade Timber to 4.1.2 (requiring updating the min API to 15)
50,2016/3/31,Improve the style of the collection sort and filter dialog boxes to more closely match the Material spec
