# deletions,date,commit message
19,2015/4/17,Update time-based UI in BuddyFragment and move the updated view to the right
63,2015/4/17,Update time-based UI in GameCollectionFragment
11,2015/4/17,Update time-based UI in GeekListDescriptionFragment
19,2015/4/17,Update time-based UI in GeekListItemFragment
5,2015/4/17,Update time-based UI in GeekListFragment
15,2015/4/17,Address inspection in GeekListFragment
7,2015/4/17,Update time-based UI in play fragment
20,2015/4/17,Show the updated time to the ProducerFragment and rearrange the layout
9,2015/4/17,Butterknife ProducerFragment
1,2015/4/17,Style the PlaysFragment closer to the Material spec
5,2015/4/17,Update version name and code put version number into change log and release notes
14,2015/4/17,Update time-based UI in ArticleFragment
3,2015/4/17,Fix some inspection warnings
5,2015/4/17,Update time-based UI in ThreadFragment
10,2015/4/17,Rename BggListFragment's runnable
23,2015/4/17,Butterknife ForumFragment
13,2015/4/17,Butterknife the ForumsFragment
4,2015/4/17,Add DebugLog statements to ForumFragment
1,2015/4/17,Capture more data during SyncGames to figure out where int="" is coming from.
1,2015/4/17,Change how the log play date click is wired up. Hopefully this will fix the problem where it does nothing for some people.
1,2015/4/17,Prevent a NPE when cancelling a sync before it starts the first task.
4,2015/4/17,Change the thresholds of weight descriptions to be evenly distributed over the range.
5,2015/4/17,Support legacy devices in preferences
1,2015/4/17,Correct the stat bar display when min isn't zero. (Previously the bar didn't represent the actual value accurately.)
4,2015/4/17,Add time-based UI updating to ForumsFragment
16,2015/4/17,Update game's last updated date periodically
7,2015/4/16,Add DebugLog statements to GameFragment
2,2015/4/16,Add debug logging to persisting plays
5,2015/4/16,Add debug logging to syncing buddies
1,2015/4/16,Correctly construct collection default where clause if no statuses are synced
1,2015/4/16,Collection item ranks in API is no longer a required field
7,2015/4/16,Game description in API is no longer a required field
10,2015/4/16,Fix crash in GeekListItemFragment due to applying a palette before the UI has finished loading
2,2015/4/16,Initialize H-Index to 0 effectively suppressing the notification on initial sync
1,2015/4/16,Initialize new version
