# deletions,date,commit message
2,2014/10/27,Update version and release number
21,2014/10/27,Fixed displaying images (in most places anyway)
2,2014/10/27,Move DSLV into BGG just to get it to compile (already did this on develop branch)
3,2014/10/27,Use the new version of the action bar drawer toggle
20,2014/10/27,XmlConvertor handles [url=path]text[/url] tag now; refactoring
13,2014/10/27,Calculate H-Index anew and add animations
4,2014/10/26,Use Fragments instead of SherlockFragments
1,2014/10/26,Correct theme on ImageActivity
26,2014/10/26,Handle image URL missing scheme
2,2014/10/26,Reset version name; fix parent activity for location
5,2014/10/26,Revert preferences back to Holo for now (until I figure out how to make them work for real); swap primary dark and accent colors; update release notes
85,2014/10/25,Done/Cancel uses a toolbar instead of the native actionbar
24,2014/10/25,Use material styling
111,2014/10/24,Fix text views in the appcompat action bar
22,2014/10/24,Update searchview to appcompt
6,2014/10/23,Remove ABS from about; address a couple of compiler warnings
37199,2014/10/23,Replace ActionBarSherlock with AppCompat
9,2014/10/23,File up the styles
3895,2014/10/23,Reformat DSLV files removing unused code and addressing warnings.
552,2014/10/23,Move DSLV to the BGG project
3,2014/10/23,Update to SDK 21 and change version name
25,2014/10/21,Handle years before 0 in the search results and display years better all over the app
22,2014/10/20,Make distinction of between Geek Rating and Average Rating when sorting Re-order filter and sort menu for consistency Show N/A for rank in the stats panel when unranked
1,2014/10/19,Update authors; fix item count shown on description
426,2014/10/18,Refactor XML to HTML code; add a LOT more images
36,2014/10/18,Handle PNG thumbnails (as well as JPG)
50,2014/10/16,Change fill_parent to match_parent
34,2014/10/16,Click to see GeekList description
1,2014/10/13,Avoid error when syncing games not in the collection
17,2014/10/12,Add a header to the geek list
2,2014/10/11,Can view the object of the geek list item
49,2014/10/11,Improve formatting of geek list item - both row and detail
101,2014/10/10,Improve geek list item view
21,2014/10/10,Add thumb count to the geek list items
16,2014/10/10,Move geek list item description to its own activity
13,2014/10/09,Enable sharing of geeklists and refactor sharing in articles
5,2014/10/08,Show number of items in a geek list
3,2014/10/08,Enable sorting options on GeekLists
60,2014/10/07,Add option to reset GeekBuddies
2,2014/10/07,Handle null returned by buddy collection as reported by Play
1,2014/10/07,Add padding to the rank for long game titles
16,2014/10/07,Add radio buttons next to play sort options
3,2014/10/07,Fix paging issue when page size isn't 50
64,2014/10/03,Get rid of constants class
74,2014/10/03,Reformat the geek list item header make it clickable to launch the game
116,2014/10/03,Implement infinite scrolling in geek lists
93,2014/10/03,Use retrofit to get geek lists.
44,2014/10/02,Improve Geek List formatting
898,2014/10/02,Small refactoring - mostly spelling/capitalization but removed some unnecessary code
12,2014/9/30,Load some basic stats and make it look decent.
3,2014/9/30,initial commit for geek lists
1,2014/9/29,Update version name
34,2014/9/29,ButterKnife GamePlayStatsFragment
4,2014/9/28,Update version name and rename PlayStatsFragment to Game...
2,2014/9/28,Rollback: delete collection games that appear to be missing
14,2014/9/28,Attempt to load the medium and small image sizes before trying the original (saves bandwidth and medium should provide fine resolution)
13,2014/9/28,Search Collection table not Game table; update release notes
16,2014/9/28,Rework the sync error notifications
4,2014/9/28,Rework sync cancelled message
124,2014/9/28,Rework sync notifications. No longer show the previously completed steps but shows more context during the current step.
12,2014/9/24,Add featured colors to color picker
105,2014/9/24,Add a color picker for logging players (and ButterKnife LogPlayerActivity)
24,2014/9/21,Change the inserted URI to use longs instead of ints
123,2014/9/21,Add queryLongs to ResolverUtils; add ability to create virtual table; refactoring
47,2014/9/20,When syncing a game's collection items remove ones not found
9,2014/9/19,Enable bulk editing of players; update release notes
11,2014/9/18,Make the edit dialog more generic and make the update respect the sync status of plays
17,2014/9/16,Enable bulk editing of play location
60,2014/9/16,Refactor GameActivity to use PagedDrawerActivity
50,2014/9/16,Factor PagedDrawerActivity out from BuddyActivity
71,2014/9/16,Refactor BuddyFragment
142,2014/9/10,Include the subtype in the GameActivity title; fix rank parsing error; update release notes
121,2014/9/08,ImageView is now full screen
84,2014/9/08,Improve styling of new look
376,2014/9/08,Change layout of GameInfoFragment
155,2014/9/07,Butter Knife GameInfoFragment
278,2014/9/07,Restyle game collection UI
10,2014/9/06,Improve display when missing a location
53,2014/9/06,Add ButterKnife and use it in the GameCollectionFragment
0,2014/9/06,Add play store image assets
2,2014/9/06,Sort collection by rank
161,2014/9/05,Rename SortData to Sorter
24,2014/9/05,Denormalize the game's primary rank
9,2014/9/05,Enable multi-game quick log in collection hotness and search results
9,2014/9/05,Fix sorting of locations; update release notes
715,2014/9/04,LocationActivity shows plays filtered by activity and show the play count Show player count even for players and buddies
12,2014/9/04,Add a locations list (that's currently displaying all plays) plus a few fixes to the players list
99,2014/9/03,Move Players from BuddiesActivity into its own drawer item
18,2014/9/03,Move settings menu into nav drawer
453,2014/8/27,Simplify drawer layout
3,2014/8/27,Mark buddies so that Authors don't appear in the buddy list
1,2014/8/27,Update versionName and release notes post-release
11,2014/8/27,Refactor row_header
