package,release ID,UI element,related topic,average polarity,# reviews,average rating,average objectivity,# uninstalls,delta rating,element deleted next release
net.nurik.roman.muzei,v2.1,@+id/source_title$,852,0.16380170755170756,3,4.0,0.6353835978835979,0,0.16044260027662505,0
net.nurik.roman.muzei,v2.1,@+id/source_title$,845,0.415625,2,4.5,0.55,0,0.660442600276625,0
net.nurik.roman.muzei,v2.1,@+id/source_title$,850,0.2,1,4.0,0.55,0,0.16044260027662505,0
net.nurik.roman.muzei,v2.1,@+id/source_title$,846,0.18409090909090908,1,5.0,0.525,0,1.160442600276625,0
net.nurik.roman.muzei,v2.1,@+id/source_settings_button$,859,0.09479166666666668,2,4.0,0.4625,0,0.16044260027662505,0
net.nurik.roman.muzei,v2.1,@+id/source_settings_button$,862,0.5,1,5.0,0.5,0,1.160442600276625,0
net.nurik.roman.muzei,v2.1,@+id/source_settings_button$,863,0.38340097402597406,2,4.0,0.6988961038961039,0,0.16044260027662505,0
net.nurik.roman.muzei,v2.1,@+id/source_settings_button$,867,0.16011904761904763,3,4.666666666666667,0.5654761904761904,0,0.827109266943292,0
net.nurik.roman.muzei,v2.1,@+id/source_settings_button$,864,0.08,1,1.0,0.77,0,-2.839557399723375,0
net.nurik.roman.muzei,v2.1,@+id/source_settings_button$,857,0.7,1,4.0,0.6000000000000001,0,0.16044260027662505,0
net.nurik.roman.muzei,v2.1,@+id/source_settings_button$,858,0.4055555555555556,1,4.0,0.6597222222222222,0,0.16044260027662505,0
net.nurik.roman.muzei,v2.1,@+id/source_settings_button$,866,0.1733333333333333,1,3.0,0.41654761904761906,0,-0.839557399723375,0
net.nurik.roman.muzei,v2.1,@+id/dim_amount_label$settings_dim_amount_title,871,-0.010416666666666666,1,3.0,0.625,0,-0.839557399723375,0
net.nurik.roman.muzei,v2.1,@+id/dim_amount_label$settings_dim_amount_title,872,0.63125,1,4.0,0.8,0,0.16044260027662505,0
net.nurik.roman.muzei,v2.1,@+id/dim_amount_label$settings_dim_amount_title,870,0.11044973544973542,3,2.6666666666666665,0.42633597883597885,0,-1.1728907330567084,0
net.nurik.roman.muzei,v2.1,@+id/dim_amount_label$settings_dim_amount_title,869,-0.05,1,3.0,0.2,0,-0.839557399723375,0
net.nurik.roman.muzei,v2.1,@+id/source_status$,876,0.09479166666666668,2,4.0,0.4625,0,0.16044260027662505,0
net.nurik.roman.muzei,v2.1,@+id/source_status$,878,0.1481331168831169,2,4.5,0.5857142857142856,0,0.660442600276625,0
net.nurik.roman.muzei,v2.1,@+id/source_status$,875,0.4055555555555556,1,4.0,0.6597222222222222,0,0.16044260027662505,0
net.nurik.roman.muzei,v2.1,@+id/source_status$,879,0.18409090909090908,1,5.0,0.525,0,1.160442600276625,0
net.nurik.roman.muzei,v2.1,@string/gallery_source_settings_empty$,890,0.09479166666666668,2,3.5,0.5875,0,-0.33955739972337495,0
net.nurik.roman.muzei,v2.1,@string/gallery_source_settings_empty$,886,0.35,2,5.0,0.4,0,1.160442600276625,0
net.nurik.roman.muzei,v2.1,@string/gallery_source_settings_empty$,891,0.09626623376623378,1,5.0,0.6214285714285713,0,1.160442600276625,0
net.nurik.roman.muzei,v2.1,@string/gallery_source_settings_empty$,881,0.08,1,1.0,0.77,0,-2.839557399723375,0
net.nurik.roman.muzei,v2.1,@string/gallery_source_settings_empty$,889,0.29043771043771044,3,3.6666666666666665,0.5892760942760943,0,-0.17289073305670843,0
net.nurik.roman.muzei,v2.1,@string/gallery_source_settings_empty$,888,0.17568181818181816,2,5.0,0.49916666666666665,0,1.160442600276625,0
net.nurik.roman.muzei,v2.1,@string/gallery_source_settings_empty$,883,0.34805194805194806,1,4.0,0.6977922077922079,0,0.16044260027662505,0
net.nurik.roman.muzei,v2.1,@+id/blur_amount$,905,-0.010416666666666666,1,3.0,0.625,0,-0.839557399723375,0
net.nurik.roman.muzei,v2.1,@+id/blur_amount$,903,0.5583333333333335,3,5.0,0.6319444444444445,0,1.160442600276625,0
net.nurik.roman.muzei,v2.1,@+id/blur_amount$,910,0.27666666666666667,5,3.4,0.5433333333333332,0,-0.43955739972337504,0
net.nurik.roman.muzei,v2.1,@+id/blur_amount$,900,0.21125781625781626,3,4.333333333333333,0.6068951418951419,0,0.4937759336099581,0
net.nurik.roman.muzei,v2.1,@+id/blur_amount$,906,0.5142857142857142,1,4.0,0.8357142857142856,0,0.16044260027662505,0
net.nurik.roman.muzei,v2.1,@+id/blur_amount$,898,0.496875,2,4.0,0.5125,0,0.16044260027662505,0
net.nurik.roman.muzei,v2.1,@+id/blur_amount$,901,0.0,1,1.0,0.5,0,-2.839557399723375,0
net.nurik.roman.muzei,v2.1,@+id/blur_amount$,907,0.1904761904761905,1,3.0,0.35714285714285715,0,-0.839557399723375,0
net.nurik.roman.muzei,v2.1,@+id/blur_amount$,909,-0.05,1,3.0,0.2,0,-0.839557399723375,0
net.nurik.roman.muzei,v2.1,@+id/blur_amount$,899,0.1733333333333333,1,3.0,0.41654761904761906,0,-0.839557399723375,0
net.nurik.roman.muzei,v2.1,@+id/source_scrollbar$,919,-0.010416666666666666,1,3.0,0.625,0,-0.839557399723375,0
net.nurik.roman.muzei,v2.1,@+id/source_scrollbar$,912,0.3027777777777778,2,4.5,0.47986111111111107,0,0.660442600276625,0
net.nurik.roman.muzei,v2.1,@+id/source_scrollbar$,917,0.2,1,4.0,0.55,0,0.16044260027662505,0
net.nurik.roman.muzei,v2.1,@+id/source_scrollbar$,916,0.14017857142857143,2,5.0,0.5732142857142857,0,1.160442600276625,0
net.nurik.roman.muzei,v2.1,@string/gallery_source_settings_empty_subtitle$,922,-0.010416666666666666,1,3.0,0.625,0,-0.839557399723375,0
net.nurik.roman.muzei,v2.1,@string/gallery_source_settings_empty_subtitle$,923,0.5,1,5.0,0.5,0,1.160442600276625,0
net.nurik.roman.muzei,v2.1,@string/gallery_source_settings_empty_subtitle$,931,0.19319534632034632,4,4.75,0.5344967532467532,0,0.910442600276625,0
net.nurik.roman.muzei,v2.1,@string/gallery_source_settings_empty_subtitle$,932,0.2,1,4.0,0.55,0,0.16044260027662505,0
net.nurik.roman.muzei,v2.1,@string/gallery_source_settings_empty_subtitle$,934,0.12363636363636363,2,3.0,0.6216666666666667,0,-0.839557399723375,0
net.nurik.roman.muzei,v2.1,@string/gallery_source_settings_empty_subtitle$,929,0.4055555555555556,1,4.0,0.6597222222222222,0,0.16044260027662505,0
net.nurik.roman.muzei,v2.1,@string/gallery_source_settings_empty_subtitle$,926,0.34805194805194806,1,4.0,0.6977922077922079,0,0.16044260027662505,0
net.nurik.roman.muzei,v2.1,@string/gallery_source_settings_empty_subtitle$,933,0.1733333333333333,1,3.0,0.41654761904761906,0,-0.839557399723375,0
net.nurik.roman.muzei,v2.1,@+id/dim_amount$,936,0.02439980158730158,4,2.75,0.42186507936507933,0,-1.089557399723375,0
net.nurik.roman.muzei,v2.1,@+id/dim_amount$,937,0.1733333333333333,1,3.0,0.41654761904761906,0,-0.839557399723375,0
net.nurik.roman.muzei,v2.1,@+id/blur_on_lockscreen_checkbox$settings_blur_on_lockscreen,941,0.37476190476190474,5,3.8,0.5480952380952381,0,-0.03955739972337513,0
net.nurik.roman.muzei,v2.1,@+id/blur_on_lockscreen_checkbox$settings_blur_on_lockscreen,945,0.5,1,5.0,0.6,0,1.160442600276625,0
net.nurik.roman.muzei,v2.1,@+id/blur_on_lockscreen_checkbox$settings_blur_on_lockscreen,952,0.11666666666666665,3,4.333333333333333,0.5333333333333333,0,0.4937759336099581,0
net.nurik.roman.muzei,v2.1,@+id/blur_on_lockscreen_checkbox$settings_blur_on_lockscreen,946,0.06287878787878788,2,3.0,0.49577922077922076,0,-0.839557399723375,0
net.nurik.roman.muzei,v2.1,@+id/blur_on_lockscreen_checkbox$settings_blur_on_lockscreen,942,0.5142857142857142,1,4.0,0.8357142857142856,0,0.16044260027662505,0
net.nurik.roman.muzei,v2.1,@+id/blur_on_lockscreen_checkbox$settings_blur_on_lockscreen,944,0.6076839826839827,3,3.3333333333333335,0.5200974025974027,0,-0.5062240663900415,0
net.nurik.roman.muzei,v2.1,@+id/blur_on_lockscreen_checkbox$settings_blur_on_lockscreen,955,-0.16296296296296298,1,1.0,0.2962962962962963,0,-2.839557399723375,0
net.nurik.roman.muzei,v2.1,@+id/blur_on_lockscreen_checkbox$settings_blur_on_lockscreen,951,0.049999999999999996,1,5.0,0.8833333333333333,0,1.160442600276625,0
net.nurik.roman.muzei,v2.1,@+id/blur_on_lockscreen_checkbox$settings_blur_on_lockscreen,957,0.1733333333333333,1,3.0,0.41654761904761906,0,-0.839557399723375,0
net.nurik.roman.muzei,v2.1,@+id/blur_on_lockscreen_checkbox$settings_blur_on_lockscreen,948,0.3333333333333333,1,4.0,0.39999999999999997,0,0.16044260027662505,0
net.nurik.roman.muzei,v2.1,@+id/blur_amount_label$settings_blur_amount_title,965,0.42625,5,4.2,0.7233333333333334,0,0.3604426002766252,0
net.nurik.roman.muzei,v2.1,@+id/blur_amount_label$settings_blur_amount_title,959,0.17916666666666667,4,4.0,0.5458333333333333,0,0.16044260027662505,0
net.nurik.roman.muzei,v2.1,@+id/blur_amount_label$settings_blur_amount_title,971,0.18333333333333335,1,5.0,0.7666666666666666,0,1.160442600276625,0
net.nurik.roman.muzei,v2.1,@+id/blur_amount_label$settings_blur_amount_title,969,0.4880952380952381,3,2.6666666666666665,0.4452380952380952,0,-1.1728907330567084,0
net.nurik.roman.muzei,v2.1,@+id/blur_amount_label$settings_blur_amount_title,973,0.47500000000000003,1,5.0,0.5625,0,1.160442600276625,0
net.nurik.roman.muzei,v2.1,@+id/blur_amount_label$settings_blur_amount_title,966,0.0,1,1.0,0.5,0,-2.839557399723375,0
net.nurik.roman.muzei,v2.1,@+id/blur_amount_label$settings_blur_amount_title,962,0.1904761904761905,1,3.0,0.35714285714285715,0,-0.839557399723375,0
net.nurik.roman.muzei,v2.1,@+id/blur_amount_label$settings_blur_amount_title,961,0.2924242424242424,1,4.0,0.6915584415584416,0,0.16044260027662505,0
net.nurik.roman.muzei,v2.1,@+id/blur_amount_label$settings_blur_amount_title,968,0.158015873015873,1,4.0,0.3624603174603175,0,0.16044260027662505,0
net.nurik.roman.muzei,v2.1,@+id/blur_amount_label$settings_blur_amount_title,960,0.35,1,4.0,0.4,0,0.16044260027662505,0
net.nurik.roman.muzei,v2.1,@+id/blur_amount_label$settings_blur_amount_title,964,0.1733333333333333,1,3.0,0.41654761904761906,0,-0.839557399723375,0
net.nurik.roman.muzei,v2.1,@+id/image_error_retry_button$retry,986,0.1487037037037037,3,3.6666666666666665,0.3099074074074074,0,-0.17289073305670843,0
net.nurik.roman.muzei,v2.1,@+id/image_error_retry_button$retry,975,0.30625,2,4.0,0.6979166666666667,0,0.16044260027662505,0
net.nurik.roman.muzei,v2.1,@+id/image_error_retry_button$retry,978,0.34479166666666666,2,4.5,0.6416666666666667,0,0.660442600276625,0
net.nurik.roman.muzei,v2.1,@+id/image_error_retry_button$retry,979,0.18273809523809526,2,3.5,0.31607142857142856,0,-0.33955739972337495,0
net.nurik.roman.muzei,v2.1,@+id/image_error_retry_button$retry,984,0.07142857142857142,1,4.0,0.5857142857142856,0,0.16044260027662505,0
net.nurik.roman.muzei,v2.1,@+id/image_error_retry_button$retry,980,0.4375,1,3.0,0.73,0,-0.839557399723375,0
net.nurik.roman.muzei,v2.1,@+id/image_error_retry_button$retry,983,0.025079365079365083,1,4.0,0.5202380952380952,0,0.16044260027662505,0
net.nurik.roman.muzei,v2.1,@+id/notify_new_wallpaper_checkbox$settings_notify_new_wallpaper,988,0.31228354978354983,9,4.0,0.4639522206188873,0,0.16044260027662505,0
net.nurik.roman.muzei,v2.1,@+id/notify_new_wallpaper_checkbox$settings_notify_new_wallpaper,994,0.33479826675849406,22,3.8636363636363638,0.5292197953561589,1,0.024078963912988804,0
net.nurik.roman.muzei,v2.1,@+id/notify_new_wallpaper_checkbox$settings_notify_new_wallpaper,1035,0.20854166666666665,2,3.5,0.43999999999999995,1,-0.33955739972337495,0
net.nurik.roman.muzei,v2.1,@+id/notify_new_wallpaper_checkbox$settings_notify_new_wallpaper,1000,0.3027777777777778,3,2.3333333333333335,0.5638888888888889,1,-1.5062240663900415,0
net.nurik.roman.muzei,v2.1,@+id/notify_new_wallpaper_checkbox$settings_notify_new_wallpaper,1008,0.18333333333333335,1,5.0,0.7666666666666666,0,1.160442600276625,0
net.nurik.roman.muzei,v2.1,@+id/notify_new_wallpaper_checkbox$settings_notify_new_wallpaper,989,0.0,1,5.0,0.0,0,1.160442600276625,0
net.nurik.roman.muzei,v2.1,@+id/notify_new_wallpaper_checkbox$settings_notify_new_wallpaper,1041,0.0,1,2.0,0.0,0,-1.839557399723375,0
net.nurik.roman.muzei,v2.1,@+id/notify_new_wallpaper_checkbox$settings_notify_new_wallpaper,993,0.31893939393939397,4,2.5,0.489556277056277,0,-1.339557399723375,0
net.nurik.roman.muzei,v2.1,@+id/notify_new_wallpaper_checkbox$settings_notify_new_wallpaper,1034,0.31666666666666665,1,4.0,0.7958333333333334,0,0.16044260027662505,0
net.nurik.roman.muzei,v2.1,@+id/notify_new_wallpaper_checkbox$settings_notify_new_wallpaper,991,0.018445616883116887,2,3.5,0.46696428571428567,0,-0.33955739972337495,0
net.nurik.roman.muzei,v2.1,@+id/notify_new_wallpaper_checkbox$settings_notify_new_wallpaper,990,0.41,1,5.0,0.5,0,1.160442600276625,0
net.nurik.roman.muzei,v2.1,@+id/notify_new_wallpaper_checkbox$settings_notify_new_wallpaper,992,0.3225,1,5.0,0.6799999999999999,0,1.160442600276625,0
net.nurik.roman.muzei,v2.1,@+id/notify_new_wallpaper_checkbox$settings_notify_new_wallpaper,998,0.24635010822510822,4,3.5,0.507172619047619,0,-0.33955739972337495,0
net.nurik.roman.muzei,v2.1,@+id/notify_new_wallpaper_checkbox$settings_notify_new_wallpaper,1020,0.08,1,1.0,0.77,0,-2.839557399723375,0
net.nurik.roman.muzei,v2.1,@+id/notify_new_wallpaper_checkbox$settings_notify_new_wallpaper,1001,0.6000000000000001,1,5.0,0.9,0,1.160442600276625,0
net.nurik.roman.muzei,v2.1,@+id/notify_new_wallpaper_checkbox$settings_notify_new_wallpaper,1031,0.06818181818181818,1,1.0,0.22727272727272727,0,-2.839557399723375,0
net.nurik.roman.muzei,v2.1,@+id/notify_new_wallpaper_checkbox$settings_notify_new_wallpaper,1002,-0.0666666666666667,1,1.0,0.9666666666666667,0,-2.839557399723375,0
net.nurik.roman.muzei,v2.1,@+id/notify_new_wallpaper_checkbox$settings_notify_new_wallpaper,1040,0.6666666666666666,1,5.0,0.5523809523809524,0,1.160442600276625,0
net.nurik.roman.muzei,v2.1,@+id/notify_new_wallpaper_checkbox$settings_notify_new_wallpaper,1006,0.2909090909090909,1,4.0,0.625,0,0.16044260027662505,0
net.nurik.roman.muzei,v2.1,@+id/notify_new_wallpaper_checkbox$settings_notify_new_wallpaper,1005,0.16727272727272727,1,5.0,0.47333333333333333,0,1.160442600276625,0
net.nurik.roman.muzei,v2.1,@string/app_name$,1127,-0.08333333333333333,1,3.0,0.13333333333333333,0,-0.839557399723375,0
net.nurik.roman.muzei,v2.1,@string/app_name$,1109,0.7000000000000001,1,5.0,0.75,0,1.160442600276625,0
net.nurik.roman.muzei,v2.1,@string/app_name$,1070,0.42345824314574315,12,3.8333333333333335,0.5587698412698413,1,-0.006224066390041472,0
net.nurik.roman.muzei,v2.1,@string/app_name$,1067,0.15052272727272728,10,3.2,0.6122554112554113,0,-0.6395573997233748,0
net.nurik.roman.muzei,v2.1,@string/app_name$,1110,0.46476190476190476,1,3.0,0.6428571428571429,0,-0.839557399723375,0
net.nurik.roman.muzei,v2.1,@string/app_name$,1073,0.4358806818181818,4,4.5,0.5661111111111111,0,0.660442600276625,0
net.nurik.roman.muzei,v2.1,@string/app_name$,1123,0.2834722222222222,3,3.3333333333333335,0.48037037037037034,1,-0.5062240663900415,0
net.nurik.roman.muzei,v2.1,@string/app_name$,1095,0.06624999999999999,2,2.5,0.3226041666666667,0,-1.339557399723375,0
net.nurik.roman.muzei,v2.1,@string/app_name$,1111,0.63125,1,4.0,0.8,0,0.16044260027662505,0
net.nurik.roman.muzei,v2.1,@string/app_name$,1128,0.23041666666666666,4,3.0,0.7091666666666666,0,-0.839557399723375,0
net.nurik.roman.muzei,v2.1,@string/app_name$,1149,1.0,1,5.0,0.75,0,1.160442600276625,0
net.nurik.roman.muzei,v2.1,@string/app_name$,1088,0.3729166666666666,3,3.0,0.4333333333333333,0,-0.839557399723375,0
net.nurik.roman.muzei,v2.1,@string/app_name$,1076,0.33011956297670586,7,4.0,0.5885693671407957,0,0.16044260027662505,0
net.nurik.roman.muzei,v2.1,@string/app_name$,1103,0.5142857142857142,1,4.0,0.8357142857142856,0,0.16044260027662505,0
net.nurik.roman.muzei,v2.1,@string/app_name$,1068,0.4944444444444444,3,3.3333333333333335,0.3499999999999999,0,-0.5062240663900415,0
net.nurik.roman.muzei,v2.1,@string/app_name$,1118,0.2,1,4.0,0.55,0,0.16044260027662505,0
net.nurik.roman.muzei,v2.1,@string/app_name$,1130,0.06666666666666665,1,1.0,0.6,0,-2.839557399723375,0
net.nurik.roman.muzei,v2.1,@string/app_name$,1097,0.65,1,5.0,0.55,0,1.160442600276625,0
net.nurik.roman.muzei,v2.1,@string/app_name$,1121,0.2333333333333333,1,5.0,0.5666666666666668,0,1.160442600276625,0
net.nurik.roman.muzei,v2.1,@string/app_name$,1147,0.10874999999999999,2,1.0,0.36874999999999997,1,-2.839557399723375,0
net.nurik.roman.muzei,v2.1,@string/app_name$,1074,0.16681337181337183,3,3.3333333333333335,0.46564333814333825,0,-0.5062240663900415,0
net.nurik.roman.muzei,v2.1,@string/app_name$,1126,0.8333333333333334,1,5.0,0.7833333333333333,0,1.160442600276625,0
net.nurik.roman.muzei,v2.1,@string/app_name$,1092,0.41,1,5.0,0.5,0,1.160442600276625,0
net.nurik.roman.muzei,v2.1,@string/app_name$,1124,0.0,1,1.0,0.5,0,-2.839557399723375,0
net.nurik.roman.muzei,v2.1,@string/app_name$,1072,0.1904761904761905,1,3.0,0.35714285714285715,0,-0.839557399723375,0
net.nurik.roman.muzei,v2.1,@string/app_name$,1096,0.7,1,4.0,0.6000000000000001,0,0.16044260027662505,0
net.nurik.roman.muzei,v2.1,@string/app_name$,1089,0.07142857142857142,1,4.0,0.5857142857142856,0,0.16044260027662505,0
net.nurik.roman.muzei,v2.1,@string/app_name$,1150,0.5,1,5.0,0.5,0,1.160442600276625,0
net.nurik.roman.muzei,v2.1,@string/app_name$,1122,0.4125,1,5.0,0.51,0,1.160442600276625,0
net.nurik.roman.muzei,v2.1,@string/app_name$,1146,0.12,1,2.0,0.19333333333333333,0,-1.839557399723375,0
net.nurik.roman.muzei,v2.1,@string/app_name$,1079,0.6079861111111111,3,5.0,0.6333333333333334,0,1.160442600276625,0
net.nurik.roman.muzei,v2.1,@string/app_name$,1082,0.1,1,3.0,0.5,0,-0.839557399723375,0
net.nurik.roman.muzei,v2.1,@string/app_name$,1083,0.24545454545454548,1,5.0,0.5705627705627706,0,1.160442600276625,0
net.nurik.roman.muzei,v2.1,@string/app_name$,1081,0.8,1,5.0,0.75,0,1.160442600276625,0
net.nurik.roman.muzei,v2.1,@string/app_name$,1120,0.08083333333333334,2,5.0,0.7058333333333333,0,1.160442600276625,0
net.nurik.roman.muzei,v2.1,@+id/activate_muzei_button$action_activate,1164,-0.07500000000000001,2,2.0,0.55,0,-1.839557399723375,0
net.nurik.roman.muzei,v2.1,@+id/activate_muzei_button$action_activate,1166,0.3513392857142857,2,4.0,0.6928571428571428,0,0.16044260027662505,0
net.nurik.roman.muzei,v2.1,@+id/activate_muzei_button$action_activate,1157,0.3361111111111111,3,4.333333333333333,0.6102777777777778,0,0.4937759336099581,0
net.nurik.roman.muzei,v2.1,@+id/activate_muzei_button$action_activate,1158,0.25,2,3.5,0.775,0,-0.33955739972337495,0
net.nurik.roman.muzei,v2.1,@+id/activate_muzei_button$action_activate,1162,0.17777777777777778,1,2.0,0.5222222222222223,0,-1.839557399723375,0
net.nurik.roman.muzei,v2.1,@+id/activate_muzei_button$action_activate,1165,0.4375,1,3.0,0.73,0,-0.839557399723375,0
net.nurik.roman.muzei,v2.1,@+id/activate_muzei_button$action_activate,1171,0.1733333333333333,1,3.0,0.41654761904761906,0,-0.839557399723375,0
net.nurik.roman.muzei,v2.1,@+id/image_loading_indicator$,1187,-0.08333333333333333,1,3.0,0.13333333333333333,0,-0.839557399723375,0
net.nurik.roman.muzei,v2.1,@+id/image_loading_indicator$,1179,0.3625,1,5.0,0.7208333333333333,0,1.160442600276625,0
net.nurik.roman.muzei,v2.1,@+id/image_loading_indicator$,1186,0.2,1,4.0,0.55,0,0.16044260027662505,0
net.nurik.roman.muzei,v2.1,@+id/image_loading_indicator$,1173,0.28501984126984126,3,4.0,0.45515873015873015,0,0.16044260027662505,0
net.nurik.roman.muzei,v2.1,@+id/image_loading_indicator$,1181,0.2857142857142857,2,3.5,0.5428571428571428,0,-0.33955739972337495,0
net.nurik.roman.muzei,v2.1,@+id/image_loading_indicator$,1178,0.3714285714285714,1,4.0,0.4339285714285714,0,0.16044260027662505,0
net.nurik.roman.muzei,v2.1,@+id/image_loading_indicator$,1185,0.4375,1,3.0,0.73,0,-0.839557399723375,0
net.nurik.roman.muzei,v2.1,@+id/image_loading_indicator$,1184,0.025079365079365083,1,4.0,0.5202380952380952,0,0.16044260027662505,0
net.nurik.roman.muzei,v2.1,@+id/image_loading_indicator$,1175,0.158015873015873,1,4.0,0.3624603174603175,0,0.16044260027662505,0
net.nurik.roman.muzei,v2.1,@+id/app_bar$,1271,0.08333333333333334,2,4.0,0.5041666666666667,0,0.16044260027662505,0
net.nurik.roman.muzei,v2.1,@+id/app_bar$,1188,0.5536174242424243,19,4.105263157894737,0.6579824561403509,0,0.2657057581713622,0
net.nurik.roman.muzei,v2.1,@+id/app_bar$,1190,0.17232473544973545,12,2.9166666666666665,0.5365145502645503,1,-0.9228907330567084,0
net.nurik.roman.muzei,v2.1,@+id/app_bar$,1216,0.3011111111111111,7,3.5714285714285716,0.46468820861678006,0,-0.26812882829480333,0
net.nurik.roman.muzei,v2.1,@+id/app_bar$,1191,0.03375,1,2.0,0.43,1,-1.839557399723375,0
net.nurik.roman.muzei,v2.1,@+id/app_bar$,1205,0.25333333333333335,1,2.0,0.29833333333333334,0,-1.839557399723375,0
net.nurik.roman.muzei,v2.1,@+id/app_bar$,1203,0.31805555555555554,2,5.0,0.46944444444444444,0,1.160442600276625,0
net.nurik.roman.muzei,v2.1,@+id/app_bar$,1254,0.31666666666666665,1,5.0,0.5111111111111111,0,1.160442600276625,0
net.nurik.roman.muzei,v2.1,@+id/app_bar$,1197,0.3833333333333333,1,5.0,0.44999999999999996,0,1.160442600276625,0
net.nurik.roman.muzei,v2.1,@+id/app_bar$,1242,0.3438888888888889,6,3.6666666666666665,0.4798032407407407,0,-0.17289073305670843,0
net.nurik.roman.muzei,v2.1,@+id/app_bar$,1226,0.5142857142857142,1,4.0,0.8357142857142856,0,0.16044260027662505,0
net.nurik.roman.muzei,v2.1,@+id/app_bar$,1221,0.2,1,4.0,0.55,0,0.16044260027662505,0
net.nurik.roman.muzei,v2.1,@+id/app_bar$,1196,0.65,1,5.0,0.55,0,1.160442600276625,0
net.nurik.roman.muzei,v2.1,@+id/app_bar$,1215,0.2333333333333333,1,5.0,0.5666666666666668,0,1.160442600276625,0
net.nurik.roman.muzei,v2.1,@+id/app_bar$,1245,0.5090909090909091,1,5.0,0.6011363636363637,0,1.160442600276625,0
net.nurik.roman.muzei,v2.1,@+id/app_bar$,1192,0.1642077922077922,5,3.2,0.5404523809523808,1,-0.6395573997233748,0
net.nurik.roman.muzei,v2.1,@+id/app_bar$,1241,0.38409090909090915,1,5.0,0.47613636363636364,0,1.160442600276625,0
net.nurik.roman.muzei,v2.1,@+id/app_bar$,1249,0.0,1,1.0,0.5,0,-2.839557399723375,0
net.nurik.roman.muzei,v2.1,@+id/app_bar$,1199,0.2183982683982684,3,3.3333333333333335,0.49470057720057725,0,-0.5062240663900415,0
net.nurik.roman.muzei,v2.1,@+id/app_bar$,1222,0.7,1,4.0,0.6000000000000001,0,0.16044260027662505,0
net.nurik.roman.muzei,v2.1,@+id/app_bar$,1198,0.4166666666666667,2,3.0,0.3666666666666667,0,-0.839557399723375,0
net.nurik.roman.muzei,v2.1,@+id/app_bar$,1214,0.10714285714285715,1,2.0,0.5035714285714286,0,-1.839557399723375,0
net.nurik.roman.muzei,v2.1,@+id/app_bar$,1228,0.7,1,4.0,0.6000000000000001,0,0.16044260027662505,0
net.nurik.roman.muzei,v2.1,@+id/app_bar$,1237,0.1121212121212121,2,2.5,0.7958333333333334,0,-1.339557399723375,0
net.nurik.roman.muzei,v2.1,@+id/app_bar$,1207,0.1,1,3.0,0.5,0,-0.839557399723375,0
net.nurik.roman.muzei,v2.1,@+id/app_bar$,1229,0.24545454545454548,1,5.0,0.5705627705627706,0,1.160442600276625,0
net.nurik.roman.muzei,v2.1,@+id/app_bar$,1213,-0.05,1,3.0,0.2,0,-0.839557399723375,0
net.nurik.roman.muzei,v2.1,@+id/app_bar$,1248,0.3833333333333333,1,4.0,0.5291666666666667,0,0.16044260027662505,0
net.nurik.roman.muzei,v2.1,@+id/app_bar$,1266,0.2333333333333333,1,3.0,0.6,0,-0.839557399723375,0
net.nurik.roman.muzei,v2.1,@+id/app_bar$,1256,0.8250000000000001,1,5.0,0.95,0,1.160442600276625,0
net.nurik.roman.muzei,v2.1,@+id/app_bar$,1220,-0.08833333333333333,1,5.0,0.5366666666666667,0,1.160442600276625,0
net.nurik.roman.muzei,v2.1,@+id/app_version$,1304,0.1767857142857143,4,3.25,0.45158730158730154,0,-0.589557399723375,0
net.nurik.roman.muzei,v2.1,@+id/app_version$,1299,0.48333333333333334,4,4.75,0.5375,0,0.910442600276625,0
net.nurik.roman.muzei,v2.1,@+id/app_version$,1317,0.2806944444444444,4,3.5,0.4620833333333333,1,-0.33955739972337495,0
net.nurik.roman.muzei,v2.1,@+id/app_version$,1277,0.3999257643398269,16,4.0625,0.5842277123917748,0,0.22294260027662505,0
net.nurik.roman.muzei,v2.1,@+id/app_version$,1311,0.46476190476190476,1,3.0,0.6428571428571429,0,-0.839557399723375,0
net.nurik.roman.muzei,v2.1,@+id/app_version$,1307,0.20555555555555557,1,3.0,0.4222222222222222,0,-0.839557399723375,0
net.nurik.roman.muzei,v2.1,@+id/app_version$,1300,0.17791666666666664,3,2.0,0.4766666666666666,1,-1.839557399723375,0
net.nurik.roman.muzei,v2.1,@+id/app_version$,1280,0.24939393939393942,2,3.5,0.43444805194805197,0,-0.33955739972337495,0
net.nurik.roman.muzei,v2.1,@+id/app_version$,1284,0.7283333333333332,3,4.333333333333333,0.735,0,0.4937759336099581,0
net.nurik.roman.muzei,v2.1,@+id/app_version$,1303,0.30250000000000005,5,3.6,0.6251666666666666,0,-0.23955739972337486,0
net.nurik.roman.muzei,v2.1,@+id/app_version$,1290,0.25,1,4.0,0.4,0,0.16044260027662505,0
net.nurik.roman.muzei,v2.1,@+id/app_version$,1282,0.4633928571428571,2,4.5,0.6728571428571428,0,0.660442600276625,0
net.nurik.roman.muzei,v2.1,@+id/app_version$,1308,0.2,1,4.0,0.55,0,0.16044260027662505,0
net.nurik.roman.muzei,v2.1,@+id/app_version$,1333,0.47500000000000003,1,5.0,0.5625,0,1.160442600276625,0
net.nurik.roman.muzei,v2.1,@+id/app_version$,1320,0.02242424242424242,3,2.3333333333333335,0.5022222222222222,0,-1.5062240663900415,0
net.nurik.roman.muzei,v2.1,@+id/app_version$,1281,0.4823998917748918,4,3.0,0.4261904761904762,0,-0.839557399723375,0
net.nurik.roman.muzei,v2.1,@+id/app_version$,1338,0.46236672278338947,9,4.444444444444445,0.5246119929453262,0,0.6048870447210697,0
net.nurik.roman.muzei,v2.1,@+id/app_version$,1348,0.2333333333333333,1,5.0,0.5666666666666668,0,1.160442600276625,0
net.nurik.roman.muzei,v2.1,@+id/app_version$,1289,-0.16666666666666666,1,1.0,0.36666666666666664,0,-2.839557399723375,0
net.nurik.roman.muzei,v2.1,@+id/app_version$,1278,0.012689393939393955,4,3.0,0.6219507575757576,0,-0.839557399723375,0
net.nurik.roman.muzei,v2.1,@+id/app_version$,1326,0.3,1,3.0,1.0,0,-0.839557399723375,0
net.nurik.roman.muzei,v2.1,@+id/app_version$,1312,0.20458513708513712,2,4.5,0.4981872294372294,0,0.660442600276625,0
net.nurik.roman.muzei,v2.1,@+id/app_version$,1287,0.7,1,4.0,0.6000000000000001,0,0.16044260027662505,0
net.nurik.roman.muzei,v2.1,@+id/app_version$,1332,-0.0666666666666667,1,1.0,0.9666666666666667,0,-2.839557399723375,0
net.nurik.roman.muzei,v2.1,@+id/app_version$,1334,0.21666666666666667,2,3.5,0.44999999999999996,0,-0.33955739972337495,0
net.nurik.roman.muzei,v2.1,@+id/app_version$,1297,0.45625000000000004,2,3.0,0.66875,1,-0.839557399723375,0
net.nurik.roman.muzei,v2.1,@+id/app_version$,1315,0.2333333333333333,1,3.0,0.6,0,-0.839557399723375,0
net.nurik.roman.muzei,v2.1,@+id/add_photos_button$,1368,0.06944444444444445,2,2.0,0.6944444444444444,0,-1.839557399723375,0
net.nurik.roman.muzei,v2.1,@+id/add_photos_button$,1387,0.2,1,5.0,0.3,0,1.160442600276625,0
net.nurik.roman.muzei,v2.1,@+id/add_photos_button$,1385,0.41875,1,4.0,0.6999999999999998,0,0.16044260027662505,0
net.nurik.roman.muzei,v2.1,@+id/add_photos_button$,1369,0.25,1,4.0,0.4,0,0.16044260027662505,0
net.nurik.roman.muzei,v2.1,@+id/add_photos_button$,1367,0.5,1,5.0,0.5,0,1.160442600276625,0
net.nurik.roman.muzei,v2.1,@+id/add_photos_button$,1376,0.4895833333333333,1,5.0,0.7333333333333334,0,1.160442600276625,0
net.nurik.roman.muzei,v2.1,@+id/add_photos_button$,1377,0.38409090909090915,1,5.0,0.47613636363636364,0,1.160442600276625,0
net.nurik.roman.muzei,v2.1,@+id/add_photos_button$,1383,0.1904761904761905,1,3.0,0.35714285714285715,0,-0.839557399723375,0
net.nurik.roman.muzei,v2.1,@+id/add_photos_button$,1380,0.48742424242424237,3,4.333333333333333,0.44,0,0.4937759336099581,0
net.nurik.roman.muzei,v2.1,@+id/add_photos_button$,1375,0.4375,1,3.0,0.73,0,-0.839557399723375,0
net.nurik.roman.muzei,v2.1,@+id/background$,1391,0.016875,2,1.5,0.46499999999999997,1,-2.339557399723375,0
net.nurik.roman.muzei,v2.1,@+id/background$,1393,0.21833333333333335,2,3.5,0.5325,0,-0.33955739972337495,0
net.nurik.roman.muzei,v2.1,@+id/background$,1398,0.553125,2,4.5,0.68125,0,0.660442600276625,0
net.nurik.roman.muzei,v2.1,@+id/background$,1400,0.3700081168831169,2,4.5,0.6232142857142857,0,0.660442600276625,0
net.nurik.roman.muzei,v2.1,@+id/background$,1388,0.5,1,5.0,0.5,0,1.160442600276625,0
net.nurik.roman.muzei,v2.1,@+id/background$,1395,-0.16666666666666666,1,1.0,0.36666666666666664,0,-2.839557399723375,0
net.nurik.roman.muzei,v2.1,@+id/background$,1390,0.4558333333333333,2,5.0,0.5308333333333334,0,1.160442600276625,0
net.nurik.roman.muzei,v2.1,@+id/title$,1402,0.63125,1,4.0,0.8,0,0.16044260027662505,0
net.nurik.roman.muzei,v2.1,@+id/grey_amount_label$settings_grey_amount_title,1410,0.26294146825396825,4,3.5,0.5156150793650794,0,-0.33955739972337495,0
net.nurik.roman.muzei,v2.1,@+id/grey_amount_label$settings_grey_amount_title,1407,-0.05,1,3.0,0.2,0,-0.839557399723375,0
net.nurik.roman.muzei,v2.1,@+id/overflow_button$,1411,0.41875,1,4.0,0.6999999999999998,0,0.16044260027662505,0
net.nurik.roman.muzei,v2.1,@+id/overflow_button$,1414,0.7,1,4.0,0.6000000000000001,0,0.16044260027662505,0
net.nurik.roman.muzei,v2.1,@+id/next_button$,1417,0.41875,1,4.0,0.6999999999999998,0,0.16044260027662505,0
net.nurik.roman.muzei,v2.1,@+id/next_button$,1418,0.7,1,4.0,0.6000000000000001,0,0.16044260027662505,0
net.nurik.roman.muzei,v2.1,@+id/photo_grid$,1423,0.25,1,4.0,0.4,0,0.16044260027662505,0
net.nurik.roman.muzei,v2.1,@+id/photo_grid$,1428,0.1904761904761905,1,3.0,0.35714285714285715,0,-0.839557399723375,0
net.nurik.roman.muzei,v2.1,@+id/grey_amount$,1431,0.13125,2,3.0,0.45,0,-0.839557399723375,0
net.nurik.roman.muzei,v2.1,@+id/grey_amount$,1430,-0.05,1,3.0,0.2,0,-0.839557399723375,0
net.nurik.roman.muzei,v2.1,@+id/grey_amount$,1433,0.158015873015873,1,4.0,0.3624603174603175,0,0.16044260027662505,0
net.nurik.roman.muzei,v2.1,@+id/section_spinner$,1434,0.4895833333333333,1,5.0,0.7333333333333334,0,1.160442600276625,0
net.nurik.roman.muzei,v2.1,@+id/selection_toolbar$,1439,0.5622727272727273,1,5.0,0.5199999999999999,0,1.160442600276625,0
net.nurik.roman.muzei,v2.1,@+id/error_easter_egg$error_easter_egg,1444,0.25,1,3.0,0.675,0,-0.839557399723375,0
net.nurik.roman.muzei,v2.1,@+id/loading_indicator$,1449,0.5,1,3.0,0.5,0,-0.839557399723375,0
