# deletions,date,commit message
3,2015/8/17,Better video player theme and added media controller to embedded video
7,2015/8/17,Fix inconsistent background colors
10,2015/8/17,Fix for #73.  Now the locations load correctly
11,2015/8/06,try itertor method for keys but its not working
4,2015/7/30,Working full screen video activity
22,2015/7/29,Add 24 hour time support for all of the models
5,2015/7/29,Fix tide date formatting to follow system settings
14,2015/7/28,Add static method for getting buoy direction
2,2015/7/25,Bump version for future improvements
47,2015/7/25,Refactor all fo the data model classes to match go and ios versions
149,2015/7/25,New camrea model and camer type  Refactor support into current fragment isocamerafragmen and alternatecamerafragment. Pulls everything to be pretty much consistent feature wise with ios
46,2015/7/24,Refactor tide models and add new tide methods
65,2015/7/16,Working video view with point judith camera support  Bump to version 3.5 Refactor some xml variables Add loading image to other camera views
7,2015/7/16,Added video view and play button to iso camera view
