# deletions,date,commit message
22,2015/3/20,Refactore some models.. set up url hashmap
7,2015/3/20,Added shared prefs callback for forecast location
13,2015/3/20,Working settings view. Changes do do anything yet though
13,2015/3/20,Working click callbacks for about section in settings
58,2015/3/18,Refactor color names
50,2015/3/18,Refactored to user a preference fragment
58,2015/3/18,Clean out preference activity
268,2015/3/18,Better theme for the settings activity
90,2015/3/18,First commit of blank settings activity
7,2015/3/17,Add new action_settings icons
105,2015/3/17,Update README.md
1,2015/2/27,Change sliding tab strip url
3,2015/2/26,Update build version number
59,2015/2/26,Working videoview stability
1,2015/2/26,Working video completion listeners
72,2015/2/26,Removed media controller from stream. Added logn press to launch full screen intent
