# deletions,date,commit message
4,2015/9/04,Fix forecast and buoy indexes for the toolbar spinner when swithcing tabs
1,2015/9/04,Workign spectral density buoy plot
231,2015/9/04,Refactor forecast model to follow buoymodel format  Refactor class member names to be lower camel case
44,2015/9/04,New action bar icons  Add some error handling to buoyModel Change tide fetch to only grab the water temp number and save it Change fragments to handle their own option menus Add new additional plots activity and launch it with buoy fragment menu
83,2015/9/03,Workign buoy data mode switching with the segments
102,2015/9/03,Working buoy and forecast preference change callbacks
9,2015/9/02,Figure out how to refresh locations with the toolbar spinner.
16,2015/9/02,Clean up and theme spinner a little
135,2015/9/01,Add spinnner to main activity toolbar with custom adapter  refcator non colored backgrounds to be cardview_light colored
0,2015/8/24,Stop tracking apk file
95,2015/8/24,Add new buoydatacontainer and refactored the buoy model methods a little for modularity  Add the nantucket buoy observations `
