# deletions,date,commit message
10,2015/7/13,Add erorr and loading image holders for isoCameraView  Way better loading stability with new context checks and such
2,2015/7/08,Refactor auto refresh togle
2,2015/7/08,Handle point judith static image not ready for video yet
17,2015/6/23,Update forecast checking logic a little
3,2015/5/29,Fix bug in forecast model when grabbing conditions
2,2015/5/29,Update to 3.2
5,2015/5/29,Fix alternate camera loading by using bitmaps  Also fixed the refresh duration label
