unnecessary lint flag,o,2014/3/27,,
bump for next,b,2014/3/27,,
update,b,2014/3/27,,
better action bar color,f,2014/3/27,,
,o,2014/3/27,,
rename variable,b,2014/3/27,,
still missing a bunch of product id for device,b,2014/3/27,,
bump for next version,b,2014/3/25,,
use custom action bar to embed tab strip into the,b,2014/3/25,,
load by size of view,b,2014/3/25,,
fix weight bug,b,2014/3/25,,
tab strip,b,2014/3/25,,
controller,b,2014/3/25,,
seems to be troubling android studio,o,2014/3/25,,
lint,o,2014/3/25,,
bump version for next iteration,b,2014/3/24,,
drop from beta build,f,2014/3/24,,
bump version for next iteration,b,2014/3/24,,
make version number instead of image,b,2014/3/24,,
,o,2014/3/24,,
close 78,b,2014/3/24,,
bump tool version in,b,2014/3/24,,
inject extra into service and shuffle constant,b,2014/3/24,,
lipstick fix,b,2014/3/24,,
explicitly mark string resource not translatable,b,2014/3/24,,
close 75,b,2014/3/24,,
close 81,b,2014/3/24,,
use,o,2014/3/24,,
close 35,b,2014/3/24,,
update dependency,b,2014/3/24,,
better from,o,2014/3/23,,
close 79,b,2014/3/23,,
update to latest version of,b,2014/3/23,,
fix,b,2014/3/24,,
add glare,f,2014/3/23,,
typo,o,2014/3/23,,
,o,2014/3/18,,
v 2003,o,2014/3/18,,
bump,b,2014/2/27,,
unused,o,2014/2/27,,
update dependency,b,2014/2/27,,
release 201,f,2014/2/27,,
update deploy script,b,2014/2/24,,
update,b,2014/2/24,,
better status bar notification icon,b,2014/2/24,,
limit to debug build,b,2014/1/21,,
update support library version,b,2014/1/21,,
update apt,b,2014/1/20,,
move to,b,2014/1/16,,
number for more dependency,o,2014/1/16,,
prepare for next iteration,b,2014/1/16,,
update version number,b,2014/1/16,,
update copyright,b,2014/1/16,,
lint fix,b,2014/1/16,,
more logging remove some legacy reference,b,2014/1/16,,
rename to,o,2014/1/16,,
add dart,f,2014/1/16,,
stuff,o,2014/1/16,,
drop static factory,f,2014/1/16,,
update support version,b,2014/1/16,,
