and a few more handset ha a large user,b,2015-05-02,Captain Deadoool,4
no nexus 9,o,2015-03-23,吕凯垣,3
i love this it save a lot of my time,o,2015-03-07,Basit Saeed,4
lack of new device like nexus 6 and,b,2015-03-07,Basit Saeed,4
please add them,f,2015-03-07,Basit Saeed,4
thank you,o,2015-03-07,Basit Saeed,4
add 1 asap,f,2015-03-03,Andre Ankobil,3
at first this looked like it wa exactly what i needed,o,2015-03-01,McKaz Gaming,3
and it is,o,2015-03-01,McKaz Gaming,3
my note 3 and nexus 7 2013 are not supported,b,2015-02-24,John Rischmiller,2
i agree with other comment about old phone and one,b,2015-02-24,John Rischmiller,2
but guy add note 2,b,2015-02-23,Big Boss Tech,5
handy tool,o,2015-02-19,Walter Sasam,5
add some more,f,2015-02-10,Harshith K R Upadhyay,3
like,o,2015-02-10,Harshith K R Upadhyay,3
old model,b,2015-02-08,Ai Frec,1
need more device though,b,2015-01-17,Mantas Adom,5
please add both will be awesome,f,2014-12-31,Ajay Chauhan,1
this is an excellent but the nexus 6 need to be added,o,2014-12-29,Jay Hiza,4
add more phone please,b,2014-12-23,Joseph Zhong,3
totally outdated,o,2014-12-23,Steve LeMoine,2
please add more device mine one,f,2014-12-21,sai mohan krishna gogineni,1
need to be updated on phone,b,2014-12-21,Mando Garcia,1
the work perfectly well and i have yet to com across any bug,b,2014-12-05,Arnold Pierce,4
it doe what it say and it doe it well with certain and option for a shadow and glare,f,2014-12-05,Arnold Pierce,4
apart from it is a good,b,2014-12-05,Arnold Pierce,4
will give you 5 star you add my nexus 9 to the device,b,2014-12-05,Sherief Abd Elrahman,3
awesome,o,2014-12-04,mike lewis,5
simplicity itself,b,2014-12-04,mike lewis,5
thank you very much for easing the load,b,2014-12-04,mike lewis,5
all the best,o,2014-12-04,mike lewis,5
more popular device support would make this 5 star,b,2014-12-04,Paul Harren,4
g,o,2014-12-01,Jacob Kumar,3
i would happily pay an additional 199 for additional phone support such a the and x,b,2014-11-27,Art Gill,3
edit and still no lg device support,b,2014-11-27,Art Gill,3
pretty sad,o,2014-11-27,Art Gill,3
better some other on play store if you add more device and keep up the amazing work it would be awesome,o,2014-11-23,Chirag Mansukhani,5
would give a 5 you add g frame in it,f,2014-11-22,Dhruv Paul,3
doe what it say on the tin,o,2014-11-11,Andrew Fulcher,5
add more device such a z and other model,f,2014-11-10,Izzat Aizat,2
no note 3,b,2014-11-09,Russell Jennings,2
work well,o,2014-11-06,Allo Ning,5
it doe what it and it doe it well,o,2014-10-26,Hunter J,4
can u add more color like a nexus red please i give 10 star later,f,2014-10-26,Sebastian S.,4
saved me the trouble of using,b,2014-10-26,Trent Pierce,5
this is a must have for developer,b,2014-10-21,José Antonio Contreras Briseño,5
but missing one plus one,b,2014-10-19,S B,5
