simple and effective,o,2014-10-12,Mark Lawrence,4
great,o,2014-10-07,William Taylor,5
please provide the frame,f,2014-09-19,zombi zain,4
this is missing a lot of flagship device from manufacturer like,b,2014-09-09,Ruben Kan,4
easy to use thanks,o,2014-09-02,ryan rama,4
desire 700,o,2014-08-31,Dinesh Pareek,4
no x,b,2014-08-22,Nathan Jolly,1
probably abandoned,o,2014-08-22,Nathan Jolly,1
very nice how about add background color option phone and phone shadow on the base,f,2014-08-21,Suhariadi Mbahbho,5
one,o,2014-08-20,Jonah Aragon,4
thank developer,o,2014-08-17,VisX Support,5
i now own a one and hope you add support for the soon,f,2014-08-16,Eric Edmonson,5
add more current s,f,2014-08-15,Justin Kluck,3
anyway can you please add the note 3,b,2014-08-07,Brit,4
i mean the last update wa this year and the note 3 came out last year,b,2014-08-07,Brit,4
and i thought i had to learn,o,2014-08-06,Andy Arevalo,5
get the job done quick,o,2014-08-04,Yusuf Islam,4
good,o,2014-08-04,Yusuf Islam,4
to creative,o,2014-08-03,Teh4one,5
add g also,f,2014-08-02,joseph charles,3
it a cool,o,2014-08-02,joseph charles,3
,o,2014-07-28,Muhd Ariffin,5
it need the though,o,2014-07-18,Jason Cook,4
great thanks,o,2014-07-16,Gama Goat,5
add more device lg etc,b,2014-07-16,alice,3
doe exactly described,o,2014-07-15,Luke Rodriguez,4
add one template please,f,2014-07-15,Luke Rodriguez,4
please add the,f,2014-07-14,Brandon Giesel,5
thank you,o,2014-07-14,Brandon Giesel,5
nice,o,2014-07-07,jolly dhall,5
superb,o,2014-07-05,Kapil Jituri,5
add one this is the great to show your,f,2014-07-05,Fathur 98,4
work just hoping for the x to be added,b,2014-07-04,Trevor Runge,5
please add note 3 to the list,f,2014-06-28,Lukenn Sabellano,4
other that awesome work,o,2014-06-28,Lukenn Sabellano,4
please add one,f,2014-06-19,Darren Lattin,5
thank you,o,2014-06-19,Darren Lattin,5
loving the just wish it had one,f,2014-06-19,Irfan Mohammad,4
good,o,2014-06-17,Kev Allan,5
great and easy to use,o,2014-06-12,Richard Ladiana,5
it match my with a galaxy nexus,o,2014-06-07,Nick Cortes,3
i need white background,b,2014-06-07,Sidharth Satheesh,3
please add support 4 larger screen,f,2014-06-06,C. Caporuscio,4
one max,b,2014-06-06,C. Caporuscio,4
other that awesome,o,2014-06-06,C. Caporuscio,4
work well but is missing a lot of device,b,2014-06-04,Noah Anderson,3
solid application,o,2014-06-02,Rohail Shah,4
but need more device,b,2014-06-02,Rohail Shah,4
can you please add the,f,2014-06-02,Rohail Shah,4
some love for,o,2014-05-30,Philip Chico,5
how about note dude,b,2014-05-29,Reza Rivani,5
make the image crappy looking posting on g the doe a better job,o,2014-05-28,Mark Beckford,2
best way to share our,o,2014-05-27,Ee Win Ng,4
would be better we can edit the background behind the frame,b,2014-05-27,Ee Win Ng,4
it work awesome,o,2014-05-24,Glenn Urrea,5
great way to share,o,2014-05-24,Glenn Urrea,5
very nice super useful,o,2014-05-20,kelvin jorj,4
put my galaxy note 3 on the device list then 5 star would be very deserving,b,2014-05-20,kelvin jorj,4
this application is great,o,2014-05-05,Rezaul Karim Arif,3
great quality and love it show up in my share menu,o,2014-05-02,Nathan Elcoate,4
translucent status bar,f,2014-05-02,Faiz Malkani,3
really,o,2014-05-02,Faiz Malkani,3
need more device,b,2014-04-30,Sidharth Praveen,5
thank you for bringing it back,o,2014-04-28,Anthony Bellotti,5
the itself is good and add the new one from,f,2014-04-27,Gary LAI,4
keep the good work,o,2014-04-27,Gary LAI,4
please add one this is a great to show your,f,2014-04-26,jose valdovinos,4
excellent,o,2014-04-24,Jesus Tarre,5
keep up the good work,o,2014-04-24,Jesus Tarre,5
please add the one need asap,f,2014-04-24,Jesus Tarre,5
thanks,o,2014-04-24,Jesus Tarre,5
work well,o,2014-04-21,Alyssa Audrey,5
great idea and,b,2014-04-21,Bill K,5
new device have been out an update is kind of due,b,2014-04-21,Bill K,5
nexus 4,o,2014-04-21,Deep Kothari,4
great,o,2014-04-20,Bill Blandford,4
super handy to use share menu to frame a,o,2014-04-20,Bill Blandford,4
please update to add one,f,2014-04-11,Alpha Rakama,3
