like it but i press the home it just open,b,2015-07-22,Kafinn Ghiyas,4
can you make it not to,o,2015-07-22,Kafinn Ghiyas,4
awesome,o,2015-07-21,Ahren Oliver,5
should unlock if i swipe it,b,2015-07-21,Seth Parker,4
it need to lock the status bar and security option,b,2015-07-21,Chris Angel,5
can you put locker like pin or password or pattern or something to keep my phone secure,b,2015-07-21,Lutfi Ismail,5
i need it,o,2015-07-21,Lutfi Ismail,5
this thing is cool with all the design,o,2015-07-21,Lutfi Ismail,5
it ha simple design,b,2015-07-21,Lutfi Ismail,5
i love it much,o,2015-07-21,Lutfi Ismail,5
can you put locker into it,o,2015-07-21,Lutfi Ismail,5
thanks for your future update soon,b,2015-07-21,Lutfi Ismail,5
i appreciate it you made it,b,2015-07-21,Lutfi Ismail,5
display music album artwork half the time the other half it show regular,b,2015-07-20,Jorge Name Ríos,4
please fix for 5 star,b,2015-07-20,Jorge Name Ríos,4
the screen is on ac and i push the home button it exit out,b,2015-07-20,Matthew McFadyen,4
anyway this can be changed,b,2015-07-20,Matthew McFadyen,4
fantastic,o,2015-07-20,Nafyal Ibrat,4
make sure you want this on your phone once it on there you cannot get rid of it,b,2015-07-20,Bob Wilson,1
already on lollipop,f,2015-07-20,arvz villamor,1
please help me work it on my phone,b,2015-07-20,arvz villamor,1
i really want to use this,o,2015-07-20,arvz villamor,1
back icon are but no longer work,b,2015-07-20,Will Freeman,2
favorite by far,o,2015-07-19,Judith Talancón,5
it make your notification look really neat and organized,b,2015-07-19,Judith Talancón,5
amazing i definitely recommend this,o,2015-07-19,Judith Talancón,5
probably my favorite except with the latest update the music control no longer work like they should,b,2015-07-19,Michael C.,4
if you happen to leave a hangout or conversation any new message will be marked a read turn on your meaning that the notification will be and to the sender it will look like you have read their message,b,2015-07-19,Martin Hammarstedt,4
they will then wonder why you refuse to and you will eventually lose all your friend,b,2015-07-19,Martin Hammarstedt,4
the is not working with lg lollipop,b,2015-07-19,Noam Bergauz,2
i disabled the system enabled and nothing happens,b,2015-07-19,Noam Bergauz,2
this is a great replacement u are bored with your regular installed on your device,b,2015-07-19,aditya agarwal,5
it ha a lot of feature and your need,b,2015-07-19,aditya agarwal,5
i have loved it,o,2015-07-19,aditya agarwal,5
awesome best ever,o,2015-07-18,Yash Gupta,5
design look great,o,2015-07-18,Mohammed,4
but still finding my way to secure the,b,2015-07-18,Mohammed,4
i love this and it really add a nice touch to unlocking my phone and managing the many notification,b,2015-07-18,Cam D.,4
animation and look are cool,o,2015-07-18,Nilesh Kumar,5
even i push the power key to turn it off it come back on a second later,o,2015-07-18,uzo ufondu,4
please fix this,b,2015-07-18,uzo ufondu,4
can you make it work on android 422,f,2015-07-18,Dit Liwanag,2
i love it but having the notification such big time,b,2015-07-18,Dit Liwanag,2
but add a lock to otherwise it amazing,b,2015-07-17,Skyler Ness,4
the double tap to turn the screen doe not work,b,2015-07-17,Jacky Ngo,3
wa wondering if could be fixed and the notification wake up the screen,f,2015-07-17,Jacky Ngo,3
please fix,b,2015-07-17,Jacky Ngo,3
save my power button,f,2015-07-17,Matthew Cochran,5
there no active mode and the others,o,2015-07-17,Paoloharolds Lgspirit,1
doe what it say,o,2015-07-16,Girish Kulkarni,4
like it minimalist design,o,2015-07-16,Girish Kulkarni,4
i would have given it 5 star the home button is disabled,b,2015-07-16,Girish Kulkarni,4
sometimes music control are lost and notification doe not open swiping up,b,2015-07-16,Girish Kulkarni,4
i hope you could provide the security to the amazing,o,2015-07-16,Da Rs,5
please fix it,b,2015-07-16,Bigby Joe,1
i really want this,o,2015-07-16,Bigby Joe,1
i enjoyed and used this for 3 day it,b,2015-07-16,Deep Jyoti Ray,3
the reason being i get for which i have already seen them too before locking,o,2015-07-16,Deep Jyoti Ray,3
petty issue it is,b,2015-07-16,Deep Jyoti Ray,3
i hope you will fix it,b,2015-07-16,Deep Jyoti Ray,3
and why did you ask for integration,f,2015-07-16,Deep Jyoti Ray,3
wave to wake can use some improvement and sometimes my default pop up and i have to unlock one first and then unlock the one next,b,2015-07-16,Bjorge Meulemeester,4
overall work great though,b,2015-07-16,Bjorge Meulemeester,4
look good,o,2015-07-16,dhiren kanojia,4
doe what it is supposed to do in style,o,2015-07-16,Jayaraman Kiruthi Vasan,5
i donated a small amount and strongly recommend everyone to support these guy,o,2015-07-16,Jayaraman Kiruthi Vasan,5
honest effort to the core,f,2015-07-16,Jayaraman Kiruthi Vasan,5
i like thing in which i can change pretty cool but need a custom wallpaper in my review,o,2015-07-16,Abhilash Gupta,5
not working,o,2015-07-16,Antonio Freitas,1
just brilliant,o,2015-07-15,Sharan Srivatsa,4
flawless,o,2015-07-15,Sharan Srivatsa,4
make my nexus look exactly like the active display,b,2015-07-15,Sharan Srivatsa,4
drain a lot of battery,b,2015-07-15,Sharan Srivatsa,4
the music widget button always missing in the music is played,b,2015-07-15,Henry Cheok,3
1,o,2015-07-15,Rachit Parikh,4
i press my home button after switching on my it enters into the homepage bypassing the 2,b,2015-07-15,Rachit Parikh,4
would be perfect we could set a custom wallpaper,o,2015-07-15,Victor von Doom,5
the best ever,o,2015-07-15,Raj Lalwani,5
i have the turned but it just take me back to my original fix,b,2015-07-15,Andrew Hatcher,2
have lg,b,2015-07-15,Kevin Taylor,3
often have to unlock twice to get to the home screen,b,2015-07-15,Kevin Taylor,3
fix this and five star,b,2015-07-15,Kevin Taylor,3
cool,o,2015-07-14,Ravi Raghuvanshi,4
far so good,o,2015-07-13,Harjit Singh,5
the wave hand feature need to be more sensitive,f,2015-07-13,Jeff Lobel,3
barely work,b,2015-07-13,Jeff Lobel,3
switching from a phone with active this is a welcome addition to my new phone,b,2015-07-13,Samuel Rossi,4
but occasionally the display seems to turn on in my pocket and the sliding around seems to unlock which can be annoying,b,2015-07-13,Samuel Rossi,4
support new beta,b,2015-07-13,DJ Cross,2
updated to version the double tap to sleep is not functioning,b,2015-07-13,Christopher Robles,3
please allow an option to remove the clock from the,b,2015-07-12,Jason Witt,4
then this will be perfect,o,2015-07-12,Jason Witt,4
it could be safer it wa secured,f,2015-07-12,Pola Hany,5
and pattern,o,2015-07-12,Pola Hany,5
the update the full screen mode and double tap to sleep feature are not working,b,2015-07-12,Ajinkya Hendre,1
i hope they will fix this issue soon a possible,b,2015-07-12,Ajinkya Hendre,1
amazing man,o,2015-07-12,Dev Nath,5
the best replacement wa bored with default in note 3 way better n all,f,2015-07-12,Dev Nath,5
kudos,o,2015-07-12,Dev Nath,5
my new,o,2015-07-12,akshay handrale,5
stopped working update,b,2015-07-12,John Patrick Sevilla,1
would love you can chose a custom instead of just home screen or black and password,b,2015-07-11,Declan Cross,4
wish it had more feature,f,2015-07-11,Aditya Pukhrambam,4
just add pin and fix double tap home button it exit,b,2015-07-11,Johnassin,4
keep up the good work,o,2015-07-11,Ryan Kimmet,5
you are thinking about just get it,b,2015-07-11,Christian Costello,5
it is great but need support finger print i heated i should slide to unlock and press for finger print thanks,b,2015-07-11,Basim Al,5
i wa looking out for something familiar to it and i loved it work exactly like active notification work on all screen,o,2015-07-11,Varun Pilankar,5
awesome,o,2015-07-11,Varun Pilankar,5
it good and i like it but could you allow it to support a music widget,b,2015-07-11,Cyanide,4
quick glance is the feature i have been missing with this love i can read my new notification without ever touching the screen,b,2015-07-11,John Mogensen,5
this is great but not secure a i wished hopefully they add this feature,b,2015-07-11,Will B.,4
the first i download i flash a custom and root,b,2015-07-11,Phanikrishna Anumalla,5
at the very top of my must have,o,2015-07-11,Phanikrishna Anumalla,5
would be awesome this had multiple fade away effect,f,2015-07-10,Shrinath S,5
i love the look of this but there is no any privacy please do an update for the security i just love it but no privacy,f,2015-07-10,MarK HD,2
just like glance screen on,b,2015-07-09,John Bob,5
thanks for your hard work,o,2015-07-09,John Bob,5
work great on,o,2015-07-09,John Bob,5
work well and look great,o,2015-07-09,Dylan Sutton,4
wish it had support for finger scanner on and edge,f,2015-07-09,Dylan Sutton,4
i need one,o,2015-07-09,David Roux,4
active mode is off,o,2015-07-09,Rahul Gupta,3
now say i just wanna see the time,o,2015-07-09,Rahul Gupta,3
i press the power firstly screen never turn on by 1st press,b,2015-07-09,Rahul Gupta,3
this time screen turn on i see the time and double tap to turn the screen off,b,2015-07-09,Rahul Gupta,3
now weird thing screen automatically keep on getting on off even there is no notification,b,2015-07-09,Rahul Gupta,3
to put this i got to punch in the password so the phone is unlocked and then press power key to lock,b,2015-07-09,Rahul Gupta,3
any,o,2015-07-09,Rahul Gupta,3
one of the best,o,2015-07-09,Ganeshan M,4
but still expecting more,o,2015-07-09,Ganeshan M,4
the way better you can add password in,b,2015-07-08,RUNN RKNW,4
i hope,o,2015-07-08,RUNN RKNW,4
thanks for your hard work,o,2015-07-08,RUNN RKNW,4
this is my favorite lock screen but it would be better you could still have a patter to unlock to keep everything inside the phone private,b,2015-07-08,Angel Salinas,4
,o,2015-07-08,david fowler,5
issue with music,o,2015-07-08,sam sushanth,3
stop responding and crash occasionally,b,2015-07-08,sam sushanth,3
the lock screen look clean and simple,b,2015-07-08,tha psycho,4
but it most definitely need security option such pin pattern,o,2015-07-08,tha psycho,4
thanks for the nice,o,2015-07-08,tha psycho,4
first in the actual i long press the home it show the recent panel and the gone second there always a notification in my notification panel that the is on service,b,2015-07-08,Ariel de Guzman,3
please do something to fix it,b,2015-07-08,Ariel de Guzman,3
this is but can be even better,o,2015-07-07,Mitchel Wood,4
it ha much but already look and act great,b,2015-07-07,Mitchel Wood,4
is easy,o,2015-07-07,Mitchel Wood,4
duh,o,2015-07-07,Mitchel Wood,4
i have them turned on but it really hit or miss on the locker displaying them,b,2015-07-07,Joel Hullum,3
help please,b,2015-07-07,Joel Hullum,3
way better stock notification,o,2015-07-07,Heather G,4
i wish for 2 additional function 1,b,2015-07-07,Heather G,4
please allow for greater transparency device wallpaper is showing under the lock screen,b,2015-07-07,Heather G,4
2,b,2015-07-07,Heather G,4
please allow u to set the time the detail of the notification are shown the icon is clicked,b,2015-07-07,Heather G,4
sometimes it go dark i can finish reading the,b,2015-07-07,Heather G,4
thanks,o,2015-07-07,Heather G,4
work perfect on my note 4,o,2015-07-07,Sergio Andres Paz Chavez,5
minimalist,o,2015-07-07,,4
just missing a pattern or pin lock,b,2015-07-07,Bhavik Naik,4
best on the play store nova launcher,f,2015-07-06,Agasthon ADR,5
thanks guy for this,o,2015-07-05,Sabbir N Rahman,5
it clean and dynamic,o,2015-07-05,Sabbir N Rahman,5
really love it but i face 3 problem with it,o,2015-07-05,Sabbir N Rahman,5
1 messenger chat head also open in lock screen and can see without unlocking it,f,2015-07-05,Sabbir N Rahman,5
2,b,2015-07-05,Sabbir N Rahman,5
in notification panel service always open,b,2015-07-05,Sabbir N Rahman,5
it not there then it look great or you guy add some cool feature like android device running time or like this,f,2015-07-05,Sabbir N Rahman,5
then it there everybody love to have this,o,2015-07-05,Sabbir N Rahman,5
3,b,2015-07-05,Sabbir N Rahman,5
i am on active mode it work 2 or 4 time and then phone,b,2015-07-05,Sabbir N Rahman,5
i used to have a x and active display wa one of the feature i missed most,b,2015-07-05,Michael Chiles,5
otherwise great keep up the good work,o,2015-07-05,Stephen Thomas,3
i disable my own keep locking my even if is on,f,2015-07-05,Dave Feltham,3
great working on my,o,2015-07-05,Geeky NKS,5
yet feature rich,f,2015-07-05,,4
i prefer this over lock screen,b,2015-07-05,,4
i would live to see the pattern unlock feature in future build,f,2015-07-05,,4
i would give five star but i have the activated talk back mode is also on,b,2015-07-04,Robert Dixon,3
it narrates everything i do on my for,o,2015-07-04,Robert Dixon,3
i must have,o,2015-07-04,Nick Jackson,5
the best way to check all notification,b,2015-07-04,Nick Jackson,5
galaxy,o,2015-07-04,Nick Jackson,5
swipe to wake work in five time,b,2015-07-04,Umang Kedia,3
best among all locker,o,2015-07-04,Vasil Atanasov,5
this is the best looking but i find if i press my home it open the bug or supposed to be in the,b,2015-07-04,J A C E 10,5
good but it need better security option,o,2015-07-03,Jacob Hanna,3
currently there are no option for a pin code or a fingerprint and there is a large gap in security,o,2015-07-03,Jacob Hanna,3
simply press the home button on the lock screen and it will take you to the,b,2015-07-03,Jacob Hanna,3
i hope this will be fixed soon enough and further option for security will be implemented,b,2015-07-03,Jacob Hanna,3
it need the breathing like the x,b,2015-07-03,Pedro Lazdín,4
i love the and the fact i can use it like only add value to the but i miss the breathing notification and if i could add more widget it will be perfect,b,2015-07-03,Pedro Lazdín,4
improve those thing,b,2015-07-03,Pedro Lazdín,4
i got the x and this is almost better,b,2015-07-03,Pedro Lazdín,4
i love the and cause ice cream please add security control,f,2015-07-02,Nagate Tanikaze,5
no 5 hay error la,o,2015-07-02,Jaison Andrés González De la Torre,4
e m a la glance screen,b,2015-07-02,Jaison Andrés González De la Torre,4
this a customizable work great a replacement,b,2015-07-02,Travis Osburn,5
i love the style and reliability,o,2015-07-02,Travis Osburn,5
it doe not turn on say needed to manage the screen timeout policy,b,2015-07-02,Dead Runnerz,3
for example i dismiss a notification is still and sometimes it load the stock lock screen first and then ac display,b,2015-07-02,Cale'O'Clock,4
this is not letting me i deactivated,f,2015-07-01,michelle neeley,1
give it 4 star for will give it 5 star you add custom wallpaper separate from home screen option,f,2015-07-01,Ruben Ocasio,4
way i can add a different wallpaper from my gallery to instead the one from home screen,b,2015-07-01,Ruben Ocasio,4
nice but sometimes i cannot open the notification and can clear it,b,2015-07-01,Adli Afiq,4
fix,b,2015-07-01,Adli Afiq,4
active mood working perfectly,f,2015-07-01,Sadad Nibir,5
one,o,2015-06-30,Christina Nguyen,1
very awesome,o,2015-06-30,saad elkenawy,5
i simply love it,o,2015-06-30,Adrian Patratanu,5
i will recommend it to all of my friend,o,2015-06-30,Adrian Patratanu,5
need to lock the otherwise perfect,b,2015-06-30,Shirako Hachiko,4
use this if u want phone to look awesome it get notification,f,2015-06-30,Aviral Pandey,5
the notification are displayed very well,f,2015-06-30,Aviral Pandey,5
excellent,o,2015-06-30,Aviral Pandey,5
earlier i wa using the deprecated version,f,2015-06-30,Aviral Pandey,5
this is way better that,o,2015-06-30,Aviral Pandey,5
u wanna then go to security and this in notification access,f,2015-06-30,Aviral Pandey,5
amazing,o,2015-06-30,Rahul Makhija,5
it not responding why u do,b,2015-06-29,Amit Kr Koiri,2
remember to donate,o,2015-06-29,Andy Ramirez,5
love it,o,2015-06-29,,5
on the notification area,b,2015-06-29,Ari Mäkinen,1
would be great if you could fix the lock screen getting completely ignored you push the home button,b,2015-06-29,Marco Shakur,3
it the most beautiful lock screen in but i cant leave my phone without lock security,o,2015-06-28,Ramzy ar,4
i go back to original because i cant find lock screen awesome like i cant live without if the pin code can be bypassed but it safer kid cant open it they cant know how to bypass and many people rethink i do the security and i have to admit it the best lock screen and i love it so much,f,2015-06-28,Ramzy ar,4
all in all the is but there is a major bug in it u can bypass the easily by pressing home fix this asap for 5,b,2015-06-27,gaurav d95,2
fake,b,2015-06-27,Nilesh Kumar,1
loved this last update but now it barely work anymore,b,2015-06-27,Joe Canning,5
lollipop 501,f,2015-06-27,Joe Canning,5
some battery drain here and but overall awesome,b,2015-06-27,Nnenna,4
thank god for this,o,2015-06-27,Paul Hale,5
ever lollipop the ha bothered me,f,2015-06-27,Paul Hale,5
this is exactly how it should be,o,2015-06-27,Paul Hale,5
love this and have used consistently i got,o,2015-06-27,Justin DiOrio,5
you were fast to get music on lock screen,b,2015-06-27,Justin DiOrio,5
u earned fifth star,f,2015-06-27,Justin DiOrio,5
work great,o,2015-06-27,Justin DiOrio,5
thanks,o,2015-06-27,Justin DiOrio,5
lg,b,2015-06-27,Mark Faine,1
like,o,2015-06-27,waz kuruni,5
this is an amazing with a very responsive developer,b,2015-06-27,Mitchell Busschers,5
keep up the good work mate,o,2015-06-27,Mitchell Busschers,5
very nice,o,2015-06-27,Awezome Gian,5
please add lock pattern in next update,b,2015-06-27,Awezome Gian,5
my notification,b,2015-06-27,Sarjerao Dongale,5
dear developer please make this full work for security too pin,b,2015-06-26,Ryansyah Rizky,4
tested on thanks in advance,o,2015-06-26,Ryansyah Rizky,4
it irritated me to the point of,o,2015-06-26,Tajanator,3
just found out about this and all i can say is it work perfectly and i absolutely love it,o,2015-06-26,Kamots 2014,5
well done,o,2015-06-26,Kamots 2014,5
this is one of those i would gladly pay money for,b,2015-06-26,Kamots 2014,5
the fact it is free is unbelievable,f,2015-06-26,Kamots 2014,5
incredibly helpful for version,o,2015-06-26,Jan Šmucr,3
but upgrading to android 51 it somehow stopped being very useful,b,2015-06-26,Jan Šmucr,3
i always need to swipe over the then swipe over the default and then draw the unlocking pattern,b,2015-06-26,Jan Šmucr,3
not comfortable,f,2015-06-26,Jan Šmucr,3
very decent problem is added a custom clock widget it is freeze at time,b,2015-06-25,Thilina Gardiarachchi,4
i tried several clock widget but result wa same,b,2015-06-25,Thilina Gardiarachchi,4
but recently keep crashing playing video on the background,b,2015-06-25,Tamfor Dulin,3
you lock the screen and try to unlock in 1 second the work you have yo wait a little and in lollipop on my galaxy i cant use just the notification service with my stock it i have to set like the,b,2015-06-25,Jonny. G,4
good,o,2015-06-25,Jack Joseph,4
this is not a virus,f,2015-06-25,Vaibhav Gupta,4
learn how to use,o,2015-06-25,Vaibhav Gupta,4
the music played widget is shown once,b,2015-06-24,Nitin Sajwan,5
locking and unlocking the screen again the clock is shown and not the player,b,2015-06-24,Nitin Sajwan,5
a lot better the last time i had installed it,b,2015-06-24,Tahirah Abrash,4
a girl can dream,o,2015-06-24,Tahirah Abrash,4
best on play,o,2015-06-24,Hrvoje Krajinović,5
e no,b,2015-06-24,tiago magalhaes e Cherokee,1
to you have to deactivate feature in your phone security setting,b,2015-06-24,Michael Fontecchio,4
not a not a bad just pay attention you first set it up and instruction,o,2015-06-24,Michael Fontecchio,4
i really love very useful to see any notification pick a device out of pocket without press any thanks developer,b,2015-06-23,lippy blocky,5
but please add motion wake up after putting device flatly or not move device for a by using accelerometer sensor or gyroscope like what on x,f,2015-06-23,lippy blocky,5
i noticed improved battery consumption with this and is pretty significant compared to built in lock screen,b,2015-06-23,Lukita Nugraha,4
it but screen is off and i swipe up it go to even if i have setting to unlock the screen is there any way could recognize swipe up when screen off so it unlock the phone instead of going to ac,b,2015-06-23,Enej Verlic,3
hand down the lock screen worth your time if you care about the design of your phone,b,2015-06-22,Denis Nossevitch,5
minimalist yet informative,f,2015-06-22,Denis Nossevitch,5
complaint is active mode lead to,o,2015-06-22,Denis Nossevitch,5
but can be disabled,b,2015-06-22,Denis Nossevitch,5
i would rate it 5 star but because i have a galaxy i m on the lock screen i could press the home button and it would go straight to the home screen and i would get really annoyed please fix it or make it not bypass the lock screen and i would rate it 5 star,b,2015-06-22,jose diaz,3
would be perfect you guy could integrate security,o,2015-06-22,Nick Palacio,5
the best,o,2015-06-22,Niel Uy,5
great,o,2015-06-21,Ilich Ramírez,4
please give more option to adjust the timeout,f,2015-06-21,Ilich Ramírez,4
this wa made to work then it would fully deserve 5 star,b,2015-06-21,Kieran Caruthers,4
this is great,o,2015-06-21,. Von,4
so i wa wondering if you can add security pin or password to make it more secure so stranger cant easily access my chat,b,2015-06-21,. Von,4
awesome,o,2015-06-21,,3
love it,o,2015-06-21,,3
however update to android l 51 no longer working notification are hit miss,b,2015-06-21,,3
please fix issue with android l,b,2015-06-21,,3
warning,b,2015-06-20,David Jackson,1
this will not deactivate or remove from your device,b,2015-06-20,David Jackson,1
with this and a custom widget you can customize your minimalist lock screen to an impressive level,b,2015-06-20,Sammy Akharaz,5
example gesture unlock animation and full screen option,f,2015-06-20,Sammy Akharaz,5
the menu are designed aesthetically and functionally,b,2015-06-20,Sammy Akharaz,5
best minimal lock screen in play store,b,2015-06-20,Sammy Akharaz,5
the customization option i personally wish to see expanded is widget size,b,2015-06-20,Sammy Akharaz,5
i decided to give this another try,b,2015-06-20,Raven Scotland,5
it is way better now,o,2015-06-20,Raven Scotland,5
also there is a way to,o,2015-06-20,Raven Scotland,5
you have to go to security in your setting,b,2015-06-20,Raven Scotland,5
then you go to device administrator,b,2015-06-20,Raven Scotland,5
then you can take out ac display,f,2015-06-20,Raven Scotland,5
then you can,o,2015-06-20,Raven Scotland,5
work well and ha a slick look,o,2015-06-20,,5
work okay,o,2015-06-20,Donny Zastupnik,3
i press my home button it pass the lock screen and go to home screen,b,2015-06-19,Trevor Birdwell,2
not exactly optimized for but still good,o,2015-06-19,Quanglam Phan,5
this suck download,o,2015-06-18,Ashley Boteler,1
the animation for changing from notification to clock is clunky well a the auto screen feature is too insensitive,f,2015-06-18,Golly Jee Scooby,4
an option for the screen to be present charging would be appreciated,f,2015-06-18,Golly Jee Scooby,4
one of the best screen locker,f,2015-06-18,Bazan,5
loving it,o,2015-06-18,Bazan,5
stop commenting bullshit about not being able to it,b,2015-06-18,Matt Kuszel,5
i just hear their notification sound,b,2015-06-18,Nicolaus Isco,2
would be nice to get a useful calendar function,o,2015-06-18,Nicolaus Isco,2
i like the but what i like is the keep sending me to website which is obviously advertising with out the chance to pay u so u can get it a way i mean,b,2015-06-18,iiUnreal,1
double lock screen on my compact running lollipop 502,b,2015-06-17,Dominic Villanueva,3
horrible,o,2015-06-17,Anthony Bento,1
it not what i thought it wa going to be like,o,2015-06-17,Anthony Bento,1
worst ever,b,2015-06-17,Anthony Bento,1
need password and fingerprint scanner if happens this get five star,b,2015-06-17,Scotty Bair,4
good work,o,2015-06-17,Virgo Nn,5
make it pretty freaking useless,o,2015-06-17,Chris Bell,1
screw this useless crap,b,2015-06-17,Chris Bell,1
please make it fast most of the time it is really slow on unlocking animation,b,2015-06-17,Zarif Hussain,4
still dismiss alarm clock,f,2015-06-17,Wan Fahimi,5
feature is beyond awesome,o,2015-06-17,Baron Rodrigo,5
look very minimal and with a material design this impressed me,o,2015-06-17,Baron Rodrigo,5
this make my lock screen look beautiful and it just work and look great,o,2015-06-16,Natan Pena,5
it just the latest update make the application stop and i have to turn off and then turn on again,o,2015-06-16,Natan Pena,5
add so you can have in instead of having double is enabling natively,f,2015-06-16,Dan heyhey,4
hi it great but make it you can select a custom image a wallpaper for the not your wallpaper if you add this i will give 5 star,b,2015-06-16,Jef Sellekaerts,4
u cannot from play store u installed it,b,2015-06-16,Samir Dedhia,1
but u can go to security setting in manager and deactivate this to it,b,2015-06-16,Samir Dedhia,1
screen lock by itself from time to time and it also force close quite a lot,b,2015-06-16,Thomas Giomarco Quiros,3
would come back and rate 5 these were fixed though,b,2015-06-16,Thomas Giomarco Quiros,3
time out policy,b,2015-06-15,Snehasis Chakraborty,2
you tell me how to do it,o,2015-06-15,Snehasis Chakraborty,2
then it will be great,o,2015-06-15,Snehasis Chakraborty,2
love the and feature,o,2015-06-14,Ryan Rodriguez,4
very stable too,o,2015-06-14,Ryan Rodriguez,4
a couple maybe support other shortcut in the also having an option to display lollipop style icon at the top,f,2015-06-14,Ryan Rodriguez,4
thing missing is the ability to independently change the wallpaper from the home screen one,b,2015-06-14,Chris Drysdale,4
love it,o,2015-06-14,Domen Zidar,3
the thing missing is the option to add custom picture,b,2015-06-14,Domen Zidar,3
but i wish it would ha lock,b,2015-06-14,Majid Inam,3
fix this,b,2015-06-13,Marco Ramiscal,3
we can apply other wallpaper instead of our wallpaper to get two different wallpaper on and then ill give 5 star to this,o,2015-06-13,sanjeev rathi,3
the is nice,o,2015-06-13,Praful Jha,3
very nice actually i just like it,o,2015-06-13,Praful Jha,3
but a violin ha 2 face,b,2015-06-13,Praful Jha,3
it is a,o,2015-06-13,Praful Jha,3
battery eater,b,2015-06-13,Praful Jha,3
help then i would rate it,b,2015-06-13,Praful Jha,3
very good but it consumes 42 of maybe it is too much,b,2015-06-13,"Stefano Boscolo, Bragadin",3
what about a lighter version,f,2015-06-13,"Stefano Boscolo, Bragadin",3
cannot it unable to the,b,2015-06-12,Gust Thai,1
can someone help,o,2015-06-12,Gust Thai,1
it suffers from the same problem all do,o,2015-06-12,Jonathan Engelbart,4
keep up support for this great,b,2015-06-12,Jonathan Engelbart,4
i used this it asked to read all of my personal information such a reading my message and seeing photo sent to me,b,2015-06-12,Junior Ali,2
you do your stupid,b,2015-06-12,Junior Ali,2
would to have fingerprint included,f,2015-06-12,Tommy D Thompson,5
thing missing,b,2015-06-12,Tommy D Thompson,5
it will show my stock lock screen instead of third party,b,2015-06-12,Signs,1
my home button just bypass it,f,2015-06-10,Nick Sena,3
being able to notification category would be great too,f,2015-06-10,Nick Sena,3
if you have pin would be good,o,2015-06-10,Its hisham,4
good but need to show the time all the time even a notification is up or the music control are up,f,2015-06-09,Adam Beutler,3
work great,o,2015-06-09,kyle valenzuela,5
simple,o,2015-06-09,kyle valenzuela,5
easy to use,o,2015-06-09,kyle valenzuela,5
i have the 2013 nexus 7 and i love the overall,o,2015-06-09,Justin Weatherford,4
but ever i enabled the lock screen and active my tablet screen will not rotate to it constantly stay in portrait,b,2015-06-09,Justin Weatherford,4
closest thing to the i could find for my,b,2015-06-09,Ian Arth,4
battery use is up a bit however,b,2015-06-09,Ian Arth,4
loved it,o,2015-06-09,neutron,5
since last update i just keep getting notification i hope it will be solved soon,b,2015-06-08,cristian andrei bernal,5
it really i wish there are security lock option specially please add them,b,2015-06-08,مشاري العمر,4
great,o,2015-06-08,Alex Smith,4
i really hope for an update,b,2015-06-07,imrazvan,5
this update wa what i wa looking for,b,2015-06-07,imrazvan,5
great job,o,2015-06-07,imrazvan,5
please add option to use pattern unlock,f,2015-06-07,Hemanth P Haridas,4
what happened to the day we could put a different wallpaper up,b,2015-06-07,Dylan Crawford,4
i remember being able to change it just last year,b,2015-06-07,Dylan Crawford,4
more unlock animation,f,2015-06-07,Jarhead Delaghetto,2
on lollipop,f,2015-06-07,Raphael Viana,3
there wa an update removed the lock screen option from the setting menu so now it only say active mode,b,2015-06-07,Raphael Viana,3
hope this is fixed it my lock screen,b,2015-06-07,Raphael Viana,3
awesome responds i take my phone or of my pocket,o,2015-06-07,Anirudh Richie,5
the simplicity of the is mind blowing,f,2015-06-07,Anirudh Richie,5
looking forward for some more update,b,2015-06-07,Anirudh Richie,5
thank you guy for such a wonderful,o,2015-06-07,Anirudh Richie,5
cannot disable home button and add some security,f,2015-06-06,sin yi,3
this is pretty cool,o,2015-06-06,Tim Clair,5
i am not tech savvy this is a,b,2015-06-06,Tim Clair,5
push here dummy,o,2015-06-06,Tim Clair,5
but the medium overlay cause it to crash,b,2015-06-06,Brendan McGill,5
i love the style of how unique it is towards any other,o,2015-06-06,Victor Aguilar,4
something ha been wrong lately,b,2015-06-06,Victor Aguilar,4
installed this and it work good a the factory version of active display available on other phone of,b,2015-06-06,Abhishek shah,5
good job,o,2015-06-06,Abhishek shah,5
i press the home button on my galaxy it always go to my home screen just a it would whilst exiting an,b,2015-06-05,Saahil Patel,3
please fix this error,b,2015-06-05,Saahil Patel,3
battery saver,o,2015-06-05,Sibinkumar Acharya,5
love need finger print sensor lock screen support though,b,2015-06-05,Andrew Brooks,4
not showing notification,b,2015-06-05,Alec Pulvidente,1
very nice,o,2015-06-05,Samir Ahmed,5
i liked it,o,2015-06-05,Samir Ahmed,5
screen shake a network related is need to solve this,o,2015-06-05,srikanth mylavarapu,1
this ha been the worst jellybean came around,b,2015-06-04,Monica Pang,1
disappointing,b,2015-06-04,Monica Pang,1
just awesome,o,2015-06-04,Rohit Jain,5
need fingerprint support for the galaxy,b,2015-06-04,Joe McIver,3
first of more swipe action,b,2015-06-04,Tony Atzen,3
camera and phone is but how about,b,2015-06-04,Tony Atzen,3
you should be able to choose any,b,2015-06-04,Tony Atzen,3
another thing,o,2015-06-04,Tony Atzen,3
make an option to disable annoying always active notification that tell me that i have the active,f,2015-06-04,Tony Atzen,3
i live by this,o,2015-06-04,Corey Thomas,4
the design functionality and everything else are great,b,2015-06-04,Corey Thomas,4
but lately,b,2015-06-04,Corey Thomas,4
even i press the home button on my bar to just bypass it still frozen,b,2015-06-04,Corey Thomas,4
freeze up my phone too,b,2015-06-04,Corey Thomas,4
just really super frustrating because i love this much,b,2015-06-04,Corey Thomas,4
i use this or just the stock,o,2015-06-04,Corey Thomas,4
anything else on the play store is just please help,b,2015-06-04,Corey Thomas,4
loving it again,o,2015-06-04,G Mitra,5
hi first of all you guy are doing an amazing job with the,o,2015-06-03,Siddharth Marawar,4
the user an action button associated with a the notification should clear,f,2015-06-03,Siddharth Marawar,4
this would help me avoid the redundant task of clearing the notification performing the associated action,f,2015-06-03,Siddharth Marawar,4
hope you guy will consider this feature in a future update,b,2015-06-03,Siddharth Marawar,4
thanks,o,2015-06-03,Siddharth Marawar,4
wish it would activate i nudge my but otherwise amazing,f,2015-06-03,Graham Steffaniak,5
how do u delete it,f,2015-06-03,Jada Reid,1
work great in most however the stock get i have to swipe twice to dismiss or snooze,b,2015-06-03,Richard Atkinson,3
a fix for this would be great,b,2015-06-03,Richard Atkinson,3
great bug need a security feature pattern,o,2015-06-03,Reiss Collins,3
best,o,2015-06-03,M Sulaiman,5
add finger print scanner,b,2015-06-03,Anuj Gupta,5
this must be integrated into android by default,f,2015-06-02,Kavin Palaniswamy,5
seamless and easy access to the notification,o,2015-06-02,Kavin Palaniswamy,5
there are other but this is one level above the rest,f,2015-06-02,Kavin Palaniswamy,5
it keep getting better with each update,b,2015-06-02,Kavin Palaniswamy,5
am a fan,b,2015-06-02,Kavin Palaniswamy,5
please get rid of the ongoing notification say,b,2015-06-02,Daan Kempen,4
otherwise great,o,2015-06-02,Daan Kempen,4
this is terrible with protection,b,2015-06-02,Mr Cotton,1
give a pin or password or something please,b,2015-06-02,Mr Cotton,1
this is very irritating,b,2015-06-02,Sean Wood,2
i update my to working,b,2015-06-02,Icko Lacandazo,5
i lock my device it us the default lock of my phone,b,2015-06-02,Icko Lacandazo,5
how can i fix this,b,2015-06-02,Icko Lacandazo,5
still a for me,o,2015-06-02,Icko Lacandazo,5
upgrade to memory leak problem appears again,b,2015-06-02,喵喵,5
m this 100 star,o,2015-06-01,Abhi Sharma,5
am trying to,b,2015-06-01,malkit singh,1
but it not properly,b,2015-06-01,malkit singh,1
this really annoys me and it can be fixed this will deserve all 5 star,b,2015-06-01,Caio Pretti,3
great notification but would love to use the medium screen more once before unlocking the phone,b,2015-06-01,Thomas Onink,4
else great,b,2015-06-01,Thomas Onink,4
mini stock 442,o,2015-06-01,Thomas Onink,4
i love this the best lock screen in the ever,b,2015-06-01,Greg Gait,5
but my only problem is the system screen timeout always change back to 15 sec even after i change it manually,b,2015-06-01,Utsav Bajracharya,3
this seems to be of fix it,b,2015-06-01,Utsav Bajracharya,3
every time i it say an there wa an error in the setting,b,2015-05-31,Jimmy Quintanilla,4
fix this and it perfection,b,2015-05-31,Jimmy Quintanilla,4
i believe it ha actually something to do with lollipop itself rather a bug from the it worked flawlessly on,b,2015-05-31,Kazuki Okazaki,4
how can i get the lock screen feature,b,2015-05-31,Jair Martinez,1
will rate 4 star i am able to get lock screen feature,b,2015-05-31,Jair Martinez,1
but need pin lock,b,2015-05-31,Vinson Kv,4
loved it,o,2015-05-31,Adrian Wahyudi,5
best for my notification message,b,2015-05-31,ROBIN SAMUEL,5
so much better the stock lock about time to incorporate a fingerprint scanner option to secure the lock screen,b,2015-05-31,Paul Price,5
buggy,b,2015-05-31,Chris Heard,2
anything,o,2015-05-31,Chris Heard,2
nailed it,o,2015-05-31,Shubham Parashar,5
encompassing and minimalistic,f,2015-05-31,Martin Ek,5
on it course to perfection,b,2015-05-31,Martin Ek,5
it would make unlocking more snappy,f,2015-05-31,Martin Ek,5
please fix how i can bypass the by tapping the home button,f,2015-05-31,Jim Francis,2
fixed it,b,2015-05-31,Rhian Chavez,5
just add a password option,b,2015-05-31,Ahmed MAGDY,4
simply the best,o,2015-05-31,Serge Bart,5
beautifully designed,b,2015-05-31,Akash Dasgupta,5
lollipop ha notification on after i open it ha to go through lollipop because i need the security,f,2015-05-30,Arya Birendra,3
ha it own we wont need to go through 2,b,2015-05-30,Arya Birendra,3
great,o,2015-05-30,ryan victor,5
been using this i wa on kit with my and work flawlessly,b,2015-05-30,Richard Chisholm,4
i think a cool addition would be a battery saver,o,2015-05-30,Turner Parton,4
so your battery turn low the lock screen will turn black if you have the phone wallpaper enabled,b,2015-05-30,Turner Parton,4
every time i tried it say to deactivate,b,2015-05-30,ankur jaiswal,2
and then there is no option to deactivate,b,2015-05-30,ankur jaiswal,2
please let me know how to,b,2015-05-30,ankur jaiswal,2
please fix,b,2015-05-30,Subram Kapoor,4
easy and responsible to open notification,f,2015-05-29,Dining Nika,4
la flash,o,2015-05-29,Davide Toniolo,5
la,o,2015-05-29,Davide Toniolo,5
i open an notification and still it appears on lock screen and i have to manually remove that,b,2015-05-28,Kedar Gandre,4
please fix it,b,2015-05-28,Kedar Gandre,4
and good support,b,2015-05-28,Derek Sommer,5
add support for landscape,f,2015-05-28,Bubbles ÇàñdyMáÑ,4
for tablet,b,2015-05-28,Bubbles ÇàñdyMáÑ,4
i loved this but the only thing keeping me from using it anymore is my home button and other capacitive button on my phone will close out of the lock screen or take me out of it,b,2015-05-28,Mentalitarium,4
lock all the button other the lock button and volume and it will be perfect for me,b,2015-05-28,Mentalitarium,4
just what i wanted,o,2015-05-28,Shriram Dusane,5
beautifully developed,b,2015-05-28,Shriram Dusane,5
flawless now,o,2015-05-28,Shriram Dusane,5
would love the option to set it to only become active if the screen is of for more say 10 second,f,2015-05-27,Andrew Watt,5
please add a security system,f,2015-05-27,Mustafa Shah,4
gesture pattern or any type of lock please otherwise the is good,f,2015-05-27,Mustafa Shah,4
dope shit,o,2015-05-27,y tho,5
totally replaced my and being awesome,o,2015-05-27,y tho,5
keep the good work going on,o,2015-05-27,y tho,5
how can i it,o,2015-05-26,Chad Dy,1
even in i cant it,b,2015-05-26,Chad Dy,1
please help,b,2015-05-26,Chad Dy,1
i seem to not be able to get it to work on my 50 lollipop,f,2015-05-26,,2
i have allowed access for ac display for everything on my phone,f,2015-05-26,,2
can someone help me out,o,2015-05-26,,2
in the i do not have a active mode option,f,2015-05-26,,2
can be the issue,b,2015-05-26,,2
i notice once i have read the notification automatically in fact i have to manually cancel the notification,b,2015-05-26,Bhavik Patel,3
please upgrade this and this will deserve 5 star and more,b,2015-05-26,Bhavik Patel,3
very smooth and user but this would be a whole lot better there wa a for the,b,2015-05-26,Gene Hayes,4
there is no the screen stay black,b,2015-05-26,Dan Kowalsky,4
a notification is the screen will pulse on and off at set interval giving the user an easier way to see the notification if the phone is lying face up on a table,f,2015-05-26,Dan Kowalsky,4
love everything about it,o,2015-05-26,Dan Kowalsky,4
keep up the great work,o,2015-05-26,Dan Kowalsky,4
please update the setting of lock screen wallpaper,b,2015-05-26,tiffany jiawei,4
i want to have a different picture on my home screen,b,2015-05-26,Josh Goode,5
thanks,o,2015-05-26,Josh Goode,5
this is not working on,o,2015-05-26,prashant panigrahi,4
this is amazing,o,2015-05-26,Gyan Lakhwani,5
it seems to be a little hard on battery but is to be expected and is well worth the,b,2015-05-26,Gyan Lakhwani,5
i hope this help the,o,2015-05-26,Adrian's Adventure,5
add password such a pattern or pin to it,b,2015-05-26,dhairya jain,4
simply great,o,2015-05-25,Jordan Young,5
it very awesome love it,o,2015-05-25,Bogi Lazarov,5
can you put option for notification privacy without secure lock,b,2015-05-25,sunandan adhikary,4
and i would prefer a progress bar in music,o,2015-05-25,sunandan adhikary,4
u press the home button to turn on your screen you are sent to the home make virtually useless,b,2015-05-25,Dan Amara,1
upgrading to i wa missing the lock screen widget,b,2015-05-24,Stuart Smith,4
this using clock is a good alternative,b,2015-05-24,Stuart Smith,4
work advertised,o,2015-05-24,Stuart Smith,4
just a cosmetic suggestion to optionally allow widget to display at top of screen,f,2015-05-24,Stuart Smith,4
nicely done simple and effective,o,2015-05-24,Stuart Smith,4
simply and light will please allow to customize background picture,o,2015-05-24,Brian Erazo,4
i wish i can give it more 5 star,f,2015-05-24,Greg Alfaro,5
setting crash trying to put a widget on my lg fix for 5 star,b,2015-05-23,Jorge Name,4
i did all thing to on ac display but my local lock screen show up,b,2015-05-23,Aaditya Bawkar,1
please say what to do on galaxy and please provide me some setting,b,2015-05-23,Aaditya Bawkar,1
i cant use alarm anymore alarm wa rang for a second and then it gone,b,2015-05-22,Michael Lienus,4
the lock screen rarely work for but it is great it doe,b,2015-05-22,Erica Tessmer,1
,o,2015-05-22,Destinie Juers,1
it keep telling me is need to be deactivated and then i can,b,2015-05-22,Destinie Juers,1
download this,o,2015-05-22,Destinie Juers,1
r,o,2015-05-22,Norik Galstyan,5
this is it look great too,o,2015-05-22,Jason Vi,3
but it just keep crashing,b,2015-05-22,Jason Vi,3
save battery make seeing notification easy,b,2015-05-22,Taha C,4
this is the perfect for exactly what i wa looking for,o,2015-05-22,Desmond Poon,4
on my one it unlocks i press the home button,b,2015-05-22,Desmond Poon,4
please fix it,b,2015-05-22,Desmond Poon,4
it us much battery,b,2015-05-22,Raktim Biswas,2
great,o,2015-05-21,Anantha Karanth,5
wish there is an option to adjust the period of respond time the phone is taken out from the pocket,o,2015-05-21,Henry Ho,4
or make it no delay for the response,b,2015-05-21,Henry Ho,4
it sometime i unlocked my device this popped out,b,2015-05-21,Henry Ho,4
work amazing,o,2015-05-21,Munaum Muhammad,5
all this need is the option to add a password or pattern and lock and unlock sound,b,2015-05-21,Derrick Brown,4
hard to unlock screen with button,b,2015-05-21,Adrien Barrette,3
sometimes unresponsive,b,2015-05-21,Adrien Barrette,3
right now at 90 but could be best for android it worked 100 like active display,b,2015-05-21,Syed Alam,4
may be with a little work the developer can create a masterpiece,f,2015-05-21,Syed Alam,4
please keep working and make this perfect,o,2015-05-21,Syed Alam,4
people are willing to pay for like this,b,2015-05-21,Syed Alam,4
work perfectly adding security lock will be great,o,2015-05-20,Pj Edulian,5
one of my to quick and great for display,b,2015-05-20,Lewis Russell,5
would like to request adding the ability to use the fingerprint on the galaxy,f,2015-05-20,Lewis Russell,5
would probably bring a lot of user to the since i know how many people are looking for good lock screen for device,b,2015-05-20,Lewis Russell,5
it a good to see notification and time conveniently pulling it up from the pocket or turning phone upside down,f,2015-05-20,Deren Bong,4
however there is an improvement u guy can still do in order to make this like active display is to allow the screen to on and off together with the breathing light,f,2015-05-20,Deren Bong,4
love it,o,2015-05-20,Arnab Saha,4
need a lot of improvement,f,2015-05-20,Arnab Saha,4
please fix,b,2015-05-20,Kurokyu Arc,2
look and handle notification well,b,2015-05-20,Manvir Singh,4
but need some improvement,f,2015-05-20,Manvir Singh,4
many time it freeze and often the notification are not opened directly from the due to some bug,b,2015-05-19,Nikhil Mathur,4
they should make a launcher,o,2015-05-19,Matthew O'Grady,5
this is a great,o,2015-05-19,Oliver Hegi,5
i really like the look of it and it work great,o,2015-05-19,Oliver Hegi,5
i loved the a the notification too,b,2015-05-19,Abdul Qaiyoum,5
could you add pin code at the,b,2015-05-19,Abdul Qaiyoum,5
please,b,2015-05-19,Abdul Qaiyoum,5
i really liked this,o,2015-05-19,Naval Chand,4
but few more improvement will make me love it,f,2015-05-19,Naval Chand,4
hope you find a way to improve 1,f,2015-05-19,Naval Chand,4
lock the button 2,b,2015-05-19,Naval Chand,4
try to erase the notification which is already seen 3,b,2015-05-19,Naval Chand,4
try to add security and also try to fix minor bug d thanks a lot for this,b,2015-05-19,Naval Chand,4
anyone know how to get rid of this,b,2015-05-18,,1
by far the best replacement,o,2015-05-18,Todd Levy,5
would love to see support for custom wallpaper,o,2015-05-18,Todd Levy,5
work about 60 off the time,b,2015-05-18,Jim Paugh,2
the other time my notification bar freeze with the last message,b,2015-05-18,Jim Paugh,2
i open this and send out a test notification the last message will disappear,b,2015-05-18,Jim Paugh,2
kind of frustrating having to do this a few time a day,b,2015-05-18,Jim Paugh,2
emailed the owner month but no response,b,2015-05-18,Jim Paugh,2
back light on lg phone flash like a strobe light too,b,2015-05-18,Jim Paugh,2
it easy to use,o,2015-05-18,Peter Emmanuelle Faraon,5
this is super and a must have,o,2015-05-18,Philip Lam Kah Leong,5
i use it a daily driver,o,2015-05-18,Aman K. Gupta,5
i love the proximity unlock,f,2015-05-18,Aman K. Gupta,5
hate the,o,2015-05-18,Aman K. Gupta,5
still it awesome,o,2015-05-18,Aman K. Gupta,5
please add notification on,f,2015-05-18,Waseem Maya,5
the home button unlocks the screen,f,2015-05-17,Dei Haereticus,4
the ability to set any wallpaper would be another plus,f,2015-05-17,Chandra J,4
how do you make a lock on the actual it self,b,2015-05-17,Tibin Zachariah,4
i disabled my stock lock but how to enable ac display lock,b,2015-05-17,Tibin Zachariah,4
the is but you guy should make a password feature for it,b,2015-05-17,Veeresh Rajendran,5
proximity sensor work,f,2015-05-17,joseph patten,5
great,o,2015-05-17,Robert Schaffer,5
really and great design,o,2015-05-17,Robert Schaffer,5
just make it i can export setting,b,2015-05-17,Ashutos Sahay,5
i have a galaxy,o,2015-05-17,Alley Blauser,1
and it let me use this my,o,2015-05-17,Alley Blauser,1
very upsetting i needed something like this,o,2015-05-17,Alley Blauser,1
just wished there wa an option to keep screen awake receiving a notification instead of the current 25 second max limit,b,2015-05-16,Rain Spek,4
it the best lock screen notification manager,b,2015-05-16,Firefox Sync,5
user also advice to install which is a fork to this,b,2015-05-16,Firefox Sync,5
great,o,2015-05-16,William Lloyd,4
good job,o,2015-05-16,,5
i cannot find active mode feature on my note 101 3 star for now of the missing feature,b,2015-05-16,sherwin wong ming shyn,3
but overall it work very nice,o,2015-05-16,sherwin wong ming shyn,3
,o,2015-05-16,sherwin wong ming shyn,3
no performance issue at all reason giving it 4 star is cause there no password for the it get a pin feature i will change to 5 star,b,2015-05-16,Tim Pedersen,4
used on nexus it wa great,o,2015-05-16,Cameron Yap,3
now with work some of the time and no fingerprint support,b,2015-05-16,Cameron Yap,3
sometimes the clock will not show up on the lock screen i have music playing,b,2015-05-16,Jeremy Lai,4
another minor pet peeve would be that when the screen is unlocked music is the clock from the lock screen will pop up for a split second,b,2015-05-16,Jeremy Lai,4
you could fix these issue it would be greatly appreciated,b,2015-05-16,Jeremy Lai,4
but it need more,o,2015-05-16,Adel Albaqawi,5
i suggest pattern and a different and wallpaper from the home wallpaper,o,2015-05-16,Adel Albaqawi,5
one i press home it will go to the home screen,b,2015-05-16,Rishabh Mittal,4
which is annoying,b,2015-05-16,Rishabh Mittal,4
can you disable hone button,f,2015-05-16,Rishabh Mittal,4
i got the expecting to receive a like experience,b,2015-05-16,Alex Hadfield,5
and i wa amazed by how good this is,f,2015-05-16,Alex Hadfield,5
way to go,o,2015-05-16,Alex Hadfield,5
very good but need a way to have a pin or something of matter,b,2015-05-16,David Fleksher,4
latest 51 alpha allows the function to work,f,2015-05-16,Nolen Johnson,5
would be nice to have music and control,o,2015-05-16,Joseph Abdou,4
can you just do big monthly update,b,2015-05-16,Gamer Geralt,4
the is beautiful and run great however there is one major i use to play music a soon a the activates crash,b,2015-05-16,Riley Weist,4
awesome work flawless on my,o,2015-05-16,rafael angel toledo,5
everything keep fine i try to add widget,b,2015-05-16,Durga Pokala,4
then the crash,b,2015-05-16,Durga Pokala,4
love it,o,2015-05-16,Ravi Pyarelal,5
is it possible to make this work with the galaxy edge feed,b,2015-05-16,Roman Feygenberg,5
would be really cool to have just simple notification alert on the side of my phone,o,2015-05-16,Roman Feygenberg,5
