Topic Index 1,Topic Index 2,Topic Similarity
13,9,11.11111111111111
19,2,11.11111111111111
0,10,5.263157894736842
3,5,5.263157894736842
4,11,5.263157894736842
5,1,5.263157894736842
6,13,5.263157894736842
7,4,5.263157894736842
8,8,5.263157894736842
9,6,5.263157894736842
11,14,5.263157894736842
14,3,5.263157894736842
15,0,5.263157894736842
1,7,0.0
2,12,0.0
10,15,0.0
12,16,0.0
16,17,0.0
17,18,0.0
18,19,0.0
