App,Store,App ID,Review ID,Country,Version,Rating,Date,Author,Subject,Body,Translated Subject,Translated Body
Calendar Widget,Google Play,com.plusonelabs.calendar,Z3A6QU9xcFRPRmJtR0xfYjNBU2xtOVlkaS0xcjJqTjhyNHoxZ3JDemRnTkNHd3JpWnE2VGFlMXNHQzZtbncxWFFXUGtxVi1mRThacUhzQUkwTmRFUWNGQlE,English,,4,2015-10-30,David Mercer,Great tool,i have been using this application for a year,,
Calendar Widget,Google Play,com.plusonelabs.calendar,Z3A6QU9xcFRPRmJtR0xfYjNBU2xtOVlkaS0xcjJqTjhyNHoxZ3JDemRnTkNHd3JpWnE2VGFlMXNHQzZtbncxWFFXUGtxVi1mRThacUhzQUkwTmRFUWNGQlE,English,,4,2015-10-30,David Mercer,Great tool,it just occurred to me it would be great if you could add a new account on the calendar to display screen,,
Calendar Widget,Google Play,com.plusonelabs.calendar,Z3A6QU9xcFRPRUROZUhaaHpvbVNqZjZ0VWZNd3RfSnJ6eVhGZnJYTEFuQi1LelRmRHhfbGp2S3pVRmlfZVN2YUVCNDQzNGl2emF1eUJ6YVRKcG1yMnZJVEE,English,,5,2015-10-29,Stuart Olliver,Perfect!,lovely transparent calendar widget with good option,,
Calendar Widget,Google Play,com.plusonelabs.calendar,Z3A6QU9xcFRPRUROZUhaaHpvbVNqZjZ0VWZNd3RfSnJ6eVhGZnJYTEFuQi1LelRmRHhfbGp2S3pVRmlfZVN2YUVCNDQzNGl2emF1eUJ6YVRKcG1yMnZJVEE,English,,5,2015-10-29,Stuart Olliver,Perfect!,thanks for developing it,,
Calendar Widget,Google Play,com.plusonelabs.calendar,Z3A6QU9xcFRPSDZnRl9FTDd3R1MxYllWdmZfMWZoSHJZalJpTHlzUS00V3lEY1hDbll3SUoxMXlaSVE3cTd5R29QZmVKSHFJcTBGaUZJcTE4Sk5kMDFkcVE,English,,5,2015-10-29,G Oleg,simple yet sophisticated,show more information in same amount of space similar and unlike others ha adjustable feature,,
Calendar Widget,Google Play,com.plusonelabs.calendar,Z3A6QU9xcFRPR0R1SGk0MkJyTV9VNEtjckJmQTZwdkFtaVFDVXF5TVYtRlZwbWE5MndCUjVfSkowR3lHcUJXdmhHM0sxM3psWnYtT3ViLTQySDlZY1JJRGc,English,,5,2015-10-27,Craig Fraser,Works well,a good replacement for the generic loaded calendar,,
Calendar Widget,Google Play,com.plusonelabs.calendar,Z3A6QU9xcFRPR1dfZURKMHFSeFVHejd4NnpZSnFKUDRtNklUYU5Vem5oM1JhUlNKUU01UmNSVU9fNmVpY21IdzRKTTd3VllDeVRWYTNVd3BncTlJcms3bWc,English,,5,2015-10-26,Nathan M,Awesome,and work,,
Calendar Widget,Google Play,com.plusonelabs.calendar,Z3A6QU9xcFRPSDBfTk9QRWdjd3kxcjZOcVlscVFNMFhXTGwwMXByZUJ5V2hybzItTm1tZFdsLTZELS03TmxncUhDa3BrV2xVN0VBcHdia291b1ZLVzI0eUE,English,,5,2015-10-24,Andy Bushman,Great app can't get support easily,i have tried to report an issue and get sent to website you have to log i have no login and there is no option to register,,
Calendar Widget,Google Play,com.plusonelabs.calendar,Z3A6QU9xcFRPSDBfTk9QRWdjd3kxcjZOcVlscVFNMFhXTGwwMXByZUJ5V2hybzItTm1tZFdsLTZELS03TmxncUhDa3BrV2xVN0VBcHdia291b1ZLVzI0eUE,English,,5,2015-10-24,Andy Bushman,Great app can't get support easily,my issue is for an event start day 1 at 1900 and finish day at 0730 doe not show an end time on day 2,,
Calendar Widget,Google Play,com.plusonelabs.calendar,Z3A6QU9xcFRPRkZKeDgyalhLRWRVWGhPVDNjQ3ZBOE9MSlgyMVE1aDJnbDJ4Y3pBUmpfbnBkcU93VmxHdU5UYnUwVjNpY2hSbTI4NzZKejdlTUsxSlZUTlE,English,,2,2015-10-23,Erik Wilkins,Update ruined,removed widget,,
Calendar Widget,Google Play,com.plusonelabs.calendar,Z3A6QU9xcFRPRkZKeDgyalhLRWRVWGhPVDNjQ3ZBOE9MSlgyMVE1aDJnbDJ4Y3pBUmpfbnBkcU93VmxHdU5UYnUwVjNpY2hSbTI4NzZKejdlTUsxSlZUTlE,English,,2,2015-10-23,Erik Wilkins,Update ruined,is on screen but no calendar,,
Calendar Widget,Google Play,com.plusonelabs.calendar,Z3A6QU9xcFRPRUJwaFhPUlJWUDItTFVMdmw3dkNfOTA2NEJTVTNCWkY4X0ZlTndFV25QaVFfWkJRMDVVblh6eWluaHAwNlc1U2N2UlpKZTJ2MzV2SVJZa1E,English,,4,2015-10-21,hao li,Can't support two holiday calendar,and calendar setting changed in desktop can not be refreshed here,,
Calendar Widget,Google Play,com.plusonelabs.calendar,Z3A6QU9xcFRPRm9vTnNYSlZhU29BT0Y0RFA1WE1GZXIzRjhQVHZwUF9TMnB5X0hVdk0tMF81UGFpeW5oNkd5UFVBWWU0SGN6VGMxZ0VzbUVxSFVYTW9RWlE,English,,4,2015-10-21,Milap Raikundalia,Love it aesthetically,would be perfect they can work out the function,,
Calendar Widget,Google Play,com.plusonelabs.calendar,Z3A6QU9xcFRPRm9vTnNYSlZhU29BT0Y0RFA1WE1GZXIzRjhQVHZwUF9TMnB5X0hVdk0tMF81UGFpeW5oNkd5UFVBWWU0SGN6VGMxZ0VzbUVxSFVYTW9RWlE,English,,4,2015-10-21,Milap Raikundalia,Love it aesthetically,currently not working lollipop 51,,
Calendar Widget,Google Play,com.plusonelabs.calendar,Z3A6QU9xcFRPRXkwaFJ2S0xHWlhPbmEyRllMdnhDOHQ0RGtCWk9GVDVhb2hGQ2JoRlJDQ0dyb2xRWE1PUW1oN3R0WGx5cjJVU0JjYVk3aE9PejJiRDB2bUE,English,,1,2015-10-20,bloodys spammers,LOOKS NOTHING LIKE SCREENSHOTS!,horrible interface nothing like,,
Calendar Widget,Google Play,com.plusonelabs.calendar,Z3A6QU9xcFRPRm5JNF8wSUdVUmhiYTUyeEVEcldYazJxNVBhV2NXREFHUVZ5TkRxSjRGNnBVaFhFUG9LOVRSUzFSZ01TZ3ZHTHBiR2JOaWFOTUQ4aGlxanc,English,,1,2015-10-20,amit perl,,not refresh,,
Calendar Widget,Google Play,com.plusonelabs.calendar,Z3A6QU9xcFRPRm5JNF8wSUdVUmhiYTUyeEVEcldYazJxNVBhV2NXREFHUVZ5TkRxSjRGNnBVaFhFUG9LOVRSUzFSZ01TZ3ZHTHBiR2JOaWFOTUQ4aGlxanc,English,,1,2015-10-20,amit perl,,event are not on the right date,,
Calendar Widget,Google Play,com.plusonelabs.calendar,Z3A6QU9xcFRPRm5JNF8wSUdVUmhiYTUyeEVEcldYazJxNVBhV2NXREFHUVZ5TkRxSjRGNnBVaFhFUG9LOVRSUzFSZ01TZ3ZHTHBiR2JOaWFOTUQ4aGlxanc,English,,1,2015-10-20,amit perl,,the today and tomorrow are not the right date,,
Calendar Widget,Google Play,com.plusonelabs.calendar,Z3A6QU9xcFRPR2hqNGo5ei1WMTRtOUpvYWhMYUNtLXFRUEYtYW5VdE1IbUFvTm4xU2ZWLWNaS2c2a2xFaXlGSEYzMGU5c3N3NDRwTlVyelY4dHE2Ti1ObXc,English,,5,2015-10-19,Jenkin A.,Best,awesome calendar widget,,
Calendar Widget,Google Play,com.plusonelabs.calendar,Z3A6QU9xcFRPRWRkQmpPdlItZkhhd19RQnFGZmU2Q3ZxTDUtZ01jU0Y3UTRpOUk5RE52R01sMkZYaExQaW9wNS1pbjU0YXBMdkpqaE1mYVY0OERPQWdMVGc,English,,5,2015-10-18,Rich Hutchinson,Nice and clean.,updating review the previous wa old,,
Calendar Widget,Google Play,com.plusonelabs.calendar,Z3A6QU9xcFRPRWRkQmpPdlItZkhhd19RQnFGZmU2Q3ZxTDUtZ01jU0Y3UTRpOUk5RE52R01sMkZYaExQaW9wNS1pbjU0YXBMdkpqaE1mYVY0OERPQWdMVGc,English,,5,2015-10-18,Rich Hutchinson,Nice and clean.,still using this still really happy with it,,
Calendar Widget,Google Play,com.plusonelabs.calendar,Z3A6QU9xcFRPRWRkQmpPdlItZkhhd19RQnFGZmU2Q3ZxTDUtZ01jU0Y3UTRpOUk5RE52R01sMkZYaExQaW9wNS1pbjU0YXBMdkpqaE1mYVY0OERPQWdMVGc,English,,5,2015-10-18,Rich Hutchinson,Nice and clean.,recommended,,
Calendar Widget,Google Play,com.plusonelabs.calendar,Z3A6QU9xcFRPRXBkYTNPMnNFTkJHc0d2dDI5Wmx1NFhid2hSWTVvUDkzNkUwRzFlZVkyMkFLaWRNZUN0bjBENTFmaU9IVzRuUkg5alFwVHFPbk10cV9jLUE,English,,5,2015-10-18,John McCoy Hassell,,this is a very good,,
Calendar Widget,Google Play,com.plusonelabs.calendar,Z3A6QU9xcFRPRk9Rc0tiUTF2Zm91TmVlYXFmWkJoX2FtaE0wUlpYNVFlX1FneVVlVU9Rb0x5WDdhX2c1RjZXNzJZbzF1TnlDczhSZzNPMGV3T24wQTNBalE,English,,5,2015-10-14,Dmitry Zamriy,,just installed your widget,,
Calendar Widget,Google Play,com.plusonelabs.calendar,Z3A6QU9xcFRPRk9Rc0tiUTF2Zm91TmVlYXFmWkJoX2FtaE0wUlpYNVFlX1FneVVlVU9Rb0x5WDdhX2c1RjZXNzJZbzF1TnlDczhSZzNPMGV3T24wQTNBalE,English,,5,2015-10-14,Dmitry Zamriy,,thanks,,
Calendar Widget,Google Play,com.plusonelabs.calendar,Z3A6QU9xcFRPRk9Rc0tiUTF2Zm91TmVlYXFmWkJoX2FtaE0wUlpYNVFlX1FneVVlVU9Rb0x5WDdhX2c1RjZXNzJZbzF1TnlDczhSZzNPMGV3T24wQTNBalE,English,,5,2015-10-14,Dmitry Zamriy,,it refreshes each time i close any,,
Calendar Widget,Google Play,com.plusonelabs.calendar,Z3A6QU9xcFRPRk9Rc0tiUTF2Zm91TmVlYXFmWkJoX2FtaE0wUlpYNVFlX1FneVVlVU9Rb0x5WDdhX2c1RjZXNzJZbzF1TnlDczhSZzNPMGV3T24wQTNBalE,English,,5,2015-10-14,Dmitry Zamriy,,bit annoying,,
Calendar Widget,Google Play,com.plusonelabs.calendar,Z3A6QU9xcFRPRk9Rc0tiUTF2Zm91TmVlYXFmWkJoX2FtaE0wUlpYNVFlX1FneVVlVU9Rb0x5WDdhX2c1RjZXNzJZbzF1TnlDczhSZzNPMGV3T24wQTNBalE,English,,5,2015-10-14,Dmitry Zamriy,,can i set frequency of a sync,,
Calendar Widget,Google Play,com.plusonelabs.calendar,Z3A6QU9xcFRPRk9Rc0tiUTF2Zm91TmVlYXFmWkJoX2FtaE0wUlpYNVFlX1FneVVlVU9Rb0x5WDdhX2c1RjZXNzJZbzF1TnlDczhSZzNPMGV3T24wQTNBalE,English,,5,2015-10-14,Dmitry Zamriy,,2,,
Calendar Widget,Google Play,com.plusonelabs.calendar,Z3A6QU9xcFRPRk9Rc0tiUTF2Zm91TmVlYXFmWkJoX2FtaE0wUlpYNVFlX1FneVVlVU9Rb0x5WDdhX2c1RjZXNzJZbzF1TnlDczhSZzNPMGV3T24wQTNBalE,English,,5,2015-10-14,Dmitry Zamriy,,even i had a lot of them 1 minute ago,,
Calendar Widget,Google Play,com.plusonelabs.calendar,Z3A6QU9xcFRPRktRVEZNLTZTQTFqSUsyaURJSDBycjd5ZUx3UFcxTDFLVkV5Q0o4bF81QzREbnVSZENzM1M1anhHM3IzbW9RTFBvbUhBeUFpaklUU2FNOHc,English,,5,2015-10-14,Jake Holmquist,Great with Google Calendar,i sync my kid school and sport calendar in now i never miss an event,,
Calendar Widget,Google Play,com.plusonelabs.calendar,Z3A6QU9xcFRPSDU1UjdFekNZbFg3c2ZxQmxBQXJlbEJaRDdvZFZNdFh1N0I3U01QaUdsc2FDQ2NYZjVnMW9ZektORUVQMXZiVW9GU1AtSmlUMnJ5UkpJU2c,English,,3,2015-10-13,Helen Allan,Map needs improvement,i attempt to use the map feature it always put me on the other side of the world,,
Calendar Widget,Google Play,com.plusonelabs.calendar,Z3A6QU9xcFRPRW9nMV9rNlBHYUZQTWhybXdOZW56ZUtOSU00RS1VWUZ1aHJLOEVWNG9LSmlOSzl3ZkZ5Y3ZMOGhvUG9Oc1pwU2ZYM3gzeFcyaTFpNVJwY2c,English,,1,2015-10-13,,Installed,set up,,
Calendar Widget,Google Play,com.plusonelabs.calendar,Z3A6QU9xcFRPRW9nMV9rNlBHYUZQTWhybXdOZW56ZUtOSU00RS1VWUZ1aHJLOEVWNG9LSmlOSzl3ZkZ5Y3ZMOGhvUG9Oc1pwU2ZYM3gzeFcyaTFpNVJwY2c,English,,1,2015-10-13,,Installed,widget will not open,,
Calendar Widget,Google Play,com.plusonelabs.calendar,Z3A6QU9xcFRPSGFqMVJZXzNtZWp1SUFKckEwRUZ4Q01Dbm10TzVLc2RDUS0ta01NVnVlX0lQWXUtejB5NThvOHl2WURBOE5hV3N5Q0VDc3EyYkxOT0t1Ync,English,,4,2015-10-12,Delvydo Melvernaldo,Need to see Tasks too,i really like the interface and compatible with s planner calendar nicely but it would be better if i can see task are saved in s planner too,,
Calendar Widget,Google Play,com.plusonelabs.calendar,Z3A6QU9xcFRPRmZaVjlmalZxVXRPUERhLWZMZk1pZXczMnBmT0lJMlVUbXhhTkVEb0lCYVlTS0FVWUlXZFVrYmdTazFFbG0zWVBUOWJLNXRrOEVGbzFsLVE,English,,5,2015-10-12,dog jenks,Thank you,great perfect with s planner on launcher,,
Calendar Widget,Google Play,com.plusonelabs.calendar,Z3A6QU9xcFRPRUlYVUwybDlUeWRzQXJqQ3BjSy03Y3dsRmhHcXE5WS1KNlBIejF3aUd6SWJ4ZVBZNXYtTUViWG5XM205cl9zcEV2MF91Rlp6eWZTMU10UGc,English,,5,2015-10-10,,Just The App That I Was Looking For,can i suggest an option to reset to default,,
Calendar Widget,Google Play,com.plusonelabs.calendar,Z3A6QU9xcFRPRUlYVUwybDlUeWRzQXJqQ3BjSy03Y3dsRmhHcXE5WS1KNlBIejF3aUd6SWJ4ZVBZNXYtTUViWG5XM205cl9zcEV2MF91Rlp6eWZTMU10UGc,English,,5,2015-10-10,,Just The App That I Was Looking For,would make this widget even better,,
Calendar Widget,Google Play,com.plusonelabs.calendar,Z3A6QU9xcFRPR1ZEcmw2NnRjSjRYU3Uyam9oVjJvVlg5QXFfZ25BdEhBR2lpZVhTODlxdnA2ejJ4NDVrOUZ4cHhRRVRhamsyZnpxa1JGenUwN1djdE0xakE,English,,5,2015-10-10,alessandra bianchin,Awsome,thank just what i needed,,
Calendar Widget,Google Play,com.plusonelabs.calendar,Z3A6QU9xcFRPRXc1VmtEQ3Z0V1FCRVVkbHBwOXVLWU9QNDZ6NXdEdDRqdlRPQzVGQjZYT2ZsUTFwU1FCSnlyajVCUXh0d2JsczlLd0daRk1nQVpncTl1N1E,English,,4,2015-10-10,Souvik Debnath,Excellent but...,good to have date on the same line,,
Calendar Widget,Google Play,com.plusonelabs.calendar,Z3A6QU9xcFRPR1o2WnRzTVZJMlZCWm5HMlRvM1kzVVFFWXpzRi1xLVFucjh0YUdZU01USEREWUNoSWFMZjBETFh6c2hlb1hYRnhjOFhwVUFJemhDS0daaFE,English,,3,2015-10-09,Lawrence Life,Can't get it to open.,tapping on icon brings up the setting,,
Calendar Widget,Google Play,com.plusonelabs.calendar,Z3A6QU9xcFRPSEhVdHpnMFJfV2ZLcWp3VmNUV3p4MGpadWEwV29ZaDhONmRsa2MxUmZqQTZ1VDlCaWpRQy1RLVZxb2I1NFJqaUltV2tEZHRnRnh3bE9XM2c,English,,4,2015-10-09,Amit Paul,,awesome,,
Calendar Widget,Google Play,com.plusonelabs.calendar,Z3A6QU9xcFRPSEhVdHpnMFJfV2ZLcWp3VmNUV3p4MGpadWEwV29ZaDhONmRsa2MxUmZqQTZ1VDlCaWpRQy1RLVZxb2I1NFJqaUltV2tEZHRnRnh3bE9XM2c,English,,4,2015-10-09,Amit Paul,,i wish one feature be added,,
Calendar Widget,Google Play,com.plusonelabs.calendar,Z3A6QU9xcFRPSEhVdHpnMFJfV2ZLcWp3VmNUV3p4MGpadWEwV29ZaDhONmRsa2MxUmZqQTZ1VDlCaWpRQy1RLVZxb2I1NFJqaUltV2tEZHRnRnh3bE9XM2c,English,,4,2015-10-09,Amit Paul,,if i scrolled down to look at the event scheduled for the left it at that lock the screen than then unlock after some the calendar is stuck at i left it,,
Calendar Widget,Google Play,com.plusonelabs.calendar,Z3A6QU9xcFRPSEhVdHpnMFJfV2ZLcWp3VmNUV3p4MGpadWEwV29ZaDhONmRsa2MxUmZqQTZ1VDlCaWpRQy1RLVZxb2I1NFJqaUltV2tEZHRnRnh3bE9XM2c,English,,4,2015-10-09,Amit Paul,,i wish it would automatically scroll back to current date and time,,
Calendar Widget,Google Play,com.plusonelabs.calendar,Z3A6QU9xcFRPSEhVdHpnMFJfV2ZLcWp3VmNUV3p4MGpadWEwV29ZaDhONmRsa2MxUmZqQTZ1VDlCaWpRQy1RLVZxb2I1NFJqaUltV2tEZHRnRnh3bE9XM2c,English,,4,2015-10-09,Amit Paul,,can you make this possible,,
Calendar Widget,Google Play,com.plusonelabs.calendar,Z3A6QU9xcFRPR2hWNXY4N1ZHLVRHcGtTekl5NUppaXl2MUNPaTZoOWhlVFNoZmFVYWQtOXlyOXJYS3VTYjB5cllrOFdWV0hIcE1TSVZKSTR3Z1dXZk92Mmc,English,,1,2015-10-08,Russell Rumsey,Will not download!,how do i download it to a galaxy 4,,
Calendar Widget,Google Play,com.plusonelabs.calendar,Z3A6QU9xcFRPR2hWNXY4N1ZHLVRHcGtTekl5NUppaXl2MUNPaTZoOWhlVFNoZmFVYWQtOXlyOXJYS3VTYjB5cllrOFdWV0hIcE1TSVZKSTR3Z1dXZk92Mmc,English,,1,2015-10-08,Russell Rumsey,Will not download!,i have the setting page only,,
Calendar Widget,Google Play,com.plusonelabs.calendar,Z3A6QU9xcFRPRTlGUGJwUHhpZkhydVd6TW00eUxnRHRPYkdmUmhsQktxYjNweFEtNm5zZmtaR2tnTmtaRXdOZm9TZkZkSW01a29fbkEtdUg3X0ZLYUVmSVE,English,,5,2015-10-06,Łukasz Gajewski,,much better calendar widget from,,
Calendar Widget,Google Play,com.plusonelabs.calendar,Z3A6QU9xcFRPRTlGUGJwUHhpZkhydVd6TW00eUxnRHRPYkdmUmhsQktxYjNweFEtNm5zZmtaR2tnTmtaRXdOZm9TZkZkSW01a29fbkEtdUg3X0ZLYUVmSVE,English,,5,2015-10-06,Łukasz Gajewski,,everything is even their color and filter for the event,,
Calendar Widget,Google Play,com.plusonelabs.calendar,Z3A6QU9xcFRPRTlGUGJwUHhpZkhydVd6TW00eUxnRHRPYkdmUmhsQktxYjNweFEtNm5zZmtaR2tnTmtaRXdOZm9TZkZkSW01a29fbkEtdUg3X0ZLYUVmSVE,English,,5,2015-10-06,Łukasz Gajewski,,i miss one feature there is no chance to create two widget with different calendar to keep it more readable and useful,,
Calendar Widget,Google Play,com.plusonelabs.calendar,Z3A6QU9xcFRPSG1SSWxJUi05dS04SWd3djNuMUdUSXF6ZnlYcE1SdVZEcTFTUjZjZ28zT2JySWRJMFRTbVVUNkJlU093alM0WXNxbDdZd3pHSXd5VVhyeEE,English,,1,2015-10-05,Peta Elliott,,ha stopped updating,,
Calendar Widget,Google Play,com.plusonelabs.calendar,Z3A6QU9xcFRPSF84Yk5oV0pyTmlGTDkxck9INXlkbldoelIxTW5wUVlQRjJQNnNDcFJhQzVyOWc3STRmd0g4T0hoXzYxaXlvN2RUdklnOHhvUDhKRTFXUlE,English,,3,2015-10-02,A Bewley,sometimes wont refresh and displays wrong,the refresh button always work on my,,
Calendar Widget,Google Play,com.plusonelabs.calendar,Z3A6QU9xcFRPR1BoOXBxbWRrM182Z0VaMUdiZjh5Vm5VdFhsTmJBQUtOTzFDMWQ3MFJGYTZUVy0yVFd2blpmVzludVNtSVpyZno2ZjZvN2F0cWY5bEdGMWc,English,,5,2015-10-01,'Sean Ceschia- Real Estate Agent',Causing phone glitches,great,,
Calendar Widget,Google Play,com.plusonelabs.calendar,Z3A6QU9xcFRPR1BoOXBxbWRrM182Z0VaMUdiZjh5Vm5VdFhsTmJBQUtOTzFDMWQ3MFJGYTZUVy0yVFd2blpmVzludVNtSVpyZno2ZjZvN2F0cWY5bEdGMWc,English,,5,2015-10-01,'Sean Ceschia- Real Estate Agent',Causing phone glitches,very helpful,,
Calendar Widget,Google Play,com.plusonelabs.calendar,Z3A6QU9xcFRPSDZFa0dVSkpJUnFNcHBHdjN1S1FFa0s1ODFzU3hQVVVjUDZHbjR5V0FOb1NyUXFKN2N4TktOeVgzX2FRWDVrLWhvdHVQTFpVTEE2bTMxcXc,English,,5,2015-10-01,Jason Parkhill,The best minimalist calendar widget,been using it for year,,
Calendar Widget,Google Play,com.plusonelabs.calendar,Z3A6QU9xcFRPSDZFa0dVSkpJUnFNcHBHdjN1S1FFa0s1ODFzU3hQVVVjUDZHbjR5V0FOb1NyUXFKN2N4TktOeVgzX2FRWDVrLWhvdHVQTFpVTEE2bTMxcXc,English,,5,2015-10-01,Jason Parkhill,The best minimalist calendar widget,and visually appealing,,
Calendar Widget,Google Play,com.plusonelabs.calendar,Z3A6QU9xcFRPRWs2Ylc4cmJSWmgwLS1qa3hzZ0taMm5aOGxKWTRqNUFKU05ydFJKRlk5NnpqTXRhRzAzdGdhTVJDTTh5bGVXR2hVMzhrX0REU3drMTZQRXc,English,,3,2015-09-30,Michael W,Nice except for a couple things. But it's also free so..,need option to color the actual time and date not just the header and event,,
Calendar Widget,Google Play,com.plusonelabs.calendar,Z3A6QU9xcFRPRWs2Ylc4cmJSWmgwLS1qa3hzZ0taMm5aOGxKWTRqNUFKU05ydFJKRlk5NnpqTXRhRzAzdGdhTVJDTTh5bGVXR2hVMzhrX0REU3drMTZQRXc,English,,3,2015-09-30,Michael W,Nice except for a couple things. But it's also free so..,it give option for the time,,
Calendar Widget,Google Play,com.plusonelabs.calendar,Z3A6QU9xcFRPRWs2Ylc4cmJSWmgwLS1qa3hzZ0taMm5aOGxKWTRqNUFKU05ydFJKRlk5NnpqTXRhRzAzdGdhTVJDTTh5bGVXR2hVMzhrX0REU3drMTZQRXc,English,,3,2015-09-30,Michael W,Nice except for a couple things. But it's also free so..,also no response to feedback ever and no way to leave it on git hub,,
Calendar Widget,Google Play,com.plusonelabs.calendar,Z3A6QU9xcFRPSHk4RXRGaS1IclViQ3J2eDZBZzVEUjRJZ0JRa0xBVTZyRng5VGdiS1lUQjdWR1VSUHBzTTJpMVN4enRJVWVLbFZ1b1cxMWNTc3h1UGV0OWc,English,,5,2015-09-29,Paulette Keber,Loved it..still love it,lost it for a bit thought it wa the widget but it wa my phone,,
Calendar Widget,Google Play,com.plusonelabs.calendar,Z3A6QU9xcFRPSHk4RXRGaS1IclViQ3J2eDZBZzVEUjRJZ0JRa0xBVTZyRng5VGdiS1lUQjdWR1VSUHBzTTJpMVN4enRJVWVLbFZ1b1cxMWNTc3h1UGV0OWc,English,,5,2015-09-29,Paulette Keber,Loved it..still love it,now it reinstalled and i feel in control of my daily to do,,
Calendar Widget,Google Play,com.plusonelabs.calendar,Z3A6QU9xcFRPSHk4RXRGaS1IclViQ3J2eDZBZzVEUjRJZ0JRa0xBVTZyRng5VGdiS1lUQjdWR1VSUHBzTTJpMVN4enRJVWVLbFZ1b1cxMWNTc3h1UGV0OWc,English,,5,2015-09-29,Paulette Keber,Loved it..still love it,very happy,,
Calendar Widget,Google Play,com.plusonelabs.calendar,Z3A6QU9xcFRPRzlKaldwVTY2Ym1lUkZBR2NydW9pMmZQaGRTRkF6ZlZhbFBheUNaMlhXaDZVTjg4WGd3Qk5pdUNvOE9NYldpdnpkcVphNU12dlZ0YW56a1E,English,,1,2015-09-26,Jason Ecker,Not always accurate,it wa working i got a new another and the calendar convert over however my event carry over to the next day it state the event end at midnight ha a new event on the next day but the time only read midnight not the time the event end which is useless a i need to know what time the event end,,
Calendar Widget,Google Play,com.plusonelabs.calendar,Z3A6QU9xcFRPRzlKaldwVTY2Ym1lUkZBR2NydW9pMmZQaGRTRkF6ZlZhbFBheUNaMlhXaDZVTjg4WGd3Qk5pdUNvOE9NYldpdnpkcVphNU12dlZ0YW56a1E,English,,1,2015-09-26,Jason Ecker,Not always accurate,and i have toggled the setting including the show event end time button,,
Calendar Widget,Google Play,com.plusonelabs.calendar,Z3A6QU9xcFRPRzZUeDBWb3ZwT3N1SnNPWFJJcUNsczVZYUl2ak9QYzVoc0NNZWV6Vjd6N1VFUTEzT0NwSzBQT29FSWNncDJhN3F1NE11U0tQNVg0SlFRemc,English,,5,2015-09-25,Brian Bijoy,,on 511 lollipop,,
Calendar Widget,Google Play,com.plusonelabs.calendar,Z3A6QU9xcFRPRzZUeDBWb3ZwT3N1SnNPWFJJcUNsczVZYUl2ak9QYzVoc0NNZWV6Vjd6N1VFUTEzT0NwSzBQT29FSWNncDJhN3F1NE11U0tQNVg0SlFRemc,English,,5,2015-09-25,Brian Bijoy,,please fix,,
Calendar Widget,Google Play,com.plusonelabs.calendar,Z3A6QU9xcFRPRTl6Rk9RVndaQ0t3MWdEeHpkeDMxNTJreFRfZGt6azlhNDMwVi1zNzFiU1loNEN2bWN1VEhCbWZBTGZySzlzQ0NsWXFIUzMwUzBaN0g5Q2c,English,,5,2015-09-25,Michael Gefen,excellent widget!!,just i needed to replace the that is gone,,
Calendar Widget,Google Play,com.plusonelabs.calendar,Z3A6QU9xcFRPSGFXbDJLOWJDUXVnUmk1dlNmMjN6SDVjVndkZ2N1SkxNS2oydkx1ekRaQnQteHFwd2ZUUjVjWk9PWkZEclJKRnJINE5RU0xYY2d6YS1qOGc,English,,1,2015-09-25,selgooGfOenoN ssenisuB,No widget gets installed,on my galaxy installing the doe not install a widget,,
Calendar Widget,Google Play,com.plusonelabs.calendar,Z3A6QU9xcFRPSGZuUmphUVljeWtLa2hmb3JjRUk3eUhuZWF3ZHRLR2V4aDVEc3lUVDdHUGhhUTVOc1NqZ1dWMFNSSkpwZGFQVklJZEtNLXdaUGpvYy1IbEE,English,,5,2015-09-24,Gene Crawford,Works for me!,i use this on my nexus 7 tablet my one touch pop icon with and find it very convenient,,
Calendar Widget,Google Play,com.plusonelabs.calendar,Z3A6QU9xcFRPSGZuUmphUVljeWtLa2hmb3JjRUk3eUhuZWF3ZHRLR2V4aDVEc3lUVDdHUGhhUTVOc1NqZ1dWMFNSSkpwZGFQVklJZEtNLXdaUGpvYy1IbEE,English,,5,2015-09-24,Gene Crawford,Works for me!,it syncs well,,
Calendar Widget,Google Play,com.plusonelabs.calendar,Z3A6QU9xcFRPSEkwaV9vMWlhMURqR1pXanpxSmFRT2E2T3JxM0h1T1VoYkdTOXNhQ3laYjQ2X2tWVUNQRmdQRHhmTjJaZGZSNzdQWjlKR3g0U0NsMk5ta0E,English,,5,2015-09-24,yuval simhon,Love it,great option for viewing the calendar,,
Calendar Widget,Google Play,com.plusonelabs.calendar,Z3A6QU9xcFRPR09Sc0toRUVrSUJTeG1KS0dwVkFDc0l3R0RvZV96d3I4TVZNek5ITXlpdzBrNHRibmlxMzFKODM1VU9PdGxJR2RTbm9LNnNuN1pQUEJCc1E,English,,5,2015-09-24,Feras Janineh,,great,,
Calendar Widget,Google Play,com.plusonelabs.calendar,Z3A6QU9xcFRPSE90WFd2MkhVZG9TbTVvVmFpOHpraWd1RTJWcHNOTWZEZVZvcXpNcmQwTzNmV1UxYUZENjRLbzFfbkpneG1qbzFIeXk3SV95ckdWT25OVHc,English,,5,2015-09-24,Mahmoud Nasser,Disappeared from GO launcher since last update!,best widget,,
Calendar Widget,Google Play,com.plusonelabs.calendar,Z3A6QU9xcFRPRndYNk02T3ZvRGQ2QkhIeEh6OTBReW8xLS1lWVREX2NUbG1NZGVGOVlaNWR3Z0lIQkVGQTZDbUFMcy12Yl9aa2dSeEdxc2J0Zll1MVE4cnc,English,,5,2015-09-23,Molnár Bence,Default view,it launch s calendar in task view and i would like the month view,,
Calendar Widget,Google Play,com.plusonelabs.calendar,Z3A6QU9xcFRPRm1GaW1nZXhiQURnMVNsbms1Q0J0eF9uc2FMRGxvVU1kdFU4ckNMNGF5SnY4cUVTd3JTVzBnQ3lGc09YYmgxUDY4cXkyUV9kLTVUbFhfZ3c,English,,5,2015-09-23,Bill West,Very nice overall,doe exactly what it say on the tin show an agenda view of the day ahead,,
Calendar Widget,Google Play,com.plusonelabs.calendar,Z3A6QU9xcFRPRm1GaW1nZXhiQURnMVNsbms1Q0J0eF9uc2FMRGxvVU1kdFU4ckNMNGF5SnY4cUVTd3JTVzBnQ3lGc09YYmgxUDY4cXkyUV9kLTVUbFhfZ3c,English,,5,2015-09-23,Bill West,Very nice overall,for my personal two addition would make this perfect 1,,
Calendar Widget,Google Play,com.plusonelabs.calendar,Z3A6QU9xcFRPRm1GaW1nZXhiQURnMVNsbms1Q0J0eF9uc2FMRGxvVU1kdFU4ckNMNGF5SnY4cUVTd3JTVzBnQ3lGc09YYmgxUDY4cXkyUV9kLTVUbFhfZ3c,English,,5,2015-09-23,Bill West,Very nice overall,2,,
Calendar Widget,Google Play,com.plusonelabs.calendar,Z3A6QU9xcFRPRm1GaW1nZXhiQURnMVNsbms1Q0J0eF9uc2FMRGxvVU1kdFU4ckNMNGF5SnY4cUVTd3JTVzBnQ3lGc09YYmgxUDY4cXkyUV9kLTVUbFhfZ3c,English,,5,2015-09-23,Bill West,Very nice overall,the option to personalize the background of the widget with a personal photo,,
Calendar Widget,Google Play,com.plusonelabs.calendar,Z3A6QU9xcFRPSDdhai1lVndhZFQzT0pYR05MMnpMdnRrS3E2RTBCbEhDeG00ZHNpMGl5eUVvdjIwNFN5RUFfdk9haFF3VWNNam51MkI0WHM5NWZPUmJXUmc,English,,4,2015-09-23,Diane Fry,,simple and just what i wa looking for,,
Calendar Widget,Google Play,com.plusonelabs.calendar,Z3A6QU9xcFRPRjBxV2FNMWQ2UXZQMTJNU19sRWFka0VxbFFUMzM1NGxwaHNLcU5ITVVGYUZacHlBckdwM1NWNFhsbG5KajA4UUpIRzc5X2pDU2t4NGUxcmc,English,,5,2015-09-23,James Jones,Exactly what I needed,schedule mode widget,,
Calendar Widget,Google Play,com.plusonelabs.calendar,Z3A6QU9xcFRPRjBxV2FNMWQ2UXZQMTJNU19sRWFka0VxbFFUMzM1NGxwaHNLcU5ITVVGYUZacHlBckdwM1NWNFhsbG5KajA4UUpIRzc5X2pDU2t4NGUxcmc,English,,5,2015-09-23,James Jones,Exactly what I needed,yeah,,
Calendar Widget,Google Play,com.plusonelabs.calendar,Z3A6QU9xcFRPRjBxV2FNMWQ2UXZQMTJNU19sRWFka0VxbFFUMzM1NGxwaHNLcU5ITVVGYUZacHlBckdwM1NWNFhsbG5KajA4UUpIRzc5X2pDU2t4NGUxcmc,English,,5,2015-09-23,James Jones,Exactly what I needed,happy,,
Calendar Widget,Google Play,com.plusonelabs.calendar,Z3A6QU9xcFRPSHFONzZtUnozak1kWUxLZmRQTVhoMVdBNHFJbF9xUVRjVkhuck1uTFp0V3diZWdWcDhmbUEtLXZ1QjR6Z2JkV3pPTmY2WlFxbmNYMEozQ1E,English,,4,2015-09-23,Joleen Hansen,I like it,no issue,,
Calendar Widget,Google Play,com.plusonelabs.calendar,Z3A6QU9xcFRPSHFONzZtUnozak1kWUxLZmRQTVhoMVdBNHFJbF9xUVRjVkhuck1uTFp0V3diZWdWcDhmbUEtLXZ1QjR6Z2JkV3pPTmY2WlFxbmNYMEozQ1E,English,,4,2015-09-23,Joleen Hansen,I like it,i like the versatility,,
Calendar Widget,Google Play,com.plusonelabs.calendar,Z3A6QU9xcFRPRlhOclFfQ3pWOHU3UVBzcTBBanFoLV9nd1lxZmlYaXN2RVdQX2lLUzdxaGJyQXk4X1B1Wmk4aHA5eDhNbTJnUVJieXJXaDJHcmdjUFNlb3c,English,,4,2015-09-21,José Pablo Zamora,,how can i change the calendar color,,
Calendar Widget,Google Play,com.plusonelabs.calendar,Z3A6QU9xcFRPSFZMckpfQlZEWHlaZVE2Q3RJU21tcXpibFAzWW16YXN0R3pZRWVrRnRXVkpnS2V2OXFBcmp5SmRQQkM5XzUxaHRkb192aTljUkxUMGx4RHc,English,,5,2015-09-21,Heath Sias,The best widget,this one life on my first screen,,
Calendar Widget,Google Play,com.plusonelabs.calendar,Z3A6QU9xcFRPSFZMckpfQlZEWHlaZVE2Q3RJU21tcXpibFAzWW16YXN0R3pZRWVrRnRXVkpnS2V2OXFBcmp5SmRQQkM5XzUxaHRkb192aTljUkxUMGx4RHc,English,,5,2015-09-21,Heath Sias,The best widget,i love the aesthetic and it abstract away from which calendar i choose to use,,
Calendar Widget,Google Play,com.plusonelabs.calendar,Z3A6QU9xcFRPRkp0bjREMkhMWEJIa0p3TERsX0Y0bEJHb2tTVHZqSzhnVTB6YUpQNy1fTmdvdFlkdS1aaGVjSW1uYW56c1lSWW9sbloydm1UTW5RcUNRa3c,English,,2,2015-09-20,Rachael Lebon,Not a fan,not a fan of this,,
Calendar Widget,Google Play,com.plusonelabs.calendar,Z3A6QU9xcFRPRkp0bjREMkhMWEJIa0p3TERsX0Y0bEJHb2tTVHZqSzhnVTB6YUpQNy1fTmdvdFlkdS1aaGVjSW1uYW56c1lSWW9sbloydm1UTW5RcUNRa3c,English,,2,2015-09-20,Rachael Lebon,Not a fan,my all day event show up on the correct day,,
Calendar Widget,Google Play,com.plusonelabs.calendar,Z3A6QU9xcFRPRkp0bjREMkhMWEJIa0p3TERsX0Y0bEJHb2tTVHZqSzhnVTB6YUpQNy1fTmdvdFlkdS1aaGVjSW1uYW56c1lSWW9sbloydm1UTW5RcUNRa3c,English,,2,2015-09-20,Rachael Lebon,Not a fan,tried changing setting and keep re checking entered the date correctly but somehow the date are still not right,,
Calendar Widget,Google Play,com.plusonelabs.calendar,Z3A6QU9xcFRPRkp0bjREMkhMWEJIa0p3TERsX0Y0bEJHb2tTVHZqSzhnVTB6YUpQNy1fTmdvdFlkdS1aaGVjSW1uYW56c1lSWW9sbloydm1UTW5RcUNRa3c,English,,2,2015-09-20,Rachael Lebon,Not a fan,wa looking forward to using it,,
Calendar Widget,Google Play,com.plusonelabs.calendar,Z3A6QU9xcFRPRkp0bjREMkhMWEJIa0p3TERsX0Y0bEJHb2tTVHZqSzhnVTB6YUpQNy1fTmdvdFlkdS1aaGVjSW1uYW56c1lSWW9sbloydm1UTW5RcUNRa3c,English,,2,2015-09-20,Rachael Lebon,Not a fan,but not now my date cant even be corrected,,
Calendar Widget,Google Play,com.plusonelabs.calendar,Z3A6QU9xcFRPSE5pazlxUGRrc2J3bHJpUkptaXAxYUNUTU13RXQtR1dWdkNVdkNnTGM0TjBCeTZtWUlqY2RLVzlQV01ick00ZGlNR003SlhUMmNtcUtQaWc,English,,3,2015-09-20,Henry Cordy-Mckenna,Only 4 x 2?,am i missing something,,
Calendar Widget,Google Play,com.plusonelabs.calendar,Z3A6QU9xcFRPSE5pazlxUGRrc2J3bHJpUkptaXAxYUNUTU13RXQtR1dWdkNVdkNnTGM0TjBCeTZtWUlqY2RLVzlQV01ick00ZGlNR003SlhUMmNtcUtQaWc,English,,3,2015-09-20,Henry Cordy-Mckenna,Only 4 x 2?,the photo show this widget filling the entire phone screen which is what i wa but on the widget screen i can select a 4 by 2 widget,,
Calendar Widget,Google Play,com.plusonelabs.calendar,Z3A6QU9xcFRPSE5pazlxUGRrc2J3bHJpUkptaXAxYUNUTU13RXQtR1dWdkNVdkNnTGM0TjBCeTZtWUlqY2RLVzlQV01ick00ZGlNR003SlhUMmNtcUtQaWc,English,,3,2015-09-20,Henry Cordy-Mckenna,Only 4 x 2?,please help,,
Calendar Widget,Google Play,com.plusonelabs.calendar,Z3A6QU9xcFRPRXFvSDREUlFOMDJBdFpLM3lBYlNxY2V3elFNY3VrN2l4N3ZOQVljaHZHdkxCWWVtTVY3bGRjT0tlT0M0TkdZanJNYmZITVdkREw4N3dwMXc,English,,5,2015-09-19,Chon Cherry,Great,for me one of the best,,
