Topic,Words
0,0.042*because,0.034*great,0.032*get,0.024*capability,0.022*with,0.021*only,0.021*it,0.018*own,0.017*must,0.017*control
1,0.028*this,0.027*new,0.024*made,0.023*learning,0.021*modify,0.020*helped,0.020*of,0.019*job,0.018*debugging,0.017*great
2,0.031*debugging,0.030*this,0.024*wrong,0.023*fantastic,0.021*mistake,0.019*says,0.018*indispensable,0.018*easy,0.018*though,0.016*receive
3,0.030*new,0.026*out,0.025*ever,0.023*feature,0.023*adds,0.021*tool,0.020*useful,0.019*the,0.018*awesome,0.017*use
4,0.036*could,0.028*and,0.027*downside,0.026*a,0.023*something,0.022*useful,0.021*because,0.019*needed,0.018*version,0.017*exactly
5,0.027*trying,0.027*says,0.024*amazing,0.021*useful,0.020*with,0.019*modify,0.019*capability,0.017*see,0.017*helpful,0.016*figure
6,0.032*debugging,0.029*does,0.025*development,0.021*clutters,0.021*such,0.019*as,0.018*rarely,0.017*object,0.016*content,0.016*a
7,0.041*useful,0.024*compliments,0.024*modify,0.024*far,0.021*good,0.021*get,0.020*really,0.018*must,0.018*own,0.018*incredibly
8,0.032*buggy,0.030*developer,0.027*android,0.025*all,0.024*indispensable,0.024*with,0.023*fixed,0.022*making,0.020*get,0.019*box
9,0.033*how,0.032*name,0.025*compliments,0.022*free,0.022*d,0.019*with,0.019*talking,0.018*box,0.018*must,0.018*helpful
10,0.034*store,0.029*no,0.022*beautiful,0.019*understanding,0.019*your,0.018*intent,0.018*use,0.017*poking,0.017*after,0.016*lets
11,0.028*an,0.023*it's,0.022*intercept,0.022*out,0.022*feature,0.019*remote,0.018*button,0.018*resend,0.018*just,0.017*drive
12,0.030*downside,0.029*me,0.026*development,0.025*each,0.022*content,0.020*their,0.020*figure,0.020*only,0.020*wasn't,0.019*work
13,0.033*if,0.026*button,0.025*what,0.024*though,0.023*is,0.022*so,0.021*sometimes,0.021*instantly,0.021*says,0.019*content
14,0.032*poking,0.026*provider,0.025*tool,0.024*easy,0.020*fixed,0.019*understanding,0.019*launcher,0.019*out,0.018*because,0.018*awesome
15,0.036*feature,0.033*streams,0.027*very,0.026*adds,0.021*all,0.020*makes,0.019*are,0.018*this,0.018*small,0.018*android
16,0.026*each,0.025*showed,0.022*how,0.021*d,0.021*allow,0.020*indispensable,0.019*intercept,0.018*including,0.018*share,0.017*very
17,0.036*tool,0.027*intent,0.027*must,0.026*clutters,0.024*version,0.022*fork,0.022*using,0.021*instantly,0.020*d,0.016*android
18,0.042*downside,0.029*object,0.027*capability,0.027*tool,0.024*framework,0.023*will,0.022*is,0.019*around,0.018*intercept,0.016*developer
19,0.035*lifesaver,0.034*action,0.027*store,0.024*including,0.024*really,0.020*doing,0.019*version,0.019*me,0.019*an,0.019*thank
