Topic,Words
0,0.063*the,0.042*to,0.029*is,0.029*at,0.026*attachment,0.023*a,0.021*for,0.021*retrieval,0.017*after,0.017*keep
1,0.043*a,0.032*didn't,0.030*developers,0.027*said,0.027*and,0.025*manually,0.025*the,0.024*refund,0.023*attachment,0.023*access
2,0.050*three,0.049*work,0.044*crashes,0.038*far,0.035*up,0.034*i,0.032*being,0.031*anything,0.030*folder,0.028*because
3,0.045*at,0.042*suggestions,0.041*number,0.037*i,0.035*choose,0.033*what,0.032*android,0.031*be,0.027*try,0.025*receive
4,0.047*suggestions,0.047*access,0.046*been,0.043*i,0.042*update,0.034*or,0.033*way,0.032*first,0.029*is,0.024*it
5,0.076*seeing,0.044*help,0.039*mirror,0.039*retrieval,0.037*android,0.035*least,0.034*first,0.034*good,0.032*the,0.029*rudimentary
6,0.055*attachment,0.053*least,0.035*anything,0.034*before,0.033*option,0.032*an,0.031*receive,0.031*seeing,0.029*entered,0.026*completes
7,0.053*latest,0.052*has,0.049*to,0.043*entered,0.040*work,0.033*feedback,0.031*solve,0.030*some,0.028*and,0.026*good
8,0.044*the,0.039*side,0.038*been,0.037*and,0.036*it's,0.035*anything,0.033*but,0.031*least,0.028*help,0.028*icon
9,0.070*i,0.053*some,0.049*off,0.043*it's,0.034*before,0.031*download,0.027*the,0.025*and,0.024*after,0.024*keep
10,0.089*or,0.040*developers,0.034*getting,0.033*latest,0.029*it's,0.028*up,0.027*anything,0.024*retrieval,0.022*said,0.020*that
11,0.033*folder,0.032*seeing,0.031*solve,0.028*crashes,0.028*right,0.027*help,0.025*file,0.024*manually,0.024*entered,0.023*integration
12,0.042*now,0.042*crashes,0.040*the,0.039*right,0.035*negative,0.034*where,0.032*rudimentary,0.032*up,0.031*latest,0.031*but
13,0.054*suggestions,0.047*when,0.039*mostly,0.038*least,0.035*manually,0.034*or,0.027*didn't,0.025*before,0.024*it,0.023*anything
14,0.066*for,0.045*completes,0.038*be,0.032*on,0.032*by,0.031*been,0.029*quicker,0.025*latest,0.025*side,0.023*mostly
15,0.071*manually,0.052*mostly,0.051*off,0.045*update,0.040*way,0.039*mirror,0.038*regular,0.035*choose,0.028*feedback,0.028*icon
16,0.043*developers,0.038*mirror,0.038*because,0.034*option,0.032*what,0.032*mostly,0.032*file,0.027*by,0.025*quicker,0.025*gt
17,0.073*go,0.065*i,0.038*access,0.028*has,0.028*latest,0.028*option,0.027*anything,0.026*said,0.025*from,0.024*try
18,0.063*developers,0.045*for,0.041*latest,0.028*some,0.028*still,0.026*at,0.026*updates,0.025*file,0.025*update,0.023*days
19,0.058*days,0.047*completes,0.043*and,0.029*developers,0.029*before,0.028*solve,0.027*on,0.026*or,0.026*icon,0.021*suggestions
