App,Store,App ID,Review ID,Country,Version,Rating,Date,Author,Subject,Body,Translated Subject,Translated Body
BatteryBot Pro,Google Play,com.darshancomputing.BatteryIndicatorPro,Z3A6QU9xcFRPSGl4TjByYjRDaGM0U3RZSmdoSXc5NUphdVhYSmU2S1NzZG9sb1BZUlp4amhkVFlKOGFPRGVRY2tLb1Zzck9qNjAtNDNoVFdDZjJPaUl1UWtv,English,,5,2015-05-10,Jeffrey Glick,Been using this app the longest,i have always had this about 2009 i think,,
BatteryBot Pro,Google Play,com.darshancomputing.BatteryIndicatorPro,Z3A6QU9xcFRPSGl4TjByYjRDaGM0U3RZSmdoSXc5NUphdVhYSmU2S1NzZG9sb1BZUlp4amhkVFlKOGFPRGVRY2tLb1Zzck9qNjAtNDNoVFdDZjJPaUl1UWtv,English,,5,2015-05-10,Jeffrey Glick,Been using this app the longest,in how can i keep the notification from constantly sitting on my lock screen,,
BatteryBot Pro,Google Play,com.darshancomputing.BatteryIndicatorPro,Z3A6QU9xcFRPSGl4TjByYjRDaGM0U3RZSmdoSXc5NUphdVhYSmU2S1NzZG9sb1BZUlp4amhkVFlKOGFPRGVRY2tLb1Zzck9qNjAtNDNoVFdDZjJPaUl1UWtv,English,,5,2015-05-10,Jeffrey Glick,Been using this app the longest,is not what i want,,
BatteryBot Pro,Google Play,com.darshancomputing.BatteryIndicatorPro,Z3A6QU9xcFRPSGl4TjByYjRDaGM0U3RZSmdoSXc5NUphdVhYSmU2S1NzZG9sb1BZUlp4amhkVFlKOGFPRGVRY2tLb1Zzck9qNjAtNDNoVFdDZjJPaUl1UWtv,English,,5,2015-05-10,Jeffrey Glick,Been using this app the longest,i like the screen for new and important notice only,,
BatteryBot Pro,Google Play,com.darshancomputing.BatteryIndicatorPro,Z3A6QU9xcFRPSGl4TjByYjRDaGM0U3RZSmdoSXc5NUphdVhYSmU2S1NzZG9sb1BZUlp4amhkVFlKOGFPRGVRY2tLb1Zzck9qNjAtNDNoVFdDZjJPaUl1UWtv,English,,5,2015-05-10,Jeffrey Glick,Been using this app the longest,i like the upper notification bar percentage meter but not the constant appearance on my lock screen,,
BatteryBot Pro,Google Play,com.darshancomputing.BatteryIndicatorPro,Z3A6QU9xcFRPSGl4TjByYjRDaGM0U3RZSmdoSXc5NUphdVhYSmU2S1NzZG9sb1BZUlp4amhkVFlKOGFPRGVRY2tLb1Zzck9qNjAtNDNoVFdDZjJPaUl1UWtv,English,,5,2015-05-10,Jeffrey Glick,Been using this app the longest,anyone can help me with a workaround for this,,
BatteryBot Pro,Google Play,com.darshancomputing.BatteryIndicatorPro,Z3A6QU9xcFRPSGl4TjByYjRDaGM0U3RZSmdoSXc5NUphdVhYSmU2S1NzZG9sb1BZUlp4amhkVFlKOGFPRGVRY2tLb1Zzck9qNjAtNDNoVFdDZjJPaUl1UWtv,English,,5,2015-05-10,Jeffrey Glick,Been using this app the longest,i love the alarm,,
BatteryBot Pro,Google Play,com.darshancomputing.BatteryIndicatorPro,Z3A6QU9xcFRPSGl4TjByYjRDaGM0U3RZSmdoSXc5NUphdVhYSmU2S1NzZG9sb1BZUlp4amhkVFlKOGFPRGVRY2tLb1Zzck9qNjAtNDNoVFdDZjJPaUl1UWtv,English,,5,2015-05-10,Jeffrey Glick,Been using this app the longest,it is a great feature,,
BatteryBot Pro,Google Play,com.darshancomputing.BatteryIndicatorPro,Z3A6QU9xcFRPSGl4TjByYjRDaGM0U3RZSmdoSXc5NUphdVhYSmU2S1NzZG9sb1BZUlp4amhkVFlKOGFPRGVRY2tLb1Zzck9qNjAtNDNoVFdDZjJPaUl1UWtv,English,,5,2015-05-10,Jeffrey Glick,Been using this app the longest,thanks,,
BatteryBot Pro,Google Play,com.darshancomputing.BatteryIndicatorPro,Z3A6QU9xcFRPR1Q2NXJPNW5mTnVfWE55SVgydWJRNWxRZ0VPMlpZeHJaakt0ZXIxQUtEcC15dkQ4QU5hTzZiemVRcDdoWTBWcFlBd3VqOWFJUHE1Tmx2STRj,English,,5,2015-05-03,David Wells,Whatever issues I may have had are resolved,edited for fairness to the developer of this excellent product,,
BatteryBot Pro,Google Play,com.darshancomputing.BatteryIndicatorPro,Z3A6QU9xcFRPRnRzM0NvYUpGVlFFTTZBRGRRRm1LdjJ0ZlpMdU9XZmR4VXhWaEkwYS1RRFQ4cDFiLTk2RVBvTFpsTTJoTFNDa3FtcjhxOV9mV1ZScXh3R0d3,English,,5,2015-05-02,Lyarra Ocatillo,Fantastic,decided to get pro version just to support the developer,,
BatteryBot Pro,Google Play,com.darshancomputing.BatteryIndicatorPro,Z3A6QU9xcFRPRnRzM0NvYUpGVlFFTTZBRGRRRm1LdjJ0ZlpMdU9XZmR4VXhWaEkwYS1RRFQ4cDFiLTk2RVBvTFpsTTJoTFNDa3FtcjhxOV9mV1ZScXh3R0d3,English,,5,2015-05-02,Lyarra Ocatillo,Fantastic,thanks for a very useful,,
BatteryBot Pro,Google Play,com.darshancomputing.BatteryIndicatorPro,bGc6QU9xcFRPRUdTd3RFcmM4dzFFMDl4d2U2YWh0ZVZ4RDhTcHZPdGc4dTN6blJoRWN5QzZscWNVYmdwdXp5aG5JVWszVUVyMFdabkpHVFZsZzhMTzlCSVVr,English,,5,2015-05-01,A Google User,Great,all issue with lollipop have been resolved,,
