# deletions,date,commit message
2,2013/9/01,
8,2013/9/01,add dark theme preference to support both theme
2,2013/9/01,fixed empty clipboard crash
9,2013/9/01,add set root preference
326,2013/8/27,separate vim executable and make the vim executable implement a new local server socket in exec to accept event from vim exec all vim function invokes in to use local socket
0,2013/6/02,add to
1,2013/6/02,update project
0,2013/6/02,add
2,2013/5/14,
1,2013/5/14,fix white space in the file path
