# deletions,date,commit message
5,2013/1/21,implement combining accent for keyboard
5,2013/1/21,attach a hardware keyboard
5,2013/1/21,type e at this point you will see appear
5,2013/1/21,hat tip to the source code
3,2013/4/26,fixed scroll 2 line instead one
3,2013/4/25,add ant build target for ant the for build ant the for build ant release for
2,2013/4/25,reload directory sliding menu
3,2013/4/25,fixed action bar tab issue
2,2013/4/25,update
1,2013/4/25,add new
1,2013/4/25,add information in the intro
1,2013/4/25,fixed the vim welcome message
1,2013/4/24,change name to
3,2013/4/24,change new
0,2013/4/24,add new
77,2013/4/24,add to handle
1,2013/4/24,add
11,2013/4/24,add vim file
16,2013/4/23,change activity theme to
4,2013/4/23,add back zoom command line
1,2013/4/22,fixed 49 add font size preference to 288 pt
4,2013/4/22,fixed 51 unable to scroll vertical
1,2013/4/22,home by default
5,2013/4/22,fix 53 zoom view might cut edge word
1,2013/4/22,add sliding menu save option
1,2013/4/22,hide tab correct sliding menu closed
25,2013/4/22,use sliding file chooser for menu option
20,2013/4/22,rename method in exec and
1,2013/4/22,fixed sliding close missing vim tab
7,2013/4/22,change to light theme
12,2013/4/22,add file chooser
4,2013/4/22,add in the library
2,2013/3/19,
699,2013/3/17,remove lib
17,2013/3/17,use to choose file
2,2013/3/16,use to scroll screen
277,2013/3/16,roll back to in the ha new cursor mode implementation but seems cause the cursor ha no character
277,2013/3/16,fixed by just importing
2,2013/3/12,
1,2013/3/11,
2,2013/3/11,
0,2013/3/11,change icon to
2,2013/3/11,
1,2013/3/11,fix level 9 crash in
1,2013/3/11,add recently
22,2013/3/11,make level 9 compatible
0,2013/3/11,new icon
1,2013/3/11,change default quick bar to bottom
52,2013/3/11,move to
10,2013/3/08,use button style for quick bar button
11,2013/3/01,fix 41 move tab spin to
2,2013/2/28,implement to show tab spin
2,2013/2/27,
1,2013/2/20,in the path
24,2013/2/18,use by default and add new and opts
24,2013/2/17,refine menu and save state
1,2013/2/17,add for
2,2013/2/17,add vim tab android spinner
1,2013/2/15,remove permission
2,2013/2/14,
7,2013/2/14,change to use latest 1 move and height to by using reflection
7,2013/2/14,2 update setting according to new
1518,2013/2/14,import latest project commit just remove doc
2,2013/1/20,to the directory of file
22,2013/1/04,move all installation to avoid switching between and too much
12,2013/1/04,change installing information
110,2013/1/04,add install list for future to
4,2013/1/04,add install
3,2013/1/03,use to replace extra downloads
5,2013/1/03,add
11,2012/12/31,implement to replace
1,2012/12/06,add null check handling
68,2012/10/29,use magnitude view to replace zoom view
11,2012/10/28,check the inert mode correctly
18,2012/11/28,fix up action button lint insists is bad idea and it seems reasonable
18,2012/11/28,i changed it to and reordered to maintain the old behavior
1,2012/11/28,bump target version update your installed version update filter
1,2012/11/28,add image for notification lint insists notification should not use color
30,2012/11/27,make message handler static inner class lint suggested this could avoid leaked object in certain case
30,2012/11/27,the handler class is not static it will have a reference to the outer object and the message will have a reference to a target handler
30,2012/11/27,in a rare case of message getting stalled in the queue for a long time will be unable to collect the heavyweight object
6,2012/11/27,remove excessive
1,2012/11/27,explicitly declare lint suggests to do and the default is true
3,2012/11/27,move element to beginning of manifest lint suggests to do that
3,2012/11/27,the rationale seems to be some hard to track bug can be caused by late inclusion of this element
16,2012/11/27,remove unused import
11,2012/11/27,remove unused drawable resource
79,2012/11/27,remove unused resource
40,2012/11/27,remove unused string resource
1,2012/11/27,fix another build breakage i should be more careful
57,2012/11/01,remove dead code used to be context menu fix issue 28
1,2012/11/01,fix string overrun in check return value and set the terminating zero copying the string to clipboard
8,2012/11/01,style cleanup fix some random style issue and move variable declaration close to use
3,2012/11/01,run script extract package name into a variable
1,2012/11/01,fix stupid build breakage
3,2012/10/31,cleanup remove unused import
21,2012/10/31,automatically generate signature for function building native code call to get the signature of the function declared a native in code
21,2012/10/31,this allows u having the simplest possible declaration of native function
21,2012/10/31,unfortunately involves a little bit of magic
21,2012/10/31,the first call to filter out the pair of line for each native function declaration
3,2012/10/21,add convenience macro for array length
2,2012/10/21,cleanup remove dead variable
3,2012/10/21,cleanup move variable closer to usage
3,2012/10/21,more power for
2,2012/10/14,
3,2012/10/14,change default button and font size 12
6,2012/10/14,integrate android system clipboard
5,2012/10/12,start vim main function view created
1,2012/10/12,add debug information in the
9,2012/10/11,add long press to toggle visual mode in zoom mode
11,2012/10/08,improve unzip performance by the main gain is from increase of the buffer
11,2012/10/08,using also seems to have a little positive effect
11,2012/10/08,log progress info not a error
5,2012/10/08,refine touch event handling by split and 1 originally will send mouse down and up event for every move
5,2012/10/08,the patch change it to send mouse down only touch down and send mouse up only when touch up
5,2012/10/08,2 in zoom mode still send mouse down and up 3 adjust fling to improve
2,2012/10/08,add check in
4671,2012/10/04,remove documentation it only clutter result giving no value in return
17,2012/10/04,remove dead code
1,2012/10/04,add parameter to n of core
2,2012/10/03,fix float constant and remove duplicate semicolon
3,2012/10/03,remove unused variable
6,2012/10/03,cleanup move var declaration closer to usage
1,2012/10/03,instead this should copy the content of the whole buffer which this implementation doe
1,2012/10/03,work even with folding enabled
48,2012/10/03,handle some cruft by preprocessor hide the annoying long function name behind helper macro
2,2012/10/03,add default i got tired of defining a every time i need to log something in new place for debugging
5,2012/10/03,cosmetic remove dead comment and trailing space
2,2012/10/04,add string null check release
1,2012/10/04,read preference
1,2012/9/30,use default input connection from
20,2012/9/30,fixed commit insert wrong text issue
21,2012/9/28,move to vim thread these function become event in the fake
21,2012/9/28,besides still keep use between and to avoid too early
13,2012/9/28,in most of case the wa invoked by vim thread and trigger later
13,2012/9/28,someone call and cause dialog happens dead lock happened here
13,2012/9/28,this patch move the real always to vim thread by using the fake check event system
11,2012/9/27,add to accept composing 1
11,2012/9/27,to accept composing 2
11,2012/9/27,to create input connection 3 add preference to toggle the function
28,2012/9/26,cleanup remove unused import
4,2012/9/26,cleanup remove dead variable
4,2012/9/26,cleanup remove dead variable and move another one
2,2012/9/22,
2,2012/9/22,
3,2012/9/16,avoid receiver
1,2012/9/16,remove experimental code
2,2012/9/16,use to send action bar command
7,2012/9/15,cosmetic align attribute and rm trailing space
1,2012/9/15,fixed action bar disappear issue
1,2012/9/15,fixed typo
6,2012/9/14,fix markdown
34,2012/9/14,update build instruction
3,2012/9/14,fix layout inflation on device
12,2012/9/14,get rid of hack
12,2012/9/14,a trivial change in the crash again on exit due to crossing
12,2012/9/14,this change the hack with a call back to side which then initiate exit of activity
2,2012/9/14,bump android target in library
17,2012/9/14,cosmetic remove trailing whitespace
2,2012/9/14,cosmetic long line
4,2012/9/14,fix notification crash 1
4,2012/9/14,the parameter is required
4,2012/9/14,2
4,2012/9/14,3
0,2012/9/14,add another
3,2012/9/14,initial add section in add about feature and issue section
0,2012/9/14,add
2,2012/9/14,the original vim full runtime still have lot of issue
30,2012/9/13,fixed leak issue
6,2012/9/13,move out of
4,2012/9/11,add to filter the to install installation finished will notification and finish
3,2012/9/11,remove log
32,2012/9/11,refine the code structure and support accept intent data to install runtime
23,2012/9/09,change the install progress activity to theme light and center the circle icon
1,2012/9/09,fixed empty quick button string
0,2012/9/10,set backspace behavior to of modern vim by default it work in compatibility mode with vi which doe not backspace over start of insert mode
4,2012/9/07,add in
4,2012/9/06,fix memory leak in error handling path in error handling code path is hit the memory allocated for the is leaked
4,2012/9/06,fix by moving memory management into the same thread that allocated it
4,2012/9/06,to accommodate possible future use of with other thread tie the data to thread id
12,2012/9/06,fix to return thread exit code
5,2012/9/06,remove unused variable and fix style
4,2012/9/06,cosmetic rename variable to c style
6,2012/9/06,also actually return the exit status
6,2012/9/06,do not hold reference to activity in use callback instead
152,2012/9/06,use file to setup
14,2012/9/06,rename
8,2012/9/06,add quick bar preference to change the to left and right
9,2012/9/05,instead of calling to the place of call to and quit gracefully
9,2012/9/05,with in place side is now able to clean up before closing
10,2012/9/05,should not be tracked by
2,2012/9/03,
10,2012/9/03,add text select copy and paste function
42,2012/8/31,use scale gesture to zoom
2,2012/8/31,fine tune fling speed to avoid terminal bug
9,2012/8/31,support and use a home card exists
8,2012/8/30,remove unused preference
3,2012/8/30,fixed hang on galaxy tab 77
3,2012/8/30,add open file menu option
2,2012/8/28,not enable single tap and zoom bottom by default
2,2012/8/28,
10,2012/8/28,fixed quick button preference issue
1,2012/8/27,close soft keyboard on stop
4,2012/8/27,add preference touch gesture single tap zoom bottom
32,2012/8/25,add support
0,2012/8/24,set auto convert to
3,2012/8/24,fixed exception during installation
3,2012/8/24,set default color scheme to back button to send and enabled
4486,2012/8/24,use latest
48,2012/8/24,remove generated file
4,2012/8/23,add
2,2012/8/22,
19,2012/8/22,fixed orientation change the screen draw incorrect
31,2012/8/21,1
31,2012/8/21,fixed default button in dialog 2
31,2012/8/21,save orientation change
6,2012/8/20,add android dialog
4,2012/8/17,in
0,2012/8/17,change icon
1,2012/8/16,add menu option
2,2012/8/15,version 12
3,2012/8/15,change quick button to be pressed
1,2012/8/15,fixed resume failed
3,2012/8/01,fixed screen update redraw issue
9,2012/7/31,fixed build
2,2012/1/22,use instead of to fix issue
1,2012/1/09,fixed bug mistakenly assuming return global reference
9,2012/1/09,compile fixed
2,2012/1/05,10 version 11
4,2012/1/05,fixed vim runtime performance issue
