Topic,Words
0,0.183*entry,0.120*simple,0.104*i,0.077*thanks,0.060*forward,0.057*day's,0.048*widget,0.043*appreciate,0.043*fixed,0.037*that
1,0.228*you,0.193*entry,0.149*great,0.061*to,0.059*forward,0.052*bug,0.045*the,0.037*fixed,0.033*for,0.027*widget
2,0.166*great,0.126*widget,0.124*that,0.114*looking,0.071*fixed,0.063*bug,0.062*a,0.060*idea,0.056*to,0.037*thanks
3,0.140*forward,0.132*appreciate,0.119*entry,0.101*for,0.094*i,0.057*looking,0.056*thanks,0.049*the,0.049*that,0.042*a
4,0.180*the,0.163*forward,0.124*for,0.114*widget,0.074*a,0.051*that,0.049*entry,0.044*great,0.041*i,0.034*to
5,0.161*to,0.152*forward,0.116*the,0.100*great,0.078*widget,0.055*idea,0.049*looking,0.045*i,0.039*thanks,0.034*entry
6,0.140*the,0.134*a,0.130*entry,0.109*that,0.096*thanks,0.080*you,0.076*great,0.053*i,0.037*idea,0.027*for
7,0.164*great,0.128*appreciate,0.110*thanks,0.086*the,0.084*forward,0.078*day's,0.062*to,0.056*that,0.056*idea,0.042*fixed
8,0.267*thanks,0.205*a,0.071*forward,0.067*looking,0.062*entry,0.062*appreciate,0.055*widget,0.039*idea,0.037*the,0.028*i
9,0.145*to,0.122*that,0.101*for,0.069*idea,0.068*simple,0.067*thanks,0.055*i,0.047*looking,0.041*forward,0.041*bug
10,0.153*that,0.139*forward,0.117*appreciate,0.078*thanks,0.074*day's,0.073*bug,0.068*fixed,0.067*you,0.065*simple,0.040*great
11,0.163*i,0.150*idea,0.108*for,0.105*bug,0.103*entry,0.065*great,0.060*day's,0.054*thanks,0.052*the,0.036*to
12,0.160*that,0.159*for,0.105*the,0.102*day's,0.071*thanks,0.060*great,0.058*appreciate,0.047*idea,0.042*entry,0.039*fixed
13,0.177*widget,0.094*bug,0.082*fixed,0.075*simple,0.070*the,0.065*that,0.063*great,0.063*to,0.059*i,0.057*entry
14,0.248*bug,0.132*great,0.126*widget,0.070*day's,0.061*for,0.058*fixed,0.049*a,0.043*the,0.036*appreciate,0.032*forward
15,0.203*that,0.118*entry,0.115*bug,0.096*you,0.073*simple,0.058*a,0.055*the,0.052*idea,0.051*fixed,0.036*day's
16,0.189*simple,0.109*day's,0.108*widget,0.102*thanks,0.076*fixed,0.060*entry,0.059*great,0.051*idea,0.048*looking,0.037*appreciate
17,0.180*great,0.151*you,0.103*simple,0.095*for,0.064*idea,0.064*day's,0.054*to,0.050*the,0.041*appreciate,0.036*that
18,0.169*entry,0.151*bug,0.111*widget,0.106*looking,0.100*simple,0.079*day's,0.064*appreciate,0.053*i,0.048*the,0.029*to
19,0.199*great,0.152*i,0.088*thanks,0.086*for,0.081*looking,0.064*you,0.056*that,0.054*to,0.049*bug,0.043*the
