what the heck happened,b,2016-03-25,J Gilbert,1
i now have to scroll down through my feed group to find the unread article,b,2016-03-25,J Gilbert,1
also it now crash every time i go to exit out of it on my nook,b,2016-03-25,J Gilbert,1
great reader but the last update wa incomplete,f,2016-03-23,frtu frtu,5
several feature went missing including a widget,b,2016-03-23,frtu frtu,5
edit widget came back with marshmallow,b,2016-03-23,frtu frtu,5
i like the full text extraction and the ability to split my source into multiple folder,b,2016-02-26,John Paluska,4
two thing i would like to see in the future are a page turning option for browsing entry opening and the ability to sign into or something similar to save my setup for multiple device,b,2016-02-26,John Paluska,4
do the second one and i will give the last star,o,2016-02-26,John Paluska,4
in the i will continue to enjoy this fantastic,o,2016-02-26,John Paluska,4
any way to get rid of the big orange flame thing on the widget,f,2016-02-18,Bill L,3
kind of obnoxious,o,2016-02-18,Bill L,3
black theme mark read icon on bottom corner or by swiping up from view mode swipe right on article list to bring in entry list into view,b,2016-02-07,Sammy Tayl,4
instead to a unread you can have it so we tap the top right or left corner of an article in article list,f,2016-02-07,Sammy Tayl,4
mark read on scroll,b,2016-02-07,Sammy Tayl,4
tap and hold article in the list to open it in browser,b,2016-02-07,Sammy Tayl,4
and please allow to decrease font size of entry or reduce space between scrolling,f,2016-02-07,Sammy Tayl,4
thank you,o,2016-02-07,Sammy Tayl,4
similar problem with other reader,f,2016-01-27,Joel Frese,2
i miss which wa the best of them all,b,2016-01-27,Joel Frese,2
i really wanted to like this but feed updating is broken some lag by hour or just give up entirely,b,2016-01-26,Nigel Kendrick,2
gone back to feed demon fixed,b,2016-01-26,Nigel Kendrick,2
this problem still exists in 15 ha two article from today for the ha 80,b,2016-01-26,Nigel Kendrick,2
ditto for 19,f,2016-01-26,Nigel Kendrick,2
this wa fixed it would be the best reader out there,b,2016-01-26,Nigel Kendrick,2
allows me to pull from many independent website are not supported through similar reader,o,2016-01-21,VICTOR GUAJARDO,5
thank you for a great,o,2016-01-21,VICTOR GUAJARDO,5
work great,o,2016-01-11,Norm Szcyrek,5
news reader or just another,o,2016-01-06,Sukianto Therry,3
the best,o,2016-01-06,Ismail Agung,5
the nicest reader far,f,2016-01-02,Jean Marie Thia,4
but can you add a delete post button function,f,2016-01-02,Jean Marie Thia,4
it wa integrated better with commercial service it will definitely win my 5 star,b,2015-12-27,Kristiyan Dimov,4
error,b,2015-12-25,Kc Cel,2
please add manual refresh on,f,2015-12-06,Randy Vallian,5
keep going,o,2015-12-03,Mo ELFASSI,5
just the full article never downloads,o,2015-11-29,Bri aN,1
great little news reader,f,2015-11-22,Barna Peto,5
best news reader,o,2015-11-12,samir ajgaonkar,4
but one line headline in widget is not sufficient and need at least two line or in ticker form to get idea of news quickly,b,2015-11-12,samir ajgaonkar,4
i have been using reader for some year and the last one wa updated to something that wa annoying i grudgingly then started the search for something simple to use to match what i had,b,2015-11-08,Ivan Radmore,2
stumbled on this and wish i had found it earlier,o,2015-11-08,Ivan Radmore,2
it wa so simple to step over several story i am not interested in and at the end of the list mark all read,b,2015-11-08,Ivan Radmore,2
now i have to swipe every story,b,2015-11-08,Ivan Radmore,2
