simple support full text,b,2014-10-01,ram d,5
feel well made,o,2014-10-01,ram d,5
seems average speed,b,2014-10-01,Inscrutable Scrutinizer,3
no permission,b,2014-10-01,Inscrutable Scrutinizer,3
get the full feed unlike,b,2014-10-01,Inscrutable Scrutinizer,3
thanks,o,2014-10-01,Inscrutable Scrutinizer,3
will move up or down used,b,2014-10-01,Inscrutable Scrutinizer,3
this ha saved me countless hour in every morning,o,2014-09-28,Justin M,5
