thank you for developing this wonderful,o,2015-04-03,Vishnu S,4
this is a great it could be a blessing for the visually citizen if the font size could be improved to double of the currently available text size,f,2015-04-01,Ritu Agrawal,4
thanks in advance,o,2015-04-01,Ritu Agrawal,4
no straight what you need,o,2015-03-26,El Rafa,5
exactly what i wa looking for at least,o,2015-03-26,El Rafa,5
eat like food,b,2015-03-26,El Rafa,5
great consider adding material design pull down and circle icon refresh,b,2015-03-04,Brent L,4
simple light and dark can automatically download complete entry with or without scrollable widget,b,2015-03-02,Milan Aftanas,5
moreover it is,f,2015-03-02,Milan Aftanas,5
drawback is no synchronization,b,2015-03-02,Milan Aftanas,5
