Topic,Words
0,0.036*play,0.034*source,0.033*coming,0.032*selection,0.025*over,0.024*looking,0.024*and,0.023*adding,0.021*you,0.020*to
1,0.050*good,0.043*great,0.037*because,0.032*doesn't,0.031*but,0.029*might,0.028*as,0.027*easy,0.025*the,0.023*freeze
2,0.053*selection,0.036*figure,0.031*pod,0.028*recommended,0.028*polished,0.027*settings,0.026*sequence,0.025*without,0.025*huge,0.022*bit
3,0.048*huge,0.044*because,0.039*it,0.037*pod,0.034*job,0.034*issues,0.029*doesn't,0.029*annoy,0.023*great,0.022*needs
4,0.052*player,0.051*settings,0.043*easy,0.037*could,0.031*minor,0.029*are,0.027*over,0.026*as,0.026*smoothly,0.023*major
5,0.056*not,0.056*skips,0.040*without,0.039*huge,0.037*over,0.036*selection,0.031*you,0.030*minor,0.028*a,0.025*say
6,0.046*be,0.039*major,0.035*pod,0.033*nothing,0.029*could,0.028*reliable,0.024*else,0.024*selection,0.023*done,0.022*it's
7,0.053*it,0.043*unnecessary,0.042*recommended,0.042*switch,0.041*best,0.039*would,0.038*could,0.025*you,0.023*freeze,0.023*decided
8,0.041*but,0.039*because,0.033*was,0.032*job,0.031*freeze,0.029*smoothly,0.028*for,0.023*the,0.022*its,0.022*selection
9,0.057*are,0.036*but,0.035*annoy,0.028*might,0.026*major,0.022*needs,0.021*thank,0.021*for,0.021*that,0.019*from
10,0.059*is,0.030*of,0.026*my,0.025*read,0.025*me,0.023*add,0.023*recommended,0.022*nothing,0.022*all,0.021*issues
11,0.057*it,0.055*with,0.042*be,0.036*already,0.031*bloated,0.031*looking,0.023*cause,0.021*freeze,0.021*selection,0.020*on
12,0.071*adding,0.037*you,0.034*anyway,0.032*user,0.031*because,0.027*on,0.027*pod,0.023*unnecessary,0.023*android,0.023*support
13,0.042*what,0.042*play,0.038*over,0.037*switch,0.037*android,0.032*already,0.030*here,0.029*but,0.027*doesn't,0.025*pod
14,0.036*say,0.035*doesn't,0.032*selection,0.031*skips,0.030*nothing,0.029*best,0.027*from,0.025*read,0.023*open,0.022*bloated
15,0.046*the,0.029*with,0.029*switch,0.024*else,0.024*was,0.023*because,0.023*things,0.022*just,0.022*no,0.020*android
16,0.039*sec,0.034*gets,0.031*major,0.028*be,0.027*that,0.027*in,0.027*awesome,0.026*support,0.025*switched,0.024*things
17,0.041*without,0.033*with,0.031*nothing,0.031*support,0.030*bloated,0.029*smoothly,0.029*supposed,0.024*simple,0.023*as,0.023*sec
18,0.038*doesn't,0.037*pod,0.032*be,0.032*all,0.031*antenna,0.029*easy,0.028*huge,0.025*of,0.025*because,0.024*but
19,0.051*else,0.049*simple,0.048*me,0.044*its,0.037*it's,0.035*with,0.033*supposed,0.032*a,0.027*bit,0.025*android
