Topic,Words
0,0.011*7,0.009*offers,0.009*tin,0.008*fine,0.008*fuss,0.006*hide,0.006*individual,0.006*to,0.006*excellent,0.006*by
1,0.010*consumption,0.009*prettiest,0.008*development,0.008*ad,0.008*companion,0.007*think,0.007*don't,0.007*queue,0.007*incorporate,0.006*phone
2,0.012*group,0.011*essential,0.009*context,0.009*complete,0.008*days,0.008*definitely,0.008*available,0.007*beat,0.006*easily,0.006*nexus
3,0.008*despite,0.007*frequently,0.007*increases,0.006*long,0.006*nag,0.006*screens,0.006*road,0.006*easy,0.005*small,0.005*muted
4,0.010*stays,0.009*says,0.008*expect,0.008*discovering,0.007*earlier,0.007*episode,0.006*number,0.005*per,0.005*as,0.005*wasn't
5,0.011*nice,0.009*listen,0.008*capable,0.007*contribute,0.006*compared,0.006*pods,0.006*bonus,0.006*anyone,0.006*rare,0.006*group
6,0.012*grin,0.008*basis,0.008*that,0.007*at,0.007*issues,0.007*finds,0.006*fits,0.006*ever,0.006*prefer,0.005*improvement
7,0.009*para,0.008*although,0.007*saving,0.007*expect,0.007*purge,0.007*highly,0.007*bud,0.006*fortune,0.006*support,0.006*honest
8,0.010*updates,0.008*remove,0.007*import,0.007*150,0.006*data,0.006*features,0.006*enjoy,0.006*reinstall,0.006*super,0.005*found
9,0.007*similar,0.006*nearly,0.006*expect,0.006*exactly,0.006*search,0.006*follows,0.006*plays,0.005*play,0.005*donate,0.005*strange
10,0.011*versions,0.009*old,0.007*world,0.007*bullshit,0.006*reliable,0.006*frequently,0.006*which,0.006*sec,0.006*interim,0.006*action
11,0.014*etc,0.008*perfect,0.007*from,0.007*it's,0.006*very,0.006*stable,0.006*gives,0.006*that,0.006*expected,0.005*the
12,0.011*notes,0.009*combined,0.008*0,0.007*ability,0.007*wouldn't,0.007*enthusiast,0.006*failed,0.006*4,0.006*downloading,0.006*parts
13,0.009*navigate,0.009*obscure,0.008*pretty,0.008*crashing,0.007*beat,0.007*episode,0.007*essential,0.006*with,0.006*terms,0.006*skip
14,0.010*mute,0.009*able,0.009*organization,0.007*wanted,0.007*plug,0.006*finds,0.006*an,0.006*simply,0.006*among,0.006*frequently
15,0.008*unlock,0.008*holding,0.008*under,0.007*appear,0.007*future,0.006*sure,0.006*a,0.006*team,0.006*recommended,0.006*renders
16,0.010*some,0.008*among,0.008*easier,0.007*stream,0.007*that,0.006*anywhere,0.006*art,0.006*via,0.006*in,0.006*decide
17,0.013*all,0.009*demanding,0.007*listening,0.007*recent,0.006*permissions,0.006*subscribes,0.006*powerful,0.006*props,0.006*will,0.006*register
18,0.008*choice,0.008*manually,0.007*speed,0.007*else,0.007*lovely,0.007*plug,0.007*makes,0.006*twice,0.006*useful,0.005*navigate
19,0.008*overloaded,0.008*rare,0.008*so,0.007*bunch,0.007*doesn't,0.007*originally,0.007*performance,0.006*year,0.006*reliably,0.006*logs
