Topic,Words
0,0.032*wish,0.024*to,0.022*the,0.021*i,0.020*various,0.019*easy,0.018*and,0.018*be,0.018*a,0.018*helped
1,0.036*to,0.033*the,0.028*really,0.028*based,0.027*amazon,0.027*stars,0.024*a,0.022*methods,0.021*will,0.021*need
2,0.047*wonder,0.039*me,0.031*will,0.031*can,0.028*wish,0.027*and,0.026*helped,0.022*scanner,0.022*keep,0.019*low
3,0.031*what,0.030*exactly,0.029*request,0.029*few,0.028*amazon,0.028*been,0.027*have,0.026*helped,0.025*reply,0.024*quickly
4,0.030*this,0.030*use,0.030*does,0.028*got,0.026*get,0.024*nexus,0.022*like,0.021*there,0.020*camera,0.020*work
5,0.038*other,0.034*to,0.032*got,0.028*and,0.028*doesn't,0.026*they,0.025*because,0.024*absolutely,0.024*helped,0.023*would
6,0.039*are,0.034*book,0.033*got,0.032*really,0.030*features,0.029*do,0.027*7,0.025*scanners,0.025*other,0.025*developer
7,0.034*quickly,0.030*please,0.024*amazon,0.023*nexus,0.022*instead,0.022*logged,0.022*work,0.021*the,0.020*me,0.020*using
8,0.038*other,0.031*which,0.031*scanner,0.030*for,0.029*use,0.029*again,0.028*missing,0.025*have,0.023*stars,0.021*love
9,0.047*based,0.040*amazon,0.036*love,0.034*looking,0.028*scanners,0.027*nexus,0.027*rate,0.026*again,0.026*easy,0.025*way
10,0.030*flick,0.027*wonder,0.027*through,0.025*doesn't,0.024*hours,0.023*not,0.022*twice,0.022*any,0.021*help,0.021*can
11,0.046*within,0.035*more,0.033*request,0.033*help,0.033*first,0.030*developers,0.029*wonder,0.025*through,0.024*developer,0.024*this
12,0.061*based,0.056*me,0.046*stars,0.035*again,0.028*be,0.026*up,0.023*request,0.021*so,0.021*other,0.021*books
13,0.054*now,0.046*not,0.032*doesn't,0.031*stock,0.028*my,0.028*various,0.027*good,0.026*the,0.026*7,0.023*exactly
14,0.042*love,0.039*are,0.035*looking,0.035*something,0.033*job,0.033*for,0.029*want,0.026*other,0.022*i,0.022*books
15,0.041*absolutely,0.036*them,0.034*other,0.029*thank,0.028*book,0.026*hours,0.026*on,0.024*years,0.024*good,0.024*of
16,0.042*scanner,0.042*features,0.034*them,0.031*and,0.027*developers,0.027*you,0.026*books,0.024*up,0.024*nexus,0.022*they
17,0.045*5,0.039*do,0.036*will,0.036*so,0.032*flick,0.030*redo,0.027*love,0.027*quickly,0.024*logged,0.024*please
18,0.035*developer,0.034*very,0.033*are,0.031*feature,0.029*various,0.028*this,0.026*through,0.025*so,0.023*helped,0.023*way
19,0.035*through,0.033*7,0.028*more,0.028*stock,0.025*in,0.024*of,0.021*features,0.021*any,0.021*missing,0.019*up
