Topic Index 1,Topic Index 2,Topic Similarity
0,0,1.0
11,2,1.0
1,1,0.0
2,3,0.0
3,4,0.0
4,5,0.0
5,6,0.0
6,7,0.0
7,8,0.0
8,9,0.0
9,10,0.0
10,11,0.0
12,12,0.0
13,13,0.0
14,14,0.0
15,15,0.0
16,16,0.0
17,17,0.0
18,18,0.0
19,19,0.0
