remove executable from,f,2013/12/26,,
add cleanup,b,2013/12/15,,
fix crash due to 19 version 24,b,2013/12/15,,
version 23,f,2013/12/15,,
removed icon transparency,b,2013/12/14,,
new icon,b,2013/12/14,,
update,b,2013/10/17,,
update,b,2013/10/17,,
update,b,2013/9/03,,
version 22,f,2013/8/15,,
move in repository,b,2013/8/15,,
reworked and fixed,b,2013/8/15,,
fix formatting of,b,2013/8/14,,
better intent matching open from browser without intent selection fix issue 6,b,2013/8/14,,
rename copying to license,f,2013/8/08,,
update,b,2013/7/06,,
update,b,2013/7/06,,
update,b,2013/7/06,,
add link to,b,2013/7/04,,
version 21,f,2013/7/04,,
add license,f,2013/7/04,,
disable,b,2013/7/04,,
similar fix for 4,b,2013/7/04,,
test another fix for 4,b,2013/7/04,,
newest support lib,b,2013/7/04,,
a fix for 4,b,2013/7/04,,
reformat,b,2013/7/04,,
build for all architecture,f,2013/7/04,,
rename in,o,2013/7/04,,
no font package currently,b,2013/7/04,,
update description,o,2013/7/04,,
disable support,b,2013/7/04,,
renaming in about,o,2013/7/03,,
rename to document viewer,b,2013/7/03,,
rename to document viewer,b,2013/7/03,,
disable info about external font,f,2013/7/03,,
rename package name to,b,2013/7/03,,
fix to get it to build,b,2013/7/03,,
build file,b,2013/7/03,,
remove eclipse setting,b,2013/7/03,,
,o,2013/7/03,,
remove specific file,b,2013/7/03,,
move android project into subdirectory,b,2013/7/03,,
localization updated,f,2012/12/27,,
feed parsing refactoring,f,2012/12/25,,
fix attribute parsing,b,2012/12/25,,
code synchronization,b,2012/12/24,,
native code cleanup,b,2012/12/24,,
refactoring,o,2012/12/24,,
minor change,b,2012/12/24,,
164 development started,o,2012/12/24,,
version updated,b,2012/12/21,,
workaround,o,2012/12/21,,
minor change,b,2012/12/20,,
native code cleanup,b,2012/12/20,,
,o,2012/12/18,,
about activity,o,2012/12/11,,
fix default texture size in preference,b,2012/12/11,,
change default texture size,b,2012/12/11,,
minor change,b,2012/12/11,,
fix scrolling,b,2012/12/11,,
code cleanup,b,2012/12/10,,
fix default value for imported book setting,b,2012/12/07,,
debug logging removed,b,2012/12/06,,
163 development started,o,2012/12/06,,
version changed,b,2012/12/06,,
fix switching from empty recent shelf,b,2012/12/06,,
fix outline tree creation,f,2012/12/05,,
fix directory scanning,b,2012/12/05,,
fix compatibility problem,b,2012/12/05,,
code refactoring,b,2012/12/04,,
disable debug logging,b,2012/12/03,,
code refactoring,b,2012/12/03,,
do not show link for empty page,b,2012/12/02,,
decoding on scroll preference added,f,2012/12/01,,
attempt to fix delay book loading,b,2012/11/30,,
162 development started,o,2012/11/30,,
version changed,b,2012/11/30,,
remove error escalation,b,2012/11/30,,
improved configuration chooser,f,2012/11/29,,
build script,f,2012/11/29,,
localization updated,f,2012/11/29,,
add version code to stack trace log,b,2012/11/29,,
natural curler removed,f,2012/11/29,,
fix market issue,b,2012/11/29,,
161 development started,o,2012/11/28,,
localization updated,f,2012/11/28,,
resource updated,b,2012/11/28,,
performance setting adjusted,b,2012/11/28,,
fix key processing search field is visible,f,2012/11/27,,
localization updated,f,2012/11/27,,
force action added,o,2012/11/27,,
localization updated,f,2012/11/27,,
show notification preference added,f,2012/11/27,,
market folder moved into art one,o,2012/11/27,,
text markup refactoring,f,2012/11/26,,
code refactoring,b,2012/11/26,,
recent item restyled,f,2012/11/26,,
code refactoring,b,2012/11/23,,
code cleanup,b,2012/11/23,,
fix cropping of inner node for page,b,2012/11/22,,
code refactoring,b,2012/11/22,,
fix background page drawing for curler,b,2012/11/22,,
localization updated,f,2012/11/22,,
merged with branch,f,2012/11/22,,
direct buffer temporary switched off,b,2012/11/22,,
storage menu preference decorated,b,2012/11/21,,
localization updated,f,2012/11/21,,
medium tracking implemented,b,2012/11/21,,
storage for android 3 tablet,b,2012/11/21,,
added,b,2012/11/20,,
performance preference removed,b,2012/11/19,,
fix for flickering activity on docked and some other device,f,2012/11/16,,
rendering is used in public version,b,2012/11/16,,
fragment renamed,f,2012/11/16,,
rendering is used in public version,b,2012/11/16,,
view,b,2012/11/15,,
view,b,2012/11/15,,
view,b,2012/11/15,,
view,b,2012/11/15,,
view,b,2012/11/15,,
view,b,2012/11/15,,
view,b,2012/11/15,,
view,b,2012/11/14,,
view,b,2012/11/14,,
view,b,2012/11/14,,
view,b,2012/11/13,,
view,b,2012/11/13,,
view,b,2012/11/13,,
remove debug logging,b,2012/11/13,,
memory usage optimization,b,2012/11/13,,
localization updated,f,2012/11/12,,
memory usage optimization,b,2012/11/12,,
support,b,2012/11/12,,
view,b,2012/11/09,,
memory usage optimization,b,2012/11/09,,
view,b,2012/11/08,,
view,b,2012/11/08,,
view,b,2012/11/08,,
support,b,2012/11/07,,
stop scanner on exit,b,2012/11/06,,
157 development started,o,2012/11/06,,
parser improved,f,2012/11/02,,
fix compilation error,b,2012/11/02,,
build property updated,f,2012/11/02,,
show preference on tablet and only in landscape,b,2012/11/02,,
code refactoring action fix,b,2012/11/02,,
code refactoring,b,2012/10/31,,
rotation mode preference is moved to rendering setting page,f,2012/10/31,,
replace task progress dialog with alert one,f,2012/10/31,,
all menu action available to bind,o,2012/10/31,,
fix poem author text size in note,b,2012/10/31,,
fix new recent thumbnail,b,2012/10/30,,
capitalize bookmark title,o,2012/10/30,,
fix via dirty hack,b,2012/10/30,,
little fix,b,2012/10/30,,
open book at bookmark,o,2012/10/24,,
localization updated,f,2012/10/24,,
localization updated please check two conflict resolved,b,2012/10/23,,
localization updated,f,2012/10/23,,
open book at bookmark,o,2012/10/23,,
goto bookmark,f,2012/10/23,,
localization updated,f,2012/10/23,,
goto bookmark,f,2012/10/23,,
possible fix for 345,b,2012/10/23,,
can have side effect on high zoom level not all node ha bitmap but for full decoded page,b,2012/10/23,,
fix,b,2012/10/22,,
goto bookmark,f,2012/10/22,,
localization updated,f,2012/10/19,,
localization added,f,2012/10/19,,
fix default locale switching,b,2012/10/19,,
localization updated,f,2012/10/18,,
156 development started,o,2012/10/17,,
fix formatting error,b,2012/10/17,,
code refactoring,b,2012/10/17,,
build property updated,f,2012/10/17,,
155 development started,o,2012/10/17,,
build property updated,f,2012/10/17,,
and localization updated to reflect crop necessity of single page mode,f,2012/10/15,,
other minor modification added,f,2012/10/15,,
154 development started,o,2012/10/12,,
build property updated,f,2012/10/12,,
about updated,b,2012/10/12,,
localization updated,f,2012/10/12,,
layout updated,f,2012/10/12,,
resource updated,b,2012/10/12,,
localization updated,f,2012/10/12,,
processing of option menu item,b,2012/10/11,,
support library updated,f,2012/10/11,,
fix on recent activity loading,b,2012/10/11,,
fix compatibility error,b,2012/10/09,,
fixed,b,2012/10/09,,
localization updated,f,2012/10/09,,
resource updated,b,2012/10/09,,
edit bookmark name on double click,b,2012/10/08,,
scroll bookmark name on long click,b,2012/10/08,,
uploaded and updated icon source for thumbnail,b,2012/10/05,,
resource updated,b,2012/10/03,,
replaced old icon source with newer version directly in and folder,b,2012/10/03,,
added reminder for remaining graphical element to convert,f,2012/10/03,,
ant script refactoring,f,2012/10/02,,
debug logging in db manager off,b,2012/10/02,,
optimization,o,2012/10/02,,
browser up state,b,2012/10/01,,
resource updated,b,2012/10/01,,
resource updated,b,2012/10/01,,
localization updated,f,2012/10/01,,
disabled up next and previous icon source added,b,2012/10/01,,
darker folder for updated icon for menu reduced size of triangle,b,2012/9/30,,
reverse iterator used,f,2012/9/28,,
empty page removed,b,2012/9/28,,
support for note in paragraph,b,2012/9/28,,
gradient removed from outline item background,b,2012/9/28,,
new project version definition and are removed from the manifest file and defined in the file,b,2012/9/28,,
to luminance calculated for tap are not full page,f,2012/9/28,,
dialog restyled,f,2012/9/28,,
resource updated,b,2012/9/27,,
dialog restyled,f,2012/9/27,,
resource updated,b,2012/9/27,,
resource updated,b,2012/9/27,,
fix icon for browser up menu item,b,2012/9/26,,
changing icon for split page menu item,b,2012/9/26,,
resource updated,b,2012/9/26,,
recent and outline icon updated,b,2012/9/26,,
cover loading fix,b,2012/9/25,,
,o,2012/9/25,,
fix for notification,b,2012/9/25,,
fix for zoomed cropping,b,2012/9/25,,
localization updated,f,2012/9/24,,
new viewer menu,b,2012/9/24,,
resource updated,b,2012/9/24,,
unused import removed,f,2012/9/24,,
localization updated,f,2012/9/24,,
add slow algorithm option to type specific setting,b,2012/9/24,,
running task in thread become synchronized,b,2012/9/24,,
title visibility item added into the fast setting,b,2012/9/24,,
fix for page visibility on scroll,b,2012/9/24,,
recent activity menu updated,b,2012/9/21,,
activity changed,b,2012/9/21,,
resource updated,b,2012/9/21,,
resource updated,b,2012/9/21,,
resource updated,b,2012/9/21,,
localization updated,f,2012/9/21,,
updated file about font and thanks,f,2012/9/20,,
new menu structure for android 3 tablet,b,2012/9/20,,
menu item added,b,2012/9/20,,
fix document info loading,b,2012/9/20,,
application icon added for spec,b,2012/9/19,,
new menu structure for android 3 tablet,b,2012/9/19,,
fix dependence,b,2012/9/19,,
old resource removed,b,2012/9/19,,
outline page number,b,2012/9/19,,
book rotation mode,f,2012/9/17,,
localization updated,f,2012/9/17,,
localization improved,f,2012/9/17,,
resource updated,b,2012/9/17,,
localization updated,f,2012/9/17,,
notification,b,2012/9/12,,
native texture,b,2012/9/11,,
fix link,b,2012/9/11,,
localization added,f,2012/9/10,,
153 development started,o,2012/9/08,,
minor fix,b,2012/9/07,,
change project version in manifest,b,2012/9/07,,
ant task renamed,f,2012/9/07,,
localization updated,f,2012/9/07,,
minor fix,b,2012/9/07,,
improves cache relocation,b,2012/9/05,,
fix for tablet,b,2012/9/04,,
improves cache relocation,b,2012/9/03,,
localization updated,f,2012/9/03,,
positive image implemented for,b,2012/9/03,,
positive image implemented for,b,2012/9/03,,
logging fixed,b,2012/9/03,,
cover creation fixed,o,2012/9/03,,
book default setting fixed,b,2012/9/03,,
search fix,b,2012/9/03,,
alternative file cache location,b,2012/9/02,,
alternative file cache location added,b,2012/9/02,,
positive picture in night mode,b,2012/9/01,,
positive picture in night mode,b,2012/9/01,,
need add check and set variable according to it,b,2012/9/01,,
feature,o,2012/8/31,,
rotation fix,f,2012/8/30,,
fix and refactoring,b,2012/8/30,,
localization updated,f,2012/8/29,,
fix for section level,b,2012/8/29,,
thumbnail loading,b,2012/8/29,,
experimental book setting refactoring,b,2012/8/29,,
add support for tag,f,2012/8/28,,
workaround for invalid produced by,b,2012/8/28,,
task executor added to provide parallel download,f,2012/8/28,,
152 development started,o,2012/8/23,,
change project version in manifest,b,2012/8/23,,
localization actualized,f,2012/8/22,,
localization updated,f,2012/8/21,,
localization actualized,f,2012/8/21,,
correct name,b,2012/8/21,,
book setting backup preference added,b,2012/8/21,,
setting,b,2012/8/21,,
localization actualized,f,2012/8/21,,
localization updated,f,2012/8/21,,
language preference added,f,2012/8/21,,
merged from branch,f,2012/8/16,,
fix various issue from market,b,2012/8/16,,
151 development started,o,2012/8/15,,
change project version in manifest,b,2012/8/15,,
localization updated,f,2012/8/15,,
output removed,f,2012/8/15,,
backup dialog fixed,b,2012/8/15,,
font pack reminder added,f,2012/8/15,,
definition on to several part,o,2012/8/13,,
new experimental parser,f,2012/8/08,,
callback,o,2012/8/07,,
fix showing page number title,b,2012/8/07,,
switch title setting context view,b,2012/8/07,,
build added,f,2012/8/06,,
new preference structure,f,2012/8/06,,
fix possible,b,2012/8/06,,
improve db performance,b,2012/8/02,,
first download to temp file then rename to destination,f,2012/8/02,,
browser,b,2012/8/01,,
browser,b,2012/8/01,,
weak storage for text search match,b,2012/8/01,,
prevent,f,2012/8/01,,
browser,b,2012/7/31,,
remove password from debug log,b,2012/7/31,,
browser,b,2012/7/31,,
browser,b,2012/7/30,,
remove vibration flag from notification,f,2012/7/30,,
little improvement,f,2012/7/26,,
fixed text paint key calculation,b,2012/7/26,,
font management added,f,2012/7/25,,
arm mode is used for because generates normal code for,b,2012/7/25,,
actual code migrated from template,b,2012/7/24,,
font preference localization added,f,2012/7/24,,
and font preference added,f,2012/7/24,,
resource fixed,b,2012/7/23,,
notification manager,b,2012/7/19,,
file filter,f,2012/7/19,,
add setting listener to application object,b,2012/7/19,,
number of auto backup preference added,b,2012/7/19,,
auto backup process fixed,b,2012/7/19,,
file filter fixed,b,2012/7/19,,
prevent access to page object for,f,2012/7/18,,
code,b,2012/7/18,,
code,b,2012/7/18,,
localization updated,f,2012/7/17,,
remove launch category from,f,2012/7/17,,
context menu,b,2012/7/17,,
controller extracted from,b,2012/7/17,,
experimental parallel access to page,f,2012/7/17,,
fix code page locking,b,2012/7/17,,
localization fixed,b,2012/7/16,,
file formatted,b,2012/7/16,,
restore fix,o,2012/7/16,,
restoring of value fixed,b,2012/7/14,,
support for additional key added,f,2012/7/13,,
compatibility with android 15 fixed,b,2012/7/13,,
localization file synchronized with default one,b,2012/7/13,,
dialog preference and localization update,f,2012/7/13,,
localization improvement lint fix,f,2012/7/12,,
fix lint warning,b,2012/7/12,,
fix lint warning,b,2012/7/12,,
fix usage of browser depending on android version,b,2012/7/12,,
remove unused import,f,2012/7/12,,
action added,o,2012/7/11,,
,o,2012/7/11,,
thumbnail loading fixed,b,2012/7/11,,
thumbnail loading fixed,b,2012/7/11,,
fix book setting restoring,b,2012/7/11,,
layout improvement,f,2012/7/11,,
improvement experimental tablet view layout menu for,b,2012/7/10,,
setting,b,2012/7/10,,
context menu,b,2012/7/09,,
seek bar improved in the dialog,f,2012/7/09,,
seek bar improved in the dialog,f,2012/7/09,,
fix,b,2012/7/09,,
fix,b,2012/7/08,,
context menu,b,2012/7/08,,
action definition updated,f,2012/7/05,,
storage size preference added,f,2012/7/03,,
refuse debug logging,b,2012/7/03,,
navigation preference added,f,2012/7/03,,
book search,o,2012/7/03,,
branch merged,f,2012/7/03,,
sleep in loop moved to native code,b,2012/7/02,,
sleep in loop moved to native code,b,2012/7/02,,
password request,b,2012/6/28,,
debug book option removed,f,2012/6/26,,
book context menu,o,2012/6/25,,
lock support added,b,2012/6/20,,
fix for zoom roll commit zoom,f,2012/6/19,,
heap preallocation,b,2012/6/19,,
make preference in memory management,b,2012/6/19,,
book context menu,o,2012/6/07,,
model extracted into separated package,b,2012/6/07,,
book context menu,o,2012/6/06,,
refactoring,o,2012/6/06,,
color preference widget improvement,f,2012/6/06,,
fix for initialization,b,2012/6/04,,
book context menu,o,2012/6/01,,
full rotation mode implementation,f,2012/5/31,,
book context menu,o,2012/5/26,,
book context menu,o,2012/5/26,,
fix,b,2012/5/26,,
activity controller refactoring,b,2012/5/26,,
book context menu,o,2012/5/25,,
book context menu,o,2012/5/25,,
book context menu,o,2012/5/25,,
book context menu,o,2012/5/24,,
fix minor bug,b,2012/5/23,,
setting refactoring,b,2012/5/22,,
fix for bringing to front viewer home,b,2012/5/22,,
setting,b,2012/5/22,,
setting refactoring,b,2012/5/22,,
top activity,o,2012/5/22,,
branch merged into trunk,f,2012/5/22,,
search implemented,b,2012/5/21,,
fix search behavior,b,2012/5/21,,
extra data in intent,b,2012/5/10,,
221,o,2012/5/10,,
fix outline current position,b,2012/4/28,,
treelike outline,f,2012/4/28,,
table almost done,f,2012/4/27,,
table,f,2012/4/26,,
hyphenation,o,2012/4/26,,
change project version in manifest,b,2012/4/26,,
,o,2012/4/25,,
partial sync with branch,b,2012/4/23,,
change project file,b,2012/4/21,,
context menu merged from branch,b,2012/4/21,,
search feature merged from refactoring branch,f,2012/4/19,,
142 development started,o,2012/4/19,,
fix lint warning,b,2012/4/18,,
fix clip,b,2012/4/13,,
common code migrated from 15 branch,b,2012/4/12,,
preference added,f,2012/4/12,,
,o,2012/4/10,,
fix compilation problem,b,2012/4/09,,
force orientation of preference activity in book viewer,f,2012/4/09,,
synchronized with,b,2012/4/03,,
added,b,2012/4/03,,
touch configuration dialog layout fix,o,2012/4/03,,
no animation on scrolling feature added,f,2012/4/02,,
zoom round change,f,2012/3/27,,
catch draw exception,o,2012/3/27,,
141 development started,o,2012/3/26,,
for,o,2012/3/26,,
translation,o,2012/3/26,,
merged branch,f,2012/3/26,,
merged branch,f,2012/3/26,,
merged branch,f,2012/3/26,,
fix book setting storing,b,2012/1/30,,
fix page visibility,b,2012/1/30,,
fixed,b,2012/1/27,,
update library,b,2012/1/27,,
memory management page drawing improved,b,2012/1/27,,
refactoring interface extracted,b,2012/1/27,,
dialog,o,2012/1/26,,
info,o,2012/1/26,,
memory management page drawing improved,b,2012/1/26,,
memory management page drawing improved,b,2012/1/26,,
remove output,f,2012/1/26,,
drawing fix,b,2012/1/26,,
memory management fix,b,2012/1/25,,
fixed,b,2012/1/25,,
fix debug logging,b,2012/1/25,,
fixed,b,2012/1/24,,
the header is removed from stream,b,2012/1/24,,
133 development started,o,2012/1/24,,
update and increase version in manifest,b,2012/1/24,,
132 release,f,2012/1/24,,
experimental native compiler option,b,2012/1/24,,
bitmap memory management improved,b,2012/1/24,,
remove logging message,b,2012/1/24,,
position inside the page,b,2012/1/23,,
bitmap memory management improved,b,2012/1/23,,
bitmap memory management improved,b,2012/1/23,,
logging fixed,b,2012/1/23,,
little refactoring,f,2012/1/23,,
drawing line replaced by drawing for better zooming,b,2012/1/23,,
processing improved,f,2012/1/22,,
experimental page rendering,f,2012/1/22,,
do not add empty image,b,2012/1/22,,
fixed,b,2012/1/22,,
update,b,2012/1/20,,
fix compilation error,b,2012/1/20,,
scrolling removed,f,2012/1/20,,
key are now working volume one in configurable scroll mode,o,2012/1/20,,
variable added for build,b,2012/1/20,,
patch for applied,f,2012/1/20,,
variable added for build,b,2012/1/20,,
returning back to upstream,b,2012/1/20,,
multiple body document support added for,b,2012/1/19,,
note markup changed,b,2012/1/19,,
resource corrected,b,2012/1/19,,
memory usage reduced,b,2012/1/17,,
catch on node image splitting,b,2012/1/17,,
fix,b,2012/1/17,,
localization,o,2012/1/17,,
remove page cache and for viewed attachment on viewer closing,b,2012/1/16,,
increase version in manifest,b,2012/1/16,,
about menu item added to recent browser activity,b,2012/1/16,,
fix page,b,2012/1/16,,
fix page,b,2012/1/16,,
fix formatting,b,2012/1/16,,
loading from,b,2012/1/16,,
about dialog changed,b,2012/1/16,,
about dialog changed,b,2012/1/16,,
use native memory to store text,b,2012/1/15,,
set install location to auto,b,2012/1/14,,
some native code change for display,b,2012/1/14,,
some error handling added,b,2012/1/14,,
change background color for outline item,f,2012/1/13,,
memory cleaning,b,2012/1/13,,
comment out some debug log message,b,2012/1/13,,
outline,o,2012/1/13,,
some lint warning fixed,b,2012/1/13,,
restyled about dialog,f,2012/1/13,,
merged with branch,f,2012/1/13,,
iterator fix,b,2012/1/13,,
preference added,f,2012/1/12,,
fixed,b,2012/1/12,,
bookshelf library improvement,f,2012/1/12,,
us iteration instead of recursion,f,2012/1/12,,
speed optimization,b,2012/1/12,,
131 development started,o,2012/1/12,,
temporary remove support,b,2012/1/11,,
fix for painting,b,2012/1/11,,
fix for title line,b,2012/1/10,,
update,b,2012/1/03,,
experimental text parsing,f,2011/12/31,,
experimental text parsing,f,2011/12/31,,
speed memory improvement,b,2011/12/29,,
speed memory improvement,b,2011/12/29,,
bitmap drawing improvement,b,2011/12/27,,
fix night mode drawing,b,2011/12/26,,
fixed,b,2011/12/26,,
update to latest version,b,2011/12/26,,
rescan folder and update recent list allowed file type or scanned folder setting are changed,b,2011/12/24,,
various fix for decoding drawing,b,2011/12/24,,
crop speed improvement,f,2011/12/23,,
little date fix,b,2011/12/23,,
various fixed for decoding drawing,b,2011/12/23,,
fix for bitmap splitting,b,2011/12/22,,
fix for bitmap splitting,b,2011/12/22,,
experimental splitting node image into 128128 bitmap,b,2011/12/22,,
disable debug log for,f,2011/12/22,,
reformatted,o,2011/12/22,,
remove debug log message,b,2011/12/22,,
remove system out log message,b,2011/12/22,,
bitmap method refactoring,f,2011/12/22,,
fix page node visibility,b,2011/12/21,,
fix on exit,b,2011/12/20,,
fix for page node slice,b,2011/12/20,,
fix for view mode setting,b,2011/12/20,,
fix for page node slice,b,2011/12/20,,
experimental view mode implementation horizontal scroll mode added,f,2011/12/19,,
fix and draw gray background for failed to decode page,b,2011/12/19,,
fix for,b,2011/12/16,,
about dialog,o,2011/12/15,,
show file from asset,b,2011/12/15,,
basic about dialog added,f,2011/12/15,,
long press fix,b,2011/12/14,,
added build for,f,2011/12/12,,
thumbnail creation support page,f,2011/12/12,,
bookcase,o,2011/12/11,,
experimental file scanner,b,2011/12/08,,
improvement,f,2011/12/08,,
compilation fix,b,2011/12/07,,
measure text improvement,b,2011/12/07,,
bookcase do not work on android 15,o,2011/12/05,,
disabled,b,2011/12/05,,
bookcase,o,2011/12/05,,
black screen with enabled,b,2011/12/03,,
fix call of setting listener on start,b,2011/12/02,,
bookcase,o,2011/12/02,,
cached resource bitmap,f,2011/12/02,,
,o,2011/11/30,,
add swipe for bookshelf switching to bookcase view,b,2011/11/30,,
showing option menu on long touch,b,2011/11/30,,
drag mark drawing,b,2011/11/29,,
curler fix,b,2011/11/29,,
curler fix,b,2011/11/29,,
preference refactoring,f,2011/11/29,,
remove not permission,b,2011/11/26,,
experimental switch back to view from,b,2011/11/23,,
fix for call,b,2011/11/23,,
fix compilation problem,b,2011/11/18,,
library update,b,2011/11/15,,
due this update support link in outline,b,2011/11/15,,
crop improvement,f,2011/11/13,,
in single page mode page aligned to top,b,2011/11/13,,
crop refactoring and improvement,f,2011/11/13,,
ant script change,f,2011/11/11,,
ant script change,f,2011/11/11,,
database change,b,2011/11/11,,
preference activity changed,b,2011/11/11,,
preference file formatted,f,2011/11/11,,
feature enabled for end user,b,2011/11/10,,
database upgrade,b,2011/11/09,,
remove touch action showing touch manager view,b,2011/11/09,,
page cropping,b,2011/11/08,,
action,o,2011/11/07,,
cropping,o,2011/11/07,,
action,o,2011/11/03,,
action,o,2011/11/03,,
action,o,2011/11/01,,
fix compilation problem,b,2011/11/01,,
experimental fix for initial book loading,b,2011/10/31,,
experimental fix for initial book loading,b,2011/10/31,,
fix for bookshelf preference,b,2011/10/31,,
experimental fix for initial book loading,b,2011/10/31,,
experimental fix for initial book loading,b,2011/10/31,,
fix canvas pixel format for native bitmap,b,2011/10/31,,
clear recent improvement,b,2011/10/28,,
added mode for scaler,f,2011/10/28,,
enable page cache,b,2011/10/28,,
action,o,2011/10/28,,
fix view controller initialization,b,2011/10/28,,
action,o,2011/10/28,,
action,o,2011/10/26,,
property,o,2011/10/26,,
,o,2011/10/26,,
enable page cache back and code cleanup,b,2011/10/26,,
bitmap if new zoom level is more 120 of previous one,f,2011/10/26,,
update to version 247 remove not needed file,b,2011/10/25,,
build adopted to latest,f,2011/10/25,,
formatting applied,f,2011/10/25,,
,o,2011/10/25,,
rotation implemented,f,2011/10/25,,
rotation,f,2011/10/25,,
rotation,f,2011/10/25,,
,o,2011/10/24,,
experimental rotation feature,f,2011/10/24,,
implement switching between bookshelf and old mode,b,2011/10/18,,
drag icon added zoomed page can be dragged,b,2011/10/18,,
curler refactoring,f,2011/10/17,,
curler refactoring,f,2011/10/17,,
touch refactoring,o,2011/10/17,,
refactoring,o,2011/10/17,,
refactoring,o,2011/10/17,,
refactoring,o,2011/10/17,,
from,o,2011/10/11,,
increase version,b,2011/10/11,,
removing code page reference from decode service cache,b,2011/10/01,,
field name fixed,b,2011/9/30,,
option added,f,2011/9/30,,
remove duplicated flag,o,2011/9/30,,
fix password request,b,2011/9/29,,
recycling fix,b,2011/9/29,,
use to memory usage,b,2011/9/29,,
bookcase,o,2011/9/28,,
ant script and setting fixed,b,2011/9/28,,
ant script and setting are updated,b,2011/9/28,,
fixed,b,2011/9/27,,
update,b,2011/9/26,,
from branch fix,b,2011/9/26,,
memory fixed,b,2011/9/13,,
minor change,b,2011/9/13,,
fix,b,2011/9/13,,
alternative,b,2011/9/13,,
code cleanup,b,2011/9/12,,
remove for,b,2011/9/12,,
it cause error in android 16,o,2011/9/12,,
fixed height and width for page info,b,2011/9/12,,
issue 49 prevents layout changed on main menu in,b,2011/9/08,,
version set to 120,f,2011/9/07,,
version code increased,b,2011/9/07,,
issue 34 47 zoom fix,f,2011/9/06,,
fixed,b,2011/9/05,,
issue 34 fix for layout change,b,2011/9/05,,
returning back to library view,b,2011/9/05,,
returning back to library view,b,2011/9/05,,
fix goto page issue,b,2011/9/02,,
fix decoding order in single mode,o,2011/9/02,,
fix resolution on page,b,2011/9/02,,
fix decoding order in mode,o,2011/9/02,,
decoding background not shown,b,2011/9/02,,
fix,b,2011/9/02,,
memory setting changed the replaces both native and,b,2011/9/02,,
final method,o,2011/9/02,,
curler visibility fix,b,2011/9/02,,
code refactoring cleanup,b,2011/9/01,,
remove unnecessary debug log,o,2011/9/01,,
fix single page mode decoding,b,2011/9/01,,
nonvolatile added to provide decoding and drawing with the same view setting,b,2011/9/01,,
update recent back from viewer fixed,b,2011/9/01,,
added bitmap format check in,b,2011/9/01,,
experimental use of bitmap for render page,b,2011/9/01,,
little fix,b,2011/9/01,,
added native free for library,b,2011/9/01,,
not used yet,o,2011/9/01,,
performance fix,b,2011/9/01,,
the same zoom factor is used on draw,b,2011/9/01,,
minor fix,b,2011/9/01,,
decoding order rewritten,o,2011/9/01,,
check for available on runtime,b,2011/9/01,,
need additional test,b,2011/9/01,,
native graphic ready to use,b,2011/9/01,,
native graphic ready to use,b,2011/8/31,,
native graphic ready to use,b,2011/8/31,,
fix,b,2011/8/31,,
ant change,b,2011/8/31,,
experimental feature for device with large heap decode page at native resolution,b,2011/8/31,,
increase version,b,2011/8/30,,
error logging added,b,2011/8/29,,
fix for global setting changed,b,2011/8/29,,
minor fix,b,2011/8/29,,
cleanup,b,2011/8/28,,
do not show,o,2011/8/28,,
make show hidden folder configurable,f,2011/8/28,,
version changed,b,2011/8/28,,
issue 29 both key tap scroll fixed,b,2011/8/28,,
issue 29 fixed,b,2011/8/28,,
issue 33 implementation added and commented due to crash,b,2011/8/28,,
night mode fix,b,2011/8/28,,
fixed issue on book preference edit,b,2011/8/28,,
bookmark stored into db page index book setting added into main menu,b,2011/8/26,,
dialog change,b,2011/8/26,,
added progress bar scanning,f,2011/8/26,,
invalidate page size on zoom optimization,f,2011/8/26,,
the is used for log storage,b,2011/8/25,,
removed watched from recent and browser,b,2011/8/25,,
to slow render view recent more then 1000,b,2011/8/25,,
recent it already watched,b,2011/8/25,,
scroll limit into one call,b,2011/8/24,,
preference summary includes pref value,b,2011/8/24,,
synchronization added,b,2011/8/24,,
book setting opened long click on recent book item,b,2011/8/23,,
added caching for page info,f,2011/8/23,,
memory preference moved into separated screen,b,2011/8/23,,
minor fix,b,2011/8/23,,
workaround for in,o,2011/8/23,,
minor speed optimization,b,2011/8/23,,
minor speed optimization,b,2011/8/23,,
write into possible,o,2011/8/23,,
fixed,b,2011/8/22,,
prevented,o,2011/8/22,,
adaptive decoding order implemented,b,2011/8/22,,
fix for size calculation,b,2011/8/22,,
new page tree node,b,2011/8/22,,
become static wrapper initialized from application,f,2011/8/22,,
new icon added for recent book,b,2011/8/22,,
code refactoring,b,2011/8/22,,
reference to removed,f,2011/8/22,,
fixed android 15 compatibility,b,2011/8/22,,
store file list array,f,2011/8/21,,
remove information about book and folder in,f,2011/8/21,,
reason some application create folder with lot of file counting this file can take a lot of time,f,2011/8/21,,
disable,b,2011/8/21,,
currently not store file in private space also in some device,b,2011/8/21,,
need additional work,b,2011/8/21,,
changed for recent and browser activity,b,2011/8/20,,
added missed resource,f,2011/8/20,,
display recent activity book closed,b,2011/8/20,,
rename exit to close in main menu,b,2011/8/20,,
use finish instead,b,2011/8/20,,
android close needed,b,2011/8/20,,
exit to close,b,2011/8/20,,
some code refactoring,b,2011/8/20,,
version increased,b,2011/8/20,,
new file implementation,b,2011/8/20,,
code cleanup,b,2011/8/20,,
update,b,2011/8/20,,
application added,o,2011/8/19,,
fix for loading order,b,2011/8/18,,
brightness getter optimization and code cleanup,b,2011/8/18,,
bitmap usage optimization,b,2011/8/18,,
loading order optimization,b,2011/8/18,,
rendering in scroll mode fixed,b,2011/8/18,,
on each zoom change removed,f,2011/8/18,,
unused code removed,b,2011/8/18,,
intermediate draw event are skipped,f,2011/8/18,,
from book position and zoom fixed,b,2011/8/18,,
zoom view now can be viewed switch,f,2011/8/18,,
old page node are recycled switch,b,2011/8/18,,
speed up get page info for page,b,2011/8/17,,
data synchronization in animation,b,2011/8/17,,
minor drawing fix,b,2011/8/17,,
integrated in trunk,f,2011/8/17,,
increase version number,b,2011/8/17,,
rendering revamped,f,2011/8/16,,
view replaced by with drawing,b,2011/8/16,,
size changed,b,2011/8/15,,
size and pad changed,b,2011/8/15,,
bar button added to,f,2011/8/15,,
new icon added for watched folder,b,2011/8/15,,
browser view extracted from,b,2011/8/15,,
utility class added,f,2011/8/15,,
add and remove directory scan list,f,2011/8/15,,
some code simplification,b,2011/8/14,,
menu action for activity are duplicated in,o,2011/8/14,,
mapping file extension to activity class moved into new activity,o,2011/8/13,,
set for browser and recent,b,2011/8/12,,
added menu for folder in browser,b,2011/8/12,,
not implemented yet,b,2011/8/12,,
menu for browser and for recent file,b,2011/8/12,,
new style of file browser,f,2011/8/12,,
update library adapter by 10 new file,b,2011/8/12,,
change view in,b,2011/8/12,,
improved test library support added,b,2011/8/11,,
file formatted,b,2011/8/11,,
added menu,b,2011/8/11,,
added new recent activity with action bar,f,2011/8/11,,
android version support added,b,2011/8/11,,
changing fixed,b,2011/8/11,,
layer support,b,2011/8/11,,
reviewed menu file,b,2011/8/11,,
added menu compatible with,b,2011/8/11,,
some change in new recent,b,2011/8/10,,
we must accept it or reject,f,2011/8/10,,
zoom stored for book,f,2011/8/10,,
setting added,b,2011/8/10,,
full screen issue fixed,b,2011/8/10,,
fixed potential memory leak,b,2011/8/10,,
remove print and save function from,b,2011/8/10,,
testing,o,2011/8/10,,
animation type allowed for book,f,2011/8/10,,
show into function,b,2011/8/10,,
fixed crash document prompt password or file corrupted,b,2011/8/10,,
animation type preference added,f,2011/8/09,,
fixed setting processing,b,2011/8/09,,
file added,b,2011/8/09,,
setting activity fixed,b,2011/8/09,,
book setting added,b,2011/8/09,,
added outline support,f,2011/8/09,,
show title preference become true by default,b,2011/8/09,,
caching image removed,f,2011/8/08,,
fix forced rotation,b,2011/8/08,,
some debug disabled,b,2011/8/06,,
fixed crash open document with password,b,2011/8/06,,
menu icon added,b,2011/8/05,,
updated icon,b,2011/8/05,,
source added,b,2011/8/04,,
fixed for and,b,2011/8/03,,
new application icon,b,2011/8/03,,
refactoring,o,2011/8/03,,
update,b,2011/8/03,,
fro and,o,2011/8/03,,
proper clear page,f,2011/8/03,,
document,o,2011/8/03,,
next refactoring step,o,2011/8/02,,
,o,2011/8/02,,
code formatting and cleanup,b,2011/8/02,,
import order defined,f,2011/8/02,,
eclipse setting changed,b,2011/8/01,,
curler fix,b,2011/8/01,,
update,b,2011/8/01,,
changed version,b,2011/8/01,,
