super it o,o,2015-03-07,J koushik,5
nice to view doc,o,2015-03-06,Om Singh Shekhawat,3
i hit the file i want to the close automatically,b,2015-02-26,Donna Marie De Guzman,1
,o,2015-02-26,ravi borigorla,5
file opening,o,2015-02-26,ravi borigorla,5
reader finally i needed it the most,o,2015-02-10,Sam Gamestr,5
nice,o,2015-02-10,Dipen Patel,5
it wonderful,o,2015-02-10,Tumwebaze Bruce,5
very good,o,2015-02-08,Rahul Kaparwan,5
finally some thing i can use and needed,o,2015-02-02,Kristina Mudrick,5
is great,o,2015-02-01,,5
,o,2015-01-29,Dev raj sharma,5
got get love,o,2015-01-28,Midnight*soN 3210____,5
comment,b,2015-01-28,A Google User,5
read all format including,b,2015-01-26,akshay p nair,5
very useful,o,2015-01-22,Hafiz bn Adam,5
i install it is very helpful for guy download i sure you like it,o,2015-01-21,James Gimpayan,5
this is a superb,o,2015-01-10,Mike Drago,5
the best,o,2015-01-10,Maulud Ali,4
love it,o,2015-01-08,Latoya Goodman,4
nice,o,2015-01-02,NYASHA DARITSO,5
useless,o,2014-12-16,andres bulate,1
excellent,o,2014-12-13,Promila Iyer,5
good,o,2014-12-13,Arslan Mehmood,5
will not open doc on x,b,2014-12-08,Bob Bobics,2
nice to read format,o,2014-12-04,Mahesh Chittoju,4
no good,o,2014-12-04,John Claes,1
very good for file,o,2014-12-04,Nauman Anjum,5
i it,o,2014-11-24,Chann Chhoun,1
,o,2014-11-24,brajendra singh,4
good document viewer which support format,b,2014-11-24,Rajesh KM,4
great,o,2014-11-22,Sanjiv kumar singh,5
it really very,o,2014-11-21,Monika S,5
thanks document viewer,o,2014-11-15,Abhishek kirar,4
love the,o,2014-11-15,mandeep singh,5
nice,o,2014-11-11,Ericky Boniface,4
simple to view all document type,b,2014-11-11,sathish kumar,5
good i like it,o,2014-11-11,Haresh Vaghela,5
very good,o,2014-11-03,Mohamed Abd Elbaset,5
it stand alone with out connection,o,2014-11-03,Mohamed Abd Elbaset,5
store,o,2014-11-02,Quimbonti Emmanuel,5
nice job,o,2014-10-30,Aminullah Agha,5
document do not open,o,2014-10-29,M Dillon,1
i found a viewer and it work pretty fine for me,b,2014-10-26,,5
more or le good,o,2014-10-24,Soumyadeep Bhowmick,2
it is better to view any,b,2014-10-23,suman kumar,4
it work,o,2014-10-19,Lauri Liikane,5
,o,2014-10-10,vishal maurya,1
best,o,2014-10-05,A Google User,5
product ops,o,2014-10-02,shital dave,5
team,o,2014-10-02,shital dave,5
good,o,2014-09-30,MD SOHAG,4
it is the best,o,2014-09-30,mwai muchira,4
this help me to open doc easily make it like book,o,2014-09-29,Patricia Setiawaty,4
good job,o,2014-09-29,Patricia Setiawaty,4
,o,2014-09-24,Naveed Alam Humayun,5
wa extremely hard to find a i stumbled onto this,b,2014-09-24,Siddhartha Khanooja,5
thanks a and i will definitely donate in the future,f,2014-09-24,Siddhartha Khanooja,5
cool,o,2014-09-23,joemin babac,5
i love it,o,2014-09-23,Norman Hunter,5
your software is very useful to me,o,2014-09-21,B.MOHAMED GAZZALI. SAMSUNISA,5
urgently needed to read an file,b,2014-09-20,Jon Nixon,5
downloaded this and it worked straight away,b,2014-09-20,Jon Nixon,5
free,o,2014-09-20,Jon Nixon,5
clean interface,o,2014-09-20,Jon Nixon,5
minimal permission,b,2014-09-20,Jon Nixon,5
no ad,b,2014-09-20,Jon Nixon,5
very pleased,o,2014-09-20,Jon Nixon,5
hard to download,b,2014-09-19,Kabula Yande Chagwamnjira,4
good,o,2014-09-17,nuansa coklat,5
very good,o,2014-09-16,Hafizar Rahman,5
i f you want to view file this is a well written program,b,2014-09-15,John Rodrigues,5
congratulation to the writer,o,2014-09-15,John Rodrigues,5
exactly what i wa looking for,o,2014-09-12,Judy Riley,5
thank you,o,2014-09-12,Judy Riley,5
now i can read our company email,b,2014-09-12,Judy Riley,5
whats up with this,f,2014-09-12,Michaella Ndaye,2
best,o,2014-09-11,Shaikh huzaifa,5
to use it,o,2014-09-11,sri harsh,4
so,o,2014-09-09,Sonu Prajapat,4
hard to find an reader so i wa very happy i found this,b,2014-09-06,Sundai Veniece,4
nice,o,2014-09-04,Idowu balogun,5
saved me,o,2014-08-29,Neeraj,2
no other decent viewer,b,2014-08-29,Neeraj,2
good job man,o,2014-08-29,Neeraj,2
cheer,o,2014-08-29,Neeraj,2
work great on document,o,2014-08-27,Rai Guzman,5
good,o,2014-08-23,Chan Nyein,5
amazing nice,o,2014-08-16,Vijay Mondal,5
doe what it should without extra bloat,o,2014-08-09,Kalon Gerber,5
wonderful,o,2014-08-09,S.M Boopathy,3
thanks for including and zip,o,2014-08-07,Aashish Thakran,5
good,o,2014-08-01,Jenny Nguyen,3
i needed a way to read at night without disturbing my wife,b,2014-07-28,Dante Blando,5
i tried a few but this one got me what i sought and doe it easily,o,2014-07-28,Dante Blando,5
good,o,2014-07-08,sitha sot,3
easy to download d,o,2014-07-05,Paul Dalumpines,5
open the type of file i have,o,2014-07-02,Miranda Jacobson,3
download to read file,b,2014-06-25,Crystal Xue,5
awesome,o,2014-06-25,Crystal Xue,5
,o,2014-06-22,Zahid Ahmed Shovon,3
good,o,2014-06-21,Albus Wulfric,5
application work nicely,o,2014-06-21,Yohana Fungo,5
simple and efficient to handle mobile doc and office work,b,2014-06-18,brajesh kumar,5
work great on doc,b,2014-06-16,greg scheiszhoe,5
,o,2014-06-14,Ankit Chaurasiya,3
this is the best viewer i found,b,2014-06-07,vince bardo,5
running 442,b,2014-06-07,vince bardo,5
for this doe nothing useful,o,2014-06-04,Steve Williams,1
immediately,b,2014-05-20,Tru Esnce,1
i am like it,o,2014-05-18,khoat Van,5
downloaded the document viewer to read document unfortunately is a format not supported by,b,2014-05-16,Krystian Klima,1
it,o,2014-05-16,Krystian Klima,1
i needed an but this give error i try to open such a file,b,2014-05-14,,3
open but i have adobe this one go to the bin,f,2014-05-14,,3
also highly light on your resource,b,2014-05-13,Sajjad Kabir Joy,5
what more can be said of a viewer,o,2014-05-13,Sajjad Kabir Joy,5
,o,2014-05-05,Hannan ansari,2
easy to use,o,2014-05-03,ABDULRHMAN AB.,5
is organized,b,2014-05-03,ABDULRHMAN AB.,5
work with the most file,o,2014-05-03,ABDULRHMAN AB.,5
i love open source should work on a bit,o,2014-05-02,Gaurav Nirala,5
it would download my document but i read them,b,2014-04-27,Rachel Wallin,1
total waste,b,2014-04-27,Rachel Wallin,1
fails to open which is what i need it for,b,2014-04-18,AJ Dahl,1
better adobe reader,f,2014-04-16,usamah abdurrahman,5
,o,2014-04-14,pranav thulasidharan,5
good h,o,2014-04-11,ALFA Entertainment Channel,5
please use this is awesome,o,2014-03-27,Hemanth Yadav,5
nice,o,2014-02-17,Vijay Antonyraj,5
