Topic Index 1,Topic Index 2,Topic Similarity
0,6,17.647058823529413
9,0,11.11111111111111
15,9,11.11111111111111
1,13,5.263157894736842
2,2,5.263157894736842
3,1,5.263157894736842
4,3,5.263157894736842
5,5,5.263157894736842
6,8,5.263157894736842
7,4,5.263157894736842
8,18,5.263157894736842
10,17,5.263157894736842
11,10,5.263157894736842
16,15,5.263157894736842
17,11,5.263157894736842
12,7,0.0
13,12,0.0
14,14,0.0
18,16,0.0
19,19,0.0
