Topic,Words
0,0.053*processors,0.042*from,0.041*over,0.036*on,0.034*bean,0.031*502,0.031*made,0.030*great,0.030*is,0.028*quite
1,0.135*would,0.090*the,0.063*time,0.061*after,0.059*better,0.057*great,0.044*helpful,0.034*processors,0.032*if,0.028*work
2,0.085*flea,0.066*heads,0.050*improvement,0.046*to,0.046*would,0.044*instead,0.038*get,0.033*restarting,0.032*straight,0.027*update
3,0.065*is,0.064*who,0.052*quite,0.047*after,0.045*be,0.041*this,0.039*good,0.035*used,0.034*to,0.033*addition
4,0.055*of,0.054*nice,0.046*would,0.038*the,0.035*who,0.034*types,0.034*helpful,0.034*twitching,0.033*this,0.033*restarting
5,0.107*jelly,0.096*addition,0.061*listening,0.056*button,0.049*is,0.044*who,0.038*an,0.036*bean,0.032*you,0.028*over
6,0.102*flea,0.077*time,0.053*bean,0.050*it,0.049*made,0.047*processors,0.043*event,0.036*work,0.034*good,0.034*from
7,0.098*time,0.054*from,0.051*get,0.048*after,0.048*and,0.046*twitching,0.040*never,0.039*straight,0.038*an,0.037*benchmark
8,0.075*straight,0.068*it,0.059*better,0.055*button,0.049*nice,0.046*502,0.046*jelly,0.041*to,0.035*instead,0.035*time
9,0.101*to,0.050*would,0.047*some,0.046*jelly,0.044*listening,0.042*502,0.039*flea,0.036*bean,0.035*comment,0.028*after
10,0.096*some,0.077*64,0.058*502,0.037*benchmark,0.035*quite,0.032*after,0.032*their,0.030*instead,0.029*used,0.029*straight
11,0.077*this,0.066*if,0.062*time,0.045*on,0.044*opened,0.038*quite,0.035*improvement,0.034*502,0.031*an,0.031*flea
12,0.116*quite,0.059*it,0.058*listening,0.056*get,0.045*opened,0.042*this,0.039*addition,0.038*every,0.037*flea,0.032*if
13,0.062*instead,0.061*restarting,0.056*used,0.056*and,0.048*to,0.040*experience,0.038*opened,0.033*on,0.033*the,0.033*listening
14,0.081*over,0.078*processors,0.071*the,0.069*would,0.048*work,0.039*their,0.038*better,0.034*it,0.033*bean,0.032*502
15,0.083*listening,0.055*restarting,0.054*improvement,0.041*great,0.039*quite,0.035*event,0.034*good,0.032*502,0.032*addition,0.030*is
16,0.067*quite,0.065*definite,0.065*types,0.040*this,0.039*every,0.036*comment,0.035*some,0.034*502,0.033*nice,0.030*64
17,0.127*comment,0.064*if,0.063*instead,0.050*it,0.041*opened,0.040*of,0.039*to,0.039*and,0.030*good,0.029*never
18,0.054*comment,0.052*on,0.048*opened,0.047*it,0.045*if,0.044*types,0.037*jelly,0.035*button,0.034*flea,0.033*bean
19,0.065*definite,0.060*straight,0.059*never,0.050*every,0.049*twitching,0.040*types,0.039*heads,0.036*an,0.035*64,0.029*a
