Topic Index 1,Topic Index 2,Topic Similarity
4,0,17.647058823529413
8,2,17.647058823529413
0,16,11.11111111111111
9,18,11.11111111111111
10,3,11.11111111111111
14,17,11.11111111111111
15,19,11.11111111111111
17,12,11.11111111111111
1,8,5.263157894736842
2,7,5.263157894736842
5,1,5.263157894736842
6,4,5.263157894736842
7,11,5.263157894736842
11,9,5.263157894736842
19,13,5.263157894736842
3,5,0.0
12,6,0.0
13,10,0.0
16,14,0.0
18,15,0.0
