use,o,2014/12/03,,
updated the setting,b,2014/11/30,,
string change,b,2014/11/30,,
new for the setting screen,b,2014/11/30,,
correction regarding the setting screen show a toast to tap back to save the setting in the case of widget creation,b,2014/11/30,,
