amazing,o,2017-05-21,aleš iršič,5
,o,2017-05-21,aleš iršič,5
ala,o,2017-05-21,aleš iršič,5
what a pity,b,2017-05-21,aleš iršič,5
the size is changed the program still us 20 for output,b,2017-05-20,Paolo Gian,3
i have a new tablet running 70 android,b,2017-04-27,Jim Larson,1
awesome port of,o,2017-03-21,Doug Nelson,5
great for great android,o,2017-03-20,chunduru sriharsha,5
this is a useless,o,2017-03-19,John Lawless,1
you already know the function name you can use the example function to discover the syntax,b,2017-03-19,John Lawless,1
nothing in the manual give you a clue,f,2017-03-19,John Lawless,1
not useful,o,2017-02-24,Akash Wadekar,5
great application,o,2017-02-22,محمد سهلان رشيدي بن محمد حيز الدين,5
great port of a great system,b,2017-02-19,David Eddyshaw,5
now upgraded to work on nougat,b,2017-02-19,David Eddyshaw,5
easy to learn and powerful with neat graphic,o,2017-01-10,,5
remarkable work,b,2016-12-02,Alexander Lopez Parrado,5
very useful,o,2016-12-01,,5
android all wa but in nougat it i enter any command,b,2016-11-27,Partha Pratim Pal,5
a,o,2016-11-04,George Vendras,4
b,b,2016-11-04,George Vendras,4
great job,o,2016-11-04,George Vendras,4
it must help for improvement in math in 3 section,b,2016-11-03,Jishnu P,4
update freeze on android nougat,b,2016-10-30,Gary Hughes,5
same on my desktop which is great,o,2016-10-20,John Krukoff,5
thanks for the free port,o,2016-10-20,John Krukoff,5
never need emulator any more,o,2016-10-17,That Frank Guy,5
even simple operation cause it to hang,o,2016-09-24,Michael Borland,1
android 7,o,2016-09-24,Michael Borland,1
please fix,b,2016-09-24,Michael Borland,1
thank you much for this saved me,o,2016-09-22,makos sporos,5
i like,o,2016-09-19,,1
i use it with my student in class and thought it might be fun to have it on my tablet,o,2016-09-19,,1
the program hang,o,2016-09-19,,1
sorry,b,2016-09-19,,1
this must be an amazing effort,o,2016-09-19,,1
nothing else come close,b,2016-09-16,Lester Ingber,5
just like my desktop,o,2016-09-06,osmanfb1,5
a full fledged computer algebra system,b,2016-09-05,Tanmoy Dasgupta,5
really satisfying,o,2016-09-05,Tanmoy Dasgupta,5
the program crash you try to execute any command,b,2016-08-25,Raul Torres,3
it worked great with previous version of android,b,2016-08-25,Raul Torres,3
very hard done very keep it up,b,2016-07-20,Pinaki Gupta,5
excellent,o,2016-07-20,Pinaki Gupta,5
thank you,o,2016-07-20,Pinaki Gupta,5
love it,o,2016-07-05,chankana jayadesh,5
the best for android,o,2016-07-04,Yucel Kaya,5
the is so bad this could be a nightmare to learn to use it for beginner,o,2016-05-26,Sarthak Pratik,3
nice work,o,2016-05-08,Ioannis Telis,5
love or,o,2016-05-02,SYED MD MISHKATUR REZA MUAZ,5
started using this octave port became,b,2016-03-25,Alok Menon,5
this make it great companion for compiling document on the go,o,2016-03-25,Alok Menon,5
kudos to the developer for bringing to android and keeping the spirit of open source,o,2016-03-25,Alok Menon,5
much appreciated,f,2016-03-25,Alok Menon,5
i like the integrated manual,f,2016-03-19,Currell Berry,5
great the session save restore and playback worked,o,2016-03-06,Dorothy Lowrance,3
good,o,2016-02-22,ÃBHÏSHÊK B.S,4
thanks a lot for this android port,o,2016-02-12,Anirban Mandal,5
the setting menu doe not work in my galaxy but instead open a menu for selecting manual,b,2016-02-12,Anirban Mandal,5
work is fast and beautiful,o,2016-01-06,Nuno Salgueiro,5
thanks,o,2016-01-03,Pyxis Carena,5
graph plotting function is not working in my mobile canvas 2 color,b,2015-12-05,Md Rafi,4
use it on use it on android phone but it fails to install o android tablet,b,2015-12-03,Αθανάσιος Μυγδαλάς,5
error code 18,b,2015-12-03,Αθανάσιος Μυγδαλάς,5
plenty of space left,f,2015-12-03,Αθανάσιος Μυγδαλάς,5
got it fixed,b,2015-12-03,Αθανάσιος Μυγδαλάς,5
very useful,o,2015-11-29,Ds SCbs,5
happy to see it on,o,2015-11-27,Idriss Bellil,5
it work,o,2015-11-04,le land,5
a wonderful learning tool for novice like me,o,2015-11-04,le land,5
powerful engine for engineer and researcher,o,2015-11-04,le land,5
thanks,o,2015-11-02,Pavan R A,4
i have one installed on my and this is mobile companion,b,2015-10-25,Brian Rahardi,5
is a available for at least 3 decade on,f,2015-09-27,Nikolay Hodyunya,5
my android device can be used not to watch cute cat on hooray,o,2015-09-27,Nikolay Hodyunya,5
super thanks developer,o,2015-09-17,Avinash G A,5
,o,2015-09-12,herbert casillas,5
weak better to run native,b,2015-08-26,Alex Greene,1
love the,o,2015-08-08,John Stroll,4
would be great to have the use of command button but i realize it a smart phone and there may be limitation to what can be done with that,b,2015-08-08,John Stroll,4
there seems to be no way to save the work or transfer it,o,2015-07-29,Michael McCann,3
otherwise it would be good tool,o,2015-07-29,Michael McCann,3
a few bug here and there but amazing can be used on android,b,2015-07-28,James Andrews,5
excellent math application,o,2015-07-24,Suhaimi Abu Bakar,5
