# deletions,date,commit message
29,2016/4/09,Another attempt at #19
85,2016/4/09,Possible fix for #19
1,2016/4/09,trying fixing tab open when second index selected and deleting first
2,2016/4/09,Potential fix for android bookmark crash
1,2016/4/08,Android bookmarks open on long press of icon
63,2016/4/06,More marshmallow permission support
6,2016/4/06,Changed table of contents margins on android
2,2016/4/06,Bump up version
135,2016/4/06,Now indentation normal
5,2016/4/06,Now indentation normal
1539,2016/4/06,Now indentation normal
1639,2016/4/06,Now indentation normal
102,2016/4/06,Indentation fixed
1,2016/4/05,Added "No bookmarks!" TextView to bookmarks activity
1,2016/4/05,Added selector for bookmarks to indicate selection
41,2016/4/05,Merge remote-tracking branch 'remotes/upstream/master'  # Conflicts resolved: #       android/res/values/strings.xml #       android/src/org/kiwix/kiwixmobile/KiwixMobileActivity.java Added snackbar when bookmarks removed
26,2016/4/04,- Implemented improved bookmarks - TODO: make selected bookmarks greyed out
48,2016/4/04,- Implemented improved bookmarks - TODO: make color when bookmarks selected
31,2016/4/03,- Implemented improved bookmarks - Fixed undo when only one tab exists
6,2016/4/03,Android search history is now zim specific
13,2016/4/03,Android 6.0+ external storage request when searching for zim files  More checks are nessasary thoughout the app as permissions can now be turned down at any point.
39,2016/4/03,Revert "More mergeing"  This reverts commit c8b3fb3ec0b286873482e7b41b8954283c9b6b90.
159,2016/4/03,Revert "Merged new features from wmhack to master"  This reverts commit 7b4fcd90c38641b8dc9d29661587149ed71b0f0d.
30,2016/4/03,Merged new features from wmhack to master
164,2016/4/03,Two space indentation
15,2016/4/03,Android text search now displays recent searches from inital database implementation
209,2016/4/03,fixed: crash when first tab's selected and trying to delete other tab
12,2016/4/02,Improved table of contents UI on android
132,2016/4/02,Added android table of contents accessed by swiping left
3,2016/4/02,Rate app dialog implemented(every 5th app launch dialog pops up )
5,2016/4/02,UNDO - restores tab at same index
2,2016/4/02,UNDO - restores tab at same index
5,2016/4/02,UNDO - restores tab at same index
21,2016/4/02,Fixed deleting non selected tab
5,2016/4/02,Update build.gradle  Add new libraries and update the compile sdk version
1119,2016/4/02,Reformat
1100,2016/4/02,implemented snackbar - UNDO on closing tab https://sourceforge.net/p/kiwix/feature-requests/232/
4,2016/4/01,Android back and forward buttons gray out if unusable
1,2016/3/14,Android bookmark icon correctly updates when switching tabs #10
1,2016/3/11,Update Android Changelog
1,2016/3/11,Update Android Changelog
46,2016/3/11,All android tabs now save state on app restart:
1,2016/3/08,Fixed semicolon
3,2016/3/08,Android app only copies zim if it exists
38,2016/3/08,Moved customapp embedded android ZIMs from lib to assets directory  Avoids duplicate embedded ZIMs for each CPU architecture:
2,2016/3/04,Android language menu is now removed from settings menu if locked in custom app #4
1,2016/3/03,Added links back to reduce customapp apk size #6
5,2016/3/04,Better log for FileUtils::doesFileExist() #6
1,2016/3/03,Fix for customapp embeded zim #6
1,2016/3/02,Fix rewritting of SliderPreference class name for custom apps #3
100,2016/3/02,Move README part for Android to android/README
1,2016/3/02,libssl-devel does not exist and pip is necessary for the further command
3,2016/3/02,Fixed #2: trying to move to unexisting folder  Couple of chdir were placed outside their conditions.
2,2016/3/02,New Wikivoyage app
1,2016/3/02,Rely on download.kiwix.org instead of any third part server
1,2016/3/01,Fixed package name mismatch for custom apk generation
0,2016/2/29,New versions of the libs
87,2016/2/29,Remove old/unused files
15,2016/2/26,TTS now works correctly with the tab system
2,2016/2/21,New version of Wikivoyage Android app
1,2016/2/21,Max memory used by java
1,2016/2/15,Make e2fs compilation more robust/faster
2,2016/2/15,Small fix to get compilation working with recent GNU tools
1,2016/2/15,Add libxapian to Android dependencies
1,2016/2/08,Softkeyboard now opens on find in page click
