App,Store,App ID,Review ID,Country,Version,Rating,Date,Author,Subject,Body,Translated Subject,Translated Body
"Kiwix, Wikipedia offline",Google Play,org.kiwix.kiwixmobile,Z3A6QU9xcFRPRVJQcE9iUExhYU8wY3l0dlBGVEdvdnR0MDRMTDRfR0gtRDV5dlMwbzRaU0tOYW5iUV9Td3RmcnhCNWE3eE1sNGNJbm0zYm9iSmZvNGhqaGsw,English,,5,2013-04-07,Hatim Amir,TOP ONE,"Great app, was waiting for it ages and finally it is here. The app, so far so good, smooth and fast.  Please fix the bug - ZIM files larger than 2GB will fail to load (“invalid zim file”). Thanks a lot Kiwix.  Libyan Dates",,
"Kiwix, Wikipedia offline",Google Play,org.kiwix.kiwixmobile,Z3A6QU9xcFRPRVBGdkxSRVNiLWJFMEs2TE4xMDVYUGJucHpTcUNZckk0VlE0amhiOXZUZUFTbWpzSHJnRnVHSHZ0ejhnY0t4UFVWVEs5ZGdYaWxJV2xRSmxR,Spanish,,5,2013-04-08,Miguel Izaguirre Trestini,Miguel,Excelente idea.! Excelente programa.!,,
