fixed crash,b,2016/4/19,,
fixed crash,b,2016/4/19,,
fixed crash,b,2016/4/19,,
fixed crash,b,2016/4/19,,
workaround for security exception,o,2016/4/19,,
fixed crash,b,2016/4/19,,
updated lib version,f,2016/4/19,,
