Topic Index 1,Topic Index 2,Topic Similarity
0,2,5.263157894736842
2,11,5.263157894736842
5,1,5.263157894736842
6,0,5.263157894736842
7,7,5.263157894736842
8,12,5.263157894736842
9,13,5.263157894736842
1,3,0.0
3,4,0.0
4,5,0.0
10,6,0.0
11,8,0.0
12,9,0.0
13,10,0.0
14,14,0.0
15,15,0.0
16,16,0.0
17,17,0.0
18,18,0.0
19,19,0.0
