Topic Index 1,Topic Index 2,Topic Similarity
0,0,1.0
1,1,1.0
2,2,1.0
5,3,1.0
6,4,1.0
7,5,1.0
13,6,1.0
18,7,1.0
3,8,0.0
4,9,0.0
8,10,0.0
9,11,0.0
10,12,0.0
11,13,0.0
12,14,0.0
14,15,0.0
15,16,0.0
16,17,0.0
17,18,0.0
19,19,0.0
