# deletions,date,commit message
76,2013/7/03,Display an appropriate message when rhizome is not enabled
76,2013/7/03,Display an appropriate message when rhizome is not enabled
1,2013/7/02,Sync serval-dna
2,2013/7/02,Recieve the manifest directly from the bundle announcement
91,2013/7/02,Updated help text to final versions before testing release of 0.91 Glossy release
1,2013/7/02,Sync serval-dna
2,2013/7/02,Recieve the manifest directly from the bundle announcement
91,2013/7/02,Updated help text to final versions before testing release of 0.91 Glossy release
