Topic Index 1,Topic Index 2,Topic Similarity
17,7,1.1198
6,17,1.0268000000000002
4,16,0.8225999999999999
10,11,0.6426000000000001
2,15,0.5424000000000001
3,0,0.5388000000000001
19,13,0.5025
0,1,0.0
1,2,0.0
5,3,0.0
7,4,0.0
8,5,0.0
9,6,0.0
11,8,0.0
12,9,0.0
13,10,0.0
14,12,0.0
15,14,0.0
16,18,0.0
18,19,0.0
