reformat code,b,2016/5/01,,
improve transaction list,f,2016/5/01,,
improve string in,b,2016/5/01,,
reformat,b,2016/5/01,,
remove unused string and menu,b,2016/5/01,,
use switch for option item selection,b,2016/5/01,,
use a switch for option item selection,b,2016/5/01,,
move currency and denomination change to setting,b,2016/5/01,,
remove unnecessary annotation and import,o,2016/5/01,,
make block explorer warning more,b,2016/5/01,,
hide automatically keyboard on receive tab and main tab avoid generating two address at,b,2016/4/30,,
fix layout on some mobile with small screen and some currency,b,2016/4/30,,
add example for trusted mode to show multiple peer are possible,f,2016/4/30,,
update block explorer to smart bit allow to view address too,b,2016/4/30,,
improve network monitor,b,2016/4/30,,
lint finalize,f,2016/4/30,,
improve of transaction detail view,b,2016/4/30,,
improve formatting,b,2016/4/30,,
show full length in landscape,f,2016/4/30,,
show memo present instead of address,b,2016/4/30,,
make truncation generic,f,2016/4/30,,
update,b,2016/4/30,,
move string to international re string add ping,f,2016/4/30,,
update about page language bump version for release to 183,f,2016/4/29,,
