ledger transport,f,2015/3/09,,
introduce pattern throughout the code,o,2015/2/25,,
add and method to base class and migrate the explicit cast to function call,f,2015/2/25,,
for the cache the application reference the fragment is in a state thus fixing a crashing bug when sending fund,b,2015/2/25,,
updated min and max fee for floating fee,b,2015/2/25,,
add setting to hide warning,b,2015/2/17,,
receive tab show address in full screen dialog tapped,b,2015/2/17,,
disconnected finish activity,b,2015/2/17,,
bump for release 145,b,2015/2/16,,
fix on fiat display moving buy button,b,2015/2/16,,
fix warning from lint use apply when not verifying commit returned value for preference editor add apply missing add symmetry in landscape layout,b,2015/2/16,,
fix for correctly formatting number smaller font for balance le padding on list,b,2015/2/16,,
avoid creating new object,b,2015/2/16,,
fixing broken build,b,2015/2/16,,
copy and add on receive improved,b,2015/2/16,,
instant transaction center aligned,o,2015/2/16,,
better language translation and visualization,f,2015/2/16,,
bit unit correctly aligned,b,2015/2/16,,
escape on apostrophe,o,2015/2/16,,
edit warning on two factor,b,2015/2/16,,
string in,o,2015/2/16,,
