show fee size and fee per in transaction detail,b,2016/1/05,,
setting improve support for tablet reduce use of deprecated improve materialness improve package structure bump version for release,b,2015/11/30,,
fix play reported bug on pin login via soft keyboard more lint,b,2015/11/30,,
fix crash on connection more lint update translation string,b,2015/11/29,,
lint,o,2015/11/28,,
use static ref,f,2015/11/28,,
split in smaller component handle no earliest key creation time,f,2015/11/28,,
fix on older android version split new native android from more lint,b,2015/11/28,,
