detected,b,2013-12-14,Beard Bong,5
second is republic of is country in only yours,f,2013-12-07,Aleksandar Stefanović,1
name of is,b,2013-12-07,Aleksandar Stefanović,1
i will ask you to change it because you use list on,b,2013-12-07,Aleksandar Stefanović,1
despite the rave i still wait 2 minute for a whatever this is supposed to not doing it,b,2013-12-04,,1
prior to using this i would enable for 15 sec or like a charm,b,2013-12-04,,1
but you are having you can either use this to partially fix or get a phone,b,2013-12-02,Nathan Yang,5
yes this really help,o,2013-11-19,Aloysius Setyo,5
this is the only work for my device,b,2013-11-12,Saifulizmin Mustapa,5
my take at least 1 minute to lock location,b,2013-11-12,Saifulizmin Mustapa,5
force close on nexus 5,b,2013-11-09,Derk P,1
perfect,o,2013-11-09,Igor Vučić,5
wa good but just crash on my nexus 5,b,2013-11-03,Jarom Leneham,4
this just awesome must have for rooted phone lock to just for second,b,2013-11-03,Konix Bam,5
my average time to satellite fix went from 10 second to accuracy improved i am now able to get an accurate fix with poor reception,b,2013-11-03,David Hutchinson,5
in door and not right next to the window,b,2013-11-03,David Hutchinson,5
well worth it,o,2013-11-03,David Hutchinson,5
work great,o,2013-10-30,Andrew Lee,5
working fine,o,2013-10-25,SHAKIR Baloch,5
nice and easy,o,2013-10-22,A Google User,5
install it you complain about slower on android,b,2013-10-20,V Krishna,5
with the correct setting it make your 100 more accurate and lock almost instantly,b,2013-10-12,Magic Coleman,5
search for advanced setting,b,2013-10-12,Magic Coleman,5
