it improves the lock speed but i got a noticeable decrease in location accuracy,b,2013-08-11,Adam Cooke,3
using an called caused my accuracy to drop to foot,b,2013-08-11,Adam Cooke,3
without faster i am getting an accuracy between foot,b,2013-08-11,Adam Cooke,3
seems to be a trade off here,f,2013-08-11,Adam Cooke,3
com o do galaxy e no,o,2013-08-09,Cleitão Oliveira,4
do,o,2013-08-09,Cleitão Oliveira,4
,o,2013-08-09,Cleitão Oliveira,4
very excellent,o,2013-08-05,David Saad,5
good,o,2013-08-04,Victor Rompas,5
work like,o,2013-08-02,bayu stefanus,5
seems a decent improvement over faster fix due to the advanced setting,b,2013-08-02,Andy Spark,5
well done developer,b,2013-08-02,Andy Spark,5
and thanks,o,2013-08-02,Andy Spark,5
my got back to normal performance reverting,b,2013-07-27,Edward Tolson,2
faster connected,b,2013-07-26,Imrich Meszaros,5
new root change messed with this,b,2013-07-25,Collin P,4
,o,2013-07-20,Suci Perwira Negara,5
perfect,o,2013-07-11,Jason Shepherd,5
thank you,o,2013-07-11,Jason Shepherd,5
work,o,2013-07-10,Vinay SN,5
doe what it say it will and doe it very quickly,o,2013-07-10,James Cobb,5
keep up the good work,o,2013-07-07,Sakura X,5
just working,o,2013-07-07,Alexander Mikheev,5
get my location within 5 sec,b,2013-07-05,Rico Wang,5
extremely quicker now 5,b,2013-07-03,Shoaib Khan,5
how doe this get anything le a 5 star,o,2013-07-03,A Google User,5
good,o,2013-06-27,Duc Huy,5
great,o,2013-06-19,Patrick Elven Bañaco,5
speed up,b,2013-06-19,Patrick Elven Bañaco,5
i used it to change my to,b,2013-06-14,Pradeep k,5
made my work,o,2013-06-14,Pradeep k,5
now i get lock in about 1015 second,b,2013-06-12,Andrew Kowalyshyn,5
love this,o,2013-06-12,Andrew Kowalyshyn,5
,o,2013-06-08,Den Hends,5
sometimes i wanted to smash my phone,b,2013-06-05,Andrius K,5
now 100 happy with it,o,2013-06-05,Andrius K,5
what an improvement,f,2013-06-05,Andrius K,5
great system,b,2013-06-04,Martti Vaidla,5
what location,b,2013-05-28,Shashank Mehta,1
work great for faster location,b,2013-05-27,Carlos Ugarte,5
i get a bug every now n then but a restart that,b,2013-05-27,Carlos Ugarte,5
great for root,b,2013-05-27,Carlos Ugarte,5
this is always one of the top 5 i install a system flash,b,2013-05-27,Stephen Mutua,5
it doe exactly what it say on the tin can,o,2013-05-27,Stephen Mutua,5
a great for speeding up fix,b,2013-05-27,Милан Јанков,5
keep up the good work,o,2013-05-27,Милан Јанков,5
went from rarely locking and taking to immediate consistent even in a building,b,2013-05-26,Rachael Christensen,5
good work,o,2013-05-26,Yudhie Tech,5
fixed my issue on canvas,b,2013-05-26,digant nandu,5
just great,o,2013-05-26,Johnson Tiang,5
appears to work just described,b,2013-05-24,Matthew Black,5
a definite improvement with galaxy,f,2013-05-24,Matthew Black,5
it fix my problem,b,2013-05-24,Panji Muhamad,5
some phone are just crazy,b,2013-05-23,,5
this fixed mine up well,b,2013-05-23,,5
doe the job,o,2013-05-23,Alex Etchells,5
what else could you ask for,b,2013-05-23,Larry Carlson,5
is definitely faster,b,2013-05-23,Jake Mayback,5
really doe help,o,2013-05-23,Feruz M,5
