Topic Index 1,Topic Index 2,Topic Similarity
14,9,0.051199999999999996
16,1,0.0324
7,10,0.029
1,8,0.0252
13,7,0.023399999999999997
4,3,0.0231
6,4,0.021
12,11,0.0195
0,2,0.014299999999999998
10,18,0.014299999999999998
18,12,0.013199999999999998
9,13,0.013
17,15,0.011699999999999999
2,0,0.0
3,5,0.0
5,6,0.0
8,14,0.0
11,16,0.0
15,17,0.0
19,19,0.0
