Topic Index 1,Topic Index 2,Topic Similarity
0,6,5.263157894736842
1,13,5.263157894736842
2,14,5.263157894736842
3,1,5.263157894736842
4,4,5.263157894736842
5,2,5.263157894736842
6,16,5.263157894736842
7,11,5.263157894736842
8,5,5.263157894736842
9,10,5.263157894736842
10,12,5.263157894736842
11,0,5.263157894736842
13,15,5.263157894736842
16,3,5.263157894736842
17,19,5.263157894736842
12,7,0.0
14,8,0.0
15,9,0.0
18,17,0.0
19,18,0.0
