Topic Index 1,Topic Index 2,Topic Similarity
16,2,2.0
0,4,1.0
1,9,1.0
2,0,1.0
3,6,1.0
6,8,1.0
8,19,1.0
9,11,1.0
12,13,1.0
13,17,1.0
14,12,1.0
15,1,1.0
18,3,1.0
19,7,1.0
4,5,0.0
5,10,0.0
7,14,0.0
10,15,0.0
11,16,0.0
17,18,0.0
