App,Store,App ID,Review ID,Country,Version,Rating,Date,Author,Subject,Body,Translated Subject,Translated Body
EP Mobile,Google Play,org.epstudios.epmobile,Z3A6QU9xcFRPSHlCOXJhT3FGMVctM3VlV3ZFVjZ5eDZESzRYQzdaVHlwdEtXQ2k0cE41Mm5wVnZVVy1kS3FSMEFVaGthSXRST3lMc1hoWEVacmN1MmtGUTZV,English,,5,2015-03-11,Paul Selvarajan,Ep technologists,very good for beginner also user you for the developer,,
EP Mobile,Google Play,org.epstudios.epmobile,Z3A6QU9xcFRPSEdkWjJxVlA0ODB1UzFGQ0loaU1jM3JjWGhleW53X1JNQkZkZ2tkZ2MxZHpOeTZEQnZ2bGJPZUV0TW9Rb3BjLWE5RmhQNy1mcDZXeUhJMFVz,English,,5,2015-03-04,Dr abhishek Chandorkar,Good,useful,,
