thanks for,o,2015-08-26,Febri Hardian,5
this work like a champ,o,2015-08-25,Keith McGerald,5
i use it for some shell stuff but mostly use it to forward other access into my home network over the,b,2015-08-25,Keith McGerald,5
i can poke my home tunnel and i even used it to tunnel network control of my to mess with my,b,2015-08-25,Keith McGerald,5
even better now they added the tab and arrow key to the virtual keyboard,f,2015-08-25,Keith McGerald,5
this wa the first ssh client i installed and it will likely be the last,b,2015-08-25,Joey Officer,5
thanks guy,o,2015-08-25,Joey Officer,5
simple and easy to use,o,2015-08-25,M Espinosa,5
highly recommend this to anyone in need,o,2015-08-25,M Espinosa,5
but i wish it could remember password,b,2015-08-24,Erich Alderfer,4
best ssh client far,o,2015-08-24,Edvard Busic,5
still one of best around,o,2015-08-23,Erx Lisboa,5
great for geek,o,2015-08-22,Synco Reynders,4
the update with the soft key just made it the best you need ssh anywhere,o,2015-08-22,Yash V,5
think make arrow key stay on screen much better,b,2015-08-22,Lê Đình Hưng,5
want to create local but ended up crash fix it thanks,b,2015-08-22,Afif Najmi Radzif,3
the directional keyboard key are a great addition,f,2015-08-21,A Google User,5
thank you,o,2015-08-21,A Google User,5
this ha saved me multiple time i have been away from workstation and needed to get to server to carry out task,b,2015-08-21,Crispy,5
port forwarding work great too,f,2015-08-21,Crispy,5
update even better now it ha soft arrow key and tab,b,2015-08-21,Crispy,5
ssh client with port forwarding just work,f,2015-08-21,Andrew Jobson,5
brilliant,o,2015-08-21,Andrew Jobson,5
arrow key bar need to stay on screen longer,b,2015-08-21,Dyrty Fooser,4
key is will add a character pressing it when cursor is on a word,o,2015-08-21,Dyrty Fooser,4
would like to be able to hold the arrow key down to move cursor quickly,b,2015-08-21,Dyrty Fooser,4
excellent,o,2015-08-21,A Google User,5
dependable,o,2015-08-21,A Google User,5
doe everything i need with ssh,o,2015-08-21,Michael Robinson,5
it doe not ever try,o,2015-08-16,Konstantin Nomerodin,1
i have only address version i have no domain it doe not want to connect,b,2015-08-16,Konstantin Nomerodin,1
good,o,2015-08-15,Firoz Khan,5
no banner ad,b,2015-08-15,Finn Henderson,4
it actually use for what,o,2015-08-15,soroush official,4
thank you for making this possible,o,2015-08-12,Angelito Tan,5
i can now connect to my server i am,b,2015-08-12,Angelito Tan,5
is much better,o,2015-08-02,Miles Whittaker,3
i use this to ssh my raspberry pi and it work flawlessly,b,2015-08-01,A Google User,5
i recommend downloading hacker keyboard,b,2015-08-01,A Google User,5
it make everything easier,o,2015-08-01,A Google User,5
how did you use tab and arrow key,f,2015-07-31,Rizky Arif Windiarto,3
having to retype a long path is not fun,b,2015-07-31,Rizky Arif Windiarto,3
,o,2015-07-30,,5
awesome i ever seen,o,2015-07-27,ketan kanade,5
ssh client for android,o,2015-07-27,ketan kanade,5
too good,o,2015-07-27,ketan kanade,5
,o,2015-07-26,Ruangvit Sriumphaiviwat,3
this is a great,o,2015-07-26,Scott Griffy,5
it ha key support for free,f,2015-07-26,Scott Griffy,5
for shard,o,2015-07-19,adam thornhill,5
new design is pretty,o,2015-07-18,Олесь Савлук,5
love it,o,2015-07-15,Jaime Lopez,5
on android and up there is no menu you do not have access to and alt which make the use of the application impossible,b,2015-07-15,Daniela Mihaela,1
better any other terminal,o,2015-07-14,Kipp Aldrich,5
can now do a c in a terminal,f,2015-07-14,Kipp Aldrich,5
this is a great tool,o,2015-07-14,Kipp Aldrich,5
not bad,o,2015-07-12,Virgil Chambers,4
got it working,o,2015-07-08,,3
bad for,o,2015-07-07,Ryan Vesely,1
work expected even such a all work without problem on my,b,2015-07-04,Rodney Padgett,5
just what i wa looking for,o,2015-07-04,Rodney Padgett,5
the interface allows key import from the card,f,2015-07-01,Barry Hamilton,2
all the ssh you need,o,2015-07-01,Jon Bennett,5
local client too,o,2015-07-01,Jon Bennett,5
just doing bit of work on my pi from the phone,b,2015-06-29,Josh Robinson,5
it just work,o,2015-06-29,Josh Robinson,5
no issued worked asap,b,2015-06-21,Brad Wasabi,5
perfect,o,2015-06-21,Brad Wasabi,5
i started getting host key exchange error and what appears to be a message indicating the connection wa closed the key exchange wa complete,b,2015-06-21,Albert Chaharbakhshi,4
still a 4 star 5 they can fix this new bug,b,2015-06-21,Albert Chaharbakhshi,4
love the but wish it would work in both orientation on my tablet,f,2015-06-21,Nigel Kendrick,4
been using this for a while,b,2015-06-20,Austin Nwaka,5
,o,2015-06-20,Austin Nwaka,5
doe everything required,o,2015-06-20,Victor Song,5
great use it all the time,o,2015-06-16,A Google User,5
just wanted to point out the text entry box for quick connect ha disappeared in android m developer release,b,2015-06-16,A Google User,5
thanks,o,2015-06-16,A Google User,5
asap fix for android m,b,2015-06-16,A Google User,5
confirming the issue described by on 20150506,f,2015-06-14,Val Kulkov,4
a very useful a for any terminal user,o,2015-06-14,Val Kulkov,4
problem on m preview,b,2015-06-13,Ross Beazley,5
hugely disappointed,b,2015-06-12,John Sater,2
wow,o,2015-06-11,Nilesh Mishra,5
work perfect,o,2015-06-09,Angel Ibarrondo,5
work in the background,b,2015-06-09,Angel Ibarrondo,5
ha a lot of setting,b,2015-06-09,Angel Ibarrondo,5
love it,o,2015-06-09,Angel Ibarrondo,5
is there anyway to simulate arrow key,b,2015-06-06,,3
work fine,o,2015-06-05,Brian Mohon,5
keyboard function are limited,b,2015-06-05,Jian Zhang,4
need to be improved,b,2015-06-05,Jian Zhang,4
i recommend pairing it with hacker keyboard,b,2015-06-05,Philip McClure,5
i rated 5 but i understand what this u tell,b,2015-06-03,Kiran Bhuwan,5
crucial on small keyboard,f,2015-06-01,Shaun Currier,4
juice ssh ha this,b,2015-06-01,Shaun Currier,4
,o,2015-05-30,Aswathy prakash,5
thanks,o,2015-05-29,Mike G,5
i use it nearly every day for,o,2015-05-28,Raphael Meyer,5
it pretty perfect,o,2015-05-28,Raphael Meyer,5
totally worth 5 star,o,2015-05-28,Raphael Meyer,5
work it really help me out d,o,2015-05-26,Bayu Pratama,5
no need to be this application is awesome and,o,2015-05-26,iMAM HANAFi,5
now i need,o,2015-05-25,Tejpal Sahota,1
,o,2015-05-25,Tejpal Sahota,1
it work,o,2015-05-24,virendra gawale,5
work well,o,2015-05-21,Valentin Ursuleac,5
pussy destroyer,f,2015-05-17,Encik Boss,5
all i needed wa access to a basic program and you delivered thank you,b,2015-05-17,Kurtis Thompson,5
how to select in command,f,2015-05-17,TAPAN MOJIDRA,4
excellent,o,2015-05-16,Abhishek Gawade,5
,o,2015-05-15,Hais Wahyu Fajari,5
,o,2015-05-15,Vishal Patil,5
i know yet,o,2015-05-12,Walaikumusallam Wann,5
great,o,2015-05-11,Marcelo Lazaroni,5
doe what it is supposed to do very well,o,2015-05-11,Marcelo Lazaroni,5
download a keyboard with arrow key and a tab key to get the most out of it,f,2015-05-11,Marcelo Lazaroni,5
there wa always an issue with the tab key the keyboard wa docked,f,2015-05-10,Cayle Sharrock,5
the new with from the terminal shift this from a good to a fantastic one,f,2015-05-10,Cayle Sharrock,5
thanks,o,2015-05-10,Cayle Sharrock,5
feature doe not work properly,o,2015-05-08,Tomatique Kitique,3
solid ssh i rely on it every day,o,2015-05-07,Will Thomas,5
seems the key exchange problem ha somewhat morphed in version 184,f,2015-05-06,James Finnegan,3
another attempt resolve the issue,b,2015-05-06,James Finnegan,3
le chronic the prior shared secret but is still occurring nonetheless,f,2015-05-06,James Finnegan,3
attempting to connect to a server try repeatedly connecting,b,2015-05-06,James Finnegan,3
it appears that there is a bug in 183 that cause this the shared secret is encoded a negative value,b,2015-05-06,James Finnegan,3
subsequent connection will eventually work,b,2015-05-06,James Finnegan,3
it appears the bug ha been fixed by the developer but ha yet to be released,b,2015-05-06,James Finnegan,3
a small blemish on an otherwise great,o,2015-05-06,James Finnegan,3
port forwarding is utterly broken in the latest version,f,2015-05-05,Chris Moerz,1
going back to connect bot simply give a dead ssh session,b,2015-05-05,Chris Moerz,1
tried different server to no avail used to be a great,f,2015-05-05,Chris Moerz,1
give some tip to this,o,2015-05-04,Pratik Giri,3
simple yet effective ssh client,o,2015-05-03,Andrey Seliverstov,5
no fancy job getting done,b,2015-05-03,Andrey Seliverstov,5
work very well,o,2015-05-01,Russell Cannon,5
unlike another ssh this actually us a fixed width font,b,2015-05-01,Russell Cannon,5
it can generate and use key pair allow disabling password authentication,f,2015-05-01,Russell Cannon,5
superb program,o,2015-05-01,Russell Cannon,5
ssh into my stuff from the beach,f,2015-04-30,Brett Blackham,5
work flawlessly for what it should do,b,2015-04-28,Adnan Y,4
no bell and whistle,f,2015-04-28,Adnan Y,4
i like it for port forwarding a sock connection from,b,2015-04-27,Alois Langer,4
this made my work a lot easier,o,2015-04-27,Charlene Bautista,5
great job,o,2015-04-27,Charlene Bautista,5
great,o,2015-04-25,anmol gogia,5
nearly flawless ssh add hacker keyboard and it perfect for even complex task,f,2015-04-25,Ryan Fulcher,5
should be a built in,b,2015-04-25,Ryan Fulcher,5
would like to see better screen redraw upon screen rotation,f,2015-04-25,Ryan Fulcher,5
this ha made it extremely easy to make wake on and sleep on work in my situation,f,2015-04-24,Alex Adams,5
just wondering what game is being played in the,f,2015-04-24,Joshua Helfferich,5
through 183 were useless to me,o,2015-04-23,A Google User,5
184 gave me access,f,2015-04-23,A Google User,5
i loved about this i have again,o,2015-04-23,A Google User,5
thanks,o,2015-04-23,ZyXEL Giedrius,5
5 star,b,2015-04-23,ZyXEL Giedrius,5
usually developer make great but not user but this is very user very good job keep up the god work,b,2015-04-23,XRaYdeR,5
nice to see an update for material design,o,2015-04-23,A Google User,5
tell but this is epic,o,2015-04-23,Ian Grody,5
spread the word,b,2015-04-23,Ian Grody,5
a big thanks to the developer of this great application,o,2015-04-22,Jan Igerud,4
stellar,o,2015-04-22,John Smith,4
nice one and easy to use,o,2015-04-22,Abdel Sako,5
d,o,2015-04-21,Agus Sanusi,5
a daily used,o,2015-04-21,A Google User,5
thank you guy,o,2015-04-21,A Google User,5
are there plan for these update to come to the play store at any point,b,2015-04-21,Erin Conn,4
apparently,b,2015-04-21,Erin Conn,4
update look good,b,2015-04-21,Erin Conn,4
ha been working great for me for year,b,2015-04-21,Joseph Fournier,5
a landscape mode would absolutely rock my world,o,2015-04-21,Joseph Fournier,5
a nice ssh client being using it for some year now,o,2015-04-19,Gustavo Lozano,5
have love it every day,o,2015-04-19,Gustavo Lozano,5
and compact in size,f,2015-04-19,gabriel alpes,5
definitely it,o,2015-04-19,gabriel alpes,5
