# deletions,date,commit message
46,2014/12/03,dimension fix for
39,2014/12/03,fix for preference dialog
20,2014/12/03,little performance fix for drawer includes picker intent filter
61,2014/12/02,fixed hiding property
15,2014/11/30,minor layout improvement
6,2014/11/30,fix in and layout fix
112,2014/11/30,themed preference dialog many improvement and fix
20,2014/11/30,some performance improvement
6,2014/11/30,many fix
8,2014/11/30,minor improvement for moving file
11,2014/11/30,back pressed implementation
3,2014/11/29,minor improvement
3,2014/11/29,fixed all dialog
13,2014/11/29,themed search dialog
177,2014/11/29,fixed list dialog
26,2014/11/29,themed some dialog
5,2014/11/29,minor improvement
67,2014/11/29,improvement in root list loading
1,2014/11/29,improving root list and minor fix
12,2014/11/29,minor fix
78,2014/11/29,trimmed overflow and some useless code removed
9,2014/11/29,option to
21,2014/11/29,fixed
13,2014/11/29,fixed drawer bookmark
1,2014/11/29,minor icon fix
2,2014/11/29,improved drawer icon
23,2014/11/29,bookmark in drawer fixed bookmark manager too
10,2014/11/28,minor fix for and
36,2014/11/28,fix for
14,2014/11/27,file opening implementation includes cut paste fix and backup fix
26,2014/11/24,updated translation some minor fix and improvement to the existing translation
26,2014/11/24,changed some word
26,2014/11/24,corrected some accent and word in the string
161,2014/11/23,partially working lot of other fix here and there
21,2014/11/21,grid view color filter fix
215,2014/11/21,various fix across
2,2014/11/20,minor fix
78,2014/11/20,minor fix
21,2014/11/20,added video thumbnail
7,2014/11/20,minor fix for dialog
8,2014/11/20,fixed and added missed translation for
9,2014/11/20,fix for backup on l might have bug
218,2014/11/19,fixing material dialog
35,2014/11/19,improved search result
10,2014/11/19,added sort by type
6,2014/11/19,added sort by type option and minor fix
1,2014/11/19,minor view fix
8,2014/11/19,fix for icon and doc opening
52,2014/11/18,update correcting and upgrading of the language
103,2014/11/18,switched to
8,2014/11/17,add ability to delete system
9,2014/11/16,minor interaction tweak prevent showing some toast
93,2014/11/16,update translation
9,2014/11/17,added and thanks to the contributor will add their name to
45,2014/11/16,minor fix
33,2014/11/16,added material designed dialog list dialog still need be themed
5,2014/11/16,option to show hidden file
6,2014/11/16,removed remaining string now completely ready for translation
5,2014/11/15,added option to hide file
10,2014/11/15,preference fix
1,2014/11/15,minor fix
2,2014/11/15,adjustable column
29,2014/11/15,string fix in preference
70,2014/11/14,removed string
63,2014/11/14,small fix in array
3,2014/11/14,icon for
8,2014/11/14,a fix and changed default skin to light blue
10,2014/11/14,removed shadow and minor fix
17,2014/11/14,improved date need better alignment
78,2014/11/12,initial release change lot of change for the initial release
