Topic Index 1,Topic Index 2,Topic Similarity
0,7,11.11111111111111
15,13,11.11111111111111
18,6,11.11111111111111
2,8,5.263157894736842
3,12,5.263157894736842
4,17,5.263157894736842
7,4,5.263157894736842
9,0,5.263157894736842
10,10,5.263157894736842
12,16,5.263157894736842
17,14,5.263157894736842
1,1,0.0
5,2,0.0
6,3,0.0
8,5,0.0
11,9,0.0
13,11,0.0
14,15,0.0
16,18,0.0
19,19,0.0
