i have just updated this morning i have had this for a while,o,2014-11-09,,3
it is flagging 90 of my 86 a incl of my bank relaxation sleep that ha to mute the phone ring all the common household named,b,2014-11-09,,3
this 4 me is not a worry i know the reason these need the permission but to a newbie is scaremongering,o,2014-11-09,,3
