Topic Index 1,Topic Index 2,Topic Similarity
3,5,0.015299999999999998
8,13,0.008400000000000001
16,15,0.008400000000000001
4,14,0.0077
1,17,0.0072
0,12,0.007000000000000001
17,18,0.007000000000000001
2,6,0.006599999999999999
18,2,0.006599999999999999
7,1,0.006
19,16,0.0056
10,7,0.0055
9,0,0.005399999999999999
6,19,0.005
5,3,0.0
11,4,0.0
12,8,0.0
13,9,0.0
14,10,0.0
15,11,0.0
