App,Store,App ID,Review ID,Country,Version,Rating,Date,Author,Subject,Body,Translated Subject,Translated Body
MTG Familiar,Google Play,com.gelakinetic.mtgfam,Z3A6QU9xcFRPRWYwMGdqREIzMFhyLXZkTXQ1TVd3d2NOTFh4cThwZThxaWxUdk1pd3Fub1lSQmNmaXFMTVVoVk1xWGFWcUpLNDN5M29nb2dZYnpJRnRTMkE,English,,1,2016-04-28,Danny bAd,Wtf?,I have been using this app since it's conception and with the new update the app keeps crashing and such. Wtf? When did the update mean downgrade? Once this is fixed I'll change this rate,,
MTG Familiar,Google Play,com.gelakinetic.mtgfam,Z3A6QU9xcFRPRjZ0MWRoN1lkVW1xUmpVaGh5Y3AycnlCQXkzRWJyNnIyMlBobjY4YktHNlU5S3Vqc3o1TUEtZ1loN0hhdVJ0OHlzRG9lRkk5T3NSdkdoM0E,English,,2,2016-04-28,John Struck,Crashes.,"Since last update, it keeps crashing whenever I search a card.",,
MTG Familiar,Google Play,com.gelakinetic.mtgfam,Z3A6QU9xcFRPR1ZCcGZwWjVVa2NNUmFJNExwVWp5MjBsVzM3QmozT0pPUC1zQ183YzF4SjI5cVgyU2s1T21ORndWN3dqTllST05CVHlGcUx3Q3N5Uk9idEE,English,,5,2016-04-27,The Chief executive,Great app,I have used this and it's many links to the wizard site to stop and end arguments.  It's got a great database for rules and an ok pricing tool.  The offline search makes for a great passage of time when you're looking for something specific.,,
MTG Familiar,Google Play,com.gelakinetic.mtgfam,Z3A6QU9xcFRPRUNkaWVjYlh2NWwxZmdOVm5sQ2pZNWR2dm5sMjBIQnAzeTRHQ1gxclR4bUdKUm1PUDdrekhBTDhtZTBEeFVIdEtsbWFqNkF4ZkZqZlNKcVE,English,,5,2016-04-27,El Charlo,Useful,It is a very good app and I use it all the time!,,
MTG Familiar,Google Play,com.gelakinetic.mtgfam,Z3A6QU9xcFRPRy0tbDR2eDdEVGtmNHhzZkhwQldQSkpFdC11SjBWbWhsWTFjdS1oSDdxdWVJUkVWZUlrMzRlUkFsOXMxcTZqUUgwNlAtZjBtUVhNQm1fV1E,English,,5,2016-04-26,Paul Gulbis,No better app,Absolutely outstanding.,,
MTG Familiar,Google Play,com.gelakinetic.mtgfam,Z3A6QU9xcFRPRnNhaXZ4RTE4REY2OS11S0hTMjN4bnh2d0FNUEpTMzFVcW1OLU9aUDJGaHpDV0xxOFFzOUUxdkk4WFphb2F5bU4xVUVXRzJ2WDB5Z012a2c,Spanish,,5,2016-04-28,Juan J. N.C.,"",Perfecta. Tiene todo lo que necesito. I love this app.,,
