App,Store,App ID,Review ID,Country,Version,Rating,Date,Author,Subject,Body,Translated Subject,Translated Body
Chroma Doze (white noise),Google Play,net.pmarks.chromadoze,Z3A6QU9xcFRPRkswazlIbHl6cmx6RmIwSVQ0UTRkV2ljRUx0Z29xY1dZQVlTNnhCeW1sck0tOGVjRmM0OHhicGJCR3VBUXNEQ004OUhMUlNiZnNBVEJleTFZ,English,,5,2016-01-15,Karicat Watts,Shut up!,your ear make their own symphony and it bother you,,
Chroma Doze (white noise),Google Play,net.pmarks.chromadoze,Z3A6QU9xcFRPRkswazlIbHl6cmx6RmIwSVQ0UTRkV2ljRUx0Z29xY1dZQVlTNnhCeW1sck0tOGVjRmM0OHhicGJCR3VBUXNEQ004OUhMUlNiZnNBVEJleTFZ,English,,5,2016-01-15,Karicat Watts,Shut up!,you need this,,
Chroma Doze (white noise),Google Play,net.pmarks.chromadoze,Z3A6QU9xcFRPRkswazlIbHl6cmx6RmIwSVQ0UTRkV2ljRUx0Z29xY1dZQVlTNnhCeW1sck0tOGVjRmM0OHhicGJCR3VBUXNEQ004OUhMUlNiZnNBVEJleTFZ,English,,5,2016-01-15,Karicat Watts,Shut up!,it tune up your brain,,
Chroma Doze (white noise),Google Play,net.pmarks.chromadoze,Z3A6QU9xcFRPRkswazlIbHl6cmx6RmIwSVQ0UTRkV2ljRUx0Z29xY1dZQVlTNnhCeW1sck0tOGVjRmM0OHhicGJCR3VBUXNEQ004OUhMUlNiZnNBVEJleTFZ,English,,5,2016-01-15,Karicat Watts,Shut up!,i am very eased by this,,
Chroma Doze (white noise),Google Play,net.pmarks.chromadoze,Z3A6QU9xcFRPRkswazlIbHl6cmx6RmIwSVQ0UTRkV2ljRUx0Z29xY1dZQVlTNnhCeW1sck0tOGVjRmM0OHhicGJCR3VBUXNEQ004OUhMUlNiZnNBVEJleTFZ,English,,5,2016-01-15,Karicat Watts,Shut up!,thank you,,
Chroma Doze (white noise),Google Play,net.pmarks.chromadoze,Z3A6QU9xcFRPRlpDbmhiT0dXVGdfRFh2ZEIyemtTbUVWVmhGNkVmUm15c2pnNDdRZW42QWplWTUxN3ZvRnlnRThZMGxmRGM2clNfWjVMMFpDX0lNSkdWb1Fj,English,,5,2016-01-10,Jay Kienlen,NEW UPDATE EVEN EASIER TO CREATE,it had a adjustable off timer it would be perfect,,
