# deletions,date,commit message
8,2013/9/21,replace built-in divider by more reliable dividers
5,2013/9/21,fixed a few little issues
3,2013/9/20,adapt Ambiguous Location Activity to the rest
27,2013/9/20,improve folding out of stops
1,2013/9/20,Writing a more extensive readme file
2,2013/9/19,prepare addition to F-Droid
2,2013/9/19,switch to dynamically build pte lib
22,2013/9/19,improve table row dividers for trip activities
2,2013/9/19,use blue instead of green
4,2013/9/19,use color to indicate proper location
13,2013/9/19,Use proper location names. Fixes #5  Names like Centrum or Zentrum are still not distinguished. This needs to be filed against the upstream public transport enabler.  See Location.java there for NON_UNIQUE_NAMES
109,2013/9/18,improve trip detail view
2,2013/9/17,fix string issue from last commit
14,2013/9/16,beginning of visual trip details improvements
27,2013/9/15,added little boxes to visually represent transportation lines
1,2013/9/15,Fixes #1
4,2013/9/15,fix bug when clicking on trip with earlier trips loaded
69,2013/9/15,change trip layout
127,2013/9/15,show trip details on own page
6,2013/9/15,handle change of network provider properly
20,2013/9/15,always append new trips never clear view
6,2013/9/15,don't split action bar when narrow
22,2013/9/15,removed lint warnings
10,2013/9/15,added PullToRefresh for trip list
1,2013/9/14,hide first start notice when it is not the first start
4,2013/9/14,force choosing a transportation network at first run
11,2013/9/14,show about dialog at first start
15,2013/9/14,improve querying for more trips
4,2013/9/14,show confirmation dialog before deleting favorites
11,2013/9/14,localize remaining strings
4,2013/9/14,home button in trips activity acts as back button
3,2013/9/14,add icons for main menu actions
6,2013/9/14,restrict favorite locations to transport network
12,2013/9/13,fix some issues with trip display
27,2013/9/13,add support for different network providers
15,2013/9/12,add main menu and about dialog
2,2013/9/12,switched arrival and departure in trip details
11,2013/9/10,first implementation of earlier/later trip buttons
12,2013/9/10,check for internet availabilty and proper locations
1,2013/9/09,fix bug with trips that have no changes
2,2013/9/09,fix bug with non-existent fav file
6,2013/9/09,first styling experiments
21,2013/9/08,some fixes for individual trips
20,2013/9/08,implemented favorite location handling
