package,release ID,UI element,related topic,average polarity,# reviews,average rating,average objectivity,# uninstalls,delta rating,element deleted next release
com.luorrak.ouroboros,V0.7.1,@+id/thread_embed_play_button$,375,-0.06666666666666667,1,4.0,0.5166666666666667,0,-0.1578947368421053,0
com.luorrak.ouroboros,V0.7.1,@+id/app_bar$,380,-0.06666666666666667,1,4.0,0.5166666666666667,0,-0.1578947368421053,0
com.luorrak.ouroboros,V0.7.1,@+id/thread_media_play_button$,386,-0.06666666666666667,1,4.0,0.5166666666666667,0,-0.1578947368421053,0
com.luorrak.ouroboros,V0.7.1,@+id/gallery_video_play_button$,390,-0.06666666666666667,1,4.0,0.5166666666666667,0,-0.1578947368421053,0
com.luorrak.ouroboros,V0.7.1,@+id/deepzoom_media_play_button$,397,-0.06666666666666667,1,4.0,0.5166666666666667,0,-0.1578947368421053,0
com.luorrak.ouroboros,V0.7.1,@+id/watchlist_title$,401,0.0,1,1.0,1.0,0,-3.1578947368421053,0
com.luorrak.ouroboros,V0.7.1,@+id/thread_sub_text$This is my thread title,406,0.0,1,1.0,1.0,0,-3.1578947368421053,0
