revert previous jump to the top fix,b,2013/2/22,,
override default with my own,f,2013/2/21,,
attempt to fix both and recycled error,b,2013/2/21,,
fix screen not changing,b,2013/2/21,,
made running update safer and le likely to crash on startup,b,2013/2/20,,
fix a bunch of corner case for need to change,b,2013/2/20,,
make special minimize work done before playing next song,b,2013/2/19,,
fix typo,b,2013/2/19,,
setup hand and play the instant last song end,o,2013/2/19,,
added fling remove option,f,2013/2/17,,
added drag drop functionality to now playing tab,f,2013/2/17,,
added library,f,2013/2/15,,
upped version 374,f,2013/2/15,,
