update translation,b,2016/2/12,,
fix crash trying to long press top row of share dialog,b,2016/2/11,,
fix clicking play casting not starting automatically,b,2016/2/11,,
disable global it cause continual issue,b,2016/2/11,,
security fix work around to not put in password,b,2016/2/10,,
fixed 644 older version of android require connection open parsing response,b,2016/2/09,,
fix crash on older version of subsonic,b,2016/2/04,,
add ability to update music folder have on by default in create,f,2016/2/04,,
remove log,b,2016/2/04,,
456 fix music folder header,b,2016/2/04,,
move shared detail dialog over to new format,b,2016/2/04,,
fix 631 increase scroll margin a bit more,b,2016/2/02,,
fix 638 make playback casting optional,b,2016/2/02,,
fix indention to use tab,b,2016/2/01,,
recreated image from scratch to improve the quality,b,2016/1/30,,
look much better now,o,2016/1/30,,
fix search no longer putting previous query in input,b,2016/1/27,,
fix 625 infinite recursion doing play x with now playing visible,b,2016/1/27,,
change to catch all exception for null reference,b,2016/1/24,,
fix infinite adapter doing call in case of loading 5 item,b,2016/1/22,,
fix 626 put missing artist instead of requiring dialog,b,2016/1/21,,
refresh cache every couple of month,b,2016/1/21,,
change song clicking to add stuff it a well,f,2016/1/21,,
show shuffle radio instead of playing x of y subtitle,f,2016/1/21,,
fix 624 add specific song list to home tab,b,2016/1/21,,
auto add ability to play last,f,2016/1/18,,
fix issue with playing the same song twice in a row,b,2016/1/18,,
fixed 621 disable play after behavior on album list and work on song,b,2016/1/18,,
514 released,f,2016/1/17,,
fix not working with hardware acceleration 43,b,2016/1/17,,
