the developer is a champ,b,2013-11-20,Nathan B,5
everything work and i love the consistent update,o,2013-11-20,Nathan B,5
this client is better anything on any platform,o,2013-11-20,Nathan B,5
i recommend it to everyone,o,2013-11-20,Nathan B,5
1000,f,2013-11-20,Nathan B,5
and the really work at improving it,f,2013-11-15,Harold McLaughlin,5
the ha gotten better and better,b,2013-11-15,Harold McLaughlin,5
update is the best yet,b,2013-11-15,Harold McLaughlin,5
great looking alternative to the subsonic,b,2013-11-15,A Google User,5
i have no issue streaming in the browser,b,2013-11-15,Daniele Angeli,3
the demo server instead work fine,b,2013-11-15,Daniele Angeli,3
any known bug,b,2013-11-15,Daniele Angeli,3
thanks,o,2013-11-15,Daniele Angeli,3
new is incredible,o,2013-11-15,Derrick Trujillo,5
this is absolutely indispensable to and continued work from the developer make it better and better every time,o,2013-11-15,Derrick Trujillo,5
the best application for large music collection,o,2013-11-15,John Dickens,5
a brilliant i use every day and one of the best i have dealt with,o,2013-11-15,A Google User,5
