my problem with the official subsonic wa it would restart every song after 30 second,b,2014-06-12,Matthew Tkach,5
it is and completely worth the for this reason alone,b,2014-06-12,Matthew Tkach,5
good subsonic client easy to good reliable,o,2014-06-10,Risto Louhi,5
edit changed the rating to 5 star after a developer reply explaining lack of multiple separator issue is a limitation of the subsonic server itself and not due to design,b,2014-06-10,Risto Louhi,5
work great,o,2014-06-03,Evan Leis,5
should casting not try to restart your first,b,2014-06-03,Evan Leis,5
this is the best subsonic by a fair margin,b,2014-06-03,Matthew Raven,5
love it,o,2014-06-03,Matthew Raven,5
the best subsonic player going to be better and better,f,2014-06-01,Encho Topalov,5
unique good music player and just the best android client for subsonic music streaming service,o,2014-06-01,Encho Topalov,5
keep your perfect work,o,2014-06-01,Encho Topalov,5
