added press highlight to button on download tab standardize layout,b,2013/7/16,,
better message for trying to click on downloading channel,b,2013/7/16,,
delete,b,2013/7/16,,
unused import,f,2013/7/16,,
use default system slider which look nicer,b,2013/7/15,,
fix crash on trying to click on downloading channel,b,2013/7/12,,
added video streaming option for video player,f,2013/7/11,,
fix remove from showing up on normal song menu,b,2013/7/11,,
in landscape have the album art align on left instead of middle,b,2013/7/11,,
add support for,f,2013/7/09,,
show server header in mode name if from other server are actually cached,b,2013/7/09,,
forgot to change this to new package name forever ago,b,2013/7/09,,
add other method,f,2013/7/08,,
abstract out info dialog more use it for detail dialog,b,2013/7/07,,
lower case passed in confirmation action,o,2013/7/07,,
double press pause to skip to next song,b,2013/7/07,,
fix pressing play from widget starting song over,b,2013/7/05,,
draw genre button like a spinner,f,2013/7/03,,
convert all fragment over to displaying nothing error,b,2013/7/02,,
added server version check to new method,b,2013/7/02,,
upped version to 407,f,2013/7/02,,
