some troubleshooting back and forth with the it now work perfectly,o,2014-04-14,Jay Deiman,5
i like the interface better the default subsonic and the support i received in resolving my issue wa exceptional,b,2014-04-14,Jay Deiman,5
i highly recommend the and this developer,o,2014-04-14,Jay Deiman,5
,o,2014-04-04,Dan Greve,5
i would even say best music streamer period it plugged into all access a well,o,2014-04-02,,5
hoping,b,2014-04-02,,5
