# deletions,date,commit message
1,2013/9/15,Minor typo fix in default locale
6,2013/9/14,Italian translation updated to 3.3.2
3,2013/9/14,Application: Bump to version 3.3.4
3,2013/9/14,Preferences: Handle old reversed mount from within the application
6,2013/9/14,Fix sqlite3 installer to avoid boot loops
3,2013/9/14,Application: Bump to version 3.3.2
10,2013/9/14,Root: Fix masive nullPointerException issues
3,2013/9/14,Application: Bump to version 3.3.0
1,2013/9/14,Manifest: Change target to Android 4.3
0,2013/9/14,Update RootFW to version 1.2.0
278,2013/9/14,Settings: Add fallback installs for S-On devices
3,2013/9/12,Lock down the App Manager
20,2013/9/11,Add new App Manager This is used to convert apps from regular user apps to system apps and back (/data/app ~> /data/app-system)
12,2013/9/09,Translated V3.2.0 new messages+some improvements
5,2013/9/09,Settings: Fix a few small bugs
3,2013/9/09,Application: Bump to version 3.2.0
3,2013/9/09,Upstart Script: Bump to version 6.0.10
4,2013/9/09,Settings: Add SQLite3 installer
59,2013/9/09,Settings: Cleanup script installer
1,2013/9/08,Upstart Script: Fix small bug
13,2013/9/08,Translation: Fix italian
9,2013/9/08,Upstart Script: Fix a few shell bugs in environment setup
8,2013/9/07,Preferences: Avoid using RootFW.Filesystem.statFstab if possible RootFW.Filesystem.statMount is faster so let's use this instead whenever we can
22,2013/9/06,Improved Italian translation
3,2013/9/02,Application: Bump to version 3.1.8
4,2013/9/02,Upstart Script: Bump to version 6.0.8
0,2013/9/02,Update RootFW3 to version 1.1.0
1,2013/9/02,Upstart Script: Fix not detecting folder suppport Not all ROM's include supported data folders in the RC files. So we also need to check the actual existence of the folders
1,2013/9/01,Update English and Danish translations
4,2013/9/01,Settings: Allow translating upstart script info
8,2013/9/01,Update English language file
3,2013/9/01,Allow translating tab names for tablet layout
3,2013/8/31,Application: Bump to version 3.1.4
4,2013/8/31,Upstart Script: Bump to version 6.0.6
0,2013/8/30,Update RootFW3 to version 1.0.4
147,2013/8/30,Upstart Script: Handle empty values better
3,2013/8/30,Application: Bump to version 3.1.2
4,2013/8/30,Upstart Script: Bump to version 6.0.4
1,2013/8/30,Make sure that the internal busybox is always up-to-date
1,2013/8/30,Generate more logging to help debug issues
7,2013/8/30,Change temp dir /tmp ~> /mounts2sd-tmp It seams that some ROM's clears /tmp on boot
37,2013/8/30,Make better compatibility between different devices and ROM's One of the biggest issues with different devices and ROM's is that they are using different shells with different support. Some ROM's uses a pure sh others link sh to busybox some to mkfs some to buxybox mkfs and even a few uses dash.  These different environments is the cause of the majority of issues although the script tries to adapt to the shell it is running in. However the script does still need some features and when running a shell with almost none at all (Dash for one) it is dificult to add support for it. To avoid this in the future we now add a small runner script to init.d and move Mounts2SD out of the init.d folder. The runner script will invoke the upstart script using the best available shell on the device and limiting these issues by using simular shells on all devices. This will create a more controlled environment.  We also revert back to our prev busybox binary as this has proven to cause less issues.
1,2013/8/29,Use the correct strings in the infobox
1,2013/8/29,Remove debug infobox value
2,2013/8/28,Update french locale and fix default one
3,2013/8/28,Pump to version 3.1.0
4,2013/8/28,Upstart Script: Pump to version 6.0.2
0,2013/8/28,Update to RootFW3
6,2013/8/28,Cleanup and Update sd-ext scripts remover
1,2013/8/28,Res/Selectors: Change title CFG ~> CFQ
3,2013/8/28,Overview: Add warning when fschk has found partition issues
1,2013/8/28,Add Boot Receiver Each time the application is launched after a boot it takes longer to load as it needs to check all of the device setups. So we will do this automatically after each boot to speed up the first launch for users
1,2013/8/28,Overview: Add warning to content options Some of the content options like system files data and apps contain more than one directory which is moved or reverted depending on the state. Apps for an exmaple has app app-private app-asec and app-system. If one of these is not moved to the correct location perhaps because of low space we can't just show a green bullet.
6,2013/8/28,Application Settings: Resolve script install issues RootFW3 does not override existing files when copying or moving. So we should make sure that files really is gone before attempting to extract new once.
113,2013/8/28,Make Message Relay work as it should At the moment Message Relay does not have any point. However at some point messages will be moved to their own Tab Fragments and more messages might also be added. In this case one activity should not call another one. It just feels wrong and the Tab Controller Activity may also not always be the one handling the messages. So we make a relay which can be called. Then a Receiver can be added to handle them. This Receiver can be changed at any time without altering any message input classes.
348,2013/8/25,Prepare switch from RootFW ~> RootFW3
20,2013/8/24,End of translation
6,2013/8/23,Fix some typo in default locale
2,2013/8/20,Script: Better search in init.rc We cannot just search for a specific word in a line. We need to make sure that the line starts with these words. Otherwise the line could be anything.
0,2013/8/11,Update RootFW to latest developer version
0,2013/8/07,Add new Logo
6,2013/8/07,Fix possible null pointer exceptions
0,2013/7/25,Replace internal busybox with wider supported version
1,2013/7/25,Fix upstart script error on external busybox versions
2,2013/7/20,Handle wrong log syntax
1,2013/7/20,Include error level in script inviroment setup
1,2013/7/19,Fix typo which hides IMMC option when missing EMMC
7,2013/7/19,Add IMMC support for BML devices
23,2013/7/18,Add new Application
30,2013/7/03,Startup Script: Add support for /data/[name]_s/ directories A lot of ROM's (Larger and newer systems for small devices) has started adding a lot of different system content on to /data/[system folder name]_s/ which is then linked back to /system. In order to avoid boot issues we need to have some support for these folders.
