Topic,Words
0,0.081*i,0.074*odd,0.071*and,0.062*in,0.061*are,0.061*now,0.059*can,0.058*the,0.057*gone,0.048*not
1,0.121*good,0.094*gone,0.064*version,0.062*widgets,0.061*free,0.057*the,0.055*be,0.054*odd,0.037*paid,0.034*help
2,0.140*the,0.121*see,0.121*but,0.061*are,0.061*odd,0.061*like,0.059*gone,0.047*widgets,0.045*available,0.029*can
3,0.141*in,0.091*like,0.089*and,0.085*are,0.071*can,0.067*i,0.057*be,0.045*now,0.044*see,0.037*widgets
4,0.119*larger,0.085*see,0.081*be,0.077*widgets,0.077*and,0.073*found,0.068*paid,0.052*version,0.048*good,0.048*but
5,0.101*be,0.098*are,0.091*as,0.088*found,0.070*option,0.057*i,0.057*paid,0.056*bought,0.043*not,0.036*now
6,0.112*but,0.087*i,0.076*for,0.076*not,0.074*paid,0.070*larger,0.066*can,0.061*the,0.045*are,0.038*found
7,0.175*good,0.084*not,0.079*see,0.069*but,0.067*and,0.064*larger,0.062*are,0.055*version,0.036*help,0.034*found
8,0.182*but,0.085*the,0.068*are,0.060*found,0.055*as,0.050*odd,0.049*to,0.046*version,0.046*available,0.043*i
9,0.142*of,0.123*see,0.099*the,0.092*to,0.082*option,0.066*larger,0.055*now,0.047*can,0.032*paid,0.031*like
10,0.160*the,0.152*now,0.095*option,0.082*gone,0.056*i,0.049*but,0.046*to,0.037*be,0.035*widgets,0.031*version
11,0.149*and,0.116*option,0.079*of,0.065*in,0.059*larger,0.059*odd,0.055*available,0.053*gone,0.049*but,0.044*now
12,0.136*to,0.098*available,0.086*bought,0.074*but,0.071*in,0.066*for,0.063*free,0.060*good,0.040*and,0.037*gone
13,0.240*larger,0.110*like,0.083*gone,0.082*bought,0.061*of,0.053*found,0.053*to,0.050*version,0.030*available,0.026*widgets
14,0.120*as,0.114*found,0.098*option,0.065*not,0.062*widgets,0.061*in,0.051*now,0.050*be,0.048*help,0.046*see
15,0.133*i,0.103*gone,0.087*widgets,0.076*bought,0.066*good,0.051*to,0.049*odd,0.048*found,0.048*as,0.040*in
16,0.138*good,0.086*are,0.083*be,0.077*see,0.069*to,0.058*as,0.055*odd,0.049*help,0.039*in,0.039*bought
17,0.094*bought,0.083*but,0.079*as,0.069*for,0.064*paid,0.062*in,0.057*help,0.056*be,0.048*widgets,0.047*can
18,0.161*and,0.104*now,0.092*help,0.078*paid,0.077*free,0.073*to,0.064*bought,0.060*for,0.051*the,0.034*not
19,0.081*but,0.077*like,0.076*available,0.074*now,0.071*larger,0.068*gone,0.068*of,0.056*be,0.047*found,0.045*the
