App,Store,App ID,Review ID,Country,Version,Rating,Date,Author,Subject,Body,Translated Subject,Translated Body
Prestissimo,Google Play,com.falconware.prestissimo,Z3A6QU9xcFRPRS1JcWMxdHpHaUdDaS1aT3p1Q2gxV25uMUR6WDhGTlVncVJxMEFRMlhvSDdHb2NfOC16VGlYRHNRNjRfV1BlOWRibzRjUjJwSEZ4dThGM05j,English,,5,2017-03-10,Josh Utley,,great,,
Prestissimo,Google Play,com.falconware.prestissimo,Z3A6QU9xcFRPSDJRWVNzWWVrcVFwUmdCR1BOUlRYUUYwZjlGZGpxZHVWRTNUMHhUSkdFZWhieEhIbl9QUTZudnhsXzY2UVV5bTFOVXAzRVlpeGJtVHNXZ0Qw,English,,4,2016-02-27,seamount high,No frill Just works seamlessly,simply installed it and it just work seamlessly with,,
Prestissimo,Google Play,com.falconware.prestissimo,Z3A6QU9xcFRPRnZrRm1DY0tvQ3hEdkoxZlppNW15bEF0UlhhQ2dVWE82elUzZ0U0ZmZjaWpGelZpNHoxWUF2R2g2TnZXUThWY1k2RE9xRkdvT05FMXh2Z2dv,English,,1,2015-12-20,Jennifer Narang,,not a functional replacement,,
Prestissimo,Google Play,com.falconware.prestissimo,Z3A6QU9xcFRPRnZrRm1DY0tvQ3hEdkoxZlppNW15bEF0UlhhQ2dVWE82elUzZ0U0ZmZjaWpGelZpNHoxWUF2R2g2TnZXUThWY1k2RE9xRkdvT05FMXh2Z2dv,English,,1,2015-12-20,Jennifer Narang,,it made my stop,,
Prestissimo,Google Play,com.falconware.prestissimo,Z3A6QU9xcFRPRnZrRm1DY0tvQ3hEdkoxZlppNW15bEF0UlhhQ2dVWE82elUzZ0U0ZmZjaWpGelZpNHoxWUF2R2g2TnZXUThWY1k2RE9xRkdvT05FMXh2Z2dv,English,,1,2015-12-20,Jennifer Narang,,please bring back presto,,
Prestissimo,Google Play,com.falconware.prestissimo,Z3A6QU9xcFRPRjVHRzAyb1lJSnZEZjVsSWdUb0QtMlRzQzJuRFJjaXhLbHZRR3AySXlDaVBLcXEwX2xVTDVwM3NNby1BS3BUbEdIdW9wcWQwdDBHa3ZtYzBv,English,,1,2015-12-02,Marek Kopel,Battery and data(?!?) drain.,really,,
Prestissimo,Google Play,com.falconware.prestissimo,Z3A6QU9xcFRPR1MwUTdhNFhjV3hwRkl0eGVIb0phT0NmUG9EZGNCcnFYTDk2dG1DS2sxLTJJdUp5MVZBWGFzZ3dhZ2JDLXRXeENLeEFJOUphT2Iwc2pQbm9N,English,,2,2015-11-15,Marton T. Sass,Doesn't work with AntennaPod anymore,worked fine with but then one or the other upgraded and killed functionality,,
Prestissimo,Google Play,com.falconware.prestissimo,Z3A6QU9xcFRPR1MwUTdhNFhjV3hwRkl0eGVIb0phT0NmUG9EZGNCcnFYTDk2dG1DS2sxLTJJdUp5MVZBWGFzZ3dhZ2JDLXRXeENLeEFJOUphT2Iwc2pQbm9N,English,,2,2015-11-15,Marton T. Sass,Doesn't work with AntennaPod anymore,probably this is to blame,,
Prestissimo,Google Play,com.falconware.prestissimo,Z3A6QU9xcFRPRmYySzVtSjJ4eFJzakVHMk50SFJxVndsVk1UTXVYclRlVy1xVHJGb1dtQmx1dWdxM3B3RHloVHBiaVFfWDQzc3VGTmFZOHQ4eFRzZTVCRy1v,English,,3,2015-11-09,Bart Caris,Often crashes,but i love the faster,,
Prestissimo,Google Play,com.falconware.prestissimo,Z3A6QU9xcFRPSDZwX0I5bGdTVVNkMzlZVHN4S0Y3N3gyWFRPRzNWaklVVW1OeUtQS2ZNT2J1enJoSHhhWXE2eFdELXRyVzVaMTljZEVTRTlXemZidkJGc2M0,English,,2,2015-09-14,,Crashes,constantly crash my,,
Prestissimo,Google Play,com.falconware.prestissimo,Z3A6QU9xcFRPRlRhTy1PQmhEcXBLV2dlN3R1Nld0eUJzb2ktLVFUcFVHMGpVYW8tTDNqZ20zTlhoZjFKZzJvXzZqVzV5UDNNNlNOMzdqUWY5M1FBSnR1cmR3,English,,3,2015-09-03,markvjh,,crash on note 4 far too frequently listening to,,
Prestissimo,Google Play,com.falconware.prestissimo,Z3A6QU9xcFRPRlRhTy1PQmhEcXBLV2dlN3R1Nld0eUJzb2ktLVFUcFVHMGpVYW8tTDNqZ20zTlhoZjFKZzJvXzZqVzV5UDNNNlNOMzdqUWY5M1FBSnR1cmR3,English,,3,2015-09-03,markvjh,,will be fantastic fixed,,
Prestissimo,Google Play,com.falconware.prestissimo,Z3A6QU9xcFRPR0FkTHQ5bnBPUVJXZ0pXZDh6c21hZW1YVE1GdmdBTWUwY1VmRHVyR2JOYzJiWEIxMU9qbm80WmVqWmNtSUg2a0Q4Z3NwNVNvb0xWVHYwUXVR,English,,4,2015-06-27,Elm Syrup,Pretty good,i am a addict this mean i can listen to even more,,
Prestissimo,Google Play,com.falconware.prestissimo,Z3A6QU9xcFRPR0FkTHQ5bnBPUVJXZ0pXZDh6c21hZW1YVE1GdmdBTWUwY1VmRHVyR2JOYzJiWEIxMU9qbm80WmVqWmNtSUg2a0Q4Z3NwNVNvb0xWVHYwUXVR,English,,4,2015-06-27,Elm Syrup,Pretty good,it work well with pro,,
Prestissimo,Google Play,com.falconware.prestissimo,Z3A6QU9xcFRPR0FkTHQ5bnBPUVJXZ0pXZDh6c21hZW1YVE1GdmdBTWUwY1VmRHVyR2JOYzJiWEIxMU9qbm80WmVqWmNtSUg2a0Q4Z3NwNVNvb0xWVHYwUXVR,English,,4,2015-06-27,Elm Syrup,Pretty good,it doe drain the battery though,,
Prestissimo,Google Play,com.falconware.prestissimo,Z3A6QU9xcFRPR1AwQ2hDeFBscUxXVmZzemhETlAzZVdFRzdzQlhpZURLU3NYbUdkVko4VlFUS19ZSFIzNkdkSEZrenQ4bG00aGdTaFhlUFBiZGVjcExMaGtj,English,,3,2015-04-14,Rod Roller,Battery killer!,work great with but i noticed my battery draining a lot,,
Prestissimo,Google Play,com.falconware.prestissimo,Z3A6QU9xcFRPR1AwQ2hDeFBscUxXVmZzemhETlAzZVdFRzdzQlhpZURLU3NYbUdkVko4VlFUS19ZSFIzNkdkSEZrenQ4bG00aGdTaFhlUFBiZGVjcExMaGtj,English,,3,2015-04-14,Rod Roller,Battery killer!,i went into battery setting and used 21 but used 12,,
Prestissimo,Google Play,com.falconware.prestissimo,Z3A6QU9xcFRPR1AwQ2hDeFBscUxXVmZzemhETlAzZVdFRzdzQlhpZURLU3NYbUdkVko4VlFUS19ZSFIzNkdkSEZrenQ4bG00aGdTaFhlUFBiZGVjcExMaGtj,English,,3,2015-04-14,Rod Roller,Battery killer!,love the faster playback but not enough for that,,
Prestissimo,Google Play,com.falconware.prestissimo,Z3A6QU9xcFRPSE9sQzFHZThBTV9xb1dTQm5fWnFaY3laOUdrRGZyelZ5QTlYbG03NEVpWlZ4RTl5cU5rSzdoR2RhNTBCc1pTR3B0NWtEWkxwdWh6UGNMbWNj,English,,3,2015-03-23,Brady Brown,Speeds up but not down?,thanks for a free upgrade to my player,,
Prestissimo,Google Play,com.falconware.prestissimo,Z3A6QU9xcFRPSE9sQzFHZThBTV9xb1dTQm5fWnFaY3laOUdrRGZyelZ5QTlYbG03NEVpWlZ4RTl5cU5rSzdoR2RhNTBCc1pTR3B0NWtEWkxwdWh6UGNMbWNj,English,,3,2015-03-23,Brady Brown,Speeds up but not down?,but why can i speed out playback and not step too,,
Prestissimo,Google Play,com.falconware.prestissimo,Z3A6QU9xcFRPSE9sQzFHZThBTV9xb1dTQm5fWnFaY3laOUdrRGZyelZ5QTlYbG03NEVpWlZ4RTl5cU5rSzdoR2RhNTBCc1pTR3B0NWtEWkxwdWh6UGNMbWNj,English,,3,2015-03-23,Brady Brown,Speeds up but not down?,otherwise,,
Prestissimo,Google Play,com.falconware.prestissimo,Z3A6QU9xcFRPRVF2dkh3d3V3eFpqZzBzaFpMUlRCZzVWVFg4Yk9zMmRpSGJ1cVlvSDhGU1ZfclF3RWo2dlIyVm5GVFhvRHlEdWRicU5yUmRlVlhXREdwQWFJ,English,,1,2015-03-19,Roy Klein,Depletes the battery,like other i too had to remove it seriously depletes the battery,,
Prestissimo,Google Play,com.falconware.prestissimo,Z3A6QU9xcFRPRVF2dkh3d3V3eFpqZzBzaFpMUlRCZzVWVFg4Yk9zMmRpSGJ1cVlvSDhGU1ZfclF3RWo2dlIyVm5GVFhvRHlEdWRicU5yUmRlVlhXREdwQWFJ,English,,1,2015-03-19,Roy Klein,Depletes the battery,too bad,,
Prestissimo,Google Play,com.falconware.prestissimo,Z3A6QU9xcFRPSEtUT0E1NTMtYkdvSHJCS0tJak9YWndNd3VVT01WMDFpcF9yYWlSSDlmWDZmNXpJbXFpVElsdm1xNGM3QUtUVVZhakN2TFlZLV9LbkxablVN,English,,5,2015-03-11,Jason Murdock,Excellent!,work with,,
Prestissimo,Google Play,com.falconware.prestissimo,Z3A6QU9xcFRPSEtUT0E1NTMtYkdvSHJCS0tJak9YWndNd3VVT01WMDFpcF9yYWlSSDlmWDZmNXpJbXFpVElsdm1xNGM3QUtUVVZhakN2TFlZLV9LbkxablVN,English,,5,2015-03-11,Jason Murdock,Excellent!,better presto,,
Prestissimo,Google Play,com.falconware.prestissimo,Z3A6QU9xcFRPRmlDbUZCTnVTcXpCNFpxQjFZR19Vc1RQYmZQUWstdm5ydVppRGpLeUJYSGk5cUZreTQ4Y2lNWTlQZFJLWXIyeHI0MHJvRTVlaVJpNi1aa0VF,English,,2,2015-03-11,Christian Dysthe,Battery drain an and choppy playback,i really wanted this to work with but it run constantly draining battery and the playback jump intermittently,,
Prestissimo,Google Play,com.falconware.prestissimo,Z3A6QU9xcFRPRThzQmR0LTlWaEJYaEhETmtmTlNpcnp0TXdWMFByT0tzdHJVYmNiTzhfdXhoNkZTT0c0OVIwNXBzSjdKR0UwdFRzQXVHOHlBWU0zTEhzbjdn,English,,5,2015-01-31,Craig St. Clair,Great,use with pro,,
Prestissimo,Google Play,com.falconware.prestissimo,Z3A6QU9xcFRPSHBGZ25yTmRXSWtNUkVtQlB6YlFtVE9TUkg4cDFBOGhjODBBVl9UbzRzcDVBZmRyOFBXbXExQ0h6OWZKY2NtTFg4cmFGMWZvNVBWdFJtdUFB,English,,1,2015-01-20,Tapan Kshatriya,Why this app I installed ???,and why you developed this,,
Prestissimo,Google Play,com.falconware.prestissimo,Z3A6QU9xcFRPSHBGZ25yTmRXSWtNUkVtQlB6YlFtVE9TUkg4cDFBOGhjODBBVl9UbzRzcDVBZmRyOFBXbXExQ0h6OWZKY2NtTFg4cmFGMWZvNVBWdFJtdUFB,English,,1,2015-01-20,Tapan Kshatriya,Why this app I installed ???,totally wasted,,
Prestissimo,Google Play,com.falconware.prestissimo,Z3A6QU9xcFRPRm52RVZ1RElJdlJST1BhOEF0TmxkUkt2aTZQc2pIeXdOTXBVaE9uQmdLUjhzWklHdzZJODFkYWs4dzZ5WkFRQmY5RUZCTlhWVFNGbV9SakZ3,English,,3,2014-12-30,John Shoemaker,S4,work well but seems to be taxing the battery,,
Prestissimo,Google Play,com.falconware.prestissimo,Z3A6QU9xcFRPRmtqazE3c2FKaV8zUnByQnpkMHRpNE1IUVBuSExqaUFtMG85VXBiMk5vSW16TTF4SEx6TnRLN2Q3ZHVmNFNhcGtqZ1NMdUJnNm5BTzNLNUlR,English,,5,2014-12-08,Ted Brassfield,lollypop!,working with android 50,,
Prestissimo,Google Play,com.falconware.prestissimo,Z3A6QU9xcFRPRmtqazE3c2FKaV8zUnByQnpkMHRpNE1IUVBuSExqaUFtMG85VXBiMk5vSW16TTF4SEx6TnRLN2Q3ZHVmNFNhcGtqZ1NMdUJnNm5BTzNLNUlR,English,,5,2014-12-08,Ted Brassfield,lollypop!,work well with antenna pod,,
Prestissimo,Google Play,com.falconware.prestissimo,Z3A6QU9xcFRPR2dpUUN3RnhQU2FNdUZ3Z3FsSFdJNFE3bWczWGZITEEza3QxTUFfSlN3b2RHU0RMQ2tBQXN1WWtwT0t6VE9tbXNjaVZVMDlEaGtMeXFyWi04,English,,1,2014-08-11,Chris Jolley,Took me a month...,to realize it wa what wa causing my battery drain,,
Prestissimo,Google Play,com.falconware.prestissimo,Z3A6QU9xcFRPR2dpUUN3RnhQU2FNdUZ3Z3FsSFdJNFE3bWczWGZITEEza3QxTUFfSlN3b2RHU0RMQ2tBQXN1WWtwT0t6VE9tbXNjaVZVMDlEaGtMeXFyWi04,English,,1,2014-08-11,Chris Jolley,Took me a month...,boo,,
Prestissimo,Google Play,com.falconware.prestissimo,Z3A6QU9xcFRPRWx3UHdnTFF5OGY1a3J3MjJxRFh4NXJZcDAyd0hrLXVRbHNxSnNZMm84WHVMVDJYRDlfZGdtWHdOMHIzc0tSbk1CeTh1TERGTlVlT0RIR0NV,English,,5,2014-06-27,Quentin Li,Works as advertised!,ton of speed and consistent sound,,
Prestissimo,Google Play,com.falconware.prestissimo,Z3A6QU9xcFRPRzdfUHhkcG1aWVBPVmNtWGpBVnBxeDBKR0VHczlfSjZvS2d0cm9JRnVVY1pTLUxpR0lBaW43UWw2V01kX3BHODNCcUM3VFZYSDhQb1VrcWVn,English,,5,2014-06-19,Cory White,,use with work well,,
Prestissimo,Google Play,com.falconware.prestissimo,Z3A6QU9xcFRPRzVXeDRjdVVHVm9CNGhqcXN3bTd6Y3ZJV04zOTMwbWkybklLaEt6S0JYc0xJMVU4TGJWT292OWxJY1R0ZmdoUkp4bjlldE5xa0RvaUpkRE9B,English,,5,2014-03-24,Christian Skålvik,Works great,really love this,,
Prestissimo,Google Play,com.falconware.prestissimo,Z3A6QU9xcFRPRzVXeDRjdVVHVm9CNGhqcXN3bTd6Y3ZJV04zOTMwbWkybklLaEt6S0JYc0xJMVU4TGJWT292OWxJY1R0ZmdoUkp4bjlldE5xa0RvaUpkRE9B,English,,5,2014-03-24,Christian Skålvik,Works great,been using it with pro,,
Prestissimo,Google Play,com.falconware.prestissimo,Z3A6QU9xcFRPR0M5NDNJUkJLMm80LTBjOTRneFpmdXg5djUxa1V2WXBYdFUzNWwwdlRjMEY5RFJwNFNrMnFmdWx4VHBHRWJNS01MVXFoTFRJTk5JNlJsbmRv,English,,5,2014-01-21,Mirko Friedenhagen,Works really nicely with Podkicker Pro,voice are a lot le i thought them to be,,
Prestissimo,Google Play,com.falconware.prestissimo,Z3A6QU9xcFRPRi0zR2w0VVBCbEJIMkhwLVo5TGRLanhFazVhZURwQVFlNTh5UjVIMnNHMzdtb0dZdUdoVm1XLUpsdnBOeFBCbHRBX29DY1VyTDdXYnhIbUlz,English,,5,2013-11-26,john simano,Great app! .5X playback would be nice,very nice,,
Prestissimo,Google Play,com.falconware.prestissimo,Z3A6QU9xcFRPRi0zR2w0VVBCbEJIMkhwLVo5TGRLanhFazVhZURwQVFlNTh5UjVIMnNHMzdtb0dZdUdoVm1XLUpsdnBOeFBCbHRBX29DY1VyTDdXYnhIbUlz,English,,5,2013-11-26,john simano,Great app! .5X playback would be nice,my only request is for slower playback,,
Prestissimo,Google Play,com.falconware.prestissimo,Z3A6QU9xcFRPRi0zR2w0VVBCbEJIMkhwLVo5TGRLanhFazVhZURwQVFlNTh5UjVIMnNHMzdtb0dZdUdoVm1XLUpsdnBOeFBCbHRBX29DY1VyTDdXYnhIbUlz,English,,5,2013-11-26,john simano,Great app! .5X playback would be nice,thanks,,
Prestissimo,Google Play,com.falconware.prestissimo,Z3A6QU9xcFRPSFMxN2FaWGR3WnFwRzZhNUQ3ZjFDVzRIYTZxbjJnVjNsSEtFNzJHc0pOVjVNQnhleVdDVG56NEdON2I1eUtzV1l0N0pScGpTa2o3ZmpWQlZR,English,,5,2013-11-22,Steve Pomeroy,AntennaPod,work great with,,
