fix day cell alignment actually revert to it previous state which wa better,b,2015/4/26,,
it seems is no longer needed,o,2015/4/22,,
,o,2015/4/22,,
fix day color bug,b,2015/4/22,,
,o,2015/4/22,,
fix size issue caused not displaying of some day,b,2015/4/22,,
