Topic Index 1,Topic Index 2,Topic Similarity
17,5,0.20850000000000002
8,14,0.1875
19,9,0.17880000000000001
9,17,0.15460000000000002
11,19,0.1426
13,7,0.1288
15,2,0.11560000000000001
14,16,0.099
1,11,0.0759
10,13,0.0651
18,18,0.0646
12,1,0.053200000000000004
0,8,0.0418
7,4,0.0357
2,0,0.0
3,3,0.0
4,6,0.0
5,10,0.0
6,12,0.0
16,15,0.0
