Topic Index 1,Topic Index 2,Topic Similarity
9,1,1.0768
16,18,0.9712000000000001
17,15,0.8989
10,5,0.8236
2,12,0.7254
6,0,0.6664000000000001
1,2,0.5862
0,4,0.5599999999999999
18,14,0.532
19,11,0.27559999999999996
8,6,0.2464
13,3,0.2117
12,17,0.20399999999999996
15,13,0.19
4,9,0.18059999999999998
3,10,0.1258
5,19,0.10500000000000001
7,7,0.0
11,8,0.0
14,16,0.0
