Topic,Words
0,0.106*menu,0.089*knowledge,0.058*by,0.053*history,0.042*my,0.041*tool,0.037*very,0.034*restart,0.034*of,0.032*mind
1,0.083*by,0.080*functional,0.063*practical,0.052*it,0.042*tabs,0.036*is,0.035*developers,0.033*seekers,0.032*saved,0.031*knowledge
2,0.079*us,0.067*is,0.066*just,0.050*no,0.046*can,0.043*practical,0.042*guys,0.037*way,0.035*should,0.035*the
3,0.078*knowledge,0.067*us,0.054*practical,0.050*can,0.046*experiences,0.042*quit,0.036*is,0.033*helpful,0.030*way,0.030*developers
4,0.098*a,0.066*no,0.061*knowledge,0.054*us,0.048*add,0.045*for,0.042*way,0.035*search,0.033*power,0.033*after
5,0.077*still,0.065*a,0.062*developers,0.048*knowledge,0.046*my,0.044*goes,0.043*research,0.037*for,0.034*you,0.033*us
6,0.068*great,0.061*add,0.047*just,0.047*is,0.045*search,0.044*i,0.041*love,0.039*option,0.038*can,0.038*to
7,0.083*no,0.073*very,0.065*search,0.057*quit,0.055*for,0.047*functional,0.047*knowledge,0.039*is,0.035*most,0.029*menu
8,0.072*should,0.069*menu,0.061*a,0.049*experiences,0.046*mind,0.042*content,0.040*of,0.036*love,0.035*soul,0.035*that
9,0.072*us,0.055*way,0.054*after,0.043*by,0.035*seekers,0.034*can,0.033*not,0.033*the,0.030*a,0.029*menu
10,0.099*great,0.073*no,0.064*content,0.064*us,0.047*tool,0.045*more,0.039*goes,0.035*is,0.034*tabs,0.030*function
11,0.106*still,0.061*research,0.056*great,0.056*functional,0.041*those,0.041*power,0.039*a,0.037*tool,0.036*by,0.036*quit
12,0.071*menu,0.053*more,0.052*i,0.052*to,0.050*those,0.047*tabs,0.038*seekers,0.037*content,0.033*after,0.032*search
13,0.066*practical,0.060*tool,0.056*a,0.055*knowledge,0.055*saved,0.041*option,0.040*after,0.036*history,0.035*mind,0.032*add
14,0.067*still,0.057*just,0.055*restart,0.055*and,0.051*option,0.049*those,0.047*soul,0.047*power,0.036*tabs,0.034*practical
15,0.091*great,0.070*practical,0.061*restart,0.047*tool,0.045*quit,0.042*knowledge,0.034*that,0.028*history,0.028*appreciation,0.028*for
16,0.110*by,0.067*practical,0.046*tool,0.042*and,0.041*guys,0.038*saved,0.036*it,0.035*goes,0.032*functional,0.032*a
17,0.082*just,0.060*mind,0.056*functional,0.052*practical,0.052*power,0.048*experiences,0.046*option,0.036*tool,0.031*very,0.031*after
18,0.060*helpful,0.048*soul,0.045*to,0.044*guys,0.042*developers,0.035*that,0.034*hope,0.032*the,0.030*my,0.030*you
19,0.073*great,0.061*appreciation,0.052*knowledge,0.052*function,0.049*just,0.047*by,0.039*not,0.036*search,0.034*practical,0.034*goes
