# deletions,date,commit message
1,2015/1/25,Next version is 1.0.24
61,2015/1/25,Revert "Use autocomplete for person names"  This reverts commit ad51f30a9db3d5a4e59ff782326449bd6258dcf0.
1,2015/1/25,Next version is 1.0.23
