# deletions,date,commit message
41,2014/10/22,added rename droplet feature
23,2014/10/21,fixes droplets not appearing when TFA is enabled. resolves #19
0,2014/10/13,added missing file
13,2014/10/13,Enabled proguard and lint fixes
9,2014/10/13,Downgraded AsyncHttp to 1.4.5
93,2014/10/06,Get image data from droplet when the image is no longer available
36,2014/10/04,added automatic apk generation with signing
176,2014/10/04,removed unnecessary images and regions cache
4,2014/10/04,Fixed tracking actions issue after upgrade to android-async-http
294,2014/10/04,Upgraded the Asynchronous Http Client and changed from dependency on a jar to gradle dependecy
237,2014/10/03,Upgraded sshkeys to API V2
259,2014/10/02,Fixing some lint issues and CS
34769,2014/10/02,Added readme and removed unnecessary files
75,2014/9/29,fixing lint errors
7,2014/9/29,Delete local.properties
166,2014/9/28,updated .gitignore
4384,2014/9/27,Migrate to android studio
2,2014/9/26,Prepare for release for version 2.0
60,2014/9/25,get droplet by id from the api and improved notifications management.
164,2014/9/25,Display notifications for droplet actions
2,2014/9/24,Added the ability to refresh the oauth token 3 days before the expire
70,2014/9/23,CS updates
82,2014/9/23,Updated domains to use API V2
469,2014/9/22,Updated domain records to use API V2
122,2014/9/14,Updated the actions to work with api v2
22,2014/9/13,Fixed ssh to droplet
223,2014/9/12,Improved create droplet view
0,2014/9/12,added new flags
22,2014/9/06,Added support for CoreOS
2,2014/8/10,Added translation for Simplified and Traditional Chinese.
162,2014/8/09,Change language via settings.
16,2014/8/05,Fixed typos in original language files  Adjusted casing for several strings. Made the use of "synchronisation" vs. "synchronization" consistent always using "synchroisation" now.
1,2014/8/04,Synced german translation with original contents  Added the new strings and translated them to german.
1,2014/8/04,Fixed a typo
213,2014/8/02,Display droplet features.
7,2014/7/30,Save all networks related to a droplet
6,2014/7/27,Added memory cpu and disk to droplet.
12,2014/7/27,Saving refresh token and expiry date for oauth.
3,2014/7/21,Add user token and account name using oauth.
26,2014/7/19,Showing regions' features and availability.
2,2014/7/19,added London region flag
231,2014/7/16,updated to work on android api 20 and added uk flag
