Topic Index 1,Topic Index 2,Topic Similarity
5,9,2.0
7,15,2.0
17,5,2.0
0,1,1.0
1,0,1.0
2,14,1.0
3,3,1.0
4,17,1.0
6,19,1.0
8,4,1.0
9,2,1.0
11,10,1.0
13,13,1.0
15,18,1.0
18,6,1.0
10,7,0.0
12,8,0.0
14,11,0.0
16,12,0.0
19,16,0.0
