add support for android screen lock reuse including fingerprint for android 6,f,2015/11/21,,
possible in,o,2015/11/21,,
use,o,2015/11/21,,
use explicit import use static tag interface method are by definition public,o,2015/11/21,,
use class simple name for log tag instead of string fix some white space,b,2015/11/21,,
fix sending with no change sending from,b,2015/11/20,,
