like the look,o,2015-02-05,Brian Fanslau,5
prefer normal client over this one let me import wallet and other functionality,f,2015-02-05,Paul B,1
notice i saw said multi wa in this but can send to single address a far a i can tell,o,2015-02-05,Paul B,1
