upgrade to,b,2015/5/12,,
update dependency tool support library support repository,b,2015/5/11,,
use for,o,2015/3/16,,
swap default pay method,b,2015/3/14,,
bump and for release,f,2015/3/11,,
update from,b,2015/3/11,,
