Topic Index 1,Topic Index 2,Topic Similarity
0,4,11.11111111111111
3,0,11.11111111111111
1,6,5.263157894736842
2,12,5.263157894736842
4,9,5.263157894736842
5,3,5.263157894736842
6,16,5.263157894736842
7,7,5.263157894736842
8,15,5.263157894736842
9,8,5.263157894736842
10,13,5.263157894736842
11,18,5.263157894736842
12,1,0.0
13,2,0.0
14,5,0.0
15,10,0.0
16,11,0.0
17,14,0.0
18,17,0.0
19,19,0.0
