App,Store,App ID,Review ID,Country,Version,Rating,Date,Author,Subject,Body,Translated Subject,Translated Body
Hayai Search Launcher,Google Play,com.hayaisoftware.launcher,Z3A6QU9xcFRPRm8xdDRxTGZHaVZ3VHJTa2VzNmR6TnRLWU93cFM3bEdpNXVNMFJ0UERPbzdydWdxc211WnFKN1ZVa2lRaWk3SDhjQmJFSXU5el9Pb2YybGdn,English,,5,2016-01-05,Dalton de Oliveira Silva,,doe what it say in the description,,
Hayai Search Launcher,Google Play,com.hayaisoftware.launcher,Z3A6QU9xcFRPRm8xdDRxTGZHaVZ3VHJTa2VzNmR6TnRLWU93cFM3bEdpNXVNMFJ0UERPbzdydWdxc211WnFKN1ZVa2lRaWk3SDhjQmJFSXU5el9Pb2YybGdn,English,,5,2016-01-05,Dalton de Oliveira Silva,,extremely light search in your phone very quickly,,
Hayai Search Launcher,Google Play,com.hayaisoftware.launcher,Z3A6QU9xcFRPRm8xdDRxTGZHaVZ3VHJTa2VzNmR6TnRLWU93cFM3bEdpNXVNMFJ0UERPbzdydWdxc211WnFKN1ZVa2lRaWk3SDhjQmJFSXU5el9Pb2YybGdn,English,,5,2016-01-05,Dalton de Oliveira Silva,,this is one of those the programmer ha actually taken the care not to make a bloated that still handle the job perfectly,,
