# deletions,date,commit message
5,2015/10/26,fix crash about posting a null object to the
5,2015/10/25,update the notification progress every
1,2015/10/25,fix copyright in one string file
2,2015/10/24,new version 1240
5,2015/10/24,android studio code inspection fix
6,2015/10/24,added some support library annotation for resource id
14,2015/10/24,fixing some string
21,2015/10/24,show the name of the db operation in progress in the main activity
1,2015/10/24,fix for not being able to go back file export
5,2015/10/24,some minor adjustment to the db ops notification
30,2015/10/24,handle the import of a corrupt db file
53,2015/10/24,simplified call to notification builder
8,2015/10/24,translated db string into and
70,2015/10/24,rename some string
61,2015/10/24,fix android studio code inspection issue
51,2015/10/24,make db operation
3,2015/10/24,disable db ops one is in progress
11,2015/10/24,remove material dialog library
4,2015/10/24,improve the string used for both db deletion and limiting the db size
14,2015/10/24,change the notification icon
1,2015/10/24,show progress in the notification
1,2015/10/24,use a style
1,2015/10/24,fix title of notification
119,2015/10/24,show a toast beginning a db op
119,2015/10/24,moved to it own class
119,2015/10/24,and take string argument
157,2015/10/24,removed the task interface
157,2015/10/24,removed
157,2015/10/24,cleanup
289,2015/10/24,removed unused class migrating to
186,2015/10/24,use an with a notification instead of with a
7,2015/10/17,fix preference category theming on
2,2015/10/16,fix layout of file chooser file item
1,2015/10/16,fix crash in lib
88,2015/10/15,upgrade to 2310
7,2015/10/15,fix crash importing a file
3,2015/10/11,fix crash from the screen
18,2015/10/11,cleanup
2,2015/10/11,hack to make the themed correctly
21,2015/10/11,moved logic from to
15,2015/10/11,moved
6,2015/10/11,moved
6,2015/10/11,moved class into a hack package
3,2015/10/11,fix password preference
2,2015/10/11,added to remove this class
14,2015/10/11,some cleanup of preference class
15,2015/10/11,make the preference work again
147,2015/10/11,revert hack for edit text password
11,2015/10/11,remove switch and fix some preference theming issue
310,2015/10/11,use preference
4,2015/10/11,add new for material dialog
4,2015/10/11,force old version of
16,2015/10/11,update dependency version
1,2015/9/28,added the upgrade scenario and database version to 16
6,2015/8/31,added speed to location attribute
2,2015/7/31,increase version to 1221
2,2015/7/31,issue 65 correction for
