# deletions,date,commit message
43,2013/9/30,wrapped the in a container
43,2013/9/30,it now center more gracefully and no longer paint the text over the button on small screen
1,2013/9/29,le padding on the to smaller screen
77,2013/9/29,made the template editor usable on small screen
1,2013/9/27,use to express angle bracket
1,2013/9/27,the entity encoding seems to have caused some problem for some device
1,2013/9/27,put an empty adapter in the view so doe not crash when the user pause the is still collecting data
2,2013/9/27,preemptive version bump
1,2013/9/26,default output lacked the tag
18,2013/9/26,the class is not used removed
15,2013/9/26,code
25,2013/9/26,removed dead code
25,2013/9/26,there is no option menu on activity
8,2013/9/26,shrunk code
1,2013/9/26,always reload the list resuming
1,2013/9/26,the user might have entered comment through the annotation activity
1,2013/9/26,typo
33,2013/9/26,added translation
1,2013/9/26,cleanup
12,2013/9/26,cleanup
1,2013/9/26,better explanation
1,2013/9/26,typo
82,2013/9/26,can now be annotated
