Topic,Words
0,0.046*from,0.042*preference,0.038*looking,0.037*a,0.037*labels,0.035*was,0.033*my,0.033*perfectly,0.031*does,0.030*whilst
1,0.123*server,0.102*well,0.058*have,0.052*i,0.039*to,0.038*home,0.036*android,0.034*me,0.034*it,0.034*a
2,0.075*really,0.065*my,0.059*a,0.057*torrent,0.048*big,0.045*so,0.044*fixed,0.041*no,0.038*all,0.037*cheers
3,0.066*for,0.060*only,0.057*pick,0.053*have,0.041*been,0.041*not,0.039*the,0.039*an,0.036*are,0.036*at
4,0.087*but,0.068*let,0.068*android,0.055*which,0.050*impeccable,0.043*been,0.034*pick,0.028*remote,0.026*are,0.023*me
5,0.067*only,0.062*thanks,0.059*it,0.049*remote,0.044*server,0.040*impeccable,0.038*was,0.037*let,0.036*my,0.030*been
6,0.128*complaints,0.061*to,0.052*an,0.048*does,0.045*android,0.040*but,0.039*was,0.037*perfectly,0.036*home,0.034*big
7,0.075*which,0.067*was,0.060*looking,0.055*pick,0.049*been,0.048*complaints,0.041*anymore,0.034*it,0.031*one,0.031*well
8,0.088*was,0.071*fixed,0.058*the,0.042*update,0.038*labels,0.038*does,0.037*a,0.037*so,0.033*one,0.031*an
9,0.107*so,0.103*all,0.072*home,0.070*but,0.064*pick,0.033*torrent,0.032*is,0.028*anymore,0.028*an,0.027*it
10,0.071*my,0.068*and,0.068*pick,0.067*preassigned,0.054*update,0.049*important,0.046*as,0.042*this,0.038*android,0.035*anymore
11,0.093*complaints,0.075*thanks,0.066*and,0.055*all,0.049*is,0.048*update,0.043*been,0.036*perfectly,0.035*remote,0.034*fixed
12,0.093*cheers,0.070*one,0.063*an,0.050*but,0.048*my,0.044*in,0.044*are,0.041*it,0.036*so,0.035*i
13,0.079*perfectly,0.066*been,0.049*impeccable,0.046*so,0.038*fixed,0.036*torrent,0.036*big,0.035*have,0.035*no,0.033*well
14,0.098*are,0.089*and,0.076*an,0.072*have,0.056*update,0.041*whilst,0.039*impeccable,0.038*does,0.035*labels,0.035*preference
15,0.086*me,0.051*remote,0.049*so,0.045*for,0.042*to,0.040*i,0.036*impeccable,0.035*labels,0.035*looking,0.033*it
16,0.086*have,0.067*preference,0.064*this,0.063*perfectly,0.063*as,0.060*does,0.054*cheers,0.043*was,0.036*so,0.035*important
17,0.096*android,0.073*looking,0.066*thing,0.060*from,0.045*no,0.037*an,0.036*big,0.035*impeccable,0.033*the,0.032*have
18,0.094*a,0.076*preassigned,0.058*to,0.054*complaints,0.053*been,0.051*perfectly,0.050*well,0.046*let,0.042*so,0.039*i
19,0.057*let,0.054*thing,0.052*remote,0.051*it,0.050*as,0.049*cheers,0.042*looking,0.039*been,0.038*was,0.037*in
