Topic,Words
0,0.173*pages,0.080*queries,0.077*edit,0.054*though,0.044*to,0.043*are,0.042*the,0.039*have,0.034*them,0.026*what
1,0.060*certificate,0.055*and,0.050*though,0.043*it's,0.041*now,0.040*is,0.039*what,0.038*message,0.038*to,0.035*you
2,0.077*a,0.060*i,0.054*was,0.049*invalid,0.047*projects,0.045*be,0.043*and,0.036*the,0.031*queries,0.030*helpful
3,0.117*no,0.087*issues,0.083*them,0.080*have,0.070*idea,0.052*able,0.039*a,0.038*viewing,0.035*is,0.034*be
4,0.092*helpful,0.074*viewing,0.068*a,0.067*queries,0.043*edit,0.038*nested,0.038*about,0.036*would,0.032*the,0.032*idea
5,0.128*thanks,0.071*what,0.071*terribly,0.068*queries,0.058*viewing,0.057*though,0.051*from,0.035*and,0.034*was,0.034*would
6,0.086*idea,0.076*support,0.063*a,0.058*certificate,0.057*edit,0.052*it's,0.047*thanks,0.044*able,0.040*when,0.037*and
7,0.094*no,0.094*it's,0.078*from,0.053*queries,0.052*message,0.043*for,0.042*would,0.036*a,0.035*was,0.034*nested
8,0.113*for,0.069*to,0.060*i,0.060*about,0.049*order,0.048*and,0.044*message,0.044*certificate,0.041*not,0.040*terribly
9,0.071*alphabetical,0.071*what,0.051*are,0.048*when,0.047*invalid,0.046*it's,0.044*but,0.037*for,0.032*not,0.032*about
10,0.074*order,0.069*helpful,0.067*i,0.066*the,0.057*when,0.053*idea,0.046*can't,0.045*them,0.044*but,0.043*see
11,0.111*though,0.076*from,0.062*and,0.050*what,0.047*have,0.045*see,0.045*saved,0.045*alphabetical,0.036*be,0.033*viewing
12,0.093*from,0.092*message,0.087*can't,0.057*no,0.051*queries,0.048*though,0.048*order,0.043*terribly,0.036*nested,0.030*what
13,0.085*projects,0.078*them,0.067*idea,0.058*is,0.058*see,0.048*i,0.046*the,0.045*order,0.040*was,0.039*terribly
14,0.071*viewing,0.069*nested,0.068*order,0.065*idea,0.061*helpful,0.053*are,0.048*it's,0.038*from,0.032*saved,0.031*would
15,0.077*issues,0.077*them,0.069*able,0.063*thanks,0.057*invalid,0.055*the,0.040*are,0.039*support,0.037*about,0.036*idea
16,0.120*from,0.060*see,0.059*can't,0.053*it's,0.051*not,0.049*and,0.038*queries,0.038*but,0.036*would,0.034*to
17,0.114*useful,0.098*is,0.076*message,0.051*order,0.050*able,0.045*but,0.045*projects,0.041*you,0.036*a,0.033*and
18,0.118*idea,0.094*able,0.086*not,0.049*helpful,0.047*order,0.045*pages,0.044*edit,0.043*the,0.038*would,0.034*queries
19,0.093*message,0.067*was,0.063*them,0.061*not,0.051*thanks,0.044*viewing,0.037*but,0.036*when,0.036*queries,0.035*pages
