close issue 492 correctly restart light is changed,b,2015/11/06,,
issue 489 allow request of front camera again,b,2015/11/02,,
close issue 484 almost all the logic from to handle camera on device like the nexus,b,2015/10/26,,
target 22 since not yet updated for new permission fix beep problem surface in android update,b,2015/10/23,,
added a code 93 encoder,b,2015/10/18,,
add possibility to choose the error correction level for the encoding,b,2015/10/12,,
alter many encode hint to accept string equivalent,f,2015/10/05,,
update,b,2015/10/02,,
change the comment change the comment,b,2015/10/02,,
fix a little error to gray the weight of r is 0299 not 0229,b,2015/10/01,,
the comment have a little error,b,2015/10/01,,
and why add,f,2015/10/01,,
it may be a error,b,2015/10/01,,
02988,o,2015/10/01,,
and 01143,o,2015/10/01,,
update remove unneeded update,b,2015/9/25,,
close 467 more efficient construction of from bit matrix,f,2015/9/23,,
support more tiff file in with,b,2015/9/23,,
fix two rare crash from bad input state,b,2015/9/22,,
remove translation author name,b,2015/9/20,,
improve simplified translation,f,2015/9/19,,
this reverts part of commit,o,2015/9/07,,
crush,o,2015/9/07,,
update reference for tomcat at,f,2015/9/03,,
add support encoding format,b,2015/9/04,,
ignore additional row some generator,f,2015/9/01,,
okapi,o,2015/9/01,,
the state these additional row are not part of the,b,2015/9/01,,
so we ignore those row parsing the,f,2015/9/01,,
this could potentially also happen data after the look like a row,b,2015/9/01,,
prepare for next development iteration,o,2015/8/19,,
prepare release,b,2015/8/19,,
point to new 321 release,f,2015/8/19,,
update to target android brief 321 release note,b,2015/8/19,,
fix a few small bug from stack trace and update,b,2015/8/17,,
improved dutch translation replaced machine translation with actual translation and other improvement,f,2015/7/24,,
issue 428 fix code 93 escape above f,b,2015/7/21,,
set to 1 scaling for generation,b,2015/7/15,,
update,b,2015/7/11,,
fixed substring call,b,2015/7/02,,
improved translation,f,2015/6/30,,
remove spurious stack trace from singleton exception and various minor edits,b,2015/6/06,,
fix 8 actually enable update,b,2015/5/25,,
fixed problem encoding with compaction auto,b,2015/5/19,,
revert another change cause a failure fix rat warning and one more error on android generated file,b,2015/5/15,,
fix rat failure,b,2015/5/15,,
enable rat check in enable fix some update,b,2015/5/15,,
fix from,b,2015/5/13,,
reintroduce basic do filter in web,f,2015/5/13,,
restrict to special branch,b,2015/5/05,,
translation updated to,f,2015/5/04,,
try a different,b,2015/5/03,,
remove for remove redundant matrix,f,2015/5/03,,
fix issue,b,2015/5/03,,
use for,o,2015/5/03,,
use for,o,2015/5/03,,
can now handle some duplicated code,b,2015/5/02,,
update fix warning,b,2015/5/02,,
update credit for translation,b,2015/4/04,,
update,b,2015/4/02,,
fix order,b,2015/4/02,,
update language add help,f,2015/4/01,,
target android 51 bump number for next update,b,2015/3/21,,
fixed the changing on press,b,2015/3/20,,
update,b,2015/3/05,,
more update from,b,2015/3/05,,
fixed translation for new menu item,b,2015/3/01,,
fixed translation for new menu item,b,2015/3/01,,
remove line separator logic in,b,2015/2/23,,
fix from,b,2015/2/17,,
point to,o,2015/2/15,,
update updated translation,f,2015/2/15,,
please do not use automatic translation,f,2015/2/15,,
you,o,2015/2/15,,
fix from,b,2015/2/15,,
fixed typo in 320 release date,b,2015/2/15,,
prepare for next development iteration,o,2015/2/15,,
prepare release,b,2015/2/15,,
473 bug fix null,b,2015/2/15,,
updated,b,2015/2/12,,
update maven android to new,b,2015/2/12,,
update for 472,b,2015/2/12,,
work around problem,o,2015/2/12,,
additional fix for issue 300,b,2015/2/06,,
issue 300 simplify at end of input stream to fix unlatch issue,b,2015/2/04,,
ht,o,2015/2/04,,
update,b,2015/2/01,,
52,o,2015/1/30,,
fix 8 error,b,2015/1/30,,
remove explicit central move to,b,2015/1/30,,
fix quote in new translation and make translator escape quote going forward,f,2015/1/30,,
update documentation of exported format,f,2015/1/25,,
follow up with translation for 296,f,2015/1/24,,
update and generates hash in build,f,2015/1/24,,
the history preference is now loaded at construction time,b,2015/1/23,,
fixed a typo in the it,b,2015/1/23,,
now history can be disabled,b,2015/1/23,,
fix numeric encoding grouping index check,b,2015/1/15,,
update note on,b,2015/1/11,,
tiny fix from fix for just one 7 build now,b,2015/1/11,,
update,b,2015/1/08,,
introduce,o,2015/1/08,,
remove unused open function from,f,2015/1/08,,
remove unnecessary branch in function already deal with the negative case,f,2015/1/08,,
there is no need to have a branch based on camera id,f,2015/1/08,,
this also remove the need for function,b,2015/1/08,,
update typo,b,2014/12/28,,
reviewed e translation fix minor typo,b,2014/12/21,,
add info to the about active c port and ruby binding,f,2014/12/20,,
from provided size create dimension from provided width and height,f,2014/12/17,,
cleanup looking at issue 268,b,2014/12/13,,
close 262 fix parsing of data matrix with dimension 144,f,2014/12/04,,
270 final,o,2014/12/03,,
close 263 retire wrapper,f,2014/12/03,,
update version,b,2014/11/12,,
update for tomcat 8 on elastic beanstalk,b,2014/11/07,,
follow up on commit for issue 242,o,2014/10/30,,
update android,b,2014/10/30,,
squash change,b,2014/10/27,,
update for android use 5,b,2014/10/21,,
avoid deprecated constructor,o,2014/10/21,,
update,b,2014/10/21,,
update with spacing,b,2014/10/20,,
run on build,f,2014/10/07,,
standardize location,b,2014/10/04,,
update,b,2014/10/02,,
update,b,2014/10/02,,
update glass version some,b,2014/9/26,,
update to android,b,2014/9/21,,
move to,b,2014/9/21,,
fix up parent and bump glass version,b,2014/9/13,,
correctly identify file upload in and parse the first file upload,b,2014/9/12,,
fix tomcat rendering issue and redirect,b,2014/9/11,,
improve icon header spacing,b,2014/9/11,,
color and layout,f,2014/9/11,,
localize error response and remove redundant,b,2014/9/11,,
consolidate redirection remove fairly redundant custom error page,b,2014/9/11,,
guava 18,f,2014/9/10,,
remove unused,f,2014/9/10,,
change redirects to,b,2014/9/10,,
can also be removed now,b,2014/9/10,,
move to 30 file upload handling and annotation,o,2014/9/10,,
update 2,b,2014/9/02,,
fix tiny 8 warning,b,2014/9/02,,
clarify contribution policy,f,2014/9/02,,
rat 011,b,2014/8/30,,
issue 202 correctly report absolute coordinate,b,2014/8/18,,
412 beta 1,f,2014/7/30,,
issue 197 handle escaped backslash preceding terminator,f,2014/7/30,,
remove exception on resetting manual camera this is fine and needed for an activity handling multiple intent,f,2014/7/30,,
log final camera,b,2014/7/27,,
update,b,2014/7/25,,
avoid underlying result point is null for some reason,b,2014/7/24,,
update version to 11 and deploy,b,2014/7/17,,
fix manual code entry,b,2014/7/15,,
add missing copyright header,b,2014/7/15,,
update site source,b,2014/7/13,,
issue 179 add default guard to not specified for symmetry with decoder,f,2014/7/03,,
update jar,b,2014/7/02,,
touch up whitespace and other small issue from inspection,b,2014/6/28,,
use color are not opaque,f,2014/6/25,,
use color model in,f,2014/6/24,,
refer to last stable build,b,2014/6/18,,
issue 166 handle a shift to byte mode properly outside of a compaction mode handler,b,2014/6/10,,
add support for consuming and using in closing,b,2014/6/08,,
return to default encoding a per discussion of spec in issue 166,b,2014/6/08,,
fix apostrophe in translation,b,2014/6/08,,
fix corner case for redirector,b,2014/6/08,,
merge with,o,2014/6/06,,
issue 167 recognize protocol like valid scheme,b,2014/6/05,,
update corrected per,b,2014/6/03,,
update corrected per,b,2014/6/03,,
update and replacement of in the translation,f,2014/6/03,,
faster test execution by reusing and conservatively scaling with core,b,2014/6/01,,
close issue 162 fails on certain dense qr code,b,2014/5/31,,
update android maven,b,2014/5/31,,
254,o,2014/5/25,,
minor update to nickname birthday result change,b,2014/5/25,,
retroactively add 301 310 change,f,2014/5/24,,
website birthday and nickname field the first valid occurrence of website and birthday is used,b,2014/5/22,,
fix version of parent project in,o,2014/5/22,,
prepare for next development iteration,o,2014/5/22,,
prepare release,b,2014/5/22,,
rollback the release of,f,2014/5/22,,
prepare for next development iteration,o,2014/5/22,,
prepare release,b,2014/5/22,,
can be built even without,b,2014/5/22,,
tweak text size in result,b,2014/5/22,,
remove homegrown binary search function in,f,2014/5/22,,
update to glass 021,f,2014/5/22,,
pull project component dependency version into parent,o,2014/5/22,,
suppress two android lint warning,b,2014/5/22,,
