# deletions,date,commit message
6,2013/9/25,Closes #149 Add root folder for songs stored at root
1,2013/9/25,downloadBackground checks if song needs work done before adding to queue
9,2013/9/25,Revert podcast caching they just change too often
4,2013/9/24,Missed in last commit
15,2013/9/24,Closes #159: Serialize playlist/podcast lists as well
1,2013/9/24,Give a different error message for when serialization doesn't exist
8,2013/9/24,Fix web commit
1,2013/9/24,Add MusicFolder serialization back into CachedMusicService
24,2013/9/24,Remove MusicFolder serialization from RESTMusicService
9,2013/9/24,#159: Serialize genres podcasts playlist lists
2,2013/9/23,Fix web commit
1,2013/9/23,#159: First stab at caching structure using serialization
2,2013/9/17,isEmpty is not defined until Android 2.3
7,2013/9/13,Revert does no good
20,2013/9/13,Make downloading notification just a ongoing startForeground doesn't respect ids
0,2013/9/13,Add more apk's to release
1,2013/9/13,Closes #150 Add notification while background downloading
2,2013/9/13,Fix notifications not creating new backstack
2,2013/9/13,Fix deserialization
6,2013/9/13,Update README
33,2013/9/13,Switch to using Kryo lib dramatically faster object serialization
1,2013/9/13,Fix crash from Dev Console
7,2013/9/09,Fix errors from web commit
5,2013/9/06,Run each sync adapter on each server
1,2013/9/06,Update MusicService.java
8,2013/9/06,Abstract RESTMusic service so it can target non-active servers
3,2013/9/06,Abstract out getRestUrl so can request directly against a different instance
1,2013/9/06,Only apply when user sets to online mode
1,2013/9/06,Get rid of unnecessary serialize
1,2013/9/05,Fix
4,2013/9/05,Attempt at fixing Show Album stack overflow: limit options menu create calls
14,2013/9/05,Put onCurrentChange into background thread as well masks service sync problem
5,2013/9/05,Gracefully back off of trying to download songs with server issues
5,2013/9/05,While downloading keep track of number of failures
1,2013/9/04,Closes #156: Fix shuffle buffer not being cleared when switching between offline/online
1,2013/9/03,Return false for equalizer if error thrown from equalizer.getEnabled()
1,2013/8/31,Syntax error
30,2013/8/30,Don't immediately load metadata on offline playlist
3,2013/8/29,Apparently each sync adapter needs its own empty stub
5,2013/8/29,Added sync settings for on interval and wifi only
13,2013/8/29,Separated into Playlist/Podcast sync adapters
1,2013/8/29,addPeriodicSync needs the authority not account type
4,2013/8/29,Get rid of brief star by just having it off by default
2,2013/8/29,UpdateView.setObject use handlers for background update
1,2013/8/28,Start of custom SyncAdapters
46,2013/8/26,Refactor remembering lists so it's done in onCreateView (seems to be only way it keeps position intact)
53,2013/8/25,Closes #126 Keep lists on orientation change
29,2013/8/25,Remove button bar from lyrics fragment
17,2013/8/25,Remove race condition for access to eventHandler
2,2013/8/25,Release 4.1.4
1,2013/8/25,Remote position synchronization
1,2013/8/25,Go back to showing old icon in notification bar
