# deletions,date,commit message
2,2013/10/03,Update to 4.1.6
8,2013/10/03,Fix web commits
1,2013/10/03,Only increment failed count when hitting SubsonicRESTException  SubsonicRESTException should be the only one that means the app will never be able to succeed in downloading the song.
41,2013/10/03,#158 StreamProxy: Handle partial requests
6,2013/10/03,Revert last commit
6,2013/10/03,Try to make sure file is locked from before it is grabbed until after it is released
3,2013/10/02,Fix web commit
1,2013/10/02,Restore a this instance isFailed check + keep separate isFailedMax  This was seriously screwing up the download process if a song had failed once
7,2013/10/01,Stream Proxy works off of partial or complete  Previously only worked if it was finding the partial file
1,2013/10/01,Stream Proxy parses all headers
2,2013/9/27,Release 4.1.5
