# deletions,date,commit message
3,2014/4/15,Only show notification after entire playlist sync is done
10,2014/4/15,Fix PlaylistAdapter not picking up deleted cache after first pass
2,2014/4/15,Fix crash when resuming activity after staying on Downloads tab
2,2014/4/15,DSub 4.5.8 Released
6,2014/4/15,Update translations
1,2014/4/10,update german
3,2014/4/14,Stop Android Studio from complaining
36,2014/4/14,Update to own DragSortListView fork with bug fixes
1,2014/4/14,#310 Add option to have play now play everything after that spot
3,2014/4/14,Using redirects on Chromecast breaks certificate verification
1,2014/4/13,Fix clicking download intent not labeling current drawer correctly
1,2014/4/13,Fix two cases where downloading doesn't resume after get back network connectivity
1,2014/4/11,Missing ;
3,2014/4/11,Filter out non-email clients in Send Logs
7,2014/4/11,Don't fail limit on IOException (network issue)  During bad network connections IOException can be thrown many times before the connection picks back up.  Everything else needs to be fail limited though not just SubsonicRESTException.
20,2014/4/10,Link directly against system support libs instead of manually updating them
9,2014/4/10,More proguard changes
1,2014/4/10,#329 Fix Proguard config
6,2014/4/09,Fix some issues with wrong drawer item as picked
2,2014/4/09,Remove unused constants
37,2014/4/09,Change how hidden drawer items are handled hide downloads when not needed
5,2014/4/09,Change to just use recently added string to match everywhere else
4,2014/4/09,Use resource string instead of hard code
2,2014/4/09,update german translation
6,2014/4/09,Revert "Use resource string instead of hard code"  This reverts commit 8d31d2edebd352b12693914516351399ae3f965d.
2,2014/4/08,Fix https servers on Chromecast
1351,2014/4/08,#219 Put downloading list in own sub tab abstract a few pieces out
6,2014/4/07,improve german translation
2,2014/4/05,Use resource string instead of hard code
1,2014/4/05,fix typo
2,2014/4/04,Use resource string instead of hard code
2,2014/4/04,fix typo
1,2014/4/04,Remove Froyo
11,2014/4/04,improve/update german translation
1,2014/4/04,fix typo
4,2014/4/03,improve german translation
6,2014/4/02,#326 Add override to always use english
332,2014/4/02,Pull changes from xml won't be ever translating changelogs
1,2014/4/02,Don't show change log when null
1,2014/4/02,Don't show change log when no changes listed (ie: code bump)
1,2014/4/02,#324 Remember folder selection when switching between servers
41,2014/4/02,improve/update german translation
1,2014/4/02,Update release
2,2014/4/02,Removed third param from other strings already
10,2014/4/02,Remove caused other issues
