# deletions,date,commit message
41,2013/3/07,Got rid of some stuff I don't intend on using
456,2013/3/07,Convert spaces to tabs + get rid of unused imports
4,2013/3/07,Added Playlist fragment
6,2013/3/06,Added SelectArtistFragment
2,2013/3/05,Added back main tab server selection
19,2013/3/04,Get working refresh on MainFragment
1,2013/3/03,Start converting activities to fragments
34,2013/3/02,Swipe up to play down to pause
3,2013/3/01,Make albums drag droppable as well
1,2013/2/28,Updated DragSortListView to fix crash on large lists
1,2013/2/26,Fix download then deleting the same file then not being able to download anything
1,2013/2/25,Fix java.lang.IllegalArgumentException: View not attached to window manager
13,2013/2/25,When closing serialize immediately instead of in background task
3,2013/2/24,Update Readme: Done with Gapless Playback
4,2013/2/24,Added setNextMediaPlayer for gapless playback on JB+
10,2013/2/24,Drag and Drop in viewing a album/playlist
14,2013/2/24,Fixed dslv style
1,2013/2/24,Ignore nbandroid folder
15,2013/2/24,Abstracted out dslv properties into style
2,2013/2/23,Upped Version 3.7.5
3,2013/2/23,Fix setLayoutParams crashing other views
