App,Store,App ID,Review ID,Country,Version,Rating,Date,Author,Subject,Body,Translated Subject,Translated Body
DSub for Subsonic,Google Play,github.daneren2005.dsub,Z3A6QU9xcFRPR29FWXpkRG1ucDRUalJzYnViamdQMWVqU2FkbFZ0V2t6TDY3dXRqeHBfbV9JRVFvenN4S2pUNHVxZ3RXMXRfN1BoQzdDMjJnVzB1ZThLeHVz,English,,4,2015-03-22,Paul Watkins,"",The best subsonic app for android. The main thing I'd want is native flac support. Right now I can download flacs but I have to play them in another app.,,
DSub for Subsonic,Google Play,github.daneren2005.dsub,Z3A6QU9xcFRPRXBMN2RXR2k1clp1eU80ekVxSUZ3VnJHNFFaNjdqSS1iUm0wWlprdUNXRmtUVVZBX25UMTJzUkNfX0xmeHAtOWpIcnM1NUF0QldMRThFb3RV,English,,5,2015-03-17,Bob Torres,Best subsonic client on android,Works flawlessly with all of my subsonic servers. Thanks!,,
DSub for Subsonic,Google Play,github.daneren2005.dsub,Z3A6QU9xcFRPRi04d1F2eUFtTlRMb1lSalJvMjM0T0stS19TZ0lvSW1zRjlJR3BnZVlXdzBYdTNiMUdpWW9VakVYaVg0Z2wwS09lU1dlVWxDRWVvbkFrVWRj,English,,5,2015-03-17,"",Best subsonic client,Love this app. Reliable and strong on features. One improvement would be to have a widget which shows the now playing list instead of the current track's art.,,
DSub for Subsonic,Google Play,github.daneren2005.dsub,Z3A6QU9xcFRPRllGRW85ZEM1YlV3OE9WRlZXb28teGJ0akNpLU4yUnVsaXFuckh3NGQyc3RHRFd4aktmRy0tS1pXYXdTV2NIRENlSGwyVEp3djJDQkNYZTd3,English,,5,2015-03-14,Azag Thoth,Love subsonic and dsub,Great live it!,,
DSub for Subsonic,Google Play,github.daneren2005.dsub,Z3A6QU9xcFRPRThjNXY5Ml9WUk5BMDd2U1BLVHhHQWh3WWp5ck1QRFAtaHliRGl4c3dhMG10ZnZPNU5SSlFXYlVRU2pPNGZESmZtVUZYRW5FdGRhczRBLTlN,English,,5,2015-03-14,Rob proffitt,Use this app daily love it... But!,Great app absolutely love it. Use it every day!  Is always being updated with new features! The free app is fine but this one has so many more features it is well worth paying for!,,
DSub for Subsonic,Google Play,github.daneren2005.dsub,Z3A6QU9xcFRPRnF2Rk5rVV9iUFN2ajJQZ1MtWVFZSEVnN05oWjFYeVo1Z1lUYTVBTFNOZVRYN1lLWGdsNTFuNENONE82SUlTR1VrOEEwcmNIUFNkTERpVWVn,English,,5,2015-03-13,Adam Stevens,The best,"Really is the best subsonic client for Android, bar none.",,
DSub for Subsonic,Google Play,github.daneren2005.dsub,Z3A6QU9xcFRPR19UMjRzVlN3dG10elZrcm1HZkk0WkM2em9jZkFDZEdtNTBOQXo1MUZUMm9ERGt2UkRpUkNvNVZUZEo2dlRqRWNUZFBYcUEwUmZGMnhZbHpB,Korean,,4,2015-03-20,권시현,Good streaming app!,Currently one of the best streaming app available in the market.,,
DSub for Subsonic,Google Play,github.daneren2005.dsub,Z3A6QU9xcFRPRnhiNnVHTmFfTE9BYTNqaURWRDFHaHB4NjBFNUUyNjg2Q1lhZE9WamRoN3NmbjJTVFZlcW1Oa0lYVGc3U0NXNFJrMkctM3J1ZmllRjVyVmhn,French,,4,2015-03-21,Frédéric De Zorzi,Offline problem,"The transfer rate for offline storage is really low  :  &amp;lt;25 Ko/s on local network, &amp;gt;1Mo/s with official app. Update : I've found thé problem, it was because mp3 transcoding was activated on server for dsub user",,
DSub for Subsonic,Google Play,github.daneren2005.dsub,Z3A6QU9xcFRPRWFWd0Y0b1E0NEUxa0ZCTGxJN1luY0lLandSeVVuWEJwSi1sU0tMVGNNdDhqV29oQzVYQ2ZWXzIxeGx4V2Y1cmplbWpfa0Z4S3dZTGJONWlv,Norwegian,,5,2015-03-17,Dag Børre Norland,Alltid i bruk!,Rock solid!,,
