App,Store,App ID,Review ID,Country,Version,Rating,Date,Author,Subject,Body,Translated Subject,Translated Body
DSub for Subsonic,Google Play,github.daneren2005.dsub,Z3A6QU9xcFRPRmVaekFBYjJ3V05qTXVabnlBbzNESTV6N2NqNFE1Mmo2YndyeWwta2RrVzlmUTEtSU1oMjhkSl9YeVc1TkJ4bjZLV2pwWkU1YjVnSUFUUzAw,English,,5,2013-05-03,Raul Vasquez,Great client for subsonic,Flawless. Offers mainly improvements over the stock client.,,
DSub for Subsonic,Google Play,github.daneren2005.dsub,Z3A6QU9xcFRPRVNPVDRFdk9scEpZVzZ4Z09kT05DQWJuWWpuSzZUNWh2ZjJ4MzZxVGd1c2pXcUZ2Ni15UENaX21DSFBnS1RCZy1NOVc5VVBISU5WR2VvVUtN,English,,5,2013-05-02,Gary Tipton,Best,This is so much better than stock and worth every penny.,,
DSub for Subsonic,Google Play,github.daneren2005.dsub,Z3A6QU9xcFRPRS1CUGJ4d0x2YXN4T0d3UG5OWnZnLVl5ODA1aUU0ZC1fR2JsS1RDZFltVzlsWDEzWUtaVUU5dzJZTTVFaW1hb3hrSXJRaXJQVHAySkRYNm9v,English,,5,2013-05-02,Travis Boone,Awesome,Way better than official subsonic app!,,
DSub for Subsonic,Google Play,github.daneren2005.dsub,Z3A6QU9xcFRPSElnU1hEWlFuYUkyZzI3MUN3aHJMV21vZjdqU3A2QkE3cFVBVmc0XzJFdVprVHcxNHNQZy1NWHRVMTdFbGNqME9mbWdmdVhZQnRKczZQNURj,English,,5,2013-05-02,Remy Virgo,"",Very happy,,
DSub for Subsonic,Google Play,github.daneren2005.dsub,Z3A6QU9xcFRPSDlhLTFGSzNKamE4Y2pfUk4yeDY4ZjhtaV9SMS0zYnctbDlzNUc3Vlh3djBxbnNidktuNWdDV1NSRUhCZ29RWlBYSS1lVno5TFJ5WmdkREo0,English,,5,2013-05-02,Ben York,Worth it,This app is great. Developer is great. Everything works well. If recommend this over the official app for sure,,
DSub for Subsonic,Google Play,github.daneren2005.dsub,Z3A6QU9xcFRPRmpUNnJxXzNTdWFNSU5hb1hDZzBRenh2M0djMUMzb1g4dFNxNUJ4Y05kNUR0aDQ5dTlVdGRzN0xXcDIzX1FPYVFLNlh6UUw3YVVlc1VocFpn,English,,4,2013-05-02,Pascal Buesink,Perfect app,"Best app on Android for use with Subsonic server. But please fix the bug you introduced today in the update, guys!",,
DSub for Subsonic,Google Play,github.daneren2005.dsub,Z3A6QU9xcFRPR2t5MUZwZWNfN1hzSDNSdEx6MGpyRFAyUXV5Sm5qSHNwM2VfczhzV1Bha3hEbmI1LXhXU0dHeGpGMzNHNHdsVVlFaFdzYUplQWZGRE50T2w0,Russian,,5,2013-05-02,Anton Popov,Перевод,Ваши отзывы и предложения касательно перевода на русский язык просьба оставлять в теме Subsonic на форуме 4pda.,,
