App,Store,App ID,Review ID,Country,Version,Rating,Date,Author,Subject,Body,Translated Subject,Translated Body
DSub for Subsonic,Google Play,github.daneren2005.dsub,Z3A6QU9xcFRPSGFtN2lrSjFWVDRGR3JhYjhGeWxOVHRCSlBkcHREU2x6cmk1NUFfeUlpd2Ixd1VTelRwTXBpdEYwOW5uZTlLUDJtSGc0N1Q1dklXSnpoTDg4,English,,3,2015-09-16,"","Love this app, but recent update is broken.","This is my go to app for subsonic, but the most recent update has broken something. It will not let me connect to my server. When I enter my credentials and hit test connection it tells me that the username can't be null.",,
DSub for Subsonic,Google Play,github.daneren2005.dsub,Z3A6QU9xcFRPSF9mTFJ1M2RvOW9VREVJQTh6anFvMVE5anJmVGhCTVJPUGNqOXYwMW1QbXhjUnlyS2xFT1FRQjBIdUhuamwtT01YZUNNSW1sbE1QMnlKMEJV,English,,4,2015-09-13,J Craig,"Great App, Minor Issues","By far the best Subsonic app, works well on all my devices. Recent update, besides the conversion to the awful Material Design (I blame Google for their idiocy and complete lack of taste, not Floss) lost features in the Now Playing list, like the ability to remove individual tracks. This makes Playlists much less user friendly.",,
DSub for Subsonic,Google Play,github.daneren2005.dsub,Z3A6QU9xcFRPSEdNb2ZBUmE2MFk5MWhHUzNTSUx4eVl3aTJCaUlqYUcxYzRlSXUtVjRVRmVESVFtN3FxRFlQdnlrVEJmdVNCUVh0MHF5Sk03dzRCVlFoTVhN,English,,5,2015-09-13,kev ward,Ace,DNLA pushing audio to xbox one with no problems..spot on.. Note 4 running lollipop 5.0.1. Thanks a ton for making the coloured bars an option!,,
DSub for Subsonic,Google Play,github.daneren2005.dsub,Z3A6QU9xcFRPRTI2YzVxMHVNUHVQNjFhQjNLUENkN1hHRk9jU3MtNUYwRlF2a2thV3liODE2dWZqVndoYTBNSjFHX2phenhlejJHdksyQU4zRlN6TXpLTzlZ,English,,5,2015-09-13,Paul Hide,Dsub for subsonic,"Since I've moved to android I have used this nearly everyday. The developer puts a massive amount of effort into maintaining the app, providing the user with bug fixes and ongoing  enhancements. Highly recommended",,
DSub for Subsonic,Google Play,github.daneren2005.dsub,Z3A6QU9xcFRPSEdUR1hIWk5aWnU1enpKcUJRTEFLOWtqOUMxbEI5R18tVTF3aGR3SlFNV1RqeW5rS2E4bDRyNlBhWmtUZkcwSFBuV3dTbmdmaXRUN0kwLWFR,English,,5,2015-09-13,Travis Savage,Excellent App,"Mad props to the dev for this app. It's nice to see what's playing when using bluetooth. I hope other developers notice the hard work at hand. Love the new UI and Admin option..been waiting for easy access to accounts,etc.",,
DSub for Subsonic,Google Play,github.daneren2005.dsub,Z3A6QU9xcFRPSGZicDhFT1AySzMtYVd3SGg2a0Z0dC1waWRkeVBHOWZ0djRFTW1QbVNrc3M2U3A1M3R5cTNzRGVmR0pCN3ZqZGxBd1RHNS1rekprX3I3YWhj,English,,5,2015-09-13,Mark Avenius,We'll worth it.,"Constant updates and a developer who actually responds to requests. Not to mention how useful it is to have an entire music collection at ones fingertips, with optional offline mode to save mobile data.",,
DSub for Subsonic,Google Play,github.daneren2005.dsub,Z3A6QU9xcFRPR3BLSkVVZ19MMUJsYnR6bWx0VjBsYUt6bXJjVDJmMGNzdHR0VGxVa0lEd2VTZk8yNEtDWkxvRUptbXhGR0V2Sm9JUTg4dHdyOHQ3WXVCMGJ3,English,,5,2015-09-12,Rick Castle,Best app I have!,"Just changing my rating to 10 stars because of great customer support! Great app! Not only do I have access to my whole library of music on the go, my wife does too with her d-sub app. This is also a great music player. They update constantly and it keeps getting better!",,
DSub for Subsonic,Google Play,github.daneren2005.dsub,Z3A6QU9xcFRPR3p4Mnh3WnMxdTg0XzF6SlN0RFFFak50Y1ZwTENhQzR6YzhSX0hBaFBKcVNNQXVkX2xRT0RMZzRLQVljWnNWYlIwNlhPZ0Zwcnd5RFZDcGpJ,English,,5,2015-09-11,Jeff Ingraham,"",Good Again!,,
DSub for Subsonic,Google Play,github.daneren2005.dsub,Z3A6QU9xcFRPR01hWkd1YUVUZmp0ZWt2a1dPTlNYcjFYZ1RKM2JjWHl2UUFZLVByMkpjUmhYVHBmZDVlTVZMY0J4THNOOUFGLWNvLXRLRFFNS3ZFTDQtTC1F,German,,5,2015-09-12,Beat Baumann,Best Subsonic-Player!,Top! Best Subsonic-Player!,,
