App,Store,App ID,Review ID,Country,Version,Rating,Date,Author,Subject,Body,Translated Subject,Translated Body
DSub for Subsonic,Google Play,github.daneren2005.dsub,Z3A6QU9xcFRPRW95bDhxblFXeW9OS3Z4b2UyQnZqUkFFWXF5blpPaEQzeDFpODB0aThhOTVKV0Z6dlhEZmYwVkFrUlBISnJLX1F2WnNFTFVIVGVFYmRPcTQ4,English,,1,2013-06-24,Horia Cristescu,Can't sort music,"I can't use this app because even though I have my mp3 files prefixed with numbers, it shows in some kind of random order in the playlist. After Beethoven Symphony No 1 part 1 follows Beethoven Symphony No 5 part 3 and so on. It's a mess.",,
DSub for Subsonic,Google Play,github.daneren2005.dsub,Z3A6QU9xcFRPSFV5ZFFXNElLZk1VT2l6b1hFaGRWcGwySzF4ZUp3VUo4NmF3aTZaSzZ2NVVTeXlmbEZYbWpXUUxJU00yR2hNdklQemlCQmp5ME9mZVg0RUkw,English,,5,2013-06-14,Paul McClellan,"Clean, well done app for subsonic servers",Delighted to find this! Agree with the recent comment that albums would be an ideal sorting option by genre.,,
DSub for Subsonic,Google Play,github.daneren2005.dsub,Z3A6QU9xcFRPRk5UNk5wdzI0aTl1cHRtWEpxTDd6R2hUc19IQUFOZjJIeXJzdzFHR0taMmpQRmR2WWVraVZpTng4RVNMOUxPcnNUYk9iS2tLMGhPbTlPaDRR,English,,5,2013-06-13,David Dolloff,Genre's...YES!!,"Thanks for adding the ability to search by genre. This was already a 5 star app and now it's 5+.   I may be asking for too much but instead of getting a list of separate songs when going to genre's, can the page list albums instead, or in addition to? I'd like to pick a whole album usually instead of a bunch of separate songs when searching by genre.   You do a great job with this app and are constantly updating it with greater functionality. Much appreciated.",,
DSub for Subsonic,Google Play,github.daneren2005.dsub,Z3A6QU9xcFRPR1R2b3oxby1weHdQOE9Fd3hiOTVzeDhaU20tbWNkQ3M4MzZsRVhObWtjTXd4QkZNT1dETXh2a1dMUk1VLVhVcXY0VTFUTHRMV2l4VndLRmpj,English,,5,2013-06-09,David Rymanowicz,"",Incredibly well supported and hands down best app for streaming media from a subsonic server.,,
DSub for Subsonic,Google Play,github.daneren2005.dsub,Z3A6QU9xcFRPRzNFaHJta1U0dlp4eTFHNFJqNzBCcS1XS1JsMEotYWFLc05lYjhpVFNsM3kyVkJXOVNjN1lXZGFMeFlFRXRQQWhGeHVIZXVYWTAzeUJMeTlN,English,,4,2013-06-08,Jarrett Gilliam,Good,Everything seems to work except playing videos with the direct encoding option.,,
DSub for Subsonic,Google Play,github.daneren2005.dsub,Z3A6QU9xcFRPRWU5bEZRUUhVZDRScWxPeDg0dDJ5djB6b3MxN1phd0M5V241ZzN4T085bTFvX0trRnBvUGFQci14Qi1tUlBOTVZpV2NTcFNIVTF0UFRlR2NF,English,,4,2013-06-08,Cole Mickens,Good but fails to play transcoded files,Good but fails to play transcoded files. no idea why. Feel free to contact me if you want help reproing or want me to debug anything.,,
