Topic Index 1,Topic Index 2,Topic Similarity
4,3,2.0
5,6,2.0
14,5,2.0
15,4,2.0
1,17,1.0
2,7,1.0
3,0,1.0
7,8,1.0
8,16,1.0
9,2,1.0
10,1,1.0
11,12,1.0
12,15,1.0
13,11,1.0
16,10,1.0
17,9,1.0
0,13,0.0
6,14,0.0
18,18,0.0
19,19,0.0
