Topic Index 1,Topic Index 2,Topic Similarity
0,13,3.0
4,2,3.0
2,5,2.0
3,1,2.0
6,11,2.0
10,6,2.0
11,8,2.0
17,17,2.0
1,16,1.0
5,0,1.0
7,15,1.0
8,3,1.0
9,18,1.0
13,7,1.0
14,4,1.0
16,9,1.0
19,14,1.0
12,10,0.0
15,12,0.0
18,19,0.0
