,o,2016-04-08,Mohan Sanjeev,1
trashy 2 code my 5 year old sister could have done better,b,2016-04-07,Xtenchen,1
secret code wa by of fame,o,2016-03-27,Theun Knowntxter,5
i trust him and his expertise,f,2016-03-27,Theun Knowntxter,5
secret code ha indeed turned out to be a useful and helpful choice,o,2016-03-27,Theun Knowntxter,5
need more code,b,2016-03-10,Iv Qaz,4
neat tool,o,2016-02-22,Ethan Brittain-Morby,5
torn between 3 and 4 star,b,2016-02-03,Scott Kelly,4
it found a list of and i tapped one it said it wa sending but nothing happened,b,2016-02-03,Scott Kelly,4
great tool,o,2015-12-10,Rakesh Yadav,5
find all code,b,2015-12-10,Rakesh Yadav,5
most of the secret code returned do not work on android 5 plus device,b,2015-11-23,Chuong Le Pham,3
but potentially dangerous,b,2015-11-07,Anne Onimus,4
nice,o,2015-10-26,Rum Pum,5
removing,o,2015-09-13,Patricia Burnette,1
i chose to show my phone info and instead the device wa rebooted and the data erased,b,2015-08-30,serge leinweber,1
how would the developer rate this functionality,b,2015-08-30,serge leinweber,1
been looking for,o,2015-08-26,Everitt Fox,5
good,o,2015-08-19,Benyamin Saeedi,4
a it is it look like the specific model code are from,b,2015-07-23,Erica,4
i never knew you could access with a dialer code now,b,2015-07-23,Erica,4
add 06 for,f,2015-07-23,Erica,4
good rather providing whole list it just provide code that work,f,2015-07-22,Ankush Kulashri,4
title say it,o,2015-06-09,bob watson,1
this is a must have for anyone who like to poke around hidden setting,b,2015-04-07,Maya Carter,5
cool,o,2015-03-31,Crystal Laviolette,5
secondly most of the service code were not available,b,2015-02-27,mm m,3
excellent and nice to see an is useful and interesting but need improvement,o,2015-02-27,mm m,3
also i found a secret logger on my phone called smith installed by,b,2015-02-27,mm m,3
it work fine on my android,b,2015-02-25,lacey white,4
what doe it do,o,2014-12-07,Brian Bergbauer,1
i read your description and it lack detail,o,2014-12-07,Brian Bergbauer,1
you ruined your opportunity to change my mind and the rating i left with your comment,b,2014-12-07,Brian Bergbauer,1
like it work surprisingly well just push the one you want and it sends you right to the particular menu,b,2014-10-15,Tee Bar,5
some code are just not for your phone,b,2014-10-15,Tee Bar,5
nice,o,2014-09-21,farshad22591 nikaein,5
lack of support for,b,2014-09-11,Ahmad K. K.,1
i start the scan process and the say it cannot find any code,b,2014-08-04,Kazuma K.,1
doe it work on stock,o,2014-08-04,Kazuma K.,1
,o,2014-08-04,Kazuma K.,1
doe what it claim to do with no hassle,f,2014-07-30,Paraj Baigsen,5
