update wrapper,b,2014/6/14,,
update resource with nexus 5 device,b,2014/4/11,,
update,b,2014/3/02,,
update display with attribute,b,2014/3/02,,
force update secret code refactoring,b,2014/1/26,,
update file,b,2014/1/26,,
switch to,b,2014/1/26,,
bump version number to,b,2014/1/05,,
add selector drawable to the start button,f,2014/1/05,,
display the number of secret code found at the end of the process,b,2014/1/05,,
add a delay to complete the fade out animation,f,2014/1/05,,
