App,Store,App ID,Review ID,Country,Version,Rating,Date,Author,Subject,Body,Translated Subject,Translated Body
ML Manager: APK Extractor,Google Play,com.javiersantos.mlmanager,Z3A6QU9xcFRPRUZxc1NaYVJHTnBkMk1IZ3g5SWtjZXFCMFBKLXZBbGNZQmFlRXNiVXVpdWlQV1k1R1cwTUZyeTRJMTFzc1RyQ0lTdGpTY25yN000NXAwdHpN,English,,3,2015-07-28,David Allen,"",Why doesn't it give the option to share with WhatsApp ?,,
ML Manager: APK Extractor,Google Play,com.javiersantos.mlmanager,Z3A6QU9xcFRPRVZIb0JjVTNRRm1YZkZCdVdVRjFrdFp0bU9YdWpveFU5ZkgxRGVRWDU2am42dk56STItYzlWOTRwODdFZjJVbWpGNUFzbW1kRlQ2UlZIdlBZ,French,,5,2015-08-03,تكنو كوميك,"",Supeer apps,,
ML Manager: APK Extractor,Google Play,com.javiersantos.mlmanager,Z3A6QU9xcFRPRlc1SEFERTNDYjJNRWgxaXJlWEVpdnp6VGtiMzBOcFlvdlJoQW5scmRqNzJvSjgxSTdab1NHcnJ2QVR6Y21tVU9kdmJPQkRCZmtDRWF4YWF3,Italian,,5,2015-07-17,Simone Finch,Nice app,Very  simple  and good,,
ML Manager: APK Extractor,Google Play,com.javiersantos.mlmanager,Z3A6QU9xcFRPRzVhVTk4VVR1UmhKSU5meE04ZkhRaHFxbHlvTzV4dm54TXZ0c3VnSmRXVFZtS1A0a01tazFUTS1idnUzblFmNGc3RHZqOVJmYjNndjUwc2pV,Indonesian,,3,2015-08-04,Edi S,Oke,Lumayan@,,
