App,Store,App ID,Review ID,Country,Version,Rating,Date,Author,Subject,Body,Translated Subject,Translated Body
ML Manager: APK Extractor,Google Play,com.javiersantos.mlmanager,Z3A6QU9xcFRPRXdUN3dhNXU4ZXFuUFpDN0JrT3pQOHc4QlFKaFhKZzhiQkFBQ1RDbF9lRXp0ZUV0YmtxMlNhUU1sVHNNYkhXSGhzS3JNZ3FDYmpJMlBueDVN,English,,5,2017-05-21,"","",Still learning,,
ML Manager: APK Extractor,Google Play,com.javiersantos.mlmanager,Z3A6QU9xcFRPRnRkSU5LZGx6ZVVlWXRFT3NEOFFwcDI4UXZHLVM0Z2syck92Rk1mbWo4Z1lqOTVfM0tfUW9CQ1FCNXRlRlhtbGFqSUVCV3J1dWlfbjZhR1B3,English,,5,2017-05-13,Christopher Bucalos,"",Helped a lot doing themes grabbing stock items that weren't in the system dumps. Thanks !,,
ML Manager: APK Extractor,Google Play,com.javiersantos.mlmanager,Z3A6QU9xcFRPRW4xVjFqeW5ZWGwydmtXeTRZaHdYWWJBY2VGanM2QU1EclhEZGlmZXQ3TEM5dTJTZlc5NlpNYTdRWDlMelV0S21xbDlpNkZYbDM4bjJnOWhF,English,,5,2017-04-29,Ayush Rao,"","It's awesome and so useful. I use it to uninstall the apps from my phone cause many a time I forget about apps I installed on my phone and it is difficult to spot them in the app drawer.  Thanks for this app, it is extremely useful.",,
ML Manager: APK Extractor,Google Play,com.javiersantos.mlmanager,Z3A6QU9xcFRPR1Y4LVdndXRnelIzVE4yMFZUV0ZiaVZ6U0JNSWw0eEh2U215U3RYQkhpXzRUZlpfaGswbDdiUDNhbEZrVkI3X3RtTUFvZm5wTHZfNkp6Q2pF,English,,4,2017-04-28,Rikus Visser,"","Great app, unfortunately can't select external storage as destination for saving apk files. Just fails silently when saving.",,
ML Manager: APK Extractor,Google Play,com.javiersantos.mlmanager,Z3A6QU9xcFRPRnYxT1lHR0U5cWtwWllNWVlvMWVpQTVQQ3RkSmRiVFVrTFhsa19SaGYyQTZqYUZuRHFsaHlmNTZJdW1pbThTMWJ4b1FEckM0bW1jUFRFc0Z3,English,,5,2017-04-25,Des Savage,"",This app just saved me a ridiculous amount of time. Does what it says no intrusive ads just awesome!,,
ML Manager: APK Extractor,Google Play,com.javiersantos.mlmanager,Z3A6QU9xcFRPRnE4UzM3MTY3T29jbDIwUWMzS3BDZ0J6NVhyZUE5cjhYbkhaamc2Q3o1MEZlc21DQjM4Mlk2U3dtdUc5eWRrU0t2dnJQQzBfQXBqaktRakk4,English,,5,2017-04-19,Ay Vamos,"",Useful,,
ML Manager: APK Extractor,Google Play,com.javiersantos.mlmanager,Z3A6QU9xcFRPR0thang4aUQ1a283NXdyU19MaWVWTDU4U2ZjdzdDLUlDXy1lZUVlZlVncU1pdzhyUnhmR2owVTdGcEh3ZXRTVS15SkdneEtQcDFDaWxsR0lB,English,,5,2017-04-13,Prince Ameyaw,"",Jx love d app,,
ML Manager: APK Extractor,Google Play,com.javiersantos.mlmanager,Z3A6QU9xcFRPSDk2S3o5NE1adkF4VUlMTy1oalRnRGhxZmNXd21HRVVqRmtxQkVUWlpTTGpFeldCaXNBREJrRklDd0l0VzhFcDFyN25GcTVqRTVsN0VVYmRr,English,,5,2017-03-30,Timothy Langer,"",Great app! Especially loving the upload to APKMirror feature!,,
ML Manager: APK Extractor,Google Play,com.javiersantos.mlmanager,Z3A6QU9xcFRPRmk5dWdRRUxwaTh5WVhjYVd1OUJhb0FfU3hYRVdzX0k2YUtRM3gyY05sZVlsbGpKSzVvVWI5aUhxcnkxY0dGVWpPaWR0OVUxZ3JqWUQ3R1RJ,English,,5,2017-03-26,Hunter Hubers,"",Great app! Any chance an app bulk delete will be added? That would make it perfect!,,
ML Manager: APK Extractor,Google Play,com.javiersantos.mlmanager,bGc6QU9xcFRPRjY2S2J2QnlnbWQ0bXNHcGNVWTRjMlY3d0JLZ2tYTEIwWmhvNVNBUEt6Nks3bmt0WF8yV1ZGVnBIZGdnc2QwdWp4eEZNVUpNSi12U0VSdm04,English,,4,2017-03-26,A Google User,"","",,
ML Manager: APK Extractor,Google Play,com.javiersantos.mlmanager,Z3A6QU9xcFRPR3U1T2pIMV91Y21INUdsckRhZ0R4RFlCcFJIQVJ3OHZ3SThrdm9oQWMtQ0FOZWVJUlZydURFalFZWmZsSGhpUUo4UXExOWlfNEp3OGpJcG5V,English,,5,2017-03-25,Nato Boram,"",This app is definitely the best APK Extractor I've tried!,,
ML Manager: APK Extractor,Google Play,com.javiersantos.mlmanager,Z3A6QU9xcFRPR2xjLVN3UVhiNWU1eVZWNTBkMU9LdENMNEliTVUtQkFUTkNOc1FMQXU3bEJreU5VSHktWFdCWTA0MEkzSFBwRDRFUzNZNTNIWXRfS0JqRktz,English,,5,2017-03-24,javvadi naga surya sriramulu gutpa,"",Very useful,,
ML Manager: APK Extractor,Google Play,com.javiersantos.mlmanager,Z3A6QU9xcFRPRmxQS1IySWJaMUpRcFZQd2s3dDJ4WGlkS1MyRTI1Mk5OSDlnbWtoNko3OHBRR3hWcnI0Mm5ybER2SEJCTkg2dk1zbHZpUFV0bmhOZDEwUUo0,English,,5,2017-03-24,Daniel Pasut,"",Fantastic app for extracting APKs. Straight forward and love the integration with APKMirror!,,
ML Manager: APK Extractor,Google Play,com.javiersantos.mlmanager,Z3A6QU9xcFRPR1B0RURvZHNtR2JYa3JQZTlEU3pHM3dRNFJKNUFMNEJvU1VJWHFSaWxVZnNoWlE2eWhiekhsTV9tcHhGMGJibmdOWEtyVkhtUHRyLURfTTA4,English,,5,2017-03-24,GUESS WHO,"",Perfect,,
ML Manager: APK Extractor,Google Play,com.javiersantos.mlmanager,Z3A6QU9xcFRPR0duWXQ0LVRidk83bnBQYXdYeVJ2QkNOWFVOWUpiVVdKVl90alFnSXk1VlYwUnliN3pvVVM0T2d1eTQ1N0xIMUpNeFVMdzVuYVBxNWotN09F,English,,5,2017-03-21,"","",NICE Pro version also of value,,
ML Manager: APK Extractor,Google Play,com.javiersantos.mlmanager,Z3A6QU9xcFRPRl9aOGJJSmV4TGtqNHdkZUUteU9UZ25HRUxBRFJjWHlBRV9YejJJSzlHd0RwdEZXZTJIUVFUaGNsdm5DX1JXZWdMTlMwem1Dc3ZwVEVqa0Zr,English,,5,2017-03-09,Rushty Layasan,"",Nice,,
ML Manager: APK Extractor,Google Play,com.javiersantos.mlmanager,Z3A6QU9xcFRPR3lrNDVFdWV5SDJJOHhrYk9GQi11VExwWXpQQzV1Tk9NRkxrZVRuNVYtNHBMTUFHNk9YLUpKX1h6MGFudHF4SF9LRHNpR1k4S2ZiSTcyTWRN,English,,3,2017-03-09,Mbs Yaswanth,"","Unable to extract the apks to external SD card in marshmallow, please update the app.",,
ML Manager: APK Extractor,Google Play,com.javiersantos.mlmanager,Z3A6QU9xcFRPR0Z0SFNKTTZ2RVhnRHZxSmxwdWlQY1BKSDZrTzAtODVaaUt0QjdkaGZNZ2VyRm9yeFhDYWRwQzA4NVV5TTdmN1hCNHZqRE9ZYVdSSW5JTjdV,English,,5,2017-03-09,Tyrannosaurus Rekt,"",Just what i n needed,,
ML Manager: APK Extractor,Google Play,com.javiersantos.mlmanager,Z3A6QU9xcFRPRXQxVkVaTk9ZcUZTSXhkNUlzX3AxbEs0Q1BfaC1TS0NJOGRPOHF1NEQ3LWQ3eUo5dVN1VDA4N29BQVpTMVg0Mmw2M0VKa2F4M3J6aGw1SUhz,English,,5,2017-03-08,pritam mondal,"",Thanks Dev!!,,
ML Manager: APK Extractor,Google Play,com.javiersantos.mlmanager,Z3A6QU9xcFRPSF9PTDNZTTlMeHdDSjNwMkhYSVhNMnZyZU5SeHlDLVl2ZV9Ga2QwUjNqM3o1MHk3b0lRTG9JNDRBNXNtek9rbXNhaFpEcExBUWdfTFl0TnY4,English,,5,2017-03-08,Rhokk VanArsdall,"","Clean, no ads, and options to set night mode and trim color. This is how you do it. I love it and will upgrade to support the developer. Oh and it works great, love the share feature. A+",,
ML Manager: APK Extractor,Google Play,com.javiersantos.mlmanager,Z3A6QU9xcFRPR2VlbjJSQjM5WnhWVHVBV2lacTcyeWRGYWlNeElxVFhPbkxwNjN1cU55VlFidnVWRkJxRGloTlFnMDV5dV91a1BvQXFhSER6VEJsTjFPcHRV,English,,5,2017-03-08,Raymond Durk,"",This app is a huge time savor. No more having to go to APK Mirror and guess which version I need to recommend to send someone.,,
ML Manager: APK Extractor,Google Play,com.javiersantos.mlmanager,Z3A6QU9xcFRPRnRpMGltUkp5NlpXOFJXdVlWZjRnVFFwYnZCSk9pTzRwa241LVZuNTBfbVAtLU00ZVQzaFBlMFB3OEpwWm5sbTNQX3dHV1R5S3VDNUNvNHlV,English,,5,2017-03-08,John Doe,"",Can you add a night mode for AMOLED displays by having the dark completely black?,,
ML Manager: APK Extractor,Google Play,com.javiersantos.mlmanager,Z3A6QU9xcFRPR1NCZTEzcllOcVZ0dDhrV19rb09QVGVWbjFKYVVhMm55ZnJ2UE9LQ1JUaFA5MC1velA1NDE5cHZWZHcwM1hwQ3FWZ3hVdjRNZkRoUENxOTZz,English,,5,2017-03-08,Doron G Rotem,"",Great and simple tool.,,
ML Manager: APK Extractor,Google Play,com.javiersantos.mlmanager,Z3A6QU9xcFRPRmtzTU5QRjFkRzA0REhId1EtdV9KcGREMkkxTmVtV25ETWxpM3FLUEtVRzRxenV5amVWUWdkUWJGZHNDV3NlTDNMRmUxU1F6RUxFVHZQNHRz,English,,5,2017-02-25,Gaming Gamer11,"",Hey.. I see that a lot of ytubers use this... Can you tell me how to use this??,,
ML Manager: APK Extractor,Google Play,com.javiersantos.mlmanager,Z3A6QU9xcFRPR1k2LVpBcnFLZFNMNFJSMkZjbVhROGE4RGtFbldUMkpsRUI5SWRDdENsMkFWMXJDT0p0ZVVDTkNHQzFIeDRDWUVlY19rZzZMUFNOYnpCUkQ4,English,,3,2017-02-22,Rahul Kumar,"",Happy,,
ML Manager: APK Extractor,Google Play,com.javiersantos.mlmanager,Z3A6QU9xcFRPR2JiNTlFcWlXZTVaQzQ3TDYxaE9PYnB1dWtZb3ZMUHdtQWpncHcxUnhrSzE4bDZKanJ6QkFDZHAxakVtcnpZSmpaZEJRUUhzTVdVYmtmSVpR,English,,5,2017-02-18,Keegan Given,"",Love this app! Its the only legit APK extractor.  Very helpful for sharing apps with my friends and making backups.  Also useful for helping out apk mirrors,,
ML Manager: APK Extractor,Google Play,com.javiersantos.mlmanager,Z3A6QU9xcFRPR29iYzBpZHdsU0dibHlJVGEydmdIakZ4dFVZbGlwRk9WQjk5MzkxMHRqajRGc2ZBbEJrTUlTNGFfZUwyYnE5Tm43V0h3T0dscGNFYzVjZ0RV,English,,5,2017-02-18,Mohak shrivastava,"",Great,,
ML Manager: APK Extractor,Google Play,com.javiersantos.mlmanager,Z3A6QU9xcFRPRnVmNHVQcjFnaUVZUUZKQmtyNl9WZmd3M1ByaGFzc3FkN2dkSDNYQjg3VkxubllWY1dwcWZlQTVscGpZS0x3V1poQ3BpQ19qSFBycmFmc1pr,English,,5,2017-02-15,Ade Kusmayadi,"",It's great app.,,
ML Manager: APK Extractor,Google Play,com.javiersantos.mlmanager,Z3A6QU9xcFRPRXJ1VmkwdU5iMTk4d0QxUEJQMXdtTGN0eDJzamgtcXBDZHdQZEJVTExPSERDaUhQdG1vdUtydXFOaHhweFRMeTF0RVg1SVFfTXo4VF9Kb0NF,English,,5,2017-01-01,Parth Patel,Best,Best app,,
ML Manager: APK Extractor,Google Play,com.javiersantos.mlmanager,Z3A6QU9xcFRPRVRtRXVrdHJfRFc5M2NJV3ZyYkpMSEV5YkZ4ZDZnUEVRSVVXT1BhSktacVZWTDZVTlhJc0luLUhpQ3Y5eUhaWk9xeTVQSjVNTmRLQ3dtNUF3,English,,4,2016-12-31,Bijay Shanker Tripathi,Useful app,For all android users to backup installed app.,,
ML Manager: APK Extractor,Google Play,com.javiersantos.mlmanager,Z3A6QU9xcFRPSFdLS2Fjem9qQWJFUDJXX1o0clh4cnd1bjA1SThEbXdzZUR1QXY3M2dJSC1vSjVkVTZLR3R3Z3JTRzRpT3g2U3JCbzZ2Z0N1UV9QVlpqRUIw,English,,2,2016-12-25,Nick Doukas,Dark Theme,Please added dark theme all app. &amp; settings.,,
ML Manager: APK Extractor,Google Play,com.javiersantos.mlmanager,Z3A6QU9xcFRPRV8ySGpWQkNnbGptMWxKU3N1VVVfdzZpT0RMeGNMN3hDQ3JCbS1DUzdrRHl4MERWOGQzSWJrWEZyRmU4aTdJenVVZ1RhMThxdExPVm92Sy1j,English,,5,2016-12-07,Arshad Ali Soomro,Loved it!,"Loved it a lot because of its simplicity, this design is good but it may be improved 🐒🐒🐒",,
ML Manager: APK Extractor,Google Play,com.javiersantos.mlmanager,Z3A6QU9xcFRPSEdrSXBfSkRfRVlLMjY5bGRELVdqd1R2Z3pSM3dHRDhzYmR6aExPV2x1UGRMcjJRa3g5MnVvVDh1YkYzX1Q4RFoxUy1qRkx0VjBsdjA2OTlv,English,,5,2016-11-21,creeperzone8,Hey That's Pretty Good,The app is amazing for extracting and managing apk's,,
ML Manager: APK Extractor,Google Play,com.javiersantos.mlmanager,Z3A6QU9xcFRPRTlUUEQ0a0Q3cndNME1iYzV3RmpaS2FJMGhGNlhvUGJFZjd0cXVyNHJwbmpBS1pRdlpSUkVlVmM4LVhqSGhFTzNTX3RteDU3dWRpMVhyQVZ3,English,,5,2016-11-18,Shahmi Saidi,The only credible and professional APK extractor,"It is an excellent app indeed, helps if you need to backup an application (apk only) and also if a friend of yours needing an app during difficult times. It is also very polished, beautiful and easy to use. A con however is the long loading time when the app is launched when it is listing all the apps. Maybe caching would ease it down?",,
ML Manager: APK Extractor,Google Play,com.javiersantos.mlmanager,Z3A6QU9xcFRPRUFybFVwd0JQUXppT2IwNW9hTnNqNC1tX04yMllVZGs4MjYwS25FeU56NnNqQVM1UUNEcVh2UkNIOXFMLURkSWF3Z0lOTTZSOVloX0pfdm9J,English,,4,2016-11-16,Liam Bhardwaj,Great but few issues.,"Dark UI would be much appreciated for us amoled users. List load and refresh times are very slow for me and unfortunately when you rotate the device it attempts to refresh the list again which is painful. The ""Delete all extracted APKs"" in settings needs a confirm popup - I just deleted everything with a finger slip. Otherwise it's a very promising app with a great visual layout and easy to navigate! Great job!",,
ML Manager: APK Extractor,Google Play,com.javiersantos.mlmanager,Z3A6QU9xcFRPSG1DSF94cWZrcEI5alZyYXViWDBUUl9yaXh4ZlpJcUlxcENvWnFnSjB1ekd1cndBYTVxTGI3dVVPclh4VlpjZXYzS2xtQjBZZnRXR3dvaEhR,English,,5,2016-11-05,Googleplus Account,Nice,Please add icon in share via list where Bluetooth appears. In background several services running which drains the battery.,,
ML Manager: APK Extractor,Google Play,com.javiersantos.mlmanager,Z3A6QU9xcFRPSDV1aXd0ZlRKTnNOby1WcHlGTFRjNV9DMVZ3Ui1QNmJPbnp5OV8xZXNSRElnMmNWTk5GN1JuN3NuZlhuVlY1c2FpR2tuckN5azlNVm0wT0s4,English,,5,2016-10-28,Uzair Jarullah,"",Very nice,,
ML Manager: APK Extractor,Google Play,com.javiersantos.mlmanager,Z3A6QU9xcFRPSHF3NDlzZmloSC1IazBWMms3MmJXZUJBemJwLTVRcHQ3blpHNGhHTjlRR2E3ZXYxVTBkQXlIazVkbTBJekNkSjF2bjlTMWM5T1JtSjIzNjJR,English,,5,2016-10-26,Darshan pal,Amazing app,Very usefull app better another app.,,
ML Manager: APK Extractor,Google Play,com.javiersantos.mlmanager,Z3A6QU9xcFRPSHB5eHRZN01yN1owcHJtbDB6R3VQYjZ3XzFWdHBCUzNEWEdpcThZS0R5X1hOWHRGOWFITzdCdGVpMzNYdjctMjNGd0NYRXUtdjZsV3lyeWY4,English,,5,2016-10-10,Jinky Gil,So far...,"We have the pro version.  Worth it.  On our rooted phone, some apps weren't allowing me to extract the apps using normal apk extracting apps. This application helped me with that. So far, from what I've tested... Great.  Amazing job Dev. Thanks for everything.",,
ML Manager: APK Extractor,Google Play,com.javiersantos.mlmanager,Z3A6QU9xcFRPRWdQcGtqRkY1bjh1dzJaWmJJTkViTG1vWmh0UFBUUkxwOGMwMDB3blVSWkdyUWxTNEVraWVDWkR5YW1QRWVnai1SMy1XZmpZZ1p5NE1YdzNF,English,,5,2016-09-14,Parth Trivedi,"",Best!,,
ML Manager: APK Extractor,Google Play,com.javiersantos.mlmanager,Z3A6QU9xcFRPR204MGQyM3VkMXpwTXlUUFk3a2ZwMDF4dDRhOVc0cVA3U0JSRWM5b0dFNGpUdWQ4MTN5QXQ5b1dwdVhCOUdPdWdtNFhVcjBZV2lXdnpUXzNR,English,,4,2016-09-12,kinsley kajiva,Nice,Nice app and thanks for the project too on GitHub,,
ML Manager: APK Extractor,Google Play,com.javiersantos.mlmanager,Z3A6QU9xcFRPSFM4b0xBS21jOU9IVzhiQldrVUc1Nmt0V0loNFJVRGkzWWZxVW5vaGVycXdGNFlTSndJVkd2V3lWMEhUdkhmVmlKS1RWVXdXTWNjNFhWYWRr,English,,4,2016-09-09,Sarvesh Pandit,"",Not working on Android N,,
ML Manager: APK Extractor,Google Play,com.javiersantos.mlmanager,Z3A6QU9xcFRPSERrSndMcW5qaGtqZHg3REpYNHRMdVJZZDgxUnA4TDV0eXotblhETzhDQTUtV3lsSFJUci1UaFNRWWNjX3RrYzN2azdqeGRVakozSVpOUnk0,English,,2,2016-08-31,Max Bashirov,"",useless - not working for system apps,,
ML Manager: APK Extractor,Google Play,com.javiersantos.mlmanager,Z3A6QU9xcFRPRUZiSFZNci0zZ1BadUtzWHhXZ2hjSFdBeDdwVmk4b29UWTRmc2NIdHp2Ty1UbTJwaDRwWVJ5aS1PNjFYNE9UNmJIMWdvSzJ0TDlkNFNzY2F3,English,,5,2016-08-16,徐栋樑,"",That's great,,
ML Manager: APK Extractor,Google Play,com.javiersantos.mlmanager,Z3A6QU9xcFRPRzJwenpTNS1wbmU0TThJSnc0ZXlVY1hHOUdhcmlhb3VOTHdkSFpzREVIMWx6elBUWk5hUF9ZX19mRktTWlZ5RnJYM2hPOWFUOXhtT29zYjdn,English,,5,2016-08-11,Steve Macek,Amazing!,"This is a wonderful piece of work! Many thanks to the developer. Does what it says. Great way to back up apps, especially those that have become abandoneware and can't be downloaded anymore.",,
ML Manager: APK Extractor,Google Play,com.javiersantos.mlmanager,Z3A6QU9xcFRPSHE4TFZINXRXZU1PUndsa2tqS1M4TjhTSXdkTWZmek9oRzVmbkNnR3dkanpyNGs2aDJjcWotUjhkZll3OVdwQkpnbl9CdXR6OVplcHdOb004,English,,5,2016-07-22,Nitheesh K,Best,Extract App To External Location Not Working In Android 6.0,,
ML Manager: APK Extractor,Google Play,com.javiersantos.mlmanager,Z3A6QU9xcFRPRmVGNXVGQVd5alEyLTlIZlk1MExGZld1MHV5U2hrMWVpWTk2bEVZNWhERFlvVm5HNkRlUmplcEFnWXRJcDFWWUtlelREWGVPeXh4RWgwbkxr,English,,4,2016-07-21,Sachin Wankhede,"",Nice.,,
ML Manager: APK Extractor,Google Play,com.javiersantos.mlmanager,Z3A6QU9xcFRPR0tkcjFNZkIyM1BnUVA1WHQ2aEJKSFpqanA5cE1tQnNJSUdZYTcyVk1fUlhVRVZtVUR5dTh6cFhUWVJrTkFxeC1sazdfMFpXVjd5MFBGV0RV,English,,4,2016-07-14,Prama Adhapranata,Good app!,Does it replace the newer version if i change apk name only?,,
ML Manager: APK Extractor,Google Play,com.javiersantos.mlmanager,Z3A6QU9xcFRPRlJwa0RwLVZrc1p2b2hmUmcySjZBOVdTMlhWMmhSdzM1c0pCTlg2NVFkZVdjTjEyXzA5TlQ1THppZ1pMclIyTGppQjJncWdlQkY1ZzFJOTlz,English,,3,2016-05-23,George Buller,Name change..,I like the app but please change the name. I'm not even sure what ML stands for and as someone with many apps I forget what this one is there for. Nice app though. Also not a fan of the brown icon. Ugh.,,
ML Manager: APK Extractor,Google Play,com.javiersantos.mlmanager,Z3A6QU9xcFRPR2VpMXJaMmhTMTFTR3N1QVNZTW9neU92NFQ1cTVpRzlLWkpNdXpwM1VQbk9ERV9Gd251RlRHYW9KeXdYX19hVl9aX1d6UjBTMzdlR2s5SnZN,English,,5,2016-05-02,Dhrüv Patel,"",Unique app and material design good features,,
ML Manager: APK Extractor,Google Play,com.javiersantos.mlmanager,Z3A6QU9xcFRPR1VWWm9FZTFpc2JCcjNBY0JOTzUwWlRydGxQby1Qel94QUdQeUo3WmFGOThxMTlSa0dqZGh3NWVyM3Z4ZG5qaHVHOVdnb1hrRVEwbXBrTkln,English,,3,2016-04-15,Carl Boragay,Material settings and dialogs feature for Kitkat below devices,"Hello developer, can you feature dialogs and settings with material design for Android 4.4 and below?",,
ML Manager: APK Extractor,Google Play,com.javiersantos.mlmanager,Z3A6QU9xcFRPR1J3TWF0WGRsZGRWdlhxQjdaaHd3RnY4amYwTHhvT0JnRWZacHd5Z2xiYUNneW55ODlTeWRvTFpYaUhNSjZUMElweHVoQVJvTnZHWWw2WWdZ,English,,5,2016-04-04,ZIPLO,Why not swiping,"The new design looks really great but i can't really swipe the taps. It's really annoying and isn't easy for big screen phone to tap on the tap icons on top all the times, in order to switch taps. I know i can switch tap icons to the buttom but i just love to see taps on the top. Please bring swipe controls. Galaxy S7 edge 6.0.1. Thz",,
ML Manager: APK Extractor,Google Play,com.javiersantos.mlmanager,Z3A6QU9xcFRPRWtBM2hBa0lOd0hoVTNLMHE3RXo4RUo5VDNqQk5KOVpzNHVnS2M2VTY3MEllYkxqLXpIZFBUdUFxR1dxZzZVdm1qMWxaMVJ1QVlxVmxXMVpr,English,,4,2016-02-13,Jehan Chawla,"",I like this App Manager a lot. Love it's Material UI. A Dark theme would be lovely though.,,
ML Manager: APK Extractor,Google Play,com.javiersantos.mlmanager,Z3A6QU9xcFRPRi16NTdmeWtlR3NtVjZ4Ulg3X0twVkNsS3RzUjgybnZaR1hUdEtVcF8tdTB6RXRKM3ZRWUVOMzY1QmlwbUtlcVBoTk44N1ROTEItQmQySzRr,English,,5,2016-02-12,boudy rifai,great,it is a very useful app but really the name of app doesn't describe what it does i download it by coincidence  from another app and extract apk i tough like extracting it and modifying the apk file anyway it is very useful app,,
ML Manager: APK Extractor,Google Play,com.javiersantos.mlmanager,Z3A6QU9xcFRPRjVfZ1Y4Nlp1dlp0SWZjZWRMWlgtd0o3U0lDZ091REY3aWFyOUExbzBUWXRyMlBRSmd3dV9XdXJLRXNTTDdhb0RRV3Fta01ZSk54YzBJd0Ew,English,,4,2016-02-03,Parshuram Dhamnak,"",Good,,
ML Manager: APK Extractor,Google Play,com.javiersantos.mlmanager,Z3A6QU9xcFRPR1ZYTS1pTVF3UnNlVjhBRGR6X01MMk9vVzlqV3ltRmhqZGxDaE9KWDZITmRlbS00c0pLTWVGZGt3aVNKbTZRZWcxcXB2WEtLUlloRlBhcExN,English,,5,2016-01-25,Far Han,Ok,Great,,
ML Manager: APK Extractor,Google Play,com.javiersantos.mlmanager,Z3A6QU9xcFRPR0xxY1ZHbTBiVl9hUWtNd0JVMm44a1IwTVc5NXZFOUVqcWtMRlhFUV9URFNHWHo1bnV1ZWNMTk53c0ZKM3NRTDZsc1YyUlBfUDhvTDJZMW9F,English,,3,2015-12-30,Abdullah Algarni,Multi choice,It will be nice if I can multi choice Apps to extract them all at once.,,
ML Manager: APK Extractor,Google Play,com.javiersantos.mlmanager,Z3A6QU9xcFRPRXllQjhrMFlVdGR5eWxlVmZlVTdFRkdUQXY3bHVkQVZGbWVyRVhYUHpidFk5c1d2T2lhZmppQVZlRG9wajNlT1lud2lQbktiS3cwVEtQWnpJ,English,,3,2015-12-19,Songz Mvumvu,Great App,"But where is the ""Select All"" option? Or at least long press menu?",,
ML Manager: APK Extractor,Google Play,com.javiersantos.mlmanager,Z3A6QU9xcFRPSEZDb1ZLaGx2bnhVbVdpUHNLcWVvaURLd21Nb2FPYWJhT1gyUzdScjVHVGd1TUVlQ25jM3hJUHpWdUZIeThTMXVCdHZURGhiNVUxM0FRM0V3,English,,5,2015-12-14,Lino Unrath,"",great,,
ML Manager: APK Extractor,Google Play,com.javiersantos.mlmanager,Z3A6QU9xcFRPSENHSGVHcjF3XzdNT2xXZDMtQ3k0X1VnXzRBV1ZNMnhWYlN5N2JnVUVWTmp4ZE9pVlZZUUJXTlFsNzg2ZHdNYUMzaWY3RVl3ZGs2MThwdnkw,English,,5,2015-11-01,Jason Chapman,Great 5*s,"Love this app, material design at its best. Thank you.",,
ML Manager: APK Extractor,Google Play,com.javiersantos.mlmanager,Z3A6QU9xcFRPRVFrTGwyWlE3RmhDOUhwbTFzVnJvSXBzbGZRU0Vhd1NRbVA4ZUM4Z0ZXNnVEWGJQSVlCOVBqYVFZNFU3OFRVMVMzQndySFJYalJoSi1NdmNV,English,,5,2015-10-19,suman reddy,Good App,"Good APP, please include App auto backup facility after every installation.",,
ML Manager: APK Extractor,Google Play,com.javiersantos.mlmanager,Z3A6QU9xcFRPRVpWNlFCd1E3aWRsNjlxblZ5YmRjM3Z5MVV6a1JqclliX3d6TFFKR19qNzlxTWtGMEFNSEdXajY1eUN3UDV0LXVrRnlWbk92X1NCSGk0SXcw,English,,5,2015-10-19,mahdi ameri,Sony Xperia Z,Hello is very good software thanks 👑 🎆 🎇 👍 🌹,,
ML Manager: APK Extractor,Google Play,com.javiersantos.mlmanager,Z3A6QU9xcFRPSFgtSDJZQ3JNaWJ1RlJfaWczaTZCOXpLX0wyREFhT3g2UmpiMF9yUEdkcHVuWHI5d0Uxdk1mX1VEZ3BMckJUN0ZPSjBSM001M2g1dzRFOHg4,English,,4,2015-10-17,Alp Şehiç,"",Continuous FC...,,
ML Manager: APK Extractor,Google Play,com.javiersantos.mlmanager,Z3A6QU9xcFRPR1hiamtWN1Q1X0ZmSHZIRW5ZTUtZQ3NGanVFRXNPc0JFSmhxLWNUOVlybHFYT25VNDR3VzBSVEFXNG5Oc2h0d3c0WlVDZEFiRTlMY1JMQTJj,English,,5,2015-10-16,Gxfuzion Hd,Love it,Very usefull application.. Tq creator..,,
ML Manager: APK Extractor,Google Play,com.javiersantos.mlmanager,Z3A6QU9xcFRPSDZEcFd0MFowM3AtM2ZnUnA5SHJsUmNuaGN5YWU5NWlfVmwxaTBZWWhBYWg2cm1aR3BCeHhiaEwwUGZqWVVDMmlyRHJ0dnMtSkx3MEdlMHhZ,English,,1,2015-10-16,Arefin Chowdhury,Crashes,Crashes Crashes Crashes.. didn't even start once. Samsung Note 3. OS 5.0,,
ML Manager: APK Extractor,Google Play,com.javiersantos.mlmanager,Z3A6QU9xcFRPSFBVRzZHSWgzZG1lWFFMTE5uTnV4bTlJSE5qM2J3NUx4Y01JT2ZHc050c2dDNXhYSERCaDc0NmJyMFhLSXNSTlFWQWtfZ0ctQmZVTTA2VURn,English,,4,2015-10-15,Mark Askew,Good app needs multiple app to one apk!,Needs the ability to all user to pick multiple app in one apk then compress using 7z since 7z compresses the first file &amp; any file the same is not saved but a link to first is made(HENCE ARCHIVE IS DRAMATICALLY SMALLER) so when extraction is done the unpacked folder is the same as original - Ability to link with appmonster etc so you can make a single apk with all your versions of the app saved as one file with the ability to choose which version to install.,,
ML Manager: APK Extractor,Google Play,com.javiersantos.mlmanager,Z3A6QU9xcFRPRVhEM2xsaTR0aS1rbkprUWxrY2kxVU1vYnFKWlZ0ZjQxU3FXdl94Ti1qYU9zQlgtUVNlWFRieTVWRzVUc1pCS3lSb1Y3ZlpiT05EMTFuT0pF,English,,4,2015-09-25,ezar elian,"",awesome,,
ML Manager: APK Extractor,Google Play,com.javiersantos.mlmanager,Z3A6QU9xcFRPRnlZcHRBQkpDUDJzZzcwM3BNbktuMGZRU3RhVElFU2RCejJMOTlaYmFoamFzVmZzbjFiN3dCUy1yYWRUWEgwNGR4Wi1CVldscWVaZmRWUnpR,English,,4,2015-09-03,Mohit Srivastava,"",Nice app.. Beautiful interface.. Simple and handy. Excellent work by the developer,,
ML Manager: APK Extractor,Google Play,com.javiersantos.mlmanager,Z3A6QU9xcFRPRzlnd3RfemZLZUVNVTVyUzRESTdGRFhFWnh1eVgtQUtLeTJYS244ai1mcDhSNGhTMjhMakdab3VoeVdtV1FFNUpuVG8yWkotSGhJSE4yYmdv,English,,3,2015-09-01,Martyn Britton,Nice GUI,But it don't have the stability. In my note 4 it crashes simply by changing orientation to landscape to portrait. But it looks nice. Shame is not practical,,
ML Manager: APK Extractor,Google Play,com.javiersantos.mlmanager,Z3A6QU9xcFRPRXZoMjhlaFotYmpmNU8wSVJ6VS1qSGs3UmMwcFNxNnJCM1pLYmRxUmZMbGxtWDRRQjNLNW1Ka3Q5eE5WT2JKbXZ3MFM1bnYtbTBuSnNtb21R,English,,5,2015-08-30,Suraj Puri,Good app,I liket this app and so usefull app,,
ML Manager: APK Extractor,Google Play,com.javiersantos.mlmanager,Z3A6QU9xcFRPRnZTRDRVODl2ZXNGUTdaVkdtcWd3Nzg1Ujk4ZmlRNU1IMkNJRnh6LWVtNmR0NnRXU1NWenA5VS1takN5d2RpVlprOXBlam1ZQk1OLVdVZWlJ,English,,5,2015-08-29,Valery Chutak,"Has all the needed features. No, really, all of them!","Great app! Whoa, it even has the option to choose the name variation of the extracted Apk. This is a must have app. Thanks for the app, keep it the awesome work :)",,
ML Manager: APK Extractor,Google Play,com.javiersantos.mlmanager,Z3A6QU9xcFRPR1UxVWNlRnN3S1hHOXp3dS1yMlFMeklxUE9GUVk5RTFrdGR2TjJTNFNpWlJrSWxEcm9meGNhc0dZczdiM1BZTkVTQVFzdkZGUHo0VzlONG0w,English,,5,2015-08-23,Ia Tee,Very well thought out app,Just needs a dark theme then it'll be perfect!,,
ML Manager: APK Extractor,Google Play,com.javiersantos.mlmanager,Z3A6QU9xcFRPRjJ4S1A3emRsQlpKSnhGbnI2QUhFSTV0d2FkaFdiWE1oX2lvVUVNRjJlNlpZSm42YU1DckZrdHAwQ3FVNHdpU2tHVkNIZk9oWnNSTVRKUkR3,Dutch,,3,2016-03-30,henk van der nol,"Niet heel zinvol, wel gemakkelijk en goed",De apk's kunnen niet naar de externe sd kaart worden geschreven (waarschijnlijk niet de schuld van deze app maar van android: bedankt google) en daardoor voor mij eigenlijk niet meer zinvol. Verder biedt deze app niet veel wat niet ook met vergelijkbare apps kan,,
ML Manager: APK Extractor,Google Play,com.javiersantos.mlmanager,Z3A6QU9xcFRPRWhXZXZZdHJwRUQ1d1V3bXRiX1dPaklLaUlaa3NlRG5OLTlIYW9hLURoT3M1dy1yMFZSSHdLUVI1SW5tTnZpbk9zUHpwOHZBd3lSWExYLVNV,French,,5,2017-04-20,yaya idirr,"",Parfait,,
ML Manager: APK Extractor,Google Play,com.javiersantos.mlmanager,Z3A6QU9xcFRPR2tSeGkwR1lZMkJwRkEzcEFpYnJTTDNyeUxVRXB2ZHp6Z1l2eU9yTHRwREtYT3VLWU1XZi1YdzJrVXVTWnBxQmlfRi05ZS1ON1pNcFVMM2tv,French,,4,2017-03-13,Yolopix,"",Très pratique pour envoyer des applications sans internet,,
ML Manager: APK Extractor,Google Play,com.javiersantos.mlmanager,Z3A6QU9xcFRPR2xrcTBSZHl4X1pUVW1NQVlnT214ZW02R3Z3UThIUlNYa2JWdk4zTTdXVGVYQjU5WHhud1c0MU5UeUVMb0M0Q0hpcFE1SUJ5aERMaF9CTm13,French,,1,2016-09-08,"","",Nul,,
ML Manager: APK Extractor,Google Play,com.javiersantos.mlmanager,Z3A6QU9xcFRPR18zUE5NZnM0WldhdldaTm1uWWxpTmMzR0NMYkJlZERKaTBVUDR5LTJEUmVHb1FPb2pKa1pHU2dtVGZ2R3ZERmRCdTgyeEc2ci1jZTJSM2Rj,French,,5,2016-04-21,Ammar Touri,"",Top de tout,,
ML Manager: APK Extractor,Google Play,com.javiersantos.mlmanager,Z3A6QU9xcFRPRnhTaHlkemZSV040Q3cydU5SYW95WXU2UGZZSmpOVzBmN05pQ3ZEQllOYXNYZlB5R0dvTmFQUHBYbGw0THVHR29qdHdOcURWZnhsck4tdU1V,French,,5,2016-04-03,EvoWizz,Great update ! :),&amp;lt;3 :p,,
ML Manager: APK Extractor,Google Play,com.javiersantos.mlmanager,Z3A6QU9xcFRPRUVueG9SVjA5cG1qSXM1dUZVbDJJR1VHZzh5ZnJkd0FCcjg5S2ZaRFlEZG41alVjeVA1b2w0REFXNmIwbWNJSGdabG0wUFJOZ2U1WjZ0Tmgw,Greek,,5,2017-03-25,LiNK RMN,"","I will rate this app with 5🏅stars because of the effort this dev has put (and it is quite obvious), the absence of spyware and ads and finally the ability to upload to apkmirror is totally mindblowing and further strengthens the whole back-up concept in a much more global/broader way. Keep it up, I'm sure the best is yet to come!👌👍👏",,
ML Manager: APK Extractor,Google Play,com.javiersantos.mlmanager,Z3A6QU9xcFRPRjBmWmN1STM1cmUyZ1F1WkgzZWlUWWxONG9JM0JUX2U4d20ySkJHVE5aS3RQcS1wZHVfc29jWEdJZ3ZERWZ4NDgydkhHU085LTF2ZG5uZWlF,Greek,,4,2017-02-12,George Sardis,"",Μολις αλλαζεις φακελο προορισμού δεν κανει εξαγωγη εφαρμμογων,,
ML Manager: APK Extractor,Google Play,com.javiersantos.mlmanager,Z3A6QU9xcFRPSEs2ZUZCTFVJNlpua2FnZ3FLZzR1NHNWaGlIMHVGUE5vakpEcHliSzBOR2NITllabkpPeGEzZTloVS1VUkNrRzZuZzBBdDdfZVVOWTJqUlZv,Chinese (Simplified),,5,2017-04-02,Kobe Mountain,"",良心产品，毋庸置疑！,,
ML Manager: APK Extractor,Google Play,com.javiersantos.mlmanager,Z3A6QU9xcFRPRVFLamg1cFQ2MDM0S3VfRDR0M181ZGJZNUxkZm4xWUNIcmladFpneUZ2SHBoV3BDNHQtbjdkZ0owSjl6cHUxTFVUbHpZQWEtTVA4Y0xnQVRz,Chinese (Simplified),,5,2017-03-25,cheng wei,"",不錯，好像不能多選,,
ML Manager: APK Extractor,Google Play,com.javiersantos.mlmanager,Z3A6QU9xcFRPRl9fTWJIQk1vd1JoYmxQbzh5SVUwejFRQUY3UGdMbGV4dlNKdlZyMWNMeEVlZ0lvU0NCTjVqWmlzcTY3aFpVT2JiQ2p2N1NnODF2dGR4dEtn,Chinese (Simplified),,5,2017-01-31,Monster M,"",没得说的，超级好！,,
ML Manager: APK Extractor,Google Play,com.javiersantos.mlmanager,Z3A6QU9xcFRPSHhFOGttQURTQXBlNkNxUjlTZzY1RGRUM0o3X3ljYWZ2b2pqVjhMbzVqVjdmVVhVSlQ0ZkZLZVZ2Wk41eVFtYTdCZnpZcnNidVYtNlVKTi1r,Chinese (Simplified),,5,2016-12-20,Bo Chen,"",很好，希望一直更新下去,,
ML Manager: APK Extractor,Google Play,com.javiersantos.mlmanager,Z3A6QU9xcFRPRzV3aUt3eUZZUkk1SWxSMUdoVTJuQWFVem5JMGRtVjJwWGg2bzJ0dnRMSldVcnYxQTZkMlRxUVl6Q3JzeG5VNDBUejZxcmhiVjJpbjRkbGZr,Chinese (Simplified),,5,2016-12-15,吼吼寒,"",Good,,
ML Manager: APK Extractor,Google Play,com.javiersantos.mlmanager,Z3A6QU9xcFRPSFpxV2h3VWVkS0RaekMtNE9IYkwwWV9acG1MS0l1TlNTRFpwQ1VwUEltV01UcDV6YWlrUVRyWHBhdWR1X2tFbklsaDFITVdNLTJvV0JSZXNr,Chinese (Simplified),,4,2016-11-08,蓝天,请把“删除所有提取的apk”项去掉,"很容易误点到这项删除所有备份apk,这样以前提取的apk全部被删。这个选项很鸡肋",,
ML Manager: APK Extractor,Google Play,com.javiersantos.mlmanager,Z3A6QU9xcFRPRmU2MjlDbkY2Z0JKTE5oeml5SjVMWUI0Z0s2cFVIZmhSTURXZE1HZ1pXSmJTN2FOZHcwOGt5bW1NZlRxNU5iQjFqTFRCemk1UHFkd0ZlVXFF,Chinese (Simplified),,5,2016-07-15,Alonite 1994,"",一直需要的应用！,,
ML Manager: APK Extractor,Google Play,com.javiersantos.mlmanager,Z3A6QU9xcFRPRVkwb2dkT1BXMF8wUDZMZmVKVDVlNFNhZFRHOU9JVTBVWkNhU19lTHpxX1NLbEpzWDRZQVNkQjNKcVJjbFhXX2JhZ0tORXRpWUNTb0VnUHBV,Chinese (Simplified),,5,2015-10-16,Kai Lu,"",好用，能增加批量选择功能就好了。,,
ML Manager: APK Extractor,Google Play,com.javiersantos.mlmanager,Z3A6QU9xcFRPSF9mSmZkcEhUMG9pVGJfQ1RFOFlUUkpVQm5COGxOUl8xTTJaTG5BMnVxY1NRM25URWUweUNja3NubmVtRDdPUzNsbFBNQmRLQ08wYjNYUHVr,Italian,,5,2017-04-03,Matteo Maria Terzuolo,"",Simply magical,,
ML Manager: APK Extractor,Google Play,com.javiersantos.mlmanager,Z3A6QU9xcFRPR0Yxc2tsNnRMQWdXSlFFQVZubUs2dS1pWUh2aGgtTjktVnBfSXpCMFZpZjJrT2ZQRVpESXVsRWx2THRXWjBWZThvd3kzTXdCT2FiRWd3MHow,Italian,,5,2016-11-08,maurizio fornaciari,"",Va benissimo,,
ML Manager: APK Extractor,Google Play,com.javiersantos.mlmanager,Z3A6QU9xcFRPRllEMHg0N0NVSHZGcHZUc2JSeVgxTzVQc19RZzUtYWlTdTZ0anNYUko5cGlKalp5UzN2N2VqY0xaLTN1b2VIVUN3TU9YbHE1blh2d2JmVjZr,Italian,,5,2016-10-15,massimo liberati,Lg v 10,Ottima non ci sono parole grazie,,
ML Manager: APK Extractor,Google Play,com.javiersantos.mlmanager,Z3A6QU9xcFRPR2VQd0Z6dU92OGpYLWJPSklZTFAwMkpDbEh2eTlpQWhLdWhkbHowYndpeG5oeW1YQ3ZhaHN2UndXbndlbS1JTFdpeUJqOFdMWGJEOGpCbmRN,Italian,,5,2016-10-03,Pio Rocco Lorusso,"",Utile,,
ML Manager: APK Extractor,Google Play,com.javiersantos.mlmanager,Z3A6QU9xcFRPR0d2RzJLTDhJTktONWNtN2NwVnVmanFSSnNHWnp3cmdzV1UzV0UzM0pCS0FxNWpTcE9FRGhfYUZSU1Z4WDVabHQ4enJIRExFSFpJS3JPVlNn,Italian,,5,2016-10-02,Daniele Mencarelli,"",Il migliore in tutto il play store,,
ML Manager: APK Extractor,Google Play,com.javiersantos.mlmanager,Z3A6QU9xcFRPRUFRSHBMQ2JpV180bXVDbVBLWmc2QnZwRW16NGZCalNmdEpwd2d1VG5TYWpwQ3d1MW5JMGlhWkMzTEVIUlg5LWZ3dmYzZVJaZVZSUTVSbVlN,Italian,,4,2016-09-17,Roberto C.,Si,Funziona egregiamente senza pubblicità invasiva,,
ML Manager: APK Extractor,Google Play,com.javiersantos.mlmanager,Z3A6QU9xcFRPSEpWajlXNHlhU242NVg4WndlWXRrTTVadkR2aVV4WW1KQ1VnOHhZQ3lUQldRUGlnNU5hR3AyZTk4eUdySGR3c1JmVF9iUVI5cUV4UllDYVJJ,Italian,,5,2016-09-01,Manuel Alvaro,"",Molto utile,,
ML Manager: APK Extractor,Google Play,com.javiersantos.mlmanager,Z3A6QU9xcFRPRUxTcEpsb1BzaXBxNnlNeGp5QmVHcllBZVZIbFMxVEZxakF1RTc5cTRRMy1xdmM5cUxEai1jZ25TdVJJZnVObWdjeW1FYW5WU0VmLUNKcUNN,Italian,,5,2016-06-06,Lorenzo Gessi,"",Fantastica.,,
ML Manager: APK Extractor,Google Play,com.javiersantos.mlmanager,Z3A6QU9xcFRPR2hUaUl1Nm5MUmplb0xYNmVuZnNadUs2OG84UUR6aERLbGZwckV2ZWIySVluMkJScjZIeWdYVEluZHJQSWNVQktZZVVzckFhVk1kQ2hMRzU0,Italian,,4,2016-04-28,Enrico Cammarata,Ottima,"Davvero funzionale, un tool che mancava per android, va a colmare un vuoto",,
ML Manager: APK Extractor,Google Play,com.javiersantos.mlmanager,Z3A6QU9xcFRPRmk2MFUyM1JUODc3cTliU291d0hCNTQyWjJIWll6WG9EMmh1ZmU0VnRFS0tLYnB6SW1fOV91WGRnTy15N3pNUWFGc2Vsb3BEYXljU1NKVDNz,Italian,,5,2016-03-28,Marco Pazzo,Ottimo,⭐⭐⭐⭐⭐⭐⭐⭐⭐⭐,,
ML Manager: APK Extractor,Google Play,com.javiersantos.mlmanager,Z3A6QU9xcFRPSG1KZVhKU0V3ZXlmT1BZODdTd0RxT2p4UGJPVUp4Q19QSEk3RnJtZzV1aUhualBvLXMwLTlYVVVPdVhvenFRTzU0MjRLemwtRlV4dFlOMS1F,Italian,,4,2015-12-28,Luca Cassani,Improve backup/restore options,Great app. You should add the possibility to backup data application.,,
ML Manager: APK Extractor,Google Play,com.javiersantos.mlmanager,Z3A6QU9xcFRPSDJZb0hmbVBfUVFCckpXZTdqZHA5UjFDTmd2NnBwNjdlM0xNZTNNc3c5QXNtSDVTYWdNX3dhSFBBRUhFTjhjbVZmZ2RDLTJrV25lbnNIeU80,Italian,,2,2015-12-28,Fabrizio Russo,Molto semplice,"É vero che é in material design ma il layout non mi piace e le funzionalitá sono molto di base. Ho usato myAPK che ha molte piu funzioni che qui mancano (selezione singola/multiple/nuove, servizi di autobackup, restore multipli, ...)",,
ML Manager: APK Extractor,Google Play,com.javiersantos.mlmanager,Z3A6QU9xcFRPR09sdWZVT0lRTEdGdG9OcXRua3pWN0N2X3VHQk90QkV6YVI0NVVMS0pTVWp5TnhVSGNIWTdmcUhtWC1JdkVJTXYtMTNfb21icmUyenpkMGpV,Italian,,4,2015-11-23,Ettore Pirruccio,"",Poter nascondere le app di sistema e c'è qualche parola da tradurre ancora,,
ML Manager: APK Extractor,Google Play,com.javiersantos.mlmanager,Z3A6QU9xcFRPRU5ENDJKdkdiOVhnM3FEVFktb0djVXFVa0NQYXVrWFllY2dySGVOX0dqRFplYTJmNTBNWHhqZzVBX2JVYlI3VnVpSnc5ZTRlQ3BoVFY4T29j,Italian,,4,2015-10-22,Giuseppe F,Ottimo spero in miglioramento,"Metterò 5 stelle quando si potrà estrarre o condividere più di un applicazione,  per poi selezionarle tutte e salvarle nel drive...",,
ML Manager: APK Extractor,Google Play,com.javiersantos.mlmanager,Z3A6QU9xcFRPSHVqbkJSZldmeVRkRFhGYXV2cWQ4c3piSGVCLWZKX2VZM3lFZUVKZmZMWGZyM3AybEwzRkUyRnQwNnBJaDRmSXBWU0NmOHJHRzRvXzBLcDBN,Italian,,5,2015-10-15,Stefano Ciotti,"",Bella app!!!,,
ML Manager: APK Extractor,Google Play,com.javiersantos.mlmanager,Z3A6QU9xcFRPR1JheFFDTWxRUUhjQl9Ydm1za3JPdHBPX1NqLTJreTB6eDluNzNTMElnM0dHWjhvUzM1Q0dfVnhvM29zLTNfWUI5YnJjU3NJZ1RnRW9iaE5v,Arabic,,5,2017-04-08,عامر الأحمري,"",قل معي   سبحان الله وبحمده سبحان الله العظيم,,
ML Manager: APK Extractor,Google Play,com.javiersantos.mlmanager,Z3A6QU9xcFRPSDd2RWdubVhTU18zNHdxbm0tc0RZb3dSYXRNVm9WeW9jNE40cW4xMTRQS0x2cERlTlNxZzNFbzdEOGtHN1ZwOWVvbVJPTDJwbm9uVVRmVDEw,Arabic,,5,2017-04-08,ابو ميلاد,"",تطبيق روعه..,,
ML Manager: APK Extractor,Google Play,com.javiersantos.mlmanager,Z3A6QU9xcFRPRjd1MFRkUTB4ODVaV3dSUWJwUlctSGpQNUl0aVM5TU9yQjNTMjByTE5VUUlONGJBWDhmeTJheXhMQzRuLUxXWm1hMWliMlhPcHYxMHNnRGNz,Arabic,,4,2017-04-07,عبدالعزيز محمد,"",جيد,,
ML Manager: APK Extractor,Google Play,com.javiersantos.mlmanager,Z3A6QU9xcFRPRWhEa0MwWU5WZElUNVpaUzdFVFRtRGhNRjg5bU1pMnVtejhuS3JZMXpBMzFKX085eGFTbmNjd243LW1iOXgzeXhoZ3gyOW5ZOE5zQjFaa3hB,Arabic,,5,2017-03-27,ابوعياش المحمدي,"",جيد,,
ML Manager: APK Extractor,Google Play,com.javiersantos.mlmanager,Z3A6QU9xcFRPRVNyVkRqVnc3ZC14WDNUNW95TzBDeS1iSVZWWWowVjJWVmQ5bVJuVzd6WHJCbGFpWDBpb2FQRkhsT3NVeU5sbVdKMlp6TmRrN1p6eVZGZGU0,Arabic,,5,2017-03-25,adel hason,"",جيد,,
ML Manager: APK Extractor,Google Play,com.javiersantos.mlmanager,Z3A6QU9xcFRPSDBfSXdLbUlpM0dmU190VnlNaUtBV2tCYkJoeFk2ZjB3NHJXQU5uaTljdDEwU292azhJTmtuNm5ERV85TF9zdV83ekt3ck1iOFVWSHFWaUl3,Arabic,,4,2017-03-25,Kareem Haj Saeed,"",هناك خطأ إملائي في كلمة التطبيق عند فتح البرنامج حيث إنه مكتوب ((التبطيق)) أرجو تصحيحه,,
ML Manager: APK Extractor,Google Play,com.javiersantos.mlmanager,Z3A6QU9xcFRPRnJXOGhfNDRJU0IzdkFaRnh3T0pwNXI3cS1RT19VWnFNM0lsc0tiTmluYkl1TGE5MWVZNzAta1doUWRrTDIzTy1uLVRsYl9qOWpySE1DR1M4,Arabic,,5,2016-10-11,Amr k.,👍The Best🌟🌟🌟🌟🌟,,,
ML Manager: APK Extractor,Google Play,com.javiersantos.mlmanager,Z3A6QU9xcFRPSHVkdkpzZ3hXWkVTck05cDlhZEFacFBhRWNxblZDU1RJSnBuZ0RQNG9WS2R0a1BZQUZsV09TQnhmZXhkdFFBYkxrOWxFRm1QekgwOTM1eXRJ,Arabic,,3,2016-10-10,wd bdr,"",جيد,,
ML Manager: APK Extractor,Google Play,com.javiersantos.mlmanager,Z3A6QU9xcFRPR0wyR2taWTZ0RkZjcHJvQVJpU3NNVFFWV2tDTnRQZTE3ZFFobTNrWjVaNWdkemp4UFVlR2xDTGlDT1FuMHY3RndQN3p1a05rNWV0OGw2SDRj,Arabic,,5,2016-02-13,mohamed atef,ممتاز,لأخذ نسخة من أي برنامج أو لعبة نزلتهم من المتجر على هيئة ملف قابل للتثبيت بدون نت,,
ML Manager: APK Extractor,Google Play,com.javiersantos.mlmanager,Z3A6QU9xcFRPRUJWbFQ2cEphR0Q0SkUzTWJ0TU1IRFBWUGUzT1gyYWRzcHRuZnJFUm9WZElKTG1tcF9LNXFuX0s3TkF6d0U2ZnZCZGc2X25tTWF1WHJkN1FF,Arabic,,5,2016-01-11,Tarek Saad,"",برنامج روعه,,
ML Manager: APK Extractor,Google Play,com.javiersantos.mlmanager,Z3A6QU9xcFRPRU4zWGROUTFORlF2VWRMN0QxMkVsVFdXODN5WTEySm12aGNBVUdsTzhpOXVDVkh4eDlmNHhDX1h3aFBGR0NTQVZ3MnhDWHdGZkFpdEZSRVV3,Arabic,,5,2015-12-29,hassan eissa,"",فعلا رائع بالمعنى برنامج لا غنى عنة لازم يكون عندك .عن تجربة,,
ML Manager: APK Extractor,Google Play,com.javiersantos.mlmanager,Z3A6QU9xcFRPRzd4eTN0TVZuN0dNU3ZHNzI5S29EcUdPTDJsZlFobUhhWGh0Q3JQWmpjSmdhaVBZTlBKUzNEeFVtU2NZeUJCeEROaFg2OVBFNkgtbERzMElN,Croatian,,5,2016-05-01,The Micolo,"",Odlicno,,
ML Manager: APK Extractor,Google Play,com.javiersantos.mlmanager,Z3A6QU9xcFRPR1JlalRWSVYwbjMxRmhaTFVXRHpXckZhWGZZdXh3djRCNXdSRmU4X3Rodl8zUXFmUmZVMGxzS1ZMNmRuSGJWMUhiUm1VRVF5TERUSkx0UWFF,Danish,,5,2015-08-20,Lars Sørensen,great,maybe an indication on the list of what apps has been backed up already.,,
ML Manager: APK Extractor,Google Play,com.javiersantos.mlmanager,Z3A6QU9xcFRPR0pHNnJhVjhIRW9qX3djYldOSThRTlFHR2tOV1RwSlFnMEF4a2lQVXNydGc2anI2WjRiVmFnVjhQbVl3ZUdTVmJwbWNlS3JITVFIY1hpZmZ3,German,,5,2017-05-05,Sergej Mert,"","Einfach, aber follkraftig. Gute User Interface (UI). Es gibt es eine Liste fon Anwendungen fur Export.",,
ML Manager: APK Extractor,Google Play,com.javiersantos.mlmanager,Z3A6QU9xcFRPRnFwMWZkYmkxRklPY09hTDhfUWYwa05tcGZoRGtjaTdSVmNKTTgtdFlDOVlPX004c2ZCYXNFLUpOdms0Qm5SRW4yNDBpNlBNeXZzLWhVa1BJ,German,,4,2017-03-13,Rolf Hackemann,"","Macht genau, was es soll: Aus installierten Apps die APKs extrahieren, nicht mehr und nicht weniger. Leider lassen sich die APKs nicht auf SD-Karte speichern, daher 1 Stern weniger.",,
ML Manager: APK Extractor,Google Play,com.javiersantos.mlmanager,Z3A6QU9xcFRPSFJ3ZGZXa24tR3BFSE16NlVVOHdsYkgzUUQ5WTRjeUFDeEFWRkR5M19ObUM2OTI1RU5Zd0JCVk1PSzMyU0lHV29BdFRVR0FoamxYeUdBRHJz,German,,4,2017-03-13,Daniel Horn,"",Great app but is there any possibility to extract all Apps into their APKs at one time?,,
ML Manager: APK Extractor,Google Play,com.javiersantos.mlmanager,Z3A6QU9xcFRPSHQwamp6VVVOWklXMGJDTjhWdnNSZ2xqZjN5UDZrbW4tT19rWkdQRVEwcm9OZGZTa19PeVhZZlJkeUVWNWtqT0s0UEE0R2JKcERpZjZVLWI0,German,,2,2017-02-22,W. Zabel,"",Eine apk lässt sich leider nicht auf die SD abspeichern. (Android  7.0). Für meine Zwecke daher unbrauchbar.,,
ML Manager: APK Extractor,Google Play,com.javiersantos.mlmanager,Z3A6QU9xcFRPRjJuQ1YyVGdOMElTeFhiRXkwRVRJdUR1eFFyWVA3a0dpLURuRWJQdmxfbi1xM1FPdlhaVVFlai1TVWN6VFRYRVFibGtXQjRCRlV0QWJuUVVJ,German,,1,2016-12-14,"",App nicht zu gebrauchen,auf die Speicherkarte kann nicht abgespeichert werden.,,
ML Manager: APK Extractor,Google Play,com.javiersantos.mlmanager,Z3A6QU9xcFRPRnVpdlZXYklRZE9OSTdxR3Rza0tmamZXSFpmNFVZMWRUUHFCZ0xyLTBMX2ZsOUN2bzU3aExpTjlUMzlxTWF1a3BEYW1YTnNPVkpvWElhSU5r,German,,5,2016-05-22,Horst-G. Thiel,"","Super, G4 H815, M Stock with root",,
ML Manager: APK Extractor,Google Play,com.javiersantos.mlmanager,Z3A6QU9xcFRPRkFNRlBPQ2N4aThGbkRZR1FZb2tQLTNBSWRUZ1ZSd1hsTWlKM3lkWHljUkdIb2RaczNNXzVhbXF0dGZsWkRsV1EwZExnMHZSbk5ZeXJ3Z3Bj,German,,5,2016-04-07,Christof Heckmann,"",Works perfect,,
ML Manager: APK Extractor,Google Play,com.javiersantos.mlmanager,Z3A6QU9xcFRPRjFqN0hkekF4a3FHbUk1Ym9jTFloNzhDR2hzMmE2OXY5NHRCTjRlQWFYUE44SmEyVTFXemlNTjdJbW9YVk90N2dHMkJndGcwRS1UZXJ2YnVr,Indonesian,,3,2017-05-02,Mul Yana,"",Coba dulu klw bagus kasih semua bintang,,
ML Manager: APK Extractor,Google Play,com.javiersantos.mlmanager,Z3A6QU9xcFRPRkQ3NGRZdHVJWnlTX1lVMGh0YnZid1EyU3hIUkhocmxDcURoN1BmYWxGenFjclBxOHFDemFHOEdWU1RWYVA2c1FqRGRiMVRxU3FTWEpZRnI0,Indonesian,,2,2016-06-07,Sugi Yono,"",Aku coba dulu,,
ML Manager: APK Extractor,Google Play,com.javiersantos.mlmanager,Z3A6QU9xcFRPRWpIRlo5WXhGRF8wZTUyeEZhZjFCcWlxYm5iU1VFLWdYd3BjdjI5dmtmZ0dYdEZwUTVHcXhoalRxZjRaajRXSGNXU2xqUE9aZ1JCYXBLLXBV,Indonesian,,5,2015-10-15,robby sadewa,"",Good app,,
ML Manager: APK Extractor,Google Play,com.javiersantos.mlmanager,Z3A6QU9xcFRPRmNTaXZ0WkFHajFOR00zT1NleThMUF95cDdNOFVueU9zNkJ5b01lTGtsRHhIS0o3QVVrMTA4Z3RiLVBacFgxY3VSVlk1QzFFS2pOZXpXSjdr,Portuguese,,5,2017-01-06,Lucas Tiburcio,"",Muito Bom,,
ML Manager: APK Extractor,Google Play,com.javiersantos.mlmanager,Z3A6QU9xcFRPRlFTOWcxOV85RWYxeWsxNG1kVE1uemktQ0xTT016eGdES2x0THlGb1RGWWJGZEhwMUQycHhMVGlwbWhmXzN0bUdRQ0JHV0o5VUJFWXA1TVZn,Portuguese,,5,2016-08-16,Adriel lima,"",Muito top recomendo,,
ML Manager: APK Extractor,Google Play,com.javiersantos.mlmanager,Z3A6QU9xcFRPSGgxbUstekt2R3Z3S2xvYUVSam1NbEFiYk11WUlCZDEzVGFKYjBOVndoUWJ5UVNKSE5LSEhpeDY1ZFppckx2b3h1RE9pa0lwMXBhcWctbkV3,Portuguese,,5,2016-08-13,José Cleverton C. Ribeiro,"",Gostei,,
ML Manager: APK Extractor,Google Play,com.javiersantos.mlmanager,Z3A6QU9xcFRPSGVjcF9iNG50bm1nWUstS2VrOWdKb2oxVUlKUGlIYXVtV0dtLWpGSkRxYUwxYUttM1IzRVpHMkdfOHo4YVBSdXRrRjhIT2ZnRmJqRUlGMnNV,Portuguese,,5,2016-08-12,Aglaison oliveira da silva brito,Otimo,Samsung Galaxy J5 versão do Android 6.1,,
ML Manager: APK Extractor,Google Play,com.javiersantos.mlmanager,Z3A6QU9xcFRPR0Fnd3MwVWRycUVuNHBKUzB5ZjJ1TTJaYXc4NmxGTzNUTTNBWTBjS0pyT0p2eGFRZHZFZDdnVV8xLVZ1YXU2Q1B6a0UwSDRudy10LWJYd1VR,Portuguese,,5,2016-08-01,DAMIÃO SILVA,Otimo,Eu gostei muito bom mesmo podem baixar sem medo,,
ML Manager: APK Extractor,Google Play,com.javiersantos.mlmanager,Z3A6QU9xcFRPRktBRmZ2LUxJaUFGSkhtUENWZDFNLUNsQ1BpT2JFT0JLZW9mTng5d3lxeW5OdUhCZkNpQ1F0LWdEZTB0T3hlLV9FOUw1X09sTEdlS2x2VEd3,Portuguese,,5,2016-06-19,ivan mac,"",Em uma palavra:  D E Z,,
ML Manager: APK Extractor,Google Play,com.javiersantos.mlmanager,Z3A6QU9xcFRPRmUwZjV4aklQejR0WWxsbnRERHl1U3NuRlE2WVREOVVOSHhPdkZXeWcwdklNR0hiOXR0Qkx6TjdMSWV3SDB3MlpseEJFVm8tQXdIYzVjZ3Jv,Portuguese,,5,2016-05-24,João Paulo García,Ótimo,"Foi o melhor que eu baixei, além de funcionar super direitinho ele é muito leve! Recomendo! =)",,
ML Manager: APK Extractor,Google Play,com.javiersantos.mlmanager,Z3A6QU9xcFRPSENRMEtjOG5nVzNHMlpGSE5JaXhDZDEzY1liTHBFUkMtMmE1WXQ1MmVTcklJemg2Z3JPVjVkbWdPNnlLYXhEeVJwUm5NSG93S0NWZkdZSXpR,Portuguese,,5,2016-05-14,Wesley Sirtoli,O melhor,Vale a pena baixar,,
ML Manager: APK Extractor,Google Play,com.javiersantos.mlmanager,Z3A6QU9xcFRPRms1aWw1RGYtcnhxT1ItcHByNVUwVGw1R084MjR3RVVsb3JQUDVsSWdHVlpuUUpSSWpLT2dBb3RWV2hVZDdfeGV5NEhadlY3ZVNwV0tybTRJ,Portuguese,,5,2016-04-04,Caio Felipe,Top,Vc pode baixar,,
ML Manager: APK Extractor,Google Play,com.javiersantos.mlmanager,Z3A6QU9xcFRPRkhrT0RGa1JFNnhvWTl6WWZFQ2JUcDhPLWFFNlZsYTNjQ1Fxb0x6M1hkZlFMc1lMUGVXUVpnY1dzVzMzSnNvbEZvRVpTSG42bFVnekptWFpr,Portuguese,,4,2016-03-19,Dhangelo Rodrigues,"",bom,,
ML Manager: APK Extractor,Google Play,com.javiersantos.mlmanager,Z3A6QU9xcFRPR3BNYWJKVEJrZElvYmVLLV9CNl9OaGQzcVRORmF5QzlkaFdTcWVlVTVwN3Nqc1Z1bkZJX2JUN2VDbjJRMmg0ckN6eTd1S0RWZVhiVERYRU9B,Portuguese,,5,2015-11-11,VF PLAYGAMES,"",Funciona muito bem eu recomendo,,
ML Manager: APK Extractor,Google Play,com.javiersantos.mlmanager,Z3A6QU9xcFRPR2FfZ3ZGandwcVNmS0JibkZ2Q2NLSm51MEV0VGw0R0MySmsyMGZFdnZUUWdhbEQ5SXpNSWNOUkw2UUxIVElOS2VXaVNvTm1ZVXZnZEllbGpV,Portuguese,,1,2015-10-18,Jef erson,Muito bom. PENSEI Q FOSSE,Parece ser muito bom.  Se for mudo pra 5. MUDO PARA ZERO POIS NENHUM INSTALADOR EXTRAÍDO FUNCIONOU.,,
ML Manager: APK Extractor,Google Play,com.javiersantos.mlmanager,Z3A6QU9xcFRPSHlnaVd6SGNqNlNCRjVwMGRHSGdDVkFoMEpiclF1Sk9DRm1QaUdHaGlwVzdwcFJDZXI5LXk3alkzemRPb05fT3loa2dRalhLdUpsU01NZlRn,Romanian,,5,2017-03-25,Seby Gurău,"",Best and fastest!!,,
ML Manager: APK Extractor,Google Play,com.javiersantos.mlmanager,Z3A6QU9xcFRPSEZOeE1CenBTcmJ1OEpqRGhfcU1QcFNZZWdsVFBjMnFOaHZraDhFRENpRzVFWmtpS0FOQXVCSVZLLU9rMUNMVnpvQWZhVUxSRk56WE9mSDd3,Russian,,5,2017-04-13,Alexandr K.,"",Действительно простое и удобное решение для управления apk файлами.,,
ML Manager: APK Extractor,Google Play,com.javiersantos.mlmanager,Z3A6QU9xcFRPR3hBdEdMUUlBckdZT1JZQ2ZibnlwQjctdlllcDUyaVhHU25xTjQ2blBLcE1sU0w0LXhPR0U1MXhOS3Y2VVdNMkotR1B2NHNabUt1NVlkQjhj,Russian,,1,2016-09-21,Игорь Хазов,2.3,"Странные люди, за архивацию apk без их настроек ставят пятёрки. Это можно сделать через менеджер.",,
ML Manager: APK Extractor,Google Play,com.javiersantos.mlmanager,Z3A6QU9xcFRPSEhzeW9GM3lzdWE5TXR4RlZ3eVF0OURobzRjN3BzTjEza0lieFUxcGtwUW1fN3JJSUxYeWlPNmk0cXV6S1NCbnVPRUNtTGxTRktHODNHTXUw,Russian,,5,2016-05-22,Энди Т.,Super!,"Портировал несколько приложений с другого телефона. Блин, РАБОТАЕТ!",,
ML Manager: APK Extractor,Google Play,com.javiersantos.mlmanager,Z3A6QU9xcFRPRUdRYXZQZGtyQlNYY09MVDVKTzFUcVVKNm9SMFdfMmt4dlJPWVFndHZVQU9xbGVjVW5oT2g4dHZEd0sxV3llUURPMkhmNkpScWpQV05NOTE0,Russian,,4,2016-03-26,Dgonix Orenburg,"",А что так долго нет обновления версии приложения?,,
ML Manager: APK Extractor,Google Play,com.javiersantos.mlmanager,Z3A6QU9xcFRPRThwWmpYTVZyQW1WVjM4dl9tc0c1SmowT0MtVUhtVVlMZmI0ci0tSHRtSzcwOWF1dnVFSFNaRnJWRVpMMno3czEzYW9QS2d4Um56THNFWjhn,Serbian,,5,2016-05-02,Bane Vlahović,"",Davrseno,,
ML Manager: APK Extractor,Google Play,com.javiersantos.mlmanager,Z3A6QU9xcFRPR3I5aE96TU5McmFqY1ZIcVI4aTZua3ZhSlBySTlnbVNzbHhOeEE4T2UyS0NmVUpaTlJSTmIyWGF3M0JBRk1UOGs3TlVSQXlkeDVYZnlycFFJ,Slovak,,3,2016-11-25,"","",Rápido y sencillo. Lo recomiendo a todos! ;),,
ML Manager: APK Extractor,Google Play,com.javiersantos.mlmanager,Z3A6QU9xcFRPRTNpb2ZiN3U2QVFxamg0eVFrQlhDdE1mRWlCVnZOc1h5aHRnUFBzMDEwSG55T2xKTmU5aXV0WWdmM3Q0NWhnbV9KbVhOa3dhZkItTzdSTlJn,Spanish,,5,2017-05-20,"","",Me encanto! Funciona a la perfeccion.. de las mejores apk,,
ML Manager: APK Extractor,Google Play,com.javiersantos.mlmanager,Z3A6QU9xcFRPRzFIQnEzYzhPZjZFVmg0RGF1TXFnYjE4czBGRW1vOWdRZmhITEhfRHluMVMwa3M5X01NNnFXYjIyTUpva20yMmJxNUZZeDhWSWNLdTRXS1Nj,Spanish,,5,2017-05-12,Jorge Martinez,"",megusto,,
ML Manager: APK Extractor,Google Play,com.javiersantos.mlmanager,Z3A6QU9xcFRPR2NLWTUzU0VzR2dxSG1qSnhxc3RqbUJYakU4Zy13X0xaLURmVzZrSXZiZlNhSXd4SGpNWm9JX2dHeVJ5TVlZYVIwQ25qUEdzRzNBenV0dDI0,Spanish,,2,2017-05-11,PEDRO ROJAS,"",No dejar compartir APK Bluetooth,,
ML Manager: APK Extractor,Google Play,com.javiersantos.mlmanager,Z3A6QU9xcFRPR1JDcktwVGctaXFPZmc0N0NEY0pMR1RDQzMxUENpVlo5Z0ltTVFGWk1WOVVmQXVmYUZTdU9iZERva0ZkOWdPbnNxQVJDcHo5MF9VVXNzeDdz,Spanish,,5,2017-05-09,Mark Colmenares,"",buenisima aplicacion lo bueno es que puedo hacer una copia de ella,,
ML Manager: APK Extractor,Google Play,com.javiersantos.mlmanager,Z3A6QU9xcFRPRlFjbXA1N2NWOGNNd0x6QjQ0ajlOdHY2R1lFQWVRMlYtQjZyWWlDbC1falg0ZU11NVc0LUh6UHl3WGN3ak5oZnc0a3pyUHV0WWRKelRqTFdV,Spanish,,5,2017-04-30,Daniel Balaguer,"",Muy práctica para guardar una copia de las aplicaciones intaladas y las del sistema. Fácil de utilizar y si aditivos innecesarios,,
ML Manager: APK Extractor,Google Play,com.javiersantos.mlmanager,Z3A6QU9xcFRPRVZQeC1pV0p0MlF6NGt2NFlhcHQ2MU1zTUczSWtQQlVYVE1VdEh5dGx3Vlp1c1UzeUNBbTR4bno2V3A3MW9zTU43U3VsamxBSUVxNVdQd0pV,Spanish,,5,2017-04-27,Kenneth Ivan Badilla Sanchez,"",Demasiado buena,,
ML Manager: APK Extractor,Google Play,com.javiersantos.mlmanager,Z3A6QU9xcFRPSEIxdHk5cm9NQjNyM2VGUFNMeHR1TldBdUFqXzlsWGs1eFNpZVpkY2xXSThFRHRXNHZDaU15NTIzUmVaM0hVdmlwYm9tOHRyT3k0MkJGNmFz,Spanish,,5,2017-04-26,Renato Cabrera,"",Buenisima app,,
ML Manager: APK Extractor,Google Play,com.javiersantos.mlmanager,Z3A6QU9xcFRPSG43Vm9ZeUtUVDNleUxtMlRJTUdfZ0locjlSLTB1b01zd1JVMWtRZ3hDRVpMcGJQaVBKcFU2bzBGOUw4ZnZCbFJCeVZON0tfR1pjMG16cmRj,Spanish,,1,2017-04-25,Alemar Shintaro Kisaragi,"",Peoblema en Moto G4 Nougat no me deja compartir ninguna aplicación mediante Bluetooth. Apreciariamos que lo arreglaran,,
ML Manager: APK Extractor,Google Play,com.javiersantos.mlmanager,Z3A6QU9xcFRPSGp2a014Q19hVl9BdnE4dlJQSkNiNzRvSU95bGFkMHJNSTcxakFtX0g4ajVkR2dYWS1QMTRKclMwWVVTbWNUbGx4cDZVR01Cc2F3X1lYbG00,Spanish,,5,2017-04-23,Mr Anonymous,"",Excelente,,
ML Manager: APK Extractor,Google Play,com.javiersantos.mlmanager,Z3A6QU9xcFRPRkc4LTE5eFBkRFFkSmFpaWRmbUVFNlJUMHZSVWUyVV9sWkpwdG4wdE9heDlsQmhzeE9kcHhmWHdJcF9CNGtFR2ZsWTM2NmxWai15WUNtYlQ0,Spanish,,5,2017-04-22,Jesus Primera,"",Excelente aplicación. Es muy buena. Descargenla.,,
ML Manager: APK Extractor,Google Play,com.javiersantos.mlmanager,Z3A6QU9xcFRPR2V1cVMwOFJIRzlEelNDTEphSzRRc3F6c2FiM1pqRW1HTDBLVkdBR0Z3SnR3XzBWRnVXSF9JWmpsSWpJRVFtZThtSGpsUnFEQ0lwQWtmTHJZ,Spanish,,5,2017-04-14,Khrlss Gl,"",Muy buena,,
ML Manager: APK Extractor,Google Play,com.javiersantos.mlmanager,Z3A6QU9xcFRPRTJ3bTJ1X2xyVnA4TFd1YkdtZXY1ZW1ERmxfTVRZSVJzQlMzNnNpSXBTQnh4RHB6SkVCS2k4bE93M3M4WFFma012U2Z2Tng1cEtQSDhydmxF,Spanish,,5,2017-04-13,Enric Pérez,"",Cumple perfectamente lo que promete,,
ML Manager: APK Extractor,Google Play,com.javiersantos.mlmanager,Z3A6QU9xcFRPRnVudGRBTmo0MEJuYVl6U0E0M3lPZFJzYmROaDZ5REdZcUx2bEIzc3g0ZmVnV0RUQXBuOThjTGR5ZWwyVEhQa082enR1c0VIdXV6VDk3ZzJn,Spanish,,4,2017-04-08,Jorge Solano,"",La berdad va bastante bien la e probado y e conpartido muchos apk,,
ML Manager: APK Extractor,Google Play,com.javiersantos.mlmanager,Z3A6QU9xcFRPRl9SS3FVZ0lCbG9oMVAybkw1V3R6aXktaXZkRU5lVHBrTmJ0YW12alpKWXRvTEx1WWU1MkIwQllBOUJYcTM1cVhKV0Y3Z2c0MENYTTM1SUxJ,Spanish,,5,2017-04-08,Alejandro Ramírez,"",Es todo lo que necesitas para compartir tus apks sin hacer root ni nada complicado. Sencillamente genial!!!,,
ML Manager: APK Extractor,Google Play,com.javiersantos.mlmanager,Z3A6QU9xcFRPR0dJVThfcTlmVE5vbDN2N1FlNDdIbDZhTDVpaS1helhKNDh1UWY4SzVYdEk0Z3ZORU9yQkZudi1McEVJR3VtT1FiRnQ5alhjY2IyM01JQW53,Spanish,,5,2017-04-07,Emilio Serra Albas,"",Good,,
ML Manager: APK Extractor,Google Play,com.javiersantos.mlmanager,Z3A6QU9xcFRPRTJqaTl1dzI1SWphSk1OeVhHcnFSanIzZ2RERzlJSnpqWmlocF9Vd3QzM2pBdzFPRG5sLXBNeGZJeTh4Mk1ISDRJcmNuN3Fob2FnOEFNdmtj,Spanish,,5,2017-04-04,Come Galletas,"",Perfecta siempre la instalo cuando se trata de apk,,
ML Manager: APK Extractor,Google Play,com.javiersantos.mlmanager,Z3A6QU9xcFRPSERfT1N6TUNRUTRITUxSaXlDNU1NVHJIQ0s0QkNJY0JWd1VOY0RzVkZMY3haeXlNelZ2cjl6RjlCRlNQQVJObGdLZmRGWE1leDJmUU5qbzBV,Spanish,,5,2017-03-28,Cristian Guillen,"",Muy buena,,
ML Manager: APK Extractor,Google Play,com.javiersantos.mlmanager,Z3A6QU9xcFRPRURqXzNON1RDQjhDNGoxYW9sSTBDUm1BeldwMlFXZDV6YWkyU2dRREZRTkxrQ2xVZ1BDWEp3WHhVdENuWXdKOGNyQS1kT2h6VGtQWjlkQ0ZR,Spanish,,3,2017-03-26,jeremias parziale,"",Ayuda luego de extraer el APK no  puedo volver a instalarlo,,
ML Manager: APK Extractor,Google Play,com.javiersantos.mlmanager,Z3A6QU9xcFRPRjdnQ3lSeUVUS0dWNEdrdldMS2pNNTVFcFBfNEVTeFRHdlhqbkw2bWNDMkFOZDBuMFJOVzNNd1VVYmhkV2VpXzRUS1lLdHNJNTUzOW80aXp3,Spanish,,5,2017-03-26,hector acosta,"","Excelente app, de las mejores que he probado",,
ML Manager: APK Extractor,Google Play,com.javiersantos.mlmanager,Z3A6QU9xcFRPSFVaRXhpMHQyMVYwR29Vc0ZSUmZ3dlpGMnNXVWljMERaMG80NlRqV1pnTjduZnotOUc3a1dYTHZqWDNBWW9rZGctVDZzOWFKbE9aaGw1bDZz,Spanish,,5,2017-03-24,Jose Vazquez Cornelio,"",Funciona perfectamente!,,
ML Manager: APK Extractor,Google Play,com.javiersantos.mlmanager,Z3A6QU9xcFRPRl8zQ1MzbHhuWms0Zkt1aWU0N2NfTjJleGthSDZTUEhVYXFZSXJfWGRfeG1Ga2hUVF9ydDZTbkJfUDJzVkRJNXFHbVJVeGtFVDlzb2R4dVRV,Spanish,,5,2017-03-23,Leonardo García,"",Cumple lo que promete,,
ML Manager: APK Extractor,Google Play,com.javiersantos.mlmanager,Z3A6QU9xcFRPSGZDa2ZUcXFaSVZLLVppeXh6RWRUMUxta294LThfNUR4UGFWOU9xR1B4bjhGYXhkYWtkR01GbU00TkIzV1JHeFNHbERZME5nc1d2cXg1bmdn,Spanish,,5,2017-03-20,Jaume Nebot,"",Es estupenda!!,,
ML Manager: APK Extractor,Google Play,com.javiersantos.mlmanager,Z3A6QU9xcFRPRW9OaTJQdF93c3gyLVM2MTk3Rmw1MXJyNl9EZkFLb2g5aTRoMVEtaGNRc1VrQ1NZVlFSRFBMVlp2anQzNnV4bGU2ZTNKNW9ZSUV5Qy1sR0JJ,Spanish,,5,2017-03-16,Sebastian Jimenez,"",Exelente la recomiendo,,
ML Manager: APK Extractor,Google Play,com.javiersantos.mlmanager,Z3A6QU9xcFRPR21TeEE0UUsyMHJvM3FDaG8yR3djX19PSmIxZXJKcG5rX0NGR0M3bEQ0SHk0MlpFTk5yM2VlM1Y0NGZCWDNYWU1yT1hmd3Z6bjlBNUVZQkpr,Spanish,,2,2017-03-15,Kevin Fernández,"",Jj,,
ML Manager: APK Extractor,Google Play,com.javiersantos.mlmanager,Z3A6QU9xcFRPRndvRHJjc3RRdTJpUlFaMDZubTY1MFNBLWhZSDVpeF9heUo4VmVDMXo2MGNmYW9DWXp2UmxxMUlEQnZ5UTEyT28tNkZvM2I1RkVWVlRZT093,Spanish,,4,2017-03-15,Agustin Morales,"","Me gusta, y realizar muy bien para lo que está diseñada",,
ML Manager: APK Extractor,Google Play,com.javiersantos.mlmanager,Z3A6QU9xcFRPRS1aNDlkYjZ0ZE8ySWEzVjdsNkc4RVNoVVRtc19pbjYwZTg5VGlab3FGc29QbllSZnRyQTVaRzV0TkxVYndpeDlzN1FJN2o4RTZyako0M0pn,Spanish,,5,2017-03-11,Enrique Soengas,"",Muy logradas,,
ML Manager: APK Extractor,Google Play,com.javiersantos.mlmanager,Z3A6QU9xcFRPRkFfZXhZNUNqZzBrNFg3d2FpVWRCNjdhR2ZvYW8tMTFpaTJpRmI0aDdJd3FUSzNnOW81ZkZTRFpLRHJNS2ZuemZlVGZHMlFGY0loakRFeEpR,Spanish,,2,2017-03-11,"","",Tengo un moto g4 plus con Android 7 al momento de compartir no me aparece la opción de Bluetooth.,,
ML Manager: APK Extractor,Google Play,com.javiersantos.mlmanager,Z3A6QU9xcFRPSHYxLTVVYUtocGdqZGltRkJGOE5oWWgxd1lXT2d6YmlnWFhzWmR2dVByNVliVHd4dGQ5WVYtamRDVjdwR2dRMFk0MWhQQVZLVTRZblNTMHRB,Spanish,,5,2017-03-10,Ariel Antonio Sierra Tello,"",Buena Aplicación,,
ML Manager: APK Extractor,Google Play,com.javiersantos.mlmanager,Z3A6QU9xcFRPRm9jdTN5Y21BQ1VWc0I5YVdEQ2tlVzhkeGMyMkVlYlVDdjZUUWNfdXI5UE9iYUZnaWhYcDdZTFpNTFBtRENkNVhVRVNwRXh3dVdNcjVmd2Zr,Spanish,,5,2017-03-10,Gerardo Rodríguez,"",Excelente,,
ML Manager: APK Extractor,Google Play,com.javiersantos.mlmanager,Z3A6QU9xcFRPSGhWbnlFOWxrSktTTG8taHljQ3dtQXlYYjl6M1o0UjRxX2pnS1Eyclc5S1BCWkN2MzNxcUFNQnZBdnpIck5IT1U0ZDZ3aWlXTnQzX0diekkw,Spanish,,5,2017-03-10,SaJu CeLo,"","Perfecta, me gustan las apps que funcionan a la primera, que no se traban y que no hay que andarle buscando el modo. Me uní como beta tester de una app, la instalé pero quería ocuparla en otro usuario de mi teléfono, extraje el apk, lo corrí y funcionó perfecto, también para una versión de la app Within, que en su última actualización pasó de poderse correr de Android 6 a android 7 y ya no se podía instalar desde la google play para Marshmallow, excelente app. Como sugerencia: ¿podrías hacer que las apps se descargaran y posteriormente se instalaran, con los datos ? pienso en algún juego que ya lleves adelantado, sería increíble que pudieras respaldarlo con todo ese avence (datos). Saludos excelente trabajo",,
ML Manager: APK Extractor,Google Play,com.javiersantos.mlmanager,Z3A6QU9xcFRPRVphTDhyOER6RS03VkhZWm5mcDlIMUlDTS0wdzN6UjRKRnZCQW1SR2JUNjdXMnRxSGoxeEJOVm1ia1NubWdzajBtMzUyZ3N5cmxOYVhHV0dN,Spanish,,1,2017-03-10,Ankargel Ian,"",Es una copia barata de app mánager de la cual está en función desde hace más de tres años pero que no se encuentra en play store pero es mejor,,
ML Manager: APK Extractor,Google Play,com.javiersantos.mlmanager,Z3A6QU9xcFRPRVBWT1o4R1MyRUxLZnA4R21SczF6ZWJIRm9pWDd3OVBwTHdTcEtkaDVObXpOeXp2X2xudVlqeTFiVGw1M2xaVnR5SjBublM1UEVpb2lGZThn,Spanish,,5,2017-03-10,Mikele Pizzi,"",Excelente,,
ML Manager: APK Extractor,Google Play,com.javiersantos.mlmanager,Z3A6QU9xcFRPRnlzQ2hwSFFBQWM3MW5aTGx3NzVtTW9wc0hPV2FKOHJmc0QwREVqTGliWU0tMnFvTFhfaGs5ZU9ZaEl0S0pxREc1U3ROR1VoTWxPYXVsTHN3,Spanish,,5,2017-03-08,Mark Bc,"",Una aplicación que no debe de faltar,,
ML Manager: APK Extractor,Google Play,com.javiersantos.mlmanager,Z3A6QU9xcFRPSEFIRTZiNmZfRVFmUmV1cWJOWnpzZTRGVHIyVV85MUFiM25Xek1HdEc3NDNLRUlRX1o3ZnpKcDIyZDJYck5saEV2RUJOY09wT0RHQlZWb21J,Spanish,,4,2017-03-08,Jose Orueta,"",Las veces que la he usado cumple a la perfección,,
ML Manager: APK Extractor,Google Play,com.javiersantos.mlmanager,Z3A6QU9xcFRPR2RGQ2M3ZWVvNmt3c3NHRFdXcnNUTWtSRDJWeE84eWJCNS1NcS1QX2FBOG85cVNPTTRrOFhxRUFwb0xVTElCMmhCRzZpSWhZa3BHR2FKRDF3,Spanish,,5,2017-03-06,4 Videos,"",Exelente,,
ML Manager: APK Extractor,Google Play,com.javiersantos.mlmanager,Z3A6QU9xcFRPRWNqTzBGX2lUY3BPX3QzRW5GZ2Zjak5ia2tEOE1UeW1ERU1WQjc1U0JwYldhT0dQU25LbTZYWFVzZGRGWkY5V0w5dGJ1NFpwemFPSkxFV3Jr,Spanish,,5,2017-02-18,Gabriel Leyenberger,"",la mejor,,
ML Manager: APK Extractor,Google Play,com.javiersantos.mlmanager,Z3A6QU9xcFRPRUktbmFCM0lXMDlrS011NlVPNWJTamJFbjliYndfX241S2J6UkhjVTZaZm5hVG5hczdhbXk4a1gzMlJ5cDc2dHYzR1BrdXZZSHcxZWlPM3BB,Spanish,,3,2017-02-13,TecnoVag O.S,"","Falta añadir opcion que avise de las app que no tienen copia o no se ha extraído el paquete instalable, ahora hay que hacer esto a mano, para usuarios con muchas App instaladas es una pérdida de tiempo grande.",,
ML Manager: APK Extractor,Google Play,com.javiersantos.mlmanager,Z3A6QU9xcFRPRy0tb0dVUnZBTFdnckJralNKVlp0Y0t5N2VqS01GT3JiQmNmQ3dSWk1hMjA3ZmhFS2ZfOFEydkxKU2VqeUVOcThCZ2dyVnh3eGIxSnBkNHBN,Spanish,,4,2017-02-11,janncarlo hernandez,"","esta genial la app... todo bien pero necesita personalizacion... temas y eso... asi quedaria muy genial... sigan asi,  esta muy cool....",,
ML Manager: APK Extractor,Google Play,com.javiersantos.mlmanager,Z3A6QU9xcFRPSHFhRGtpTU1vNlpOS3VTWkF4Q1dtOWk4QlJ2R000c2V6Ymtzb3ZnUmpmd3lyMTViZndMcnBDRVpGbmlFcVVXdGpacU9idDRVSzNMc1VkbFZZ,Spanish,,5,2017-02-05,José Carlos Ojeda,"",Muy útil,,
ML Manager: APK Extractor,Google Play,com.javiersantos.mlmanager,Z3A6QU9xcFRPRzl4Mm5lSVBwNGJ5ei0yWmFqOEluZXc0WUFFRFlDMk95XzZhZXgtSEpVLTc5eFY3Qkc1VFVJQnhQRFlpZjk4QXBhYUxSTXdjSzBVVDQyTUFF,Spanish,,5,2017-02-05,ELOY MORA,"",Enhorabuena. ...eres un crack!!!...que se enteren los de la Junta de Andalucía,,
ML Manager: APK Extractor,Google Play,com.javiersantos.mlmanager,Z3A6QU9xcFRPR0YwUmxSb1h6bWlsQkdLXzVCcEdLck04ejR4NUpHVWtNTUJuUFNGN1MtNDFCX0JzYVFlNF9mcVYzY2hJeVRXbkNaU2taOWlkZ2tlOC1xRmhV,Spanish,,4,2017-02-04,Leandro Serrano,"","Es básicamente un ""ApkExtractor Lite"" pero con una interfaz mas limpia, igualmente sigue siendo muy buena app, pero yo me quedo con el ApkExtractor Lite. Repito, esta app es muy buena, que yo opte por quedarme con la otra ya son gustos personales, que este comentario no influya en tu descarga. +4",,
ML Manager: APK Extractor,Google Play,com.javiersantos.mlmanager,Z3A6QU9xcFRPRk1ZeDZPYkRmeHF1VTNGWEpMZTZRSWxVaUpFZ3Buam1xN3VUbTNiR1JzRUo5Z1hMSDh4M3hxd2RwbGgtLTlUY29GQnBURU5iQWt1VzlRS3lr,Spanish,,5,2017-01-31,Brandon Adriano,"",Muy útil y recomendable al 100%,,
ML Manager: APK Extractor,Google Play,com.javiersantos.mlmanager,Z3A6QU9xcFRPSE0wQ1kzZkxJNFRXSW1kVnluWWtqNDJ5VHJXZXYxQmZLZGlDRzdQWHd4NS1NNWVIUTNpdXA4cDd2VjIxYWNWNGU5VjBpVzhOaVJJR2RDbUpF,Spanish,,4,2017-01-25,Pelucho Jimenez,"",Muy interesante,,
ML Manager: APK Extractor,Google Play,com.javiersantos.mlmanager,Z3A6QU9xcFRPRmd0TElCZ3Rvd3djSzJfRVZSNEx5Ni04ekFyT3VWT0RNbE5QZE5jaU82WjhKRW1MRmJObDdRWXcyRkVkLVZSN2JiMzg2bHpGNzJfMnBQMkVj,Spanish,,5,2017-01-05,Angela M. Coaguila Pari,"",Excelente extractor de apks 😃👍,,
ML Manager: APK Extractor,Google Play,com.javiersantos.mlmanager,Z3A6QU9xcFRPSFJKUlRJc3NEY0hRY2dfSEpkSHBLWkJXU0Jab240dVFQSGdod294Y1MtY2ZSTl8yeVM5RGk1aTBuWHBlTmhJd1hqdkE0V1hHQnZvdW8xSVNn,Spanish,,5,2016-12-10,Jaider Palm,¡Excelente!,La mejor Aplicación para extraer APK. La utilizo desde hace meses y es muy buena e útil.,,
ML Manager: APK Extractor,Google Play,com.javiersantos.mlmanager,Z3A6QU9xcFRPSDZrMjBDdGU3b1Back0xOV9WMFp1SWd3RFJEZTM0VUdZSVpKdS1Pc28tdmtqaE5RdGpoR2lyQjZwYWRPR05ieGVPakhCVV9UbTBwTUtiRlM0,Spanish,,5,2016-11-27,DUBSTEP HERO,Excelente,Esta muy bien 👍👌,,
ML Manager: APK Extractor,Google Play,com.javiersantos.mlmanager,Z3A6QU9xcFRPR0E0bWNBUjQwRjEwT1BxcVM4b2wtV2lpVUJkWl8tLUkxRnFBVDJhbnlsN1JNczlfNVR2SERxYTYzUEE2MVRMY2huWkI5SFhHX2FKU2F6bDlB,Spanish,,5,2016-10-30,Mihai Alin,La mejor,Muy buena,,
ML Manager: APK Extractor,Google Play,com.javiersantos.mlmanager,Z3A6QU9xcFRPRmE1ZUVLMWRBc0VYejRHMEF3MEtydnZiaUJYNXVoWFRJMkNEQjN4dEhhajhST1V5cWRnb0lVWE5ZWkpQZ2x1UTZPRnZHQXZtMzU1UnVEdVI4,Spanish,,4,2016-10-30,cre ma,"",Muy buena,,
ML Manager: APK Extractor,Google Play,com.javiersantos.mlmanager,Z3A6QU9xcFRPR1hMOXA1dTZoaGlucjFtVWp0bWt6VmE4NHpxNU1ka0VMSGI0eGJBZnlQMzEwYWU2RXA5QUVRaTJLRVVMZmtnTUVSZHBnUGsxY3h0RkJqb1RF,Spanish,,4,2016-10-29,Osbin Cobar,Bien,En general funciona muy bien está app sigan así,,
ML Manager: APK Extractor,Google Play,com.javiersantos.mlmanager,Z3A6QU9xcFRPRVMyWHhBOXJxNk5QVjVaem1kYUFGbjNvaEI5dHhYUFZQRjd2b1FZbmhlUDVPQWVxMzBDelFZNDBMbmZpU2hNRHR1ZTJaZXNyRjV0M28zMmZJ,Spanish,,2,2016-10-28,Keiner RT,"",Muy Util. RECOMENDABLE (^_-),,
ML Manager: APK Extractor,Google Play,com.javiersantos.mlmanager,Z3A6QU9xcFRPRnVXUkpBOXFKVXFVQmhNTkhLc1B1UjlNRUFvQTZyQkNqRWYzZ3BDaDM1RTJlNHUxQWxHQWtTTWpBdU1ZZG9PbXdBbzl1UGRvZHpFbHlfREg0,Spanish,,5,2016-10-26,Rubén E. Luján Zanetti,Genial,Herramienta de trabajo,,
ML Manager: APK Extractor,Google Play,com.javiersantos.mlmanager,Z3A6QU9xcFRPRTVKNjFENTBOVWtaSW4wdk9DSjNObU9lZk02REpNM3VGRWhBWGNHSGE3LUx6UjViYnl0Y2J4X25PcnNlTVRoZ2xieWxGNFpkZ3lfYzFLVVVz,Spanish,,5,2016-10-23,SanSan,"Me encató, pero puede ser mejor",Delen Aspectos Diferente (Temas),,
ML Manager: APK Extractor,Google Play,com.javiersantos.mlmanager,Z3A6QU9xcFRPSExjX1UyRjB2cVA3cFV5enM2ZlJBanI2alpzendIY3VHVl9wUlU3bmFDTkdTbG9HcjdwaGtxdjE1bXVjOTRuY2swMEljR3FZamRQdm5QYTlR,Spanish,,5,2016-10-16,Nicolás Müller,Genial!,Convierte muy bien y rápido los apk.,,
ML Manager: APK Extractor,Google Play,com.javiersantos.mlmanager,Z3A6QU9xcFRPR0lPWnNwdnpZVWllRUM3dUVkUGxQQjlBanFraGM1ZXdVVFpXVzloNkduYUJER3JPNmoxVEd2WGY1S2FCMEhWTkVsVUp5VmxNdkRBZFNkWVBV,Spanish,,4,2016-10-01,Ignacio Javier Martinez,Bien,Muy util,,
ML Manager: APK Extractor,Google Play,com.javiersantos.mlmanager,Z3A6QU9xcFRPR2l6UGZZcnRoN0FtbkxUTWRuLVVvUE40SWMwLUJBUTZXV1drS05PMHhQT1FYcXZjbDZ3X3hEamVZWmlwYjdFX3BtcklCbnQ3b0hMQXFsMklr,Spanish,,5,2016-09-28,Nahuel López,"",Una de mis apps favoritas,,
ML Manager: APK Extractor,Google Play,com.javiersantos.mlmanager,Z3A6QU9xcFRPRndPUlhmU0ZhamJsMTYyU0JHejcteFBYVXI2Slhmb2JoVjJNQ2RLeXRRb2ZabkFHRm84UXo3NHUzQ2dCQ3IwSktOZEhPWS02cmp1VWx6QUpF,Spanish,,5,2016-09-05,Jorge Gallegos,Muy buena,Aunque le falta una guia detallada de como usarla si podemos compartir apps,,
ML Manager: APK Extractor,Google Play,com.javiersantos.mlmanager,Z3A6QU9xcFRPRmkzUmp2aFp2UFBBU2ptTnBkLURjMEhfUjVmVVZsMDVtV1BVejRpWm5CY1hMYWROV1JMVk9YcXFKd0ZpMVlvM1NwRDVqYVpoNG1uNm9TN2pz,Spanish,,5,2016-08-29,LuisitoGGamer [TM],Es Muy Buena La App,3 Palabras: Se La Recomiendo,,
ML Manager: APK Extractor,Google Play,com.javiersantos.mlmanager,Z3A6QU9xcFRPSEVFNDkxdWo0aGU3aFlYVzhGWWZzckhXOFdRVTJDc3dsQ3c5R20xTHFaQjFGSjJGLTNrdzdDMDdNR2tEalBjOVdvRFZXNkMxdjdiTlR4aFdz,Spanish,,5,2016-08-23,FABIAN HERNÁNDEZ,"",Exelente,,
ML Manager: APK Extractor,Google Play,com.javiersantos.mlmanager,Z3A6QU9xcFRPR1VzSS1PNmhBUDlGNTl0dWRkZzZDWU5PaHJvR3ltOWpzbm1iOWpvRE1NV2FwWlB4UWFGRE1LYWpyWVRIZVhmVkR2Z0tPNHdhLXdPRjZFcjdV,Spanish,,5,2016-07-19,Beto Esc,"",Excelente,,
ML Manager: APK Extractor,Google Play,com.javiersantos.mlmanager,Z3A6QU9xcFRPRUR2aVhKekdRSG5ZU2w3V1JhMWpKaDJ0eExKUXQ4empOY3dJWk8yVmU0VFJUTk1DTlB4TnExVGFVcEdJdlI5eTIyMzJIby00dTZIOFZTYlQ4,Spanish,,5,2016-07-18,Eddy Juárez,Única,"Hay bastantes apps qué realizan la acción de extraer la app sin embargo, ésta en especifico, es demasiado limpia, sin publicidad, fácil de usar y muy completa.",,
ML Manager: APK Extractor,Google Play,com.javiersantos.mlmanager,Z3A6QU9xcFRPSFFjN1FHWW1LZDRyWU9scGdIY0drc09Gc0MycmRyYkwyeUQyLXJfcHRYZklNTmZSRWUxd1FxLVRsTTRBR1NfQ29uNUNHMGYxWlZ5NVFTU1VB,Spanish,,5,2016-07-16,El Poka,XDXD,Muy buena tíos,,
ML Manager: APK Extractor,Google Play,com.javiersantos.mlmanager,Z3A6QU9xcFRPR0dob05LR1pBSEx4LXRrUzVjT0xFQ2lWSVp6UGtWXzFVaUloTC1MaERBYWFQQnFMakFIeGpwYWRXZ0RjMURsS09EU0pKOURYSHRpa0s5cjFj,Spanish,,5,2016-07-10,Gonzalo Caceres,Fácil de usar simple y efectiva,Buenissima,,
ML Manager: APK Extractor,Google Play,com.javiersantos.mlmanager,Z3A6QU9xcFRPSE5ZNllrSjF1QkZTeFFMQm1hQnNGaDJPM2ZfQ1dhQ29sSTQ0XzZUYWg0eU9jazYtdS1YNzFCZEFtRG12MW5XRUR0bTEtTW1tLXc0bTlDeFFN,Spanish,,4,2016-07-07,Julio Ulloa,Muy bien,Rápida y ser comparten app en simples pasos,,
ML Manager: APK Extractor,Google Play,com.javiersantos.mlmanager,Z3A6QU9xcFRPR0RGZV8zQzQ5UW5qNi16RUVzaUtlWjBRZnVFX21SMXoyYUNvOTMxeV9UWDdtZTdwd29qUlJOVjI3RVpvaVVBdnpZRkRUX2JuUUlKZUVycktr,Spanish,,4,2016-07-07,John Barrigón Staton,Casi perfecta,"El único problema es que no permite guardar los apk's en la SD en Android M, imagino que el problema es de Android y no de la App pero por eso nl es perfecta.",,
ML Manager: APK Extractor,Google Play,com.javiersantos.mlmanager,Z3A6QU9xcFRPRkp6ZG8xWUU2aldZNmRMcEh0UWJUX2oybmFqN3h4b21OXy1PLUZMQmlIQzdsdV9MVU5GemFzNUNkMU9ZSVlURUhtRnpEallNdXBlSUNiXzBv,Spanish,,5,2016-07-04,Iván López,Excelente,"Excelente aplicación, cumple con su función correctamente.",,
ML Manager: APK Extractor,Google Play,com.javiersantos.mlmanager,Z3A6QU9xcFRPSDA3NWFoR0dCc1I0NWFWZkpNdWhXM1ZJdHdXb285VkpxMjBmM1NsM281NlZ5Z3VVQWd3SkxxLUVTNnNlWk55NENfOUE1QTVzbHh5bmo4U0pF,Spanish,,5,2016-06-29,Fredy Chino,"",Buena,,
ML Manager: APK Extractor,Google Play,com.javiersantos.mlmanager,Z3A6QU9xcFRPRUNwZ0RoRzQ4R2gyelo5MGxRazc1THhwUTdOWURRNXBZdEdTQ1JSeVRyTEpNdUYyeWpfaDR5SnhXRUo4VjYyd2xISEplQ1I0ZHUwM3FvM2tN,Spanish,,5,2016-06-20,Enzo Medina,Perfecta,"Cumple lo que promete, funciona bien y buena interfaz, sigan así!",,
ML Manager: APK Extractor,Google Play,com.javiersantos.mlmanager,Z3A6QU9xcFRPR2hydEJIYXJKSGhxLUMzdGo2WG5jVXpJUzNDaENOaFJ2UWsxWWRCVFhQcF9pVUw1N0RDQW14ajNCLVUzLTY5S0IyeUp3ZXowU0IyZ2NaSmtv,Spanish,,5,2016-06-15,Kirito Abarca,"",La mejor app para extraer y guardar apk,,
ML Manager: APK Extractor,Google Play,com.javiersantos.mlmanager,Z3A6QU9xcFRPSFVlUnpFcEI2endSazR5bHpZMnNZejNVcHdDY25NNFBnV0JuV1Nib1I1OWR3U0w0MDBsU3I3aVQ1VktzbWdrdkFQdjgwVHotQjYwUVM3YUhz,Spanish,,5,2016-06-01,Raul Antequera,Muy buena,Gracias por esta app. Para cuando una de tenis?,,
ML Manager: APK Extractor,Google Play,com.javiersantos.mlmanager,Z3A6QU9xcFRPR3BWVWw4WWJQREszQm5RcjA4dmNFSnZEODROUWFwUEpIZXZPWGVEQW9UQ0lZX1Brb2lEaklBbEpFYnd3RzJqVTUwY3BvX00ybURzQlBfdWxn,Spanish,,3,2016-05-13,Leonardo Teseyra,"","Le falta una opción para inhabilitar aplicaciones, sean del sistema o no.",,
ML Manager: APK Extractor,Google Play,com.javiersantos.mlmanager,Z3A6QU9xcFRPRTBwR2J3REJlbXRKS0tURk9FdW02WjN3WjhjNlpzVmVKejZLVkhmbGNKVTVTR0VXMzlUQ1p3ZTJjNjVMczRiWi1zYWZ3a2RFWGVhb1NDZkhr,Spanish,,5,2016-05-10,Joel Changoluisa,"",esta muy buena,,
ML Manager: APK Extractor,Google Play,com.javiersantos.mlmanager,Z3A6QU9xcFRPSFRoZGlvX1NfZkpKRWQ3QlBiVzgzT280RVRkU3U2QWh3dk9RbnlTZ2RGb0hWZTlyNklvMGh4WmNqcFpqMkJDUjNKdlZmVW5BQVRrQnhRdTM0,Spanish,,5,2016-05-05,Renzo Rojas,Buena app,Es muy fácil de usar,,
ML Manager: APK Extractor,Google Play,com.javiersantos.mlmanager,Z3A6QU9xcFRPR0QzM1ZCMWVEZUo4cUJlRlRmLVQ0SzVhaHN5WTdqOHlaaDFjVDZCRmtLSk9GYXkxN3dKb3NLQTllcVJXRkpidHhTdzNuRTJ6UE1tWHo3MV9N,Spanish,,5,2016-05-02,Brian Puscama,Espectacular,Increíble app.. Para el que quiere tener las aplicaciones en apk  es muy buena la recomiendo mucho,,
ML Manager: APK Extractor,Google Play,com.javiersantos.mlmanager,Z3A6QU9xcFRPRjgxRzFwSWNRZFkxb2Exc2VQNU5wMndXWEJLZGhscXZuUG90VUJ1UF9YclM0eW5kNDI0WGV4V3JOazJKMVB0UzB3ZE9qNjZkUmNqOGpGTXFF,Spanish,,5,2016-05-01,Erick Alejandro Vargas Nava,Muy buena,Interfas sensilla facil de usar y sobre todo muy atractiba esteticamente. Aun no pruebo los brneficios de la version pro pero en la gratuita tudo va muy bien 👍,,
ML Manager: APK Extractor,Google Play,com.javiersantos.mlmanager,Z3A6QU9xcFRPRmxOZmRSZG5Eb0otbG0xWENaSERCTTV5NVUwVmtaYm1xNWI0UVNhRE42SDNVbzdrZmZTLVdOQ3E4QkZBY1NRR0VhLXR5U0NBQnF4TzNlaDNj,Spanish,,4,2016-04-26,Don NEBeek,Muy buena pero...,Debería existir la opción de multiseleccion. De ahí en fuera todo OK,,
ML Manager: APK Extractor,Google Play,com.javiersantos.mlmanager,Z3A6QU9xcFRPSFJnejJQU05MY01YRnNLR19DNVRfUjA4SEtnWUJyc1M5SThCamJmbTdDSWtzYXlHSkhiT3lFYU0yTVM3eFVpdnRJeFBVbW56S2VLWXdxaHhv,Spanish,,5,2016-04-23,derpexd y mikegio,Genial descargarla,Esta aplicación es la única que sirve para extraer apk,,
ML Manager: APK Extractor,Google Play,com.javiersantos.mlmanager,Z3A6QU9xcFRPRUl5bHE2OFR6RHNzRHdISGlub2VTQnh1RE1DYjhfTFpFLWZlaHhLMHBnX2ZfaEtnQzdrTHlDcEx3N0hYRDJpczlJMG1Sc2FHb3BjWDVnOGU4,Spanish,,4,2016-04-13,Francisco Fisterra,Bastante útil,"Solo falta nativamentela opción de poder enviar por la red de Internet, el paquete intalable a quien desees.",,
ML Manager: APK Extractor,Google Play,com.javiersantos.mlmanager,Z3A6QU9xcFRPRVJMZjFYRjNlV2RSYXl0cGFSaGZjRWlzOUw1aHE5UlVBcEVsT0VfNFdkVlpxcW5ub0FxdU5FbkhiQXN6VGs2OENRRkJMdXhtRFRPR2FPbC1J,Spanish,,5,2016-04-04,Igna Diaz,Buenísima actualización,Muy buen trabajo chicos,,
ML Manager: APK Extractor,Google Play,com.javiersantos.mlmanager,Z3A6QU9xcFRPRXdlNzR1ejdKXy1QZWo0dzBxdUZkREdTdWZmM1pBVjRDTDBuTzQ3aWFuUF9WTmkydmkzR1FfMFFmcFlaeTZkakVodm5sdlVvcU9Vam5JSU1B,Spanish,,5,2016-04-04,Sergio Marín,Me ha encantado,Esta fenomenal y tiene un diseño muy lollipop y bonito. Recomiendo descarga la!,,
ML Manager: APK Extractor,Google Play,com.javiersantos.mlmanager,Z3A6QU9xcFRPSDRnclB0a3lycHBJcFktSjN0ckZSN3JnemtsVW96Mng5UllSSzJnNkJEck4wRmozU0dGYnI2dzV1ZGdyX09ZaXVMQ056S2tsR1hWMzhNT053,Spanish,,5,2016-04-03,Antonio Sellés,"",Perfecto,,
ML Manager: APK Extractor,Google Play,com.javiersantos.mlmanager,Z3A6QU9xcFRPR3pDNndSMnU1OHl3MW1MXzNvUmhMWmljQnRHYzlQV2V4ZTNKZmtZQXREU0trLWppSDliMzAyUXhEUUwxQS1wSUtIM1FNNXZLUUs5NXRGWkdZ,Spanish,,4,2016-04-03,David Caballero,Perfecta,"Perfecta para extraer el apk de las aplicaciones y esta actualización es espectacular, me encanta, Buen trabajo",,
ML Manager: APK Extractor,Google Play,com.javiersantos.mlmanager,Z3A6QU9xcFRPRVFnY1FnWUgtRkx1X1BZY2xYUnVlTWhPTjh4T2JXSEVXRjF2ZEFEdWItUG5FcnEtVms0bW83WWEtbHdJazI2enlULTFXY0hJUDNvS0Y4MGh3,Spanish,,5,2016-04-03,Luis Anto,Buena actualización - abril 2016,La mejor de todas. Gracias por hacer esa actualización. En estos días compro la Premium.,,
ML Manager: APK Extractor,Google Play,com.javiersantos.mlmanager,Z3A6QU9xcFRPSE9UbWVlaHFNUDhxSkZiZG9LREZublFnV2RMek1QNG91bVlyT2d0aTc5M0MxVzNHREljYWRHeTRUb3NGcW1SZTZJSlF0RXNxU3lfREpYVGVV,Spanish,,5,2016-04-03,Cristian Colivoro,Excelente,"Es una excelente app, porque permite compartir aplicaciones APK's para compartir a diversos dispositivos de android (Varia según versión). 5 estrellas de calificacion🙌",,
ML Manager: APK Extractor,Google Play,com.javiersantos.mlmanager,Z3A6QU9xcFRPRlRWaTFsYlZTTE9JUEswQkR5TVUwbG83Sy1zRzRPTXlmemJmN21sZ1ZuMUR4VV9tcnZ2N2lONzNsekU3NWZ4YWRyUVI4ZTlxclJ1cXNENnIw,Spanish,,5,2016-04-02,alejandra perez quispe,:v,Que buena app,,
ML Manager: APK Extractor,Google Play,com.javiersantos.mlmanager,Z3A6QU9xcFRPR2xvV0twY1JjcE9kUTNwajlYcXJmT2I0ZVRBaTFNZDhLM2VGOVNjbGk3MEVTN2IwN001OHVZMlJxS0ZQWmlUWjd2SEd2Y01FUHJMQndOUDhR,Spanish,,5,2016-04-01,Andrés Sánchez,Excelente,La mejor,,
ML Manager: APK Extractor,Google Play,com.javiersantos.mlmanager,Z3A6QU9xcFRPRk45bXBWS1ZvcU5KUE1KVmtfQ2JsOEJlenRueG5wMDdfTTJCSV9XQTRndHRqZm1tcGNQcDNTNmQtUnQzOUpLUWlXVkViUVgxRnI2LUFiVllj,Spanish,,5,2016-03-29,"",Excelete app,"Solo una pregunta, cual es la diferencia entre esta versión gratis y la pro? Contestenme xfa    :)",,
ML Manager: APK Extractor,Google Play,com.javiersantos.mlmanager,Z3A6QU9xcFRPR1RzaXl0aFZ3SVcyS1J3S3dGZ2x4UkFzTW1KVVZfSkdCaEUxTFdUN1d2aUtmZVBsZkFRYmlvQi0zTkloQVJRTWxBOFJvcms5RldRbE1wNUc0,Spanish,,5,2016-03-29,Basel Noxchi,Me parece perfecta..,Es muy estable y cumple con sus funciones además te permite personalizar el diseño de la misma..,,
ML Manager: APK Extractor,Google Play,com.javiersantos.mlmanager,Z3A6QU9xcFRPSFFoaG1GRVItaGlQd2dLd050cnMtQ0F3QlZqWk1COGt6TVJGRHAtLVdPalhuUDdXSnNVUlNRb1JMd19fX3c1UlpyWHRWS21ZY0dzelN5YVRJ,Spanish,,1,2016-03-29,German Andres Acevedo Rotela,No funciona,"Si, crea una apk y todo lo q tu qieras pero luego cuando qieres instalar siempre salta un error.. SAMSUNG GALAXY GRAND PRIME es mi movil lollipop.",,
ML Manager: APK Extractor,Google Play,com.javiersantos.mlmanager,Z3A6QU9xcFRPR3dpUXk1NE1BMmdvWFl4RUxSR1NTSmlCVWRiVi1uTV94LTBoS1V1YmZWa2xEa3BEZmVLUTdUNEFiTWtRSGs1Yi1RaWxmSVVyV0JobW5TZ0hz,Spanish,,5,2016-03-26,Hernan Alfredo Sanfilippo,APK,Copia de las Apks sin ser Root.,,
ML Manager: APK Extractor,Google Play,com.javiersantos.mlmanager,Z3A6QU9xcFRPRzZjcTRoNXp6OHVHVGx0UkNPYXVCQ0xxYk9mNFBjT245VF9ETFp3aFkwWW5UMFQwUzNHbXhaN3ZrUm5kQl8xeVhqRTZvLTI0bmdvZVhoU1hn,Spanish,,5,2016-03-23,Miguel Rodriguez,Ya se necesitaba,Me parece genial usaba apk2sd porque no hallaba otra pero esta supera en mucho a apk2sd. Me encanta :D,,
ML Manager: APK Extractor,Google Play,com.javiersantos.mlmanager,Z3A6QU9xcFRPRUc2NHR2UXZJeTFoNE96T29uUnBWd05xbjFDQlhFazAyM2VyRTFEZjA1QmR5MWJBNmcxMUZLYjFtcWVWMWRxWWo4UmNteDE2MjJOMWNJQ3FZ,Spanish,,5,2016-03-13,Fabian Cajamarca,"",Simplemente hermosa,,
ML Manager: APK Extractor,Google Play,com.javiersantos.mlmanager,Z3A6QU9xcFRPRXlVZld1SWVJRjJGd1FlcUkzd2Zvd2Y5em1NSHFCTGpVS0QtS0dKbUFjN0xMRnkzLTBqZmsxYlVmQ2g5R0hQVEd2eWtBSlNwN3ZkZ3ZJdVpV,Spanish,,5,2016-03-12,Antonio Gallardo,Muy bueno,Excelente aplicacion,,
ML Manager: APK Extractor,Google Play,com.javiersantos.mlmanager,Z3A6QU9xcFRPRzJNeGRBYW41TjQ1X3dpekdiblRLMTBmcFl3SkRUSmk2alRIZ3p4ZTdZLXRpdHZyLWJBemR3VmJJRmJPWnhNWVQ5R1ZQZEhVM21jaG5zUmp3,Spanish,,5,2016-03-07,Tomas Salazar Perez,falta la opción de,enviar o compartir archivos de oficina,,
ML Manager: APK Extractor,Google Play,com.javiersantos.mlmanager,Z3A6QU9xcFRPSEMxYnMyYlpqVWRKUVhzQnktLUVVYmc2cGRubW1QVk10YlNLakh6QzZ5ckRZbDZoOWpSQl94Zm1EYndDY3l0MHYxNlN3dU9wZGxzeVJXN3pn,Spanish,,5,2016-02-18,Starking Elyos,Excelente,En realidad una app que supera lo bueno según su función ya que hace todo lo que necesitamos y su sencillez,,
ML Manager: APK Extractor,Google Play,com.javiersantos.mlmanager,Z3A6QU9xcFRPSFVmVm1rWHoyelZ2cDR5TW5lSm5tbXdGWVdVU2cwbV9ZMG1wcUtzbkVPajAxQ1Vhal9EeHU3aE1rTlM1ZFZTSlJ1azI3SlRoRkNvS29zTDRv,Spanish,,4,2016-02-17,Matias Martin,Muy buena,"Es muy útil, sencilla, liviana y estable.",,
ML Manager: APK Extractor,Google Play,com.javiersantos.mlmanager,Z3A6QU9xcFRPRW5zaDZrS2l4WmRRYkMtbEltNzhlOS03Z3daOXBUQWM5TjNaUkQyYWtxcE9keEVIVzA2bWxoODZVZFlwNWhrY1ZnRGJuakgwTmJEb2FHWUpB,Spanish,,5,2016-02-14,Alex Conejo,Bastante buena.. 👍,Muy útil..,,
ML Manager: APK Extractor,Google Play,com.javiersantos.mlmanager,Z3A6QU9xcFRPR2xYWXh6akpYSklCZnAzT0JjQmlXTUV3WkJRRTR1eVZKM2UycEpVN3dWSzBpM2F3MzhSUFVFdFMxSE02dndvNktRLXRzdTg0SFMtMW5MTC1J,Spanish,,5,2016-02-13,Alex EL POLLO,Muy buena,Me encanta a cada rato la ando usando me ha ayudado bastante,,
ML Manager: APK Extractor,Google Play,com.javiersantos.mlmanager,Z3A6QU9xcFRPRlRKUUdaRjNZcXQ2anZzajhZM1N4VHM5SjVRbVAzQ01jcm1KQ21OXzZRNlZEckVWblRLODVtUm1YWGhCQXhER2JaNFE1elNrbVN2Q2c0S0tN,Spanish,,5,2016-02-12,Gerson Rendón,¿Quién más está aquí por Pro Android?,Pues la bajé porque él dijo y es un crack :v,,
ML Manager: APK Extractor,Google Play,com.javiersantos.mlmanager,Z3A6QU9xcFRPRXE4a2pNNHVDbHp3eUtOWEVwd0RGZFhhbkJ6ZFl4dGxsdVdwQ2ZvN2kxc010azdPSUZnbjZsdmRrWnhSR1FRM3pmcnhlY3JPbUI4NFNWRVpV,Spanish,,1,2016-02-12,anderson zurita,Maso,Todo bien pero no se puede compartir desde la misma aplicación por Bluetooth mejoren eso y subiré estrella hay otros que si se puede compartir la apk deferente por Bluetooth,,
ML Manager: APK Extractor,Google Play,com.javiersantos.mlmanager,Z3A6QU9xcFRPSFViNkthYkp0U1NHa1ptMGhaQTZQd2FzamhvSmVrOWVUekE3VVloQkN1Z29CR0doSFpNZ1h6TWhDRFBQc05faXhIcDdES1lLcjd0d280OW1B,Spanish,,5,2016-02-12,Jose Miguel Perez Cabrera,"","Se pueden desinstalar aplicaciones del sistema? Lo intento pero no las elimina, saludos",,
ML Manager: APK Extractor,Google Play,com.javiersantos.mlmanager,Z3A6QU9xcFRPRldyVHZCU044akhPM0hXWWRMeWotTjhoWEk1a0Z4b2NtaGQtUUJUeVItcFFXMGhlRk0yWEJRNzZUT0NoWUJxeTVQMG1wdDh1VURtVFk1d2N3,Spanish,,5,2016-02-12,MartinGamer 0511,"",En esta version gratuita puedo compartir mis apks.......porfavor respondame es que recien estoy probando la app y esta buena.......,,
ML Manager: APK Extractor,Google Play,com.javiersantos.mlmanager,Z3A6QU9xcFRPSHpKVGJzZkYxNlBkRUs5RDh4RXdQM01hWkNZbDl6dXMxazZjT2pPdFRPRXN0eUtoSzdnZWI0dDZtN0VLeUN5dU9VcVhlbW1BVDJHWTVIY0tv,Spanish,,5,2016-02-12,paolo panella Goy,Genial!,Se merece 5 estrellas de las mejores app!!,,
ML Manager: APK Extractor,Google Play,com.javiersantos.mlmanager,Z3A6QU9xcFRPR3BFcUtSTEJuZURpalJwMEZPVTZWN0U4NVFNWjFRZVJFOWhIRHNrWWthT0RNZkhRZFBlYzZseEUwTnFFZ0xJN3d0ZVhSR0tHOFlSTXIwZVVz,Spanish,,5,2016-02-02,Dani Matilla,Supera espectativas,"Muy bien diseño, fácil de entender y cumple totalmente todas las funciones que promete. La mejor app para extraer aplicaciones",,
ML Manager: APK Extractor,Google Play,com.javiersantos.mlmanager,Z3A6QU9xcFRPR05lQnZYd3JlaWszVmFYSFlPLWZfeHhtbmxpWEVOMGRwWUlGM01DTXFxX1dGaTFONnM2TEQ3U2FDRHkxbHVjVVlGVUJ5ZkNFTjgxNHptaFpr,Spanish,,5,2016-01-29,isssa gutierrez valladares,Me encanta!,Una app material design simple y completa! :3,,
ML Manager: APK Extractor,Google Play,com.javiersantos.mlmanager,Z3A6QU9xcFRPRUhzVFdfaHZDaUVLVndIMUJGLTEwcTItaEYyc1VxZUU3ek5UcktCVERUVDB2T3UzNDNvNnNnemtRRWYtRFZUWE1ZTUMtV3JxSVNYdHlMN2JV,Spanish,,3,2016-01-12,fran CHARCUtero,"",Sin copiar los datos es de poca ayuda,,
ML Manager: APK Extractor,Google Play,com.javiersantos.mlmanager,Z3A6QU9xcFRPRWdWOHNFTUxEZFFacVVNRFppUEhiYUUyLUo2anRKVXF4RU9Xc19YNTJORmw2ZEdLdDBWQkRXaDkwVEtwNTU4NGFFYV85YUI0cGFIRVYwRFlJ,Spanish,,4,2016-01-11,Japan Reloaded,Una genialidad,"Muy buena aplicacion, muy util a la hora de cambiar de movil o tener un respaldo de tus apps.",,
ML Manager: APK Extractor,Google Play,com.javiersantos.mlmanager,Z3A6QU9xcFRPSGE0S0JfR243azlhRGlwT21ZekNxdE5yX0xuUFFpU2NVZkJvRlJFaWphdjk0T2ZDWjFlYkg2bGJyZEJndTdHYmxmNXFFRUJGLUdpdmpGdFMw,Spanish,,5,2016-01-11,Don Desing,La mejor sinceramente,MUY UTIL Y DE MUY BUENA CALIDAS ESTA APP,,
ML Manager: APK Extractor,Google Play,com.javiersantos.mlmanager,Z3A6QU9xcFRPRVpVUXZrbV9VeXpnYjhwb3pnWjUzcXVTYVFHdFB2LXlpUTlrQ0Y4WTVKZ09MV0doSTFvcEVhUG5MbDk3WnUtYWd4eGZjekw2X0lMeFMycW04,Spanish,,5,2016-01-06,Lucas Gutierrez,Completa,"Es una aplicación ideal para cuando se cambian roms, no perder las aplicaciones que se tienen. Muy buena, gran trabajo",,
ML Manager: APK Extractor,Google Play,com.javiersantos.mlmanager,Z3A6QU9xcFRPRW5JS1AxamRXdHlQQzVFdkNIZG5wZmk2MDF2Tmh2Uk1yelZyMEQ1MFZBaVR5NkdMOHFEVmVvay1uem1DeVp4UVV4aTNySE9qZXFKTFdta3FR,Spanish,,5,2015-12-30,Pablo Vic La,¡Sorprendente!,Muy interesante la verdad. ¿Es necesario hacer Root para compartir las apks en versión Pro?. Si no fuera necesario hoy mismo compro la versión Pro. ¡Muchas gracias Javier!,,
ML Manager: APK Extractor,Google Play,com.javiersantos.mlmanager,Z3A6QU9xcFRPSER2NmZ3cjJvTm03Rk9GT2g0a1RBZVdxVkllTFM2eVlBUXJFWDlTaEduTmVsSVBReEE5RWF2STl6azQwUzR4UkpyaHgzc25BQWtYOEVHMGhR,Spanish,,5,2015-12-27,Javier Emmanuel Betanzos Silva,"",Muy buena!,,
ML Manager: APK Extractor,Google Play,com.javiersantos.mlmanager,Z3A6QU9xcFRPR0tMSHZTY2dxQ2YzTDY2WjNzZHdVQ2xITGdoOWIweXBXMk55WE9hRUE5SlBvR2Y1eW9OaTlHRklIejFGY0V5X1l4ZmNsNTNxUVlYdkZ2UVBv,Spanish,,5,2015-12-11,Juan Antonio de Lorenzo del castillo,"",Esta muy bien,,
ML Manager: APK Extractor,Google Play,com.javiersantos.mlmanager,Z3A6QU9xcFRPSGtLYUd6X0tHb1NiaWh5SlliTkFPMEJTd1pzZWpGb2JFLWJ3cDFwY1NYblpyY1lkTUs2NFFCeDNtcFk0VFltdTNINW83eWtJUzd5WFhXRGR3,Spanish,,5,2015-12-05,Ángel Luis Libreros,No Esta Para Nada Mal,Buenisima app cumple con lo que dice.,,
ML Manager: APK Extractor,Google Play,com.javiersantos.mlmanager,Z3A6QU9xcFRPRkd1ZEhySEt2S1Z3WHlqRlgxUHp3a3QwRnZGR2R2aXJjMElibmtjTlhQR1laajRfc21mdmtjWUhxS3ZsTUhtUFJiQkkwSHZKbmhxYTRuVkRR,Spanish,,5,2015-11-29,miguel sierra,Magnífica,"Control absoluto de las aplicaciones. Interfaz limpia, sencilla e intuitiva.",,
ML Manager: APK Extractor,Google Play,com.javiersantos.mlmanager,Z3A6QU9xcFRPRXh5X0ppZWxhZzdtUXhJWmh5OU12MFF3UDZMODhoTHo3akVLU21oSV9DS19ONXFNdUFLcGthWVk1V0VIbllLazJPOHZ6dHhxQUlDb0EzQlZV,Spanish,,5,2015-11-29,Kevin Del Castillo Ramirez,Diseño,Me encanta y cumple con su trabajo.,,
ML Manager: APK Extractor,Google Play,com.javiersantos.mlmanager,Z3A6QU9xcFRPRV9rSFVKUTd3cS0zanF4X3c3QXVQUkR5NDdmaDJrcFRkMUpaVmpKV3FUaWpjTTBDR1JJcmNYUFRkX0dsRmRMekY2ajgtV3VIcnRaaTlKLUFN,Spanish,,5,2015-11-20,Henry Lopez,Excelente,Muy buen trabajo,,
ML Manager: APK Extractor,Google Play,com.javiersantos.mlmanager,Z3A6QU9xcFRPRTBkVkViZ2NiYlktUko1ZF9iWGNtb2VzYjVwcG1reks3MGpQTXAzb194VWZTQ18wZFFib3JwNHZRcWdYcklxcngtNlFsMFVxbHRWWk1FWUZv,Spanish,,5,2015-11-07,Sergio Sanchez,Muy buena app,En cuanto compre una tarjeta comprare la app de paga,,
ML Manager: APK Extractor,Google Play,com.javiersantos.mlmanager,Z3A6QU9xcFRPRjJMeVRHa2Vzd3p1eGtNb2s1MUVhZ1JHMnJ1NklHcmNXTDlCajFIQjRja3lRUzhFc1JDRUgyODZaNDBVUnpvOEFoRkp6MGdfXzY4X3MtWEo0,Spanish,,4,2015-08-22,Adonay Gonzalez,Esta con todo,Me gusta y espero usarla mucho,,
ML Manager: APK Extractor,Google Play,com.javiersantos.mlmanager,Z3A6QU9xcFRPRzVyZEYweEg4Rk9oeDZsYm9OZFJiQjN4MHBadkVYVGxadDRPY05HT0VHMFlZVjItQmZfNEllck5BaVhwb3VtOTFiYktjQWprM1JCYS1KR09r,Thai,,5,2017-01-30,เจนณรงค์ จั่วกี่,"",ชอบมากครับ,,
