App,Store,App ID,Review ID,Country,Version,Rating,Date,Author,Subject,Body,Translated Subject,Translated Body
Contact Merger,Google Play,de.measite.contactmerger,Z3A6QU9xcFRPRm5rN0NJS1JzQU9iNDlOLTJuWlNKSTFCQ0FsTGpPUVROU2Q4bkFiLS1XWjBRLTRMWWFJMnJvQ3lxblVmZXhJSHJScnJJT1A0RVFHYkRWQ0E,English,,5,2017-02-08,JP Malhi,,excellent simple to use did what wa needed easily,,
Contact Merger,Google Play,de.measite.contactmerger,Z3A6QU9xcFRPR1drTGFJSzJreDV4dXRJbjJyRFd4eVFVVm9VaEk2aTBQY3RzRG8yRERoUlhZUzJ4UWFobXNqRThjeVoyYk90c0d1UFl0VURSRG1PRHFrU2c,English,,1,2016-12-03,Banshan Kharmalki,Too slow,even after 3 14 of my contact had been forget about actual merging,,
Contact Merger,Google Play,de.measite.contactmerger,Z3A6QU9xcFRPR1drTGFJSzJreDV4dXRJbjJyRFd4eVFVVm9VaEk2aTBQY3RzRG8yRERoUlhZUzJ4UWFobXNqRThjeVoyYk90c0d1UFl0VURSRG1PRHFrU2c,English,,1,2016-12-03,Banshan Kharmalki,Too slow,why is it taking much time,,
Contact Merger,Google Play,de.measite.contactmerger,Z3A6QU9xcFRPR1drTGFJSzJreDV4dXRJbjJyRFd4eVFVVm9VaEk2aTBQY3RzRG8yRERoUlhZUzJ4UWFobXNqRThjeVoyYk90c0d1UFl0VURSRG1PRHFrU2c,English,,1,2016-12-03,Banshan Kharmalki,Too slow,is it actually exporting my contact to some hacker somewhere,,
Contact Merger,Google Play,de.measite.contactmerger,Z3A6QU9xcFRPRzJ3RG9hMzRBTUlPeGVzU2dOaV9Zb2pKQ3V2V0c5bFBzTnhmNUxoN01mYmdiVTFTM3hCOFNxYjJOeEJtVUM3OE9nMVZSRGZ3dmt4b3FzMHc,English,,5,2016-11-04,maria waqas,To the point,just the best,,
Contact Merger,Google Play,de.measite.contactmerger,Z3A6QU9xcFRPR1NJancwSTNySFlSNnVxbWdNZS1UMzg0QUhHSUZOVFl4NGpEam12OVdJYmRTbFBvWWQ2NWlZTXppM0NfSFlxb1ljcGFrcF83eGpfMUNpb3c,English,,3,2016-06-21,Walt Bilofsky,,i gave it a try,,
Contact Merger,Google Play,de.measite.contactmerger,Z3A6QU9xcFRPRmpPQjlFWExBVk9DcUV3MzA5ZkY2WUhRLUI1bzZEUjZFazNINXM4aXJPRzc0ZzJEczFJSW1HZHYzRkdoMVNLOXJRSHdZS05vSVFEMDU2emc,English,,2,2016-05-08,John Weiss,Couldn't Get It To Work,it would start reach then hang,,
Contact Merger,Google Play,de.measite.contactmerger,Z3A6QU9xcFRPRVUyMDZKYmtkU3BqaWlxdzhHaEs4SHRTd0FRS3hXSURjcjVEOEhQa0JtQUtCSFQ1dW5McW9wdlFEYUk4RlRNSGpDRW9jQ3dFenAxRHRCVUE,English,,1,2015-11-25,Mark Rice,,messed up all my contact,,
Contact Merger,Google Play,de.measite.contactmerger,Z3A6QU9xcFRPRXZjY0prbkxoS0Q0YXFOMDMxTHNERTZxY3lDRVlLNUl4N25rdW5VeVU1NmJqY0lWRkhwZnBvX1A2RjU2aVpGaW1ZNkdhWW1udk1TaTZVRnc,English,,1,2015-11-02,Nick Quantum,Useless,say everything is fine,,
Contact Merger,Google Play,de.measite.contactmerger,Z3A6QU9xcFRPRXZjY0prbkxoS0Q0YXFOMDMxTHNERTZxY3lDRVlLNUl4N25rdW5VeVU1NmJqY0lWRkhwZnBvX1A2RjU2aVpGaW1ZNkdhWW1udk1TaTZVRnc,English,,1,2015-11-02,Nick Quantum,Useless,lie,,
Contact Merger,Google Play,de.measite.contactmerger,Z3A6QU9xcFRPRXZjY0prbkxoS0Q0YXFOMDMxTHNERTZxY3lDRVlLNUl4N25rdW5VeVU1NmJqY0lWRkhwZnBvX1A2RjU2aVpGaW1ZNkdhWW1udk1TaTZVRnc,English,,1,2015-11-02,Nick Quantum,Useless,i can see many duplicate,,
Contact Merger,Google Play,de.measite.contactmerger,Z3A6QU9xcFRPR3k2QzFhNHFwTTVsRmdFbzIxY2xFcnJsdXdmalJJQ0NDRFk0ZlBnVnptMV8xS0luUzFZd2VmRXYwVjUzdGRVTkRDZ2RVTk1HNkdBQVI3ZHc,English,,1,2015-10-28,Romante BHz,Stop!!!,it deleted all my contact list,,
Contact Merger,Google Play,de.measite.contactmerger,Z3A6QU9xcFRPSEpXRTFFdFdqYTJUSmtYTVZ6cGEwb2l6cUtqWF9abXpVN2pkdS1kUUdRZ2toRUNVUC1MZjlnRG5KNDlwWENLck55SC1lV1dNaFd5UXRiSkE,English,,1,2015-06-22,Mohd Hafiza Yusof,,horrible crash even do it job,,
Contact Merger,Google Play,de.measite.contactmerger,Z3A6QU9xcFRPRzV1RERobWY1Vzd6aloyS3hyaHZ4UnJpNktINFd4anVHb2k0Vi1CTmlleFRRODZ2QXBybUhYbnVaUk4wdmVqXzM5NnVsTzJITDRHaGtpSEE,English,,5,2015-01-31,Diego Garcia,Best app ever thanks,this is good for contact with account and with your phone also,,
Contact Merger,Google Play,de.measite.contactmerger,Z3A6QU9xcFRPRWJWZHFjWHJlQ2JQLUJiUmRUX3ExdmxPbThMVndUNkhUSTY2aF84ZW5UbGpVSFlWY2k1a3ptRUtySFd3akwtbjBta0JhNGpIaFhfT1JjMHc,English,,5,2014-08-30,Sonya Bohoslovska,good job!,just what i wa looking managed to find all the duplicate and merged them perfectly,,
Contact Merger,Google Play,de.measite.contactmerger,Z3A6QU9xcFRPRWJWZHFjWHJlQ2JQLUJiUmRUX3ExdmxPbThMVndUNkhUSTY2aF84ZW5UbGpVSFlWY2k1a3ptRUtySFd3akwtbjBta0JhNGpIaFhfT1JjMHc,English,,5,2014-08-30,Sonya Bohoslovska,good job!,loved thanks,,
