Topic Index 1,Topic Index 2,Topic Similarity
11,1,17.647058823529413
1,14,11.11111111111111
3,6,11.11111111111111
6,17,11.11111111111111
19,2,11.11111111111111
0,5,5.263157894736842
5,3,5.263157894736842
8,9,5.263157894736842
10,19,5.263157894736842
12,0,5.263157894736842
13,12,5.263157894736842
14,11,5.263157894736842
16,8,5.263157894736842
17,10,5.263157894736842
2,4,0.0
4,7,0.0
7,13,0.0
9,15,0.0
15,16,0.0
18,18,0.0
