Topic,Words
0,0.018*lackluster,0.016*feature,0.015*seeing,0.015*wants,0.015*loading,0.014*click,0.013*users,0.013*great,0.012*need,0.012*of
1,0.022*a,0.017*added,0.013*well,0.013*that,0.011*kudos,0.011*easy,0.011*forward,0.011*token,0.011*active,0.011*needed
2,0.019*click,0.016*rating,0.014*support,0.014*i,0.014*many,0.012*if,0.012*even,0.012*are,0.011*via,0.011*branch
3,0.027*login,0.020*facilitating,0.019*new,0.017*fix,0.017*useful,0.015*via,0.014*least,0.013*from,0.013*please,0.012*very
4,0.024*branches,0.023*all,0.015*my,0.014*much,0.014*unless,0.014*nonstarter,0.014*why,0.013*who,0.013*option,0.012*look
5,0.021*seeing,0.017*client,0.016*unable,0.016*vital,0.013*award,0.012*could,0.012*freezes,0.011*further,0.011*styles,0.011*least
6,0.029*does,0.018*try,0.016*version,0.015*find,0.015*to,0.014*expected,0.013*linked,0.012*time,0.012*know,0.012*referenced
7,0.015*commits,0.015*starred,0.014*branch,0.013*be,0.013*otherwise,0.013*does,0.013*fantastic,0.013*option,0.011*of,0.011*repositories
8,0.020*users,0.016*would,0.016*commit,0.015*as,0.014*out,0.014*allowing,0.014*who,0.013*a,0.012*until,0.011*very
9,0.019*check,0.015*able,0.015*via,0.015*best,0.013*who,0.012*lacks,0.012*project,0.011*implemented,0.011*doesn't,0.011*old
10,0.015*there,0.013*further,0.013*create,0.012*kudos,0.012*bit,0.012*vital,0.012*tapped,0.012*be,0.011*edit,0.011*excellent
11,0.028*commits,0.020*updated,0.018*new,0.018*actually,0.018*feature,0.015*appreciate,0.014*see,0.013*network,0.013*pages,0.013*tapped
12,0.016*otherwise,0.015*opening,0.013*latest,0.012*5,0.012*my,0.012*forward,0.012*while,0.011*more,0.011*lacks,0.011*now
13,0.018*awesome,0.016*managing,0.016*for,0.015*gists,0.014*web,0.014*tab,0.013*rating,0.013*token,0.013*who,0.012*login
14,0.021*many,0.013*perfectly,0.012*unlikely,0.012*fork,0.012*linked,0.012*clunky,0.011*used,0.011*reviews,0.010*supports,0.010*commits
15,0.022*excellent,0.019*further,0.018*for,0.017*lot,0.017*design,0.016*keeping,0.015*its,0.014*freezing,0.012*data,0.012*give
16,0.021*especially,0.019*mode,0.018*could,0.016*vital,0.014*or,0.013*great,0.013*this,0.013*cool,0.013*it's,0.012*able
17,0.018*branches,0.015*who,0.014*managing,0.014*already,0.014*if,0.013*will,0.011*been,0.011*opening,0.010*does,0.010*fully
18,0.017*managing,0.016*manage,0.015*view,0.013*one,0.013*otherwise,0.012*the,0.012*now,0.012*site,0.012*what,0.012*find
19,0.026*forward,0.023*version,0.013*at,0.013*though,0.012*am,0.011*their,0.011*abandoned,0.011*updated,0.011*personal,0.010*gists
