# deletions,date,commit message
1,2016/3/02,Fixed wrongly placed line.
13,2016/3/02,Improved map and action bars.
1,2016/2/29,Fixed unchanged date on date change.
3,2015/11/21,Improved overlay.
10,2015/11/20,Improved popup.
28,2015/11/19,Improved map overlay. Updated libraries.
136,2015/11/19,Changed details view to popup.
24,2015/11/19,Divided overlays.
16,2015/11/19,Added detail view in map.
12,2015/11/17,Improved icon management.
5,2015/11/17,Added overlay to map.
5,2015/11/17,Added overlay for parking spots.
3,2015/11/16,Added prerequisites for map.
20,2015/11/04,Final fixes.
10,2015/11/03,Added version check for forecast.
21,2015/11/03,Improved settings behaviour on changed settings.
2,2015/11/03,Fixed enabling active support while using a non supported city.
3,2015/10/28,Formatting.
46,2015/10/28,Update strings.xml (POEditor.com)
1,2015/10/28,Partially completed translation.
5,2015/10/28,Implemented active supported cities.
8,2015/10/27,Fixed location not being refreshed after enabling location service.
20,2015/10/27,Moved back to beta. Added czech and polish strings.
3,2015/10/12,Changed default to optimal.
3,2015/10/12,Minor fixes.
1,2015/10/02,Fixed autocity in search.
1,2015/10/02,Removed lib directory compile piwik directly.
19,2015/10/02,Removed Polish and Czech. Changed Version.
3,2015/9/24,Changed forecast dates to UTC. Changed app url and server url to new domain.
2,2015/9/21,Increased version.
1,2015/9/17,Fixed crash on connection refused. Changed mitte lot using to 0.4.
5,2015/9/04,Improved progress bar. Added date to forecast view.
2,2015/8/27,Version Increase
6,2015/8/27,Added citychoosing by location.
11,2015/8/27,Adapted to new meta api.
21,2015/8/27,Readded error messages.
170,2015/8/25,Transferred forecast to new loader.
54,2015/8/25,Improved Loader for multiple urls.
558,2015/8/23,Refactoring. Tried to do all with one Async class.
2,2015/8/10,Added Piwik tracker.
1,2015/8/10,Added showing last update on load.
33,2015/8/10,Improved about section.
38,2015/8/10,Improved sorting.
1,2015/8/10,Gradle update.
4,2015/7/26,Fixed crashing on failed server request. Created alpha.
1,2015/7/22,Changed server address.
4,2015/7/22,(Hopefully finaly) fixed sorting. Improved rating of Parkhaus Mitte.
15,2015/7/21,Fixed forecast fetching.
2,2015/7/16,Improved sorting.
2,2015/7/13,Version 1.0.0 YAY!
1,2015/7/12,Changed fetch url.
1,2015/7/11,Improved search.
10,2015/7/11,Removed nevigation button. Implemented map button.
66,2015/7/10,Cosmetics.
8,2015/7/09,Improved API compatibility. Improved details view.
15,2015/7/09,Improved details layout.
261,2015/7/09,Replaced detail activity with expandable list view.
5,2015/7/09,Added imagebuttons.
165,2015/7/09,Removed backward compatibility.
31,2015/7/09,Removed networksetttings completely.
3,2015/7/09,Added search. Removed old icons.
1,2015/7/09,Changed App Icon.
11,2015/7/09,Minor Layout.
4,2015/7/08,Color change.
2,2015/7/08,Minor fix.
2,2015/7/08,Added licensing information in readme.
8,2015/7/08,Added lot type. Changed color.
4,2015/7/07,Improved functionality.
131,2015/7/07,Reworked Layout.
18,2015/7/06,Improved ListView. Cleaning.
21,2015/7/06,Improved forecast layout.
1,2015/7/05,Implemented datePicker.
11,2015/7/05,Removed Logging. Implemented progress. Set Button texts.
28,2015/7/05,Implemented List.
18,2015/7/05,Improved forecast activity layout. Started implementation of ForecastActivity.
15,2015/7/04,Added Layout.
2,2015/7/04,Added ForecastActivity.
1,2015/7/02,Fixed date parsing.
1,2015/7/02,Improved address handling.
1,2015/7/02,Added refresh icon.
7,2015/7/02,Improved address finding.
12,2015/7/02,Refactored Interfaces. Added better progress.
90,2015/7/01,Cleanup.
65,2015/7/01,Implemented callback interface for fetching classes.
23,2015/7/01,Small fixes.
31,2015/7/01,Added external place activity.
8,2015/7/01,Version 0.9.0 release.
233,2015/7/01,Refactoring.
12,2015/6/30,Added geocode with osm.
5,2015/6/30,Added test implementation for sharing.
55,2015/6/30,Added shiny new loading bar. Fixed sorting a bit.
258,2015/6/30,Removed forecast implementation.
47,2015/6/30,Removed forecast from details activity.
16,2015/6/30,Improved error handling.
7,2015/6/29,Renamed new API fetching. Fixed coloring for less states.
3,2015/6/28,Implemented ase of new API.
5,2015/6/28,Fixed first fetch.
32,2015/6/28,Integrated city object.
26,2015/6/28,Implemented City Object.
8,2015/6/28,Fixed reset button.
12,2015/6/27,Added new API server fetch.
24,2015/6/27,Removed SSL settings.
5,2015/6/26,Improved euclidic sorting.
1,2015/6/26,Added hiding options.
5,2015/6/25,Tried to improve sorting.
48,2015/6/25,Made euklid default sorting. Improved strings file for polish translation.
2,2015/6/24,Increased version.
9,2015/6/24,Added euclidic sort.
3,2015/6/24,Increased version.
3,2015/6/24,Fixed url encoding.
218,2015/6/23,Avoid committing IDE specific files.  + These files are subject to change on different computers and should therefore not be checked into version control. + Removing them will most likely force you to **reimport the project** once again into Android Studio.
123,2015/6/23,Convert line endings from CRLF to LF.  + This commit introduces no code change!
2,2015/6/23,Prepared forecast for new API.
48,2015/6/22,Prepared for API change.
2,2015/6/19,Update Fetch.java  It will now display the correct error message when no connection can be established to the server
5,2015/6/18,Removed unused imports.
3,2015/6/18,Improved sorting by free slots. Increased minor version.
2,2015/6/18,Removed missleading error messages. Fixed sorting by distance if spots without location information are present.
5,2015/6/18,Fixed 2 crash reasons.
