Topic Index 1,Topic Index 2,Topic Similarity
9,2,17.647058823529413
0,3,11.11111111111111
1,5,11.11111111111111
2,7,11.11111111111111
4,12,11.11111111111111
6,11,11.11111111111111
14,9,11.11111111111111
16,0,11.11111111111111
3,1,5.263157894736842
5,10,5.263157894736842
7,15,5.263157894736842
8,8,5.263157894736842
11,16,5.263157894736842
12,19,5.263157894736842
13,4,5.263157894736842
15,13,5.263157894736842
19,18,5.263157894736842
10,6,0.0
17,14,0.0
18,17,0.0
