Topic Index 1,Topic Index 2,Topic Similarity
11,13,11.11111111111111
0,15,5.263157894736842
1,0,5.263157894736842
2,3,5.263157894736842
3,10,5.263157894736842
4,18,5.263157894736842
5,4,5.263157894736842
6,16,5.263157894736842
7,9,5.263157894736842
8,17,5.263157894736842
9,1,0.0
10,2,0.0
12,5,0.0
13,6,0.0
14,7,0.0
15,8,0.0
16,11,0.0
17,12,0.0
18,14,0.0
19,19,0.0
