# deletions,date,commit message
1,2015/11/25,Use diamond
7,2015/11/25,Prevent TalkIdsChangeEvent to be called more often than needed
9,2015/11/25,Simplify
4,2015/11/24,31C3 -> 32C3 and update help
3,2015/11/24,Cleanup
8,2015/11/24,Use AppCompatActivity
23,2015/11/23,Use ButterKnife 7.0.1
1,2015/11/23,Use gson 2.4
7,2015/11/23,Use build-plugin 1.5.0 and sdk/support 23
1,2015/11/23,Use gradle 2.9
4,2015/11/23,Cleanup
23,2015/11/23,Switch th halfnarp-client 2.0.0 ( for 32c3 )  - also update AXT and okhttp
12,2015/5/10,Modernize
1,2015/5/01,Use build-plugin 1.2.0
11,2015/3/25,Bump SDK and stuff
6,2015/3/01,Update to latest build tools version
1,2015/3/01,Use the support version of this call
35,2015/1/27,Cleanup and add event at the end  This is kind of a workaround for a scrolling problem that happens when the tracks have different end times.
3,2015/1/27,Use newest tooling
5,2014/12/19,correct search of first event
38,2014/12/19,dynamic row/room count
9,2014/12/19,intial work on displaying schedule with lnked recyclerviews
1,2014/12/11,lower the minSdk and prepare new version features by adding the needed libraries
2,2014/12/06,more design & bump out a version
24,2014/12/06,design overhaul with official 31c3 design
2,2014/12/04,bump version
2,2014/12/04,bugfix
1,2014/12/04,layout tweak
2,2014/12/04,bump version
5,2014/12/04,use staggered layout
1,2014/12/04,must escape
5,2014/12/04,tobi pointed out that some cases  where wrong
2,2014/12/03,bump version
14,2014/12/03,nice up
12,2014/12/03,fix for SDK <21
108,2014/12/03,cleanup
87,2014/12/02,upload / update
27,2014/12/01,store talkIds
49,2014/11/30,make it kinda usable
70,2014/11/30,improve a lot
