recycle view to scroll faster,b,2013/8/31,,
version code bump,b,2013/8/31,,
is a stupid name for a variable,b,2013/8/30,,
integration,f,2013/8/30,,
not sure the installer even set it,f,2013/8/30,,
version number bump,b,2013/8/29,,
touching an entry will now toggle the select box well,f,2013/8/29,,
got installer and mixed up market link were not correctly generated,b,2013/8/29,,
also added forward compatibility for,f,2013/8/29,,
