# deletions,date,commit message
1,2016/4/14,Also refresh content list fragment on refresh.  It contains a reference to mRepository.  Closes #315
3,2016/4/10,Avoid warning about offscreen page limit being too small.
5,2016/4/10,Use TextInputLayoutEditText for editors in TextInputLayout.
1,2016/4/10,Propagate child scrollable state through content list container.  Closes #313.
4,2016/4/08,Fix listing own repos.  Also add a comment explaining why exactly we're doing what we're doing in constructing the filter data.
3,2016/4/08,Fix tag handling in commit note adapter.  Closes #312.
10,2016/4/08,Update to AS 2.0 and latest support library.
1,2016/4/05,Properly filter forks/sources for organizations.
5,2016/4/05,Fix organization repository loading.  The API apparently doesn't like the 'all' filter type for organizations for whatever reason.  Closes #311.
21,2016/3/30,Use case-insensitive comparisons for user names.  Github doesn't care about user name capitalization so we shouldn't either.  Fixes #308.
0,2016/3/30,Update Github bindings to fix repo list sorting.  Fixes #305.
2,2016/3/27,Fix argument order in event title generation.
285,2016/3/26,Fix some more cases of wrongly triggered pull-to-refresh.  Use a common base class for the activities hosting a single fragment only so the setChildScrollDelegate() call is neither forgotten nor duplicated. Also move intent extra member variable initialization to separate method to ensure correct order of the various things done in onCreate() of the various activity subclasses.
27,2016/3/25,Improve SVG size handling.  Instead of crashing if an SVG doesn't provide a document size gracefully fall back to using the device's display size taking into account the SVG aspect ratio if available.  Fixes #303.
11,2016/3/23,Properly put filter data into bundle.
2,2016/3/23,Fix NPE.
1,2016/3/23,Disable comment editor if issue/PR is locked.
3,2016/3/23,More coloring.  Color recents entry and view pager overscroll according to current header color.
16,2016/3/22,Fix state update after reopening/closing pull requests.
1,2016/3/20,Fix empty text for search issue list.
4,2016/3/20,Handle item clicks in issue search list consistently to issue list.  If the list is showing both issues and PRs make the click always open the issue.
177,2016/3/21,Revamp error handling.  Get rid of the toasts and allow the user to retry the operation.
3,2016/3/21,Properly display the lack of Wiki updates.
5,2016/3/20,Implement sorting for starred repo list.  Closes #300.
1,2016/3/19,Fix crash when refreshing the issue activity.
21,2016/3/19,Fix issues with swipe-to-refresh being wrongly triggered.  Might fix #299.
46,2016/3/19,Shuffle some helper methods around.
28,2016/3/19,Name some layout files more appropriately.
11,2016/3/19,Make code search more useful by showing the matching snippets.
139,2016/3/19,Implement issue search.  Closes #113.
4,2016/3/18,Fix repo issue list progress/overscroll coloring.  State is passed as part of the query not as part of the filter data.
1,2016/3/18,Draw labels with rounded corners.
66,2016/3/18,Color progress bar and overscroll in repo issue list fragment.  Also clean up the progress/overscroll coloring code a bit.
27,2016/3/18,Fix home activity header color not updating when switching factories.
1,2016/3/18,Fix format specifier.
48,2016/3/18,Solely use spans to display labels.  This makes us get rid of an external library is more efficient and ensures the label list and labels mentioned in issue events look consistently.
2,2016/3/18,Fix pull request header refresh handling.
28,2016/3/18,Color progress bar together with header coloring.
1,2016/3/18,Add some missing breaks and commit ID to merge event.
68,2016/3/17,Add support for showing some more issue event types.
1,2016/3/17,Fix swipe-to-refresh being triggered when scrolling up in the WebView.
2,2016/3/16,Give code tags a light grey background.  Closes #267
1,2016/3/16,Consume stable API not beta.
33,2016/3/16,Rework generation of some event list item titles and descriptions.
1,2016/3/16,Don't unneededly change header colors.
97,2016/3/16,Refine look'n'feel of news feed items.  See #283
46,2016/3/16,Allow pull-to-refresh for all loading activities.  Closes #295.
39,2016/3/15,Fix NPEs on refresh.  Make sure we safeguard against all kinds of timing issues.  Closes #293 for real this time.
8,2016/3/15,Name files appropriately.
13,2016/3/15,Make sure no fragments are created before the required data is loaded.  Closes #293
1,2016/3/13,Fix IllegalStateException.
18,2016/3/13,Allow selection of home page shown on startup.  Closes issues #128 #281.
1,2016/3/13,Improve text size setting label.
2,2016/3/13,Update open source library list in readme.
15,2016/3/13,Fix some dark theme coloring issues.
6,2016/3/13,Fix coding style.
12,2016/3/13,Don't show tabs before required data is loaded.
12,2016/3/13,Fix empty state and error handling of search activity.
16,2016/3/13,Use a RecyclerView for the release asset list again.
2,2016/3/13,Fix layout of download and trend lists.
1,2016/3/12,Stop animating header layout changes.  It's probably more jarring than helpful and it causes the comment box position to look wrong during animation.
1,2016/3/12,Globally enable resize soft input mode.  We add our scrolling containers asynchronously (via fragments) in a lot of cases and the system may pick the automatic scrolling mode before that leading to panning mode being (incorrectly) selected.
5,2016/3/12,Switch to newest support libraries.
1,2016/3/06,Fix NPE.
3,2016/3/04,Save page iterator state to saved instance state.
200,2016/3/04,Make sure refreshing/reloading works consistently throughout the app.
1,2016/3/04,Fix issue edit FAB visibility.
7,2016/3/03,Use TextInputLayout to display error.
81,2016/3/03,Fix some inspection errors.
22,2016/3/03,Fix some deprecation warnings.
15,2016/3/03,Update dependencies.  TabLayout currently has a bug ([1]) so we should wait for design library 23.2.1 before release.  [1] https://code.google.com/p/android/issues/detail?id=201827
43,2016/3/03,Simplify layout.
26,2016/3/03,Remove unused resources.
46,2016/3/03,Code simplification.  We already have a way of triggering a reload of everything no need to introduce a second way.
22,2016/3/03,Pimp look'n'feel of error view.
33,2016/3/03,Remove defunct context menu handling.
228,2016/3/03,Use loaders in SearchActivity.
668,2016/3/03,Refactor load error handling.  Instead of replacing the whole activity view with an empty page if there's no connection during onCreate() handle exceptions during load by showing an error overlay and a SnackBar offering a retry.  Error view is a placeholder only currently and needs more work.
7,2016/3/02,Add runtime permission check for external storage access.  Closes #289 for real this time.
11,2016/3/01,Add support for new 'assigner' issue event field.  Closes #265.
4,2016/2/19,Prevent accidential refreshes.  In particular only allow swipe-to-refresh if both there wasn't any other swipe consumer active during start of scroll and the swipe was straight downwards.
6,2016/2/17,Add basic code search support.
2,2016/2/17,Cleanup.
34,2016/2/17,Allow parsing of gist.github.com/<id> URLs.  For that no longer require the gist owner's login to be passed into the GistActivity.
7,2016/2/17,Don't use deprecated field.
1,2016/2/17,Consume stable API not beta.
6,2016/2/17,Don't use deprecated field.
1,2016/2/17,Consume stable API not beta.
1,2016/2/17,Fix home activity fragment refresh.  Need to clear mFragments before calling the super method as the super call will already create new fragment instances.
37,2016/2/16,Fix trend loading.  kimonolabs is broken and scheduled to be shutdown at 2017-02-28 so switch to import.io. Let's see how long this one lasts...
37,2016/2/16,Fix trend loading.  kimonolabs is broken and scheduled to be shutdown at 2017-02-28 so switch to import.io. Let's see how long this one lasts...
57,2016/2/15,Use TextInputLayout where appropriate.
6,2016/2/15,Return to our previous tab sizing approach.  Instead of sizing all tabs equally size as needed but distribute excess space evenly.
1,2016/2/15,Parse repo owner and name out of commit URL for commit events.
1,2016/2/15,Load pull request labels.
14,2016/2/15,Tweak look'n'feel of commit status views.  Closes #262
2,2016/2/14,Show mergeability status and commit statuses in pull request view.  Drawables and layout need more work.  Issue #262.
2,2016/2/13,Remember last selected repository list view mode.  Should close #144 #281.
11,2016/2/13,Never skip prettifying.  Even if the loaded file isn't code we want prettify for its line numbering and alternating line background coloring.
11,2016/2/13,Never skip prettifying.  Even if the loaded file isn't code we want prettify for its line numbering and alternating line background coloring.
3,2016/2/13,Use prettify's extension detection mechanism.  Closes #244 #254. Might also fix #285 depending on the file extension used.
3,2016/2/13,Use prettify's extension detection mechanism.  Closes #244 #254. Might also fix #285 depending on the file extension used.
30,2016/2/12,Fix up GIF drawable lifecycle management.
0,2016/2/12,Add missing drawables for breadcrumbs.
3,2016/2/12,Scale SVG canvas by density.  Makes sure visual size of the rendered SVG is always the same.
9,2016/2/12,Add preference for animated GIF load mode.  By default only load via Wifi.
18,2016/2/12,Load animated GIFs in readmes.  Closes #275.
5,2016/2/12,Add support for loading SVGs in readmes.  Closes #266.
3,2016/2/11,Fix crash when selecting root node.
2,2016/2/11,Fix NPE.
6,2016/2/11,Fix NPE.
7,2016/2/11,Fix content list fragment behaviour on ref change.
2,2016/2/10,Show avatar in list of organizations a user is member of.  Closes #287.
155,2016/2/11,Add breadcrumb view to content list tab.
39,2016/2/11,Fix path history invocation.
2,2016/2/10,Show avatar in list of organizations a user is member of.  Closes #287.
2,2016/2/09,Hide FAB on list scroll.
1,2016/2/09,Update open source component list.
109,2016/2/09,Add sorting capabilities to repo list.
2,2016/2/09,Show correct empty text in 'My pull requests' lists.
88,2016/2/09,Simplify code.
1,2016/2/08,Attach comment editor to screen bottom.  Hacky workaround for https://code.google.com/p/android/issues/detail?id=177195
11,2016/2/08,Fix visibility of issue edit FAB.
3,2016/2/08,Fix status bar recoloring.  DrawerLayout doesn't invalidate itself when its status bar drawable is invalidated.
489,2016/2/08,Migrate to design library FAB and CoordinatorLayout.
569,2016/2/08,Use design library tab strip.
1,2016/2/04,Include correct script file.  Fixes line wrapping in diff viewer.
26,2016/2/04,Remove workaround that's no longer needed.
1,2016/2/04,Include correct script file.  Fixes line wrapping in diff viewer.
5,2016/2/03,Simplify code.
7,2016/2/03,Fix repo list fragment state tracking.
4,2016/2/03,Fix NPE.
76,2016/2/03,Remove unused imports.
622,2016/2/03,Replace right drawer by NavigationView.  Probably somewhat buggy at this point.
156,2016/2/03,Replace left drawer by NavigationView.
18,2016/2/03,Fix NPEs.
3,2016/2/02,Fix handling of submodules in non-root paths.
9,2016/2/02,Make module parser more lenient.
3,2016/2/02,Fix handling of submodules in non-root paths.
9,2016/2/02,Make module parser more lenient.
2,2016/2/02,Fix bookmark list.
12,2016/2/02,Fix some list layout issues.
5,2016/2/02,Fix (re-add) empty state tracking.
2,2016/2/02,Fix NPE.
69,2016/2/01,Fix a few reported crashes.
33,2016/2/01,Fix some issues surrounding releases.  Don't trust the release passed in via event list (it lacks some data) and show tag name if the actual name is empty.  Closes #271
69,2016/2/01,Fix a few reported crashes.
31,2016/2/01,Fix some issues surrounding releases.  Don't trust the release passed in via event list (it lacks some data) and show tag name if the actual name is empty.  Closes #271
5,2016/2/01,Update Github bindings.  Include upstream merge and a method to query a single release.
5,2016/2/01,Update Github bindings.  Include upstream merge and a method to query a single release.
1,2016/2/01,Remove now unused maven repo.
1,2016/1/27,Fix browser resolving on M.  If Octodroid is set as default app for Github URLs the system will return only our own package and no browsers.  Closes #278.
1,2016/1/27,Fix browser resolving on M.  If Octodroid is set as default app for Github URLs the system will return only our own package and no browsers.  Closes #278.
23,2016/1/27,Use support library code instead of rolling our own.
858,2016/1/24,Migrate all lists to RecyclerView.  Lays the path to using the design library later.
105,2016/1/23,Switch to v23 support libraries.  Gets us the new preference support library.
2,2016/1/23,Remove unneeded permission.  We're using DownloadManager now.
1,2016/1/23,Reduce avatar top margin in event feed row a bit.  Issue #283
1,2016/1/22,Fix ColorDrawable constructor parameter.
7,2016/1/22,Use consistent card margins of 8dp.  Issue #283
2,2016/1/22,Use system fonts on API 21+.  Issue #283.
4,2016/1/22,Adapt tab layout to latest design spec.  Issue #283
1,2016/1/22,Upgrade to current gradle plugin.
1,2016/1/22,Fix ColorDrawable constructor parameter.
7,2016/1/22,Use consistent card margins of 8dp.  Issue #283
2,2016/1/22,Use system fonts on API 21+.  Issue #283.
4,2016/1/22,Adapt tab layout to latest design spec.  Issue #283
1,2016/1/22,Upgrade to current gradle plugin.
1,2015/12/31,Avoid clearing the serch mode by needlessly invalidating the options menu.
2,2015/12/07,Add year and name of copyright owner
16,2015/8/01,Support line highlighting in passed in URLs.  Closes #261.
16,2015/8/01,Support line highlighting in passed in URLs.  Closes #261.
11,2015/7/27,Add a 'spinning wheel' to the loading view.
14,2015/7/27,Fix gap at bottom which was visible when the loading indicator was hidden.
9,2015/7/27,Fix wrong selection state being shown for some drawer items.
11,2015/7/27,Add a 'spinning wheel' to the loading view.
14,2015/7/27,Fix gap at bottom which was visible when the loading indicator was hidden.
24,2015/7/26,Don't use a ListView inside a ScrollView.  Doing so leads to only the first item being visible.  Closes #260.
8,2015/7/16,Some fixes for Crashlytics reported issues.
2,2015/7/16,Don't use a tag handler singleton.  The tag handler has internal state. As HtmlUtils.encode() is called from multiple threads this leads to issues we can avoid by simply creating a new instance.
13,2015/7/16,Fix footer view tracking.  addFooterView() must be called before setAdapter() Android 4.3 and below. Make sure to never run into trouble with that by always attaching our loading view and just setting its visibility as needed.
10,2015/7/16,Improve progress dialog state tracking.  Make sure to follow the host activity's lifecycle by implementing it as a DialogFragment.
5,2015/7/16,Only start Crashlytics for sane devices on release builds.
6,2015/7/16,Update Crashlytics setup.
8,2015/7/16,Some fixes for Crashlytics reported issues.
2,2015/7/16,Don't use a tag handler singleton.  The tag handler has internal state. As HtmlUtils.encode() is called from multiple threads this leads to issues we can avoid by simply creating a new instance.
13,2015/7/16,Fix footer view tracking.  addFooterView() must be called before setAdapter() Android 4.3 and below. Make sure to never run into trouble with that by always attaching our loading view and just setting its visibility as needed.
10,2015/7/16,Improve progress dialog state tracking.  Make sure to follow the host activity's lifecycle by implementing it as a DialogFragment.
5,2015/7/16,Only start Crashlytics for sane devices on release builds.
6,2015/7/16,Update Crashlytics setup.
9,2015/7/08,Indicate private flag of repos and gists.
1,2015/7/06,Don't allow line wrapping for markdown.
108,2015/7/06,Rearrange some code to make more sense.
2,2015/7/06,Include private organization memberships for logged in user.  Closes #256.
1,2015/7/06,Don't allow line wrapping for markdown.
108,2015/7/06,Rearrange some code to make more sense.
2,2015/7/06,Include private organization memberships for logged in user.  Closes #256.
2,2015/6/07,Up version
