Topic Index 1,Topic Index 2,Topic Similarity
11,8,11.11111111111111
18,5,11.11111111111111
0,14,5.263157894736842
2,11,5.263157894736842
4,19,5.263157894736842
6,1,5.263157894736842
12,12,5.263157894736842
14,4,5.263157894736842
17,3,5.263157894736842
19,17,5.263157894736842
1,0,0.0
3,2,0.0
5,6,0.0
7,7,0.0
8,9,0.0
9,10,0.0
10,13,0.0
13,15,0.0
15,16,0.0
16,18,0.0
