remove line break inside string paragraph,v1.0.4,2015/12/07,,
update and add icon,v1.0.4,2015/12/07,,
update,v1.0.4,2015/12/06,,
disable shareable icon for now,v1.0.4,2015/12/06,,
fix info string,v1.0.4,2015/12/06,,
fix header,v1.0.4,2015/12/06,,
change package name,v1.0.4,2015/12/06,,
update icon,v1.0.4,2015/12/06,,
update info,v1.0.4,2015/12/06,,
update contributor,v1.0.4,2015/12/06,,
update resource,v1.0.4,2015/12/06,,
update build,v1.0.4,2015/12/01,,
ordering use last launch time instead of number of launch,v1.0.4,2015/10/06,,
enable keyboard prediction,v1.0.4,2015/9/05,,
removed unused variable added some comment,v1.0.4,2015/9/02,,
fix extra item in under certain screen configuration,v1.0.4,2015/9/02,,
fix background scaling,v1.0.4,2015/9/02,,
fix possible crash at startup,v1.0.4,2015/9/02,,
fix activity not showing first,v1.0.4,2015/9/01,,
always show receive text,v1.0.4,2015/9/01,,
remove unused variable,v1.0.4,2015/9/01,,
initial support for sending text to activity,v1.0.4,2015/9/01,,
hide send icon for now,v1.0.4,2015/9/01,,
cache service reference,v1.0.4,2015/9/01,,
implement issue 27,v1.0.4,2015/9/01,,
fix 28,v1.0.4,2015/9/01,,
fix crash attempting to load nonexistent icon,v1.0.4,2015/8/31,,
update,v1.0.4,2015/8/31,,
translated missing string,v1.0.4,2015/8/31,,
cache row height fix icon scaling,v1.0.4,2015/8/31,,
use system wallpaper,v1.0.4,2015/8/31,,
fix invisible on,v1.0.4,2015/8/30,,
added notification priority setting,v1.0.4,2015/8/30,,
fixing,v1.0.4,2015/8/30,,
adding icon,v1.0.4,2015/8/30,,
changed text hint color to make it more changed default icon to changed clear button to,v1.0.4,2015/8/30,,
giving name to constant,v1.0.4,2015/8/30,,
update visible on package,v1.0.4,2015/8/21,,
fix not showing in,v1.0.4,2015/8/18,,
search black,v1.0.4,2015/8/18,,
removed battery custom launch activity,v1.0.4,2015/8/16,,
initial test with battery icon,v1.0.4,2015/8/16,,
minor code,v1.0.4,2015/8/16,,
search black,v1.0.4,2015/8/16,,
properly setting the label to the correct action,v1.0.4,2015/8/16,,
fix 12,v1.0.4,2015/8/16,,
code formatting and minor optimization,v1.0.4,2015/8/14,,
update string,v1.0.4,2015/8/14,,
fixed removal and updated package handling,v1.0.4,2015/8/13,,
fixed package handling on,v1.0.4,2015/8/13,,
more fix,v1.0.4,2015/8/13,,
removed debug line from previous commit,v1.0.4,2015/8/13,,
fixed search,v1.0.4,2015/8/13,,
minor code and formatting,v1.0.4,2015/8/12,,
bug fix added system setting to overflow menu removed refresh list,v1.0.4,2015/8/12,,
remove preference package removal,v1.0.4,2015/8/12,,
minor code,v1.0.4,2015/8/12,,
added a callback to properly update list a package get,v1.0.4,2015/8/12,,
fix,v1.0.4,2015/8/09,,
minor code refactoring changed the way wa being calculated,v1.0.4,2015/8/08,,
downscale icon if needed,v1.0.4,2015/8/08,,
added synchronized keyword to avoid loading the same icon more once,v1.0.4,2015/8/08,,
properly closing the database using,v1.0.4,2015/8/08,,
check for changed package and something changed refresh list,v1.0.4,2015/8/08,,
properly closing the database using it,v1.0.4,2015/8/08,,
scaling bitmap icon to the size they will be displayed caching,v1.0.4,2015/8/08,,
fix weird line in gingerbread,v1.0.4,2015/8/08,,
removed ineffective synchronized block,v1.0.4,2015/8/07,,
major change in the thread management logic,v1.0.4,2015/8/07,,
now using multiple thread to take advantage of,v1.0.4,2015/8/07,,
improved threading logic fixed thread leaking,v1.0.4,2015/8/07,,
minor code refactoring in split by logic,v1.0.4,2015/8/06,,
minor code refactoring,v1.0.4,2015/8/06,,
improved detection to split by numeric digit,v1.0.4,2015/8/06,,
removed redundant code,v1.0.4,2015/8/06,,
speed up icon loading,v1.0.4,2015/8/06,,
fixed misplaced icon,v1.0.4,2015/8/06,,
icon loading in a separated thread,v1.0.4,2015/8/06,,
more fix,v1.0.4,2015/8/05,,
load the default icon none is available,v1.0.4,2015/8/05,,
try to load the correct icon,v1.0.4,2015/8/05,,
code cleanup,v1.0.4,2015/8/05,,
fixed last character in the label being wrongly detected a it is a capital character,v1.0.4,2015/8/05,,
update,v1.0.4,2015/8/04,,
update,v1.0.4,2015/8/04,,
updated minor code cleanup,v1.0.4,2015/8/04,,
removed unused code,v1.0.4,2015/8/04,,
changed return type of to,v1.0.4,2015/8/04,,
using to avoid returning duplicate on method,v1.0.4,2015/8/04,,
trim text box content searching,v1.0.4,2015/8/04,,
delete entry from preference database the is not found at startup,v1.0.4,2015/8/04,,
switched to,v1.0.4,2015/8/04,,
code cleanup,v1.0.4,2015/8/04,,
fix about activity in gingerbread,v1.0.4,2015/8/03,,
fix compatibility with some device,v1.0.4,2015/8/03,,
added overflow menu to the action bar code cleanup,v1.0.4,2015/8/03,,
update,v1.0.4,2015/8/01,,
several design change,v1.0.4,2015/8/01,,
changed and activity name,v1.0.4,2015/7/24,,
update,v1.0.4,2015/7/24,,
added,v1.0.4,2015/7/24,,
changed package name,v1.0.4,2015/7/24,,
remove duplicate,v1.1.0,2015/12/10,,
update,v1.1.0,2015/12/09,,
bump version number,v1.1.0,2015/12/08,,
fix notification priority setting not being applied immediately on older android version,v1.1.0,2015/12/08,,
fixed action bar text color,v1.1.0,2015/12/08,,
fixed text color in setting and about,v1.1.0,2015/12/08,,
update,v1.1.3,2015/12/24,,
update version,v1.1.3,2015/12/24,,
bump version number,v1.1.3,2015/12/24,,
remove widget,v1.1.3,2015/12/24,,
bump version number and code,v1.1.4,2015/12/26,,
bug fix not showing all,v1.1.4,2015/12/26,,
fix to previous,v1.1.4,2015/12/26,,
fix to previous commit,v1.1.4,2015/12/26,,
bump version code,v1.1.4,2015/12/26,,
bump version number,v1.1.4,2015/12/26,,
the initial loading,v1.1.4,2015/12/26,,
reducing size of image,v1.1.5,2015/12/31,,
minor change of,v1.1.5,2015/12/31,,
use instead of,v1.1.5,2015/12/27,,
fix deadlock at startup,v1.1.5,2015/12/27,,
oops fixed the open keyboard preference name,v1.1.6,2016/1/05,,
prepare new,v1.1.6,2016/1/02,,
implemented custom sorting and setting to disable icon,v1.2.5,2016/1/27,,
minor optimization,v1.2.5,2016/1/06,,
only receive package intent needed,v1.2.5,2016/1/06,,
update,v1.4.1,2016/2/01,,
update translation,v1.4.1,2016/1/29,,
fix broken on certain device,v1.4.1,2016/1/28,,
more fix and prepare new release,v1.4.1,2016/1/28,,
changed in translation,v1.4.2,2016/2/08,,
fixed translation,v1.4.2,2016/2/07,,
clear icon cache is about to get killed,v1.4.2,2016/2/06,,
avoid crash initializing with a bad queue size,v1.4.2,2016/2/06,,
translation fix,v1.4.4,2016/4/11,,
addressed comment,v1.4.4,2016/3/23,,
