add scrollbar to about activity,v1.0.4,2015/12/06,,
increase space,v1.0.4,2015/12/06,,
add info to about activity,v1.0.4,2015/12/06,,
changed material theme color,v1.0.4,2015/8/31,,
added the clear text button functionality,v1.0.4,2015/8/30,,
changed shadow color and added transparency to search changed hint color for button inside search box,v1.0.4,2015/8/30,,
always show keyboard the activity get visible,v1.0.4,2015/8/15,,
hide keyboard launching an activity,v1.0.4,2015/8/06,,
using to avoid multiple string allocation parsing the activity label,v1.0.4,2015/8/05,,
add search,v1.0.4,2015/8/04,,
tinted status bar on underline color changed to white at search view,v1.0.4,2015/8/03,,
avoid multiple query to the activity preference database at startup,v1.0.4,2015/7/31,,
remove option to put the launcher in the home button,v1.1.3,2015/12/24,,
new release,v1.1.4,2015/12/26,,
translation updated,v1.2.5,2016/1/10,,
ignore case doing alphabetical sorting,v1.4.2,2016/2/08,,
using the proper way to show wallpaper add support for live wallpaper,v1.4.2,2016/2/06,,
