App,Store,App ID,Review ID,Country,Version,Rating,Date,Author,Subject,Body,Translated Subject,Translated Body
Auto-Away,Google Play,com.teamdc.stephendiniz.autoaway,Z3A6QU9xcFRPRTdOdHY2Q3lKQWtSNHhKel80QkhkUWxpMTFzTkpZclFKc0RTSHVYMEJhcnRtMUdFY1NkdlN6X3d4ZXBtVFhkOEtVY2VfcTRIZjNMVDVCUGtF,English,,5,2016-07-04,Faizan Masood,Time feature,is awesome,,
Auto-Away,Google Play,com.teamdc.stephendiniz.autoaway,Z3A6QU9xcFRPRTdOdHY2Q3lKQWtSNHhKel80QkhkUWxpMTFzTkpZclFKc0RTSHVYMEJhcnRtMUdFY1NkdlN6X3d4ZXBtVFhkOEtVY2VfcTRIZjNMVDVCUGtF,English,,5,2016-07-04,Faizan Masood,Time feature,it would be more good if timer function could be added so auto away close at set time,,
Auto-Away,Google Play,com.teamdc.stephendiniz.autoaway,Z3A6QU9xcFRPRkRlak9EU2FfZzdJQ3NxaFZ6bTF2cFNCTmJuakN6cVhVUTJubHVPNWo5dXN3TlNTd1c0NXlicG1YajdXQ21rMkdQanM1VnlKallYNHpPXzc4,English,,4,2016-06-03,Jatz Crackers,,love this easy to use,,
Auto-Away,Google Play,com.teamdc.stephendiniz.autoaway,Z3A6QU9xcFRPRkRlak9EU2FfZzdJQ3NxaFZ6bTF2cFNCTmJuakN6cVhVUTJubHVPNWo5dXN3TlNTd1c0NXlicG1YajdXQ21rMkdQanM1VnlKallYNHpPXzc4,English,,4,2016-06-03,Jatz Crackers,,handy,,
Auto-Away,Google Play,com.teamdc.stephendiniz.autoaway,Z3A6QU9xcFRPRkRlak9EU2FfZzdJQ3NxaFZ6bTF2cFNCTmJuakN6cVhVUTJubHVPNWo5dXN3TlNTd1c0NXlicG1YajdXQ21rMkdQanM1VnlKallYNHpPXzc4,English,,4,2016-06-03,Jatz Crackers,,5 star toggle added quick access,,
Auto-Away,Google Play,com.teamdc.stephendiniz.autoaway,Z3A6QU9xcFRPRk5NcllDRWJTQWhlSXZaVUR1Z2EtbkQ3Y1Rsb2FId0hSYkduMWdJUHRYQ2g1VGNRTlJjWXlqZDFUcTljaVNxV2U5THc4Q28tYkcxTTZ2VXM0,English,,2,2016-03-13,Arika XX,Used to love,can customize reply,,
Auto-Away,Google Play,com.teamdc.stephendiniz.autoaway,Z3A6QU9xcFRPRnN4dmNHdm1pcVItdlNtMTlnZFM3d0s3blRxM1oxcFR4MG1MV0lpa2ZiRnFEbHFnM2hFM0RlM040WldPVnRxc1NndVpOME1GMWdqbk5VeW5j,English,,2,2016-02-25,,I can't find the menu to add away messages.,not working like i want,,
Auto-Away,Google Play,com.teamdc.stephendiniz.autoaway,Z3A6QU9xcFRPRmc1T3lIQ2x6WWVGSDRaMFZqbmhURXFXRjJMWThKblZTMDZzTGJDZWtYQ2p2TklpTGJOOWE3VDIxZEEzRnhqdTVobUVWNnlDVlRLVTRESS0w,English,,1,2016-01-23,Setting Boundaries,,a smiley face,,
Auto-Away,Google Play,com.teamdc.stephendiniz.autoaway,Z3A6QU9xcFRPR2pXS0ZBc3YzLXJ4VDNSM09aWUk3bTA0Y01oclVDUlMyaV9hRDR1ZkV1SFBzekJWWDN0M0EyRmF6Ul9aUHI0emFoRzEtMHFKdXV6RFlldUtR,English,,3,2015-09-29,Kalani Dacaret,Faulty,had a custom message created and decided to my mom with the default message several time and once with mine,,
Auto-Away,Google Play,com.teamdc.stephendiniz.autoaway,Z3A6QU9xcFRPSHJuc2s4ZlFtMHNPdkZfZElXbk1UVk9oNHRkQXhVRXlkSWcyZ3c4aFpHUWNWOTVBTU1YN3RFOHlVaFZ3MzJyb21uLWJoZnhPcnk4dFZGTWQ4,English,,5,2015-09-12,Jeff Gee,"Simple,works",simple work great,,
Auto-Away,Google Play,com.teamdc.stephendiniz.autoaway,Z3A6QU9xcFRPR3RtMGFnZ1VQeFE4cTNkWGJSZUdVR2I3RDB6Y2JGUERVNXh0S2xkUzhQR3pRaU5zSDBpbHZlSm1XRkdVOTZfUWlrVHBzYzZVOUNjVlFWbzJV,English,,5,2015-04-23,Aun Ali,,nice,,
Auto-Away,Google Play,com.teamdc.stephendiniz.autoaway,Z3A6QU9xcFRPR2p0UlNDOTh6cGNiUWF3cEZtM0Rhbk9yZkdBaEFSQkJ1XzQtSnVOSV84WGRpdFJwZlFTTEQtS3VoR2RRdDJhdjhMRTBKUDFTdjhCTDVQX21R,English,,1,2015-02-23,Jennifer Giovannetti,,it only seems to work once then any other text i get do not get an auto response from me,,
Auto-Away,Google Play,com.teamdc.stephendiniz.autoaway,Z3A6QU9xcFRPR2p0UlNDOTh6cGNiUWF3cEZtM0Rhbk9yZkdBaEFSQkJ1XzQtSnVOSV84WGRpdFJwZlFTTEQtS3VoR2RRdDJhdjhMRTBKUDFTdjhCTDVQX21R,English,,1,2015-02-23,Jennifer Giovannetti,,i need this for my business can u please tell me why this is happening,,
Auto-Away,Google Play,com.teamdc.stephendiniz.autoaway,Z3A6QU9xcFRPRV9WSmI5OHV2YVIzQ3c1ZGZLZVNnRXZQOERMX3pYd25NNEZmSmlSTzk4M0xJbExaUjZNQ005NkN6SmhQazY2Ql85WVp2czIyOUdmOTZjNUpv,English,,2,2014-08-18,Minh Vu Hong Minh,Exception defect,quick double click on enable will show defect,,
Auto-Away,Google Play,com.teamdc.stephendiniz.autoaway,Z3A6QU9xcFRPSDNobXkyekRXZ3hYWkJST1RiYVNuckF3ZnRQVnhoUWVRWTBYMU0tZDlISng4dFZDdVp1MEVrcktFM0JDaS15YlRIeFo3V3dQTlBOVy05UHpn,English,,5,2014-07-30,Danielle Pukala,Great app!,work wonderfully on my note 2,,
Auto-Away,Google Play,com.teamdc.stephendiniz.autoaway,Z3A6QU9xcFRPRW11RGFleVNTaE0zTTJCU0tNX1ctUVV1cnpNUVhyRkFFN0VMaVRVWWJpbjZVdWdqMVctc3hXbnhEWEFnY2tLRVNmdUlwS3lrTlBZOWwzRlBZ,English,,4,2014-06-27,Muhammad Luthfi,It's working like a charm,have to use the messaging,,
Auto-Away,Google Play,com.teamdc.stephendiniz.autoaway,Z3A6QU9xcFRPRUxiY084V1NVSmFiR3ZobHkzVjlZV2dGQ2o0SDJEd2VVcnVaWjZfaVNpMUdsNUw3V2hHTW5pcXF5X0JWbUVxU2Z0dHBSaHUyY2gyV285Q2FR,English,,5,2014-02-18,Crystal Meth,Its awesome,i think there could be a few more but it nice and simple and easy to use,,
Auto-Away,Google Play,com.teamdc.stephendiniz.autoaway,Z3A6QU9xcFRPRUxiY084V1NVSmFiR3ZobHkzVjlZV2dGQ2o0SDJEd2VVcnVaWjZfaVNpMUdsNUw3V2hHTW5pcXF5X0JWbUVxU2Z0dHBSaHUyY2gyV285Q2FR,English,,5,2014-02-18,Crystal Meth,Its awesome,i think there should be a calendar for task occur often on a scheduled block,,
Auto-Away,Google Play,com.teamdc.stephendiniz.autoaway,Z3A6QU9xcFRPRUxiY084V1NVSmFiR3ZobHkzVjlZV2dGQ2o0SDJEd2VVcnVaWjZfaVNpMUdsNUw3V2hHTW5pcXF5X0JWbUVxU2Z0dHBSaHUyY2gyV285Q2FR,English,,5,2014-02-18,Crystal Meth,Its awesome,edit holly crap it open sourced,,
Auto-Away,Google Play,com.teamdc.stephendiniz.autoaway,Z3A6QU9xcFRPRUxiY084V1NVSmFiR3ZobHkzVjlZV2dGQ2o0SDJEd2VVcnVaWjZfaVNpMUdsNUw3V2hHTW5pcXF5X0JWbUVxU2Z0dHBSaHUyY2gyV285Q2FR,English,,5,2014-02-18,Crystal Meth,Its awesome,time to make a difference,,
Auto-Away,Google Play,com.teamdc.stephendiniz.autoaway,Z3A6QU9xcFRPSHpUeXBDYk1MVDBjSFVkSmE5ZjNvR09kdHhzYkxoSGdvVVBDS2hTWGdkSG8yYmhMLWJycmNERDN0M3F4a0IzYWRhcmlvM0Z4WHJTc3FUX1hZ,English,,4,2013-07-30,Nate,Great app.,could use a toggle widget though,,
