Topic,Words
0,0.012*goto,0.011*user,0.010*search,0.010*thing,0.010*brilliant,0.009*whatever,0.009*well,0.009*choice,0.009*personal,0.009*pay
1,0.015*20,0.012*portable,0.012*product,0.011*hours,0.010*good,0.010*infinitely,0.010*file,0.009*handle,0.009*looking,0.009*issue
2,0.015*me,0.012*think,0.012*adding,0.012*wherever,0.011*whatever,0.011*simple,0.010*or,0.010*sources,0.009*easy,0.009*fantastic
3,0.011*huge,0.011*team,0.011*your,0.010*all,0.010*100,0.010*improved,0.008*drop,0.008*due,0.008*are,0.008*an
4,0.014*great,0.014*fancy,0.013*ability,0.012*carry,0.012*phone,0.011*goto,0.011*compatibility,0.011*far,0.009*says,0.009*basic
5,0.012*facility,0.012*explorer,0.011*me,0.010*portable,0.010*20,0.010*office,0.009*developer,0.009*to,0.008*fixed,0.008*back
6,0.018*manager,0.014*outstanding,0.012*home,0.010*awesome,0.010*supposed,0.009*197,0.008*says,0.008*it's,0.008*donation,0.008*bit
7,0.013*secrets,0.012*adding,0.011*hope,0.011*massive,0.011*god,0.010*tablet,0.010*recommended,0.010*ever,0.009*plus,0.009*feature
8,0.013*understand,0.011*open,0.011*412,0.010*options,0.010*or,0.009*cloud,0.009*now,0.008*passwords,0.008*big,0.008*between
9,0.013*when,0.012*mono,0.011*as,0.010*years,0.010*complained,0.010*across,0.010*user,0.009*nice,0.009*review,0.009*worthwhile
10,0.011*ready,0.011*note,0.010*loving,0.010*managers,0.010*truly,0.010*agree,0.010*donate,0.009*after,0.009*without,0.009*sync
11,0.014*as,0.011*unable,0.011*import,0.010*beyond,0.009*this,0.009*outstanding,0.009*on,0.009*lite,0.009*still,0.008*long
12,0.015*hesitation,0.012*button,0.011*haven't,0.010*thank,0.010*plus,0.010*that,0.009*will,0.009*options,0.009*notification,0.009*any
13,0.011*reach,0.010*nobody,0.009*latest,0.009*you,0.009*office,0.008*folder,0.008*phone,0.008*former,0.008*big,0.008*while
14,0.014*props,0.010*update,0.010*open,0.010*new,0.010*mono,0.009*passwords,0.008*personal,0.008*would,0.008*especially,0.007*20130214
15,0.014*a,0.013*button,0.013*charm,0.011*else,0.010*macs,0.008*icons,0.008*even,0.008*20130214,0.008*versions,0.008*pleased
16,0.017*add,0.013*allows,0.011*feature,0.009*recommending,0.009*automatically,0.009*fine,0.008*can,0.008*minimal,0.008*handle,0.008*every
17,0.015*recently,0.014*to,0.011*category,0.009*can,0.009*developer,0.009*unable,0.009*tried,0.009*between,0.009*compared,0.008*blowfish
18,0.018*them,0.012*easier,0.011*cant,0.010*due,0.009*current,0.009*always,0.009*it'd,0.009*fantastic,0.009*recommended,0.008*nobody
19,0.012*what,0.012*change,0.012*choice,0.011*donation,0.010*last,0.009*allow,0.009*problems,0.009*most,0.009*shouldn't,0.008*means
