Topic,Words
0,0.005*provider,0.005*adds,0.005*up,0.005*fine,0.004*thirty,0.004*print,0.004*gold,0.004*method,0.004*workaround,0.004*though
1,0.008*fine,0.006*becomes,0.005*recognized,0.005*product,0.005*it,0.004*password,0.004*splendidly,0.004*trying,0.004*something,0.004*promises
2,0.006*logging,0.006*security,0.005*menu,0.005*confirm,0.004*known,0.004*thousands,0.004*great,0.004*looks,0.004*simple,0.004*claim
3,0.006*your,0.005*thanks,0.005*copy,0.004*am,0.004*working,0.004*frills,0.004*storing,0.004*you'd,0.004*mystery,0.004*also
4,0.006*huge,0.005*aside,0.005*paste,0.005*test,0.005*simple,0.005*bare,0.005*rate,0.004*else,0.004*on,0.004*dated
5,0.006*tutorial,0.006*recognizing,0.005*shall,0.005*coming,0.005*selectable,0.005*password,0.005*box,0.004*writing,0.004*has,0.004*tool
6,0.007*choose,0.006*total,0.006*try,0.005*compact,0.005*network,0.004*crashing,0.004*u,0.004*reboot,0.004*mean,0.004*essential
7,0.006*we,0.005*turns,0.005*counterparts,0.004*trying,0.004*clean,0.004*computers,0.004*pretty,0.004*assist,0.004*fixed,0.004*multiple
8,0.006*the,0.005*hundred,0.005*concerned,0.005*me,0.005*use,0.004*please,0.004*dependably,0.004*path,0.004*course,0.004*crashes
9,0.006*seriously,0.005*matter,0.005*recommend,0.004*profile,0.004*course,0.004*policy,0.004*reset,0.004*we,0.004*everything,0.004*year
10,0.005*cross,0.005*painfully,0.005*wonderful,0.004*now,0.004*care,0.004*importantly,0.004*possible,0.004*requires,0.004*search,0.004*equivalent
11,0.005*matters,0.005*concerned,0.004*almost,0.004*sensor,0.004*font,0.004*arduous,0.004*forgotten,0.004*comments,0.004*huge,0.004*files
12,0.009*pin,0.006*an,0.005*done,0.005*cumbersome,0.005*got,0.005*though,0.004*sucks,0.004*adds,0.004*mentioned,0.004*try
13,0.006*patch,0.006*missing,0.005*haven't,0.005*found,0.004*isn't,0.004*crap,0.004*android's,0.004*stored,0.004*around,0.004*unsecured
14,0.007*sane,0.005*developer,0.004*option,0.004*valuables,0.004*however,0.004*loose,0.004*feels,0.004*fingerprint,0.004*removed,0.004*work
15,0.007*compromised,0.006*users,0.006*combination,0.004*happy,0.004*form,0.004*absolutely,0.004*synced,0.004*outweigh,0.004*efficient,0.004*based
16,0.006*desk,0.006*yet,0.006*combined,0.005*transfer,0.005*specifically,0.004*button,0.004*party,0.004*excel,0.004*frustration,0.004*hitch
17,0.006*breaks,0.006*friendly,0.005*big,0.005*pleased,0.005*days,0.005*us,0.005*urging,0.004*confidence,0.004*buffer,0.004*your
18,0.006*see,0.006*same,0.006*rust,0.006*load,0.005*file,0.005*aside,0.005*appreciate,0.004*safe,0.004*ii,0.004*expected
19,0.006*he,0.006*labeled,0.006*51,0.006*extremely,0.005*both,0.005*doesn't,0.005*1st,0.005*move,0.004*has,0.004*looks
