Topic,Words
0,0.021*together,0.016*15,0.016*in,0.015*existing,0.015*via,0.014*constant,0.013*remember,0.013*needed,0.013*this,0.012*my
1,0.019*adding,0.018*recent,0.017*waiting,0.014*drive,0.014*password,0.014*still,0.013*to,0.012*now,0.012*a,0.011*you
2,0.031*a,0.018*for,0.017*nice,0.015*can,0.014*matter,0.013*waiting,0.013*bit,0.011*works,0.011*application,0.010*20
3,0.019*won't,0.017*folks,0.016*done,0.016*windows,0.015*comfortable,0.015*like,0.012*few,0.012*up,0.010*especially,0.010*easy
4,0.024*logins,0.023*does,0.014*no,0.014*make,0.013*useful,0.013*change,0.012*groups,0.012*read,0.012*folder,0.011*its
5,0.020*text,0.020*format,0.019*is,0.014*amount,0.013*entries,0.013*application,0.012*longer,0.012*problems,0.012*and,0.012*gets
6,0.027*compatibility,0.018*update,0.017*daily,0.016*their,0.016*phone,0.015*from,0.015*info,0.014*when,0.014*although,0.013*also
7,0.015*done,0.015*addition,0.014*no,0.013*size,0.012*android,0.012*since,0.012*welcome,0.011*essential,0.011*other,0.011*files
8,0.020*as,0.018*store,0.017*it,0.015*perfectly,0.015*doesn't,0.014*get,0.013*tablet,0.013*still,0.013*their,0.013*groups
9,0.022*daily,0.019*new,0.018*with,0.015*notified,0.014*gone,0.013*one,0.013*remember,0.012*gets,0.012*re,0.012*encountered
10,0.021*your,0.016*android,0.016*from,0.015*as,0.015*constant,0.014*card,0.014*definitely,0.014*consider,0.014*editing,0.013*generated
11,0.028*does,0.021*just,0.018*70,0.016*course,0.014*who,0.013*me,0.012*nearly,0.012*same,0.012*brain,0.011*couldn't
12,0.019*must,0.017*look,0.016*basic,0.014*editing,0.014*y,0.014*together,0.014*connection,0.014*password,0.013*find,0.013*10
13,0.021*please,0.017*mobile,0.016*useful,0.015*my,0.015*it,0.014*force,0.013*list,0.012*search,0.011*how,0.011*for
14,0.021*safe,0.020*like,0.019*where,0.018*some,0.015*then,0.015*while,0.014*play,0.014*had,0.013*overwrite,0.012*time
15,0.024*so,0.018*implement,0.015*be,0.014*problem,0.014*re,0.013*existing,0.013*write,0.013*you're,0.012*logins,0.012*more
16,0.016*will,0.015*would,0.015*70,0.014*basic,0.013*version,0.013*their,0.012*find,0.012*minutes,0.011*entries,0.011*overwrite
17,0.019*won't,0.018*bring,0.015*another,0.014*waiting,0.014*re,0.013*constant,0.012*delete,0.012*find,0.011*perfectly,0.011*world
18,0.017*do,0.016*hard,0.013*from,0.012*priceless,0.012*you're,0.011*easy,0.011*over,0.011*combined,0.011*view,0.010*to
19,0.021*consider,0.020*card,0.017*years,0.015*entries,0.015*personal,0.015*re,0.013*course,0.013*dear,0.013*priceless,0.012*changes
