Topic,Words
0,0.025*battery,0.024*or,0.023*complex,0.022*like,0.021*before,0.021*connecting,0.020*impossible,0.019*control,0.019*sure,0.019*constantly
1,0.041*before,0.035*back,0.031*because,0.029*mobile,0.028*disable,0.025*when,0.024*control,0.024*push,0.023*change,0.022*should
2,0.033*interferences,0.030*i,0.030*net,0.029*notification,0.028*easy,0.027*how,0.024*correctly,0.024*last,0.024*sure,0.019*it
3,0.039*business,0.030*i,0.026*have,0.025*access,0.023*which,0.023*per,0.021*time,0.020*change,0.020*start,0.019*net
4,0.047*phone,0.036*cycle,0.031*because,0.030*how,0.025*02,0.021*which,0.021*having,0.020*should,0.019*two,0.019*contact
5,0.027*device,0.026*automatically,0.026*are,0.022*try,0.021*my,0.021*having,0.021*the,0.019*disabled,0.019*life,0.018*cycle
6,0.043*impossible,0.043*easy,0.038*after,0.027*not,0.023*access,0.023*this,0.023*service,0.022*overall,0.021*please,0.020*constantly
7,0.058*messages,0.044*back,0.043*business,0.024*data,0.022*reboots,0.019*i,0.019*yet,0.019*reboot,0.017*any,0.016*network
8,0.045*firewall,0.033*easy,0.025*close,0.025*complex,0.024*after,0.023*unblocked,0.020*those,0.018*was,0.018*update,0.017*minimal
9,0.033*significantly,0.032*sometimes,0.030*net,0.029*last,0.029*it's,0.028*other,0.025*improve,0.022*getting,0.022*play,0.021*is
10,0.039*or,0.032*blocking,0.027*back,0.026*30,0.024*out,0.023*but,0.022*overall,0.021*device,0.021*improve,0.021*automatically
11,0.032*other,0.031*sometimes,0.029*has,0.026*auto,0.026*mobile,0.025*last,0.024*use,0.023*device,0.022*close,0.020*yet
12,0.032*setting,0.031*access,0.026*improve,0.025*use,0.024*because,0.024*which,0.023*back,0.022*some,0.022*try,0.020*service
13,0.045*complex,0.037*i,0.029*life,0.024*the,0.024*per,0.022*but,0.022*edit,0.021*so,0.021*blocking,0.021*data
14,0.047*sleeping,0.042*no,0.035*almost,0.031*for,0.021*worked,0.020*my,0.020*per,0.020*how,0.018*should,0.017*was
15,0.056*so,0.042*have,0.031*which,0.025*access,0.025*30,0.021*mobile,0.019*sometimes,0.018*my,0.018*start,0.017*how
16,0.037*impossible,0.029*saves,0.028*which,0.027*working,0.024*notification,0.023*it,0.021*setting,0.021*02,0.021*after,0.020*my
17,0.045*every,0.045*it,0.034*need,0.029*love,0.028*5,0.024*like,0.021*battery,0.019*setting,0.018*change,0.018*revert
18,0.054*automatically,0.038*impossible,0.034*please,0.027*now,0.027*reboot,0.027*yet,0.026*could,0.026*more,0.025*because,0.021*every
19,0.036*minimal,0.036*i,0.028*reboots,0.024*framework,0.023*are,0.022*my,0.021*easy,0.021*stars,0.020*net,0.019*back
