Topic Index 1,Topic Index 2,Topic Similarity
7,6,1.04
5,15,0.8817
16,13,0.8125
4,7,0.7792
2,11,0.6848
17,17,0.5248
19,5,0.44399999999999995
15,4,0.42919999999999997
3,18,0.38339999999999996
9,19,0.3477
13,2,0.3024
12,14,0.26
18,10,0.215
11,8,0.186
8,16,0.1196
6,0,0.116
14,3,0.10659999999999999
0,1,0.0
1,9,0.0
10,12,0.0
