Topic Index 1,Topic Index 2,Topic Similarity
5,9,0.061799999999999994
2,17,0.0566
16,19,0.0495
7,4,0.046400000000000004
10,2,0.0416
9,3,0.041
15,0,0.0364
6,6,0.0338
13,1,0.026399999999999996
1,11,0.025299999999999996
19,7,0.0243
12,12,0.023399999999999997
3,16,0.022
8,14,0.02
14,15,0.0162
0,5,0.0
4,8,0.0
11,10,0.0
17,13,0.0
18,18,0.0
