Topic Index 1,Topic Index 2,Topic Similarity
1,0,0.2323
6,9,0.1704
10,7,0.123
18,17,0.11760000000000002
5,2,0.117
15,3,0.11380000000000001
16,18,0.1127
12,16,0.08750000000000001
2,6,0.07750000000000001
17,4,0.0567
7,19,0.05399999999999999
14,5,0.05059999999999999
0,13,0.0504
8,10,0.05
13,8,0.0476
19,11,0.0288
3,1,0.0
4,12,0.0
9,14,0.0
11,15,0.0
