Topic Index 1,Topic Index 2,Topic Similarity
1,15,2.2333
9,3,1.3653
0,13,1.185
7,12,1.1495
18,0,0.9856
12,4,0.784
2,16,0.765
6,5,0.6945
15,1,0.5644
17,7,0.5374
8,10,0.4712
13,9,0.4679999999999999
14,8,0.41700000000000004
19,17,0.2856
3,2,0.27359999999999995
4,19,0.1288
16,14,0.11159999999999998
5,6,0.0
10,11,0.0
11,18,0.0
