Topic Index 1,Topic Index 2,Topic Similarity
18,7,3.5507999999999997
0,8,2.348
16,3,1.8304
5,12,1.5879
17,9,1.4694
9,18,0.9712999999999999
14,6,0.9154000000000001
11,10,0.6911999999999999
3,4,0.5985
8,15,0.5985
13,2,0.4183
1,0,0.0
2,1,0.0
4,5,0.0
6,11,0.0
7,13,0.0
10,14,0.0
12,16,0.0
15,17,0.0
19,19,0.0
