Topic Index 1,Topic Index 2,Topic Similarity
19,2,1.172
18,16,0.9879000000000001
3,9,0.5970000000000001
14,8,0.5162
16,12,0.47519999999999996
0,0,0.0
1,1,0.0
2,3,0.0
4,4,0.0
5,5,0.0
6,6,0.0
7,7,0.0
8,10,0.0
9,11,0.0
10,13,0.0
11,14,0.0
12,15,0.0
13,17,0.0
15,18,0.0
17,19,0.0
