Topic Index 1,Topic Index 2,Topic Similarity
8,5,0.1875
11,8,0.17179999999999998
5,9,0.17149999999999999
1,1,0.17039999999999997
16,12,0.1456
0,11,0.1348
15,16,0.10339999999999999
17,7,0.0976
4,3,0.096
13,19,0.095
10,10,0.092
7,15,0.05589999999999999
18,4,0.052
14,2,0.0504
12,14,0.0465
19,0,0.0465
9,18,0.0448
2,13,0.040499999999999994
6,6,0.036
3,17,0.0
