Topic Index 1,Topic Index 2,Topic Similarity
12,7,0.25399999999999995
14,4,0.21959999999999996
9,1,0.11639999999999999
17,5,0.11130000000000001
10,8,0.1036
0,13,0.09800000000000002
3,3,0.096
16,6,0.087
11,11,0.0836
19,19,0.0702
4,2,0.0675
5,12,0.0665
8,0,0.0638
7,17,0.0624
18,10,0.0616
6,14,0.0576
13,15,0.0494
1,9,0.0
2,16,0.0
15,18,0.0
