Topic Index 1,Topic Index 2,Topic Similarity
2,6,0.059399999999999994
19,12,0.052899999999999996
11,16,0.0484
8,8,0.0456
9,9,0.0392
17,11,0.036
5,13,0.0352
7,15,0.030600000000000002
3,19,0.0273
14,18,0.0247
15,10,0.024
6,5,0.0238
16,0,0.0238
1,2,0.021
12,1,0.0195
18,14,0.018
0,3,0.0
4,4,0.0
10,7,0.0
13,17,0.0
