Topic Index 1,Topic Index 2,Topic Similarity
9,17,0.0976
8,7,0.0828
16,1,0.079
19,16,0.0724
17,3,0.0708
3,5,0.05489999999999999
1,11,0.049
10,19,0.047
6,4,0.039
2,12,0.036
12,6,0.0308
4,13,0.030600000000000002
13,9,0.030600000000000002
0,0,0.0
5,2,0.0
7,8,0.0
11,10,0.0
14,14,0.0
15,15,0.0
18,18,0.0
