App,Store,App ID,Review ID,Country,Version,Rating,Date,Author,Subject,Body,Translated Subject,Translated Body
Chinese French Dictionary,Google Play,com.nilhcem.frcndict,Z3A6QU9xcFRPRzdpMmljVW5Ma3plREFQU0tTZGNnYUR0TXdyYzNRQzF5YkFQRkF3ZmJCSWdtcE1tWXBKYnM3d2VyVGFjUEJzLUlpdG8yN1d1OWtGTUFjOEE,English,,5,2016-10-12,daniella amakon,"",This is the best,,
Chinese French Dictionary,Google Play,com.nilhcem.frcndict,Z3A6QU9xcFRPRmU5UUc1NVJDV1MtTzI1ZXNTVmZ0S3RkX2x3ZUVzbHB3cEk0RlNiTEdwOGh4blhudk9yRGN5M0xJcVU3ZU0zT0ZoTkJKa3o5am0tbU5SRHc,English,,5,2016-03-04,Raphael Honorah RALAIVAO,"",J'aime bien,,
Chinese French Dictionary,Google Play,com.nilhcem.frcndict,bGc6QU9xcFRPRk5Jd0F5TVZYUTV0eG9TVDRrbHl1cG5pcFFUWWE1LU5VU3V3VnAyWWZPbzlSN0lBQ3ROUjFjNWhRQVFSUm52QmZBV1M2OGZlNDE5OWlic1E,English,,5,2014-06-01,A Google User,"",太好了,,
Chinese French Dictionary,Google Play,com.nilhcem.frcndict,Z3A6QU9xcFRPRjVILXdPSURUaUJuQk50VlFna0l1c1UxTWw3OTFYNHRBMUlTZU5nWEV3REJNZTNkMEp2SC14Y2pudnlnZXh3V0lsdU5MS3VMV2xlMXYtS0E,English,,5,2014-01-06,Francky Stifler,Meizu MX2,Très pratique,,
Chinese French Dictionary,Google Play,com.nilhcem.frcndict,Z3A6QU9xcFRPR2t5U3ZrczM1NWNKRHU4SUxIejhNTGlIRmVpR0QzUVpsQzBfMm9tSlI4Q3UwbEtOVzlUaS1TLVFEandsUktCa21oVnMyUGRrODA2VXE3SEE,French,,5,2017-04-05,Rock Yolo,"",Validé bonne appli j'ai trouvé ce que je quêtait,,
Chinese French Dictionary,Google Play,com.nilhcem.frcndict,Z3A6QU9xcFRPR1pBN3dwRXhnZVo2RHNHZnp4QnJJanlsdUZTSGNLZDNQRFZwejZMaGRGTENDQjE4cDRnQ0ttaV9VWDNPU19lSmFhVGFWZktXVGlaNjV5cVE,French,,4,2017-03-23,"","",Tres cool on comprend vite,,
Chinese French Dictionary,Google Play,com.nilhcem.frcndict,Z3A6QU9xcFRPRTZMX0MxNGs4ZEtrVjRITEYyU2U4OWg4b2xlaHUxZ2VwUVl6N2hncHdURWdUTE5yRkMwTklHY2lVcHVyNEk3THlzb3VEYmY5VzE3X0l0WkE,French,,5,2017-03-13,SIMBAVIMBERE Aimé-parfait,"",congratulate for you who conceived this apk.,,
Chinese French Dictionary,Google Play,com.nilhcem.frcndict,bGc6QU9xcFRPRThxN1NhVzJtMTBmdWJRdzJfbDQyVkFpdkhpdHVNdy1ZT3NLbHprRlJNNlg3X1pKdDZybUxTbE8xaTZudTdZdVhWUy1kaDFwMmg4WXcwakE,French,,5,2017-03-05,Un utilisateur de Google,Salo,Ça m'enerve,,
Chinese French Dictionary,Google Play,com.nilhcem.frcndict,Z3A6QU9xcFRPRkZFaENOanpZZ0FGM3VWSFFNQmVvOXpyd1ZqWWxYdXkzV2lNT2VXeFJPb0o3ZVhLXzZjSTRMaFFMV2JLQmJEUzRFYmxyYVhiWDRHdE1VRmc,French,,5,2017-03-03,pierre amon,"",Superbe appli !! Remplit un taff que peu d'autres dictionnaires sont capables ! Seul petit bémol : l'accès aux paramètres de l'application est infaisable sur certains téléphones tel que le One plus 3 …,,
Chinese French Dictionary,Google Play,com.nilhcem.frcndict,Z3A6QU9xcFRPRjhuNkxnOEpyU0xyVUVEbEc2VVhFcGtTQzQtV1RCa0RmOTdRbHpVQ013QXJWS0JpaWhheG9XYzc4b1BZZ0NaVEZvcURLMVZnUTZZeXNIbEE,French,,5,2017-02-17,wullycharles randrianantoandro,Ok,Good,,
Chinese French Dictionary,Google Play,com.nilhcem.frcndict,Z3A6QU9xcFRPR0h5TUY2Q2lDXzk1VE5zcUpYZ1NPcm1DcVFVczl5TTY0ckh0U3d4cGgzMmQxSjBzbGpsQlFFa0tuVkpVYWVDZEh4dWVsNVRYYlpwOGpCU1E,French,,4,2017-02-06,Gad Gokini,"",Cool,,
Chinese French Dictionary,Google Play,com.nilhcem.frcndict,Z3A6QU9xcFRPRzAyaGRWT3Y0bnBITFdBN01jbURDaVVPYVZfOXRXbm1ScVY1ZDEtMm9rTWhYYnBPX19vTmhyd1l3UHN1aXNrMHp4NTluUmRfNzA1SDF0cUE,French,,4,2017-02-01,"","",Très important pour moi qui dois partir en Chine d'ici quelques mois ça peut beaucoup m'aider en fait,,
Chinese French Dictionary,Google Play,com.nilhcem.frcndict,Z3A6QU9xcFRPRUJoeHl3VzRIN2oyUzV3NnNKeHFuWF9TckNsZ0diTWIzbDBZRWtFQlNWcnlUcld2VW5YUUk2dWVjRVd3WHJKdUdwdF9oS25XRWxpLUFPNlE,French,,4,2017-01-24,Augustin Jean Daniel,"","Pas mal, mais si vous aviez mis les prononciations ce serait  encore beaucoup mieux",,
Chinese French Dictionary,Google Play,com.nilhcem.frcndict,Z3A6QU9xcFRPR29lNU10MXY2RHdMWmpkdU1sTk5jV2pTazdVajFRVWotWFlJQTRUemtpTjNMbVloSVpKZkY5WUhpLUR1eWRIT3NKWmtoX2tUOUc4LUNkenc,French,,4,2017-01-05,"","",Trop cool cet appli,,
Chinese French Dictionary,Google Play,com.nilhcem.frcndict,Z3A6QU9xcFRPR24yUFluMmZoaTZfWVpHNnVJbWlkQUl6d0dLZGM3ZmFOZS1ady1UTEZ2YkRqbjNNWW95MS1Ebk1ZdGw2UURTV1JvRVd2S3ZjSE4zTWtjNkE,French,,5,2016-12-25,Junior Ndema,Joyeux noël,C7 la magie,,
Chinese French Dictionary,Google Play,com.nilhcem.frcndict,Z3A6QU9xcFRPR3RoaERoQ1ppb2FMZVlLUkM3RjFIencyUXhfT0R5SjFUM2JPR3N5SGx6czRVYjN6TUctSndtMF9JYnd6dGJTbnQtYTU2OTZtVzNDbXlmSXc,French,,5,2016-12-17,"",Trop bien,J'AI adoré set application elles est très génial,,
Chinese French Dictionary,Google Play,com.nilhcem.frcndict,Z3A6QU9xcFRPRjNXTzRJajNDTUt5TU4zMGxHckNWQTBlRGpzSjdIVmlBdjVyVVhGa3dSZ3ZHM0hnT1JGT1E4Rm81bXpxMEd4N1ZuRkZXMTNnV2piQmZQbGc,French,,3,2016-12-16,seraphin obame,Passable.,J attribue la note de 3/5. Certaines définitions n'y tiennes pas ! Mais également le manque de pouvoir écrire un caractère pour pouvoir savoir lequel il s'agit au cas ou nous aurons oublié ça prononciation.,,
Chinese French Dictionary,Google Play,com.nilhcem.frcndict,Z3A6QU9xcFRPSFd1MFR6Y09KYnF4V1NiUVhRQlZGSTkyamJNSEswQVRYZm45QVVaSXRfTWFCMUh5QVBqaW9GV3Y0NVhyWmRZX2JNcEJXVXRGVlg5akc2VVE,French,,5,2016-11-15,steve romaric assy,"",Cool,,
Chinese French Dictionary,Google Play,com.nilhcem.frcndict,Z3A6QU9xcFRPRU5jbWQ4SjcwUzRSRHE2NjZKT0VNMDNTdm15VWNPa0tuMFUtUnhZTTFRNzRDQ1BCR1FXUWVLc2dKUkpIOGE3bkRTNHYtQjRQaHdhZkRFRmc,French,,5,2016-11-08,jean baptiste Gode,Trop cool,Cette application est juste fait pour moi qui doit continuer mes études en chines. Ça m'aidera beaucoup. Les autres créateurs d'application doivent prendre exemple sur vous.,,
Chinese French Dictionary,Google Play,com.nilhcem.frcndict,Z3A6QU9xcFRPRUNaY0NpeElkaDY3eXNKQ09zMU81VHJUV3o1Z2lXb3pFSVduN3FDQ2tMRzZxeGFCRkVQUFpzZUFjeDgxQTV6SkNhWmN2UGs3T0ozRmx6aGc,French,,5,2016-09-19,sterenn fouodji,Waou!!!,C'est tout simplement magique.c'est loin l'une des application s les plus réussit que je n'est utilisé,,
Chinese French Dictionary,Google Play,com.nilhcem.frcndict,bGc6QU9xcFRPRTg5eU15Tko5Wk9WRGhQV2V1bWQ5YTJrZ0pFZHowRkc1RkgxeExxaElPSFg3TC00X2N0c2F6R3YydzVQS1Q0aGVyMmF6My1zMENNSXhaTHc,French,,5,2016-08-28,Un utilisateur de Google,"",Vous savez quoi ça m'a plu !!!!!,,
Chinese French Dictionary,Google Play,com.nilhcem.frcndict,Z3A6QU9xcFRPRkUwbklxbEhLb3k4QWVIUElQdlZtbXIxWWZQb2JQTnpEcVl1dHJOWGNwWDhQUUE0UG0tSjBGdG5MdEpNeTJHMmFjZHE2V2IzcERob3pUaFE,French,,5,2016-08-19,Billel Bilou,"",😀😀😀😀😀,,
Chinese French Dictionary,Google Play,com.nilhcem.frcndict,Z3A6QU9xcFRPSFROM1BHeHZTdDdPcWlpWHUta0lGeUpvRExmbmVFTlFoRURISTJiZnhIbzBtUEFUVnVTTml1cTkzTFloNzFMZ3M4ZkRNTjVtanczYUFvclE,French,,5,2016-08-03,Asfaty Shindanoasfaty,"",♥,,
Chinese French Dictionary,Google Play,com.nilhcem.frcndict,Z3A6QU9xcFRPSEhRNnRKWXpkd1hMVEx2WXlJb0xEb3RfcEFjM3JUdlFlUlZNcGxGRnliZTRoSzN5NHlEc0lac0pXcmRCNDFfQWx3VFcxR2Rkd2ZERkdENWc,French,,3,2016-06-30,sakura luci,Sa va😄,Jaime cette ap mais c'est dommage qu'on entends pas le son,,
Chinese French Dictionary,Google Play,com.nilhcem.frcndict,Z3A6QU9xcFRPR0xFN2s4UjRjSUFhbzQ2MG9VeGlVcGp1c2R4Ym1hZE0zQTlUb3hMMWN3U0l5bVQ4S3VMbF9STEpaZDVZRUtIalVIZVRRMGJ6amZTbUVCZVE,French,,5,2016-04-17,Aude Mamoude,Super,Ça traduit même les termes familier! Et il y a pleins d'exemple d'utilisation pour un seul mot!,,
Chinese French Dictionary,Google Play,com.nilhcem.frcndict,Z3A6QU9xcFRPRlIzUVdtMkdPMmJ1U2NMZXJCSkh2Vi14TGhoYzEtODNza210Rm15YUxKbDZLTTc5NWxhNWE3Z09mY2I1bW1WdzlKU01PdXBMNEdVeWlpdUE,French,,5,2016-04-15,Sage Miahouama,Formidable,Magnifique,,
Chinese French Dictionary,Google Play,com.nilhcem.frcndict,bGc6QU9xcFRPRmFISmFVRlRFUC1OSC15clZxUHdxRExURnNSQjc4Xy1hQmpROXRQcmpYcDJlalFwWEVtZ2l3ZmVlSm9vYnpfdDVPYmF2RmxndUVaMWN6ZGc,French,,4,2016-02-24,Un utilisateur de Google,"","S'agissant d'un logiciel gratuit, c'est vraiment pas mal... J'aime la simplicité de son interface.",,
Chinese French Dictionary,Google Play,com.nilhcem.frcndict,Z3A6QU9xcFRPRjFER3V1eVZvNDJ1VjdaXy1Ka2pHZXM4cmM5RmFqOXkwN2s4VnpPSjFKTVgzb1A3T2FsTlpGMG12YmdjVUVEbXczV3BvaTk2RFk1M2g1QXc,French,,5,2016-02-05,piaple brice,jaime ca,c st bien pour apprendre le chinois,,
Chinese French Dictionary,Google Play,com.nilhcem.frcndict,Z3A6QU9xcFRPR2dVMy1WWHU3ejVZTjAySWJGQ3h3VDJaR2thTVhlTmhjcXU1c1UyRVJVUk51eXdkRy02QWIxZV9KWTc3dWJUOU04bjJtR3hpYm96QkdKREE,French,,4,2015-11-09,Simeon Oteke,"",C'est bon !,,
Chinese French Dictionary,Google Play,com.nilhcem.frcndict,Z3A6QU9xcFRPRkRTaGhqckdOYzc1bXNoSklVM1RMX084MHRJR29ObXZNX1kxaGFjb2s3T0gwTU83LWFFZDU1dm81azNoTUt5UW5MM0JFejVlN0hGbVBBYWc,French,,4,2015-11-04,Ryvel Nzi,"",Mais ya pas de phonetique en français,,
Chinese French Dictionary,Google Play,com.nilhcem.frcndict,Z3A6QU9xcFRPR0dtVE5UUGJfZmhjV2lzTTZnNEZrV0ZhaWZ3RGxpOWlaZ2RNV01TeUg1cEc3V083NjhCTlV1MVQzSFZoSGRsRUJhZGZ2YkZldW1EUllrYVE,French,,5,2015-10-04,Timothé Devin,Super,Ce traducteur est vraiment SUPER GENIALISIME EXTRA,,
Chinese French Dictionary,Google Play,com.nilhcem.frcndict,Z3A6QU9xcFRPRnpiVUNpYmJlLU5fS0NQT0Q5YUlLWkNGaThhWWluMFN1UF9xRXFGbmpYRGUxa24zLWpHRVpRS3k3a2VOYmVZUHhWdlRtYlFNdUhRZE9iVXc,French,,5,2015-09-24,William Beguiesse,"",Superbe applications pour apprendre le chinois,,
Chinese French Dictionary,Google Play,com.nilhcem.frcndict,Z3A6QU9xcFRPRVQtZ0hheXd3eEJSZWdTZUIyT2hvM3doYUVZU3JybDJjT0IzY21va1JsYzl3WjlIbXR4OHlrZThUNEJTdE9xdkN1NGhLc1Q4b0JBX3kyeVE,French,,5,2015-09-20,Bernard Castaignet,Dictionnaire,Très pratique donne plusieurs sens,,
Chinese French Dictionary,Google Play,com.nilhcem.frcndict,Z3A6QU9xcFRPRlRIN0dheWk5bHVLZ0d3Vk1qMTYtYnhiY3VScWFQRzh6bHhYS2l3T1FsUUFULTZQTjhET2lpc0ZPS19rYXRJdWZ4OHZmLUlYU1hwZ3FwX3c,French,,4,2015-09-16,Blondy Mukulabo,"",J adore,,
Chinese French Dictionary,Google Play,com.nilhcem.frcndict,Z3A6QU9xcFRPRmhTMUxJSGFKR3BqOFFPWTViWkk0dG1MZjB2QVowZGlJV0h0LXluR29SbkNTWmFCZXpjVVhxX1cyaUtTS29nSnpILTNETUNVcHBUSWowWmc,French,,5,2015-09-04,Lena Kiss kiss,Genial,Trop moi je fait du chinois et c est genial,,
Chinese French Dictionary,Google Play,com.nilhcem.frcndict,Z3A6QU9xcFRPRjZfQl9US0x3UVFJT3IxWmZNNUUtWm1aZUxEVTJqZlVUaFRpRWZVWDVRYXlkUWlCZjF1Uk9tWFJGZFR5aS1ncVN2ZF9pV0NlRnRmWDk0R1E,French,,3,2015-08-28,HYJ H,"",Pas mal. Mais c'est à améliorer.  Certaines traductions ne correspondent pas exactement...,,
Chinese French Dictionary,Google Play,com.nilhcem.frcndict,Z3A6QU9xcFRPRTRPWWhGS0xST2Z5amllanBCbGc1NENOUVppWlFjc2d5UUF5ZWlvSDhZZnFCZEhmbGlnVmU2TWtIVFRLT0ItMDlUQUgtX2lwNXBxM1doR0E,French,,4,2015-08-24,Roland yegdewende Kyelem,"",Cooool,,
Chinese French Dictionary,Google Play,com.nilhcem.frcndict,Z3A6QU9xcFRPSFpzbGwxVDhzb1l2QXZtVmk0ZUZKa24wRS1nbWVkMW5KUHdjZnE3OUNETUZ6bl94VHhqT0ZjeFZYY29vV2hiQUxSMjFqRVJtNWpSOU5wb3c,French,,5,2015-08-20,Tao Kaiji,Juste genial,Absolument genial. Le seul truc qui manque cest de pouvoir ecouter Les mots pour connaitre Les tons. Mais l'application est quand meme genial.,,
Chinese French Dictionary,Google Play,com.nilhcem.frcndict,Z3A6QU9xcFRPSGRQV2NPUUVLQ0NHUXJEaDhPckJyNnZkempZTnY0QUJjb0dNWHVDRTRvaUxHdGxGUE5Zdk1BSU9mbm1FRmFxLUpVQ05US1NzWUk2MnUtY3c,French,,3,2015-06-05,kalib zakaria,Très intéressant,Po besoin de conection et très pratique pour les personnes qui apprennent le mandarin comme moi,,
Chinese French Dictionary,Google Play,com.nilhcem.frcndict,Z3A6QU9xcFRPSEVVMG5SUFI4SE1QelJtcDdERmJJVlhaWnRPZG1wTHlCMnVpVTJJNnJENFRwM0V5dmYyUkdLLWRfVlE3djNTZHo2UXZZcU52RDFNN2ZnQVE,French,,5,2015-02-24,Coumba Ningue,"",Cool,,
Chinese French Dictionary,Google Play,com.nilhcem.frcndict,Z3A6QU9xcFRPSEpEY1BINlZLRURsZm82Sjc5eVc1TWtadmJINFZ0MGNSVHQ5dXZoZFU2YlBQem9id0pfdTFQb1d4RVBjUzRsVFpHWFc4VjZleld0aE1xeHc,French,,1,2015-01-21,lpuna hzadza,Nul,Pourir,,
Chinese French Dictionary,Google Play,com.nilhcem.frcndict,Z3A6QU9xcFRPRjZ1Mm5WZ2M5UEpHZm05Zlh5YUZCWnA2R2VWM2diOHFlU3RrUmlONU9saDZWa2VFYWxNUjNHT2l6UFBkMzQ1V1Y4UXVCQ2IwSmJyT0xqN0E,French,,4,2014-12-22,Ferrat Ameur,"",Ci tribien &amp; merci,,
Chinese French Dictionary,Google Play,com.nilhcem.frcndict,Z3A6QU9xcFRPSC1Ea3RMNTVHU2tsbzJLeHBOTGdzSkprdDB2VE5iSy15NzRvdU1kU2Y2ZTVWY3huTER0UWh6RW5FME1IZDE2RmR4S2RGS3oxb2hjb3JlZGc,French,,5,2014-12-15,Elysé Ravoson,"",Super apps.,,
Chinese French Dictionary,Google Play,com.nilhcem.frcndict,Z3A6QU9xcFRPRzA2elpZcGt3N2o0aXRVU2JLVUZpVVNVQkM5TWdBNU16ZUJtbFdqbmlTNUI2MkM3VlRPc3lUakRNUG1LdWd5U1ZhODQ1cTlteGJKeHJvQUE,French,,5,2014-11-24,Albert Basque,Au poil !,Et je suradorerai quand un pavé tactile permettra de tracer les 汉字,,
Chinese French Dictionary,Google Play,com.nilhcem.frcndict,Z3A6QU9xcFRPRklnMENXMkQ4Y2NiNUcySVprRWJDOU15V3oxeVA0a3RkbGJlZzJnSFhjc2RDUXB1YVVncFdaREpJRG1qOVVkNEVUR3VPTDZoOEZWYzFuSlE,French,,3,2014-11-18,Christine Nguyen,Ça passe,"Je suis en LEA chinois et je trouve cette application assez ""bien"", enfin pour ce qui ne le pratique pas de manière intensive que dans mes études, car je trouve qu'il y a beaucoup de lacunes à cette appli (qq mauvaise définition et autres)",,
Chinese French Dictionary,Google Play,com.nilhcem.frcndict,Z3A6QU9xcFRPSEpEczJFd2NNNjBBODVKSk13dERpenJBVVQwM3FqNEZzNWJwckR4QjgwMVczT0NmbDNFSXVPUG5VclMxajlVZDFzcnFwbHlTVkFoeEc3blE,French,,5,2014-11-17,Ilasse Ouedraogo,Cool,Ok,,
Chinese French Dictionary,Google Play,com.nilhcem.frcndict,Z3A6QU9xcFRPRUhtOHNhelpvRTNUbzVHV0l0ajd0UEhwNFhWcTFLam5XeUota21YaXAzc0tnU1NzcXRDNU5PSGhhUkFWLU9sZlZKVWdZTEQzcFN4Yzl2bHc,French,,4,2014-07-24,Melissa Couacou,Utile,"Très utile et pratique, le seule couac c'est qu'il n'y a pas le pavé tactile pour écrire en mandarin",,
Chinese French Dictionary,Google Play,com.nilhcem.frcndict,Z3A6QU9xcFRPSEdra2lQVnhHTWdjdGxreGVCYjI5M0cwcmZwY2NiOW9UNzVHQzdqUFI3VEpPalVrQ3ptdE03V3NkU0dod18td3JpTG5UVmpEUkpDTmJQN1E,French,,3,2014-07-21,ricky wen,"",I got Boy 毛巾,,
Chinese French Dictionary,Google Play,com.nilhcem.frcndict,Z3A6QU9xcFRPRW1FVEFOcGtEWk9uZlVGRDRaNjBSTUpsT1otajBURjlPSkpURm1vZHB5TEQ5QXpIdjltY2NiTDVIdHptV3NwZmY3X2szMTJmdklzajVxaFE,French,,5,2014-07-17,Henriette CHAN KAM WA,Dico,J'adore,,
Chinese French Dictionary,Google Play,com.nilhcem.frcndict,bGc6QU9xcFRPRVp0UklYUVdXQVRwWXNucmNwOUpzNnhKSjd2anltZkhkLTNJQ05xSmJRQ3o5UG9JbHdZNXJrME9Ha2ROZ0VPTGVYWmxVU0UzUFlBNnZPMXc,French,,5,2014-05-23,Un utilisateur de Google,satisfait,je suis content,,
Chinese French Dictionary,Google Play,com.nilhcem.frcndict,Z3A6QU9xcFRPSEZRSU9GNG5wRlYyWHdLeEZEa2xjZXBOUnA0NWZnYm1rSmpRNENZQjQ1U2ZjNjdEMkljNUpiVzNUMENDV3JBcmVRMnlyVkhDcnNCTFQ2ekE,French,,5,2014-05-18,eiremos,"",Comment apprendre a dire je t'aime et plus en chinois. Merci,,
Chinese French Dictionary,Google Play,com.nilhcem.frcndict,Z3A6QU9xcFRPRXlfQkw5X0RWSE53d1hraFNmZU5pWUhhaDUyQU1jaF9Xbll5WjlnRGJERkZfVGV2OVUtNFNiU1o2SW9iTUIxamlkTEYxdlJmWXE1Z0dzMlE,French,,3,2014-04-18,Philippe Esperet,[merci  & Pleco],%%%%%%%%%%%%%%%%%%%%% 2014年 04月 18日 星期五 20:34:25 CEST  [merci  &amp; Pleco] Merci pour cette application. Pour l'avenir deux points amélioreraient  encore le produit (en comparant avec Pleco)  -- une entrée des données graphique -- quand on ne connaît pas le pinyin  -- des exemples associés aux mots  Tout cela représente un énorme travail...  Merci encore,,
Chinese French Dictionary,Google Play,com.nilhcem.frcndict,Z3A6QU9xcFRPSGRwUW9IcE0tSEkwcHBPNHRFNnZQRlpacHhYbkJWRExRSlV5d2JQZmxnVVFvQVd5U0dEdXhDLTVSckF0aGdVUmpScVQzMmVKdVF0MHBPNEE,French,,4,2014-04-14,Ali Med,Imaginé,Très efficaces,,
Chinese French Dictionary,Google Play,com.nilhcem.frcndict,Z3A6QU9xcFRPRXNDekttWF94cGYtNTkxXzctUGVUZnpnc0gyVmM2dGxVeVUyZlNadlRIRW1HZmdfdV9fUlFQWUU3Z1ROV1BKNmNuZm1nYzR6a3ZjMExBMVE,French,,5,2014-02-20,Ahmed KABA,Bien,Cool,,
Chinese French Dictionary,Google Play,com.nilhcem.frcndict,Z3A6QU9xcFRPRkluYW9kaGgwSE11YU9MODRmVU5JV3dHYmZyUDhMTFBKUXBJbjVXQ0l5SnU2eExhRUx0R1RuaEgtajBjRXBIZ1E3T1R6YWltUHZ5ZVBORWc,French,,3,2014-02-01,jonathan dagenais,Moto G,Très bien. Mais sa reste que les favoris et paramètres sa fonctionne toujours pas. Sinon très efficace.,,
Chinese French Dictionary,Google Play,com.nilhcem.frcndict,bGc6QU9xcFRPRmlGdEgxQUhiNW51b0FQbHVLbUU1SFBOaE1SMy1vdm1nNHEzY01xX2hveExnSHRRSFJWMFc2NXhHNDQwU04wbjIzem1LUEFLTWI5ZWpqb0E,French,,2,2014-01-16,Un utilisateur de Google,"",Coolll pas mal suis deja chinois la,,
Chinese French Dictionary,Google Play,com.nilhcem.frcndict,Z3A6QU9xcFRPRVhuWEp4bWpTbEx1aGxRNWxBbzFTOFp6dlFXVFVzX0ZmamNVTjV1SU51bW12RW5EdkhFd2cwZi1Da3RlQkRIZC1KTi1EVFFfeVBRLU9VWUE,French,,4,2014-01-03,Charley Rabec,Parfait.,Il manque juste la recherche instantanée pour éviter d'avoir à appuyer sur le bouton RECHERCHER à chaque fois. Sinon c'est impeccable!,,
Chinese French Dictionary,Google Play,com.nilhcem.frcndict,Z3A6QU9xcFRPRVZRM3hhX09KMWtGVWxlWEpfMHVLTEFuM2FIMkpuZnEzWDR2X2Rvb3ZMVzNyODFBOVFwUElpNmkwZjdPTHR2ZmZ6aXJUOGIzVG9keWhkcHc,Chinese (Simplified),,2,2014-11-25,"","",词汇量太少,,
Chinese French Dictionary,Google Play,com.nilhcem.frcndict,Z3A6QU9xcFRPRWJuQjluVl95QlFINUNndHZpaUY1aFFUR0E5Zjd4SHN4eXRaM2Z1X0JnVWVMd0d1OTdzT05Xajhod1hjNllaQktVRWUzTWVIbFFnblVVNmc,Arabic,,5,2016-02-18,mhm ood,"",روعه,,
Chinese French Dictionary,Google Play,com.nilhcem.frcndict,Z3A6QU9xcFRPRUdsRWc3SnJSWDRMYUNselFRcHp6Sm9FOWJ0UG8yOHM3WF9xNTdRLU8tbkMyOVFzSURwdG5EalRVekE5Q0hoN2c4eUwzSTQtTElqRVVKU1E,Arabic,,4,2015-02-20,Mohammed Mohammed,جيد,هكر كلاش منة,,
Chinese French Dictionary,Google Play,com.nilhcem.frcndict,Z3A6QU9xcFRPRkFkNE9uNnJOUHdyOERQNEl6WEZuX0NMZUlUdGhsQjNrRFlBRUhncHV5VFB0bDBpSEpKN1kybHA0VmcxaXlXbERQRDFXaktJOVRKVXA5Tmc,French,,5,2017-04-15,"","",Très bien,,
