# deletions,date,commit message
1,2014/2/07,Upgrade the android gradle plugin to be able to use gradle 1.10
2,2014/1/31,Version 2.0.0 beta 1
68,2014/1/30,Protect UI code from exception because of some possible raise during screen rotate
5,2014/1/30,Make the navigation drawer dark
7,2014/1/30,Add layout information to fragments for easier visualisation
7,2014/1/30,Make sure we don't print null pointer
2,2014/1/30,Clean import
2,2014/1/30,Fill resolution of video/picture on local content directory
48,2014/1/30,Complete missing traduction from lastest feature
95,2014/1/30,Factorize content as nested fragment are now working
43,2014/1/30,Persistent navigation drawer on tablet
2,2014/1/29,Update dependencies in README
5,2014/1/29,Improve README description
2,2014/1/29,Version v2.0.0 alpha 2
28,2014/1/28,Highlight effect when button is click on renderer fragment
32,2014/1/28,Hide actionBar search action if not available on content directory (inhibited for now)
1,2014/1/28,Search upnp request draft
98,2014/1/28,Clean the way browsing list are refreshed
27,2014/1/28,Protect better activity get on ContentDirectoryFragment
11,2014/1/28,Fix crash on renderer disparition because of wrong thread execution
5,2014/1/28,A little code cleaning
14,2014/1/27,Clean some import and add some missing license header
62,2014/1/27,Improve renderer panel
3,2014/1/27,Fix android target version and build tools version in build.gradle
3,2014/1/27,Version 2.0.0 alpha 1
225,2014/1/27,Restore a basic renderer control panel
326,2014/1/27,Replace renderer icon by icon for light theme
4,2014/1/26,Reduce verbosity of device discovery
5,2014/1/26,Remove some unused import
2,2014/1/26,Fix issue of PTR infinitetly refreshing after orientation change
2,2014/1/26,Add support of back button to go back in browsing
19,2014/1/26,Work on style : Drawer and PTR color  * Remove drawer transparency * Change PTR color to the same as the logo
19,2014/1/26,Rename browsing list item xml file
3,2014/1/26,Make the device list observer of cd/renderer selection
25,2014/1/26,Display content directory list in browsing view if none selected
11,2014/1/26,Refresh directory listing with action bar refresh button
16,2014/1/26,Add a message to the renderer dialog when there is no renderer available
9,2014/1/26,Add icon to browsing
41,2014/1/25,Improve media information given by browsing
1,2014/1/25,Fix possible Null Pointer Exception
336,2014/1/25,Fix indentation...
19,2014/1/25,Use pulltorefresh to have an animation while refreshing/loading browsing content
1,2014/1/25,Search widget draft
14,2014/1/25,Put refresh as an action
311,2014/1/25,View rewrite
3,2014/1/24,Update README with gradle instruction
58,2014/1/24,Remove old eclipse project file
145,2014/1/23,Migrate to gradle instead of maven
0,2014/1/23,Move file to use standard path
1,2014/1/23,Upgrade slf4j version
4,2014/1/22,Version 1.1.1
1,2014/1/22,Upgrade cling to latest version
1,2014/1/22,Upgrade android maven plugin
