fix error in translation,b,2013/7/18,,
new string translate to c,f,2013/7/18,,
we also invalidate it we show the message,b,2013/7/17,,
upgrade our library in the hope the newer version might fix some issue with the older one,b,2013/7/17,,
cache our lookup for our message,b,2013/7/17,,
make sure we always have the id of a folder fetching the count,f,2013/7/16,,
stop using the old android market,b,2013/7/16,,
update version required for android studio,b,2013/7/16,,
updated polish translation quick fix credit update,b,2013/7/15,,
polish translation quick fix,b,2013/7/15,,
another fix,b,2013/7/15,,
updated translation of the,f,2013/7/10,,
fix,b,2013/7/12,,
translation fix,b,2013/7/12,,
happy to listen fix,b,2013/7/11,,
marking a message a read in the database is currently very expensive especially you have threading enabled,b,2013/7/11,,
replace synchronous setting of a flag with setting of the flag,b,2013/7/11,,
this help speed up message display time,b,2013/7/11,,
update translation see issue 5748,b,2013/7/09,,
update translation,b,2013/7/10,,
sync translation using the new script,b,2013/7/09,,
fix broken,b,2013/7/09,,
move comment that should be preserved syncing translation,b,2013/7/09,,
remove comment to work around limitation of,b,2013/7/09,,
move another comment,b,2013/7/09,,
