move to use on,b,2015/3/08,,
formatting,b,2015/3/08,,
move default port and default port to a single location,b,2015/3/08,,
minimize scope of local variable,b,2015/3/06,,
small refactoring of,o,2015/3/03,,
move code to build message outside of,b,2015/3/02,,
review comment,b,2015/2/23,,
remove comment,b,2015/2/23,,
change name of test method,b,2015/2/23,,
review comment also use in preference to equal for,b,2015/2/22,,
reduce duplication,b,2015/2/18,,
show new error condition in header,b,2015/2/21,,
for readability,o,2015/2/21,,
limit accessibility,b,2015/2/21,,
save type of part for later use,o,2015/2/21,,
add support for new error condition we can decrypt or verify a message if it wa partly downloaded,b,2015/2/21,,
formatting,b,2015/2/18,,
hide side bar not showing the header view,b,2015/2/17,,
do initialization in,o,2015/2/17,,
do initialization in,o,2015/2/17,,
set background color of message view in one place,b,2015/2/17,,
code cleanup,b,2015/2/17,,
better name for method argument,b,2015/2/17,,
add placeholder for application id to,f,2015/2/17,,
add missing placeholder for application id,f,2015/2/17,,
instead of constant simplify and add logging simplify use for comparison to avoid type mistake name need to match previous constant simplify address review comment formatting and remove superfluous comment shorten value not used in setting import to reduce clutter fix whitespace remove comment per review address review comment review comment remove another superfluous qualification last change,b,2015/2/15,,
stop using use the intent constructor to reference internal class,b,2015/2/16,,
removing import,f,2015/2/16,,
remove redundant assignment to removed null affectation it done automatically,b,2015/2/16,,
removed redundant assignment to removed null affectation it done automatically,b,2015/2/16,,
remove redundant cast button to and are button it redundant to cast it to button,f,2015/2/16,,
remove redundant cast and are button it redundant to cast it to button,f,2015/2/16,,
rename from to,o,2015/2/16,,
fix issue 6703 must be called because end up referencing and which could be null otherwise,b,2015/2/10,,
decouple from,o,2015/2/09,,
remove unused variable,b,2015/2/09,,
move,b,2015/2/09,,
decouple from,o,2015/2/09,,
fix typo,b,2015/2/06,,
no functional change,b,2015/2/06,,
extract constant for default file name,b,2015/2/04,,
display attachment size for decrypted part,f,2015/2/01,,
fix introduced by conditionally inflating the layout,b,2015/2/01,,
preliminary support for,b,2015/1/30,,
display button there is a only,f,2015/1/30,,
pas to display delete old layout,f,2015/1/30,,
use same version of build tool we use in main project,b,2015/1/30,,
update lib to newest version,b,2015/1/29,,
fix class name,b,2015/1/29,,
fix indentation,b,2015/1/29,,
fix,b,2015/1/29,,
reduce even more,b,2015/1/29,,
reduce,b,2015/1/29,,
move this view out,b,2015/1/29,,
cleanup and optimize,b,2015/1/29,,
pas to,o,2015/1/29,,
break message into multiple,b,2015/1/29,,
test,b,2015/1/29,,
first attempt at decrypting message,b,2015/1/28,,
callback to execute signature button click,b,2015/1/28,,
display signer name and email,b,2015/1/28,,
update,b,2015/1/28,,
smaller sidebar,o,2015/1/28,,
status text and sidebar improvement,f,2015/1/28,,
parse from part,b,2015/1/28,,
sidebar,o,2015/1/28,,
header and sidebar test,b,2015/1/28,,
work on new header,b,2015/1/27,,
show attachment,o,2015/1/27,,
extract header view for multiple,b,2015/1/27,,
rename to,o,2015/1/27,,
new structure,o,2015/1/27,,
update to latest version,b,2015/1/27,,
add method to find part,f,2015/1/26,,
to improve readability,b,2015/1/23,,
save attachment count,f,2015/1/22,,
extract preview of message text,b,2015/1/22,,
remove unused class,o,2015/1/22,,
add,f,2015/1/21,,
save attachment in background thread,b,2015/1/19,,
download missing part viewing or saving,b,2015/1/18,,
reduce exposure of internals,b,2015/1/16,,
fix viewing attachment with alternative mime type,b,2015/1/16,,
use glide for thumbnail generation image loading,b,2015/1/16,,
move functionality from to,b,2015/1/15,,
use a loader to extract text of a message in a background thread,b,2015/1/14,,
simplify,o,2015/1/14,,
simplify,o,2015/1/14,,
convert remaining test to,b,2015/1/14,,
make,o,2015/1/14,,
convert to test,b,2015/1/14,,
convert to,b,2015/1/14,,
start server early,b,2015/1/13,,
initialize setting in setup,b,2015/1/13,,
,o,2015/1/13,,
use a loader to load the message to view from the database,b,2015/1/13,,
setup and tear down server between test,b,2015/1/13,,
convert from thread to for espresso test,b,2015/1/13,,
adding test for connection use greenmail snapshot,b,2015/1/12,,
create new package for code related to message viewing,b,2015/1/12,,
get rid of unused,b,2015/1/12,,
extract text to display viewing the message,b,2015/1/12,,
sadly i found no way to find out whether the method wa called of a meta refresh or because the user clicked on a link,b,2015/1/09,,
fix single message part,b,2015/1/10,,
minimal version reconstructs original message from the database this change break all kind of thing,b,2015/1/06,,
deleting message updating message downloading attachment deleting attachment searching in message body,b,2015/1/06,,
enable lint check for,b,2015/1/05,,
fix equal method to work with all object,b,2015/1/03,,
fix some warning,b,2015/1/03,,
fix bug caused by edge case of,b,2015/1/03,,
fix,b,2015/1/03,,
fix warning,b,2015/1/03,,
upgrade to espresso 20,b,2015/1/02,,
use correct subpart of a message getting text,b,2014/12/25,,
reformat,b,2014/12/23,,
fix espresso test,b,2014/12/22,,
update dependency,b,2014/12/22,,
revert change reverts change introduced with commit add test to make sure with special character properly,b,2014/12/22,,
cleanup,b,2014/12/20,,
move setting to the right place,b,2014/12/20,,
run and on,b,2014/12/20,,
move into mail package,b,2014/12/20,,
make an external dependency,f,2014/12/20,,
use default directory structure for subproject,f,2014/12/19,,
break into smaller method,b,2014/12/19,,
fix some warning in,b,2014/12/19,,
reformat according to style,o,2014/12/19,,
update build tool version for,b,2014/12/19,,
add to build,f,2014/12/18,,
decouple logging,b,2014/12/18,,
move test to convert to modern syntax,b,2014/12/18,,
use 16 source compatibility for now,o,2014/12/18,,
,o,2014/12/18,,
cleanup,b,2014/12/18,,
not needed anymore,b,2014/12/17,,
leftover,o,2014/12/17,,
decouple from main,b,2014/12/17,,
move out,b,2014/12/17,,
move exception error string out of mail package,b,2014/12/17,,
fix add test add test for another edge case fix bug in swap order simplify,b,2014/12/17,,
should be a subproject,o,2014/12/17,,
clean up test,o,2014/12/17,,
stop using easily possible,b,2014/12/12,,
make task depend on,f,2014/12/17,,
dependency to,o,2014/12/16,,
revert adding method to message and part,b,2014/12/16,,
unused import,f,2014/12/15,,
update,b,2014/12/15,,
cleanup,b,2014/12/15,,
visibility,o,2014/12/15,,
message break class into manageable piece move related code out of the mail package,b,2014/12/15,,
local,f,2014/12/14,,
,o,2014/12/14,,
fix test location,b,2014/12/12,,
naming,b,2014/12/12,,
fix,b,2014/12/12,,
move local message code to local package cut some helper dependency,b,2014/12/12,,
break dependency,b,2014/12/12,,
local message,b,2014/12/12,,
move code into package,b,2014/12/12,,
naming,b,2014/12/12,,
avoid cast,o,2014/12/12,,
split message code into the remote network code doe not need to be aware of concept like account etc,b,2014/12/12,,
fix visibility,b,2014/12/12,,
fix visibility,b,2014/12/12,,
package visibility,b,2014/12/12,,
move database code into correct package,b,2014/12/11,,
package visibility,b,2014/12/11,,
use,o,2014/12/11,,
remove eclipse setting,b,2014/12/10,,
saving message in the database should work fine again,b,2014/11/26,,
fix functionality for,b,2014/11/25,,
modify to retain the encoded body for now this break a lot of thing,o,2014/11/25,,
saving message to the database and making message safe,b,2014/11/25,,
modify to highlight more problem,o,2014/11/14,,
fix now we preserve line break in header,b,2014/11/13,,
update to be compatible with latest android studio,b,2014/12/07,,
bump version to 5103,b,2014/12/06,,
pull updated translation from,f,2014/12/06,,
update android to,b,2014/12/05,,
oops checking wrong platform capability,o,2014/12/04,,
add lollipop lock screen notification,f,2014/12/03,,
fix it by checking whether the wa actually triggered by a,b,2014/12/04,,
bump version to 5102,b,2014/11/27,,
then we fall back to,b,2014/11/18,,
in all case we first try the then a,b,2014/11/18,,
simplify,o,2014/11/10,,
we look at the file extension to try to come up with a sensible mime type on our own,o,2014/11/09,,
we then go on to ask android which of the two mime type lead to more claiming to be able to open our attachment for viewing and use one,f,2014/11/09,,
extract intent creation code to method,f,2014/11/09,,
fix method,b,2014/10/20,,
rearrange,o,2014/10/20,,
method,o,2014/10/20,,
clean up comment,b,2014/10/20,,
remove code from click handler,b,2014/10/20,,
extract code to display message to a separate method,b,2014/10/20,,
fix formatting,b,2014/10/20,,
remove unnecessary method parameter,o,2014/10/19,,
further simplification,o,2014/10/12,,
address review comment,b,2014/10/11,,
get more dependency from,o,2014/10/11,,
fix test failed due to certificate expiry,b,2014/10/11,,
chain the exception,o,2014/10/11,,
fix test on,b,2014/10/11,,
bump version to 5101,b,2014/10/10,,
