i often need to click on folder multiple time they open,b,2015-04-29,Joost Roeleveld,2
need to keep reorienting my phone to try to get the full email displayed,b,2015-04-29,Joost Roeleveld,2
running android 5,b,2015-04-29,Joost Roeleveld,2
great i manage multiple email with this program with ease,b,2015-04-29,Michael Blankowski,4
good,o,2015-04-29,Thet Paing Soe,5
one stock,o,2015-04-29,Jonathan Plouff,1
update this is broken,b,2015-04-29,Jonathan Plouff,1
crash opening message,b,2015-04-29,Jonathan Plouff,1
crash sending email,b,2015-04-29,Jonathan Plouff,1
good,o,2015-04-29,David Tamu,5
great job,o,2015-04-29,HenryGT tolentino,5
dream,o,2015-04-29,Jacob Prince,5
terrible interface,o,2015-04-29,Abdul Malik,1
fatal socket timeout error,b,2015-04-28,Jeremy Manser,1
on one account at a time but support say no problem,b,2015-04-28,Jeremy Manser,1
the web site say there are setting i can alter but my version ha no setting button or tab that i can find,b,2015-04-27,Mary Kennedy,3
the mail come in on a black background and is very hard to read,b,2015-04-27,Mary Kennedy,3
wish i could change it and they say i can but darned i can find a way to do it,f,2015-04-27,Mary Kennedy,3
the missing 2 start were for no widget and no swipe to delete message,b,2015-04-27,Ah Siang Woo,3
you tick the to choose multiple message to move or copy,b,2015-04-27,Ah Siang Woo,3
is good,o,2015-04-27,Ah Siang Woo,3
most,o,2015-04-27,Zahid Hasan,5
on 3 of my i did the lollipop update and now the mail doe load email in full,b,2015-04-27,Florin Crasnanic,2
to make it work you need to pinch and zoom into the email and zoom back it and then it fix a soon a possible thank you,b,2015-04-27,Florin Crasnanic,2
most of the time it show them blank,b,2015-04-27,Ian WItlen,2
i have to return to and reopen the email 23 time in order to read the message,b,2015-04-27,Ian WItlen,2
this applies to all email i receive,b,2015-04-27,Ian WItlen,2
good,o,2015-04-27,Mohammed Ahmed,5
my account are already getting close to of data and it would be nice to compact them like or maybe some clean up function,f,2015-04-27,Agustin Cesar,4
best android email,b,2015-04-27,Reuben Mwangi,5
love it,o,2015-04-27,Reuben Mwangi,5
,o,2015-04-27,Abdul Majeed,1
nice,o,2015-04-27,Ayyappanajs Ayyappanajs,4
i have been using mail for a long time now,b,2015-04-26,Turbo Majumder,4
there are some problem with syncing deleted email,b,2015-04-26,Turbo Majumder,4
this happens even the message size is lower than the download size limit,b,2015-04-26,Turbo Majumder,4
going back and opening email often sometimes after multiple attempt,b,2015-04-26,Turbo Majumder,4
display the first line of each received email,b,2015-04-26,Mark Cardoza,5
note 4,b,2015-04-26,Mark Cardoza,5
,o,2015-04-26,COSWIL HORSFORD,5
,o,2015-04-26,Hina Mehwish,5
,o,2015-04-26,Muhammad Afzal,2
very slow and stuttering update,b,2015-04-25,A Google User,3
yesterday the started crashing on both my phone,b,2015-04-25,A Google User,4
i cleared the data and but adding my account caused the to crash again,b,2015-04-25,A Google User,4
i think ha a problem reading a few thousand mail,b,2015-04-25,A Google User,4
loved it,o,2015-04-25,Ramil Rabi,5
nearly perfect,o,2015-04-25,Ryan Fulcher,5
i love it,o,2015-04-24,Michael Perl,5
use it and recommend to all,o,2015-04-24,Michael Perl,5
the only other program work a well with all my email account is,b,2015-04-24,Bret Carlin,5
been using it for many year,b,2015-04-23,Jeffrey Angle,5
never had a problem,o,2015-04-23,Jeffrey Angle,5
it worked well,o,2015-04-23,Nelson Abulity,4
download and enjoy,o,2015-04-23,Nelson Abulity,4
used for now it crash or blank out all the time,b,2015-04-23,Andrew Davis,2
love it,o,2015-04-23,Roy Garda,5
i like it,o,2015-04-23,paulo msonde,5
however the is back to working,o,2015-04-23,Timothy Holland,5
fetching my mail just like it used to,b,2015-04-23,Timothy Holland,5
thanks,o,2015-04-23,Timothy Holland,5
,o,2015-04-23,Janish Waran,5
tapping the star on the right hand side in list view will cause the list to scroll,b,2015-04-22,A Google User,2
progress bar downloading an attachment would be welcome,o,2015-04-22,A Google User,2
sometimes drop connection to server on 50 update,b,2015-04-22,jon beatty,4
the worst part of getting a new phone or tab is having to add all your email address back in,b,2015-04-22,Jasen Paulson,5
i have a lot,o,2015-04-22,Jasen Paulson,5
good,o,2015-04-22,Chhin Sat,5
i can see what you did here with the name p great,f,2015-04-22,Stephanie Croix,5
excellent service,o,2015-04-21,Akhlaq Ahmed,5
nice one,o,2015-04-21,chetan ghatage,5
,o,2015-04-21,maria atillo,5
but network is up it start again,b,2015-04-21,A Google User,4
great,o,2015-04-21,lek klinvibul,5
,o,2015-04-21,jay fajardo,5
but lately on my lg with latest android update it is very slow opening and displaying my email,b,2015-04-20,William Yee,3
raj,o,2015-04-19,Raj Qureshi,4
you have a slow and not a lot of or if you just like to do a lot of switching back and forth between is the lightest and quickest,b,2015-04-19,Henry Baumgaertner,5
or you have a fast device with a lot of memory to is best in functionality,b,2015-04-19,Henry Baumgaertner,5
with no ad,b,2015-04-19,Henry Baumgaertner,5
ha,b,2015-04-19,Henry Baumgaertner,5
love,o,2015-04-19,Ali Haydar,5
can you make sync server deletion effect current sync period,b,2015-04-19,Srinivas V,5
i want to initially sync all,b,2015-04-19,Srinivas V,5
then reduce sync period to today and enable sync server deletion and want to still have all my mail too,b,2015-04-19,Srinivas V,5
this will save my data plan,b,2015-04-19,Srinivas V,5
,o,2015-04-19,Abdullah Khan,5
used a long time ago and felt it had promise of being really good,o,2015-04-19,Jim E Johnson Jr,5
not downloading all mail and notification not working lollipop update,b,2015-04-18,Geoff Jamieson,3
i note others having the same problem,b,2015-04-18,Geoff Jamieson,3
,o,2015-04-18,lin sky,5
i keep getting null pointer exception and it erase my email of this,o,2015-04-17,T Hughes,1
no response from the developer,b,2015-04-17,T Hughes,1
work,o,2015-04-17,Stark Ravin,5
trying out the i decide,b,2015-04-17,Jodi Jones,3
otherwise the is the best mail i have tried,b,2015-04-17,Chi Fai Chan,5
description,o,2015-04-16,hong limeng,5
superb,o,2015-04-16,Noshad khan,5
i loved it,o,2015-04-16,Noah Machivei,5
loving my world,o,2015-04-16,Angelina S Leahy trust,5
why,o,2015-04-16,Kiko Kikus,1
best,o,2015-04-16,sameer shekh,3
excellent,o,2015-04-15,muhmmad yahyakhan,5
this is a but not email,b,2015-04-15,Second Impulse,2
update oh hell no,b,2015-04-15,Second Impulse,2
recent update have stopped push email from working,b,2015-04-15,Carl Tovey,1
server on,b,2015-04-15,Carl Tovey,1
galaxy android 50,o,2015-04-15,Carl Tovey,1
mp,o,2015-04-15,,5
no option of using,f,2015-04-15,rohit chauhan,1
not useful for me,o,2015-04-15,rohit chauhan,1
i have had problem i am on or on mobile service,b,2015-04-15,Alicia Ruttinger,3
common denominator is,o,2015-04-15,Alicia Ruttinger,3
i cant receive mail anymore,b,2015-04-13,Victoria Wu,2
can someone fix this,b,2015-04-13,Victoria Wu,2
this is the school approved for mail,o,2015-04-13,Victoria Wu,2
working with office yahoo and other provider,b,2015-04-12,Arturo R.,5
just need improvement in mime,f,2015-04-12,Arturo R.,5
very customizable,b,2015-04-11,Ed Workndawg,5
i wa able to turn off the stupid looking colored balloon next to each contact,b,2015-04-11,Ed Workndawg,5
who want that,o,2015-04-11,Ed Workndawg,5
this is my business not my 3 yr old the font size is adjustable for each and every section,b,2015-04-11,Ed Workndawg,5
brings mail from several account into one stream you which i do,b,2015-04-11,Ed Workndawg,5
can select multiple email at for deletion,b,2015-04-11,Ed Workndawg,5
delete one email at a time,b,2015-04-11,Ed Workndawg,5
are you me,o,2015-04-11,Ed Workndawg,5
no artistic ability or creativity left,f,2015-04-11,Ed Workndawg,5
for now,o,2015-04-11,Ed Workndawg,5
cannot access state email the update,b,2015-04-11,Kala LePera,2
super,o,2015-04-11,Gergely Králik,5
32915 stopped working,b,2015-04-10,Gerald McGhee,2
great what happen,b,2015-04-10,Gerald McGhee,2
retrieving my mail from a the time and date shown is the current instead of the time that the mail actually arrived at the server,b,2015-04-10,Cirrus Clouds,4
hope there is a setting i can fix this,b,2015-04-10,Cirrus Clouds,4
1,o,2015-04-10,,1
like,o,2015-04-10,Min Sit Naing,5
,o,2015-04-10,Syed Az Bukhari,5
i delete my mail but after a they are back,b,2015-04-09,King David,1
why,o,2015-04-09,King David,1
i checked it should delete directly from the server,b,2015-04-09,King David,1
i used to use this all the time for my email need,b,2015-04-09,Shannon Honadle,4
i probably need that more mark read and reply,b,2015-04-09,Shannon Honadle,4
i have been using for over a year and love it,o,2015-04-09,Stefaniya G.,5
nice,o,2015-04-08,Unity Mahanand,5
very satisfied thus far,o,2015-04-08,Wade Boaz,5
wow very nice,o,2015-04-08,Ko Ko Zaw,5
,o,2015-04-08,mn tarek,5
,o,2015-04-08,arnel dagalla,5
crash upon checking credential,b,2015-04-07,Mac Racan,1
work,o,2015-04-07,Gaudham P,5
please provide support,f,2015-04-07,N RVL,4
the best mail,b,2015-04-07,Alexander Iordanov,5
a truly email application,o,2015-04-06,John Mason,1
a few issue,b,2015-04-06,Andy Stapleton,4
it appears to stall often on and requires killing and restarting it will finally pickup mail from the account,b,2015-04-06,Andy Stapleton,4
amazing,o,2015-04-05,Dan Berens,5
work fast on my no much faster or any other,b,2015-04-05,Milanko Žegarac,5
ever update it almost unusable,b,2015-04-04,Ronda Densford,1
are you working on a fix,b,2015-04-04,Ronda Densford,1
is there something i can do on my end,o,2015-04-04,Ronda Densford,1
possibly work but who ha the time so many configure first time,b,2015-04-03,matthew palmer,1
updated review 3 to 1 star,b,2015-04-03,Judy Andersen,1
these flaw grate on me every time i use,o,2015-04-03,Judy Andersen,1
good luck,b,2015-04-03,Judy Andersen,1
i give up,o,2015-04-03,Judy Andersen,1
i found type mail now,b,2015-04-03,Judy Andersen,1
much better,o,2015-04-03,Judy Andersen,1
what a relief to not fight my email,b,2015-04-03,Judy Andersen,1
wish they could better the though,f,2015-04-03,Jayendran Ramani,5
a very powerful client,o,2015-04-03,Jayendran Ramani,5
what address is it asking for,b,2015-04-02,Kerry Lynch,1
say incorrect password,b,2015-04-01,Col Buck,2
tried logging in with,b,2015-04-01,Roland Oldengarm,1
no formatting,b,2015-04-01,Roland Oldengarm,1
error state i need application specific password,b,2015-04-01,Roland Oldengarm,1
this cannot handle two factor,b,2015-04-01,Roland Oldengarm,1
bye,b,2015-04-01,Roland Oldengarm,1
i have used for several year,o,2015-03-31,Chandresh Shah,5
it is and extremely user friendly,b,2015-03-31,Chandresh Shah,5
pretty soon i discovered all look good is not necessarily great,o,2015-03-31,Chandresh Shah,5
i keep on going back to,o,2015-03-31,Chandresh Shah,5
nothing beat the flexibility and functionality,f,2015-03-31,Chandresh Shah,5
i manage multiple including,b,2015-03-31,Chandresh Shah,5
i have been using this for year and have had zero complaint,o,2015-03-31,Isaac Litzenberger,5
it is very feature rich and visually appealing,f,2015-03-31,Isaac Litzenberger,5
this may not be the but no other come close to the option this one provides,f,2015-03-31,Balaji Kothandapani,5
just period,o,2015-03-31,,5
there is nothing else to really,b,2015-03-31,,5
i highly recommend it,o,2015-03-31,,5
on all device,b,2015-03-30,Oliver Crisp,5
khan,o,2015-03-29,arif khan,1
k 9 mail,o,2015-03-28,satish pagare,1
the best,o,2015-03-28,Kim Oluyor,5
i like it,o,2015-03-28,Moutsam Bhatti,5
thank you it an awesome,o,2015-03-27,Guru Gq,5
defeat the purpose of the,f,2015-03-27,David PC,1
they all work with the and no problem,o,2015-03-27,David PC,1
it liked,o,2015-03-26,Chandhra Mohan Voleti,5
i had went back to the stock and for a bit but now i have come back to and am now questioning why i ever great,o,2015-03-26,A Google User,5
get an error during update on nexus 7,b,2015-03-26,Jeff Rulifson,1
cannot figure out how to post bug on website,b,2015-03-26,Jeff Rulifson,1
will rate 5 star successful update,b,2015-03-26,Jeff Rulifson,1
this all worked fine my employer switched to office 365,b,2015-03-26,Archie Campbell,3
can still read email but not send,b,2015-03-26,Archie Campbell,3
disappointed,b,2015-03-26,Archie Campbell,3
easy to set up and far better any other mailbox,o,2015-03-25,,5
top work,o,2015-03-25,,5
many email,b,2015-03-25,Rod Somethin,5
this one doe everything i need it for free doe it well and without,o,2015-03-25,Rod Somethin,5
leaf my message on the server i delete from the phone work with,b,2015-03-25,Rod Somethin,5
i really like the simple design,o,2015-03-25,Hanisah Ahmad Zaki,4
you can view multiple email account at once,b,2015-03-25,Hanisah Ahmad Zaki,4
however i wish this have a selection you delete email if you just want to delete the email on the device or both on the device and serve,b,2015-03-25,Hanisah Ahmad Zaki,4
consider adding this,o,2015-03-25,Hanisah Ahmad Zaki,4
cute but useless,o,2015-03-25,Cheri Jackson,1
i have wrote many time but no body pay a interest over this issue,b,2015-03-24,Uma Shankar Bareth,2
may seem petty but is a deal breaker for me 999 of the crappiest of crappy allow you to customize notification not this one,f,2015-03-24,Tefoak Doe,1
i really liked this and would have given it a 5 a couple of month ago,b,2015-03-23,Paule-Marie B,3
i keep trying to remove and set them up again without any luck,b,2015-03-23,Paule-Marie B,3
hopefully there will be another update will correct this,b,2015-03-23,Paule-Marie B,3
good,o,2015-03-23,Kevin Regan,4
apparently on android 44 third party do not have right to write on secondary external device card,b,2015-03-22,Martinko Pcik,3
is why all of the mail client have this limitation except of course,b,2015-03-22,Martinko Pcik,3
android update some message do not show on screen,b,2015-03-22,W courageous,2
i get a tiny line to see,b,2015-03-22,W courageous,2
i hit reply i can see the full message,b,2015-03-22,W courageous,2
,o,2015-03-22,W courageous,2
unable to link exchange server,b,2015-03-21,George Grace,1
i have used this email for year now,b,2015-03-21,A Google User,5
used it for the first time on the original now using on lg,b,2015-03-21,A Google User,5
keep getting better with each absolutely love it,o,2015-03-21,A Google User,5
super,o,2015-03-21,Perpetual Ocheja,5
doe everything i need it to,o,2015-03-20,,5
work beautifully with,b,2015-03-20,,5
i use this for all my mobile device,b,2015-03-20,,5
used to a very solid for year now it crash all the time and lot of problem sending mail,b,2015-03-19,Anthony DiBello,2
it a something changed with these guy,b,2015-03-19,Anthony DiBello,2
love it,o,2015-03-19,Akinkunmi Rotimi,5
it sometimes display email completely but it scroll a the content wa there,b,2015-03-19,John Smith,4
thank you,o,2015-03-19,Lu Bo,5
then on march i suddenly stopped getting mail,b,2015-03-18,McClain Fultz,2
it might be the update for the on my galaxy,b,2015-03-18,McClain Fultz,2
please fix,b,2015-03-18,Heather Pedersen,2
super yet still easy for the novice user,o,2015-03-17,David Alexander,5
i get error message trying,b,2015-03-17,Alex Afshar,2
best one ever,o,2015-03-17,A Google User,5
nice,o,2015-03-17,Ali Mustkeem,5
i have been using this for a and i find it relatively better compared to other in the market,b,2015-03-17,Venkatraman Srinivasan,4
can be made better,o,2015-03-17,Venkatraman Srinivasan,4
a,o,2015-03-17,Delseibo Robinson M.,5
i must go into the site and touch refresh to get my message,b,2015-03-16,Donna Sebastian,3
very nice and good,o,2015-03-16,Kimani Boro,5
love,o,2015-03-16,ebin.c .chandy,5
nice one,o,2015-03-16,Milindtrivedi Karnatak,5
five star,o,2015-03-15,Paul Boldra,5
it is the best open source email for android,b,2015-03-15,M Prindle,5
better then older one,o,2015-03-15,Sid magdum,5
cant find to add a 2nd account,b,2015-03-15,Jeandre Mare,1
cant change the server type of an already created account,b,2015-03-15,Jeandre Mare,1
for the life of me find to delete an and cant believe people are so perhaps i expect more a system administrator,b,2015-03-15,Jeandre Mare,1
trying to fine out why my sync is disabled,b,2015-03-14,Julia Bailey,3
are my first impression good,o,2015-03-14,Phil Lewin,4
affirmative,o,2015-03-14,Phil Lewin,4
great,o,2015-03-14,Mike Gross,5
always and get fix really fast,b,2015-03-14,Cyprien Laplace,5
work everything is at my fingertip,o,2015-03-14,D Cuba,5
i have always used this on my phone and is very no problem at all,b,2015-03-14,Chris Dodson,5
they fixed the server issue and continue to keep it a stable email,b,2015-03-14,Jennifer Polis,5
doe everything i need it to,o,2015-03-14,Jennifer Polis,5
thanks for making a great,o,2015-03-14,Jennifer Polis,5
easy to setup account and use,o,2015-03-14,J Johnston,5
everything is but change this dog icon to something more,b,2015-03-14,Konrad Kokosa,5
yep,o,2015-03-13,Richard Smith,4
fixed crashing updating to 52 or something,b,2015-03-13,Richard Smith,4
work well for multiple account,b,2015-03-13,Janey Anderson,5
can export all account setting to a new device which is very convenient managing multiple account with different domain,b,2015-03-13,Janey Anderson,5
hi it great,o,2015-03-13,Gary Ashton,5
need filtering but wa the 1 of the only email client i could find allowed you to select all message and delete them at once,b,2015-03-13,Kevin Hisel,5
update vicious bug with 51 a message crash the,b,2015-03-13,Kevin Hisel,5
wow,o,2015-03-13,Kevin Hisel,5
this is the best email ever,b,2015-03-13,Martin Smith,5
everything i need,o,2015-03-13,Mackie Tucciarone,5
on android force close anytime one or more email are from the left side list,b,2015-03-13,R.D. Vaughan,4
all other appear to work,o,2015-03-13,R.D. Vaughan,4
this is true both on my nexus 10 and 5 now that they run android did not have any issue with android hopefully this will be fixed soon,b,2015-03-13,R.D. Vaughan,4
i love it,o,2015-03-13,Osmar Malarkhin,5
doe not allow me to assign a signature to my mail,f,2015-03-13,Soli Engineer,4
it allows text input,o,2015-03-13,Soli Engineer,4
in and other i can sign a scanned of my signature,b,2015-03-13,Soli Engineer,4
the ease of use and the ability to customize every little detail make an unbeatable combo,o,2015-03-13,Jon Racioppi,5
it doe multiple email account and you can set up each account separately also have it leave email on server or have it deleted and transfer your setting,b,2015-03-13,jacier padron,5
very good simple and easy to use,o,2015-03-13,Sofyan Dwi Hadi,4
