# deletions,date,commit message
1876,2014/7/12,Format code
11,2014/7/12,Reset Butterknife when destroying fragment views
13,2014/7/12,Review resources
6,2014/7/12,Review menus
48,2014/7/12,Review layouts
10,2014/7/12,Use class simple name for tags
42,2014/7/12,Update Gradle plugin version
0,2014/7/12,Remove duplicated assets folder
33,2014/1/01,Remove .project file
7,2014/1/01,Externalize commons io version number
4,2014/1/01,Use android-apt plugin
21,2014/1/01,Add dependencies
1,2014/1/01,Add dependencies
137,2014/1/01,Use a Gradle like directory structure
29,2014/1/01,Remove IDE config files + submodules
