Topic Index 1,Topic Index 2,Topic Similarity
0,14,3.6820000000000004
13,5,2.553
12,4,1.092
6,12,0.812
2,2,0.6901
1,1,0.41609999999999997
4,19,0.3432
17,13,0.25830000000000003
10,0,0.1824
3,3,0.0
5,6,0.0
7,7,0.0
8,8,0.0
9,9,0.0
11,10,0.0
14,11,0.0
15,15,0.0
16,16,0.0
18,17,0.0
19,18,0.0
