# deletions,date,commit message
2,2014/1/19,Prepare for 4.1.3
1401,2014/1/19,Allow completion and uncompleting of tasks from CAB
3,2014/1/18,Allow adding of tasks at beginning of file.
3,2014/1/14,Also Add Task correctly when cloudless and dropbox versions are installed
3,2014/1/14,Add task from lockscreen widget without unlocking
12,2014/1/13,Use css for markdown
1,2014/1/13,Proper relative URL
1,2014/1/13,HTML width test
1,2014/1/13,Right align test
1,2014/1/13,CSS text wrapping test
1,2014/1/13,Set main screen as parent of Help screen
3,2014/1/13,Allow displaying images in help
24,2014/1/13,Added gitignore
1,2014/1/13,Fixed lvimrc comment
1,2014/1/12,Use relative link
2,2014/1/12,Fix unit test build
288,2014/1/12,Add help screen with ChangeLog
10,2014/1/12,Add setting to only show txt files in file dialog
437,2014/1/12,To latest
2,2014/1/08,Change website URLs
24,2014/1/07,Remove fossil config files
13,2014/1/06,Move Dropbox activity from main manifest
3,2014/1/06,Removed unused resources and fixed some other lint issues
2,2014/1/06,FDroid 4.1.3
179,2014/1/06,Don't include dropbox in cloudless releases and remove donate versions
6,2014/1/05,Fix for loop error multiple edit
5,2014/1/05,4.1.2
6,2014/1/05,Only load script once from autocmd
1,2014/1/05,Default wordwrapping on fixes [b9d50110]
1,2014/1/04,Renamed local vimrc
17,2014/1/04,Edit multiple tasks
1,2014/1/02,Include title of ticket in the email notification
44,2014/1/02,Updated project specific vimrc
22,2014/1/02,Archive selected tasks
5,2013/12/31,Fix build
2,2013/12/31,Updated to gradle plugin 0.7.+
45,2013/12/31,Hide lists
608,2013/12/31,Prepare hide empty lists setting
2,2013/12/29,4.1.1
1,2013/12/29,Fix crashes with invalid create date
2,2013/12/29,Fix crash with invalid dates
6,2013/12/27,Renamed project s[ecific vimrc
5,2013/12/27,Switch to FuzzyFinder
2,2013/12/27,4.1.0
7,2013/12/27,Fixed issue with hidden field at beginnig of task
6,2013/12/25,Support for hidden tasks
1,2013/12/23,Typo in ChangeLog
6,2013/12/23,* Don't crash on tha '++tag' when show tags is unchecked. Fixes [9c5902].
34,2013/12/22,Remove ST2 config files
0,2013/12/22,Moved documentation
583,2013/12/22,4.0.9
35,2013/12/21,Add list and tag show filters fixes [ce9f35]
5,2013/12/21,Use AsyncCommand bundle
2,2013/12/18,Start builds from within vim
2,2013/12/17,Ignore workspace file in project
2,2013/12/17,Allow setting of multiwrap
25,2013/12/17,Update project info
14,2013/12/17,Use build flavors
1,2013/12/17,Support Sublime Text 2
1,2013/12/16,Updated changelog
1,2013/12/16,Sort lists in AddTask popup
1,2013/12/16,Setting to capitalize tasks. Fixes [99f980]
3,2013/12/16,Setting to capitalize tasks. Fixes [99f980]
2,2013/12/15,4.0.8
4,2013/12/14,Only send ticket mail if request from localhost
2,2013/12/14,Updated ticket hook script
2,2013/12/14,Add task straight away with 'Share' add setting for old behavior
3,2013/12/14,4.0.7
2,2013/12/13,Typos
94,2013/12/13,Simplified ChangeLog
8,2013/12/13,Add widget transparency
1,2013/12/13,Typo
1,2013/12/12,Remove explicit null check
2,2013/12/12,4.0.6
1,2013/12/12,Fix NPE in onNewIntent
2,2013/12/11,4.0.5
5,2013/12/11,Fix [412a715]
2,2013/12/11,4.0.4
2,2013/12/11,Fix issue with unsorted or duplicate headers
2,2013/12/11,4.0.3
10,2013/12/11,Fix unit tests for JodaTime
3,2013/12/11,4.0.2
6,2013/12/11,Renamed replace filter to update filter
5,2013/12/11,Allow renaming and updating of saved filters
1,2013/12/11,Use checked items in left drawer it looks cleaner
169,2013/12/10,Used JodaTime throughout
5,2013/12/10,Fix AddTask black theme
1,2013/12/10,Updated Add filter description
3,2013/12/10,4.0.0
48,2013/12/10,Code cleanup
1,2013/12/10,Fixed tablet mode
1,2013/12/10,Updated changelog and missing file
61,2013/12/10,Right drawer works perfectly
6,2013/12/10,Adding filters works
37,2013/12/10,Right filter shortcuts
9,2013/12/10,add right drawer
2,2013/12/09,Smaller drawer list headers
2,2013/12/09,Updated padding
5,2013/12/09,Fix icon ordering in action mode
27,2013/12/09,Removed unneeded settings and preferences
32,2013/12/09,Added action icons for list and tag context menus
21,2013/12/09,Remove unneeded completion context menus
1,2013/12/09,Complete uncomplete by checking checkbox
11,2013/12/09,Proper clicking behavior
28,2013/12/09,Checkboxes for completing tasks
58,2013/12/09,Always have dark navigation drawer 2
83,2013/12/09,Always have dark navigation drawer
3,2013/12/09,Revert simple widget display to 3.x appearance
18,2013/12/09,Allow updating tags and lists from main activity
209,2013/12/09,Remove unneeded resources
10,2013/12/09,Remove unneeded code
32,2013/12/09,Remove create shortcut function it will move to the shortcut drawer
34,2013/12/09,Remember last selected tab in filter activity
42,2013/12/09,Allow disabling of confirmation dialogs
15,2013/12/09,Allow disabling of all edittext hints
5,2013/12/09,Implement up behavior for AddTask activity
6,2013/12/09,Show tags from tasks being added in popups
16,2013/12/09,Updated list and tag dialogs to allow adding a new one
1,2013/12/08,Update light drawer color
2,2013/12/08,Fix tablet layout
34,2013/12/08,Correctly order menu items
26,2013/12/08,Let Drawer follow app theme
18,2013/12/08,Moved not display state into drawer header
9,2013/12/08,Navigation drawer not state display works
7,2013/12/08,Navigation draweer works
2,2013/12/08,Navigation draweer custom adapter
1,2013/12/08,Highlight selected items
678,2013/12/08,Navigation drawer redesign
1,2013/12/08,Add setting to hide hints in Add task
57,2013/12/08,Updated Add Task screen
1,2013/12/08,Link to website for help
1,2013/12/07,Align header titles on right to make them more distinct
4,2013/12/07,Undo title changes it will not give extra space for the menu items
1,2013/12/07,Show application label in launcher
5,2013/12/07,Make high prios more visually distinct
8,2013/12/07,Make multiline toggle less intrusive
2,2013/12/07,Fix cursor behavior when updating task
5,2013/12/07,Simplified activity titles
13,2013/12/06,Fixed relative task age
5,2013/12/06,Priorities work for completed tasks
2,2013/12/06,Setting threshold date really works
4,2013/12/06,Setting due and threshold dates works:
8,2013/12/06,Due and threshold dates display correctly
136,2013/12/06,Most getters work
12,2013/12/06,getPriority works
133,2013/12/06,Compiles
6,2013/12/06,Code updates remove inline string
16,2013/12/05,Simplify version number
7,2013/12/04,Support due and threshold dates
282,2013/12/04,Starting task refactor
3,2013/12/02,Moved to SDK 19
98,2013/11/22,No need for specific developement build anymore
2,2013/11/21,3.2.2
5,2013/11/20,Make landscape view configurable
2,2013/11/12,3.2.1
7,2013/11/12,Renamed parameter
2,2013/11/12,Also work correctly with hardware keyboards
11,2013/11/11,Fix newline in addtask for soft keyboards hardware keyboard still needs testing
1,2013/11/11,Don't treat all files as binary it breaks automatic merging
2,2013/11/11,3.2.0
8,2013/11/11,Change widget to show extended view
2,2013/11/07,3.1.0
18,2013/11/07,Added setting to recur from original task dates
4,2013/11/06,Remove unneeded minSDK from unit flavor
2,2013/11/06,3.0.12
1,2013/11/06,Fix [735b60b]
2,2013/11/05,Even more typos
1,2013/11/05,Typos
4,2013/11/05,Typos
1,2013/11/05,Fix link
1,2013/11/05,Document choice for lists/tags fixes [69c2a67]
20,2013/11/04,Keep it DRY
2,2013/11/04,3.0.11
3,2013/11/04,Fix regression [29a67a72c9]
1,2013/11/04,Fix [2099067b84]
2,2013/11/01,3.0.10
2,2013/10/30,Updated gradle
3,2013/10/30,Keep priority on recurring tasks:
3,2013/10/30,Use more space for navigation drawers
4,2013/10/09,Remove spurious widget padding
9,2013/10/07,Updated version descriptions
1,2013/10/07,Updated links
1,2013/10/07,Updated links
4,2013/10/07,Updated links
4,2013/10/07,Moved documentation from wiki for better version control
2,2013/10/06,Don't fail build with missing manifest.uuid
2,2013/10/05,3.0.9
4,2013/10/05,Make extended left drawer configurable
5,2013/10/04,3.0.8
31,2013/10/04,Change completed and future filter from left navigation drawer
2,2013/10/02,3.0.7
11,2013/10/02,Fixed [f35cd1b] using Joda time
37,2013/10/02,Added test case for [f35cd1be]
21,2013/10/02,Added test case for [f35cd1be]
2,2013/10/01,3.0.6
7,2013/10/01,Work around Android bug https://code.google.com/p/android/issues/detail?id=34860
2,2013/10/01,3.0.5
1,2013/9/30,Changed Back Button setting title
6,2013/9/30,Don't reset completed and future task filter when clearing filter. Fixes [e135153]
2,2013/9/28,Setting to apply filter on pressing back
2,2013/9/28,Fix crash in Other Filter after several rotations
2,2013/9/24,3.0.4
35,2013/9/24,Configurable Back behavior from Add Task screen
35,2013/9/24,Redo deferal dialogs to be one click
1,2013/9/21,Updated Changelog
2,2013/9/21,3.0.3
1,2013/9/21,Set cloudless triggers on correct file
2,2013/9/21,Fix [d42a6540b1]
11,2013/9/20,Fix crash on start with cloudless
2,2013/9/20,3.0.1
2,2013/9/20,Don't fail if FileDialog is passed a path which is not a directory
2,2013/9/20,Ensure that the open dialogs always get a path
1,2013/9/20,getTodoFile should never return null
26,2013/9/19,Sync with Dropbox onRestart or onCreate
2,2013/9/19,3.0.0
1,2013/9/19,Fix issue with stale done.txt when switching todo files
7,2013/9/19,Don't crash opening file and dropbox is not connected
2,2013/9/19,Fix crash in open Dropbox todo if sharedpreference todo_file is not set
60,2013/9/19,File selection for Dropbox
59,2013/9/19,Select file for Cloudless version
6,2013/9/18,2.9.1
2,2013/9/18,2.9.1
5,2013/9/18,Make extensions case insensitive fixes [8f1dc5c2]
1,2013/9/18,Move save button back to bottom
1,2013/9/17,Updated ChangeLog
61,2013/9/17,Redid Add Task screen
5,2013/9/17,Fix issue with set threshold date not working
2,2013/9/16,Prepare for release build
1,2013/9/16,Fix ChangeLog URL
10,2013/9/16,Removed unused methods
57,2013/9/16,Allow setting due and threshold date from Add Task screen
3,2013/9/16,Show correct titles for date dialogs
41,2013/9/16,Set due/threshold date from main screen
12,2013/9/16,Start of recurrence in tasks
2,2013/9/15,Typos
4,2013/9/15,Updated MYN description with new filters
2,2013/9/15,2.8.2
5,2013/9/15,Allow filtering completed and future tasks
3,2013/9/15,Use gradle daemon
1,2013/9/10,Same build for all versions
2,2013/9/10,2.8.1
7,2013/9/10,Possible fix for Dropbox login loop
9,2013/9/05,Also prefill tasks if one of the items in the filter is '-'
2,2013/9/04,2.8.0: --tag 2.8.0
2,2013/9/04,Allow long click for drag drop [5eeac3e62]
2,2013/9/02,2.7.11
1,2013/9/02,Fix FC in AddTask logging
2,2013/8/31,2.7.10
1,2013/8/31,Fix FC in AddTask
81,2013/8/28,Redesign tablet layout to better use space
6,2013/8/27,Typos
930,2013/8/21,Updated copyright and indentation
2,2013/8/15,2.7.9
5,2013/8/15,Fixed bug [ba497253f6]
2,2013/8/13,2.7.8
1,2013/8/13,Updated buildtools
1,2013/8/13,Updated ChangeLog
4,2013/8/13,Updated SDK versions
10,2013/8/13,Quick access to sort tab
12,2013/8/13,Make colored todo a setting
22,2013/8/13,Don't allow unauthenticated use in dropbox version it can lead to dataloss
21,2013/8/13,Show all dates and color due dates
6,2013/8/13,Don't pre-fill task when filter is inverted
14,2013/8/09,Fixed broken build
2,2013/8/09,2.7.7
18,2013/8/09,Fix crash when opening todo.txt
1,2013/8/09,Comments update
1,2013/8/09,Doc update
3,2013/8/09,Doc update
1,2013/8/09,Finished intent documentation
2,2013/8/09,Extended am example with sort
1,2013/8/09,Updated docs
3,2013/8/09,Updated changelog
2,2013/8/09,2.7.6
5,2013/8/09,Updates for tasker START_WITH_FILTER
2,2013/8/09,2.7.5
2,2013/8/09,Disabled some logging:
6,2013/8/09,Removed unneeded super call
55,2013/8/08,Fixed issue with widget color changes
2,2013/8/08,Colorize tags in widget
5,2013/8/08,Fix default sort button
30,2013/8/08,Use same intent extras as in 2.7.4
49,2013/8/08,Use faster way to determine line terminator
20,2013/8/08,Always reload when asked don't depend on modification times
1,2013/8/08,Updated comments
1,2013/8/08,Removed string literal
3,2013/8/08,Show widget title and hide completed tasks in widget
28,2013/8/08,Removed more global constants
2,2013/8/08,Mostly working
218,2013/8/08,Compiles
266,2013/8/08,Refactor filtering into separate class
3,2013/8/07,2.7.4
54,2013/8/07,Fix multiline mode when updating a task
4,2013/8/07,Fix bug when updating a task doesn't reinitialize the due and defer dates
1,2013/8/05,Explicitly set reminder time to work around braindead calendars
1,2013/8/05,Updated gradle plugin
10,2013/8/05,Remove unused variable
2,2013/8/05,2.7.3
1,2013/8/04,Remember tag cloning status
16,2013/8/04,Better enter handling
2,2013/8/04,Repeat tags from previous lines
1,2013/8/02,Allow archiving from main menu
2,2013/8/02,Add intent receiver to add a task in the background
1,2013/8/01,Cloudeless doesn't need INTERNET permission
2,2013/8/01,Remove some logging
1,2013/8/01,Fix fileobserver
5,2013/8/01,don't stop watching when in background
16,2013/8/01,remove unused constants
102,2013/8/01,Make broadcast intents package specific
14,2013/8/01,Merging cloudless variant
0,2013/7/31,Updated completing icons to make them different from CAB done icon
2,2013/7/30,2.7.2
16,2013/7/30,Don't crash in navigation drawer demo
38,2013/7/30,2.7.1
8,2013/7/27,Add dark widgets
3,2013/7/26,Remove default template from method
45,2013/7/26,Remove font size preference it's expensive
35,2013/7/26,Only access preferences from one spot don't let widgets reload the taskbag
9,2013/7/26,Only retreive context in one way
89,2013/7/26,Changed some fossil settings no more need for iml files Android Studio recreates them
1,2013/7/26,Restore proper free version package name
44,2013/7/26,Use packagename nl.mpcjanssen.simpletask in sources
1,2013/7/26,Use packagename nl.mpcjanssen.simpletask in sources
3,2013/7/26,Fix build in Android Studio
2,2013/7/26,Extend version info with type of the app and fossil UUID
1,2013/7/26,Updated changelog
1,2013/7/26,Updated changelog
1,2013/7/26,2.7.0
27,2013/7/26,Don't sync when logging out
25,2013/7/26,Demonstrate drawers on first launch
1,2013/7/26,Don't clear all shared preferences when logging out
1,2013/7/26,Use theme text color for prios > D
45,2013/7/26,Generalized header creation
2,2013/7/26,Fixed issue with removeTag
43,2013/7/26,Add threshold date grouping
1,2013/7/25,Typo
4,2013/7/25,Some missing edits from last merge
1,2013/7/25,Fix alphabetical sort bug
2,2013/7/25,2.6.10
3,2013/7/25,Really fix widgets
1,2013/7/25,Fix widget bug
4,2013/7/25,Fix horrible FC by debug statement
4,2013/7/25,Properly show drawerlists when starting from shortcuts or widgets
6,2013/7/25,Fixed issues with widgets and shortcuts
2,2013/7/25,Proper themed drawables for sort tab
7,2013/7/25,Add support for dark theme
35,2013/7/25,More Task testcases
1,2013/7/25,Updated ChangeLog
4,2013/7/24,Refresh view when updating via drawers
2,2013/7/24,2.6.7
8,2013/7/24,Detect eol and retain the one used in the todo.txt file
88,2013/7/24,Really fixed the duplication bug
4,2013/7/24,Don't reload the taskbag when pushing it leads to duplicates
1,2013/7/24,Renamed the develpment version
14,2013/7/24,Remove donate setting as there is a seperate donate version now
2,2013/7/24,2.6.5
2,2013/7/23,Fixed test case package names
57,2013/7/23,Some gradle changes
66,2013/7/23,No more pulltorefresh submodule
1398,2013/7/23,Removed pulltorefresh dep it's overkill
16,2013/7/23,Use different dropbox keys for different builds
2,2013/7/23,Remove unneeded todotxtholo name from activity aliases
2,2013/7/23,2.6.3
20,2013/7/23,Also allow defer by due date
15,2013/7/22,Use task thresholds t:.. for 1MTD instead of creation date
2,2013/7/22,2.6.2
5,2013/7/22,Fix bug [a7248d85e]
7,2013/7/21,Added unit testing
78,2013/7/20,CLI build only IDE builds give me a headache
4,2013/7/20,Updated Task test cases
11067,2013/7/20,Remove left over subproject
690,2013/7/20,Ensure nested build artifacts don't get re-added
11795,2013/7/20,Remove build artifacts
2042,2013/7/20,Unit testing works from gradle
420,2013/7/20,Moved to gradle
17,2013/7/19,Put cursor at end when editing tasks
12,2013/7/19,Confirm deletion
11,2013/7/19,Close search dialog when searching
1,2013/7/19,Fix issue with text search results not displaying
2,2013/7/18,2.6.0
10,2013/7/18,Widget title click does the right thing
13,2013/7/18,Click on title works without breaking listview click
10,2013/7/18,Select clicked task when clicking in widget
2,2013/7/16,2.5.2
6,2013/7/16,Add lists correctly from navigation bar and don't close app when clearing filter in search
14,2013/7/15,Allow deferal to specific date
2,2013/7/15,2.5.1
14,2013/7/15,Don't allow invalid tags or lists to be added
2,2013/7/15,Updated tablet layout
2,2013/7/15,Make buttons more discoverable
2,2013/7/14,Thinner separators
11,2013/7/13,Negate filters in drawes. Tablet still needs to be done
0,2013/7/12,Updated play store tablet screenshots
3,2013/7/12,Release candidate for 2.5.0
69,2013/7/12,Updated UI
3,2013/7/12,Remove background syncing on start
120,2013/7/12,Most filtering and task updating can be don from the sidebar
29,2013/7/12,Change tasks from sidebar window
1,2013/7/11,Updated phone number parser
11,2013/7/11,Use proper way to update CAB
47,2013/7/11,Allow multiple selections for adding tags and contexts
23,2013/7/10,Allow multiple selections for adding tags and contexts
2,2013/7/10,2.4.1
15,2013/7/08,Fix some lint warnings
2,2013/7/08,Changes for building with Android Studio
14,2013/7/08,Organized imports
2,2013/7/08,Removed some hardcoded strings
2,2013/7/08,Add tag or list in context menu and tomorrow defer option
2,2013/7/07,2.4.0
43,2013/7/07,Landscape tablet layout
68,2013/7/05,Don't track binaries
385,2013/7/05,We only support a single locale
2794,2013/7/05,Fixed crash with preferences screen and removed unneeded dependencies
2,2013/7/04,2.3.3
2,2013/7/04,Fix build from CLI with dependency
5,2013/7/04,Don't track build.bat it's system specific
2,2013/7/04,Fix issue with refreshing after activity is restarted
1,2013/7/04,Also offer sync from menu for long lists
82,2013/7/04,Restore default sort and pull to refresh
25,2013/7/01,Remove unneeded files
0,2013/7/01,Updated widget preview
43,2013/7/01,Redid widget
1,2013/7/01,Fix possible null pointer exception
18,2013/7/01,Renamed main activity class
0,2013/6/30,Updated fossil
1,2013/6/30,Correct classname for widget configure
3,2013/6/30,Update drawerlist behavior
1,2013/6/27,Update build.xml with new java class names
1,2013/6/27,Checked item in drawer gets out of sync too easily
12,2013/6/24,Give feedback on drawer opening
2,2013/6/24,Keep updating drawer toggle even after restarting the activity
2,2013/6/24,Remove unused adapter field
1558,2013/6/24,Changed Java class names plus small bugfixes
14,2013/6/24,Fix [736289bebf]
1,2013/6/24,Update intent when changing list
3,2013/6/23,Fix due:date bug
2,2013/6/23,Missing sorter class
6,2013/6/23,Support sort by due:date
3,2013/6/23,Fix [21516fdc7f]
2,2013/6/23,2.2.8
89,2013/6/23,Side drawer for changing lists
2,2013/6/22,2.2.7
3,2013/6/22,Fixed [1c5271ee2e]
2,2013/6/21,2.2.6
51,2013/6/21,Added deferring of tasks and sort on future or not
1,2013/6/21,Refer to Simpletask in Share Task
2,2013/6/20,2.2.5
7,2013/6/20,Increase filter efficiency
2,2013/6/19,2.2.4
8,2013/6/19,Add note to self
71,2013/6/11,Remove shortcut versioning YAGNI
77,2013/6/11,Change popups to Alert Dialogs to better use screen estate
3,2013/6/07,We don't need android support lib on newer devices
2,2013/6/07,2.2.3
1,2013/6/06,File order is equivalent to unsorted
1,2013/6/05,Add link to fossil issue tracker
1,2013/6/05,Update website address
79,2013/6/05,Reformated Manifest
0,2013/6/05,Added multisort screenshot
2,2013/6/05,2.2.2
2,2013/6/05,Add widget preview
11,2013/6/05,Don't crash on start because of integer sorts
2,2013/6/04,2.2.1
5,2013/6/04,Make file sorting work
2,2013/6/04,2.2.0
1,2013/6/04,Don't duplicate items when switching from sort tab and back
166,2013/6/04,Removed tests
117,2013/6/04,Remove unneeded single sort fragment
4,2013/6/04,Rephrased help
20,2013/6/04,Use constants for sorting and re-add donate
1,2013/6/04,Extra null protection for sort
4,2013/6/04,Specify which groupings are supported and change the default to have completed last
53,2013/6/04,Fixed crashes with adding widget and group items if sort by completion is first
6,2013/6/04,Extra help for sort tab
49,2013/6/04,Widgets use alpha sort
44,2013/6/04,Multisort works
129,2013/6/04,Filter activity works
29,2013/6/03,Make sorts easily reversible
21,2013/6/03,Added sort by creation date (newest first)
2,2013/5/31,Match onRestart with onStop
8,2013/5/31,Don't keep ActionMode active if activity is minimized
2,2013/5/31,2.1.9
10,2013/5/31,Allow any calendar app for reminders
2,2013/5/28,2.1.8
2,2013/5/25,Don't access lines which are not in array
56,2013/5/24,Save filter between app starts
1,2013/5/23,Make numbers with pauses and hashes work for non standard dialer
6,2013/5/23,Don't rename shortcuts on update
2,2013/5/23,Shortcuts finally work reliably
7,2013/5/23,No need for START_WITH_FILTER intent anymore
10,2013/5/23,Re-use activity instead of restarting it when filtering
9,2013/5/23,Add support for email
10,2013/5/23,Reorder main action bar
2,2013/5/23,Better phone number detection also with multiple tasks
145,2013/5/23,Revert to single click for select
2,2013/5/22,2.1.5
9,2013/5/22,Fix prio multiadd with empty lines
14,2013/5/22,Fix prio multi add bug and possible ANR
1,2013/5/22,Show @- in changelist to quickly switch to the inbox
11,2013/5/22,Don't show @- and +- in add and update task
1,2013/5/19,Don't make build samsung device only
2,2013/5/19,2.1.4
2,2013/4/25,2.1.3
6,2013/4/25,Update and reposition uncomplete action
1,2013/4/25,Add icon for uncomplete task
2,2013/4/25,Play store 2.1.2
18,2013/4/25,Remove uneeded priority textview
4,2013/4/25,Remove delete action to make accidental deletion less likely
12,2013/4/25,Re-add syntax highlighting
2,2013/4/25,Play store 2.1.1
992,2013/4/25,Select tasks with checkbox
2,2013/4/24,Rewritten Add task help
1,2013/4/24,Update taskhint
2,2013/4/24,Play Store 2.1.0
10,2013/4/24,Updated icons to better reflect syntax result
9,2013/4/24,Add multiple tasks with enter
2,2013/4/24,Store 2.1.0
1,2013/4/24,Allow negative sp fonts size changes
13,2013/4/24,Keep sort when switching lists
7,2013/4/24,Change font in task list
2,2013/4/23,Play Store 2.0.8
0,2013/4/23,Update dropbox lib to 1.5.4
6,2013/4/22,Fix bug with add from widget
2,2013/4/22,Play store 2.0.6
315,2013/4/22,Add task from widget
2,2013/4/18,Play store release
289,2013/4/18,Updated UI with linkified task view
127,2013/4/17,Redid Add task activity layout
8,2013/4/17,Renamed context to list
1,2013/4/17,Changed list icon
11,2013/4/17,Add consecutive tasks from addtask menu fixes issue [d2f16a3e91]
0,2013/4/12,New version of fossil with Markdown support
2,2013/4/07,New google play release
2,2013/4/07,Autoarchive works again
91,2013/4/02,Fix filter from filter screen
6,2013/4/02,Fix filter from filter screen
8,2013/4/02,Quickly select a context
0,2013/3/21,Off course V14 files are needed
6,2013/3/21,Re-enable text search for devices with HW keyboard
2,2013/3/21,2.0.3
5,2013/3/21,Enable lockscreen widget for JB
2,2013/3/21,2.0.2
21,2013/3/21,Updated widgets
1,2013/3/20,Update widgets on local task changes
188,2013/3/20,Remove unused classes
21,2013/3/20,Use tests
8,2013/3/20,Update widgets when needed
1,2013/3/20,Additional Activity life cycle logging
3,2013/3/20,remove unneeded logging jar
35,2013/3/20,Builds again
2538,2013/3/20,Revert Sync API
35,2013/3/18,Changed icon for new label
5,2013/3/18,Make long sort lists scrollable
4,2013/3/18,Tweaked view of sort filter fragment
84,2013/3/18,Multi level filtering
2,2013/3/18,Use string resources for context and priority change dialogs
9,2013/3/18,Re-add functionality to archive tasks
4,2013/3/17,Undo last change it was caused by out of date R.java
2,2013/3/17,Show correct header for tasks without context or tag:
3,2013/3/17,Re-enable line endings setting:
7,2013/3/17,Make 'Delete Task' more difficult to select
9,2013/3/17,Don't flash Add task activity when adding Add task widget
1,2013/3/16,Make sort by context the default
0,2013/3/16,Remove (mostly) unused native parts of sync API
10,2013/3/15,Reset filter if nothing selected
9,2013/3/15,Test with fossil on Android
173,2013/3/14,Default sort setting
139,2013/3/13,Sync works well in all authentication scenarios
11,2013/3/13,IDEA project files
5,2013/3/13,Don't crash if app is unauthenticated using dropbox web ui
131,2013/3/13,Only wait for initial sync when first logging in
2,2013/3/12,Also refresh file onResume
20,2013/3/12,Remove notification if app goes to background
4,2013/3/12,Filter with Hardware keyboard works
1,2013/3/12,Don't use indeterminate progress
3,2013/3/12,Fix some sync bugs
5,2013/3/12,Unregister listeners when app is off screen
22,2013/3/12,Using notifications is nicer
8,2013/3/12,Show sync progress
3232,2013/3/12,Fixed idea warnings
65,2013/3/12,Remove handling of different shortcut versions
2,2013/3/12,Activity navigation works as wanted
41,2013/3/12,No need to save instance state we recover it from the intent
11,2013/3/12,Restore last filter on launch from main screen
101,2013/3/12,Make list items selectable again
18,2013/3/12,Using standard launchMode fixes CAB not clearing issue
1,2013/3/12,Removed uneccessary find
1,2013/3/12,Fixed bug in update task
78,2013/3/12,Further simplification
16,2013/3/12,Filter is complete
775,2013/3/11,Mostly working
200,2013/3/11,Fixed file already open errors
423,2013/3/11,Close to working
4,2013/3/11,Context filter works
643,2013/3/11,More redesign
478,2013/3/11,Redesign
3,2013/3/11,only reload if taskbag is intialized
3,2013/3/11,start login if needed
160,2013/3/10,Handle more from activity insteado f taskbag
368,2013/3/10,Reload when creating view to display unsynched changes
317,2013/3/10,Only reload taskbag when needed
513,2013/3/10,Cleanup
