# deletions,date,commit message
2,2015/7/25,Fix hang in test suite
85,2015/7/25,Fixed more lint errors
27,2015/7/25,Don't crash if metadata or rev is null
224,2015/7/24,Fixing lint issue
219,2015/7/24,Remove file related functions from todolist so it's testable
4,2015/7/24,6.0.2
3,2015/7/24,Clean some dead code
33,2015/7/24,Add setting for todo.txt terminology. Fixes #242
30,2015/7/24,Fixed colors for simple widgets
16,2015/7/24,Fixed colors for extended widgets
1,2015/7/24,Properly theme alert dialiogs
52,2015/7/24,Add toggle to show task ages. Fixes #272
