brilliant,o,2017-03-22,Alice Dodd,5
what set this apart from other counter is the way you can link count,b,2017-03-22,Alice Dodd,5
great stitch counter,f,2017-03-19,Kim Jones,5
every knitter need this,o,2017-03-19,Kim Jones,5
simply wonderful,o,2017-03-14,Charles&Deeann Gibbs,5
i find the flexible program easy to use and modify for my pattern,o,2017-03-14,Charles&Deeann Gibbs,5
fewer mistake and,o,2017-03-14,Charles&Deeann Gibbs,5
great for keeping track of work awesome in split screen on my tablet,b,2017-03-12,Eden Lindsay-Bodie,4
wonderful for keeping track of row count and repeat on multiple different project,o,2017-02-11,Sarah Herman,5
no clear instruction on how to do this,o,2017-02-10,KATRINA BILLS,1
the best knitting counter ever,f,2017-01-19,,5
i have tried several other counting but this is definitely the best absolutely fantastic,o,2017-01-19,,5
simple but very well thought adaptable to almost everything i my pattern into the note section and have everything i need in one place genius,f,2017-01-19,,5
i wa using pen and paper now my project can be finished faster,b,2017-01-08,Amanda Lane,5
thank you,o,2017-01-08,Amanda Lane,5
work is an easy way to keep track in the go,o,2017-01-01,Naomi Fletcher,5
really easy to just perfect,o,2016-12-16,OperaLakes,5
easily this help you track every aspect of your project,b,2016-12-11,Katie Barrett,5
i really like it for knitting sock and it help me make sure the pair are even,f,2016-12-11,Katie Barrett,5
this show a lot of ha many useful feature for knitter of any level,b,2016-12-08,Denise and Peter Lindquist,4
the only reason i gave 4 rather 5 star is minor,b,2016-12-08,Denise and Peter Lindquist,4
actually actively working a i wish there wa an option for a larger area,f,2016-12-08,Denise and Peter Lindquist,4
i do not wear my glass for most close like but mean i have difficulty reading the count or hitting the increment button,b,2016-12-08,Denise and Peter Lindquist,4
would buzz again,f,2016-12-06,courtneyfugitt,5
much better all the other stitch counter,f,2016-12-06,courtneyfugitt,5
add row count each individually save multiple project,f,2016-11-29,,5
perfect me,o,2016-11-29,,5
very versatile,o,2016-11-28,Brenda Bryant,5
keep all my project,o,2016-11-28,Brenda Bryant,5
have tried over a dozen different row counter and this one is my favorite,b,2016-11-14,Kerry Egan,5
i love it allows you to have multiple counter for a single project because it make it much easier to keep track of row repeat,o,2016-11-14,Kerry Egan,5
great,o,2016-11-02,Marian L,5
love the fact i can essentially write a pattern in with space to note cast on yarn type and stuff like that,f,2016-10-30,Jessica-Marie Gervais,5
look like the issue wa fixed on one of the so i am happily collecting coin a i count row,b,2016-10-30,Jessica-Marie Gervais,5
i love how much you can it to each project,o,2016-10-29,,5
i absolutely adore this,o,2016-10-10,Maya Robinson,5
the improvement i would suggest is to have a way to mark project a done and keep them in a separate to prevent cluttering,f,2016-10-10,Maya Robinson,5
i rarely review but i wa so happy about this one i had to,b,2016-10-03,Sara S,5
i struggled to find an that would count my total row and keep track of i wa in the pattern due to but this take care of that with ease,b,2016-10-03,Sara S,5
love it,o,2016-10-03,Sara S,5
i have been knitting for forty year using pen and paper to keep track of row,b,2016-09-15,Lesley Holmes,5
i have tried a few row counter sent me back to pen and then i found bee count,b,2016-09-15,Lesley Holmes,5
i have to say this application is absolutely fantastic,o,2016-09-15,Lesley Holmes,5
it allows you to count the total row count and a repeating pattern count,o,2016-09-15,Lesley Holmes,5
you can make note and set alarm the row count target is reached,f,2016-09-15,Lesley Holmes,5
you can program multiple project and importantly you close the it automatically save your progress,b,2016-09-15,Lesley Holmes,5
this ha been helpful and i use it every day,b,2016-08-24,Raven Mortensen,5
the thing i can think of to improve wa if there wa a timer on each project,b,2016-08-24,Raven Mortensen,5
fantastic,o,2016-08-24,Raven Mortensen,5
i really like this,o,2016-08-23,Janis Olson,5
i have been knitting i wa 5 year old,f,2016-08-23,Janis Olson,5
i am now 71,o,2016-08-23,Janis Olson,5
this is the best and most useful knitting,o,2016-08-23,Janis Olson,5
i like the ability to set up rule in paired,b,2016-07-18,Malinda Welte,4
increase a every time b reset,b,2016-07-18,Malinda Welte,4
using this in conjunction with and paper pattern,b,2016-05-29,Avila Cranfill,5
no issue far,b,2016-05-29,Avila Cranfill,5
thanks,o,2016-05-23,Josephine McElrath,5
i have enjoyed using the program,b,2016-05-23,Josephine McElrath,5
count available at all time,f,2016-05-23,Josephine McElrath,5
