Topic,Words
0,0.051*add,0.046*the,0.034*can,0.028*designed,0.027*provides,0.026*definitely,0.026*log,0.025*even,0.023*logged,0.023*viability
1,0.035*detailed,0.033*to,0.032*that,0.031*even,0.031*connection,0.031*nifty,0.028*losing,0.027*not,0.026*notifications,0.024*you'll
2,0.054*head,0.031*frequency,0.026*data,0.026*does,0.025*tell,0.025*you'll,0.024*select,0.023*log,0.021*wondering,0.021*highly
3,0.068*around,0.036*absolute,0.035*that,0.034*my,0.030*much,0.029*awesome,0.027*nifty,0.027*pretty,0.027*general,0.026*also
4,0.050*awesome,0.041*your,0.041*data,0.036*and,0.030*highly,0.030*but,0.025*like,0.025*cool,0.022*great,0.022*to
5,0.065*info,0.055*designed,0.046*to,0.034*piece,0.034*repetitive,0.033*customizable,0.033*the,0.028*viability,0.026*logs,0.026*will
6,0.058*for,0.052*application,0.043*nice,0.039*track,0.038*in,0.035*frequency,0.033*notifications,0.025*logs,0.023*well,0.022*piece
7,0.044*will,0.044*includes,0.038*software,0.030*min,0.030*but,0.030*very,0.026*awesome,0.025*pretty,0.023*you'll,0.023*of
8,0.054*detailed,0.038*nifty,0.036*a,0.033*change,0.032*network,0.031*are,0.029*repetitive,0.026*monitoring,0.025*log,0.025*but
9,0.046*are,0.043*cool,0.034*frequency,0.033*my,0.027*provides,0.027*job,0.027*gathered,0.026*no,0.025*select,0.025*nice
10,0.050*notifications,0.040*help,0.029*much,0.028*that,0.027*around,0.024*highly,0.022*on,0.021*detailed,0.021*work,0.019*your
11,0.084*awesome,0.038*tell,0.031*nice,0.031*repetitive,0.031*a,0.029*help,0.027*even,0.025*min,0.025*like,0.024*also
12,0.034*nice,0.032*seconds,0.031*all,0.030*change,0.029*select,0.029*and,0.027*you,0.027*includes,0.026*log,0.025*you're
13,0.041*nifty,0.040*logged,0.039*speed,0.034*logs,0.032*spreadsheets,0.032*on,0.028*also,0.025*to,0.025*all,0.024*work
14,0.065*you'll,0.053*send,0.053*detailed,0.030*will,0.029*3,0.026*job,0.024*my,0.024*well,0.023*seconds,0.023*repetitive
15,0.042*monitoring,0.037*to,0.037*this,0.036*i,0.035*highly,0.035*wondering,0.032*tell,0.029*change,0.029*quite,0.027*cleverly
16,0.066*good,0.050*tell,0.041*job,0.041*provides,0.039*if,0.034*cool,0.032*doing,0.032*of,0.027*work,0.025*all
17,0.046*includes,0.040*3,0.038*losing,0.031*you,0.027*this,0.027*min,0.026*i,0.025*cool,0.024*does,0.024*for
18,0.055*highly,0.033*very,0.032*truly,0.032*i,0.032*general,0.027*logged,0.026*frequency,0.025*seconds,0.024*software,0.024*email
19,0.053*it,0.044*application,0.035*are,0.034*this,0.027*very,0.026*like,0.026*seconds,0.026*much,0.026*emails,0.024*5
