very helpful application for web developer,o,2014-07-07,Arsen Sargsyan,5
used to add address to firewall,b,2014-07-06,,5
great host edit,o,2014-05-23,kwan lee,5
very easy to use and minimalist,o,2014-04-28,Samuel W,5
you the after you have made your alteration the change are saved,b,2014-04-28,Samuel W,5
this save a bit of the around editing your host an unwelcome ad pop up,f,2014-04-12,A Google User,5
very impressive,o,2014-03-15,Kim Lâm Võ,5
opening speed very fast,b,2014-03-15,Kim Lâm Võ,5
better other text editor,f,2014-03-15,Kim Lâm Võ,5
great job man,o,2014-03-15,Kim Lâm Võ,5
you,o,2014-02-20,Maxim C.,5
work for browser in android,b,2014-02-11,BlackZero Rs,1
for opera and other is useless,o,2014-02-11,BlackZero Rs,1
this solved my problem in just second which i wa trying to solve from last 3 hour,b,2014-02-04,Abhishek Vohera,5
thanks a lot to the for making our work much again man,o,2014-01-30,A Google User,5
work great on,o,2014-01-04,André Lbt,5
good,o,2014-01-04,Dn Se,5
