update fix project structure fix import fix code change,b,2013/8/27,,
disable add real,f,2013/8/11,,
add error message,b,2013/8/10,,
presentation and,o,2013/8/10,,
use of the current device,o,2013/8/09,,
stop server close,b,2013/8/09,,
initial support,b,2013/8/07,,
set up,o,2013/8/07,,
update support library switch dependency to own fork replace with,b,2013/8/07,,
add amazon ad to,f,2013/8/02,,
log the ha been downloaded from,b,2013/7/14,,
use in improve issue 12,b,2013/7/05,,
update and translation remove cloud print raise version number and compile,b,2013/6/29,,
