# deletions,date,commit message
11,2015/12/28,Fix material preferences appearance
3,2015/12/28,Prevents EventBusException
2,2015/12/28,Replacement for deprecated support library method
19,2015/12/28,Settings: CheckBox -> Switch
5,2015/12/28,Upgrade libs
2,2015/12/28,1.4.2.2
13,2015/12/28,Don't close db
2,2015/12/28,1.4.2.1
4,2015/12/28,minor changes to fix #1493
127,2015/12/28,updated translations
1,2015/12/28,Update CONTRIBUTING.md
