# deletions,date,commit message
4,2016/6/07,fix issue with playback ended on skipping (for remote playback)
5,2016/6/04,On resume check if the feeds should be (automatically) refreshed.
1,2016/6/04,Make remove/delete less ambiguous
28,2016/6/06,Replace AsyncTask with RxObservable prevent IllegalStateException
1,2016/6/10,Check if there is an exported activity for the intent
1,2016/6/09,Fix gradle free builds: use hasProperty
5,2016/6/08,Fix gradle free builds
2,2016/6/08,indentation on MainActivity onCreateOptionsMenu
2,2016/6/08,new lines (end of strings.xml)
9,2016/6/08,delete commented code on Playable interface (related to RemoteMedia)
6,2016/6/06,rename helper classes
1974,2016/6/06,adapt PlaybackService to different flavors
251,2016/6/06,adapt Playable interface to different flavors
1161,2016/6/06,adapt FeedMedia class to different flavors
3229,2016/6/04,adapt ui to different flavors
1,2016/6/06,Prevent NPE
9,2016/6/05,Prevent possible hang-bugs
6,2016/6/05,Subscriptions: Move add tile to end
2,2016/6/05,Subscriptions: Show indicator only when count > 0
3,2016/6/04,Do not reset played duration of completed episode; restore statistics for old behavior
1,2016/6/04,Fix app name (due to flavors)
1,2016/6/04,Queue: Allow removal of playing/paused episode via context menu
48,2016/6/04,Create one flavor with Google Cast support and one (free) without
