App,Store,App ID,Review ID,Country,Version,Rating,Date,Author,Subject,Body,Translated Subject,Translated Body
AntennaPod,Google Play,de.danoeh.antennapod,Z3A6QU9xcFRPRnJKNHduVGtkWVREcC1YQWM5SHhWMndjOEdfbnFKQU5LeUNMb3dIZVJJT0VGN1l4TTNCSlFpWk5TWkpUR3VBYkRWdTNlcHRvUXpuTnN0THlF,English,,4,2015-12-27,Michael Whisman,"",Solid!,,
AntennaPod,Google Play,de.danoeh.antennapod,Z3A6QU9xcFRPR3dLQ0tMMFlEUzdtOTJsbWJ6QmFGUl8wZTNFcW83TXlTUzllYWo4aWlPOWl2dmI0WkJ5Qzh2ZVNUaTVuU2tWZ2RwTFNneXRjd0tDR0NES2Vj,English,,5,2015-12-27,Don Quixote,"",Nice,,
AntennaPod,Google Play,de.danoeh.antennapod,Z3A6QU9xcFRPSG9PM292al9ic2ZTSnNvU0dpakl5Rk9ycmgtMEdFbEZ6cVh4MjlGakVkN0c2dVZPeUNJdFJJRTlzaUpRd0llT0F0M2FieUdrQ1N1UTBxTWtJ,English,,5,2015-12-27,Noah Solnick,"","Easy to use, runs without any problems",,
AntennaPod,Google Play,de.danoeh.antennapod,Z3A6QU9xcFRPRUNZZXo2Q0lCTFFzWkE3YUNiRVRmVHQ2VE1jNERwOUZDejRSNnJQcU9LUjJ0VWdUVDd5LXQ1UFA1TUY0Y2hTZ1lvY0lWSFdTTWs5WlJpR3p3,English,,5,2015-12-27,Calvin Lowe,"",Does the job doesn't have in app ads.,,
AntennaPod,Google Play,de.danoeh.antennapod,Z3A6QU9xcFRPRUF4Wi1FWmFReGRDamlKTGFjWUpoMmJmdDFQMWNpcDF6YURJTHp6S0IzcHp3Y3NhRVd5eHZQbjhna1NSMHktNkZfcXUtek9hdmJlcmdXY2tz,English,,5,2015-12-27,Nicholas Sennett,Just Right,This app is perfect for podcasts. It's simple and lacks the obtrusive features and interface elements of most comparable apps.,,
AntennaPod,Google Play,de.danoeh.antennapod,Z3A6QU9xcFRPRlNlb3FTRGZYSFNacjVBRVVpWjRuNXFUYndOd2FnUzY3b0hyc2t3MHU4QmJYYXZtcmcxNXprMVAwWjhmNTNWMVl4VnZBLWplZF9HOG1teEhN,English,,5,2015-12-27,Elijah Snow-Rackley,Fantastic,"Got nothing more to say, it serves it's purpose, is incredibly flexible yet simple in design, and doesn't seem to face a lot of the issues I had with other players/aggregates.",,
AntennaPod,Google Play,de.danoeh.antennapod,Z3A6QU9xcFRPSEFhNTlQZ3c3OHpITW9CcXRDa1I4QjBNRmV3YV9kdWtzOG1PSUI2dHI3bTdkLWJCVnB6dnlyZ1ZOTFdTNGlNaWlfNDhnTmkxVmdEcklxcE5Z,English,,5,2015-12-27,Matt Fleming,Has every feature I need.,And they all work great.,,
AntennaPod,Google Play,de.danoeh.antennapod,Z3A6QU9xcFRPRVE4Y05HbkJTQjk4SENtVk1Hc3Rra2diTlRFRUtOajFEd3ZvUUlSZWZFYmFOVWNMNmpEeE4ybnhWdHhVRFNZTFRJWUFkbkVJM2F4ZXh5aE5R,English,,5,2015-12-27,Zane Cook,"",Amazing Podcatcher.,,
AntennaPod,Google Play,de.danoeh.antennapod,Z3A6QU9xcFRPRmpMMk1ZTlBsVGJRcGhLSmtYWjdBRk5xOHhJd3NFczZhOTlodGJDUFJtYncyczF1Rk43cV9uczRTYTA5VDJNVzZGdFpwLUt1QlV3eXdLQ2pR,English,,5,2015-12-27,Yanika Borg,"",Great!,,
AntennaPod,Google Play,de.danoeh.antennapod,Z3A6QU9xcFRPSFlHaktqOE9uWmliNThhNXJXQ1ZOTzBrRTBGNTNqdFc4T0ZaMUtNRjhhcVhMNXpmdkl6aXQ0UnFkaTJBaFFaUUZUdkdaWGozT25CZWlOMXVV,English,,5,2015-12-26,Thanavutd Chutiphongdech,So useful,So so,,
AntennaPod,Google Play,de.danoeh.antennapod,Z3A6QU9xcFRPSGF4QVVYUnRVa2dVeWVvcTNfT3V5Mmt6WndDd3psM1pzSi1ucVdVcTlicEltMVYyZ0lhWmtQT2NTdEkxa01DcG9WVW02UFBWWkVrSjNRSEdJ,English,,5,2015-12-26,Jelmer Vernooij,Great podcast manager and player,"This is a great app for podcast management. It doesn't require any third party proprietary services, it's quick, has a clean interface and is free software.",,
AntennaPod,Google Play,de.danoeh.antennapod,Z3A6QU9xcFRPR3pBc3VUMUhud1JTRnlWbU93c1cxcGRVaGRvaDJkWmN3MG81MFM5dDg3UC1Pci1JNjJwQTUxd05uN25Qd1dyVFpjSEdhT2hpYndXS2hKTVVZ,English,,5,2015-12-26,ryker o,Its great.,Refer to above statement.,,
AntennaPod,Google Play,de.danoeh.antennapod,Z3A6QU9xcFRPSEFsMGpLRlhqalEtZHFHUWNIVkJVMTMzTUtQcWVwaXNlREY4VGZsOFV2MVNDS2JYYUpBZGJBdGp1UkR4MExhX2lzcnhjby1lcUZtdTBjQWYw,English,,5,2015-12-26,Cliff Goniea,Simple and clean,I love the simple and clean interface antennapod has. It has found a place on my home screen as I use it every day.,,
AntennaPod,Google Play,de.danoeh.antennapod,Z3A6QU9xcFRPSGZCSHlhTjR5UDRKajF2dDl5WWtaUFo1VW5EdlFHeTBzMHN6S3A2cjRlTFBpV0t0YlFXM1h3QWZJMmlldjlTdDNObnVEN2N3UHdVNzhPbU1J,English,,4,2015-12-25,Marty Windle,"",Excellent app,,
AntennaPod,Google Play,de.danoeh.antennapod,Z3A6QU9xcFRPSDI1eVFycGVmU1VhUEdYc2hUc0RBdkRGZG1lOFpYR2lsX3M5dFJocC1hd0xlNWpyTmsyaUFXclJGMjVDZER4eWwwbXM1X2hkcDN1WjNFbHRn,English,,5,2015-12-25,Timothy Murphy,Does its job,Yay!,,
AntennaPod,Google Play,de.danoeh.antennapod,Z3A6QU9xcFRPRmVfWFBRS3g5MkZvSUtqdzFaV1JJcFpBV0tRbURsSWRBZnFmMmRVX2NKaWhSY3NwOHhHRHN4WlJwOGtaSTBkWGRORG9DOUZFek1NN0FfMDl3,English,,4,2015-12-25,Pete Ingraham,"",Easy to use and intuitive,,
AntennaPod,Google Play,de.danoeh.antennapod,Z3A6QU9xcFRPRTlMMVI1RFRWMFZqS1hiZER6Tm1SeWwzQVFlRnFIb2FqX1dNMmdIVzNoMG1OV0pZSGZMRTI0M0dKZXlFTUlwV0E2U0JoUDdpMFI2WUV1a29v,English,,5,2015-12-25,Joseph Toland,Easy to Use App,Easy to subscribe and update the podcasts I like.  Perfect for Long road trips or working out!,,
AntennaPod,Google Play,de.danoeh.antennapod,Z3A6QU9xcFRPRUZNUHgtOHNJSS1LSEJVc3F4SlMyYjFMbW5XZGg2eXFOZ3lrbjNUVFZuVEcwb2F2ZlJkc2g2bExmM2xCRVFRMFJ0aU5ERVdWS09NZ2RTbFBJ,English,,5,2015-12-25,Tim Noble,Works really well,Simple podcast app. Does just what I need.,,
AntennaPod,Google Play,de.danoeh.antennapod,Z3A6QU9xcFRPSGYySVg3ajU3MlBpMWpyZDVFTVBqbzdGaEIxSkc2UEFPT2Z3UGQxRk04Q0tRdDlNbVJtcmRJT3pzMmNFdllVR21wdnhPQmVCMC14NG9xYXhZ,English,,4,2015-12-25,Christopher Stone,"Good, simple podcast player","It plays podcasts, manages a queue from subscription feeds, and has a few bells and whistles. It's almost a perfect app. The widget is a bit too simple, and large at the same time. The UI has an unrefined quirkiness that causes frequent irritations. But, it's free, it works, and if I wasn't so lazy I'd dive into the source. Thank you!",,
AntennaPod,Google Play,de.danoeh.antennapod,Z3A6QU9xcFRPSFlPal9IcE1xaEtMV29mSENjNmJ4azJTRDh2NnJycWFwYjQ4NUJXRkprUzZpRFo5TmxfX21RWjRNaVQ4MjhFczhMWFQwOU9WbFZkRkNuQVVR,English,,5,2015-12-25,Calvin Metcalf,Great podcasting app,Really gets the job done,,
AntennaPod,Google Play,de.danoeh.antennapod,Z3A6QU9xcFRPRkNjSEF4VHlOa0U1NDdwQXJqYnh3RWZPUU9XYkFQcVRNTkdINWNXRENRODREMXJrbS1zNmVfSi1xUWVubXNIZndDbG9mSk5RR2ktUkMxcm9n,English,,5,2015-12-24,Gajesh Bhat,Great app!,Just does its job awesomely!,,
AntennaPod,Google Play,de.danoeh.antennapod,Z3A6QU9xcFRPSDlPTlFSQUZ6ZU5fVnAzcXRZbHdYbnh4ZmZ2VXJ2ZjZwVHp3WUdOQkFpMG1pU3hkRDlVWTNBMjNqMXQ4ckRsOHJ0Z1NsVEM4bGkzeUhKb25r,English,,5,2015-12-24,Wild McMuffin,Free and Open Source Podcatcher,"Antennapod has become everything I could want from a Podcatcher. Starting from adding your first podcast, the GPodder integration means you will probably never have to search for an XML file again, since it will already be searchable in the gpodder directory. Other useful features include a sleep timer, excellent crash recovery (though crashes aren't that frequent), and headphone awareness. I'd recommend giving it a try before throwing a few bucks to another Podcatcher.",,
AntennaPod,Google Play,de.danoeh.antennapod,Z3A6QU9xcFRPSFA1cV8zTGZsN0lnN0FFSlF3aU1OczA0Yjc3Y0VJRXJWMUNQM05XUFBSYl94cVhNNmdmbXpfdG9iQjMyb1lFNnF3S0RBUzdkQWdONWZTeUlN,English,,5,2015-12-24,Harrison Behl,Great podcast player,"I've been very happy with this app, though performance had become slow and inconsistent prior to this update. Playback controls and podcast discovery has been consistently improved as Antennapod has developed.",,
AntennaPod,Google Play,de.danoeh.antennapod,Z3A6QU9xcFRPR1JsdzVYOXZhbGFwYml6akNSWllaZzRGa0xpMnFneGU4N2diNzE5YlNZZWJBeVpvaEhDOWR2VXJjNll6bjk5b2hKS2xfbTdmTm1fTy1QWHFj,English,,5,2015-12-24,Tim Bayley,"",Excellent and simple,,
AntennaPod,Google Play,de.danoeh.antennapod,Z3A6QU9xcFRPR19FZzZyRTYxNWpadzJhSW4zYTR2S1hTNzcxXy1MNzRlX1JCNFZ1WVZzSS12QmRwTk1fOGlDTmd3U0k1dDlwcm1VT3F6QnNIb1pRZTJVRmdF,English,,5,2015-12-24,Meral Harbes,Open Source Podcast Manager,"Works like a charm, does everything you could want and is truly free. I never say I love an app, but this gets as close to it as an app could.",,
AntennaPod,Google Play,de.danoeh.antennapod,Z3A6QU9xcFRPRWhpR2pEQUJObnBsbFFXZ3Fva3kwdnkzRTdseVcyaUZEck5oYjdBa0d5c3dFZVVkdGhfamxYeDFFSGdSYjExeEdPSWFPU05fLUxDc0pYMUtZ,English,,5,2015-12-24,Michael Ryan,Great App,"Very stable and no issues to report, clean interface and easy to use.",,
AntennaPod,Google Play,de.danoeh.antennapod,Z3A6QU9xcFRPRURzeWJiRnJQcmVwOTJkSml6OTYzY2VVdnJZRmRqTjJxNEl1REE5dTJ0cURuajdmTGlaay1RdFFuR0UxMlp2MzFPb1pncnM1bzMzTTFnMFBv,English,,5,2015-12-24,Richard Wang,Nice,"Good pod catcher that is open source, free, and ad free.",,
AntennaPod,Google Play,de.danoeh.antennapod,Z3A6QU9xcFRPR0FGOWRpcGNJMXlrMVZjS0wzYzUxcUl0dDB1dFhsV0xIczJudlYwbjE2dXR3QVdfVmlTUFlwZ1FTR3pZcW5IZ3M1ZDBqeV9zTnU5N1ZmYmlR,English,,5,2015-12-24,I. Wyrd,Shiny,It does what I need and doesn't try to do any more than I need. It's shiny like Firefly.,,
AntennaPod,Google Play,de.danoeh.antennapod,Z3A6QU9xcFRPRzlMOWR1ZVhqbnRXbDFGVk5FWmlWNzhhem90bllSaExBbmlSdTlsYWNiRlR6Zk9FWUh6Smhtbnk4TmZXaUhXMlBZUHVPcXRzS2N1aFA2YnZR,English,,5,2015-12-24,Sam Tuke,"",Awesome,,
AntennaPod,Google Play,de.danoeh.antennapod,Z3A6QU9xcFRPSFlCOE82VEltQzhFYnBBRzNDbkhOcUhvZ1ViUjh1bGhFdWRUUWcyZFZma0R5QnpBSkoxZm9JZzBSamcwd1cxcUpLVG9mM0trU1ZZdGFtUGpr,English,,5,2015-12-24,Artem Gulia,"",Best podcast manager for android.,,
AntennaPod,Google Play,de.danoeh.antennapod,Z3A6QU9xcFRPRUthS25yUGhwNm9fV181N2dDaFpfZXIwRzJBYzdTcWVDTTJ5dFY5YVpDRGhNSktHSlhYeGdoUm5vVUtqYU53QzF1V3JZTVN1djN4RUdhYkNZ,English,,5,2015-12-23,The Guy,Works,Works as advertised,,
AntennaPod,Google Play,de.danoeh.antennapod,Z3A6QU9xcFRPRVY1LU9mdWpvLW54VGJHZFFiSnpEaFFXM2FNUHVqeVhqaFIwVzB5X1JqMHdYd3pQMXE0UVJGTU9sSHEzX01nMzNNZ3FnUlVPWkxpSU42MHhv,English,,5,2015-12-23,"","",Great app that keeps getting better.,,
AntennaPod,Google Play,de.danoeh.antennapod,Z3A6QU9xcFRPRUlyeGxzdHhmZFFHXzBicDcxWjV5RnprQ0M2QTFsX1JHNHd4SG9PT2NtVjZvbW8xWTF0NlJuQmR1cXJ2cWlqTjVpdGxnanBSekpvQlpMME1V,English,,4,2015-12-23,Ken Molcsan Jr.,Clean and simple,"Easy to use podcast app with all the bells and whistles of the competition, and without the complexities.  Well designed and a pleasure to use.",,
AntennaPod,Google Play,de.danoeh.antennapod,Z3A6QU9xcFRPR3ItZGNQdEhJOXprMlZ6N1UzOGRvUXZOOHVYQV81dHVGTGpDRWlGRTJaQTd4dS1lYTZyLTl6SGI3al9NVHpsNTZhczEtUE0tbVlyTHFyb19V,English,,4,2015-12-23,Frederic Basque,"",Getting better with every update... one thing I would like get back is an easier way to close the app. The back button used to close the app but now when something is in the queue it only minimizes it to the notification bar.,,
AntennaPod,Google Play,de.danoeh.antennapod,Z3A6QU9xcFRPRVQzTkZDVU9GdFZIQ01CVkNPNUtNRWctM1BUN1RxQW1EcDhXTnUyOFdneVZkcnVxX2RPTm15Z0lqRW5wVVZ3VkdrOG5uVWRmYkcyZTRxdVRV,English,,5,2015-12-23,Pradeep Ghimirey,Great UX,Just the right features and intuitive ux,,
AntennaPod,Google Play,de.danoeh.antennapod,Z3A6QU9xcFRPR2c1VGlLemhXUkM5dkNxeC1TaGJvNi1lWEM3cGRncFpYblY0ajMwb1g2bFh4b29PRDIxYUo4Q0tCUHNTb2JXbkYwY1ljTmZIV3BTajlIZDBn,English,,5,2015-12-22,Marc Lasson,Great app.,The perfect open-source app to manage your podcasts.,,
AntennaPod,Google Play,de.danoeh.antennapod,Z3A6QU9xcFRPRXBBUTQ0SEtJWUZVNXdmZGlSenlac0pIZ21FdXJTazdkM1ZlTmlNS0pfRzlwVlBNeW9KZkdzUGdLNllDcElGNnE2WE9mNmw2ZDdVT01KM09z,English,,5,2015-12-22,Russ Warren,Does what it needs to. No more no less.,Works,,
AntennaPod,Google Play,de.danoeh.antennapod,Z3A6QU9xcFRPRmZzVUxJcTViT0FVbXNBQXZvQ0Z3N201dzdERndjREJzYXJSMkhCV0c4cmZrYmx2SWpRdnhYZHZXbG9BSnVDWlRmc3lVMENDTWNBakN3TVl3,English,,5,2015-12-22,Hayley Herd,"",This app is great! I'm so glad android had a good way to play podcasts!,,
AntennaPod,Google Play,de.danoeh.antennapod,Z3A6QU9xcFRPSEVJRkNkck9KZnlyVTZxVEluRUNpeV91OTJOd2VET0ljLW00ZW9xY3VMZnQ1RC1CdTlIT00zYjJsMVFSSzhaYmo3NFlsc2VNV3otMGZOenBv,English,,5,2015-12-22,Frank Egeler,"",Great app.,,
AntennaPod,Google Play,de.danoeh.antennapod,Z3A6QU9xcFRPRjlXSDFmMXhRMUVTb05pVlhhdjNMQmhNYW5BT3RBb3lJUVpwUU5WX2d5d2w2a0NZQzBESTBEak1IZFFpQ0F6UXJpRlVpM1RDeEx2WmdtdVFF,English,,4,2015-12-22,"",Simple and does the job,Works well and is lightweight.,,
AntennaPod,Google Play,de.danoeh.antennapod,Z3A6QU9xcFRPR3hXcXBpYm56ZXRMZ3o2LWRDcDhoSHVxVV9DWW9VOWVBMjlkMkxmVjl5Uy0wYlktQUZKQmdKal8xZ1lYV0RFS2xoTzRoNWtNcFMtVk9BOVVz,English,,5,2015-12-22,John Haltiwanger,"",It's the only podcast app on Android worth your time!,,
AntennaPod,Google Play,de.danoeh.antennapod,Z3A6QU9xcFRPRUZjenNqYWVGNUY4TDRUU1BubnBvRUhxWTlzRXhKY08tVnphQnVLUi1BdTRqa2U0bnM2eFF4OEkxZnp1RkMybTN3VDB2eWUzZGtBZkFpMGJZ,English,,5,2015-12-21,Ryuji Kanematsu,Very nice,It's great for my Android,,
AntennaPod,Google Play,de.danoeh.antennapod,Z3A6QU9xcFRPRVNuV0NKWGpickZ4VERZbW1tNE4wMTR2N3c0Z2hUdnJnQndyQ0d2Sk1SWlBRSnpGZ0ZqdnVlZ0pGUHZYMHN5cno4X2xpZkZfdEkwY3R4WVNv,English,,5,2015-12-21,Joao Amaral,The best,Great app,,
AntennaPod,Google Play,de.danoeh.antennapod,Z3A6QU9xcFRPRnhfaDFWcUdLMEZSOWZZcGx2dnZ0Rnd2QmNJek9TZnRKTTgzNk1CVkVwdXp4Vm5iYzJQenY0djIxbFBvY3hOUkJQcW1aa3FqMzJHVGVzZ0FF,English,,4,2015-12-21,Chris Schumann,"",Nearly excellent,,
AntennaPod,Google Play,de.danoeh.antennapod,Z3A6QU9xcFRPSEZfeVo4UjdGWUVmOTdKdkZTUXNuOGxjSENFbUNleHlHYkhGWEE5VDF0dU9hLW1Tbzc0eUtXZU9lTHpveFZ6UkFGVDVSMGstdzlaTldEb3VJ,English,,5,2015-12-21,Jaume Juanós,"",Easy to use,,
AntennaPod,Google Play,de.danoeh.antennapod,Z3A6QU9xcFRPR19xUFNqNkczSzBQQ25mSUhIOGh2Z0dUb0l3MDYtLVpPMXNGWnZOSlVtU0JIV3NTNTZYZFY1emgwNkNtUmlhVnpENEw1Ml9KU19kZ0JHeENv,English,,5,2015-12-21,Sirui Li,Very nice!,Just what I need,,
AntennaPod,Google Play,de.danoeh.antennapod,Z3A6QU9xcFRPRkhqSG1faVpodHN2bUluN2U1NGs2NUVxTnl0ZjNFd0FWeVNZZUxhclpONDdjSlJwWEZRTUlxM09ZTEliVTZwT3lMaURpQWcyZHg4bk9CR1J3,English,,4,2015-12-21,Coy Suprise,Nearly Perfect!,The only aspect preventing me from leaving 5 stars is the search feature is limited to iTunes or gpodder. Check Podcast Addict for that feature. 5 stars when I don't have to use 2 apps to search for/enjoy my podcasts.,,
AntennaPod,Google Play,de.danoeh.antennapod,Z3A6QU9xcFRPSEltQzNuSGtzVXhXeWVNWlE5UTB2T1ctelVFWjJUSkJ0Q3RlWXM1ZllLUmw5YndVemxZcEI2Wlh5SzFaN2N0QTFzQTlkaGNoUUhFaTZzSVRv,English,,4,2015-12-20,Jaimes Booth,"","Opensource, good and still improving.",,
AntennaPod,Google Play,de.danoeh.antennapod,Z3A6QU9xcFRPRW5aTFF0YkVueFZrYjlqYnM1ckd5Um4wRHZDTnFKdDdhRXliWkxMTHBfajRnX0lraVoxSHo0U0VQdHVEcndzbW41SjBfdG9acXk4ZzV4ZEN3,English,,5,2015-12-20,Aligar Suyko,Brilliant,By far the best podcast client I've come across,,
AntennaPod,Google Play,de.danoeh.antennapod,Z3A6QU9xcFRPRTdBTjA1eTBsNVlEVjd6VkNGN1NpSVkzb0hQc2RSYU9NaUdXX25icjFMenlPdkNpWU95Ui1Zb0I0MEttSUFPcy1jRy1fRFJZUGVUY3BhLUhr,English,,5,2015-12-20,Ranjit Henry,"",Great product.,,
AntennaPod,Google Play,de.danoeh.antennapod,Z3A6QU9xcFRPRXU5RVhLeGt5Vmdqc1BwU3FkT3N2RERBYjAxZ0RILXBVbnVic2JNZjNfcmpiNmJHYlN1X2lLTk9FSXJIRUFlZHU1amZRMjRncXRFb0NoUERF,English,,5,2015-12-20,Michael Shook,Long time happy user,Update: I got a same-day response pointing me to a setting that does exactly what I was asking for!     It would be great if the notification didn't disappear when I tap the stop button.  Usually I'm just stopping the playback temporarily during an interruption and I want to restart playback after a few seconds or minutes. If the notification were still there I'd just press the play button to get going again.  The Google Music player notification does this and I like it that way.,,
AntennaPod,Google Play,de.danoeh.antennapod,Z3A6QU9xcFRPSFlKSmtRaXVfVGJqd2dORldIc2lXRkVVTFF3MkI1cVhKNFhNMkMzS3kwUHc1MUQxeF9Bd19oajVuOUJZbWhJRldCeXB3cjFlLXhJaEIxQzRj,English,,5,2015-12-20,Jon McClelland,"",Love this app. Great features and easy to use. Bumped to a 5-star when developer pointed out how to drag podcasts to re-order them (click padlock to unlock them first :0),,
AntennaPod,Google Play,de.danoeh.antennapod,Z3A6QU9xcFRPRkFSaDZDbkVlS2llTzJNMm53VFJJakR3WDNzeTVBRlE0c2c4ZGtXbV9XbUJyYmxCZ0JyVDNFd1Z1QXZVVGl6cjNuaWpOcUx0ZVk2X3U1VmFN,English,,4,2015-12-20,leland Rob,Quirky at times but overall good!,"This app is not bug free, for instance around August 2015 it started to crash when playing down loaded content, so I installed google play to do that. However, all of that is outweighed by the fact that this is OSS software, and I use it daily.",,
AntennaPod,Google Play,de.danoeh.antennapod,Z3A6QU9xcFRPSENtZjN4LUFVb1pDT0lPcnNkSWlLeERLMEFzaW1FWkl0SlRzeGt2TDhUbGN0c201Mk5hWXRoTHRybW1lR2d3MWxvU2RVa3UwZW5kb3RRb3NN,English,,5,2015-12-19,Beca W,Really easy to use with a wide range of podcasts to choose from,Makes the morning commute a lot more interesting,,
AntennaPod,Google Play,de.danoeh.antennapod,Z3A6QU9xcFRPR0htRV9rZGNmUDZRUW1FLTRxMG9jSkdJLWdrcC11T1UwR0htRGkxWm1nVEF1NXNtQjVYZ0RuUWVWN2pSUTE5dUlOX00ybHI0eU9uN3NnRHFZ,English,,5,2015-12-19,Austin Marsh,Awesome level of control; More Technically minded,Open source and doesn't ask for ridiculous permissions. Fantastic!,,
AntennaPod,Google Play,de.danoeh.antennapod,Z3A6QU9xcFRPR3FkcmFhaUNNNS1GZ015eTU1UXVxZGVIV0l4UE14bDVGaVI1dEIycGgzQmR4YzBHLUJSNFdDSWxQQ0tIRnRneDZrSk5mNGh1ZmpwRUxWbWk4,English,,5,2015-12-19,Jonathan Griffitts,Works well,I've been using this for some months with no cause for complaint,,
AntennaPod,Google Play,de.danoeh.antennapod,Z3A6QU9xcFRPRmhXV3VLQnBDb2hZVi1LRWp0SmtQZktZZG9RMm9MVjBHYVJIWFo5ejhVWF9VQW5tNm9CbG1kQkF6QkE2RE1nZ3ZNX3NZa0F5MGotZFhnNTk0,English,,4,2015-12-19,Scott Gallagher-Starr,Keeps giving me errors,"I think when a new podcast isn't available to download, although it's hard to be sure because the message is... cryptic. Otherwise, this app works well for me.",,
AntennaPod,Google Play,de.danoeh.antennapod,Z3A6QU9xcFRPRkR6b2hPN0RfVlQwcjcxcUFxN2psVTgtdTM2ZXFQVHhJN2tNNDhXbUdMWF9uMkdrbXZyR1R1Rm03aXNaejZrZUJSd1c5RVVraEk4eFM2akU0,English,,5,2015-12-19,Sean Kindya,"",Used this app for the last two years and I love it. The only suggestion I have is that you add the ability to import local files for use as virtual podcasts.,,
AntennaPod,Google Play,de.danoeh.antennapod,Z3A6QU9xcFRPR240bXZpR2NrQ0VWRDlMVzgybk9PUkx0RlJGMFF3WWUtbnYxbTZpR2xzMlFaWG5sRlRySDZxMGhfR2pkckZ1LWVhNlZDZEhiUk1hQjJDSjVv,English,,4,2015-12-19,Brenna Palkki,Easy and helpful,"I use this for multiple podcasts. Works great. Occasionally has an error and I have to restart it, but it's great for what I need.",,
AntennaPod,Google Play,de.danoeh.antennapod,Z3A6QU9xcFRPSGRfWDBSclRBanl1enI0RENhZXRIZy1xOHdONFNBRk1CSU03UEwxbm1fblBBTXo3bERYbGc3SDdyRmdDc1h3U05xOVlLRGs1NmdKb1ROR1lF,English,,5,2015-12-19,Daniel Wilcox,"","Simply the best podcast app available, and it's completely free.",,
AntennaPod,Google Play,de.danoeh.antennapod,Z3A6QU9xcFRPR0VvM0gtaXd5dGZfY0RZN1ItMFEzRDhjaC1Ham9uUURFQldlRjFZRXJ3TXRLaGU5YmszNXhZRGgwbUJCNXhxVUJ3eHJrUHRkcm04RV94LVdF,English,,5,2015-12-19,Bogdan Dumitriu,Excellent,"Simple, clean and covering everything I want in a podcast player.",,
AntennaPod,Google Play,de.danoeh.antennapod,Z3A6QU9xcFRPR1dRTzg3QXA2cmV6U1o5Q3FTMGhtaHd6a1ZmZWVEMmdwbXUzMUdLZHRXV2Y4cjFubzNUMzhRTzk4WGJIbHRYTF9tN0dyaE9jQ0lXdmhLNXlj,English,,4,2015-12-19,Diego Lopez Leon,Best Podcast app,Would be great if you could set an alarm and wake up listening your favorite podcast.,,
AntennaPod,Google Play,de.danoeh.antennapod,Z3A6QU9xcFRPRzg0dW5TaDYzaWg0RHdYNi1WeHItakxJeWtxR29JSHZsX0J5NXdVbXZXdnRYRU5iOFU3V05FNHE0bDVpLTI0ZHlIQm4tcGZqczkwNDg3aGhB,English,,5,2015-12-19,Dougie Kd,This is the best podcast app,"This app is perfect and can not find 1 fault with it, being a ex iPhone user and moving to android went through many podcast apps that just didn't do it for me then I found this, and couldn't be happier",,
AntennaPod,Google Play,de.danoeh.antennapod,Z3A6QU9xcFRPSExfZ1lLcktRQmZnRUROYWJHbHRMNEdYazhJeGticG5RRTkxTDRERnl5YUk0LXZ3WU5oYVdsYV95dWZlY2VrTTBYbTNaWWdTV3V4c0JTYm1V,English,,5,2015-12-18,Will Colton,Does exactly what I wanted,This app is great! The only negative is that sometimes it has quirky behavior with my Bluetooth and will say it is on some super old podcast instead of what it is actually playing. Could be the Bluetooth player though.,,
AntennaPod,Google Play,de.danoeh.antennapod,Z3A6QU9xcFRPSHpJUmdBdTZNakFxX3F3M0h0dlVEdEdHc29jRVpielJsYmhTTTZjVlBBazdVQWlyZTk2NFgxaWJPM1gzSkZfMnJ4UTdZZHQ3eVl2S3NGOG5J,English,,5,2015-12-18,Farmountain,Regular improvements,"This podcatcher app is better than the others I tried. It is also nice that the team continues to improve the app. Only frustration is app seems to still be unable to store podcasts on SDcard. App doesn't appear to have write permission due to Google's ""security"" features on Lollypop.",,
AntennaPod,Google Play,de.danoeh.antennapod,Z3A6QU9xcFRPRXhuQXFJQzBzN1JGSGdWN1NiTkpEMUlibGR6NHk1SHRBc3YweEFyc0lOcHp6M0FuajE3aHdxelF1M1JvVEtBTmJ0MTZMVUJtRG9OWVZGVjhF,English,,4,2015-12-18,Jeff Drury,Good,Works but needs some work on cleaning up old files,,
AntennaPod,Google Play,de.danoeh.antennapod,Z3A6QU9xcFRPRmZCb1l6V09kUUtUN0VDY0J5UVN3RFhYdml1Z1JycEQzdThHNThSZkRUQ3RjNEtrdGdoeDF3NXVNSjVxdXQwcGszellRYnlVR2JEbVhJSWk0,English,,5,2015-12-18,Niels ten Oever,Long time impressed user,"This app has been open source, stable and improving for quite a while! It does everything you want a podcatcher to do, doesn't invade your privacy, and allows you to export and import podcast lists and search for podcasts in the most common directories.",,
AntennaPod,Google Play,de.danoeh.antennapod,Z3A6QU9xcFRPRU1oUmxETzVqLTRta3BJNWpJYTBiTVhlNWg5aGZxVFlTeE5LT3h5VjM5cTd4SVBGUWN1MXJVWHBOT0x6WFZkX1BYSkdxZzRtZEhRZGxHclhv,English,,5,2015-12-18,Fabio Kempf,"",Danke,,
AntennaPod,Google Play,de.danoeh.antennapod,Z3A6QU9xcFRPRk9DRGFnbldBN2xQcW5KR0QxczcyZkFmamtpd0pQM2Y5dWw3ZTVkNXEteGdQUHBkMDRNTUM0QVdXbmZfNDhSVklCT3A5NnAxM1V4WEdMcU1z,English,,5,2015-12-18,Denis Polkovnikov,Error,Aknown error.OK,,
AntennaPod,Google Play,de.danoeh.antennapod,Z3A6QU9xcFRPRWdpMkxXWkhlbVBWWElQZldkNEpSQ2xrLWpabFFLdFhSUjY2ZkVMd2pONTZUeEZDNGVEbXU0Vmh1M3dydmRGanEwTDVuWXpDVjAtWlJnZmQw,English,,4,2015-12-18,Eric Fernandez,"","Great open source app. It crashes often when using speed acceleration, but otherwise is an excellent podcast manager.",,
AntennaPod,Google Play,de.danoeh.antennapod,Z3A6QU9xcFRPRktmSm96ODdERFZjZGYyVHVmNUtqY2ZtY0t0Vm44bVhINTBYellYS0k1c0V2d095SEtfcW1rODUtZFNxTGZNbHdiVmpIUThYZk5jaGlCa29B,English,,5,2015-12-18,Greg Wilson,Antenna podd,Great app.,,
AntennaPod,Google Play,de.danoeh.antennapod,Z3A6QU9xcFRPSDhfc3Yzc2hCdHVBOGUyenZfUU9aV1JkZmx3SmxvOEg4UURURURCWWFldkNoQkd2VkhHNHIxY3UwUFp6M3h3WEh2TmFuUm9xTVRVb0FDSWc0,English,,5,2015-12-17,Anthony Goble,"Does exactly what it should, and does it well.",Great straightforward podcatcher that does just what you need.,,
AntennaPod,Google Play,de.danoeh.antennapod,Z3A6QU9xcFRPRmdfdlFxTlM2UFN4M2Y4MFl6cWlQNTRFQWtwSHdXMnlKcThURTk2WUlFOGh3ZXhNdG9MQXdkcjhXdUZkZFdHZFVja1doRks4MV9aOXphUUNV,English,,5,2015-12-17,Michael W.,Fantastic,"Great podcaster, organized well, easy to download,  queue, and manage podcasts.",,
AntennaPod,Google Play,de.danoeh.antennapod,Z3A6QU9xcFRPSGltcXI2YnZlaFVvVjYxRTY5bzVEcVlnbmNmY1R1UjdjTzk4OXBZTHZvbDZDczdMRzlPeGF1bV91OTAzbUxEcEtfV0N6MGV1Z0JoSlV1U1dn,English,,5,2015-12-17,Philip Durbin,Works well and open source!,I've commented on feature requests on GitHub and watched them get implemented. Great stuff.,,
AntennaPod,Google Play,de.danoeh.antennapod,Z3A6QU9xcFRPSEFMVWx0SGRGRzJLdXhTcWI5Z3o4WXhhYTRNcEl5SUlUWFJWQTBvZUlnUXlLUURwOG1mdFg4U3c4M1RyaG42SGVkZkZHZWU0Zlk3SVRUcGhF,English,,5,2015-12-17,Hachig Rudolph Alyanakian,"","I love it, but I sometimes have trouble getting things to download. The check-marked items confuse me.",,
AntennaPod,Google Play,de.danoeh.antennapod,Z3A6QU9xcFRPRm91QmJCY2lCMTNRNDBROGpBVnIzS1JxUlpGaUxIZi02MUhCb3ZaZUlJSHVNVk52MU5EZnBjTWIxTnktbnl2Qmd1eDlKWUNvVmhfNjV3eDVF,English,,5,2015-12-17,Aleksandar Dimov,Very good app,I really like the interface of the app,,
AntennaPod,Google Play,de.danoeh.antennapod,Z3A6QU9xcFRPRWhCV3RqNXV3dGV6c3AzZnRTWVpJRi0xOEMtSU1VeGNsVUVjV0xGOUp2NXJXX2l2SzlqaThDYV90aTJMWnBtUDdobExTUE9BYU51aUVJNWxj,English,,4,2015-12-17,Ignacio Alvarez,Great App,I've been using this for awhile now and I love it. Support open source apps and download this!,,
AntennaPod,Google Play,de.danoeh.antennapod,Z3A6QU9xcFRPRnFPTjZvTFJNcHdJakFKVVNVdzJKODRqQmVhM1RLRVBKYlpPbkEtQVhkaWxReWo4Q1lRd1V1RENNclU3Y2xERjlyOFY5SlhUbUh1RVo5Szlj,English,,5,2015-12-17,Attila Juhász,Nice tool,I have been using it for months. It does the job. Kudus!,,
AntennaPod,Google Play,de.danoeh.antennapod,Z3A6QU9xcFRPRjlXcTczbGVRSnB6MFdmdXRKREdIQjlad1N4WlpNem9OUzJ1SlhuQzBGSUZxMnpYWE1YVEVDU2ZQZWVDbFN1OHRxMTJIeExvbkVXVFRpZEI4,English,,5,2015-12-17,Eric Reeb,Great and always getting better,It was the closest I could find to a perfect podcast feed app and over time the improvements have brought it even closer.,,
AntennaPod,Google Play,de.danoeh.antennapod,Z3A6QU9xcFRPSElWOVA4OGl0aFZOZjFDUHRLdVVZUHRGZjJkbTRGbG9qM19PNVdHMnU4STZ2Z0llNzQ2ajc3SFl3RE9VZWNxMDFOcDlZSV9za3lJeUk3cjl3,English,,5,2015-12-17,"Wesley Holland, Jr",Generally good,"A few quirks early in the app's life cycle, but it's working very well now. Especially the integrated speed up audio. Some crashes, but none recently.",,
AntennaPod,Google Play,de.danoeh.antennapod,Z3A6QU9xcFRPSHJGYkxpNW82SHhDQTlQOXNyVVp2cU9SUUR6OTRoVkd1bEtvVkJfb3ZtWmM2cWVIYV8zYmo2UEYwZ2F1NUlwN3B6S0FlMzVYXzNKQUFZellR,English,,5,2015-12-17,Courtney Stairs,Great app,Really awesome!  I like that it integrates with iTunes now.  Sometimes it's slow to refresh my feeds (and by slow I mean 20-30 seconds) but that might have to do with my Internet/LTE provider.,,
AntennaPod,Google Play,de.danoeh.antennapod,Z3A6QU9xcFRPRVB4a2VYNHg0VVRYeFRsMG5mRWg0UjZvb2tlZEpuQXJoYTJQNFNCNVBRa1Vram9uNHRwVGNqNG1QMVVaUjlKMTR3c2dyZ1IwS3ZwVGQzeVhR,English,,5,2015-12-17,Kevin Takaki,Awesome,Handles everything including subscription feeds with logins.,,
AntennaPod,Google Play,de.danoeh.antennapod,Z3A6QU9xcFRPR0I2aU8yWjIySTdON1lfUm1fbHNWTGFyZXRVanVBcjhiTHo0YlNHZjlraWxOdVZRSjFua0YxbHVSMnpRUlRJM0lKUjJHcERMbGRHYWwyWkQ0,English,,5,2015-12-17,Tristan Stahnke,"Simple interface, love the queue","The queue is a great way to process through remaining podcast episodes. It's a very simple all, lightweight, free and no ads.",,
AntennaPod,Google Play,de.danoeh.antennapod,Z3A6QU9xcFRPR25DZVdlSlZRUE5TajVJX0tzYlpkRVJqX2RlaGN6SVpZbW1KNnRKODhVb3RiVmZ1ZmxITTdYbS03T0xuLWh0S283aXZiV2lzN0Q4d1ltbnJz,English,,5,2015-12-17,Robert Lloyd,Awesome App,It's programs like this that make me a huge fan of the open source community! I love that it positive when I disconnect from bluetooth. I also like that the app can use almost any podcast source for its usage. Thanks for all the good work you guys do on this app!,,
AntennaPod,Google Play,de.danoeh.antennapod,Z3A6QU9xcFRPRUMtOTRoa2IzUGxXN3ZKVldPWU92eE5ITXJVbnpaNmo5UjJoQmxFT2xMRXpQRG1sMWlxZUhaeV8yN1NWelFBN2pWMjNUMXQ5ZEN6Z2lsVWJz,English,,5,2015-12-17,Jeff K,The best,"Want a player without bloat?  Here it is. Stable, feature full, reliable... And open source.",,
AntennaPod,Google Play,de.danoeh.antennapod,Z3A6QU9xcFRPSF9zaXN6MEhtZW8ydjVnSmM2ZEliUVdVV2l2NTdWb0tVY2VySUJOX0E1SUVKdl90bmRmdkNYY0ZZQ3lFLXlGc3dqT2VPN3BvNTZqZFc0YU5J,English,,5,2015-12-17,Josh Black,"",Absolutely Love this app,,
AntennaPod,Google Play,de.danoeh.antennapod,Z3A6QU9xcFRPRWNpSmk3MFFKVnBaLTgyZldkZWI2S203czFYa3VHaXN4R2JwMUhVY20tOTkyaHlrNm1vdTRFWDBQaDdHZVpzV2RyTVF0amZ3Nm0ySENNVEVz,English,,5,2015-12-17,Sheldon D'Souza,Very good app,"Easy interface, no bugs. Recommended.",,
AntennaPod,Google Play,de.danoeh.antennapod,Z3A6QU9xcFRPR1Z3UHB0bElpWDZmc2M2VUtCNjYyZDBBczcwSkZueXF0OHVtSGZFZTl5MF8wekxtMk1ZdmswUDZfc043LWtGMk42NEMwZTFoQ1RnNVlPUmIw,English,,5,2015-12-17,Stewart Johnston,Downloads sounds I like,"I don't have a constructive comment really; it downloads podcasts so I can listen to them and otherwise stays out of the way. It's great, FOSS and ad-free.",,
AntennaPod,Google Play,de.danoeh.antennapod,Z3A6QU9xcFRPR2xrSlJZZHBnZ3FKaGo5LVpXM3NXUnBJX0V0OVdpNmtwM2ZjRlV2NDY3cFotWWhFRmJ2cTNTLVhaeWJRMTBnMUlxeF9FNU1RcXBrakpZYzVF,English,,5,2015-12-17,Sven Simonsen,Simple and functional,Does exactly what it says on the tin and is not bogged down by extra features no one needs. Instead it just works.,,
AntennaPod,Google Play,de.danoeh.antennapod,Z3A6QU9xcFRPRm00c2kybnpqRW15ODUzQlNmWkFXazJNaGdBaVNpVDVmYjM5NEU2YzFSbVlWLWhrVjNUUkRnZ3FmbmVhdGh4NjFtZEFTQTgwR1d4RDZSUkg4,English,,5,2015-12-17,Ed Patmore,Great product,Great interface and reliable,,
AntennaPod,Google Play,de.danoeh.antennapod,Z3A6QU9xcFRPRlgtZ0RSUGY3N3l6RjB5TjFUbWRaaHJnWGctYVlENGduemc1RVRkWmRwTDhlWlJrYVBXaG1DNEdvS2hBSHM5RGJYR3JrQXFXTTBmb3JwcWRZ,English,,4,2015-12-16,Steven Morris,Works well,"Works really well, simple interface with enough configuration options to make it a powerful and useful podcast listening app.",,
AntennaPod,Google Play,de.danoeh.antennapod,Z3A6QU9xcFRPSHltVFhvS3czX0lvREM2QkpZRFRwcERkcmFibVp2eWhBQU5CeW1wTFVfRXNQbGRsbGNOZjg1RXp6akxWNkRWcFppbm1ZREFIUk9USmRsNlE0,English,,4,2015-12-16,Brandon Cooper,Good,Good podcast app not a bunch of added stuff. Easy to use and understand.,,
AntennaPod,Google Play,de.danoeh.antennapod,Z3A6QU9xcFRPRzNuRjViYUNDUEVYcDNBV05taHJzVVhGOTRqcFpNMlRqY0V6X1V1TlU5X0dETERnXzRzT0NPWHdrMDBGekhOOEdLbENHMVhxQ1ptYzJkWDdV,English,,5,2015-12-16,"",My first app review - love it!,I've tried several podcathing apps and this one has everything I need and nothing I don't. Plus its open source!,,
AntennaPod,Google Play,de.danoeh.antennapod,Z3A6QU9xcFRPSGJTaFItOGJyM21NUzlZaGs3RjFRQ2I1RS0zRWtGa0c5OGhCQmF2VjFvN0EwbTI5d1VnT3Z1T1E0d3FuMDhwanV3NG04RlUxRmNqbDhhcmVF,English,,5,2015-12-16,Daniel Trinkle,Simple is best,"Does exactly what it needs to, and does it well.",,
AntennaPod,Google Play,de.danoeh.antennapod,Z3A6QU9xcFRPSFc1bzZZNFZYTkV0WWdwNVVtbWhyM29tbUJ0YnQxNVoxU2FxZFR6T0V0Y0stMml1dmVyVzNJcTJ6VVV2ck1NODhtTkRiMVIxelk0MEZWSFhz,English,,5,2015-12-16,Chase Perdue,Good,It's the only one I use.,,
AntennaPod,Google Play,de.danoeh.antennapod,Z3A6QU9xcFRPSGVxREVKbmlaRkFFMkgwa29YSlY0bXFMejFHdTJ0MUFrY0F0OEVabjVWdmdZeXBxeXZzSklDd1BLaHJlZkYxUVNNWV9TN19BanlQNHgyN1Zv,English,,5,2015-12-16,Ed Ant,Great podcast app,Does what I need it to.,,
AntennaPod,Google Play,de.danoeh.antennapod,Z3A6QU9xcFRPRmVWeEdYSEJQRXU5c1N4QjFjWEg0d05MaHphNjBTOHdRandYRndsck1yeDc3Z0U3YmNla2JOdC1xUFM1WlZtNWI3M3NnT01DS0ZEUWZ3TnFV,English,,4,2015-12-16,Jonathon Anderson,"Works fine, but kinda buggy","Still the best truly free podcast app I could find on the Play store, though.",,
AntennaPod,Google Play,de.danoeh.antennapod,Z3A6QU9xcFRPR1JWdWtsLUNxUEZzMXFBRlpxblZuTU95aDF2cU82eG9zVTBmVmlIdDlyOFVTTmVQU0phZ2ZKcDFxTlplZWo3OTFCWTJLcnZXd3B0ak5SMmU4,English,,5,2015-12-16,Philipose Mulugeta,Easy to use and update,Great app. Works as advertised.,,
AntennaPod,Google Play,de.danoeh.antennapod,Z3A6QU9xcFRPSHh2dDdNZW9DSzFvb3NoYXpmcWJHX3VtR3dvTzRTMC1JTmNmUE83bXlUQlRGSl9wN3NpSVVFa2xneUdrSkxHbHVkbHY3eDg5aDVzSHFyQlVZ,English,,4,2015-12-16,Mike Langley,Preferred the old layout,This is my favorite podcast app. I have to say that I preferred the old layout/UI.,,
AntennaPod,Google Play,de.danoeh.antennapod,Z3A6QU9xcFRPR0xnXzlqaDBKS29rRFhvbmE1ZGc0TjJGTnI2OHdGRXQtV1ZVeGplMWtTSWxRRVZDYjRiaUg2LWU0a080cVVBenRuMTRqTTlZd0pQWkJXT25Z,English,,5,2015-12-16,David Kepple,Best Android Podcast App,I've tried many free and paid podcasting apps and this is by far the best and most reliable.,,
AntennaPod,Google Play,de.danoeh.antennapod,Z3A6QU9xcFRPRXFWT3kyR20tdFYxVmR1eUthMnF0RFNaTzd3dXd0NFQ5d0trUjZlNWtEb3k5ZnFXbXhfQWpaT1U2cm1KT1A4cnczS2xaLTE5YkdpOUZoeVpJ,English,,5,2015-12-16,Kevin McCarthy,Great free software podcast manager,"It's nice to see more free software projects available on Google Play.  I'm a light user, but so far it's working great for me. Thanks AntennaPod team!",,
AntennaPod,Google Play,de.danoeh.antennapod,Z3A6QU9xcFRPR2dKVHBJRW1rblBGWTBVamRrVi1VdFlLeXFrdEVDVV9mVTc4WXkxcUlsYXFNOHFjM21zWWg2cVVzbjVMZmRDbWhHVWtiNk94WEUyY0Vwbjdj,English,,4,2015-12-16,Michael Lenz,All the basic features,This program does everything you need it to without cumbersome trial periods or paying for advanced features.,,
AntennaPod,Google Play,de.danoeh.antennapod,Z3A6QU9xcFRPSFVTRkNyb1A3dUhlSTk3dm1Hc1pUdDJvUmVjRkxRM3A0QjVxLTllRmlDWnV3WHBSVkJKOUhTUlJsZkhNZmpTWU8zUmFSdlVNVDBMdVFCdE1B,English,,5,2015-12-15,Cristian Perfumo,"",Awesome app,,
AntennaPod,Google Play,de.danoeh.antennapod,Z3A6QU9xcFRPR2tZaUNfR2lCUG8tVjZZSjNuem9pRGRtRWRtUE5rSlhXbGNsc0VwTUxOamlWSEktRkVCRTd5aldQWmNmd1NfQ3l6cjJJRy15RjFpYW03YjIw,English,,4,2015-12-15,JUNG HWAN SONG,좋아요,좋아요. 다만 폴더의 음악들도 플레이 할 수 있으묜 더 좋겠어요.,,
AntennaPod,Google Play,de.danoeh.antennapod,Z3A6QU9xcFRPRnRqZWdKMUwzS1d5empfV3ZBZVFjWTdmZF9wVTMxTlBVc0FFSHJiZVJxVlFhWkVNR05NWVFCbk5yWkdGUzRVZzM4cEFwSFdxbnpwRGZsRThJ,English,,4,2015-12-15,Ryan Andersen,Pretty good,Could be improved by updating Podcast image as they sometimes change per episode,,
AntennaPod,Google Play,de.danoeh.antennapod,Z3A6QU9xcFRPRXVYX24zeW40aUxTQklXOFZfSDNrY2llVlNtdDJtTHdHNW1CNzhETWtWdHJfSzVCVmd2Y1Q0NU9mQnY1Z0pjLVN4bzNvQUdMRjRGWDM2VFg0,English,,5,2015-12-15,Emmanuel Preko,"",Good,,
AntennaPod,Google Play,de.danoeh.antennapod,Z3A6QU9xcFRPRWg0VkNJU2dDMkFDZnFJbzNKUXh6ek4zZkl2dkQ1dTFPZVc2ekN6VkY4SF81MDNMa3k1WHowdmlERkpvN2NjOEdnZVd2OUdCMUdCd3FnU2I4,English,,5,2015-12-15,António Miguel de Jesus Domingues,Simple and practical,"Great podcast manager and player. Could have a couple more functions to make it perfect, for instance the option to listen to all episodes from a series, or sort by series, but it is for free and the developer is responsive, so 5*",,
AntennaPod,Google Play,de.danoeh.antennapod,Z3A6QU9xcFRPSFcyLUlYTmpreENzVi05TGJfNVpLZ3Z0Nkd5czJZeThhZ3pCZGNlXzdGVlNIS2NuU1I0RHJPZUlveXhXUjBxcW9BdGhQckZkZjFlQ0Q5SkpJ,English,,5,2015-12-15,Juan Sosa,"",Perfect for audio podcasts!,,
AntennaPod,Google Play,de.danoeh.antennapod,Z3A6QU9xcFRPRUo4WERNWE01TkppTHBldF9DQ05rZkl1ajRjUWV3ODFTaVRlVldBaEF5NlVjLTByMDJXVzhZVllneTY5MTN0dm9WZnhsQlc3NmFWaXoxUnd3,English,,5,2015-12-15,Dwaraka Nath,Makes Podcast great to use!,The most fabulous way to listen to your Podcasts!,,
AntennaPod,Google Play,de.danoeh.antennapod,Z3A6QU9xcFRPRVI4bXpjOG93Sk9RZFEwbURGc2xtdHBTNHVHU1JWRXZEaVg3UkgxT2IzdTlreE5hbzlEUzQ2ZTI2WFJVbUJ2Y09YZ0RhNm8zLV8xRHVRWDVN,English,,5,2015-12-15,Ethan Alguire,"","Great podcast app, getting better all the time",,
AntennaPod,Google Play,de.danoeh.antennapod,Z3A6QU9xcFRPRzNFeV9fOFJ3NFBpVUV0a0gzZ2RKaDBsZENwVGEtcXhWOHlTd1NfeF9VRlpjbDBZYjlURnhCT1VPUnRSSjgzQ3c0V2dhNXlPRUpwMDFlSWtv,English,,4,2015-12-15,Tyler Morley,Excellent Open Source App,"Looks good and runs simply.  The app is constantly being updated, and if you submit bug reports or feature requests on their github they are fairly good about responding.  Sometimes updates will introduce small bugs and the app is probably not the cutting edge in podcasting technology, but it is solid and always improving.",,
AntennaPod,Google Play,de.danoeh.antennapod,Z3A6QU9xcFRPRm1TRHI5WkVNemt0TlNVeTZIUkZUR2pJUGVmUFBCTWswM3pvNTktajU0TGdpRG80UlFtTHRCZ2o4RElRc3RFYVRvY0Y2NVNQREtkOWVJaGhJ,English,,5,2015-12-15,Andrew Tan,Great app hope it keeps improving,"This app is great and has all the basic functionality that you look for in a podcasting app. I feel like there are some design optimizations that could be made to the user interface as it is a little clunky at the moment, especially the pullout drawer and the swiping behavior which is not very intuitive, at least to me. Also this might be a bug but the white icons and text are impossible to see on notifications. I also think adding more material design could improve the ui.",,
AntennaPod,Google Play,de.danoeh.antennapod,Z3A6QU9xcFRPSDRDRmZkUkhVdVRFLXdJdmtZejUyczlhWl9NMUNtSzlMVjZpZlRiYnZsVkZleGI5MEdBM1Z4VE1nLVdhaVRYWVVsaU1sTllVem8wY0pJNzl3,English,,5,2015-12-15,Aaron Hamid,"",Best podcatcher around,,
AntennaPod,Google Play,de.danoeh.antennapod,Z3A6QU9xcFRPRTR3ZkpjcHk0OTZ6ZUY0eHNZbU83Y0JVUUR2VXFJOElXbzJiM2t3MUVvZUN4MEtGVlVhd2tVSWdUNlR5VDZoMlpYWUdLT3NLZjlNTFF6V1dv,English,,5,2015-12-15,browny aroi gang,"",Very good,,
AntennaPod,Google Play,de.danoeh.antennapod,Z3A6QU9xcFRPRUd3RG04ZlN1M01xdnF0Q2NJSVNQWHJpdWZnajMwNU9Nelc5S3lwOGxJaGZsZEFzTFlhc0lwWm1LMnltdEw3UTVTcTJ5M3ZyX3pHdDd1MVlv,English,,4,2015-12-14,Jordan A.,Mature open-source product,A solid piece of software. Could handle loading states better though.,,
AntennaPod,Google Play,de.danoeh.antennapod,Z3A6QU9xcFRPSFFocy1WWEFJOC12X3AzeVlqc1hPcFZ5RWZ2Ykoxc2pYY3d4WllNeVowTTlzOWlDLXlNZFVQUUY5S3BmNV9JWUpqcUtfNU5PbmhzSWRFMjBz,English,,5,2015-12-14,Anders Lindgren,"",Good pod player,,
AntennaPod,Google Play,de.danoeh.antennapod,Z3A6QU9xcFRPRU12d0xIT2Q2VllmYjlobmViOUxsRHpSVDlWODMxZEpxbU43a2ZKekphNTEzRXNXcmdiYXU0QUdwSzRuTTdsaVVmRjRLZ3FZalhxYmxKM3RF,English,,4,2015-12-14,Toshi S,Best experience so far,"Overall this is my favorite podcast player on Android. Easy to add feeds, and I like the way it manages them within the app. It allows for downloading episodes, and it remembers playback positions. Only downfall is that it sometimes becomes unresponsive, but a force stop usually resolves the problem.",,
AntennaPod,Google Play,de.danoeh.antennapod,Z3A6QU9xcFRPR0dQYk9TT0gxRy0xOGtzZ3EzMnI5UVdjcGtEdWFVR0JGaEVPb3Exd2x6U0RLRWJfbEZHdkNuejNFMXNjb01iYktGcWotbC1HN0NGY0ExRjFn,English,,5,2015-12-14,Deborah Anne,Great podcast player,I love this player it is simple and easy to use. :),,
AntennaPod,Google Play,de.danoeh.antennapod,Z3A6QU9xcFRPR1dqM1hqNzN1aXA4UjRNdmdqT0ZkcElONG9udFVQSWVEWUNtVzAzYTVsU09abDhvelZ4T1FWMk92dXlKYmY1UEV1QmVMaHdBcGFDd1I4bXlv,English,,5,2015-12-14,Adam McFarland,Perfect for me,"I've been using AntennaPod for a few years now, it's the best podcast app out there for my needs. Has exactly the features I want and no other bloat. Simple, easy to use, good import/export features, good widgets, etc.",,
AntennaPod,Google Play,de.danoeh.antennapod,Z3A6QU9xcFRPRlh0UGZVaWFFeHFONTZWSUYyQ3JaNEczR3pJb0Y4akpCWXZrbFdzZ1FYZU5SNmc5dV80bjB2OGdPVGJRZnNvRkJQY19ucU9oczVxSFRSMy1V,English,,5,2015-12-14,Mark Smith,Great app,Great app.  Does exactly what I need and I use it every day.,,
AntennaPod,Google Play,de.danoeh.antennapod,Z3A6QU9xcFRPRjhXUXNxRUNXV0ZKNTdvXzJKMlA5ZW5CeDdHbE9rVVAtT3dRX2FNbmZOLTlwWU8xZWQweWxTTjdJYlpKNnFUWXRhcm5McUxEQ1prSFFUYjRF,English,,5,2015-12-14,Michael Dougherty,Fit my needs,"I only listen to a few podcasts, but this app makes it very easy to download and listen.",,
AntennaPod,Google Play,de.danoeh.antennapod,Z3A6QU9xcFRPRXVZM2NMX1M1eWNNNk1zSXVmV3JlRE51V05xM3h4VnhfWWdQbzdvamJ0M2M5TUhNUE1UYnQxNURYU3d4bkRzVnVXT2o4Y0RxYTdkSWh4aURJ,English,,5,2015-12-13,Ian Smart,"",Easy to find what you want and it's all laid out very nicely,,
AntennaPod,Google Play,de.danoeh.antennapod,Z3A6QU9xcFRPR3RfR0xSZnNmUVhIY0s1dzZ2X0pYdlhrMFJ3Ti1kOXVfMUppMWpMWlBRbk9COTdmWnluRE1NNXc2QXNtczNRRGEzY05penZrcjFIb005Vm1F,English,,5,2015-12-13,Dustin Hudyma,Great podcatcher,I use this app daily. Simple but good looking interface. Built-in variable speed playback now. Gets more and more amazeballz with each update. 6 thumbs up.,,
AntennaPod,Google Play,de.danoeh.antennapod,Z3A6QU9xcFRPSDItcF82c1RBcU15OUFFYjNubU4xOGt2V0VQb0pfMDFuaW1fZDgzaklDeWdMYlZpWWdTN0RDR1hOSGxEVVBhYXA1R2lua3lPblp4MTNJUm1R,English,,5,2015-12-13,Austin Clark,"Quality app, great for multiple podcasts","The only gripe I have about this app is the fact it doesn't do well when my cell signal is bad. I have an unlimited data plan so automatically downloading episodes would be a huge pain for me but if I have very little signal and I accidentally stop playback, I have to wait for it to start to play again.  Preferably the app would cache the episode as I play it so I wouldn't have to worry about it but I still have this issue.  Also sometimes a random episode won't play.  I have no idea why.",,
AntennaPod,Google Play,de.danoeh.antennapod,Z3A6QU9xcFRPRUFBQnJhejZCRGNfX0ZOczBrVXF2V3dCUGdwT2hVYk9Xamp1YnJOaEd2Y25PSFZaMy1mOEZ1RmNPYng2Y0JuTTF1NFo1dndfWHRKUHFiZXlv,English,,5,2015-12-13,Nick O,Best podcast app,"No adds, FOSS.",,
AntennaPod,Google Play,de.danoeh.antennapod,Z3A6QU9xcFRPRWxEOG92eU1fRlFCR3BKVXZYS3BnVEplN1A5eHNCQTdqd3E2cmdpQnU3UjBrTFkyV0NSdm5iNGp2VEpGOU9JTVhqSldfSDgxQ2pFMzk5TDg0,English,,5,2015-12-13,Antonio Sanciolo,Best Android podcast player,When I made the switch from apple to android the main difference I noted was the lack of an inbuilt podcast app.  Eventually I found AntennaPod and since then I've felt even it even goes beyond what crApple were doing with their app.,,
AntennaPod,Google Play,de.danoeh.antennapod,Z3A6QU9xcFRPRVEzWmxoNFV5ZDNicUlyT3E4WDBSZkdBWUNjMXUxNDJhVXdZeVZPQmg1MS1VU2hqYktWRVZIR2tVTFhVdWJfRmFSOXRYZTNvVHJkZzJ3X3Vn,English,,5,2015-12-13,Kwame Kusi,Truly great,This is the best free podcast app Ive found.,,
AntennaPod,Google Play,de.danoeh.antennapod,Z3A6QU9xcFRPSE0zQXZESGFuS0xfbEkzRC1zcUt5Z1pkMnlvX1MwNGJXTkZjdmJzcFdVUUo0d1VkVEVvY3REZUxFRkl1c0pvYV96SzVpWExBZUFTLVpVQ2l3,English,,5,2015-12-13,Ognjen Ilic,Great app!,"For the advanced sleep timer, is it possible to extend the time window during which a phone shake will reset the timer? Right now, it feels too short; between the notification (that the timer will soon be up) and the stoppage of playback there's only a couple of seconds. Thanks!",,
AntennaPod,Google Play,de.danoeh.antennapod,Z3A6QU9xcFRPSHFDOE9DRGpWeXl0ek5iVzh3dmZNR1E4akF5TGJnMUlyQXBnWWZKcnB2T194d19XNEFONk1UVDNLOGRTNXdkam5QMWZiTUZxMFJKYzdqWnlB,English,,5,2015-12-13,Jeff Wittneben,Best RSS app out there,Simple and no ads.  All I can ask for,,
AntennaPod,Google Play,de.danoeh.antennapod,Z3A6QU9xcFRPRnd5SGk5cGFOT25fNjdZLVZ3ckJDUlE4NENCV01BRlJWdEItaTMwZFRGdkExcjdnRzFrTkpiRkhLQV9kdUNkT2FaWWZIdHhZRlhCaC1UMFdZ,English,,5,2015-12-13,Paul Hogan,"",Does everything I need!,,
AntennaPod,Google Play,de.danoeh.antennapod,Z3A6QU9xcFRPR01ib1pJb2wzNTFBRjg0emktTDhSVHJ2WTlNdlN3Nl9zUkpFUFZvYVpVTmNQU1dTb3kwSm1nOGFOcURNNEhFaTByVERTT25SNlYzeW8xRUNN,English,,5,2015-12-12,James Meinert,Love the newest version,With the controls on the lock screen. Thanks so much to the developers. Awesome app,,
AntennaPod,Google Play,de.danoeh.antennapod,Z3A6QU9xcFRPSFBDMzVoNDlyLUMxbE5jRXM5UENsYlhDZTVqdWl2VWJ0MmJoOFBNN2NQNUZyWjhQVFlEcVZhODl1SDM5MFFYV0Q4NS1OeGJrR0lxMTZHby1n,English,,5,2015-12-11,Phillip Sz,cool,"super APP, geht alles super, es gibt keinen besser kostenlosen/freien Podcast Client unter Anrdoid!",,
AntennaPod,Google Play,de.danoeh.antennapod,Z3A6QU9xcFRPR05hblc4T1VFOGowWVZobHFPS2xxdHVDb0tWdUZaOG81OXJDVXEzQlZqWmdhQ0dPSG5xLWF6MHNYWklIX0hXUTdUUk9UZDR4aUcyS2R6cXlJ,English,,5,2015-12-10,Jim Kingdon,Effective podcast player,"Plays podcasts, has good features for downloads, keeping a queue of unplayed podcasts, etc. Keeping track of played/unplayed is the key difference between a podcast player and a music player, and this one does it well.",,
AntennaPod,Google Play,de.danoeh.antennapod,Z3A6QU9xcFRPRk1HR3ZlTUVmaHdweFdTZFk2YmpPcGlSYXFkNzVocXY0YllCbEg0SFRNTTV4VHo5Nk8wMzFTV0pLbWlUTV91TExfdVllYUYzS1owcjJ3b0I0,English,,5,2015-12-10,Andreas Poehlmann,Best podcast app on Android,"Does everything like it should. (Only problem I have: when the side menu is open, pressing the back button currently closes the app instead of the side menu)",,
AntennaPod,Google Play,de.danoeh.antennapod,Z3A6QU9xcFRPRXU4ZUw2UnhTTmhuWnkxMFJ0c3I2Ni1wNC1PeEhQQUJpOVpabEFfXy1nQ2psY2hCazEwdC1TNnQ0U0tZXzh2dkdYa0VkWmR4T0I5cXZJZGNR,English,,4,2015-12-10,owd200,Good,"Interface a little clunky, otherwise great app.",,
AntennaPod,Google Play,de.danoeh.antennapod,Z3A6QU9xcFRPRUZjU0JrN0hUWS03SDJlM1JfMDMtV1RQQW1wNGhUbHc2RlA2Y21BUDBqVUFYbjNFNmdEbFo0ZnNycTgxUFJuRXRscDZjZTQ5V0M5VXM0dTVN,English,,5,2015-12-10,Michael Diamond,"Simple, effective and efficient.",It doesn't try to do too much and is much easier to use than its competitors. Does the job with no fuss and east interface.,,
AntennaPod,Google Play,de.danoeh.antennapod,Z3A6QU9xcFRPRXpvd1l1RFZRcjRCc2xQdzRxWUswWG1aaEx0QlpJc0hxQThDSUQxUldrQlViWVFmV1pPYmw1TTY0d3RxNzRNb2F2aUctWjh1cEJUSXFnX1I4,English,,5,2015-12-10,Ian Hoffman,Great.,Perfect solution for podcasts.,,
AntennaPod,Google Play,de.danoeh.antennapod,Z3A6QU9xcFRPR2FUTFFlZmllVHAxaThBS2d5U0tTWEUybkNSWVF5OFJoNzZ4eWlYNHdOS3JYS2dDRVNfYUlFNUhjX0xmZW9yRWdLWWJpVHR0QkkxdnFzX0o0,English,,5,2015-12-10,הרן סנד,"","The app is great, free, configurable with no limits",,
AntennaPod,Google Play,de.danoeh.antennapod,Z3A6QU9xcFRPR1Vva1g4SW1NR1lWODloRE52b01QZzB0RTlzeV9lYXBaRnVnaUJ2eEJ6QWJ4cTdoMVZvV1pIcndCUFBiNlgyVjRKMEIzTm1tTGw0aVl1M2JF,English,,4,2015-12-09,Melissa Ferrara,Update bug,"Just did the update and now all podcasts stuck with ""filter"" always on, but the function no longer works. Uninstalled and reinstalled, same problem. Really liked this feature, but now unusable- help!",,
AntennaPod,Google Play,de.danoeh.antennapod,Z3A6QU9xcFRPRjBycjYtZ0RzWUFXeXJfVUh1RG5iY3JhUndOS1ZzU1lQY2tjUDBQenAwOHN0eUVmMzdXUktqZG92bW9ZWXpaVWRXemRvUF9tWGxJUzA5Y3Jn,English,,5,2015-12-09,denver dorsing,"",Works great,,
AntennaPod,Google Play,de.danoeh.antennapod,Z3A6QU9xcFRPR3dQNGc3SVdDaGpkVm5zcGFNQkh3bnBLMWRJenU1MldTMDFXbU51amxXQkR6a1kzR0xJMW9YYll4WFcxRHFKbnNsWHRzOGRJQ3RFN0JzNUpB,English,,5,2015-12-09,Michelle Gonzalez,So helpful and easy,"Didn't know apps like this existed. This one is so helpful and easy to use.  Very convenient, don't have to go to so many sites to get all the pods I listen to",,
AntennaPod,Google Play,de.danoeh.antennapod,Z3A6QU9xcFRPSC12azRvbFFET3JNYVZ6RkF6aVROT0puU0wxeFFPcFROYldiU0t2SU5qYmZFWFhxWDFxYW8zXzU4dUxpY3lROHJSU0JkdlJxYmV6YWxNT3Jv,English,,5,2015-12-09,Dave M,Best podcast manager,"The only change I'd really like to make is have one button for ""Delete file and remove from queue"" possibly on the long press menu in the queue. Otherwise, very happy with this",,
AntennaPod,Google Play,de.danoeh.antennapod,Z3A6QU9xcFRPSDZVV3NWQlZGcnZkbHlESVQ5bGZwZm1xUnVzUU9KNEhrN3NGMWFhVDZHUko3T05KU0wtQUJlWHZzNjdwMWdXNnNsMk5XaXM3cXpnRzNiY2Fn,English,,5,2015-12-06,"","",The best one out there,,
AntennaPod,Google Play,de.danoeh.antennapod,Z3A6QU9xcFRPRmNXckpFYjcwRUZGanU0VFJEU2tpUXhfbXhqQy1KYno1eEJTZ19WeW9uckJqVGJxSWV2a0ZSZXhUcTRWMHpIOG13ak16MGxodlM3ay1qdmJj,English,,5,2015-12-05,Dirk Jäckel,Great Podcast client,Still learning about new features. So I can't even demand any. :-),,
AntennaPod,Google Play,de.danoeh.antennapod,Z3A6QU9xcFRPSF9fcXpldGhZOFJfcVlZaG5lSVVBYUpIdTJRSnFzc0RyMWoxNHUzdUFTT3VHN1dCOGFqVjhmUlpjU2YtVVVhOHBWUHR5NzdoTGtyUEwxc21J,English,,5,2015-12-05,Leo Comitale,Excellent,Still my favourite for podcasts.,,
AntennaPod,Google Play,de.danoeh.antennapod,Z3A6QU9xcFRPSHV1emhsbDhCNnJ1VGdoazRPZFJ0Zl9HNlh6TVN0VmZpU0Z1cEZqSm5FR0ZnaDQ0SDJneHFfbTZRTWY4YVNmU290YXI2Y19leURZNEQ3TjNF,English,,4,2015-12-05,Robby S,"Great, should support Chromecast","Love this app, just wish it supported Chromecast especially now with the audio version.",,
AntennaPod,Google Play,de.danoeh.antennapod,Z3A6QU9xcFRPRWpkRTYxMzNxN003YWEzWDJsUmtmbTFxalFGS2gzU0Fhcy1IczJBT3dLMUNpT1V0UlhIc2h0N0RKOXV5c1dnU0Z3aFFRZkNIUXh3SHJJeFNR,English,,5,2015-12-05,Bill Zabaronick,Excellent,"Just wish it synchronized playback position. Even without that, its still the best podcast app ever.",,
AntennaPod,Google Play,de.danoeh.antennapod,Z3A6QU9xcFRPSGZRYUVmalZCdkxBR0tIVDh3eVNKMXZVUzc4aTh5Ym5xcjd4TGJtaHlQZEVwa0x0S3FFUmNFV3VSa2Q0ZElJWHdOUTFHWTdyN2RIOExxSnE4,English,,3,2015-12-05,Jason Brier,It's ok,"My favorite app has been crashing so I'm trying this, and overall it's ok.  Pocketcasts had dinner better playback options and the ability to play from oldest to newest.",,
AntennaPod,Google Play,de.danoeh.antennapod,Z3A6QU9xcFRPRWNGX3ZXUDk0blZMdmVFaG90eFQ1SVZwNVV2WTMtanN0STl5RVBSS0Z4ZjNGbVhiSkVydzBjSzhvOTIxRHdzTHcyMjVFVVFUMmpCS0Q4NDFN,English,,5,2015-12-03,Abhay Deshpande,This is great!,Would be good to have the skip control on ui also now?,,
AntennaPod,Google Play,de.danoeh.antennapod,Z3A6QU9xcFRPSHRJbTAzUnUySmtTM2s3TDk3c0taTFB2eVJuenMxRWhKZDE5alFyajNKdk1UVWlCX2FMSHprRmV4Vkd5WWFkUnpRWEE1TXVSQjUtOE04MFQw,English,,3,2015-12-01,Kenneth Johnson,"","WIth the latest update, it is now VERY difficult to re-arrange podcasts in the queue.  The queue is the best feature of this podcast app, and it would be nice if it could be returned to the way it used to be. On the other hand, it now seems to work better with the play/pause button on my bluetooth headphones, so thanks for that.",,
AntennaPod,Google Play,de.danoeh.antennapod,Z3A6QU9xcFRPRnltOTB1bzdnWUFSX2d1MU5DOS1hV2YyR1htQ2JuZm1KZTJDNDZrd2o4c0NzMjY5NUNvLUhCSGE3S3BERUVueGJVb1Z4OWFXczhqX044MXVj,English,,4,2015-11-30,Jason Simpson,"Functional, easy to use","Only one real issue I have is that usually, but not always, when auto-advancing the playlist the player freezes. Pressing pause brings up an ""unknown error"" dialog, which then drops you back into the queue. Selecting a different podcast usually, but again not always, restores playback.",,
AntennaPod,Google Play,de.danoeh.antennapod,Z3A6QU9xcFRPSGJ6T2t4MUtNQWVtOWU0Z3lNb3hQbzJNNTc2ZkVmLXE1Y2hpdnRjbHRzVlQwTE1EOXJOdElrSTFReVd0b2g0dVA5ZG8wSUtJTlVMXzVOTkFV,English,,5,2015-11-30,Jes.e B.,"Rock solid, intuitive and flexible..","Wonderful program which fixes my addiction I got using the ""Podcasts"" app on iOS. The interaction design on this is *much* better. Congratulations. Ps, loving the Holo too!",,
AntennaPod,Google Play,de.danoeh.antennapod,Z3A6QU9xcFRPRUpvYllsVjR4Mzl1SHl5NmlSQXU4bk93WTI4TzZyY3Z4MjJfRktDcHUwZUNESkphWW9sd3FTN2ZSLUI1bjA0R0VRR1UzN1A0M09vdU5sNHp3,English,,1,2015-11-30,BARBARA WASHINGTON,How do you open it???,"Useless if you can't open it and use it!!! IN RESPONSE TO YOUR RESPONSE: I reinstalled it, but just how am I supposed to send you a crash report IF I CANNOT OPEN THE DANG APP???? I can't get anything except the Google play page that says it's installed. It doesn't show up on my phone except to say it's been successfully installed. No option to open the app, nor does it show up in phone as an app that I have.",,
AntennaPod,Google Play,de.danoeh.antennapod,Z3A6QU9xcFRPR0NWNENXcTNYMTl0QUxSZ1pDTEduMGFPbnZvSkZtTG00ZlltMTNKNlFJYUFReURvU0hVbmxKMGRpQmNzR0NTVHdNb1VPLUZKUVFWbTY4cE9F,English,,5,2015-11-29,"",Thank you for solving my podcast problem,Android does not have the equivalent of I tunes when it comes to podcasts. I have been looking for a solution for almost a year and I finally found one. I would also like to mention that I have previously tried podcast addict and tunein but both were unsuccessful at providing a service that is comparable to this one.,,
AntennaPod,Google Play,de.danoeh.antennapod,Z3A6QU9xcFRPRUpIODBQYkFNcnZUTU4tSFVmWmhTMFNjclJKZVU3Sm9nRWd3aFRvY2Y3dmtsb1dhcE5XNHkzdGlUQ2FjalpyYUFMZG9kNTZUczNkblI2d0Fr,English,,4,2015-11-28,Maykon Chagas,"",Awesome,,
AntennaPod,Google Play,de.danoeh.antennapod,Z3A6QU9xcFRPRkpia3E2THhFRE1YSnhCMElzaUdkb01TZGRTNWVwX3MzOTU1YWFlV2RRaDJrNnM1SFlmQUwtaXpvMUl6WVNvbnZoYXFfaWhGcnlNbHE5Wk84,English,,5,2015-11-27,Noriyuki Masuda,Good. Really.,"I've tried other major players around and I'm settling with thisone. Maybe I might want discovery, recommendation feature which I think, is missing but no complain as the player dose basics quite well. Free and no ads open source, I think this is a win. A note to the developers, I experience my xperia m4 freezes when I try to stream but the server is not responding ( download fails with 403 error or something)",,
AntennaPod,Google Play,de.danoeh.antennapod,Z3A6QU9xcFRPRnFBa0JrNGtrV0MzTkRraGdlMW9MT1hrTDc2bnFGNkQtNG1WZ01SemxtSG1BbmdqQzlHZ3dnWWF3M1VqalNOc3laT1N2cjZCSFNXelF1dUhZ,English,,5,2015-11-26,Chris Woodley,Great,A podcast app that isn't a battery drain or permission heavy like the other popular ones,,
AntennaPod,Google Play,de.danoeh.antennapod,Z3A6QU9xcFRPRVRfX21qbmhOU2VLMnlBU1Z5MFFQbXJzUXJBRDFzYnA5SVVFb05RcnZGZWpZSFBvR1hocVdmQkE2cnlGWDI1Wldya1pOWml0eG9WVXl3X0RF,English,,5,2015-11-26,Andreas Brandenborg,One comment...,"The app seems to be prepared for podcast logos, but how it works I don't know. Otherwise perfect and simple. EDIT: author feedback noted. Thank you! I'm leaving my comment so if other people wonders about the same.",,
AntennaPod,Google Play,de.danoeh.antennapod,Z3A6QU9xcFRPSDlqVGM5S3EwQzJHVHVZSE93N0JCSFpNU0Z2NzNQLWtKaDJEbFlzVDBZYlBCcWlGUS1XR3I5ems1SllpRUdBSTg5UW1mWjZER09RdFZoMUR3,English,,5,2015-11-24,Shaun Clarkin,"","Great podcast app, favourite one I have used so far.",,
AntennaPod,Google Play,de.danoeh.antennapod,Z3A6QU9xcFRPRjZZSjhtcUxKc1FCT0dycU9tU28yZ0hsb1k4cmVWQWptUDhqUGtyM1JidGJGSmlUYjJuREZjc1YxNkxBTm9vZnNDTHFyUTNTbjl4MVowNUxz,English,,5,2015-11-24,Jeffry Johnston,Upgrade regret! Last version was perfect.,"Please bring back the 30 second fast forward on the notification bar.. that was super awesome. Also, please provide an easy way on the hamburger menu to exit the application. I'm forced to kill it now.",,
AntennaPod,Google Play,de.danoeh.antennapod,Z3A6QU9xcFRPRUllS29lcjgxNDRORjFaYWxKcTRfOUd6UC01cFBmWUZ6eUtGZE9hTHdrUXVTMzlFREI3bGNNeVBfZFNkUWRyV21UVElCZHRmVE1kdHVMVjl3,English,,5,2015-11-24,Taabish Qureshi,Best podcast app,See above,,
AntennaPod,Google Play,de.danoeh.antennapod,Z3A6QU9xcFRPRzAyVG9QR19tVkMzNmtKX0M1Z3hYZGY1dFpkTGVrZDVtYVlGOEVIbTQ5OFliWmhaOHNhVXVoeXRhOFUwcmdHXzR1QUtxdi1PWm1DTHFfS0Jr,English,,5,2015-11-22,Charlie Torres,The best free podcast app,"I can find and listen to all my favorite podcasts with little to no hassle. I really like the UI, and the developer continues to make improvements. It's a no brainer!!",,
AntennaPod,Google Play,de.danoeh.antennapod,Z3A6QU9xcFRPRWVERlBhQjZmYlZoSV9td2lVTks0NXJZVTd0YjNsY1FPak1zOHVDNzhFMHh6c0d2WGZ3VTJzSnUyUExZVUdBaVIxS2NGNkJnM25aY1RQa3lJ,English,,5,2015-11-22,Sai Satish,"",The best.,,
AntennaPod,Google Play,de.danoeh.antennapod,Z3A6QU9xcFRPRVh0QkE2VXExR3h5YkFYc2tfSTV1WWNNdXZXY0tacV9RVXZySHN1SnhBSVZlU1Roa3Y5UnZuNzdRbmFFN095RFFYSGFjZHRoNGF6cU9CME5B,English,,4,2015-11-22,R. C.I.,Like it,Somethings could be different but in all it's a great app that I use everyday of my life. Thanks to the developers.,,
AntennaPod,Google Play,de.danoeh.antennapod,Z3A6QU9xcFRPRVp2MHdLa3h0bnRlYnFlMXJKUDA1cGxkYkJlTmY1WDhBbTFJNFVaVnlwb3ZIUlQxazFiNzFpYk1SSXQxRE10R2V3ZXlHLWo3ZzBYNDNKQ0p3,French,,5,2015-12-22,Tomy St-Aubin,J'adore,Encore un projet opensource indispensable. ... Félicitations,,
AntennaPod,Google Play,de.danoeh.antennapod,Z3A6QU9xcFRPRTBSMzMxQ1dzQS0yVzUzWFp2bmJXNU1EZ1AtUGNjMW1rVEQxXzRhQ251dmV3XzRnWmc4bFFMT0VLLU9QMUZJSVVQNEpBMHdIUFFFYTQtcDg0,French,,4,2015-12-20,A. Parzy,Très bonne application,"Je l'utilise depuis plusieurs années, l'interface nous conduit un peu souvent à quitter l'appli par mégarde, mais peu de bugs, des màj, du beau travail !",,
AntennaPod,Google Play,de.danoeh.antennapod,Z3A6QU9xcFRPRV8yZENkaHRmVHo4d1lzaWVhNzdoMjNWdWlEMkdOdWxZYUpGaG1VOGNwWDBnZmotWXJQMG9INHZ3N0hZYWVqNnZTS055ZzZlbjRINEhtMVRZ,French,,4,2015-12-18,Michael Gautier,Bonne appli,Mais interface pas toujours intuitive,,
AntennaPod,Google Play,de.danoeh.antennapod,Z3A6QU9xcFRPR3E1UFRSckJ5dFlteEVLNVpGaDQ1RmwxcWVnS2NzdUpiejRTbnBObXJ4TEpLNHd1Y3JnRWxxWDh3MXZtU2J3TFBETlNaTzBmS1M2N29aSDhR,French,,4,2015-12-13,santiago antoine,Bonne application !,Stable et réactive mais demande bpc d'aller retour. Encore un peu de travail pour l'interface et c'est 5 !,,
AntennaPod,Google Play,de.danoeh.antennapod,Z3A6QU9xcFRPSHExT1REZzFERHJkNnVReWJKallZTkd3ZTNEYkJaSkgyY1FLdGFzMExLS2U4ZV9Cd0dGVzF1aWZFUDQ2WmQxU1NnNUxVMTFtanJIUlhkZ2dZ,French,,4,2015-12-13,HJIB MORAD,"",Mervi;trés.Cooooooool,,
AntennaPod,Google Play,de.danoeh.antennapod,Z3A6QU9xcFRPR3ZFdWZpQjZlNFRoVGV0bEZFblB0c1lVVkttdi1CazRJSTltR0twdTRnQllhcTZXcTI2UFdId3hiWlRIOTlrd2xxbnBHc1l3V0pqUmN3SjNN,French,,5,2015-12-02,Lionel Boulant,Excellent,"Pas grand chose à reprocher ! Joli, stable et fonctionnel.",,
AntennaPod,Google Play,de.danoeh.antennapod,Z3A6QU9xcFRPRU9XU3JJYU1yMWJ6bl9hNUp4U2tRWDFOYm1uellLQklpS0NWa3JsU0s0cm5YTE9BV0c4eFZZNzVLbXRZb09RcHE3b1ZvaGtwX3hIeFBzMnRJ,French,,3,2015-11-26,"","",Widget vraiment moche,,
AntennaPod,Google Play,de.danoeh.antennapod,Z3A6QU9xcFRPRWpqQ1BXdDBOdjBqU1JNWEYyWG03ZFctWlAxSEVsZWc1U2RENW5UZjEwODFLUEtFT2VQZHJCdDljUl9ZNDlkVC01ZWtwdklKRXowcS1WNjhj,French,,4,2015-11-24,Christophe PARDON,"","Le meilleur des players de podcasts.  J'en ai testé bcp mais il est le plus simple à utiliser,  le plus fiable,  le plus léger et sans pubs !!!  Seuls 2 pbs persistent: -&amp;gt; si la file d'attente de mes podcasts à télécharger est trop longue,  AntennaPod plante et il faut tout recommencer... -&amp;gt;A quand la possibilité de déplacer l'appli sur la carte SD ?",,
AntennaPod,Google Play,de.danoeh.antennapod,Z3A6QU9xcFRPRTFFWklxRkhIRktuREJ0OUVVU3F4Q3RGbWRrbjF3T0lncXdSeTN3WldCVWlsOHNpaFlmRl8tREhRVzIzUE55NzBBQnFEYVJYeGo5QzdjTFhJ,Greek,,5,2015-12-06,Giannis Rigopoulos,Great application,"Definitely best FOSS(no ads, no bullshit) podcast app on the market.",,
AntennaPod,Google Play,de.danoeh.antennapod,Z3A6QU9xcFRPRy04VF9HZ3kxVnBKa0VyemktQUpSb1ItNDRGeTEzNzJIdjM1MUk5Nkl2d1U4UHlWRXptNzVheW1KWkZyQ1NyUmtVQnJjNXVQcjVfckYwUmtR,Chinese (Simplified),,5,2015-12-12,FUTE Wong,"",简洁好用,,
AntennaPod,Google Play,de.danoeh.antennapod,Z3A6QU9xcFRPRllGdjBqVXhoODI5MGk1WjdETDM5T05GM3lSTGI5RThvcXd3Z1c3bnVYTlFHcFV0SXlzUzFzU0xHOHZEbjdDSDUxS3cwZzNfUksybTdabHRj,Chinese (Simplified),,5,2015-12-11,Jinxin She,"",简洁易用,,
AntennaPod,Google Play,de.danoeh.antennapod,Z3A6QU9xcFRPRlFCR1ZDOUlkMThlSUZqTXkwaFBFOWRsWTQyNTR2dUJIem4yUU95SzJqWjZHVk1GekVCVDducDBlT0diQjhEOHZDOVdiandaRE5pSlJzR2Z3,Italian,,4,2015-12-19,"",Manca solo il supporto a Google Cast,Finora ho agirato inviando i file scaricati.,,
AntennaPod,Google Play,de.danoeh.antennapod,Z3A6QU9xcFRPRXZVLUp3MHZQWmYwUnJjUTVPRTVrR2xLTGMtLTd0bm10QmI3ZUUxX3F3M05oX1NRT1k3bGxMWkN2T1FkbUozSFpTTlZhQm05Ti1jSkk4OUpV,Italian,,4,2015-12-16,Marco Fagnano,"",Ben organizzato,,
AntennaPod,Google Play,de.danoeh.antennapod,Z3A6QU9xcFRPRkE1ZUFGbHJTU3dvd0dRNVc2RHFvVVdxN21LWHBOVXBUbW82aDlMRkVwU2RRX0xicXdYOFJQQzRLdFNHUE5xVzdvV1Y1UVZrRHNuNWhNUm5N,Italian,,5,2015-12-16,Matteo Giove,Fantastica Leggera e semplice ma completa,Ha tutto ciò che serve. Comodissima ad esempio la ricerca per l'rss di ITunes se ne manca uno per gli altri podcast receiver. E molte altre comode funzioni fra le quali interrompere e riprendere dopo chiamate ed eliminare automaticamente files dopo la riproduzione. Ottima.,,
AntennaPod,Google Play,de.danoeh.antennapod,Z3A6QU9xcFRPR19xYXk3WUVMNVhNYlduU3F2WXJoWVBiRjJ1MEF5dnRCTW9tMTE1bnJFVFVScndZVm0td3RSVi1sbHBZOFNzZHF6cWRfRlRCdWtUUlptN2xZ,Italian,,5,2015-11-27,nino santangelo,"",Ottimo,,
AntennaPod,Google Play,de.danoeh.antennapod,Z3A6QU9xcFRPRy1JNFFrRnhwMHFRTXFYTktoS1BIQW1OSWNyU3gwZm9jM0ZwUWQ1Wl94Yk5XaFdsMHdzdmRmbUpnQmV6TnhJbG92UFNaSkx1Z0xxZk5vQWVn,Arabic,,3,2015-11-28,سيف العراقي سيف,"",ابعر برنامج بالكون,,
AntennaPod,Google Play,de.danoeh.antennapod,Z3A6QU9xcFRPR1JKY2E3Z1o3OFV0bnZRS2ctemlXbmhXczJnd3dyNU0tN29iNXRzSXhFU21rRDdLRkxRTUhrbTZCemwwcGpxZlFWSFJKUTM0YnhWMktMZ2l3,Catalan,,5,2015-12-14,Angel Aguilera,La meva favorita,"Molt senzilla i eficaç. Consumeix pocs recursos, i fa el que ha de fer. A més, és programari lliure. Està en català.",,
AntennaPod,Google Play,de.danoeh.antennapod,Z3A6QU9xcFRPSHVSYmUtZldUNWJ0UUh4NTl5bVNrM0Q5ak10R1ZqTUFFUC0zdFVuY2xkUGNEU0xDbGVvUzJfZDl6dFgzVlkwU3VNVGx1czZMRzVrSnVGNEQ4,Estonian,,5,2015-12-14,Urmas Oja,"",Excellent!,,
AntennaPod,Google Play,de.danoeh.antennapod,Z3A6QU9xcFRPR1hKY1ZxaE1KbVJ6MjdJTXBXS3NPX0g1Zm56bnRhZFRmcUZRTl9lUzUyTkdfVWhVdlVzanNiYzVtejdUV3o5Qm5oTkpWUXNnVjd2YmdsREdv,German,,5,2015-12-27,"",Love it,An excellent piece of software. Since I've been using it I quit downloading podcasts to my laptop.,,
AntennaPod,Google Play,de.danoeh.antennapod,Z3A6QU9xcFRPSFRoZGFMOEJWc1FSME9nbVFlSnBvbG1idi1Vek9QaERLaUpaN1c2ODU0dWdvdTF2bzBGNzE5cGtjcmx2ZGEwem00YmNLWGtFZHlva0c0S0Jv,German,,5,2015-12-27,Bernd Solinger,Mein Favorit,Sehr guter Podcast Player. Arbeitet zuverlässig und ohne Tadel. Flattr Integration ist sehr praktisch und bei anderen Playern eher Mangelware. Die Schlummerfunktion mit Vibration und Schüttel-Timer-reset ist sehr toll. Weiter so an die Entwickler. :-),,
AntennaPod,Google Play,de.danoeh.antennapod,Z3A6QU9xcFRPRUp1cnl1dHM5NGJXaGstdF9VUFJjdERrQnpfWnJMLXZjcDhTNXJDeWhaUkF4ZWZzMGRyWm04U2psM1Q0SmZiMTVjQzRfS0dzUXlRejlMUjNn,German,,5,2015-12-26,Stefan Vogel,Super,Mein Lieblingspodplayer.,,
AntennaPod,Google Play,de.danoeh.antennapod,Z3A6QU9xcFRPRi04aFBHcWhEYy1mVHZGTmVLZGtVRERjUHdZOVh2SUk2SzRka0F1VXNYSGFXMzV4S21SN2pNV05CNVNoaUVBelRJcEdjZ0NYTkhOWXdXVkpr,German,,5,2015-12-26,Andreas R,Super Podcast App,Menüführung top! Keinerlei Probleme mit Absturz oder Sonstigem.,,
AntennaPod,Google Play,de.danoeh.antennapod,Z3A6QU9xcFRPR2h4bGtSdC1hX2djVUpHNE9EcmNqUkxJV1pqNTBvTThwLXR3dU5JZFU5SmNOWHdnVE55aUU3ZEh3MW1uc0x0SFBHeTNiNGxDSkZDR2p2bEc0,German,,5,2015-12-26,Marcel Meusel,Bester Client wo gibt,"Nebst dem Tatbestand, dass er open source ist, macht er auch Punkte mit der (von mir nicht benötigten Flattr-integrarion. Er schmiert mir gefühlt auch recht selten ab.",,
AntennaPod,Google Play,de.danoeh.antennapod,Z3A6QU9xcFRPR0VsekRRT3gwdlVQZVRTd2lxVVlvOG5iaW9EOGx5T1NGdkFReENJQ1BRUlhjdy1XLWtNVXJaMi12MlJOWm5NN0pPSWRVTWJWM0JfSHpBanBB,German,,5,2015-12-26,Felix Willner,Erste Sahne,"Top Podcatcher, den besten den ich bisher hatte.",,
AntennaPod,Google Play,de.danoeh.antennapod,Z3A6QU9xcFRPSG96WHRnV3pqUGstQWRyVDlPd2ExTTZPbGhEd1phQXl3UXBGVWFDanlCa0o0NFlJN2ptUlVhbXVLUm1rZ2hqV25qQjZKeUhnTWlCdmVsZlBv,German,,5,2015-12-26,Conrad,Was will man mehr ?,"Die App macht zuverlässige, was sie machen soll.",,
AntennaPod,Google Play,de.danoeh.antennapod,Z3A6QU9xcFRPSDRCeTF2QzN5b3p1VlNsOV9nQnJXWTZqVUVnSEpSWWJfU05kSXh6bmE0aWYzdDVuYnpJajBWajVJVEdPbEFVdHNRM3hqanBSalFaQ2dxTGdn,German,,4,2015-12-25,R. Konrad,"",Sehr gut.,,
AntennaPod,Google Play,de.danoeh.antennapod,Z3A6QU9xcFRPRkhuc0ZSdHIxSGFGTGQxMmlYYjVtODRYVDlHNVdsaktGZGhDd29BYXA5ak1tc2xfcGZaSUdBSFNSN1Q3NTNpanVtQWZSTFItQ1BjdDc4OTUw,German,,2,2015-12-24,Markus Wittke,Durchwachsen....,Automatische Downloads gehen nicht. Nach pausieren Bluetooth wiedergabe startet die Episode von vorne.... Etwas unübersichtlich auch 2   Wochen regelmäßiger Benutzung,,
AntennaPod,Google Play,de.danoeh.antennapod,Z3A6QU9xcFRPRk42SW9ZZTdZRlFsVGJLQTVKT0ppdVl3TFJ6RFRWdTM4YW9kZ0xYRUduWmtoLWxWODd4bElvYndqckUtMWpXcTNnVGpIOU8tcVJHWGRxNlFr,German,,5,2015-12-23,Max Seidel,Immernoch sehr überzeugt,Beste App für podcasts auf Android,,
AntennaPod,Google Play,de.danoeh.antennapod,Z3A6QU9xcFRPRzRXNWJuNnZhbk95YzV1V1hPZVRhbXNuanFVS3NuQW4xTjRZMWJwNlY4dFkwdlAyS0FnbEJEcWQ5SkR2dGxmaVE5dVZkNWJOS29aZnNYbWNj,German,,5,2015-12-23,Sven Hergenhahn,"",Bester Podcatcher bisher,,
AntennaPod,Google Play,de.danoeh.antennapod,Z3A6QU9xcFRPSFpaQUpNVGR4VUVVbDRzd2ZVU1A5VEF5UEZiQUs5WHVwR2xTNlNyQWNzeUtZY1pxdmU2c093dXk0YUVad29MV2ZYMXhyNmhVXzVFZWhnZF9V,German,,5,2015-12-22,Heiko Brattig,Klasse App,"Lässt keine Wünsche offen, funktioniert einwandfrei.",,
AntennaPod,Google Play,de.danoeh.antennapod,Z3A6QU9xcFRPRmcxaWt3OXZ0N2NERU5yNVRrZVlSdVpJUmxDMFpERFNEdEljOEV1UmFnVTMwTW9Tdmd2ZzBvbVBBY3paZGp3dnhrdEh1ZlVMeWdPTXU5eEdv,German,,5,2015-12-22,Syn Samas,Läuft einwandfrei!,Bisher keine Mängel festgestellt! Super App!,,
AntennaPod,Google Play,de.danoeh.antennapod,Z3A6QU9xcFRPRmpnaVV0TUx1ZmFhLUFNUGw1Z1FsU240alVNMno0b2YyMXJkbGlFS3VNMkZCVUZUcTZZYjlLcjZnZE9MUTVtOXllcmIwclZJeV9lM3lmWWpJ,German,,5,2015-12-21,Roseli Ferreira,Super Podcast App,Sehr empfehlenswert.,,
AntennaPod,Google Play,de.danoeh.antennapod,Z3A6QU9xcFRPR3pySVlkRlpDUEswMENmcTd1MW5Lb1B3cnVjYXU5elA2UzhHSktPZ2FBUFFFX1pUemI2OFJveDdLUm5pdG1fQWF5aVVJRHJSNWN4WWwtMERz,German,,5,2015-12-21,Daniel Stubbe,Super Podcaster,Alle Funktionen da. Ebenfalls eine Daten Bank von RSS feeds,,
AntennaPod,Google Play,de.danoeh.antennapod,Z3A6QU9xcFRPR0hCVGd1U1N2Qm5sOXZnLTdxZGtXbC1QS2R1clZKN20yTnUydnlkZVFhLWJBeV8tUnhuUi00S3ZVLVlZcXFWRUd5ZnAyVHBFWmJrM1lPWTZR,German,,4,2015-12-21,Juergen Behrendt,"",Der beste Podcatcher den ich kenne,,
AntennaPod,Google Play,de.danoeh.antennapod,Z3A6QU9xcFRPRS1QRXA2Ulh4OGVZcU5xM3BVaHEwaVM0RFlQUXVERlFQcDdFc0lRbXNqSjlkeF95Tm5KTmRDZldwSGpqVjN0SllMX0h1d1RmWDJjRHh2T1pv,German,,5,2015-12-21,litzo Zoid,Sehr gut,Sehr guter podcatcher mit vielen funktionen. Eine echte Empfehlung.,,
AntennaPod,Google Play,de.danoeh.antennapod,Z3A6QU9xcFRPRTNvNnExTzZ1WGVvdVhfSTI1Q2w1RHhwZmxGRms1UTVMNzVKSjV5QTBKVHJTdGRUSXlyQ2xhMjl3VmZLLUt0QS1zM1BqUGZHd2kxVHdQcTFF,German,,5,2015-12-20,Martin Paul,"",Tut was er soll,,
AntennaPod,Google Play,de.danoeh.antennapod,Z3A6QU9xcFRPRVQwMXBTR3JQWXFPdWlIcGd5UXgzSnd1UjZ6WWhESnltNzNGalpSXzhkTnZ3V05RWkt3bVROQm5GSnRHaTRfdVl4dlZVckQ2UnhNbEZYZjNV,German,,5,2015-12-20,Jörn Temmert,"",Einfach und übersichtlich,,
AntennaPod,Google Play,de.danoeh.antennapod,Z3A6QU9xcFRPRWZRTERhd3NoajFaN0RBMVMwNjhaTEdjYmhQbXFyVS1WUHhoRzNIN2VuLWRBLXJTbklmWmxZWU9Bcy1PQnFISEtMSU9fQlBtQkF2Q05lZzJn,German,,5,2015-12-20,Kevin Maximilian Triefenbach,Perfekt,Genau danach hab ich gesucht.,,
AntennaPod,Google Play,de.danoeh.antennapod,Z3A6QU9xcFRPSFAxYUs1d0hQUlJ6XzZkT3JqTzVaT09mYUxvVERFMGo5S0NULVZ3YkFpZVBjWUtialA4aGt2eVVBbUl2ay1sQno2WjVnWXBLYzZiUFR6QmFZ,German,,5,2015-12-20,Francesco Grothe,Makellos,Beste Podcast App,,
AntennaPod,Google Play,de.danoeh.antennapod,Z3A6QU9xcFRPRXRNaTYwdFlzeFp1NHR2eEFtVko1LVhRNVAwUklaQVFNU2o1ZnFxLWphWmF2bndvNXRUU0huaURnZ1lSY2NtVXhLbHl5emZYSGROSlB5Q3o0,German,,5,2015-12-19,Thorsten Reihs,Für Android die Beste Audiocast App,Ich verwende Antennapod mit dem Sony Xperia Z3. Läuft schön stabil.,,
AntennaPod,Google Play,de.danoeh.antennapod,Z3A6QU9xcFRPR2lQQVJSRnpNRlJtcFpFbXMxV1Fleml5cmRzaG9OQnN4YUpEaFdfRk54TU1MTHpZRDliTTFiZ2NyQklYRmhkcUFaeU01T3JkZlBxQzQ0X29F,German,,5,2015-12-18,Martin Hammermüller,Perfekt!,Hab einige apps probiert und bin hier hängen geblieben! Macht genau was sie soll.,,
AntennaPod,Google Play,de.danoeh.antennapod,Z3A6QU9xcFRPRzdCRndCYzRDQy1xbXBwdmd1Sk1nekRLTmVsSE5QTGcwYWhkdXVkd0RMa2k5b1dyYlFyQTd6UEM1YlFiaU1lSndnLUdzemVWbkZaeHBydDhZ,German,,4,2015-12-18,Christoph Bubel,"","Großartige App, habe vorher DoggCatcher benutzt. Leider funktioniert Play/Pause über die Pebble Time nicht.",,
AntennaPod,Google Play,de.danoeh.antennapod,Z3A6QU9xcFRPR004SUFidVN5dFpoaFNwNHVIUXhKcWdWQjcxTDFKVnJxcHptY1ZzanowVU1oUVBSNW5BUUZIemkzTFpMSFd6dFBkTi1TLVJMeERHT2J1RVJv,German,,5,2015-12-18,jayjayone1,"",DIE Podcasts App unter Android!,,
AntennaPod,Google Play,de.danoeh.antennapod,Z3A6QU9xcFRPSHczczhoXy1kTW1ORWRpTENZTkdqajNNNU03OVh5U2RNZVZadVptWWxDSHdoS1laM1lxRFREX3VfQ0hucmJyN3VWX3hJMXZ4c01nakFLTlVR,German,,4,2015-12-18,Patrick Fischer,"",Gut,,
AntennaPod,Google Play,de.danoeh.antennapod,Z3A6QU9xcFRPR0MwSFYxWkxuMmxLOTZycUZ2MVlNSFctT3R5Z2tzYWNjcy1KaTdDWUpYUHFXNkxZdnlTM2dSYjJialAxSmhZcEd3R1VwVTdJOWZ4WE12cnZj,German,,5,2015-12-18,Heyno Naumann,Geht nicht mehr ohne ;-),Was soll man da noch zufügen?,,
AntennaPod,Google Play,de.danoeh.antennapod,Z3A6QU9xcFRPRlpUZUNJdUdRUFVPQ0Q1OWRHSjdFeFlYY0ZKOG9TTmdJQ3AxNzc1ZEtHQnlmeTR6VHY1NV9obWtHMTZOSHQyR1ZrNHR6SEp1c01qSi1kTmhB,German,,5,2015-12-17,Christian Schoepe,"","auch das neue Design, einfach großartig.....",,
AntennaPod,Google Play,de.danoeh.antennapod,Z3A6QU9xcFRPRmJ0SXVBZ0JWSlFoRDFiY2tWZHMzdURvQ0dpcFN3YlJNTFNSSVdMaHlCQWlDTGNhY2MyREpUU3R6Q0lmRW9BR2VXOVRldTFCMHcwQ3RtN1BB,German,,4,2015-12-17,Martin Bober,Nur Kleinigkeiten zu bemängeln,Sehr schöne App auch wenn in letzter Zeit die Flattr-Anbindung und die Sortierung der Wiedergabeliste etwas herumzicken.,,
AntennaPod,Google Play,de.danoeh.antennapod,Z3A6QU9xcFRPR1hrTi1fNlMweDZ4cVJFaWtzd2xaTVg0ZWI5MlQyRzB1dk92azlUdlp3N0t0Szk3U0l3QmdILXYyXzhxeWlHMmhiVnhHWGI5d09Dd0hKdVE0,German,,5,2015-12-17,Stefan Meyer,"",Macht was es soll,,
AntennaPod,Google Play,de.danoeh.antennapod,Z3A6QU9xcFRPRU0tbjR5NnJ3eFcxQllnMkN4NTNUdnJ3UUlvYUc4UGRBN1BkN2hKckNCYndSMHVvcUx4UTdqYW9WaGdfR0dRYjdCaGhkamhXTklpZk9TYmU0,German,,4,2015-12-17,Michael Gress,Super App,"Ich nutzte die APP jetzt schon echt lange, seit dem update hat sich das handling IMHO etwas verschlechtert aber die APP ist trotzdem noch der von mir bevorzugte Podcast player",,
AntennaPod,Google Play,de.danoeh.antennapod,Z3A6QU9xcFRPR3NTU2dGdkhaczhyZUZvMGw2MzVsQ1dWOTJVWVlQb0RNWlh0djJUcGZRNFNJUERSYmZ1MDEtTHFPTjUwenRaNDR3Tmh6U21Fd2NaS2c3cF84,German,,5,2015-12-16,Tho mas,"",Top App!,,
AntennaPod,Google Play,de.danoeh.antennapod,Z3A6QU9xcFRPR2dYLUtXQ2s4VWx0Y0tCaXhYMFY5RkFSNDVjRjk1QTJXZmVQejRDMGVqVVU0MjY2SFVtX25IWVdaRk1PX0MySUlvRkJDODJUNkN2YlhWRGY4,German,,5,2015-12-16,Marc Schröder,Top App,Super Podcast App und auch noch Open Source!,,
AntennaPod,Google Play,de.danoeh.antennapod,Z3A6QU9xcFRPRVJBVG5PbG5INjZrVDhNbWg2TW5VcEdmN1ltZmlsclpFNWFvYkJDX3N6ZlhZM25CZFNKRnVpeGtkYVhsY0U0X0pLSWthc0dQdDBMOWR2RlZz,German,,5,2015-12-16,Jens Schöndorn,"",Sehr guter Client,,
AntennaPod,Google Play,de.danoeh.antennapod,Z3A6QU9xcFRPR1A4WTg3S19IVF9idkpyZ2hLeERDd3dYN0F6d0l1V3poV1BXdE9UN1J5SEZZYThwOXFEZkpjeTdzZWlWTHE4RW1XTEpyUnF4a1l6NkowQ2ow,German,,5,2015-12-16,Isabella H.,"","Simpel, robust, ideal",,
AntennaPod,Google Play,de.danoeh.antennapod,Z3A6QU9xcFRPRlFoSHpqRURZSjRlV0pJcG9LS1BLUnlWS2szX1puNzJEZzVGemFweGxKZjN6dHd2NTE3emM5VS1CMVJVUnBQLTNUZjUxWTFOTXJQRVZxWmZF,German,,5,2015-12-16,Sebastian Schermer,Super Podcatcher,Echt geniale App. Nach langem Suchen und Ausprobieren endlich gefunden! Wird zudem ständig um sinnvolle Funktionen ergänzt.,,
AntennaPod,Google Play,de.danoeh.antennapod,Z3A6QU9xcFRPRkxRektMOGQ4Q016ZWh2Q1N4cV9POWNnemY3RlZXamdPRWQwZnFmZUlLQ3ZpZVlqei1ROVIyMjhBQ1VSampBcmIzRF9RTFJ2QnVGVS1JWGF3,German,,4,2015-12-16,Ludwig Wilhelm Mieth,Schöne APP mit leichten Wachstumspotential,"Meine bevorzugte Podcast-App mit flattr- und Kapitelmarkenunterstützung, die gerne auch Opus und Verteilung über BitTorrent zB über Bitlove unterstützen dürfte.",,
AntennaPod,Google Play,de.danoeh.antennapod,Z3A6QU9xcFRPR2o2dWhYYXNUeGlxeTk1cnlQVWZWZDlVTzAzM3RYWUxBOVpaTndkVmsxMW9zakNPVWE4ZWN5OUV0RFFObXdLamhybGxrUWRTRFJpMVdsbFNN,German,,5,2015-12-16,Daniel G.,Super kwT,kT,,
AntennaPod,Google Play,de.danoeh.antennapod,Z3A6QU9xcFRPRUNudmVVeFdNdjlGeU1nYzRGaU5fUTJ2UW5QTUM4T0JndXlGQWFPRFVpX21hTUdaXzhxNUVIdHVPdGtzN2h3NE1mOUh4TDZYNEJlRFBrdmxN,German,,5,2015-12-16,"",Top App,Einwandfrei. Fülle an sinnvollen Funktionen. Sehr zu empfehlen.,,
AntennaPod,Google Play,de.danoeh.antennapod,Z3A6QU9xcFRPR0d6WFlGVkNzRWhNY1QwUWs0ekNQRFk2elIyZHBYdXFzTkFzSXJGanQ5U2pyeU4yUWM5MkZKdUxxeGRyLWxLTjlyVVhVZ3VxdkQwNjFGeFo0,German,,5,2015-12-16,Meik Stoll,Prima Podcast-Client!,Funktioniert zuverlässig und zweckmäßig. Bin sehr zufrieden.,,
AntennaPod,Google Play,de.danoeh.antennapod,Z3A6QU9xcFRPSDNtOGxHb0xyLTRYOHdkLV9BMGRVNHpnVDh1M1FTMnBQbjRfeDRuUFJBZU9hdnVIbko2c21nS3RFZFQyVXBSTEFUNWVEUHMwWUphY2xFRkpj,German,,5,2015-12-16,Steffen Krumbholz,Sehr zufrieden,Macht was es soll und das sehr zuverlässig.,,
AntennaPod,Google Play,de.danoeh.antennapod,Z3A6QU9xcFRPR3NrOVcwV2VhaGd4NXhoVG8wT18yc28xSGJIQkR5MjNoRTYzMmxXMC05dDIyaWRjSTlZczh5X3hGNVNsOGU5eEhZTGRja2dRR3VWM2N4bzZZ,German,,5,2015-12-16,Iam Cord,Spitze!,"Macht Spaß und tut was sie soll, die App.",,
AntennaPod,Google Play,de.danoeh.antennapod,Z3A6QU9xcFRPSDdDdmRKSWFMMTE2Z0FMNGthWEhLaklUYUhicGZnLVJwb2tESjFyeXhDTC0yZ1JTRGdLVVpGVnNxeHZxRHA2X0gzQnBSTWVxSVc0b0hCSjlJ,German,,4,2015-12-16,Lukas Schweitzer,Super Podcastapp,Die app macht alles was man zum Podcast hören braucht. Lediglich die Benutzerführung ist manchmal etwas hakelich und unübersichtlich. Dennoch kenne ich derzeit keine bessere Podcastapp.,,
AntennaPod,Google Play,de.danoeh.antennapod,Z3A6QU9xcFRPRnpkcHByeHdXenJxTjY3VzJGalFMMjJEQVA3UWpGa2p4T1I3cDdmRXUyZ1haYUVBTkljX2ZVakYzV1BxOTlQTnJ3bzVzWG1FX0dXX0hhcXJz,German,,5,2015-12-15,Simon Parzer,Excellent podcast app,I have listened to many hours worth of podcasts using this app and so far it has never disappointed me. It is also open source and ad-free.,,
AntennaPod,Google Play,de.danoeh.antennapod,Z3A6QU9xcFRPSDhsNEd3cV9YRTM1eldSdzY3cU1EbkJjN01KLWdNbjFxQnQwRXVJZWZzd2hTcHJ3X2pZRFBDYXhrRmZueURndE5lektzaWtVY3pDa3dyUTNr,German,,5,2015-12-14,Hans Maier,Super sache,Danke,,
AntennaPod,Google Play,de.danoeh.antennapod,Z3A6QU9xcFRPSHNPYXdjVWJ3SXM1S0c4SFR1dDR3Nl9CMlpBWEhJTkpmQ21iWnliYXhOWEZ0SVNPUnVaZHM0OU80eUFjSWRiRHBhUWJFWkVhN0RKbUNkZ0Ew,German,,5,2015-12-14,Pascal Weinhart,Perfekt,"Keine Werbung, keine Bugs und leicht zu bedienen",,
AntennaPod,Google Play,de.danoeh.antennapod,Z3A6QU9xcFRPRktWT0lLX2JJNTNueDR6LW82eFZMazc2cml3YzRET203bEFJTVltYVpPVmEzZlhsVVprRERzNWd1NGRZekFwLWx4RFNLbnRQcF9sR3U1T29F,German,,4,2015-12-14,David Schaefer,"",Sehr brauchbar,,
AntennaPod,Google Play,de.danoeh.antennapod,Z3A6QU9xcFRPR2tpNGV1TFlMY2diYUlDbzdhdjA5YjhFMU8wR3ZVUGlRcVJ5WkoyUTdscnRyOU5BcklheWlHNVJiOG1ud1IzUURTNUthQ2ZWeVZJZGVIcmRr,German,,4,2015-12-14,Stefan Söllner,Passt,Macht was es soll und das in der Regel sehr zuverlässig.  Einfach zu bedienen.,,
AntennaPod,Google Play,de.danoeh.antennapod,Z3A6QU9xcFRPRXdWSkxaZ3A2MERHOTM3T1cwZEJpc0tSc3RmQ2QwOGRaOVB3QlBieF9HcUI1T1pkNk9kSXBxWTU4M3ZMRDh4bnJwbS1RTm91YTdRd0c1SzRZ,German,,5,2015-12-14,"",Alles top..,..und open source,,
AntennaPod,Google Play,de.danoeh.antennapod,Z3A6QU9xcFRPR1V6WU9kb2dLNDVWWjBMOTZxVGZ3VUw5Z21YYi1oTHd3bFROY0JudnlFMGtETWNycVZ1YmZkY2wwbWJRZ0NxM2lmSjdWeFNQcGJvNzFyT1pV,German,,5,2015-12-14,Tine Mohr,Great,Best podcast app I could find.,,
AntennaPod,Google Play,de.danoeh.antennapod,Z3A6QU9xcFRPSGFVNTBmbVVCYTR6N28wOWllVmJKQzdFSWppZjZyaFg2V0ZiQkt1QUJmQzE0aFpITjNtdXp6SFRwT05xQlZ2UXdENjQ5XzZOMmZ0RzQ3NXNn,German,,5,2015-12-13,Jörn Schaar,Für mich der perfekte Podcatcher,"Mir fällt beim besten Willen nichts Negatives zu dieser App ein. Intuitiv bedienbar, alle wichtigen Features dabei, ganz klare Empfehlung.",,
AntennaPod,Google Play,de.danoeh.antennapod,Z3A6QU9xcFRPSEwzeUxOZTRubXJ2eXNONFRJaWVkMElITjF4eEdrSmgxcXFGYUtsT1hlN00xdXhNMVRUN3M2andaUG1yZ2lxRWpVbHZWT0pDd0RZVF9zYUZB,German,,5,2015-12-13,Gregor Nathanael Meyer,Läuft und nervt kaum,"Was will man mehr von einem Podcatcher? Nein im Ernst, die meisten Podcatcher nerven mich mit ihrer Unübersichtlichkeit, ihrem überbordenden Funktionsumfang und zu häufig auch Abstürzen oder anderen Fehlern, die immer mal wieder zum Verlust der Abspielposition führen. AntennaPod läuft hingegen einfach und lässt sich bedienen. Empfehle ich Podcast-Neueinsteigern.",,
AntennaPod,Google Play,de.danoeh.antennapod,Z3A6QU9xcFRPSFZYektjNXNiZHNSZGs3VTRmeGVVdDEtNDJEUHQwczNGdVBqLUlDZDFKVm5GeGZyX0NfZTM5Rmc4dHB2Um45LU5CRGRDMVoxSERwVVhwdXBN,German,,5,2015-12-13,Valentin Falkenhahn,Top Funktionalität,Sehr guter Video-Podcast Manager mit vielen nützlichen Funktionen. Einziges Manko: Die Wahl des Zielordners für herunter geladene Podcasts scheint nicht richtig zu funktionieren.,,
AntennaPod,Google Play,de.danoeh.antennapod,Z3A6QU9xcFRPR3NjdTZGd3o5aE5KaGpSQmlJYnNRRzVtOHVUTUItT0lhTW1SdW5wbjV4bnFFczFjVzU2UWt2cWlHalJEYUFQV2Uya3V3VjhHOHpfb3puMXpR,German,,5,2015-12-13,Rainer Müller,Super 👍👍👍,Geniale Podcast App...,,
AntennaPod,Google Play,de.danoeh.antennapod,Z3A6QU9xcFRPSHk5Nmg2QkZFSDAzX0ZQQXJHWEJSeEJ4TGhVVEhNckNyd0JjSDJXQVFPZDRlV0ZIa3ZEazVkU1c4Wm5wUmgtNmtRX2dLQjZGU3plenpvN1hv,German,,5,2015-12-12,Mario Gutknecht,Einfach nur gut,Dazu auch noch OpenSource. Danke an die Entwickler.,,
AntennaPod,Google Play,de.danoeh.antennapod,Z3A6QU9xcFRPRmUxa2dhbEoxX3cxb2FReXJORTU4a1IwcW5IdGx4cnRVZmFOZzB2Z082cUFtbTRIbURrM09nRTZNaTZBVWpHOG1tdVJBTnUzaWpPdS1UV1VF,German,,4,2015-12-12,Felix Bertsch,"Ich bin ja kein Nörgler, aber der Abspielfortschritt geht flöten :/","Leider vergisst die App des öfteren den Abspielfortschritt, sodass man mühselig nach der Stelle suchen muss, an der man zuletzt pausiert hatte. Ansonsten liebe ich sie, weil sie open source ist, Kapitelmarken unterstützt und beschleunigt abspielen kann. Ich empfehle diese App jedem, der neu in das Universum der Podcasts eintritt.",,
AntennaPod,Google Play,de.danoeh.antennapod,Z3A6QU9xcFRPR1RnSTRUcVpNc3hyNkZ2UDdZUWY4dC1IMjBvdnhkWE11RGlnQW5tS0d6SlJjdkhiVGVjMEktb2lCNjVHaWVwc1NwbG9XNWpKc01kOFJnYmtR,German,,5,2015-12-12,Rudolf Egerer,Bietet alles für den Offline-Betrieb,Danke an die Entwickler für diese stabile App!,,
AntennaPod,Google Play,de.danoeh.antennapod,Z3A6QU9xcFRPRWUtR1FldXB4V2RuaXgzSkFjTVlGbngtSzdRd1ZLZ2Y1NC1MVHZ6SGNWczFNa3VLeVN4MmY3TjJUWWxsZENPbXNoUmRBMnNldG1zanpyaUtj,German,,5,2015-12-11,Sascha Stuwe,"",Alles was man zum Podcast hören braucht,,
AntennaPod,Google Play,de.danoeh.antennapod,Z3A6QU9xcFRPSEtVNnkwaXdkbmo5MS1mSXpnemxYSWQ3T2NfeXNGWGktU0FRdnhrQ1UyNmxlalZEa0dJSGVIbkRJZVZXVVBvV1U4R2EzM1I0NkdzY1VhY1lB,German,,2,2015-12-11,Christian Krummenast,Fc,"App hat fc beim Start eines podcasts, beim erneuten Start startet die Episode direkt. Sony Z3 5.1.1",,
AntennaPod,Google Play,de.danoeh.antennapod,Z3A6QU9xcFRPR2FfTVVZMTE0QkFvWFAwVGxGZWcxQ2t5X0NzQk1mcmlkNGQyQVNxV1BrWTUxcUFfci1iWXpjQzUzQzloZHMzQXBuOVplVGxBOThPWjFUaVlz,German,,5,2015-12-10,Michael Krause,"",Awesome!,,
AntennaPod,Google Play,de.danoeh.antennapod,Z3A6QU9xcFRPR0J3TDB0SGs3cVctbEV1VFMtVmpZU01xTW9DeUdiUERQbUV3V2pUQ09mR2l4RXBPcm5FSlVrUUIzVjZBUWo1MGlOa2R0d1d2NHJmOEZIbHRn,German,,5,2015-12-10,Tommy Ninja,Absoluter Liebling,"Der schönste und performanteste podcastclient, den ich kenne!",,
AntennaPod,Google Play,de.danoeh.antennapod,Z3A6QU9xcFRPR2xYVmp5dG1MeFlwak0yaXNtY0RYTnVsWUNEejEyWEprcTdLUGhwZ2tRakVFdEZZcTJzVVFCNEhyYWlyd1ZoQ0pFUEl5VXpiaGE2SlBRZHZn,German,,5,2015-12-10,Tobias Becker,"",Alles was man braucht!,,
AntennaPod,Google Play,de.danoeh.antennapod,Z3A6QU9xcFRPSDJ4My02cFkyZ2JlOEVsdnNBRDdUUFlBVUFRTTBJSFJEeXZBQUhud0QxSGtaVUVuNFZCWldlT29CSlNMaDNJZFR4eVZDajRCQ1BXd2dpTGZz,German,,3,2015-12-10,Hannes Pfannnkuch,"","falttr does not work, i always get the message ""could not read response""",,
AntennaPod,Google Play,de.danoeh.antennapod,Z3A6QU9xcFRPRVhLYzBpYnVwQWZNYi16NGs1MEl4ODEtS1gyV2lVWEJQcDhqLThIcENaVmJCZWY5UTV4dzczQmVoVkJMN0ZveXRHWFZNZTJTVVpaWkw3OGVF,German,,5,2015-12-09,Ella Jahn,Einfach und sehr gut,"Eine einfach aufgebaute App, die keine Störungen bei der Bedienung aufweist und leicht zu benutzen ist. Zusätzlich zeigt sie alles sehr übersichtlich an.",,
AntennaPod,Google Play,de.danoeh.antennapod,Z3A6QU9xcFRPRmhpV2Z1eXdxdXZ6d1VkOUtsc0ZBR2lheXF0RTU4UFZMa2picWt2SWYzRl96dTVFNFdaeXdjdUlVZUF5eVZJWXlkbnpnUlVwT3dXaWlBWGZR,German,,5,2015-12-09,Andreas Rieth,"",Die beste Podcast-App,,
AntennaPod,Google Play,de.danoeh.antennapod,Z3A6QU9xcFRPRXBXRjVIeURSdC1ub0FXaDFLNFlPYlllZUdBdmhaRzFDRHRQRjhVU2dMWVRGcWhvTGtNUVpiMVU2RUt4Z216ai1qVktNaHVwS2JrTEtzMmVJ,German,,5,2015-12-08,Jan F.,"",Sehr übersichtlich,,
AntennaPod,Google Play,de.danoeh.antennapod,Z3A6QU9xcFRPSC1udkQ2b1BLZzJLT0FtQzJ6QjJsTVBaMEZ6V0g0Ry1oVWk5N3FkTl9jeDJBRld0WWd6Vngwc2c5TFROQ2NwTkUzOEM1dlF6N0ZBa1JaNlBv,German,,5,2015-12-07,Eli Du,"","best podcast app and i highly recommend it: comfortable, no adds, no in-app purchases, no cloud rubbish, data stays where it belongs. very well worth a donation",,
AntennaPod,Google Play,de.danoeh.antennapod,Z3A6QU9xcFRPR0xyZ0o3VlNMR043MW5odDROR1hrb19yV3lGWTg4bFRZSDZrcDY3UUlpOEROLUJWY3lDZklyQ3dxTzZrQUw3WUJTSzhsbzhwQl9NUl9YMzZN,German,,3,2015-12-06,Aiko Biko,Downloads verschwinden,"Seit kurzem kommt es immer häufiger vor, dass meine Downloads nach einmaligem Hören gelöscht werden, obwohl ich es in den Einstellungen anders eingestellt habe. Ansonsten kann ich meinen Vorrednern nur zustimmen: Super app, klasse Handling und seit der Einbindung der ITunes Datenbank ist es auch schnell möglich neuen Podcasts zu folgen ohne sich nervige Seiten geben zu müssen die mobil eh schlecht dargestellt werden.",,
AntennaPod,Google Play,de.danoeh.antennapod,Z3A6QU9xcFRPRm5SQXR3Y1dHUTNET3RFb3A0XzRGU3NHbkdYNzhwQmVWOTJxUjFBRTVqZVNPS0pOUGFnaVI5R0ZnNXJFbDJsMkhUeDM2VE5iejJMWmxObDhB,German,,5,2015-12-06,Wolfgang Bruszies,"",Top!,,
AntennaPod,Google Play,de.danoeh.antennapod,Z3A6QU9xcFRPRUdoY2JUVjN2ZjlVXzJpeTdjNjgyMU1GV0VfZmJza3NGRGhncVZycUF0d2lIekFHMG83b0hNLW9mZXlDX1k0RUNzNXZWcVBTdEtXOXY5Z2tN,German,,5,2015-11-25,Jan Strehl,Beste Open Source Podcast App,"Die app kann alles, was eine vernünftige Podcast App können muss.",,
AntennaPod,Google Play,de.danoeh.antennapod,Z3A6QU9xcFRPSGc5OUYxaVlKeThwVWVTTjNsM3lQR3BHWEFMM20zS2U2VWtsMEtCS2R4TlRjQzV5ZDBnRllxeDdFRS1rNU0tZEhNenlEcS1La2Rtb1h4Q28w,German,,5,2015-11-23,Silvio M.,Sehr gut.,So ziemlich jedes denkbare Feature ist eingebaut.,,
AntennaPod,Google Play,de.danoeh.antennapod,Z3A6QU9xcFRPR0RaN1RuYVNFTUFaRjFOaTN0SGFQTDdKMFFMYW40RTF4eGRxU0JaTVBTM0NVTjBXcFhtbld6M3RuUlR5My1sMjlrc0FnbGhlNThYUDdJYlhz,German,,5,2015-11-22,Fabian Greve,Kapitelmarken,"Was große, kostenpflichtige Apps nicht schaffen, ist hier integriert. Dafür ganz großes Lob! Meines Wissens nach der einzige Podcast player der Kapitelmarken unterstützt. Danke!!!",,
AntennaPod,Google Play,de.danoeh.antennapod,Z3A6QU9xcFRPR2lERVlOMTRpQ0Zaa0k0Mnc4bzRxVWsxTzExcmNTdW10WmR4MXJEZjlXajBoNTU2RFJoUXhnU3g1eHE2bjRLbWpkMjdpbGxlNFFtM20yczh3,Norwegian,,5,2015-12-21,Håkon Wiik Ånes,Anbefalt,"Da appen både er gratis og uten reklame er det lite som skal til for å ikke velge denne fremfor andre applikasjoner. Den er også under rivende utvikling av et voksende samfunn av utviklere, dermed vil den kun bli bedre med tiden.",,
AntennaPod,Google Play,de.danoeh.antennapod,Z3A6QU9xcFRPRXQwcld5VFNCeVM4dm0tcE93NFFzNjQwR0k3Sjd2NFdOUHRlaVUtUk5hMUxPd01XV21RUzEtOUI3OVhxc3ctSEhONXRHT0NYUDdNTXZ4Ykw4,Portuguese,,4,2015-12-27,João Gonçalves Costa,"",A melhor App em português e recomendo.,,
AntennaPod,Google Play,de.danoeh.antennapod,Z3A6QU9xcFRPRzJpdGRhSUhJcjZtWThlRkxQdkdFaFczSVhHa09sTDVveDZnb1dZTUE3M2FBVjI3NFlSWE4yR3d3LVF4YmV6ODVlQk1KMWZhakYyVDJtMlFB,Portuguese,,5,2015-12-27,luan souza,Muito bom,Simples e direto,,
AntennaPod,Google Play,de.danoeh.antennapod,Z3A6QU9xcFRPSHI2YWRwN3dLdnBPWkE2akFGWWpFN21SZjhWQ0hwWnlYSUF1TXRkc29fQ0xsd0VUUGt3ekNRai1CV3lLNEk1aXM4S3o4Q2ZMdlJUTmN6Y1VV,Portuguese,,5,2015-12-24,Guilherme H. S. Ostrock,"",O melhor app de podcast,,
AntennaPod,Google Play,de.danoeh.antennapod,Z3A6QU9xcFRPRXZ6dHAyRGwzNmJQVUNMbEc2VW5qN0RHX3NHNFBGd21BX19hZVFZMkotbmVBZ1VCbkhxa1VOU2xqbVpydWZ2RjRDRWwydW9fM0NaWVRIZmtn,Portuguese,,5,2015-12-20,Eduardo Ben,Perfeito,Cumpre o que propõe,,
AntennaPod,Google Play,de.danoeh.antennapod,Z3A6QU9xcFRPRThoTHFyRTltS25qanpMSTMzRTBfZ09KNUhMdDJpbU9qMXZBcmVjT3lBVHZpTkhIeWRsQlVCWUxyUE5SRDdGaS1SRmQ1V25VUWJsMHppbmNz,Portuguese,,4,2015-12-16,Murillo Nascimento,"",Pena que é preciso reiniciar o download várias vezes até ele se completar.,,
AntennaPod,Google Play,de.danoeh.antennapod,Z3A6QU9xcFRPRjNHQVJYcnNleTBrZ3VaYTQwbmxTUHR4VnBleUNnN3FscnBDdU4zWVVrTURtcmNvR0haUVk5cEdHdDROaE1WX0RZckYyWlE1OUtXWEVGVmhV,Portuguese,,4,2015-12-14,Thiago Martins,Melhor player,Só falta carregar as imagens dos episódios. Fora isso perfeito,,
AntennaPod,Google Play,de.danoeh.antennapod,Z3A6QU9xcFRPRlotUlpXbl9UeDJVNkZjQUQ1SmotSHprTmNJMmsxRXAzMWtSa0RwLUNfLXdBTTQwTWxVWDZ1aktfYzY4RU5zWGItb19wRXFKS2hZY1RvMGg4,Portuguese,,1,2015-12-12,Diego André Lira,Não baixe,Não funciona corretamente quando trava o celular. Vive pulando trechos sem razão específica. Trava  constantemente.,,
AntennaPod,Google Play,de.danoeh.antennapod,Z3A6QU9xcFRPR0tlcTFDYlNta3V5M0tuMmd0NkNFN3NxdVB4empsXzVVRWoxN3Q3UWlxZ2p2QUVNSEtQMDJzS1puVm9pUElLbkNZOW9GcGNIVHlvSjUyeXdR,Portuguese,,4,2015-12-09,FÁBIO Medeiros,Excelente App,É possível baixar ou escutar via streaming com excelente qualidade. Possui funcionalidades que ajudam a organizar seus podcast da melhor forma possível.,,
AntennaPod,Google Play,de.danoeh.antennapod,Z3A6QU9xcFRPR2xRSlZfNDhuRzVrT2k1WmlaUWNRMzEzbGs4NFNzYU9xM1AwXzVFcENCb2pKOVJPMUFSX0JGak9EdXkwUnNEajZ6UkJZdGlpOU9qM3BoUnJr,Portuguese,,5,2015-12-09,Bruna Diirr,Great app,"I'm having problems if I remove my headphone. The podcast stops, but it doesn't starts again when I press the play button. I must restart the app so I can keep listening.",,
AntennaPod,Google Play,de.danoeh.antennapod,Z3A6QU9xcFRPRnZ5MGtmLVEtdUhlUHNnM1ZtVE1GQzdKa1ZkNFZqUERqdTdsQ1lCQWV6dVhLWktkMWtxSk9VWktCTW1ac3ZURkZlOVBPWW9GRUlvcGR2Xzhj,Portuguese,,5,2015-12-03,Kaue Costa Miranda,Adorei,Eu pude ver Naruto shippuden dublado,,
AntennaPod,Google Play,de.danoeh.antennapod,Z3A6QU9xcFRPRlVJVk4tSUc4bVNYOUo0SG12WVQyTFFmS3NNeGxoWU41SUVGNy0wbDBCSE9wTGp1b2YyZUpkd0RMclY2VHMzck52VTlTWkZ1WGE1ZjRISEpr,Portuguese,,5,2015-11-23,Paulo Salvador,o melhor,"perfeito, simples, smooth e bonito.",,
AntennaPod,Google Play,de.danoeh.antennapod,Z3A6QU9xcFRPRXJOXzJGcHVkRU81S21RX0ZTcWFYdFZaaEY0WWtxc0ZxSWVuTG91QnNPRy1uZE5CMUVBekFfc1lFSGd1cURPbklzQm9EdExRR19nekNuZ1Bv,Russian,,5,2015-12-27,Борис Тимофеев,"",Отличное приложение!!,,
AntennaPod,Google Play,de.danoeh.antennapod,Z3A6QU9xcFRPRnBmZVd6U2N2UWVWSk93aHU3WnU5aFlYUWlSVmZYN29ISjhwQzVzVFdLT0tiejJHRTE4eU1aNXVyTThKT19YYUpNdVhCQkE3Wm01MnV0Rk13,Russian,,5,2015-12-26,Иван Хлынин,лучшее,наверное самое крутое и удобное приложение для подкастов,,
AntennaPod,Google Play,de.danoeh.antennapod,Z3A6QU9xcFRPSE1NaWsyY0N4akdYUkJxRVNna3ROaHA4UjlsbTZ3eDBJdkxVeVBhLV9VVGdJTE9wNW9WRU9VMzlFMGs1b18yeUlTQV9nb0dmMXFPZnM3cDBz,Russian,,5,2015-12-22,Евгений Шумилов,"То, что я так долго искал!",Почти идеальное приложение для скачивания и прослушивания подкастов. Только на пятом андроиде не работают фильтры. В остальном - безумно доволен. :) Жаль нельзя поставить шесть. Устроюсь на работу - подкину денег.,,
AntennaPod,Google Play,de.danoeh.antennapod,Z3A6QU9xcFRPSHJlcHd5aEpFclA2ZkhXaGV5ZjBLYk84SXR2Mk5Vc1JvZ1dGYU43eWZVSjVLNDJyckprOTBTU2pURmc2RlJnQU1iYUJ4X3JRSVNoNDZLQjZj,Russian,,5,2015-12-13,Евгений Чемес,Notifications,Why I don't get notifications about new episodes?,,
AntennaPod,Google Play,de.danoeh.antennapod,Z3A6QU9xcFRPR2JULU52Q3lfcS0wMVljU0xrNXJmNm43QVlBeko3OVpfbmZTUmpSQUk5T0tUNDFMcWZQaGpCd3FaQW9qN0w4YS02R3hNdHhGRWlWNVNZZ3BV,Russian,,4,2015-12-09,Vanger Z,Неплохой подкаст-проигрыватель,"Было бы здорово добавить функционала нижнему бару. Есть огрехи, периодический скачок звука(где то раз в 5 минут или чуть больше).",,
AntennaPod,Google Play,de.danoeh.antennapod,Z3A6QU9xcFRPSEQ1S0Q4anZWdmdOYWlzSlBCdW4zY3drdlI2R3lQODBwUklCLWloMl9UMGMxbFFfeERiSmJDVHBTaUVLc2dtdWJGVHZQRjVKQlNzbU9ZSllv,Russian,,5,2015-12-01,Андрей Быков,Здорово,Здоровское приложение. Очень удобное. Но при загрузке эпизодов на устройство иногда обрывается связь.,,
AntennaPod,Google Play,de.danoeh.antennapod,Z3A6QU9xcFRPSGRqd3g3czRSSDB6VTRSN2x2YXFHOGw0WHlVRjM2S2l4eEpGLUhSZjVyd25YOVY2SWdFMWRGV19fS2ltS0lNaUticEw0WjVMcjI1allkWlRJ,Russian,,4,2015-12-01,Максим Басов,"",Good manager podcast's. I miss the seekbar to lockscreen and shutter notifications.,,
AntennaPod,Google Play,de.danoeh.antennapod,Z3A6QU9xcFRPSGpvWXdaR3dQR3ZBOFBRUmRrYjBQZlBfekJUSnFWSGtabGdsWlRHeUtVQ0tXYjhZYi1PSWZmOGJTbkwzT1haZU1EWUNDeW0xbjM1Z0JPVkV3,Spanish,,5,2015-12-25,Tio Elon,"",Does the job well,,
AntennaPod,Google Play,de.danoeh.antennapod,Z3A6QU9xcFRPR2Zjc3hlZXVzcy1mTV8waGNuTkV5VUFhV1FRb1pWdW5IQ3NfazdkMUxORHkyRzFVYjVPbGxRSG5VRkxSR0dpN1RsLUNIcGswS05BUG1wTVFv,Spanish,,5,2015-12-25,Óscar Fz,Simplemente el mejor gestor de podcasts,"Y además, ¡software libre! Gran producto y gran trabajo.",,
AntennaPod,Google Play,de.danoeh.antennapod,Z3A6QU9xcFRPR3hGZDRuYlNmdzE2U2ZWeXZuaUtTUkpBUGNoVGdQLU1nVFdQNDJVQXhIVjlueTJURVl0aVJXVmN0UFE3S2NqLWRzV3lfOURqems2WDQ3MXZV,Spanish,,5,2015-12-22,Carlos Soria,Me gusta,"Muy buena, sencilla y práctica",,
AntennaPod,Google Play,de.danoeh.antennapod,Z3A6QU9xcFRPRXBJUDBRelY3cEUteU5tdmtzanJOX05hM09qTkFqYUNLbDE5dURkNHl3U3pScnpBc3VJS3YydFdzdjRCSEtjV1dSMVRxeUxUN0gtQ3d5ZUpr,Spanish,,5,2015-12-18,Pedro joram,Funcionalidad gratuita,Tiene casi todo lo necesario y gratuito. Faltan algunas opciones de personalización pero va muy bien,,
AntennaPod,Google Play,de.danoeh.antennapod,Z3A6QU9xcFRPRnZXVDlCRW5weWhBaTBjVFVzTm9jN0JZbm0wY2NtblVnSy1wajdHTVVKX1MtbXVFODdlMEdMLUR2VjJzdk5Rdl82eU9XeHdxLVFob2txTUk0,Spanish,,5,2015-12-17,Sergio Bellentani,Un imprescindible,Funcionamiento perfecto siempre,,
AntennaPod,Google Play,de.danoeh.antennapod,Z3A6QU9xcFRPR3h5NnNvd2VuUXpBQlNEZFlmUE5GNDROb3N1d0x3ODREQWdwcm14TWVXOVZhWmlvLUpHQmxPV1FOQm1aYjd0R01SejhpMnFGMWpjX084cDFV,Spanish,,5,2015-12-16,joan perez,Imprescindible para podcasts de audio,"Muchas opciones de configuración y automatización. Fiable, solido y rápido.",,
AntennaPod,Google Play,de.danoeh.antennapod,Z3A6QU9xcFRPRkpoRGcxdGRWbWJYQ2NLUTBXVDRvcGhNS1NKY3hUc0p4YUJ4YjI4c0Z3NFMxWm1DbmM1d0c1MExJMm9fdVFrQlhQemN1cWJha1BmQlJqZXVF,Spanish,,4,2015-12-13,Manu MuVe,Casi perfecto,"En la línea de añadir más y más funcionalidades se está tornando algo pesado y se nota. Sin embargo sigue siendo uno de los mejores, si no el mejor reproductor de podcast para Android. Además es software libre, no se puede pedir más!",,
AntennaPod,Google Play,de.danoeh.antennapod,Z3A6QU9xcFRPSGhOMjdvMUNrVVhSWll6TE9WaEZQN1FHRy1aWllKVThRTjNDNUVNRGtjSHNrUEY1VnJsSWFDdE0yY1NIQnlLUWdPMkFwb3J0WEg1MzBXNm5B,Spanish,,4,2015-12-11,Antonio Izquierdo,Me va bien,"Algo engorroso de gestionar para mi gusto, pero muy útil",,
AntennaPod,Google Play,de.danoeh.antennapod,Z3A6QU9xcFRPSGJKb0VydlBaZjRyMDN3eVgwZmlSNkdyOEJTYzJsSVBleXc5LVVQX0w4cW1xVnNfbXRJSjZGQzAycmJJMlV5ekxiVDJKVjlTajdKaWpPdTVr,Spanish,,5,2015-12-06,Alex G,Tiene todo lo que necesito,La uso desde que quitaron Google Listen. Me gusta la forma de trabajar y las opciones que me da. Igual no soy del todo objetivo porque he participado en su desarrollo.,,
AntennaPod,Google Play,de.danoeh.antennapod,Z3A6QU9xcFRPR0dsQU41YnNBZndQTDFmb21ma3VxYmxNX3F5M3duWm1GV2tmalVmMlJpcHZ6U25QZ1l5Tnk5Um1ldEFsTnVHbFFPMzJrZENJM285LVE2RmhV,Spanish,,5,2015-12-06,Juan Briz Boronat,Perfecto,"Sin duda, el mejor. Y gratis.",,
AntennaPod,Google Play,de.danoeh.antennapod,Z3A6QU9xcFRPR1ZfdmpFRzFSR3ViUGZVZVA0N3k0U0dDUXVZa1ZERWVJb2VUVmVBLU8ySG5rWTE4YnVJOFhXVUxGWHRHbGlaaDB4UXdOSU0yTGFpNGlYVFg4,Spanish,,4,2015-12-06,Jaime Moreno,"Muy buena, pero...","Algunos podcast solo muestra los ultimos capitulos. Por ejemplo ""Espacio en Blanco"" que solo muestra los veinte ultimos capitulos. Con los podcast de ivoox pasa igual. Aunque tambien hay que decir que esto es así con la gran mayoria de aplicaciones de podcast.",,
AntennaPod,Google Play,de.danoeh.antennapod,Z3A6QU9xcFRPRkl0WG00RE9mZlNCOXZ2WjBwbnFEbzI2YzJsWDlpYzlmNjQ5QTg5VmxGRC1Yb1VZSVQ4QXotZll0ZGJaMmtKUm1IRUNEVXdJSG5Cbk90S2pN,Swedish,,4,2015-12-18,Rickard Gustavsson,Rickard Gustavsson,Hitintills den bästa spelaren jag provat,,
AntennaPod,Google Play,de.danoeh.antennapod,Z3A6QU9xcFRPRm5pZWN0Xy1oVWJUb2VsdDdQZHR4UmRPQ2JueG04bHBwWkRoSjVYTEl4THE0dkhjY2YySHRYeW9wUlhYVXhTaFQxYXkzbmVwYlRQejdTMXFZ,Swedish,,3,2015-12-17,William De Young,Like it but it is kind of slow now,Dont know why but it takes alot of time to get started. :/,,
AntennaPod,Google Play,de.danoeh.antennapod,Z3A6QU9xcFRPRUNFUGV6VnY2Tm9ZcEhFdTFabXVUMHVIcEYtR1JJZTNGYnRLMHRNYndaYUNpcHpHcVpQdjByT1lFNUR4YzRmV3U5Qm5mdk8wcXF1VDl0M3NV,Swedish,,5,2015-12-16,jimmy petersson,"",Perfekt med sömntimer,,
AntennaPod,Google Play,de.danoeh.antennapod,Z3A6QU9xcFRPRmpiTC1ITGRWOUlGQTFaRzJvYjdwcWdNZmZHaFJOS1RVeVNtTXRGcy0wLUh3djAya0U2U0x5aFB1YjVhQzhybkk3cDJKSlpQUEp2RmZHcXFR,Swedish,,5,2015-12-14,Kim Persson,"","Ingen reklam, lätt att hitta och ladda ner sina favoritpodcasts.",,
AntennaPod,Google Play,de.danoeh.antennapod,Z3A6QU9xcFRPRmQ2ZUYtbVJZd0hIRkVkQ0dHa3VhcTJSQ3N5TUp2bjVVMHBUa0NaRTcybXVtNGxaVHZ0T3VGSVk4OGpyNmNILWxlZUJLSC1IRVhPNG1RVTVZ,Swedish,,5,2015-12-14,Sebastian Olsson,Tackar!,"Reklamfri, enkel och bra!",,
AntennaPod,Google Play,de.danoeh.antennapod,Z3A6QU9xcFRPSDZ3M2R4SW5yTlBzazJ1OV9Cb0xvSzZBMWhyTWI5aFFuMmc4bFFqd2dJdWJOSXFJNjFJZDdiV1IzYWhUc08zM3ZBRHVKdDdvRDlrYjZtRnZR,Thai,,5,2015-12-18,kanok sangsawhang,กนก,ดีมากครับ,,
AntennaPod,Google Play,de.danoeh.antennapod,Z3A6QU9xcFRPSDNwLTdfOVZnVndVUjNtcGdSNWxQNlQzUzdrUGxBdS1Mb0pGYkRyLUx2aXZJOHZrS1F0bHNoMndrM1BuVGlMWnJBVGx3LXZsejZvYWNMdjlJ,Turkish,,5,2015-11-28,İlyas Çoban,"",Eslpod için indirdim. Podcast in içeriğini de görebiliyorum. Bedavalar içinde en iyisi.,,
