App,Store,App ID,Review ID,Country,Version,Rating,Date,Author,Subject,Body,Translated Subject,Translated Body
AntennaPod,Google Play,de.danoeh.antennapod,Z3A6QU9xcFRPR1FGMDVCQ2gySEp4Q0ZYaHZjREdFeW5fNU1wOXk1RmFKUHlIWTVvckVSYlNVd2ZLdEhRMzlCNi1nLUgzNTYwSnAxMWZWY0t2by1obnlWWDAw,English,,5,2016-06-03,Frank Zheng,Material design update please,Best free podcast app I've ever used! It will be great if the developer can update its interface to material design.,,
AntennaPod,Google Play,de.danoeh.antennapod,Z3A6QU9xcFRPRWN4b1BKTW52XzRUQk1GYTRkOF8xb2JYX2V5SUVTYXF6Mzh6ZGVuTlBZX1JuWTFhYjBBN0tYcFVic050WURXMHdhX3BLOENBQ2RWeFJXUXZv,English,,5,2016-06-03,Stephanie Swankhuizen,Simple,I like that it's simple and uncluttered. You are not spending ten minutes going through flashy menus or being berated with ads.,,
AntennaPod,Google Play,de.danoeh.antennapod,Z3A6QU9xcFRPRzktZWtZREw3eUNGeTBmcGp5MlF5VFJ6LTJEYWJER1RVLWczdE5FNVZnTXRtaWFrVmowZEc1eUNhZXoxZzNQczlLN1FYNllVLV9oYUVoVUUw,English,,5,2016-06-03,Chris Davis,Nice app,"Simple, works well, no problems",,
AntennaPod,Google Play,de.danoeh.antennapod,Z3A6QU9xcFRPRnBFZlNqbmdZaS1IVFJGXzA4elhsY0otRmNQV1VQUnptZXJ3ZTRhU0JlRHo5UTY4N3VnZnVha3QyWVZ2LVBEVHk2M2twblZ1N183Yk5ySTRN,English,,5,2016-06-03,Jose L.,FOSS at it's finest,"I can only strive to be good enough to work on it someday. If you checkout the github, there's constant interaction between collaborators. Oh, and there's Chromecast support.",,
AntennaPod,Google Play,de.danoeh.antennapod,Z3A6QU9xcFRPSDFhMklsbkg4NV9rUzVXTVBkMlFXYUZtcnVYd1hNb2d4S0huWThJSGRkaVhiUk95M1VVQUR0T3RPYUhxY2FFUEl1LTlveEJjVy1rXzRHVU9j,English,,5,2016-06-03,abrar khalfay,Surprised its still free,The app formerly crashed immediately when tried to sync with gpodder but the dev. Is serious and got the app sorted.,,
AntennaPod,Google Play,de.danoeh.antennapod,bGc6QU9xcFRPRnFOZUpHM1VhR3JuSzd3ejFvLUhNM0d1eXpMYW1FZVA4Z0hGcjdSaV9ZbGROZjMxN0hCU1RLbUhuWGRYRDZlYV93NlpZNzBDSmsyMXQ1aUYw,English,,5,2016-06-03,A Google User,Thank you for the app. Works fine,"",,
AntennaPod,Google Play,de.danoeh.antennapod,Z3A6QU9xcFRPRWQ4YW5BWjVhT2s0ZEdFNEgtQ1lpRXIxRURKYjN1V0JwM2RLTW90am91ekFhRDVFVy05UG1faW1adjVQUjh2NUFvdFJKTEhSWFZ0UjFHNGg0,English,,5,2016-06-02,Steven Hernandez,Open source and it works,"I really really like this podcast app. Being new to podcasts in general I was put off by all the podcast apps that had to be bought. I can understand why you would buy one. But how would I know I would keep listening to podcasts enough to justify me buying anything. I looked for several free options until I stumbled into antennapod. So far i love it, and really appreciate that it is open source. You guys have really done the world a service with your app.",,
AntennaPod,Google Play,de.danoeh.antennapod,Z3A6QU9xcFRPRk9wbFNiTFdVMEN3cFBSdEhVbTFvbTFaajNlcDZ0RVRIbFRsWERsOEpOT21xcmxveTlZOGVaNk5aZnNmVl80YW4za0FLNGxKTFFuQ1NzQnlv,English,,5,2016-06-01,Jonathan Platts,Excellent & free. What's not to like?,Saved me from faffing with SoundCloud.,,
AntennaPod,Google Play,de.danoeh.antennapod,Z3A6QU9xcFRPRXZMdmdkNDByaWMwUlJmQ3pRbEFQX3BLWWRhRTdTQzNxalhkNmVvMkZWcXVnY0dTRUtBWFBxLWRlS0VwOFUzTGpNQnBFekpMXzZ4X2V1X2h3,English,,5,2016-06-01,Adam Harrington,"",Best app I got,,
AntennaPod,Google Play,de.danoeh.antennapod,Z3A6QU9xcFRPSFZUM1puX3lVVVZZVURuMDR1dTVFUVpYT3hweWJxZ0RpanJ0dVBaX2dNUF9iUjZZVVdYMWtlTVRqSVRDZWhHekt2R0dsX3VjSWFiMGdTR0Vr,English,,5,2016-05-31,Barry DeSain,"Works great so far, better than others","This is my second full use podcast app, I used another one for many months that started to crash my phone, using its free version, so I was not about to pay for it when free was messing with Android. With AP, everything runs smoothly, getting new episodes is easier and sound is always consistent. I will update if any issues or other great things arise! So far so great.",,
AntennaPod,Google Play,de.danoeh.antennapod,Z3A6QU9xcFRPR09uNUVpbTNyZkMtTG9vYzZxUFRaUVpOQTJkcG1ueTVLcGZBQ05RaEFSNjVNeEdjYm1zN0ltdlRMcFY2OGhlYmtxTkVoNDhVakU4UFozUFlN,English,,5,2016-05-31,Anthony Gardin,"","Works well, not too cluttered",,
AntennaPod,Google Play,de.danoeh.antennapod,Z3A6QU9xcFRPSDBibi1kUVpnZzZRY2JXRGlSV0pPSHpTU3dabG85c0lYRWJzY293aDFBajBHa2JaMWNzbEI4WlN6UlhGb2ZYS051SnNmNnBpRFFrX21uVzBr,English,,5,2016-05-31,Medina Lozano,Antennapod,Just amazing.. It just works,,
AntennaPod,Google Play,de.danoeh.antennapod,Z3A6QU9xcFRPRXJvc1FMRngxVWs5cWNDbG5rOWNnbkJrelY4OERZTFptb284akh2MFpZUlJCSUtrNGt6VVJFZV82amdVWUY0bGc5MWJQTjJRanZyQUNjY2dV,English,,5,2016-05-31,Adam Dorough,"Great, actually free app.","This does everything I ask it to do with very little errors and it's actually free (I'm talking to you Doggcatcher).  It doesn't auto-update, but that's okay.  I've yet to lock it up.  Another plus, it can search ITunes for podcasts.",,
AntennaPod,Google Play,de.danoeh.antennapod,Z3A6QU9xcFRPRTJMMEYwZ28xTUN4bGxpTUY3enZOSGxlS1phYnFrVmtHMUxQRE1saW54bjZaakNPd0VwOEI5eEl5MjBHM1ZlUUtxNzduTmw4bWllV053bVVj,English,,4,2016-05-31,Alexander Wölkart,Almost perfect,If there was Chromecast support it would be perfect.,,
AntennaPod,Google Play,de.danoeh.antennapod,Z3A6QU9xcFRPSDB1V0JIQnJwM0RXeWgwaE1BQmx2U25NUHhQMWxoemRJanNOcmJ1UlE3cHg1NWlOZW5UaXlranVkbmdYYWdLX002Q0JzbEViU05Za1k4WXRj,English,,5,2016-05-31,Brandon Jones,the best,"bro this is amazing. the chromecast support, the functions for L and R audio and the resume after call features are great.",,
AntennaPod,Google Play,de.danoeh.antennapod,Z3A6QU9xcFRPRjEwMlAzOTg3UFJNSTk5LWtCcHlSR3JRSnR3TklXdjliRl9OVUNNQUtaVFJ1RWtXa3BkLWhnTklqaFJTcUplak96NHBJc0VZb3lYT1FQbktV,English,,5,2016-05-31,Marcin Floryan,"",All I need,,
AntennaPod,Google Play,de.danoeh.antennapod,Z3A6QU9xcFRPRUxWYmNmTVljUFhtSk9UcVlnRVo0Rlo1ZjBlSTktdG5lQTJ1a09IZXk3bXp6NjREX3VNMEMxc0YyaDhReWE5TENiVG9qTkp3XzhPd0pCVVE4,English,,4,2016-05-31,Murray Grange,Great Podcast app,"Works perfectly, only bug is the auto download doesn't seem to work",,
AntennaPod,Google Play,de.danoeh.antennapod,Z3A6QU9xcFRPR2dndG4tTWpzZTVnTnF1Mzg1WFowcTFEc1F2TTJDc3ZtRGZnel8zNlMtMnRUVjNFMU5LQmdvbF9KVjJiUVFDX205cHV5Y1VQS29mSkw1aWVZ,English,,4,2016-05-30,James Yee,Does what I want it to,It gets the podcast fix I need.,,
AntennaPod,Google Play,de.danoeh.antennapod,Z3A6QU9xcFRPRko3YzFGUWFZcG81UXlBcFNyV3pQc2U0cUplM2NwMTdoWDJiZXVtMHBHMlh0dGZndUZLSEpTbTFvZ3FadmMyMlRsc1FqazBBRDdoZW0wRTNj,English,,5,2016-05-30,Ryan Kling,"",Does exactly what I want it to.,,
AntennaPod,Google Play,de.danoeh.antennapod,Z3A6QU9xcFRPRU1FbEthQWlSSGFJU0FXQ2xJcExjZTBfNDliaURfSGg3d2NzN0VldTJCVFFVbDVfM2g1N0FwUUdLaG10WGpnMHVFTmt0aXdodThBR0lHMmdB,English,,3,2016-05-30,Ruth Riddel,"",you guys REALLY need a playlist feature.,,
AntennaPod,Google Play,de.danoeh.antennapod,Z3A6QU9xcFRPR1BMeTJ4VGhNRnNmOGYzaUszRjVvTWxGaVc5TzBzS3VjQ2h0cUllRXlCMnkwSnBLUWV2d0Y1cUlzOVhVSDRqNHdycG1DamYzZjVxRW93MVVj,English,,4,2016-05-30,Jon Castle,"",Good  App. Easy to download my podcasts. Won't be using my PC for downloading.,,
AntennaPod,Google Play,de.danoeh.antennapod,Z3A6QU9xcFRPRnJ5N3lnY0VjWlhoS25tVUs3bEtlY2U2dmlBMTZhMVJoaEZCUFV5LUF6Y0NzQ1JPaFVrT3BhT2F5UVZSLTBIVEtvRllTWDU1SWphUnp2cHpV,English,,5,2016-05-30,Piero Hansen,Very good catcher.,"Open source, contained size, lots of features, keeps getting better, no ads. Very happy with it. Crashes on very rare occasions, and I wish the lock screen widget had more features/buttons. EDIT: Lockscreen widget now enhanced, app became even better!",,
AntennaPod,Google Play,de.danoeh.antennapod,Z3A6QU9xcFRPR0djUEVyZXU3ZElOY01iSkNiaGIwZ3BodUlRVUtYTF9IM29PeGJYM29mNVN6ci1DdDZnUUI4cUM5c19Wbmg2SzhfbHlLVTUzLU1qcFBweWpZ,English,,5,2016-05-29,Nat Blackburn,"",Still the best podcasting app on Android!,,
AntennaPod,Google Play,de.danoeh.antennapod,Z3A6QU9xcFRPRUtFRnNSdS10cTVXNXlSR0pSWjRuLVQ0bUdHLTQwUnByZ2JkLWpVSHhBcjJ2eUlmS0lCdlo5LVY5ZnE2Ti1wSGxjVW1yOGIyNmczdlplY0gw,English,,5,2016-05-29,Urko Masse,"",Great app. Makes managing podcasts really easy.,,
AntennaPod,Google Play,de.danoeh.antennapod,Z3A6QU9xcFRPRVRjZHBOY0dsWHpmTy1UNlNOMUVuLXR1dnNGV1prelk2NWYxZUdOSXhvVUhzZGRJbmdTQzBYRTlwWmxtSkVrUTV1N1pIWUhvYWgwZHpnRUlr,English,,4,2016-05-29,frank karr,Love it.,A really good dependable podcast app.,,
AntennaPod,Google Play,de.danoeh.antennapod,Z3A6QU9xcFRPSEtqMlhJbGRiZk5YeHJJMU1zQ3MybFZlNE5rQ1NxQVY0M1ExdHpJeGhOQkt4eENxdXVxRVpmaV85c2wwdkxWY1lIUmhaMWdkZm5pX2xkeElR,English,,4,2016-05-28,Paul Gibbons,AntennaPod,"Simple, handy player and downloader. Like the speed controls and jump forward and back buttons. Would be useful to have up / down speed buttons instead of a one-way scroll. Embedded player is accessible from file list that includes files not d/led with the app, though in this use it doesn't remember the position of paused files.",,
AntennaPod,Google Play,de.danoeh.antennapod,Z3A6QU9xcFRPRUk4WXhYVEZrVG1JdXEwam1xN0h1T3JyYnlSSWt3ZW5IbnNyYjhZdlZISzItODZsNjlPRDVqaTUwZ1JRQ0c4YTNlLVZ3UlZZdURTUTFRRldB,English,,5,2016-05-28,maria collins,Miss,I love the variety .,,
AntennaPod,Google Play,de.danoeh.antennapod,Z3A6QU9xcFRPSGd6aDhoanlqY1NaNmdpVVR0YVdwczBvYkJERTltTVYzYXdCNmRLQWtXdlB1bmRUZjhodTlERnhJRFc5TjlqWUJXdUkxZFd5S3YzbFVyVDBn,English,,5,2016-05-28,Danish Mohamed,Has what I need and ad free! Thank God.,"A lil refinement needed, I looked far and wide for an ad free podcast app, and this meets that requirement and so many more! You can search and add podcasts from iTunes directly. Only thing I wish was different is to be able to delete downloaded podcasts directly from the episode interfaces",,
AntennaPod,Google Play,de.danoeh.antennapod,Z3A6QU9xcFRPRVAzN3g5c0dOSUdEVng4MnJtRXZ1bXJQaUkxWXYwWkUzVXh2dlppN3pNTjBjbXh1WXM3ZUllUmw3TXBJOXZtZEl3UmtKMUVIQ0p1OW50c3dR,English,,5,2016-05-28,"",Best podcast app,I've tried all popular paid and free podcast apps. This one is the best.,,
AntennaPod,Google Play,de.danoeh.antennapod,Z3A6QU9xcFRPSFQwYVNHOTBzWEVQdVE2WmRuS1NvU290UEtCOUYzSndCWWJFekVsaU1QQ2VORGJocFdCQl9GdmFzZTU1QXhWRVhNN1BNcVJ5dTdZTzZ3S3c0,English,,5,2016-05-28,Ivy Owens,Great app with speed option,"Great app, really useful option to increase or decrease playback speed. Slightly less intuitive navigation than some competitors, but well worth the minute it takes to learn the ropes.",,
AntennaPod,Google Play,de.danoeh.antennapod,Z3A6QU9xcFRPRjBwRkkxeE9vYTZCNlAxbEQzODF2NXhJQTNZUEFJRTFiLUlWMTV0b1BDZjl5YTlmamdHdHZCcEhETzE4dFRiUmJWMDgxSW1CcVBYWnRzWEI0,English,,5,2016-05-27,Greg Thomson,Just the thing!,I've been used another open source podcast app up until now. I had too many app force  problems so I switch to AntennaPod. I'm really glad I did! It's a fantastic podcast client!!!,,
AntennaPod,Google Play,de.danoeh.antennapod,Z3A6QU9xcFRPRzdRU1hxLUpaMjN6M1NwUGstRFhaRVQ1UHhMUVgzbERHVnVlQnFMLXo4OTBYX1h1Q0hiZVJFMW1RS0lyUWVsanhrSHBoN0RUNkQxVTBVcGEw,English,,5,2016-05-26,AL,its good!,"it lets me keep track of all my podcasts and it has tons of customization options (the most useful of which I've found is the auto-dowload/delete setting) plus, I've yet to see an ad. try it! 👍",,
AntennaPod,Google Play,de.danoeh.antennapod,Z3A6QU9xcFRPRUxycDl4c2Uzb2Q2eXZoNU9qalU2RHR5Um9SWk02S3ZXUTE2eHFJSEtNT1JTY3piR3cwOEJqS2I3c1dsc3RRRXZTSUZodklCTE50UHdqS3hR,English,,4,2016-05-26,Ignacio Sellan,Great podcast software,.,,
AntennaPod,Google Play,de.danoeh.antennapod,Z3A6QU9xcFRPRmtKd2FjUGNlTUhxdTNLSVptT3pzRmRrZnJnd0hZTWNWV0MwZ3o3R3Ntc3VvVmVScnVOdWNKX1VSUktvTV9LeEloZGJTQWVTeFRzdUJldVZj,English,,5,2016-05-25,John Ginever,Podcast player,"Works exactly as it should, I've used this on many devices over quite a few years. No fuss, no mess and no clutter or trying to sell me anything.",,
AntennaPod,Google Play,de.danoeh.antennapod,Z3A6QU9xcFRPRjF4MTRuTXpPczZwTWdONmt0czlKUGFOS0x3TUV5cWRaUWJwMWEybmVPVHdjOFNRa1hMNWV0VVNsT2RmOXBXVHUxdUZ3Nm80QjZoVXJteVI0,English,,5,2016-05-25,Octavio Alvarez,Works flawlessly and the code is available.,"Not only it's open sorce but also free of charge and it works great! It doesn't get in the way, earbud controls work, it behaves as expected, supports downloading episodes for off-line listening, and it's not married to a podcast provider.",,
AntennaPod,Google Play,de.danoeh.antennapod,Z3A6QU9xcFRPSFltZmdocndxQXI2amlKNTR6ZmZ6R0pmcXpGcVFlWTA1WGRqb0Q0RG1QLWhqWFk0OV9rckxEa2ZYSXN3T3VPVU9KWC1FMXRqM19jVzlKQ2xr,English,,5,2016-05-25,Taylor Conroy,Fantastic app with great features,Three cheers for open source!!! This app is a first class podcast manager with great features for power users while still being simple enough for newcomers. The development community is responsive to bug reports. All around a great example of what quality open source on Android can be :),,
AntennaPod,Google Play,de.danoeh.antennapod,Z3A6QU9xcFRPRW02ZUJWb0ZEaWFsbFdsdDdpQXB4QmZxclhoY0hhcXA0SkNvN3VabDhLTUFBZVE5c0ZNT3JGYTZkM0FkM1Y1c3ByODFpRjVpOWpMTV92SFNF,English,,5,2016-05-25,"",Open source heaven,Everything a podcast app should be! Open source and advert free. Thanks,,
AntennaPod,Google Play,de.danoeh.antennapod,Z3A6QU9xcFRPSHJXdmhZdmNfbnRGWHFpMnd0MmwxLWZwdDFyZ2MxRWRVVDF0S0ZoMDRjZlhoN3c5ZzF0bWNwSXpBclYzUm1JSDluZGRaa2g0aWwzYXlJbXJr,English,,5,2016-05-25,James Meers,FOSS podcast player,Great app. May take some getting used to but I love it and use it for my daily podcast. Open Source is the way to go.,,
AntennaPod,Google Play,de.danoeh.antennapod,Z3A6QU9xcFRPRjVqVy1YYWdxY1cyOTRDWk51M3ZiODVpQ2FTYW02aFlXZ09xc3JpRG5zTVNGZ0hPcGZESUdkam5ydzNRWGhVOXJUYk00T2lDaEtLclM1ZUxN,English,,5,2016-05-25,Judy Graybill,"","I love this app. The interface is easy to read, learn, and use. Plus,  I love that I can easily search for the podcasts  I listen to regularly, including ones from iTunes.   It is exactly  what  I  need  and want.",,
AntennaPod,Google Play,de.danoeh.antennapod,Z3A6QU9xcFRPR3FFT2taX2F3U3QzSjlZd29DMERzMGx6MnFTMmswazh6dC1QcVZ1eE8ycnFCU1hiaTRZUXRUdnllT0NOcnFhTGdVZVFiVWtjNDJCYmNUaG9F,English,,5,2016-05-25,Domhnall MacCormac,Very good,Easy to use and reliable,,
AntennaPod,Google Play,de.danoeh.antennapod,Z3A6QU9xcFRPSGJOdG56LVhLQ0t1bG5TZFczT01RbEs0REhkYjVVdkV5ektjdHRkcGVXaUxVVnhTV2VUVDk0Znl0OTVvRmFUZlhZcmxodUo4MmVZZGQtcmhn,English,,4,2016-05-24,Gary Bolyard,"",Sometimes doesn't autosync,,
AntennaPod,Google Play,de.danoeh.antennapod,Z3A6QU9xcFRPR0xtZ1laVkF0OFN2QmtsU1AxaFpwM0pTdHd3U2VtM0NIM3FNN3AtclhPdFNGQm8xbFlIYVhhazJMVy1mUlVnbXhrWDBhR0xkWXJ4N2RkUjNB,English,,2,2016-05-24,Test Pro,Stopped during playback.,Wanted to like this but it kept stopping during playback of podcasts.,,
AntennaPod,Google Play,de.danoeh.antennapod,Z3A6QU9xcFRPSERjMjRYN2ZTNWc3WXpNOVJxc3pNWTkwSnlqOHB3MllEX0VuMXI1QTA2UU9mZ3MzdmloUEk0eW5LdWtjRW54eW5ibDl2b3FXTktKbUdxdHln,English,,4,2016-05-24,Erasmus Hagen,Best open-source podcast player,Comes with all the wonderful surprises of an fully open sourced project ;) big thanks to all working on it,,
AntennaPod,Google Play,de.danoeh.antennapod,Z3A6QU9xcFRPRjZEdk1RcXJ1bHVGNEd1ZUxJZk1qQUdVd0hXV2hTVTlDRlNwV1Q0TjFUbFNEeFFlMHpfYjc2U2stOEpvOVV4WjFYRlM2SXFmZWJaeThqd1BV,English,,4,2016-05-23,Hugh Wilkinson,Good job,I like it,,
AntennaPod,Google Play,de.danoeh.antennapod,Z3A6QU9xcFRPRXJuU3lTdmVub2xha1dTTF95NEF5WHN2dzh2VjdQajdZSXZ6cDBvOHZpZ2dVd1lnM1YwUEdwckxjaTF2UlNMU2dlVWZOdDYyeHdtVHVvaWZV,English,,5,2016-05-23,David Hughes Rachel O'Connell,Simple and effective,"No frills,  highly functional  not bloated with social media rubbish. Free  too. Amazing",,
AntennaPod,Google Play,de.danoeh.antennapod,Z3A6QU9xcFRPSDVFRjJuU1JxaWQxSEhwUDl4MTVSOXVEa2N2a1YtZHcyYktHM294ODJTRi1DbjZhMzZYQ1B5X09uX1hjRUkyVks0LWN0bFE0Si1RbGx4YXVj,English,,5,2016-05-22,Julian Zuluaga,"",Excellent,,
AntennaPod,Google Play,de.danoeh.antennapod,Z3A6QU9xcFRPR3N0N2MyOXlwMVdxMGdLbUtXSU1qZ3puZXM3dzlfX0R3SG5GSUE3UGl5YnFFTW56RzM0dVYtemh6UW9tVUpwazZrZVJtRkwzYTE4bzdLNEJN,English,,5,2016-05-22,Fadhlie Ikram,Love the app,"Its easy to use, I can subscribe to any podcast that I want so far without any issue.",,
AntennaPod,Google Play,de.danoeh.antennapod,Z3A6QU9xcFRPRVlodmdWeFA2Q2tUNEJkOHluWlRkNndCV1pHRU1FWXBIOENVZ3ZjWGIyS3NMWGRtLUtfMVZEOG9LdzhqRnRtZnQyRWFMRHpsUE5Ia3BhbE9r,English,,5,2016-05-22,Steve Smith,"all the features, open source, no ads","the only Podcast app that has all the features I need, especially chapter marks ... and its open source,  cannot get better",,
AntennaPod,Google Play,de.danoeh.antennapod,Z3A6QU9xcFRPSHRVeHFuLXE4QUhlbGZnRjZIWmxGU3RQWkVHWVFTVmJXcHZKSXkwdG9ESFZRNzNuZzBwei1CR0Z3VktmaERRLXJaUlZTZk1nMUhTcjEwSW1v,English,,4,2016-05-22,Stuart B,Pretty decent,"Switched to this a few weeks after DoggCatcher started glitching on me, haven't looked back. My only gripe is the way downloaded episodes are automatically added to the queue - I find it annoying when something starts playing when I didn't set it to. .",,
AntennaPod,Google Play,de.danoeh.antennapod,Z3A6QU9xcFRPRWV0NkR1X3kzR09saERPYkRPQ3VPdDlzblF6Q3dsamVueXpKVW9kSEFVWlNrdHF3a1NMR29WSG5tQ1BFT2Q1S1ZqXzVSWG9oV002NzQya3pZ,English,,4,2016-05-21,Pascal Meier,"","Very good basic app for podcast listening. Solid, reliable, no weird stuff (so far....keep it that way!)",,
AntennaPod,Google Play,de.danoeh.antennapod,Z3A6QU9xcFRPRzM5UENyUDF1WHZ1VURkQy05eUZhbm53THVKX3RzOHJSSFJGUFJ4MVBPVFh1VWFpOWdzd2VEVkJIbThHc0U2TmNiTGhaLTFOdkF1MWtJWkc4,English,,5,2016-05-20,Jake Sawyers,Perfect,"Ad free, easy to use, everything I hoped for.",,
AntennaPod,Google Play,de.danoeh.antennapod,Z3A6QU9xcFRPSDNpclR6QV8yU0l1Nnh2RHF1em1xWlhQWWtweTQ0cVdzcmszbG5MRE5jVnlyZTlhWk9rUjBTRnBFY2JDNmcwZVJRUk9UTGxEX0xQUWF0Y1lR,English,,4,2016-05-20,Emma Scott,"",This is perfect for listening to podcasts and it is very easy to use. There are many changeable settings so it easy to personalise your experience.,,
AntennaPod,Google Play,de.danoeh.antennapod,Z3A6QU9xcFRPRnU3aGpTZlZmdGRKUGRkSW14aVNzVjQwemx3N2NONUhmbTU3OWp1MnEzd2RwQlpicVl6eEphV1VzMUZkdnJ3OGxSd1AxeGNXSlMzTnppMFdN,English,,5,2016-05-20,James Collier,Free and easy,Does everything I need a podcast app to do.,,
AntennaPod,Google Play,de.danoeh.antennapod,Z3A6QU9xcFRPRmJLRHNWTUN1VFA0b0JCN3Z2VFg1MGE5ZVdjMzdjcGhOSVVMaDBsZ2VSZXFWUjRwYk85UTFsX3dMcHdyTDYtMFpzQmIxRzlra0xmVXZrSFhJ,English,,5,2016-05-20,David Babcock,Does what I want,I love the balance of features with the ease of use.  Bonus:  it's open source!,,
AntennaPod,Google Play,de.danoeh.antennapod,Z3A6QU9xcFRPSHJadU9rNFVrOVhUb3BCN05CTmtrbUtyY2FZRjNDeExIajVjWXFyNE9hc2FHekhuSEk4NUE0RjV5VHhQRElGeHFKMDhGd1pTQjlNUWpYbG5z,English,,5,2016-05-19,Ginco T.,"",my favorite podcast player,,
AntennaPod,Google Play,de.danoeh.antennapod,bGc6QU9xcFRPRkFISEVGWlhUeERJd1p0Y24tVlZYX29iS2hpUVdBdjdLTDdOakxGYTFjMzdjd1ZxNWx2TkpLb3ZFdnJVa1FmeW9LUnFJVWhGZmxnSzFuTkFF,English,,5,2016-05-19,A Google User,Finally a great Podcatcher for Android,I love this app. :),,
AntennaPod,Google Play,de.danoeh.antennapod,Z3A6QU9xcFRPR21vVWROWW03YVpsRGp2UEVTTkRrbWpiVWRIUTdhR0ZIbE5qbEItWDhpdXFvejlKWnlpRU1jLW9EcUlDZEpMMUF6WmVIUC11aEpHZ2VjU3lF,English,,5,2016-05-18,Orin Cook,"","Simple, clean, functional.  Even supports variable speed playback.  It's everything that it needs to be, and nothing that it doesn't.",,
AntennaPod,Google Play,de.danoeh.antennapod,Z3A6QU9xcFRPRU5OUDZCTUszTWJXci1PX1k2cTRVdVJNekducGJDdGZIVXp0U0RtQkNNNm5xS05UTnIxV0wyc3JUZ3VZN2VmTU82OHF3TFU0QjVVM2g0QkFv,English,,5,2016-05-18,Hideki Higuchi,"",Nothing to say,,
AntennaPod,Google Play,de.danoeh.antennapod,Z3A6QU9xcFRPRWw2UGVCcU1ROTRrQkxaUGliN2dCQmM3ZmhzSFNCR0RyVE1jWUJmUlRwNnlfTkZ0QzM5RHp4aWx1eVloZHE5eTM1R0NoYmUxckN3cjNnWDNr,English,,5,2016-05-18,Kirk Bell,Excellent,"Easy to use, modern interface, feature packed. Kudos to the developers.",,
AntennaPod,Google Play,de.danoeh.antennapod,Z3A6QU9xcFRPSHlSa2NFTENna0xMd3FKdHRFdEdyWkpQeHBFMy1DclFyT1YtMDV6YWlKN1ZVRjJaWUctdTAtNDAtR0FrS3RyZWY2Smc3UzdET3JoNjZfenpn,English,,5,2016-05-17,Martin Dillon,Everything I wanted,"Very fully featured, free, updates with rss, keeps track of all of my watched episodes and let's me filter them out, and I've never experienced a bug. Plus it's just dead simple to use. Seriously, a perfect podcast player.",,
AntennaPod,Google Play,de.danoeh.antennapod,Z3A6QU9xcFRPRUxwSnB3ekFUNnJkX2trMmNOSXhFNWJmaTFmVTlWbXQyRUVMMVlvN2RJaDRtLVZsM0Zuc3NhVG5zSFVTbUZBeWlEQ1ZOV1dQdzBIQ2g5MTNj,English,,4,2016-05-17,Walter Walden,Does its job,This does its job with not a lot of gimmicks. I like to it.,,
AntennaPod,Google Play,de.danoeh.antennapod,Z3A6QU9xcFRPRzVTWXFER1dVLVBjanZDdXBsTXR6eXlKNmRUWXYxVlI3YjdaMWxnSHBubWFWTWxtM0RsbXczYm8yN0FhZ0JaM3VacnFrcFl6ejZ0Ry1PQ19B,English,,5,2016-05-17,Sarinee Nititham,"",GOOD,,
AntennaPod,Google Play,de.danoeh.antennapod,Z3A6QU9xcFRPRXRCVWxlWUN1UDN6MDhIcGRMdlBYSnNVVm5nTi1jRFE2Ymhtd1VULTA0ZWltRW0zUlNhc2tYUFNPajl0WkxRN2d2aFFROWdManhJRG4taHln,English,,5,2016-05-17,Frank Thomas-Hockey,Best podcatcher out there,"Open source and liberating, glad to have found it via fdroid!",,
AntennaPod,Google Play,de.danoeh.antennapod,Z3A6QU9xcFRPRjZkMUJaTnFWaWw0My1uZVVFa3hCVVByanI1SkFabjBQNUhsLVFXYWRCOEZ4V3ZaRjRBVGpJX0dremFOZG8wc25FQWdVblZabmxKaWVMRXg0,English,,5,2016-05-17,"","",it's open sourced,,
AntennaPod,Google Play,de.danoeh.antennapod,Z3A6QU9xcFRPRXBwOVVoYmNLQUJjMVZDem13Yy1WTWRxNGtETXY4alhBQUZ2cVlXTVBINkU0bjBsblFSUE5la0ljNHhYT2EwV1ZQN1IwSG5NSVhrNEtBbXMw,English,,5,2016-05-16,Helsingberg Arcanjo,Works fine!,Nothing to complain about. Highly commendable.,,
AntennaPod,Google Play,de.danoeh.antennapod,Z3A6QU9xcFRPRTJmaHhWXzF1R2pTeFJWQ1Y4SDV1QmZDZWpJTmgzRTI0UUQxMmE2cXRWbmlNRWxqcjFQSV9obDB3UU5SUFdLUXVZdVd5QnUydTk2M05PUGs4,English,,5,2016-05-16,Aaron Pilgrim,Awesome app!!!,It's open source! Awesome to see that in Android!!@,,
AntennaPod,Google Play,de.danoeh.antennapod,Z3A6QU9xcFRPR0hwcG9OWVRnd1A2WGJyLUF1QUhwRGhXN3pfcEp5dGFsTGNybHc0X3NLdHM2NVF2ak1ZamRaMGx1QmlQV3NmU3BENGN3dFpEX21IYnBPek04,English,,4,2016-05-15,Ezekiel Caselton,simple,some issues but its dimple easy to navigate,,
AntennaPod,Google Play,de.danoeh.antennapod,Z3A6QU9xcFRPRTdKS2ZHY2p5QmliOEJiUGNTM01KYkE5UjlVX3hFdEloY2M1Q1puOFpYcjlqU0wyVlRESnQzbk9GdFYwMHBWaTZjbXZhYTNCTzFWT0Nfajh3,English,,5,2016-05-14,Tanel Ruuse,"","Good and simple, with minimalistic design",,
AntennaPod,Google Play,de.danoeh.antennapod,Z3A6QU9xcFRPSFl5REpKczlwMVIycUtvczB5eDEyR1B0RUFjeGxyUHZKQ3pjQlZZMjN1bm9ZakluMW1CTTJpaTRLcEFJcEdzOHAyZnN2RDN6Q0JTMzdfVnE0,English,,5,2016-05-14,Alexander Wight,perfect for me,easy to use and doesn't crash,,
AntennaPod,Google Play,de.danoeh.antennapod,Z3A6QU9xcFRPSE1FaFdmbFhJenRWU2o0Vk9BWmVsX3dhS2Z2MW92LXFyTThNUXZhd1hGd3ItSWRlTTZXWVNmLUg0TUQ5Z3NjOUJudmNqeWU4MW13MGloeEgw,English,,5,2016-05-14,Jackson Murtha,Great!,"The best of the podcast apps, and it is open source.  Great customizability and features.  It's great to see it keeps improving and Chromecast support may be on the way.",,
AntennaPod,Google Play,de.danoeh.antennapod,Z3A6QU9xcFRPRlpqNnNfdF9aVmpKUTcyajRyT0M1ZjNfUzc5WXY0Q0Y4cVJSX29IcldrbG8zemc0d291QncwY2lQSVJMbVo0RUJxV1RYODg3eHBPbHNnMmZn,English,,5,2016-05-14,Tuan Kuranes,perfect,"neat job here, exactly fit the need",,
AntennaPod,Google Play,de.danoeh.antennapod,Z3A6QU9xcFRPSE0zZEExXzc2Y0dpSE1sWWRtVWY0LTlQVDVEYUk4Y2ltMFRkd0dfdVF4QXFMa2k5djVYLXlPMFRNZzNtcHJhVzhVYjFZVXBKZUgyZUVZWGkw,English,,5,2016-05-13,Ashton James Brown,An Amazing Application,"AntennaPod is without a doubt an amazing application, and shows just how incredible open source software can be. It is now the only way in which I consume my podcasts.",,
AntennaPod,Google Play,de.danoeh.antennapod,Z3A6QU9xcFRPSG9OR2QxSkMxN0VBd0ZVWjN6UlIzVlpaMDRSdklLUV85SXB6S3YzYkpKejcxQ0tFUlhxN0RLVFY0Slp5cUM2RVZjMEhNZmVHQTVhY2c4NDNR,Korean,,5,2016-05-31,Jung-Jib Kim,좋아요,광고없어서 전원사용량도 적음. 팟캐스트 검색이 다른 앱보다 불편함.,,
AntennaPod,Google Play,de.danoeh.antennapod,Z3A6QU9xcFRPRXVyNFhMTk9xZmtWT2paY0x1Qm5xZEtlWFFnSTUxTlFYblgydVJrbnVnTjFLajZqVGNGdnp2N2h4NFBEWUk5TjZPLUZVQmMyWnc2WDVvaVRr,French,,4,2016-06-02,Sylvain Chevalier,almost perfect,only needs feature to add previously downloaded podcasts / audiobooks from custom folder.,,
AntennaPod,Google Play,de.danoeh.antennapod,Z3A6QU9xcFRPRTVTSEdQbVplT21PZHFDYVhaUF9rakFkcW5kQ3IyVlZRRmdHWTl5YzdtU0ExMHM0QWxJYURiQWhoRUNlZmFQQjMxZWo4WUdqODQ2MlNGUFNB,French,,5,2016-05-27,Raphaël Akiba,"",Parfait,,
AntennaPod,Google Play,de.danoeh.antennapod,Z3A6QU9xcFRPRnhHVHVnYkxfNmMtUFVXdFhobl8wNEwwUzI5ekxISmZqZTdhUXp6Z1VhS194VlhqSU95VUVTcV9WT3R6ajNyUHBJNXFzWi1yMVp3SmJkd2dN,French,,5,2016-05-22,Denis Catala,"","Peut on faire mieux dans le genre simple, puissant et gratuit ?",,
AntennaPod,Google Play,de.danoeh.antennapod,Z3A6QU9xcFRPSDA3dDljSVlTNnNFWjIyVDJSbW52VHkzQkt4TXR4U0hkMnFvQmtNYlRpMm54UjVoNkwzZU0ybEdOeHFBUUlyQ0JFaGlMMWpQdW1BRkVOMDAw,French,,5,2016-05-19,Joseph A.,Bonne alternative gratuite,Antennapod est une très bonne application de podcast. Elle est open source et respecte le material design. Elle a la diffusion sur chromecast et de bonnes sources de podcast.,,
AntennaPod,Google Play,de.danoeh.antennapod,Z3A6QU9xcFRPRzVlb3FmdlZPSjk5UEZWX19wR2M5OVF1ZEtHNHhrb21wWWx1WFFwT3FQeC1pNmw3dWF5OXlyQmYwVnEwQTRrdk9WS0tTQ2xELWpsTGZaSjNj,French,,5,2016-05-19,Luc Sabourin,"","Simple et cohérent, super merci!",,
AntennaPod,Google Play,de.danoeh.antennapod,Z3A6QU9xcFRPSHhNMjdrU2QwS013S1FpNDVXRHhycXUzWEFkblFwb2VlaU4xc3UyVnF4dEFlVTZEcS04aEdpQUN5ZVdGTUtyenoxbWktMFc1cnJpSVlBTVVV,Chinese (Simplified),,5,2016-05-18,陈辉,"",用的很舒服,,
AntennaPod,Google Play,de.danoeh.antennapod,Z3A6QU9xcFRPR1B1VUJQLTlINmRBN1loRXNUa29xQ0I5cU5jRlFnSXd2b1cxNU8xLTItdnVxMkN1YjlOSkRsdE44TUNiUmFmM1B2N1h0N0QzTi1MWFhXMG40,Chinese (Simplified),,5,2016-05-13,林小鹏,功能齐全,好用，界面一般，但功能齐全。感觉比收费软件还好用。要是能播放本地音乐就好了。,,
AntennaPod,Google Play,de.danoeh.antennapod,Z3A6QU9xcFRPSDBKNG43YTNiOWRZZnBQV2l3S1JyQ0VPbzIyUVIxNmNwT0FjNndmclAxMUpDREtkWkZmV2l0MVd3SlJUN3NOcDFLM1M5azZQaUFicTRieUZj,Italian,,5,2016-05-27,fefo anza,"",Very nice app! EDIT: Also i had an issue and i found very responsive developers!! Good job!,,
AntennaPod,Google Play,de.danoeh.antennapod,Z3A6QU9xcFRPR1Y3YXB1TDlDczYtVlZsQlA3bkNSeUN1LXhhb2tXR1c1aUc4cVpDakxHdUtvem15RlBLVmc2NnV4OWFvQ1RvRGRGQU5EMWZfYmpScWRYMzNZ,Catalan,,5,2016-06-02,Pasqual Gonzàlez,La millor apli de podcast de l'univers,És evident que és programari lliure!,,
AntennaPod,Google Play,de.danoeh.antennapod,Z3A6QU9xcFRPRWk0Q0w3SFhFalNxU0RXRE1wNEVLbjU4aGI4ZWtZRkMtLTNGVndvMEtZTVlrNGU2SHBTemF1Y0QzZ2g4X3ZIMWpWQWZFN0o5ZGVwR19NVy1r,Catalan,,5,2016-05-16,Baltasar Ortega,Perfecte,"I a més,  lliure",,
AntennaPod,Google Play,de.danoeh.antennapod,Z3A6QU9xcFRPSGMwS1RsU085RDNDZHpOY1h5eTJIRWlLODhiaFU1SnZKZk5CNmlhRnpZNm53MVd2a1RIbFlnUGMwTHlGbmZNZlZKcTFRNjJicHd5VFNtTVFz,German,,5,2016-06-03,Alexis Lee Black,"","puristisch, funktionell, gut",,
AntennaPod,Google Play,de.danoeh.antennapod,Z3A6QU9xcFRPRzZKc3JZRTI3T2dpYUIwdFhNRFh6NVlET3kyVDNWR3A0SHVIVDA3c0xKSHZTUzM5U3dPX1VuaFgtN3ZaaWhBUHp0SEwxQmpZQWZ2UFlXd1hn,German,,5,2016-06-03,Jens Brinkhoff,Es gibt keine bessere Podcastapp!,"Nutze die App seit der ersten Stunde und will gar keine andere. Optik, Funktionen und Performance sind überragend!",,
AntennaPod,Google Play,de.danoeh.antennapod,Z3A6QU9xcFRPR1BQTHB2UGxLdTBiUzJmczFJWXZFM2podG1yMjdJdTFTNDdVOFVjSFYxT2dMS1RGWllZTG5VY1ZfcGJKazNsQTJKazVteGFSeXBTb2ZVZE40,German,,5,2016-06-03,Cornelius Wild,Top!,Beste Podcast App.,,
AntennaPod,Google Play,de.danoeh.antennapod,Z3A6QU9xcFRPSGtMVnBka1BGVWVpZ0p3ODBDYkdBTDFjRWx4TmU3WlNkbjB4OXhWV29mLTBOcVJJYlFJYXRlamVVS3UzaWhYOFdnOUl0NWhicEF4OEMzWHhV,German,,5,2016-06-01,Stephan Heinke,"",Wirklich sehr guter player. Endlich ist auch der audio-ducking Bug beseitigt,,
AntennaPod,Google Play,de.danoeh.antennapod,Z3A6QU9xcFRPRXZFLWloZU52ZlVob0ZPdTgxZlVKWHNlYlVLMDAxdHg1d013azFvSWU1cG1OVF9Zb1RRNC1EV3BSdHl1VVpqbG9IdzFOXzJYMWlVUEhJc1dR,German,,5,2016-06-01,Josef Schmidt,Top,Genau das hab ich gesucht....,,
AntennaPod,Google Play,de.danoeh.antennapod,Z3A6QU9xcFRPSFpqaVNjSjE4YkM4VzZtVWpnX19IMTBueWZoeXhxbjAtbkpMWHNTLXF2bHdEdUlQOVd5d2QzS3FteGZaTU92TXNuMEgxTnpiTXEtRm5lRnBN,German,,5,2016-05-30,Pia Piowitsch,macht genau was es verspricht...,"ich brauchte ein bisschen um mich zu orientieren und bestimmte  heruntergeladene folgen zu finden. nach 1-2 wochen passiert es mir immer mal wieder, das ich ein bisschen suchen muss. da das ganze aber eigentlich sehr übersichtlich gestaltet ist dauert es nie sehr lange. ansonsten tut es henau was es soll , podcasts suchen, abonieren, runterladen, anhören. simple, funktional, übersichtlich (wenn man sich einmal dran gewöhnt hat) = ☆☆☆☆☆",,
AntennaPod,Google Play,de.danoeh.antennapod,Z3A6QU9xcFRPRXdLbFl0cXc5enVfc1NETWlCeVZndE9ibzlpbElycHFuRVNGOWxaSGw5NGJLcmRPeUJwUUpvUzBxYlVoX1A5eTN1WmxDeTJnQzNmMjhUclpj,German,,5,2016-05-27,Michael Döring,"",Super,,
AntennaPod,Google Play,de.danoeh.antennapod,Z3A6QU9xcFRPR2QySk1zbG5nNnN0ZGl0TG1qNFVzRi1pdnF4LUllZ0gtU3djNmtOZmE2OE5pM3ZCczR4ZmJYbmlSWEpndk5uX3c1VEl1ejR4ODczTUxnbjgw,German,,5,2016-05-22,Christian Ritter,Super einfache App,Die tut was sie soll. Weiter so!,,
AntennaPod,Google Play,de.danoeh.antennapod,Z3A6QU9xcFRPRXppU05MaGNPaWVVOE5naHhpLW5pUWNRaWJGdGhwVUdONC1aMmRacjlxZEpST0dqQnI2NUcwSkRYZVdnY2s1TlB0bXE2dnFZNnFTNTNDbFNn,German,,3,2016-05-22,Andreas Sappelt,"",Naja!,,
AntennaPod,Google Play,de.danoeh.antennapod,Z3A6QU9xcFRPRkJHVW1hTHUzdV9NMmlSaml0bWc1TjZBbU5pTWtyZXJOaG1TRFhobWcxYTdyYW8yZVJ1bkNxSDQ3b2txT1hZejVkbXpsRWxBaDFQajc0UmdN,German,,5,2016-05-21,Christoph Fischer,"",Tolle App!,,
AntennaPod,Google Play,de.danoeh.antennapod,Z3A6QU9xcFRPRU8tNHdEOVBMV2lGOTBuUzFIV3d3QmM1REFQMVdOVXJaZEw5RzNkQzRuOUVHR3FSbU9PN1pUcHJjelhqX29ZUERBbWUzMTJrejN3SWRnVGxz,German,,5,2016-05-20,Frank S.,Nachen mehreren Jahren sehr zufrieden,"Ich nutze die app seit 3-4 Jahren,  weil sie Tim Pritlove empfohlen hatte. Seit dem gab es regelmäßig Updates, die immer wieder neue sinnvolle Features implementiert haben oder kleine bis große bugs gefixed haben. Die app funktioniert meistens  problemlos und macht genau das, was man will.  Nicht mehr aber auch nicht weniger.",,
AntennaPod,Google Play,de.danoeh.antennapod,Z3A6QU9xcFRPR1JRQWtLN2pGdUZBaERicC1EelZxckl0Y29keWhVNDdJZDN5dS1vYzdTQ2NFQ0M2VFo1XzhKNWVqVnM4NGZKX2NXQVdaMXN3N1JCQXFMTUtF,German,,5,2016-05-18,Jo Wüst,"",Gute App,,
AntennaPod,Google Play,de.danoeh.antennapod,Z3A6QU9xcFRPSHpTVl9jZFR1ZEtyNWNoUWdVdWxDN0RzT3VjU3NzaW50Q25nMk9iczhpRlhvSE5ibW8yQUcwQjJGRGFiT3huMWhXZ0I0MmJ2UDgzN1FoUnI4,German,,5,2016-05-17,Linus,Sehr gut,"Diese App ist sehr gut und tut was sie soll. Benutze sie schon über ein Jahr und sie ist meiner Meinung nach die beste ihrer Art. Ich hätte jedoch einpaar Verbesserungsvorschläge, zum Beispiel sind die Knöpfe nach dem herunterladen auf der falschen Seite so das ich schon oft unabsichtlich Episoden gelöscht habe.",,
AntennaPod,Google Play,de.danoeh.antennapod,Z3A6QU9xcFRPRXMzU25sbDJyQmZ1X2VhaEYxMU12dEUwMlUxZWUwNHI2QXdrc3pwd2lRbGNCX3BiZGdTekJSWE5TR0toeWEyT2xkQ01UdExJd3l3UHZIZlBv,German,,5,2016-05-17,Shane Thomas McMillan,Einfach und hat alles!,"AntennaPod ist einfach super: einfache Bedienung, viele Optionen, wie Damals aber auch mit viel Funktionen. Ich mag es viel lieber als andere ähnliche Apps.",,
AntennaPod,Google Play,de.danoeh.antennapod,Z3A6QU9xcFRPRXJZa1luc0hoYk9sT1NzRFNqR29ERXdoaFVJTnNwbVE3TlVoWDNWMEVoYXZjenBta0xvQ2Y4QkV5OFBXVlhaWWZCZ0FvNTZZLXJxM21rUEpz,German,,4,2016-05-16,Adrian Aulbach,Synchronisation gpodder,Die Synchronisation mit gpodder harzt noch etwas (timeout). Ansonsten top,,
AntennaPod,Google Play,de.danoeh.antennapod,Z3A6QU9xcFRPRTRBY053M2lGdzZiX1kyVGFOSy1WOHU1X25lQnMzVU9hSFR4aThhN09TYXZyTEczbHp6MDFhS0FKa2ZJc2xhRGhkRzl1SlVlTF8zZy1IVDZz,German,,5,2016-05-16,Andreas Sondermann,Absolut top !!!,"Habe einige Player ausprobiert, leider wurde beim Vorspulen grundsätzlich die Folge abgebrochen, kein Plan warum (Honor 7) - dieser Player spielt alles ohne Probleme ab, ist zudem einfach zu bedienen und übersichtlich.",,
AntennaPod,Google Play,de.danoeh.antennapod,Z3A6QU9xcFRPR3BBaThvQlVUVktqdmNveTdISE56XzctNUxSa1I2UWVWLWJZT0FkOXRmU0pXUjNGemIwWVRrOHpCV3ZTZ2VhanpLRzZfT1NlZHlSTE1TZml3,German,,5,2016-05-16,Chri Zim,"",Feine App.,,
AntennaPod,Google Play,de.danoeh.antennapod,Z3A6QU9xcFRPR2lwSUF1cXpTQmFrMDdUdFRhZmxDOVVRdjhnX0JRRTc1RG10QndBY0xlYk9Za2dBSTBfY1h3eHZSRG5FaUsyVGdwN19vWDZ4dXl6QWxsX2ZZ,German,,4,2016-05-14,Dirk Lenzner,Mir gefällt die App sehr gut.,Habe lange nach eine schönen App für meine podcast Sendungen  gesucht und bin jetzt bei AntennaPod gelandet.,,
AntennaPod,Google Play,de.danoeh.antennapod,Z3A6QU9xcFRPSFpLNTBNQXp1WGJFZkE0QlZzbVVkNWc2Z1F6eElPcTdJTW9VbHRZNUtyZ25VaTVzTl9JQW5KbHg2ZkJieEVSREhiNlZBOGxSS2VXbERvTXl3,German,,5,2016-05-13,FRANK Wilascheck,Absolut knorke,"Alles drin was man braucht, gut zu bedienen, keine Schnörkel oder Firlefanz, gutes UI Design, selbst auf kleinen Display benutzbar. Hatte in der Vergangenheit mal des öfteren Probleme mit meinen Bluetooth Kopfhörern (Sony E1 und MPOW) liegt aber vermutlich eher an Android oder der Hardware, oder ist euch da was bekannt? Ansonsten well done und weiter so!",,
AntennaPod,Google Play,de.danoeh.antennapod,Z3A6QU9xcFRPRVVubTNXN0stU0VTZjVsUHRrcGx5NEoyY0JQcWw4VUgzTEswQUxQTkZ4d0hyUHhvRkVKNWlhS0VtSFF0VkJTdlZCNG5WUnFQRXJlckVqQXVR,German,,2,2016-05-13,Grischa Galaktika,Einige Podcast lassen sich nicht abspielen.,"Das abspielen von Aufwachen!, Freak Show, Logbuch:Netzpolitik und einigen weiteren Podcast ist leidet nicht möglich und bringt AntennaPod zum Absturz.",,
AntennaPod,Google Play,de.danoeh.antennapod,Z3A6QU9xcFRPRTRSanV4bkp5QWVnaGZmZ0pqR3NseW9nLTZCN1FaTkFld1NSdTlFZ1lDc1ctV002TzV4Qm1wZDNLWm54bTBDUTA2NUpfYXJ3NVFvbmNmekln,Norwegian,,5,2016-05-13,Marius Krinnan,Easy to understand,"It works, it's not ugly, and it's easy to understand. Supports every podcast I've ever tried to add, and has built in search features for both iTunes and other databases. Would totally buy the app author a beer.",,
AntennaPod,Google Play,de.danoeh.antennapod,Z3A6QU9xcFRPRzZ4VDdxc3hmWFlXOHJ3OXZuZWE5RlpoTDBuZURnTzRLaWZ4akpzblUtZFhNUE9oSVhXOGZIbm1NOThETXQ4bERHVndHaHROeFFWSDJyXzcw,Polish,,5,2016-05-25,Slawomir S,"",Dobre,,
AntennaPod,Google Play,de.danoeh.antennapod,Z3A6QU9xcFRPRTNvWUZYdEZnQzF2RmU2TTBLWVRSbWo3VkNIS3ZKbUpvU3hyZTNtSXUtTWFtX1VZR2NoM0ZoTjM0RV85d0tEQXpVRkIwZWpyYXFwM0NYRks4,Portuguese,,5,2016-06-03,Eduardo Dani,"",Great app! Very easy to use.,,
AntennaPod,Google Play,de.danoeh.antennapod,Z3A6QU9xcFRPRk1LZXllS2dlWDduOGJzYTM3Vmp4M3p0c2VlZldxaUNiMUVqOXNSbnhoTWsyQVJCUE1qdDFlQUx0MGtPTDZNam82N0dqWmdvM2JVUjBFRnIw,Portuguese,,5,2016-06-03,Rubens Lopes,O melhor,E ainda mais é open source. Parabéns aos desenvolvedores!,,
AntennaPod,Google Play,de.danoeh.antennapod,Z3A6QU9xcFRPSEw4Y0JQSjFfMk8tNGUydGZPVno0X0lkamlidE5EX2liOEJfRm9IdmFUTGpkeWhmbmRBa09fU2hFMEZ3S0ctRXlZa2ZhcWp3MEFwZVFKY01N,Portuguese,,4,2016-05-23,Adeval Ferreira de Andrade Neto,Recomendo,"APP é muito bom. Leve e dinâmico, mas de início é um pouco difícil de encontrar os podcasts. Contudo, depois que se aprende isso é otimo",,
AntennaPod,Google Play,de.danoeh.antennapod,Z3A6QU9xcFRPRlpOWkJUT01ieGtHU0NEeGJDb2xEMVJTa2hSLWlsTEhIZ2JoMWREcFZPcXlYSFBHb3J4UVpic3F1VUJEN20wbnFDOGxOa21rTmRlR0lmRUlZ,Portuguese,,5,2016-05-22,Patrick Marinho,Melhor aplicativo pra ouvir podcast,"O AntennaPod é excelente! Rápido, design simples e navegação intuitiva! E ainda é livre de anúncios!",,
AntennaPod,Google Play,de.danoeh.antennapod,Z3A6QU9xcFRPRS1GNVI2YWhQU2Zkblg2YXlKOEtrUy1VRTJfTUN0UFpXb1NzQ2NxY3FEb1A4cnhhVEdvQzZSQU1MSjkxQ2x0bTRNZ3RwU3NWYm9MMThzWnZJ,Russian,,1,2016-05-31,Mikhail Shlianov,"",Unable to continue playback after pause. Totally unusable.,,
AntennaPod,Google Play,de.danoeh.antennapod,Z3A6QU9xcFRPR3VjQTdsN3YxNVVMYWtRNFpjVFNMQTN2UEVhX20ybi1mai1DalZCcTZCUjRrVjhkRGhEaVY3ZVhVTW5SS0ZRdW5RQ29KSDZnSXAwYTh3bnN3,Russian,,4,2016-05-30,Юрий Кротов,Функций хватает,После обновления программа стала падать при переключении на другую задачу. Закрывается без сообщений. Просто воспроизведение прекращается и всё.,,
AntennaPod,Google Play,de.danoeh.antennapod,Z3A6QU9xcFRPSGJ6aEJHbldZVFRWRF9lRWF2Z3dUSGJUM0JtZ0xMcXR6ZTMzRmlib3BmMEtSRTVvMXZXRVZudjRVazZFUkVTZ0JHa1dhUlFlODlzWGN2UVFR,Russian,,5,2016-05-24,Евгений Лукьянцев,"",Отлично,,
AntennaPod,Google Play,de.danoeh.antennapod,Z3A6QU9xcFRPSEFFNVdoYk9HdXV3VnhyZGpheFNwUVBUc05fckVjOWhxQ1ZIYlFGWFdfRjJYb0xzVHREMjVtRmotYl94dHVRU1BMZUVwa0hFTV9OYnVrNEpJ,Russian,,3,2016-05-24,Andrew Mitrophanov,"",Заикается,,
AntennaPod,Google Play,de.danoeh.antennapod,Z3A6QU9xcFRPSEhPSUlPVzJFMkw1SGJCMEM4RFhSZ2pwVVlLVGQ5OU14c18xNnVDdWk5eUxRWVpMZFZSUmxFbkp3Qk43eXh2dEctX2ktTXI5Y29QZVpIX0xN,Russian,,5,2016-05-23,"",Удобное приложение для прослушивания подкастов,"Рад,  что нашёл эту программу. Теперь любимые подкасты не нужно скачивать по отдельности и заливать на телефон.",,
AntennaPod,Google Play,de.danoeh.antennapod,Z3A6QU9xcFRPRWlPZW1GV20tMUNocFBDWDVGRVdBcjlGSE8tc2t5TUYwUXVKVFU3Yk1pRnVIckJfR0xSUEVHd1BGcUZiQlVPNmxIOHg3VTF5UFlFTUZHNTBR,Russian,,5,2016-05-15,ANATOL LADIK,Отлично.,Спасибо.,,
AntennaPod,Google Play,de.danoeh.antennapod,Z3A6QU9xcFRPRWNkcWlzRzZGVHMxc0JpbWYxMmJ4MjEycnVETjZaOWZjOFRFQnRqUXdpRXJqb1VBZEptSFpnUmRlWlFwdUJvM3NfbVdEa051dUZ6YkdmNHNB,Russian,,5,2016-05-14,Данил Насиров,Просто великолепный.,"Отличная функциональность, приятный интерфейс, зачем нужны другие плееры подкастов за кучу денег - решительно непонятно!",,
AntennaPod,Google Play,de.danoeh.antennapod,Z3A6QU9xcFRPR1FBamZTeEdONzNVM2ptNU5VQTBjU3AyOU1Eb2FYVXBXQXMwOEVuUExfckRhZUJQRnFlc3FmMF9vZXdBZVRTZDM2SEV6VGI2dVI5X2lFN2Nj,Spanish,,5,2016-06-03,Roberto Agirre,Completa,Gratuita y sin publicidad,,
AntennaPod,Google Play,de.danoeh.antennapod,Z3A6QU9xcFRPR19wTTBnX2E3UnU0bkZTU1ZsenBCSjFUMVN5VHE0enBOT29nUnd2bU1COFIzRnE4azVmbF9wVmlWUGRxZ2lhYXI5cG1taUVNMzdqd3oxVmo4,Spanish,,4,2016-06-02,Maria Fernandez,Buena app,"Por lo general funciona bien y es fácil  gestionar los podcast que ya sigues. Alguna vez se queda pillado si optas por escuchar online en vez de descargar y me gustaría que tuviera mas opciones para buscar nuevos podcast, pero en general estoy satisfecha con la app",,
AntennaPod,Google Play,de.danoeh.antennapod,Z3A6QU9xcFRPR3psOU9WcVQ4TUJGWm1aUFFXOFRiaGowdzB0WVB3Tm5ZT2xMcHNBV3ZDcTktNWRVb3pDMTdUNWVOLTkxX2xvLTFUUm5sR293eEVzMFBNRGlv,Spanish,,5,2016-06-01,José María Sánchez Parra,"",Muy buena app,,
AntennaPod,Google Play,de.danoeh.antennapod,Z3A6QU9xcFRPRko1LU5PTXZQNjRhbUtiemw2YTNtVnl0UUExNEk5MWN6ZW5lczd5Y2l1cU9HRXVsWlk1eDlPNDVCVWJZVEJFQ2g4R0h1U2pVUWtOT3FCSG9r,Spanish,,5,2016-06-01,"","",The best open source choice,,
AntennaPod,Google Play,de.danoeh.antennapod,Z3A6QU9xcFRPRS1VdldSQTdQcXAxWWpZWjk1TnhKQ0lZQ2RwcHFOT2lHbjZNNlQzbW9PWkJVS21PRkIxWXVmQ2dhU2gtUFl2MV9jQUlveFptNU1wRGRSOG1n,Spanish,,5,2016-05-26,UL T,"",Me encanta y es gratuita.,,
AntennaPod,Google Play,de.danoeh.antennapod,Z3A6QU9xcFRPRTBnWmFoYmlaZjRqbWw3T1ZaTW96ekV4ZGhqWmFfX0xzZWFaekVzMmR3aHh3WEhHeERPbU9zU3duRWhTd2VuMEt4OGFHLU5mVUVFcHdVWE4w,Spanish,,5,2016-05-25,Armin Balderas,Buena app,This app has everything I was expecting. It's just prefect. You can subscribe to any podcast listed in iTunes or add any feed by yourself. Managing podcast is very easy,,
AntennaPod,Google Play,de.danoeh.antennapod,Z3A6QU9xcFRPR1JpUi1VREU2eG5YaW1xazhmbzdrTXlURVBOYndjOGdqWDhWelZqUnlORUYxbjR1UG0tMzhsMm84SUNBeVZOQnZxNzM2c1BMdGUxdXV3N3Nz,Spanish,,5,2016-05-24,Ramón Pérez,"",La mejor,,
AntennaPod,Google Play,de.danoeh.antennapod,Z3A6QU9xcFRPSDdRSlJIN3JnaC1ZbS1FeUVKdXVRdWNLSk9DM2tTYWppZE9ORm8yX1BsTDdJS1EyV25JWXZ0UnEzX3UtMGFkTENDX0NvdHFrQzd1Q292LUlV,Spanish,,4,2016-05-22,Nelson Castillo,Excelente,Recomendado,,
AntennaPod,Google Play,de.danoeh.antennapod,Z3A6QU9xcFRPRWkxaE1xOW9hSXVhN2RwTEl3eXFhREhtRnluenBkU2ZIMGtpSUZ3a0ozVEZWUk9la3ZZcTJXZS1WdmJEakJXUHZJV0picS1BSk1JbHRsbG0w,Spanish,,4,2016-05-19,Angel Goitia,Great piece of software,"I use it to download my podcasts. Easy interface, nice playing options. IMO it should improve episode management and add storage cleaning options, but it's above other free options.",,
AntennaPod,Google Play,de.danoeh.antennapod,Z3A6QU9xcFRPSGowM1lXQjB0b01qQUFNdnVkanhBcTJ2ZmgwZnpSUzdiQU1SeS1ta1g4aUVxc0N3WDlYekdNVVgwclRRMjFYLTlaSHJnbU15anIxQXlYeWFz,Spanish,,5,2016-05-15,Miguel C,Gran reproductor de podcast,"Muy buen programa, hace todo lo que debe hacer un buen reproductor, sencillo de entender y manejar y gratuito",,
AntennaPod,Google Play,de.danoeh.antennapod,Z3A6QU9xcFRPRXRZOC1WLW9POEdFTjJBeUp1WXltTk93R3BnTnJqaXpVREJDVnpzQkhkNjN0dnhta0xOcl9MWmE0RjZ2aElIU250VEJSb0poTmY4ZDA5QVBF,Swedish,,5,2016-06-03,Jimmy Svensson,"",Reklamfri bra podcastapp med fler funktioner än många andra konkurrenter. Nu också Chromecast och kapitel support.,,
AntennaPod,Google Play,de.danoeh.antennapod,Z3A6QU9xcFRPRk11bnMxZDh0OVpEUUdDZ1M5bU51NzltNVZpVjJHeFRKaU5CSWE1WDc2S05lMkNWMUhKaUNheXBfbFlMZkJISUIwOElZSUNPdV8taDNKUlZn,Turkish,,4,2016-05-26,Fatih Aydın,Guzel,İnternet baglantisi yokken donuyomuş gibi yapiyor bir an için. Onun dışında gayet iyi.,,
