App,Store,App ID,Review ID,Country,Version,Rating,Date,Author,Subject,Body,Translated Subject,Translated Body
AntennaPod,Google Play,de.danoeh.antennapod,Z3A6QU9xcFRPRWZ0TTVvXzQ2Vkl1dXBpMTZNVDZBWUZfVmxFSm1KSENNUi0xcHJldXdEU1ZvcVdEdEtZckhJVlRrbXcyTGk3UUJ6MUZsbEFWM3A0NjNhVVR3,English,,4,2015-08-29,Safraz Sattaur,Best gpodder-integrated app I've tried,"Everything works wonderfully.  Only thing I'd really like to see in future updates is full player controls on the widget and lock screen components.  I often skip back a few seconds to re-listen to things I might've missed, but I have to unlock my phone and open the full app to do that right now.  Relatively minor, but it'd be a useful feature.",,
AntennaPod,Google Play,de.danoeh.antennapod,Z3A6QU9xcFRPR2xiS05wRzlHQ3lFcWl5akJDZzJvUWVjM2xsOTFYTEVVMXpRMEJDVi1SWkNUbmRwaGVVRlMxSTVtZHBrT2lrLS1PcjVWU19PdDRXWUlFVXZB,English,,5,2015-08-26,Phillip Lanzbom,"","A simple and powerful app that lets you download and listen to podcasts without any bulky, extraneous features.",,
AntennaPod,Google Play,de.danoeh.antennapod,Z3A6QU9xcFRPSDdhc2x4aENpSjlZNkNjX3poN3BxRl9qTW0yXzdTS3JIOG52RHBnVjAyWks5Vl9KUDNidEJCSXcyNl9uVkIzbWQ0YXBRQlBDX3ZIbVoxZWVj,English,,4,2015-08-25,Ole Just,"Great, but","- if playback stops on the lockscreen, the contol panel disappears and replugging headphones does not resume playback anymore - missing sort and filter for the download queue (stop downloading all episodes of that one podcast - download episodes of multiple podcasts in the order they were published) - missing filter in all episodes -",,
AntennaPod,Google Play,de.danoeh.antennapod,Z3A6QU9xcFRPR2FoeUNzT0xrc3czbUNVZnc2QWd6aVhXd0ZyU05Lb1J3MUxxcEgxTEFYMnBOR2JUYU1ReVRoVGdicFloeF96U3FsOW9WQzI0d3VSYWJnMU40,English,,4,2015-08-23,J. Mark Weiss,Good podcast app,Only problem in latest version is that podcast icons don't consistently download.,,
AntennaPod,Google Play,de.danoeh.antennapod,Z3A6QU9xcFRPRXZXdUNTNmltYXpCU2hmTXZ2TTdGNEpkXzNJVG5fNEpZMEI0eHI0RkFITXVxZTlPemFVb0FBOFpRd2dHRUtNOFo2dEYwZjRRYWF3bGtRWEE0,English,,1,2015-08-23,Drew Hood,Java error,Some Java error. Wouldn't load anything.,,
AntennaPod,Google Play,de.danoeh.antennapod,Z3A6QU9xcFRPRnV6bWlwb2luNE5XLXk5WlBNOW5IZEEzQnR1Qy1WSWpfNGsyRUQ5clY0VXVvbUFPb0tGT19JSlluT1hQeVR4LVpYTTRLVjZ6VVFaSHlYcmZN,English,,4,2015-08-17,Zack B,"",Perfect except that podcasts randomly get erased after listening even though the delete after listening box has been unchecked. Android 5.,,
AntennaPod,Google Play,de.danoeh.antennapod,Z3A6QU9xcFRPSG9YNHk2MkM0NVlRYi1xUThGV1FKVTdqdHprNDdGTnBCWUt2eWQtemFRU01WbW0teF9UakJqSXdocFJfSEFwNVVkUm5rLWx6cjExa25OOG00,English,,5,2015-08-16,Jaakko Kennilä,Lots of potential but with some crucial problems,"A great free alternative for some ofter podcast managers, however managing podcasts, especially deleting multiple ones is an inconvenient hassle. EDIT: okay, apparently they just added a feature to edit multiple episodes at once,  thanks!! Changed my scoring.",,
AntennaPod,Google Play,de.danoeh.antennapod,Z3A6QU9xcFRPRy1OZXBWdU51VzFka2Z2OERHczRBLUVBc3ZEWUF5TEQxUDlXd21FMWwzbEtHY2xQZVN5MmFTNXdTZFVCcjg0cEN0M0NpRGl3eHB6ZkFhY2tR,English,,5,2015-08-15,Travis c,Best I've found so far,Awesome app for handling pod casts and also searching for them! Keep up the great work. :),,
AntennaPod,Google Play,de.danoeh.antennapod,Z3A6QU9xcFRPRzZWM1dma1ZlQjEweFBheUpkSnJJQ1l0LW5QSmdkUEJlU18xUnBuaHpsSXN2MU5QSkE0ckItZ1RpOUg1cjM1cEhYZzBCMllvMERPeTFFb1RN,English,,2,2015-08-15,Jonathan Greenberg,Downloads aren't working anymore,"For some reason, downloading for offline listening stopped working.  Streaming still works.  Any ideas?",,
AntennaPod,Google Play,de.danoeh.antennapod,Z3A6QU9xcFRPRjl0Z1lqNFZmdUJWVXdqTVh1YVFrbFZvN2N5TERwMGVHZEZwM2VlZmRuUFZHYXhxUDZUSV9raC13TDZqQ3R2eXFiUkg1alllZ1NNUUwwZlZr,English,,5,2015-08-15,Pavel Djundik,"","Great podcast manager, and it's open source!",,
AntennaPod,Google Play,de.danoeh.antennapod,Z3A6QU9xcFRPR3ZrTGFlMm9uQ3FTYXBTalh2UXh3V0ZWOTlGYzJ5Ym1UZE5adlJpLUhTZlVnSzZ5S214aHVQMW9uRkViVFU4Z3daX0ViVE9mbVpGYmZURXo4,Chinese (Traditional),,4,2015-08-26,Simon Leung,"",容易使用,,
AntennaPod,Google Play,de.danoeh.antennapod,Z3A6QU9xcFRPRU13b1Bxbmc3ZEdTVUhOdGNMS1A2Sk1aLXhhRHVkNG5ScllVRUpRX2UwbTlzVDU0RGgxVzVhU3Q5bG9tTERtWVl0R2p0NV9Oa1N4THNNSkRz,Chinese (Traditional),,2,2015-08-22,Jonah H.,continuing encounter java io.exception on ESLPOD,"Thanks for reply but app not crashed when err occured, and pls search 'english as a second language' for eslpod, and app returns java.io.exception inside app search result screen.",,
AntennaPod,Google Play,de.danoeh.antennapod,Z3A6QU9xcFRPSDdFV2wwUUdjd001amxEOXo5UktET1I3RndZN0ZwbzhFak9EampSdEtBbzJ4ZlZBSUJhREdnS0tVSkViMjRhbUhGandvWU9fZnUzYWRrRGI4,German,,5,2015-08-27,Tobias Plutat,"","Für mich die beste vorstellbare Podcast-App - deren Entwickler, ich kann's nicht anders sagen, Podcasts lieben muss. Alles, was mir beim Einstieg als Hörer einfiel, jede Funktion, die ich mir gewünscht hätte - sie war entweder schon da oder kam bald. Ganz vorne dabei: Die Suche im iTunes-Verzeichnis, die vor ein paar Versionen dazugekommen ist. Das kann man von einem Android-Client nicht erwarten - macht das Leben in einem iTunes-fixierten Medium aber sehr, sehr viel angenehmer.  TL;DR: Ich bin begeistert, mit jeder Version aufs Neue.",,
AntennaPod,Google Play,de.danoeh.antennapod,Z3A6QU9xcFRPR0N6QWFYT3JwMGxac2JCVWdCRUZLY3ZaSHBkOEpqcUR2VzZkVWN2dlUyMUZHbzFNaFhTeDNISmRuTnlMQy1Dc3Z4cUdNc0ludktndmhSdElJ,German,,4,2015-08-22,Manoel Brunnen,"Die Kapitelmarken sind großartig, aber...","Ich vermisse die Chromecast Unterstützung, Steuerelemente im Sperrbildschirm und die Einschlaffunktion ist zu umständlich.",,
AntennaPod,Google Play,de.danoeh.antennapod,Z3A6QU9xcFRPSFVjRUtYNjJOVFNGa2x1cmdnYXpBaFU3UWtycVNVTTdnLXdzcy1yUGlSZGQ1TlBOZ1RhYl90S21Ebk9DV0oyX1FjcV81eDRBSW5UT1BSWGlj,Portuguese,,5,2015-08-27,Guilherme Fregapani,"",Excelente,,
AntennaPod,Google Play,de.danoeh.antennapod,Z3A6QU9xcFRPRW4yQUx1dUtwSlhhVlBDUU82WEU0TkM1R25ITElaOVpBc1duNFUtQjdjRGd0VVFJNlB3NGZJa191ODAtWWR0RnJuQVdtNjhnZHNHOGhMWUVv,Portuguese,,5,2015-08-23,Vinícius Souza,Perfeito,"Interface excelente, downloads rápidos, sem propaganda ou outro conteúdo pago. Exatamente o que um app de podcast precisa ser e o que um viciado em podcast precisa.",,
AntennaPod,Google Play,de.danoeh.antennapod,Z3A6QU9xcFRPRmpDU2VubWF6VW12dFY3dzZQZ0hPZU5vWkhoNWdfWEM0Y0FXdUZ2VUVHdVIzdFhpM0RsYTFqbTlBaXZZLXpkcUxiTl9VaUZsSmpUUlFCTlFJ,Portuguese,,5,2015-08-15,Guilherme Guilherme,Amazing app,"Extremely usefull, simple yet complet podcast app",,
AntennaPod,Google Play,de.danoeh.antennapod,Z3A6QU9xcFRPRzR3WTlpczhtOFhLRUlNdE1GekFpVEJIdGRTOFZaU1dmb0htRnktVHpwZVJKZjZBZ3ZvblhkZGFRWlVHRlpuZUw5aGpXalJ6a1BMb0VsazJJ,Spanish,,5,2015-08-16,Ángel Fernández Ochoa,La mejor sin duda,Para mí es la mejor aplicación para Podcast. Encima de código abierto.,,
AntennaPod,Google Play,de.danoeh.antennapod,Z3A6QU9xcFRPSHRGeDBteElFclFhM0VVNHNuSm90R0lFdDVGbUNVcW5WVXBkeENDTDFZXzdQb1UyTFR4a25Zam5OVHI1Nm5NRGk0STluS1hTRHRLWWJES0Y0,Thai,,5,2015-08-21,Surapon Stapornwatanayon,surapon,ใช้งานง่าย หาสถานีได้ค่อนข้างเยอะ,,
