Topic Index 1,Topic Index 2,Topic Similarity
0,0,2.0
5,4,2.0
11,7,2.0
13,13,2.0
14,10,2.0
16,16,2.0
17,11,2.0
19,1,2.0
1,5,1.0
2,6,1.0
3,12,1.0
4,2,1.0
7,3,1.0
8,15,1.0
12,17,1.0
18,19,1.0
6,8,0.0
9,9,0.0
10,14,0.0
15,18,0.0
