Topic Index 1,Topic Index 2,Topic Similarity
1,6,3.0
7,4,2.0
10,5,2.0
12,17,2.0
0,2,1.0
2,10,1.0
3,3,1.0
4,0,1.0
5,8,1.0
8,1,1.0
9,9,1.0
11,11,1.0
13,15,1.0
14,14,1.0
15,19,1.0
16,13,1.0
17,7,1.0
6,12,0.0
18,16,0.0
19,18,0.0
