Topic Index 1,Topic Index 2,Topic Similarity
5,3,3.0
1,8,2.0
4,11,2.0
7,1,2.0
11,12,2.0
15,0,2.0
17,19,2.0
0,2,1.0
2,4,1.0
6,15,1.0
8,5,1.0
9,6,1.0
10,7,1.0
12,18,1.0
13,10,1.0
14,13,1.0
16,17,1.0
18,9,1.0
19,16,1.0
3,14,0.0
