# deletions,date,commit message
29,2014/1/03,use for marking conversation with pending invitation conversation will always retain it original data from the latest the request flag will determine there is a pending subscription request
29,2014/1/03,the dialog will also have another button to ignore the request and go straight to the conversation
10,2013/12/25,connection policy message center will disconnect after a period of inactivity and push notification are not available a wakeup alarm will be set up with a interval
1,2013/12/24,timestamps are long
23,2013/12/08,digital signature verification not quite working yet
1,2013/10/31,get out sherlock
