# deletions,date,commit message
38,2015/3/19,split roster match request roster match request are too big sometimes
38,2015/3/19,split them into block of 500 item each stay cool
4,2015/3/05,send ping test after entering active state after sending active state indication packet send a ping there were no stanza received before 3 second from sending
78,2015/1/23,send bridge client certificate also registering an initial bridge certificate is created and sent during handshake on registration so the server can certify that the public key is being signed is owned by the client
78,2015/1/23,this also mean public key inside validation form will not be sent anymore
15,2015/1/09,request public key not found on receiving presence this partially cover 259 but it might be another problem
1,2015/1/07,
1,2015/1/07,
31,2014/12/28,dirty trick to remove account on first start upgrade from older beta is quite hard of the switch to
31,2014/12/28,this trick wa put in place in order to wait for the account removal from android account manager
6,2014/12/08,compile against smack and make release for the time being of client testing release will be also
129,2014/11/27,port to smack is actually from fork installed on local maven repository
1,2014/11/23,fix play error
2,2014/11/08,configure connection for using and without resumption
2,2014/11/08,not requesting the roster for now
4,2014/9/09,workaround for 209 close 209
57,2014/9/08,implementation of random for registration server selection this close 217
27,2014/8/10,use database id instead of server id using the server id will make the update the for all message with server id
95,2014/8/09,added callback for control from
2,2014/8/05,fix logo height and
3,2014/8/05,store link
179,2014/8/02,converted to full usage too should be all
179,2014/8/02,but it need some extensive testing merge to master
3,2014/7/24,added confirm question regenerating personal key in option
132,2014/7/17,import key from existing key pack archive during registration the user will then continue to register normally but will use the imported key instead of letting the server signing it
132,2014/7/17,the key is sent to the server nonetheless it need to authenticate it
229,2014/7/17,import key pair process this is a very b c and ugly import key pair process which us the same procedure of key regeneration but instead it sends the imported key to the server which will accept it a valid
229,2014/7/17,actual user interaction is still missing it will be implemented soon
229,2014/7/17,after importing will be implemented also for the registration phase
1,2014/7/12,not android 20
16,2014/7/05,begin using from play service is taking too much space
16,2014/7/05,the configuration file is not very well tested yet but it seems to work
5,2014/6/08,they last next sync and the have the phone number equal to their hash
6,2014/6/01,remember last push notification and overrule connection policy a push notification is received and the message center could not connect for whatever reason the connection policy should be disabled to allow the to retrieve the incoming message waiting for u
238,2014/5/25,remove class wa moved to
6,2014/4/20,wake lock a soon a we are authenticated trying to address the problem pointed out in issue 143
6,2014/4/20,the main problem here is wake lock are too or too much
6,2014/4/20,this however put the in danger of losing the connection to the server the device is put on standby
1,2014/3/30,fix 156 set activity launch mode to standard for some reason had launch mode
7,2014/3/23,first test on connection policy on connected to mobile network event will try to connect if the last attempt wa before the defined wakeup time
14,2014/3/21,fix 148 do not fire toast not cation twice toast notification for key pair generation is fired unconditionally on activity start even if it is actually underway or even completed
122,2014/3/20,move decryption and code to this begin work for decryption
6,2014/3/15,fix 96 do not send push registration id with initial presence registration is triggered after login anyway there is no need to send push registration id in initial presence
6,2014/3/15,it will be changed anyway with the incoming which will use stanza
2,2014/3/15,seems null is indeed a special value in including a condition check for null in the phone query
1,2014/3/04,fix on sending an attachment on a newly created conversation thanks to mike for the bug report
36,2014/1/31,new
106,2014/1/28,using random p phrase for personal key the will be stored a the account password in android account manager
106,2014/1/28,i still need to decide what to do with attachment
