App,Store,App ID,Review ID,Country,Version,Rating,Date,Author,Subject,Body,Translated Subject,Translated Body
Call Meter 3G: THE monitor app,Google Play,de.ub0r.android.callmeter,Z3A6QU9xcFRPRWxHVUNvWFNkZ3pVUWQ2VHZsVm5pbXdxZmNSSjRsYmFIejVPWHdBelNNRFdTSEFWdkJhS1dfZHNvNDU5eVJYZnNoZkJheGd3b3RpRDZIb2c,English,,5,2013-03-08,Colin Slater,complex means powerful,blame the phone company for not having clear and simple billing,,
Call Meter 3G: THE monitor app,Google Play,de.ub0r.android.callmeter,Z3A6QU9xcFRPRWxHVUNvWFNkZ3pVUWQ2VHZsVm5pbXdxZmNSSjRsYmFIejVPWHdBelNNRFdTSEFWdkJhS1dfZHNvNDU5eVJYZnNoZkJheGd3b3RpRDZIb2c,English,,5,2013-03-08,Colin Slater,complex means powerful,i cannot come close to finding an can cope with the vast majority of convoluted mobile and we have quite a few in,,
Call Meter 3G: THE monitor app,Google Play,de.ub0r.android.callmeter,Z3A6QU9xcFRPRWxHVUNvWFNkZ3pVUWQ2VHZsVm5pbXdxZmNSSjRsYmFIejVPWHdBelNNRFdTSEFWdkJhS1dfZHNvNDU5eVJYZnNoZkJheGd3b3RpRDZIb2c,English,,5,2013-03-08,Colin Slater,complex means powerful,a brilliant for sharing it,,
Call Meter 3G: THE monitor app,Google Play,de.ub0r.android.callmeter,bGc6QU9xcFRPSElfaDFVM0JTTUZ0SFFCeTNrOC1jZ0tnQV9rVF9VNTVpWTdjQTR4WmpURmdYTmIzTFRQMXlfU21PLS1kY01RX3UxOVV2Uzh1ek00YUVsdUE,English,,4,2013-03-07,A Google User,Good app but,please resolve this problem thanks,,
Call Meter 3G: THE monitor app,Google Play,de.ub0r.android.callmeter,Z3A6QU9xcFRPRzdVU0dDR2N4clpvQkRGY054aXRNalMxb0VjNEJUT3o0d25CcU01QVpOWGVjaWNreVFXQWcwaDNCMk5kekl6YU9MQ1BOdTcxNjNsUjVaaFE,English,,5,2013-03-05,Saravana kumar Jayendran,Work great,kindly provide dual support,,
Call Meter 3G: THE monitor app,Google Play,de.ub0r.android.callmeter,Z3A6QU9xcFRPR3BBajFCMTF1bm1McWx0YzRUcTBDZFFGcmhGb2ZYYkJMX2dnYzJ0TjlQM25BOXQ5N2JfZ0l5QXludWNFUE5keHR4a2YyMFlNT0NyOERySnc,English,,4,2013-03-04,Roopak kumar Agarwal,Very good effert,,,
Call Meter 3G: THE monitor app,Google Play,de.ub0r.android.callmeter,bGc6QU9xcFRPRmNqWTIzS1lqUDNoN2xwbzZzSm9xZ2s3Mnp3dy1hVy0yelpFeEozRkpTbDVTRFBmSTlpWmRvU19pcUE0eFhmZjJ4ejEtVEs0NHZzTkU4SkE,English,,4,2013-03-01,A Google User,,powerful,,
Call Meter 3G: THE monitor app,Google Play,de.ub0r.android.callmeter,bGc6QU9xcFRPRmNqWTIzS1lqUDNoN2xwbzZzSm9xZ2s3Mnp3dy1hVy0yelpFeEozRkpTbDVTRFBmSTlpWmRvU19pcUE0eFhmZjJ4ejEtVEs0NHZzTkU4SkE,English,,4,2013-03-01,A Google User,,many thanks for sharing,,
Call Meter 3G: THE monitor app,Google Play,de.ub0r.android.callmeter,Z3A6QU9xcFRPR1FSY1hFTTlUREdNWjdNeUZtMVRBOEswSkZLeUUxSnZQR1lGMkhiZTYwRVZJd1BEejY0dmZ3eU5pd2JRTm5YcjRLVVNYNE03ZXBjakxTMEE,English,,5,2013-02-27,Subha Bis,good,fine product,,
