App,Store,App ID,Review ID,Country,Version,Rating,Date,Author,Subject,Body,Translated Subject,Translated Body
Wikipedia,Google Play,org.wikipedia,Z3A6QU9xcFRPRjJxdUNBaTJKVFVfbHlIVmszSVJLOGkzVlJxM0o3dklpZGtxODBJaW5pcGIxdm93ZTM5Y3JWLW5HY3RDS0ZvVjQyWFFacHdkNEdZeTE1,Japanese,,3,2014-10-31,sasa shin,"",アカウント作成しようとしたら作成できませんできませんでしたって出る,,
Wikipedia,Google Play,org.wikipedia,Z3A6QU9xcFRPRU9ITlNxeTVpZWZwZ2sxdmVaNzVIX3g0TDZCS0RrcnlqcHVnVzl2SVZsWFpva2p5T2sxWVQzYzBUS1o1WDdwekI3Qk84UlFSTm16aFpv,Dutch,,5,2014-11-01,Jille Kooijman,"",Handig voor op school.,,
Wikipedia,Google Play,org.wikipedia,Z3A6QU9xcFRPSHhXRHl2a21JOFFFNW1ROXNNZGpMdmtNLUUwd3VlQVNEcnlWWnZXRmZRZFRqZTJHaHBjZlhaNkRYUVlDY3lnYm1UZ2dBYjRXRmVDS1Zl,Chinese (Simplified),,3,2014-11-01,Jeffrey Tsao,缺乏繁體中文轉換,希望維基百科可以重視這個相當重要的文字及文化。,,
Wikipedia,Google Play,org.wikipedia,Z3A6QU9xcFRPSHpHSzc3SS1YazBKSFR3SXdGSU5fbTBTaDFkeUFaSm1LNk9FSExuX1pLNHhFc0h0ZEFRTVg5NGs4OWdwa0Y1XzFMRkFyMTBoVXU3aE51,Chinese (Simplified),,1,2014-10-31,张博禹,崩溃了,新版崩溃,,
Wikipedia,Google Play,org.wikipedia,Z3A6QU9xcFRPRm9KZUFlZXVSMXFhcGMza0NPbFZ3X1QwWHN6Wks0bldKMU1hS01weVdCaE9XOEVwWkdndk00aE5IVTE2X3VKNnlHQjh0QTJMYUV0dEh6,Chinese (Simplified),,5,2014-10-31,Charlie PAN,资料齐全,非常棒的百科全书,,
Wikipedia,Google Play,org.wikipedia,Z3A6QU9xcFRPRkpUOEVvcW5XeWQ5RDM4VWZYTkhNclA2MkRtbW52N2xYVkdRUWt2OFBvcHQ5SHF5LW1haVlKUGwwOFUwUFJqSVVzTUdZQ0hqeHdQc3hC,Chinese (Simplified),,1,2014-10-31,詹企鵝,簡體字不能轉成繁體,很多頁面在網頁版可以轉成繁體中文，但是這個軟體卻沒有繁體中文可選，無法支持下去了,,
Wikipedia,Google Play,org.wikipedia,Z3A6QU9xcFRPRlFHMEpEWlRFdVFQa0dYbTgxN1NTS1VqN08xcTEwZ29xV1ZMLVd3dFVXaUpCVVhCdUhmWFdKQXFqN0JHajFqb19FT2hWcExlLS1iOWNH,Italian,,5,2014-11-02,Alberto Candela,Ci siamo,Ottima...quasi meglio del sito web...davvero ben fatta!!,,
Wikipedia,Google Play,org.wikipedia,Z3A6QU9xcFRPRjAxYXhvR1gzZ2VaZV9lbjdQQ0JfanR2ZkhLajVxczdKcGRUZVNrbDEtTUlscEM3MFI3SG9EOEZzakEwMDRsckJoSzRoQ0pkbjFiUmxR,Italian,,4,2014-11-02,Michele Napoletano,"","Wikipedia per cellurare, ottima",,
Wikipedia,Google Play,org.wikipedia,Z3A6QU9xcFRPRkxKVkhFdm5LWXVEcEdaWllIbmtZdW1mRnoyZXkxLUdNeXY0TzZVUzJuMGlCYmU4ZzZoNWFtOWVudE5WWDBseEl6ODJCVUh5dktpRWdu,Italian,,5,2014-11-02,Domenico Liquori,Wikipedia un tasca,E come avere Wikipedia sempre a portata di click..... Provata con Android 4.2 ed è perfetta,,
Wikipedia,Google Play,org.wikipedia,Z3A6QU9xcFRPRzdDZTZsZjQ3QWVhdmVOUXNNdERQSFB5a0VHTDRUVlVaN1l2WHQ0RjFHQm11WGhCTm5HTjZXcXBGWmtieWsyRlI5Tzh1cFozRXFMbmhB,Italian,,4,2014-11-01,franco mattei,"",Utile,,
Wikipedia,Google Play,org.wikipedia,Z3A6QU9xcFRPSG9nNEtweGNmZnhTQU55MWxocmpYZzQwLWpiMTMtcVAzX05LV3laYnlyNmwxc0lSWEpQTEpQRE9oNjNsMnBCcVA1c2Y4dk8tXy1CYlY2,Italian,,5,2014-10-31,Pietro Castiello,Grazie Wiki,Ragazzi!!! Non potete neanche immaginare cos'era il mondo senza Wikipedia!!! Grazie Wiki (^•^),,
Wikipedia,Google Play,org.wikipedia,Z3A6QU9xcFRPRXB6clV0dElWb0FVc1RGbzE4WGpBSXB4MDh6UHJxSE9jT3owWFVSTjhZN1JMQ0dhblFWNFIwWjlyLXV5S2ZkVWVsek5xWTR6SFN6cU84,Italian,,5,2014-10-31,Andrian Braduceanu,"",Finalmente nuovo look,,
Wikipedia,Google Play,org.wikipedia,Z3A6QU9xcFRPR2hwMTFWNkRSMDRHYnptcmRQZWhmWUZDcy1WdzYzRnN0SWpQUkEwU29vMUZ4d2NkcHV6YlRza2VLbkJMRV9sRklCUGp2TG5IdEgtemZS,Italian,,5,2014-10-31,nicolas cheles,"",La migliore app al mondoooooo,,
Wikipedia,Google Play,org.wikipedia,Z3A6QU9xcFRPRlFfQ3VqMTIydklQcVVES3dUNDNSMGM5X2JSYTY1SXg1a0ZaeHZQOTdROE1vLXU2UHhuWnVaeGhGMUpoaW1jdXBKVWVESTlTdVRRN0l4,Italian,,5,2014-10-31,Giuseppe Capuano,"",Indispensabile,,
Wikipedia,Google Play,org.wikipedia,Z3A6QU9xcFRPRTFiUWZpV0VkUi00VE1QUE85R1ZFUloxNnlHUk9RMGN1UDA0NGhLdklsTDJrWGdqVkxTcENneF9sWkluMms2T2h5WnRvclNGSkFNbnhi,Italian,,5,2014-10-31,Giovanni Papini,Finalmente rifatta a modo,"Utile, se non indispensabile",,
Wikipedia,Google Play,org.wikipedia,Z3A6QU9xcFRPRXFoTFlMRG0wenAwRFdUaE4tNFV5cDBYMDBxNFNMVEJHaVZfMUlGSDhrVklYRjVKR0tLMF9SVUcyY25CRXBmcjJjbmJfY3NEV0s1RjVz,Czech,,3,2014-11-02,Jarda Bocek,"",No celkem dobre ale bylo by dobre aktualizovat informace casteji,,
Wikipedia,Google Play,org.wikipedia,Z3A6QU9xcFRPSFNVRU9udW9qWk15ZFNzaFc1T1MzZEk2WnJxVEZPa0p4aDVROHVaVWF3ZlpYMllCSVl6QnFzVXhnd1QtQWxZRzI3RVAzUkRPQjFOQmNs,Czech,,3,2014-10-31,Marcel Muchowitz,"",Malo informací,,
Wikipedia,Google Play,org.wikipedia,Z3A6QU9xcFRPRnd2RThveWVYTHp5dkZLTmY0LWZBb0FUWS1Jc2lJbkt0WUloS3QtbVh0TXU0ZDdpVFVUa3RJc1JCSk5GRlRTdFktdWUwekZGY1d4NW9W,German,,4,2014-11-02,Marcello Bugdoll,Ganz okay,"Wie es Wikipedia sein sollte, ist die App sehr nützlich. Allerdings bin ich etwas enttäuscht. Wenn ich irgendwas im Netz lese und mir ein Begriff unbekannt ist, muss ich das Wort in die App kopieren, statt es teilen zu können. ""Wikipedia"" wird leider nicht als Option angezeigt wie jetzt z.B. bei ""Google Übersetzer"". Liegt das an meinem Gerät (Galaxy S5)  oder geht das noch anderen so?",,
Wikipedia,Google Play,org.wikipedia,Z3A6QU9xcFRPRnZiM1NMX2F4a0hPV21EX3cwem1hM2M4TGhfM0Fua2ViOEk2SWM3MlRIbExCNjNYTFFyemFDRll6Y3ZZcDZVaHdWVk9EdDRXNjJMX0di,German,,5,2014-11-02,Diana Lachnicht,Geil *-*,*-*,,
Wikipedia,Google Play,org.wikipedia,Z3A6QU9xcFRPRUFDaFVxWExhMjRUVDN0NktiN3cwZVd6Sm9KUnVZc05PbWlKM0NXSHBXUXI0anNfMzJHdkQzOHNvNkZRZjNKVEE2Q2dQVkZfTW1CcjVY,German,,3,2014-11-02,Björn-Christopher Haack,"",Nett,,
Wikipedia,Google Play,org.wikipedia,Z3A6QU9xcFRPRTg5Q2JNRkd2RlFYRG8waTVMbGJXME1tYTVvUGstT2VTZG1oejVpeTdRVThKWGItNmpHZHhWMlNsdWpnRjdiZXVQSGR1OUE5UldJWHJS,German,,5,2014-11-01,Simon D,"",Lol,,
Wikipedia,Google Play,org.wikipedia,Z3A6QU9xcFRPR1ZnRkxSdWxodmNENlJTOUg4SHZYby1zNFRBNzFUS25QMXBpT1ZxOTFneHFJMnU5V1JEMi1TMU81UHlMTHRzTEt6MHdob2huN2JQUFhx,German,,5,2014-10-31,Ro Mu,Einmalig,..einfach nur gut.Danke,,
Wikipedia,Google Play,org.wikipedia,Z3A6QU9xcFRPR3otTUhadGVEZHB3SHhFWENQTjFNNWlBSFN4SGQ4eTRCcHdhWmJCOE1ONEZ4RnA4UFdnb2c3RHoyek9WWXpnSXBXVWdiNEZMU0RyWGhE,German,,5,2014-10-31,regina j.,"",Super Ap,,
Wikipedia,Google Play,org.wikipedia,Z3A6QU9xcFRPR1pNV1RvVGdqVFdLRlJuLVQ4Nnl0RGQwMDdybjdxMVNPbEZMSVlLLVliRW02bVFxR004MHJBbTczQ0FLNk5PeG9KVzRfdHJkMjBDdXN6,German,,5,2014-10-31,Ralf Weers,"","Sehr gut, benutze die App täglich.",,
Wikipedia,Google Play,org.wikipedia,Z3A6QU9xcFRPRXB0c2o2dnhLOW4tSXp0UGVhYVN6V2dOLTdHRUZwTDU4emhIM29WUVVPMmpMRzVVN2JSZmRZamJEMncySmV3MFpiM0M0al9GV1UxVENi,German,,5,2014-10-31,Mike Kabiersch,Cool,Vorbei die Zeit endlosen Suchens in den mitgeschleppten Enzyklopädien,,
Wikipedia,Google Play,org.wikipedia,Z3A6QU9xcFRPR2RlWkhSb0ExdGVLeWg0X2lWUFNtemN6SVVEbkhta0JLYy1qOHkzQ3BjdUltLV9FSDlCVGNRTm9HelZBc2Y1WFYzcDM1dkxBT1BuVmJ4,German,,5,2014-10-31,Tobias Schmitt,Top,Selbst einfach stöbern macht nun richtig Spaß.,,
Wikipedia,Google Play,org.wikipedia,Z3A6QU9xcFRPSDN4T1N5MGtrSE52WEJwaWViQ0FEOWFfbnlzaW05Umloa01QcjJDeEpRN1hyRFBOc0JCODE0Z0VQY1FHaEJNVDEwRF9wVy0xUXpBS09B,Portuguese,,5,2014-11-02,Alex Sander Lucas Fernandes,"","Simples e direto, perfeito para pesquisas rápidas",,
Wikipedia,Google Play,org.wikipedia,Z3A6QU9xcFRPR1p4OG10cUItenNzcGRhUEFYeXFVbFUtejNKdElFdlA3VzNLOVNQYUZ0YWZ4MUZWZGRwVUdfOXZremVDS3pTUTNnS3lrT01OSW9EU0Zr,Portuguese,,5,2014-11-02,Marllon Vinicius,"",Show de bola,,
Wikipedia,Google Play,org.wikipedia,Z3A6QU9xcFRPRUNnejNVNk5LOEhpRnhJZkhxeG84b0FWZDh1QmhYR2lPRXF3VjZ5THB0Wmo1d19xNTg1YnBiYVJDWVN1OFE0T2s4M1F0VDlxMzNiUGRt,Portuguese,,5,2014-11-02,Rafael Martins,Top,Ajuda d+ gostei,,
Wikipedia,Google Play,org.wikipedia,Z3A6QU9xcFRPRmloNUR1TmZtYkdwbzBLWTRvQll6T3NGZVZTR3pKSERSNWhfdklIV1RPeDZXQm5xc2EyU0FwMW5qdlAtdHdWcktrTWk3OE1DcmFDZEwx,Portuguese,,5,2014-11-02,Lysson Almeida,Best,The best app.,,
Wikipedia,Google Play,org.wikipedia,Z3A6QU9xcFRPRnR3ZlNOcGprOGRsVEdaRENpbEFURTNUTEJyTVhibmxmZlZZTTlfdFZjU05ZTTBwZXF6TllMc2Fja1ViTWtjLVB3TGUtaDJaYmZHVTdo,Portuguese,,5,2014-10-31,Weslley Silva,"",Bom,,
Wikipedia,Google Play,org.wikipedia,Z3A6QU9xcFRPRnQzN1MzVEQ1eXQ5WjVNc3VnMXdRVWdyNmRYdVJfMkwtaGlyRmVlOEY2eXZudVd5Yng3MmI5bUZ0alNsdXhxSUY2WkdqcGptSm9KNlJk,Portuguese,,4,2014-10-31,Alexandre Henschel,"",Ótimo. O app e ideal para pesquisas e tb muito satisfatório em suas sínteses,,
Wikipedia,Google Play,org.wikipedia,Z3A6QU9xcFRPRUZtUEhlaUMxeXlJdUJRVWhzUVRaaTVXbS1qUV9HT3F4OGoxUkNjaGpCcDJYYUE1TXNYLTZRWldWdkJTWVJrc3RQZzhRYV9wUmFuRDVC,Portuguese,,5,2014-10-31,António Ribeiro,"",Muito útil..!,,
Wikipedia,Google Play,org.wikipedia,Z3A6QU9xcFRPSFh3TFlpc3hpM1I2bHk3UmJwSHFqd2pGX2k5MVd5X285RlVMRWJnVXFHUVMxYV83YUx4SnlDS1NpNS1FYUtEeURYUldLdWRjb1NRRUpZ,Portuguese,,4,2014-10-31,bruno antonio,Wikipédia,Parece me ser  boa wikipédia,,
Wikipedia,Google Play,org.wikipedia,Z3A6QU9xcFRPRXI5VURVdjdKWnlHaDFHSmtUM1FmSTUyTm9idmxWeDVSRFlYQVh3czM2YWlrWG5sY1lENUFma3Nqak1kUVdLQlk2bEdJempXNm4yQTlJ,Russian,,3,2014-11-02,София Ахмадуллина,Неплохо!!!,"Все супер, но есть одно маленькое, но почему когда я регестрируюсь у меня много надо водить копчат. Исправьте пожалуйста, но удалять не буду пригодиться на рефераты...",,
Wikipedia,Google Play,org.wikipedia,Z3A6QU9xcFRPSFJRNUozUlVFdk9CMzNwMS10b1I3WWNId01OTUpBeG1NMXFyQ3F4N2JBZnVpWDI5M0dhNEpjOGdvaU1iSjd4RlB5TEtMT050QzBrclhr,Russian,,3,2014-11-02,Олеся Стеньшина,"Отличное приложение, но","Никак не могу зарегистрироваться, выдаёт ошибку. Пробовала ни раз. В чем проблема?",,
Wikipedia,Google Play,org.wikipedia,Z3A6QU9xcFRPSGl5YnFkVGlEYWtEWS1yMHA4c1dTcnpjVUsxQVloTXZUUTZqZDNyLThoZkk0cHJpQVM3WXlSMUFoMmRkODY4V0JuemM5VGJxWm9WQ20x,Russian,,5,2014-11-02,Тимур Назипов,"",На мой взгляд все шикарно,,
Wikipedia,Google Play,org.wikipedia,Z3A6QU9xcFRPRVFNM2piLUtsSU4zb2ZSdGQ0SHBVR0l4bjdISmR2T3JqWTB1WjF2UXJUdGo4a28wR19iM3ZQWnZObHBvUXZFZzFnMTZ3cC1kaTdfWlZz,Russian,,5,2014-11-02,Oleg Moskvin,"",Замечательно!,,
Wikipedia,Google Play,org.wikipedia,Z3A6QU9xcFRPRUE1SEYwb0gxc0x3Z0tlS3BqdVd1TkxXam5EN2lWb29xd2NNVEY3RjMzbmphclE2Q1FBS2Q2S3VxbGRVZ3U5bFgwNWtLY2ZVXzVkZTJK,Russian,,4,2014-11-01,Ратибор Рюрикович,"",Очень позновательно.,,
Wikipedia,Google Play,org.wikipedia,Z3A6QU9xcFRPSEQ4YkZLVWJlRm9mcVhKb2hnUkFaYnZRdE53TVFUaWM5LTlsQ3hzZWJkelY4MmxmUHdqRmdhVmpYVHVqWWdxanZuUF9HUDhORUt5d0g5,Russian,,3,2014-11-01,Олеся Когтикова,"",Кое что есть),,
Wikipedia,Google Play,org.wikipedia,Z3A6QU9xcFRPRjh0ZDF4em4xcXdTaVduSVBQZU1yS1J1ekVPX1BlellJMEN6US1LUXpTYW1VdDRBQ3M1QU9hSnoxVnIySlNEaXZHS2I1RjZsMVZkY0lR,Russian,,5,2014-11-01,Даша Маркова,Отлично,Fly Era stail,,
Wikipedia,Google Play,org.wikipedia,Z3A6QU9xcFRPSEFaWHdIRXZvSDZ5MkxwWFB6TFZZRG91eXZ0MkNIZ2JnYzdwRTRYS1d4MWR6VktEVXI0TTk5WnZOUjBlS0VySGtSaDNCc1lKYjVvaEdK,Russian,,5,2014-10-31,Никитин Валерий,"",Вот за это спасибо,,
Wikipedia,Google Play,org.wikipedia,Z3A6QU9xcFRPR192bVJJWFVpVXRUQ1RBZXJVSUxNa08wSGxpTXd6NGJFbDhRZWRYdkZVanN0NGFqc095dkkyX2dTa1Fzb1pwMDRiMTZ2d1RkTWQ5Y2Ns,Russian,,5,2014-10-31,Valeri Sweet,"","Отличное приложение. Много интересного. Радует нейтральность позиции, оценок событий, исторических фактов. Россиянам не подойдет. Нигде не написано ""Путин святой"".",,
Wikipedia,Google Play,org.wikipedia,Z3A6QU9xcFRPRjJWQUswRkRJRWZYUWI0UTJTYzdVWEpvcjlxN3hlVXlfR2l0QWFUN3pWcmNWeEM4d2ZES2lNYVZZYzJ1MW1sM0V6aHBNSnVfYXEtWTRX,Russian,,1,2014-10-31,Гена Миронов,"",Туфта конченое приложение. Правды вообще ни какой нормально не показывает. Проамерикаский сайт. Аж фу противно.,,
Wikipedia,Google Play,org.wikipedia,Z3A6QU9xcFRPSEpWenZmVl82TU9BZEpyVHVIWWNZR2dReWhGTzM5ZFFUMDdHNFhMYmJURW93eDVXOERqS1h6Wjh3bV95SnVYVm5XeVVoaENEb0swRExi,Russian,,5,2014-10-31,Элик Аскеров,Лучшее,"",,
Wikipedia,Google Play,org.wikipedia,Z3A6QU9xcFRPRmJxT2dsVkhZNHdJMFlBblZ5VlVkSFBGakR3WHNEQkswaHZPVUVOR3FZa1NHZHdod3czaWhOcVJ0U3ZFNjJXR1ROY19nM3QyOGg3Tk1G,Russian,,5,2014-10-31,Игорь Гливанский,Класс.,Движение пошло в лучшую сторону.,,
Wikipedia,Google Play,org.wikipedia,Z3A6QU9xcFRPSEhFYjFuN2FOV0JGeGxqUjI3MFRmTzBvRnIySnhvMXpXc2N3N0lUTmFmd1NPRVVRMnV0UVNabTdMV1ZvSDlTaklWeEtEUU4talo4ak96,Russian,,5,2014-10-31,Тимофей Атутов,Отлично!,Отлично от всех ;-),,
Wikipedia,Google Play,org.wikipedia,Z3A6QU9xcFRPR1d0Y2VXQVZLWE1rVHBwQTRaUVA3NTYtWDRtSXpITFdpNXBRbGNHSnd6VmVaUXhGZWlOT3I2TU4xTW9KN1Z4TUhLN0M3SnljTEduYUJ1,Russian,,4,2014-10-31,Jonny Doe,Ночной режим нужен.,Ну или сделать шкурок всяких и всего проблем. Они объём информации занимает небольшой и глаз порадует. Так что разработчики дерзайте. А вообще прикольный способ не платить маркетолого,,
Wikipedia,Google Play,org.wikipedia,Z3A6QU9xcFRPRXpYRkc0dmxvMVRrbWtYOER4Q2lWZjJ1VFFsR0NfV251YWhSMkI2b2UxLURGTHpYNDNlankxLUtfTDR3eWZGQVNsM0xTYWlEcjdTQ2c1,Russian,,5,2014-10-31,Самиля Д жамалутдинова,Мне нравится,Классный,,
Wikipedia,Google Play,org.wikipedia,Z3A6QU9xcFRPRWQ4dlloMXBNUGlWc2JkUG1fa0szTkliZWNHNlFMNzhVcG13YTJjd0toVWlySEVwZGx1alA3T2JlMl9DUnA1cm1PVVl2QU15ZENFbGxB,Slovak,,5,2014-11-02,Marek Palinský,"",Informacie slov a dejiny dnes to chyba.,,
Wikipedia,Google Play,org.wikipedia,bGc6QU9xcFRPRy1keE1lZTNqYm5jeWxvNl9iamNKODM1STg4amVaN1NhdFdSMU96a0RLZU1NdldwWkxoQXVlX2dmaHRYS3piWlh1blNEZFlwSE9sRWYt,Spanish,,5,2014-11-02,Un usuario de Google,La mejor wiki,La amo.,,
Wikipedia,Google Play,org.wikipedia,Z3A6QU9xcFRPRk5PUDNYR1Q5UmNoVWxLcEZoMjRNS1F3LW1CM2tNU3dMWm0ybWRoenU0NWNwaXlVQWN2R1pRbkZ6Y2I4U0VJOWNvNHJqT0ZDQm8zVGxH,Spanish,,5,2014-11-02,Galo Ernesto Grijalva May,"",Buena,,
Wikipedia,Google Play,org.wikipedia,Z3A6QU9xcFRPRUt3aFlkU3NYMFFtV2R2SkN6dDd3ZzJLVHpPMmV6ZTlUS2UwWUFkVVdmdVJMNmotcGNJMjBITWhzYVd4SjVjVzdPZ2Q2VUxyT3huUENW,Spanish,,4,2014-11-02,Andres rossi,"",Recomendable,,
Wikipedia,Google Play,org.wikipedia,Z3A6QU9xcFRPR2syZFhxZDQ5bzhDX0h0QUlaT2wyOWJwbmY0WHI3QjdraDBKLUd1TEQ4Ny04VGo0SUNRNGh6UFdRNkhHWDhIRzdDMW1TYzhOeHZ1TnY3,Spanish,,5,2014-11-02,Claudia Carrasco,"",La leche,,
Wikipedia,Google Play,org.wikipedia,Z3A6QU9xcFRPR2lmc2lDS3FfZWdraTNyQV9QeklNQ211ZFVnUFlOX2ZRZ015eUpnTHBJM3lRbW5kNzUwN1ZwSjdPLXc3b3hya1JXSUVqUFl6dkdmZEd2,Spanish,,5,2014-11-02,Emmanuel Hernandez,WIKIPEDIA,es tan increible como la online pesa poco y es muy practica rapida y sencilla XD,,
Wikipedia,Google Play,org.wikipedia,Z3A6QU9xcFRPRWk5VlpMQnJOcE1jdUpzRzNfTmlqVXlBbEY1LXV4QkdtVkdtRjB2UzVwcWEzMlI0RWFqWUJLVk9VTlQ3QUlWVG5pVjBiTjdDa3JoYXl6,Spanish,,5,2014-11-02,Fernando González,Es buena,y rápida ⭐⭐⭐⭐⭐,,
Wikipedia,Google Play,org.wikipedia,Z3A6QU9xcFRPRWF4Y0h0R3B2bm01SVpONllRMlRJMlkycFRtd1ppSXFPelgzQTRJbVlWSUkxczdtMVp6RWMzU1M0c2Q2UUdhZUNSUFgtY0lSYjY2N2pO,Spanish,,2,2014-11-02,Saúl Redondo,Tema oscuro incómodo,"La app funciona de maravilla, pero el tema oscuro debería tener las letras blancas (y no plateadas) sobre en fondo negro. Además, los links en azul se ven mal y la lectura es incómoda. Utilizo el tema oscuro para leer porque en teoría cansa menos la vista y consume menos batería.",,
Wikipedia,Google Play,org.wikipedia,Z3A6QU9xcFRPRW1Va2VEN1ppQklsRDRRbVFlNFdMOXNxT1ZOeGdQdk1Kc2xXT3FSc0xYLWx0cDliR1FVcmJTNTBHam5ZeUZER2pVSXNFSmhXNjdIamVf,Spanish,,5,2014-11-02,Jordi Karmona,Muy buena,Cumple su función a la perfección,,
Wikipedia,Google Play,org.wikipedia,Z3A6QU9xcFRPRS0yaWRJS1ZLcU81Q3VMSXhzWkZTLXlHOW94WjN5WERRemtSMG1ETlRCTlZxOEtfNU1iV3FyZVR2VUFnaFlfYWVEY3FUU3NJalFDaEVO,Spanish,,5,2014-11-01,Alan Martinez,Bien,Megustamucho,,
Wikipedia,Google Play,org.wikipedia,Z3A6QU9xcFRPR216ak53U1lIZ2Z5R2FmcnY5THNhUnhzOFd0SUJBdWY5aHNKNVhEdXdtbnJnSTQtQzJRU3hMZjFjUFFuQmFGLXU5anNad2otZFhSS2hM,Spanish,,5,2014-11-01,Melyssa Kartoonista Hanna-Barbera Schulz,SENSACIONAL,Muy bueno por q evita q entres en Chrome!!!,,
Wikipedia,Google Play,org.wikipedia,Z3A6QU9xcFRPR2JYZmJUendmdjBjRlNVX09TdGZnTC1GX2tIbmVWd3JDTDNvdmxnanRVUjd5VTVvZzdUYmZDN0luR3ZTV1ZNUk1qdFU0VXgyYm1fU3o2,Spanish,,5,2014-11-01,Nico Villalba,"",Muy bueno excelente. Estaría bueno que sea sin usar internet,,
Wikipedia,Google Play,org.wikipedia,Z3A6QU9xcFRPSFpkbnh3M01XNFNYSkxZT0IzdzVzM1A3Y0VZd0dKcm9tRFpZWVJIVHBHRzAzOWRfcEdsMDRuY2tHOUg4LU1Yd0YycUZYbnFDZnpfOW9I,Spanish,,5,2014-11-01,Jose Salomon,Thanks great app,The best app in the world!,,
Wikipedia,Google Play,org.wikipedia,Z3A6QU9xcFRPRmhQajJfSHBQM1Awb2ZKbEphUVl2UmVjcW90cEttTTJuN2RXV3ZERlBER0YxV1QyNUp1Y1dlSUpZZ3BCTFl0LUJoVXJWRFExeDVLNm5h,Spanish,,5,2014-11-01,Alex Hdz.,"",Exelente,,
Wikipedia,Google Play,org.wikipedia,Z3A6QU9xcFRPSFVKTWtfR0pWeEtLa2Jtdk11UVY4NTZ0M1BPNzV1TG9Bd2FjOTJ4YkVTZGZNTjFReG52d0FxQjBHU2FnMnQ4bFpfQlpVWDlzUFliTHBI,Spanish,,5,2014-11-01,marcelo geiser,Gracias,Muy bueno .,,
Wikipedia,Google Play,org.wikipedia,Z3A6QU9xcFRPR01Db1ZxRkdOWko5RjJCN2NvUGs4Vlg4d21BLVhGeGtjS1RHaHlsbkRsWnRXMlRtbFVMaHlWelNVcUUxX2ltcFp3eUpDYjY2WGJHeXNu,Spanish,,5,2014-11-01,Gladys Gonzalez,Exelente,Funciona bien!!!,,
Wikipedia,Google Play,org.wikipedia,Z3A6QU9xcFRPSEpFZlNmN1AyMDdrZ0JqaFBLS3B6U0lhTTFzR1IzeURRdEt2eXJYbmxnRVNJcG9NQlE4c0M5WldMX01YUjhGSERidEhpTWc3NnJlc3RI,Spanish,,5,2014-10-31,Fabian Rodriguez,"",Muy bueno,,
Wikipedia,Google Play,org.wikipedia,Z3A6QU9xcFRPRkEzSHVxQ0pqNXMyZk0tZ2hnWGVVXy1ETXRMVHB1X0JYTzhIRDV6ZWNZV3JqYWxzOUdYMlFtMnJ6NnJ0ZXFjUUN6bi1uak1tNEc3YlJu,Spanish,,5,2014-10-31,Matias Cabrera,Exelente,Nunca creí que estaría esta app me salvaron! Ahora puedo hacer mis tareas en clase!,,
Wikipedia,Google Play,org.wikipedia,Z3A6QU9xcFRPRkJoSUx4WGlzMlZjbndFUDhtVTF0VkU2VG5VNGJBSlgyRnFLeEpxNWVsOWlXWUtXN2tORE1KeUdWTU04VTVETmE2RDJuVXRWMTd6TDdI,Spanish,,2,2014-10-31,John Paul Becerra,Regular,No encuentra algunas palabras,,
Wikipedia,Google Play,org.wikipedia,Z3A6QU9xcFRPSENkeUZxNWpoTGx2ZVZLMkxtWFRhekdGVXRjalhaMVVQOUhiM0RZenYtbXZ2NnFwdXgxNE04SWFCSHVOMld0LW5ETmdxNlBYMTJ1MzJm,Spanish,,4,2014-10-31,Diego Qüenza,Muy buena,El único detalle es que se cierra sola.,,
Wikipedia,Google Play,org.wikipedia,Z3A6QU9xcFRPRl9lVU1mdm45aTQ3YzZhMU96Y0JzaWVnQ0JkWHhGLU9lQzk5ZEdrNmREaVE5b244SjY5aS1UYUthcGU5b1RjRG5qbE5GcW5XVVNQaEpz,Spanish,,5,2014-10-31,Jota Errebe,Cumple,Cuando se ejecuta en segundo plano carga la página de inicio al volver a abrir la app. Interfaz desactualizada. No funciona copiar texto.,,
Wikipedia,Google Play,org.wikipedia,Z3A6QU9xcFRPRVhpTWZCRW5zV3RwX1BhRG84M3ZtU2Fsb1A4SEdyMUwxTzE1Wjk5elJheTNiRDhFaE1XQ3FQUFo3TVJHUkNYa0d5RjRIUlRQQ1JrQml3,Swedish,,5,2014-11-01,Robert Esping,"Man får svar på allt, Svenska svaren ökar konstant","Är det något man undrar ""oavsett vad"" så finner man det till 98% här.",,
Wikipedia,Google Play,org.wikipedia,Z3A6QU9xcFRPRmkzV3dzNElJaFhVLUNsdVNCOGQwTHRMOHdfem1VTUdsdDVUelhKQ0ZPSG1CcVlzanBFaTI0T2VaTjg3VndzV3JLcEpxUTZxVFRDaldW,Turkish,,5,2014-11-01,Rasim Karagoz,"",Android in olmazsa olmaz uygulamalarindan biri..,,
Wikipedia,Google Play,org.wikipedia,Z3A6QU9xcFRPRlY5RWNLNkpxUVJyRXJ5RklxRzJRUnRNQVZVdTdseFFSWDJwRk5JakdSejFzNDNzRnpKMWxva0pobnlNQ1VNeFlFMWlsQnF1bzYxWU9r,Turkish,,5,2014-11-01,Berkan Aldanmaz,Ender,Kasmayan ve işe yarayan ender uygulamalardan birisidir.,,
Wikipedia,Google Play,org.wikipedia,Z3A6QU9xcFRPRWpuYTU4ZGlUTEZTX2JjYklVUGQydHN1MXEwSnFjQUkxVEIwa01iMTdoZXZjV1RuX2RYeGdiSGdWR3YxRFpFQ1ZwWWh0Z0tqdF9hNTlE,Turkish,,5,2014-11-01,ulvi eliyev,"",Guzel,,
Wikipedia,Google Play,org.wikipedia,Z3A6QU9xcFRPR2tINUxYVXVucndaOEY3Q0ZjWGt3LTRpVGFOa0RnQzNfLUlwZnJtRkV5QlZHZGc2UFF3cnEwUHlFcXBpMXJvaGJCMGtZaGdpY0xxZC1M,Turkish,,5,2014-10-31,Ferhat Şenel,İyi,Güzel,,
Wikipedia,Google Play,org.wikipedia,Z3A6QU9xcFRPR2phWEZNSE9hVEVfQ0NLbjdfZFdBOEVPYzRFZ1FFcXBnbk1HcUhCaFpTWEtoemQ4U0xIZnRqeEREUnBBU1RJR3ZZUjRPS0Npb1NFbk5R,Arabic,,5,2014-11-02,اسامه الخالدي,"","",,
Wikipedia,Google Play,org.wikipedia,Z3A6QU9xcFRPRWFlZmY0NUUzT1psWHk3OUtuLUZXblVpUlFSQnpNT3NIWHhhX0VCMmZkR1FCNWprWFhzQ1hkWnZWbDNLR2dfeWdjSHBmWWdLWnlnVEZJ,Arabic,,5,2014-11-01,nona ihab,"","",,
Wikipedia,Google Play,org.wikipedia,Z3A6QU9xcFRPSEtKODZTbzdHSWE4Z01XRFVUbHlXVGhVeGl5Zm9naG9WRXRqRnUwbGNaRVRMR3hPWS15T3o0RWhfdTg2Q2t4X0ZRZV9pT243N09kbW1O,Arabic,,4,2014-10-31,Obaida Eisa,"",نظام البحث سيئ جدا…  لازم تتكتب الاسم بالضبط.  بالملي .. يا ريت يتحسن :),,
Wikipedia,Google Play,org.wikipedia,Z3A6QU9xcFRPRkhieU0zbzRjZkkzSUI2X0tWNEtnN3FxVzV1Y1V0amVXQ1pRSXBuUTYzeWZmWnR4WTJSUFp4VFI1Q1E5ZDVsNEtkR281ZFNkMjVVWlhX,Romanian,,5,2014-11-02,S.S. Stylez,Corect,Dacă ai de gând să te cultivi și nu numai..go for this app.,,
Wikipedia,Google Play,org.wikipedia,Z3A6QU9xcFRPRUducE9wOVlJR2xBSndPNFdaNjZHZVh4Zmx0YkNLaEFyYUY4MlB4R1lCZ3JLOWFwU2hyczQ2OHNpOXNWNjFVUFJ2YS12eHFIaVRybXhJ,Romanian,,5,2014-10-31,marian moraru,OK,"O aplicatie deosebita,merita descarcata!",,
