Topic,Words
0,0.067*working,0.063*and,0.051*but,0.043*cannot,0.042*have,0.042*on,0.038*be,0.035*unable,0.035*once,0.033*screen
1,0.062*meanwhile,0.048*for,0.041*i,0.038*a,0.036*anymore,0.036*or,0.035*screen,0.035*set,0.030*try,0.030*account
2,0.078*have,0.069*up,0.059*stars,0.051*is,0.049*all,0.047*5,0.046*unable,0.040*text,0.036*when,0.035*account
3,0.071*opening,0.066*all,0.049*an,0.045*anywhere,0.042*set,0.039*unable,0.038*have,0.037*share,0.036*but,0.035*up
4,0.065*for,0.062*opening,0.055*screen,0.051*be,0.047*anywhere,0.042*try,0.040*or,0.038*drive,0.037*on,0.033*a
5,0.108*in,0.087*when,0.061*anywhere,0.043*crashes,0.037*cannot,0.036*to,0.034*drive,0.034*great,0.032*setup,0.026*it
6,0.055*will,0.054*with,0.050*a,0.050*i,0.043*my,0.040*sharing,0.037*unable,0.036*an,0.036*fact,0.030*when
7,0.121*setup,0.058*meanwhile,0.053*unable,0.044*file,0.040*share,0.039*with,0.038*is,0.035*crashes,0.030*when,0.029*keep
8,0.071*to,0.057*share,0.052*unable,0.048*but,0.046*file,0.039*working,0.039*crashes,0.038*setup,0.037*have,0.034*is
9,0.077*except,0.074*and,0.062*time,0.057*set,0.049*once,0.046*sharing,0.045*share,0.043*try,0.043*even,0.041*cannot
10,0.102*presented,0.070*stars,0.058*or,0.041*5,0.038*to,0.038*have,0.036*file,0.034*be,0.034*drive,0.032*account
11,0.095*in,0.077*but,0.061*it,0.051*screen,0.047*set,0.043*have,0.042*and,0.036*meanwhile,0.035*once,0.035*perfectly
12,0.091*crashes,0.084*and,0.083*unable,0.048*export,0.048*a,0.044*text,0.042*share,0.033*getting,0.033*up,0.031*an
13,0.076*the,0.064*account,0.062*5,0.055*great,0.052*when,0.049*on,0.044*but,0.044*splash,0.043*sharing,0.035*except
14,0.127*anymore,0.057*unable,0.054*try,0.053*but,0.052*will,0.047*the,0.042*set,0.034*opening,0.028*to,0.027*perfectly
15,0.085*for,0.071*working,0.056*stars,0.049*a,0.048*even,0.048*text,0.046*or,0.041*5,0.039*with,0.039*presented
16,0.104*anywhere,0.054*even,0.052*all,0.049*meanwhile,0.044*sharing,0.041*with,0.039*splash,0.034*setup,0.034*and,0.029*account
17,0.087*file,0.058*getting,0.047*cannot,0.043*to,0.041*with,0.039*5,0.037*meanwhile,0.031*share,0.031*opening,0.030*when
18,0.118*anymore,0.111*sharing,0.097*unable,0.077*except,0.070*have,0.041*the,0.038*once,0.027*will,0.022*meanwhile,0.021*up
19,0.098*be,0.070*up,0.054*cannot,0.049*meanwhile,0.046*all,0.042*opening,0.034*once,0.032*and,0.032*presented,0.031*a
