initialize database from local payload,0.1.4,2013/11/03,,
add trailing newline,0.1.4,2013/11/03,,
add donation link,0.1.4,2012/10/11,,
reload the legend only the color preference is changed,0.1.4,2012/7/11,,
implement element color preference,0.1.4,2012/7/11,,
add sorting to the element list,0.1.4,2012/7/01,,
explicitly declare all field type and add default undefined type,0.1.4,2012/6/24,,
use default decimal pattern,0.3.0,2015/8/09,,
allow sorting in reverse,0.3.0,2015/8/09,,
use numeric representation of the category for the color map,0.3.0,2015/8/06,,
add layout for the list view on large screen,0.4.0,2015/10/04,,
add dark theme preference,0.4.0,2015/10/04,,
add dark theme,0.4.0,2015/10/03,,
add color customization to the table view,0.4.0,2015/10/03,,
language correction,0.4.1,2015/10/26,,
add graphical asset,0.4.3,2016/4/12,,
add localized graphic,0.4.4,2016/5/01,,
add image asset,0.4.6,2016/6/14,,
explicitly use the default locale,0.4.7,2016/6/22,,
allow requesting element by symbol,0.4.7,2016/6/22,,
disable automatic backup,0.4.7,2016/6/22,,
