App,Store,App ID,Review ID,Country,Version,Rating,Date,Author,Subject,Body,Translated Subject,Translated Body
Silent Night,Google Play,ru.neverdark.silentnight,Z3A6QU9xcFRPR2NVZHRRSG42aFhzOHZKc0xXd0F5Mk1uREtjSXU5Y0k1VGFLMnc1LUMyVHJzRmRXSmE5OTFZWmJkazFtQndJbW5QckRnVEVoTUVPcE9vRUE,English,,5,2017-04-19,David Walker,"",Does exactly what it says on the tin without requiring access to my personal information,,
Silent Night,Google Play,ru.neverdark.silentnight,Z3A6QU9xcFRPRWwxcjFxcDdVZ2hxckw5Z1dHQThqd1VsZ3djSnBPQ2U5a3hpaDRCLXRfS1lqdXptZ3g3dWEtYmM0WEowOWEzY1VVUkdGcG93N1FwSjJzdWc,English,,5,2017-03-29,Susan Barber,"",Does what it's supposed to do. Have used it for a couple years. Never had a problem.,,
Silent Night,Google Play,ru.neverdark.silentnight,Z3A6QU9xcFRPRnNjY3FzVU1kZ3J0REpWd1ZaYnc4MnZHNkk5SzFIRTVYYi14UVlrZXdhOWozTTYzZGcyOVl2Umt3S0JNdmtxNXBfdEswVUVOdXFMZHAxanc,English,,5,2016-08-28,Mike Kotter,Nice,Small and useful. Make settings 1 time and live free and silent futher ),,
Silent Night,Google Play,ru.neverdark.silentnight,Z3A6QU9xcFRPSFpWYzFOMHR3cHU0dzZVUy1GbnZCUE0yVHJQTm82VEV0bGZpVExtZ2NLVC1zNnktUWdKMzhPZXdjbThjRzZpdnpiaXN0eVV2czhWMzVmelE,English,,1,2016-07-07,Steve Metcalfe,Doesn't work at all,Doesn't work at all on my new Samsung galaxy s7 edge,,
Silent Night,Google Play,ru.neverdark.silentnight,Z3A6QU9xcFRPRlA0T2VFNTl0VE9rdXlMR2FBUTdBQm9GM3FMbGdOS3p1OXN5NnNMdF9EVk9iM2ItUGtLSnUycVpYLVZ4MFFsTVViZTA1U05hcU8zd3l0aHc,English,,1,2016-06-22,Chloe Gillespie,Doesn't work at all,Don't bother.,,
Silent Night,Google Play,ru.neverdark.silentnight,Z3A6QU9xcFRPSC1jVVIyVW5BZ0Q0dHhCelRSWXJkNzBsSmFZcU1SSFZTWjlFZmJpY2VJcnJVZy1XVlUxUUd0a29TblcyZXUyR25ZUDhBZVhfTFRtQ2dqWlE,English,,1,2015-12-24,lele love's,Silent night,A app that doesn't work,,
Silent Night,Google Play,ru.neverdark.silentnight,Z3A6QU9xcFRPRnY2eEU2eks1ZlRReGl0Ung3akZQZjNScXJCQk8wbE9ub3ZVS2dSY1pmcTFfVnltYjNDdGhKLVhhQm9iZFVpSGNnVkJIMUtJTG1SbGpaZlE,English,,5,2014-10-04,Ahmad Reza Nouredini,"",Very good,,
Silent Night,Google Play,ru.neverdark.silentnight,Z3A6QU9xcFRPRUhCalliY2lUc2s4cGlNYXVhbVZSaUd1a3RrNlNxbEs4NWYzeFhjZ19paUt6U05JS1l3VVdCNjA0clN6M0ItUEF0ZUlpODNfZ1dBUjBDdEE,Norwegian,,4,2016-06-19,Caoimhin Balyoz,Almost perfect,Just needs a weekend exception,,
Silent Night,Google Play,ru.neverdark.silentnight,Z3A6QU9xcFRPR19VdVpNQkU1QWNZdnRFVmdiRXJRNlo2RWpuTWNXU0t6VEIzM3pNeUpCeXRvRDM3amVhd3hjaTlRa01QWUNBRmxwME1WUkRWVWNGMXduMUE,Russian,,1,2016-05-01,Дмитрий Чирченко,"",Не работает на Sony Expedia z1,,
Silent Night,Google Play,ru.neverdark.silentnight,Z3A6QU9xcFRPRmJSZ2lJUW5LVUhVLVh0ZDkzTjQwV3BHNkdJTFdCNHNvTUE2ckhhLTl4dFplc3R1dGlOcHAtbFVwNEVMaFphWTlZSTZFdnNkeEdzSmNjZ0E,Russian,,3,2016-02-14,Дмитрий Матросов,"","Минус, убивающий весь смысл программы, отсутствует ""белый список"" для связи в любое время.",,
Silent Night,Google Play,ru.neverdark.silentnight,Z3A6QU9xcFRPRXlYYjI4QnpOWS1XeDZRNGFTblUxVC1RdlkyTTRKODNFNlgyWVNSR1doZ3Y1aW5ucXctZW01VVNFLVgwa2ZTYTVMWXlOczZBczU1TEdqZWc,Russian,,4,2016-02-04,Елена Вязникова,Отлично.,"Есть проблема. Если старт тайм меньше текущего, то при запуске не переходит в режим самолёта. Аналогично не выходит из него если выключить галочку в настройках.",,
Silent Night,Google Play,ru.neverdark.silentnight,Z3A6QU9xcFRPRTY4N0kzZGNxd2ZsU1FRVFF6NFIzWE9VaS1MblRXbFJCS2s4SG1naW9ic2xQakFESmh3R1hIaWM4ZEJpalJwVVhab0ZqVWlwS1B3cjB6WXc,Russian,,5,2014-10-22,Jan Tartak,Хорошее приложение.,"Все удобно, все в стиле автора.",,
Silent Night,Google Play,ru.neverdark.silentnight,Z3A6QU9xcFRPRXdoMWhGMUYtaVFHX3ZKWk83enF5c3I3RWhBU2J2TUdncWhkMUNuYTFxU1Fja1RFTzhPMmRsalpDMllWZmhlQlFiUUg4N1BLQXpDTkh0VGc,Russian,,3,2014-10-19,Anton Makarenko,"Круто, но",Постоянно отключается,,
Silent Night,Google Play,ru.neverdark.silentnight,Z3A6QU9xcFRPRnNLdG0wVHAtdHY4bXl0UG5TcXBCeUxBZHRzXzFxNFI0YWdHTExDcWlETFU4aXA5RFVEVHNVdFM4aUptMzR5ZkMyS0N2NFJqYncyT3B4cFE,Spanish,,2,2015-10-14,Martin Egan,No pone el celular en silencio,"Sólo activa el modo prioridad, lo cual ya hace el mismo android 5",,
Silent Night,Google Play,ru.neverdark.silentnight,Z3A6QU9xcFRPR0duWElkOFNESERPZHFSdndqa3ZXM3EtenJtLUNCeUdSU0tSXzVPV2Vqay1VTjBSam5jUUVYTG5XM0ZmMmdkbXlKR0dMRVVqeEp1LWFFbGc,Swedish,,5,2016-02-26,petter isaksson,"",Enkel och bra,,
