this is in general a nice client,o,2014-08-03,Florian D,4
with automatic camera upload coming in fall it will be much better,b,2014-08-03,Florian D,4
need auto upload and other feature but good start,b,2014-07-20,Brad Scarborough,4
please add auto sync,b,2014-07-18,Ronnie R. Winter,1
otherwise they are useless,o,2014-07-18,Ronnie R. Winter,1
going to try,b,2014-07-08,Brad Nagel,1
love the web interface but this need help,o,2014-07-08,Brad Nagel,1
using server six month now,b,2014-06-30,Ivan Buovac,4
overall stability even under heavy load,b,2014-06-30,Ivan Buovac,4
i would gladly pay for auto refresh and auto upload,b,2014-06-30,Ivan Buovac,4
important,o,2014-06-18,Jason Dolan,2
made my go black screen and did the same to my galaxy tab seems to drain memory,b,2014-06-18,Jason Dolan,2
please fix this,b,2014-06-18,Jason Dolan,2
but the android is useless and you try upload from the phone external the just crash straight away,b,2014-06-18,Jason Dolan,2
using a,b,2014-06-18,Jason Dolan,2
,o,2014-06-05,daniel scheuermann,4
very nice to get access to your on the go,o,2014-05-03,,4
nice well done,o,2014-05-03,,4
additional support for other feature would be appreciated,f,2014-05-03,,4
kudos,o,2014-05-01,Martin Horner,5
nice but please add auto functionality then i would rate this 5 star,f,2014-04-02,asif siddiqui,4
much better,o,2014-04-02,Alex Smith,5
work very nicely,o,2014-04-02,John Angel,4
love it,o,2014-04-02,John Angel,4
is a dream come true,o,2014-04-02,Lyderic Landry,5
