method comment,b,2014/12/13,,
show cached avatar,o,2014/12/13,,
catch exception,o,2014/12/13,,
avoid duplicate inserting to database,b,2014/12/13,,
make handler send all avatar info to thread code style,o,2014/12/12,,
improve method name,b,2014/12/12,,
code cleanup,b,2014/12/12,,
use handler to load avatar,b,2014/12/12,,
fix encrypted lib index off by one bug,b,2014/12/18,,
toast clear cache result,b,2014/12/18,,
reformat code,b,2014/12/16,,
update string,b,2014/12/16,,
clear thumb file,o,2014/12/15,,
code cleanup,b,2014/12/15,,
fix build error,b,2014/12/15,,
clear cache from database,b,2014/12/10,,
use to delete cache,b,2014/12/06,,
add method to,f,2014/12/06,,
update,b,2014/12/18,,
remove duplicate email,b,2014/12/18,,
support clear password,b,2014/12/11,,
custom also support email address auto complete typing,b,2014/12/11,,
auto complete user email login,b,2014/12/11,,
reformat code,b,2014/12/17,,
fix refresh animation layout,b,2014/12/17,,
make refresh expected,b,2014/12/17,,
use comment,b,2014/12/17,,
file name,b,2014/12/17,,
remove unused resource,b,2014/12/17,,
show last update time,b,2014/12/17,,
refresh expected,b,2014/12/17,,
custom setting menu,b,2014/12/16,,
use custom class,o,2014/12/16,,
revert delete account,b,2014/12/15,,
format,b,2014/12/13,,
stop camera upload service by account,b,2014/12/13,,
delete token only sign out,b,2014/12/11,,
fix build error,b,2014/12/11,,
remove fake string,b,2014/12/09,,
,o,2014/12/09,,
delete account info in database,b,2014/12/09,,
save account info to database,b,2014/12/09,,
add table in database,f,2014/12/09,,
improve code style according to convention,o,2014/12/09,,
change method and field name more readable,b,2014/12/08,,
,o,2014/12/08,,
,o,2014/12/08,,
use service to get account info frequently,b,2014/12/08,,
implement sign out logic,b,2014/12/07,,
fix review ticket,b,2014/12/10,,
apply custom style code cleanup,o,2014/12/03,,
revert,b,2014/12/02,,
use layout,o,2014/12/02,,
fixed build error,b,2014/12/01,,
improve refresh algorithm,b,2014/12/01,,
fix refresh algorithm error,b,2014/12/01,,
load signing from file instead of uncommenting manual signing code,b,2014/11/29,,
updated for new build,f,2014/11/29,,
redesign refresh algorithm,b,2014/11/29,,
method name,b,2014/11/29,,
close 179,b,2014/11/25,,
close 154,b,2014/11/25,,
close 186,b,2014/11/25,,
change expire time to 10,b,2014/11/24,,
force update view,b,2014/11/24,,
force to update directory,b,2014/11/24,,
fix for new directory structure,b,2014/11/24,,
must be changed back going to 21 see 184,b,2014/11/24,,
version name is now max 16 byte long,b,2014/11/24,,
fix 188,b,2014/11/24,,
update to 0144,b,2014/11/24,,
migrate to,b,2014/11/21,,
reformat code indention,b,2014/11/21,,
,o,2014/11/21,,
update built version,b,2014/11/20,,
update configuration,b,2014/11/20,,
close 173,b,2014/11/19,,
fix fast directory browsing failed error 170,b,2014/11/19,,
code cleanup,b,2014/11/19,,
fix incorrect import,b,2014/11/18,,
change target to 19,b,2014/11/18,,
add home up button to close 157,f,2014/11/18,,
update,b,2014/11/18,,
pull from,o,2014/11/18,,
code cleanup,b,2014/11/18,,
