comment debug log,b,2015/5/13,,
beautify method name,b,2015/5/14,,
beautify comment,b,2015/5/14,,
implement database upgrade and downgrade,b,2015/5/14,,
remove duplicate string,b,2015/5/14,,
improve string,b,2015/5/14,,
use native way to load a noted by document use if you really need it,b,2015/5/13,,
always consider the native way to load instead of using of,b,2015/5/13,,
improve comment,b,2015/5/14,,
revert commented toast,b,2015/5/12,,
calculate progress by it is not the best way to calculate total size by we can not get an accurate value in this way,o,2015/5/12,,
an alternative way are expected in the future,b,2015/5/12,,
handle plural correctly,b,2015/5/12,,
