improve variable name,b,2015/6/09,,
drop the old context menu,b,2015/6/15,,
restart task in an elegant way,b,2015/6/13,,
support manage download upload task,b,2015/6/11,,
add new string,f,2015/6/11,,
improve comment,b,2015/6/11,,
,o,2015/6/11,,
sort by name,b,2015/6/11,,
support sort file in descending order,b,2015/6/11,,
add new string,f,2015/6/11,,
update,b,2015/6/15,,
update,b,2015/6/15,,
update,b,2015/6/15,,
fixed typo,b,2015/6/08,,
fix typo,b,2015/6/05,,
