then get file server link from server then upload all block to file server at the same time,b,2016/3/12,,
name and update comment,b,2016/3/12,,
update configuration,b,2016/3/11,,
use instead of password to open the encrypted,b,2016/3/05,,
this patch increment the database version the meaning of is changed,b,2016/3/26,,
update,b,2016/3/28,,
update,b,2016/3/28,,
translate commit,o,2016/3/25,,
add some margin between control,f,2016/3/24,,
fix bad request password expired when clicking enc libs,b,2016/3/24,,
update version code,b,2016/3/24,,
override event to hide bottom sheet showing,b,2016/3/24,,
code clean up,o,2016/3/24,,
beautify bottom sheet layout,o,2016/3/22,,
support 1,b,2016/3/21,,
use for android integration of multiple icon provider such,b,2016/3/21,,
keep icon and color consistent with desktop client inspired,f,2016/3/21,,
update,b,2016/3/08,,
support replace already exist file uploading,b,2016/3/08,,
fix typo,b,2016/3/05,,
update version code,b,2016/3/05,,
update,b,2016/3/05,,
update,b,2016/3/05,,
notify user duplicate file is about to upload user can choose to cancel or proceed,b,2016/3/05,,
