good to gain information,b,2016-01-15,Kulveer Somal,5
awesome in slow connection but wish more feature,b,2016-01-15,Mushfiqur Rahman Shuvo,5
good,o,2016-01-14,Than Oo,4
i think the is the largest library in the world,f,2016-01-14,Marjana Konica,5
great source of knowledge from everything around the world,o,2016-01-14,Daniel Rykowski,5
a great for a great web,o,2016-01-14,Kirvy Morales,5
everything search,b,2016-01-14,Aslam Khan,1
excellent,o,2016-01-14,Haresh Jogani,5
very nice,o,2016-01-14,Aman Kishore,5
good,o,2016-01-14,sallu abhi,4
informative easy to handle,f,2016-01-14,Vijay Sundhar,4
five out of five,o,2016-01-14,Pinaksir For Chemistry,5
ill try it,o,2016-01-14,William Kenneth Trinidad,5
very nice,o,2016-01-13,santhosh srikanth,5
ha great information,b,2016-01-13,Lane Olson,5
great,o,2016-01-13,Kayla Posey,5
never really have any problem with it,o,2016-01-13,Kayla Posey,5
keep up the great work,o,2016-01-13,Kayla Posey,5
very good,o,2016-01-13,Dr Babar Ali Shad,4
useful,o,2016-01-13,Ramarao Pandrangi,5
very useful,o,2016-01-13,Ramarao Pandrangi,5
perfect for investigator on the complete with function you save your page,b,2016-01-13,Kun Racoon,5
good,o,2016-01-13,vidyasagar rajakumar,5
i would be reading and scroll n accidentally hit on link and end up there,b,2016-01-13,Sandra Fuiten,4
now i am loving the new fix with it instead popping up at the bottom and giving me the choice of going to link,b,2016-01-13,Sandra Fuiten,4
5 star now from i love my,o,2016-01-13,Sandra Fuiten,4
my chrome is crashing again and again i am opening any page of on it,b,2016-01-13,TUSHAR SINGH,2
loving this,o,2016-01-13,Vivek Bhardwaj,5
this is a fantastic educational learning about different topic is,o,2016-01-13,Terry Bedford,5
very useful,o,2016-01-12,Nadeem Aslam Janjua,5
good,o,2016-01-12,Shashank yadav,1
it been many year is helping all people by sharing ton and ton of information great job n hat off to all of them,o,2016-01-12,Mieet Mehta,5
thanks for this great,o,2016-01-12,Nev in,5
also really appreciate the dark theme,f,2016-01-12,Nev in,5
white text black background is the way to go on,b,2016-01-12,Nev in,5
treasure trove of knowledge,o,2016-01-12,Roots radics,5
i love the but i cannot imagine how many student this site,o,2016-01-12,Luke Delaney,5
,o,2016-01-12,Lisa Marie Signorelli,5
it is very amazing,o,2016-01-12,Shivesh Srivastava,5
we can find meaning or history of any word or sentence,o,2016-01-12,Shivesh Srivastava,5
nice application,o,2016-01-12,Ajith Kumar,5
excellent,o,2016-01-12,Kausik Dey,5
heaven for knowledge seeker,f,2016-01-12,Litam Ghosh,5
great,o,2016-01-12,Dylan Barfield,5
informative,o,2016-01-12,Ghazala Arain,5
,o,2016-01-12,sabeer basith,4
nice thing in,o,2016-01-12,Nyomenda Jamhuri,5
superb,o,2016-01-12,tharun doddi,5
i like it,o,2016-01-11,Totul Raj,2
like the website,o,2016-01-11,Zackary Piep,5
is it free for,o,2016-01-11,Raju Shrestha,1
too much useful,o,2016-01-11,Neel Kathiari,5
super,o,2016-01-11,Ansu Kuriakose,5
,o,2016-01-11,Jai Ram,5
,o,2016-01-11,Ashok Sakpal,1
very useful all,o,2016-01-11,Khalak Umar,5
feeling great,o,2016-01-11,mohamad shahrizan,5
yes,o,2016-01-11,Saloni Chaudhuri,5
this wa exactly the i wa looking for,o,2016-01-11,Saloni Chaudhuri,5
it is,o,2016-01-11,Vaibhav Arora,5
good,o,2016-01-11,rafique shah,5
,o,2016-01-11,PRABHAT SHARMA,5
i use it all the time,o,2016-01-15,Steve Royce,5
super great,o,2016-01-15,Arya Dhanaynjia,5
great and useful too,o,2016-01-15,Yeakin haider,5
good,o,2016-01-15,Archit zsm,5
greatest source of knowledge,o,2016-01-15,Charlie Plett,5
this is i like this more the desktop version,b,2016-01-15,Rick Valentine,5
great job and my hat go off to the developer,o,2016-01-15,Rick Valentine,5
best,o,2016-01-15,Manoj Dashana,5
great,o,2016-01-16,Mitun Das,5
excellent,o,2016-01-16,Rama murthy,5
you get what you want,o,2016-01-16,gautam jain,5
info on demand,b,2016-01-16,Joan Ewen,5
rock and i will be starting a new channel called on,b,2016-01-16,Naveen D. S,4
,o,2016-01-16,Oliver Ndoro,5
it better using should have an option to save image to gallery,b,2016-01-16,Alok Srivastava,5
great,o,2016-01-16,jiju atheena,5
free education,o,2016-01-16,Parvez Ahmed,5
use,o,2016-01-16,Girish Chand,1
it is a which is a useful one in our daily life,o,2016-01-16,Mittapally Saichandana,5
i liked it,o,2016-01-16,Randeep Dosanjh,5
to help for our,o,2016-01-16,keerthi H D,5
the saved page feature offer also allows to read it,f,2016-01-16,fajr farhan,5
it good for the information point of view,b,2016-01-16,dhananjay kumar,5
good,o,2016-01-16,nagesh Poojari,4
great for quick knowledge,o,2016-01-16,Vishwas Verma,4
tight,o,2016-01-15,Steven Mitchem,4
good for knowledge,o,2016-01-15,deepak khamankar,5
best useful,o,2016-01-15,Devendra Pratap singh,5
please clear this thing that i copied the content and pasted that to m word and office 5 then i hit with problem that only 4 to 9 line copied so please help me in this thing,b,2016-01-15,Divakar Sharma,4
,o,2016-01-15,srikanth burru,3
thank you,o,2016-01-15,zerra yordano,5
u download this,o,2016-01-15,Mahmud Ibrahimi,5
fantastic,o,2016-01-17,Ralf Fensch,5
i love ancient,o,2016-01-17,Ralf Fensch,5
this is the for whatever you looking for,o,2016-01-17,Ralf Fensch,5
just,o,2016-01-17,Ralf Fensch,5
keep it up,o,2016-01-17,Ralf Fensch,5
i like read another article,o,2016-01-17,marof treeter,5
,o,2016-01-17,Thubdhan Giachho Negi,4
i love it,o,2016-01-17,tiana pitts,5
i just use this i m not going search on,o,2016-01-17,Axel Shukla,5
note 5,b,2016-01-17,Rexor Lexor,5
fantastic application,o,2016-01-17,Rexor Lexor,5
together with the gigantic archive backstairs this might be the most best designed in the world,f,2016-01-17,Rexor Lexor,5
the power of knowledge in the palm of my hand,f,2016-01-17,nayanjyoti deka,5
,o,2016-01-17,Amiya Behera,1
to get info very easily,o,2016-01-17,Faisal Khan,4
i just love this,o,2016-01-17,Sweta soni,5
it is for my phone,b,2016-01-17,Bharath Bhartth,3
extremely useful,o,2016-01-16,mahendra patel,5
this is helping me in my homework,o,2016-01-16,Angelo Valenzuela,5
,o,2016-01-16,Angelo Valenzuela,5
,o,2016-01-16,karan kumar,1
perfect except it lack the book and print feature of,b,2016-01-16,Clayton Williams,4
it is to good to find any think,o,2016-01-16,Mehta Vrushank,5
very useful,o,2016-01-16,Felix Korir,4
,o,2016-01-16,shivaraj sanamani,5
really,o,2016-01-16,Sounak Rakshit,4
very good software,o,2016-01-16,Sallu Ali,5
great information site,b,2016-01-16,vikrant tanwar,5
right use of,o,2016-01-16,vikrant tanwar,5
l get every information from,b,2016-01-16,Sundar Dhavan,5
much faster with the update,b,2016-01-16,Jorge Mercado,4
not many image a the but still good,b,2016-01-16,Jorge Mercado,4
prolific coverage of almost all the topic in the world,o,2016-01-18,Rakesh Nandwani,5
excellent compilation by one and all who contribute and enlighten by sharing knowledge,f,2016-01-18,Rakesh Nandwani,5
get on it,o,2016-01-18,Tavis Highfill,4
you chose to not include it,b,2016-01-18,Tavis Highfill,4
,o,2016-01-18,Gi Pourya,5
just amazing,o,2016-01-18,Jia'nan Zhang,5
nice touch,o,2016-01-18,Chris Bryan,5
could you please add language so anybody would be able to use his specific language,f,2016-01-18,Sonu Raaje,4
it my always,o,2016-01-18,Biswajit Kumar Jena,5
long a it stop people adding false information,o,2016-01-18,Personality Strikes,5
this new update is great,b,2016-01-18,Hasan Prishtina,3
except the new share bar is very,o,2016-01-18,Hasan Prishtina,3
why did you have to make it across the screen,b,2016-01-18,Hasan Prishtina,3
please fix it and change it back to the original,b,2016-01-18,Hasan Prishtina,3
getting better everyday,f,2016-01-18,Harry Carson,5
doe everything i want and ha always been very stable,o,2016-01-18,William Thomas Ramey,5
i use almost constantly,b,2016-01-18,William Thomas Ramey,5
need language support in every article,f,2016-01-18,Sovanjan Banerjee,4
very good for comparative study,b,2016-01-18,Nelson H,5
like anything trust but verify,b,2016-01-18,Nelson H,5
very fast and reliable,b,2016-01-18,Dotun Makun,5
an absolutely indispensable and required,o,2016-01-18,Bill Pier,5
the new is not if make it harder to share or save it is stationary at the top of the page,b,2016-01-18,Coire Jones,3
it would just be easier to coalesce all sharing and saving into the menu which you can access from anywhere on the page,b,2016-01-18,Coire Jones,3
get rid of the,b,2016-01-18,Coire Jones,3
stop,b,2016-01-18,glenn opdycke-hansen,4
thank you create wonderful,o,2016-01-18,Gaurav Mahajan,5
you are best,o,2016-01-18,Gaurav Mahajan,5
need more advanced,o,2016-01-18,Satyajit Sahoo,5
it is best for student,o,2016-01-18,Vishal Kumar,5
,o,2016-01-18,Saket Singh,5
good,o,2016-01-18,na ik,5
useful,o,2016-01-18,Tubih Hehehehe,5
it good and easy to use,o,2016-01-18,Harshs Sharma,5
loved,o,2016-01-18,Oye Hoy,5
superb very easy to search any thing,o,2016-01-18,Hardik Mokani,4
oh,b,2016-01-18,NISHIKANT PATIL,5
really it is a fantastic,o,2016-01-18,NISHIKANT PATIL,5
this is not great at showing content and is too simplistic,o,2016-01-17,Johnson Lee,2
always hiding,o,2016-01-17,Johnson Lee,2
love it,o,2016-01-17,Ibrahim Tijjani Giazhe,5
great application,o,2016-01-17,vk kumar,5
nice star,o,2016-01-17,avik barman,5
latest update crash at start up,b,2016-01-19,tin man,1
it will be great if we can save in email account and can load same stuff we change mobile,b,2016-01-19,gyan shrestha,4
awesome knowledgeable fact and helpful always,o,2016-01-19,Priyank Joshi,5
best application it very for me,o,2016-01-19,majumder himadry shekhor,5
very nice thanks very useful again thanks,o,2016-01-19,PrAvYu D LiAR,4
keep,o,2016-01-19,Claire Jones,5
best for knowledge i use it daily to keep myself updated on every issue,b,2016-01-19,mubin shaikh,5
awesome,o,2016-01-19,Allan Costa,5
this is very no and explains what you need,o,2016-01-19,Jacob Nachimson,5
information brought down to easy to search loved it,o,2016-01-19,NITIN VERMA,5
very useful,o,2016-01-19,Ajith Krishna,5
,o,2016-01-19,Malinda Harshana,5
amazing,o,2016-01-19,Alee Jee,5
helpful,o,2016-01-19,Robert Imanuel Nunuhitu,5
very handy,o,2016-01-19,Bob Hodge,5
in i wish it had an feature to make easy donation to the foundation,f,2016-01-19,Bob Hodge,5
would be the most convenient way for me to help support the good work,b,2016-01-19,Bob Hodge,5
amazing,o,2016-01-19,amit kumar,5
,o,2016-01-19,Paul Lowenstein,1
addictive,o,2016-01-19,Deepak Bharadwaj,5
the work very but saved page do not update properly and the absence of template significantly hinders navigation,b,2016-01-19,Demna Janelidze,4
doe it possible to add a feature to disable browsing history in future,f,2016-01-19,Riyadus Solihin,5
like private browsing in or incognito in chrome,b,2016-01-19,Riyadus Solihin,5
thank you,o,2016-01-19,Riyadus Solihin,5
excellent,o,2016-01-19,SIKHA KONAR GHOSH,5
great,o,2016-01-18,Keshavbhai Patel,5
i love this the fact i can click on word to quickly learn what they mean and go into that article without losing my make studying thing so much easier,o,2016-01-18,Sandra George,5
excellent,o,2016-01-18,Rudresh Bhatt,5
amazing,o,2016-01-18,rahul kanaskar,3
please provide in language,f,2016-01-18,Vikas Sharma,5
i love anything you want to know come to the free encyclopedia,o,2016-01-18,Puneet Kumar,5
always a top drawer reference medium with interdisciplinary link you can back through without getting lost,b,2016-01-18,Harry Whitecross,5
article of the day can be informative at time,o,2016-01-18,Harry Whitecross,5
very good,o,2016-01-18,RAMESH AGRAWAL,5
happy 15th birthday,b,2016-01-18,I Putu Bagus Widya Wijaya Pratama,5
i love this i search many thing in,o,2016-01-18,Rahul Kumar,4
it really easy and informational,o,2016-01-18,Shival gupTa,5
quick and easy to use,o,2016-01-18,Ali S,5
if all worked a well a this one,o,2016-01-18,Ali S,5
all the info i need and say it unreliable it reliable,b,2016-01-18,Kevin Yu,5
i have to bear the weight of my voluminous encyclopedia to read article and have to buy new volume to be updated,b,2016-01-18,SANNY SYP,5
now the knowledge is reachable anytime in my cellphone,b,2016-01-18,SANNY SYP,5
really amazing,o,2016-01-18,SANNY SYP,5
due to lack of ability to close all tab,b,2016-01-18,Brendan Boner,4
nothing more annoying having to click hundred of time to get a clear,b,2016-01-18,Brendan Boner,4
very good i use it all the time,o,2016-01-18,Larry Zimnowski,5
great functionality and data,b,2016-01-18,Sparse Runner,5
if there were tab,b,2016-01-18,gani ganev,5
one cannot only read about one i myself tend to open more one tab in order to get a much larger perspective on the topic reviewed,f,2016-01-18,gani ganev,5
better application for reading doing so on a browser,b,2016-01-20,Sylvan Khater,5
the saving page ability is the best,b,2016-01-20,Sylvan Khater,5
cancer,o,2016-01-20,Elizabeth Delbridge,5
add and language for more,f,2016-01-20,Rahul Tipatre,3
i love it this software provide u lot of knowledge,o,2016-01-20,Qamber Baloch,4
material design,o,2016-01-20,Dmitrij Podabed,5
it is amazing one i loved lot,o,2016-01-20,Jisham calender,5
mass,b,2016-01-20,Ganesh Lic,5
mass,b,2016-01-20,Ganesh Lic,5
this is very useful,o,2016-01-20,Manish Kumar,4
amazing it helped me lot for my project thanks and,o,2016-01-20,Shreyas Raikar,5
,o,2016-01-20,Abhinav Rajput,5
,o,2016-01-20,Gloria H,5
new update ha all capability to use on smart device,b,2016-01-20,A Google User,5
thanks to,o,2016-01-20,A Google User,5
best,o,2016-01-20,Lalit Mohan Verma,5
nice,o,2016-01-20,Tahir Khan,5
i am very much pleased with it,o,2016-01-20,Nazmul Hussain,5
i can find word those can not be found in medical dictionary,b,2016-01-20,Nazmul Hussain,5
in a it is splendid but problem is it can not be used,o,2016-01-20,Nazmul Hussain,5
lovely,o,2016-01-20,ASHOK KUMAR SINGH,5
it amazing,o,2016-01-20,Ijaz Turki,5
,o,2016-01-20,Savca Eugen,5
good application for increase knowledge,o,2016-01-20,jvilantino pieter,4
it,o,2016-01-20,Sandeep Sarkar,4
great work perfectly fine,b,2016-01-19,George Spencer,5
i am a great follower and user of childhood,b,2016-01-19,Madhurjya Ritu Das,5
learning and growing with,o,2016-01-19,Madhurjya Ritu Das,5
nice,o,2016-01-19,abhi yadav,5
save article to read later or is the best feature,b,2016-01-19,Gurdeep Singh,4
i face problem searching,b,2016-01-19,Gurdeep Singh,4
please fix it,b,2016-01-19,Gurdeep Singh,4
near perfect,o,2016-01-19,guru pHd,5
very helpful,o,2016-01-19,anant kumar,4
awesome must have i must say,o,2016-01-19,Soham Neogi,5
yup still like it,o,2016-01-19,Peter Stefanovic,4
a w e s o me,o,2016-01-19,Hugo Estrada,5
i like it,o,2016-01-19,Pyae Sone,5
liked it mate,o,2016-01-19,Uriel Araujo,4
one of the best installed on my phone,b,2016-01-19,Nazareno Fazio,5
close to how a perfect should be,o,2016-01-19,Nazareno Fazio,5
like search you want to know the meaning of the world,o,2016-01-19,Mj Cuer,5
perfect,o,2016-01-21,Trishan Mohip,5
i trust neutrality,f,2016-01-21,Snehasish Ghosh,5
job team,o,2016-01-21,MusicalMagical Minecraft Lover,5
it is very easy to find and read about anything here,o,2016-01-21,Rahul Kumar,5
very useful,o,2016-01-21,Triyasha manna,5
is a good and this is useful and helpful for me and for all of u,o,2016-01-21,Suraj Priyadarshi,4
help u to increase our knowledge,b,2016-01-21,Suraj Priyadarshi,4
search responding is very it is for development of smart education,b,2016-01-21,avishek roy,3
amazing,o,2016-01-21,ISMAAIL ASSELI,5
good,o,2016-01-21,Arshu Arshad Vp,3
problem with copying the few sentence were copied,b,2016-01-21,Lester Perez,1
,o,2016-01-21,gourav kumar,4
this is best over word for knowledge,b,2016-01-21,Jayesh Prajapati,5
good for search,b,2016-01-21,Jaideep Kumar,4
the best knowledge,o,2016-01-21,Swarup Basak,5
,o,2016-01-21,Sasan Satarian,5
very good,o,2016-01-20,Sam Sk,5
i have all the info,o,2016-01-20,Zoey Gill,5
best,o,2016-01-20,Zoey Gill,5
information,b,2016-01-20,Dashrath Satpute,5
but i used it requires an,o,2016-01-20,Joanna Olores,2
i love the interface is a pleasure to the dark mode is kudos to the,o,2016-01-20,Conner Holt,5
good,o,2016-01-20,eslam almasry,5
hour of,o,2016-01-20,wade creecy,5
subsection wont stay open,b,2016-01-22,Stuart Moss,5
now working well,o,2016-01-22,Stuart Moss,5
excellent,o,2016-01-22,Faijas Mhd,5
very nice,o,2016-01-22,Nematss 7,5
very fast no lag easy to use,b,2016-01-22,Madhura Ghatge,5
i use everyday and i love the new save feature,o,2016-01-22,Art Stuckman,5
this is essential to life in the future and now,o,2016-01-22,Art Stuckman,5
show incorrect password all the time,b,2016-01-22,Subhankar Dey,2
hard to live without,b,2016-01-22,Hunter Hunter,5
but look out for other asking money to use with exactly the same option,o,2016-01-22,Charlie London,5
lovely,o,2016-01-22,Akbar Zomorodi,4
good,o,2016-01-22,Siddhartha Prabhakar,5
serve the purpose just great,b,2016-01-22,jai jadhav,5
informative,o,2016-01-22,Bijay Thangjam,5
nice,o,2016-01-22,Aparna Pavani,5
yo,o,2016-01-22,manoj kumar,4
i love it dude,o,2016-01-22,Dilakshan Brock,5
tare,o,2016-01-22,I Alexonne,5
great,o,2016-01-22,Andy Beardshaw,5
best tool,o,2016-01-22,Hgd Uuii,5
i love the interface,o,2016-01-21,Pritish Mondal,5
lot of like,o,2016-01-21,Vaibhav Bhalavi,5
i home school this help with everything and trust me i say it ha almost all the information in the world try it you get so much information,b,2016-01-21,Heather English,5
nice,o,2016-01-21,Sunny Bright,5
great,o,2016-01-21,Avinash Yadav,4
tried to download it but i try it doe not work,o,2016-01-21,Julren Escat,1
good,o,2016-01-23,Vishal Harinath,5
very useful,o,2016-01-23,Mr. Pekka,5
far so good,o,2016-01-23,Andriya Mj,5
for simple,o,2016-01-23,Andriya Mj,5
very useful,o,2016-01-23,Andriya Mj,5
very fr educational,f,2016-01-23,Vishal Tomar,5
is a great and useful,o,2016-01-23,michael berthiaume,5
it just work beautifully,b,2016-01-23,Andrew Causon,5
,o,2016-01-23,kuga tharshan,5
i love this it help a lot to me,o,2016-01-23,prakash kishore,5
we all owe much to,o,2016-01-23,Jasur Hasanov,5
it is really good for a student,o,2016-01-22,Maher Jahan Zinnia,5
very handy,o,2016-01-22,Claude Van Horn,4
such a good,o,2016-01-22,Michael McFadden,5
the daily random complete with internal link to major news story and obituary is fantastic,b,2016-01-22,Michael McFadden,5
i once used to look up this or i now discover amazing information daily,o,2016-01-22,Michael McFadden,5
a lifestyle for anyone with an inquisitive nature,o,2016-01-22,Michael McFadden,5
updated with on lollipop,f,2016-01-22,Gracenote Inc.,5
still love,o,2016-01-22,Diana Smith,5
good,o,2016-01-22,Sanju Vaishnav,4
access to knowledge,f,2016-01-22,Angelo Rauseo,5
like,o,2016-01-24,behzad ahmadi,5
great i really loved it,o,2016-01-24,Ahmed Hassan,5
i like this application much,o,2016-01-24,Bogra Shahin,5
an i learn much from,o,2016-01-24,Jordan.,5
,o,2016-01-24,Amin Taami,4
,o,2016-01-24,Ahsan Mohsin,5
at,o,2016-01-24,Ewerton Jc,5
found performance issue on this,b,2016-01-24,Aalok Sathe,5
prefer instead,b,2016-01-24,Aalok Sathe,5
it is a very useful for study,b,2016-01-24,Khursheed Alam,5
5 love keep it up,o,2016-01-24,Rob Twist,5
identity card,f,2016-01-24,ajay tiwari,5
very large,o,2016-01-24,Fayis Mt,5
thank you people have much about various subject,o,2016-01-24,Sameer Makwana,5
awesome,o,2016-01-24,sonia tuggar,5
love it,o,2016-01-24,medina sadiku gashi,5
excellent,o,2016-01-24,Anusha raj,5
it give all information,b,2016-01-24,Mudit Kapruwan,5
valuable,o,2016-01-24,David Nethononda,5
very easy to use and informative,o,2016-01-24,RXDOC73,5
in this update also it same,b,2016-01-24,robert rocks,1
nice,o,2016-01-24,md. danish Alam,5
good,o,2016-01-24,Ram Bhandari,4
hot,b,2016-01-23,Dwayne Walker,5
great o,o,2016-01-23,Bart Simpson,5
better,o,2016-01-23,sai kishore,1
,o,2016-01-23,kumar gaurav,5
it ha a can not be save need to go to history and then reopen it to save,b,2016-01-23,Tom Wong,5
love it,o,2016-01-23,Terry Bowman,5
android 511 lollipop,f,2016-01-23,Bijan Emami,4
great work great,o,2016-01-25,Marie Adams,5
which can also be saved,o,2016-01-25,Aldo Franquez,5
loved it,o,2016-01-25,Aldo Franquez,5
great helper,b,2016-01-25,ARYAMAN DIXIT,5
best for me very nice excellent,o,2016-01-25,Abdul sattar,5
use this application very often,o,2016-01-25,Ella Beilin,5
thanks,o,2016-01-25,Ella Beilin,5
it,o,2016-01-25,Abdirahman Abduwahab,4
please download,b,2016-01-25,Diana Vichow,5
top tool for info,o,2016-01-25,V. Fisher,5
super,o,2016-01-25,Vince Breen,5
superb application,o,2016-01-25,Parag Kamble,5
just tried,b,2016-01-25,Syahputra Harisson,5
it a good,o,2016-01-24,abhilasha Kalra,5
very accurate really manage the system to control from data,b,2016-01-24,Mohammad Andrysetiawan,5
always like it loved it,o,2016-01-24,pratik shilwant,5
good,o,2016-01-24,Mie Vanity,4
but will this support multi window,b,2016-01-24,Mie Vanity,4
it help me many time,o,2016-01-24,Ajit Singh,5
,o,2016-01-24,JOE JENKINS,5
and this is my church,o,2016-01-24,Severin Miller,5
well almost anyway,b,2016-01-24,Severin Miller,5
i like it awesome,o,2016-01-26,Tavier Jackson,5
,o,2016-01-26,Pranav kumar,5
amazing 4 star,o,2016-01-26,Tanzila Aslam,4
nice,o,2016-01-26,Isikeli Talala,2
can be use,o,2016-01-26,A P Singh,4
easy no sign in required work great,b,2016-01-26,Nick Murphy,5
good,o,2016-01-26,paul norbury,5
opossum,o,2016-01-26,Patrick Swick,5
even the newest i still got many crash,b,2016-01-26,Yubbie Herlasto,5
nice web,o,2016-01-26,mushtaq ahmed,5
good,o,2016-01-26,Om Parkash Sharma,5
it great,o,2016-01-25,Tonoy Borah,5
knowledge bank,f,2016-01-25,Chitransh Saxena,5
amazing info,o,2016-01-25,Gururaj Shetty,5
it is very useful,o,2016-01-25,John Andrei Estrada,5
for doing project and,o,2016-01-25,John Andrei Estrada,5
you need to go to the browser,b,2016-01-25,John Andrei Estrada,5
this help me all the time i need it,o,2016-01-25,Mahir Khan,5
easy to use very intuitive,o,2016-01-25,Kyla Garvey,5
i liked it the be,o,2016-01-25,Zlatan aviero imbrahamovic,3
dude,o,2016-01-25,Ever Navarro,5
i love,o,2016-01-25,radasinxD,5
just loving it,o,2016-01-25,mujahid nazir,5
amazing really,o,2016-01-25,Ali Khan,5
it recommended,o,2016-01-27,abdalla Akuyam,4
a firm,o,2016-01-27,Tjaart van der Walt,4
endless lovely layout and for,o,2016-01-27,Tjaart van der Walt,4
very educating,o,2016-01-27,mohamed hodroge,5
page loading is very slow sometimes,b,2016-01-27,mohamed hodroge,5
criminal justice major,f,2016-01-27,Melissa Huitema,5
great for,o,2016-01-27,shubham bhaskar,5
i want to give it 10 star,b,2016-01-27,raja jee,5
i just love it,o,2016-01-27,raja jee,5
love it,o,2016-01-27,Andrew Whitacre,4
just wish there wa a way to link to section of a page like you can,f,2016-01-27,Andrew Whitacre,4
it is wonderful it is amazing then compare to other,o,2016-01-27,Abhikaran Insan,5
it ha everything,b,2016-01-27,Meenu Yadav,5
help a lot in school activity very useful install,o,2016-01-27,Meenu Yadav,5
very good,o,2016-01-27,Aung Kyaw Tun,5
it is an and very i have ever used,o,2016-01-27,Arun Sanker,5
try this,b,2016-01-27,Arun Sanker,5
bug,b,2016-01-27,Mohammad Ali Khan Mojlish,4
fantastic,o,2016-01-27,Fabio Correa,5
keep all sort of information on my fingertip,b,2016-01-27,Fabio Correa,5
efficient,o,2016-01-27,Fabio Correa,5
great design,o,2016-01-27,Fabio Correa,5
help a lot,o,2016-01-27,Ajith Vaisakh,5
th,o,2016-01-27,rameshwar singh,5
thanks for foundation to made this,o,2016-01-27,bhupendra prajapat,5
respect,f,2016-01-27,bhupendra prajapat,5
best,o,2016-01-27,muskan jaiswal,5
very nice loved it very much,o,2016-01-27,manish kumar,5
best for finding study material,b,2016-01-27,vedaant baheti,5
i learning any,o,2016-01-26,Avazi Porru,5
this is the best,o,2016-01-26,Vincent Provost,5
this is amazing,o,2016-01-28,Abhishek Kumar,5
intellectual for all,o,2016-01-28,SREENOO BASAVA,5
great,o,2016-01-28,shashank singh,5
the better way to learn,o,2016-01-28,Karthik V,5
very informative,o,2016-01-28,Harsh Pupneja,5
it very useful,o,2016-01-28,Neha J,5
great,o,2016-01-28,Hamza Arif,4
,o,2016-01-28,Far Han,5
i think this going beat it very much,o,2016-01-28,Rubinsingh Singh,5
could you add the merge tab option like chrome did with the recent button,b,2016-01-28,Dyddy Kong,5
otherwise it is a beautiful,o,2016-01-28,Dyddy Kong,5
it wa really useful and it really help me,o,2016-01-28,Chix Babe,5
nice,o,2016-01-28,Aniket Amrutkar,4
would be great saved page were attached to the user,b,2016-01-27,Leah Wall,3
i had to factory reset and i lost all my saved page,b,2016-01-27,Leah Wall,3
can no longer save page most recent update,b,2016-01-27,Leah Wall,3
good,o,2016-01-27,mahdi kia,5
the best educational for me,o,2016-01-27,Isaac Muriithi,5
great content and workability,o,2016-01-27,Isaac Muriithi,5
great,o,2016-01-27,Thein Than Htike,5
love it,o,2016-01-27,Iqra Saeed,5
this just getting better and better,f,2016-01-27,A Google User,5
please put a back the way it wa,f,2016-01-27,Blip Baker,4
i guess this is the best android,b,2016-01-29,ahmed khaled,5
i have ever seen,o,2016-01-29,ahmed khaled,5
not like other seems like a web page loaded in an,b,2016-01-29,ahmed khaled,5
best experience i had,o,2016-01-29,ahmed khaled,5
on the computer i always have to type in the website but with my phone i can just click on the type in the and get the information,b,2016-01-29,Arielle Wright,5
easy and simple like that,o,2016-01-29,Arielle Wright,5
awesome,o,2016-01-29,Jayadeep Jaidip madhav,5
good encyclopedia,o,2016-01-29,Tawfeeq khan,5
it taste good,o,2016-01-29,Le' Moob Man,5
,o,2016-01-29,Harsh Agrawal,5
language not supporting,f,2016-01-29,Jay Raturi,1
it stop installing it get to 86,o,2016-01-29,Samuel Ajayi,1
,o,2016-01-29,John Wulah,5
it easy to find info about any thing on your mind just use it,o,2016-01-29,VARSHA TANDON,5
good one,o,2016-01-29,Radha Mudgal,4
,o,2016-01-28,Gilbert Ramos,5
it very useful for me a student,o,2016-01-28,Pebbles Lozano-Neri,5
you will enjoy using this,o,2016-01-28,Amariss Sidana,4
self explanatory,o,2016-01-28,Air Gorden,5
easy to use,o,2016-01-28,Milla Barnes,5
would help i cud get into iv lost load of file an amazon me 4 80 not even been on,b,2016-01-28,Sharron Bridge,1
nice k,o,2016-01-30,Rohit Malaji,5
i searched anything this is nothing to outstanding,o,2016-01-30,SRI PAWAN NAIDU,5
this got way better recently,b,2016-01-30,Dallin Hunter,5
2 star to 5 star,b,2016-01-30,Dallin Hunter,5
best,o,2016-01-30,anuj Patel,5
page are not saving a,b,2016-01-30,Ravi kumar Bitra,5
amazing,o,2016-01-30,Jagdish Chandra,5
like it,o,2016-01-30,Jagdish Chandra,5
awesome,o,2016-01-30,Avijit Das,5
good,o,2016-01-30,manish raghvani,5
it help to do my homework,o,2016-01-30,Bea Tabaoican,5
it nice it help me in every project,o,2016-01-30,Mohit Manjalkar,5
best knowledge,o,2016-01-30,A Rehman Shoro,5
sometimes the info is inadequate such lacking of photo of the person,b,2016-01-29,Rio Wong,4
kindly offer a search function to load a local search engine to continue searching of further info to compensate inadequacy if any,b,2016-01-29,Rio Wong,4
,o,2016-01-29,Punithachandrakanth C,5
awesome,o,2016-01-29,charanjeet payal,5
ocean of knowledge,o,2016-01-29,charanjeet payal,5
i love this,o,2016-01-29,Wisnu 28092003,5
awesome thanks,o,2016-01-29,Amish Verma,5
really useful to learn and gain knowledge,o,2016-01-29,Ashutosh Narayan,5
will b voice search added,b,2016-01-29,yogesh chakaravarthy,4
amazing,o,2016-01-29,Gamer Hacker,5
is the option to read in other language,f,2016-01-29,James Tytler,3
a essential,o,2016-01-31,Ayush POKHARNA,5
good,o,2016-01-31,rolly nava,5
,o,2016-01-31,حانیه شاپوری,5
a service keep it up,o,2016-01-31,yasir awan,5
thank u much 4 this,o,2016-01-31,Ayush Shah,4
please add swipe to dismiss tab facility,b,2016-01-31,Vinodkumar M,4
i think this is heavenly sent,b,2016-01-31,Innocent Natai,5
thank you,o,2016-01-31,Innocent Natai,5
it is very useful,o,2016-01-31,vamika sarin,5
rock always,o,2016-01-31,Mohit Guleriya,5
amazing for gaining knowledge,f,2016-01-31,Inthiyaz Ali Syed,5
best,o,2016-01-30,Hemang Rana,5
i like,o,2016-01-30,waqas awan,4
i loved it,o,2016-01-30,Sanjay G,5
really worthy,o,2016-01-30,Durga Prasad,5
but this cannot be used is a big problem,o,2016-01-30,Dilcy James,3
good,o,2016-01-30,Gagay Wilantika,5
like this,o,2016-01-30,Aung Zin Moe,2
it cool,o,2016-01-30,Roach clipp80,4
love my adding machine problem solved,b,2016-01-30,Selam Le eTHIOPIA,5
check out,b,2016-01-30,Selam Le eTHIOPIA,5
liked it,o,2016-01-30,kamaldeep singh,4
navigating nature,o,2016-02-01,arshid bhat,4
it is awesome,o,2016-02-01,Gowtham Moorthi,5
i give it 40000000000000000000000000000 star,f,2016-02-01,Debanjan chatterjee,5
this is just gonna make you smarter obviously,b,2016-02-01,Dhruv Sharma,5
load quickly and provides additional suggestion and saving feature,b,2016-02-01,Christian Lobo,5
love it,o,2016-02-01,Christian Lobo,5
i wish search result would prompt me to load the,b,2016-02-01,Christian Lobo,5
i love more,o,2016-02-01,Raju27 August,5
this is good,o,2016-02-01,Denmar Mambag,3
add more image per the information,f,2016-01-31,Pratik Borse,4
put the bookmark button in the top of the content page and now i want to save a page during reading i have to scroll all the way up and lose my would you improve on this,b,2016-01-31,Wei YANG,5
,o,2016-01-31,ahmad reza karimi,5
fabulous and credibility,o,2016-01-31,Akume Kome,5
great from the most important and most useful site on the web,o,2016-02-02,Way 2 Go 2,5
thank you,o,2016-02-02,Way 2 Go 2,5
beautiful loving it,o,2016-02-02,biswajit biswas,5
much info to read you will learn,o,2016-02-02,Maria Williams,5
i love this thing what do you we want we do have here,o,2016-02-02,Mitesh Paneri,5
very good knowledge,o,2016-02-02,Prasanna Bhismar,5
crash upon opening about 70,b,2016-02-02,Curran Butcher,5
otherwise function fine,b,2016-02-02,Curran Butcher,5
will improve rating this issue is resolved,b,2016-02-02,Curran Butcher,5
nice,o,2016-02-02,Sanjay Apurva,4
i love the saved page is helpful and so informative,o,2016-02-02,Maitreyi Darbha,5
i see thing,o,2016-02-02,KBS Burma,5
the creator are,f,2016-02-02,KBS Burma,5
easy information i love it,o,2016-02-02,mash sginya,5
use this,o,2016-02-02,Ishika Khokhani,5
hang a lot,o,2016-02-02,Swagath Shetty,1
good,o,2016-02-01,Sukhwinder Sokhi,5
excellent,o,2016-02-01,Rituparno Pal,5
looking up stuff gross work on this me,o,2016-02-01,Claudia Guerrero,5
um loving it,o,2016-02-01,shawon hossen,3
hang easily,o,2016-02-01,B Pavani,1
and the power is mine,f,2016-02-03,One Way Ticket To Phaelon,5
loved it,o,2016-02-03,Joel Dsouza,4
fantastic,o,2016-02-03,Abdallah Adam,5
best to get information,b,2016-02-03,Tanmay Giram,5
love it d,o,2016-02-03,Kundan Kumar,5
very convenient for searching,b,2016-02-03,Rajesh Das,5
good passed i my test with the help of this,b,2016-02-03,Beenu Dogra,5
nice fr educated,o,2016-02-03,poojan shah,5
,o,2016-02-03,Pardeep Sam,3
the login system is dull,b,2016-02-03,A Google User,3
feel like a better for educational purpose,f,2016-02-03,Aru Mo,4
i always loved,o,2016-02-03,Ganesh 2996,5
and this make it even better,o,2016-02-03,Ganesh 2996,5
mobile version on chrome is better the,b,2016-02-03,Minhaj Siddiqui,2
the best thing is the article can be saved and use it later too,o,2016-02-03,Chandan Gunjan,5
good,o,2016-02-03,Renilson Thomas,4
i could have save the page in external card if u can u with this thank you,f,2016-02-03,Vishal Parashar,4
good one,o,2016-02-02,Prakhar Shukla,5
it is damn awesome,o,2016-02-02,Sparsh Gautam,5
save the trouble of opening browser and using,b,2016-02-02,Sparsh Gautam,5
sufficient information on topic,b,2016-02-02,Sparsh Gautam,5
u got to download it,o,2016-02-02,Sparsh Gautam,5
i even recommend of using,o,2016-02-02,Sparsh Gautam,5
very excellent and useful,o,2016-02-02,Aimhatawphil Tejares Tayco,4
great fast and many more really awesome,o,2016-02-02,Lal Budha,5
best to access information of any subject,f,2016-02-02,suraj kshirsagar,5
i have found the to be useful and intuitive,o,2016-02-02,Robin Rhyne,4
daily use,o,2016-02-04,Rajiv Ranjan,4
make it also,o,2016-02-04,Milind Nimbalkar,4
great for reading,b,2016-02-04,Tanjimul islam,5
i like this,o,2016-02-04,Akash Pandiboti,5
entire world information get easily,b,2016-02-04,Akash Pandiboti,5
it very useful,o,2016-02-04,Rashmika Biswas,5
it is very well and a treasure of information,o,2016-02-04,Irum Shoaib,5
i can read it in,o,2016-02-04,Irum Shoaib,5
very great,o,2016-02-04,Yaya Rocqie,5
for an old version,b,2016-02-04,Sujith Sharma,4
all are present in here,o,2016-02-04,Rohit Singh,3
nice,o,2016-02-04,Saikiran erishetty,5
it cool,o,2016-02-04,Nilmadhab Ghosh,5
we can get lot of advantage from this,o,2016-02-04,Mohamed Shahin,5
it nice but i think this can get stronger,o,2016-02-04,muhammad khani,5
encyclopedia in the palm of your hand,f,2016-02-04,Jason Armstrong,5
1 of the best i have ever seen,o,2016-02-03,Sahil Halde,5
nice,o,2016-02-03,Al-amin Mahmud,5
saved page is my lovely feature,o,2016-02-03,Timmy Fouaf,5
the is really better the previous version but it would have been the best if the saved page would been categorized into various folder made by can you make it happen,b,2016-02-03,Siddharth Shakur,5
love the new it would be even better if u guy added swipe to close in the different tab rather just it help with the flow,b,2016-02-03,Parmeet Singh,5
great to,o,2016-02-03,Rahamatullah Noor,5
nice,o,2016-02-05,nishant gupta,4
use full,o,2016-02-05,Supreeth Uppi,3
all info available on,f,2016-02-05,Sai Sadhana,5
good for in time,o,2016-02-05,muhammad khan,4
work great,o,2016-02-05,Pivithuru Liyanarachchi,5
good,o,2016-02-05,Syed Shadab,5
i like it from heart,o,2016-02-05,Amin Rauma,5
this is awesome,o,2016-02-05,Arihant jain,5
the best on my phone,b,2016-02-05,Moutaz Mohammad,5
,o,2016-02-04,Marieta Eckles,5
good,o,2016-02-04,Abbe Joon,5
give more,o,2016-02-06,Muhammad Saheeb,3
easy to fast and quickly to learn how to use,o,2016-02-06,DeCa 796,5
i love,o,2016-02-06,Ethan Rom,5
super all information for best,o,2016-02-06,Prashant Singh,5
i would love this,o,2016-02-06,Tina Tucker,4
but i am limited to what i can download due to the type of account i have,b,2016-02-06,Tina Tucker,4
would get a chance at the first part of my cycle,f,2016-02-06,Tina Tucker,4
loved,o,2016-02-06,haseeb khan,5
it good,o,2016-02-06,Rajbir singh,5
,o,2016-02-06,Mohd Ahmad,5
nice,o,2016-02-06,Shakeel Qureshi,5
very useful,o,2016-02-06,Vishnu Sathyan,4
i like it is very use,o,2016-02-06,Anu Monoj Np,3
very important thanks,o,2016-02-06,Arvind kumar Gupta,5
you can search anything,b,2016-02-06,Santosh Rawat,5
i can use this for prepared speech in,b,2016-02-06,brendon anderson,5
a lot of article and story are suited for it,b,2016-02-06,brendon anderson,5
no one ever ha a doubt about right,b,2016-02-06,Emil Titus,5
the feature double with this,b,2016-02-06,Emil Titus,5
and the feature is a gem,f,2016-02-06,Emil Titus,5
all the bug are any,b,2016-02-06,Emil Titus,5
really nice,o,2016-02-06,Peter Bouquet,5
could be made better we could swipe tab away like android card,b,2016-02-06,Peter Bouquet,5
,o,2016-02-06,Sheneeza Saeed,5
,o,2016-02-05,Vinod Kumar,5
i love u,o,2016-02-07,Sandip Sarkar,5
informative,o,2016-02-07,Prasanth KB,5
,o,2016-02-07,Arun Alwal,1
thank you very much,o,2016-02-07,prakash shendge,4
all should try it,b,2016-02-07,Tarlekar Janhavi,5
is a any other parson history check,b,2016-02-07,Arun Aldar,4
it useful for all,o,2016-02-07,vinay mishra,5
speechless,o,2016-02-07,Mark Jade Villaronte,5
good knowledge,o,2016-02-07,pramod sharma,4
very helpful for school project,o,2016-02-06,Babita Puglia,5
superb,o,2016-02-06,shan ahmad,4
it is good is use full to search any thing i like it,b,2016-02-06,manikanta tativaka,4
please improve the navigation between language,f,2016-02-06,Effi Ovadia,5
is here,o,2016-02-06,Aditya Chaudhary,5
the saved page function is awesome,b,2016-02-06,Siddharth Gupta,5
superb,o,2016-02-06,Dhruv Kuhar,5
awesome,o,2016-02-06,Saurabh Singh,5
too easy to use loved it,o,2016-02-08,Shubham Barthwal,5
very easy to use and knowledgeable,o,2016-02-08,RAJESH DHARGAVE,5
what a,o,2016-02-08,Sushil Saurakhia,5
is this operate without,o,2016-02-08,ankita sharma,1
please answer me,b,2016-02-08,ankita sharma,1
good and simple for use,o,2016-02-08,Prafulla Mohanty,5
very useful,o,2016-02-08,MRITESH ADAK,4
,o,2016-02-08,Adam Masud Haq,5
love you,o,2016-02-08,Jagadish goud,5
really nice,o,2016-02-08,saloni more,5
it is a very useful,o,2016-02-08,Rohit Dabral,5
just keep getting better,f,2016-02-08,Tom Sommerville,5
this is question,b,2016-02-07,Ravi Sankar,5
absolutely love it,o,2016-02-07,Anurag Vyas,5
love it,o,2016-02-07,Sandip Kumar Patra,5
drop knowledge all day,b,2016-02-07,Josh Goodfellow,5
need more for reading to be a great experience,b,2016-02-09,Shailesh Hatte,1
1,o,2016-02-09,Shailesh Hatte,1
better font 2,b,2016-02-09,Shailesh Hatte,1
reading mode 3,b,2016-02-09,Shailesh Hatte,1
a meaning of a word upon selection,o,2016-02-09,Shailesh Hatte,1
otherwise the is just,o,2016-02-09,Shailesh Hatte,1
i hope this feedback will be looked into,o,2016-02-09,Shailesh Hatte,1
i have a galaxy pop,b,2016-02-09,Archis Bhagwat,4
,o,2016-02-09,Jaypalsinh Sarvaiya,1
quite simply the most useful and fascinating available on this or any other platform,o,2016-02-09,James Harris,5
nice good for kid,o,2016-02-09,Maya Kumari,5
nice,o,2016-02-09,Navid Jawed,5
hi h,o,2016-02-09,pandit devesh,5
shortcut to more information,f,2016-02-09,Nur Cahyo,4
it nice program,o,2016-02-09,Deena Hussam,5
perfect ever created,o,2016-02-09,Tuimuru Tagivetaua,5
mobile rock,o,2016-02-09,Immanuel Herman,5
top and design,o,2016-02-09,Immanuel Herman,5
well polished and fun to use,o,2016-02-09,Immanuel Herman,5
on my this is faster the web version of,b,2016-02-09,Louis S,4
also you can save great feature,o,2016-02-09,Louis S,4
nice,o,2016-02-09,anuj singh,5
full,o,2016-02-09,hemant smart,5
this is very useful and we can search anything in this,o,2016-02-08,Sivasankaran Palaniappan,5
it very good useful,o,2016-02-08,Vikas Mishra,4
would love a quick language switch option,o,2016-02-08,Syl M,5
very easy to super smooth and the tab feature is awesome,b,2016-02-08,Archit Arya,5
like it,o,2016-02-08,Jess Mar Rodriguez,5
i like option of language,f,2016-02-08,Sir Sai,5
especially the language,f,2016-02-08,Sir Sai,5
good,o,2016-02-09,BIKRAM BAG,5
best,o,2016-02-09,Samuel raj,5
love it much,o,2016-02-09,Huy Ho,5
love it,o,2016-02-09,Man Soor,5
great,o,2016-02-09,Carol Stow,5
great knowledge,o,2016-02-09,Divyansu Sharma,5
not bad,o,2016-02-09,سعید نادری,4
,o,2016-02-09,kledi doku,5
