App,Store,App ID,Review ID,Country,Version,Rating,Date,Author,Subject,Body,Translated Subject,Translated Body
Maxima on Android,Google Play,jp.yhonda,Z3A6QU9xcFRPRkE2QWRfVTExOW51RExnVVItRmVQRHRwd1JDWGRqejNTX2ZQN1p1aWFxLUtHRUxNNmpOWlgzZ3F0RDk4ekVkczQ4UGg0b0RMNmZSZFplWFE,English,,5,2015-05-16,Hannible Htun,Good app,thanks you,,
Maxima on Android,Google Play,jp.yhonda,Z3A6QU9xcFRPSDJPVDJ0Ml83WDFmaGFOQXk4MVhRaHlFT005RFZwdGV4NFdETGdQVkgxNEl4T0xlNG5NNzJvSFV1ZXdiS2ROVjhlTDF1Q1JOZ21SMkRJRXc,English,,1,2015-04-25,David Deyell,,i run android 43,,
Maxima on Android,Google Play,jp.yhonda,Z3A6QU9xcFRPRmVSWkJ6MVpjMWl0WjBPMFhRaEVrVlUxZHExNEJocGxpb3FjNUZCb2FGdUZLUWxybE1BaC1mdUxnbFlFWTRXUGR5ZTRBbjFmVHVTbzZCVWc,English,,5,2015-04-20,Fabien Esperance,Thanks,thanks to,,
Maxima on Android,Google Play,jp.yhonda,Z3A6QU9xcFRPRXc0UFktN3FVWWZjSWxDcFF0OFNOeHF0SjdKajRXeHhNQWV0Q1FMRlU2VV90dmthRWZzVjBRYktPNTVRRnRwdFc1M0VLWmkydlVudmlhdHc,English,,4,2015-04-06,Wes Darvin,"Works great but,",i wish it had support for permanently adding user function,,
Maxima on Android,Google Play,jp.yhonda,Z3A6QU9xcFRPRXc0UFktN3FVWWZjSWxDcFF0OFNOeHF0SjdKajRXeHhNQWV0Q1FMRlU2VV90dmthRWZzVjBRYktPNTVRRnRwdFc1M0VLWmkydlVudmlhdHc,English,,4,2015-04-06,Wes Darvin,"Works great but,",for a i can it lack this functionality,,
Maxima on Android,Google Play,jp.yhonda,Z3A6QU9xcFRPRWh6VnZ6NHFYTzYzRzMzaUd2cFdzX0R2RzJ3UmJ0U2U1QWFqSEgxcDlIV2lBOURPQkZkWmlpcUxsQTdPQnB4M2dFaFpmeXp3U01qWUs4M3c,English,,4,2015-03-05,Ieromnimon Kakabouras,No plotting,very nice however any attempt to plot result on an blank screen,,
Maxima on Android,Google Play,jp.yhonda,Z3A6QU9xcFRPRWh6VnZ6NHFYTzYzRzMzaUd2cFdzX0R2RzJ3UmJ0U2U1QWFqSEgxcDlIV2lBOURPQkZkWmlpcUxsQTdPQnB4M2dFaFpmeXp3U01qWUs4M3c,English,,4,2015-03-05,Ieromnimon Kakabouras,No plotting,test system is android 442,,
Maxima on Android,Google Play,jp.yhonda,Z3A6QU9xcFRPR1BkZkpQU2FhbVFmRksycVJNT25CWkxHOURWLUNqenUxZ3BMYUtRc2FVNmowN1l3RTZlUFU4QV9qVU1vWTlhT1Vhakl3RU43ckNBVDRjeEE,English,,5,2015-02-25,Darryn Reid,Great to have it on my mobile devices,i am a professional mathematician and use quite often for my work on my system,,
Maxima on Android,Google Play,jp.yhonda,Z3A6QU9xcFRPRl9FQ050QzRpanBTWHp2QjZ4RGFsdGp6WkJxUDhDSlZkZVZfMjdwNm93UnEyM1VoZ1luZ0lnWUtmZk1rYll3RUtWMEJyQmVXNGkxZV9LLUE,English,,5,2015-02-06,lokesh kumar,working properly now on x86,great work,,
Maxima on Android,Google Play,jp.yhonda,Z3A6QU9xcFRPSGlXbVBvZTg2VVBiZW5XQUlIU0ZyMjNoUDAtWUc5b0lMUGo1T2FzLWpjTXJkaUUwWEhiMFVqRXFxTXQ0bk5Rd0RSQ20zaW1PLUtZd3dobHc,English,,5,2015-01-29,Soon Wah Chua,Excellent,quality software in action,,
Maxima on Android,Google Play,jp.yhonda,Z3A6QU9xcFRPR0JJQmpuV29Vd0VHTTl0c2FWYW9RaE4xS21FdllmY3JncXF2eFl3TDlWalpuYWZzNk9XNVUtY2JPZDhXU1pTZVVuUGpiMTBJV2hUcHhUN2c,English,,5,2015-01-10,Mr. Clifford Johnson,Excellent tool for science,a physicist who us regular for,,
Maxima on Android,Google Play,jp.yhonda,Z3A6QU9xcFRPRjdjLXk3MkdybFFKY3JKcEJGUzlSeV9WQXhLTFBKQ2VjaUdsWHVSaWNjaXg3SzQ2LUdObG51SlpRVWloU2ZlaFBpTVNNSVVCcGFKMzhMaWc,English,,4,2015-01-01,Edward Eyler,Won't yet run on Nexus 9,in general this is a wonderful contribution,,
Maxima on Android,Google Play,jp.yhonda,Z3A6QU9xcFRPRjdjLXk3MkdybFFKY3JKcEJGUzlSeV9WQXhLTFBKQ2VjaUdsWHVSaWNjaXg3SzQ2LUdObG51SlpRVWloU2ZlaFBpTVNNSVVCcGFKMzhMaWc,English,,4,2015-01-01,Edward Eyler,Won't yet run on Nexus 9,it look like a recompilation is needed for the newest processor,,
Maxima on Android,Google Play,jp.yhonda,Z3A6QU9xcFRPSDF2b0VQQThxUk1SUEY3VnVHTHktTlVvSnNLVWxMbTNuVkI2eGxzUXpENFRTdUVZYjFZT2pwNFRPOFo4SW1SYUFPbko3dDFkX3NsVTNyaXc,English,,5,2014-12-26,Jonas Zeiger,"Great tool, now usable on Android too",provides added value over the standard pocket calculator,,
Maxima on Android,Google Play,jp.yhonda,Z3A6QU9xcFRPSDF2b0VQQThxUk1SUEY3VnVHTHktTlVvSnNLVWxMbTNuVkI2eGxzUXpENFRTdUVZYjFZT2pwNFRPOFo4SW1SYUFPbko3dDFkX3NsVTNyaXc,English,,5,2014-12-26,Jonas Zeiger,"Great tool, now usable on Android too",,,
Maxima on Android,Google Play,jp.yhonda,Z3A6QU9xcFRPRTItWDlqa1NqYk1pRFdPUEpxa3Z0cFJhZUJwNlYySU96SklDSzYyUGhBZHhLd1Z6RjBXWnAwamtKcFdoMHZNSWNLVFkwcjBFMlZ2THdJU1E,English,,5,2014-12-22,Jorgen D,Excellent,a computer algebra system working just like the version i have on my machine,,
Maxima on Android,Google Play,jp.yhonda,Z3A6QU9xcFRPRTItWDlqa1NqYk1pRFdPUEpxa3Z0cFJhZUJwNlYySU96SklDSzYyUGhBZHhLd1Z6RjBXWnAwamtKcFdoMHZNSWNLVFkwcjBFMlZ2THdJU1E,English,,5,2014-12-22,Jorgen D,Excellent,great port,,
Maxima on Android,Google Play,jp.yhonda,Z3A6QU9xcFRPRTItWDlqa1NqYk1pRFdPUEpxa3Z0cFJhZUJwNlYySU96SklDSzYyUGhBZHhLd1Z6RjBXWnAwamtKcFdoMHZNSWNLVFkwcjBFMlZ2THdJU1E,English,,5,2014-12-22,Jorgen D,Excellent,love it,,
Maxima on Android,Google Play,jp.yhonda,Z3A6QU9xcFRPRTItWDlqa1NqYk1pRFdPUEpxa3Z0cFJhZUJwNlYySU96SklDSzYyUGhBZHhLd1Z6RjBXWnAwamtKcFdoMHZNSWNLVFkwcjBFMlZ2THdJU1E,English,,5,2014-12-22,Jorgen D,Excellent,a normal keyboard is painful to enter math on do yourself the of downloading the std math keyboard by,,
Maxima on Android,Google Play,jp.yhonda,Z3A6QU9xcFRPRXVYbTNUQUdfSS1saTJEWHN4d25aYTlaX0lQUFJOWHBVS1E5UENIVWU0eVIzbEpaOGZYZHowR1U4dlBEeHhIbkNnUmVQN3liX2dNUU15NHc,English,,4,2014-12-14,Juan,"Powerful, needs some improvement",it can solve more integral most android calculator,,
Maxima on Android,Google Play,jp.yhonda,Z3A6QU9xcFRPRXVYbTNUQUdfSS1saTJEWHN4d25aYTlaX0lQUFJOWHBVS1E5UENIVWU0eVIzbEpaOGZYZHowR1U4dlBEeHhIbkNnUmVQN3liX2dNUU15NHc,English,,4,2014-12-14,Juan,"Powerful, needs some improvement",it would also be nice to have a with shortcut for formula,,
Maxima on Android,Google Play,jp.yhonda,Z3A6QU9xcFRPRTUyV1ZhN1c1TGF6T1Q3WG1Jb1dwQmZmNGtibVcza3RFRW03a0hIR0hHb1hDNkN3cFlmX3VMRVA2WGJPekVTQXRIbFc5SzVtbTV4QUIyWVE,English,,5,2014-12-02,Miguel Puig,,very good,,
Maxima on Android,Google Play,jp.yhonda,Z3A6QU9xcFRPR194emZXR2lJdUZIb0hmYktFZVc4YlBhTkYyNjQxdXNuWEJMSVVzWkJkT3J1QWhMNzZCWnZqSTM5OUlGbEplVE82alYzWGpweVpxczJ0Rnc,English,,5,2014-11-24,Belnadino Mgimba,Very useful,very developer,,
Maxima on Android,Google Play,jp.yhonda,Z3A6QU9xcFRPR2xuZFhZRVprODRJNzh0YnVaaTNRWF9JZWVQelpraUVYY1dyZFFPbmsyblprS1FDYVlhOWlrNTY3bDAtSmRETVNRT2FtakZCYzhPZ01aV1E,English,,5,2014-11-21,Antonio GADALETA,Great,i love and love this,,
Maxima on Android,Google Play,jp.yhonda,Z3A6QU9xcFRPR2xuZFhZRVprODRJNzh0YnVaaTNRWF9JZWVQelpraUVYY1dyZFFPbmsyblprS1FDYVlhOWlrNTY3bDAtSmRETVNRT2FtakZCYzhPZ01aV1E,English,,5,2014-11-21,Antonio GADALETA,Great,it even ha the pretty print embedded,,
Maxima on Android,Google Play,jp.yhonda,Z3A6QU9xcFRPRkU3QzF0anZuVDNGUmxvR0xDOTNZQlNORnZVR1JzYXFSdnhtWGM5b3JhcEw2NndXdjU2UXVEUTN0SGxrVDRjaUY3cU5pNHJpcktUSWZCU0E,English,,5,2014-11-19,Viatcheslav Bugayov,Same experience as on desktop,great job,,
Maxima on Android,Google Play,jp.yhonda,Z3A6QU9xcFRPRkU3QzF0anZuVDNGUmxvR0xDOTNZQlNORnZVR1JzYXFSdnhtWGM5b3JhcEw2NndXdjU2UXVEUTN0SGxrVDRjaUY3cU5pNHJpcktUSWZCU0E,English,,5,2014-11-19,Viatcheslav Bugayov,Same experience as on desktop,such a complex piece of software ported on a mobile platform,,
Maxima on Android,Google Play,jp.yhonda,Z3A6QU9xcFRPRkU3QzF0anZuVDNGUmxvR0xDOTNZQlNORnZVR1JzYXFSdnhtWGM5b3JhcEw2NndXdjU2UXVEUTN0SGxrVDRjaUY3cU5pNHJpcktUSWZCU0E,English,,5,2014-11-19,Viatcheslav Bugayov,Same experience as on desktop,neat,,
Maxima on Android,Google Play,jp.yhonda,Z3A6QU9xcFRPSFJGYjQzYzRydFFfVVdQWXRZTTJnX3VXaW8yTmo1dUpscjdwTm1YdFhiOUVkWndpLVY1OXgtNm1NTXdwMjQxZWZlbHo3WU1xN0pnZXZYOEE,English,,5,2014-11-16,Nemanja K,,great,,
Maxima on Android,Google Play,jp.yhonda,Z3A6QU9xcFRPRlJ6ZGpxVFhSTHc2RUdKZXI5QXc2NnREUnFiS21VaEVhOF9pcjR3bUM4ZUFDUU1zX2ZVa2dEaW5adWh4Y2U5SnVpWlJSNHZxVklLSWk4R0E,English,,5,2014-11-10,Georgios Vas,Καταπληκτικό!,amazing,,
Maxima on Android,Google Play,jp.yhonda,Z3A6QU9xcFRPRlJ6ZGpxVFhSTHc2RUdKZXI5QXc2NnREUnFiS21VaEVhOF9pcjR3bUM4ZUFDUU1zX2ZVa2dEaW5adWh4Y2U5SnVpWlJSNHZxVklLSWk4R0E,English,,5,2014-11-10,Georgios Vas,Καταπληκτικό!,among the vital few which support script,,
Maxima on Android,Google Play,jp.yhonda,Z3A6QU9xcFRPSE83UG82Z2kxUF80Zks1ZGdaSGY3N29sVDNyaExRT2JmcS13bG1Oa0xWNUFrNk9HNlhXMURVdy1JckhmbzlTRkctcUlKZUtEeTVKZlRrWGc,English,,5,2014-11-08,craig smith,Physics,love this tool ha come in useful for my degree,,
Maxima on Android,Google Play,jp.yhonda,Z3A6QU9xcFRPR21QM29TTFVOUHJBZlVHWTVQOHVVS21lVXJhc2tidmZXNGJNVVlfUWtiUUIyQ2JTSHg3TFN0OGhCdnBTallqNS1tS01UbkFSdFUweEVUMXc,English,,5,2014-11-04,bambang nugroho,7 stars app,you should make some multiple step ahead other mathematics,,
Maxima on Android,Google Play,jp.yhonda,Z3A6QU9xcFRPR21QM29TTFVOUHJBZlVHWTVQOHVVS21lVXJhc2tidmZXNGJNVVlfUWtiUUIyQ2JTSHg3TFN0OGhCdnBTallqNS1tS01UbkFSdFUweEVUMXc,English,,5,2014-11-04,bambang nugroho,7 stars app,thanks a lot,,
Maxima on Android,Google Play,jp.yhonda,Z3A6QU9xcFRPRTQyM2V5dVdWdnZ0eGU3VnVQcnIyZjZWVkx2Y3Rla1dfdEVPUWZQTExaOENISHJ2ek9qWWlqWHpjSVBqRG1GTngyQm5rVkZPTU9JQ1NrZkE,English,,5,2014-10-22,Der Kybernetiker,Maxima is great,thank you for a good job,,
Maxima on Android,Google Play,jp.yhonda,Z3A6QU9xcFRPRTQyM2V5dVdWdnZ0eGU3VnVQcnIyZjZWVkx2Y3Rla1dfdEVPUWZQTExaOENISHJ2ek9qWWlqWHpjSVBqRG1GTngyQm5rVkZPTU9JQ1NrZkE,English,,5,2014-10-22,Der Kybernetiker,Maxima is great,i use on my desktop and wa pleased to find an android port,,
Maxima on Android,Google Play,jp.yhonda,Z3A6QU9xcFRPRTQyM2V5dVdWdnZ0eGU3VnVQcnIyZjZWVkx2Y3Rla1dfdEVPUWZQTExaOENISHJ2ek9qWWlqWHpjSVBqRG1GTngyQm5rVkZPTU9JQ1NrZkE,English,,5,2014-10-22,Der Kybernetiker,Maxima is great,the latex equation are beautiful but a font would look better for command,,
Maxima on Android,Google Play,jp.yhonda,Z3A6QU9xcFRPRTRKclM2dVlFNkZ6Y0ROakZ6b25QeEJadTI3cTRSUVExcFFNMkxWS1N5Sm11RTdLaHlfTTJVSGdBNFYyc1hxY01yTnY1XzlGOVlwZVFhLXc,English,,5,2014-10-13,Kochin Chang,Excellent CAS for your Android devices,is a great open source computer algebra and this is a port to android platform,,
Maxima on Android,Google Play,jp.yhonda,Z3A6QU9xcFRPRTRKclM2dVlFNkZ6Y0ROakZ6b25QeEJadTI3cTRSUVExcFFNMkxWS1N5Sm11RTdLaHlfTTJVSGdBNFYyc1hxY01yTnY1XzlGOVlwZVFhLXc,English,,5,2014-10-13,Kochin Chang,Excellent CAS for your Android devices,it work very well on all my android device,,
Maxima on Android,Google Play,jp.yhonda,Z3A6QU9xcFRPRTRKclM2dVlFNkZ6Y0ROakZ6b25QeEJadTI3cTRSUVExcFFNMkxWS1N5Sm11RTdLaHlfTTJVSGdBNFYyc1hxY01yTnY1XzlGOVlwZVFhLXc,English,,5,2014-10-13,Kochin Chang,Excellent CAS for your Android devices,the developer keep the spirit of open source,,
Maxima on Android,Google Play,jp.yhonda,Z3A6QU9xcFRPRTRKclM2dVlFNkZ6Y0ROakZ6b25QeEJadTI3cTRSUVExcFFNMkxWS1N5Sm11RTdLaHlfTTJVSGdBNFYyc1hxY01yTnY1XzlGOVlwZVFhLXc,English,,5,2014-10-13,Kochin Chang,Excellent CAS for your Android devices,you can download the complete source and compile yourself,,
Maxima on Android,Google Play,jp.yhonda,Z3A6QU9xcFRPRTRKclM2dVlFNkZ6Y0ROakZ6b25QeEJadTI3cTRSUVExcFFNMkxWS1N5Sm11RTdLaHlfTTJVSGdBNFYyc1hxY01yTnY1XzlGOVlwZVFhLXc,English,,5,2014-10-13,Kochin Chang,Excellent CAS for your Android devices,i wonder whether the developer collaborated,,
Maxima on Android,Google Play,jp.yhonda,Z3A6QU9xcFRPSHRZQl84S0xfTHFucUVzdi11aF9JT2NfWWwxTm1uVm9Xd0hXZ0dBYXFxeHdzNDRDU0lkRmUzdVFfWjFSUDhVU3p2S0xsbUZWWjNWLXVDTlE,English,,5,2014-10-08,,,perfect,,
Maxima on Android,Google Play,jp.yhonda,Z3A6QU9xcFRPRnF3MlVCVkdlOHVVazBNa0o2anhrRXRQR1BxQmVMa3YtSWdzVF9nSWhMX2M3QjM1NkpGbWdvdTRvcFRQcU13eFZ3TURrcHpHQXFlLU9QRmc,English,,5,2014-09-18,Aatos Heikkinen,Beautiful,rare and impressive example of exported lisp project,,
Maxima on Android,Google Play,jp.yhonda,Z3A6QU9xcFRPRVR1bWpuREsyYkFLQzFIQ0xPdzZ0VWd0c1J2Nm0yYXBzaVhYdF9hQ05NdkwtaVg1c1RyazNTRzI1blFKQVB4NkRzZTNHaVRGNkp6S3pDU0E,English,,5,2014-09-18,jean-louis Bonnet,,great,,
Maxima on Android,Google Play,jp.yhonda,Z3A6QU9xcFRPRzV2YzNpam4wOFk5MEw4VTVKZUs1eEZIbzZxVTFsb296MWw0a0Fma2ZyTFRsSzdneDBpckF0VzJMT1RUbVFLUkZ0ZnVQSHBJeGVkaC0zWGc,English,,5,2014-09-13,masbambang adi nugroho,good,nice,,
Maxima on Android,Google Play,jp.yhonda,Z3A6QU9xcFRPSDhaaUdDVndaMWladEMtV2pZUDlONW5FZnJRYko3UjdPTnZ4NTRidEFRZjNRYS1BVF9DaDQ0RHVJZEhLR29UcEN6a0ZuVFcxOFk5RWtHWVE,English,,5,2014-09-11,Alex Liu,,loved it,,
Maxima on Android,Google Play,jp.yhonda,Z3A6QU9xcFRPRWtKdDJRTWY0S1lWMU5uaWtYbER3OWl5R2tWbXhsXzRUb2Rrc05XYXFxQXQ4SEhBRVpvQ3VYRmFtcGJyRTRXcVN2Q0xzbEdZbjRzTzBDQ0E,English,,5,2014-08-26,Jorge Quintanilla,Workstation-grade symbolic algebra package in my pocket,is my symbolic algebra system and the author of this particular package ha put it all together it work beautifully on android system,,
Maxima on Android,Google Play,jp.yhonda,Z3A6QU9xcFRPRWtKdDJRTWY0S1lWMU5uaWtYbER3OWl5R2tWbXhsXzRUb2Rrc05XYXFxQXQ4SEhBRVpvQ3VYRmFtcGJyRTRXcVN2Q0xzbEdZbjRzTzBDQ0E,English,,5,2014-08-26,Jorge Quintanilla,Workstation-grade symbolic algebra package in my pocket,the result is a calculator with symbolic and graphical capability of,,
Maxima on Android,Google Play,jp.yhonda,Z3A6QU9xcFRPRWtKdDJRTWY0S1lWMU5uaWtYbER3OWl5R2tWbXhsXzRUb2Rrc05XYXFxQXQ4SEhBRVpvQ3VYRmFtcGJyRTRXcVN2Q0xzbEdZbjRzTzBDQ0E,English,,5,2014-08-26,Jorge Quintanilla,Workstation-grade symbolic algebra package in my pocket,the fact member of the community can bring existing project onto new platform such a android also brig out the superior power of open source software beautifully,,
Maxima on Android,Google Play,jp.yhonda,Z3A6QU9xcFRPRUV1c0xrdWtDdTByUFphU3BGeEpwTUJLU2FORC1zZXVZQmVDWmJMWFYxWmtxeFN0WUFqUG41LTI2RWlOc0p6dEFZajhIaERoblYwMy0tMGc,English,,5,2014-08-11,Victor John Lewandoawski,,best of the rest,,
Maxima on Android,Google Play,jp.yhonda,Z3A6QU9xcFRPSEVveU94RTYzbFFyX3BZZWQ3RXdtZmpWUjcwMW9OSFk0YzNVQWVRY2UxSWJZb1lNM0lOTEFzU1JYYUhHbjZvZHFqWWlmMFNibWxsNEotYnc,English,,5,2014-07-19,Iking Elharts,It's really good to know this software on Android,incredible extraordinary thank to make my android worthy sorry i only can do this review but this on android is perhaps i will conducted to my student so they can optimize their to become mathematician,,
Maxima on Android,Google Play,jp.yhonda,Z3A6QU9xcFRPSEhHc21oNjYxb1FjRnVOY3NvRlhKT25mQnJtWldXMWxUd3ZHOVdKNHRJVFlrd3hVSG9JV2JIUllCV1AxRXNKalN0SVB3aEpvZDlUOV9iYlE,English,,5,2014-07-16,Mark Weiman,Good,this is great if i need a program i have no access to maple on my computer,,
Maxima on Android,Google Play,jp.yhonda,Z3A6QU9xcFRPRlhBYktNV1VqUEFYSTBWMnFMTTIxcVNpVU1raEdZTkljUE1OY1FpeDlDVHc3TFNPX1Rqay1Jd0JoRkFHbXJ2b2RMV2F3bTh3azBiaG56QWc,English,,5,2014-07-13,Kyle Alexander Buan,Very good!,i hope in the graph plot will be in higher and the plot can be rotated,,
Maxima on Android,Google Play,jp.yhonda,Z3A6QU9xcFRPRjVwS2otWnJtZTdhLV9EOXBEaFY4bFJFVnNENlVycC1ZaTQwUWpJV05POER3dTh1STN5Xzd2SmJDMlJ6Qm8zUlpWVm9vWFdzRHpHYnBuaXc,English,,5,2014-07-13,Gary Woodbridge,Great maths package,i am doing a physic a math degree,,
Maxima on Android,Google Play,jp.yhonda,Z3A6QU9xcFRPRjVwS2otWnJtZTdhLV9EOXBEaFY4bFJFVnNENlVycC1ZaTQwUWpJV05POER3dTh1STN5Xzd2SmJDMlJ6Qm8zUlpWVm9vWFdzRHpHYnBuaXc,English,,5,2014-07-13,Gary Woodbridge,Great maths package,i combine this on my note 3 with for wolfram plus on my maple,,
Maxima on Android,Google Play,jp.yhonda,Z3A6QU9xcFRPRjVwS2otWnJtZTdhLV9EOXBEaFY4bFJFVnNENlVycC1ZaTQwUWpJV05POER3dTh1STN5Xzd2SmJDMlJ6Qm8zUlpWVm9vWFdzRHpHYnBuaXc,English,,5,2014-07-13,Gary Woodbridge,Great maths package,each good for different task,,
