update launcher icon which us the material design launcher icon spec,b,2015/1/31,,
icon designed by,b,2015/1/31,,
experimental do not restore state 30 minute,o,2015/1/21,,
support wide,o,2015/1/18,,
update build tool for build,b,2015/1/18,,
translation update some untranslated string translated,f,2015/1/12,,
you add translator name you can use,b,2015/1/12,,
i can translate play description you want,o,2015/1/12,,
have a nice day,o,2015/1/12,,
do not force the sorting mode,b,2014/12/17,,
update build tool,b,2014/12/17,,
update to build version 173,f,2014/12/03,,
