tinfoil is better with a few better organized and way better than this even allows better posting and commenting on your page than the page manager including ability to toggle between posting a you the person or a the page,f,2013-07-01,A Google User,5
there should be a desktop version,b,2013-07-01,A Google User,5
for conspiracy,b,2013-06-30,funguyga89,1
it indeed wa related to the product,o,2013-06-30,funguyga89,1
maybe you are just angered i stated the,b,2013-06-30,funguyga89,1
this is an for those fear the world and believe bullshit conspiracy,b,2013-06-30,funguyga89,1
fast and smooth,b,2013-06-29,Alice Cheung,5
mobile site is better the official,f,2013-06-29,Alice Cheung,5
taking a little of the out of,b,2013-06-23,Aaron Davis,5
please fix it i love this,b,2013-06-22,Artis Robinson,5
simple and lightweight,o,2013-06-20,antione drakeford,5
all the update and sync my phone is faster and ha way more memory,b,2013-06-19,will b,4
this mean i can still keep in touch without harvesting all my privacy,b,2013-06-19,will b,4
almost but glitch flip to top of feed is a tad annoying,b,2013-06-19,will b,4
fix for 5 star,b,2013-06-19,will b,4
please fix it please it want load up,b,2013-06-13,Artis Robinson,5
i love this thanks,o,2013-06-12,Artis Robinson,5
is usable again,b,2013-06-12,Adam Shea,5
i love this,o,2013-06-11,Hugh Man,3
i love the idea of this,o,2013-06-11,Hugh Man,3
but for some reason i frequently have trouble typing in it,b,2013-06-11,Hugh Man,3
i have used tinfoil for several month on three different phone and currently have a galaxy,b,2013-06-08,A.J. Toogood,5
tinfoil is the best far and away,o,2013-06-08,A.J. Toogood,5
simple to use and completely trouble free unlike every other i tried,b,2013-06-08,A.J. Toogood,5
i strongly recommend it to everyone,o,2013-06-08,A.J. Toogood,5
is great,o,2013-06-08,Derek Goodridge,5
you have to scroll all the way down each time,b,2013-06-08,Derek Goodridge,5
this by far is the smoothest hand down,o,2013-06-07,Rodney Badgett,5
great,o,2013-06-05,joel vazquez,5
if could learn from small developer like this guy,o,2013-06-05,joel vazquez,5
doe what i want it without all the permission the want,b,2013-06-04,alex C,4
look good but the only problem i is that scrolling it jump to the top of the page,f,2013-05-29,Kasir Abbas,4
really annoying and need addressing,b,2013-05-29,Kasir Abbas,4
other that it perfect,o,2013-05-29,Kasir Abbas,4
please update the scrolling,f,2013-05-29,Kasir Abbas,4
thanks,o,2013-05-29,Kasir Abbas,4
i wa fed up of the standard battery draining,b,2013-05-29,Matthew Bridger,5
although this is only the mobile website with a few more added it is so much faster and more efficient to use then the site in my mobile,b,2013-05-29,Matthew Bridger,5
the guy who made this are legend,f,2013-05-29,Matthew Bridger,5
5 thanks,o,2013-05-29,Matthew Bridger,5
i quit an of this i want it to either freeze or exit completely,b,2013-05-29,John B,1
and again using a web browser for,b,2013-05-29,John B,1
there are lot of wrapper hanging around through the browser invoke the mobile version of the site in order to mimic the official application,b,2013-05-29,Jorge Martins Rosa,5
this a bit is more your and if used in a tablet you can even opt for the regular version of the instead of the mobile one,b,2013-05-29,Jorge Martins Rosa,5
better the normal,o,2013-05-28,drew peacock,4
in there is no way to comment or post status,f,2013-05-28,drew peacock,4
r u kidding totally worst,o,2013-05-26,A Google User,1
for those worried about what see and doe on your this is the for you,o,2013-05-25,Ashley Padget,5
trying to update my status or search for friend make the keyboard force quit every time,b,2013-05-24,Hillary Wills,2
highly recommended,o,2013-05-23,Carrie van der Zee,3
run smoothly on my,o,2013-05-22,Onyi Cho,5
oh how doe this ha 10000 download,b,2013-05-22,Onyi Cho,5
this is a great in my opinion,b,2013-05-22,Onyi Cho,5
flash is not working anymore on this with whatever this is still awesome,b,2013-05-22,Onyi Cho,5
privacy is important and should be but the want all your data on phone well,b,2013-05-22,James Chow.,5
thank you again tinfoil,o,2013-05-22,James Chow.,5
finally i can use on my phone and not have to sign my soul over to,o,2013-05-21,Greg Hromalik,5
type sponsored,b,2013-05-21,Ben Lutgens,3
the new update fixed all my great,b,2013-05-21,Haythem Khanfar,5
sensible permission and limited tracking are what brought me to this,b,2013-05-21,A Google User,5
it meet my need nicely and should mean know le about my habit elsewhere,b,2013-05-21,A Google User,5
this is exactly what the should be,o,2013-05-20,thewaydownmachine loom,5
it not even big of an d big thing come in small package,b,2013-05-20,thewaydownmachine loom,5
