it just work,o,2014-01-03,Mick Rodgers,5
you or your phone are suffering from caused by get this little helper,b,2013-12-31,Bernd Buerklin,5
work great for ha all the feature i in a tiny footprint,b,2013-12-31,Bernd Buerklin,5
get your phone digestive system back on track,b,2013-12-31,Bernd Buerklin,5
very good and it work almost flawlessly,b,2013-12-30,Sigmund Ås,4
thing i miss is a better way to view like a full screen option,f,2013-12-30,Sigmund Ås,4
picture get minimized to a useless size above the comment,b,2013-12-30,Sigmund Ås,4
any chance you could add in pushing update,f,2013-12-26,Marcin Miroslaw,5
like someone message it would push to my task bar,b,2013-12-26,Marcin Miroslaw,5
other excellent,o,2013-12-26,Marcin Miroslaw,5
maybe give the user some kind of hint,b,2013-12-25,Karl Jørgen Overå,5
p,o,2013-12-25,Karl Jørgen Overå,5
tired of with their obnoxious tracking,b,2013-12-25,Matt R.,5
good,o,2013-12-25,Matt R.,5
there use to be a lock symbol next to name u swipe right see chat message,b,2013-12-22,stan s,3
lovely and simple,o,2013-12-13,A Google User,5
good and simple but similar to official tinfoil for,f,2013-12-09,Gayan hirantha,5
please add feature to save i will rate you 5,f,2013-12-09,Damario Tanoto,1
please reply,f,2013-12-09,Damario Tanoto,1
,o,2013-11-30,Artis Robinson,5
best other,o,2013-11-30,domar alforte,4
recently got a nexus 5 and i am unable to post photo with this,b,2013-11-28,Ethan B.,3
otherwise this is a great is simple and work well,o,2013-11-28,Ethan B.,3
i find the way to handle with everything,b,2013-11-26,Dalibor Andreevski,5
now i can download photo via browser,b,2013-11-26,Dalibor Andreevski,5
and this is very small but very,o,2013-11-26,Dalibor Andreevski,5
this is good solution and good concept,o,2013-11-26,Dalibor Andreevski,5
regard,b,2013-11-26,Dalibor Andreevski,5
thank you a lot,o,2013-11-26,Dalibor Andreevski,5
a light user this is perfect for me,o,2013-11-19,Paul Thomas,5
light on resource too,b,2013-11-19,Paul Thomas,5
big thanks to,o,2013-11-19,Paul Thomas,5
brilliant quicker the official and none of the insecurity,b,2013-11-14,Thomas Mays,4
no add pure goodness,f,2013-11-09,Grazee Taylan,5
enjoy using this the real,o,2013-11-09,Grazee Taylan,5
must try,b,2013-11-09,Grazee Taylan,5
i love this,o,2013-11-09,Xadelene Guisob,5
doe what it say on the tin,o,2013-11-05,Kamil Frej,5
a,o,2013-11-05,Kamil Frej,5
