# deletions,date,commit message
585,2016/3/18,Sync with SVN (Android M support etc)
3,2016/3/18,Update library list
69,2016/3/17,foss fixes
5402,2016/3/17,2.2.9
0,2016/3/17,Gradle Prep
137,2016/3/17,remove files
29177,2016/3/17,Prep for 2.3
0,2016/3/17,Prep for gradle
1,2015/1/11,fix jcifs: We don't use http/https (and it doesn't compile) so remove it
4,2015/1/11,- did not have android-switch-backport/sample/bin .. since android-switch-backport isn't used rm it - NineOldAndroids not used
17,2015/1/11,Update to https://gitlab.com/fdroid/fdroiddata/blob/cc67cf6f7c933416c87cca66beee4a4802c31c30/metadata/com.vuze.android.remote.txt
