this doe what it say,o,2014-04-06,Kenneth Nootbaar,5
it will find the best signal keep working for you,b,2014-04-06,Kenneth Nootbaar,5
you wont have to keep trying to look for a signal it get lost,b,2014-04-06,Kenneth Nootbaar,5
it go to work,o,2014-04-06,Kenneth Nootbaar,5
great,o,2014-04-06,Kenneth Nootbaar,5
this is a must,o,2014-04-06,Kenneth Nootbaar,5
download now the search end here,b,2014-04-06,Kenneth Nootbaar,5
lose out,o,2014-04-06,Kenneth Nootbaar,5
ken,o,2014-04-06,Kenneth Nootbaar,5
