new version 1271 update library 213,b,2016/5/18,,
android 210,o,2016/5/18,,
support 2340,b,2016/5/18,,
license dialog 181,f,2016/5/18,,
new version 1270,f,2016/5/09,,
moved code to a theme class,o,2016/5/09,,
adapt about screen icon for night mode,b,2016/5/09,,
hide the theme setting on old device,b,2016/5/09,,
added theme setting,f,2016/5/09,,
