Topic,Words
0,0.053*unable,0.045*it,0.044*refresh,0.043*every,0.041*completely,0.036*machine,0.036*totally,0.033*broken,0.032*that,0.032*use
1,0.066*have,0.050*but,0.044*can,0.043*pin,0.036*on,0.033*always,0.033*out,0.029*last,0.028*trying,0.027*useless
2,0.083*aggressively,0.063*to,0.053*machine,0.040*really,0.036*my,0.034*refresh,0.033*due,0.033*came,0.029*now,0.028*crashes
3,0.063*time,0.050*can,0.045*try,0.043*program,0.039*crashes,0.039*pin,0.037*require,0.035*when,0.029*click,0.026*of
4,0.067*awesome,0.067*with,0.052*to,0.048*should,0.039*when,0.038*venison,0.038*week,0.036*completely,0.034*annoyed,0.029*have
5,0.066*unable,0.066*completely,0.056*totally,0.042*to,0.037*really,0.034*has,0.034*otherwise,0.033*but,0.033*have,0.031*out
6,0.071*use,0.057*pin,0.053*otherwise,0.049*this,0.044*with,0.039*do,0.038*swimmer,0.034*basin,0.032*there,0.030*design
7,0.088*can,0.049*pin,0.043*require,0.042*to,0.040*when,0.038*due,0.037*unable,0.037*machine,0.037*it,0.033*try
8,0.061*crashes,0.051*trying,0.048*do,0.045*or,0.041*have,0.041*machine,0.040*anyone,0.036*out,0.033*can,0.032*every
9,0.069*should,0.039*destroy,0.039*out,0.039*do,0.038*due,0.037*useless,0.036*refresh,0.031*swimmer,0.028*aggressively,0.026*was
10,0.105*with,0.064*when,0.052*aggressively,0.044*crashes,0.041*useless,0.041*i,0.036*unable,0.035*using,0.035*require,0.034*design
11,0.064*can,0.046*venison,0.044*came,0.039*have,0.039*week,0.036*that,0.035*useless,0.034*trying,0.032*great,0.026*now
12,0.085*useless,0.072*last,0.061*always,0.052*great,0.051*my,0.047*really,0.041*pin,0.037*refresh,0.031*broken,0.024*use
13,0.061*otherwise,0.054*time,0.050*always,0.048*try,0.047*using,0.042*do,0.037*or,0.037*when,0.033*is,0.029*every
14,0.093*click,0.051*a,0.044*there,0.038*useless,0.037*do,0.033*functionality,0.033*awesome,0.031*crashes,0.030*due,0.029*great
15,0.053*use,0.051*is,0.042*update,0.041*i,0.038*but,0.035*try,0.034*useless,0.031*time,0.029*design,0.027*every
16,0.078*a,0.078*aggressively,0.051*functionality,0.047*try,0.039*now,0.032*been,0.031*pin,0.030*unable,0.030*on,0.028*top
17,0.063*useless,0.046*with,0.041*try,0.040*now,0.039*swimmer,0.034*was,0.034*can,0.032*came,0.032*really,0.027*great
18,0.061*clean,0.058*great,0.054*been,0.054*time,0.052*really,0.045*that,0.041*require,0.041*crashes,0.037*awesome,0.030*my
19,0.064*have,0.062*awesome,0.052*the,0.044*i,0.036*that,0.036*every,0.033*should,0.030*completely,0.030*using,0.027*open
