Topic Index 1,Topic Index 2,Topic Similarity
12,6,2.0562
7,14,1.5059999999999998
15,13,1.3639999999999999
4,2,1.225
9,5,0.782
17,10,0.506
6,17,0.38849999999999996
0,0,0.0
1,1,0.0
2,3,0.0
3,4,0.0
5,7,0.0
8,8,0.0
10,9,0.0
11,11,0.0
13,12,0.0
14,15,0.0
16,16,0.0
18,18,0.0
19,19,0.0
