simple and slick nice job,o,2015-10-28,Ronan Hennessy,5
manual post processing would be great,f,2015-10-27,Michael Lawler,4
1 for quick scroll,b,2015-10-27,Michael Lawler,4
the look is displayed wonderfully and intuitively,b,2015-10-27,Michael Lawler,4
doe what ever you could do through your browser but in your hand,b,2015-10-27,François Vuerich,5
had e difficulty setting up but the developer wa quick to help so 5 star the itself is awesome and work great,b,2015-10-20,Mike Carson,5
totally very useful for every user,o,2015-10-20,Mirjam van Westen,4
would be great in an otherwise perfect,o,2015-10-20,Mirjam van Westen,4
great,o,2015-10-18,Gaël Grasset,5
easily connect with my server and intuitive,b,2015-10-18,Gaël Grasset,5
need toggle and show is paused,f,2015-10-06,Wayne Chrestay,4
get error changing episode status to anything but ignored,b,2015-10-06,Wayne Chrestay,4
great work far,o,2015-10-06,Wayne Chrestay,4
this is the closest yet,b,2015-10-05,Athena Smith,5
just wish the list would auto update,f,2015-10-05,Athena Smith,5
great to pair with thanks dude,f,2015-10-05,Hector Zepeda,5
but you cant delete show,b,2015-10-02,Damo P,3
think you can change an episode status either,f,2015-10-02,Damo P,3
i wa delighted to see it wa the latter and now use it daily,b,2015-10-02,Jeff Laird,5
thanks,o,2015-10-02,Jeff Laird,5
best out of all the compatible,b,2015-09-30,Shaun D,5
work great,o,2015-09-29,Guy Brennan,5
