fixed a bug with the android 6 permission management,b,2015/12/24,,
fixed crash that happened trying to download a new station using a not supported type,b,2015/12/24,,
color palette for and launcher icon adjusted,b,2015/12/21,,
is now tinted red on android 5 and higher,o,2015/12/21,,
