i have a file in my phone but i cant open it in transistor,b,2016-02-01,Joel Victoria,4
edit i figured it out,b,2016-02-01,Joel Victoria,4
i had to paste the file in folder,o,2016-02-01,Joel Victoria,4
