App,Store,App ID,Review ID,Country,Version,Rating,Date,Author,Subject,Body,Translated Subject,Translated Body
Bubble,Google Play,com.nkanaev.comics,Z3A6QU9xcFRPR01wby00VGFURzlpa3k3VEoyY21WWHo2SFpJYm9Mb0pRbGZldlk4TEVsRXhfblBKVEw3RnJnVmZSQ05uUXAwMmdtbVdFUGRVXzR5a3p2amc,English,,5,2017-03-17,Himdeep Rekhi,,far so good,,
Bubble,Google Play,com.nkanaev.comics,Z3A6QU9xcFRPR01wby00VGFURzlpa3k3VEoyY21WWHo2SFpJYm9Mb0pRbGZldlk4TEVsRXhfblBKVEw3RnJnVmZSQ05uUXAwMmdtbVdFUGRVXzR5a3p2amc,English,,5,2017-03-17,Himdeep Rekhi,,i tried other comic reader and my perennial but all these comic reader somehow have difficulty reading from card,,
Bubble,Google Play,com.nkanaev.comics,Z3A6QU9xcFRPR01wby00VGFURzlpa3k3VEoyY21WWHo2SFpJYm9Mb0pRbGZldlk4TEVsRXhfblBKVEw3RnJnVmZSQ05uUXAwMmdtbVdFUGRVXzR5a3p2amc,English,,5,2017-03-17,Himdeep Rekhi,,not sure it is due change made in android,,
Bubble,Google Play,com.nkanaev.comics,Z3A6QU9xcFRPR01wby00VGFURzlpa3k3VEoyY21WWHo2SFpJYm9Mb0pRbGZldlk4TEVsRXhfblBKVEw3RnJnVmZSQ05uUXAwMmdtbVdFUGRVXzR5a3p2amc,English,,5,2017-03-17,Himdeep Rekhi,,this one read comic with no difficulty,,
Bubble,Google Play,com.nkanaev.comics,Z3A6QU9xcFRPR01wby00VGFURzlpa3k3VEoyY21WWHo2SFpJYm9Mb0pRbGZldlk4TEVsRXhfblBKVEw3RnJnVmZSQ05uUXAwMmdtbVdFUGRVXzR5a3p2amc,English,,5,2017-03-17,Himdeep Rekhi,,and easy navigation and very intuitive,,
Bubble,Google Play,com.nkanaev.comics,Z3A6QU9xcFRPRVM5b2lFS3VYdkRtcjFMYnJiYlJYdEpHeEFQcUlyREdlWTI4YkdvRzI2WEQzS0xoc2hUbEZxUlZSQzhMcGJwZG5KQUw0VU15eUl2S0lzV2c,English,,4,2017-03-17,Wilmer Feliciano,,work well is fast easy to use,,
Bubble,Google Play,com.nkanaev.comics,Z3A6QU9xcFRPSGQ3QXIxbnE2TWpPdENxaTdkaWZJZWV0aGFOaHRHMTBESlRzY2xUSG10VjNYaTZmdnJwc1RfNjlBOG43SmZFYmNyN2FuZVV2S283dll4Q1E,English,,5,2017-03-10,Chris Lima,,perfect,,
Bubble,Google Play,com.nkanaev.comics,Z3A6QU9xcFRPSG5oLU1PNDl4c0I4VzZQbzJtZHdUQ0FkSkp0amQyNjVGNkdyaDRGQ1hxRDl4OEhFMlZRRWttM1hINjlxRW5hQlkwTVYzQzk5NEhCWU1yeHc,English,,5,2017-02-26,Daniel Arundel,,great,,
Bubble,Google Play,com.nkanaev.comics,Z3A6QU9xcFRPR0V2RTJMQXZ3UzZ3Um9YZUNzblQ0b0xhYnJ2cGdTNnpUSTZYMlBoYk5JMmNiR0N2NmoxN18zQmJyZDNvOWloMmJrT09DRFBpcWJMSXRkQWc,English,,5,2017-02-18,Sowmen Roy,,,,
Bubble,Google Play,com.nkanaev.comics,Z3A6QU9xcFRPR0V2RTJMQXZ3UzZ3Um9YZUNzblQ0b0xhYnJ2cGdTNnpUSTZYMlBoYk5JMmNiR0N2NmoxN18zQmJyZDNvOWloMmJrT09DRFBpcWJMSXRkQWc,English,,5,2017-02-18,Sowmen Roy,,the most simplest minimal comic book reader ever,,
Bubble,Google Play,com.nkanaev.comics,Z3A6QU9xcFRPR0V2RTJMQXZ3UzZ3Um9YZUNzblQ0b0xhYnJ2cGdTNnpUSTZYMlBoYk5JMmNiR0N2NmoxN18zQmJyZDNvOWloMmJrT09DRFBpcWJMSXRkQWc,English,,5,2017-02-18,Sowmen Roy,,absolutely no bullshit,,
Bubble,Google Play,com.nkanaev.comics,Z3A6QU9xcFRPRVdpaFNMX0tud1paZmUxVUxQNTVsOWZ4ZVdDcldpVlFQbERqXzJtdm5OR05qMWhzc0pnWFBkckp4UWVUaE52WENDaDJUWXJ0aW82b3k5VEE,English,,5,2017-02-18,Allen Sickle,,perfect,,
Bubble,Google Play,com.nkanaev.comics,Z3A6QU9xcFRPRVdpaFNMX0tud1paZmUxVUxQNTVsOWZ4ZVdDcldpVlFQbERqXzJtdm5OR05qMWhzc0pnWFBkckp4UWVUaE52WENDaDJUWXJ0aW82b3k5VEE,English,,5,2017-02-18,Allen Sickle,,you have to know to download the though,,
Bubble,Google Play,com.nkanaev.comics,Z3A6QU9xcFRPRVdpaFNMX0tud1paZmUxVUxQNTVsOWZ4ZVdDcldpVlFQbERqXzJtdm5OR05qMWhzc0pnWFBkckp4UWVUaE52WENDaDJUWXJ0aW82b3k5VEE,English,,5,2017-02-18,Allen Sickle,,this is useful to read them,,
Bubble,Google Play,com.nkanaev.comics,Z3A6QU9xcFRPSGtYeHAzdnVpWUNEbzRsRF9wbDVrU1RmS25Wb256ZjdYVUNYRnpacGdoR191TlZlRlByWlRVaTNpcFB2Q3FpZ1Q3QldNeVlSZTZOU19XelE,English,,1,2017-02-02,Derek Allen,,way to basic and just not even worth the download time,,
Bubble,Google Play,com.nkanaev.comics,Z3A6QU9xcFRPSGxaRTZoR0dqZFdXdWNPS1ExcURIckRsQXB1QkZ6OWN5RGx2ZFBNOGxUM1Z0ZHZLdjRKR0JTMmVmMklWU3QzR1dpWVg3elk2VkpfbFRubmc,English,,1,2017-02-01,damanan lai,,crash,,
Bubble,Google Play,com.nkanaev.comics,Z3A6QU9xcFRPSEJpQ2xoeU55b0M1al9CV0JtRGlKZ18tLUJadDhBMlFvUjA1N05iV2dsS0I2T1Y5cDdablpfSktWR004STBaTzdWSkZkaXlZbGdkVjBvNUE,English,,4,2017-01-13,Ahmad Ananda,Simple,easy to use and work like a charm,,
Bubble,Google Play,com.nkanaev.comics,Z3A6QU9xcFRPRjU4bmNnb29PU3Y5OXFIZ0x4M09zbEN3NC1lYXBqTUJ6VHBCdnp3UHJsQXhyLWc4R25DTzVUT3RZcS1YcXFNSmd4cHAzb0Z1WWhrYjFzVEE,English,,5,2016-12-26,,Love it,tried other reader and this is by far my favorite,,
Bubble,Google Play,com.nkanaev.comics,Z3A6QU9xcFRPRjU4bmNnb29PU3Y5OXFIZ0x4M09zbEN3NC1lYXBqTUJ6VHBCdnp3UHJsQXhyLWc4R25DTzVUT3RZcS1YcXFNSmd4cHAzb0Z1WWhrYjFzVEE,English,,5,2016-12-26,,Love it,you want all sort of look elsewhere,,
Bubble,Google Play,com.nkanaev.comics,Z3A6QU9xcFRPRWtCd2toZldkam9CRDlESzIzSTBOMFc2MTF3a3VwLTNBN24xZ0V4c3NjSmtqdHQ0SS1qQlZ4MW1CZ2pfa1Q3R1MtWEViWi1zQ3l5MmhsbkE,English,,5,2016-12-03,Jaymz Campbell,Perfect,doe exactly what i need with no fuss or intrusion,,
Bubble,Google Play,com.nkanaev.comics,Z3A6QU9xcFRPRWtCd2toZldkam9CRDlESzIzSTBOMFc2MTF3a3VwLTNBN24xZ0V4c3NjSmtqdHQ0SS1qQlZ4MW1CZ2pfa1Q3R1MtWEViWi1zQ3l5MmhsbkE,English,,5,2016-12-03,Jaymz Campbell,Perfect,thanks,,
Bubble,Google Play,com.nkanaev.comics,Z3A6QU9xcFRPR240Y0I1R000WVBlcXpPQWtmMGN2bjQzTUo3Z0FMYjFYRGtrWXFzV0dZVGU3cXBVSndTTWwzRHFZRlB3Y042MjVjQVp2RGhMUTNFdE1OX0E,English,,3,2016-12-03,ilman maulana,Almost perfect,you know what really grind my gear,,
Bubble,Google Play,com.nkanaev.comics,Z3A6QU9xcFRPR240Y0I1R000WVBlcXpPQWtmMGN2bjQzTUo3Z0FMYjFYRGtrWXFzV0dZVGU3cXBVSndTTWwzRHFZRlB3Y042MjVjQVp2RGhMUTNFdE1OX0E,English,,3,2016-12-03,ilman maulana,Almost perfect,good comic reader doest have function to delete and rename folder,,
Bubble,Google Play,com.nkanaev.comics,Z3A6QU9xcFRPSEMwM2s2Z2xsQjYtdWNhWW9rbW9zX1lYZERZSDNyaEhSYlI0MG5hRlA0OHhUNm8xRlY3angtZjJFTjlFRHluaVhWd0hycmdFajQ4R2hmQkE,English,,3,2016-11-24,Nicholas Frota,,the minute you switch to another and it return to library,,
Bubble,Google Play,com.nkanaev.comics,Z3A6QU9xcFRPSEMwM2s2Z2xsQjYtdWNhWW9rbW9zX1lYZERZSDNyaEhSYlI0MG5hRlA0OHhUNm8xRlY3angtZjJFTjlFRHluaVhWd0hycmdFajQ4R2hmQkE,English,,3,2016-11-24,Nicholas Frota,,make it unusable,,
Bubble,Google Play,com.nkanaev.comics,Z3A6QU9xcFRPRnY5eVJZaUh3YjdleUU3WmlKMlRtcm9tdndPWkdoQzF6MXRVOVpPMkwxQjFzWGRONmt4SThxRmJBU080eU11cFJQX0VZTFFCcGIwZUt0Y0E,English,,3,2016-11-20,Steven L.,Super simple...,but it ha major problem with large image,,
Bubble,Google Play,com.nkanaev.comics,Z3A6QU9xcFRPRnY5eVJZaUh3YjdleUU3WmlKMlRtcm9tdndPWkdoQzF6MXRVOVpPMkwxQjFzWGRONmt4SThxRmJBU080eU11cFJQX0VZTFFCcGIwZUt0Y0E,English,,3,2016-11-20,Steven L.,Super simple...,no other reader doe which is a shame because i like bubble better the others,,
Bubble,Google Play,com.nkanaev.comics,Z3A6QU9xcFRPRU5qYXhSY1RYZzNwTTl1MTAxNHlHTUVMS1VYT2RyVThnN1lyOTlhb3Rub2JZOUttVHIyMU1ZOGYtcVVHdWlmY0pyYnpkanBkMlVRQnJxcUE,English,,5,2016-11-11,Nischith Shetty,Perfection!,this is organized and just easy to use,,
Bubble,Google Play,com.nkanaev.comics,Z3A6QU9xcFRPRmhWaGF2eGdnNWxWMjJiWElZRzM3WnhmektGQU50Q2R6MEhwX2w2OEVmOEcyWEhkX0V2VS1lSXlNQ0FtcmRRaWhUWllGME0wVnhETURpWUE,English,,4,2016-11-11,Sparky Jones,,nearly perfect,,
Bubble,Google Play,com.nkanaev.comics,Z3A6QU9xcFRPRTNfTnZFVzA2VXlOU2JHWFB0LXpyY1RLUFlhSWRTU0ZLOFo1bWFiWXJ0OGJYWmY3WXFRcUY4Rk9xc2xVMVV3djlSS2t5dkhJODJPcmpNUGc,English,,5,2016-11-11,Darren Breydsor,Brilliant,it doe what it need and doe it very well,,
Bubble,Google Play,com.nkanaev.comics,Z3A6QU9xcFRPRTNfTnZFVzA2VXlOU2JHWFB0LXpyY1RLUFlhSWRTU0ZLOFo1bWFiWXJ0OGJYWmY3WXFRcUY4Rk9xc2xVMVV3djlSS2t5dkhJODJPcmpNUGc,English,,5,2016-11-11,Darren Breydsor,Brilliant,it is very but totally functional,,
Bubble,Google Play,com.nkanaev.comics,Z3A6QU9xcFRPRTl5TVJPZnNFTEUyVzI3SnoySTNEdEtKSUJac0pLYTNzemN4TkFwQ1dqSEo3Mk9UQnh0elQzZlFVUkQ3ajN5RHE3My00S044cVp3SFV4a2c,English,,3,2016-11-08,Manos Kant,Still needs work but looks very promising.,keep it up,,
Bubble,Google Play,com.nkanaev.comics,Z3A6QU9xcFRPRWYyTFhpOTIyeXRZU0pkRGNyYmNoM2RQejczMzlZdWdxcVlrZ0hDU25QLVJLTms1SXdEa3ZrUG9lZjRwSDlHNzdzUE0ya0N2bkJFMGFGLVE,English,,5,2016-11-03,Robert Allen,Great free and ad free reader,thanks,,
Bubble,Google Play,com.nkanaev.comics,Z3A6QU9xcFRPSEZiYWlUVThaSDIwZzRMWVdzQ3RXd2ctZnpfeHNhMnRMQ3RzVjU0R0cxdXNoZG1ST2djcFNXQVlBXy0zZ0c4WEplZmpNMlR5V0JMWWhCWkE,English,,5,2016-10-20,Gp magnet,гут,zoom lock,,
Bubble,Google Play,com.nkanaev.comics,Z3A6QU9xcFRPRWJTeEtqbDdBUmgtbmtqUkg0U3pQMDV4LUY3Rl9LdlVMcXhsRElucFdUUFkzaUNJdWRlWFd1Z3VqdHJKOVNhVlh6X04wMHhXbkNiWDN4emc,English,,4,2016-10-09,Grandpa Chet,Almost perfect; needs synced,one thing needed to make this perfect,,
Bubble,Google Play,com.nkanaev.comics,Z3A6QU9xcFRPRWJTeEtqbDdBUmgtbmtqUkg0U3pQMDV4LUY3Rl9LdlVMcXhsRElucFdUUFkzaUNJdWRlWFd1Z3VqdHJKOVNhVlh6X04wMHhXbkNiWDN4emc,English,,4,2016-10-09,Grandpa Chet,Almost perfect; needs synced,we could just enter our file folder and click on the or file then,,
Bubble,Google Play,com.nkanaev.comics,Z3A6QU9xcFRPRWJTeEtqbDdBUmgtbmtqUkg0U3pQMDV4LUY3Rl9LdlVMcXhsRElucFdUUFkzaUNJdWRlWFd1Z3VqdHJKOVNhVlh6X04wMHhXbkNiWDN4emc,English,,4,2016-10-09,Grandpa Chet,Almost perfect; needs synced,the file would open in bubble,,
Bubble,Google Play,com.nkanaev.comics,Z3A6QU9xcFRPRzJOeTRmT09sc09vS0RJSjRYUkQyY251TDFMVXNjVHFyMlhxb2JSUlMtRTZuQ3QtRkRXQWR0TDRyTmFmYW1hdERaWVE3cW5qSkY2Zm1JUmc,English,,3,2016-10-08,Jei Maurice,,,,
Bubble,Google Play,com.nkanaev.comics,Z3A6QU9xcFRPSERDR3ZHdXRicG1kWGVieDlLQm1wN0RiNHhEaF9fWnVXYTgyY25CT0dLbEZhMkhETTRVbVRPWi1kSjdKRWdUYWw5aVBUN2l0V0ZsV1NocGc,English,,3,2016-10-06,kerja kerja,Keep crashed :(,hope you guy fixed it,,
Bubble,Google Play,com.nkanaev.comics,Z3A6QU9xcFRPRWM2Tk1PU3BkRmZ1ODFBZVIxOHJ1YVp1T0NheTVQMmZRZXcyQkZ1VkFTM3R6MzBtYk85dGZTZ0s2RHkyTTlqWE5Rd2xZbmNoVFdWZTc5VFE,English,,5,2016-10-04,Shashank Srivastava,"Simple, Sober & Beautiful",i am able to read the comic even established comic reader failed to,,
Bubble,Google Play,com.nkanaev.comics,Z3A6QU9xcFRPRWM2Tk1PU3BkRmZ1ODFBZVIxOHJ1YVp1T0NheTVQMmZRZXcyQkZ1VkFTM3R6MzBtYk85dGZTZ0s2RHkyTTlqWE5Rd2xZbmNoVFdWZTc5VFE,English,,5,2016-10-04,Shashank Srivastava,"Simple, Sober & Beautiful",kudos to the developer for this amazing comic reader,,
Bubble,Google Play,com.nkanaev.comics,Z3A6QU9xcFRPSG5xaGhPRUw2UlpORmVDb2dET0ROYjV1cGhVQURRdlAtNVFmSjBsa2JPbVpOTF9ybm9ZWWdvRUl0XzRDNjVoWXU5UlVheThmb21BN2E5Y0E,English,,5,2016-10-03,George Villiotis,,easy and ha everything i want,,
Bubble,Google Play,com.nkanaev.comics,Z3A6QU9xcFRPSG5xaGhPRUw2UlpORmVDb2dET0ROYjV1cGhVQURRdlAtNVFmSjBsa2JPbVpOTF9ybm9ZWWdvRUl0XzRDNjVoWXU5UlVheThmb21BN2E5Y0E,English,,5,2016-10-03,George Villiotis,,would like the ability to read comic book file directly from the file manager,,
Bubble,Google Play,com.nkanaev.comics,Z3A6QU9xcFRPSGxMbktxMHFHMWFoTnRGZzlWem9XMnplWmN5b256Q1RrT2xSV1MyYU5CVVI1ZWRjVERZbVFyaVV6ekhGb083XzlpRUt0Wl9NdUZJVHctUmc,English,,3,2016-09-28,James Enloe,,nice easy to use,,
Bubble,Google Play,com.nkanaev.comics,Z3A6QU9xcFRPSGxMbktxMHFHMWFoTnRGZzlWem9XMnplWmN5b256Q1RrT2xSV1MyYU5CVVI1ZWRjVERZbVFyaVV6ekhGb083XzlpRUt0Wl9NdUZJVHctUmc,English,,3,2016-09-28,James Enloe,,but no nested folder support,,
Bubble,Google Play,com.nkanaev.comics,Z3A6QU9xcFRPSGxMbktxMHFHMWFoTnRGZzlWem9XMnplWmN5b256Q1RrT2xSV1MyYU5CVVI1ZWRjVERZbVFyaVV6ekhGb083XzlpRUt0Wl9NdUZJVHctUmc,English,,3,2016-09-28,James Enloe,,i would rather drill down the folder setup i have rather have all the in a flat view,,
Bubble,Google Play,com.nkanaev.comics,Z3A6QU9xcFRPRlZ3dXpFLU1ESmxXTGlZV1RFWWRtUXkwSF9MU0h6MC1fMENTWk05SnAwTzZOR0s3TnEyTUdubmxxdkhNZzFFbkZyb2FTR29YdlR1UUJTR1E,English,,3,2016-09-26,Wayne Brian Cabañero,It's okay,good,,
Bubble,Google Play,com.nkanaev.comics,Z3A6QU9xcFRPRlZ3dXpFLU1ESmxXTGlZV1RFWWRtUXkwSF9MU0h6MC1fMENTWk05SnAwTzZOR0s3TnEyTUdubmxxdkhNZzFFbkZyb2FTR29YdlR1UUJTR1E,English,,3,2016-09-26,Wayne Brian Cabañero,It's okay,lot of potential,,
Bubble,Google Play,com.nkanaev.comics,Z3A6QU9xcFRPRlZ3dXpFLU1ESmxXTGlZV1RFWWRtUXkwSF9MU0h6MC1fMENTWk05SnAwTzZOR0s3TnEyTUdubmxxdkhNZzFFbkZyb2FTR29YdlR1UUJTR1E,English,,3,2016-09-26,Wayne Brian Cabañero,It's okay,add more feature,,
Bubble,Google Play,com.nkanaev.comics,Z3A6QU9xcFRPRnVqOXhhOHRBRTFkWGZacE0xSkFkUU1lWDlvSlo1VW0wNXlMQ1dXT1pULVhGUWdVdDN3TFRQRU54UzJ4clIxWjRqWk8yU0hLSGo5b2xBeFE,English,,2,2016-09-17,Darth Kal-El,,need guided view like other comic,,
Bubble,Google Play,com.nkanaev.comics,Z3A6QU9xcFRPRVBFc0FrRFAtM1FXMUFOX1hac014OFRoc0ZqenI1SV94aXhQTDN6cVpzVjlOSll2VUdSUVY1RVdwU3RkM2FSeTMyX3NsV2tDNndjdlRTblE,English,,5,2016-09-11,Nick Moon,Great free reader,nice work,,
Bubble,Google Play,com.nkanaev.comics,Z3A6QU9xcFRPRW9DcC1Ec0tibkFZcUpJcUM2aU5ULWJSWUtUVlpxMVRHOFRLM0tBelBTZzByVmxjbkpUTmtoQkFvc0ZpT0gyYk5XZk9IVEFYQ0NLckUxWHc,English,,5,2016-09-03,Davor Orlović,Awesome,best comic reader on,,
Bubble,Google Play,com.nkanaev.comics,Z3A6QU9xcFRPR0U5ZGJWbllTWm9hNnRRQ3doa21acEFOcGx4WndMbXdNZWNrb0wzNDZyamJobDZ5LXhIMHVnWHZhR3BKT3c1YlpyQ0l5UTlmbHpmdGdOVnc,English,,3,2016-09-03,Dusan Bucuric,Features missing,no mark read,,
Bubble,Google Play,com.nkanaev.comics,Z3A6QU9xcFRPR0U5ZGJWbllTWm9hNnRRQ3doa21acEFOcGx4WndMbXdNZWNrb0wzNDZyamJobDZ5LXhIMHVnWHZhR3BKT3c1YlpyQ0l5UTlmbHpmdGdOVnc,English,,3,2016-09-03,Dusan Bucuric,Features missing,loading page too long trying to quickly change page,,
Bubble,Google Play,com.nkanaev.comics,Z3A6QU9xcFRPSFpfcDAxbW9odkx0QVhmQ1UtWG9XVE5pcnU1cHJ5NUplQWpxWE5QZ2hCLTloRUV2Y1JaQThqX2pUTC1YNHFhZjJIMDNOa3JST0owQkhrR3c,English,,4,2016-08-31,S phantomhive,,very nice and comic book reader,,
Bubble,Google Play,com.nkanaev.comics,Z3A6QU9xcFRPSFpfcDAxbW9odkx0QVhmQ1UtWG9XVE5pcnU1cHJ5NUplQWpxWE5QZ2hCLTloRUV2Y1JaQThqX2pUTC1YNHFhZjJIMDNOa3JST0owQkhrR3c,English,,4,2016-08-31,S phantomhive,,there is any possibility please include vertical scrolling this feature will be nice to have,,
Bubble,Google Play,com.nkanaev.comics,Z3A6QU9xcFRPRnZHdmNRSDRsdGVtTkdvcEJMaUt2SC12Q0djcUpHLWZWOEFfbHozMzhfdmpMcUFXd1ZjbXNpTW52alBtMzhpUFI3TmtLTk02Zmtzb3hTZFE,English,,4,2016-08-30,Geo Kan,Very nice and easy.,i would like it had effect for the page,,
Bubble,Google Play,com.nkanaev.comics,Z3A6QU9xcFRPRnZHdmNRSDRsdGVtTkdvcEJMaUt2SC12Q0djcUpHLWZWOEFfbHozMzhfdmpMcUFXd1ZjbXNpTW52alBtMzhpUFI3TmtLTk02Zmtzb3hTZFE,English,,4,2016-08-30,Geo Kan,Very nice and easy.,would feel like more comic reading,,
Bubble,Google Play,com.nkanaev.comics,Z3A6QU9xcFRPRlU2UWszTGs3VlN5ZGtGUlkxMUlpVjE3dlphNi0xVDBFMlMxeUhURDc3ZTI0ZHBybUxGM0ZGRkpXcUU4cDhJNXp5NjlqX1lYbHpxaXB2cFE,English,,3,2016-08-25,Mr Nga Pyae X,Rifer,u i love,,
Bubble,Google Play,com.nkanaev.comics,Z3A6QU9xcFRPRnFGMWxSQlNTQWtTTzkyVlhUd0FUbDhfZTlOT3EtenNTS2trWmYtYUtKTzJONWNLUXM3OVVXVXlzSHRaTi10dUFtdkpoVnhEMTB1Q3dWRUE,English,,5,2016-08-21,Andi Bier,,excellent comic reader,,
Bubble,Google Play,com.nkanaev.comics,Z3A6QU9xcFRPRnFGMWxSQlNTQWtTTzkyVlhUd0FUbDhfZTlOT3EtenNTS2trWmYtYUtKTzJONWNLUXM3OVVXVXlzSHRaTi10dUFtdkpoVnhEMTB1Q3dWRUE,English,,5,2016-08-21,Andi Bier,,love it,,
Bubble,Google Play,com.nkanaev.comics,Z3A6QU9xcFRPSGtuQXZxeW5yUlhBUWs2YzVKVHZDLVdfemFZM0dDZlNpWTJQNjRvNk4xY0Q4cFdhRk8xek5TSVRYY0lHNmRKLVJKMmlVTXFLT3JLZkVHRkE,English,,5,2016-08-21,Milorad Rovcanin,Great app,i really like this,,
Bubble,Google Play,com.nkanaev.comics,Z3A6QU9xcFRPSGtuQXZxeW5yUlhBUWs2YzVKVHZDLVdfemFZM0dDZlNpWTJQNjRvNk4xY0Q4cFdhRk8xek5TSVRYY0lHNmRKLVJKMmlVTXFLT3JLZkVHRkE,English,,5,2016-08-21,Milorad Rovcanin,Great app,two thumb up from me,,
Bubble,Google Play,com.nkanaev.comics,Z3A6QU9xcFRPRzQ0YVF6cHVhRkhqa0VIUDhBaDdSOE9ETW1QYXo1NzRrLVF2a2hXY08xYkdqRElyYlV1NEZVOE9yQlNlbDh3YkpFTi01TjdFWFdvbFZVR1E,English,,5,2016-08-17,Zhe Xi Ooi,,simple to smooth and quick page turn,,
Bubble,Google Play,com.nkanaev.comics,Z3A6QU9xcFRPSG04Q2hWV1dMUlVlYTNEQmkxdWhfV3p5cG03V29XaVl4WndWMTBwUk9wRjVCRmh4ZGNPcFVQZk52RVlOVzY4eDlwYjRqMGttVENiS2RXNlE,English,,5,2016-08-09,Matthew Yadron,Love this beautiful comic reader!,thank you much the developer and or developer,,
Bubble,Google Play,com.nkanaev.comics,Z3A6QU9xcFRPSG04Q2hWV1dMUlVlYTNEQmkxdWhfV3p5cG03V29XaVl4WndWMTBwUk9wRjVCRmh4ZGNPcFVQZk52RVlOVzY4eDlwYjRqMGttVENiS2RXNlE,English,,5,2016-08-09,Matthew Yadron,Love this beautiful comic reader!,love the material design and i can see this being my number 1 comic book reader,,
Bubble,Google Play,com.nkanaev.comics,Z3A6QU9xcFRPRzBBcG5kQUx5eFdPTVU5cWpXUmthUC1FSm9Hc1E1VERSNFI2S3VscGllQUFhTF9meFJmdzM3cUVLbFQ2SlBONzNxZll0MFBBQU5iaTdMaVE,English,,4,2016-08-08,penHolder designerd,,a little too but very effective,,
Bubble,Google Play,com.nkanaev.comics,Z3A6QU9xcFRPSDc2dDg4TjRmNVZ2YzlBM1cyZnBHVkxKZUd3RVpHdllqWWxBempJcTh1djREMFc3dVBNbmR0dWFfaEt6R2F1Q1BmRzg0aVdRbFRrYUx1THc,English,,5,2016-07-29,Kimbo Price,Simplicity,i love how simple bubble it look freaking sweet,,
Bubble,Google Play,com.nkanaev.comics,Z3A6QU9xcFRPSDc2dDg4TjRmNVZ2YzlBM1cyZnBHVkxKZUd3RVpHdllqWWxBempJcTh1djREMFc3dVBNbmR0dWFfaEt6R2F1Q1BmRzg0aVdRbFRrYUx1THc,English,,5,2016-07-29,Kimbo Price,Simplicity,please support you would be my hero,,
Bubble,Google Play,com.nkanaev.comics,Z3A6QU9xcFRPRmxnMzJnZjN6YmpRS0RsRkpHaHZrYjZpR2dTM1hiV0hsMzI1SHo3ckREY2ZmR0drVHplcV9NWlNRSzYwZnJYbmdtQTZkLTNBQXZFM1A1M2c,English,,5,2016-07-27,Stephen Haroldson,,bubble wa the reader i could find on the play store without ad,,
Bubble,Google Play,com.nkanaev.comics,Z3A6QU9xcFRPSDVueGNYQ3ZnamlIOHFmN2xwYnVrVVlNQ3lwTUVfRGJ0Q1o2Q2JqYWJyMjRhUENmTUtEcGFvX3p3dVpHNEJTU1I0NUFidnNBcnVDTTZUZlE,English,,4,2016-07-24,Patrick McGraw,,an excellent comic book reader,,
Bubble,Google Play,com.nkanaev.comics,Z3A6QU9xcFRPSEFlZ3pQZDczeWdjMGk0RWluUWZmdzR6eHNqeFpoS2czeWFtLTVNaFJIVUFaa0FPZ201cGhEWk02enNPMlYyNzFQQnA0TFhjX1BndTlmaEE,English,,5,2016-07-15,Vivek Baraiya,Excellent!,just love this,,
Bubble,Google Play,com.nkanaev.comics,Z3A6QU9xcFRPR3RsU2lNWDZveVE2VWo5VWFPX0ZpeE16bjQ1S2dWcGZxcDRLSUhIaWVzd29GR0hLVm9TeDBQMzRaN2VEZFhwclNxRm1tX0NYb0wtQWNFWHc,English,,5,2016-07-10,Wolede Adeniyi,It's beautiful,clean design and sweet user experience,,
Bubble,Google Play,com.nkanaev.comics,Z3A6QU9xcFRPSFp2cnFReTQ5S2xDRWlHaTNUWFVxaTl2bUZPQWJSTjhTNTBYZUU3bjNFUFpOTkJTR2VoZFdLT0VBbmpGZ0VzQ19qV2xSN2Y0Y0w3YVp6VHc,English,,4,2016-06-29,Kat Ng,,if you could delete the book you done reading and adjust brightness,,
Bubble,Google Play,com.nkanaev.comics,Z3A6QU9xcFRPRnZ2bTRKQmQ4NXVLLTRXQ1ctTVh4X0F0YTY4ODlJYUFTTHlZc05YRTBLa0JXdXFTNUQ2WmgtWGd4ZzhlM3BPOEx5SEtJdUdFS2dHV1VPM0E,English,,5,2016-06-23,Gideon Ebikade,,nice easy to use,,
Bubble,Google Play,com.nkanaev.comics,Z3A6QU9xcFRPRlNCNmdIN3M3ekE0QjdIbmd1eUN0X2hYYjZtVU9KZUxOR2NpN1IxYzBCUXhZOTVoQy16bjIxVUtrZHRQVVhsYlJTbTFURGRaa1VaX21mbUE,English,,5,2016-06-16,Tom Sonnemans,Finally something decent!,the clean modern responsiveness and lack of permission bloat already put it above most alternative,,
Bubble,Google Play,com.nkanaev.comics,Z3A6QU9xcFRPRlNCNmdIN3M3ekE0QjdIbmd1eUN0X2hYYjZtVU9KZUxOR2NpN1IxYzBCUXhZOTVoQy16bjIxVUtrZHRQVVhsYlJTbTFURGRaa1VaX21mbUE,English,,5,2016-06-16,Tom Sonnemans,Finally something decent!,only thing it need is a little more elegant progress and making it properly clear the library is rescanned,,
Bubble,Google Play,com.nkanaev.comics,Z3A6QU9xcFRPSEFBVzRsRVFQUlJwSUdwcGtKSVhHWF9hdHV3OWgyVV9EOUJQakU3VTV3dkJoYXp5QWNNUnVhc0RTeU5zbVZLdDA4YTBpQkx3RHFBaW03clE,English,,5,2016-06-01,Sajid Khan.,SIMPLE AND BEST.,very easy comic thanks,,
Bubble,Google Play,com.nkanaev.comics,Z3A6QU9xcFRPRXlYZ0YwS3FFQ2ZpNlRwTWgtU1Z2ZUF3Ykw1anNGVm8zUi13allOd3pBcEozNmRSUlhxYzBpam91S2o0aTIyUnNjejY3dVkwbDlBWVBaSFE,English,,1,2016-05-28,sri Venkat,Not working,file are unable to open,,
Bubble,Google Play,com.nkanaev.comics,Z3A6QU9xcFRPRXZrb2ZBajBLVmRMcUJoemlockMwUVFiQTFYUjVPQ0NpT3l3dUY1YWR3NUNFRnVoSDJuVnRZRzZUcUE4TFo0NDBoMDhZeGFDWGRjdU04Snc,English,,3,2016-05-28,Md Nazial Kadir,It's brilliant. Love the material design.,suggestion customizable allow continuous vertical cloud access,,
Bubble,Google Play,com.nkanaev.comics,Z3A6QU9xcFRPSEZMM2R4aVZzNDFtMkhpNDZXWmZRQlhfRldEZ2REbm1IaEJQc09YSGJ4SGljbUxFbGl2ZnFtdnAzZkRfdnV3eWUxcWZSdXFKTGN4VFNjd3c,English,,5,2016-05-25,Saravanan Anantha krishnan,Worthy app!,look good,,
Bubble,Google Play,com.nkanaev.comics,Z3A6QU9xcFRPSEZMM2R4aVZzNDFtMkhpNDZXWmZRQlhfRldEZ2REbm1IaEJQc09YSGJ4SGljbUxFbGl2ZnFtdnAzZkRfdnV3eWUxcWZSdXFKTGN4VFNjd3c,English,,5,2016-05-25,Saravanan Anantha krishnan,Worthy app!,doe the work perfectly,,
Bubble,Google Play,com.nkanaev.comics,Z3A6QU9xcFRPSEZMM2R4aVZzNDFtMkhpNDZXWmZRQlhfRldEZ2REbm1IaEJQc09YSGJ4SGljbUxFbGl2ZnFtdnAzZkRfdnV3eWUxcWZSdXFKTGN4VFNjd3c,English,,5,2016-05-25,Saravanan Anantha krishnan,Worthy app!,and it free,,
Bubble,Google Play,com.nkanaev.comics,Z3A6QU9xcFRPSEZMM2R4aVZzNDFtMkhpNDZXWmZRQlhfRldEZ2REbm1IaEJQc09YSGJ4SGljbUxFbGl2ZnFtdnAzZkRfdnV3eWUxcWZSdXFKTGN4VFNjd3c,English,,5,2016-05-25,Saravanan Anantha krishnan,Worthy app!,wow great work,,
Bubble,Google Play,com.nkanaev.comics,Z3A6QU9xcFRPSFlxYjhreDh5M3ZWUjJ6d2RfYTZIZVhRdEtHUmFZaXJjU3lSaFpkRTAxZ2NLUXVhT3NtSFdYSnkzazVQQ0NLd1QxNFVQczRoTDBzaEpNcmc,English,,5,2016-05-24,Jody Crow,,simple and elegant,,
Bubble,Google Play,com.nkanaev.comics,Z3A6QU9xcFRPSDM2bHdsdmI5UExlWk5TQng3MGpsR2N4WEoxQ0laRjA5b0NkUUg0azFCU2kzcEtXdUdUWFFodTRNVFhZQzlzY1czSTNZcll3TkVqaVRjVXc,English,,5,2016-05-14,Caleb Palmer,Nice app,and doe the job,,
