App,Store,App ID,Review ID,Country,Version,Rating,Date,Author,Subject,Body,Translated Subject,Translated Body
Simple Bitcoin Widget,Google Play,com.brentpanther.bitcoinwidget,Z3A6QU9xcFRPRko0UGdKeFFSTEJBTkY0Mnh0V21aRGhtN3otbm1LTEEyUVdZeDhjSVg1Rm5wb2NRQ2ZZRUMwZjJCS1R0Wkt1TmJYQXBQRlpxb25SY2JF,English,,5,2014-06-25,Seth Chambers,Awesome app.,i watch and it go up and down,,
Simple Bitcoin Widget,Google Play,com.brentpanther.bitcoinwidget,Z3A6QU9xcFRPSGplbTl0U3RDVUM1SUNOa29oTzQzbDNqZE1PX19EZnY3Y0w2WVljaFJWYjZIamxkT052dU5UUm85cE5OV19DblhvVjdoU0xUb0FIdjI1,English,,5,2014-06-08,Sean Lynch,Nice simple widget,doe exactly what it and doe it well,,
Simple Bitcoin Widget,Google Play,com.brentpanther.bitcoinwidget,Z3A6QU9xcFRPR0ltOWkydTY5LTlxMFp6NE95MFE1YzdEeC15N2o1cmlfWlg4NWUxeFREai1USjA5ZnhMQmVvbkRCTGU1S2pidTNFZ1hIeDZDNmtfQnFS,English,,4,2014-05-24,Chris AndSoForth,Seems to work well.,never had it force close,,
Simple Bitcoin Widget,Google Play,com.brentpanther.bitcoinwidget,Z3A6QU9xcFRPR0ltOWkydTY5LTlxMFp6NE95MFE1YzdEeC15N2o1cmlfWlg4NWUxeFREai1USjA5ZnhMQmVvbkRCTGU1S2pidTNFZ1hIeDZDNmtfQnFS,English,,4,2014-05-24,Chris AndSoForth,Seems to work well.,always seems to be accurate,,
Simple Bitcoin Widget,Google Play,com.brentpanther.bitcoinwidget,Z3A6QU9xcFRPRUREYU90Zk9fNG9XS1RhOG1XcUFIX242WWpGdWp0M2o4SlAwekRZMjdfMkFKaGd6OFExbzVPZnA4d2ltTFM4VTlGMWRFWWx4RnJMekRm,English,,5,2014-05-24,Paul Ma,Perfect,work fine,,
