App,Store,App ID,Review ID,Country,Version,Rating,Date,Author,Subject,Body,Translated Subject,Translated Body
Simple Bitcoin Widget,Google Play,com.brentpanther.bitcoinwidget,Z3A6QU9xcFRPRmdabHh2TG12YnRQVm80anJBdGhRNzloVVE0VjBoTW5hMGI5LWc2aHBlaUIzVjRDVW5hUVBCVUxPVlRsODI3Vjl1YXJCcHdRMHljTk9j,English,,5,2017-05-21,Riaan Jutte,,excellent open source,,
Simple Bitcoin Widget,Google Play,com.brentpanther.bitcoinwidget,Z3A6QU9xcFRPRmdabHh2TG12YnRQVm80anJBdGhRNzloVVE0VjBoTW5hMGI5LWc2aHBlaUIzVjRDVW5hUVBCVUxPVlRsODI3Vjl1YXJCcHdRMHljTk9j,English,,5,2017-05-21,Riaan Jutte,,good job,,
Simple Bitcoin Widget,Google Play,com.brentpanther.bitcoinwidget,Z3A6QU9xcFRPR1BwNTU5WjlvSVV3c3B3cXJlLVBUV18xYUJCcUt2LTlqUTlsODVMNlZYNEpLV05JVnFyODVGb041d1pXMFRQc2dITHVBYUlxSzBXLW51,English,,5,2017-05-20,Radomir Kujović,,perfect minimalistic widget,,
Simple Bitcoin Widget,Google Play,com.brentpanther.bitcoinwidget,Z3A6QU9xcFRPR1BwNTU5WjlvSVV3c3B3cXJlLVBUV18xYUJCcUt2LTlqUTlsODVMNlZYNEpLV05JVnFyODVGb041d1pXMFRQc2dITHVBYUlxSzBXLW51,English,,5,2017-05-20,Radomir Kujović,,tap to refresh is excellent,,
Simple Bitcoin Widget,Google Play,com.brentpanther.bitcoinwidget,Z3A6QU9xcFRPR1BwNTU5WjlvSVV3c3B3cXJlLVBUV18xYUJCcUt2LTlqUTlsODVMNlZYNEpLV05JVnFyODVGb041d1pXMFRQc2dITHVBYUlxSzBXLW51,English,,5,2017-05-20,Radomir Kujović,,edit thanks for the option to hide decimal and all the other improvement,,
Simple Bitcoin Widget,Google Play,com.brentpanther.bitcoinwidget,Z3A6QU9xcFRPR2VqbFBIN055cERITEtkZWFWYXg4V2w0SGNmWDRSRzhOcExIdTRRWkZ6bVhJZnZBS1pqcXhVaFJXTi1ZWjhPN3RmMEVzemtOWERVcy1F,English,,5,2017-05-18,,,the font size ha drastically increased in the recent update,,
Simple Bitcoin Widget,Google Play,com.brentpanther.bitcoinwidget,Z3A6QU9xcFRPR2VqbFBIN055cERITEtkZWFWYXg4V2w0SGNmWDRSRzhOcExIdTRRWkZ6bVhJZnZBS1pqcXhVaFJXTi1ZWjhPN3RmMEVzemtOWERVcy1F,English,,5,2017-05-18,,,now changing the widget the font is either tiny or huge,,
Simple Bitcoin Widget,Google Play,com.brentpanther.bitcoinwidget,Z3A6QU9xcFRPRzRHVDh3Rnl0NEZoU3dhcUlkU3NZay1uekx4R1B6V05SSkh1OUNmS1Q3OGtWRVhZdld3NEZ2TWdTN1plV2FTU1pIaW1FTVJMN2VtV3Zz,English,,5,2017-05-17,,,i found this widget and figured it is all i needed to keep up on the value,,
Simple Bitcoin Widget,Google Play,com.brentpanther.bitcoinwidget,Z3A6QU9xcFRPRzRHVDh3Rnl0NEZoU3dhcUlkU3NZay1uekx4R1B6V05SSkh1OUNmS1Q3OGtWRVhZdld3NEZ2TWdTN1plV2FTU1pIaW1FTVJMN2VtV3Zz,English,,5,2017-05-17,,,it ha some great menu feature and will clearly satisfy your need for a little widget,,
Simple Bitcoin Widget,Google Play,com.brentpanther.bitcoinwidget,Z3A6QU9xcFRPRzRHVDh3Rnl0NEZoU3dhcUlkU3NZay1uekx4R1B6V05SSkh1OUNmS1Q3OGtWRVhZdld3NEZ2TWdTN1plV2FTU1pIaW1FTVJMN2VtV3Zz,English,,5,2017-05-17,,,thank you to for being a trustworthy developer,,
Simple Bitcoin Widget,Google Play,com.brentpanther.bitcoinwidget,Z3A6QU9xcFRPRzRHVDh3Rnl0NEZoU3dhcUlkU3NZay1uekx4R1B6V05SSkh1OUNmS1Q3OGtWRVhZdld3NEZ2TWdTN1plV2FTU1pIaW1FTVJMN2VtV3Zz,English,,5,2017-05-17,,,,,
Simple Bitcoin Widget,Google Play,com.brentpanther.bitcoinwidget,Z3A6QU9xcFRPRnZJYkhQdTJsaENfenJBYktDUkRZMXZZaTJEN3J2Z1BkR2RDV1hScm92a21nUVUxbTNsdGdKUjdoNkdrNmZoV29nMkUxUUNPa3RRZ0t0,English,,5,2017-05-09,Jeson Gaudan,,great love it,,
Simple Bitcoin Widget,Google Play,com.brentpanther.bitcoinwidget,Z3A6QU9xcFRPRnZJYkhQdTJsaENfenJBYktDUkRZMXZZaTJEN3J2Z1BkR2RDV1hScm92a21nUVUxbTNsdGdKUjdoNkdrNmZoV29nMkUxUUNPa3RRZ0t0,English,,5,2017-05-09,Jeson Gaudan,,add a you,,
Simple Bitcoin Widget,Google Play,com.brentpanther.bitcoinwidget,Z3A6QU9xcFRPSDVySi1KZ0xHMTM4aENuSkREajBMeHhyXzQxWTNkWlpRbE5PbjdPV0Q3RDNYZlkxNHNhcTdXNnlMc0g0OGJ5czRWMTlfSDZ6YmJuc0lF,English,,2,2017-04-28,Matthew Lawson,,back to using a browser,,
Simple Bitcoin Widget,Google Play,com.brentpanther.bitcoinwidget,Z3A6QU9xcFRPSDVySi1KZ0xHMTM4aENuSkREajBMeHhyXzQxWTNkWlpRbE5PbjdPV0Q3RDNYZlkxNHNhcTdXNnlMc0g0OGJ5czRWMTlfSDZ6YmJuc0lF,English,,2,2017-04-28,Matthew Lawson,,,,
Simple Bitcoin Widget,Google Play,com.brentpanther.bitcoinwidget,Z3A6QU9xcFRPR3gzalllUGdJYldYdmRKYTVlNllQUVVNMU55YndzUlo1cUxHeTZmekhjeUw2RXNBbk1US0RVWVVBc3dkNGt6OUI2a1VJbmVLNUhOd3Rx,English,,5,2017-04-25,Abrar Shahriar,,great job,,
Simple Bitcoin Widget,Google Play,com.brentpanther.bitcoinwidget,Z3A6QU9xcFRPRTQ5WC1zY0xPQXBWRVZaUnQ5Z093bzdOVEI2T1hWc1ZVeHVhOW82dHR0YS15Wm1FYXhFVDJGMk16bG9IeHNsS1NUY1lyM1JoZUc1dG1S,English,,5,2017-04-02,Neeraj Kushwaha,,good,,
Simple Bitcoin Widget,Google Play,com.brentpanther.bitcoinwidget,Z3A6QU9xcFRPSEtrblVmaHYtZlktOHFtTE1GNm52NHd4ZVFGbFFWX05SQU5LVTlzVnJMUWcxbEJkM1YwZVVDeGp6cDZfdGpGamx0c2lCSXExNkRxZWZK,English,,5,2017-03-30,Sulistyo Widhi N,,this is the best widget,,
Simple Bitcoin Widget,Google Play,com.brentpanther.bitcoinwidget,Z3A6QU9xcFRPSEtrblVmaHYtZlktOHFtTE1GNm52NHd4ZVFGbFFWX05SQU5LVTlzVnJMUWcxbEJkM1YwZVVDeGp6cDZfdGpGamx0c2lCSXExNkRxZWZK,English,,5,2017-03-30,Sulistyo Widhi N,,can i request for market,,
Simple Bitcoin Widget,Google Play,com.brentpanther.bitcoinwidget,Z3A6QU9xcFRPSEtrblVmaHYtZlktOHFtTE1GNm52NHd4ZVFGbFFWX05SQU5LVTlzVnJMUWcxbEJkM1YwZVVDeGp6cDZfdGpGamx0c2lCSXExNkRxZWZK,English,,5,2017-03-30,Sulistyo Widhi N,,d,,
Simple Bitcoin Widget,Google Play,com.brentpanther.bitcoinwidget,Z3A6QU9xcFRPRVRZY1N4V2U4R2RIQXFVVjE3eW13bDNTelBOVmpUM3ByT3BXV3I1RnU0b0lwRXpybmJwS214NVZrak80bVctUDJoTXZyUE5Weko3WXZO,English,,5,2017-03-28,André Erasmas,,doe it say,,
Simple Bitcoin Widget,Google Play,com.brentpanther.bitcoinwidget,Z3A6QU9xcFRPRnAtOXdaR1JHRWwxYzBzX2JZU0wzUDBUMEs0bi1xUWk3Ti1GRFhEVFZLTFVpZHluaWFSTHVRbTkzTFgyMkJOdnU5MjZwV0pEdjZIRV9V,English,,5,2017-03-24,John Shoemaker,,no permission is nice,,
Simple Bitcoin Widget,Google Play,com.brentpanther.bitcoinwidget,Z3A6QU9xcFRPRm9GSXpTbGRYT1VOWE1Vb1VlemVMalhVRjZaMWllTWdrN2ZoRTFIMmJiRTJuLUFmeVhXUGZKT3VzXzZabWFORnlQUFJoRW1RRk1LdFV3,English,,5,2017-03-02,William Alvarez,,lo dice,,
Simple Bitcoin Widget,Google Play,com.brentpanther.bitcoinwidget,Z3A6QU9xcFRPR1ZzdEE0VjM3dXdsNnc3M1VYMW95bTlnN1NxSHFQOTNVeWJkUGZCM3cwWnhoT2F1aktCQld0SDNDWk5QZHNRSmNHbTJLSlJ5dlJwMnZf,English,,5,2017-02-24,Marcus U,,if would be great by a double enter the setting instead of having to remove the widget and start over again in order to make a minor change,,
Simple Bitcoin Widget,Google Play,com.brentpanther.bitcoinwidget,Z3A6QU9xcFRPSHdOSlgyVDJBRjVZaC1JRWwwdzB6SGUxdjVfamVCZ3hEMTVZQjZFZWRMbWRIX3hWWU0wSndnQjlCRjVzNzd4TzFfYnNycXFuelNYczd6,English,,5,2017-02-23,Veronik Jokic,,let c,,
Simple Bitcoin Widget,Google Play,com.brentpanther.bitcoinwidget,Z3A6QU9xcFRPRVhhZjdVWFVkdGZENm9mcGlaYWY2Tll0RWdVa1Q5cExqLUtIZWpNeUh6MnFiR3V2NWZsbll5ME1zQ0EwOU9jY0xXUnEwR3BlZ21LUTdI,English,,5,2017-02-21,Tomas Vakrman,,great tool,,
Simple Bitcoin Widget,Google Play,com.brentpanther.bitcoinwidget,Z3A6QU9xcFRPRXF0VXphcHQ5eHdKLU12ek9Wd2EwNFhLTlhoS0lJRHo5dU9COHZ6YWYxZm9GR2JtYXkybkQyYm1BbTVsSkVLUmh2TGhYSklKcFg3cTRl,English,,5,2017-02-13,Adhiraj Sirohi,,straight forward and simple,,
Simple Bitcoin Widget,Google Play,com.brentpanther.bitcoinwidget,Z3A6QU9xcFRPRXF0VXphcHQ5eHdKLU12ek9Wd2EwNFhLTlhoS0lJRHo5dU9COHZ6YWYxZm9GR2JtYXkybkQyYm1BbTVsSkVLUmh2TGhYSklKcFg3cTRl,English,,5,2017-02-13,Adhiraj Sirohi,,list of source to choose from and a great looking simple widget,,
Simple Bitcoin Widget,Google Play,com.brentpanther.bitcoinwidget,Z3A6QU9xcFRPRXF0VXphcHQ5eHdKLU12ek9Wd2EwNFhLTlhoS0lJRHo5dU9COHZ6YWYxZm9GR2JtYXkybkQyYm1BbTVsSkVLUmh2TGhYSklKcFg3cTRl,English,,5,2017-02-13,Adhiraj Sirohi,,perfect for keeping track of the price,,
Simple Bitcoin Widget,Google Play,com.brentpanther.bitcoinwidget,Z3A6QU9xcFRPSGVDUGwtbXYxLXNNZFBXMTItdmF4Z19OUFg3enNRdEpHSW5kZS1EdnZOTDNMNHVtMlhIemMxMm1UYUlZbmw1dGJWQVNmM2lrVTFGU05z,English,,5,2017-02-01,Ms d0s,,just great,,
Simple Bitcoin Widget,Google Play,com.brentpanther.bitcoinwidget,Z3A6QU9xcFRPSGVDUGwtbXYxLXNNZFBXMTItdmF4Z19OUFg3enNRdEpHSW5kZS1EdnZOTDNMNHVtMlhIemMxMm1UYUlZbmw1dGJWQVNmM2lrVTFGU05z,English,,5,2017-02-01,Ms d0s,,kind of simple little widget i needed,,
Simple Bitcoin Widget,Google Play,com.brentpanther.bitcoinwidget,Z3A6QU9xcFRPRVBOZmtQY0w4LWRFWFF6NFItRFQ3YkZRWWFyTUo1TTIwTUh6eFhJQUk5WHJLYzNmdTAwZ1QzOUUtd1NRR1pRX0RWZHlyc3JDcFF0d0Fw,English,,5,2017-01-24,David Alford,,great little program,,
Simple Bitcoin Widget,Google Play,com.brentpanther.bitcoinwidget,Z3A6QU9xcFRPRVBOZmtQY0w4LWRFWFF6NFItRFQ3YkZRWWFyTUo1TTIwTUh6eFhJQUk5WHJLYzNmdTAwZ1QzOUUtd1NRR1pRX0RWZHlyc3JDcFF0d0Fw,English,,5,2017-01-24,David Alford,,everything i wa looking for,,
Simple Bitcoin Widget,Google Play,com.brentpanther.bitcoinwidget,Z3A6QU9xcFRPRTl2eE12NFdOS1FvUlI1VkdvbFhWbjZTWUc0SmRIUzc5U29HbmpsdnEtR1ptWHZfb2VHNzVxeHduby10aUZqR2MybWNtYndENmxOdkFs,English,,5,2017-01-12,John Hoover,"No permission needed, simple, wish it had a 1x1, tho",clean and simple design,,
Simple Bitcoin Widget,Google Play,com.brentpanther.bitcoinwidget,Z3A6QU9xcFRPRTl2eE12NFdOS1FvUlI1VkdvbFhWbjZTWUc0SmRIUzc5U29HbmpsdnEtR1ptWHZfb2VHNzVxeHduby10aUZqR2MybWNtYndENmxOdkFs,English,,5,2017-01-12,John Hoover,"No permission needed, simple, wish it had a 1x1, tho",thanks,,
Simple Bitcoin Widget,Google Play,com.brentpanther.bitcoinwidget,Z3A6QU9xcFRPRlVVRDd3YlJ0SlVuY210WmhGaF9oeEhhdGFqN19fYWc4OFNNemNOSHU5YlpvSUhpX0c1TFdxNEU1Ql9TdTJsS0JhTU5JVnpUZ2YxSDJn,English,,3,2017-01-11,Asen Trichkov,Refresh widget problem,i use pure android 71,,
Simple Bitcoin Widget,Google Play,com.brentpanther.bitcoinwidget,Z3A6QU9xcFRPR2hrOVR5UUVrcUh6ekM1dHdSSUI5ckJheU9aS3l2MnllbnN5cTRVa0pfOElseWwxUzY5UGs4alZqbnc1d25RaXlKajhvS01mSG1qUDMx,English,,3,2017-01-10,Alex Neth,,never update the first day,,
Simple Bitcoin Widget,Google Play,com.brentpanther.bitcoinwidget,Z3A6QU9xcFRPRWhBd05zR3JGN0JiaEJqUGlLT3dfWmF1MDdOdDVXeGg0R1pab08zQlUySTBHb2NUMV9BT2VtLUpiTGVNYzIya3BxdE5zMkdoSllQZEpu,English,,5,2016-12-28,lingesh lohith,Simple and nice,doe exactly what it say in description,,
Simple Bitcoin Widget,Google Play,com.brentpanther.bitcoinwidget,Z3A6QU9xcFRPRUJ3UTlHaFo4bGluMFlrdzZlZm1zWFFKbUc0RzdKYzQ5a1RrWmVZVWY1OGNYVm05VUFJNGRLTHNvRW50TzFmbEVjTzRnMUE1SHBiTTdS,English,,5,2016-12-23,Raine Leskinen,"Simple, works",been using this for a long ha always worked for me,,
Simple Bitcoin Widget,Google Play,com.brentpanther.bitcoinwidget,Z3A6QU9xcFRPRUJ3UTlHaFo4bGluMFlrdzZlZm1zWFFKbUc0RzdKYzQ5a1RrWmVZVWY1OGNYVm05VUFJNGRLTHNvRW50TzFmbEVjTzRnMUE1SHBiTTdS,English,,5,2016-12-23,Raine Leskinen,"Simple, works",no just work,,
Simple Bitcoin Widget,Google Play,com.brentpanther.bitcoinwidget,Z3A6QU9xcFRPR1RJVmRvQ0x1SjhDdy1hS0VKQlFVdlFzY29zLVJtVENRZlRoRU1SSnFuUmRsWi1OaEZKSUN0UjNZTWQycnFsM2JKLV9BY0hiNm1kS1NP,English,,5,2016-10-22,EJ LIBID,great,doe the job,,
Simple Bitcoin Widget,Google Play,com.brentpanther.bitcoinwidget,Z3A6QU9xcFRPRkU0MDZpcEhxQU5Ra2dGR2EwRF9TTFpaZmtkUm5fNWxBOWRQTllHYW1FbnBKek15WUdCMERENjZNVFFJUTVwamQ2QjkwY3FPbUNwSTcz,English,,3,2016-10-12,honey khan,Good,free money,,
Simple Bitcoin Widget,Google Play,com.brentpanther.bitcoinwidget,Z3A6QU9xcFRPSDB4SmxuNGhrZTBCUjAtLU5HT0E3RHB4RVNxdGJoRkx6WFNTSVprbEtoRVpIblpmQU1ZMWdKMjlBU3FrWTBJSDZXNXZEZzlUUFBuV1RG,English,,5,2016-08-25,Jamie Besterfield,"Great, simple app",easy simple to use,,
Simple Bitcoin Widget,Google Play,com.brentpanther.bitcoinwidget,Z3A6QU9xcFRPRURmZXU0aEZGR3A1dTE4ZE5pdXBCM3NQV2ZucHlwTkVDSW1CcXE0cUJST011alVoeURPNHpPVmVNalRvRVlkeXdJa1B0eW1WV1psWDBa,English,,1,2016-04-24,Karmailuminary Cintron,Hate it,nothing happened,,
Simple Bitcoin Widget,Google Play,com.brentpanther.bitcoinwidget,Z3A6QU9xcFRPRVpGTTlkZ1h4LXEwNUhka2lkVkpaY1Vuc0ZoV3o2WFVHRzBpNm83U1JBWnpIM2ZkbEhjSUhvS3JSajNrbmNTR2RxNFg1WHR4MmZzbHdS,English,,5,2016-04-23,Art Siofer,Very simple,show the live price of the exchange you choose,,
Simple Bitcoin Widget,Google Play,com.brentpanther.bitcoinwidget,Z3A6QU9xcFRPRTNEazRGbHcwdHFlaFNjaUU3V2hrclNfOWMtYlN0emZyWGJBQkdXa0xONWJpaFRZeXpHVDZJS01BZnJUTmZrOEN3M2JVMnlxRklaMS0t,English,,4,2016-04-23,Sam Natsias,Security,simple easy to use know about the security however,,
Simple Bitcoin Widget,Google Play,com.brentpanther.bitcoinwidget,Z3A6QU9xcFRPRTNEazRGbHcwdHFlaFNjaUU3V2hrclNfOWMtYlN0emZyWGJBQkdXa0xONWJpaFRZeXpHVDZJS01BZnJUTmZrOEN3M2JVMnlxRklaMS0t,English,,4,2016-04-23,Sam Natsias,Security,seemed to be just a waste of data gained nothing,,
Simple Bitcoin Widget,Google Play,com.brentpanther.bitcoinwidget,Z3A6QU9xcFRPRmZCNXhWSWFCcy0wazFQNkptNENiM2FOWk1Ba3dCNzFFZ051eHlVS2VPYjdzVzh5T2FZRVJNbEl2eFRGLXJuYmpUWGd6Q3FzcHB4dXFW,English,,5,2016-03-22,"Phyro McBruce, Esq.",,doe what it say on the pretty much exactly what i wanted,,
Simple Bitcoin Widget,Google Play,com.brentpanther.bitcoinwidget,Z3A6QU9xcFRPRmZCNXhWSWFCcy0wazFQNkptNENiM2FOWk1Ba3dCNzFFZ051eHlVS2VPYjdzVzh5T2FZRVJNbEl2eFRGLXJuYmpUWGd6Q3FzcHB4dXFW,English,,5,2016-03-22,"Phyro McBruce, Esq.",,simple and clear,,
Simple Bitcoin Widget,Google Play,com.brentpanther.bitcoinwidget,Z3A6QU9xcFRPRmZCNXhWSWFCcy0wazFQNkptNENiM2FOWk1Ba3dCNzFFZ051eHlVS2VPYjdzVzh5T2FZRVJNbEl2eFRGLXJuYmpUWGd6Q3FzcHB4dXFW,English,,5,2016-03-22,"Phyro McBruce, Esq.",,and the managed to contain what must have been gut busting wrath at my previous review clearly over at my end,,
Simple Bitcoin Widget,Google Play,com.brentpanther.bitcoinwidget,Z3A6QU9xcFRPRmZCNXhWSWFCcy0wazFQNkptNENiM2FOWk1Ba3dCNzFFZ051eHlVS2VPYjdzVzh5T2FZRVJNbEl2eFRGLXJuYmpUWGd6Q3FzcHB4dXFW,English,,5,2016-03-22,"Phyro McBruce, Esq.",,cheer all then i delete the review,,
Simple Bitcoin Widget,Google Play,com.brentpanther.bitcoinwidget,Z3A6QU9xcFRPRmZCNXhWSWFCcy0wazFQNkptNENiM2FOWk1Ba3dCNzFFZ051eHlVS2VPYjdzVzh5T2FZRVJNbEl2eFRGLXJuYmpUWGd6Q3FzcHB4dXFW,English,,5,2016-03-22,"Phyro McBruce, Esq.",,time to give up on today,,
Simple Bitcoin Widget,Google Play,com.brentpanther.bitcoinwidget,Z3A6QU9xcFRPRmZCNXhWSWFCcy0wazFQNkptNENiM2FOWk1Ba3dCNzFFZ051eHlVS2VPYjdzVzh5T2FZRVJNbEl2eFRGLXJuYmpUWGd6Q3FzcHB4dXFW,English,,5,2016-03-22,"Phyro McBruce, Esq.",,your more welcome,,
Simple Bitcoin Widget,Google Play,com.brentpanther.bitcoinwidget,Z3A6QU9xcFRPSHhKaE5FNnhGTndGY1k5YkUtSW8zSGRFd01DUnRRUFFxZGthakhPcnRpZUdHSXE2WGhkU25yWThBekp3WWhMWHozNU9Rd19fRDRsd2pm,English,,5,2016-03-05,Roeland Ligtvoet (H),Clean and easy.,wonderful small widget and configurable,,
Simple Bitcoin Widget,Google Play,com.brentpanther.bitcoinwidget,Z3A6QU9xcFRPSHhKaE5FNnhGTndGY1k5YkUtSW8zSGRFd01DUnRRUFFxZGthakhPcnRpZUdHSXE2WGhkU25yWThBekp3WWhMWHozNU9Rd19fRDRsd2pm,English,,5,2016-03-05,Roeland Ligtvoet (H),Clean and easy.,contains various market to choose from,,
Simple Bitcoin Widget,Google Play,com.brentpanther.bitcoinwidget,Z3A6QU9xcFRPSHhKaE5FNnhGTndGY1k5YkUtSW8zSGRFd01DUnRRUFFxZGthakhPcnRpZUdHSXE2WGhkU25yWThBekp3WWhMWHozNU9Rd19fRDRsd2pm,English,,5,2016-03-05,Roeland Ligtvoet (H),Clean and easy.,like it very much,,
Simple Bitcoin Widget,Google Play,com.brentpanther.bitcoinwidget,Z3A6QU9xcFRPRXh6V3ppXzdUal9WZ3htTS0tZEpwRmFZdUlCTzR6blFTd3BzMXJCa2JDZHRFNE93aG1tRWVkRWxCV1BHQTZDb0hhTENfNFNSRl9QamxY,English,,5,2016-03-02,Phil Santa-Maria,Request,will you make a simple ether widget,,
Simple Bitcoin Widget,Google Play,com.brentpanther.bitcoinwidget,Z3A6QU9xcFRPR1hjSEozWEk1NmIwM3k3ZU5SejNNVWhLQkRDb3NsNm1hMmtEU1RjUm9lTXFheUtvWEhTVWk0R1hJSzlTRDcxVEFLWFZhUFV2TWtiSmJK,English,,5,2016-02-24,Roy Kim,Good,simple and good and easy,,
Simple Bitcoin Widget,Google Play,com.brentpanther.bitcoinwidget,Z3A6QU9xcFRPRmJ6eHJvUE9jTWlGZnBFbVZ6NEdQLVFvVVVBMmZDd1V4OFBSMjhQbTNqOFVGdEM1b014Q1VrVWN0MERTTzRLalcxcFhaUEx4Yzc2LVNF,English,,5,2016-02-14,Wayne Peddie,Very useful,really helpful simple thank you,,
Simple Bitcoin Widget,Google Play,com.brentpanther.bitcoinwidget,Z3A6QU9xcFRPRmJ6eHJvUE9jTWlGZnBFbVZ6NEdQLVFvVVVBMmZDd1V4OFBSMjhQbTNqOFVGdEM1b014Q1VrVWN0MERTTzRLalcxcFhaUEx4Yzc2LVNF,English,,5,2016-02-14,Wayne Peddie,Very useful,please could be added to,,
Simple Bitcoin Widget,Google Play,com.brentpanther.bitcoinwidget,Z3A6QU9xcFRPR3U1bXhnVkJwcXJjamRvZk5qZWxGVzhKUFRKQnl0eVc3SWZQWElVa1VnMzB1Ujh0OVkxQm43TTlHVXBRY1hCTTdhcFYxR3lhRGp0WUR2,English,,5,2016-02-07,,Useful,always now the price,,
Simple Bitcoin Widget,Google Play,com.brentpanther.bitcoinwidget,Z3A6QU9xcFRPR3U1bXhnVkJwcXJjamRvZk5qZWxGVzhKUFRKQnl0eVc3SWZQWElVa1VnMzB1Ujh0OVkxQm43TTlHVXBRY1hCTTdhcFYxR3lhRGp0WUR2,English,,5,2016-02-07,,Useful,perfect,,
