# deletions,date,commit message
2,2016/4/19,updated version
5,2016/4/19,fixed crash
14,2016/4/19,fixed crash
4,2016/4/19,fixed crash
10,2016/4/19,fixed crash
1,2016/4/19,workaround for security exception
1,2016/4/19,fixed crash
2,2016/4/19,updated lib version
22,2016/4/19,improved medium preview
7,2016/4/19,improved link handler performance a little bit
2,2016/4/19,updated version
39,2016/4/19,improved link handler
