package,release ID,UI element,related topic,average polarity,# reviews,average rating,average objectivity,# uninstalls,delta rating,element deleted next release
github.daneren2005.dsub,4.1.3,@+id/chat_message$Message Text Goes Here,8983,0.07626262626262627,1,5.0,0.5551346801346801,0,0.3538461538461535,0
github.daneren2005.dsub,4.1.3,@+id/get_playlist_name_label$common.name,8987,0.07626262626262627,1,5.0,0.5551346801346801,0,0.3538461538461535,0
github.daneren2005.dsub,4.1.3,@+id/get_playlist_comment$,8996,0.07626262626262627,1,5.0,0.5551346801346801,0,0.3538461538461535,0
github.daneren2005.dsub,4.1.3,@+id/get_playlist_name$,8998,0.07626262626262627,1,5.0,0.5551346801346801,0,0.3538461538461535,0
github.daneren2005.dsub,4.1.3,@+id/get_playlist_comment_label$common.comment,9003,0.07626262626262627,1,5.0,0.5551346801346801,0,0.3538461538461535,0
github.daneren2005.dsub,4.1.3,@+id/get_playlist_public_label$common.public,9009,0.07626262626262627,1,5.0,0.5551346801346801,0,0.3538461538461535,0
github.daneren2005.dsub,4.1.3,@+id/get_playlist_public$,9013,0.07626262626262627,1,5.0,0.5551346801346801,0,0.3538461538461535,0
