Topic Index 1,Topic Index 2,Topic Similarity
0,1,11.11111111111111
3,17,11.11111111111111
1,11,5.263157894736842
5,4,5.263157894736842
6,0,5.263157894736842
8,3,5.263157894736842
9,6,5.263157894736842
14,5,5.263157894736842
15,2,5.263157894736842
19,8,5.263157894736842
2,7,0.0
4,9,0.0
7,10,0.0
10,12,0.0
11,13,0.0
12,14,0.0
13,15,0.0
16,16,0.0
17,18,0.0
18,19,0.0
