# deletions,date,commit message
2,2016/5/08,Set to version 1.3.1
33,2016/5/08,fix for android 6.0 permission model
5,2016/5/01,minor cleanup (unused imports)
329,2016/4/19,big cleanup on the c algorithm files  * separated all dirty JNI stuff from clean C algorithm * documented the algorithm better
2,2016/4/17,version set to 1.3 for official release
1,2016/4/17,Build release version by default not debug
