Topic Index 1,Topic Index 2,Topic Similarity
0,5,3.0
1,7,3.0
2,8,3.0
3,9,2.0
4,0,2.0
5,12,2.0
6,3,2.0
7,4,2.0
8,17,2.0
9,14,2.0
10,19,2.0
11,2,1.0
12,6,1.0
13,10,1.0
14,11,1.0
15,15,1.0
16,16,1.0
17,18,1.0
18,1,0.0
19,13,0.0
