Topic Index 1,Topic Index 2,Topic Similarity
0,1,6.25
1,2,6.25
2,3,6.25
3,5,6.25
4,7,6.25
5,9,6.25
6,10,6.25
7,11,6.25
8,13,6.25
9,14,6.25
10,15,6.25
11,16,6.25
12,17,6.25
13,18,6.25
14,0,0.0
15,4,0.0
16,6,0.0
17,8,0.0
18,12,0.0
19,19,0.0
