Topic Index 1,Topic Index 2,Topic Similarity
5,1,1.012
14,2,0.9226
8,5,0.44279999999999997
7,6,0.414
17,9,0.38739999999999997
1,16,0.34
18,18,0.2834
0,7,0.24850000000000003
3,17,0.2254
19,8,0.1408
2,0,0.0
4,3,0.0
6,4,0.0
9,10,0.0
10,11,0.0
11,12,0.0
12,13,0.0
13,14,0.0
15,15,0.0
16,19,0.0
