App,Store,App ID,Review ID,Country,Version,Rating,Date,Author,Subject,Body,Translated Subject,Translated Body
Tinfoil for Facebook,Google Play,com.danvelazco.fbwrapper,Z3A6QU9xcFRPSEwxOE8yY2ktR2hYVmhJakZzcXhMeEpNWUdUZUpMS1pNM3FjUkpfWGN0Y25GM21aaG5CemI3VEtZOHJWemR5WHlCNFRMbkc4amNvVTVLclE,English,,5,2014-01-03,Mick Rodgers,,it just work,,
Tinfoil for Facebook,Google Play,com.danvelazco.fbwrapper,Z3A6QU9xcFRPRXR0cllUOVZVS1o0elVwS2hFVWgyVGh3Q0Rfc200MXBtRVA4UmFPS2wtNGs1QThtaHBlalVQWS1ZdGwyLUpqVktQd1dzLUNZYWZHVERkQ3c,English,,5,2013-12-31,Bernd Buerklin,Great little app,you or your phone are suffering from caused by get this little helper,,
Tinfoil for Facebook,Google Play,com.danvelazco.fbwrapper,Z3A6QU9xcFRPRXR0cllUOVZVS1o0elVwS2hFVWgyVGh3Q0Rfc200MXBtRVA4UmFPS2wtNGs1QThtaHBlalVQWS1ZdGwyLUpqVktQd1dzLUNZYWZHVERkQ3c,English,,5,2013-12-31,Bernd Buerklin,Great little app,work great for ha all the feature i in a tiny footprint,,
Tinfoil for Facebook,Google Play,com.danvelazco.fbwrapper,Z3A6QU9xcFRPRXR0cllUOVZVS1o0elVwS2hFVWgyVGh3Q0Rfc200MXBtRVA4UmFPS2wtNGs1QThtaHBlalVQWS1ZdGwyLUpqVktQd1dzLUNZYWZHVERkQ3c,English,,5,2013-12-31,Bernd Buerklin,Great little app,get your phone digestive system back on track,,
Tinfoil for Facebook,Google Play,com.danvelazco.fbwrapper,Z3A6QU9xcFRPRUE1YXM3bllseERGU1ZhQk9hOHZOd29xTEtVRlJwVENHTUVvUjV1NWR3aXNqRGFrZjdfUW9MX0dKOTNtYXdMWGc0ZkJrb25hSlR3UWgzaXc,English,,4,2013-12-30,Sigmund Ås,Great idea!,very good and it work almost flawlessly,,
Tinfoil for Facebook,Google Play,com.danvelazco.fbwrapper,Z3A6QU9xcFRPRUE1YXM3bllseERGU1ZhQk9hOHZOd29xTEtVRlJwVENHTUVvUjV1NWR3aXNqRGFrZjdfUW9MX0dKOTNtYXdMWGc0ZkJrb25hSlR3UWgzaXc,English,,4,2013-12-30,Sigmund Ås,Great idea!,thing i miss is a better way to view like a full screen option,,
Tinfoil for Facebook,Google Play,com.danvelazco.fbwrapper,Z3A6QU9xcFRPRUE1YXM3bllseERGU1ZhQk9hOHZOd29xTEtVRlJwVENHTUVvUjV1NWR3aXNqRGFrZjdfUW9MX0dKOTNtYXdMWGc0ZkJrb25hSlR3UWgzaXc,English,,4,2013-12-30,Sigmund Ås,Great idea!,picture get minimized to a useless size above the comment,,
Tinfoil for Facebook,Google Play,com.danvelazco.fbwrapper,Z3A6QU9xcFRPRjI5Y09YT1VtN2dKQ1Q2RkFya0FQR0tza3pLZkZ3VkVlUmNZX25VeFE3akgySWhOUzlyVklVcGE0RmRsZ2xqYWVuRlJHMWY0OFdEdXV4NEE,English,,5,2013-12-26,Marcin Miroslaw,Excellent app! One question!,any chance you could add in pushing update,,
Tinfoil for Facebook,Google Play,com.danvelazco.fbwrapper,Z3A6QU9xcFRPRjI5Y09YT1VtN2dKQ1Q2RkFya0FQR0tza3pLZkZ3VkVlUmNZX25VeFE3akgySWhOUzlyVklVcGE0RmRsZ2xqYWVuRlJHMWY0OFdEdXV4NEE,English,,5,2013-12-26,Marcin Miroslaw,Excellent app! One question!,like someone message it would push to my task bar,,
Tinfoil for Facebook,Google Play,com.danvelazco.fbwrapper,Z3A6QU9xcFRPRjI5Y09YT1VtN2dKQ1Q2RkFya0FQR0tza3pLZkZ3VkVlUmNZX25VeFE3akgySWhOUzlyVklVcGE0RmRsZ2xqYWVuRlJHMWY0OFdEdXV4NEE,English,,5,2013-12-26,Marcin Miroslaw,Excellent app! One question!,other excellent,,
Tinfoil for Facebook,Google Play,com.danvelazco.fbwrapper,Z3A6QU9xcFRPR1NYTTdlaTY5X0U5RHo3eEpacGttTVAxQjJ1NERNbmRQcDVkeFRrS3c4TzBsQ2Z5Y215Ty0tSXVIX3RiMUQyV2c5YlBmeEFGUV9pa2lVaWc,English,,5,2013-12-25,Karl Jørgen Overå,Tutorial om extra features,maybe give the user some kind of hint,,
Tinfoil for Facebook,Google Play,com.danvelazco.fbwrapper,Z3A6QU9xcFRPR1NYTTdlaTY5X0U5RHo3eEpacGttTVAxQjJ1NERNbmRQcDVkeFRrS3c4TzBsQ2Z5Y215Ty0tSXVIX3RiMUQyV2c5YlBmeEFGUV9pa2lVaWc,English,,5,2013-12-25,Karl Jørgen Overå,Tutorial om extra features,p,,
Tinfoil for Facebook,Google Play,com.danvelazco.fbwrapper,Z3A6QU9xcFRPR21YMlkta3llMW14OHM4dld5Z1F6SUExMHd4YlYzd2YyY3VySml0YVlnNGNyU0NuLW1VNlRWaUI1MnJ2QnNtdmpGY19VYjRTdFItRDBycVE,English,,5,2013-12-25,Matt R.,Good app,tired of with their obnoxious tracking,,
Tinfoil for Facebook,Google Play,com.danvelazco.fbwrapper,Z3A6QU9xcFRPR21YMlkta3llMW14OHM4dld5Z1F6SUExMHd4YlYzd2YyY3VySml0YVlnNGNyU0NuLW1VNlRWaUI1MnJ2QnNtdmpGY19VYjRTdFItRDBycVE,English,,5,2013-12-25,Matt R.,Good app,good,,
Tinfoil for Facebook,Google Play,com.danvelazco.fbwrapper,Z3A6QU9xcFRPR0Y4WjM3WGZTdDVwUHRrTklnOHBISFQ2Y283bE5GdU9EeDRLRlRmd1BNQUZOQ0hOLUQ3dEtvaFBYY25raXhjVEtwaDgxVFc1N29ramZmWWc,English,,3,2013-12-22,stan s,Privacy issues,there use to be a lock symbol next to name u swipe right see chat message,,
Tinfoil for Facebook,Google Play,com.danvelazco.fbwrapper,bGc6QU9xcFRPR2hJZ2xYU3J1LU14cGU4N1Y3MmpYX2k3SHBZT0ZnbGk1X2tvb0lhTDQ4Y3R5a0xRcTk3d2hsc3RUd3hxMVE3VTMzV282U1NLVllFQnlyZUE,English,,5,2013-12-13,A Google User,Nice!,lovely and simple,,
Tinfoil for Facebook,Google Play,com.danvelazco.fbwrapper,Z3A6QU9xcFRPRlNOTlJGRHZkUlV1cWdGa2dCSWJnY1JNSDY0aml4cmFyMGd2Y25CcjY1cWpYS0ZuRWpRUF9YRE9JeWFaR2lYSU1qeWlxVTZOMFoyRDlUb0E,English,,5,2013-12-09,Gayan hirantha,Very fast in 2G network too,good and simple but similar to official tinfoil for,,
Tinfoil for Facebook,Google Play,com.danvelazco.fbwrapper,Z3A6QU9xcFRPRkw3MWxEdU9PRkRMZ2NKQmlITF9CWGNiSXdLSGMtY25ESjdNak1nSTc4SXY1b2huNTYxRkU4RzVxRzdXczAzSGhDcTc2Q2l3UGZqOGdRN1E,English,,1,2013-12-09,Damario Tanoto,Cant save pic,please add feature to save i will rate you 5,,
Tinfoil for Facebook,Google Play,com.danvelazco.fbwrapper,Z3A6QU9xcFRPRkw3MWxEdU9PRkRMZ2NKQmlITF9CWGNiSXdLSGMtY25ESjdNak1nSTc4SXY1b2huNTYxRkU4RzVxRzdXczAzSGhDcTc2Q2l3UGZqOGdRN1E,English,,1,2013-12-09,Damario Tanoto,Cant save pic,please reply,,
Tinfoil for Facebook,Google Play,com.danvelazco.fbwrapper,Z3A6QU9xcFRPRTlMemxBV0xUeU5hSzRIcXVjQldhdURzS3VYV292Qm1oNmk2T2gtdUE4UjNtSTF2cDhsdTh3bTF1aGVjWXVMd25OS3VoX0RwUlV5VkFjMmc,English,,5,2013-11-30,Artis Robinson,Best,,,
Tinfoil for Facebook,Google Play,com.danvelazco.fbwrapper,Z3A6QU9xcFRPSDMtUUJmWXktNjZjUmdGTmNJTVpZSnM4bUhDMkMxbDUxSzJEU09QTXZKWE5jN2pIUHVidEdjYUlPYl9DUGdqdzlMcXZBTkhCTFF0cWZwUEE,English,,4,2013-11-30,domar alforte,Nice!!!,best other,,
Tinfoil for Facebook,Google Play,com.danvelazco.fbwrapper,Z3A6QU9xcFRPR1ByLXFUaExiQWRCdi0wNmVaZVJ5cHV6X0RtdzVYU2pHTXJVNWxIVF9TQko2cWV5R19JY085THRwSWR1cjAxaXpCZ0JGQlRHWURHNWpBOHc,English,,3,2013-11-28,Ethan B.,Posting Photos,recently got a nexus 5 and i am unable to post photo with this,,
Tinfoil for Facebook,Google Play,com.danvelazco.fbwrapper,Z3A6QU9xcFRPR1ByLXFUaExiQWRCdi0wNmVaZVJ5cHV6X0RtdzVYU2pHTXJVNWxIVF9TQko2cWV5R19JY085THRwSWR1cjAxaXpCZ0JGQlRHWURHNWpBOHc,English,,3,2013-11-28,Ethan B.,Posting Photos,otherwise this is a great is simple and work well,,
Tinfoil for Facebook,Google Play,com.danvelazco.fbwrapper,Z3A6QU9xcFRPRVBrUEs0c1pxVE5oN1l4NFdmOU5hUHhVX2JIU1NXREFHNy01eG1mbklLX0ZZaFBER3RDd1BiV01oUjVzTllIaXBRaXVadGdTa2FIZ25HS1E,English,,5,2013-11-26,Dalibor Andreevski,very well,i find the way to handle with everything,,
Tinfoil for Facebook,Google Play,com.danvelazco.fbwrapper,Z3A6QU9xcFRPRVBrUEs0c1pxVE5oN1l4NFdmOU5hUHhVX2JIU1NXREFHNy01eG1mbklLX0ZZaFBER3RDd1BiV01oUjVzTllIaXBRaXVadGdTa2FIZ25HS1E,English,,5,2013-11-26,Dalibor Andreevski,very well,now i can download photo via browser,,
Tinfoil for Facebook,Google Play,com.danvelazco.fbwrapper,Z3A6QU9xcFRPRVBrUEs0c1pxVE5oN1l4NFdmOU5hUHhVX2JIU1NXREFHNy01eG1mbklLX0ZZaFBER3RDd1BiV01oUjVzTllIaXBRaXVadGdTa2FIZ25HS1E,English,,5,2013-11-26,Dalibor Andreevski,very well,and this is very small but very,,
Tinfoil for Facebook,Google Play,com.danvelazco.fbwrapper,Z3A6QU9xcFRPRVBrUEs0c1pxVE5oN1l4NFdmOU5hUHhVX2JIU1NXREFHNy01eG1mbklLX0ZZaFBER3RDd1BiV01oUjVzTllIaXBRaXVadGdTa2FIZ25HS1E,English,,5,2013-11-26,Dalibor Andreevski,very well,this is good solution and good concept,,
Tinfoil for Facebook,Google Play,com.danvelazco.fbwrapper,Z3A6QU9xcFRPRVBrUEs0c1pxVE5oN1l4NFdmOU5hUHhVX2JIU1NXREFHNy01eG1mbklLX0ZZaFBER3RDd1BiV01oUjVzTllIaXBRaXVadGdTa2FIZ25HS1E,English,,5,2013-11-26,Dalibor Andreevski,very well,regard,,
Tinfoil for Facebook,Google Play,com.danvelazco.fbwrapper,Z3A6QU9xcFRPRVBrUEs0c1pxVE5oN1l4NFdmOU5hUHhVX2JIU1NXREFHNy01eG1mbklLX0ZZaFBER3RDd1BiV01oUjVzTllIaXBRaXVadGdTa2FIZ25HS1E,English,,5,2013-11-26,Dalibor Andreevski,very well,thank you a lot,,
Tinfoil for Facebook,Google Play,com.danvelazco.fbwrapper,Z3A6QU9xcFRPRnBZWDc2Y09POVMtYmRfVFc3SVB4R01JbGVCX3ExYmFMNElWand2VGhlOFhyckRqTEZES0F2UjZqaTFLdUZTZldBNFlhRXNfR3NNazduOEE,English,,5,2013-11-19,Paul Thomas,Perfect!,a light user this is perfect for me,,
Tinfoil for Facebook,Google Play,com.danvelazco.fbwrapper,Z3A6QU9xcFRPRnBZWDc2Y09POVMtYmRfVFc3SVB4R01JbGVCX3ExYmFMNElWand2VGhlOFhyckRqTEZES0F2UjZqaTFLdUZTZldBNFlhRXNfR3NNazduOEE,English,,5,2013-11-19,Paul Thomas,Perfect!,light on resource too,,
Tinfoil for Facebook,Google Play,com.danvelazco.fbwrapper,Z3A6QU9xcFRPRnBZWDc2Y09POVMtYmRfVFc3SVB4R01JbGVCX3ExYmFMNElWand2VGhlOFhyckRqTEZES0F2UjZqaTFLdUZTZldBNFlhRXNfR3NNazduOEE,English,,5,2013-11-19,Paul Thomas,Perfect!,big thanks to,,
Tinfoil for Facebook,Google Play,com.danvelazco.fbwrapper,Z3A6QU9xcFRPRVQzaEkxbk9KLU9PMDdpbmoxR095Y3pubTRQQlp4S19pRWl1S2lDSGlVUmp3aUVUNlgzVlZyZV9OOVgwX01nUEhvQXY1Q19PODdrY0NEX1E,English,,4,2013-11-14,Thomas Mays,Haven't looked back,brilliant quicker the official and none of the insecurity,,
Tinfoil for Facebook,Google Play,com.danvelazco.fbwrapper,Z3A6QU9xcFRPRm4tZTRLU2M0MXQ4bl9Gb0NYZ19RS1RJTEtOSlFaY0lyTkRRbDdUTXJ2dDNmcDRuTzlVYmdKYkJ3ZDkwYWVpX01JWmI4bnVNSF8yeEFVRnc,English,,5,2013-11-09,Grazee Taylan,best alternative fb app!,no add pure goodness,,
Tinfoil for Facebook,Google Play,com.danvelazco.fbwrapper,Z3A6QU9xcFRPRm4tZTRLU2M0MXQ4bl9Gb0NYZ19RS1RJTEtOSlFaY0lyTkRRbDdUTXJ2dDNmcDRuTzlVYmdKYkJ3ZDkwYWVpX01JWmI4bnVNSF8yeEFVRnc,English,,5,2013-11-09,Grazee Taylan,best alternative fb app!,enjoy using this the real,,
Tinfoil for Facebook,Google Play,com.danvelazco.fbwrapper,Z3A6QU9xcFRPRm4tZTRLU2M0MXQ4bl9Gb0NYZ19RS1RJTEtOSlFaY0lyTkRRbDdUTXJ2dDNmcDRuTzlVYmdKYkJ3ZDkwYWVpX01JWmI4bnVNSF8yeEFVRnc,English,,5,2013-11-09,Grazee Taylan,best alternative fb app!,must try,,
Tinfoil for Facebook,Google Play,com.danvelazco.fbwrapper,Z3A6QU9xcFRPSHYxYXdzOEFVeEM0WktWRENGcElLazE5cURqTUdFSHJYUFk0bkhtRlFOUE9iSkxUM1hKdGNXb0JzWWNpVUNhODRZR0ZuSmEteHg2d0xfc0E,English,,5,2013-11-09,Xadelene Guisob,,i love this,,
Tinfoil for Facebook,Google Play,com.danvelazco.fbwrapper,Z3A6QU9xcFRPRm0tNTA1ak5veVY2STJtZ2dGcG1BYzFWbmlSUFFHMlljNE54aW5TbmdzVi1EWEFrNENUQTdpWUpqelZjMkdkeHlHZ0M1SzJUSXZHLUQ1X0E,English,,5,2013-11-05,Kamil Frej,Lightweight and fast!,doe what it say on the tin,,
Tinfoil for Facebook,Google Play,com.danvelazco.fbwrapper,Z3A6QU9xcFRPRm0tNTA1ak5veVY2STJtZ2dGcG1BYzFWbmlSUFFHMlljNE54aW5TbmdzVi1EWEFrNENUQTdpWUpqelZjMkdkeHlHZ0M1SzJUSXZHLUQ1X0E,English,,5,2013-11-05,Kamil Frej,Lightweight and fast!,a,,
