Topic,Words
0,0.286*sorry,0.241*no,0.200*words,0.072*star,0.059*have,0.044*i,0.043*1,0.031*and,0.024*but
1,0.288*1,0.232*have,0.154*words,0.154*no,0.061*sorry,0.044*but,0.037*and,0.020*i,0.010*star
2,0.286*and,0.245*1,0.196*words,0.062*no,0.060*i,0.055*sorry,0.051*have,0.029*star,0.017*but
3,0.293*no,0.262*and,0.178*but,0.105*i,0.051*1,0.047*sorry,0.025*words,0.022*have,0.017*star
4,0.209*no,0.178*star,0.172*i,0.139*have,0.090*words,0.083*and,0.076*1,0.041*but,0.010*sorry
5,0.261*no,0.247*but,0.126*sorry,0.118*1,0.117*words,0.067*and,0.033*star,0.022*have,0.009*i
6,0.271*words,0.222*no,0.149*1,0.110*star,0.097*and,0.084*but,0.063*i,0.003*sorry,0.000*have
7,0.254*1,0.230*star,0.171*no,0.163*have,0.093*words,0.042*and,0.027*sorry,0.012*i,0.009*but
8,0.265*and,0.206*i,0.201*sorry,0.128*have,0.080*but,0.065*star,0.033*words,0.015*no,0.008*1
9,0.204*star,0.185*have,0.179*but,0.136*sorry,0.104*i,0.099*1,0.042*no,0.028*words,0.022*and
10,0.289*sorry,0.262*i,0.211*but,0.079*have,0.071*words,0.057*and,0.014*star,0.009*1,0.008*no
11,0.233*i,0.188*1,0.175*and,0.104*words,0.102*have,0.089*no,0.056*but,0.036*star,0.018*sorry
12,0.368*i,0.163*star,0.137*no,0.103*but,0.088*have,0.065*words,0.057*1,0.013*and,0.006*sorry
13,0.266*no,0.154*star,0.151*i,0.126*sorry,0.102*words,0.082*have,0.062*but,0.036*1,0.022*and
14,0.267*1,0.148*sorry,0.143*but,0.125*i,0.105*no,0.083*and,0.078*have,0.044*words,0.008*star
15,0.307*words,0.194*and,0.146*no,0.122*star,0.089*i,0.061*sorry,0.037*have,0.034*but,0.010*1
16,0.382*star,0.156*words,0.121*sorry,0.107*i,0.093*1,0.077*and,0.034*have,0.028*but,0.003*no
17,0.262*and,0.230*sorry,0.140*no,0.111*i,0.068*words,0.055*star,0.050*1,0.044*have,0.040*but
18,0.409*have,0.253*and,0.208*1,0.033*but,0.028*no,0.020*sorry,0.018*words,0.017*star,0.015*i
19,0.306*words,0.178*star,0.125*and,0.114*1,0.105*i,0.076*have,0.044*no,0.034*but,0.019*sorry
