# deletions,date,commit message
1,2013/8/17,Langenfeld: URL change (fixes #167)
2,2013/8/17,Kontoansicht Essen und Gelsenkirchen
30,2013/8/17,BiBer: Better reservation list support
20,2013/8/17,add: Döbeln add: Obersulm
1,2013/8/17,SISIS: Fix Paging-Fehler
29,2013/8/17,SISIS: Fix encoding
1,2013/8/17,Frechen: Support-String
81,2013/7/23,Book ready items from account view
81,2013/7/23,Book ready items from account view
2,2013/7/23,Erlangen FAU used old API identifier in configuration
2,2013/7/23,Hotfix release 2.0.15-1
9,2013/7/23,Dirty fix for Verden
5,2013/7/23,WiFi only (fixes #171)
2,2013/7/22,Prepare release 2.0.15
