# deletions,date,commit message
2,2015/9/07,PicaOld: fix parsing of account without loans in Kiel
3,2015/9/07,Fix database problem
73,2015/9/03,Account view: Allow status to take up multiple lines
17,2015/9/03,fixes and improvements for Pica LBS
12,2015/9/02,Prepare release
2,2015/9/02,Fixed a bug in Stockelsdorf
2,2015/9/02,Updated: Lüdenscheid
1,2015/9/02,Fixed a possible NPE
1,2015/9/02,Changed WinBiap account support to default to true in add_library.py
193,2015/9/02,Activate account support for all WinBiap libraries
13,2015/9/02,Account support for WinBiap completed
2,2015/9/02,upgrade JSoup (fixes bug with form submission)
7,2015/9/02,AccountDatabase: KEY_RESERVATION_FORMAT was missing
41,2015/9/02,StringProvider: Remove unnecessary "public static" and "public abstract" modifiers
