# deletions,date,commit message
1,2015/11/08,add_library.py: Fix Bibliotheca config file parsing
1,2015/11/07,fix reservations in Bonn (requires startparams)
59,2015/11/07,Remove Potsdam (requested by the library)
1,2015/11/07,Fix invalid redirect URI for LBS in Potsdam_Uni
2,2015/11/07,Potsdam_Uni: switched to LBS
8,2015/11/07,Pica LBS: make URL configurable
1,2015/10/30,Fixed MainPreferenceFragment bug in Plus App
2,2015/10/27,Update .travis.yml for Marshmallow SDK and Build Tools
1,2015/10/27,Update Android Build Tools version
17,2015/10/27,Add runtime permissions support for Marshmallow in LibraryListActivity
7,2015/10/27,Update SDK and support library to v23
2,2015/10/26,Prepare release
3,2015/10/26,Automatically trim usernames and passwords
1,2015/10/26,Updated URL for Frankfurt
1,2015/10/26,Biblioteca: Improve reservation fee warnings
1,2015/10/26,Updated URL for Heidelberg
3,2015/10/26,VuFind: Improved cover detection
57,2015/10/26,Activated custom TLS for the kivbf server
