# deletions,date,commit message
2,2014/6/03,HSAW: Anpassungen
47,2014/6/03,Update javadoc
1,2014/6/03,Ingolstadt: Author display
8,2014/6/03,Heidelberg: Fix accounttable
4,2014/6/02,Organize imports
3,2014/6/02,Fix yet a nother fragment crashing when a library gets deleted
4,2014/5/27,Add support for availability searches
1,2014/5/27,Fix NPE in test case
1,2014/5/27,Fix free search at UB Frankfurt
2,2014/5/27,Prepare release
1,2014/5/26,IOpac: Reservation error handling
24,2014/5/26,IOpac: Robust result list parsing
4,2014/5/26,Fix NullPointerException on non-attached fragment
21,2014/5/26,Adis Bibliotheca: Graceful crashes
4,2014/5/26,Quick ReminderCheckService repeat after I/O error
10,2014/5/26,Fix test asserts
8,2014/5/26,URL update
