# deletions,date,commit message
16,2014/10/12,added: Glückstadt
3,2014/10/12,added: Bad Honnef Bad Vilbel Bassersdorf Gammertingen Gescher Leibniz-FH Hannover HS Rhein-Waal Kamp-Lintfort Ludothek Langnau Münster-Mecklenbeck Münster-Überwasser Münster-Hiltrup Ravensburg
2,2014/10/12,Try to provide a better solution for a NullPointerException
1,2014/10/12,Husum: Change library name
2,2014/10/12,Another fix for Preetz
53,2014/10/12,Move NullPointerException ;)
8,2014/10/12,Fix possible NPE
4,2014/10/12,Fix error
1,2014/10/12,Don't offer to show more fields if there are none
3,2014/10/12,Dismiss notification after Snooze
2,2014/10/12,Tests: FIx library path
1,2014/10/12,Fix string providers
1,2014/10/12,Fix a NPE in Adis.java
11,2014/10/12,Catch a org.apache.http.MalformedChunkCodingException
31,2014/10/09,Remove duplicate strings where they don't make sense
70,2014/10/09,Remove unused strings and resolve other errors found by Android Lint
10,2014/10/08,Merge two resource files
2,2014/10/08,Change "plurals" strings for account data age so that they conform the Android standard and are compatible with Transifex
5,2014/10/08,remove hardcoded strings from frontend classes
1,2014/10/08,unused import
4,2014/10/08,Two more Strings
30,2014/10/08,Add some more API messages to StringProvider
1,2014/10/06,Bugfix for odd result numbering in Preetz (iOPAC)
24,2014/10/06,Recognize additional error message when reserving media in iOPAC
0,2014/10/06,Update JSoup (fixes a bug found while implementing reservations in Henstedt-Ulzburg)
188,2014/10/06,Add Strings to StringProvider for all possible error messages inside the APIs
36,2014/10/06,StringProvider as interface
1,2014/10/05,Use the new StringProvider in a first example
1619,2014/10/02,Remove all CRLF in res/ and assets/
10833,2014/10/02,Why the heck did we have CRLF line breaks in here?
1,2014/10/02,Fix wrong URL in Fuerth which caused cookies not to be accepted
1,2014/10/02,Fix invalid JSON in Duesseldorf
215,2014/10/02,Fix Unit tests for when there are less than 3 books for the search query "harry"
34,2014/10/02,Fix for Aschaffenburg
9,2014/10/02,detect meanings
5,2014/10/02,Fix iOPAC search field detection for libraries like Niebuell
650,2014/10/02,Fix NullPointerException
1710,2014/10/02,Make SISIS recognize 0 results in some libraries like Bayreuth Uni
1,2014/10/01,Fix JSON syntax error in Duesseldorf
2,2014/9/29,Prepare release
1,2014/9/29,Fix: Undefined search UI state
12,2014/9/29,Detect meanings
9,2014/9/29,added: HBK Braunschweig Brunsbüttel Heide Husum Langnau/Albis Preetz Prenzlau Senden (Bayern) Stadtlohn Tarp Uetersen
1,2014/9/29,Adjust tests for new packaging
2,2014/9/29,Minor adjustments: Zürich BadenBaden Reken
