# deletions,date,commit message
8,2014/4/15,Fix several crashes
75,2014/4/09,SearchResultListFragment: Retain instance correctly
21,2014/4/09,Make more stuff in SearchResult* overwritable
2,2014/4/09,Oehringen: Fix column table
4,2014/4/09,Bring back locale-aware sort order in library selection
1,2014/4/09,Fix possible NullPointerException
1,2014/4/08,Add up button to LibraryListActivity (if not coming from WelcomeActivity) and SuggestLibraryActivity
10,2014/4/08,Bugfixes for search in library list: now works on Tablets and shows text when no results are found
959,2014/4/08,Remove Elmshorn (switched to OPEN) Fixes for PICA in Darmstadt and Fulda_HLB
283,2014/4/08,Handling of deletion in Starred items view (fixes #218)
365,2014/4/08,Tablet bugfix
9,2014/4/08,Better search algorithm
4,2014/4/08,Search functionality for library list
1,2014/4/08,SuggestLibraryActivity: Move String to resources
1,2014/4/08,SuggestLibraryActivity: Layout enhancements restore instance state
45,2014/4/08,SuggestLibraryActivity: Autocomplete
90,2014/4/07,Basic implementation of SuggestLibraryActivity
9,2014/4/07,Run tests in parallel
2,2014/4/07,Search test cases
52,2014/4/07,Changed or removed OPACs after connection test
80,2014/4/07,Basic connection tests (#21)
503,2014/4/07,Remove all android. imports from apis. (looking at #21)
21,2014/4/07,Handle missing NFC permission
3,2014/4/07,Indexed scroll bar: Support lowercase city names (if we should have them any time) and put ÄÖÜ to the end
3,2014/4/07,Indexed scroll bar for city selection
6,2014/4/07,No trailing slash in WebOPAC.net JSON files
3,2014/4/07,Updated the add_library script for WebOPAC.net
1,2014/4/07,PICA fix
6,2014/4/06,WebOpac.net: Share URLs
6,2014/4/06,Unterstützung für WebOpac.net (#31) erste Bibliothek: Nürensdorf (erstes Google-Suchergebnis)
4,2014/4/06,Update the result count when it changes after loading another page This happens with iOpac when there are more than 200 results (it shows "> 200 results" on the first page and the real count on the second page)
142,2014/4/06,Move SearchStartTask to SearchResultsFragment. Should fix #219
3,2014/4/06,Move tools to new hierarchy
12,2014/4/06,Well I hope noone saw this...
10,2014/4/06,Fix wrong logic
1,2014/4/06,Documentation is sexy
6,2014/4/06,SISIS: Skip login messages on reservations
6,2014/4/06,AccoutnFragment: allow warnings
2,2014/4/04,Prepare release
4,2014/4/04,Tablet padding for account list and edit activities
6,2014/4/04,More fixes for tablet layout
11,2014/4/04,Show tablet margin on Nexus 7 show border around search only when this margin is shown
