# deletions,date,commit message
18,2015/2/04,Improve the decision whether or not to show a ProgressDialog in LibraryListActivity.
58,2015/1/31,Change section headers to match Material Design style
2,2015/1/31,New Information URL for Schleswig
438,2015/1/31,Swipe to refresh in AccountFragment
1,2015/1/31,BiBer: Fix barcode search
24,2015/1/30,Better Tablet Layout (with Material Design)
2,2015/1/29,Prepare release
