App,Store,App ID,Review ID,Country,Version,Rating,Date,Author,Subject,Body,Translated Subject,Translated Body
"Web Opac: 1,000+ libraries",Google Play,de.geeksfactory.opacclient,Z3A6QU9xcFRPR25NbUtoN0J4MVlSWDNqYnRPUnNIekZlWHgxYklPemYxU2prVTJLSjh5YWNGYjk5bFBfaVhITGs3MzhWQWxHeW45amo1SW9yRldhYVdIWEE,English,,5,2016-10-30,"",Funktioniert super,Verwende die App mit der Hochschulbibliothek Wilhelmshaven. Suche und Verlängerung von Ausleihen funktionieren problemlos,,
"Web Opac: 1,000+ libraries",Google Play,de.geeksfactory.opacclient,Z3A6QU9xcFRPSFlpeFZBa3JSblNqdTJXMjh3aVg3dzktUHl0NlVpQkJYMkV3LTJSdmtEaHVZbGFnejB5cFphaDFYdXJpUk1NVVc2QTBxcUtsUkRveHY2LUE,English,,5,2016-10-27,Conny T.,"",Great app and easy to use,,
"Web Opac: 1,000+ libraries",Google Play,de.geeksfactory.opacclient,Z3A6QU9xcFRPRUJTdXZsSnJScU5HemlCWHZGZzNUMnpMZFk1MHA2NjVhSUhjelYxdXVvQUVFcTVOMlhzc1FGOGV6dVRkOEdmejlxVWtFdk5xeEttMmxVaWc,English,,1,2016-08-02,wanyin cui,"Tried on three phones, never worked","Recommended by the Mannheim Stadtbibliothek employee. Thought to be a great app, however it could never locate any library close to me. After manually typed in the library name, it could not find the user per ID number. It could have just reported an error which may save me the time, it pretended to be searching, for ever searching... Lesson learned: Never trust anything for free or recommended by a seemingly neutral employee.",,
"Web Opac: 1,000+ libraries",Google Play,de.geeksfactory.opacclient,Z3A6QU9xcFRPRUhUcTJmQUszS1Z3YzdCU2J0Y3ZvYVZTT3Bnc2ZwMUJyVFZHc2ZaNGRsNUlEVlNYRU5VMzlsZDRiVm8xaUZLTjBDN1l0clRZMnlvTGFGLXc,Italian,,3,2017-02-11,"","",Ich kann nichts über diese App bestellen. Wieso? Ich kann nur die Bücher suchen und evtl meine Bestellungen verwalten.,,
"Web Opac: 1,000+ libraries",Google Play,de.geeksfactory.opacclient,Z3A6QU9xcFRPRXg2RlUtcGZSeG41OGxPUWpPMFdqN1pCUjYxcTVIc3EwYXdOUDFoYTVpOU0teUZLNWJvM0ZRZ1FsUDdVYkl5aktLZHBBZUNIMmFjaWpIalE,German,,4,2017-05-23,Eveline Biege,"","App ist super, bekomme nur seit einigen Tage die Fehlermeldung dass sie nicht auf den Bibliotheksserver (Coesfeld) zugreifen kann?!",,
"Web Opac: 1,000+ libraries",Google Play,de.geeksfactory.opacclient,Z3A6QU9xcFRPR056ZEZMODg3X0JUWkFIdDhzdW1lVktYSUdzZzJyTmhKZllvVF96Q2E5OG1pMUo4Q2FLZ0ZZZ21XSy1NdW90NkUyaFlPTE5UN2V0UF9hY0E,German,,5,2017-05-19,Pantalaimon,"","Bin einfach begeistert vom Umfang. Und wenn man per Knopfdruck eine noch nicht implementierte Bibliothek nachfragt, wird ziemlich schnell geantwortet. Sehr gut!",,
"Web Opac: 1,000+ libraries",Google Play,de.geeksfactory.opacclient,Z3A6QU9xcFRPSEpYMHF2dGtMNXJ2TmNzNk5RRDFXalMxSHZMRXJiaFgxTExlejlodFNCX24zbkJsSTRZVEFBT1JPeVVjWjVaakdTbmwzUXI4M2FsYnI3R3c,German,,5,2017-04-28,"","",Einfach und genial!!!,,
"Web Opac: 1,000+ libraries",Google Play,de.geeksfactory.opacclient,Z3A6QU9xcFRPR1dDTk1SWUxzWHVEUFAwU3JPRXVwRDJhSWtZci1yVDZQVnYyT3lReTBsN2Nhdk9JOWd2VWRrV2dabVlrUjRSM0tkWjR0T3ZCWEtHa01GUFE,German,,4,2017-04-28,Stefan Pohl,"","Update: nach heutigem Update 5.1.0 scheint wieder alles zu funktionieren.   (Update: Derzeit (Version 5.0.11) geht gar nichts: angeblich ""keine Medien entliehen"". Update Ende)  Was fehlt, sind Checkboxen zum Aus- und Abwählen einzelner Medien zum Verlängern sowie ""Alle Auswählen"" und ""Alle Abwählen"". Wie soll man sonst sinnvoll 9 von 10 Medien verlängern?",,
"Web Opac: 1,000+ libraries",Google Play,de.geeksfactory.opacclient,Z3A6QU9xcFRPRXd6MTBDNDdURS1FUXc5dzM1ZUdiM0lDZ2NlR2ZGVk5RTXVkNUZXT3UzZUVidzBpLTlPNGdnRDJrdDZVTlBjazg4S1dFTk5QbVZRQy1zbGc,German,,5,2017-04-27,"","",Hübsches Design und alle benötigten Funktionen. Die App funktioniert wie erwartet mit der Universität Halle Saale,,
"Web Opac: 1,000+ libraries",Google Play,de.geeksfactory.opacclient,Z3A6QU9xcFRPRnVlUXV5czRGUUZESDFGaVcxcWRaSHRRSXdDaEc4REhZdTBaRFk3bFMzNnl5YldoQ0lwblRuWlkxQjFNQ1Y3Wmp4UGRXTGN6TGtEdGRxVHc,German,,5,2017-04-23,Arnold Schwarzenegger,"",Sehr praktisch.,,
"Web Opac: 1,000+ libraries",Google Play,de.geeksfactory.opacclient,Z3A6QU9xcFRPRVRuZzdkRnZkR0Q1VVU4ZnJpX016YVFobnFkdHFtZkNHS1B4Z0lFZ2FUMnF2ZFZpeHlKTVZTdUJHWG5VcnRVMWJPeUVHZ01HZEZlQVJSUXc,German,,2,2017-04-20,Gabriel Gomez,"",Hat immer gut funktioniert aber jetzt nicht mehr.  Bibliothek Voebb.  Seit letzter Woche geht nicht :(,,
"Web Opac: 1,000+ libraries",Google Play,de.geeksfactory.opacclient,Z3A6QU9xcFRPRlZUeE16MFY0elFrUEt0ZVZ3aXU4TVpob3NSYmhhRTR5S2lzQjVkM05OWVdiZjB0MWlycXlITTVxbF9pb2tpbFdrSF9XanFTYWRFVkI2cEE,German,,1,2017-04-19,"","","Richtig schlecht! Nicht verlässlich. Mittlerweile synchronisiert nichts mehr,angeblich habe ich nichts ausgeliehen. Außerdem funktionieren, wenn überhaupt,die Erinnerung und die automatische Verlängerung nur nach Programmstart. Das bringt natürlich nichts,wenn ich daran denken muss das Programm zu starten. Schade, denn eine funktionierende App wäre sehr hilfreich. Werde wieder alles in den Kalender eintragen, am besten handschriftlich.",,
"Web Opac: 1,000+ libraries",Google Play,de.geeksfactory.opacclient,Z3A6QU9xcFRPRlVWTm14S043LVRITmJScmRwTWpmYXIzdUNpUklKUEQyaTZwdHgyazQyQkdUa19PN203MnllUVByZzM5TjNORFNIQ3FIendkakN5Z2VXMXc,German,,1,2017-04-16,"","","Früher sehr praktisch, jetzt funktioniert NICHTS mehr! App völlig sinnlos, da Zugriff auf das Konto nicht mehr möglich ist (Stadtbücherei Frankfurt)",,
"Web Opac: 1,000+ libraries",Google Play,de.geeksfactory.opacclient,Z3A6QU9xcFRPSGJSTFRSNWFHTkVIcWE5MmRwMkVSYlVQS3dTZW44TWM3SjduZUVwYTRVRkFwRldRSjJQb1RnTHZRTjQ0dFFNbGdkMU5KTU52NVJqaUFLQ2c,German,,5,2017-03-26,"","",Nach dem letzten Update läuft es wieder perfekt. Kontakt zu den Programmierern super. Komfortable App.,,
"Web Opac: 1,000+ libraries",Google Play,de.geeksfactory.opacclient,Z3A6QU9xcFRPRndGQmVnbWU3MVZmMmNvZWdnRTVEc0U3ZV9haFB0QS1ka2M2OWxrdGJNUk9zTlBQckE5Z0hLZkp5MElhWEtuZWZfbHBnb0JIQkNuOW03eVE,German,,5,2017-03-26,Chris Wut,"","Verbindung funktioniert wieder! Super, vielen Dank, auch für die App überhaupt!",,
"Web Opac: 1,000+ libraries",Google Play,de.geeksfactory.opacclient,Z3A6QU9xcFRPSDBzS0lHR21rQ0tPZ3h0bkJXTHc5UWc1UEV6LU9qd3FEbVBnQ1VVLW9sdC1NdXprMmQ5ZERiaU43bEdVSTVQV0YzdFNxOVBDQ3VIYnVpT1E,German,,4,2017-03-26,Jonas Heubuch,"","Nur cool wäre es noch, wenn evtl. zu zahlende Gebühren angezeigt werden, z.B. wenn ein Buch überzogen ist",,
"Web Opac: 1,000+ libraries",Google Play,de.geeksfactory.opacclient,Z3A6QU9xcFRPRkhEblltcnhtQVFMaVVZSFpCeUkxeFpXaVdiaGRaYzZqekwwQ0ducVhCNHBZVnhiOTFUa01mcHBVbDVJODFyR1BBdGlnMDhxQTNsZzl6RXc,German,,2,2017-03-22,"","","Extrem langsam, instabil, umständlich - bis die App mir brauchbare Ergebnisse zeigt, bin ich zur Stadtbibliothek gefahren und hab im Regal nachgeschaut",,
"Web Opac: 1,000+ libraries",Google Play,de.geeksfactory.opacclient,Z3A6QU9xcFRPR3ZUVFRTcEwyc1dwLTJVNEI5LXBZS0gtWmVYMmZlbndvNHBPRXNMc1V5bGpyU002N2QtR2QtUmlsYVpLMkp3TkZ5OU5TbGdEd1BsSnIyQkE,German,,5,2017-03-22,Jürgen Mark,"","Seit einer Woche funktioniert die Verbindung zur Regionalbibliothek Weiden nicht mehr. Fehler wurde vor einer Woche gemeldet, jedoch bisher noch nicht behoben.  Update: Die Verbindung klappt jetzt wieder.",,
"Web Opac: 1,000+ libraries",Google Play,de.geeksfactory.opacclient,Z3A6QU9xcFRPRnE0QmFVb213Zi1UeHVsZXJvOUxzRzZHM056ejRfcWVJZnc0a24xTTR4MTRyU0YzQUNHY2t5OWRsT0tOMm5TWm02LXhocXp4YWtUNDctYXc,German,,1,2017-03-22,"","","App war ganz ok, aber jetzt funktioniert nichts mehr. Stattdessen werde ich mit Rückgabe Benachrichtigungen genervt, die falsch/veraltet sind.  Ja, ich habe gelesen, dass das Bibliothekssystem gewechselt wurde und man alles per Mail erklären kann - das ändert aber auch nichts daran, dass die App nicht mehr funktioniert und deshalb deinstaliert wird.",,
"Web Opac: 1,000+ libraries",Google Play,de.geeksfactory.opacclient,Z3A6QU9xcFRPSHItT2dqYTFuc28ySlFrbi1QSTFuXzBnZjk2YU1GT0R6SnRXdi1TazNKRW1hSnk2aFdMWHJRQjR3SWhvekZNazdUS0JkdUo5VXFuYlhOUFE,German,,2,2017-03-16,Kalifrago X,"","Ich hätte der App gerne 5 Sterne gegeben, aber seit einiger Zeit kann ich nicht mehr auf mein Konto der Stadtbibliothek Ludwigshafen zugreifen. Da steht dann nur ""die Funktion ist in ihrer Bibliothek noch nicht unterstützt"" Wieso das denn? Die ganzen letzten Monate hat es doch funktioniert?!?!? Bitte beheben. Sonst muss ich mich leider von der App trennen.",,
"Web Opac: 1,000+ libraries",Google Play,de.geeksfactory.opacclient,Z3A6QU9xcFRPRm1SZXhwV19kYWxNa1RIdG9ZVi1DS1Q5VVdwczZ1SjZSMzNlMzdYYjcxb2lCVWdzeGhfbDdxQjg1S2J1VTNxN2NKb0MtNkFVTU5yekoyVWc,German,,1,2017-03-07,Carmen Hanzig,"","Bekomme  keine Verbindunng zur Bibliothek mehr. Schade war sonst immer gut, bitte den Fehler beheben. Danke!",,
"Web Opac: 1,000+ libraries",Google Play,de.geeksfactory.opacclient,Z3A6QU9xcFRPRkFiUHM4U0FwM3JsZzJkTHl5V29ZLUpVc1ZfcjkyOGtQcklqaEJ2bUhZR01mcjk2UFhKYmZwQ1ZpQ0pzQjZXbVhMZzJpelltZnFmTXdKRlE,German,,3,2017-03-03,Myri M,"","Verbindung zur Zentralbibliothek Frankfurt am Main ebenfalls momentan nicht mehr möglich um Medien bequem über die App zu verlängern. Sonst top, wie immer...",,
"Web Opac: 1,000+ libraries",Google Play,de.geeksfactory.opacclient,Z3A6QU9xcFRPRzBDblo0a0laVFR1NTMxWmFVVmxVZzBTcnEyVlFNb2FhbXMzazhOdGZ1aFFwd21CZGtvWTd4MTJWVWt6Z0xDbmZsREdjQ1IyQk8zaVZ2N1E,German,,5,2017-02-24,"","",Genial. Aber bitte noch eine Übersicht der nächsten Abgabetermine bei mehreren Konten. Danke!,,
"Web Opac: 1,000+ libraries",Google Play,de.geeksfactory.opacclient,Z3A6QU9xcFRPSDJ0RXEzWmtXQm9CczVFdHlldV96bkd4S25ocTVyaGVvYjA2aG94ZWZZeFlPdVRWaENkNGY3eUpGeGlNcjluajVtU1dnNXpsUFlWZVI1ZlE,German,,4,2017-02-20,Chris Nachname,"","Eine der besten Apps auf meinem Handy. Und sollten mal Kleinigkeiten nicht hundertprozentig funktionieren, reicht eine kurze Mail. Man bekommt innerhalb weniger Stunden Antwort und Hilfe. Bitte genau so weitermachen.",,
"Web Opac: 1,000+ libraries",Google Play,de.geeksfactory.opacclient,Z3A6QU9xcFRPR0ZMVmdob1NmaEttd3pHWHd2LUZSQ2dHdFhBOXV6Qk1UMXk5dF8xanQxRFh1WUdlMWw2bXpTd19pNWxjbG9WU1d3X3NFOVhKa0JSb2VWaHc,German,,2,2017-02-20,Suxxi Hopp,"",Wie kann ich mein Passwort zurücksetzen?  Habe es vergessen und komme nun nicht mehr auf meine kontodaten...,,
"Web Opac: 1,000+ libraries",Google Play,de.geeksfactory.opacclient,Z3A6QU9xcFRPRk1YOEVjY0RuOTlsbGNlQ3ZMY29SMENqQllheXFPVW1RenZqUWhKQWlnMkVCM1JVY3NjMktPZG1BSDVnZlhWUjFnTUZValA0Qi1MLUdydkE,German,,5,2017-02-14,dorf tratsch,"",Verbindung zum Konto der Regionalbibliothek Weiden funktioniert nicht mehr. Ständig kommen Fehlermeldungen. Auch das Löschen und wieder aufspielen des Kontos bringt nichts... Schade hat sonst Jahrelang prima funktioniert.,,
"Web Opac: 1,000+ libraries",Google Play,de.geeksfactory.opacclient,Z3A6QU9xcFRPRjl3d19QU1hoOFVwOWstb0t2OTZFU0wxS1owdVZGMXZlNVdkUHYwZG5nM3pCZmxuNkdmczV0b3k1dk9SZC1CWWY2d2h6VElvbl95cENFMVE,German,,5,2017-02-13,Sophia Herrlich,"",Bietet eine komfortable Übersicht über das Opac Konto. Feedback zu Fehlern wird freundlich und schnell bearbeitet. Danke!,,
"Web Opac: 1,000+ libraries",Google Play,de.geeksfactory.opacclient,Z3A6QU9xcFRPR2d1d2NTeXQwWS1tbE16dHNfWUlBYUtfRk9Nb0tvcXd2MFVGdnMxRmhSdHJVQzAwQjcwd2dyLUhWZW1sSXdxWmJPR3oyQ3BXUHg4ZHNjckE,German,,2,2017-02-10,"","","Bislang war ich mit der App sehr zufrieden, doch seit dem Update klappt die Anbindung an die Stadtbücherei Frankfurt nicht mehr. Es wäre schön, wenn das behoben wird.",,
"Web Opac: 1,000+ libraries",Google Play,de.geeksfactory.opacclient,Z3A6QU9xcFRPRkQ2V1ZnMl92RGNCdUY4NnQtQ2lDLUNsSzdYYTI2TUw1X3ZFLXBNS0N3MURYQl9QMFJBMUJLNGh0bUF4Ql9SMFlEYkQ2d0dVSG5hWHpfVnc,German,,5,2017-02-08,Marc Schablowski,"","Entwickler reagiert auf Fehlerbeschreibungen blitzschnell und sogar am Wochenende. Weiter so! Vielen Dank. Nachtrag: die Erinnerungsfunktion funktioniert mittlerweile bei mir und hat mir so manche Gebühr erspart. Zudem verwalte ich auch die Konten meiner Kinder, was mir dieser App sehr gut funktioniert.",,
"Web Opac: 1,000+ libraries",Google Play,de.geeksfactory.opacclient,Z3A6QU9xcFRPRlgwNGJieWowT3hoMzQ5N0JFS3hRNDUtMHFoQjVwT1JxbHdjdFVqSnNiSUNjVFVlSUdXX25Vcnc3a2dWa3hyUjB4d0kxUzUzV0lkNUJVaVE,German,,1,2017-02-02,Igor Buracas,"",Kontoverwaltung Stadtbücherei Ludwigshafen funktioniert nicht mehr. Fehlermeldung! Warum?,,
"Web Opac: 1,000+ libraries",Google Play,de.geeksfactory.opacclient,Z3A6QU9xcFRPSGExeVdsSWx1d1VUblFyYXJ5VjdtRWg2bkswNUVRY0tfdXRfOEJDTWVRUXV3M0piTC1aWE9KenR6MXhkbXJvTmFwY0loVWpkeWhGNk8zbFE,German,,5,2017-02-01,"","","Geniale App, aber bitte noch eine generelle Übersicht (bei mehreren Konten) über die nächsten Abgabetermine (ohne separate Kontenauswahl), Danke!",,
"Web Opac: 1,000+ libraries",Google Play,de.geeksfactory.opacclient,Z3A6QU9xcFRPRjJ4OXRfLUprQktLd2F6VnFvbjZXTTVjX0wtSEdNMnVCRERxM1ZIUEhqQ2JfVUdadTdNYWdkWWxMM2sxSllidmFQOHlzWFd5NnFTUFJLVXc,German,,5,2017-02-01,Diana C.,"","Tolle praktische App! Toller Service, hatte schon mehrmals netten Mailkontakt :)",,
"Web Opac: 1,000+ libraries",Google Play,de.geeksfactory.opacclient,Z3A6QU9xcFRPRXhSeXp6Z2VOa2pBOWpQU3ZOMk40a05obWkzOXdJZlZRaG9JeVZuSUhYTmNSdTRnN3dZN0JJMmk4WEdLRFA5bnFsQW1VV1NVeFdEcGJGWXc,German,,5,2017-01-31,huevangifs ashit,"",Besser geht nicht. Bitte weiter so!,,
"Web Opac: 1,000+ libraries",Google Play,de.geeksfactory.opacclient,Z3A6QU9xcFRPSGZKcmktRmVCZ09kbE1FLVBFOVpaZEtkUjhfV0hfSDRUWF85emsyYkMwYXg0TWVBMm5hMmh6STM2NVFyNEFwVG9PaVREZXFybTRpYUVDUWc,German,,5,2017-01-31,Kubilay Cakmakkaya,"",Die App ist sehr gut und empfehlenswert! Weiter so!,,
"Web Opac: 1,000+ libraries",Google Play,de.geeksfactory.opacclient,Z3A6QU9xcFRPRWlqYTg0T08wM0tNYW1QS3RZYnVHZk5PZl83dE1UdVg2ZnlmVlgzRXpwWmI0MnZGanU3WWQtanYzOVY5MjNxZDhlLUdIOThXcDlFTDhvS0E,German,,3,2017-01-29,"","",Ich habe die App immer gerne benutzt. Seit kurzem funktioniert sie aber für die Stadtbibliothek Frankfurt nicht mehr. Ich hoffe das wird bald behoben.,,
"Web Opac: 1,000+ libraries",Google Play,de.geeksfactory.opacclient,Z3A6QU9xcFRPRXBDVHo0elVoODRydENrdjNoYTUwUHNPbnJKZ1BSUTk0YnBNZlE0bm9IcVZ3c0k3MVFkRS16SzM1bG5XLWpjeWkwRnF4Rjk0dXBrWnlZcUE,German,,1,2017-01-28,Vera Hausmann,"","App war bisher sehr gut, seit kurzem stürzt sie in Ludwigshafen dauernd ab und ich komme nicht mehr in mein Konto. In diesem Zustand leider unbrauchbar. Bitte Fehler beheben, dann neue Bewertung",,
"Web Opac: 1,000+ libraries",Google Play,de.geeksfactory.opacclient,Z3A6QU9xcFRPSGRpcDhWVU1ZQWxfa1FJWERqcWM3bkYwWjJkTGNCaDZ2TFRrY21oUVkxRnBkclRwNVFhazFnbmxLYjl0aTcyUXg4T3RuT285MkFRUHFwR2c,German,,5,2017-01-25,michael hoppe,"",Für mich heavy Bibliotheksuser unverzichtbar.Sehr gut gepflegte app,,
"Web Opac: 1,000+ libraries",Google Play,de.geeksfactory.opacclient,Z3A6QU9xcFRPRjI1UWlwbVhzOXo1aExPc0dzMXpCeHBGbVBrSEpPX3c5Ulh4cEZ4WklSbGpydjRYamltT1JUbXlwWEhPZ0FMT0Rzc0FNUFZSSE5UMHFPb3c,German,,5,2017-01-24,Klaus Gstädtner,"",Klasse Anwendung.,,
"Web Opac: 1,000+ libraries",Google Play,de.geeksfactory.opacclient,Z3A6QU9xcFRPSF9qWXM4Tmh0TF96czBTb3U5SF9YdXFWNi1XNXNOQVlvUWlhS3p6UG5aa2lQbkhxeHFPeFhKQmU2TEFfTlM3LUZidkxjTmwtci1KLXgtM3c,German,,5,2017-01-10,Ute Rosowski,Webopac ganz einfach,Super einfache Bedienfunktionen. Für Biliotheksnutzer zu empfehlen.,,
"Web Opac: 1,000+ libraries",Google Play,de.geeksfactory.opacclient,Z3A6QU9xcFRPR0dnNXJxRFp4elZoUFJ3ejl2Y0ZRdmd2cklIajl5eENEaUEzZ19pZGZfUUU1TXBnYnBFSjZ3NlBldHhmRkF3QTlnd0piV0lSbVgydV9tQUE,German,,5,2016-12-23,Julian Aßmann,Super App!,"Die App funktioniert einwandfrei, lediglich die Performance ist noch etwas verbesserungswürdig. Kann natürlich auch am Backend der Bibliothek liegen.",,
"Web Opac: 1,000+ libraries",Google Play,de.geeksfactory.opacclient,Z3A6QU9xcFRPSEtpNHBadmF2RjVpZzhpQkpVZ19kVUFsMWFrUnB5NEdyTzdEUDhYSUM5N1FyUXdJMG9ZV1Bra3dMelFURHlfdnVrRFNobWY1YU80QnNpdGc,German,,5,2016-12-17,Rudi Cenefels,"",Wirklich nützlich!,,
"Web Opac: 1,000+ libraries",Google Play,de.geeksfactory.opacclient,Z3A6QU9xcFRPRjJHdTVHQ0lnenhMV2JnY2JkbmZ3NUhyUHFNS29DQmhlWFBSOGFEWjBZakkwWHJmREVGSXB4Nzh6ei16MGtQUWRjSjJGQ29QcWo3SkZSRUE,German,,1,2016-12-16,"","","Kontofunktion und Suchfunktion funktioniert nicht. Ein Stern gibt es, damit ich eine Bewertung abgeben kann",,
"Web Opac: 1,000+ libraries",Google Play,de.geeksfactory.opacclient,Z3A6QU9xcFRPRnk3S1hGY1JBazROMmduUzFyMk55cW1IenY4enZmMWVGVzFTcjBidXQ3WWNvb0ZqMDJCWnU0dnRQTFFESHRUbmFlbzRGYWM2T29DSGE2MEE,German,,1,2016-12-07,Daniel Ceglarek,Kontofunktion nicht möglich,"Leider ist nur eine Suchfunktion möglich.. Eine Kontoanmeldung geht nicht, da die Funktion für meine Stadtbücherei (Hamm) nicht möglich ist. Schade.",,
"Web Opac: 1,000+ libraries",Google Play,de.geeksfactory.opacclient,Z3A6QU9xcFRPRmt5RHJzM09adWVDcUF4clFHZ2sxV01RakZPUGRlMHVNeWlvNjdmb1lIVHM4Sk1YV2dnSC1RR0cwZl9UY3RKYnNzeVphRVZzeXBSSWdlNFE,German,,5,2016-12-06,"","",super!,,
"Web Opac: 1,000+ libraries",Google Play,de.geeksfactory.opacclient,Z3A6QU9xcFRPR0FVaHdxcFJteWVjaXREWjRBVHhZbXQyaVRiWTYtMGZoTk5CZzFabmZoWUhaaFN2MEoxZHFZRkpWT3Rkb1BoUjFjNUxVZ2k3V3N3YXFDU2c,German,,5,2016-11-29,Uwe Wennmann,"",Ok,,
"Web Opac: 1,000+ libraries",Google Play,de.geeksfactory.opacclient,Z3A6QU9xcFRPRnZYY1Z5RkdYWl8yZmZ0TFBYSmlJdXN5MEM4SzY4OGI5RnFJZlBscjJyd1I0MUtJSmtRRVhiUlNzWWQyU2V3d1VjSjdjeXJ6aHNzNURUcWc,German,,5,2016-11-28,Mirko Friedenhagen,Hervorragend,"Wesentlich bequemer als die Version im Browser, funktioniert gut mit mehreren Konten.",,
"Web Opac: 1,000+ libraries",Google Play,de.geeksfactory.opacclient,Z3A6QU9xcFRPRW9MT0Y4Y3pVcENhaXdNekFVbnNhUF90ZXJGaXFFMFMtQ3JIRWpKSFZZV1I5MWd5eGdVVnNhOTBKemc3SHBPQldXR3FXS0pxa3Q2SGZRdnc,German,,1,2016-11-20,"","","Großer Mist,denn nach In",,
"Web Opac: 1,000+ libraries",Google Play,de.geeksfactory.opacclient,Z3A6QU9xcFRPRUlWMlZ6MHZEMXZCbU5CODNTYlBvMVUzUFFIQkxTZDBMZVdRaEpEdFBMaE80ZEZnODZMRkY0N091MlcyZ0xJY213cjdnS0YtcFBhQkZXQkE,German,,4,2016-11-14,Birgit Kappel,Zufrieden,"APP funktioniert sehr gut. Praktisch, kompakt und schnell. Sehr gut die Titelvormerkungrn statt einfacher Exemplarvormerkung.",,
"Web Opac: 1,000+ libraries",Google Play,de.geeksfactory.opacclient,Z3A6QU9xcFRPRzhrTzlvY2ZrNUJFSkZzNUFfZWFWdV9TWHBFREEzWS1jeTRRUFRPSFI3V3ptbHdDWElveTdWOXY3c3VBcm9CMVAxdWM1ZzA5bGtWd0dTUUE,German,,5,2016-10-25,Roswitha Leischner,"",Super,,
"Web Opac: 1,000+ libraries",Google Play,de.geeksfactory.opacclient,Z3A6QU9xcFRPRXhTampHT3FEVHJnWXNxNjZLMWkyak4wU2ZiQkVZb3pfdm41VE41bjNKYWwyWENPbFhMMWpCbndwb1dVSjVBRjV1V0J6MzJKX1RLd3ZoZWc,German,,5,2016-10-24,"",Must-Have für jeden fleißigen Bücherei-Nutzer,"Diese App hilft mir, auch die Konten meiner Kinder im Überblick zu behalten. Bei Problemen reagiert der Support sofort. Einfach klasse! Vielen Dank für diese wertvolle App!!! ☺",,
"Web Opac: 1,000+ libraries",Google Play,de.geeksfactory.opacclient,Z3A6QU9xcFRPRS1UQzNFbjZ5SzdXeDh5NWszY1NpQjBic0E4Y2JSaGhTYjVHYmJBQk4wNENoT05YXzJZYklNenZ1WGx6aUZ1ZUdLZXRIZlpHa1lMWGlqa0E,German,,3,2016-10-19,dat girl,NAJA,Mir wird nicht angezeigt was ich ausgeliehen habe Bitte beheben,,
"Web Opac: 1,000+ libraries",Google Play,de.geeksfactory.opacclient,Z3A6QU9xcFRPSC1saWlFbzl0dlltbS1EbWpZdXg0a0RWZjhVeXJKbURRdzIzeUFTOG5NaWhleS1ZMHN5aEFxNVJMTDVydVAtdWVRM1hDN3RiSExCTU4ySGc,German,,5,2016-10-13,Emre Adim,Super,Super,,
"Web Opac: 1,000+ libraries",Google Play,de.geeksfactory.opacclient,Z3A6QU9xcFRPRUZXclZhRTluUlNPMUp2c1UwVUoyYmJaNW8zS3NxM0R6YW9ZNE9lSFgyM19NcFFiNnV2bks1QkItb0xfcDJVSlNubjRHTmttbThrV0hOamc,German,,5,2016-10-12,robert Giebel,"",Großartig,,
"Web Opac: 1,000+ libraries",Google Play,de.geeksfactory.opacclient,Z3A6QU9xcFRPRlJPQTQtU0U2RjVCZDRTMVZiUXJQZ2VFT2k2Q3lpbF9WVGZ5bFZLU2NLcE8zcW5OUTdCeGp3a0NnYlNkdHZhUU5telRVSnNKQm1BYnF1RFE,German,,4,2016-09-26,Wendy Darling H.,Schade,"War immer zufrieden. Leider klappt nichts mehr. Bei meiner Bibliothek wird neuerdings die Kontofunktion laut App ""noch nicht unterstützt"". Neulich ging es noch.                        Sehr schade.                                  Nachtrag:. Umstellung des Systems der Bibliothek, sehr, sehr, sehr schade.",,
"Web Opac: 1,000+ libraries",Google Play,de.geeksfactory.opacclient,Z3A6QU9xcFRPRnVDaW1OZF9kN2hacUx5OEFDVmxRTzBVYlpBTFRhdUtqRXJRamNiSkdmbkxuN0xFWTdEN1I5UFZJQ1kxWHpWVEZfRWIza2xYM29VeWEyMlE,German,,5,2016-08-23,Wolf Mende,Super!,Ein tolles Hilfsmittel für aktive Nutzer von Bibliotheken.,,
"Web Opac: 1,000+ libraries",Google Play,de.geeksfactory.opacclient,Z3A6QU9xcFRPR0ZxT0tNSmhkb2FHNV85N1YwcldfQ0gxTVRyc1hTUFFYWDcxWVRIS0o2UVhGazUwYVBJSDh3d3hSNnI5cUQ5aEhnU19aeTRJVGRCZ0xDT0E,German,,5,2016-08-20,R. T. G.,Super Sache,Funktioniert ist stabil und sehr empfehlenswert,,
"Web Opac: 1,000+ libraries",Google Play,de.geeksfactory.opacclient,Z3A6QU9xcFRPRlkzSmZGMHRWWjBOVHJCdHdwbjJJM2RSODRHYVNSbnh6d0FqNGZMLVFIZ0dndDVqYUx4WUNhX1dXZFAwMlZPZ2tKTWdhUmRxa0ZQZ20xdVE,German,,5,2016-08-18,Manfred Popel,Eine APP....,Eine APP die das macht was es soll.,,
"Web Opac: 1,000+ libraries",Google Play,de.geeksfactory.opacclient,Z3A6QU9xcFRPR1ZMYkFHMjdVaUc2cDU5c1dLUXVsNmRJUVFrWUhMU2RVUHZ2bE5EcjZHSFpSWHc4TllrT01iaDRUUDRzeE90aUdlUE80MTRCa3V2a1Eycnc,German,,5,2016-08-16,Sergeant Braxxter,Super Service!,Innerhalb eines Tages wurde auf Wunsch eine Bibliothek hinzugefügt und die App aktualisiert.  Besser geht es doch gar nicht!  Funktioniert einwandfrei,,
"Web Opac: 1,000+ libraries",Google Play,de.geeksfactory.opacclient,Z3A6QU9xcFRPSGp3eVNVQW05TG1aVE9VeGVTS0tLcTlsN2tiRGxBTlZ5ZnZOZ0pHQmtEZW1UWVR3R1BMczdMWHI0dFRCMTlhODhBa1c0aTYzRXI1TnA2UlE,German,,5,2016-08-05,David Herrmann,Endlich!,Auf so etwas habe ich gewartet!,,
"Web Opac: 1,000+ libraries",Google Play,de.geeksfactory.opacclient,Z3A6QU9xcFRPRzN0ZE9VX2dEeTB5VHZrYS1Wem1Zb0hIdWxQTmlkS0szaXdpMWhKNDZSRUFjeGFQVE9vYzFQSXYxOXpzRmIyeTVjZU9Pa0c0UzBoSFJKb2c,German,,5,2016-08-04,Fami Pelz,Genialer support,"Immer alle Bibliothekskonten im Blick! Und bei Schwierigkeiten mit einer Bibliothek oder Software Probleme, mega schnelle updates. KLASSE",,
"Web Opac: 1,000+ libraries",Google Play,de.geeksfactory.opacclient,Z3A6QU9xcFRPRzJYU3VWSVA5bERDN1ZrYlhwWERXdWtfZTZZc2lia0tZNUhhTDY1MkpLTkdiOFFwNWh0bkFTTEJ0dWYtN2hiYm1TbXpVeHRySWVZZW1uS1E,German,,5,2016-08-04,An. Neumann,"",Super nach den letzten Updates ist meine Heimatbücherei jetzt auch verfügbar! Suche funktioniert. Vielleicht auch bald die Kontounterstützung. Jetzt ist sie dabei! 👍👍 Funktioniert weiterhin gut! 👍,,
"Web Opac: 1,000+ libraries",Google Play,de.geeksfactory.opacclient,Z3A6QU9xcFRPSEJnWWFZczY1alJLX093dG5nN1cyX0lRdUU1bHNJblFmd1Q2VXdJYmMxelR1STBVcl9tSjBzYzlqM1VYTTQ1dkRrVkN0dFNvT3pCOGVraXc,German,,3,2016-07-14,Ohne Namen,Am Anfang echt super....,aber dann zeigte die App meine Fristen nicht mehr an...wenn das wieder gehen sollte echt top,,
"Web Opac: 1,000+ libraries",Google Play,de.geeksfactory.opacclient,Z3A6QU9xcFRPRUZjejlOU2hXSmJzLUphQnJxTGdKdDRsQzJYZnRoMnRxVEpwdnFsWVRmUTBiZjI2QUk0cGE1VlJkUHIzc1BUQjRTQmhQMU9BQUtJNWpoU0E,German,,5,2016-07-13,Tim Häußel,Ein sehr guter Kundenservice,Es gab mit dieser app nach einem Update ein kleines Problem mit meiner lokalen Bücherei worauf hin ich den Support kontaktierte. Dieser war sehr freundlich und Antwortete fast umgehend auf meine E-mails. Das Problem wurde nun mit einem weiteren Update gelöst. Ich kann diese App nur empfehlen.,,
"Web Opac: 1,000+ libraries",Google Play,de.geeksfactory.opacclient,Z3A6QU9xcFRPR2VjRW1PRVhSS01lSHREeFJFRHBCR1FZdm53MUw5d0JQWEhOX2xKRHFaQUVNYUdoc2xHZ1VnanRiN3hrbXlyMFR1b2kxSG1rc0l2dlJZS0E,German,,5,2016-07-13,Benny,Super!!!,"Eine geniale App. Super praktisch und KOSTENLOS!!! Vielen Dank an den Entwickler. Als Bemerkung: Ein Widget für die Abgabetermine wär nicht schlecht. Edit: Nachdem ich einen Fehler gefunden hatte und diesen meldete wurde das Bug innerhalb einer Woche behoben, großes Lob dafür!!!",,
