App,Store,App ID,Review ID,Country,Version,Rating,Date,Author,Subject,Body,Translated Subject,Translated Body
"Web Opac: 1,000+ libraries",Google Play,de.geeksfactory.opacclient,Z3A6QU9xcFRPRnlKS3N4QUd1TTdWcV9VTVk1Q3NZRlRzNUZoUnlsMEkyMGNtZFNvU29QTVpHNmlyWlFFX3Z4VlZ3Zi1YWHVGb1Y3ekczMTBQYzVjT3J1VWc,German,,5,2014-01-03,Markus Krauter,"",Bestes Programm für die Bücherei:-),,
"Web Opac: 1,000+ libraries",Google Play,de.geeksfactory.opacclient,Z3A6QU9xcFRPRUo2RFNCVTlQeE1lczJibzVoYjlQVzlIV21UMXpYUHEyNFR4SFRLT2tSb3ZRSndnTU5MZk5xOVlzWFlVTDk0TDFuZGlGNElFYUhNRkxBU0E,German,,5,2013-12-24,"","","Endlich hat man den Verleihschein aus der Bücherei immer dabei, und er meldet sich auch noch, wenn ein Buch fällig ist. Da lohnt sich mein Smartphone endlich mal!!!",,
