package,release ID,UI element,related topic,average polarity,# reviews,average rating,average objectivity,# uninstalls,delta rating,element deleted next release
org.kontalk,v2.2.7,@+id/content$Lorem ipsus has suffered great losses. He will be punished for that!,187,0.6000000000000001,1,5.0,0.775,0,0.7999999999999998,0
org.kontalk,v2.2.7,@+id/appIcon$,190,0.6000000000000001,1,5.0,0.775,0,0.7999999999999998,1
org.kontalk,v2.2.7,Open$,198,0.4114583333333333,1,5.0,0.5166666666666666,0,0.7999999999999998,0
