package,release ID,UI element,related topic,average polarity,# reviews,average rating,average objectivity,# uninstalls,delta rating,element deleted next release
org.kontalk,v3.1.1,@+id/balloon_audio_download$,25,0.0,1,1.0,0.1,0,-3.30188679245283,0
org.kontalk,v3.1.1,Open$,30,0.016666666666666666,1,5.0,0.2833333333333333,0,0.6981132075471699,0
org.kontalk,v3.1.1,@+id/button_facebook$,35,0.016666666666666666,1,5.0,0.2833333333333333,0,0.6981132075471699,0
org.kontalk,v3.1.1,@+id/fragment_contacts_list$,40,0.0,1,2.0,0.0,0,-2.30188679245283,0
org.kontalk,v3.1.1,@android:id/list$,47,0.0,1,2.0,0.0,0,-2.30188679245283,0
org.kontalk,v3.1.1,@+id/msg_list_item$,50,0.0,1,2.0,0.0,0,-2.30188679245283,0
org.kontalk,v3.1.1,@+id/fragment_search_list$,55,0.0,1,2.0,0.0,0,-2.30188679245283,0
org.kontalk,v3.1.1,@+id/fragment_conversation_list$,60,0.0,1,2.0,0.0,0,-2.30188679245283,0
org.kontalk,v3.1.1,@android:id/empty$text_contacts_empty,69,0.0,1,2.0,0.0,0,-2.30188679245283,0
