Topic Index 1,Topic Index 2,Topic Similarity
5,7,0.0439
17,8,0.043199999999999995
13,12,0.033299999999999996
15,2,0.0322
10,17,0.0312
3,4,0.0299
14,18,0.0299
8,10,0.027200000000000005
9,11,0.025500000000000002
18,0,0.023399999999999997
1,6,0.0208
2,5,0.019799999999999995
16,9,0.0182
4,15,0.0169
0,13,0.0156
6,1,0.0
7,3,0.0
11,14,0.0
12,16,0.0
19,19,0.0
