Topic Index 1,Topic Index 2,Topic Similarity
17,2,0.06520000000000001
13,11,0.05870000000000001
3,1,0.0571
18,16,0.0494
10,9,0.0447
2,10,0.0434
8,8,0.04
11,14,0.033600000000000005
15,5,0.0324
6,4,0.0273
7,13,0.0252
14,17,0.0252
12,6,0.023
1,7,0.02
19,3,0.0162
0,0,0.0
4,12,0.0
5,15,0.0
9,18,0.0
16,19,0.0
