# deletions,date,commit message
3,2014/11/26,project file update
116,2014/11/23,use new android studio project structure
0,2014/11/22,better settings icon
15,2014/11/22,improve tip display
19,2014/11/21,improve tip sentence
41,2014/11/21,add tip to the bottom of the list
27,2014/11/21,remove card views to follow material design guidelines
1,2014/11/20,add eye icon again instead of the envelop one
49,2014/11/20,fix possible crashes
2,2014/11/16,values-zh/strings.xml: "Open" -> "Close" "Drawer navigation" -> "Navigation drawer"
1,2014/11/16,values-zh/strings.xml: "Above" not "At the top of"
4,2014/11/16,.gitignore: OCD fixes :)
56,2014/11/16,values-zh/strings.xml: Update Chinese (Simplified) translation
1,2014/11/15,themes.xml: Improve control visibility in dark theme
2,2014/11/12,v1.7.2
21,2014/11/12,disable pull to refresh on the entries fragment
4,2014/11/12,fix auto-fullscreen
1,2014/11/12,add Zhaofeng Li to the credits
3,2014/11/12,Updated some German strings and compared with English strings.xml
