App,Store,App ID,Review ID,Country,Version,Rating,Date,Author,Subject,Body,Translated Subject,Translated Body
Flym News Reader,Google Play,net.fred.feedex,Z3A6QU9xcFRPRzFONDFJYWQxMHlzREtZQW9UdGVWbkI3NGVWYkQzWUxzcDJtQTl3WGEzbTVhSHhtTmt6aXhpVExsSkZWMUt2RG94cDBldGJIdlg5VmtjZGc,French,,5,2013-07-10,Ophir Lojkine,"Léger, efficace, et beau","Moi qui commençais à croire que tous les logiciels libres du store étaient moches ou buggés, me voilà détrompé. Gros progrès par rapport à Sparse rss. Cependant, je ne vois pas comment changer un flux de catégorie (groupe). C'est possible?",,
Flym News Reader,Google Play,net.fred.feedex,Z3A6QU9xcFRPRjNTSXJjSFZLZUxyQ00zQ01vQzNLcDlVNy12ZGNia2JwVWZYQkxsTDJuYWxlNTBtaE1JamFSbm13eDZwRF9XZWRfTVQtX29scTZheU1iNEE,French,,5,2013-07-10,Benj amin,Impec !,Je sais pas qui a mis 2 étoiles mais ils devaient être bourrés ! Je mets 5 étoiles pour encourager le dev ! Enfin une appli qui remplace News Republic !!,,
