App,Store,App ID,Review ID,Country,Version,Rating,Date,Author,Subject,Body,Translated Subject,Translated Body
Flym News Reader,Google Play,net.fred.feedex,Z3A6QU9xcFRPR3JJQ0NqMUdPbW90S0h2QVBYdFhSM0EySktBZWRMRWU1THIzZjhKQUFraUdkWUFtNE9iWWhwS1RQeXRyMl96ZWpKUW9UNE9JTi0yNnhGNXc,English,,5,2013-09-21,Pedro Couto,"",It's simple but excelent,,
Flym News Reader,Google Play,net.fred.feedex,Z3A6QU9xcFRPRU1qTklCMFV1UXpYOEdUZE84TWlZQzlvR0F3SUFqRWhHTVpWZWQ4aHA0MDdGSVZRNHdKRUh1YlJvbHBhaXhuNVV3dkVWOFBOM2txZ000S3c,English,,4,2013-09-20,drg Agam,Best RSS reader ever. But old interface is better,Best RSS reader. Simple. Faster. Without sync. I love it so much. Best of the best.  But it will be better if we can also read unupdated blog. For example 10 latest post no mater what time it posted. Cause there is no post available on unupdated blog.   Thanks you so much,,
Flym News Reader,Google Play,net.fred.feedex,Z3A6QU9xcFRPRjAtMWpzcHFRMTBydHdnQnBabXFXNVNqQ0o1M1FramVDNkJQUVlqTTJiZGFwRklacnV2bE9xV2pZY3NOR0tKaS12X0tXblZNYTdPd2JkblE,English,,5,2013-09-18,Christopher Vella,Very user-friendly and ad free,It also has the benefit of downloading the full text of the feed. Very useful if you do not have a good data plan.,,
