App,Store,App ID,Review ID,Country,Version,Rating,Date,Author,Subject,Body,Translated Subject,Translated Body
Flym News Reader,Google Play,net.fred.feedex,Z3A6QU9xcFRPR2llX29Yd2I5ckgzZjQ0OS0yZzZSWFlUZGdKdmdOdEFBUmNINEdEUWdIVFdYZXNzUzdmY3U1Y29QMmVTYng4X3I5YkIyWmlJckpfXy1LV2c,French,,5,2013-09-17,olivier tilly,"Très bon , léger et complet","Vraiment très bien. Je cherchais une application libre et fluide pour remplacer Taptu et il le remplace haut la main. Je suis étonné qu'il ne soit pas plus téléchargé. Peut être le design un peu sobre et simple pas assez flashy pour les gens, mais moi j'aime bien. Il me manque : avoir automatiquement les articles en complet mais tu prévois de le faire. Cool. Bon courage  Édit : Il serait intéressant de ne pouvoir voir que les articles non lus dans l'onglet ""articles"". Tout en les laissant visibles ailleurs.",,
Flym News Reader,Google Play,net.fred.feedex,Z3A6QU9xcFRPRXNUQVpIOEUtTGVNVzM4NEUtRXd2VGNzVkdlOXp3NWxxVmQxNFBUbC05LXNJQUV3Mlp0OUlpY3RwNl9sR04ycTRNaGlYbjZxRVpkOGlLUmc,German,,5,2013-09-17,Harvey Specter,Awesome!!,Best reader!,,
