# deletions,date,commit message
38,2014/11/28,Version 1.2.6 (as published in Google Play) • explain the field "cryptogram information data" in log entries
6141,2014/10/12,Version 1.2.5 (as published in Google Play) * now also reads CPLC (card production life cycle) data * Show note for cards which do not store transaction logs at all * some minor UI reworks * bugfix: exception when reading certain cards * and even if an exception occurs now shows the result tab (so you can lookup exception details) * some other minor improvements and reworks
297,2014/1/19,Version 1.2.4 (as published in Google Play) • shows new fields: expiration date activation date card number • bugfix: fixed IOException on app restart • bugfix: fixed crash on "Settings" page • new menu entry: "Donation"
3,2014/1/12,readme screenshot URLs updated
121,2014/1/12,Version 1.2.3 (as published in Google Play) • better decoding of transactions! • bugfix: corrected parsing error with some specific transactions • bugfix: wrong time displayed in some transaction • a lot of minor changes/fixes
120,2014/1/10,Version 1.2.2 (as published in Google Play) • New app icon • added 'Settings' menu • new setting 'Scan all files' • added reading the current PIN-retry-counter • better handling parsing error with QUICK data
1,2014/1/08,added disclaimer to readme
69,2014/1/06,* read PIN retry counter * other small tests and changes still lot of TODOs
62,2014/1/06,version 1.2.1 * added "read log format" command (but result only visible in "Log" tab for now) * learned that format of transaction records may be dynamic (according to EMV standards). So transaction may not be displayed correctly for most of the cards for now. * added changelog feature by Karsten Priegnitz for displaying changelog on updates
123,2014/1/05,new version 1.2.0 + Added a new "Log" tab showing more details + now also reading EMV files (not only transaction log) + parse and try to decode BER-TLV encoded EMV tags in Log tab + iterate over all EFs to search for EMV content or TX log entries (ignore what the card advertises) + sharing the log + and lots more..
1,2014/1/04,typo in screenshot link
0,2014/1/04,resized screenshots
2,2014/1/04,corrected link to screenshots
3,2014/1/04,updated README
11,2014/1/04,initial commit
