Topic,Words
0,0.034*down,0.032*developer,0.030*disappointed,0.027*our,0.027*happens,0.026*them,0.026*overdue,0.023*background,0.021*not,0.019*quite
1,0.035*if,0.032*show,0.028*give,0.027*synced,0.025*into,0.024*awesome,0.024*this,0.023*doesn't,0.023*fix,0.021*sync
2,0.040*i,0.033*use,0.031*our,0.026*great,0.023*that,0.023*opening,0.022*devices,0.022*what's,0.022*responds,0.021*simpler
3,0.032*synced,0.027*doesn't,0.026*broken,0.025*calenders,0.024*uncalled,0.022*always,0.022*if,0.021*widget,0.020*new,0.018*well
4,0.035*in,0.033*android,0.030*happy,0.028*except,0.028*reminders,0.026*really,0.026*calenders,0.025*red,0.025*relief,0.024*without
5,0.031*with,0.029*our,0.026*get,0.025*on,0.023*just,0.022*red,0.021*this,0.021*reminders,0.019*devices,0.019*doesn't
6,0.040*be,0.038*you,0.037*when,0.032*use,0.028*point,0.026*fix,0.024*red,0.022*oh,0.021*and,0.020*doesn't
7,0.041*loaded,0.033*forward,0.032*its,0.030*integrated,0.028*this,0.026*you,0.025*oh,0.024*synced,0.024*reminders,0.023*users
8,0.054*really,0.030*use,0.028*are,0.027*be,0.026*far,0.023*quite,0.023*this,0.023*both,0.023*though,0.022*the
9,0.045*5,0.039*to,0.036*view,0.035*set,0.035*getting,0.029*but,0.023*both,0.022*always,0.022*and,0.021*updated
10,0.035*upcoming,0.032*not,0.031*every,0.027*always,0.026*show,0.026*widget,0.025*just,0.023*7,0.023*if,0.021*you
11,0.045*just,0.036*using,0.034*devices,0.029*way,0.026*there,0.026*be,0.024*7,0.023*not,0.021*cloud,0.020*but
12,0.033*synced,0.032*i,0.031*way,0.028*notifications,0.024*looking,0.022*feature,0.022*happens,0.022*set,0.020*oh,0.020*what's
13,0.068*every,0.032*can,0.031*are,0.028*disappointed,0.027*view,0.026*notifications,0.026*a,0.024*improving,0.024*implementing,0.023*updates
14,0.047*there,0.029*our,0.027*work,0.027*my,0.024*sync,0.023*overdue,0.022*happy,0.022*forward,0.021*is,0.021*awesome
15,0.036*fix,0.031*what,0.030*uncalled,0.026*android,0.024*our,0.024*overdue,0.023*you,0.023*the,0.022*quite,0.021*integrated
16,0.043*developer,0.034*users,0.032*notifications,0.030*the,0.027*perfectly,0.027*add,0.027*synced,0.024*now,0.024*both,0.023*simpler
17,0.039*its,0.031*are,0.029*feature,0.029*5,0.027*automatically,0.027*editing,0.025*have,0.024*into,0.022*soon,0.022*it
18,0.050*today's,0.035*stars,0.035*that,0.031*am,0.025*there,0.025*is,0.023*have,0.020*fast,0.020*the,0.020*opening
19,0.044*responds,0.027*reminder,0.027*view,0.026*a,0.024*quite,0.024*overdue,0.024*its,0.023*use,0.022*it,0.018*relief
