Topic Index 1,Topic Index 2,Topic Similarity
16,5,0.26880000000000004
4,14,0.1864
0,16,0.1711
15,19,0.16580000000000003
9,1,0.144
17,10,0.1404
7,13,0.11940000000000002
13,12,0.11220000000000002
14,0,0.11
3,4,0.1085
12,2,0.0985
8,8,0.0975
19,6,0.0936
6,15,0.0924
18,7,0.0621
10,18,0.04
1,3,0.0391
2,9,0.0
5,11,0.0
11,17,0.0
