translated using currently translated at 1000,b,2015/9/17,,
translated using currently translated at 1000,b,2015/9/17,,
translated using currently translated at 1000,b,2015/9/17,,
translated using currently translated at 1000,b,2015/9/17,,
translated using currently translated at 1000,b,2015/9/17,,
translated using currently translated at 1000,b,2015/9/17,,
