make adaptive ping actually work and decrease min interval to 90 second experiment on network showed below 90 second connection remains stable,b,2015/4/18,,
just passing the 90 second threshold the connection is quietly destroyed by the carrier,b,2015/4/18,,
there are still some glitch in this adaptive algorithm,o,2015/4/18,,
optimize adaptive ping the adaptive ping manager will now wait for at least the full interval of the next ping before incrementing back interval after a success,f,2015/4/13,,
this way the ping interval will stay fixed the device can hold more,b,2015/4/13,,
handle link on message correctly thanks to for the hint,b,2015/4/12,,
workaround preference for external contact provider a combined bug of android and make all contact not belonging to at least 2 group not being seen by sync of filtering on,b,2015/4/12,,
this preference if enabled will remove filter and will include all contact,b,2015/4/12,,
