doe exactly what it supposed i have no complaint,o,2015-03-21,Autumn S.,5
i can my program anywhere now,b,2015-03-21,Apeksha Rai,4
but i need to go to vi for it show that it cannot find such file tell me how to get that,o,2015-03-21,Apeksha Rai,4
did what i needed,o,2015-03-21,Phil Wilson,5
default keyboard implementation work well and is,f,2015-03-21,Phil Wilson,5
combination,f,2015-03-21,Phil Wilson,5
,o,2015-03-21,Jamieunit,5
nice,o,2015-03-19,Fendy 杨元丰,5
bad,o,2015-03-18,Kristian Calder,1
this is for running thing included in,b,2015-03-18,Hugh Johnson,5
you can extend it by installing busy great using it for year now,o,2015-03-18,Walid Mahfoudh,5
k nix,o,2015-03-18,ashish King,3
meow,o,2015-03-17,Arif k,5
,o,2015-03-17,Arif k,5
this is awesome,o,2015-03-17,Arif k,5
small in my hand,o,2015-03-17,Arif k,5
use with rooted,o,2015-03-17,Arif k,5
,o,2015-03-17,Arif k,5
geek stuff,o,2015-03-17,Arif k,5
we need idiot filter in comment,f,2015-03-17,Arif k,5
50 of command are not found,o,2015-03-17,Anatoli Nalbandyan,3
,o,2015-03-16,Antas Jain,3
to you guy,o,2015-03-16,Ashwani Kumar,5
thanks,o,2015-03-15,Berry Vallent,5
awesome,o,2015-03-15,James Fowler,5
really for stuff,o,2015-03-15,Bijil Baji,4
great,o,2015-03-15,jskr siva,4
if it could allow me super user,o,2015-03-15,Bongani Mkwananzi,3
best,o,2015-03-14,Rafli Aulia Andhika,5
thanks,o,2015-03-14,Randy Jones,5
wish i had a full keyboard,f,2015-03-14,Randy Jones,5
is there a way to do control z,f,2015-03-14,Randy Jones,5
friend p,o,2015-03-14,sohail khan,1
just crash,b,2015-03-14,λndre Hilsendeger,1
nice,o,2015-03-13,Vikash Nagar,5
,o,2015-03-13,kittu holla,5
to use this you need some skill,o,2015-03-13,Fabrizio Petrochiely,5
i am still learning but i think the will have great potential,o,2015-03-13,Fabrizio Petrochiely,5
amazing,o,2015-03-13,Sebai Moh,5
great come in handy to have a terminal shell in my pocket,o,2015-03-13,Byzantium when,4
i need this for lollipop,f,2015-03-13,Communist twat,2
helped to clean my phone,b,2015-03-12,Pavel Valalik,4
need help on using this contact me,o,2015-03-12,Wise Guy,5
nice,o,2015-03-12,Hema Kavejan,5
you know how to use it,o,2015-03-12,Jyhying Chang,5
did not do the job i wanted it to do,o,2015-03-12,KULJEET SINGH BEDI,1
how to use it,o,2015-03-12,A.K. Gautam,1
loved it,o,2015-03-12,Sun Dro,5
work advertised,o,2015-03-11,elijah jolly,5
best in combination with super user,o,2015-03-11,Rich Gold,5
root allows freedom to do anything,o,2015-03-11,Rich Gold,5
will not give,o,2015-03-11,Casey Whitaker,1
good job,o,2015-03-10,Bayu Bije,5
now make me log onto my server literary from just need to have data connectivity with my phone,b,2015-03-10,Avinash Gavali,4
life is better with shell,o,2015-03-10,Arafat Zahan,5
must have,o,2015-03-09,Simeonov Dimo,5
the power of,f,2015-03-09,T Bag,5
a good software,o,2015-03-09,SHAKIL HOSSEN,5
it is good at doing it job,o,2015-03-09,Jen Brown,5
for me and everyone i this is supreme,o,2015-03-09,Jen Brown,5
it is amazing zebra,o,2015-03-08,Yaman Attar,4
brings sweet command line feeling to the android,o,2015-03-07,aboyi pius,4
,o,2015-03-07,labuci. ar,3
great,o,2015-03-07,Jamshid Al Rahman,4
the screen wa too small to read and no resize option,f,2015-03-07,Mark Giblin,1
had to use under magnifier,o,2015-03-07,Mark Giblin,1
all command used resulted in permission denied,b,2015-03-07,Mark Giblin,1
good,o,2015-03-07,Gio Pacuria,5
good work,o,2015-03-07,Saiful Azam,5
top,o,2015-03-06,Riotama Rio,5
fun,o,2015-03-05,Phil Mazzoni,4
great utility tool,o,2015-03-05,Joe Hu,5
do the job and do it well,o,2015-03-04,,5
thanks for the good work,o,2015-03-04,oloya patrick,5
like,o,2015-03-04,Sean Krizia,3
very useful,o,2015-03-04,Jon Catling,4
good,o,2015-03-03,Teejay Cabrera,5
enjoying it a lot with unlimited possibility,o,2015-03-03,Raj Kashyap,4
display nothing,f,2015-03-03,Joseph Valeros,3
beat it you can best copy ever,o,2015-03-03,niel thakkar,5
useful,o,2015-03-02,Hari Krish,5
this is amazing terminal command on my android device fully in panic,o,2015-03-01,Erkhembayar Luvsansambuu,5
awesome,o,2015-03-01,Rodgers Kemboi,5
,o,2015-03-01,Paras Pilani,3
,o,2015-02-28,HÁRØØÑ PÀÜL,5
awesome,o,2015-02-28,Tasmeehur Chowdhury,5
this is perfect is doing what it suppose to do and this is easy to use,o,2015-02-27,Ariel Jersey Jr,5
perfect,o,2015-02-26,Chodirin,5
thanks guy for making terminal for user,b,2015-02-25,sahil redij,5
what is it,o,2015-02-25,Faisal Jabbar,3
to all the idiot,o,2015-02-25,Mikael Sjösten,5
this is not a game hacking tool,o,2015-02-25,Mikael Sjösten,5
i have no idea what i am but it is fancy,b,2015-02-25,Dev Orp,5
very good,o,2015-02-25,Sukarso L,4
but cant fix,b,2015-02-25,Aldrin Manansala,4
the list of reviewer giving three star or le is a good start toward documenting all the stupid people on the,b,2015-02-24,Steven Walker,5
this is a lightweight yet fully functional terminal emulator ha never pretended to be anything else,b,2015-02-24,Steven Walker,5
nice one help me,o,2015-02-24,Ashish Kumar,4
interesting,o,2015-02-24,Tshepo Aphane,4
very useful you know how to use it and for what purpose,o,2015-02-24,Sana Ullah,4
loved it,o,2015-02-22,Rizwan Abidin,5
can anyone tell me how to hack password using terminal emulator of rooted phone,b,2015-02-22,Girdhar G. Agrawal,5
please urgent,f,2015-02-22,Girdhar G. Agrawal,5
this is a great terminal to use,o,2015-02-21,Mad Sodaz,5
this is not a mod tool for your game or a way to hack your phone,b,2015-02-21,Mad Sodaz,5
solid,o,2015-02-21,Guy De Vos,5
good,o,2015-02-20,jayanta sur,5
i type he say not found,o,2015-02-20,muhd fahmi,1
hate this,b,2015-02-20,muhd fahmi,1
please help me,f,2015-02-20,muhd fahmi,1
not much else to well done terminal,b,2015-02-19,Rafe Magnuson,5
dear development team kindly suggest me how can i activate voice and video call feature through this and what is the command,f,2015-02-19,Nitin Saxena,5
one of the first i install,b,2015-02-19,Default Spam,5
useful,o,2015-02-19,Agung D'brantas,5
this is useful if you have experience with command and such,o,2015-02-19,Doukutsu Monogatari,5
it is not for getting gem or hacking,f,2015-02-19,Doukutsu Monogatari,5
how do i use this all,o,2015-02-18,IamMrKro,3
very nice,o,2015-02-18,Kossy Gabriel,4
great,o,2015-02-17,Corey Dorsey,5
the guy who rated this poor just he understand it or know what it is a moron,o,2015-02-17,FckObama V,5
bro,o,2015-02-17,GuWiSa 92,5
you just have to know why you want it,o,2015-02-17,Shelby Neuhouser,5
work very well,o,2015-02-17,Shelby Neuhouser,5
no problem,o,2015-02-17,Shelby Neuhouser,5
thanks for this,o,2015-02-16,Charles Alva,5
,o,2015-02-16,nilo buhat,5
like this,o,2015-02-16,Iip Esaputra,5
very handy to have a terminal there for the odd occasion,o,2015-02-16,Darren Armstrong,5
you need it,o,2015-02-16,Darren Armstrong,5
shortcut key,o,2015-02-16,Darren Armstrong,5
it seems to work well if you install a decent keyboard,b,2015-02-15,Keith Williams,3
nice application,o,2015-02-15,Sosu Desmond,5
got problem on lock button tried to use this help me operation on reboot please help,f,2015-02-15,Dennis Mata,2
,o,2015-02-15,Sona Ram Tudu,5
how to paste path in terminal,o,2015-02-14,Vinu Jain,1
please help me help me please,f,2015-02-14,Vinu Jain,1
very,o,2015-02-14,Aaron Abina,5
this is a terminal emulator aka a not much else to say about,b,2015-02-14,Shawn Bowman,5
better you put command line reference,b,2015-02-14,Kaung Htet,4
amazing,o,2015-02-14,hamid abatemam,5
like the interface plus fluidity of task,o,2015-02-14,Elija Sowa,4
also special key function to be added,f,2015-02-14,Muhammad Abbas,4
very useful,o,2015-02-14,Munsong King XIV,5
great really smooth,b,2015-02-14,Ashish Kotian,5
loving it,o,2015-02-14,Ashish Kotian,5
one of the most essential for rooted device next to busy box,b,2015-02-13,Ronny Bacon,5
,o,2015-02-13,Ronny Bacon,5
com,o,2015-02-13,Ronny Bacon,5
i love having this command prompt on my android phone,o,2015-02-13,Matthew Soltysiak,4
truly powerful to have i can see everything,o,2015-02-13,Matthew Soltysiak,4
install along with it,b,2015-02-12,Aviraj Khare,5
it a nice functional simple terminal emulator,o,2015-02-12,,5
best,o,2015-02-12,Ekluv Singh,5
terminal work,o,2015-02-11,Andriy Reva,5
no more,o,2015-02-11,Andriy Reva,5
sorry my is bad,o,2015-02-11,verry supandi,2
it put the awesome power of a in right in your hand,o,2015-02-11,Michael Owens,5
very impressive,o,2015-02-11,Pratim Sarkar,5
,o,2015-02-10,Samsul Shane,5
can anyone tell me how this work,o,2015-02-10,Mad s1ash,4
i can ssh to my computer and do stuff there,o,2015-02-10,Aruna Herath,5
cool,o,2015-02-10,Aruna Herath,5
very useful,o,2015-02-09,Ryan Clark,5
i have a good working knowledge of and this helped me too clean my phone up,b,2015-02-09,Ryan Clark,5
this is the which i needed,o,2015-02-09,Aman Rishav,5
i m a geek wa in search of it jack,o,2015-02-09,Aman Rishav,5
black screening,o,2015-02-09,Avamander /,3
need to be improved,b,2015-02-09,Avamander /,3
also work awful,b,2015-02-09,Avamander /,3
loved it,o,2015-02-08,,5
can someone help me what can i do with can i for instance add coin and stuff like to my game such a clash of boom or castle clash,o,2015-02-08,Logan Reesor,2
love it,o,2015-02-08,FoZe Juv,5
this is good,o,2015-02-08,A Google User,5
this is the every user must have,b,2015-02-08,Венелин Минчев,5
can it hack movie star planet,o,2015-02-08,Clarita B,4
this i really good for who like to find hidden utility keep it up good work,o,2015-02-07,Lana Del Raider,5
damn this good,o,2015-02-07,Temyung Escort09,5
i used it to check if my phone wa successfully rooted,b,2015-02-07,Lance Grasser,5
,o,2015-02-07,ario na86,4
awesome,o,2015-02-06,Avnish Mehta,4
gift for your phone number one day good luck today wa going for me,b,2015-02-06,TITUS Smoaks,5
loved it,o,2015-02-06,Sagar Kale,5
sub arch uh ghoul cf,b,2015-02-06,Sabeeb P,5
k gun a dash effect in,o,2015-02-06,Sabeeb P,5
this cant do some command like and others,b,2015-02-05,Neko Jonez,2
sigh,o,2015-02-05,Neko Jonez,2
lame,o,2015-02-05,Neko Jonez,2
thanks work like it suppose to,o,2015-02-05,Jimmie McGehee,5
great,o,2015-02-05,Alzharne Petersen,5
,o,2015-02-04,tarankular 83yust,4
really well put with sensible documentation,o,2015-02-04,Cherry Austin,5
thanks,o,2015-02-03,Yassine Mehdaoui,5
his is great,o,2015-02-03,Nathaniel Williams,5
so you install and you are rooted you are able to do pm disable i love that,o,2015-02-03,stuart farrell,5
nice,o,2015-02-03,nader chargui,5
an for a geek,o,2015-02-03,Jabez Winston,5
i like it,o,2015-02-02,noor islam,5
not too shabby,o,2015-02-01,STiGT35r Whatever,5
work flawlessly,b,2015-02-01,Archit Rege,5
good,o,2015-02-01,Charissa Lucianna,5
must have for android guru,o,2015-02-01,Farzad Fallah,5
easy to use,o,2015-01-31,Vishwaraja Pathi,5
single,o,2015-01-31,A Google User,4
it really a good,o,2015-01-31,Paras Avkirkar,3
will be delighted the next update support network specific command like those available on shell,b,2015-01-31,Paras Avkirkar,3
very cool,o,2015-01-31,EMEKA OKOLI,5
remount system to restart internal phone memory fixed,b,2015-01-30,Barbara Romanowska,5
thank you,o,2015-01-30,Barbara Romanowska,5
best to all geek,o,2015-01-30,A Google User,5
d,o,2015-01-30,A Google User,5
wish it w easier to press special key such a,f,2015-01-30,Jesse Smick,4
it worth to be given,o,2015-01-29,olufemi timilehin,5
cool,o,2015-01-29,ITF Renz Oliver,5
keep it up,o,2015-01-29,ikram khan,5
this will not disappoint you,o,2015-01-29,Joseph Hammond,5
useful,o,2015-01-29,NayBeela Ae22,4
doe what it developer keep active,o,2015-01-29,Brett Mohr,5
this is a great,o,2015-01-29,Brett Mohr,5
good,o,2015-01-29,gniapendless ngelay,4
for android doe not work anymore,b,2015-01-28,Timo Noko,3
test ping,b,2015-01-28,Aqil Azahari,5
,o,2015-01-28,Try Kimmeng,1
work useful sometimes and cool to play with,o,2015-01-28,A Google User,5
plus the developer pushed a security update despite it breaking a feature,b,2015-01-28,A Google User,5
more should value security like that,o,2015-01-28,A Google User,5
designed to meet it objective,o,2015-01-28,AB,5
well done developer,b,2015-01-28,AB,5
,o,2015-01-28,AMIR ADEL,5
doe what it say,o,2015-01-28,Gejza Poda,5
very useful,o,2015-01-28,Aniruddha Datta,5
