Topic,Words
0,0.133*flawlessly,0.106*and,0.093*of,0.072*does,0.071*using,0.068*worked,0.063*to,0.058*virgin,0.047*easy,0.041*passes
1,0.193*use,0.105*great,0.091*stunning,0.080*with,0.074*checkpoints,0.072*form,0.058*at,0.055*of,0.052*worked,0.040*virgin
2,0.171*stunning,0.109*use,0.075*boarding,0.069*nothing,0.067*checkpoints,0.058*good,0.053*functionality,0.052*virgin,0.048*of,0.045*with
3,0.153*use,0.100*worked,0.096*at,0.091*checkpoints,0.081*using,0.079*good,0.041*works,0.039*virgin,0.037*boarding,0.033*flawlessly
4,0.161*to,0.151*of,0.081*nothing,0.079*and,0.066*worked,0.053*with,0.052*functionality,0.049*using,0.043*boarding,0.035*checkpoints
5,0.153*with,0.123*virgin,0.106*works,0.088*great,0.065*passes,0.056*stunning,0.048*at,0.045*worked,0.042*easy,0.040*and
6,0.110*good,0.104*does,0.102*awful,0.092*form,0.076*works,0.070*to,0.067*stunning,0.067*at,0.046*using,0.043*the
7,0.233*at,0.125*functionality,0.071*great,0.065*worked,0.057*passes,0.055*good,0.046*awful,0.044*does,0.043*form,0.043*easy
8,0.130*form,0.114*checkpoints,0.088*worked,0.080*using,0.078*the,0.068*easy,0.067*does,0.048*great,0.043*stunning,0.042*good
9,0.182*great,0.101*of,0.075*functionality,0.074*virgin,0.071*at,0.065*to,0.062*passes,0.058*easy,0.052*using,0.047*the
10,0.244*nothing,0.131*functionality,0.119*stunning,0.086*form,0.062*great,0.050*easy,0.048*passes,0.041*with,0.041*virgin,0.026*boarding
11,0.185*works,0.086*great,0.076*easy,0.074*flawlessly,0.072*awful,0.065*virgin,0.058*use,0.051*using,0.044*and,0.044*does
12,0.274*does,0.098*nothing,0.090*flawlessly,0.074*form,0.064*of,0.046*passes,0.045*virgin,0.045*good,0.042*boarding,0.036*at
13,0.165*checkpoints,0.121*functionality,0.118*nothing,0.106*and,0.070*boarding,0.069*passes,0.064*use,0.055*form,0.041*works,0.028*awful
14,0.153*checkpoints,0.139*stunning,0.091*great,0.090*easy,0.075*at,0.056*with,0.051*passes,0.046*use,0.043*and,0.042*functionality
15,0.145*works,0.115*use,0.104*passes,0.092*awful,0.087*does,0.079*good,0.057*worked,0.057*easy,0.051*with,0.029*at
16,0.126*checkpoints,0.100*form,0.090*boarding,0.070*at,0.069*stunning,0.055*the,0.053*functionality,0.049*worked,0.047*great,0.039*works
17,0.111*using,0.104*to,0.090*functionality,0.076*good,0.075*virgin,0.070*with,0.065*use,0.045*works,0.044*nothing,0.041*the
18,0.186*flawlessly,0.091*form,0.082*nothing,0.080*stunning,0.075*passes,0.072*and,0.059*at,0.054*use,0.050*virgin,0.047*great
19,0.206*to,0.097*passes,0.082*using,0.073*worked,0.057*virgin,0.056*flawlessly,0.046*functionality,0.037*and,0.036*good,0.036*boarding
