Topic Index 1,Topic Index 2,Topic Similarity
1,9,2.0
2,8,2.0
6,3,2.0
7,14,2.0
11,4,2.0
0,0,1.0
4,10,1.0
5,7,1.0
8,15,1.0
9,1,1.0
12,11,1.0
14,18,1.0
16,2,1.0
17,16,1.0
3,5,0.0
10,6,0.0
13,12,0.0
15,13,0.0
18,17,0.0
19,19,0.0
