# deletions,date,commit message
11150,2013/6/28,call dynamically
19,2013/6/28,fix process for inventing support
66,2013/6/27,add preliminary support for using in and active mode detection
4,2013/6/28,fix link from main index page
14,2013/6/28,display toast on error
16,2013/6/28,fix link
98,2013/6/27,streamline install upgrade process reduce number of shell used ensure processing run file have been extracted improve readability of failure
68,2013/6/27,clean up blank activity and fix back button handling
12,2013/6/27,prevent web page loaded from asset from being cached
8,2013/6/27,tidy up message related to mesh network root access support
98,2013/6/26,amended help file
4,2013/6/26,include build of
6624,2013/6/25,compile from source remove unused
4,2013/6/25,delay removing and marking thread a read the activity close
4,2013/6/25,prevent back button from showing blank page
7,2013/6/25,start writing 091 release note
9,2013/6/25,add support for modern opus and enable it by default
33,2013/6/21,process multiple block of audio they can be recorded quickly
3,2013/6/13,compile opus
136,2013/6/12,add native interface for
244,2013/6/11,more audio path refactoring to support
69903,2013/6/07,clean up unused code
897,2013/6/06,audio handling in preparation for more reuse and more
39,2013/6/21,show the correct address for sharing via client network
244,2013/6/20,serve web page from asset folder
21,2013/6/20,fix control fix bug with detecting state on android 40 correctly notice android ha turned it off give up after 20 second with no progress
40,2013/6/17,move status text to string resource
1,2013/6/17,sync
9,2013/6/13,fix display of toast on some platform
1,2013/6/13,increase number of byte of key displayed
21,2013/6/13,revise network layout
5,2013/6/13,replace signal strength image
3,2013/6/05,always notify completion in e case completion were not notified so the caller can wait the result forever
2,2013/6/03,hold wake lock is running
1,2013/5/31,sync
1,2013/5/30,sync
9,2013/5/30,remove folder picker animation to improve perception of speed
18,2013/5/30,ensure not is removed if call is not actually in progress fix 69
8,2013/5/30,reduce code complexity for creating database
6,2013/5/29,prevent crash no file or folder are returned
38,2013/5/29,turning off in call should not crash fix 68
52,2013/5/29,remove selection code layout had already been changed
1,2013/5/27,increase audio buffer size to avoid overflow on
27,2013/5/27,allow the jitter buffer to catch up by skipping missing audio
1,2013/5/03,add monitor command for receiving link information
5,2013/5/02,remove ancient and misleading makefile
4,2013/5/02,prevent crash there are no configured network
2158,2013/4/16,purge unused and layout
9,2013/4/17,update updated peer detail are available
1,2013/4/17,rename preference for last shared folder
16,2013/4/17,rename field only start editing about to commit
7,2013/4/16,start building network item view
184,2013/4/15,simplify wizard slightly
10,2013/4/10,revise build process for creating signed manifest
2,2013/4/10,allow more time giving up on configuration change
32,2013/4/10,attempt to repair state once
16,2013/4/10,display toast state change fail
1,2013/4/10,prevent
1,2013/4/09,add interface
52,2013/4/08,reinstate attempt file to prevent testing control mode failed
6,2013/4/04,auto connect to network from scan result
7,2013/4/04,add auto mode cycling
10,2013/4/03,display status of connection
18,2013/4/02,rescan for network every
18,2013/4/02,display network state change connecting
13,2013/4/02,fix control on android 22
45,2013/4/02,attempt to connect using a newer but hidden fail android cannot associate
188,2013/4/02,ensure both the service and mode can restart on boot
99,2013/3/27,fix detection of running network
8,2013/3/27,force to be enabled changing network
25,2013/3/27,restart configuration is changed
63,2013/3/27,add string for dialog
4,2013/3/26,prompt starting open
6,2013/3/26,fix restoration of encrypted
37,2013/3/26,display persisted our is active
1,2013/3/26,allow swapping between configuration
50,2013/3/26,restore access point configuration with password
18,2013/3/26,add dialog on selection of network
81,2013/3/26,persist and restore user configuration
4,2013/3/24,update sensor logging demo instruction fix a couple of typo
10,2013/3/25,update sensor logging demo instruction describe device id
0,2013/3/25,remove unused resource
53,2013/3/25,simplify scan result remove result immediately
1,2013/3/25,fix broken line in
155,2013/3/22,network configuration around android setting
109,2013/3/22,rework configuration of profile
59,2013/3/20,remember profile flight mode is on
31,2013/3/20,fix w mode if is still running
1511,2013/3/18,move service control to new network activity
36,2013/3/15,display state change
142,2013/3/15,better encapsulation for control
268,2013/3/15,rebuild testing process around new event model
31,2013/3/14,add client network no scan result are available
50,2013/3/13,tidy up logging and encapsulation
61,2013/3/13,add callback interface for success failure of control
180,2013/3/13,successfully control client and network
126,2013/3/07,more progress on rewriting process mode changing need to be completely event driven failure need to be handled gracefully add client association
1,2013/3/07,fixed issue 53 rhizome file list is now updated you a file
25,2013/3/07,fixed issue 78 share file browser now remembers last used folder
1,2013/3/07,add support for calling
118,2013/3/07,remove control intent service
25,2013/3/06,start new network selection activity
192,2013/2/28,remove direct implementation
1,2013/3/06,sync
501,2013/2/28,simplify preparation and processing
16,2013/2/27,use new rhizome export manifest command
15,2013/2/26,change default uploaded filename
8,2013/2/26,update documentation based on expected path
1,2013/2/26,sync
95,2013/2/18,import readable message from the log
2,2013/2/18,fix case of audio monitor message
4,2013/2/18,update rhizome add file syntax building remove condition that checked tie to version
64,2013/2/05,log any exception and return null
1,2013/2/03,fix broken relative link in old 008 release note
3,2013/2/03,fix a couple of typo in 0901 release note
