Topic Index 1,Topic Index 2,Topic Similarity
2,0,11.11111111111111
4,6,11.11111111111111
10,7,11.11111111111111
17,11,11.11111111111111
0,1,5.263157894736842
1,18,5.263157894736842
3,2,5.263157894736842
5,12,5.263157894736842
6,13,5.263157894736842
8,5,5.263157894736842
9,10,5.263157894736842
11,4,5.263157894736842
12,19,5.263157894736842
14,17,5.263157894736842
16,8,5.263157894736842
19,3,5.263157894736842
7,9,0.0
13,14,0.0
15,15,0.0
18,16,0.0
