App,Store,App ID,Review ID,Country,Version,Rating,Date,Author,Subject,Body,Translated Subject,Translated Body
Conversations (Jabber / XMPP),Google Play,eu.siacs.conversations,Z3A6QU9xcFRPRmtsLWptMkt6ZmU3MVNCZ0MtTFNiUkkxUEhYaldMS2V4TEhhYzA3RjVWeFdpRU02b0pPcW9ZMG1WOGNlS0t5Qm03U1ZtMF9mUlpITUhWLWc,English,,5,2015-08-28,,Wonderful,great design and use of the protocol,,
Conversations (Jabber / XMPP),Google Play,eu.siacs.conversations,Z3A6QU9xcFRPRmtsLWptMkt6ZmU3MVNCZ0MtTFNiUkkxUEhYaldMS2V4TEhhYzA3RjVWeFdpRU02b0pPcW9ZMG1WOGNlS0t5Qm03U1ZtMF9mUlpITUhWLWc,English,,5,2015-08-28,,Wonderful,i wish there were more client like this,,
Conversations (Jabber / XMPP),Google Play,eu.siacs.conversations,Z3A6QU9xcFRPRVNNU1hCOE5zZ3VYV3p6MUdfRnBZUl82VmFvVldvYnEzVmFKbVlWX2hTUVlvTXBQelpMNm55U2tJYmpybnBYOERISFViT3R2REpVVjNZMUE,English,,5,2015-08-28,,,best client ever,,
