App,Store,App ID,Review ID,Country,Version,Rating,Date,Author,Subject,Body,Translated Subject,Translated Body
Conversations (Jabber / XMPP),Google Play,eu.siacs.conversations,Z3A6QU9xcFRPR002MEtrNWV1NGs5Q3lfdzJNYk9HZDA0S2k1Uy1Ed3QyMEN6cXhRRkFNdFQ3RFJyaEJTcW1feWw1QXh1c1Z3U21VYTIzNG1va2ZYcTJzQnc,English,,2,2016-02-08,Пежеор он Обхундс,,,,
Conversations (Jabber / XMPP),Google Play,eu.siacs.conversations,Z3A6QU9xcFRPSC16c1NDblZnSEItVFpGcVlQcTdmeXkwd3VoQ3Q4MC03X0hST2ZIS1BHOFVlZEhwdkhwWWRmbVBNWGNUbVppWWNfbGQwMlZBNGFoeGhGaGc,English,,5,2016-02-05,Lukas J,Simply the best,client am,,
