App,Store,App ID,Review ID,Country,Version,Rating,Date,Author,Subject,Body,Translated Subject,Translated Body
Conversations (Jabber / XMPP),Google Play,eu.siacs.conversations,Z3A6QU9xcFRPRkcxLUpIVmRmZWRpUk9TWDRxd3pydGRGY1YzMURyckMxcXItN2ZYdmNwTExzbWVIekVIb2Z0U0RCV280OXVsM2ozeDhHTTJZTW5Iam1oS0E,English,,3,2015-11-21,Sergei Elson,Sidebar,can we customize sidebar width in future version,,
Conversations (Jabber / XMPP),Google Play,eu.siacs.conversations,Z3A6QU9xcFRPRkcxLUpIVmRmZWRpUk9TWDRxd3pydGRGY1YzMURyckMxcXItN2ZYdmNwTExzbWVIekVIb2Z0U0RCV280OXVsM2ozeDhHTTJZTW5Iam1oS0E,English,,3,2015-11-21,Sergei Elson,Sidebar,or maybe better it on demand,,
Conversations (Jabber / XMPP),Google Play,eu.siacs.conversations,Z3A6QU9xcFRPRkcxLUpIVmRmZWRpUk9TWDRxd3pydGRGY1YzMURyckMxcXItN2ZYdmNwTExzbWVIekVIb2Z0U0RCV280OXVsM2ozeDhHTTJZTW5Iam1oS0E,English,,3,2015-11-21,Sergei Elson,Sidebar,or both,,
Conversations (Jabber / XMPP),Google Play,eu.siacs.conversations,Z3A6QU9xcFRPRjFlWnk4Ymw5RmwzVFBON2VkeXlyaGs2NkFuWXAwYWw0TWJYQTVXT2hjX0k4X2tZMzZLeXYybG9neWQ5U012ZmZrQkQ2dVo5ZkhtM1NqaEE,English,,5,2015-11-17,Pascal Mathis,Eigentlich eine klasse App...,5,,
Conversations (Jabber / XMPP),Google Play,eu.siacs.conversations,Z3A6QU9xcFRPRjFlWnk4Ymw5RmwzVFBON2VkeXlyaGs2NkFuWXAwYWw0TWJYQTVXT2hjX0k4X2tZMzZLeXYybG9neWQ5U012ZmZrQkQ2dVo5ZkhtM1NqaEE,English,,5,2015-11-17,Pascal Mathis,Eigentlich eine klasse App...,update hat,,
Conversations (Jabber / XMPP),Google Play,eu.siacs.conversations,Z3A6QU9xcFRPSE94aDNtVUJSTy1IbTM0aDZSRkM0aDRkaS1VVFZBUFV6R29DSkxsYWhPUUthUS1LdHcxbnNIRHRXREtXWDN0NjVJR3ppaGxuc1ppMGZkUkE,English,,5,2015-11-04,Nomad S,Best one I've used,stable with regular update and new feature,,
Conversations (Jabber / XMPP),Google Play,eu.siacs.conversations,Z3A6QU9xcFRPSE94aDNtVUJSTy1IbTM0aDZSRkM0aDRkaS1VVFZBUFV6R29DSkxsYWhPUUthUS1LdHcxbnNIRHRXREtXWDN0NjVJR3ppaGxuc1ppMGZkUkE,English,,5,2015-11-04,Nomad S,Best one I've used,keep them coming,,
Conversations (Jabber / XMPP),Google Play,eu.siacs.conversations,Z3A6QU9xcFRPSE94aDNtVUJSTy1IbTM0aDZSRkM0aDRkaS1VVFZBUFV6R29DSkxsYWhPUUthUS1LdHcxbnNIRHRXREtXWDN0NjVJR3ppaGxuc1ppMGZkUkE,English,,5,2015-11-04,Nomad S,Best one I've used,update still hand down the best client on android,,
Conversations (Jabber / XMPP),Google Play,eu.siacs.conversations,Z3A6QU9xcFRPSE94aDNtVUJSTy1IbTM0aDZSRkM0aDRkaS1VVFZBUFV6R29DSkxsYWhPUUthUS1LdHcxbnNIRHRXREtXWDN0NjVJR3ppaGxuc1ppMGZkUkE,English,,5,2015-11-04,Nomad S,Best one I've used,would like to request a reminder feature to developer,,
Conversations (Jabber / XMPP),Google Play,eu.siacs.conversations,Z3A6QU9xcFRPRzVseVBBQkJiZlJ5eUNRLTFkRGxTTTBNV2pIbENBT1dZRjgyVkk0S3dHNU4tRnQyVmVRSmNhU0dBMmRYdkhsbjZVTHJDXzRjUG1TZkhEWGc,English,,5,2015-11-03,Christian Williams,Great app,pebble quick reply support would make it even better,,
Conversations (Jabber / XMPP),Google Play,eu.siacs.conversations,Z3A6QU9xcFRPSEV0VHdPaDQxRjdxd180VmhSa3ZDSFVmNjExeHJLMHVmMW9Pc3lTUG1oaEdvVUQxTS1kSnJESGdEcFRCcFFqZG5jRXVvUlgzcndrZC1QUnc,English,,5,2015-10-31,Anthony Paramo,,work perfect,,
Conversations (Jabber / XMPP),Google Play,eu.siacs.conversations,Z3A6QU9xcFRPRjVIYkk2WXkxb0hyVm5tVkkxYnNKaGlqdzRTWWROeVc0WHZsdEhLRWpKTThVd19sVDM4Y0tHdlBDaUF0MVV2U1FxbTR1MnB3anh2V0JGX3c,English,,5,2015-10-30,Andrej Manduch,,there are lot of implication in of user,,
Conversations (Jabber / XMPP),Google Play,eu.siacs.conversations,Z3A6QU9xcFRPRjVIYkk2WXkxb0hyVm5tVkkxYnNKaGlqdzRTWWROeVc0WHZsdEhLRWpKTThVd19sVDM4Y0tHdlBDaUF0MVV2U1FxbTR1MnB3anh2V0JGX3c,English,,5,2015-10-30,Andrej Manduch,,but with this application because of free nature you have source code so you are able to audit code if you want,,
Conversations (Jabber / XMPP),Google Play,eu.siacs.conversations,Z3A6QU9xcFRPRjVIYkk2WXkxb0hyVm5tVkkxYnNKaGlqdzRTWWROeVc0WHZsdEhLRWpKTThVd19sVDM4Y0tHdlBDaUF0MVV2U1FxbTR1MnB3anh2V0JGX3c,English,,5,2015-10-30,Andrej Manduch,,there is no proprietary lock up,,
Conversations (Jabber / XMPP),Google Play,eu.siacs.conversations,Z3A6QU9xcFRPRjVIYkk2WXkxb0hyVm5tVkkxYnNKaGlqdzRTWWROeVc0WHZsdEhLRWpKTThVd19sVDM4Y0tHdlBDaUF0MVV2U1FxbTR1MnB3anh2V0JGX3c,English,,5,2015-10-30,Andrej Manduch,,i tried to turn off and then ping my and i get message,,
Conversations (Jabber / XMPP),Google Play,eu.siacs.conversations,Z3A6QU9xcFRPRjVIYkk2WXkxb0hyVm5tVkkxYnNKaGlqdzRTWWROeVc0WHZsdEhLRWpKTThVd19sVDM4Y0tHdlBDaUF0MVV2U1FxbTR1MnB3anh2V0JGX3c,English,,5,2015-10-30,Andrej Manduch,,if how,,
