Topic Index 1,Topic Index 2,Topic Similarity
1,6,2.0
3,1,2.0
4,4,2.0
8,0,2.0
9,9,2.0
11,2,2.0
13,13,2.0
18,8,2.0
0,5,1.0
2,17,1.0
5,12,1.0
6,18,1.0
12,14,1.0
14,3,1.0
15,16,1.0
16,11,1.0
7,7,0.0
10,10,0.0
17,15,0.0
19,19,0.0
