Topic Index 1,Topic Index 2,Topic Similarity
3,3,25.0
6,8,17.647058823529413
7,9,17.647058823529413
0,11,11.11111111111111
1,4,11.11111111111111
2,10,11.11111111111111
4,7,11.11111111111111
5,19,11.11111111111111
8,13,11.11111111111111
10,1,11.11111111111111
12,14,11.11111111111111
13,5,11.11111111111111
14,16,11.11111111111111
15,0,5.263157894736842
16,15,5.263157894736842
17,2,5.263157894736842
18,18,5.263157894736842
9,6,0.0
11,12,0.0
19,17,0.0
