Topic Index 1,Topic Index 2,Topic Similarity
1,8,11.11111111111111
2,1,5.263157894736842
5,6,5.263157894736842
7,3,5.263157894736842
8,7,5.263157894736842
9,4,5.263157894736842
10,10,5.263157894736842
11,9,5.263157894736842
13,11,5.263157894736842
14,13,5.263157894736842
16,15,5.263157894736842
0,0,0.0
3,2,0.0
4,5,0.0
6,12,0.0
12,14,0.0
15,16,0.0
17,17,0.0
18,18,0.0
19,19,0.0
