Topic,Words
0,0.077*best,0.056*a,0.055*please,0.047*doing,0.043*would,0.043*my,0.037*difficult,0.036*start,0.036*style,0.033*by
1,0.063*5,0.041*the,0.041*than,0.040*good,0.038*addicting,0.037*it,0.035*would,0.033*difficult,0.032*a,0.032*heroin
2,0.090*simplistic,0.064*simple,0.055*users,0.053*this,0.041*to,0.041*fun,0.036*very,0.032*store,0.029*high,0.028*difficult
3,0.062*my,0.057*works,0.056*addicting,0.054*games,0.054*might,0.044*viral,0.042*for,0.042*so,0.036*simple,0.029*more
4,0.065*looking,0.058*might,0.048*you,0.046*challenging,0.039*start,0.036*little,0.035*made,0.033*thanks,0.033*far,0.029*my
5,0.072*so,0.062*on,0.044*to,0.038*maybe,0.037*a,0.036*like,0.035*works,0.034*forward,0.033*has,0.029*high
6,0.082*a,0.067*for,0.049*challenging,0.047*store,0.040*it,0.040*best,0.036*work,0.035*good,0.030*simple,0.028*scores
7,0.079*viral,0.065*my,0.044*far,0.043*work,0.040*this,0.039*style,0.039*love,0.035*high,0.027*4,0.026*on
8,0.076*far,0.072*4,0.069*to,0.066*one,0.042*work,0.042*game,0.037*the,0.032*and,0.030*challenging,0.030*good
9,0.067*addicting,0.066*great,0.063*very,0.057*keep,0.055*works,0.041*my,0.040*games,0.038*users,0.030*than,0.030*is
10,0.072*far,0.058*scores,0.056*challenging,0.045*to,0.036*thanks,0.036*perfectly,0.034*once,0.033*keep,0.032*this,0.030*difficult
11,0.084*work,0.083*i,0.072*once,0.047*for,0.047*game,0.046*yet,0.037*by,0.028*a,0.027*go,0.026*start
12,0.082*might,0.057*style,0.052*high,0.052*little,0.046*pay,0.037*simple,0.034*very,0.032*4,0.032*doing,0.032*a
13,0.107*the,0.050*go,0.049*by,0.048*addicting,0.045*work,0.034*i,0.032*works,0.031*forward,0.030*made,0.029*might
14,0.053*heroin,0.050*510,0.046*pay,0.045*it,0.043*to,0.038*well,0.036*far,0.032*addicting,0.031*style,0.029*and
15,0.081*and,0.057*to,0.052*for,0.039*might,0.037*a,0.033*love,0.032*the,0.029*pay,0.029*challenging,0.028*games
16,0.084*and,0.051*addicting,0.033*might,0.033*looking,0.032*difficult,0.031*simple,0.030*one,0.029*game,0.028*maybe,0.028*far
17,0.068*users,0.054*very,0.049*more,0.047*difficult,0.032*up,0.030*simple,0.030*doing,0.027*4,0.027*the,0.027*you
18,0.049*games,0.040*scores,0.040*perfectly,0.039*works,0.038*has,0.038*good,0.036*go,0.036*work,0.034*a,0.033*would
19,0.049*510,0.048*more,0.043*a,0.043*work,0.038*yet,0.036*users,0.032*games,0.031*my,0.026*it,0.025*difficult
