Topic,Words
0,0.045*pretty,0.045*full,0.041*and,0.040*background,0.035*for,0.035*maybe,0.033*in,0.032*quality,0.029*float,0.028*i
1,0.064*only,0.060*want,0.051*they,0.047*seems,0.044*option,0.036*use,0.034*project,0.031*had,0.030*just,0.029*coldest
2,0.063*mean,0.039*a,0.034*night,0.034*20,0.032*screen,0.029*anything,0.029*has,0.028*what,0.028*weather,0.028*actually
3,0.056*simple,0.044*it,0.044*it's,0.040*to,0.038*option,0.037*open,0.036*pretty,0.035*widget,0.033*be,0.030*source
4,0.073*had,0.063*simple,0.053*to,0.046*so,0.044*daydream,0.034*prevent,0.033*night,0.032*really,0.027*want,0.024*would
5,0.063*decoration,0.060*an,0.050*use,0.050*would,0.042*the,0.042*far,0.041*just,0.034*but,0.033*maybe,0.030*open
6,0.052*a,0.044*daydream,0.041*decoration,0.040*just,0.038*full,0.037*application,0.036*anything,0.031*help,0.031*project,0.030*for
7,0.059*project,0.058*work,0.052*a,0.045*has,0.043*awesome,0.041*want,0.035*actually,0.034*maybe,0.033*in,0.031*widget
8,0.068*pretty,0.058*only,0.056*work,0.042*awesome,0.038*float,0.037*far,0.032*full,0.032*are,0.028*this,0.028*anything
9,0.047*float,0.041*that's,0.039*weather,0.037*this,0.037*use,0.037*do,0.036*application,0.035*even,0.030*there,0.030*maybe
10,0.063*application,0.063*there,0.054*accurate,0.050*mean,0.039*to,0.038*seems,0.037*full,0.034*open,0.034*night,0.033*source
11,0.109*or,0.062*background,0.055*but,0.038*me,0.037*full,0.034*what,0.032*has,0.029*this,0.028*awesome,0.025*do
12,0.059*is,0.048*seems,0.045*anything,0.045*to,0.032*help,0.031*float,0.029*want,0.029*project,0.028*coldest,0.027*an
13,0.053*really,0.051*has,0.051*project,0.050*seems,0.046*a,0.042*mean,0.040*open,0.034*application,0.031*source,0.027*pretty
14,0.058*project,0.052*source,0.052*background,0.046*actually,0.040*float,0.035*has,0.034*icons,0.033*i,0.032*hoped,0.029*work
15,0.061*prevent,0.054*full,0.052*awesome,0.051*even,0.043*a,0.037*simple,0.034*it's,0.032*do,0.031*but,0.029*great
16,0.091*they,0.071*seems,0.061*or,0.037*pretty,0.037*option,0.034*coldest,0.032*just,0.031*work,0.030*decoration,0.029*anything
17,0.092*float,0.042*really,0.041*weather,0.041*anything,0.040*accurate,0.037*i,0.036*far,0.036*are,0.027*work,0.027*could
18,0.082*this,0.050*quality,0.047*actually,0.046*widget,0.043*what,0.031*years,0.031*pretty,0.028*do,0.028*would,0.028*could
19,0.047*work,0.041*the,0.040*even,0.037*it,0.036*me,0.036*a,0.035*had,0.032*be,0.026*so,0.026*great
