App,Store,App ID,Review ID,Country,Version,Rating,Date,Author,Subject,Body,Translated Subject,Translated Body
KeePassDroid,Google Play,com.android.keepass,Z3A6QU9xcFRPRkZvak0tUUxJUEFxX0xLSGd1ZTR1T0g1RXJCdl8yLS11cTNzZ3FFbUY4VnRHV2xwQ3lNc2xUVTBRdkdneVZfc2NfYXBSYTBwcTA2bThGM2c,English,,5,2013-02-22,Tony Nguyen,Best password manager,i have used on my computer for year,,
KeePassDroid,Google Play,com.android.keepass,Z3A6QU9xcFRPRkZvak0tUUxJUEFxX0xLSGd1ZTR1T0g1RXJCdl8yLS11cTNzZ3FFbUY4VnRHV2xwQ3lNc2xUVTBRdkdneVZfc2NfYXBSYTBwcTA2bThGM2c,English,,5,2013-02-22,Tony Nguyen,Best password manager,make it even easier to access my password on the go with,,
KeePassDroid,Google Play,com.android.keepass,Z3A6QU9xcFRPRkZvak0tUUxJUEFxX0xLSGd1ZTR1T0g1RXJCdl8yLS11cTNzZ3FFbUY4VnRHV2xwQ3lNc2xUVTBRdkdneVZfc2NfYXBSYTBwcTA2bThGM2c,English,,5,2013-02-22,Tony Nguyen,Best password manager,please add ability to edit existing group name and icon,,
KeePassDroid,Google Play,com.android.keepass,Z3A6QU9xcFRPRjdSYzBaQ0N3VmEwem5fZnViRFhaWGpOTFVXWWU0bzBuNnhaRXE1d2x6VVNMRFJaTHM4MnRkRnp3b0dMRnpiV2NMWjNvRS16OV9fZEFqYnc,English,,5,2013-02-21,Festive Gears,Great App,nobody should be without this,,
KeePassDroid,Google Play,com.android.keepass,bGc6QU9xcFRPRy1oM0N5NGctZllGWWFCVTV5VkRZUEpfSTR6Sl9SZ2xIbFUxQTdXOWUzSVkyaU1haTdpeTVVWG9HU2dRYkxZRjI0VG9UUEhPd1JsVzBjOWc,English,,3,2013-02-21,A Google User,Good,hope write is stable,,
KeePassDroid,Google Play,com.android.keepass,Z3A6QU9xcFRPSE5obmRyVEw3cU16MEtROVVYWlhaMWZKOHpXdFhnZHZiVEx4TXNsZ200aHc4OUNFd20zSWJxX0hqWTMxcEZzY2xUZkZLQ0lTLWJuRzhvM0E,English,,5,2013-02-20,Eric Knudson,Excellent Password Manager,i use on several and multiple device,,
KeePassDroid,Google Play,com.android.keepass,Z3A6QU9xcFRPSE5obmRyVEw3cU16MEtROVVYWlhaMWZKOHpXdFhnZHZiVEx4TXNsZ200aHc4OUNFd20zSWJxX0hqWTMxcEZzY2xUZkZLQ0lTLWJuRzhvM0E,English,,5,2013-02-20,Eric Knudson,Excellent Password Manager,this help me keep everything safe and no matter what device i have in hand,,
KeePassDroid,Google Play,com.android.keepass,Z3A6QU9xcFRPSERiYzFFZmhCNzYxZlNXVTRXTHRHeWJJQUh6NlgxYk9wUUl1cnkyWDU1ZG55VEkwbUxFd0JpTDlaSldXTkZlOFh3QjZETldPSnVpYm1qZFE,English,,4,2013-02-20,Raghavan Parthasarathy,My perfect password manager,it need a proper application in mac without installing mono,,
KeePassDroid,Google Play,com.android.keepass,Z3A6QU9xcFRPSERiYzFFZmhCNzYxZlNXVTRXTHRHeWJJQUh6NlgxYk9wUUl1cnkyWDU1ZG55VEkwbUxFd0JpTDlaSldXTkZlOFh3QjZETldPSnVpYm1qZFE,English,,4,2013-02-20,Raghavan Parthasarathy,My perfect password manager,otherwise work well in and recently ha a beta on android,,
KeePassDroid,Google Play,com.android.keepass,Z3A6QU9xcFRPSERiYzFFZmhCNzYxZlNXVTRXTHRHeWJJQUh6NlgxYk9wUUl1cnkyWDU1ZG55VEkwbUxFd0JpTDlaSldXTkZlOFh3QjZETldPSnVpYm1qZFE,English,,4,2013-02-20,Raghavan Parthasarathy,My perfect password manager,syncs the file through,,
KeePassDroid,Google Play,com.android.keepass,Z3A6QU9xcFRPSERiYzFFZmhCNzYxZlNXVTRXTHRHeWJJQUh6NlgxYk9wUUl1cnkyWDU1ZG55VEkwbUxFd0JpTDlaSldXTkZlOFh3QjZETldPSnVpYm1qZFE,English,,4,2013-02-20,Raghavan Parthasarathy,My perfect password manager,perfect,,
KeePassDroid,Google Play,com.android.keepass,Z3A6QU9xcFRPSERiYzFFZmhCNzYxZlNXVTRXTHRHeWJJQUh6NlgxYk9wUUl1cnkyWDU1ZG55VEkwbUxFd0JpTDlaSldXTkZlOFh3QjZETldPSnVpYm1qZFE,English,,4,2013-02-20,Raghavan Parthasarathy,My perfect password manager,i would have given it work fine on mac without installing mono,,
KeePassDroid,Google Play,com.android.keepass,Z3A6QU9xcFRPRXQ0R3h4a0hSdXVhN09sVHBJR3hVdEE5N0J1THQ2eEpLSTJGUGtYVjc3UF83X0N5d0Q2Mlh5eHR1VkVwS1NDMmFVX3lPT2YwTXN6TjNUNGc,English,,4,2013-02-20,Adam Shaw,.kdbx support!,,,
KeePassDroid,Google Play,com.android.keepass,Z3A6QU9xcFRPRXQ0R3h4a0hSdXVhN09sVHBJR3hVdEE5N0J1THQ2eEpLSTJGUGtYVjc3UF83X0N5d0Q2Mlh5eHR1VkVwS1NDMmFVX3lPT2YwTXN6TjNUNGc,English,,4,2013-02-20,Adam Shaw,.kdbx support!,edit support,,
KeePassDroid,Google Play,com.android.keepass,Z3A6QU9xcFRPRUdjR3ZOSEdOT3F2TlZqM2I2YnEyYm9tbHY1WGNUTDFpc0Z1U2NrVFJQMEt2WWduakE2b2FVVVJya0cyUTVwWllhODhmOXRQUklnWjZvVHc,English,,5,2013-02-19,Lev Lapkis,Can't save changes on Google Drive,is,,
KeePassDroid,Google Play,com.android.keepass,Z3A6QU9xcFRPRW16OGFoRDg5bnJfYTBjUGM1WjVxYXA1N2RxWnZ5MkYxTFQ0aThQQUJPZUxHM3ZSdjFaUDZJdllCLW9aQUVHcWZqMWpVajU4b01TZHFKOVE,English,,5,2013-02-18,Yashodhan Pise,Treat,to have the same on android is a treat,,
KeePassDroid,Google Play,com.android.keepass,Z3A6QU9xcFRPRW16OGFoRDg5bnJfYTBjUGM1WjVxYXA1N2RxWnZ5MkYxTFQ0aThQQUJPZUxHM3ZSdjFaUDZJdllCLW9aQUVHcWZqMWpVajU4b01TZHFKOVE,English,,5,2013-02-18,Yashodhan Pise,Treat,it would be still better category edit option could be improved,,
KeePassDroid,Google Play,com.android.keepass,Z3A6QU9xcFRPRWdEekFLbGgyYWs5dENNRHdNUDB3VHhsOW9HN01FdVA2ZFhabGlOMnJaM1hUS1ljNFJRSkE1RXIyNWpUb3IyLVdQc1k5ODhNc0RqWUtOT3c,English,,4,2013-02-18,Ryan Small,Works well,good,,
KeePassDroid,Google Play,com.android.keepass,Z3A6QU9xcFRPSFhmRFBDNDAwdjNQcWFnSTlVOGNjeVh0NkhuSUVQU0hIZUZZX2txRUxVOWIxYnV0WkU1QVhQLVNNenZZcTFjd3FEbFB6OXQwYUtzT3hPclE,English,,4,2013-02-18,Gaurav Sharma,Great android app,work nice,,
KeePassDroid,Google Play,com.android.keepass,Z3A6QU9xcFRPSFhmRFBDNDAwdjNQcWFnSTlVOGNjeVh0NkhuSUVQU0hIZUZZX2txRUxVOWIxYnV0WkU1QVhQLVNNenZZcTFjd3FEbFB6OXQwYUtzT3hPclE,English,,4,2013-02-18,Gaurav Sharma,Great android app,waiting for the experimental write to be stable,,
KeePassDroid,Google Play,com.android.keepass,Z3A6QU9xcFRPSDluTkgtNjBlbjA5YTAtT2EwdmtBZ3ZPS0o3MUZ3U21lVF93WEtmSURaZ0MzZ2dGU2w3Z3lVSi1JaEN1eEJqUmhwZW1abTV5djF0cHI3Y2c,English,,5,2013-02-18,Guy R Cook,Excellent.,well done password vault,,
KeePassDroid,Google Play,com.android.keepass,bGc6QU9xcFRPRUhBck5zdFY3aHVua1h2OUJJMHpjekdFZnNxXzdSUk9BV1BYT0c3MXBPUmQ0T0JDUXZJSEtNTVpKYTM1QTdVQ2JXSzdBWFZCNW4xcHd5N2c,English,,5,2013-02-17,A Google User,Broken on computer,i submitted an i am now unable to open on my and i think it wa the addition,,
KeePassDroid,Google Play,com.android.keepass,Z3A6QU9xcFRPRmdaczdGLVF6UWdyNWtWazJGZTBZOVNUNUdScWNrSVNxRDBDbkIteTd3V2l4YVo2NHlKUnpEbHdtTHhaZXh1eThLYzRSVzZjUjduWHYtLUE,English,,3,2013-02-17,Indra BW,Broken with keepassx linux,latest version edit entry open with group result segmentation fault,,
KeePassDroid,Google Play,com.android.keepass,Z3A6QU9xcFRPRmdaczdGLVF6UWdyNWtWazJGZTBZOVNUNUdScWNrSVNxRDBDbkIteTd3V2l4YVo2NHlKUnpEbHdtTHhaZXh1eThLYzRSVzZjUjduWHYtLUE,English,,3,2013-02-17,Indra BW,Broken with keepassx linux,create new entry do fine,,
KeePassDroid,Google Play,com.android.keepass,Z3A6QU9xcFRPRWRqWXpwZWh4T05ETWVyVlV0V1FjVGpqVkZjWkxaRUVyXzZub2VyS0luWThXNEpYYTJ0N09TU0NJMEJnRkFQVFZ5NUxJMlUtNE1nZEdaV2c,English,,5,2013-02-17,Jeffery Wilson,Perfect app!,new write capability make this a 5 star for sure,,
KeePassDroid,Google Play,com.android.keepass,Z3A6QU9xcFRPRWRqWXpwZWh4T05ETWVyVlV0V1FjVGpqVkZjWkxaRUVyXzZub2VyS0luWThXNEpYYTJ0N09TU0NJMEJnRkFQVFZ5NUxJMlUtNE1nZEdaV2c,English,,5,2013-02-17,Jeffery Wilson,Perfect app!,combined with i finally have secure password for everything,,
KeePassDroid,Google Play,com.android.keepass,bGc6QU9xcFRPR0llRXRTRzdhbGVqY2tWVDF0ak9vR0JPYWtBTHBSbFhwX3ZfUU9Ka04yWEl0SHUwMGtOMmZwTU95b3hxV3Q1YWdXcDFMQlZFbThFZmxhR0E,English,,5,2013-02-16,A Google User,Great program,this is a very handy program offer a safe way to store your password,,
KeePassDroid,Google Play,com.android.keepass,bGc6QU9xcFRPR0llRXRTRzdhbGVqY2tWVDF0ak9vR0JPYWtBTHBSbFhwX3ZfUU9Ka04yWEl0SHUwMGtOMmZwTU95b3hxV3Q1YWdXcDFMQlZFbThFZmxhR0E,English,,5,2013-02-16,A Google User,Great program,highly recommend it,,
KeePassDroid,Google Play,com.android.keepass,Z3A6QU9xcFRPRXA3UEpYWklVd1FPV3NscXl1cGRGaVhseFo3Mm5jbUhTVUtsTHBwdFdfNWh5VUJ1cmlmWXd4akx3UFFyUHIyUEphM05HZkNJRHNyak1CdVE,English,,5,2013-02-16,Dwain Sims,It's Just Great,nothing else to say,,
KeePassDroid,Google Play,com.android.keepass,Z3A6QU9xcFRPRzNLVXY3SEhzOTBzZC1FTkx4Qk9ocmlWaERReFZiT1NmTFhZd05Nd0xQU3JHUXpRNENNdGpKbXlFcm1wUXVnSjRremlsTGRHaTV2WXdfZFE,English,,5,2013-02-16,Davy Landman,Good application,just what you want for this application,,
KeePassDroid,Google Play,com.android.keepass,Z3A6QU9xcFRPRTFCWWdUVW9FYUZBWkZmc3Z5a3V4aF9vWmZ2bkhqdE9ncXFDN1ZLUVRxcXFCakpXcHprRmFGNXVFTFoza05DWlVEVFJNNGdUdU1hejY5WFE,English,,5,2013-02-15,James Knoblauch,Great,use it every day,,
KeePassDroid,Google Play,com.android.keepass,bGc6QU9xcFRPSFFnMG41UmVLVi1xRkdydGRwN3VzR2VNYmRxLWtuWkdhRXBhS1lOc0ZIdkxiWllmQXQ4X0prS09xVDRPQktOMGs0dDNtNTREMmdpeVN2b2c,English,,1,2013-02-15,A Google User,FC!!!,,,
KeePassDroid,Google Play,com.android.keepass,Z3A6QU9xcFRPR3VqbWtIVDUzWjJObUdnRWFFLXpiNjg3S0kwdjctcE1oVmU0UWt1UkV3T1ZtWDhZOHE0bXY1UV9QSVJfQ2ZFZS1NbXR6NFg3Qm5IUkhrMHc,English,,4,2013-02-15,Nuno N,Samsung Multiview,please add support for,,
KeePassDroid,Google Play,com.android.keepass,Z3A6QU9xcFRPR3VqbWtIVDUzWjJObUdnRWFFLXpiNjg3S0kwdjctcE1oVmU0UWt1UkV3T1ZtWDhZOHE0bXY1UV9QSVJfQ2ZFZS1NbXR6NFg3Qm5IUkhrMHc,English,,4,2013-02-15,Nuno N,Samsung Multiview,it is simple and very helpful for instance on the note 2,,
KeePassDroid,Google Play,com.android.keepass,Z3A6QU9xcFRPR3VqbWtIVDUzWjJObUdnRWFFLXpiNjg3S0kwdjctcE1oVmU0UWt1UkV3T1ZtWDhZOHE0bXY1UV9QSVJfQ2ZFZS1NbXR6NFg3Qm5IUkhrMHc,English,,4,2013-02-15,Nuno N,Samsung Multiview,you can see using other,,
KeePassDroid,Google Play,com.android.keepass,Z3A6QU9xcFRPR09sYVJQY0tBT3cwdjhidlYtLUR3LUdrRzVIMW5iRzVnUTdha3dpRm9ZY3F4eDZYVUFwQzEwR1NhdjhDSWU0bFAxUWZpS0VVVFZXNVdyQXc,English,,5,2013-02-15,Alan Stevenson,Excellent desktop and mobile password manager,very pleased about the update to allow editing of file,,
KeePassDroid,Google Play,com.android.keepass,Z3A6QU9xcFRPRUxXdVN3cWRyNkRRV0FrbDZLWWV5cGxFZkxzU0xHcnBDSTJIMzBoREhUd21lMzYzenJEQklUMnNWb2lpRmNsc1kzOUdxb2Jmanc2NmZjQ0E,English,,5,2013-02-15,Wiyang Tan,Great,like the new feature to be able to edit file,,
KeePassDroid,Google Play,com.android.keepass,Z3A6QU9xcFRPR292YVVEWXhod0ZfbDcxa2VXcTdPdlNQeW8xZU5YMldQZVRiVmczMWtCSVFiTEVsS05ZbHpIajl2ZUFMMkxOSGNGVFlEOFJXRUFOUHAxMmc,English,,5,2013-02-15,Rowland Banks,Essential application.,now this application ha write support for i have no hesitation in recommending especially in conjunction with the application,,
KeePassDroid,Google Play,com.android.keepass,Z3A6QU9xcFRPR292YVVEWXhod0ZfbDcxa2VXcTdPdlNQeW8xZU5YMldQZVRiVmczMWtCSVFiTEVsS05ZbHpIajl2ZUFMMkxOSGNGVFlEOFJXRUFOUHAxMmc,English,,5,2013-02-15,Rowland Banks,Essential application.,search facility is notification support for and password,,
KeePassDroid,Google Play,com.android.keepass,Z3A6QU9xcFRPR292YVVEWXhod0ZfbDcxa2VXcTdPdlNQeW8xZU5YMldQZVRiVmczMWtCSVFiTEVsS05ZbHpIajl2ZUFMMkxOSGNGVFlEOFJXRUFOUHAxMmc,English,,5,2013-02-15,Rowland Banks,Essential application.,is basic but just the way i like it,,
KeePassDroid,Google Play,com.android.keepass,Z3A6QU9xcFRPRzV1TXA5TTJDVEFDWENjWXFLeFV4M0N3Tjl1RHRkeFhwckFwVmUyVzBJYXF6WE1ReWtRV29TbHRCNHBEYWhpVkpDZVVZZm14QnBFalFjVEE,English,,5,2013-02-14,Alice Boot,A must for the paranoid or the wise.,a simple to use program allows me to have a random password for each login giving me the maximum security possible on a portable combined with the desktop version you cant get any better,,
KeePassDroid,Google Play,com.android.keepass,Z3A6QU9xcFRPRzV1TXA5TTJDVEFDWENjWXFLeFV4M0N3Tjl1RHRkeFhwckFwVmUyVzBJYXF6WE1ReWtRV29TbHRCNHBEYWhpVkpDZVVZZm14QnBFalFjVEE,English,,5,2013-02-14,Alice Boot,A must for the paranoid or the wise.,the lack polish but is easy to understand and straight to the point,,
KeePassDroid,Google Play,com.android.keepass,Z3A6QU9xcFRPRmhfNzVEeGY2eVYxa0JxbWJvdUpDTTQwTjVrRHA3MjF1TVNwRjVTZGJBa3lJTUw4d2VQVmM5Z0tkM1NKcmRfaDdjTzRLTzRjZXVYbEhmSFE,English,,5,2013-02-14,John Onjays,Love it,love it,,
KeePassDroid,Google Play,com.android.keepass,Z3A6QU9xcFRPSFN3Sm9IMlBlNHlQVmpZUGdNN0xlZlBzcV9zMWlsWGFoMk1zX3ZUcnJFbjVOWW9FYzIzU2lvUTdabU93VXNleU9LYzJSSGEtS0Rnb3MxUmc,English,,5,2013-02-14,Chris Keller,Best app to keep important secure info,best to keep important secure info safe,,
KeePassDroid,Google Play,com.android.keepass,Z3A6QU9xcFRPSFN3Sm9IMlBlNHlQVmpZUGdNN0xlZlBzcV9zMWlsWGFoMk1zX3ZUcnJFbjVOWW9FYzIzU2lvUTdabU93VXNleU9LYzJSSGEtS0Rnb3MxUmc,English,,5,2013-02-14,Chris Keller,Best app to keep important secure info,i am able to use to sync the file between device computer,,
KeePassDroid,Google Play,com.android.keepass,Z3A6QU9xcFRPSFN3Sm9IMlBlNHlQVmpZUGdNN0xlZlBzcV9zMWlsWGFoMk1zX3ZUcnJFbjVOWW9FYzIzU2lvUTdabU93VXNleU9LYzJSSGEtS0Rnb3MxUmc,English,,5,2013-02-14,Chris Keller,Best app to keep important secure info,keep up the great work,,
KeePassDroid,Google Play,com.android.keepass,bGc6QU9xcFRPRXlhMEZ1eGQ2cngzT3Bsd3JDVWZMLWRuMURFcDE5SE1ZbGd1Q3pkaHNjYk95ODFXd1p2cjRuVFBuNVpxeDBRYlVHT0ZNN0JOakFnX011cVE,English,,5,2013-02-14,A Google User,Convenient and very well implemented,superb effort getting such a great application working compatibility with the desktop database file make this infinitely useful,,
KeePassDroid,Google Play,com.android.keepass,bGc6QU9xcFRPRXlhMEZ1eGQ2cngzT3Bsd3JDVWZMLWRuMURFcDE5SE1ZbGd1Q3pkaHNjYk95ODFXd1p2cjRuVFBuNVpxeDBRYlVHT0ZNN0JOakFnX011cVE,English,,5,2013-02-14,A Google User,Convenient and very well implemented,great option with the notification button for copying password to clipboard kudos,,
KeePassDroid,Google Play,com.android.keepass,Z3A6QU9xcFRPRllkOGI4MFJra1dGUXRHN3lYellUUjdsYXRzeV9naTdnQmVzcmt1VVRXR1NuRzdKT3ZpQ19sSTF2YUtwbDdwOUN3WjFhOEpJdFdEQWRJdlE,English,,5,2013-02-14,Chad Infeld,Works great.,i have used in general for year and it awesome to see a android version,,
KeePassDroid,Google Play,com.android.keepass,bGc6QU9xcFRPRmttTnBYRXJMNlhyX3ZOTTBRZF9YQzVqNHJ0S3BXX1JXcGlTbE53OU5lc1ZlREhzY0dtOVJBMlQzRUpuYUlQbXpldm5vNl95aVlSN2tMRkE,English,,5,2013-02-14,A Google User,Priceless!,this is absolutely fantastic,,
KeePassDroid,Google Play,com.android.keepass,bGc6QU9xcFRPRmttTnBYRXJMNlhyX3ZOTTBRZF9YQzVqNHJ0S3BXX1JXcGlTbE53OU5lc1ZlREhzY0dtOVJBMlQzRUpuYUlQbXpldm5vNl95aVlSN2tMRkE,English,,5,2013-02-14,A Google User,Priceless!,now with write support it is even more worthwhile,,
KeePassDroid,Google Play,com.android.keepass,bGc6QU9xcFRPRmttTnBYRXJMNlhyX3ZOTTBRZF9YQzVqNHJ0S3BXX1JXcGlTbE53OU5lc1ZlREhzY0dtOVJBMlQzRUpuYUlQbXpldm5vNl95aVlSN2tMRkE,English,,5,2013-02-14,A Google User,Priceless!,synced password across all my device,,
KeePassDroid,Google Play,com.android.keepass,bGc6QU9xcFRPRkt1dE1mb1N4NmRPc2VRRzIxWlVpZS1qeWRFZVBDZXhYSVZra013MmdFN08zXy1xLU5FeGdhX0hkSTlDX3R5MjZYUzNYcVR2aWU1c28yUXc,English,,5,2013-02-14,A Google User,I love this app,and now i can edit from the phone again,,
KeePassDroid,Google Play,com.android.keepass,bGc6QU9xcFRPRkt1dE1mb1N4NmRPc2VRRzIxWlVpZS1qeWRFZVBDZXhYSVZra013MmdFN08zXy1xLU5FeGdhX0hkSTlDX3R5MjZYUzNYcVR2aWU1c28yUXc,English,,5,2013-02-14,A Google User,I love this app,great,,
KeePassDroid,Google Play,com.android.keepass,Z3A6QU9xcFRPSGVVaWstZmhFY0tRM2c2MVdRMHIxX1BJaWthREp6MS1iVXMzUElaRkprYmIxc3ltb1VFUHJNV19tV1B1SFNpQlNqNFhrUU9XR2sxQmRpaUE,English,,5,2013-02-14,Lorian Johnson,So far so good,i started using the desktop version and wa happy to see an android version,,
KeePassDroid,Google Play,com.android.keepass,Z3A6QU9xcFRPSGVVaWstZmhFY0tRM2c2MVdRMHIxX1BJaWthREp6MS1iVXMzUElaRkprYmIxc3ltb1VFUHJNV19tV1B1SFNpQlNqNFhrUU9XR2sxQmRpaUE,English,,5,2013-02-14,Lorian Johnson,So far so good,far it ha worked,,
KeePassDroid,Google Play,com.android.keepass,Z3A6QU9xcFRPSGVVaWstZmhFY0tRM2c2MVdRMHIxX1BJaWthREp6MS1iVXMzUElaRkprYmIxc3ltb1VFUHJNV19tV1B1SFNpQlNqNFhrUU9XR2sxQmRpaUE,English,,5,2013-02-14,Lorian Johnson,So far so good,i keep my password file in my folder and can sync it from whatever device i am using,,
KeePassDroid,Google Play,com.android.keepass,Z3A6QU9xcFRPSG8wY0taNkJkdzNVa0RoYkI1Q0NQUEZqR2UzaXI4YXdMdk1lLW90MjM5WTEyZmZncW8tYldlejl4RTVtVFQxMk9PWVRTelotMUJZb3Rxa0E,English,,5,2013-02-14,Hugo Besteiro,great!,really great,,
KeePassDroid,Google Play,com.android.keepass,Z3A6QU9xcFRPR0NMMER2NlI3VjU5UzdKR2w3VmxLMGJCQktFMm42LTVoRjVKdTNYQXFEbnQ1SlZUSXMwWjNEbk02eEFLSUJJQS1UNENheE1vbl9MLURJQVE,English,,4,2013-02-14,Billy Oliver,Nice app,been using for a now and only down side is that the could be a bit more easy on the eye,,
KeePassDroid,Google Play,com.android.keepass,bGc6QU9xcFRPSE9WSXd3RTkwcnYzS2FwbmgxVlM5Mzk1MWF4TVhIY3lwR0RYSE14ZGdUTTk0U1p3Z2hEX1ZQdTM2QW9WUmwyN08ycWtsQWszTlNyMlNMbEE,English,,5,2013-02-14,A Google User,6reat program,this is an update to a previous review,,
KeePassDroid,Google Play,com.android.keepass,bGc6QU9xcFRPSE9WSXd3RTkwcnYzS2FwbmgxVlM5Mzk1MWF4TVhIY3lwR0RYSE14ZGdUTTk0U1p3Z2hEX1ZQdTM2QW9WUmwyN08ycWtsQWszTlNyMlNMbEE,English,,5,2013-02-14,A Google User,6reat program,ice bite been using the program for a and really like it,,
KeePassDroid,Google Play,com.android.keepass,bGc6QU9xcFRPSE9WSXd3RTkwcnYzS2FwbmgxVlM5Mzk1MWF4TVhIY3lwR0RYSE14ZGdUTTk0U1p3Z2hEX1ZQdTM2QW9WUmwyN08ycWtsQWszTlNyMlNMbEE,English,,5,2013-02-14,A Google User,6reat program,make password management very ready,,
KeePassDroid,Google Play,com.android.keepass,bGc6QU9xcFRPSE9WSXd3RTkwcnYzS2FwbmgxVlM5Mzk1MWF4TVhIY3lwR0RYSE14ZGdUTTk0U1p3Z2hEX1ZQdTM2QW9WUmwyN08ycWtsQWszTlNyMlNMbEE,English,,5,2013-02-14,A Google User,6reat program,no problem,,
KeePassDroid,Google Play,com.android.keepass,Z3A6QU9xcFRPRlMyVkYwN25INTEycTFyUk40djhCaUp3Yl9pWjluVGFMcVJCdWN0b3VZYl94dm4zNkxXaTkzY1NOTFVPWGU5TFVzTUQwZThHYy0yenZfa1E,English,,5,2013-02-14,Christopher Higgins,,thanks,,
KeePassDroid,Google Play,com.android.keepass,Z3A6QU9xcFRPSDFYYzA4TFJ1UF9HR0hHdlpjd0RsQW9sN0R4NHlXNzVtRUVQNE9IV3RmaGxIM2k0SDBnY0tRd2tQN1M5Q1hKOTU0NE1JUi15WWN6cEVrbGc,English,,5,2013-02-14,Gregory Fong,Does everything it needs to do,you want to bring your secure password database on the this doe the job,,
KeePassDroid,Google Play,com.android.keepass,Z3A6QU9xcFRPSEc4NG9qbXZ3bmFGeFpkNEdyVGFCWEQ0UkpQS2E1WmNpUGdsM0VoRmRmSW1lVW1iUXZjSmtLci1mS0h1YU1VNXJhandwTUhCYlA0NUdFRmc,English,,5,2013-02-14,Steven Solomon,The Best Cross Platform PW Manager,i have been using this for year and love i can and have used it with and android without any problem,,
KeePassDroid,Google Play,com.android.keepass,Z3A6QU9xcFRPSEc4NG9qbXZ3bmFGeFpkNEdyVGFCWEQ0UkpQS2E1WmNpUGdsM0VoRmRmSW1lVW1iUXZjSmtLci1mS0h1YU1VNXJhandwTUhCYlA0NUdFRmc,English,,5,2013-02-14,Steven Solomon,The Best Cross Platform PW Manager,you sync password with or another cloud service,,
KeePassDroid,Google Play,com.android.keepass,Z3A6QU9xcFRPSEc4NG9qbXZ3bmFGeFpkNEdyVGFCWEQ0UkpQS2E1WmNpUGdsM0VoRmRmSW1lVW1iUXZjSmtLci1mS0h1YU1VNXJhandwTUhCYlA0NUdFRmc,English,,5,2013-02-14,Steven Solomon,The Best Cross Platform PW Manager,the is no fancy but this is free i can live with it,,
KeePassDroid,Google Play,com.android.keepass,Z3A6QU9xcFRPSEc4NG9qbXZ3bmFGeFpkNEdyVGFCWEQ0UkpQS2E1WmNpUGdsM0VoRmRmSW1lVW1iUXZjSmtLci1mS0h1YU1VNXJhandwTUhCYlA0NUdFRmc,English,,5,2013-02-14,Steven Solomon,The Best Cross Platform PW Manager,for those who complained about the prior update note that the developer fixed the problem in le 24 hour,,
KeePassDroid,Google Play,com.android.keepass,Z3A6QU9xcFRPR25zZVRrUFVoUWRmdUJSNFdkZkw5VWtjVm01VjFSUFpPRTZDMnB5LUVxRDcyeHR6NUtUeXdSWUV1MXhTY2pJZ3ZGU0JBOEptdTd5a2M4S1E,English,,5,2013-02-14,Rubén Tapia,Simply a must have!,great,,
KeePassDroid,Google Play,com.android.keepass,Z3A6QU9xcFRPR25zZVRrUFVoUWRmdUJSNFdkZkw5VWtjVm01VjFSUFpPRTZDMnB5LUVxRDcyeHR6NUtUeXdSWUV1MXhTY2pJZ3ZGU0JBOEptdTd5a2M4S1E,English,,5,2013-02-14,Rubén Tapia,Simply a must have!,conveniently synced via to my home and office computer i always have access to my password,,
KeePassDroid,Google Play,com.android.keepass,Z3A6QU9xcFRPRWJqZVpXcDNXTzl0dnV0RHhEeTR2cGdIVk1hd1A5ZUp2QlllSVlnTUl3Z24yMVd1anJKVGtDQjY5OTk5c1RpdDB2UlFqb0taT1RrQnpncXc,English,,5,2013-02-14,Holt Beach,Great solution!,i keep my password db on drive it is always up to date,,
KeePassDroid,Google Play,com.android.keepass,Z3A6QU9xcFRPRWJqZVpXcDNXTzl0dnV0RHhEeTR2cGdIVk1hd1A5ZUp2QlllSVlnTUl3Z24yMVd1anJKVGtDQjY5OTk5c1RpdDB2UlFqb0taT1RrQnpncXc,English,,5,2013-02-14,Holt Beach,Great solution!,all of my device can hit drive and use this to user id and password into appropriate field,,
KeePassDroid,Google Play,com.android.keepass,Z3A6QU9xcFRPRWJqZVpXcDNXTzl0dnV0RHhEeTR2cGdIVk1hd1A5ZUp2QlllSVlnTUl3Z24yMVd1anJKVGtDQjY5OTk5c1RpdDB2UlFqb0taT1RrQnpncXc,English,,5,2013-02-14,Holt Beach,Great solution!,awesome,,
KeePassDroid,Google Play,com.android.keepass,Z3A6QU9xcFRPRnRmb0JLYXZ5a1dqSkVHek56dmFpdHVCNllEejhYV2VKX0U4YXEtSkFIbnEtOWxEcVRIamdralhfOEU5YTZNVmF2cC1RMW1Ccm9Gb1FPdkE,English,,5,2013-02-14,Tom Christian,KeepDroid,excellent,,
KeePassDroid,Google Play,com.android.keepass,Z3A6QU9xcFRPRnRmb0JLYXZ5a1dqSkVHek56dmFpdHVCNllEejhYV2VKX0U4YXEtSkFIbnEtOWxEcVRIamdralhfOEU5YTZNVmF2cC1RMW1Ccm9Gb1FPdkE,English,,5,2013-02-14,Tom Christian,KeepDroid,been using it for year,,
KeePassDroid,Google Play,com.android.keepass,Z3A6QU9xcFRPRnRmb0JLYXZ5a1dqSkVHek56dmFpdHVCNllEejhYV2VKX0U4YXEtSkFIbnEtOWxEcVRIamdralhfOEU5YTZNVmF2cC1RMW1Ccm9Gb1FPdkE,English,,5,2013-02-14,Tom Christian,KeepDroid,database is the same in window copy back and forth,,
KeePassDroid,Google Play,com.android.keepass,Z3A6QU9xcFRPSFhvVGM3eDFqVHVMSDgtU3J2VnN5TE1EVHlWN3p1bFdwdDR4VmZrVEt5REg3OWV1ZVhjTDluSlJzbGlsTWs0NDZWem1wZ1dSdkVic0ZMRUE,English,,5,2013-02-14,Kresimir Benic,Perfect!!!,great program,,
KeePassDroid,Google Play,com.android.keepass,Z3A6QU9xcFRPSFhvVGM3eDFqVHVMSDgtU3J2VnN5TE1EVHlWN3p1bFdwdDR4VmZrVEt5REg3OWV1ZVhjTDluSlJzbGlsTWs0NDZWem1wZ1dSdkVic0ZMRUE,English,,5,2013-02-14,Kresimir Benic,Perfect!!!,simple and practical,,
KeePassDroid,Google Play,com.android.keepass,Z3A6QU9xcFRPSFhvVGM3eDFqVHVMSDgtU3J2VnN5TE1EVHlWN3p1bFdwdDR4VmZrVEt5REg3OWV1ZVhjTDluSlJzbGlsTWs0NDZWem1wZ1dSdkVic0ZMRUE,English,,5,2013-02-14,Kresimir Benic,Perfect!!!,i highly it,,
KeePassDroid,Google Play,com.android.keepass,bGc6QU9xcFRPSHBuVDBNaUhDZ2FlZ2hpZnMyTTZlU3FOSXcySG5uSWQ3d0Y5ZXlUSkMwNTIzeWZQS21LZGFNdnlwX3dkaXdXMmJwWXY3aEtMN3RmcTBUNHc,English,,4,2013-02-14,A Google User,Broken,197 version still work,,
KeePassDroid,Google Play,com.android.keepass,bGc6QU9xcFRPRUtHd1FRdlFFZWJkZGFnOXZuSDZRc2NtWjV1Z0pXLThrWnNHUTBoc1pKc2ROZks2bG5pNGVVakVlVnBVRUZYbzJvTU5iSDFuRkZZcUFsQ1E,English,,5,2013-02-14,A Google User,,read write for 20 is a big update,,
KeePassDroid,Google Play,com.android.keepass,bGc6QU9xcFRPRUtHd1FRdlFFZWJkZGFnOXZuSDZRc2NtWjV1Z0pXLThrWnNHUTBoc1pKc2ROZks2bG5pNGVVakVlVnBVRUZYbzJvTU5iSDFuRkZZcUFsQ1E,English,,5,2013-02-14,A Google User,,great,,
KeePassDroid,Google Play,com.android.keepass,Z3A6QU9xcFRPSG8xZ3BnSmQ4b3lZTFBhcVF5aG9MLWJEdDhhZ21YM044eDlteG5aMHJEdlhVQ2N4NTdKUmR0TExSVG5DakJBa2ZRYU41amwwZHl6dnBZSWc,English,,5,2013-02-14,Gordon S,Awesome,thanks for adding the feature to file,,
KeePassDroid,Google Play,com.android.keepass,Z3A6QU9xcFRPSFhJNDBHUHdBREd0ZjBQS3N4Yk1LRTFHZUhXaXh4OUFNOTNGZl8yODg2ZlAtSkdGVnk4anVLV0FHV3BZNk9lMGZoZFEzbzVNSk9sMi1rMlE,English,,5,2013-02-14,Mathew Gancarz,Does exactly what you need it to,i use this to view my db from work awesome,,
KeePassDroid,Google Play,com.android.keepass,Z3A6QU9xcFRPSFhJNDBHUHdBREd0ZjBQS3N4Yk1LRTFHZUhXaXh4OUFNOTNGZl8yODg2ZlAtSkdGVnk4anVLV0FHV3BZNk9lMGZoZFEzbzVNSk9sMi1rMlE,English,,5,2013-02-14,Mathew Gancarz,Does exactly what you need it to,great program,,
KeePassDroid,Google Play,com.android.keepass,Z3A6QU9xcFRPR2I0djZ2R0NIMGF3cVZ5Rm0ybzA5SGRvNm16RWxfRlZaRDhRSVEyOTZQLVFsRjEyNldRdkNRN1F5ZWdpMkU2ajMxMzRYUWJ4bVBCNVVfUnc,English,,5,2013-02-14,Raymond Human,Excellent,opening the file from work like a charm,,
KeePassDroid,Google Play,com.android.keepass,Z3A6QU9xcFRPR2I0djZ2R0NIMGF3cVZ5Rm0ybzA5SGRvNm16RWxfRlZaRDhRSVEyOTZQLVFsRjEyNldRdkNRN1F5ZWdpMkU2ajMxMzRYUWJ4bVBCNVVfUnc,English,,5,2013-02-14,Raymond Human,Excellent,sync with awesome,,
KeePassDroid,Google Play,com.android.keepass,Z3A6QU9xcFRPR2I0djZ2R0NIMGF3cVZ5Rm0ybzA5SGRvNm16RWxfRlZaRDhRSVEyOTZQLVFsRjEyNldRdkNRN1F5ZWdpMkU2ajMxMzRYUWJ4bVBCNVVfUnc,English,,5,2013-02-14,Raymond Human,Excellent,on side allows import of several different source like data,,
KeePassDroid,Google Play,com.android.keepass,Z3A6QU9xcFRPR2I0djZ2R0NIMGF3cVZ5Rm0ybzA5SGRvNm16RWxfRlZaRDhRSVEyOTZQLVFsRjEyNldRdkNRN1F5ZWdpMkU2ajMxMzRYUWJ4bVBCNVVfUnc,English,,5,2013-02-14,Raymond Human,Excellent,is fine compared to pay for product,,
KeePassDroid,Google Play,com.android.keepass,Z3A6QU9xcFRPRW9YeG1BUEhMcDFIdG16dzRBZnUzWVJxNk9lbTFENzFZbUx6bzVyT3ItUG1zRzQ5QmZlbXlQTUdJMmo0cGM1QWpoSERqQzdIazAtWkxYS1E,English,,5,2013-02-14,Gregory Glines,"Simple, easy.",it is simple and easy to use,,
KeePassDroid,Google Play,com.android.keepass,bGc6QU9xcFRPSFBYckxKM0stazU2RlBWS2U1WWZtclRPRkR3U05PNy1lcmFTUExkQ045V05nQmZEZHlhZGRxSjVBYlFNUldRZjNaTVZ4NDBDblhNbkJFaUE,English,,5,2013-02-14,A Google User,Version 2 support?,i love this but really need version 2 support,,
KeePassDroid,Google Play,com.android.keepass,bGc6QU9xcFRPSFBYckxKM0stazU2RlBWS2U1WWZtclRPRkR3U05PNy1lcmFTUExkQ045V05nQmZEZHlhZGRxSjVBYlFNUldRZjNaTVZ4NDBDblhNbkJFaUE,English,,5,2013-02-14,A Google User,Version 2 support?,i see beta support for it here,,
KeePassDroid,Google Play,com.android.keepass,bGc6QU9xcFRPSFBYckxKM0stazU2RlBWS2U1WWZtclRPRkR3U05PNy1lcmFTUExkQ045V05nQmZEZHlhZGRxSjVBYlFNUldRZjNaTVZ4NDBDblhNbkJFaUE,English,,5,2013-02-14,A Google User,Version 2 support?,please keep up the work,,
KeePassDroid,Google Play,com.android.keepass,Z3A6QU9xcFRPSFRxN1QzeHU2T3RjTXpoMGxuS1k0X042blYwMV9oUVZLa3gwYzctYnVpSXBJbjF1dzJZRGJxeXZxRk1tM1JLMjNUTEp1a3Z2Nmk0LUZYb2c,English,,5,2013-02-14,Dim565,Отлично сделано,,,
KeePassDroid,Google Play,com.android.keepass,Z3A6QU9xcFRPRWtWMHdKZnhpQ2daZHBKTFN4a0tnQ1JhNThadFR6Q29CYzBYVHItRUdEY2lZck44cnRnZFZyNVllWmpkT3NnT2d1QW5KbGdST2dIU2g2T1E,English,,5,2013-02-14,Robert Sirre,And now with write support for Keepass2 files!,great work seamlessly with,,
KeePassDroid,Google Play,com.android.keepass,Z3A6QU9xcFRPSEVET1NFcDIxRVlvSGZrS0l2SUUzb0s3b21tbmRrVlBfQjNxR3otd0xMZDViSkJXYnBpVjZiYmdCVGowMGp3dzh3bXhZQVA1U2hWdU1Ucmc,English,,5,2013-02-14,Diederik Maes,Use it,have it on android and,,
KeePassDroid,Google Play,com.android.keepass,Z3A6QU9xcFRPSEVET1NFcDIxRVlvSGZrS0l2SUUzb0s3b21tbmRrVlBfQjNxR3otd0xMZDViSkJXYnBpVjZiYmdCVGowMGp3dzh3bXhZQVA1U2hWdU1Ucmc,English,,5,2013-02-14,Diederik Maes,Use it,just practical and safe,,
KeePassDroid,Google Play,com.android.keepass,Z3A6QU9xcFRPRTBDRHBZVXhHcUw5TURKdWRISThmaXo5TzVseHB1ckozYnR5M25qdnJua1pQTDZLOG1OMi1GTFQxYjFCWUFmZzlkbHJwOVhxMkdRMDZYU3c,English,,4,2013-02-13,R. Kroells,New update seams to work,liking good with file,,
KeePassDroid,Google Play,com.android.keepass,bGc6QU9xcFRPSDcwRUQ3d2xOZjhEdjd1NEE0YzBYUXNxTXkzWE1ob1VJQndHZU5TMF8zdVZPcm96YXk5NXgxM0ZuakE2Y0ZjSng1RXhucGVhOFU0YThXcFE,English,,5,2013-02-13,A Google User,,would be better it supported,,
KeePassDroid,Google Play,com.android.keepass,Z3A6QU9xcFRPRzZsUEFUc09sZVBqdmgyV2xjQU1ySFpfdVJDd0NEa3ZFeU94YXZuWmpwX3FaRHVTczNuMDBPRVVTSXZrR1NBSnVzc0RJTVd3dmc2T1NZMWc,English,,4,2013-02-13,Andrew Lumi,,nice,,
KeePassDroid,Google Play,com.android.keepass,Z3A6QU9xcFRPRXJuODE0OGFkUHlsUWliZGp1bTRWNUhfRVJmOXFnbFdUSl9jMHhoQVFKMW9ZcHp1bGFlWFBLVU5oZUI2VUgtcVVia1k4eGtTdDNXVnhkQ0E,English,,5,2013-02-13,Michael Vernon,Great Update,one of my most used,,
KeePassDroid,Google Play,com.android.keepass,Z3A6QU9xcFRPRXJuODE0OGFkUHlsUWliZGp1bTRWNUhfRVJmOXFnbFdUSl9jMHhoQVFKMW9ZcHp1bGFlWFBLVU5oZUI2VUgtcVVia1k4eGtTdDNXVnhkQ0E,English,,5,2013-02-13,Michael Vernon,Great Update,great update with support,,
KeePassDroid,Google Play,com.android.keepass,Z3A6QU9xcFRPR0ZGLXFpc0ZxUGYwZnBlNVFaM2d5NXJEdThBXzZ2VXlfVXhRWHI1dFZXa29DOTNpYlNkMUJkUS1zTjN1aUZtdDdzUDdxV0pRamEzQ2NPUHc,English,,5,2013-02-13,Dan Kang,Great program,keep up the good work,,
KeePassDroid,Google Play,com.android.keepass,Z3A6QU9xcFRPR0ZGLXFpc0ZxUGYwZnBlNVFaM2d5NXJEdThBXzZ2VXlfVXhRWHI1dFZXa29DOTNpYlNkMUJkUS1zTjN1aUZtdDdzUDdxV0pRamEzQ2NPUHc,English,,5,2013-02-13,Dan Kang,Great program,wish it could work with drop box directly and use any choice of file explorer,,
KeePassDroid,Google Play,com.android.keepass,Z3A6QU9xcFRPR0ZGLXFpc0ZxUGYwZnBlNVFaM2d5NXJEdThBXzZ2VXlfVXhRWHI1dFZXa29DOTNpYlNkMUJkUS1zTjN1aUZtdDdzUDdxV0pRamEzQ2NPUHc,English,,5,2013-02-13,Dan Kang,Great program,but those are nice to have and the product work well,,
KeePassDroid,Google Play,com.android.keepass,Z3A6QU9xcFRPSHN3Q09qdmUyWkhpeFF0RW5OS09WaDcyZVloWmRpc3ZoTmF4QXZGbXlRZWJNMW0zOGl0VlZ5U1RHaDE0WTFtR2loYlo2WF83WDlpOFU1OGc,English,,5,2013-02-13,Shane Vandecar,Amazing,so thrilled we have read write for,,
KeePassDroid,Google Play,com.android.keepass,Z3A6QU9xcFRPRTRpQlVNVkNfWkkxdDh2aWd4OXd4QTFmNkdSTHpfMnVESU1LSDg5Y0ZkSlVyRDdHdlJVNzZJRmxBVnBYam02bmFfMGs0aUlqckdEZTRRenc,English,,3,2013-02-13,Ivan Gavryliuk,Very basic,good need a lot of work,,
KeePassDroid,Google Play,com.android.keepass,Z3A6QU9xcFRPRTlWb29NYzFyV2dGd1lac1R0X2J2Uzg3b1lZNUx3Q0EwWktlOTBoSjRja0NyelZwX1hXTlpsNFNhNHdZbG8yUDdLMzJyN0dUTHgxYXRra3c,English,,5,2013-02-13,Alexandr S,Must have,very,,
KeePassDroid,Google Play,com.android.keepass,Z3A6QU9xcFRPRTlWb29NYzFyV2dGd1lac1R0X2J2Uzg3b1lZNUx3Q0EwWktlOTBoSjRja0NyelZwX1hXTlpsNFNhNHdZbG8yUDdLMzJyN0dUTHgxYXRra3c,English,,5,2013-02-13,Alexandr S,Must have,must have,,
KeePassDroid,Google Play,com.android.keepass,Z3A6QU9xcFRPSGdnM0x3VlltS3h1R29BUllGZ2ZaYVU2eXFNbkZ4TjNBUGJvWDlBSXNfNHV6azZWNnNPVXZ1Y21EWG1EZDVUNlFnUUs0NVNKMFVwc2tvU2c,English,,5,2013-02-13,Beau McCoy,Works great,outstanding extension of,,
KeePassDroid,Google Play,com.android.keepass,Z3A6QU9xcFRPRUNubVh3UG9LY1F2SG5lSVB1THZXMVZPbFA0VkMtbzkzdzlnV1BkaFoyNkxaX3c5aDAxdVNYZWJfN2FNallGMkZlYXRkaDNoOEExdkVpVEE,English,,4,2013-02-13,Miguel Hilario,Works well,very convenient,,
KeePassDroid,Google Play,com.android.keepass,Z3A6QU9xcFRPRUNubVh3UG9LY1F2SG5lSVB1THZXMVZPbFA0VkMtbzkzdzlnV1BkaFoyNkxaX3c5aDAxdVNYZWJfN2FNallGMkZlYXRkaDNoOEExdkVpVEE,English,,4,2013-02-13,Miguel Hilario,Works well,i also have it synced with my mac well a nexus tablet and mobile,,
KeePassDroid,Google Play,com.android.keepass,Z3A6QU9xcFRPR1F0YVhUZndicUlnSGY3WncwbUh0YWVZR184SEx2TW1sS1ZJRDVETnIzcUN2NmQxb2FmdEFobEJCT0tMSTJtSjYzZEx5SjZrMF9aOW5jTGc,English,,5,2013-02-13,Michael Roberts,Trim white space on search fixed! Yeah!,thank you for finally fixing,,
KeePassDroid,Google Play,com.android.keepass,Z3A6QU9xcFRPRWdqa0FfREJEWV9KQ2E5ZnZkUjRnNWtuQWZNS2xDYkJkSlRRU28takc3Y01VVXJvQVBSWWJvNlZ1R2RHLVVQV092UW9YYVA4b080LThpSWc,English,,5,2013-02-13,Warren Rehman,Great Android client,keep your password safe,,
KeePassDroid,Google Play,com.android.keepass,Z3A6QU9xcFRPRkZBN3NLN29keVBDYVM4SE9GdFAtempGNEI4WHpETDRTRjdsbTRLaGx3UTk0Z3NUai1CSV9pTFJUa0ZqMWZtbmdCRnJpQzhJajZFQ25RekE,English,,5,2013-02-13,,Wooohooooo!,finally write support for database thanks much,,
KeePassDroid,Google Play,com.android.keepass,Z3A6QU9xcFRPRkxfVDVjQ3FPdU05RGd3UmxJeFFkM2N0X2ZmQTY2UUNidWk3WkcwUWc2YmUyWnRjLWYtQlBQRVNwRW5vZmVEVUhtZzBDeXhoOUJoY2ZSSUE,English,,5,2013-02-13,Craig Russell,,brilliant,,
KeePassDroid,Google Play,com.android.keepass,Z3A6QU9xcFRPR2ZGbW5vM29vc3hkRU9wU09DT2NFc1dVZzFjVldXRlc0WUdhakdiaUsxdjdXUjVaNFgxOFJDWjJuVlVhNTNZM2U4V0JIVWZqLUNJOWIyUnc,English,,5,2013-02-13,Kenneth Mallia,Excellent,great,,
KeePassDroid,Google Play,com.android.keepass,Z3A6QU9xcFRPRzFMZWJ2ZEhrTUt0VEdRd3FkYW5iUmNkMWhjZGZqYWRVa3J0TXVza0pDaFBpWDlFWGQtaU5kZl9LZi0wZVVpeERwRDZ2RmE0b3ItTWRKb1E,English,,5,2013-02-13,Andrey Kalnitskiy,,excellent,,
KeePassDroid,Google Play,com.android.keepass,Z3A6QU9xcFRPRzFMZWJ2ZEhrTUt0VEdRd3FkYW5iUmNkMWhjZGZqYWRVa3J0TXVza0pDaFBpWDlFWGQtaU5kZl9LZi0wZVVpeERwRDZ2RmE0b3ItTWRKb1E,English,,5,2013-02-13,Andrey Kalnitskiy,,i am using it on a daily basis,,
KeePassDroid,Google Play,com.android.keepass,Z3A6QU9xcFRPSEdTOEZnUHlRbW5wT3podWtiQnlpUFlXeVBJdGdUZVB6dlRnaEJyUG9xZTdKazRZTkNvM1loZ2R1VGlyR0ZZN3poNWRmWW1wTnljaXRoYUE,English,,5,2013-02-13,Stephen Fretwell,,brilliant,,
KeePassDroid,Google Play,com.android.keepass,bGc6QU9xcFRPR3JaWXpVd0htdC1JMXNseF9ISXhnZDlraFlOcFZQS2VpV01DaTgxbUJPYTRpVlVoUmRIZXA5c2tTbUxaU1RWdHpibGZWQ2w1YW9Ecjh6dXc,English,,5,2013-02-13,A Google User,Perfect,great application,,
KeePassDroid,Google Play,com.android.keepass,bGc6QU9xcFRPSHppdFRlU3JNNVlGN1c5QzVRQWM2eHJidDZ6VFoyc0RmQ2V2RndRVE13SFY1RDk0Tm9TQVltX3pQRmNzSHpuMzZVUHNITTBlbWFqV21EVmc,English,,5,2013-02-13,A Google User,Now it's definitely 5 stars!,yes,,
KeePassDroid,Google Play,com.android.keepass,bGc6QU9xcFRPSHppdFRlU3JNNVlGN1c5QzVRQWM2eHJidDZ6VFoyc0RmQ2V2RndRVE13SFY1RDk0Tm9TQVltX3pQRmNzSHpuMzZVUHNITTBlbWFqV21EVmc,English,,5,2013-02-13,A Google User,Now it's definitely 5 stars!,now able to version 2 file,,
KeePassDroid,Google Play,com.android.keepass,bGc6QU9xcFRPSHppdFRlU3JNNVlGN1c5QzVRQWM2eHJidDZ6VFoyc0RmQ2V2RndRVE13SFY1RDk0Tm9TQVltX3pQRmNzSHpuMzZVUHNITTBlbWFqV21EVmc,English,,5,2013-02-13,A Google User,Now it's definitely 5 stars!,thank you,,
KeePassDroid,Google Play,com.android.keepass,bGc6QU9xcFRPSHppdFRlU3JNNVlGN1c5QzVRQWM2eHJidDZ6VFoyc0RmQ2V2RndRVE13SFY1RDk0Tm9TQVltX3pQRmNzSHpuMzZVUHNITTBlbWFqV21EVmc,English,,5,2013-02-13,A Google User,Now it's definitely 5 stars!,just sent a donation,,
KeePassDroid,Google Play,com.android.keepass,bGc6QU9xcFRPSHppdFRlU3JNNVlGN1c5QzVRQWM2eHJidDZ6VFoyc0RmQ2V2RndRVE13SFY1RDk0Tm9TQVltX3pQRmNzSHpuMzZVUHNITTBlbWFqV21EVmc,English,,5,2013-02-13,A Google User,Now it's definitely 5 stars!,keep up the good work,,
KeePassDroid,Google Play,com.android.keepass,Z3A6QU9xcFRPRVBTMHRYSW9OY3k3Y2d1ZThIejV1Y25wY0pHeWFYLVlyU0tRQUkxT0JiRmlndFNrUkFVS0VhTXVZZmdjdk12S21LdE9vU2VFbU5VRGp1V1E,English,,5,2013-02-13,Monty Carson,,indispensable,,
KeePassDroid,Google Play,com.android.keepass,Z3A6QU9xcFRPRko3QTZVbWJtZjNuSzdya2xFTmlieTNoNk5Qb0FFWml4dTV5SXc1Vm1qRzhIQ2Q2M0hJUldYRU9oV1laZGZsVWFhaG9wMUN4Q0czZVJicVE,English,,5,2013-02-13,Taylor Pearcy,Finally Read & Write,the read and write addition for database make this just about perfect,,
KeePassDroid,Google Play,com.android.keepass,Z3A6QU9xcFRPRURwT2JFQ2NOUG5WRUhaTDF6SHFVajRqTHp6ck8yNGFkMzVLeGtrM0ZZaGVjd3YyYXVfbjF6ZE5yeFNaOGxIS21vNzlNdUNpaEJfS0JoM3c,English,,5,2013-02-13,Ron Hartston,Perfect,developer,,
KeePassDroid,Google Play,com.android.keepass,bGc6QU9xcFRPRlpBMXphdi11V3JwSlVRZWQ4d2NlNGVWd1RmSERwcDhJdHdabHk3MGljZExiSFJxTldjdWdubkFxOGl0RUJPNWhqcVpON2dvZnlMLWJVeVE,English,,5,2013-02-13,A Google User,Get it!,,,
KeePassDroid,Google Play,com.android.keepass,bGc6QU9xcFRPRlpBMXphdi11V3JwSlVRZWQ4d2NlNGVWd1RmSERwcDhJdHdabHk3MGljZExiSFJxTldjdWdubkFxOGl0RUJPNWhqcVpON2dvZnlMLWJVeVE,English,,5,2013-02-13,A Google User,Get it!,write capability,,
KeePassDroid,Google Play,com.android.keepass,bGc6QU9xcFRPRUVfaktnUmpzRF8xZFN3bmc0NVRVXzhYbmF5RFFKeWlNb1BHZTJfY3RlWFJRMlhTdUd4WmFSZ1gzV0dQRjBNc3JPc0YwOVFDV3dEbWhDQnc,English,,5,2013-02-13,A Google User,Yay,read write for file,,
KeePassDroid,Google Play,com.android.keepass,bGc6QU9xcFRPRlVuMG1mV3VBZ0k5VmxYU0hNVFF2YzlWNmxUaFJmOC1iSldfc1lydTBUX25HQnNGQXdZZG1UclRIUjNCdll2Yks4dDUzY2o3NEhZZ0lHWEE,English,,5,2013-02-13,A Google User,,five star for,,
KeePassDroid,Google Play,com.android.keepass,bGc6QU9xcFRPRktWektrcFNiUFhpOThkR2prX0xRbk44SGR2aEhQd2FGalBSXzFWM25Ed0p4YVRmQzZxeEVZRjRtSi1iM2FRVW95eUI4RkY5WGUxQXIxOUE,English,,5,2013-02-13,A Google User,Happy to see write access added!,great,,
KeePassDroid,Google Play,com.android.keepass,bGc6QU9xcFRPRktWektrcFNiUFhpOThkR2prX0xRbk44SGR2aEhQd2FGalBSXzFWM25Ed0p4YVRmQzZxeEVZRjRtSi1iM2FRVW95eUI4RkY5WGUxQXIxOUE,English,,5,2013-02-13,A Google User,Happy to see write access added!,will be 5 star i can edit on the phone,,
KeePassDroid,Google Play,com.android.keepass,bGc6QU9xcFRPRktWektrcFNiUFhpOThkR2prX0xRbk44SGR2aEhQd2FGalBSXzFWM25Ed0p4YVRmQzZxeEVZRjRtSi1iM2FRVW95eUI4RkY5WGUxQXIxOUE,English,,5,2013-02-13,A Google User,Happy to see write access added!,update latest rev add beta write support for version file,,
KeePassDroid,Google Play,com.android.keepass,bGc6QU9xcFRPRktWektrcFNiUFhpOThkR2prX0xRbk44SGR2aEhQd2FGalBSXzFWM25Ed0p4YVRmQzZxeEVZRjRtSi1iM2FRVW95eUI4RkY5WGUxQXIxOUE,English,,5,2013-02-13,A Google User,Happy to see write access added!,excellent update,,
KeePassDroid,Google Play,com.android.keepass,Z3A6QU9xcFRPSHdnZVRvZ1RZdk9VUjN4MkE5M1E1SWFGOUpnUDJVVEpqWmlUelFoZm82ZlZISzJXV1lIcTZ0aEdNbi04bFBaVkdGUU1BOTVNMURjaWhnWGc,English,,5,2013-02-13,Menachem Goldstein,Finally,editing in,,
KeePassDroid,Google Play,com.android.keepass,Z3A6QU9xcFRPSHdnZVRvZ1RZdk9VUjN4MkE5M1E1SWFGOUpnUDJVVEpqWmlUelFoZm82ZlZISzJXV1lIcTZ0aEdNbi04bFBaVkdGUU1BOTVNMURjaWhnWGc,English,,5,2013-02-13,Menachem Goldstein,Finally,thanks,,
KeePassDroid,Google Play,com.android.keepass,bGc6QU9xcFRPSGFmdHhtSjZVN0pfT1RSdUtSYXdNTEcyVHBiWEhFNVd5MVEtMHFWYWUwUlBwejF0YjhMUF81a0xWcmlNd3VYSkFwYUlQanRHRXZ4MmlDc0E,English,,5,2013-02-13,A Google User,Yay thanks,thanks for adding support,,
KeePassDroid,Google Play,com.android.keepass,Z3A6QU9xcFRPR1VGV1J3Z3RuUEhla2RuZU1HdVgyX3JiUF9UV3BqSFcxVFZVTmlyVl95VXVHLXBDckgzSTJEUUZvQkxMSm8wOTBlS01XQ2ZxZlRtVWdlcEE,English,,5,2013-02-13,Cristian Savii,Editing!,thank you,,
KeePassDroid,Google Play,com.android.keepass,Z3A6QU9xcFRPRmNaSVdqd3NuUEdxdnFDallWSG5XcTd5b0ZtaUpqM1Ayb1MxaF8zWEJlRVZRNnBOZ0NNc3hWcWEteVo1d0JjMEFqX3VpaUdwWDh0YmZnQUE,English,,5,2013-02-13,Dory Goldberger,Now with R/W support for 2.x database !!!,great password manager,,
KeePassDroid,Google Play,com.android.keepass,Z3A6QU9xcFRPRjV6OTI1Ql9PZTRUaEVaSk1MT3lhMmZLTlN5ZTZVU2RpRnA4QnhQTGFjRjZUc3NQUllXSjZKQldnSGVXY0w2M20waTFJMnNSRkNheXBSUmc,English,,5,2013-02-13,Masse Holley,Excellent,this plus is the password management nirvana,,
KeePassDroid,Google Play,com.android.keepass,Z3A6QU9xcFRPSFRoV3gwMkZJTjJldFJ4b24wOFdWWUxuTmVUeUlBS3N3MkRZbFR1dGUzXzJuellrXzQyekU3ZWtEdEFyb3JjV3lrRnN2T0JITS1KU2Q0SUE,English,,5,2013-02-13,Martin Kukura,kdbx add/edit,happy to see this,,
KeePassDroid,Google Play,com.android.keepass,Z3A6QU9xcFRPRUJqQkZTN3ltNWJwNEpLcDliWURQNGZ6YlRGVUNOU2lTQms5T2JQNEFaSVcyMV9RNUdYT0UwcnJGNG4ybldJUHFzampSd0ZTREU2WkZUbnc,English,,5,2013-02-13,Matthias M.,Perfect,doe exactly what it should in a easy to use way,,
KeePassDroid,Google Play,com.android.keepass,Z3A6QU9xcFRPSEhfSWRQbWV2YXAzNl9vOWdKNWZyWkMwRE9MWVJmSnpGVWU5Smh6dXdrN1RLaUVRY0Fid3VFZ1l1OU01N0RKSkVKM2dxdFA2bUczSURfTXc,English,,5,2013-02-13,Robert Goldstein,Great product,initially this product wa something i recommended for my former ops and team to handle the massive amount of password now i use it for my personal password so i have access to all of my account i go,,
KeePassDroid,Google Play,com.android.keepass,Z3A6QU9xcFRPSEhfSWRQbWV2YXAzNl9vOWdKNWZyWkMwRE9MWVJmSnpGVWU5Smh6dXdrN1RLaUVRY0Fid3VFZ1l1OU01N0RKSkVKM2dxdFA2bUczSURfTXc,English,,5,2013-02-13,Robert Goldstein,Great product,truly a lifesaver,,
KeePassDroid,Google Play,com.android.keepass,bGc6QU9xcFRPRmFkNGYwR0l1Z29INkswNUx0OTB0T0pzRjhWWEZGU05OQjIyTGZpeDM4R2RDQXltOHluckdRTHJVQnpKZXREdXQxZTcxTUtPaTZEb1VZS0E,English,,5,2013-02-13,A Google User,Awesome,tested on galaxy with,,
KeePassDroid,Google Play,com.android.keepass,bGc6QU9xcFRPRmFkNGYwR0l1Z29INkswNUx0OTB0T0pzRjhWWEZGU05OQjIyTGZpeDM4R2RDQXltOHluckdRTHJVQnpKZXREdXQxZTcxTUtPaTZEb1VZS0E,English,,5,2013-02-13,A Google User,Awesome,all good,,
KeePassDroid,Google Play,com.android.keepass,bGc6QU9xcFRPRmFkNGYwR0l1Z29INkswNUx0OTB0T0pzRjhWWEZGU05OQjIyTGZpeDM4R2RDQXltOHluckdRTHJVQnpKZXREdXQxZTcxTUtPaTZEb1VZS0E,English,,5,2013-02-13,A Google User,Awesome,full star rating,,
KeePassDroid,Google Play,com.android.keepass,bGc6QU9xcFRPRlRyejAtMnhwZmRCcDBoMG9MSG5kR094YVZtQlNXbmhZNXlnNjJhWXZ2SWxfWklfeThRYlVweUp3MmJPTGkzejBhU0Y1R2Z3RFhGRWl5RXc,English,,5,2013-02-13,A Google User,Finally support for v2,awesome must donate,,
KeePassDroid,Google Play,com.android.keepass,bGc6QU9xcFRPR2t6MVRNTXR1b2lQMy1XRjNVdWZaZ3hKVGM3cVd0aTN5VHpJajdvcGt3NVRaXzlxbHJyTnkteXNZX09zRDZWT1A4S2VKR1M0WE5KazZKSlE,English,,5,2013-02-13,A Google User,Read/write support!,oh my god,,
KeePassDroid,Google Play,com.android.keepass,bGc6QU9xcFRPR2t6MVRNTXR1b2lQMy1XRjNVdWZaZ3hKVGM3cVd0aTN5VHpJajdvcGt3NVRaXzlxbHJyTnkteXNZX09zRDZWT1A4S2VKR1M0WE5KazZKSlE,English,,5,2013-02-13,A Google User,Read/write support!,i have been waiting for this long and here it come,,
KeePassDroid,Google Play,com.android.keepass,bGc6QU9xcFRPR2t6MVRNTXR1b2lQMy1XRjNVdWZaZ3hKVGM3cVd0aTN5VHpJajdvcGt3NVRaXzlxbHJyTnkteXNZX09zRDZWT1A4S2VKR1M0WE5KazZKSlE,English,,5,2013-02-13,A Google User,Read/write support!,support for database,,
KeePassDroid,Google Play,com.android.keepass,bGc6QU9xcFRPR2t6MVRNTXR1b2lQMy1XRjNVdWZaZ3hKVGM3cVd0aTN5VHpJajdvcGt3NVRaXzlxbHJyTnkteXNZX09zRDZWT1A4S2VKR1M0WE5KazZKSlE,English,,5,2013-02-13,A Google User,Read/write support!,this is great,,
KeePassDroid,Google Play,com.android.keepass,Z3A6QU9xcFRPSE1XQlg2azA5V3dHdnp6UWt5a3lTeHg1MEVub3ZaTEpIbDdFTmZ5YWVGT21XY3FZdzI4OFpQSGVfUXBwV2xhNkVPLWs3ejFkTlYtQXlNbnc,English,,5,2013-02-13,,Excellent!,this ha been my goto for password for and is usually the second i install on a fresh,,
KeePassDroid,Google Play,com.android.keepass,Z3A6QU9xcFRPSE1XQlg2azA5V3dHdnp6UWt5a3lTeHg1MEVub3ZaTEpIbDdFTmZ5YWVGT21XY3FZdzI4OFpQSGVfUXBwV2xhNkVPLWs3ejFkTlYtQXlNbnc,English,,5,2013-02-13,,Excellent!,huge prop to the for making this especially for the price of free,,
KeePassDroid,Google Play,com.android.keepass,Z3A6QU9xcFRPSG5EWExvZnJubXJNSkxINWFZQmVVbzc0OHg5dEJ6ekZuS2x0X0dkWFV4azNxQ2xWTnNQNXRYNllPeWZ4NmtTeUxLVzJZYUNuNEFOSmZKRFE,English,,3,2013-02-13,,Crashes when saving new entry in .kdbx,i tried to save a new entry and crashed,,
KeePassDroid,Google Play,com.android.keepass,Z3A6QU9xcFRPSG5EWExvZnJubXJNSkxINWFZQmVVbzc0OHg5dEJ6ekZuS2x0X0dkWFV4azNxQ2xWTnNQNXRYNllPeWZ4NmtTeUxLVzJZYUNuNEFOSmZKRFE,English,,3,2013-02-13,,Crashes when saving new entry in .kdbx,galaxy 412,,
KeePassDroid,Google Play,com.android.keepass,Z3A6QU9xcFRPSEt0MDRDTXhKQWt0SGVHdUJYT016NUN0akJmSWFHbjc4dzRHUE9LdkZfX1k0c01GVmVUckh1bDNBcTZYOFBpS1ZZUDJxNHlYanBGdlhQOEE,English,,5,2013-02-13,Recev Yildiz,,i use it with and it doe what is supposed to do,,
KeePassDroid,Google Play,com.android.keepass,Z3A6QU9xcFRPRlV3emhjeGM2a0pxS3c3YjI3R2xkYjJONWFfdzNpanJ4cGxQOXVXa3ZGLXdMdDBfNmxLVGNfbGMtMXdTR0MyM3FWQ2tNX3FaWlZLNGc3UlE,English,,5,2013-02-13,Craig Marchitelli,,fantastic,,
KeePassDroid,Google Play,com.android.keepass,Z3A6QU9xcFRPR1VzWk02amtaanZ4SFpkM3UyRjdGT002clUydVZjTWozTTg5R1d0YnBUR2NpQkxPVEs3WUhFVHdaTnNPNTBhV1pZVTNORlo1NlkycEZOZ1E,English,,5,2013-02-13,Leonid Morgenshtern,Very usefull,always have my secret accessible and easy to use,,
KeePassDroid,Google Play,com.android.keepass,Z3A6QU9xcFRPR1VzWk02amtaanZ4SFpkM3UyRjdGT002clUydVZjTWozTTg5R1d0YnBUR2NpQkxPVEs3WUhFVHdaTnNPNTBhV1pZVTNORlo1NlkycEZOZ1E,English,,5,2013-02-13,Leonid Morgenshtern,Very usefull,thanks,,
KeePassDroid,Google Play,com.android.keepass,Z3A6QU9xcFRPSFVpSEN3bnJmbE0zaGw3a1VMdm5DdkdPclhscHkyMnQxV2ZJcFNwd2QzQ3BfaktsRVd1TW5yNDlyRzJ3bU9Qam5ZMjU5REFQbzJ1bXkyNXc,English,,5,2013-02-13,Richard Gay,Great password manager,using drop box and drop sync mean the data base is automatically synced over all my device,,
KeePassDroid,Google Play,com.android.keepass,Z3A6QU9xcFRPSFVpSEN3bnJmbE0zaGw3a1VMdm5DdkdPclhscHkyMnQxV2ZJcFNwd2QzQ3BfaktsRVd1TW5yNDlyRzJ3bU9Qam5ZMjU5REFQbzJ1bXkyNXc,English,,5,2013-02-13,Richard Gay,Great password manager,i change or add a password on one of them it automatically update all of them,,
KeePassDroid,Google Play,com.android.keepass,Z3A6QU9xcFRPSFVpSEN3bnJmbE0zaGw3a1VMdm5DdkdPclhscHkyMnQxV2ZJcFNwd2QzQ3BfaktsRVd1TW5yNDlyRzJ3bU9Qam5ZMjU5REFQbzJ1bXkyNXc,English,,5,2013-02-13,Richard Gay,Great password manager,could not be without it,,
KeePassDroid,Google Play,com.android.keepass,Z3A6QU9xcFRPRy1fX3BzOE9MOWkyMFdxZ0ZLQzJXM0hJc0kwT0llVkQyUUNDSHlZdEt0bC05eHVuVkw1Ym0wSld4U2lRWU5HTDhPbkR3RHpFRjFWbXFBbVE,English,,5,2013-02-13,Ashley Sewell,,gold,,
KeePassDroid,Google Play,com.android.keepass,bGc6QU9xcFRPSEJxaWhFTUprV2dPeXhXSHVHbnJfSG0yMlZHQmhMaks2dDZVRGlQalNBQXJ0Mm92VzVqcVBHdXVxdjFnRjVkSGt0M3NBalVidXFPMGVkN1E,English,,5,2013-02-13,A Google User,"Excelent,",,,
KeePassDroid,Google Play,com.android.keepass,bGc6QU9xcFRPSEJxaWhFTUprV2dPeXhXSHVHbnJfSG0yMlZHQmhMaks2dDZVRGlQalNBQXJ0Mm92VzVqcVBHdXVxdjFnRjVkSGt0M3NBalVidXFPMGVkN1E,English,,5,2013-02-13,A Google User,"Excelent,",,,
