App,Store,App ID,Review ID,Country,Version,Rating,Date,Author,Subject,Body,Translated Subject,Translated Body
KeePassDroid,Google Play,com.android.keepass,Z3A6QU9xcFRPRXJ6WGg1d2hTbnZKb2Y1U2xiakFqX3lqUmRpU3k0cVktNXFpaU5ZUHVoeXJPZkdwWURBN2RvU25pSTNLZ0lMOENpVV80T1VLM2tvMWJvQ2c,English,,4,2013-04-15,Catt Mama,Pretty good,i have been using for year i wa happy to see wa available for my phone,,
KeePassDroid,Google Play,com.android.keepass,Z3A6QU9xcFRPRVg5MmVOaEVSb1ZkREFpUWk4NFAzNThQejBPcXhmWmhicUM3MnAwcmtKeDBRQU5EQ1o1aUY3UTAwWGNNdTZzYzNCVmg3ZXpZdTdZUnAtdnc,English,,5,2013-04-13,Adam Jacob,,very helpful and well explained,,
KeePassDroid,Google Play,com.android.keepass,Z3A6QU9xcFRPRVg5MmVOaEVSb1ZkREFpUWk4NFAzNThQejBPcXhmWmhicUM3MnAwcmtKeDBRQU5EQ1o1aUY3UTAwWGNNdTZzYzNCVmg3ZXpZdTdZUnAtdnc,English,,5,2013-04-13,Adam Jacob,,thank you,,
KeePassDroid,Google Play,com.android.keepass,Z3A6QU9xcFRPSGUxNjNiSHFYZFFzN1B5czBMQ0FwQU9vbkN5Q0J2cXJfSUdhNmRpSDNxbjJVOGNaRmVkLWQ3b2FELVh4ODdUUU9vZDdXYjlhb19vLUozSnc,English,,5,2013-04-12,Paul Berry,"Great app, I use it everywhere.",the file to drive and share it across all your device,,
KeePassDroid,Google Play,com.android.keepass,Z3A6QU9xcFRPR2l2VEo5djFsZWRNWHF2X2FhS2VlZEZhQ2JreU9aU01hbXp4dm5LM3FyZ3dEWF9qdl9jZS1DOWlYZ0VMcmFEQWdnLXY0ZmpCT21aUFJiT3c,English,,4,2013-04-10,James Kearney,Drive,is there a way you can select your file on your drive,,
KeePassDroid,Google Play,com.android.keepass,Z3A6QU9xcFRPRkN6TVkwa3kyckk1WU5BbUViLTlMNzVLb1Bfa1p3bHhvdXp2UmlpbHp3bGxkTEREVzZUdGppY1RfVEJfQUNiUTNoX1kwUGJYM3RibHc2dmc,English,,5,2013-04-05,Kevin Warner,Great app. Must have.,love this,,
KeePassDroid,Google Play,com.android.keepass,Z3A6QU9xcFRPRkN6TVkwa3kyckk1WU5BbUViLTlMNzVLb1Bfa1p3bHhvdXp2UmlpbHp3bGxkTEREVzZUdGppY1RfVEJfQUNiUTNoX1kwUGJYM3RibHc2dmc,English,,5,2013-04-05,Kevin Warner,Great app. Must have.,work great in conjunction with the desktop version,,
KeePassDroid,Google Play,com.android.keepass,Z3A6QU9xcFRPRkN6TVkwa3kyckk1WU5BbUViLTlMNzVLb1Bfa1p3bHhvdXp2UmlpbHp3bGxkTEREVzZUdGppY1RfVEJfQUNiUTNoX1kwUGJYM3RibHc2dmc,English,,5,2013-04-05,Kevin Warner,Great app. Must have.,with it easy to keep it up to date and i always have my password handy,,
KeePassDroid,Google Play,com.android.keepass,Z3A6QU9xcFRPRlRUanQzVmxFeDcxRkRJOVhfbGhvZlFwTV9BYy1zal9iOTMxY0p5eDJ4SFAyR2dyNFFWYXZ2R1dQOXpFUEtDR3h2TU8xd3dFeXFLUkd0YVE,English,,5,2013-04-04,Avi Devan,,very useful,,
KeePassDroid,Google Play,com.android.keepass,Z3A6QU9xcFRPR2pyM2otaWlBV3NsdEFITEZaLTJRLWl3S1VjcDB3Zk5KVDhpTGZEWlZkSkpMSkxJb0xEckQ2ZUw0bVZqOUlYZUtQV3luLXFVdDBHeUZYSWc,English,,5,2013-04-04,Marc Ashton,This app is HOT.  Works great with Google drive.,this is hot,,
KeePassDroid,Google Play,com.android.keepass,Z3A6QU9xcFRPR2pyM2otaWlBV3NsdEFITEZaLTJRLWl3S1VjcDB3Zk5KVDhpTGZEWlZkSkpMSkxJb0xEckQ2ZUw0bVZqOUlYZUtQV3luLXFVdDBHeUZYSWc,English,,5,2013-04-04,Marc Ashton,This app is HOT.  Works great with Google drive.,work great with drive,,
KeePassDroid,Google Play,com.android.keepass,Z3A6QU9xcFRPR2pyM2otaWlBV3NsdEFITEZaLTJRLWl3S1VjcDB3Zk5KVDhpTGZEWlZkSkpMSkxJb0xEckQ2ZUw0bVZqOUlYZUtQV3luLXFVdDBHeUZYSWc,English,,5,2013-04-04,Marc Ashton,This app is HOT.  Works great with Google drive.,for free,,
KeePassDroid,Google Play,com.android.keepass,Z3A6QU9xcFRPRk9WWlFzQ0JDVUhHYnRUamo5S1N6VGgzUndoUHo1SlJkQzI0aTVuS2F5QnAxVTJGY1pjY1ZENUxBTm11SEZSUmdpTjEyOVBKNnhsaVFTQ2c,English,,3,2013-04-03,Yoky Prasojo,Good,is this free,,
KeePassDroid,Google Play,com.android.keepass,Z3A6QU9xcFRPR1dzd3dWa0Q2bFhaYllGRDZpYlNwbGU0NzlKSDNMLVBuS3pDenFQdVBoYzhQejhvcHZfQVA1MFcxelp3QVFWeXczaFBQYll4LXhVUVJxbHc,English,,4,2013-04-02,Christopher Povey,kdbx Saving Seems to Work...,my db is about on my from window version of,,
KeePassDroid,Google Play,com.android.keepass,Z3A6QU9xcFRPR1dzd3dWa0Q2bFhaYllGRDZpYlNwbGU0NzlKSDNMLVBuS3pDenFQdVBoYzhQejhvcHZfQVA1MFcxelp3QVFWeXczaFBQYll4LXhVUVJxbHc,English,,4,2013-04-02,Christopher Povey,kdbx Saving Seems to Work...,the same file is on my phone running,,
KeePassDroid,Google Play,com.android.keepass,Z3A6QU9xcFRPR1dzd3dWa0Q2bFhaYllGRDZpYlNwbGU0NzlKSDNMLVBuS3pDenFQdVBoYzhQejhvcHZfQVA1MFcxelp3QVFWeXczaFBQYll4LXhVUVJxbHc,English,,4,2013-04-02,Christopher Povey,kdbx Saving Seems to Work...,i add a test password on my phone the file dropped to,,
KeePassDroid,Google Play,com.android.keepass,Z3A6QU9xcFRPR1dzd3dWa0Q2bFhaYllGRDZpYlNwbGU0NzlKSDNMLVBuS3pDenFQdVBoYzhQejhvcHZfQVA1MFcxelp3QVFWeXczaFBQYll4LXhVUVJxbHc,English,,4,2013-04-02,Christopher Povey,kdbx Saving Seems to Work...,i then removed the test password on my window version of the file returned to,,
KeePassDroid,Google Play,com.android.keepass,Z3A6QU9xcFRPR1dzd3dWa0Q2bFhaYllGRDZpYlNwbGU0NzlKSDNMLVBuS3pDenFQdVBoYzhQejhvcHZfQVA1MFcxelp3QVFWeXczaFBQYll4LXhVUVJxbHc,English,,4,2013-04-02,Christopher Povey,kdbx Saving Seems to Work...,i assume must use compression,,
KeePassDroid,Google Play,com.android.keepass,Z3A6QU9xcFRPR1dzd3dWa0Q2bFhaYllGRDZpYlNwbGU0NzlKSDNMLVBuS3pDenFQdVBoYzhQejhvcHZfQVA1MFcxelp3QVFWeXczaFBQYll4LXhVUVJxbHc,English,,4,2013-04-02,Christopher Povey,kdbx Saving Seems to Work...,doing a export compare showed and after file contained all the same password,,
KeePassDroid,Google Play,com.android.keepass,Z3A6QU9xcFRPRUlTX2Y3LXlqQnZCSFJsTmFLaEpKMHVyQzRxNDVYSGxjbXAyNGZwWUVwbnBYLVhQcmxOSTdMS2xSSy1nblp0RmNsdkcwMFlRTkMzYWwwcmc,English,,5,2013-04-01,Enrique Sandoval,Select Password Crash,after latest version crash copying password to clipboard,,
KeePassDroid,Google Play,com.android.keepass,Z3A6QU9xcFRPRUlTX2Y3LXlqQnZCSFJsTmFLaEpKMHVyQzRxNDVYSGxjbXAyNGZwWUVwbnBYLVhQcmxOSTdMS2xSSy1nblp0RmNsdkcwMFlRTkMzYWwwcmc,English,,5,2013-04-01,Enrique Sandoval,Select Password Crash,will give higher rating this is fixed,,
KeePassDroid,Google Play,com.android.keepass,bGc6QU9xcFRPSEtUTVhQc1lESDFJVlh6ZHd4LWZjTEp6WDlpN2ZtQnZGV284MWlkS3YzSHZBZEFhbkZoaVAzQkFnS2c2bjBYQU80dU4xYkVqU2ZaRHBaWGc,English,,5,2013-03-31,A Google User,Great app - don't add sync!,great,,
KeePassDroid,Google Play,com.android.keepass,Z3A6QU9xcFRPSG1pSWlTWDY3R0hkb0owSmtLdkJKWXFFbWN5ZU5hYXdFOVpURzJrSEFaS2Jsa2FkWExDUXhqTk4zT2ptbFpfQXRVN0Q5TXd1ejJyWmlXWXc,English,,5,2013-03-30,Christopher Elliott,Cross platform integration with a little help,work well with and to keep the password database on my with my phone and tablet,,
KeePassDroid,Google Play,com.android.keepass,Z3A6QU9xcFRPSG1pSWlTWDY3R0hkb0owSmtLdkJKWXFFbWN5ZU5hYXdFOVpURzJrSEFaS2Jsa2FkWExDUXhqTk4zT2ptbFpfQXRVN0Q5TXd1ejJyWmlXWXc,English,,5,2013-03-30,Christopher Elliott,Cross platform integration with a little help,having moved from i miss the but really like the clipboard integration,,
KeePassDroid,Google Play,com.android.keepass,Z3A6QU9xcFRPSG1pSWlTWDY3R0hkb0owSmtLdkJKWXFFbWN5ZU5hYXdFOVpURzJrSEFaS2Jsa2FkWExDUXhqTk4zT2ptbFpfQXRVN0Q5TXd1ejJyWmlXWXc,English,,5,2013-03-30,Christopher Elliott,Cross platform integration with a little help,far no issue with 20 read and write,,
KeePassDroid,Google Play,com.android.keepass,bGc6QU9xcFRPRU1lWXJRYXRlbm9FSkFSdTJPdDZRaXNkYy1IclZXdmI0VE1lRlY3RHBxRWctOHlHNmQ1aGxPUHNmcjBMZnFneHlJbWF6bDdUdzhHdFFNY1E,English,,5,2013-03-28,A Google User,Perfect,now generic file browser is i really know what else could be improved,,
KeePassDroid,Google Play,com.android.keepass,bGc6QU9xcFRPRU1lWXJRYXRlbm9FSkFSdTJPdDZRaXNkYy1IclZXdmI0VE1lRlY3RHBxRWctOHlHNmQ1aGxPUHNmcjBMZnFneHlJbWF6bDdUdzhHdFFNY1E,English,,5,2013-03-28,A Google User,Perfect,may be native sync of db with this feature is already work fine with,,
KeePassDroid,Google Play,com.android.keepass,bGc6QU9xcFRPRU1lWXJRYXRlbm9FSkFSdTJPdDZRaXNkYy1IclZXdmI0VE1lRlY3RHBxRWctOHlHNmQ1aGxPUHNmcjBMZnFneHlJbWF6bDdUdzhHdFFNY1E,English,,5,2013-03-28,A Google User,Perfect,great work,,
KeePassDroid,Google Play,com.android.keepass,bGc6QU9xcFRPRU1lWXJRYXRlbm9FSkFSdTJPdDZRaXNkYy1IclZXdmI0VE1lRlY3RHBxRWctOHlHNmQ1aGxPUHNmcjBMZnFneHlJbWF6bDdUdzhHdFFNY1E,English,,5,2013-03-28,A Google User,Perfect,i just could give it 6 star,,
KeePassDroid,Google Play,com.android.keepass,Z3A6QU9xcFRPRXJsQ2xKVE9rd3oyT2ZpcTE2S0ZKQ0VNLU5YcW1URkZwT2pNellVVDdQYTY0bDJkYmgwd2ZHSHRXM2gxei1Cd3ZTTnBfM0g1ZUhHRlUtdXc,English,,5,2013-03-28,Aamir Bashir,Excellent,really great,,
KeePassDroid,Google Play,com.android.keepass,Z3A6QU9xcFRPRkNDZi1nMDc3aGJLdDJuUWhjWjZJeVVGOVZVeXN4eG8tZDlBMi1hWGVmYjFxSEYxalo2Nm9ubjRNblIzMENaWVVRUENLY1o0bmJpQ1E2cUE,English,,4,2013-03-28,Ronald Ng,Great implementation,incredibly handy,,
KeePassDroid,Google Play,com.android.keepass,bGc6QU9xcFRPR2FGRV82amRNT01aR0EyXzZxWWVxVWNLTXVhYkhpb0VKVzVKZmJNTTFoZ2VvY000OHUzX0dvamIwNEFvZk55dlJ2cmRYNjM4WDVuNU1GT3c,English,,3,2013-03-28,A Google User,3.5 Powerful but awkward/outdated,powerful feature marred by awkward interface,,
KeePassDroid,Google Play,com.android.keepass,bGc6QU9xcFRPR2FGRV82amRNT01aR0EyXzZxWWVxVWNLTXVhYkhpb0VKVzVKZmJNTTFoZ2VvY000OHUzX0dvamIwNEFvZk55dlJ2cmRYNjM4WDVuNU1GT3c,English,,3,2013-03-28,A Google User,3.5 Powerful but awkward/outdated,recent overdue of writing latest db give it 35 star,,
KeePassDroid,Google Play,com.android.keepass,bGc6QU9xcFRPR2FGRV82amRNT01aR0EyXzZxWWVxVWNLTXVhYkhpb0VKVzVKZmJNTTFoZ2VvY000OHUzX0dvamIwNEFvZk55dlJ2cmRYNjM4WDVuNU1GT3c,English,,3,2013-03-28,A Google User,3.5 Powerful but awkward/outdated,grouping by folder good but multiple grouping dupe,,
KeePassDroid,Google Play,com.android.keepass,bGc6QU9xcFRPR2FGRV82amRNT01aR0EyXzZxWWVxVWNLTXVhYkhpb0VKVzVKZmJNTTFoZ2VvY000OHUzX0dvamIwNEFvZk55dlJ2cmRYNjM4WDVuNU1GT3c,English,,3,2013-03-28,A Google User,3.5 Powerful but awkward/outdated,check out safe in cloud for slicker cloud multiple group color coding and import db export,,
KeePassDroid,Google Play,com.android.keepass,bGc6QU9xcFRPSEhvNFpjQjEySDg0V2poN2l6SVdVQ0ZJak9GajE3VTZMS2stUVdaLUczal9kZUdMSmliaHJWYzFsU2VDUlQ3OVBFWWdTa1kwNG9XTnN5UHc,English,,5,2013-03-28,A Google User,Great,thanks for the update,,
KeePassDroid,Google Play,com.android.keepass,Z3A6QU9xcFRPRzdEQi1RcnZDQWY2d0h1cncyOC1DcUU3alRFYV9PS1ZGXzdmMWE2XzEtVUM1V1N6Zmk4dFNGSXZ1bVcxcFl5VlVGYnNvRHpLbDc1a2hZRkE,English,,5,2013-03-27,Sergey Stanislavski,Ok,,,
KeePassDroid,Google Play,com.android.keepass,bGc6QU9xcFRPSFVCMEk5eGpFZThqV1BtbnZ4SkF1dGE5NTJrdEw2cDRTMHJUajQ2N0dhLW1NeGt5bFd2dXI1akx6VlA0U2xzcmQ1bnJjaHJzSURSLTdtUWc,English,,4,2013-03-27,A Google User,Would love ability to organize entries,wish it were flexible a the desktop with the ability to move entry from group to group,,
KeePassDroid,Google Play,com.android.keepass,bGc6QU9xcFRPSFVCMEk5eGpFZThqV1BtbnZ4SkF1dGE5NTJrdEw2cDRTMHJUajQ2N0dhLW1NeGt5bFd2dXI1akx6VlA0U2xzcmQ1bnJjaHJzSURSLTdtUWc,English,,4,2013-03-27,A Google User,Would love ability to organize entries,also wish it integrated with drive,,
KeePassDroid,Google Play,com.android.keepass,bGc6QU9xcFRPSEtTTWR6cVRFUVgtZHU4TDlhYUdBRmtlTllxcURMQXVRVWZickdLVnpSYWR1VnhkbGx5Z1N4SUEtT0c5dTRYRnRYZXdaYVhHcTZDVlB3bmc,English,,4,2013-03-27,A Google User,A nice and very useful app,work nicely for the most part and ha gotten better over time,,
KeePassDroid,Google Play,com.android.keepass,bGc6QU9xcFRPSEtTTWR6cVRFUVgtZHU4TDlhYUdBRmtlTllxcURMQXVRVWZickdLVnpSYWR1VnhkbGx5Z1N4SUEtT0c5dTRYRnRYZXdaYVhHcTZDVlB3bmc,English,,4,2013-03-27,A Google User,A nice and very useful app,i few problem along the way with minor data corruption with some update,,
KeePassDroid,Google Play,com.android.keepass,bGc6QU9xcFRPRnZtZWlidUpaVmlKVmpBSW5yYm1DTUh5NzVtaGxJRU5VREJEdFpVX3oxT1MtdXVUcnBGT3NnUWp5YlFhU1lZVEd3amlIWkNqRi14RDY5R1E,English,,4,2013-03-27,A Google User,Larger Fonts Needed,work great but need larger font for older eye,,
KeePassDroid,Google Play,com.android.keepass,bGc6QU9xcFRPRmtlcEdackNqUnhocWVFVkE5VTdEYmVhTFN2eWpvMjR1VGpoVzgxRlh1YnBnNmJTX0xlMkxIdUljTlBiRlFfd2lJanNTb1FrS09VZl9TeHc,English,,5,2013-03-27,A Google User,Best Android password manager,downright the best android manager but the interface really need a theme to keep up with the time,,
KeePassDroid,Google Play,com.android.keepass,Z3A6QU9xcFRPSHprTElnWVg3M2YwbWF3aENIUDR5ZTJuRlRHV3RxWFk4dnhHVXdsMGJRdWliU09RZU1jRDFFeVpfcktfQ1dCdDgyMEhpSHd6OVdWdXZCTHc,English,,4,2013-03-27,Jerry Fitzgibbon,,great,,
KeePassDroid,Google Play,com.android.keepass,bGc6QU9xcFRPR0piWDEyYl81dGpTSXRMSEFfWmZ5c0xTZFlMM1dmNl9NMllpSGZsVEdIRzVFQkZsSUtjR3BqaG02SUtDektlU3l3VXdKNnZyNVh4eUFKV1E,English,,5,2013-03-27,A Google User,Solved All My Password Problems,coupled with my password are now i go,,
KeePassDroid,Google Play,com.android.keepass,bGc6QU9xcFRPRXo5RnVoTUl4dF9xcmh1VUlqakx0ZG5Sa1Q2QXpWOWlINzFfV09PR0otcXhIMUxSUkUwZGVqZnJoTFh5RHN3SXdQQWoweEhiOVE3WEVuUmc,English,,5,2013-03-27,A Google User,Highly recommend!,must for all,,
KeePassDroid,Google Play,com.android.keepass,Z3A6QU9xcFRPSEY2djI3SlFqNlp5aWFIdHl4VE03Q1lXaElYQks2TlBMQmlzT0FnZzFOVjNPUDFYaXRzbVZaTmxycXJkelZFZ0hVWW1NQU9mWm9sdmdldEE,English,,4,2013-03-27,Nate Becker,I love KeePass,and this ha brought my database to my android and tablet,,
KeePassDroid,Google Play,com.android.keepass,Z3A6QU9xcFRPSEY2djI3SlFqNlp5aWFIdHl4VE03Q1lXaElYQks2TlBMQmlzT0FnZzFOVjNPUDFYaXRzbVZaTmxycXJkelZFZ0hVWW1NQU9mWm9sdmdldEE,English,,4,2013-03-27,Nate Becker,I love KeePass,coupled with a cloud storage solution like or i can have the current data on all my device,,
KeePassDroid,Google Play,com.android.keepass,Z3A6QU9xcFRPSEY2djI3SlFqNlp5aWFIdHl4VE03Q1lXaElYQks2TlBMQmlzT0FnZzFOVjNPUDFYaXRzbVZaTmxycXJkelZFZ0hVWW1NQU9mWm9sdmdldEE,English,,4,2013-03-27,Nate Becker,I love KeePass,i have not had any error but i have to keep redundant backup,,
KeePassDroid,Google Play,com.android.keepass,Z3A6QU9xcFRPRkQ3bHRfaFc4Ylh3YjRCM0FidVVkal9hb0VtOXVtRWJXTjhLNHVzaEttMk1GUmhNeGxQMml5TnRtVl9rNmxSUXpMVGJYRVBkRjc0UHNuWUE,English,,5,2013-03-27,Jose Pablo Pinilla Gómez,Just what I needed,it i have my password file encrypted in a cloud service and i can access it anywhere,,
KeePassDroid,Google Play,com.android.keepass,Z3A6QU9xcFRPRksyaXRnWEtXdVZkcWw2dDl2a3pGNFRDc25YVm5lWFhKUzg5UGdNQXQ5NktqeE1xenQ1OGcxY2RvWjNMajhxdm1ESDlOS1RjNDFyd0lTZkE,English,,5,2013-03-27,Gareth Howe,Perfect password safe,safe a your master password choose wisely,,
KeePassDroid,Google Play,com.android.keepass,Z3A6QU9xcFRPR3p1bkpucEMzNXdYY1k0MTBNSDgyRTYzMlV3Q1dIeXhYd3p1QkRCY0RxZXd0ODE2UTVmLS13S0pfQ2NjYWtqcU5BUWdQa1JTdzFfOTdPVkE,English,,5,2013-03-27,Eric Arellano,Fantastic,the ease of implementing random password generation ha improved my password security ten fold,,
KeePassDroid,Google Play,com.android.keepass,Z3A6QU9xcFRPRkdIVDFjenhFSjF5R09LcGxCS0Q1a2NPWlVjanBGVnRvanJLdGtwU3NSd1BpYkhwcEZIMDJlVnAyLW5LQW5RaVZGMmNlSTFhaVJPWTk2aEE,English,,5,2013-03-27,Sergey Plokhikh,Must have,awesome,,
KeePassDroid,Google Play,com.android.keepass,Z3A6QU9xcFRPRnVLX1F4Ql9MVEduX0JzYml6WHBWemhmUGgtNFZ4YXc5S2RxZTlscV9TSTNNZlU0c3htTEQzem90cFJCNDFiNExjZXhEdUpKR05oZ3hGOGc,English,,5,2013-03-27,Bojan K,Must have,thanks for this great,,
KeePassDroid,Google Play,com.android.keepass,Z3A6QU9xcFRPRnVLX1F4Ql9MVEduX0JzYml6WHBWemhmUGgtNFZ4YXc5S2RxZTlscV9TSTNNZlU0c3htTEQzem90cFJCNDFiNExjZXhEdUpKR05oZ3hGOGc,English,,5,2013-03-27,Bojan K,Must have,i use it with and my password are always synced across all device,,
KeePassDroid,Google Play,com.android.keepass,Z3A6QU9xcFRPSDZsdnlLU0hkY2pvMl9yS29KZWZmWGVMTXhLclBKT25zWlF1ZV9yMVBCVFBiYjR4d3lQUnQ3V0VHWmJpaENYbkYxRjlIVUppRklhc0tEVVE,English,,5,2013-03-27,Don Brodie,Awesome!,paid for and tested almost 10 different password software,,
KeePassDroid,Google Play,com.android.keepass,Z3A6QU9xcFRPSDZsdnlLU0hkY2pvMl9yS29KZWZmWGVMTXhLclBKT25zWlF1ZV9yMVBCVFBiYjR4d3lQUnQ3V0VHWmJpaENYbkYxRjlIVUppRklhc0tEVVE,English,,5,2013-03-27,Don Brodie,Awesome!,non intrusive and functional,,
KeePassDroid,Google Play,com.android.keepass,Z3A6QU9xcFRPSDZsdnlLU0hkY2pvMl9yS29KZWZmWGVMTXhLclBKT25zWlF1ZV9yMVBCVFBiYjR4d3lQUnQ3V0VHWmJpaENYbkYxRjlIVUppRklhc0tEVVE,English,,5,2013-03-27,Don Brodie,Awesome!,use to sync,,
KeePassDroid,Google Play,com.android.keepass,Z3A6QU9xcFRPRXZzd3JUaW9EVUVrM1IyUlBRcUZHWmNhUFNmek11bWpWM1h4Sno1dnRkckpIa2tvMjlBQ3lxMnByT2p6S0Vsdmtxb2VIY1hzRDF0anZIZ0E,English,,5,2013-03-27,Arion Clarke,Great keepass app for android,this had always worked well,,
KeePassDroid,Google Play,com.android.keepass,Z3A6QU9xcFRPRXZzd3JUaW9EVUVrM1IyUlBRcUZHWmNhUFNmek11bWpWM1h4Sno1dnRkckpIa2tvMjlBQ3lxMnByT2p6S0Vsdmtxb2VIY1hzRDF0anZIZ0E,English,,5,2013-03-27,Arion Clarke,Great keepass app for android,but having 20 write even in beta is a nice change,,
KeePassDroid,Google Play,com.android.keepass,Z3A6QU9xcFRPSGhvWk0tRi1nckZfVE5McmxFaUVqanJPck5VdjM3QUZ2SENabndhNzN2WWp6S1Boa041ZFJ5MGsybmVZTENnVVdwUU5xdEJjQTlWMWtVYWc,English,,5,2013-03-27,José Seixas,,love it,,
KeePassDroid,Google Play,com.android.keepass,Z3A6QU9xcFRPRjdBV1YzMU1PWTdiUzVlSDg4ckJRbGFXOUl6YkJnVzNOa1AwMFAzdFpSdGRBWjNWOEtKT1JGNXE3ZEh1VVNLS2NVRWVXZzRWYzk4UnZmcGc,English,,5,2013-03-27,Zach Moore,Superb.,use it everyday,,
KeePassDroid,Google Play,com.android.keepass,Z3A6QU9xcFRPRjdBV1YzMU1PWTdiUzVlSDg4ckJRbGFXOUl6YkJnVzNOa1AwMFAzdFpSdGRBWjNWOEtKT1JGNXE3ZEh1VVNLS2NVRWVXZzRWYzk4UnZmcGc,English,,5,2013-03-27,Zach Moore,Superb.,one of the best for password,,
KeePassDroid,Google Play,com.android.keepass,bGc6QU9xcFRPSDZvQXlmUHNReXg2WnAxOHFPdjUtUDFURzh0amtBMWpXNTRjbThnTElvNzlROXZfdkxFb1JTbFNOMUFZTGdCUHZsazJxSWtDNV94Vzh3d2c,English,,5,2013-03-27,A Google User,Great App,use it across multiple device through,,
KeePassDroid,Google Play,com.android.keepass,bGc6QU9xcFRPSDZvQXlmUHNReXg2WnAxOHFPdjUtUDFURzh0amtBMWpXNTRjbThnTElvNzlROXZfdkxFb1JTbFNOMUFZTGdCUHZsazJxSWtDNV94Vzh3d2c,English,,5,2013-03-27,A Google User,Great App,work beautifully,,
KeePassDroid,Google Play,com.android.keepass,Z3A6QU9xcFRPRUpsVTZoX3JmeDlWSmQ4T1VqSl9rOUhKLVdadmVOdzJ6QjVYaVJjNEdvcHd4WkJJWmtCdnhQU0Y3Q3ZlRy1IYXZlVUg0N0hYY1lRaFJkckE,English,,5,2013-03-27,Derek Belcher,Love this app!,worth it weight in gold,,
KeePassDroid,Google Play,com.android.keepass,Z3A6QU9xcFRPRUpsVTZoX3JmeDlWSmQ4T1VqSl9rOUhKLVdadmVOdzJ6QjVYaVJjNEdvcHd4WkJJWmtCdnhQU0Y3Q3ZlRy1IYXZlVUg0N0hYY1lRaFJkckE,English,,5,2013-03-27,Derek Belcher,Love this app!,a must have,,
KeePassDroid,Google Play,com.android.keepass,Z3A6QU9xcFRPR19CXzY5aGQ1dTN6NHh0eTZPcWZZay1YWWJqeG9XQ0dlSlIyLW9jRFJEdFhfNWpwakJ3aHBvT3J6NEVOY1Z2Ql9ZUFNfVlc3dXRIaFhMNVE,English,,5,2013-03-27,Mark Govier,A lifesaver app. Must have.,it just work,,
KeePassDroid,Google Play,com.android.keepass,Z3A6QU9xcFRPR19CXzY5aGQ1dTN6NHh0eTZPcWZZay1YWWJqeG9XQ0dlSlIyLW9jRFJEdFhfNWpwakJ3aHBvT3J6NEVOY1Z2Ql9ZUFNfVlc3dXRIaFhMNVE,English,,5,2013-03-27,Mark Govier,A lifesaver app. Must have.,on all platform,,
KeePassDroid,Google Play,com.android.keepass,bGc6QU9xcFRPRWwyR3pnZFRURFFqc1dvMlFnMUpvVkpQanlIeEpNWHJ3d3dHXy12VlZ1QVpDQjhtMEdTUkVqY2I2bi14UDhlVkxIZVBFV0hVVUVKNEE5MEE,English,,5,2013-03-27,A Google User,Nice,solid software,,
KeePassDroid,Google Play,com.android.keepass,bGc6QU9xcFRPRWwyR3pnZFRURFFqc1dvMlFnMUpvVkpQanlIeEpNWHJ3d3dHXy12VlZ1QVpDQjhtMEdTUkVqY2I2bi14UDhlVkxIZVBFV0hVVUVKNEE5MEE,English,,5,2013-03-27,A Google User,Nice,it would be nice it allowed for selective export,,
KeePassDroid,Google Play,com.android.keepass,Z3A6QU9xcFRPRzV5VVpIMU9vMENtT0RuVW9hTk1vSFBjVWtiNzFaRHJ4bVExTGVDRHNHY0ZacjFHU21VNW43SjBuTElKa0xVVlpvQ1ZGOWdKU2NSVXBuRFE,English,,5,2013-03-27,Boon Siang Ng,Trusted,have been using it window and now android,,
KeePassDroid,Google Play,com.android.keepass,bGc6QU9xcFRPRlpPSVNsMmQ2Wm9mT2tPUjllZHl6SVN4SldhQ1BNSFpKVHdpT0d1NkktYTdURzdRejRxUVQ4bFprWUhnRlVzN3ZveXFNb3JjRUJJaFlsM1E,English,,5,2013-03-27,A Google User,From good to great!,really handy work great with,,
KeePassDroid,Google Play,com.android.keepass,bGc6QU9xcFRPRlpPSVNsMmQ2Wm9mT2tPUjllZHl6SVN4SldhQ1BNSFpKVHdpT0d1NkktYTdURzdRejRxUVQ4bFprWUhnRlVzN3ZveXFNb3JjRUJJaFlsM1E,English,,5,2013-03-27,A Google User,From good to great!,much better now there is write access to db and a password generator,,
KeePassDroid,Google Play,com.android.keepass,bGc6QU9xcFRPRW1NZTdBQUdseTN1MVliTW9JZkM2OVJKY2JfNFBTN3BZUFVCeUlnV3ZGSDdCdTVhai1DWDJObkhBT3NseHYxcW9ITEZMOFZGQjgycXAxYXc,English,,5,2013-03-27,A Google User,Great,a really great excellent it now ha write support for,,
KeePassDroid,Google Play,com.android.keepass,Z3A6QU9xcFRPRUY0cWt1NVRDakd4SmZhNGdtYl84WmFhczV1aDVsUm15cjlHd0pmMXd3NjI3a0p2Q1I5aXJqZjdBai1Hbzh3SVhBU0tmTVFyVGNXTEI1U3c,English,,5,2013-03-27,Alexander Tuttle,Great classic in it's category!,the usability of the android version is really great,,
KeePassDroid,Google Play,com.android.keepass,Z3A6QU9xcFRPRmJ6dVgzTnRDYzhQOThjd0Z1cHVidGc0N2I0MkN6cXhIbWs5b3FmM1JrOFhnRFBmMUNwdFBSZURDNDM3Z0s2S1lIb0Y1RFFLendDaXVDalE,English,,4,2013-03-27,Ram Challuri,Excellent,very nice never had any issue,,
KeePassDroid,Google Play,com.android.keepass,Z3A6QU9xcFRPRWxmanllN09VdG1oTmt0RkIzRTJjaDFEVXp5SGlKYjhVM05zTFpGU1EwbFhFOXZhaUg4aFVVaDZBVVNsb29CVVVBZzhpYlpwekluMFZIZVE,English,,3,2013-03-27,Manikanta G,,interface need many enhancement,,
KeePassDroid,Google Play,com.android.keepass,Z3A6QU9xcFRPRTBBbzc1X0FrSFdQdy1Ja3hYRHNFQ3FDRkpiOUx3VVFlOHA3UFptOE9aSU5xSUtmN3FINDRfa09UVGN0UXNDWVdkOEZVdWVhcDZsMk1pbUE,English,,4,2013-03-27,Eric Coates,Nice app,very good and very useful to keep track of my many password,,
KeePassDroid,Google Play,com.android.keepass,Z3A6QU9xcFRPR3hRRGNQRUt0MnF3OGQyaTBCVWFFX3lpSXh4WXphTFBtdHdfUkVGMUN1cHU1dmZzQUtFSnpwNXZGYklkWEw4bkJPMGVWRWQtQzJ0NDdGV2c,English,,3,2013-03-27,Sanders Tetteh,Needs inbuilt cross device sync,keep is superb a it is,,
KeePassDroid,Google Play,com.android.keepass,Z3A6QU9xcFRPR3hRRGNQRUt0MnF3OGQyaTBCVWFFX3lpSXh4WXphTFBtdHdfUkVGMUN1cHU1dmZzQUtFSnpwNXZGYklkWEw4bkJPMGVWRWQtQzJ0NDdGV2c,English,,3,2013-03-27,Sanders Tetteh,Needs inbuilt cross device sync,using doe not manage sync well,,
KeePassDroid,Google Play,com.android.keepass,Z3A6QU9xcFRPR3hRRGNQRUt0MnF3OGQyaTBCVWFFX3lpSXh4WXphTFBtdHdfUkVGMUN1cHU1dmZzQUtFSnpwNXZGYklkWEw4bkJPMGVWRWQtQzJ0NDdGV2c,English,,3,2013-03-27,Sanders Tetteh,Needs inbuilt cross device sync,you end up overwriting your database not careful,,
KeePassDroid,Google Play,com.android.keepass,Z3A6QU9xcFRPR2VQV0hBYnp6QUdoa0JfbmtPWUVOcjJ6TFJvZnVDNm1SczRjbHVIS1dEWVJpanNpdHdMY2hIZTNtdlBjRmJKQXBHTkpEWTdjcHBsS3l0RVE,English,,5,2013-03-27,Arjen van Hooydonk,My go to app,i have way to many password,,
KeePassDroid,Google Play,com.android.keepass,Z3A6QU9xcFRPR2VQV0hBYnp6QUdoa0JfbmtPWUVOcjJ6TFJvZnVDNm1SczRjbHVIS1dEWVJpanNpdHdMY2hIZTNtdlBjRmJKQXBHTkpEWTdjcHBsS3l0RVE,English,,5,2013-03-27,Arjen van Hooydonk,My go to app,is a life saver,,
KeePassDroid,Google Play,com.android.keepass,Z3A6QU9xcFRPR2VQV0hBYnp6QUdoa0JfbmtPWUVOcjJ6TFJvZnVDNm1SczRjbHVIS1dEWVJpanNpdHdMY2hIZTNtdlBjRmJKQXBHTkpEWTdjcHBsS3l0RVE,English,,5,2013-03-27,Arjen van Hooydonk,My go to app,great to now be able to edit file on android,,
