Topic Index 1,Topic Index 2,Topic Similarity
9,2,11.11111111111111
0,1,5.263157894736842
1,6,5.263157894736842
2,19,5.263157894736842
3,14,5.263157894736842
5,4,5.263157894736842
10,5,5.263157894736842
11,12,5.263157894736842
12,7,5.263157894736842
16,3,5.263157894736842
17,10,5.263157894736842
18,8,5.263157894736842
4,0,0.0
6,9,0.0
7,11,0.0
8,13,0.0
13,15,0.0
14,16,0.0
15,17,0.0
19,18,0.0
