Topic Index 1,Topic Index 2,Topic Similarity
13,1,0.34450000000000003
5,2,0.324
6,8,0.2703
9,5,0.247
19,3,0.21159999999999998
11,16,0.19669999999999999
3,0,0.167
17,19,0.146
4,9,0.1425
15,14,0.11249999999999999
7,10,0.1072
10,7,0.0819
2,15,0.07919999999999998
0,4,0.0
1,6,0.0
8,11,0.0
12,12,0.0
14,13,0.0
16,17,0.0
18,18,0.0
