Topic Index 1,Topic Index 2,Topic Similarity
3,11,0.6696000000000001
8,9,0.4656
10,15,0.4508
7,17,0.3188
17,10,0.25739999999999996
11,14,0.23009999999999997
16,2,0.1441
4,19,0.093
0,0,0.0
1,1,0.0
2,3,0.0
5,4,0.0
6,5,0.0
9,6,0.0
12,7,0.0
13,8,0.0
14,12,0.0
15,13,0.0
18,16,0.0
19,18,0.0
