# deletions,date,commit message
31,2014/11/22,Use gradle.properties instead of build.properties
8,2014/11/22,The versionCode and versionName are no longer build parameters
32,2014/11/22,Update iml files
12,2014/11/22,Show the weekday in the wearable notification
3,2014/11/22,Updating iml files
10,2014/11/22,Fixed colors on wearable
2,2014/11/20,Don't include the wearable apk inside the foss handheld apk
15,2014/11/19,Upgrade to com.android.tools.build:gradle:0.14.4
11,2014/11/19,Remove unnecessary manifest attributes from the wear flavor
6,2014/11/19,Use manifest merging to include the gms meta-data element only in the wear flavor.
50,2014/11/16,handheld.iml updated
3,2014/11/16,Remove the Google Play Services dependency from the FOSS flavor
19,2014/11/16,iml files updated
24,2014/11/16,Update the handheld deploy task to copy the apks for each flavor
5,2014/11/16,Moved most android wear code to the wear flavor
31,2014/11/16,Moved wear shared preference logic to FRCWearPreferenceListener.java
48,2014/11/16,Reorganizing packages
92,2014/11/16,Gradle files being automatically updated...
13,2014/11/16,Specify both version-name and version-code in the buil.properties file
22,2014/11/16,Renamed WearCommHelper to FRCWearCommHelper and AndroidWearService to FRCAndroidWearService
36,2014/11/16,Renamed FRCSchedulre to FRCWidgetScheduler and ScheduleUtil to FRCWearScheduler
0,2014/11/16,Renamed FRCAndroidWidget_gradle.iml to FRCAndroidWidget.iml
3,2014/11/16,Use 21.1.1 of the build tools.
11,2014/11/16,iml files updated from Android Studio
177,2014/11/08,Squashed commit of the following:  commit 11a12d400e117a645b8172b7649b3251bf53c1a1 Author: BoD <BoD@JRAF.org> Date:   Mon Nov 10 23:12:20 2014 +0100  Re send the notification when changing language and calculation method.Re send the notification when changing language and calculation method.  commit 0126f11c51a107b94ee643c753df4825ba607bbd Author: BoD <BoD@JRAF.org> Date:   Mon Nov 10 23:01:11 2014 +0100  Service scheduling and other things.Service scheduling and other things.  commit d731f9dc77d3f7248be43924550b876fda4430d2 Author: BoD <BoD@JRAF.org> Date:   Sun Nov 9 19:08:26 2014 +0100  New wearable and common modules.New wearable and common modules.  commit 2e6dde66ce1f846860afcf18b51c9f516d4dc120 Author: BoD <BoD@JRAF.org> Date:   Sat Nov 8 23:31:30 2014 +0100  Gradelification.Gradelification.
3,2014/11/02,Issue #7: improve shadow of letters in the minimalist widget
4,2014/11/02,Issue #7: correction for minimalist widget
8,2014/11/02,Ran UCDetector
2,2014/11/02,new version 1.3.0
60,2014/11/02,Isolate code common to the scroll and minimalist widgets.
55,2014/11/02,Issue #7: Draw the minimalist widget to a canvas
