App,Store,App ID,Review ID,Country,Version,Rating,Date,Author,Subject,Body,Translated Subject,Translated Body
Hangar - Smart app shortcuts,Google Play,ca.mimic.apphangar,Z3A6QU9xcFRPR2QyVlg2ajBqWjlsTW9pQmdfcXNSbTU5d0FCcjR2amtfbjNWYkZfU3ZQcC1IRjdXd3hBNUlaUmRlR255aTlKZVV5WXA0cEpURmNZNGdfV0E,English,,3,2014-12-07,Hannah Hardy,"",Was OK when I first had android 5. Had to do a factory reset now the only icon it will show is itself!!!!!!  Don't want to have to use a different one so please fix. Was good but now crap. Perhaps it caused the need for a factory reset? Who knows!!,,
Hangar - Smart app shortcuts,Google Play,ca.mimic.apphangar,Z3A6QU9xcFRPSFFnVWxHWGhmdWVJN0M2RjExdEtISGpTZ3ZodU9Eall1QTFleGs2MGRFVGdSRVU5aEF0Tnhud1FBWXpieFhuVXJoRlpHdnNlSGRzZExxY1E,English,,5,2014-11-28,Søren Pingel Dalsgaard,Icon packs,Will you support icon packs?,,
Hangar - Smart app shortcuts,Google Play,ca.mimic.apphangar,Z3A6QU9xcFRPR0dSTW5OSnIyaUphdldsTnp3SmJhSGJFZERENEE0YmNnREZ6VzQ3emlSRnU1d3ZSbTY5eXNCcmNJLXhyTEU5RFNwQnFJYU1jS2NENXdXQlE,English,,3,2014-11-28,"",Problems on Lollipop?,Doesn't seem to dynamically update the list on Lollipop. Known bug? Some setting I haven't set?,,
Hangar - Smart app shortcuts,Google Play,ca.mimic.apphangar,Z3A6QU9xcFRPRlVoMTZubHlUVGp3cjVDZGRLeF9rZjZHRkRCMkFYc0k4RG1mNVBRSXM3Wlh2ZWlGNFNNUnh0VVEwRVo5eXJReU9MeG9CY1RyTW5jSVVOalE,English,,4,2014-11-27,Anika Javaid,Samsung Galaxy Grand Duos,Handy app but just wouldn't work soon after I installed it.,,
Hangar - Smart app shortcuts,Google Play,ca.mimic.apphangar,Z3A6QU9xcFRPSE13alpMZW1PdzU4dU1SVG5lbUFOR0gzd3RFWXFuSXN2UHcwc0xjUUhHeTVZTE5SSlVFUEVQeTl2ZjBkTDBBanVtS0NEU2h5RjI0a21aWGc,English,,5,2014-11-26,Krystian Chynal,Awesomely useful app,"This is a perfect app for those who want quick access to either their most used apps (automatically detected), or like me, someone who pins those apps I specifically want quick access to. After working out some bugs with the dev, app works perfectly now.",,
Hangar - Smart app shortcuts,Google Play,ca.mimic.apphangar,Z3A6QU9xcFRPR3dZcUN1X0EtWk1kclZQeXVZak9pUFhDbVItX1NUTGg3ZGZqajdnb0hCd0xJRUFEeXctT2RZUm5TNlFqYXhJeUxQSDVHSTkzNVJvaXh5TUE,English,,5,2014-11-25,Geet Deogaonkar,"",Extremely Handy!,,
Hangar - Smart app shortcuts,Google Play,ca.mimic.apphangar,Z3A6QU9xcFRPRm4wbVhFMmQtaVNxVWMyYndFb1RqdU9FVVdsQkRGX3YwWk1LR2FwLVFDVUpxd2xxT3c0R1hMRXVjZVRkZzRzTllpZnN3YnhXRV93Z29yeFE,English,,5,2014-11-25,Asela Sandaruwan,"",Very handy app!,,
Hangar - Smart app shortcuts,Google Play,ca.mimic.apphangar,Z3A6QU9xcFRPRlF2eEZfRW1mV3RGTW5DN3BPZW96UWVGUkhXQXBibURnZzdlbnhBbURTTkVVLVJTUHIwa1pEYnJiTmoxd1E5YVJfRTdxTjhBdjh6cVVPV2c,English,,2,2014-11-24,Tahir Butt,Not working,Like the app but only if it worked. Its not pinning any apps for me. The widget stays empty and so does the notification bar.  Reply to Jeff: Well would love to test but it has to at least run first.  :) Its not doing nothing so there is nothing really to test.  :),,
Hangar - Smart app shortcuts,Google Play,ca.mimic.apphangar,Z3A6QU9xcFRPRzJHMHRvUkhCMV81R1lTbEJxMlhGdUFvS0pfdXJNQ2V1Vk5CakV0RG05aVIyVUFwZ1hncXFqdXdNU05zWVJHV0o5NV9nemNOY2JNQjl6VXc,English,,2,2014-11-24,Rahul Mahtaney,"",One time use app,,
Hangar - Smart app shortcuts,Google Play,ca.mimic.apphangar,Z3A6QU9xcFRPR2pnOEpzS2N3QXh5MUVlTWxvZ0pmd29VTzdkN2ZSZjd5LV9TQ29DWnpjR0ZzczJOVmV0UDdwUFh6RXdBVzEtdjVEZkZLa1BXU2s5dlRVcXc,English,,1,2014-11-24,Raymond V,Lollpop,It's not working on Lollipop! Major bummer...loved this app!,,
Hangar - Smart app shortcuts,Google Play,ca.mimic.apphangar,Z3A6QU9xcFRPRnZScmpCdDdLVW1rRV9PVHNobUpWcHE2dTRwLTFXT0FJd3plbS1VeWZBWUJHRjNEc3pab2ppRVFYb0xfcVJyZExneGxxd0tPSmRUR3pSR2c,English,,3,2014-11-24,Joseph Egbule,Love it but,Does not work on lollipop. The apps I have been in won't pop up so I can select them to be pinned.,,
Hangar - Smart app shortcuts,Google Play,ca.mimic.apphangar,Z3A6QU9xcFRPR3hzeUJvdUx6OTMwdHZNcFRfdFF4MFJMZmI1bXlhSzZTNGlic3RRQzE2QUlPWEZ4VU5GaDRneFRTc0p0QXRfSXd6OWpSLXhrLVB1ZGt0LWc,English,,5,2014-11-24,Daniel Rice,"Does what it's supposed to,","and does it well. Cheers devs, i love it! Thanks. Everyone out there, download this app.",,
Hangar - Smart app shortcuts,Google Play,ca.mimic.apphangar,Z3A6QU9xcFRPRTNnYUdXeWhZZ2d2cDh0ajN5QmF4REhwd3BiRVhEazBaRnR5aUlTLW9zX0RmamZpeGs5em9HcEplNzRieklZLUhab0prUnBYU19PNk9ZeGc,English,,1,2014-11-23,Dan Delosky,Didn't work on Nexus 5 with Lollipop,The only app that it ever detected as running was itself.,,
Hangar - Smart app shortcuts,Google Play,ca.mimic.apphangar,Z3A6QU9xcFRPRjVJSldlODNrWWg1VTRuX085blpZdE9TOEJUNVVtYy1lSDJDN3ZrQXdhR2tYUWRJTEYxbW5BLTd0VnZuaFRpbWRzNXp2cEVidXNWY0VCanc,English,,5,2014-11-23,Shj Y,Very useful,"It's very helpful for me to access frequent used apps, and there are enough configuration you can choose. Highly recommend.",,
Hangar - Smart app shortcuts,Google Play,ca.mimic.apphangar,Z3A6QU9xcFRPSGNPTnV2a2diNllsckdXWUtaMmdHQUtWOHI4dnY1Tkl5RnVsdHhlSmdpcC1TaldJZE4yRHRNWWlCMmxlQy01LS0zOGVNMDRWdHhGMlRseFE,English,,1,2014-11-23,Gerik Fon-Revutzky,Doesn't work!,"Sounds wonderful, and like what I want, but app list &amp; tray remain empty! PLEASE FIX!!! (Android 5)",,
Hangar - Smart app shortcuts,Google Play,ca.mimic.apphangar,Z3A6QU9xcFRPSEtlOVNCQkpRdzZvZmVIQ3AtODcydVg5QUFsUTlnMkl0YTN2aU5TcGczUlFWVHVaeE53R1Q2NWE1b3J5ZlBYNGEtMEE4S0g4TUlEdnV6U2c,English,,1,2014-11-23,Marten Gallagher,Android Lollipop not working,Does not register any apps on Nexus 5 using Lollipop,,
Hangar - Smart app shortcuts,Google Play,ca.mimic.apphangar,Z3A6QU9xcFRPSHM0dHJGN1JCWUFaYUtuczY1aDRyWlJoM3JOS3lrV01jNGZyeld6cFNsTWxWM0d2SldYREoyeXdGa2RQNGlIYnNEQ2R4YVVvbG41R2J0cmc,English,,1,2014-11-22,Neill Ryann V,Fix it please.,"4.4 KitKat on nexus, it was working.. On 5.0 lollipop.. No app history, just the hangar app ang google search.... No other apps.",,
Hangar - Smart app shortcuts,Google Play,ca.mimic.apphangar,Z3A6QU9xcFRPRmdGZXhPVG9MWXcyVWlZZDNjMHlYT0l0YU8xVWVmSTFRcGNfQXMwemVYY2JJejdoVU1hRHl6MV9yQjd4VVRoV2VmZk1PVHdnZVZlM2UtRnc,English,,5,2014-11-22,Kevin Karth,Can something this simple be this good and this productive?,YES!,,
Hangar - Smart app shortcuts,Google Play,ca.mimic.apphangar,Z3A6QU9xcFRPRjBtU0ppQlBHLWpSVk1oeGxOZlVjTXYyYU4xRTYtS3JJTUg4TUtnOVdVaXlMWkFOMkQ2c0EtVmJMSlJtTGs1Sy02OUpJQko2VmJ4OEFnMGc,English,,3,2014-11-22,Santo S,Icon pack does not work,After installing this app I installed Moonshine icon pack &amp; made  changes in the app. But it made no change to the notification drawer icon color. However icons got applied in my phone which has Kitkat 4.4.2. Let me know if there is any fix.,,
Hangar - Smart app shortcuts,Google Play,ca.mimic.apphangar,Z3A6QU9xcFRPR25IZ3FYZExvZjkxYWJXVWsxYzl5UHY5QW11UFZjSmxEQ210NXhPRFJBdW52dTRrOWN2OWpxNE1Hb050NGFSd3lQdXN0M1NpNDhNckhMSVE,English,,5,2014-11-21,Steve Guccione,Awesome app,A big time saver.,,
Hangar - Smart app shortcuts,Google Play,ca.mimic.apphangar,Z3A6QU9xcFRPRTZqVmprTUJJVUhiZWpxeEp5QmhjUERaZ1RiLUJONy1GcktGNXl6cjVSTnRuOGJkMnlUV1BmOEFtWEZPZTd2M1dLQy1JVTlHZFBBNVlhU2c,English,,4,2014-11-21,Brent Seepersad,Convenient and non-intrusive,Quick access to most recent and most used apps. Not unlike any other task switcher. Just another quick option to launch apps. I particularly love the icon pack support and customization.,,
Hangar - Smart app shortcuts,Google Play,ca.mimic.apphangar,Z3A6QU9xcFRPRUpRN0dMRmQ3SWxGUXRkaFA3NGN5U1lTTlFyN1VTa1RCV0I0VklrZjEtZTNUcjMzZ3hhSUdCbGJnQTlEQ1g2WGtRNDFPbkZya0xmQU1QY3c,English,,5,2014-11-18,Tomer Tsadok,Working very well,"Very useful and time saving, highly recommended.",,
Hangar - Smart app shortcuts,Google Play,ca.mimic.apphangar,Z3A6QU9xcFRPR3ZKZkpfX1V1bnJLYmhHYml3M0pycm55YmRMZFVZeDRZVzhmQVBVWGp3eHpNcHNpb1BtNE5jMWNXLVF2LUtMZWxFcGRTNlpWQ2ZrbDVXOHc,English,,1,2014-11-18,Richard Robinson,not in Lollipop.,Doesn't work.,,
Hangar - Smart app shortcuts,Google Play,ca.mimic.apphangar,Z3A6QU9xcFRPRXgxajNlamdaXy1CTkVfMFJXV0syd0RzY090cTQ5Q0dIdC1KZ3BfMmtiUW14emRpMF9yTENXbjVJeEg1YUo3WU0tSjNCeG5hUEZSQXFFU0E,English,,4,2014-11-16,Constantine Korobov,"","Please fix for lollipop, only two icons all the time ):",,
Hangar - Smart app shortcuts,Google Play,ca.mimic.apphangar,Z3A6QU9xcFRPSDM5cG9EMlZLWW1pQjJZV0FJRDhMY1lWNEE0Y2ZiRHlzb2t4Mm53WW9ZUnhXWTJHd3JnRDE4V2ozOHE4YWxNQmF4ejZVcXVWc3gxNERHVXc,English,,5,2014-11-14,Bryan Ibrahim,MUST HAVE TOOL,Makes Android life much efficient,,
Hangar - Smart app shortcuts,Google Play,ca.mimic.apphangar,Z3A6QU9xcFRPRmtoSHV2ajBTcTFncWR4aWItRjZ6RklvM0RIdUlDQkd3MEttUW9LZDFpVFFVV241aTNrWi1CQ2EzV0tHclpjckNZMHc1LWhWX0VRd1BxX2c,English,,5,2014-11-14,Christopher OCallahan,Love it.,"Hangar quickly became a go to App for keeping my homescreen less cluttered. Absolutely fantastic app. Sadly, current version does not seem to work with Lollipop. Really hope dev gets around to an update.",,
Hangar - Smart app shortcuts,Google Play,ca.mimic.apphangar,Z3A6QU9xcFRPR3pCWlUxeTM4RUdNNGJrX3FVVW40NEI4REY5WjM4ejRWX3k3MUtTREZ4Y0U1ek9yV1Bva3V5VVJEODNpakthWl9uZ1JVSUQ4elRST2pHbkE,English,,3,2014-11-12,Joe Wu,"",Not working in Lollipop,,
Hangar - Smart app shortcuts,Google Play,ca.mimic.apphangar,Z3A6QU9xcFRPRzVjdFV0dk41a3dCaDQ2WTkxeFpNSjJRcHZxVjRJa0lfWklVTTI5RDktXzExUGh2eXhUX2QxWEdDdUxlRmlnNTlzVXhjVERtSW1DSkhuQUE,English,,4,2014-11-06,Okto Aditya Suryawirawan,Just 1 'but',"This application is so good, since I like my front screen clean. There is just 1 single problem, all app treated like they were opened from the first time, not picking up from where I left off. I hope in the future the devs would do something about this. Overall, it's still a great app. Might re-use it when somehow they add a feature when instead of always opening from the first time, you could pick up where you left off like how a task manager would do.",,
Hangar - Smart app shortcuts,Google Play,ca.mimic.apphangar,Z3A6QU9xcFRPRlJTM1ZXTEdaYVkxSGJnZzVvNklkMThGSHFxcENDTXFzM256RU54dWRJVlNKQllyeG02MjEwbFBnQVlKZGNwQ0dkSGRZaGhXc0dwTlYzd3c,English,,4,2014-11-02,Chirawat Tony Bodeepong,"",Almost perfect,,
Hangar - Smart app shortcuts,Google Play,ca.mimic.apphangar,Z3A6QU9xcFRPSGswbUQzM0MyQm5OT2M2Wk94VlYyaWdNcDNQbVNIVUdKbDZqdkN2UXFsUUZicjJKM091ZnZJdm1wcHZ6MFhYcl9ybmNLbDlPYmV0UXdyMVE,English,,3,2014-11-01,Jason M. Townsend,It's Ok,"Just not for me. Figured I would give it a Try. It works fine, IMO it became more of a Nuisance than Help.",,
Hangar - Smart app shortcuts,Google Play,ca.mimic.apphangar,Z3A6QU9xcFRPRThJU2phdHRPaUMxdDVfWkUwZzFCWlEwU19UWllJYzdiTC1tcjNjeGhFYWlkQktQQ3hVa3NQVEpybEM4UEVVNmlISUpHNUtxNDM3b3dwU0E,English,,2,2014-10-29,Ajaz Wani,Hangar,It really hangs heavy on you! Had to delete it.,,
Hangar - Smart app shortcuts,Google Play,ca.mimic.apphangar,Z3A6QU9xcFRPRjQtVzI5YksySzJaRDAwUE14eUo0amkzOVB2UzFCNVZXQndMY3YxMnhBSVkzNjJEVjJ1WGhmNVZRcFJwTUZ4R2Y2dFd3M1ZSZXE0STJJWkE,English,,3,2014-10-29,Daniel N.,There are problems,"It doesn't keep my manually choosing icons and the same also apply to the ""next page button"" when I reboot my phone,  please fix this (anyway,  it's an amazing time-saver app)",,
Hangar - Smart app shortcuts,Google Play,ca.mimic.apphangar,Z3A6QU9xcFRPSEM3em1maF9RN1dFU3FIaUlkR2k3VzN5aExMakJuYUhzZWRTcFhTV1NlaWRESDZTbWw5dW9OV04zVXR5b2x1bDk3Nm5UblpMSUdKR0ZQSWc,English,,5,2014-10-28,Simon Carter,Great,"Really like this. Looking forward to icon pack support. EDIT: icon pack support is good, but needs to support icon masking.",,
Hangar - Smart app shortcuts,Google Play,ca.mimic.apphangar,Z3A6QU9xcFRPSHlUSmVpRHBjS21HTGt3VFk5NHRyeFJoTmFDbjF3NmZ5dWxmZ3IxWVZqTWdkSGtrdWU1bTdhRTkwX256M2lMU3JfeThTa0J3eFpNRUlyaEE,English,,1,2014-10-27,Derick Wassabi,"",BIG PROBLEM.  PLEASE FIX IT OR YOU WILL DUE.  LOL. In from the philippines,,
Hangar - Smart app shortcuts,Google Play,ca.mimic.apphangar,Z3A6QU9xcFRPRUpES0t3SWg1LWNoazczYlkzSlYtTDRURS1iVWNFdU9LZDB5bEU5T3NwUlpieHpXUDRrN01XcHBtN3NQRWtYUjUwdjhhUklqMkVKOWVhNWc,English,,5,2014-10-27,Pawan Sharma,"",Beautiful,,
Hangar - Smart app shortcuts,Google Play,ca.mimic.apphangar,Z3A6QU9xcFRPRjdHRy00YlpldjU5S2I4TnJuQndHUWRORjBfR2h2QXlvam0wQW9DYzhIZHRSY2ZZVVl3QTlCTXN2dG1HSmgxTldSczUwU1dxWVIyMGZqU3c,English,,5,2014-10-19,Abbie Aristyarama,Very useful!,"If you a user who needs to swaps between apps fast, this one will help you A LOT!",,
Hangar - Smart app shortcuts,Google Play,ca.mimic.apphangar,Z3A6QU9xcFRPSHo1Z3g1VFU4TTlvMGlEVVltcWx6RGxLWjU5X3VZYU4tNElZUXpVOG1xU2hCSllYVmpPS2QtZDE1eWRxVWR0LUp1ZXc5RHBPc2ljTXNLT2c,English,,5,2014-10-15,Shanna Paul,Cannot say enough about this app!!,"Honestly hands -down best developed app out here! Only reason I hesitated at first was I assumed this app would require a large amount of space(as with all constantly running apps). Idk how the developer did it, but Hangar has never gotten above 7mb! Runs constantly, actively learns and stays between 4-7mb. How and wow??!Performs flawlessly, apps change based on usage. Would pay for Hangar...and for developer to make all my apps run like this one! I sure hope Jeff Corcoran becomes a name I see a lot of!!",,
Hangar - Smart app shortcuts,Google Play,ca.mimic.apphangar,Z3A6QU9xcFRPSEFfbFRKQm1wTE8zOTdUcmZzTzZXTTZORGdCOW5QZlF5eXUyTThBR1NlR0VVWGpObnppYzZVNF8yVXFXTU1YTnp1TjhZQjhmSXFydmh1OFE,English,,5,2014-10-13,Dat Thai,"",Crash on start :(,,
Hangar - Smart app shortcuts,Google Play,ca.mimic.apphangar,Z3A6QU9xcFRPSE9MSk9ISzc2U0xhR285S1lwaGM5YXowZXluNnpSRkRVb2ZXNmsxZVl5ckQ5aEJ6cEVxenQzcDMxRmZ0aHBPMmQzRjNDU2Y4LVBkaWZsZkE,English,,5,2014-10-12,Chaitanya Nettem,"",Very convenient!,,
Hangar - Smart app shortcuts,Google Play,ca.mimic.apphangar,Z3A6QU9xcFRPR3pxcm5ETVNadVNlV0Q5YVp1SGxGTHNSYVpmZkZWa3BNbHNzdS1wREJ1TlVaaDVOdkNLZjVibXYzcnFFcmt1SFJ5YWptdmxMR2IzUVp2b2c,English,,2,2014-10-12,Stefan Fink,Huge bug,"Every time I restart my phone it dissappears, and only way to get it back is to re-install the app.",,
Hangar - Smart app shortcuts,Google Play,ca.mimic.apphangar,Z3A6QU9xcFRPRUMxTkk5Q0JJV3BNX1AyYmp0dXB0SjN3WnVoMm1RbjZ4Tk9mWFdIZzRxT3poNm1IeXRzNV9GQ25nOGtiVkgyZ1VQWmdHSUxxRTd0UVZLQWc,English,,5,2014-10-12,Tyson LeForgey,Almost perfect.,Hanger has gotten it right. The only improvement I think it needs is a way to organize the pinned apps the way I want them. Other than that it's flawless.,,
Hangar - Smart app shortcuts,Google Play,ca.mimic.apphangar,Z3A6QU9xcFRPR3I4X2cyRldScEFoTFc4bEJyUl9xc2dibzFxUkJhc09IekJYVFczSmJhclJnb1pGWW12SEd5Y29jRlNoS0J3U1N4TF9EZThHdXE0eHh6OWc,English,,5,2014-10-11,William Letkeman,Good,Keeps your notifications useful.,,
Hangar - Smart app shortcuts,Google Play,ca.mimic.apphangar,Z3A6QU9xcFRPR0pRUWhjZTFEWmVaSkdEc09xWnJQcnpCRk9OV1B3VVEtZHhUQ25zRnpfYk9WQ25MX3RxVmRQaVdFUDMzaU1Wd1k3dHk5aG9lS2ZIUlFvbUE,English,,3,2014-10-07,Gary Maggott,Won't load on re-boot/re-start,"The notification bar will not show after i restart my tablet, the only way to get it to show again is to uninstall and re-install. If this can be fixed def 5 star!",,
Hangar - Smart app shortcuts,Google Play,ca.mimic.apphangar,Z3A6QU9xcFRPSDZfVmZlZENkeU9aTFFidi1vTTRJd2x1bnF0Rk1vWTZrel92U0MtUWpMVnE2VnF2UFU4ZEh0QTA1OXphVHgtOE55LVRSSU1Vdk1oUTl4UWc,English,,5,2014-10-03,José Luis Amat Perseguer,Very handy,Very useful app!! Congratulations!! Please develop this one for iOS8 😊,,
Hangar - Smart app shortcuts,Google Play,ca.mimic.apphangar,Z3A6QU9xcFRPRV9RTVhSelJJNlNBSnczaUl4VWdZT0lhanE1MS0zV0JpekVKdWw5X05keXZ1LUQ3dmczbGVndXBGRW5ZQWZVRDlJaW1WaXhhb3c0VFJldXc,English,,5,2014-10-03,Simon Dennis,So so simple,This is brilliant. One day this will be incorporated into Android and I hope Google give you lots of money!,,
Hangar - Smart app shortcuts,Google Play,ca.mimic.apphangar,Z3A6QU9xcFRPR2hmaFRhN2RpekJzQUNvWFJYT2ktcUZEaGRQa0tqd0VTTjk3dU5TZ092aHYtOEt0OEdZakNPTzZacWV1TV80c0JDSnV3Zjk5VVBIeC1ZLWc,English,,5,2014-09-30,Joseph Jr. Araneta,"","Quick, useful, clean and it works",,
Hangar - Smart app shortcuts,Google Play,ca.mimic.apphangar,Z3A6QU9xcFRPRjlhTUNXNXdNUHlRTWg2S3JBT25ZTTkxNFc3Y0FQcmh6U3M3bThiQkk0UFhSN0x0X0Z0MnkzU2d5bk5hWS1LMk5NVlhkaDg0Z0R3eDduemc,English,,1,2014-09-28,Deke W,Didn't work,Worked for a day then just stopped and now won't display at all. Uninstalled,,
Hangar - Smart app shortcuts,Google Play,ca.mimic.apphangar,Z3A6QU9xcFRPR3IxcXAxd0hjbDJvUVVLNEd1VFFZeHpZTGtLR3JLSmdqSWQ3a2VZdlFXcTF0ckNibERQVGJEZE1uUU5PaGlxTDlwYmFhZVJkNU9XWkR6QlE,English,,5,2014-09-27,Triet Vo,"",Good app for controlling notification!,,
Hangar - Smart app shortcuts,Google Play,ca.mimic.apphangar,Z3A6QU9xcFRPR2phLWxHQWotMU9NZWhFdGxXODNXaVc3UDFma1pzQmZVUXZTT0dyRnNzWHd4bHA4eU5UaTJPdHB2VW5MMWtHcTczSV9ZcTgwa2NuNU1BN3c,English,,5,2014-09-27,Benjamin Woods,Get it Now,Defiantly a pretty helpful all. Stop reading now and download.,,
Hangar - Smart app shortcuts,Google Play,ca.mimic.apphangar,Z3A6QU9xcFRPRU5QeGo4by05N3RpOV9oanlOa3owRHpybGR4MXNMQ1Z1LWVoOU9BTFVjU0pzQ1VKS1JheFY0ZzlPSkwyczBtRVA0eW92Ny02MnRFSUZURkE,English,,4,2014-09-27,Ronak Dhakan,Good but not what I want,The notification bar works but I don't want it. The widget was acceptable except that it did not refresh. I actually wanted an app drawer. May be the developer can add it.,,
Hangar - Smart app shortcuts,Google Play,ca.mimic.apphangar,Z3A6QU9xcFRPRUNFTGRpNjh1bFJiaGZZbjhsSk9yQzVUMTlxZlRvQkxqTVgweTJROW1OdUlOaTVIdk9KOUl6bUdXTE9MZGJrZ19tQ0FmVElZay1XNGs4U0E,English,,1,2014-09-27,Joseph Tammaro,Another crappy app.,It weights the apps I use the most. No. No it doesn't. Uninstalled it after a week.,,
Hangar - Smart app shortcuts,Google Play,ca.mimic.apphangar,Z3A6QU9xcFRPRUxYeG1OUko1cVRzd0tTaHNVQ3RZVktLNGNRMmJSM2R5dEJuRE9sUXBLU29XNTZCNFkySHNnSS1lSFgyeUhqaFZSQk1fTkVjWWZZZzkxc3c,English,,5,2014-09-27,Przemysław Sakrajda,"",Just brilliant!,,
Hangar - Smart app shortcuts,Google Play,ca.mimic.apphangar,Z3A6QU9xcFRPRzBoXzNBWHJ5QXVSbjBOOFVKam5YcVJhZWVCazhpbjJiN25Kc0U0UnRvTzZCWi1lWlZHS3NTZnJqWUM1Y1hOR0FmVXczNkg0U2E5WHVSWnc,English,,5,2014-09-26,Gaurava Gautam,"",Handy and Impressive,,
Hangar - Smart app shortcuts,Google Play,ca.mimic.apphangar,Z3A6QU9xcFRPRjV4RjR0cjJ2QWZ4T1l1bzhLM19UdWEzRFVPdkQ1VjQyVlJEWVRHaWxHSnZkZHNRWXN3RFAxU0R1eng2WWI5V2JQb0JJTWx3WExNWXMzWFE,English,,5,2014-09-26,Saurabh Pradhan,Good app,Saves time.One request just give an option to choose the apps on the notification bar.really good app otherwise.,,
Hangar - Smart app shortcuts,Google Play,ca.mimic.apphangar,Z3A6QU9xcFRPRk9iYnhjUjJFZGx3YkVmTlVrY0JUaU1DZW9yUW5VZkxXM1ozZldtN2RQcVVBX1pVOWpyVVpjNGl6X2p1V0pkcGpUTVlwTHVPUEJLWDZOSmc,English,,3,2014-09-26,zaini Ârt,Not really,"Need an exception or exclusion list. Not really useful to me, uninstall it for now.",,
Hangar - Smart app shortcuts,Google Play,ca.mimic.apphangar,Z3A6QU9xcFRPRU1jT0ZtRTJTdnFzTXlaaVRUNVU2a3VJT0gwcVVtT092bFVTdWREZWw1V3pHVDB5RGVIMWFxQW5NTTBxZFBWd2pqWnRXOURnVVJmdjQwbEE,English,,1,2014-09-26,Matthew Koehne,What does this do?,"Nothing, its pointless and takes up memory on my phone. Thats all it does. Dont download",,
Hangar - Smart app shortcuts,Google Play,ca.mimic.apphangar,Z3A6QU9xcFRPRmtTR0JWRXFlUUp1LUl3RUFuamhibDNWTFBpNzFWSzdvd2Z5YTk4RnhpazV1cjc3ajFBU2Z3RGFUOUVZTXY4LVkxSFNrSU1STTdTSFVrS3c,English,,5,2014-09-25,Peter Campbell,"",Great,,
Hangar - Smart app shortcuts,Google Play,ca.mimic.apphangar,Z3A6QU9xcFRPRVZPTkxGZFNMSHJFcTZyejJleW1SenJKWVlPYUFZZURRUTV5dHNaclU0eXVkZ21lVURkY3Q5eEIycnp6NUxab2JfNUlyVlNMWUlsSDdZanc,English,,5,2014-09-25,Kester Duck,Just what I've been looking for,Had a similar feature on my old HTC sensation and missed it sooo much when I changed phones. A really handy app,,
Hangar - Smart app shortcuts,Google Play,ca.mimic.apphangar,Z3A6QU9xcFRPRkJrTGtZRThCeHB1a3JKNjU0U3R3SWxsRUl6TmJ3WUpZWnpORHpReVI5MFBuN19zWFdLREloR0hlQUQyYnFic1plY1VBZ0ZNR05hNWlabmc,English,,5,2014-09-25,Phantom Riot,I'm SPEECHLESS,…,,
Hangar - Smart app shortcuts,Google Play,ca.mimic.apphangar,Z3A6QU9xcFRPSGY1c0lQZ0g1VUFneXRwT2h5amo0ZC1fSG1sUGF5NVFaNE1FQk9vaWRzend5SXlFbTV1S3pSWF9tRmtxaU5fLVk1ZWFxcEJXSHBmalliR2c,English,,5,2014-09-22,Paulo,Feedback,"Just wish that it was easier to lock the apps you wish in the bar, instead of the ones that i use the most",,
Hangar - Smart app shortcuts,Google Play,ca.mimic.apphangar,Z3A6QU9xcFRPRldpWG5TN29ON1UzUlRWLTBwYU55ZGxiejhUMFpZLWpmcTBiTnZ4NkVRZGFicnlYR1Y5VkdJZWpaTmU3dmFYQUVaQm5kc1A3d3E2bWVQX3c,English,,5,2014-09-21,Rizki Ananda,"",Perfect,,
Hangar - Smart app shortcuts,Google Play,ca.mimic.apphangar,Z3A6QU9xcFRPRjZaa0p0TlMxZnBhNVJNUVRCWlFJSTNfRGF4SkJCc29ORHlCTk9uUHJFelFid0Y4TGlPNk5nTV9keHBMaVN3VU5WX2oyNmFmdGpxZlFQRVE,English,,5,2014-09-18,Tyler Hopper,Love it,This app is fantastic for reopening things quickly from my notification bar,,
Hangar - Smart app shortcuts,Google Play,ca.mimic.apphangar,Z3A6QU9xcFRPSE96UGZCdEZVNXZ3WXhUc0VUZnM1VEtlU292U2tCMjhVS0tIWGZ2UEFycnJ0Tk1NcTh2d2FJMHJEemVSMEU4V3A0RU1lUEJsbkJxMklvNGc,English,,5,2014-09-16,Joseph Naoki Groves,Change in stats widget!,"Would love it if you could set the text to white and add drop shadow to the stat widget, so I can see the text against lighter backgrounds. Thank you, great app.",,
Hangar - Smart app shortcuts,Google Play,ca.mimic.apphangar,Z3A6QU9xcFRPRllNVjlyLWd5Q1FwM1Ezb191eHJQNTdVN1Brd0ZmNkVBZlduSFNncm1rWWY2MmU5ZlpjMXJfSGU3RVpRODY4YmVFVUdIVlBfUTdWTkZvc1E,English,,5,2014-09-15,Ryan Pardue,Give it a try...,"I never thought it would be that handy until I started using it, a real time saver!",,
Hangar - Smart app shortcuts,Google Play,ca.mimic.apphangar,Z3A6QU9xcFRPRlFGYmIzYTFYMWVCOTNQeGwwTGdLajNZbVU2MnZQQnRRWlRiVTJPYVJMbGpDdlRyT1pEcEVTRjhpN0pna1NxZ0hNSURsWXF3TElLYjNuNnc,English,,5,2014-09-15,Matt Smith,One of the most useful,I'm impressed with this very useful works good a great job all around,,
Hangar - Smart app shortcuts,Google Play,ca.mimic.apphangar,Z3A6QU9xcFRPSEZoY3lJSGdvajBocHltWk1hTXdVNW51cUxyclpSdGhOOVlrN1dnWkpOZmJibVIxTUJULUZZZkFvSmw4Ylc3NVJzX0Vjd1JrUjBPSll4d2c,English,,5,2014-09-15,Alca Idol,"",Awesome and useful. Install this app immediately!,,
Hangar - Smart app shortcuts,Google Play,ca.mimic.apphangar,Z3A6QU9xcFRPRnlwQjc5bzFVWDBsb0VhekJJcVZTbjhtSl9VMVhidEp6YnNhaDhRQ25iM0ZKLWdJdmxzYlg5blFsUVB0RVo0X1pTbkpNNXBUZXRsQzY0eEE,English,,5,2014-09-15,Abbu Haleema,"",Awsome,,
Hangar - Smart app shortcuts,Google Play,ca.mimic.apphangar,Z3A6QU9xcFRPR185dzZ6QjhlNFVlTDhycUJ3UGNUbXBMSzJJTmtpbS1lMWJYZVRtS1JObi02dUY5QXZ0YkZWZjNpcHNaRXhIUXcwQjM5bmtwSVF0UVhvVGc,English,,5,2014-09-15,Semage Namal Surendra,"Very cool, but How to Floating Window???","What are the supported ROMs, for floating window feature? When activating floating window feature from behaviors it says, ""Supported in XHoloFloatingWindow, AOSPA and derivatives."" Anyway its a very handy app i have ever use. Thanks",,
Hangar - Smart app shortcuts,Google Play,ca.mimic.apphangar,Z3A6QU9xcFRPSHJvdDhLU3U4U0drdGlXeVB0WTVfVVNJOGNPUVVuanZ1MkJiekZWZjFKS2hWOFROYzgzRVc4Qk55U2stekh5Znl2ZWh0YlA2azZnMERFNlE,Japanese,,2,2014-10-28,john bob,"",右を先頭にしたい,,
Hangar - Smart app shortcuts,Google Play,ca.mimic.apphangar,Z3A6QU9xcFRPRnp0N1dxblZiSkwzVHZjU3ZlNHBaTVY4dk1ybXp6SjVhQjZwNGVEaUE5aEQzR0JMZG5ueWJSMWZXY2NWZHdCZF9EbEV0NjQ4Q2UwREQtTVE,Dutch,,5,2014-09-27,Peter de Rooij,Great,"Finally quick access to the apps I often use, 6 stars!",,
Hangar - Smart app shortcuts,Google Play,ca.mimic.apphangar,Z3A6QU9xcFRPRVFtbDVzUTRucVhGLXB1d29EaFFkNy1sU3RrVnpnQ2hVNFV3VDNRRl9KcldHZ19HZXRfV2tWUlZqXzBjQmpWUG9xN2ZKcGF4ZW12NVJ6YWc,French,,5,2014-10-24,Baptiste Legrand,"",Super pratique et efficace,,
Hangar - Smart app shortcuts,Google Play,ca.mimic.apphangar,Z3A6QU9xcFRPRV9TanlYWmNuRGtuMG1wNm82SHJaUE90RDBLSzdLVi1BVTQ4SWVlWFVZZjg2LXBwRlRfbkR5NE0xUHNhdGlHc2JxMmFfVFloa1k4bXhkX0E,French,,1,2014-10-17,Coup de Main Arnaud,Notification n'apparaît plus,"Malgré reglage correct notification n'apparaît plus sauf a la  première  installation. Si redémarrage,   barre dans notification absente. problème toujours présent après 2 mois !!!",,
Hangar - Smart app shortcuts,Google Play,ca.mimic.apphangar,Z3A6QU9xcFRPSGtLalpXakZ6RHRRdUdaYjF6Z1F0RXl5RUFFMkxveFlyWENUWlFkdlA0Rzl2dnVVUHdNX09aTi15aGFsNTJpallXYWtyUkVLaVR5Q0NvMmc,French,,1,2014-09-28,olivier rousselet,"",Plus de barre de notification sur ai redémarrage du téléphone ! ! ! !,,
Hangar - Smart app shortcuts,Google Play,ca.mimic.apphangar,Z3A6QU9xcFRPRzNyUU9UQ3NYWFlJQ2h1bHRjSjVvemNMd3g4LXhaZXFzdTBHYzAwR19NOGNVSGNJVU8zeVFnQkdrazZhYUNHVEgzRE5vZ3VidldPb20tU0E,Chinese (Simplified),,1,2014-11-23,Chee Seng Leng,"",Not working on NEXUS 5,,
Hangar - Smart app shortcuts,Google Play,ca.mimic.apphangar,Z3A6QU9xcFRPR19zUnFhZlY4ZzNoVVpERkJCU1pnVl8xRVJ0Z0FSa0FKRmhzYlgyVkU0TTVjS1FzcDBUazM2M0RfSENpejRtSkhxWXNiRGcwUVhwOW1hSHc,Chinese (Simplified),,5,2014-11-18,Tang Li,重置统计时间希望可以增加全部重置,这样该应用将更加能够成为效率利器,,
Hangar - Smart app shortcuts,Google Play,ca.mimic.apphangar,Z3A6QU9xcFRPRkExSndrOUpsWHdZY00ydzZrR2NzbTdveGdVNVhyODMySEZYczJzbzNmc0wza29zcVBra1FwNEdLa1dfOHNYQ283bmU3d0lqbzg4c1RGcmc,Italian,,4,2014-10-17,Andrea Filippini,"",Carino,,
Hangar - Smart app shortcuts,Google Play,ca.mimic.apphangar,Z3A6QU9xcFRPR3d4dy1fWENsX3dSdFdHNHVJajVUQzFGUUZUYkt6TTlpNUJxUkRKY3lqd1g0UklrNnI3bWg4Nnh1RUpIc1J0NmxvS2dzSlQ1Y1R2OW9RVHc,Italian,,5,2014-09-19,Daniele Vaccaro,Molto bene,Continuate cosi,,
Hangar - Smart app shortcuts,Google Play,ca.mimic.apphangar,Z3A6QU9xcFRPRXdHNVdWZENCSE93TWZZRUtpdkZjUlVhZHNVYTgwaFpwYnJDM09sb1NYWkZ4cEFpMmpIUng3R29sSmpDcHFpMG1ZMkJpRzJVLXRHVnVzRmc,Arabic,,5,2014-11-22,Ashraf Alsherif,إبداع بلا حدود,منتهى الروعة والجمال و الابداع والتميز معا ...,,
Hangar - Smart app shortcuts,Google Play,ca.mimic.apphangar,Z3A6QU9xcFRPSFpMWTJPUkJtWWozbTJlaDFRZGNPMjJyYWdKYmpvalNrMnBqR1RvY2hLdkJXcG1GcEVuTl9OZ09tSkhGVGtqVU9makRlWjdpX1ZnZlpUZEE,Arabic,,5,2014-10-23,الحلم الصغير,"",ما جربته بس أن شاء الله يكون رائع,,
Hangar - Smart app shortcuts,Google Play,ca.mimic.apphangar,Z3A6QU9xcFRPRmZ5bkpCLUlCUVNUd2JmTTNVS2FwV3JKUHlOakxwVW0zYXNYUWpSQ0NyOG5tZDRKSzM1X2QxTlhCOHJEb3RfTko2RGFpVjdfbnNwSmJ3X3c,Czech,,4,2014-10-16,Nadi Hasi,Fakt šikovné,"Jednoduché, funkční, užitečné.",,
Hangar - Smart app shortcuts,Google Play,ca.mimic.apphangar,Z3A6QU9xcFRPR200cWxZRy05UGxMV3V5blJuam5BVjN4SkVWNGRtTGxMOXl6TEcxeEg1dHpYa2FKT0dfbTJ2TnpZdHNfcWlIZURlM0ZhM0FXdHJjUU9XeGc,German,,3,2014-11-18,Dietmar R.,D.R.,"eigentlich Super  APP. Nur stürzt die bei mir auch alle paar tage ab, spätestens nach einem  System-Neustart. Und jedes mal deinstallieren und neu installieren ist mit aber zu müßig. Samsung S4 mini  Sonst volle Punktzahl",,
Hangar - Smart app shortcuts,Google Play,ca.mimic.apphangar,Z3A6QU9xcFRPRTNJVTNINlpqbU80VXZnWklZNEJMMUNlSTc4TFk5bHRDTS1ydWI3VlRYS3pXSm1HYUdrZUtGOVB5eXA1LVg1MVVtREc4bUJkdllBemhwemc,German,,3,2014-10-03,Peter Skroch,"",Für Tablet eher nicht so gut.,,
Hangar - Smart app shortcuts,Google Play,ca.mimic.apphangar,Z3A6QU9xcFRPRzYxMzI4Umg3M1hEQVRYOWJCQmdZOWV6M3FFUTZlWmtrNlVxN0wwUVRsN2xtVldfX3VfOEJ0czd2RUFUSktfckgtY000ZGY0LXNVVHZOaUE,German,,1,2014-09-28,"",Wird nicht beim Start geladen und stürtzt nach manu Start immer wieder ab,supertolles Teil wenns funkionieren würde. Es startet beim Booten nicht(trotz Haken an der richtigen Stelle) und stürzt nach manuellem Starten immer wieder ab. Schaaaaaade. Franz,,
Hangar - Smart app shortcuts,Google Play,ca.mimic.apphangar,Z3A6QU9xcFRPRmVhM29IZElwQTY1cl9neEk4TUVPbmYyRVVYZG9EVURmZURVQ2VCbXBQeTEwektGekpKa01ob3BweHJRMFFsc1d4SWt5cDNjUVBhSGY5S3c,German,,3,2014-09-26,Hans-Ulrich Haustein,"",Stürzt immer wieder ab,,
Hangar - Smart app shortcuts,Google Play,ca.mimic.apphangar,Z3A6QU9xcFRPRTl1Vl8zcmctcDM0bVBybnBBVnNLaDBXQ1U3UEhZaEFYR2dlY0t3dTBLdFF3WHhjZGg4Nm56NWdlYzFUZE5nTE5iVWpyT2pmV05uZG9DQ3c,German,,3,2014-09-23,Peter Puhl,"Schöne App, aber...",stürzt auf meinem S3 alle 1-2 Tage einmal ab und muss von Hand wieder neu gestartet werden.,,
Hangar - Smart app shortcuts,Google Play,ca.mimic.apphangar,Z3A6QU9xcFRPSGZIc0FFUEtCSlJJMDR5cV9YQjlWejlzOVNjQ0NxQXZGMm1XeG8yMS1ickU0SmxRS3g4TUN1V2wzMnRsNHlrQmdGMmlJWWFnWFBjSVU5SkE,German,,4,2014-09-23,Frank Reinbold,Ganz gut ....,"Eigentlich genau das, wonach ich gesucht habe. Es wäre aber zumindest für mich sehr von Vorteil wenn man die Automatik abschalten und gewünschte App-Verknüpfungen auch manuell und dauerhaft an gleicher Stelle einrichten könnte. So muss ich doch immer mal wieder schauen,  wo sich mein gewünschtes Symbol befindet.",,
Hangar - Smart app shortcuts,Google Play,ca.mimic.apphangar,Z3A6QU9xcFRPR3c2TUZuS0tQemNFQldMVmp5UmN6TUozVk9iZVV1ZHh4clU2aS1Fb1cwSEE3dmM5S2ZhcVFZelpfbjJJQlNrMDZBNjQxQ3VFRUl5NExOVGc,German,,5,2014-09-15,Wolfgang N,prima Launcher,mit zwei Reihen der zuletzt aktiven Apps in der oberen Message-Leiste für mich perfekt.,,
Hangar - Smart app shortcuts,Google Play,ca.mimic.apphangar,Z3A6QU9xcFRPR0FyTjczSEVfMTJWVmtkclprODRqZjczWUwza2VmSnNEcjd5SlRLYXdfR210Vl9YSmk1a2EyOWNJVEd2NmhVSFZ1TTRmLWs3VlVESkpKelE,Polish,,5,2014-11-26,dobrakuba Kuba,Czad,Super app,,
Hangar - Smart app shortcuts,Google Play,ca.mimic.apphangar,Z3A6QU9xcFRPSDdvV0tWZFNLazdkaUVuTXc4YThYOWQ0MVljZ1J5MTNSMmRLck5pSE5PZkdIMWphTVhZcFhiSzZ0eGNWUkZHTW5hTVRaSk84YWpCcGFTc0E,Polish,,5,2014-11-10,Tomasz Wator,Super!,Nexus 5,,
Hangar - Smart app shortcuts,Google Play,ca.mimic.apphangar,Z3A6QU9xcFRPR1FjeWRJNUJPVHdXazc3d0lwM1daVE0zbmM1VVFaNmZMSHhGX1ZLdmpUaG8wdUp6VHNyUHBKYzAzdW9RR1VwbmREVEtleFlRV0RzN3YzR3c,Portuguese,,1,2014-11-14,Alexandre Pinto,Not working with lollipop,Updated my Nexus 5 to lollipop and now it doesn't work. Only shows hangar app in the widget launcher.,,
Hangar - Smart app shortcuts,Google Play,ca.mimic.apphangar,Z3A6QU9xcFRPRmZaa1NWc2xVYXN0OUJNczJfMlZ5UlpYQ3k0ckdCeWdVWUg1TDMzOGRteGh6STFseWRRZWwxclFlNy1jYUtWYUpRelM5SnNzQjhtOGlsY2c,Portuguese,,5,2014-10-29,Guilherme Kaue,Legal kkkk,Eu goste mas tem que ser para tablet kkkk viquem com inveja,,
Hangar - Smart app shortcuts,Google Play,ca.mimic.apphangar,Z3A6QU9xcFRPR2JnVUtRbXdLMkxLLUNQb1ZmbERnN3lJa2ZjSV9tT0pVbzdMMGIxR3AzbXRCajVBWURwdVVFbW5YVnFwSE1XYWpXQ2ZqRFhUN2ZCTlJJbVE,Portuguese,,1,2014-10-23,Janaína Costa Ferreira,"",Ainda vou testar se eu gostar dou mais estrelas,,
Hangar - Smart app shortcuts,Google Play,ca.mimic.apphangar,Z3A6QU9xcFRPR1NVZzFheFJ2MVVzUmlVZGd1TTNOeVpyM1ZRQnJ4UEhreVJwcjZFVkhwbTV1YnQyckplZ0wtYXhHVl9RM0ZPMGlDWDB0eFBLbmNlRGY3bnc,Portuguese,,5,2014-10-17,AdorleaGomes Vaz,"","Muito bom, e obrigado também pela oportunidade de dizer a você, que Jesus Cristo! Esta voltando. Vem buscar um  povo que crê que ele, so mente ele e que leva para salvação.",,
Hangar - Smart app shortcuts,Google Play,ca.mimic.apphangar,Z3A6QU9xcFRPSG5TZFI1NnUtVHo0dDE5VXJ5ZVo1VmJ5ZjBVQWxkZGswQ19KM2FXbkRRYWpCYVZITGM2RHlLZkp0THdXUVp1Y3BhOW1ZbldTM0dHeW5mVEE,Portuguese,,3,2014-10-14,Fernanda Pavoro,Se for bom dou mais,To baixando,,
Hangar - Smart app shortcuts,Google Play,ca.mimic.apphangar,Z3A6QU9xcFRPRS1lNE1TNmlTcFlTSl8yQldXNW1nLUZXMlZDSWVLOHBtNTgzSG5qMFQwQ2R2QWtWNFgzMkZ2anpWMUV2MFpkX2ZQbnBEM3Q5aDY1VmRHOEE,Russian,,5,2014-12-12,torsionick,Супер,"Жаль что нет возможности пользоваться им как OmniSwitcher'ом, то есть совмещать с функционалом простенького TaskManager'a.  (Хотя красиво что весь ряд ярлычками занят)",,
Hangar - Smart app shortcuts,Google Play,ca.mimic.apphangar,Z3A6QU9xcFRPSGRPZTNtVGhIY2dGVGRfdy1ucngtX1JkeWRWTEtLVG9tcm9jS2F2MkkwcUZBSU45VGNzdmwwWTYxZDUxWXpHT2VZZnVMZjU4d1JtVUV4VVE,Russian,,3,2014-12-02,Владислав Кашафутдинов,Глюк или что,"Перестала обновляться статистика по приложениям, ничего не меняется, виджет не обновляется. Вначале было круто.",,
Hangar - Smart app shortcuts,Google Play,ca.mimic.apphangar,Z3A6QU9xcFRPSF80b0xpTW1SaVBQWm0tYXp3T1BvR0EwTkZHSnc0NFI4N2NQenR5MmNWUVVlZ3hmbmtIOGVNNnJyNktvbTZvd2otc2dUYnU4TGlXSWZVSXc,Russian,,5,2014-11-07,Anton Kaliaev,"",Альтернатива лаунчерам,,
Hangar - Smart app shortcuts,Google Play,ca.mimic.apphangar,Z3A6QU9xcFRPR1BBSFludFdONHM4clU2ZTYxRGxrdklZYXRiSm1lV3hRUGtTc3c1ajJyQjllV0lNNVFRRWVFRzY3Y0VBc1RaNGZWRmVGeG5JUzB2b2draVE,Russian,,4,2014-11-06,Gregory Korolev,Неплохо,"То, что давно искал. Не устраивает размер иконок. Маленькие - пойдет, средние крупноваты. Если бы крупные были размером со средние, а средние - между маленькими и средними. И настроек мало.",,
Hangar - Smart app shortcuts,Google Play,ca.mimic.apphangar,Z3A6QU9xcFRPSGlPMjRESmpRVWNKTFBQQUV4S3lJVVR0ZWZDMUZJSG8zZjJMV2ZIUjZROG8xemFLVTVaRjJUa1cxaEpFemk3TWd3Q1ZvWmlIclRkOTRSREE,Russian,,5,2014-10-12,Серега Андерсен,"",Вроде не чё такое,,
Hangar - Smart app shortcuts,Google Play,ca.mimic.apphangar,Z3A6QU9xcFRPSHUybGJHVzQtb2hBZ3E2Q1Q2VmEwb1RQLXhkNHpPZXJpaTM3NG03ZXNtcmRmWjYzMElVMjBJbFZlMGotWHBBNEJsakNHU19xb2tlNG1rZFE,Russian,,5,2014-10-02,Alex D,"",На фоне белой строки уведомлений смотрится не очень,,
Hangar - Smart app shortcuts,Google Play,ca.mimic.apphangar,Z3A6QU9xcFRPSEh3TE1wVDdQNHNESHh4MjVEMVlWYXB4TUx1b3dhSHpoM0FXcU5FN1phc1hrMDcxbElhZ3kyTW9vQTJPZ1UxWER6U1RxSlBaUnFHT1ZFZUE,Russian,,5,2014-09-26,Витторио Маджестик,"",Молодцы!,,
Hangar - Smart app shortcuts,Google Play,ca.mimic.apphangar,Z3A6QU9xcFRPRXFmWFowMzdRWW51eWkyM2pFWGNmcXh3dmkxYVFfd0dZWV9GYXJweTRTaEdwSndLMDdaZTVWc0FIQVVCTjltSXlPOVJNWmNUWW92MWtkRkE,Spanish,,5,2014-11-01,Antonio Gamma Bermúdez,Excelente,Hace ágil el acceso a las apps de uso frecuente.,,
Hangar - Smart app shortcuts,Google Play,ca.mimic.apphangar,Z3A6QU9xcFRPSC00eWV3QlRzVUJCTmZSaDd3WTExdkluZUs3cENpMWN1V252R0o0Y2VXS3l1XzJqUFdFRFpLamZPTkNkbzJ2TlFRWjctWDF2SDY0UE1WdVE,Spanish,,2,2014-09-15,Alberto Quesada,Update crash,"With the new update the app won't appear on the notification bar. I've tried multiple settings, as well as rebooting my phone. S3 Mini, no ROM. Before the last update everything worked perfectly, please fix this issue!",,
Hangar - Smart app shortcuts,Google Play,ca.mimic.apphangar,Z3A6QU9xcFRPRldpWXNxZ1dLbzlDWURzaWNlV0VSbFp4ck94SFJXVHRFUmFZVnI3NWRsX0hON2VZZjJUQTROQXU0Q3JBaElhM2MxR2EzMnc3NG1aTzNzRUE,Spanish,,5,2014-09-15,Dave Line,Jerarquiza tus apps,Esta aplicación jerarquiza tus apps según su tiempo de uso para ser accesadas rápidamente. Funciona perfectamente.,,
Hangar - Smart app shortcuts,Google Play,ca.mimic.apphangar,Z3A6QU9xcFRPR0pyZFNXVm1yQXJxOFN1aGN1VXZRN2ZNbUZvODU3QUJvdXhPTk9jRWtLcDMwb0J1Z1Q0MlE0VWdIcnZ4RWVLbnpuTU1tZUJrTklQRFFZY3c,Swedish,,4,2014-10-31,Simon Alveteg,Text color,"Love the app, but make it possible to change the text color on the stats widget to something else than white. If I want to have a white background (to fit in with the other material widgets) the text isn't visible",,
