Topic,Words
0,0.064*instances,0.057*never,0.055*force,0.051*goes,0.051*not,0.051*convenience,0.048*have,0.043*serious,0.042*update,0.042*and
1,0.086*when,0.073*been,0.067*rather,0.057*since,0.054*what,0.048*than,0.045*it,0.039*force,0.035*it's,0.035*accurate
2,0.096*several,0.074*couple,0.071*since,0.068*accurate,0.059*serious,0.059*seems,0.058*than,0.045*to,0.038*had,0.034*always
3,0.092*since,0.074*is,0.057*enough,0.049*have,0.046*fine,0.046*it,0.044*using,0.041*seems,0.037*several,0.036*does
4,0.083*me,0.075*a,0.060*seems,0.056*couple,0.048*watch,0.040*not,0.038*fine,0.034*didn't,0.033*works,0.031*does
5,0.096*didn't,0.092*be,0.063*for,0.055*accurate,0.048*the,0.045*always,0.039*enough,0.038*had,0.033*instances,0.032*it's
6,0.069*when,0.060*keep,0.057*since,0.050*watch,0.047*using,0.040*a,0.040*it's,0.038*than,0.037*been,0.034*update
7,0.076*i,0.074*does,0.070*couple,0.062*there,0.047*since,0.045*using,0.036*keep,0.034*enough,0.032*it's,0.032*force
8,0.096*it,0.069*well,0.059*for,0.053*not,0.045*exactly,0.042*from,0.037*down,0.035*me,0.032*the,0.032*keep
9,0.114*this,0.099*enough,0.057*than,0.053*close,0.045*is,0.044*seems,0.042*serious,0.042*does,0.041*down,0.032*to
10,0.159*be,0.062*several,0.053*months,0.050*exactly,0.049*been,0.043*does,0.042*it,0.040*to,0.031*fine,0.031*a
11,0.064*serious,0.063*works,0.056*it,0.056*accurate,0.053*when,0.049*to,0.049*just,0.041*keep,0.032*is,0.031*i
12,0.110*force,0.077*couple,0.065*seems,0.057*update,0.051*does,0.043*be,0.041*goes,0.037*since,0.034*is,0.032*been
13,0.104*enough,0.090*and,0.047*i,0.040*does,0.039*keep,0.039*down,0.038*seems,0.037*rather,0.036*convenience,0.034*from
14,0.096*does,0.076*rather,0.066*than,0.053*enough,0.049*down,0.045*months,0.042*and,0.038*a,0.034*well,0.033*for
15,0.077*works,0.066*the,0.064*and,0.051*serious,0.050*fine,0.045*does,0.039*didn't,0.033*instances,0.033*it,0.031*than
16,0.081*than,0.066*using,0.055*just,0.054*serious,0.052*never,0.051*fine,0.050*does,0.034*for,0.034*be,0.030*works
17,0.077*does,0.069*months,0.063*it,0.047*rather,0.046*goes,0.044*up,0.041*well,0.036*didn't,0.031*using,0.030*instances
18,0.171*never,0.063*couple,0.062*there,0.047*accurate,0.040*this,0.039*just,0.038*goes,0.038*down,0.036*had,0.025*from
19,0.094*several,0.078*watch,0.070*down,0.067*convenience,0.046*i,0.045*force,0.045*didn't,0.044*rather,0.034*accurate,0.032*for
