App,Store,App ID,Review ID,Country,Version,Rating,Date,Author,Subject,Body,Translated Subject,Translated Body
PhotoPhase,Google Play,com.ruesga.android.wallpapers.photophase,Z3A6QU9xcFRPSERYbU84Z3NSYWc2NWlzX2RvS3E2NjNTYWV4S3IyYXpxazZhMFZYZ2xENkRORDBIQUNsSFdpeExZM2dvSV9CQldyNnozaC1UazloR3NjWVNr,English,,5,2013-11-15,prabhjeet oberoi,Great app,it a nice concept for a live wallpaper,,
PhotoPhase,Google Play,com.ruesga.android.wallpapers.photophase,Z3A6QU9xcFRPSERYbU84Z3NSYWc2NWlzX2RvS3E2NjNTYWV4S3IyYXpxazZhMFZYZ2xENkRORDBIQUNsSFdpeExZM2dvSV9CQldyNnozaC1UazloR3NjWVNr,English,,5,2013-11-15,prabhjeet oberoi,Great app,problem fixed,,
