best battery statistic monitor out there,b,2013-04-14,Matthew Kosmoski,5
check out for more information,b,2013-04-14,Ryan Brandon,5
work great,o,2013-04-14,Ryan Brandon,5
this is indispensable you need to track down what is eating up your battery life,o,2013-04-14,Rami Abusheikh,5
need to know why your battery suck,b,2013-04-14,John Torres,5
this is the right,o,2013-04-14,John Torres,5
this is a really great tool for monitoring what your are doing affect battery life,o,2013-04-14,William Bedard,5
in contains several other tool related to etc,o,2013-04-14,William Bedard,5
the developer is very active in forum and regularly update the,b,2013-04-14,William Bedard,5
great battery,b,2013-04-14,Michael Naish Jr,4
great,o,2013-04-14,A Google User,4
excellent,o,2013-04-14,Bjorn Clement,5
first class product,o,2013-04-14,Sean Twomey,5
thing you need if you want to trouble shoot your battery problem,b,2013-04-13,Jim Bolino,5
annoyed i paid for it,b,2013-04-12,Philip Dalston,2
mostly show no data i need it for example when i am at work and the phone suddenly start heating up and using juice,b,2013-04-12,Philip Dalston,2
the inbuilt on setting always seems to work,b,2013-04-12,Philip Dalston,2
very helpful at finding power robbing,o,2013-04-10,Maria Stieritz,4
simply the best to drill down your battery issue,b,2013-04-09,A Google User,5
help,o,2013-04-08,,1
i keep receiving an error 24 message during the install process,b,2013-04-08,,1
love the detailed information and relevant update,o,2013-04-08,jered knox,5
awesome,o,2013-04-06,Trent Neuman,5
to those experiencing continued try and reinstalling and continually clearing data and cache,b,2013-04-06,A Google User,5
i would like the ability to go directly to the process and have the choice to kill it,f,2013-04-06,Jeff Markus,4
convoluted and constantly loses it own data i rarely get anything out of it,b,2013-04-05,Sia Gholami,1
very annoyed i paid for this a is free and much better,o,2013-04-05,Sia Gholami,1
also it constantly asks for root,b,2013-04-05,Sia Gholami,1
great,o,2013-04-04,Russell Mitchell,5
doe what it is supposed to,o,2013-04-03,Tino Mehlmann,5
with a little help from android forum i wa able to fix my problem,b,2013-04-03,Tino Mehlmann,5
,o,2013-04-02,Rajesh Kumar,4
very good,o,2013-04-02,Matt Thyer,5
fantastic but update it is broken just reset all the time,b,2013-03-31,Ollie Stagg,4
but sometimes you put something start eating your battery,b,2013-03-30,Miguel Angel Rodriguez,5
this tool is really great to find out what and how,o,2013-03-30,Miguel Angel Rodriguez,5
under stats the default selection show in the menu nothing else,b,2013-03-30,Cosmin Nahaiciuc,2
cleared also but none helped,f,2013-03-30,Cosmin Nahaiciuc,2
reverted to 11100 the last functional version,b,2013-03-30,Cosmin Nahaiciuc,2
you show me a lot of now help me understand it,o,2013-03-29,,4
keep throwing up failed to contact battery service on my note 2,b,2013-03-27,Evan,1
can get same stats in device setting,b,2013-03-27,Evan,1
avoid,o,2013-03-26,Ibrahim Rafih,1
wish you gave definition,f,2013-03-26,Vincent V,4
definitely helped me keep track of my battery and,b,2013-03-26,Jonathan Matias,5
need to be a bit more streamlined in term of could also be improved,o,2013-03-26,Christoforos Christoforou,4
buggy at time but nothing,b,2013-03-26,Christoforos Christoforou,4
doe not work with 422,o,2013-03-26,Arren Dorman,2
show zero stats upgrade to 422,b,2013-03-26,Arren Dorman,2
the basically show the info i but could use a clearer and a clearer explanation of what everything mean,b,2013-03-26,Jonathan Schuster,4
now longer display kernel or partial reverts to reboot,b,2013-03-26,Colin Kelly,3
can no longer keep track of what is keeping the phone awake,b,2013-03-26,Colin Kelly,3
doe exactly what i need it to do,o,2013-03-25,Gareth Harris,5
i use this regularly to keep an eye on power usage i install and update,b,2013-03-24,Geoffrey Maugham,4
use it on all of my device,b,2013-03-24,Jordan VanCampen,5
i had glitch thing with the update and i have the paid version,b,2013-03-24,Kimberly Ford,4
i could never get it to tell me from screen off,b,2013-03-24,Kimberly Ford,4
i and installed prior version from backup,b,2013-03-24,Kimberly Ford,4
in the time i have had the i have gotten no useful information that ha been helpful in determining what is draining my battery,o,2013-03-24,Chewy Shaw,1
it good,o,2013-03-24,Ramon McNally,5
need more feature,f,2013-03-24,Ramon McNally,5
but awesome stuff,o,2013-03-24,Ramon McNally,5
good,o,2013-03-23,A Google User,5
great,o,2013-03-23,Ridzal Ridwan,5
i wish the could help me to find out the,f,2013-03-23,Tamir Chartarifsky,4
useful,o,2013-03-22,Kiran Varsani,5
add the much needed information missing from the battery section,f,2013-03-22,Jon Poulin,4
could have better description of various process,o,2013-03-22,Jon Poulin,4
one of the most valuable tool in the box,o,2013-03-22,Michael Gardner,5
this is the first thing i reach for i suspect a leeching,o,2013-03-22,Michael Gardner,5
great help in evaluating kernel,o,2013-03-22,Michael Gardner,5
,o,2013-03-22,Michael Gardner,5
program fr,b,2013-03-22,Anders Henry,5
used to be a useful albeit confusing info,o,2013-03-22,nascent nascentt,1
abut for the part few update it show no keep losing profile,b,2013-03-22,nascent nascentt,1
very good,o,2013-03-22,Eugene Manoek,5
your better off using your stock battery application,b,2013-03-21,Brad Paniello,3
galaxy,o,2013-03-21,Brad Paniello,3
now the forgets all the data and think it just rebooted,b,2013-03-21,adam ineson,1
sometimes it randomly but the next time it ha forgotten it unplugged again,b,2013-03-21,adam ineson,1
wa good before,o,2013-03-21,adam ineson,1
perfect,o,2013-03-21,fabio cannas,5
there were 10 star i would give you 10,o,2013-03-21,fabio cannas,5
you are on android 422 use the last version of this,f,2013-03-21,fabio cannas,5
awesome for identifying rogue,o,2013-03-21,Tim Myles,5
help find battery sucking and the root feature are great,b,2013-03-20,Matthew Fry,5
very helpful for diagnosing battery drain,b,2013-03-20,Rich D,5
really helpful,o,2013-03-20,gunnar karlsson,5
the absolute best tool for monitoring battery usage and identifying application,o,2013-03-20,Dennis Gerrity,5
this tool ha been instrumental in helping me identify battery draining on my phone,b,2013-03-20,Andrew Osborne,5
doe what it hunted down my and killed them with fire,o,2013-03-20,Barry White,5
perhaps i am not savvy enough for this potentially useful but not being able to see any data further back the last it is not useful,o,2013-03-20,Neville Young,2
trying to access data since last boot did not work nothing is registered and i am always told i must wait next reboot but that ha not once made any difference,b,2013-03-20,Neville Young,2
i am above average savvy in the digital world and i had the disposable i might have persevered to learn how to use this,o,2013-03-20,Neville Young,2
it is now,o,2013-03-20,Neville Young,2
too bad,o,2013-03-20,Neville Young,2
o ma no um para,o,2013-03-19,Jose MR,5
para saber o no e,o,2013-03-19,Jose MR,5
awesome stats,o,2013-03-19,jeno labanca,5
extremely useful and work great,o,2013-03-19,A Google User,5
it show empty for every category,f,2013-03-19,Dylan Mead,5
why,o,2013-03-19,Dylan Mead,5
edit developer helping me will revise later,b,2013-03-19,Dylan Mead,5
great to understand rapid battery depletion,b,2013-03-19,Mané Ligeiro,5
one of the first i install flashing a new,b,2013-03-19,Dan S,5
great info for you micro managing battery optimizing fanatic,b,2013-03-19,Dan S,5
great,o,2013-03-18,Ionut Ionita,5
great you just need to know a bit for it to be really useful,o,2013-03-18,Shaun Thomas,4
just best,o,2013-03-18,Nikolay Solakov,4
using this tool for a long time for battery usage tracking and optimizing battery performance of the phone great job developer thanks for the lovely tool,b,2013-03-17,Kunal Vaidya,5
really useful to help figure out which process is draining the battery,o,2013-03-17,Joop Beris,5
ha helped me understand my battery usage,b,2013-03-17,Umang Gopani,4
would have been great there wa more instruction for a man,o,2013-03-17,Umang Gopani,4
latest update ha fixed the no display perfect again,b,2013-03-17,Joe Barry,5
thanks for developing this,o,2013-03-17,A Google User,5
i learned about it from and bought the from here,o,2013-03-17,A Google User,5
it let me know which keep the phone awake the most,b,2013-03-17,A Google User,5
great for identifying,o,2013-03-17,Stephen Levitt,5
excellent,o,2013-03-17,Reuben Raman,5
