Topic Index 1,Topic Index 2,Topic Similarity
6,10,2.0
8,7,2.0
16,6,2.0
0,0,1.0
2,2,1.0
4,5,1.0
7,15,1.0
10,9,1.0
13,14,1.0
14,12,1.0
18,16,1.0
1,1,0.0
3,3,0.0
5,4,0.0
9,8,0.0
11,11,0.0
12,13,0.0
15,17,0.0
17,18,0.0
19,19,0.0
