Topic Index 1,Topic Index 2,Topic Similarity
0,10,1.0
1,6,1.0
3,7,1.0
4,15,1.0
5,0,1.0
7,17,1.0
8,11,1.0
10,2,1.0
12,18,1.0
13,1,1.0
14,16,1.0
17,3,1.0
19,9,1.0
2,4,0.0
6,5,0.0
9,8,0.0
11,12,0.0
15,13,0.0
16,14,0.0
18,19,0.0
