# deletions,date,commit message
345,2014/4/21,DEV: multiple string format changes in order to be compatible with transifex in Spanish and English. NEW: updated/finalized Spanish translation from xphnx.
211,2014/4/18,DEV: moved prefs string function from IntegerProvider to new abstract class APrefs. DEV: make Prefs classes extend APrefs to profit from toString function. FIX: hint for result is now visible on older versions of Android. NEW: hint for result shows shortcuts for chosen preferences. NEW: Shortcuts for preferences are shown in the preferences dialog. DEV: reformatted the strings.xml files to do clean-up.
15,2014/4/18,DEV: add market.xml and translations for translation of strings used in the market description. DEV: slightly updated Spanish strings especially to get rid of errors.
6,2014/4/05,DEV: small changes to get language list correct in strings.
2,2014/3/01,DEV: bump version to 2014.03.01.17 and edit changelog.
16,2014/3/01,DEV: added DOCTYPE entry to all XML files to avoid Eclipse warnings about missing DTD or schema
