# deletions,date,commit message
9,2014/2/02,DEV: add background colour for ActionTab (works only < 3.x) + remove icon from challenge.
13,2014/2/01,DEV: implement ActionBar from compatibility library to give menu to Android tablets.
4,2014/1/26,DEV: added spinnerItemStyle and removed specific spinner style
18,2013/12/01,DEV: fixed issue with too thin left panel using ugly hack of invisible text field.
71,2013/11/10,DEV: introduced relative layout for top line some issues with width still.
2,2013/11/09,DEV: correct small mistake around gravity.
92,2013/11/09,DEV: some more styling of the GUI.
47,2013/11/02,DEV: started to introduce more styles for text labels (not finished).
15,2013/11/01,Used new style for operations-spinner
30,2013/10/13,DEV: small changes to layout add font size to butter_button style.
3,2013/9/15,Prepare release 2013.09.15.17
