# deletions,date,commit message
1,2013/8/11,Update building info
2,2013/8/10,Enable g analytics code
2,2013/8/10,Comment out g analytics code replacement for now
14,2013/8/10,Downgrade to android 17 to get travis ci to work again
18,2013/8/10,Fix build script failing when there is no property file available
1,2013/8/09,Disabled the donation menu item for now as there is no public key for it yet
5,2013/8/09,Fixed whitelisting issue
1,2013/8/08,Remove a bug in build script
67,2013/8/08,Fix sms being relayed regardless of status of smssync service
12,2013/8/08,Validate phone number deletion
77,2013/8/08,Add ability to delete blacklisted items
21,2013/8/08,Add edit phone number works
21,2013/8/08,Add phone number to db
65,2013/8/08,More clean up to the filter feature
46,2013/8/08,Add individual filtering and remove tab support
46,2013/8/08,Re-factor
3474,2013/8/07,Add filter by tab
57,2013/8/07,Add nav drawer support to filter activity
796,2013/8/07,Adding filtering feature
1,2013/8/07,list available sdk for debugging
69,2013/8/07,Enable debugging for travis
2,2013/8/07,Fix typo
1,2013/8/07,Add donation activity to manifest file
19,2013/8/07,Add in-app billing support
3,2013/8/07,Add android 18 support
8,2013/8/07,Fixing travis build failure
4,2013/8/07,Add base code for in app billing
2,2013/8/07,Upgrade minsdk to version 8
38247,2013/8/07,Add in app builling support
1,2013/8/06,Install android 18
5,2013/8/06,Minor clean up to travis
4,2013/8/06,Install build tools
3,2013/8/06,Close #117 - Fix broken get reply from server feature
2,2013/8/06,Close #117 - Fix broken get reply from server feature
24,2013/8/06,Upgrade build tools to latest releases
150,2013/8/06,Close #116 Add google analytics support
3,2013/8/06,Fully automated gradle build system
1,2013/8/05,Include release process in build script
27,2013/8/05,Clean up how nav drawer items are refreshed
295,2013/8/05,Major optimization to background services and ui interactions
316,2013/8/04,Move heavy operations off the ui thread
48,2013/8/03,Off load db queries off the main ui thread
1,2013/7/31,Fix travis status image
25,2013/7/31,Minor clean up
2,2013/7/31,Remove unused code
1,2013/7/31,Fix broken test case
2,2013/7/31,Enable disabled test cases
142,2013/7/31,Add more test cases for syncing multiple sync urls
3,2013/7/30,Add sample test cases
2,2013/7/30,Add test case for process message
13,2013/7/29,Add test case for process sms
9,2013/7/29,Add test case for getting thread id
7,2013/7/29,Make test string more meaningful
7,2013/7/28,Add test code for testing sms filtering
18,2013/7/28,Remove unused class
111,2013/7/28,Add sync date test
222,2013/7/28,Update syncurl model test to work with the changes
1305,2013/7/27,Major refactor to sync process
397,2013/7/26,Refactor sync process
153,2013/7/25,Remove unused code
12,2013/7/25,Fix build requirement
13,2013/7/25,Add installation of android support repository and remove custom gradle install
7,2013/7/25,Add more debug info
6,2013/7/25,Use the new base class
1,2013/7/25,Change permission on build script in before_script block
1,2013/7/25,Minor clean up
2,2013/7/25,Use build script instead
5,2013/7/25,Use build script instead
1,2013/7/25,More debug info
1,2013/7/25,Remove dependency
9,2013/7/24,Remove script that waits for emulator to run
1,2013/7/24,Remove oracle jdk requirement. not sure if that should get travis to not error out
1,2013/7/24,Add debug info
1,2013/7/24,okay bring oracle jdk back.
1,2013/7/24,Remove oracle jdk requirement. not sure if that should get travis to not error out
41,2013/7/24,Remove unused test suite
71,2013/7/24,Refactor base test name
119,2013/7/24,Refactor util test name
2,2013/7/24,FIX for issue #112 Secret is set on task http request
26,2013/7/24,Add test case for testing date formatting
6,2013/7/24,Refactor method name for capitalizing first letter of a string
31,2013/7/24,Add more test cases to for util class
5,2013/7/24,Remove eclipse settings files
9,2013/7/24,Fix exception handling
7,2013/7/24,Use gradle wrapper for executing task
1,2013/7/24,Disable killing of emulator by the build script
5,2013/7/24,Major clean up ability to check if emulator is running or not create and run an emulator
5,2013/7/23,Reformt building info
1,2013/7/23,Allow main app to be built first then test
4,2013/7/23,Add creating emulator via the cmd
26,2013/7/23,Remove script that keeps cmd emulator running. Not really need now
18,2013/7/23,Change building info to a md format
20,2013/7/23,Remove travis script as it's no longer needed
51,2013/7/23,Major clean up to get test and build setups to cleanly work
3,2013/7/23,Included right package to enable testsuite to compile
2,2013/7/23,Update building info and update gradle build to include dependencies for test
6,2013/7/23,Update build script to validate required configuration
7,2013/7/23,Update building info to reflect the new changes
18,2013/7/23,Modify build script to make use of gradlew instead of ant
29,2013/7/23,Successfully builds with gradle
19,2013/7/22,Restructure code to work with gradle build system
675,2013/7/22,Restructure project follow gradle project convention
3,2013/7/22,Minor clean up
15,2013/7/22,Refactor api util to publicly avail certain properties
25,2013/7/21,Revert to the ant build
3,2013/7/21,Add abslib dependencies to gradle build script
10,2013/7/21,Switch to using gradle to handle travis build
1,2013/7/21,Add script to wait for emulator launch
6,2013/7/21,Manually download and install build-tools instead of using sdk manager
1,2013/7/21,Add build tools
1,2013/7/21,Remove filter so all components are installed. This is to get the build tools to be installed
7,2013/7/21,Downgraded to android sdk r21
1,2013/7/21,Add build tools to path variable
1,2013/7/21,Add build tools
3,2013/7/21,Generate .local file to get travis to work
6,2013/7/21,Attempt to get travis ci to work again
8,2013/7/21,Update travis to use androi api 14 instead
8,2013/7/18,Removed requirement for empty secret in api response if no secret is set locally.
19,2013/7/18,Properly perform actions executed via cab
10,2013/7/17,Fixed order of test build and real build - obv test depends on main project.  Also fixed check for local.properties so it looks in the right directory.
1,2013/7/17,Clarified prompt for android sdk update.
3,2013/7/17,Added option to build.sh to update android sdk or skip that step
10,2013/7/17,Updated build.sh to check for android config.
2,2013/7/17,Made check for local.properties more explicit
16,2013/7/17,Added quicker failure to build.sh when local.properties not found.
4,2013/7/17,Refine notification title for sync progress
2,2013/7/17,Launch main activity from the notification prompt instead of the tab activity
5,2013/7/17,Show proper notification title when a sync is in progress and when it's completed
3,2013/7/17,Remove unused defined sync type
1,2013/7/17,Remove unused defined state
12,2013/7/17,Show localized string when an exception is thrown during the sync process
4,2013/7/17,Fix xliff formatting which shows wrong status figures
143,2013/7/17,Provide meaningful status update when a sync process is completed
36,2013/7/16,Show status of individually failed items
82,2013/7/16,Determine when a sync fails
36,2013/7/16,Revert back to single select for sync url list view
35,2013/7/16,Sync individual message via CAB
6,2013/7/15,Delete selected pending messages
194,2013/7/15,Refactor sync url and sent messages action mode listeners to make use of the action mode listener base class
70,2013/7/15,Refactor action mode listener to make use of the base class
35,2013/7/15,Add a base action mode listener for other action mode listener to extend from
17,2013/7/14,Change listview selection to a multiple mode
498,2013/7/14,Re arrange actionbar menu items
3,2013/7/14,Document nav drawer item classes
72,2013/7/14,Minor clean up to nav drawer item implementation
62,2013/7/14,Show number of items in the list view
16,2013/7/13,Show navigation drawer
2,2013/7/13,Add test suite. though it's failing to run
49,2013/7/12,Add more test cases for sync url model
3,2013/7/12,Add test cases for sync url model
17,2013/7/11,Show counter for number of items in the list view
209,2013/7/11,Base setup for nav drawer feature
48,2013/6/27,Update website with new content
11,2013/6/27,update to changelog
36,2013/6/27,Fix sync test code
