# deletions,date,commit message
1,2015/6/09,Update changelog
2,2015/6/09,Update changelog
14,2015/6/09,Fix issue when messages received from server is empty.
2,2015/6/09,Update versio number
2,2015/6/09,Update changelog
60,2015/6/09,Remove alerts from website
146,2015/6/09,Remove alerts
1,2015/6/09,Update otto to fix ignore synthetic bridge methods created by JDK 8.
