# deletions,date,commit message
0,2015/5/02,Update playstore screenshots
30,2015/5/02,Update json changelog
3,2015/5/02,Update changelog for the app store
2,2015/5/02,Add final stage to release example doc
3,2015/5/02,Update release script to reflect changes in building the website
78,2015/5/02,Remove credit file as it's not more maintained
26,2015/5/02,Update building doc
3,2015/5/01,Port old site from ruhoh engine to hugo engine
1,2015/4/30,Upgrade android plugin
7,2015/4/28,Make sure results api have message uuids set before processing it
36,2015/4/27,Fix message retries issue. Delete based on configured number of retries
5,2015/4/24,Remove restrictions for only java 1.7 build. This should enable those with java 1.8 to build the app
35,2015/4/23,Clean message retry attempt
7,2015/4/22,Save imported messages
4,2015/4/22,Refresh list when item message status changes
65,2015/4/22,Fix so message retries deletion works upon reaching the set number of retries
1,2015/4/21,Enable auto sync times when auto sync is enabled
366,2015/4/20,Fix broken website
366,2015/4/20,Update changelog json
1,2015/4/20,Update version code
15,2015/4/20,Update changelog
15,2015/4/20,Minro code formatting
1,2015/4/20,Only update alert phone number changes the logs when a change happens  Launching the settings screen always log an entry for the alert phone number field. Ideally it should only log an entry when there has been a change to the value of the field.  To solve this compare the saved value in shared preferences with the one currently entered in the field. If they don't match log the entry
8,2015/4/20,Remove condition to make delivery report a requirement  Since some providers charge for sms delivery report don't make it a requirement.
23,2015/4/20,Fix delete all sync urls so it prompts for deletion
1,2015/4/17,Reduce padding between donation title and the price
1,2015/4/17,Align the description to the left so it properly align in landscape mode
2,2015/4/17,Let donation item title wrap around the amount
1,2015/4/17,Let donation item title wrap around the amount
5,2015/4/17,Let donation item title wrap around the amount
8,2015/4/17,Properly align donation list items and display the amount
9,2015/4/16,Fix sent messages data migration duplication
1,2015/4/16,Migrate the sync url key during the data migration process
14,2015/4/16,Manually fetch data in sent messages table and insert them into the cloned sent table.  This is a workaround found for a bug found in an earlier version of the sent messages table.
8,2015/4/16,Log Http Response From Task Checking When JSON serialization crashes
11,2015/4/16,Make sure task and message results are started when enabled
6,2015/4/16,Refactor a method name to reflect its intentions
69,2015/4/15,Minor code clean up
2,2015/4/15,Make EditText hint color darker on API level 8 to 10  The hint color on devices running Android 8 to 10 are lighter on a lighter background making it invisible. To fix this declare a style for EditText that overrides the hintTextColor to a more darker one for older devices.
2,2015/4/14,Set inputtype for alert phone field to phone  Removed the 0-9 restriction on the alert phone number field and change type phone to allow internation phone number input and text based phone number
82,2015/4/14,Remove start of task and auto sync service from a background thread
8,2015/4/14,Minor code clean up
24,2015/4/14,Remove global number check validation  Since now the app processes failed SMS it makes sense to let the web service handle validation of phone numbers.
2,2015/4/13,Remove needless semicolon
193,2015/4/13,Sort contributors list
5279,2015/4/13,Update files with copyright info
18,2015/4/12,Minor code refactor
4,2015/4/10,Update ProcessSms.java
6,2015/4/10,Update ProcessSms.java  Refactored to return boolean values (in the same patch as the Pending Messages' update).
3,2015/4/10,Update PendingMessages.java
3,2015/4/08,Update PendingMessages.java  Changed ImportMessagesTask's protected status variable to a Boolean to fit the refactoring of ProcessSms.java
2,2015/3/30,Minor code clean up
3,2015/3/30,Add time when phone device is shutdown to the log entry about shutdowns
1,2015/3/30,Upgrade Android Gradle plugin
1,2015/3/30,Increase version number
6,2015/3/27,Minor code clean up
1,2015/3/27,Make sure retry stops after it reached the set number
39,2015/3/27,Fix redundant check for device version number
1,2015/3/27,Append intent flags to logs
1,2015/3/27,Set special flag for retrieving pending service intent
1,2015/3/27,Define the version number for kitkat and use that to test for kitkat and above devices
1,2015/3/27,Delete when retry is equal to the configured retry number
18,2015/3/27,Minor clean up
24,2015/3/27,Delete messages from pending list from the background
65,2015/3/27,Fix retries so it only deletes pending message when it's enabled
46,2015/3/27,Use custom implmentation of alarm receiver to to run scheduled tasks
165,2015/3/26,Make use of thirdparty library for handling background services
1,2015/3/25,Increase version code
1,2015/3/25,Update changelog
6,2015/3/25,Comment out alert debugging for now
9,2015/3/25,Minor code clean up
1,2015/3/24,Update developer doc stating the correct json response to return when message uuids are empty
125,2015/3/24,Properly refresh list when a new sync URL is added
47,2015/3/24,Fix so settings changes are added to the log entries
3,2015/3/25,Enable logs
156,2015/3/25,Style actionmode background to be dark with light text
5,2015/3/24,Return string array
22,2015/3/24,Make sure retry is enable before processing retries
23,2015/3/24,Fix debug alerts breaking because of refactor
3,2015/3/24,Call thread's looper so it can post to the main thread
41,2015/3/24,Properly cache failed and sent messages
39,2015/3/24,Use the support lib for testing
2,2015/3/24,Fix inconsistencies with docs and code outputs
1,2015/3/23,Call the right publish taks
1,2015/3/23,Fix minor typo
1,2015/3/23,Increase version code
2,2015/3/23,Update change log
192,2015/3/23,Add translations for Japanese Germany and Indonesian
49,2015/3/23,Disable minification for now
1,2015/3/23,Update change log
4,2015/3/23,Match against the appropriate date format order
1,2015/3/23,Set a default date format for the log file name
36,2015/3/23,Add proguard rules for the third party libraries
1,2015/3/23,Fix minor type in example code for running the release script
15,2015/3/23,Update release shell script to accommodate release automation
3,2015/3/23,Fix play upload automation. Call the right task
2,2015/3/23,Increase version number
2,2015/3/23,Use app name when renaming apk for distribution
12,2015/3/23,Update static pages date
19,2015/3/23,Setup Google play publisher to automate apk uploads
324,2015/3/23,Hide donation button when its state is unknown
41,2015/3/23,Fix message retry so it delete message after it exceeded configured retry number
59,2015/3/23,Remove redundant set of task type on messages
18,2015/3/20,Don't asynchronously fetch for enabled sync url in the check task service
1,2015/3/19,Upgrade android gradle plugin
21,2015/3/19,On Travis CI don't create an emulator
3,2015/3/19,Create an emulator with android-21 as the target
1,2015/3/19,Install android extra and support repositories on travics ci
2,2015/3/19,Call the removed fields from the Calender class
2,2015/3/19,Upgrade build tools to v22.0.0
2,2015/3/19,Remove needless comment
5,2015/3/19,Upgrade build tools
20,2015/3/19,Make sure async purchase isn't in progress before attempting to initiate another payment
28,2015/3/18,Setup in app purchase
9,2015/3/18,Switch to using listview to display donation amount
13,2015/3/18,Renable in-app purchase for donations
30,2015/3/03,Fixes #243. Make sure http client is not null
187,2015/3/03,Fix broken tests
268,2015/3/03,Fix broken tests
15,2015/3/03,Implement database upgrade from 7 to 8
271,2015/3/03,Refactor how syncing is done to accommodate multi sync url and failure retries
40,2015/3/02,Load pending items off the main ui thread
26,2015/3/02,Add message type and statues
12,2015/3/01,Clean up settings code
3,2015/3/02,Design settings for setting number of retries for pending messages
84,2015/3/01,Update exiting message when it fails than creating a new message
61,2015/2/26,Filter by works
356,2015/2/26,Post background services result to the main thread
1933,2015/2/26,Fully refactor db query to make use of cupboard library
444,2015/2/26,Delete legacy models
31,2015/2/26,Implemented database helper for syncurl and filter
1164,2015/2/26,Implement database helper for sync urls
43,2015/2/25,Convert Message cupboard
36,2015/2/25,Implement cupboard integration with messages
118,2015/2/25,Initial cupboard integration
2,2015/2/25,Add cupboard support
2,2015/2/25,Add ID for models
36,2015/2/25,Minor clean up
20,2015/2/24,append items to logs in the background
41,2015/2/24,Fix auto enable issue
4,2015/2/24,Validate message result api and sms delivery report statues
1,2015/2/24,Fix potential null pointer exception when there is no payload set
20,2015/2/24,Fix possible thread violation when setting a value for preferences
60,2015/2/24,Fix reading log files in the main thread
6,2015/2/24,Fix disk voilation policy error when fetching counter number
11,2015/2/24,Upgrade build tools
29,2015/2/24,Enable fully qualified name receivers and services
1,2015/2/24,Support android 21
25,2015/2/24,Use relative path for services and activities in the manifest file
1,2015/2/24,Upgrade gradle plugin
2,2015/2/09,Update contributors json file
25,2015/2/09,Switch to old http client
598,2015/2/09,Remove unused http wrapper files
157,2015/2/09,swtich back to old http client to support lower devices
8,2015/2/09,Implement test for testing json response
33,2015/2/09,Refactor controllers to use http client wrapper
29,2015/2/09,Fully integrate http wrapper in base http client
139,2015/2/09,Integrate http client wrapper
1,2015/2/09,Fix potential null pointer value from sms sent receiver
3,2015/2/09,Get response as string
6,2015/2/09,Implement wrapper for okhttp
3,2015/2/08,Refactor name for http client wrappers
37,2015/2/08,Add http client support for 2.2 devices
1,2015/2/08,Providing http client support for legacy devices
15,2015/1/24,Minor fix to how bus are registered
3,2015/1/24,Minor code clean up
4,2015/1/24,Fix bug where intent receivers trys to register another intent
13,2015/1/24,Use class for log events instead of a primitive boolean value
33,2015/1/24,Revert "Minor code clean up"  This reverts commit b6c1b69c03a87fe09671bf1db000e08f448ffd1d.
41,2015/1/20,Minor code clean up
8,2015/1/20,Revert "Minor code clean up"  This reverts commit ca19ebb2b65f2d20e3e8ec8465ca4094e455b3e7.
4,2015/1/20,Minor code clean up
2,2015/1/13,Clean up release script and made changelog json validate
6,2015/1/13,Fix minor issue with sample code
