App,Store,App ID,Review ID,Country,Version,Rating,Date,Author,Subject,Body,Translated Subject,Translated Body
SMSSync SMS Gateway,Google Play,org.addhen.smssync,Z3A6QU9xcFRPR2lZWkZoU2wxbFdraDhDWi0xU1A5V1owcmtjS3dDb0Vyb2dOQ0NTdUFxT19JdmQ2YV9BVXBDbW1SRDZBYk9CMWt1b3RmcDR1XzlIS1dQOHhR,English,,1,2015-01-09,Aayushman Arora,Better use SyncMS,Couldn't relate to its name... try using syncMS app,,
SMSSync SMS Gateway,Google Play,org.addhen.smssync,Z3A6QU9xcFRPRjR4WndJdXM4aDJ2bmE1NTVfaE9NN0YtclV4ckxrekk1NkV0bm90T3VGVnpMRWR1WWZZZ0trbzRwSDdMQ0lTalZLRnFFTmhUUXNzNnZpMnJv,English,,1,2014-12-26,Rahul Taker,Dont install guys,Scrap,,
SMSSync SMS Gateway,Google Play,org.addhen.smssync,Z3A6QU9xcFRPRnc4UUNMaFRLb3g2TDlKbjJwTTYtVDY2MzdlZHgzVzR5cmM4anMxeXdyUl9seVBpcnlTRWhIeHZOUXM3aVppT2VEVHJGWDVka1dteTBmeWt3,Russian,,5,2014-12-23,Василий Кияш,"",Schifo,,
