Topic Index 1,Topic Index 2,Topic Similarity
19,9,0.1836
10,4,0.18280000000000002
4,14,0.1803
8,17,0.1558
16,8,0.14190000000000003
9,16,0.1292
1,10,0.12869999999999998
5,19,0.10999999999999999
3,18,0.10200000000000001
7,11,0.0902
14,15,0.07680000000000001
17,3,0.0754
2,0,0.0644
18,7,0.055
0,1,0.0
6,2,0.0
11,5,0.0
12,6,0.0
13,12,0.0
15,13,0.0
