Topic Index 1,Topic Index 2,Topic Similarity
17,0,0.2943
0,11,0.2467
1,12,0.23450000000000004
4,4,0.2248
8,10,0.22199999999999998
10,19,0.2088
7,13,0.1696
11,6,0.15899999999999997
14,1,0.1173
2,5,0.0897
18,18,0.0805
9,3,0.0731
13,17,0.06839999999999999
3,2,0.0
5,7,0.0
6,8,0.0
12,9,0.0
15,14,0.0
16,15,0.0
19,16,0.0
