Topic Index 1,Topic Index 2,Topic Similarity
12,2,0.2878
6,3,0.2776
9,0,0.258
19,12,0.21899999999999997
5,5,0.20239999999999997
3,4,0.1888
16,14,0.18850000000000003
8,1,0.1815
4,16,0.1312
18,6,0.11439999999999999
2,7,0.10290000000000002
14,11,0.1023
17,13,0.0936
11,8,0.0884
15,19,0.0884
0,18,0.06599999999999999
1,9,0.0
7,10,0.0
10,15,0.0
13,17,0.0
