Topic Index 1,Topic Index 2,Topic Similarity
1,18,0.5317999999999999
9,7,0.51
17,1,0.3499
10,16,0.3206
14,3,0.3127
0,0,0.2863
5,12,0.26999999999999996
13,11,0.2658
6,5,0.24809999999999996
7,13,0.19159999999999996
8,2,0.18160000000000004
2,17,0.1742
15,9,0.15990000000000001
4,19,0.1584
18,4,0.1456
19,15,0.0936
11,14,0.0714
3,6,0.0
12,8,0.0
16,10,0.0
