Topic Index 1,Topic Index 2,Topic Similarity
3,7,1.788
15,2,1.3834
7,11,1.1627999999999998
8,14,1.0679999999999998
12,1,0.9348000000000001
17,10,0.8532
19,3,0.7805999999999998
0,4,0.6858
11,0,0.5862
18,15,0.48869999999999997
16,13,0.4758
10,12,0.38999999999999996
1,9,0.35700000000000004
9,8,0.3484
2,6,0.18059999999999998
5,16,0.17850000000000002
4,5,0.0
6,17,0.0
13,18,0.0
14,19,0.0
