App,Store,App ID,Review ID,Country,Version,Rating,Date,Author,Subject,Body,Translated Subject,Translated Body
NFCard,Google Play,com.sinpo.xnfc,Z3A6QU9xcFRPRi00VUJqTzAzaHFReVRKTUFXWmNTVDk0WTVNUWhndnd1REx0a2h4MklzUXVVaXJwc3BIR3NTS3pvMDZlY3lHTzJnOUt5YkpZUjE1YVEydjhR,English,,5,2017-05-20,石门,"",希望能支持杭州公交卡，谢谢,,
NFCard,Google Play,com.sinpo.xnfc,Z3A6QU9xcFRPSHFlVG1IcnlScUltNV9uUHp4Q3dab3BPWjNZZGtHWUxFUDRjUUxPT3NuRW1ORjdFSkRMbUZqOGMzQnlCbHBtbUo2eWpZeFJPMktTWUdERElN,English,,4,2017-05-06,Kevin Bhasi,"","I've tested the app, and it is able to get the card number and expiry dates of Visa and MasterCard. It doesn't recognise Singapore ""ez-link"" cards, but there's another app called ""SingCARD"" that can do that. It didn't work initially on OnePlus One, but closing out of the app then tapping the card to the back of the phone works.",,
NFCard,Google Play,com.sinpo.xnfc,Z3A6QU9xcFRPSG5aRnNnVU9aV1RkMDF6RGQyTTBCcTM0b2tHT1VNWHRUQXNfLTBaQk5RbHFidUtkcUpRQVhqUFFsTHQ0dGJCNk9JeHRJeWFMdGFzRUFXSkFJ,English,,1,2017-04-23,Majid Shahmohammadi,"",Don't work for Sony p,,
NFCard,Google Play,com.sinpo.xnfc,Z3A6QU9xcFRPRl80Z3BWZDNTaUxWWlBTd0w5NW1ycUFQN0prSlJEMTE3WEp4MGlvMDZmcXEyM2lUNzFsZDVUVnlEZzBSbnpZelRHeHpEa2Z6eENGZjdLVGtF,English,,5,2017-03-29,Kulumus W,"",Simple and useful. Exactly what I need.,,
NFCard,Google Play,com.sinpo.xnfc,Z3A6QU9xcFRPRmM1LUNpcmVzVEQtc20zM1V3b2xUbnRlM2lJZTZZS2FmSDlLOFR4WmlHNTY0c2MxMy1PRVBvTkFCOVRxMlE3a25FM2R4clRvRnQ5QnhkZG9F,English,,1,2017-03-05,"","",Not working with my Mi3,,
NFCard,Google Play,com.sinpo.xnfc,Z3A6QU9xcFRPR19oR2dKUDBWWUNCQjBMWWdDUEZOVEF2X24teHkyOEJMblBBZ3ZxVzg0dFNjZUdCQTk0V0FjVV9hRTctQ2xPbXh2MzhvT1psdEVUX011d1l3,English,,1,2017-01-31,Calin Briciu,"",Not working on Galaxy S5,,
NFCard,Google Play,com.sinpo.xnfc,Z3A6QU9xcFRPSE9YaGJJemV5dTNTVXNjQ3hzRG5FbGRNSC1oODJfZlZuVVZSVWh0b0xWdnpheElUc0pyVUdLU2VCclN1dzlsaGVLdldUZHBVelVpZlZZcGVv,English,,5,2017-01-24,Mao Wtm,"",Simplistic,,
NFCard,Google Play,com.sinpo.xnfc,Z3A6QU9xcFRPRnZTTE80eU1FbXg0MUVuWXV4N3ZwXzR4SUhtSmZWeUk4MEFGSzdETW93NWhFaGYtQ1F5ZWFaY0lXN3B2eHdjd2l4SGluZVltdmRLcXJGSGhj,English,,1,2016-12-26,Fabian Chong,No touch n go,Didn't support touch n go (Malaysia),,
NFCard,Google Play,com.sinpo.xnfc,Z3A6QU9xcFRPRTZHSVg1VGs2d2h1cWdsR2J5NXgydkl4OFlCT0tkM0xnZ2lhNkpSR1hoZGxfZlVhNG5aQl9lUjNTZnBWemQ2aUxicDIteWRydkdOQ0hGQTcw,English,,2,2016-11-17,Anton Aruba,"",Does nothing.,,
NFCard,Google Play,com.sinpo.xnfc,Z3A6QU9xcFRPR2FTX0dndVVqMTFla29mWjhrZ3NMOUNKTmt1ZEU5bmNBNW9Id2VhdUdtT3RnLS01LVZlX0tQR251SktaeDM0VnZNS3JtamFmUnRoQjNoN3ow,English,,5,2016-10-19,Robert Luk,"",If you want to develop NFC apps and want to checkout how to program it.  This is my recommendation.,,
NFCard,Google Play,com.sinpo.xnfc,Z3A6QU9xcFRPRUVmSmFSR1dvVEZOQW5kUEFtbWtOVWVVU1hxaTY1Ym8ySkhpNmVrb0VQRjFQbTNwaXAtZExiRmlzbjdrOEVzMVN2SXRTaEFyd2ZaYmpLTnBN,English,,1,2016-10-15,Timo Ancan,"",No,,
NFCard,Google Play,com.sinpo.xnfc,Z3A6QU9xcFRPRjJQaWpOVUZ2eVZtOGVlQmJpRHh4c0t6dDJOSXhVZ1BxVWoxMkE3WnY2UUFVRGhNM09kaVd3SFRjd3RTMzNHcFlMM01fMndtbEk2RV9TYXlj,English,,4,2016-04-30,Hubert Lam,"",希望能够尽快支持羊城通和成都地铁卡,,
NFCard,Google Play,com.sinpo.xnfc,Z3A6QU9xcFRPSFFQUHNJc0t1cldPOWljNms3SVhFLU1RekoyeENsWjRSeDRKSjdJMXhIa2FDVzF4cHFDWmFmeGdjT21UV2J6Yk1iY2FZNFJqWkVMdktLUEFB,English,,2,2016-03-22,Old Man Jed,Erratic,"My experience is that this app does not always work, even with the same card. With some cards, never works. Uninstalled.",,
NFCard,Google Play,com.sinpo.xnfc,Z3A6QU9xcFRPR3dlSEYwN0VrX2VTTXJZS0pCeU10THFQZmk4OWh6bVdEbW5VZGJtbjhYM3d0NTBHSVBlRE8zaFg4ZzMxVWFEMUcwYzhSVDdGSFM5bTlZbUJJ,English,,1,2015-12-02,liaoliao liao,"開關非常不方便,界面醜陋，显示的字体很恶心，背景色超级难看","Nfc沒開的時候提示打開可以很方便的打開nfc,但是nfc開了之後就沒有快捷關掉nfc的方式了，必須進入系統設置關掉。強烈要求在软件中添加快捷直达開啟和關閉nfc的方式。",,
NFCard,Google Play,com.sinpo.xnfc,Z3A6QU9xcFRPRS1FZ2tSdXcwVDluNWFUWDJvV1JqUjJiU28zS0xVWVJrNXVMUGpjNjFWakZsMmtMUEJBM0lpVC13MWxtWGxkVEltdU9MMmptX3BRMnFjNzFr,English,,2,2015-11-11,Ryan Newell,Shows all amounts in CNY,Doesn't work with Canadian cards,,
NFCard,Google Play,com.sinpo.xnfc,Z3A6QU9xcFRPRVpJWkcyVFk0UTM2YktrdHpPeExhbnBGN01tUlljNnlmd2xkc1NsLTNUcElFREJyYnZDbUI2TllnUkFfMXUyYVBTc3NQMEpIZmo0T2lNLVlz,English,,5,2015-07-22,Rory Ye,"",不错.推荐一下.用来看交通卡很方便.,,
NFCard,Google Play,com.sinpo.xnfc,Z3A6QU9xcFRPRUUtR2pKNjh2ODJOdGRMX193ODF3cUt1d1ZpTnRqZ2lSbGxvdXBoZ1NPTEUtM3ZtMEJJS1FHWjdnUzNmNDFyWTdiM1ZibkNfQ25sWUx2V0lv,Japanese,,5,2017-03-18,keecyan,"",北京、上海共残額と履歴が見えました。ありがたいです！,,
NFCard,Google Play,com.sinpo.xnfc,Z3A6QU9xcFRPRkVzYlVHYzBKRWM1SDJFYWQtY3YtYlRmbGNrV0VUZkQ2YWZLRlpXd0V0Ynh5WHh5cHhYRzlJN0YxR1NkV2J2WnVfZEFpZVlTV0NoSlFlNkFJ,Dutch,,1,2016-12-22,Wietse van Aerde,"",Doesn't work,,
NFCard,Google Play,com.sinpo.xnfc,Z3A6QU9xcFRPR3VyQlBVSHVLTWdHWUlVc0JjcVFjczhvM3lEclNpdEY3eGJVQm9ndjI2UEFFczVRbGQwZHJtSi1BLTdmTG5JTVZzR0o4TXgzSGN2a0Z0VDJn,French,,2,2017-01-25,Gildas Cotomale,"",Cette monture fait moins bien que son aînée / It seems less capable than CardTest (maybe it works only with ETC User Card ?),,
NFCard,Google Play,com.sinpo.xnfc,Z3A6QU9xcFRPRWp3RnZXTVFIbWJvZGhQQ3hFandncWZFMVk2MTJKdEdKYk9VcDdvaWhGTF9rdDQ2dElfelNxQW0tM2RhSmJhdGpnMXdSaFpZeXYyUTZaUVNj,French,,4,2016-07-19,David BAUMANN,Fonctionne avec les nouvelles cartes.,"*+fonctionne avec les nouvelles cartes 一卡通. *aucune action si la carte n'est pas reconnu; android propose un choix d'autre application. *-manque theme noir, tout sur fond blanc",,
NFCard,Google Play,com.sinpo.xnfc,Z3A6QU9xcFRPRm1kbmdTcG5iWENIZl9xR0FBLTRRWkY2clNHOE9FMTVsRXlYX1hfUkl2dXRiWGF1ZlYybHdFRXh2bXE1OTVCMEc1TWF5VTBiYTlXRXM2enNr,Chinese (Simplified),,5,2017-05-12,sama god,"",很多卡都可以呢！,,
NFCard,Google Play,com.sinpo.xnfc,Z3A6QU9xcFRPRWpXX2YxYk9zVTNyRWs5RGFPcDMtYjdMVG9pZlRBMVUxRXVscVlISHExcEo2SWlvbUdHTWJUajZrbnNvTFBTdHcxbE5JdHdSNi1Ha3RJaGI0,Chinese (Simplified),,5,2017-05-10,Joe free,"",确实简单好用,,
NFCard,Google Play,com.sinpo.xnfc,Z3A6QU9xcFRPRUs2UF80b3N0MFJSdWIwNWJlWFN1OFhacDJxekxvYjQ0dGNzMlhyeUhfOEg4V3Jxb1NyMGJURHZQX29VNGl3XzA2YVFtNTNad3JlUEZGUjFF,Chinese (Simplified),,5,2017-04-27,韩伟,"",支持7.12了,,
NFCard,Google Play,com.sinpo.xnfc,Z3A6QU9xcFRPRUxfZDM3VFdFVGNfWURQc2dTS2lNS05kUVdUOHVXd3hZNDIwT1h4eTNRRG9hVndaTlFuUGxobDZkR0RXclhJVHRubXFDcEdBaGs0TjdRV3A0,Chinese (Simplified),,3,2017-04-24,Zijia Han,"",陌陌,,
NFCard,Google Play,com.sinpo.xnfc,Z3A6QU9xcFRPRWJQbmJSVkJoX01reVlfbVhjMWNlY256dUVTVUVBMmpqR1ZTX0tMaV90a0g2V3pjd1NqOFA1ZDk2Slk0LWU2SjFIQW93MXBwczFONWlaLWFn,Chinese (Simplified),,5,2017-04-22,OneX Hish,"",感谢作者,,
NFCard,Google Play,com.sinpo.xnfc,Z3A6QU9xcFRPRWhmajZZbkI5T3Y3a3lNNTZqMnkwbDVIMGJrZGllVFk1M002bVc4b3BEenp0WDNoNGdMUXRkb1FzQ1ViTDg0UmZUWU9xNnlCZWNhajcwUXo0,Chinese (Simplified),,5,2017-04-20,Neil Kin,"",简单实用，谢谢！,,
NFCard,Google Play,com.sinpo.xnfc,Z3A6QU9xcFRPRVpuZmJMcFJKWnR0Z2ItcGhTTmRKSlJ6MlBkWFdhRmstZFNWUmxrbmludGR6YzRoTTNKMVVQTzlHX1ktdERhbzRJWl9nRE54UHBaaXN2Q0Fj,Chinese (Simplified),,5,2017-04-04,赖远帆,"",非常很好，简洁实用。,,
NFCard,Google Play,com.sinpo.xnfc,Z3A6QU9xcFRPSEc0bUxmRlhudG1HcHpDX2N5blBOQm1Xa0JKWHJndWhJRmtEeS1NY0w0ejh2OWQ4RmpEYzVnWnFsQ1BpdXMybnY3dEhTVjhNNFBqdWtraHVN,Chinese (Simplified),,5,2017-03-27,Lei Xiao,"",电子现金显示的是圈存，不是银行卡里的钱,,
NFCard,Google Play,com.sinpo.xnfc,Z3A6QU9xcFRPRjJKWGY1bEZjNE13alkwRFZNRkdtRVJocWlLUHJGYW1kT2wyUWRrU1NnWGk3bjZKa3Q3OXFnTVo1c01CbkZYNEVjckpzcm5sVEE5V2haYzR3,Chinese (Simplified),,3,2017-03-14,gram InAnd,"",三亚学生公交卡能读出卡号和注册时间和截至日前，读不出来余额。试了一下隔壁的NFC读卡器也是一样的问题,,
NFCard,Google Play,com.sinpo.xnfc,Z3A6QU9xcFRPSDVkWWdHN3l4Z1ZOMGNmZTRwS1pBa201NGw5RUxTYTVwWHRGNmtNd1AtbzNnQzFneFVCTlc0QkhmLU5McTJGd3dsaENmOWtEcVBESWJHa1RN,Chinese (Simplified),,5,2017-03-12,WX Zhang,"",软件很好，没有广告，有的卡还能读出交易明细，赞！,,
NFCard,Google Play,com.sinpo.xnfc,Z3A6QU9xcFRPR2RnQ0hxazNNZzhyWFA2cWFMRnBIT2xLbWNOOW1RVVk3RUF2a0paSlhfbzNHX2NUMTFtd3Btb1RpRGplYXN3N2tXeVE2bXRQSEtnbldjWXNr,Chinese (Simplified),,5,2017-03-10,郭强,"",银行卡可以直接识别，界面简洁到爆，绝对的良心应用,,
NFCard,Google Play,com.sinpo.xnfc,Z3A6QU9xcFRPR0ExSmVDWDZOYlRuMVE3M3ZLRjFrNUR5Mm01aWVpQkpzYVJEVEhNMWVSQ2hHWnNwTFA4UEhfdkt3bndDdWM4RGtiV084RHh5N3VBZEdsQmIw,Chinese (Simplified),,5,2017-02-24,李超,"",很简洁的小程序，非常好，期待后续的完善，青岛的琴岛通和香港八达通都可以读取,,
NFCard,Google Play,com.sinpo.xnfc,Z3A6QU9xcFRPR0ZJT0U3N0l2eDU3aDVOa0VlWkhtZE1Zclh5eWpDOGpBMjM1OGJLQTBtN1Q3NVJtR19XZGVSLUdUT2Mwb0FJdjZYWkJ4N25ibTVxLThkd2xv,Chinese (Simplified),,5,2017-02-24,Wong Pw,"",良心软件，大大的好评！,,
NFCard,Google Play,com.sinpo.xnfc,Z3A6QU9xcFRPRWk5cWtZdnlLSmJQblVZWTl3SmhRbmNWclhMNHRaSGQ5NWR3TmtrYmZmaFdrY2ZEdW56ZmdGNm83UnRrTUxUcVVqWmY4azJJRFNOYXI4WG5r,Chinese (Simplified),,5,2017-02-22,Michael Leo,"",开源万岁,,
NFCard,Google Play,com.sinpo.xnfc,Z3A6QU9xcFRPSGtNYkNvZy05WDhtOWNBUnVoend4M3VsZFB2Ujc0U1RSX0o2VENIN3pibldIa3dheGM1VlNVZXdaZmRud0VFam85dzR1RkpMMDlxWGZ1ckc0,Chinese (Simplified),,5,2017-02-18,张明宇,"",重庆宜居畅通卡可以读余额和记录,,
NFCard,Google Play,com.sinpo.xnfc,Z3A6QU9xcFRPRll0eW9kM1d0LVYzcENaQWZvSzRqSnBvMHZKbGRDVWN0SHMxODByeVExOW9nM0haUVQzN0xvR2FpcFdZdnR2MmhvbWRSdUwyMklrZ0c3MVlN,Chinese (Simplified),,5,2017-02-15,尤吉祥,非常棒,可以读出福州的榕城通,,
NFCard,Google Play,com.sinpo.xnfc,Z3A6QU9xcFRPR0x4U0Y5Z2VXVjRQdndsQUdzX01tUmd5UVF2dEZnNy1vSmMzYU5YSm1zdk9zRHVvV3FYcjRjTGZVdmxJUC1XRjFLMXhUMG9la1poT2RmLWFR,Chinese (Simplified),,3,2017-02-15,Ming C,"",安装了才发现不支持羊城通。。。,,
NFCard,Google Play,com.sinpo.xnfc,Z3A6QU9xcFRPRk0zMGVwd19nYnlTNUFGb2pfckJIWGhVV3Y3Z1VQYWhYRjJUdUJPY2p6NU5KSnpfZ1Yzd2EzMzNjR3lXVmxVaENXYlBXT2RFcDRxNTFhcFlF,Chinese (Simplified),,5,2017-02-09,Dennis Chen,"",简洁大方，好用,,
NFCard,Google Play,com.sinpo.xnfc,Z3A6QU9xcFRPRXYzaG1BSE1acjl4bkhxMWFXVWd6SHlLUWRHa2UyYmx2VVZNaU9KX3NtZHNPVzlkYmZpMjhXTzlBZXo2OElmcGttWEdsNjV4UTFWYnhvWm1j,Chinese (Simplified),,5,2017-02-01,Ding Jia,"",非常好的小软件,,
NFCard,Google Play,com.sinpo.xnfc,Z3A6QU9xcFRPSEJMRTFGb0M0Y3NtcWw4TGNzQm1vWEpSNXFXaEI3bXVGSEFPTnpqZGtyWEhRMlhmdlpsU3V3WDl1MHJLbkJyNDNXR3B3VFRMQnctU2VRZmZv,Chinese (Simplified),,5,2017-01-22,"","",还不错，能读种类挺多的。,,
NFCard,Google Play,com.sinpo.xnfc,Z3A6QU9xcFRPSDRSR0NudUNreS1mUkpVZUdTYzM0N2ZfUlJmRDZxVUYzRVV0YWJhblVzRTNHTlFTNWtQMzhuVGpaWGVDajBLTUcxRGNUSWc5N25wRGVGdENJ,Chinese (Simplified),,2,2017-01-18,"","",成都蓉城通，读不出来,,
NFCard,Google Play,com.sinpo.xnfc,Z3A6QU9xcFRPR0FRZmlMS2Zzb3YzWGVNN0hXN0gxRFV2V25OZmI2UnFXQ2FNMks1a1VTRFNURWVHRF9fNXRrX3JZQ1hMUHN2bTc0RlU1NGJidnJydkZUZUx3,Chinese (Simplified),,1,2017-01-12,Ikuo Ryuuzaki,辣鸡,公交卡都不能读,,
NFCard,Google Play,com.sinpo.xnfc,Z3A6QU9xcFRPR0NKOGhqMFJTNWQyU3BySVVSeE1pMV9OQjE2RmVDOFFmbVB0akV4dm9lVFY0MWpyOFdwMmw0bWRDWncyNEEwNENjbFpkNG9mUmVWZmhFR05J,Chinese (Simplified),,5,2016-12-29,xr l,"",简单易用，无广告，良心作品，且行且珍惜。,,
NFCard,Google Play,com.sinpo.xnfc,Z3A6QU9xcFRPSE81Y1BuMHZXRHBsSG9KcGJleXRiRm1mcjh4dk1Cc0hYcTlPcWxfVTlYUVpvWTE5b29uTkZWTno0OGt4eFdfZjA5cUVqMG4tZzVjcTBLRF9z,Chinese (Simplified),,5,2016-12-21,张奕昕,"",太棒了,,
NFCard,Google Play,com.sinpo.xnfc,Z3A6QU9xcFRPR2dBS3FGN3hyTTM4Y3ZLNTlFWlB2bmstUjRqUDA3RmFpTTJNSXd2alB3SlAxempuV190Nkg2NXpKUDIyYnRhS2l5RXRFNWUyRW5TNTdHaTNZ,Chinese (Simplified),,5,2016-12-19,baby fox,Good,Very,,
NFCard,Google Play,com.sinpo.xnfc,Z3A6QU9xcFRPR2VEZjdtZUJuTlFsU1FtTTZVdVpMZk9PMnpqWEV4Z2lxblJvTlh6QWdGcHA5SUxHanJYSTE1QVJGUVlCT2ZQSVNRdmh0ZXNiVFZ0NFlSS2Fj,Chinese (Simplified),,5,2016-12-08,风行云,"",没有广告，好评,,
NFCard,Google Play,com.sinpo.xnfc,Z3A6QU9xcFRPRnJUcTNyZ2VrRlctemRXNGNnNGZNN2lVMVJQYzhvUDVfR2s0NzRrdUZNVTRvUVpYZ3gtekxZR3FxcTR3Z1A4UjhaNGpYZzdqajRWVks2WmtB,Chinese (Simplified),,4,2016-11-30,Yangchun Wang,"",为什么银联闪付卡读取后，电子现金都是0.00？明明有余额的。是不是要开通网银后才能看到啊？,,
NFCard,Google Play,com.sinpo.xnfc,Z3A6QU9xcFRPRzVPaGZOS2JMclpTVVN2UmxRZFFDZ0hnb24xSEpYU2xOQlR2akFjZHREdER4LWNFcjVzSXA1VGJPN1d6UXpWbWhrSUR5ZjIzcW5GV19CZl9r,Chinese (Simplified),,5,2016-11-30,Jarod Lau,"",不错,,
NFCard,Google Play,com.sinpo.xnfc,Z3A6QU9xcFRPRkNaRXFtVGFRWXJOejZseFFQZGpKWDZWTlktaHZqdVR4c25vWTRnczVrcUVHOUVfM1JnbWE3NUpDQlhxX1lrVDlqZWltcnRHVGw3QjNyMHg4,Chinese (Simplified),,5,2016-11-01,羿李,无法读取旧版北京公交卡,这是什么原因呢,,
NFCard,Google Play,com.sinpo.xnfc,Z3A6QU9xcFRPRzFMQjhPTm9NbzlGQS03elJZTXdLbUptSjhEVi1QT0pjZ1d0ckVObkY5aDEzZXEyUmxVdFRJVVQyNllZVUZuaDVKdDcwLVI4Uk1vTXNrUEhB,Chinese (Simplified),,5,2016-10-31,Jun Lee,"",这个很不错，可以读昆明的公交卡，并是开源的哦！,,
NFCard,Google Play,com.sinpo.xnfc,Z3A6QU9xcFRPRXROb0RvdG03T0I2ZVE1N2ZRZTY4aklCVFlidXNUVks4Ykd4bzFsOV82WFY1TEpFdFRKSm1OVXlpY3ZTWjJFYXgzQWt5NHM1Q0JBOUZSV1RJ,Chinese (Simplified),,2,2016-10-31,甘庆梓,"",广东的羊城通及岭南通读不了,,
NFCard,Google Play,com.sinpo.xnfc,Z3A6QU9xcFRPRlA1dUVwZ3FIWHFBSzJvZVUwSGNvdFlnRF9vVm5SWXBYZFhMY0tmN1YyTVZIdGZzUUlyVVZMTXQwU1BqNWNmY1o0cEp3azNfWEwtQk1fSmxn,Chinese (Simplified),,5,2016-10-27,Douglas Yan,赞,简洁功能不错,,
NFCard,Google Play,com.sinpo.xnfc,Z3A6QU9xcFRPRktlcC0yZG9fOXFneEpnRjNrcGVZQW9Uc2d2LTl0bUY1dWQ2eWxNSUZZcDdyeUxOZHBPM3o1SEhzVHVDcTBHMHRxYUMtUEM5WHJMRU1CRUlZ,Chinese (Simplified),,1,2016-10-07,Yf D,"",支持卡太少了，不通用。,,
NFCard,Google Play,com.sinpo.xnfc,Z3A6QU9xcFRPR0JIU05sV2kxWnRnSnlrRVBYbXNwc2JIUzlrTHpwaFBHMjJmN2JBd2p5ZU1mNHNPWDMwZkhQTU9Ud3Q1ZVZPNmR5ckQ0empJV2ljeGpLNVdN,Chinese (Simplified),,5,2016-10-06,F J·,非常方便使用,可以快速的查阅卡片的消费信息，科技改变未来。,,
NFCard,Google Play,com.sinpo.xnfc,Z3A6QU9xcFRPSHNTVWE4Z21lWXlONFNvZVprbXBoZ1dkM0ptRWlkZlJ5SUU4YjV0R0NmaEtFVUx2OFRVNkI2a1o0ZXdNZkJMb0JkMDcxWjhNMFlBMkdaMXlj,Chinese (Simplified),,4,2016-09-09,Bo Huang,不能读EMV卡,不能读Visa PayWave 和MasterCard PayPass，希望能够支持！,,
NFCard,Google Play,com.sinpo.xnfc,Z3A6QU9xcFRPSDl6VFFqUHoxX01NY3RNelFjYkNNT21JUmFwVjV5MWhBUzhrOGZUUmtZV21yM3NZbU9rSm5vZjVCbWh1TEU3Y1VLZ0lNbk1pcjJfQ3FLSkhR,Chinese (Simplified),,5,2016-09-08,Evan Wang,"",简单好用,,
NFCard,Google Play,com.sinpo.xnfc,Z3A6QU9xcFRPRXZzei1idDU3S2ExcDE5VVVkc09STERpVUR3VHU5ZGJFQmphVmtYdDAtc1RJU2RZNFlKeWFNZU5SMHBVdk9IRW5rUHlVX3B0Tjl1a0dJalRZ,Chinese (Simplified),,5,2016-08-06,Litsbu Young,"",读取方便，良心之作,,
NFCard,Google Play,com.sinpo.xnfc,Z3A6QU9xcFRPRUVBMldXSlk0ZVQ1bTQ1VXdyNHdYSl9Bblg5dlE1V2RzMXJETnVEeXZfSHVpUDUxM0ZXR0Y5MzQ0QUhjcE9od1pGMFlKemNLNWNfZXBhMUw4,Chinese (Simplified),,5,2016-07-18,Mark Lai,非常好,权限又少，读取也非常好，如果能加上读取八达通的交易记录就太好了,,
NFCard,Google Play,com.sinpo.xnfc,Z3A6QU9xcFRPR08wQV81djRxZVNCem1Zb1UyZ2wxX2xjd0ZiTHZycWg0OEg1ZldrbmZzcXVBUnFmRm9Cd2dlWFBBRUFFMkxKUGJibEhQV1JVLWZoSm5lcWNR,Chinese (Simplified),,5,2016-05-13,Faith Lee,"",简洁，易用。无广告。,,
NFCard,Google Play,com.sinpo.xnfc,Z3A6QU9xcFRPRm1UbkREeW9ZNmp4WTRDZUp1MjZtTVl3WkxrWEpJMTc4Vi10UDhhQ0RmTkFET2VkalcySzN3VG1Nb0k3YndaRV9wMmV0YWNhM0N4UVY5LTUw,Chinese (Simplified),,5,2016-04-23,大灰羊,"",天津工会会员服务卡的2个账户余额全能读。还没消费不知道记录能不能读。界面简洁没广告，良心啊。,,
NFCard,Google Play,com.sinpo.xnfc,Z3A6QU9xcFRPRU1ldFd0d000ZzJpVlRHbkw5Sk5fdXppNENuT1FGYnlrZHVjdnhmNmxzckw0TVBVTHZBb2VnZnE2VXZCbjhRTGhQeVNFVjZQRVRDQmNCcFJ3,Chinese (Simplified),,5,2016-01-29,史贤康,简洁实用,就是功能不是很全，单一了,,
NFCard,Google Play,com.sinpo.xnfc,Z3A6QU9xcFRPRjVIZXZ1Z2VmVkxUVndYY3dlYVJQejFNODFqU0ZYSnVYRkpvNU4tam1jWHNjdHhOamdnQ19lZDFyWjBJTFFwOWQzZEhZaC04OU40ZTRZX21R,Chinese (Simplified),,5,2015-11-20,Mingtao Yang,"",简洁，功能突出,,
NFCard,Google Play,com.sinpo.xnfc,Z3A6QU9xcFRPSDJOWjdfcmFQeGRIdHFQVnFISWZaZlBIU2xkYUUyMXNnYXVVQVlKUXdIaHJQcDhnNVpQRHYyXzdzV0FBeUR5TVpSdWdZNzVUenhDYmVKcElz,Chinese (Simplified),,5,2015-11-18,A gan,"",好,,
NFCard,Google Play,com.sinpo.xnfc,Z3A6QU9xcFRPRV9hNlBpdm9wZ2pDM3ZZek9sT2NOcjd6Rzh6MlZKdGpNUUtLX2gxYXpnWDdOMFpjZ0NBdjYtZTRQZE5VX1g3TXVDMTdUeUlpSUxqcnRfeUQw,Chinese (Simplified),,5,2015-09-23,Fonzie Huang,以前读过我的公交卡,不知为何后来不行了，不过还是能读很多其他卡。,,
NFCard,Google Play,com.sinpo.xnfc,Z3A6QU9xcFRPRWNURXVZbUZqUUNxZ1pTNC03ZlFCZExyYzk3SUJYSWk4TGQteXNUS25yN2hnS2pjdkhuV1J2MEN6aHRNVDJCcmpiT01GRV9pZHVnR0ZjQk80,Chinese (Simplified),,5,2015-09-22,Sheng Lu,"",超好用!,,
NFCard,Google Play,com.sinpo.xnfc,Z3A6QU9xcFRPRi1lSVZubGpyS1lSUGhpLXNOTGtrR2JMQWtCWGpQUVhkUXE2S3hMQk9IVnNRQThRcWgzTzJMWU5UT2x3cUpwWm9aVDlfUFQwWkdmWjhDenNJ,Chinese (Simplified),,5,2015-09-22,zhzhkk zh,"",良心应用,,
NFCard,Google Play,com.sinpo.xnfc,Z3A6QU9xcFRPRlRjWHZSc05sREpXMGYweHFaZ2FzMDZsQW1ld1N3bGZrZW1fLVdueHRSeFBYYmEyM09ET2VnQjRJM3ZneHNLMDJRNjZDR3JWYW5MMEs2Vm5Z,Chinese (Simplified),,5,2015-09-15,Season David,"",Good!,,
NFCard,Google Play,com.sinpo.xnfc,Z3A6QU9xcFRPRjVvSktEdjl0Sm4yaWhJQV9QVDV1SXVHWnp0S3YzZm85YkJ2bDlYdnI5ZFlkOHh4SE5GZWt1Wkd3M3JxdFg2dkZxdEpwbkFINzlNME8wQ0J3,Chinese (Simplified),,4,2015-08-23,Denghui Wang,挺好,UI希望可以提高,,
NFCard,Google Play,com.sinpo.xnfc,Z3A6QU9xcFRPRm9kdURHLVhJSHFCaXpSeGpMZlpWd1JIa2V4aHAzdTRGcW42dV9yODY4SmpXTHVkMldXSzU3YmVhMTVqSl9VdGZnQkZORHY4dnhzWUw3dms0,Chinese (Simplified),,5,2015-08-09,xl Fu,很实用,简单，无广告,,
NFCard,Google Play,com.sinpo.xnfc,Z3A6QU9xcFRPRWVmVFRaeXFEdUhNSXBxWlJqc0U3RWs5OFo1VEJseEZJM0RYS3ZJZ0drS1BObkhNdUxxSWZvdDNDZEE5RzRPOU1SZDd5MFRVS1JPS0pwelpn,Chinese (Simplified),,5,2015-07-24,Horse Luke,"",不用讲，好用，而且开源。感谢提供！,,
NFCard,Google Play,com.sinpo.xnfc,Z3A6QU9xcFRPRjlFYXh6VXVwTWpqTWpDdE5YVWNnQ1pTeVJYZFA2Vm1qdEZPZGFRdzlTay15RFV3M3pyeXhvekdTMm12MEVaNDNXRDU4clFhV0VodDAwVHNj,Chinese (Simplified),,5,2015-07-22,Pu Yang,很棒了,银行卡可以读，但是似乎不支持我这边的公交卡,,
NFCard,Google Play,com.sinpo.xnfc,Z3A6QU9xcFRPRVFLLWJycHBBUTlpczM1LTZCOUhYWEN5N0FnRUE5dWZqUGRwTTdWTW5iOWViOE9EZ3pBaS1vUU56dXc5ajdGT1NUYjg0OU5qcWllTEozQjVN,Chinese (Simplified),,5,2015-07-22,dali zheng,"",简单，无广告,,
NFCard,Google Play,com.sinpo.xnfc,Z3A6QU9xcFRPRmNCd0lVQmNNQXRJNkVCdktRUUZyR3lLWFBfRDVxSTZreHZJeExXSFZaU3ZiM1lSWDVUMEo4dzRvclBPRTRSOUlXVXQtelQ0TFZuczBEdUhB,Chinese (Simplified),,5,2015-07-21,邱攀,好,好,,
NFCard,Google Play,com.sinpo.xnfc,Z3A6QU9xcFRPR0xNR2NEZzVsbmotVTFBaVVLZXREQUUyc0lJUDZHZ1I0eUJzaWpXbXRCalpoLWU2RHVXU183MlYyNmxUY1JiRHktQUhJeXctVXJwSEpiYkNr,Chinese (Traditional),,3,2017-04-12,ck Andy Chan,"",深圳互通行讀不到餘額，只顯示 access denied.,,
NFCard,Google Play,com.sinpo.xnfc,Z3A6QU9xcFRPRzBCY0tHYWlFSjYyX29HNWdUdE94bURveldOM2xSVk5KREZsSm5EeUYzazFacWhoamJBaVhqcWRDdVljNEloa1p2a29nQTlVSGIzTEpCLVJZ,Chinese (Traditional),,2,2017-04-02,Ming Chan,"","更新不到,出現字句,等待wifi連線",,
NFCard,Google Play,com.sinpo.xnfc,Z3A6QU9xcFRPSDV1VENXeEJ4MVV3ZlNlRGo0M3NJTFd3czloUlZQNW51cUx4NjZaSVctREVqRnlvZ1lYVTJpdUxweHdxbzN2UWRkSmd1RTRBTFlNWWVpeXg0,Chinese (Traditional),,5,2017-03-29,Ivan Chiu,"","無廣告，無要求不必要權限，良心app, thx",,
NFCard,Google Play,com.sinpo.xnfc,Z3A6QU9xcFRPRm1RbWlmSEJpR25McU9fa0RHVktCTkJ6M0llcFJoZ2ZpSzFPU2IxOUdreFZMNUxnOHIyMGg0a1ZQNG5XMmpQdHcxTXN4SlRqSVVfVWJ4Ykln,Chinese (Traditional),,1,2017-01-10,叫爸爸,無效的App,三張卡片都沒有讀取出來,,
NFCard,Google Play,com.sinpo.xnfc,Z3A6QU9xcFRPRTZPdzk0dy14djg4eWxabzRxdXVQREVYWWNrNkZKZnJGNG8xMjYySHlBRkpQWDZVdXhOLWxZTGc1Rkhad05PcjBSSVlPQ0NocUZFQjZnUng4,Chinese (Traditional),,5,2016-12-30,毛公子 Mo,Good,非常好用,,
NFCard,Google Play,com.sinpo.xnfc,Z3A6QU9xcFRPR0RSdHk1TTE3aExJamV3QVRzUUhwXy01OWlVb21BZkZqRG5IMUEwV0I2Vmx0SGNtWGdVMkMwU1dWUjR6U2NYcms3a0VGNk8yMnQxd3lfdWFR,Chinese (Traditional),,5,2016-12-26,"","非常好用,又沒有廣告,多謝你。",繼續努力加油,,
NFCard,Google Play,com.sinpo.xnfc,Z3A6QU9xcFRPSFBvMlkyd19tcFUyZ25OSG16MDNXRnVSMk1HMUVPNmdyTkJmakRUZWVfZEM0Q3A3ZlJHLUhzR1doNC01YkpGS1poaHJqNnRqNW1sb1hhVHlN,Chinese (Traditional),,2,2016-12-06,kei wan,一般般,"三張澳門通,兩張有反應,結果出來的是深圳通...而且剩餘額也有問題,變成了人民幣,餘額也不對,另外八達通可正常讀取餘額",,
NFCard,Google Play,com.sinpo.xnfc,Z3A6QU9xcFRPRmlRVDV1OTRaSllzR1JXUHllVDB5N04xREJCUm1fbXluc1M4anJQbnpZZ2UxLVBXR3JpOUlPazNvMTI5S2d2T1EtRjBoTGNnRk5fVTVNaG1v,Chinese (Traditional),,5,2016-11-02,david Lx,"",實用，免費，無廣告,,
NFCard,Google Play,com.sinpo.xnfc,Z3A6QU9xcFRPSEM0TGVyc2RBdTNldHNUNnRhWW5MMnliWEE2a1ppOUFhVTVXRi1HNGpOQ00zRklBU255ckZ3bTlsZG9lR2FLSGhWQWVoSDBXMHd0UEo4amZv,Chinese (Traditional),,4,2016-10-23,Kam Ho Ho,"",方便好用！,,
NFCard,Google Play,com.sinpo.xnfc,Z3A6QU9xcFRPRlNfaTJ5V3NGVV85Q2NrLWFIcVJ0dVdXLUtPODhZNF9rcktZSHhOSFI1X1BjcEZ4c0ZNUGptclZUd3h6d0RlbDBzT29uRWF6OXVzclNDXzJB,Chinese (Traditional),,5,2016-10-06,Yip Pakshing,"",方便實用,,
NFCard,Google Play,com.sinpo.xnfc,Z3A6QU9xcFRPR2RCNnNGb0pCT3pHWWxDSU9OaENxZW5tNjhjcjlvTm9YOXdpT0ZpaGJQTGoySkZ5WFQ1eFR1b21xY2JnRFYzMFVEWlVhVDF0dTlrbGZ0Wk80,Chinese (Traditional),,5,2016-09-05,Bo-Cheng Tzou,"",簡短方便的軟體,,
NFCard,Google Play,com.sinpo.xnfc,Z3A6QU9xcFRPR01zLUw4bGpzRXlyc185Tm43eFpCTjZGQXZJMXdVSlNreExnOW9ocVFqVHlYQm1RSDZtWGotaUV3YlhkcDlJdnJvVEdSWDhOSTdlVnFsNUpz,Chinese (Traditional),,5,2015-11-14,Ng KHung,"",Can read different kinds of cards,,
NFCard,Google Play,com.sinpo.xnfc,Z3A6QU9xcFRPRlpKWDdEa2wwZnRrZVBDTFduM3EwTHJWc1AzUXVGZ2lMYlVBd3FaN0RfVVZpUldINW9MbDdSTWF2M2czLXdwc0N3YV90MGlfU1RYWnJZU0lv,Danish,,1,2015-08-18,ang3Lcake Nielsen,"",Visa cant be used.. bad. !!!,,
NFCard,Google Play,com.sinpo.xnfc,Z3A6QU9xcFRPR0ZEWHNsTjQ2MzFrS3Zjd0NraG9XaUpIanQ5N2RPOHdsNGJzcWRhdVc3SkZLNjZVUk5ES0l6dVIwVW5jQXVua3JIS0l2MEs2aFNhR2poNEtZ,German,,1,2016-09-24,Helmut Kraus,Nutzlos,Kann nichtmal den Personalausweis erkennen,,
NFCard,Google Play,com.sinpo.xnfc,Z3A6QU9xcFRPRVZ0U3NNX0ZRSEJHUkhMUGdCOHh5d0tXX0psSEtXREVnOWIwSDVJS0o3a1lNd2g5SmNLTldCWmFZZ0M5UTJDS1Q4dVUwOGYwNDhseWZrVVM0,Polish,,1,2017-03-29,I.P. Freely,"",Doesn't read a thing. Or maybe reads card data in background &amp; sends it to the author. In any case stay away from this crap!,,
NFCard,Google Play,com.sinpo.xnfc,Z3A6QU9xcFRPRjJWMmtmUU5zTm5UN0MwNmdycU1tZVRUd3NGTmRKTHBuSHFxaV9jc056aTQyNGFES3FwME1QbWFRS1VwQ2NjZVhtcUVoVDctem1naTZKRUdv,Polish,,2,2015-09-06,Patryk Durka,"",zbyt mało informacji.,,
NFCard,Google Play,com.sinpo.xnfc,Z3A6QU9xcFRPRmVZX01aWnFIWWVkd3ExZllkS0RLTFMzMU95SC1wMW9pUDZfbG14anJudlIxdXkxUm9NdWQ4TWpOVXFrVVQ2dEU0alBwMzhMUjJDSjRkWHYw,Romanian,,1,2017-05-14,dorin antoni,"",Fake,,
NFCard,Google Play,com.sinpo.xnfc,Z3A6QU9xcFRPSFpuQndjRlh1RjhKR05uXzItTjVYRE5WWVRIZDdFbThUcEZfYmNhWkZ1LWRvLXROenlZWUtpc3l1YVJXT0hEc2JUbjdZNW5PRWdYaVJMQkRr,Russian,,1,2016-11-10,Juri Lentis,"",Did not see card,,
NFCard,Google Play,com.sinpo.xnfc,Z3A6QU9xcFRPR24wM0RVcmpkdjUyWE5zX1lXeUNmQTV0R3l2U2JJejUtU1FWTjZQYmJQTmxDb3U2cDU2YXo5NGdZU2cxZlhRLUR5OHpGc1FBSWd3aFZWYUFJ,Russian,,1,2016-04-04,Fox80314,"",На Xperia z5 не работает :(,,
NFCard,Google Play,com.sinpo.xnfc,Z3A6QU9xcFRPRUhxcjUwMVRDUUZNRkhyLU5QQ25IN1F6dG1rMjFHaGFYNU1LX0tsOUEwSnVPZ19lekZpMHFoUkRUaEg2aERucEpxSkRnOGRhLV9jbWVKMFU0,Spanish,,1,2017-04-02,Raul Cheng,"",La version Anterior funcionaba perfecta. La nueva no funciona,,
NFCard,Google Play,com.sinpo.xnfc,Z3A6QU9xcFRPRTBIYXhvMjdXTzRfNnIyMlNSSnRsZG5JLVRfZFJ6Q2ZEYURSVUg1M2xQWmdkdlMxRzlsX2xDZGxaRTlYNUtRNzZlUFdXR0VVRzdJbE5objNF,Spanish,,4,2016-05-21,JOSE MARTINEZ GOMEZ,"",Bueno,,
NFCard,Google Play,com.sinpo.xnfc,Z3A6QU9xcFRPSEVfVVVSemFzY0NBQm9DT2JZQ1pBdG05Zmo5Y2lGbWtSV2VpQm5GLUNDM3FZcFJEbWJScVFIeGw3aUFCQ0xHWURoYUJUeEZrWjZRejdiUE1r,Spanish,,1,2016-03-09,Antonio Torres Escobar,Basura,No funciona para nada el móvil la lee pero la app no,,
NFCard,Google Play,com.sinpo.xnfc,Z3A6QU9xcFRPSEVaaV9TV3I0RjRJdElaLVhqUV9PVi04UUM1aWFvUEh4WUZES0xrRE5QN0pFXy1TNC1BQ1RRM0QxYWxxTFhYODd4bHJrWGpyMXhGMXc1Wkxv,Turkish,,1,2016-02-05,Erkan Bilarman,"",Çalışmıyor.,,
NFCard,Google Play,com.sinpo.xnfc,Z3A6QU9xcFRPRkd5UHJ6dWIwWkNRSXN5dXdMS1k0TUg4MC1qX0hSZXVIa2JMUFRUZHk4OVMzS1QzWFRtQmV1dVJ1LVlody1sWFpWMklNX3R4ZVVwZ0gwRVJV,Vietnamese,,3,2015-10-25,tuấn trần,Dc,Dc,,
