,o,2015/3/17,,
add spoon and update page load test add spoon and the,b,2015/10/22,,
these run like,b,2015/10/22,,
update the page load test with a few common case,b,2015/10/22,,
bug,b,2015/10/22,,
removed the code to automatically clear the session log in and reattempt the edit,b,2015/11/03,,
bug,b,2015/11/03,,
fix a bug the lead subtitle wa not cleared when transitioning from an article with a displayable subtitle to one without,b,2015/11/10,,
depends bug,b,2015/11/10,,
implement event logging for page scrolling,b,2015/11/05,,
this implement a new funnel to log how far the user scroll through any given article,b,2015/11/05,,
this also update the funnel to include additional data for free such the page id and the index and title of the selected section,b,2015/11/05,,
bug,b,2015/11/05,,
hygiene lead image parallax scrolling the parallax effect used in the lead image requires the coordination of view internal to,b,2015/11/11,,
move this logic from into and replace offsetting with translation which are simpler and available in all,f,2015/11/11,,
possible tangential fix for,b,2015/11/11,,
bug,b,2015/11/11,,
this add basic to the context,f,2015/11/11,,
bug,b,2015/11/11,,
we want this to happen exactly once,b,2015/11/06,,
conversely page saved which were downloaded from the mobile content service should get some of the transformation,b,2015/11/06,,
,o,2015/11/06,,
disable some transformation for user the transformation can be handled by the service are handled by it,b,2015/11/04,,
esp,o,2015/11/04,,
i think the transformation could potentially be split up into two part,b,2015/11/04,,
the pure transformation and the addition of the,f,2015/11/04,,
we then could move the first part tot he service too,b,2015/11/04,,
bug,b,2015/11/04,,
the initial network request will come in a later patch,b,2015/11/03,,
bug,b,2015/11/03,,
the audio player portion will come in a later patch showing pronunciation is always disabled in this patch,b,2015/11/02,,
bug,b,2015/11/02,,
fix various bug to improve the browsing experience fix the logic the always try to load the requested page by all mean possible so if the network connection is not available it will try to fetch it from the cache or from the saved page storage,b,2015/10/21,,
bug,b,2015/10/21,,
fix crash involving and,b,2015/11/09,,
bug,b,2015/11/09,,
make share icon background transparent the change in appeared correct initially on my device,b,2015/11/09,,
however and reinstalling the share icon had an opaque black background probably due to an old version,b,2015/11/09,,
,o,2015/11/09,,
,o,2015/11/09,,
update verbiage of message no nearby page are found,b,2015/11/09,,
bug,b,2015/11/09,,
bug,b,2015/11/09,,
also reduced the amount of requested sentence to 5 mentioned in,b,2015/11/08,,
,o,2015/11/08,,
bug,b,2015/11/06,,
see also,o,2015/11/04,,
this required finding a way to prevent the custom cab menu from being injected during a long press in the search bar,b,2015/10/26,,
it turn out this can happen of new custom insertion action mode functionality introduced in marshmallow,b,2015/10/26,,
additionally updated the functionality to go through the content provider framework on marshmallow and above to prevent error sharing a fact a an image,b,2015/10/26,,
,o,2015/11/02,,
the fix is to make sure the method return the title with underscore,b,2015/10/26,,
included in this change is also a database migration which enforces all the title stored in the db to use the format,b,2015/10/26,,
bug,b,2015/10/26,,
,o,2015/11/05,,
,o,2015/11/05,,
test of two link preview design,b,2015/11/03,,
this implement an test of two design for the link preview dialog a,b,2015/11/03,,
band no thumbnail gallery,b,2015/11/03,,
the hope is to user response to a design and see how it affect engagement,b,2015/11/03,,
bug,b,2015/11/03,,
use edit pencil icon from local asset,b,2015/11/05,,
this brings in a change from we introduce some for using the edit pencil icon from local android asset instead of the icon that is embedded in the,b,2015/11/05,,
bug,b,2015/11/05,,
the audio player portion will come in a later patch showing pronunciation is always disabled in this patch,b,2015/10/27,,
bug,b,2015/10/27,,
,o,2015/11/05,,
,o,2015/11/05,,
hygiene upgrade testing library add espresso and recommended android instrumentation test upgrade android runner to,f,2015/11/05,,
add and,f,2015/11/05,,
upgrade to,b,2015/11/05,,
hygiene upgrade build tool to,b,2015/11/05,,
hygiene rename to it test,b,2015/11/05,,
,o,2015/11/05,,
this patch increase the timeout duration from one to five minute and update to use which ha the appropriate constant built in,b,2015/11/05,,
no other change were pulled in,b,2015/10/29,,
from,o,2015/10/29,,
also removed unused edit icon in asset,b,2015/10/29,,
bug,b,2015/10/29,,
,o,2015/11/02,,
,o,2015/10/23,,
save image to image folder previously image saved from the gallery appeared in the camera folder in the gallery or under a generic picture heading in the new photo,b,2015/10/22,,
this put them in a dedicated image folder,f,2015/10/22,,
also created a new class and did some minor refactoring,o,2015/10/22,,
bug,b,2015/10/22,,
60 disable backup bump target to 23 had issue testing the backup and restore of data,b,2015/10/22,,
bug,b,2015/10/22,,
60 runtime permission for save image from gallery added runtime permission check trying to write to external storage in gallery,b,2015/10/20,,
bug,b,2015/10/20,,
60 runtime permission for location added runtime permission check for location in both,b,2015/10/20,,
bug,b,2015/10/20,,
from an external browser,b,2015/10/30,,
this successfully handle the case described above,b,2015/10/30,,
bug,b,2015/10/30,,
no need to call this for release build the default is false,f,2015/10/30,,
this patch may or may not fix but it will change the kind of outer stack trace we get for this issue,b,2015/10/30,,
it will postpone the missing issue later,b,2015/10/30,,
bug,b,2015/10/30,,
hygiene move view concern to continue to prune the class by moving some view concern to and encapsulating some of the presentation logic in by hiding internal view implementation detail,b,2015/10/22,,
,o,2015/10/22,,
introducing broken out from change,b,2015/10/27,,
use testing support library test runner use for all android instrumentation test and add,f,2015/10/22,,
i believe these were added a workaround for using activity test case to exercise functionality,f,2015/10/22,,
bump,b,2015/10/26,,
,o,2015/10/26,,
fix top padding in nearby fragment,b,2015/10/26,,
bug,b,2015/10/26,,
fix rule fix rule,b,2015/10/24,,
blanket keep all in the package,b,2015/10/24,,
check for crash in,b,2015/10/24,,
transmission of the crash report fails in the report lingers until the next check,b,2015/10/24,,
,o,2015/10/24,,
remove the mapping archival step from,o,2015/10/24,,
,o,2015/10/24,,
suppress delete button history is empty bug,b,2015/10/23,,
will see if we can make an automatic dependency in,f,2015/10/23,,
bug,b,2015/10/23,,
bump,b,2015/10/23,,
bug,b,2015/10/23,,
restore revert removal in,o,2015/10/23,,
bug,b,2015/10/23,,
bk increase the size of the release from to about,f,2015/10/22,,
to verify the library is working properly one usage of bk is made in,b,2015/10/22,,
,o,2015/10/22,,
hygiene replace view with custom view replace view associated with the lead image and article title with a custom view,b,2015/10/20,,
additional patch forthcoming to keep the small and intelligible,b,2015/10/20,,
,o,2015/10/20,,
bug,b,2015/10/22,,
no functional change intended,b,2015/10/21,,
,o,2015/10/21,,
promote lead image animation to production,b,2015/10/22,,
also is unnecessary for this animation,o,2015/10/22,,
,o,2015/10/22,,
fix translation test fix a bad format specifier,b,2015/10/22,,
,o,2015/10/22,,
,o,2015/10/22,,
make separate list item color for mode,f,2015/10/21,,
in dark mode the default color of page title wa making them invisible against the dark background,f,2015/10/21,,
bug,b,2015/10/21,,
bug,b,2015/10/19,,
this icon wa not generated correctly by the tool and looked weird,b,2015/10/21,,
,o,2015/10/21,,
bug,b,2015/10/20,,
upgrade support library to upgrade support library to,b,2015/10/16,,
upgrade compiler and build tool to and required by library,b,2015/10/16,,
upgrading the target should be a separate card additional work is although it is now permitted to,b,2015/10/16,,
upgrade to which support 23,b,2015/10/16,,
upgrade the to which support needed by,b,2015/10/16,,
side effect fix to disable misleading active state tapping on the navigation drawer header logo,b,2015/10/16,,
update and android instrumentation test task,b,2015/10/16,,
these seem to have unexpectedly changed,b,2015/10/16,,
remove which is now available in 23 but is regrettably marked final,f,2015/10/16,,
update to allow for activity a related window feature appears to be unchangeable set,b,2015/10/16,,
apply a workaround fix for introduced in the new design library,b,2015/10/16,,
update rule to exclude the support library based on experimentation,b,2015/10/16,,
update translation test to exclude a new format string internal to the support library,b,2015/10/16,,
move the launcher icon to the folder structure the new convention to store the launcher icon of an android is to use the folder,b,2015/10/17,,
bug,b,2015/10/17,,
these asset increase the release from to about,f,2015/10/19,,
bug,b,2015/10/19,,
update license description handling added a function to strip markup from string before displaying to the user show license description in a instead of a toast invert the behavior so a regular click show the license description summary in a and a long click fire a chooser to visit the license info page in an external browser bug,b,2015/10/16,,
,o,2015/10/19,,
replace with replace with,b,2015/10/15,,
however these property are used in one place presently and the current implementation be adequate,f,2015/10/15,,
seems to be incompatible with marshmallow just like,b,2015/10/15,,
the upgrade will be made in a subsequent patch with related change,b,2015/10/15,,
the change in size is,b,2015/10/15,,
add remote logger to l in the form of,f,2015/10/15,,
this is meant to coincide with fix the error path is not understood,b,2015/10/15,,
this is done via a helper exception which supply an accurate by forcing creation at the point of logging,b,2015/10/15,,
a new wa added to setting to test this functionality save the crash bit,b,2015/10/15,,
also replace exception logging function with and fix no message overload to print an empty string instead of null for their message,b,2015/10/15,,
rename and to and,o,2015/10/15,,
replace the crash test with a dummy,b,2015/10/15,,
removed function from the main bundle,b,2015/10/16,,
,o,2015/10/16,,
replace contextual action bar menu on text select the contextual action bar menu appears differently across device,b,2015/10/14,,
no longer do the animation on the hamburger icon,b,2015/10/15,,
bug,b,2015/10/15,,
is used for all other resource,b,2015/10/15,,
replace and with,b,2015/10/15,,
,o,2015/10/15,,
fix page thumbnail caching for real,b,2015/10/15,,
bug,b,2015/10/15,,
update icon for use in notification,b,2015/10/14,,
the icon is now a white square with a transparent w cut out of it which is compliant with the visual requirement of notification under lollipop and higher,b,2015/10/14,,
bug,b,2015/10/14,,
hygiene wa large and cumbersome,f,2015/10/14,,
this patch divide the method into several concerned method,o,2015/10/14,,
no functional change intended,b,2015/10/14,,
,o,2015/10/14,,
,o,2015/10/14,,
revive the session funnel,o,2015/10/09,,
updated the funnel to record the number of page viewed during a session categorized by source,f,2015/10/09,,
added a new source to represent page viewed from the disambiguation list,f,2015/10/09,,
added a developer preference to set the length of a session for testing purpose,f,2015/10/09,,
bug,b,2015/10/09,,
,o,2015/10/14,,
bug,b,2015/10/12,,
,o,2015/10/13,,
this add a call to before passing them to the system so it know how to handle them,f,2015/10/13,,
bug,b,2015/10/13,,
,o,2015/9/30,,
correctly align the table of content based on language,f,2015/9/30,,
move from to,b,2015/9/30,,
bug,b,2015/9/30,,
fix background fix regression in the background wa incorrect for many article,b,2015/10/06,,
the fix wa to simplify the state of,b,2015/10/06,,
bug,b,2015/10/06,,
now using the same list item layout for language selection and article language selection,f,2015/10/08,,
in the activity use our generic which encapsulates showing of any error encountered fetching article title,b,2015/10/08,,
bug,b,2015/10/08,,
beta turn service remotely plus you can still manually turn usage via developer setting,b,2015/10/01,,
the remote ha a percentage of beta installs which get to use our endpoint for loading page content automatically,b,2015/10/01,,
there is a significant failure it will fall back to using for the next 100 page load,b,2015/10/01,,
after that it try again to use there is another failure and so on,b,2015/10/01,,
,o,2015/10/01,,
display notification on image save this patch add a system notification displayed to the user an image is saved from the gallery,b,2015/10/05,,
bug,b,2015/10/05,,
this change might cause confusion for a very small percentage of use case,b,2015/10/06,,
despite this potential confusion we believe this change will provide the best experience for most user,b,2015/10/06,,
additional related change always return the language canonical name in,b,2015/10/06,,
it wa a bug to return a localized form,b,2015/10/06,,
update some comment,b,2015/10/06,,
bug,b,2015/10/06,,
enable hardware accelerated rendering for improve animation performance of the by enabling hardware,b,2015/10/06,,
fix exception sharing a fact this patch is a partial revert of 3235488,b,2015/10/06,,
a reference cannot be held a deep copy is needed,o,2015/10/06,,
bug,b,2015/10/06,,
,o,2015/10/06,,
opening link preview and pressing carriage return make the whole screen orange,b,2015/10/06,,
,o,2015/10/06,,
add utility function,f,2015/10/06,,
name null expression method,b,2015/10/06,,
bug,b,2015/10/06,,
,o,2015/10/06,,
,o,2015/10/05,,
,o,2015/9/30,,
,o,2015/10/05,,
hygiene remove code for unsupported old device wa recently advanced to 15 which left a lot of dead code for legacy device,b,2015/9/30,,
bug,b,2015/9/30,,
create unique for mutant may be shared mutate is called,f,2015/10/01,,
this change fix a bug seen on the 23 nexus 5 and 15 nexus one emulator,b,2015/10/01,,
3 open a link preview,b,2015/10/01,,
note the link preview is translucent like the status bar,b,2015/10/01,,
call mutate on,o,2015/10/01,,
remove explicit default value for member variable,b,2015/10/01,,
add a couple helper method for getting resource and color,f,2015/10/01,,
replace member variable state with stateless method,b,2015/10/01,,
extract function from,b,2015/10/01,,
update comment,b,2015/10/01,,
,o,2015/10/01,,
bug,b,2015/9/29,,
fix possible crash returning to nearby fragment,b,2015/9/30,,
bug,b,2015/9/30,,
convert icon ha option to convert only specified icon file name are provided a command line argument then it will only convert the give file,b,2015/9/28,,
note you should specify only the file name not the whole path,b,2015/9/28,,
bug,b,2015/9/28,,
prevent from possibly returning,b,2015/9/29,,
the extension return content from the lead section of the requested article,b,2015/9/29,,
section heading edit link etc,b,2015/9/29,,
why do we trust our sentence parsing logic more,b,2015/9/29,,
a separate sentence our parser will leave those alone,b,2015/9/29,,
bug,b,2015/9/29,,
bump version glob,b,2015/9/29,,
enable a few more syntax highlighting rule editing,b,2015/9/29,,
,o,2015/9/29,,
but since the algorithm for removing parenthesis also affect link that have parenthesis in them this wa doing more harm good by breaking these link,b,2015/9/29,,
bug,b,2015/9/29,,
fix lead title offset regression the lead title and subtitle now share a single and should be measured together,b,2015/9/28,,
,o,2015/9/28,,
simplify checking of whether saved page exists,b,2015/9/24,,
of the two bug listed below this may fix the first and will fix the second,b,2015/9/24,,
bug,b,2015/9/24,,
fix possible crash showing link preview,b,2015/9/28,,
whether ha been called yet,b,2015/9/28,,
bug,b,2015/9/28,,
bug,b,2015/9/28,,
,o,2015/9/27,,
,o,2015/9/28,,
remove divider and adjust margin remove divider in search result saved page nearby place history record and read more result,b,2015/9/08,,
numerous tweak to padding and margin per card and material notably in the previously mentioned,b,2015/9/08,,
minor additional tweak to search hint and link preview,b,2015/9/08,,
this code should probably ultimately be replaced but this change will make it le fragile,b,2015/9/08,,
replace needle in with,b,2015/9/08,,
bug,b,2015/9/23,,
a side effect this fix the remaining error under window,b,2015/8/26,,
bug,b,2015/8/26,,
map in nearby highlight using to retrieve tile from our server,b,2015/5/23,,
this add about 234 to our size,f,2015/5/23,,
for only,o,2015/5/23,,
bug,b,2015/5/23,,
,o,2015/9/25,,
initialize status bar color to match on launch the status bar wa transparent but the wa not,f,2015/9/24,,
this patch initializes the status bar color to be consistent with the,f,2015/9/24,,
,o,2015/9/24,,
,o,2015/9/24,,
fix vertical truncation of title and subtitle move subtitle from distinct to title with span,b,2015/9/18,,
other amendment may need to be made it ha a generic name,b,2015/9/18,,
,o,2015/9/18,,
bug,b,2015/9/18,,
always capitalize description,o,2015/9/24,,
,o,2015/9/24,,
make the status bar translucent make the status translucent on 19,f,2015/9/23,,
status bar translucency wa used over color to support 19 instead of 21,f,2015/9/23,,
instead of setting status bar height offset were added to the preexisting action bar offset,f,2015/9/23,,
there is some noticeable dryness refactoring needed between the saved page history and nearby fragment but this wa a preexisting condition,b,2015/9/23,,
this patch move the gradient initialization from to which is a more appropriate place given the opacity change made,b,2015/9/23,,
the gradient wa also expanded to include the status bar translucent a it otherwise clashed with the status bar creating a weird almost magnifying glass effect,f,2015/9/23,,
it may benefit further from additional adjustment,b,2015/9/23,,
send window decor height across bridge to apply the appropriate offset,b,2015/9/23,,
the is intentionally full screen but ha no knowledge of the status bar and,f,2015/9/23,,
this value wa previously and not tied to the actual dimension of the,b,2015/9/23,,
add which fix an alpha bug not yet merged in,b,2015/9/23,,
note the of and are terrible,b,2015/9/23,,
no change intended in,b,2015/9/23,,
bug,b,2015/9/23,,
fix retrieval of description from retrofit response,b,2015/9/22,,
bug,b,2015/9/22,,
bump and,b,2015/9/22,,
the minor version number ha been bumped by 1 to celebrate the significance of this occasion,f,2015/9/22,,
,o,2015/9/22,,
add navigation drawer shadow add a soft subtle shadow to the navigation drawer for consistent appearance on 15 and 23,f,2015/9/18,,
no change to scrim,b,2015/9/18,,
bug,b,2015/9/18,,
show page description loading page from link preview fix a bug in which page header did not include description when navigated to from a link preview,b,2015/9/21,,
bug,b,2015/9/21,,
,o,2015/9/21,,
,o,2015/9/21,,
reloaded,o,2015/9/14,,
updated color and icon for,b,2015/9/14,,
most of the new icon come directly from the material design set,b,2015/9/14,,
i also kept the name of the icon so we can easily reference them in the material set,b,2015/9/14,,
moved the login action into the header view,b,2015/9/14,,
bug,b,2015/9/14,,
add support for loading link preview content via obtains link preview content from a lead section request the article is on and content loading is enabled,b,2015/9/16,,
a forthcoming patch will add a feature flag to push this to a small portion of our beta user,f,2015/9/16,,
bug,b,2015/9/16,,
reduce share a fact memory and fix lead font face replace with,b,2015/9/17,,
this method return a previously set bitmap or null to reduce the number of image in memory,b,2015/9/17,,
it is used indirectly by share a fact,o,2015/9/17,,
this translation likely requires stitching,o,2015/9/17,,
no other change intended other those mentioned in the bullet,b,2015/9/17,,
change face detection failure value from negative to null,b,2015/9/17,,
rename anonymous subclass local variable from to extract method for generating test bitmap move face detection eligibility check spawning the task,b,2015/9/17,,
minor reordering of member,b,2015/9/17,,
replace log,b,2015/9/17,,
call with l,o,2015/9/17,,
,o,2015/9/17,,
hygiene break up method in decompose method and minor refactoring of no functional change intended,b,2015/9/16,,
additional work may be required but further tweak will ruin the,b,2015/9/16,,
it wa i found a manual useful,o,2015/9/16,,
this variable refers to the whole lead section not just the image,b,2015/9/16,,
there is one lead image,b,2015/9/16,,
add butter inspired utility to avoid casting by hand,f,2015/9/16,,
reorder class member to be client centric,o,2015/9/16,,
remove unnecessary explicit initialization of member variable equal to the default initialization,b,2015/9/16,,
replace conditionals with and max,b,2015/9/16,,
regardless of the implementation small method are important,o,2015/9/16,,
method do one thing are le likely to have,o,2015/9/16,,
for example an may include padding calculation and setting among other thing,b,2015/9/16,,
you have lived with such a program for a few year however you learn just how valuable all those little method are,o,2015/9/16,,
all of the payoff of sharing and supported by little method,o,2015/9/16,,
since the early day of programming people have realized the longer a procedure is the more difficult it is to understand,o,2015/9/16,,
development environment allow you to see two method at once help to eliminate this step but the real key to making it easy to understand small method is good naming,o,2015/9/16,,
the net effect is you should be much more aggressive about decomposing method,o,2015/9/16,,
we do this even if the method call is longer the code it replaces provided the method name explains the purpose of the code,b,2015/9/16,,
bug,b,2015/9/16,,
use site to work around test failure,b,2015/9/16,,
bump,b,2015/9/16,,
,o,2015/9/16,,
fix possible crash due to race condition in page loading,b,2015/9/15,,
bug,b,2015/9/15,,
this fix that,b,2015/9/15,,
bug,b,2015/9/15,,
i tried this approach from a couple tact but it proved nontrivial to implement natural scrolling robustly,b,2015/9/15,,
the scrolling felt off because it happened in the callback with any remaining scrolling happening in,b,2015/9/15,,
in another approach i recorded the y position on down event in,o,2015/9/15,,
bug,b,2015/9/15,,
kit evolution,o,2015/9/09,,
bug,b,2015/9/09,,
in fact the transform should only happen off the main page main page often include special project specific content and formatting,b,2015/9/11,,
this rectifies that,o,2015/9/11,,
,o,2015/9/11,,
hygiene upgrade to upgrade to 27 and regenerate the wrapper and wrapper you generated your wrapper with 26 we strongly recommend you regenerate your with 27,b,2015/9/15,,
this issue affect the startup time for any execution via this wrapper,b,2015/9/15,,
this issue ha been fixed in 27,b,2015/9/15,,
bug,b,2015/9/14,,
bug,b,2015/9/14,,
fix sharing of link in gingerbread,b,2015/9/14,,
neither of these thing seems to have any effect in,b,2015/9/14,,
bug,b,2015/9/14,,
fix sequencing of logged session event in,b,2015/9/14,,
,o,2015/9/14,,
,o,2015/9/14,,
update configuration,b,2015/9/14,,
move and to,b,2015/9/14,,
bump test timeout duration out to for slow,b,2015/9/14,,
use in,o,2015/9/14,,
,o,2015/9/14,,
fix in minor refactoring of to replace member variable with local,b,2015/9/14,,
reported a rare test i hope the new guarantee fix,b,2015/9/14,,
fix possible crash in install referrer handler,b,2015/9/10,,
based on the data collected far it look like the play store often issue the referrer intent with an empty referrer,b,2015/9/10,,
bug,b,2015/9/10,,
,o,2015/9/10,,
hygiene change statement to switch statement this patch change an if statement to a switch,b,2015/9/10,,
switch statement on string are supported on 7 and can generally be by the compiler for performance this change should improve performance marginally a well a increasing code readability,b,2015/9/10,,
,o,2015/9/10,,
network error message updated,b,2015/9/10,,
,o,2015/9/10,,
,o,2015/9/09,,
always use white background for tab icon tab icon are sometimes transparent,b,2015/9/08,,
in these case they often appear best on white background,b,2015/9/08,,
in night mode a white background color must explicitly be set,f,2015/9/08,,
hygiene upgrade to,b,2015/9/08,,
,o,2015/9/08,,
this is for ease of analysis and to mirror the structure followed by facilitating future code sharing,o,2015/8/11,,
bug,b,2015/8/11,,
bug,b,2015/9/08,,
preserve background color of compound image in dark mode this patch eliminates the rule setting all image background to in dark mode which improperly cleared out some background color,f,2015/9/01,,
with this patch the background is instead set to white using if and if another background color is not specified for the image,f,2015/9/01,,
this patch cease the recently introduced halving of value for background color in night mode to avoid introducing undesired shading,b,2015/9/01,,
bug,b,2015/9/01,,
to fix this i removed the existing code dealing with page save and implemented a check over the saved page in the database the option menu is prepared to determine whether the current page is in fact a saved page,b,2015/8/05,,
a such it failed to detect the user navigated to a saved page from other source,b,2015/8/05,,
an ordinary search,b,2015/8/05,,
bug,b,2015/8/05,,
safer error handling we open an invalid page it wa crashing before with exception in multiple place,b,2015/9/02,,
,o,2015/9/02,,
this is useful you want to test the latest mobile content service change on your local machine,b,2015/9/02,,
developer preference for retrofit log level now you can change the log level without having to change code,b,2015/8/30,,
see for detail about the different setting,b,2015/8/30,,
,o,2015/8/30,,
use mobile content service to load page content this is for full page content using request a well a for loading a full page in a single request for saved page,b,2015/9/01,,
the unit test for most of the code can be reused by both variant,b,2015/9/01,,
bug,b,2015/9/01,,
use retrofit for direct page load added new library license info rule size difference before 3812413 byte after 3852942 byte implemented retrofit service endpoint converted to use retrofit callback new for and parsing had an issue with the protection field had to use custom for the protection field due to,b,2015/8/19,,
request us to make handling boolean value easier,f,2015/8/19,,
sorry,b,2015/8/19,,
,o,2015/8/19,,
add exception to exclude from translation test,f,2015/9/02,,
failed a format specifier wa added to one string,b,2015/9/02,,
a workaround the string ha been excluded from the test is fixed properly,b,2015/9/02,,
additionally should not be tested and is excluded is fixed properly,b,2015/9/02,,
,o,2015/9/02,,
,o,2015/9/01,,
bug,b,2015/9/01,,
remove support from,b,2015/9/02,,
this patch remove targeted asset cut and save our user some bandwidth,b,2015/9/02,,
,o,2015/9/01,,
bug,b,2015/8/31,,
this patch doe so,o,2015/8/31,,
bug,b,2015/8/31,,
bump,b,2015/8/31,,
fix search result ordering based on latest,b,2015/8/30,,
bug,b,2015/8/30,,
failed a format specifier wa added to one string,b,2015/8/31,,
,o,2015/8/28,,
,o,2015/8/28,,
revert temporary string renames this patch reverts commit which wa necessary to synchronize string content change,b,2015/8/28,,
now is ready for change,b,2015/8/28,,
a bug in cause most of the line ending to disappear in translation,b,2015/8/28,,
fix image replacement for saved page remove for remote image,b,2015/8/27,,
the image attribute should be specified for remote image downloaded from the network,b,2015/8/27,,
bug,b,2015/8/27,,
fix crash saving a page via context menu with no network,b,2015/8/27,,
bug,b,2015/8/27,,
fix possible crash upon screen rotation,b,2015/8/26,,
this fix a the user rotates the screen before the lead section of the page is fetched by leveraging the function of,b,2015/8/26,,
bug,b,2015/8/26,,
fix possible crash involving zero banner,b,2015/8/26,,
therefore a different fragment is active,o,2015/8/26,,
this update the code to use a more generic view from the current activity for displaying the banner,b,2015/8/26,,
bug,b,2015/8/26,,
the alternative would be mocking response from a mock server and injecting code to use instead of the real server,b,2015/8/16,,
introduced a callback for page load completion which is currently used for this performance test but could be used for other thing in the future,b,2015/8/16,,
bug,b,2015/8/16,,
move link preview tag to private static final,b,2015/8/24,,
the fragment wa being found by it tag in several place in,b,2015/8/24,,
this patch move it to a private static final variable in the class to avoid duplication,o,2015/8/24,,
,o,2015/8/24,,
ensure link preview is closed navigating to new page,b,2015/8/21,,
this patch fix that by trying to close the link preview the user navigates to a new page,b,2015/8/21,,
bug,b,2015/8/21,,
a bug in cause most of the line ending to disappear in translation,b,2015/8/24,,
hide saved page button none exist fixed save all action that would be visible even if nothing is in added in method and for the if nothing is in bug,b,2015/8/15,,
remove icon for social network mark,b,2015/8/21,,
currently we flip the icon for twitter and messaging,b,2015/8/21,,
this patch deletes the icon for those social network so the same standard icon is used in both and mark the that generate those icon a so that version are never generated,b,2015/8/21,,
bug,b,2015/8/21,,
bump,b,2015/8/21,,
the split is now follows 50 of user will see no preview 25 will see the preview scrolled up a short amount and 25 will see it scrolled up a medium amount,b,2015/8/21,,
the production will have link preview for everyone and no height split,b,2015/8/21,,
,o,2015/8/21,,
bug,b,2015/8/21,,
a bug in cause most of the line ending to disappear in translation,b,2015/8/21,,
stage link preview for production,b,2015/8/21,,
all user get link preview,b,2015/8/21,,
removed the randomizer and bumped the version number in the funnel to 3 to distinguish the new event from the previous event which had version 0 1 or 2,b,2015/8/21,,
some final tweak in the layout,o,2015/8/21,,
on two of my device and on 19 in the emulator the link preview seemed to consume a nontrivial amount of,b,2015/8/21,,
,o,2015/8/21,,
clean up list highlight color,f,2015/8/18,,
removed the explicit background declaration from list item layout which will allow any to use the default selection effect naturally,f,2015/8/18,,
updated the color in the custom selector to match the default color,f,2015/8/18,,
bug,b,2015/8/18,,
use default material button selector in a couple more place,f,2015/8/18,,
license icon in gallery,b,2015/8/18,,
button in the dialog,f,2015/8/18,,
,o,2015/8/18,,
,o,2015/8/15,,
link preview tweak,b,2015/8/14,,
the title is now and go to the target article,o,2015/8/14,,
made the receiver more updated the image gallery funnel to track whether it wa entered via the link preview,b,2015/8/14,,
are in agreement,o,2015/8/14,,
bug,b,2015/8/14,,
,o,2015/8/18,,
special page are not supported by the and reference are external link by definition,b,2015/8/17,,
bug,b,2015/8/17,,
prior to this patch the behavior selecting the share option from the overflow menu wa to launch the dialog with the first paragraph of text,f,2015/8/17,,
bug,b,2015/8/17,,
temporarily revert string renames temporarily revert string resource key name made in,b,2015/8/17,,
may exclusively change string name or value in patch and in a day,b,2015/8/17,,
,o,2015/8/17,,
bug,b,2015/8/17,,
whoop bump db version number,b,2015/8/14,,
one of our recent patch introduced a new column to one of our persistence helper which necessitates a bump of our db version from 6 to 7,b,2015/8/14,,
,o,2015/8/14,,
tweak long press menu order long press menu item by frequency of use,b,2015/8/14,,
bug,b,2015/8/14,,
make full use of,o,2015/7/23,,
created a custom view called which inherits from and implement a gallery of image thumbnail,b,2015/7/23,,
modified to be able to fetch thumbnail for each gallery item which is specified conditionally,f,2015/7/23,,
the gallery work a before the thumbnail gallery us the new modified fetching parameter,b,2015/7/23,,
clicking on any of the scrollable thumbnail image lead to the full gallery with image focused,b,2015/7/23,,
increased the global preferred thumbnail size to 320 which will increase the fidelity of thumbnail image shown in search result history saved page nearby and link preview thumbnail,b,2015/7/23,,
bug,b,2015/7/23,,
fix page title position description is empty,b,2015/8/14,,
this patch fix the case the description is empty which wa causing the title to be totally flush with the bottom of the lead image,b,2015/8/14,,
,o,2015/8/14,,
update query generation to handle and other null this patch update the generation of query parameter to be passed to the content provider by generating and value based on the property of a specific object handling null value for appropriately,b,2015/8/13,,
this eliminates the problem of duplicate history and saved page entry and allows deleting history and saved page entry one at a time whether the underlying page are in,b,2015/8/13,,
bug,b,2015/8/13,,
speed up tab animation,b,2015/8/14,,
,o,2015/8/14,,
hygiene use for debug alpha add a public and property to,f,2015/8/11,,
,o,2015/8/11,,
change signing configuration override to use,b,2015/8/11,,
always use prod for all other release flavor,f,2015/8/11,,
for and alpha build mean signature are tied to package name not build type,b,2015/8/11,,
,o,2015/8/11,,
you can install a release build on top of a debug build without,f,2015/8/11,,
a is recommend by,o,2015/8/11,,
previously distributed and alpha build must be which will cause data loss,b,2015/8/11,,
seems,o,2015/8/11,,
update locale,b,2015/8/11,,
note on generation create a new,b,2015/8/11,,
note some tool guard against usage of without password,b,2015/8/11,,
android convert to for comparison with known good key,o,2015/8/11,,
clean assemble verify signature,b,2015/8/11,,
,o,2015/8/11,,
be paranoid,f,2015/8/11,,
download known good and verify,b,2015/8/11,,
,o,2015/8/11,,
,o,2015/8/11,,
verify installs and launch variant from,b,2015/8/11,,
clean l,o,2015/8/11,,
improve design of password entry input,b,2015/8/11,,
the is actually one of those delightfully creepy eyeball icon stare at you unblinkingly a you type your password,b,2015/8/11,,
,o,2015/8/11,,
also simplified the layout of the page title and description in the lead image container,o,2015/8/13,,
no longer doing the animation and the of the description,o,2015/8/13,,
bug,b,2015/8/13,,
extract common implementation to,o,2015/8/05,,
extract save page completion message to method,b,2015/8/05,,
create a workaround for integration of string not to be translated,f,2015/8/05,,
minimal and minor miscellaneous clean up,b,2015/8/05,,
note save page doe not preserve lead image,b,2015/8/05,,
i went ahead and applied this background to the language selection button well a the clear history button and the secondary action in nearby item,f,2015/8/11,,
there may be additional candidate to receive this background but this should do for now,b,2015/8/11,,
bug,b,2015/8/11,,
improve of saving state,b,2015/8/10,,
bug,b,2015/8/10,,
improve of error,b,2015/8/10,,
set the maximum number of line in a to 5 instead of the default 2,b,2015/8/10,,
set the default duration of error to 5 second instead of which is 25 second,b,2015/8/10,,
handling error during account creation one case permit displaying the actual error string returned by the server,b,2015/8/10,,
bug,b,2015/8/10,,
,o,2015/8/07,,
set generous test device timeout is slower a laptop and need a lot of wiggle room on command,b,2015/8/06,,
however the background color of some element in table look strange given this treatment so it wa earlier decided to simply strip them a temporary fix,b,2015/8/05,,
this patch half the value of these element rather simply stripping the color in order to preserve necessary information,f,2015/8/05,,
bug,b,2015/8/05,,
no functional change,b,2015/8/06,,
,o,2015/8/06,,
,o,2015/8/06,,
fix test case runtime dependency depends on android resource which requires context,b,2015/8/06,,
the test wa previously just a,b,2015/8/06,,
,o,2015/8/06,,
bug,b,2015/8/05,,
add crash button to setting add button for intentionally crashing the to the developer setting screen,b,2015/8/03,,
this button is used to test the crash handler,b,2015/8/03,,
,o,2015/8/03,,
migrate persistence helper to use column name rather column index persistence helper rely directly on column,b,2015/8/03,,
this ha caused some nasty bug and represents poor abstraction,b,2015/8/03,,
this patch migrates all remaining persistence helper to using column name rather column which should reduce the future potential for bug,b,2015/8/03,,
bug,b,2015/8/03,,
bump,b,2015/8/04,,
,o,2015/8/04,,
use standard for action,b,2015/8/04,,
this patch standardizes the action for our and to use a standard instead of a custom,b,2015/8/04,,
this make it consistent with other implement within a well a significantly simplifies the overall logic,b,2015/8/04,,
a bonus this also make on link work correctly in,b,2015/8/04,,
bug,b,2015/8/04,,
catch error and report them catch error during tab and report them,b,2015/8/03,,
for build the user is prompted via,b,2015/8/03,,
for prod build exception are printed to,f,2015/8/03,,
light clean up of class,o,2015/8/03,,
can throw more,b,2015/8/03,,
,o,2015/8/03,,
in my previous patch i incorrectly made open page in a new tab came from the intent,b,2015/8/04,,
this includes link file page link invoked from and result,b,2015/8/04,,
this patch reverts change and corrects the behavior,b,2015/8/04,,
bug,b,2015/8/04,,
bump,b,2015/8/03,,
this change fix too,b,2015/7/27,,
this patch accomplishes the latter,b,2015/7/27,,
publicize package protected method in to work around stripping,b,2015/7/27,,
,o,2015/7/27,,
,o,2015/8/03,,
nail down tab behavior for page coming from intent,b,2015/7/30,,
will now open page sent from intent in a new tab,b,2015/7/30,,
this is consistent with other browser and allows correct back behavior for link coming from an intent,b,2015/7/30,,
a single back press should take the user back to the previous activity not the tab list,b,2015/7/30,,
made be,o,2015/7/30,,
bug,b,2015/7/30,,
is clumsy and h unnecessary qualifier a there is no public facing page fragment and the fragment is not a view,b,2015/8/01,,
,o,2015/8/01,,
tweak navigation drawer check behavior call even loading from cache,b,2015/7/30,,
make the random entry uncheckable,f,2015/7/30,,
update check state on fragment back stack change,b,2015/7/30,,
this patch fix a couple state the checked state of the wa incorrect,b,2015/7/30,,
,o,2015/7/30,,
this fix a nasty bug because we were relying on column we were sometimes returning a from the persistence helper,b,2015/8/02,,
bug,b,2015/8/02,,
,o,2015/8/02,,
remove from recent search fragment per remove the floating action button from the recent search fragment and reverts to the previous design,b,2015/7/31,,
bug,b,2015/7/31,,
correctly show logging in and out,b,2015/7/31,,
the patch the wa no longer showing a upon successful login and showing a toast upon logging out,b,2015/7/31,,
bug,b,2015/7/31,,
this make it nice and consistent with other use this component,o,2015/7/30,,
,o,2015/7/30,,
,o,2015/7/31,,
bug,b,2015/7/22,,
add active state to search bar language select button bug,f,2015/7/27,,
make sure is fully cleared backing out,o,2015/7/30,,
bug,b,2015/7/30,,
bug,b,2015/7/30,,
almost forgot,b,2015/7/29,,
,o,2015/7/29,,
preserve open tab always preserve tab opened by the user,b,2015/7/28,,
the new library increase the size of the release by,f,2015/7/28,,
initial research in suggested the browser implementation wa favorable,b,2015/7/28,,
this cl is designed a transport,b,2015/7/28,,
such it is not appropriate to place any parcel data in to persistent storage change in the underlying implementation of any of the data in the parcel can render older data unreadable,b,2015/7/28,,
this made the browser approach ultimately unfavorable,b,2015/7/28,,
this influenced the consideration of alternative,b,2015/7/28,,
additional recording mechanism leveraged in the include database and,b,2015/7/28,,
because this is so easy to do there is a common misconception serialization requires little effort on the part of the programmer,o,2015/7/28,,
the truth is far more complex,b,2015/7/28,,
in the interest of avoiding such an initial investment well a long term cost serialization wa not chosen,b,2015/7/28,,
in themselves support,b,2015/7/28,,
primitive and could be used,o,2015/7/28,,
no worrying and are commonly used in general,b,2015/7/28,,
however and would still need to be built,b,2015/7/28,,
used in conjunction with supply a full solution,o,2015/7/28,,
bug,b,2015/7/28,,
fix possible crash in history and saved page,b,2015/7/29,,
end the test of v,o,2015/7/29,,
,o,2015/7/29,,
hygiene split off page content loading into two variant currently they are using the same code,b,2015/7/23,,
bug,b,2015/7/23,,
bug,b,2015/7/16,,
hygiene extract calculating lead image width and make object key more generic in preparation of a simpler switch between and mobile content service,b,2015/7/20,,
bug,b,2015/7/20,,
fix in tabbed browsing w meant to handle a null parameter a evidenced by the no parameter version which invokes it with null,b,2015/7/27,,
no known step at this time,o,2015/7/27,,
,o,2015/7/27,,
fix picker on older device specify appropriate resource package name,b,2015/7/27,,
set intent package name,b,2015/7/27,,
this patch wa derived from behavior on actual device rather documentation,b,2015/7/27,,
bug,b,2015/7/27,,
renamed to,o,2015/7/15,,
renamed to,o,2015/7/15,,
,o,2015/7/15,,
did a bit of refactoring of the sample rate logic,b,2015/7/24,,
this is ready for production will increase it to 100 or even 1000,f,2015/7/24,,
,o,2015/7/24,,
,o,2015/7/27,,
hygiene disable incremental build optimize on it is to disable performing clean build,f,2015/7/26,,
for i in do time q clean average iteration,o,2015/7/26,,
for i in do time q clean average iteration,o,2015/7/26,,
actual benefit executed on the server may be more modest,b,2015/7/26,,
generalized the to be usable by a in addition to a generic view,b,2015/7/21,,
in the case of a we automatically give it an handle the event,b,2015/7/21,,
made inherit from and turned some of it initialization code into style,o,2015/7/21,,
bug,b,2015/7/21,,
bug,b,2015/7/24,,
remove page section request debug logging each section request is excessive,b,2015/7/24,,
,o,2015/7/24,,
fix possible crash involving the share,b,2015/7/24,,
bug,b,2015/7/24,,
unified the display of error and warning using in place of toast utilizing the new method for converting to plain string,b,2015/7/17,,
turned the zero banner from a into a,o,2015/7/17,,
note this will need a lot of testing,b,2015/7/17,,
bug,b,2015/7/17,,
make new tab appear behind the current tab,b,2015/7/23,,
bug,b,2015/7/23,,
add neutral background splash screen dark mode user do not want to be blinded during launch by a light themed activity,f,2015/7/22,,
i can find no other mechanism for changing the activity theme dynamically,f,2015/7/22,,
bug,b,2015/7/22,,
,o,2015/7/23,,
so now the button work like this displaying the page for the first time the button is always shown,b,2015/7/21,,
the button reappears only you continually scroll with a certain velocity,f,2015/7/21,,
,o,2015/7/21,,
they fixed the bug in the design support library wa incorrectly hiding the hint text,b,2015/7/21,,
,o,2015/7/21,,
,o,2015/7/20,,
use for displaying page load error,b,2015/7/17,,
greatly simplified error logic in a lot of it is now handled in,b,2015/7/17,,
removed,b,2015/7/17,,
removed duplicate exception parsing function from,b,2015/7/17,,
,o,2015/7/17,,
bump,b,2015/7/17,,
,o,2015/7/20,,
fix scrolling of floating button in gingerbread,b,2015/7/18,,
it seems we were anchoring on the wrong view inside the,b,2015/7/18,,
also updated to the latest library,f,2015/7/18,,
bug,b,2015/7/18,,
refine design of search bar language selection button adjust size make background solid enlarge area,f,2015/7/13,,
bug,b,2015/7/13,,
share a fact design tweak update share a fact tip icon,b,2015/7/13,,
bug,b,2015/7/13,,
upgrade to upgrade to version 132,b,2015/7/17,,
this new version should be functionally identical to the previous,b,2015/7/17,,
this upgrade ensures the latest change to the build script cause no harm,b,2015/7/17,,
,o,2015/7/17,,
fix edit pencil position switching from to,b,2015/7/17,,
bug,b,2015/7/17,,
,o,2015/7/17,,
escape the file separator string,o,2015/7/17,,
,o,2015/7/17,,
hygiene upgrade to,b,2015/7/17,,
fix violation in test,b,2015/7/15,,
,o,2015/7/15,,
require compilation,b,2015/7/08,,
bug,b,2015/7/16,,
fix editing test,b,2015/7/16,,
,o,2015/7/16,,
fix width of dialog content,b,2015/7/16,,
the issue is the preview image ha a width in absolute pixel,b,2015/7/16,,
it appears smaller it cause the button to shrink and thereby truncate the text of the button giving the user the impression that the button are identical,b,2015/7/16,,
bug,b,2015/7/16,,
fix user erroneously receiving generic error message,b,2015/7/15,,
change in the library mean routine editing issue such a block are now handled by throwing,b,2015/7/15,,
this patch update the error handling by migrating check for routine editing issue to the method to handle them appropriately,b,2015/7/15,,
also remove the cl a it is no longer useful,o,2015/7/15,,
bug,b,2015/7/15,,
,o,2015/7/16,,
hygiene fix instrumentation test,b,2015/7/16,,
use for,o,2015/7/15,,
fix behavior lead image license ha no license info currently in the event license info is unavailable for the lead image the card will default to showing the fair use icon,b,2015/7/13,,
bug,b,2015/7/13,,
tweak appearance of tab list,f,2015/7/15,,
increase the height of tab list item,f,2015/7/15,,
bug,b,2015/7/15,,
tweak layout of bottom content,o,2015/7/15,,
fixed showing of time,b,2015/7/15,,
fixed the padding between the item in the bottom content area,b,2015/7/15,,
,o,2015/7/15,,
tweak appearance of,o,2015/7/15,,
make the centered,o,2015/7/15,,
add separate default color for in light and dark mode,f,2015/7/15,,
function to display a with the default color,f,2015/7/15,,
bug,b,2015/7/15,,
for the button added separate color for light and dark mode,f,2015/7/15,,
,o,2015/7/15,,
,o,2015/7/14,,
hygiene upgrade to,b,2015/7/14,,
,o,2015/7/09,,
add daily stats funnel add event logging up to a day on page load complete to report the install lifetime in day,b,2015/7/09,,
fix default max digit length for default radix,b,2015/7/09,,
it is valuable to know the distribution curve of the installation retention,o,2015/7/09,,
a new funnel is made available to report this information up to a day,f,2015/7/09,,
the funnel may later encompass additional report at the same frequency,f,2015/7/09,,
bug,b,2015/7/09,,
,o,2015/7/14,,
add article to used to share the article no text wa this is no longer the case since we default to sharing the first paragraph,f,2015/7/08,,
user commonly obtained the article this way we need to put it back,b,2015/7/08,,
this patch doe that,o,2015/7/08,,
additionally it remove a redundant snippet length check,b,2015/7/08,,
bug,b,2015/7/08,,
,o,2015/7/10,,
use in login and activity,b,2015/7/10,,
also made inherit from to make sure any styling that we apply to in the future will be applied properly by,b,2015/7/10,,
bug,b,2015/7/10,,
add percent support library,f,2015/7/10,,
this cause a size increase of approximately 39,b,2015/7/10,,
no known requirement,o,2015/7/10,,
release build appear to function,f,2015/7/10,,
resize share tip social network to wide and proportionally tall from source,o,2015/7/10,,
vertically center share tip social network icon and add padding to the left and right of parent view,b,2015/7/10,,
add new color scheme entry liberal blue,f,2015/7/10,,
bug,b,2015/7/10,,
fix possible crash clicking on link preview,b,2015/7/10,,
bug,b,2015/7/10,,
hygiene cut duplicate code replace duplicate default behavior with implementation in,b,2015/7/09,,
,o,2015/7/09,,
fix reporting fix and for new funnel functionality,b,2015/7/09,,
the previous funnel and merged at about the same time and neither accounted for the other,b,2015/7/09,,
this patch fix install referrer event logging and us the default site whose value is inconsequential,b,2015/7/09,,
bug,b,2015/7/09,,
add custom view for displaying error consistently,b,2015/6/29,,
added a class provides function to get error message for any,b,2015/6/29,,
these message may be used in toast custom view etc,b,2015/6/29,,
added a custom view us the above function and format the message in a consistent way,b,2015/6/29,,
this custom view may be used anywhere we want to display error,b,2015/6/29,,
an example hooked up the new functionality into the search fragment,b,2015/6/29,,
in subsequent patch it should be used in additional place too,b,2015/6/29,,
hygiene style create style inheriting from use consistent pascal casing in add header to style file,f,2015/7/09,,
improve sequencing of and,b,2015/7/09,,
,o,2015/7/09,,
this the and brings the more in line with material design,o,2015/7/07,,
bug,b,2015/7/07,,
add interface method,f,2015/7/08,,
replace null check with null object pattern,b,2015/7/08,,
set action mode bar instead of setting an empty click listener,b,2015/7/08,,
make class static,o,2015/7/08,,
bug,b,2015/7/08,,
fix crash bug in 14 device in,b,2015/7/07,,
rename to,o,2015/7/07,,
developer setting gingerbread support added in response to initial patch feedback,b,2015/7/07,,
,o,2015/7/07,,
bug,b,2015/7/07,,
,o,2015/7/08,,
hygiene remove annotation on primitive,o,2015/7/07,,
,o,2015/7/07,,
hygiene consolidate default funnel implementation add canonical install id and session token implementation to funnel,f,2015/7/07,,
use in funnel site is null,b,2015/7/07,,
field ha a different name override,b,2015/7/07,,
field doe not exist override,b,2015/7/07,,
field ha a different name override,b,2015/7/07,,
field doe not exist override,b,2015/7/07,,
verify is called by funnel subclass,b,2015/7/07,,
verify is called instead of handling,b,2015/7/07,,
verify all funnel subclass accounted for including,b,2015/7/07,,
functional analysis performed all test pas,b,2015/7/07,,
verify event logging on for each funnel except which is unused,b,2015/7/07,,
,o,2015/7/07,,
updated gallery funnel to support source and,b,2015/7/07,,
bug,b,2015/7/07,,
hygiene replace search button layout with and compound drawable lint warning this tag and it child can be replaced by one and a compound drawable,f,2015/7/06,,
,o,2015/7/06,,
add and,f,2015/7/06,,
move to activity,f,2015/7/06,,
a developer setting screen is endlessly useful for changing otherwise internal state on the fly without the use of a debugger or coding,b,2015/7/06,,
it also encourages culture,o,2015/7/06,,
,o,2015/7/06,,
this reporting is used to measure the success of the experience,b,2015/7/06,,
logging verified on,b,2015/7/06,,
bug,b,2015/7/06,,
add tool tip testing bug,b,2015/7/05,,
add tool tip state bug,b,2015/7/05,,
bug,b,2015/7/01,,
smooth gradient in lead image and gallery,b,2015/7/02,,
bug,b,2015/7/02,,
,o,2015/7/06,,
this patch prevents this behavior by calling if the prefix search result are nonempty before falling back to full text search,b,2015/7/06,,
bug,b,2015/7/06,,
hygiene remove unused icon lint warning,b,2015/7/04,,
hygiene remove useless parent layout in featured page widget lint warning this layout or it parent is transfer the background attribute to the other view,b,2015/7/04,,
add language selection button to search bar currently switching the language requires accessing the preference screen via the drawer and selecting the desired language from there,f,2015/6/22,,
bug,b,2015/6/22,,
bump,b,2015/6/30,,
fix test compilation signature wa changed but not updated in test,b,2015/6/30,,
,o,2015/6/30,,
,o,2015/6/30,,
bug,b,2015/6/30,,
bug,b,2015/6/30,,
fix crash rotating with highlighted text,b,2015/6/29,,
bug,b,2015/6/29,,
fix search in main search bar,b,2015/6/30,,
bug,b,2015/6/30,,
,o,2015/6/27,,
hygiene fix zero test,b,2015/6/23,,
hygiene automatically pick event logging endpoint,b,2015/6/23,,
bump,b,2015/6/25,,
fix crash removing the tab icon more than once,b,2015/6/25,,
the button is removed upon the first call to,f,2015/6/25,,
this function is called subsequent time the button is no longer there and becomes null hence we have an,b,2015/6/25,,
,o,2015/6/25,,
fix string reference in channel manifest update string reference in channel android manifest missed a previous rename,b,2015/6/25,,
,o,2015/6/25,,
add subclass support,f,2015/6/23,,
route to for test,b,2015/6/23,,
configure test for 21,b,2015/6/23,,
,o,2015/6/23,,
fix test and event log distribution replace generic testing random number with feature specific random number,b,2015/6/23,,
improve event logging randomization,b,2015/6/23,,
log sent are now evenly distributed across a given device and across all device,b,2015/6/23,,
,o,2015/6/23,,
always event on build,f,2015/6/17,,
bug,b,2015/6/17,,
see,o,2015/6/21,,
this patch introduces an updated bundle including code to prevent the undesired resizing,f,2015/6/21,,
,o,2015/6/21,,
hygiene accept instead of exception,f,2015/6/23,,
add link to privacy policy in login and create account screen,b,2015/6/23,,
bug,b,2015/6/23,,
fix translation invalid parameter format caused a test failure,b,2015/6/23,,
,o,2015/6/23,,
remove initial login splash screen bug,b,2015/6/22,,
move to,b,2015/6/18,,
,o,2015/6/18,,
add necessary get set function to,f,2015/6/16,,
roll and into and,o,2015/6/16,,
use,o,2015/6/16,,
in and,o,2015/6/16,,
expand some import,f,2015/6/16,,
,o,2015/6/16,,
,o,2015/6/22,,
hygiene use shared parsing code and get correct license info for this patch update the gallery code to use a image license parsing function shared with,b,2015/6/19,,
,o,2015/6/19,,
design tweak in history and saved page,o,2015/6/18,,
added a bit of margin around the search field in history and saved page and made the text size consistent with the main search bar text,b,2015/6/18,,
,o,2015/6/18,,
fix possible race condition in tab,b,2015/6/18,,
,o,2015/6/18,,
use distribution with source,o,2015/6/18,,
bug,b,2015/6/18,,
design tweak for tab and a,b,2015/6/17,,
made the shadow under tab a bit more subtle and made the rounded corner of the tab have the correct color background behind them,b,2015/6/17,,
fixed minor issue the incorrect wa being saved,b,2015/6/17,,
,o,2015/6/18,,
,o,2015/6/17,,
implemented tab b a of page,b,2015/5/27,,
previously the thumbnail wa loaded upon fetching the page from the network and then persisted to,b,2015/5/27,,
now when we load the page from cache the thumbnail is loaded from,b,2015/5/27,,
feature flagged for only,f,2015/5/27,,
bug,b,2015/5/27,,
consistent list design,o,2015/5/19,,
reuse the same layout for search result history saved page disambiguation and read more,b,2015/5/19,,
made a custom style contains some tweak to display and mixed content properly and applied it to any that contains dynamic content from the network,b,2015/5/19,,
in future patch create an actual custom view that represents a generic page list item and use it appropriate,b,2015/5/19,,
store description in history and,o,2015/5/19,,
bug,b,2015/5/19,,
hygiene use calculating display height and density also renamed to since that value is in,f,2015/6/15,,
,o,2015/6/15,,
bug,b,2015/5/01,,
set edit preview canned summary to page locale bug,b,2015/6/15,,
,o,2015/6/14,,
upgrade and the android upgrade to and the android to,b,2015/6/13,,
,o,2015/6/13,,
hygiene header logic move header logic from to,b,2015/6/12,,
enable debugging is,b,2015/6/12,,
very minor of part of into,b,2015/6/12,,
,o,2015/6/12,,
initialization of look unnecessary to me to have it twice,o,2015/6/14,,
,o,2015/6/14,,
make sure random feature flag id is positive,f,2015/6/12,,
this patch ensures the feature flag id will always be a positive number,f,2015/6/12,,
,o,2015/6/12,,
,o,2015/6/12,,
this also make it consistent with,o,2015/6/11,,
bug,b,2015/6/11,,
it should be migrated to the new version,b,2015/6/11,,
bug,b,2015/6/11,,
add dialect to template script add simplified and traditional dialect to template script,f,2015/6/11,,
,o,2015/6/11,,
bump,b,2015/6/11,,
,o,2015/6/11,,
subsequently the activity wa recreated it used the null value and compared it with which is always set to a string,f,2015/6/10,,
because we use the language value to determine the language ha changed and if we need to reset the site which also go to the site main page,b,2015/6/10,,
bug,b,2015/6/10,,
decouple language from,f,2015/6/10,,
decouple static language support from language state,f,2015/6/10,,
consider site in header,b,2015/6/10,,
fix and,b,2015/6/10,,
bug,b,2015/6/10,,
no need for file anymore,b,2015/6/10,,
,o,2015/6/10,,
fix thumbnail in saved page list,b,2015/6/10,,
bug,b,2015/6/10,,
tweak local cache policy in,b,2015/6/10,,
presently we load the cached version of a page regardless of how the page wa reached,b,2015/6/10,,
this patch make it so that page are loaded from cache only navigating back through the current of page or when coming back from,b,2015/6/10,,
clicking link clicking history item etc,b,2015/6/10,,
will no longer use cache for now,b,2015/6/10,,
bug,b,2015/6/10,,
add more logging and error reporting to help diagnose page loading issue,b,2015/5/25,,
bug,b,2015/5/25,,
,o,2015/6/09,,
use separate random number for feature flagging instead of,f,2015/6/09,,
bug,b,2015/6/09,,
display main page pressing back after entry from search widget,b,2015/5/22,,
remove a couple unused function and fix a link in,b,2015/5/22,,
bug,b,2015/5/22,,
move documentation to,b,2015/6/08,,
bug,b,2015/5/17,,
,o,2015/6/08,,
also includes a refresh of style from upstream,f,2015/5/24,,
bug,b,2015/5/16,,
fix tag naming in,b,2015/5/18,,
fix and editing issue from last patch issue wa caused by my earlier patch,b,2015/6/04,,
editing wa busted the previous patch did not call often enough,b,2015/6/04,,
the still need to use,o,2015/6/04,,
bug,b,2015/6/04,,
alpha allow using experimental page content service the main change is really a up of we can easily switch between the two page load strategy the old one is based the new one is based via,b,2015/3/30,,
you can switch between the page load strategy by checking the at the bottom of the theme chooser dialog,b,2015/3/30,,
a page refresh right this will crash the,b,2015/3/30,,
better use load a new page instead warning there may still be some crash using the experimental mode,b,2015/3/30,,
using the regular page load mode should behave it did before,b,2015/3/30,,
bug,b,2015/3/30,,
fix translucency closed is not called unless the is closed after reaching a fully open state,b,2015/5/28,,
not slightly opened and closed again,b,2015/5/28,,
this patch fix the translucency check so that is reset to false the drawer is out of sight rather than relying on reaching,b,2015/5/28,,
bug,b,2015/5/28,,
fix margin on link preview dialog 2 bug,b,2015/5/28,,
,o,2015/5/25,,
update to file,b,2015/5/15,,
this improves performance albeit in a manner,b,2015/5/16,,
,o,2015/5/16,,
switch to for time measurement in presently the us to measure time interval,b,2015/5/18,,
this method is subject to change in the system clock which can throw off time measurement rather substantially,b,2015/5/18,,
this patch change to use instead which is not subject to change in the system clock and actually ha a higher level of precision anyway,b,2015/5/18,,
this should fix the issue some search result set were allegedly being displayed many day before the user even typed the query in,b,2015/5/18,,
bug,b,2015/5/18,,
add simplified and traditional dialect add simplified and traditional dialect support,f,2015/5/18,,
replace with simplified and traditional in,f,2015/5/18,,
clean up,o,2015/5/18,,
bug,b,2015/5/18,,
this will not always be possible,o,2015/5/07,,
update and,b,2015/5/07,,
light refactoring in site and,f,2015/5/07,,
rename and to language in several place,f,2015/5/07,,
,o,2015/5/07,,
,o,2015/5/16,,
,o,2015/5/16,,
bump,b,2015/5/14,,
,o,2015/5/14,,
,o,2015/4/22,,
add event logging for link preview bug,b,2015/5/08,,
prepare for death of move static asset checking to since this is done in a language neutral way and doe not matter which it is done in,b,2015/5/01,,
handle image map link bug,b,2015/5/08,,
bug,b,2015/5/11,,
,o,2015/5/09,,
bug,b,2015/5/06,,
,o,2015/5/05,,
fix sharing of image to,b,2015/5/04,,
bug,b,2015/5/04,,
replace android version check with call to,b,2015/5/04,,
permit cab in field including the article history search and saved page search,b,2015/4/28,,
this change effect landscape mode only,b,2015/4/28,,
this wa caused by successfully preserving state but not fragment state,b,2015/4/28,,
this wa caused by an obscure option on the poorly conceived,f,2015/4/28,,
fix comment around action bar mode,b,2015/4/28,,
rename layout to layout to match structure,o,2015/4/28,,
add missing override annotation on method,f,2015/4/28,,
bug,b,2015/4/28,,
fix possible pulling out,b,2015/5/04,,
bug,b,2015/5/04,,
,o,2015/5/04,,
,o,2015/5/04,,
bug,b,2015/5/02,,
link preview a single preview panel with text overlaid directly onto the lead image of the target article,b,2015/4/11,,
also includes description underneath the title,o,2015/4/11,,
bug,b,2015/4/11,,
displaying a single sentence by default and two sentence if the first sentence is shorter four line,b,2015/4/06,,
bug,b,2015/4/06,,
this patch make and set the of page appropriately,f,2015/4/29,,
fortunately the method in which the database is upgraded ensures the old entry are still compatible with the new system,b,2015/4/29,,
bug,b,2015/4/29,,
,o,2015/4/29,,
had to also change the script it generated the version name itself based on the date the command wa run,b,2015/4/09,,
it us the from the file,o,2015/4/09,,
to be able to extract the from the it need to know the location of the tool which is under,b,2015/4/09,,
bug,b,2015/4/09,,
bug,b,2015/4/29,,
fix text directionality consistency in nearby,b,2015/4/30,,
also fix description capitalization in nearby item,b,2015/4/30,,
bug,b,2015/4/30,,
bug,b,2015/4/25,,
hygiene fix preview test,b,2015/4/29,,
minor improvement to use pip instead of,f,2015/4/18,,
add note on vagrant emulator conflict,f,2015/4/18,,
fix some capitalization,b,2015/4/18,,
,o,2015/4/18,,
rename which offer more it claimed to a generic drawer,b,2015/4/20,,
add new dimension which is currently identical to,f,2015/4/20,,
add and apply obviously functionally identical,f,2015/4/20,,
bug,b,2015/4/20,,
see the task for more info,f,2015/4/28,,
this solution to the problem is incredibly stupid but it doe result in the correct,b,2015/4/28,,
bug,b,2015/4/28,,
hygiene add some documentation to wa a bit sparse,f,2015/4/27,,
,o,2015/4/27,,
hygiene create method in and use it everywhere,f,2015/4/27,,
this patch implement a method in us to decode a string into it equivalent and then us that everywhere instead of directly using,b,2015/4/27,,
this reduces code redundancy and increase code cleanliness,b,2015/4/27,,
,o,2015/4/27,,
this patch fix that,b,2015/4/25,,
bug,b,2015/4/25,,
bump,b,2015/4/23,,
fix related test the constructor signature had changed,b,2015/4/23,,
also updating the,b,2015/4/23,,
,o,2015/4/23,,
,o,2015/4/23,,
bug,b,2015/4/22,,
hygiene miscellaneous code quality fix removed unused variable from removed method do nothing except call their parent method changed an code block into a return statement in,b,2015/4/22,,
fix script interpreter and clean up some light miscellaneous clean up of various script set python and b interpreter to x a appropriate,b,2015/4/18,,
update support library version to match target level,b,2015/4/18,,
replace double with single quote possible in,b,2015/4/18,,
include release signing property path not present in error output,b,2015/4/18,,
,o,2015/4/18,,
bug,b,2015/4/17,,
display server status code message to user in case of error bug,b,2015/4/15,,
entry for language in language menu bug,b,2015/4/13,,
prevent action bar from reverting to black on new page load lead image is available bug,b,2015/4/16,,
remove comma from collapsed table chrome bug,b,2015/4/15,,
avoid edits user is logged in specify when submitting an edit,b,2015/3/28,,
bug,b,2015/3/28,,
detect network connectivity and display appropriate error message to user bug,b,2015/4/08,,
bump,b,2015/4/10,,
,o,2015/4/11,,
fix,b,2015/4/11,,
fix missing period at the end of first sentence in some article,b,2015/4/08,,
bug,b,2015/4/08,,
,o,2015/4/03,,
device wa set to and invoking on an article the logo wa invisible,b,2015/4/03,,
bug,b,2015/4/03,,
there should be no change a result of this but it let new developer easier find the id of a view at a glance,b,2015/4/07,,
,o,2015/4/07,,
fix issue with moving the first paragraph in some article,b,2015/4/07,,
hide search bar on saved page and history section none exist bug,b,2015/4/03,,
make final another thing seems to complain about in the patch,b,2015/4/06,,
go figure,o,2015/4/06,,
,o,2015/4/06,,
task,f,2015/4/05,,
fix issue with visiting subsequent page,b,2015/4/07,,
bug,b,2015/4/07,,
make enter key submit request the user is filling in a,f,2015/4/05,,
the form requires only a single input,o,2015/4/05,,
the,o,2015/4/05,,
bug,b,2015/4/05,,
bump,b,2015/4/03,,
,o,2015/4/04,,
reverse the ken burn effect on lead image,b,2015/3/31,,
bug,b,2015/3/31,,
aligned bottom of with bottom of icon,b,2015/4/02,,
bug,b,2015/4/02,,
fix a couple issue with single,b,2015/3/27,,
properly remember the offset of the previous page,b,2015/3/27,,
,o,2015/3/27,,
the plan far shall now become a true fragment,o,2015/3/17,,
added additional sequencing logic to task that fetch page content so that they correctly invalidate themselves a new page is loaded,b,2015/3/17,,
,o,2015/3/17,,
reduce size of face detection image copy for performance bug,b,2015/4/02,,
update bug,b,2015/4/01,,
fix possible crash highlighting text to share,b,2015/4/01,,
bug,b,2015/4/01,,
update credit to include new team member,b,2015/4/01,,
,o,2015/4/01,,
add documentation to class,f,2015/3/29,,
,o,2015/3/29,,
fix possible crash failing to clear shared image folder,b,2015/3/28,,
bug,b,2015/3/28,,
,o,2015/3/30,,
fix possible crash highlighting text to share,b,2015/3/28,,
bug,b,2015/3/28,,
remove parenthetical information from lead sentence,b,2015/3/19,,
currently restricted to build and to only,f,2015/3/19,,
bug,b,2015/3/19,,
fix transform of video link in page,b,2015/3/24,,
the transformation of video link contained a bug could potentially throw an exception within that would stop the page from loading,b,2015/3/24,,
example,b,2015/3/24,,
resolve redirects doing,b,2015/3/17,,
our search experience provides the user with and search result,b,2015/3/17,,
however in the case of result if the result is a redirect page it may be more useful to the user to see the target of the redirect rather the redirect name itself,b,2015/3/17,,
however this may be difficult to do on the side this will have to be the solution for now,b,2015/3/17,,
,o,2015/3/17,,
nothing to do there,o,2015/3/23,,
bug,b,2015/3/23,,
bump,b,2015/3/23,,
promote to production,f,2015/3/23,,
,o,2015/3/23,,
this is a nightmare to handle properly,b,2015/3/22,,
right now our lack of proper handling for these arbitrary code is causing the to crash one is received from the,b,2015/3/22,,
this patch change to simply treat arbitrary code a error,b,2015/3/22,,
bug,b,2015/3/22,,
,o,2015/3/23,,
since the main page is updated daily and the need to show the latest content automatically,b,2015/3/23,,
bug,b,2015/3/23,,
,o,2015/3/20,,
,o,2015/3/15,,
cache page on disk instead of ram,b,2015/3/14,,
the structure of the page object now includes the list of gallery item,b,2015/3/14,,
however this doe not yet include the full set of information for each gallery item,b,2015/3/14,,
this still ha to be fetched from the network the user browse the gallery activity,b,2015/3/14,,
this will be addressed in a future patch,b,2015/3/14,,
,o,2015/3/14,,
want to see some comment on the upstream bug first,b,2015/3/17,,
,o,2015/3/17,,
updating would require code change,b,2015/3/17,,
,o,2015/3/17,,
remove from in image,b,2015/3/16,,
set text color in error for 23 in light mode on 23 the error were white on white and therefore not readable,b,2015/3/16,,
we would have to roll our own,o,2015/3/16,,
bug,b,2015/3/16,,
,o,2015/3/13,,
light theme chooser button wa not on 23 another regression moving to 22,f,2015/3/13,,
,o,2015/3/13,,
fix action mode menu item color,b,2015/3/13,,
action mode text color fixed by using proper style,f,2015/3/13,,
unfortunately for the icon color ha to be set,b,2015/3/13,,
bug,b,2015/3/13,,
,o,2015/3/13,,
fix issue the bottom portion of about screen wa white in dark mode the main change is setting of the to,b,2015/3/13,,
also added design time value for version text,b,2015/3/13,,
,o,2015/3/13,,
tweak layout for share a fact to be closer to what the ha,o,2015/3/11,,
fix list item background in 23,b,2015/3/12,,
under 23 the list item were showing up with a solid blue background,o,2015/3/12,,
,o,2015/3/12,,
otherwise the hamburger icon is not shown,b,2015/3/12,,
,o,2015/3/12,,
tackle some more inspection warning,b,2015/3/07,,
,o,2015/2/26,,
move link to better place in it felt lost at the beginning of the and wa out of context,b,2015/3/11,,
,o,2015/3/11,,
update target and version,b,2015/3/11,,
,o,2015/3/11,,
tweak to gallery license icon and text,b,2015/3/10,,
,o,2015/3/10,,
update launcher icon,b,2015/3/10,,
for the time being the policy shall be to receive a icon from designer and size it down to the desired resolution,b,2015/3/10,,
added icon in a separate folder,b,2015/3/10,,
may be beneficial to add a script creates the various size based on the original in the future,f,2015/3/10,,
,o,2015/3/10,,
also tweak size and padding around icon,b,2015/3/02,,
,o,2015/3/02,,
bump,b,2015/3/09,,
update for the and lb translation were misleading,b,2015/3/09,,
marked string fuzzy and fixed translation,b,2015/3/09,,
,o,2015/3/09,,
,o,2015/3/09,,
just log the read next item actually shown before it wa logging up to 11 item it only showed 1 for the new read next functionality,b,2015/3/07,,
also fixed the test,b,2015/3/07,,
,o,2015/3/07,,
update event logging for read next,b,2015/3/03,,
,o,2015/3/03,,
,o,2015/3/02,,
fix crash highlighting text for sharing,b,2015/3/06,,
also fixed minor style issue for correctly setting text color for action mode,b,2015/3/06,,
bug,b,2015/3/06,,
bump,b,2015/3/05,,
,o,2015/3/05,,
switch to a dark with white icon in both light and dark theme,f,2015/2/13,,
slightly decrease the height of the background gradient of the and make the gradient le dark,f,2015/2/13,,
,o,2015/2/13,,
promote share a fact to all build except production release,f,2015/3/02,,
,o,2015/3/02,,
bump,b,2015/2/27,,
,o,2015/2/28,,
hygiene replace ellipsis string with ellipsis character yet another lint warning,b,2015/2/26,,
this one ha 230 occurrence,b,2015/2/26,,
,o,2015/2/26,,
restrict the length of text to 99 to avoid event being dropped,b,2015/2/23,,
feel free to change needed,o,2015/2/23,,
moved setting and checking of around to avoid logging the highlight event twice,b,2015/2/23,,
,o,2015/2/23,,
,o,2015/2/25,,
,o,2015/2/25,,
unregister clipboard listener in instead of,f,2015/2/25,,
gallery,b,2015/2/25,,
this is the activity wa stopped and then resumed,b,2015/2/25,,
,o,2015/2/25,,
tweak the size of gallery license icon,b,2015/2/25,,
the click area remains the same and also added drawable for highlight on press,b,2015/2/25,,
,o,2015/2/25,,
,o,2015/2/26,,
improve moving of to end of first paragraph,b,2015/2/23,,
reusing transform code from we search for the first tag that is nonempty and move it up to the top instead of moving table and image down,b,2015/2/23,,
also solves issue an might become embedded into another existing,b,2015/2/23,,
also solves issue text block were reordered,b,2015/2/23,,
bug,b,2015/2/23,,
remove unused resource and a couple of lint error about log tag being too long,b,2015/2/25,,
,o,2015/2/23,,
fix disambiguation link point to specific section to work properly this patch change the which pass disambiguation link to the to pas the instead of the displayed of a link,b,2015/2/23,,
change the receives disambiguation link to process the instead using a method specially designed to do that,b,2015/2/23,,
task,f,2015/2/23,,
this patch simply hide the message,b,2015/2/22,,
this patch also add and method to the page class for convenience,f,2015/2/22,,
it wa quite clunky to remember you needed to and so this alleviates you having to do that if you have the page object,b,2015/2/22,,
a subsequent patch can migrate place the old way is used to the more convenient way,b,2015/2/22,,
bug,b,2015/2/22,,
,o,2015/2/22,,
catch exception in call exception occurs in a well,o,2015/2/23,,
,o,2015/2/23,,
use icon in gallery license information,b,2015/2/20,,
a medium item explicitly licensed under cc then show the cc icon,b,2015/2/20,,
an item is explicitly licensed a pd then show the pd icon,b,2015/2/20,,
clicking on the icon will launch the associated license in the external browser,b,2015/2/20,,
the icon will pop up a toast with the for the item,b,2015/2/20,,
,o,2015/2/20,,
promote widget from alpha to production,b,2015/2/21,,
use conditional check instead,b,2015/2/19,,
referenced from,o,2015/2/19,,
the way we initialize and clean up our,o,2015/2/19,,
i modified the to inherit from the base which will maintain a reference to the dialog that it instantiates so that it can be explicitly dismissed necessary,f,2015/2/19,,
and the clipboard listener will now persist for the lifetime of the activity,f,2015/2/19,,
bug,b,2015/2/19,,
bump,b,2015/2/19,,
,o,2015/2/19,,
additional for,b,2015/2/18,,
fixed face offset,b,2015/2/18,,
added dark gradient underneath text,f,2015/2/18,,
put the share layout into a in case the display is too small for the generated image and button,f,2015/2/18,,
replaced character,b,2015/2/18,,
fixed unrelated,b,2015/2/18,,
bug,b,2015/2/18,,
,o,2015/2/19,,
correct misleading comment in method in this patch corrects a slightly misleading but technically correct comment in the method in,b,2015/2/18,,
this is a pretty subjective matter so i intentionally made this change in a separate commit from the other commit i just made touch this area of the code,b,2015/2/18,,
fix incorrectly closed in there is a tag which wa closed incorrectly encasing the documentation for three string inside the documentation for another string,b,2015/2/17,,
this patch fix by closing the tag correctly,b,2015/2/17,,
,o,2015/2/17,,
design change replace gray icon with white one,b,2015/2/17,,
,o,2015/2/17,,
fix scrolling tapping and dragging over lead image,b,2015/2/16,,
added a custom to the actual,b,2015/2/16,,
then if we detect a click within the logical area of the lead image then we can assume the user intended to click on the lead image,b,2015/2/16,,
bug,b,2015/2/16,,
,o,2015/2/17,,
for text is selected if le than 2 character are selected also just share the,o,2015/2/16,,
,o,2015/2/16,,
renamed to,o,2015/2/16,,
update launcher icon,b,2015/2/13,,
,o,2015/2/13,,
make drawer overlap over search bar,b,2015/1/30,,
added e padding around the login menu item to make the list not be so close to the top,b,2015/1/30,,
,o,2015/1/30,,
make sure saved image are successfully saved before telling the user so bug,b,2015/2/12,,
translucent on top of lead image fading with scroll,b,2015/2/05,,
,o,2015/2/05,,
added material icon for nearby marker pin,b,2015/2/02,,
the button brings up a la,o,2015/2/02,,
,o,2015/2/02,,
fix of search result,b,2015/2/09,,
,o,2015/2/09,,
bug,b,2015/2/09,,
would have used of 0 the allowed it,b,2015/1/26,,
originally i added it to full text search but then the suggestion come too late,b,2015/1/26,,
the first request is the prefix search,f,2015/1/26,,
the full text search come a second request,f,2015/1/26,,
bug,b,2015/1/26,,
,o,2015/2/09,,
crop image to crop off more off the bottom of image rather,f,2015/1/26,,
this patch change the logic no face is detected to crop by chopping more off the bottom of the image rather than cropping to the image,b,2015/1/26,,
bug,b,2015/1/26,,
use to replace call creates a few useful string a in the class,o,2015/2/03,,
those constant string are way le expensive call to and the like,o,2015/2/03,,
also got rid of and replaced the occurrence with the constant,b,2015/2/03,,
,o,2015/2/03,,
styling tweak shadow,o,2015/1/30,,
added shadow to drawer and drawer,b,2015/1/30,,
,o,2015/1/30,,
switch to using for setting,b,2015/1/29,,
unfortunately 10 doe not support we have to keep the old specifically for compatibility with 10,b,2015/1/29,,
also reverted the previous fix for the rendering issue,b,2015/1/29,,
bug,b,2015/1/29,,
,o,2015/2/02,,
bug,b,2015/1/29,,
,o,2015/1/28,,
,o,2015/1/29,,
,o,2015/1/29,,
bump,b,2015/1/28,,
,o,2015/1/28,,
fix possible crash backing out of gallery activity,b,2015/1/28,,
bug,b,2015/1/28,,
bug,b,2015/1/26,,
,o,2015/1/26,,
fix style for night mode the latest style from got pulled it introduced light background for even in night mode,b,2015/1/24,,
this will fix it,b,2015/1/24,,
fix improperly wrapping description in nearby,b,2015/1/22,,
this patch change to so that it display properly,b,2015/1/22,,
bug,b,2015/1/22,,
fix getting gallery image from non primary site,b,2015/1/20,,
bug,b,2015/1/20,,
add 1100 sampling rate for table of content interaction,f,2015/1/19,,
,o,2015/1/19,,
also on,o,2015/1/19,,
not needed in and lollipop,f,2015/1/19,,
bug,b,2015/1/19,,
add documentation for undocumented message and remove unused message,b,2015/1/18,,
,o,2015/1/18,,
more aggressively disable on field although we had already set the field to not give suggestion certain cl e of android device such a some device ignore the instruction and display suggestion anyway,b,2015/1/19,,
this patch mark field visible password field a workaround to both of the above,b,2015/1/19,,
bug,b,2015/1/19,,
,o,2015/1/19,,
fix broken message,b,2015/1/18,,
,o,2015/1/18,,
fix in,b,2015/1/16,,
now from a object,b,2015/1/16,,
,o,2015/1/16,,
this fix the behavior inside the context in the history and fragment,b,2015/1/16,,
it also fix a crashing bug item in history or because the wa getting it mixed up,b,2015/1/16,,
bug,b,2015/1/16,,
for simplicity,b,2015/1/14,,
,o,2015/1/14,,
combine title and full text search no need to explicitly do an auto switch based on a minimum number of title search result since it automatically doe so the end of the list is reached either by not having enough result to fill the screen or by the user scrolling to the end,b,2015/1/13,,
increased the batch size to 20 to avoid immediate full text search on large device,b,2015/1/13,,
,o,2015/1/13,,
add description for some previously undocumented translation,f,2015/1/15,,
,o,2015/1/15,,
update copying file copyright year to 2015,b,2015/1/14,,
bump,b,2015/1/13,,
promote syntax highlighting to production,f,2015/1/13,,
,o,2015/1/13,,
promote new search feature to production,f,2015/1/13,,
,o,2015/1/13,,
promote lead image to production,b,2015/1/13,,
,o,2015/1/13,,
