Topic Index 1,Topic Index 2,Topic Similarity
11,13,2.3224
16,18,1.4872
6,5,1.485
14,3,1.2096
7,1,1.1245
9,15,0.8784000000000001
17,19,0.7020000000000001
12,11,0.6893
4,2,0.43
1,12,0.315
3,14,0.29050000000000004
5,4,0.23460000000000003
0,0,0.21080000000000002
13,8,0.19979999999999998
2,6,0.0
8,7,0.0
10,9,0.0
15,10,0.0
18,16,0.0
19,17,0.0
