App,Store,App ID,Review ID,Country,Version,Rating,Date,Author,Subject,Body,Translated Subject,Translated Body
Cache Cleaner,Google Play,com.frozendevs.cache.cleaner,Z3A6QU9xcFRPSGQzMG5SZXYyLVhPSTlqSzZvaXo5TXl4NW5ucGFBUDFQcjZnVEtoX25PQkJjcGNJUUhTc2hNcldGeTUyYzFjSlhlWl9xb29LQlRxcEE,English,,5,2014-05-07,MARCO ANTONIO LOPEZ NUÑEZ,MARCOANTONIOLOPEZNUÑEZ,,,
Cache Cleaner,Google Play,com.frozendevs.cache.cleaner,Z3A6QU9xcFRPSDk4TjdyT3psaHpfMmFWelQxT3FCRHlWcFp3WDVXUEctcDRBNXE5QWhWdUZOMXNRSjRyVTJuazdTOEhKX3hnVERSYnM0Nk1uNF9oQVk,English,,1,2014-05-02,Mahesh Rathor,Bad,not working updated,,
Cache Cleaner,Google Play,com.frozendevs.cache.cleaner,Z3A6QU9xcFRPSDk4TjdyT3psaHpfMmFWelQxT3FCRHlWcFp3WDVXUEctcDRBNXE5QWhWdUZOMXNRSjRyVTJuazdTOEhKX3hnVERSYnM0Nk1uNF9oQVk,English,,1,2014-05-02,Mahesh Rathor,Bad,update,,
Cache Cleaner,Google Play,com.frozendevs.cache.cleaner,Z3A6QU9xcFRPSGtucmNmenlfbFhDY2I2bzdwRWNobWZmWGROQUtfTXBUR3VHelo4Q0RDbEJ3ajJDS3M3bG9uWHFMWTEtamJpeXBydHJmUHR3ZmNoYlU,English,,2,2014-04-24,Robert N,,no reason to install,,
Cache Cleaner,Google Play,com.frozendevs.cache.cleaner,Z3A6QU9xcFRPRUxmX0pOTF9xczl0VmpUeDRFR2Z0azRiYXg4SHJ6VkNPeVBUcDNySGMtaUZSa2haOUJKdU5JNzBnWm51aWhCN3FsZXViaWMzYVB4c0k,English,,1,2014-04-09,Peg Hulett,,will not open,,
Cache Cleaner,Google Play,com.frozendevs.cache.cleaner,Z3A6QU9xcFRPRWpCMmtQem1FclExT2M1X1B2RUFaVDNtMHVpWEZUaFF1MkJPMDV4OVdlQURyNnVMWHVxWDFzSEQ4SDUwRHI1VEFaS2EwWXg3aU5MNjQ,English,,5,2014-04-04,Saeid Rahimiyan,,good,,
Cache Cleaner,Google Play,com.frozendevs.cache.cleaner,bGc6QU9xcFRPRi1GaTJ3WTRRMjRMZEpVbDY4RnM1cTQta19rUmJLNnFial9ZOXg1SC1SWk9mTTNoQ3dIVUg4T1UwazdYdGRkank4UjQ2NDFxNTFPb1k,English,,1,2014-03-25,A Google User,,virus,,
Cache Cleaner,Google Play,com.frozendevs.cache.cleaner,Z3A6QU9xcFRPSEdTSTVhb0hsWkpKMFR6bkpoQUdyWXprcXNZb0V4b040eDgteTRSWXBIRWdCdXdvZUdGQjJDNWhYTlRTR0UtT0pFTElvZl9zTVNVeTg,English,,4,2014-03-24,Cherlyn Parker,,it good,,
Cache Cleaner,Google Play,com.frozendevs.cache.cleaner,Z3A6QU9xcFRPRnoxNDhFV1E5b0NqTGlTS1VtYS05MXRteDYtenZoWHFjdnk1eUo0Z24xa29YTEFGUTJNbU9XSHBxQzVXTWZnRXNHNEFGY3BKWV9iWnM,English,,5,2014-03-09,Joe Moore,Ok,,,
