Topic,Words
0,0.016*extremely,0.012*back,0.011*around,0.010*able,0.010*got,0.009*go,0.009*shutting,0.008*based,0.008*really,0.008*ain't
1,0.013*closest,0.013*why,0.012*using,0.011*you,0.010*pleasant,0.009*wherever,0.008*easy,0.008*hiccups,0.008*top,0.007*solve
2,0.013*might,0.010*really,0.009*type,0.009*excellent,0.009*tournament,0.009*then,0.008*whenever,0.008*simple,0.008*7,0.008*location
3,0.011*la,0.010*mind,0.010*casting,0.009*not,0.009*saved,0.009*giving,0.008*thing,0.008*as,0.008*connected,0.008*connecting
4,0.013*back,0.012*errors,0.011*pause,0.011*found,0.010*recommend,0.010*start,0.009*off,0.009*should,0.009*even,0.009*let
5,0.014*years,0.012*yes,0.011*now,0.011*function,0.009*might,0.008*tiny,0.008*solution,0.008*complete,0.008*pair,0.007*settings
6,0.015*current,0.011*isn't,0.010*though,0.010*tracking,0.010*smart,0.009*every,0.009*easier,0.009*android,0.009*made,0.008*state
7,0.012*home,0.011*complete,0.009*allows,0.009*right,0.009*502,0.009*queue,0.009*care,0.008*tho,0.008*let,0.008*asking
8,0.015*keeps,0.014*this,0.012*complaints,0.011*piece,0.009*simply,0.009*wanted,0.008*link,0.008*compared,0.007*doesn't,0.007*as
9,0.012*then,0.011*contrast,0.010*get,0.010*torrent,0.010*everyone,0.009*secure,0.009*around,0.008*more,0.008*android,0.008*anything
10,0.011*8,0.010*involved,0.010*promised,0.009*able,0.009*chilling,0.009*errors,0.009*tho,0.009*reliable,0.009*problem,0.009*third
11,0.019*controls,0.011*files,0.011*usually,0.010*difficult,0.009*torrents,0.009*back,0.009*tab,0.009*actually,0.009*fix,0.009*site
12,0.012*tags,0.011*movies,0.011*settings,0.011*saving,0.011*wanna,0.009*about,0.008*resume,0.008*appear,0.008*reason,0.008*one
13,0.014*code,0.012*no,0.010*downloaded,0.010*sleep,0.010*afterward,0.010*wow,0.008*floor,0.008*search,0.008*reliable,0.008*change
14,0.012*7,0.011*away,0.010*let,0.010*cell,0.010*its,0.009*status,0.009*work,0.008*room,0.008*windows,0.008*pt
15,0.012*right,0.010*found,0.010*some,0.010*job,0.010*without,0.009*file,0.009*little,0.008*frog,0.008*7,0.008*our
16,0.015*floor,0.013*browse,0.010*before,0.009*secure,0.009*fine,0.009*reason,0.009*true,0.008*having,0.008*appreciated,0.008*promised
17,0.012*easy,0.012*tool,0.011*won't,0.010*just,0.010*through,0.010*nu,0.009*am,0.009*that's,0.008*wherever,0.008*solution
18,0.017*there,0.013*what,0.013*considers,0.010*solve,0.009*again,0.009*complete,0.009*use,0.008*able,0.008*longer,0.007*using
19,0.012*out,0.011*transfer,0.011*set,0.010*queue,0.009*coming,0.009*limiting,0.009*hard,0.008*secure,0.007*cool,0.007*half
