Topic,Words
0,0.015*everything,0.015*needed,0.012*found,0.012*though,0.011*windows,0.010*let's,0.009*wonderfully,0.009*2016,0.008*message,0.008*results
1,0.015*take,0.013*what's,0.013*if,0.013*2,0.010*share,0.010*tags,0.009*missing,0.009*lag,0.009*entertainment,0.008*from
2,0.013*significantly,0.013*waiting,0.012*recent,0.011*note,0.010*laptop,0.010*then,0.010*location,0.010*due,0.009*more,0.009*always
3,0.016*nice,0.012*proper,0.012*far,0.011*hover,0.010*are,0.010*having,0.009*charm,0.009*always,0.008*1st,0.008*work
4,0.016*skins,0.015*folder,0.014*nothing,0.013*of,0.013*brutally,0.012*startup,0.010*problem,0.010*3,0.009*consistently,0.009*denied
5,0.012*you,0.012*damn,0.012*mostly,0.010*fuss,0.010*long,0.010*helps,0.009*tablets,0.009*downloaded,0.009*well,0.008*would
6,0.012*f,0.012*n,0.011*its,0.011*dark,0.011*while,0.011*love,0.010*request,0.010*v,0.010*is,0.010*amazing
7,0.014*message,0.014*incredibly,0.011*open,0.011*bandwidth,0.010*refresh,0.010*out,0.009*what's,0.008*never,0.008*mostly,0.008*wonderfully
8,0.013*useful,0.010*just,0.010*them,0.010*good,0.009*was,0.008*can't,0.008*host,0.008*reason,0.008*remotely,0.008*track
9,0.010*slightly,0.010*features,0.010*even,0.009*drains,0.009*function,0.009*prank,0.009*desktop,0.008*how,0.008*example,0.008*helps
10,0.014*fixed,0.013*perfect,0.013*again,0.012*running,0.012*shutdown,0.011*certain,0.011*has,0.011*click,0.010*check,0.010*expect
11,0.013*though,0.012*stupid,0.011*error,0.009*2015,0.009*folder,0.008*proper,0.008*charm,0.008*sending,0.008*next,0.008*blessed
12,0.016*or,0.016*awesome,0.013*as,0.012*options,0.011*though,0.010*darkest,0.009*top,0.009*fact,0.009*molly,0.008*connection
13,0.017*addicts,0.013*once,0.011*n,0.010*home,0.009*about,0.009*mobile,0.009*seeding,0.008*responses,0.008*month,0.008*apparent
14,0.016*displayed,0.014*honest,0.013*hours,0.013*5,0.012*excellent,0.011*take,0.010*it's,0.010*its,0.010*back,0.010*are
15,0.012*please,0.012*with,0.012*any,0.011*dark,0.010*text,0.010*wonderfully,0.010*again,0.010*i,0.009*free,0.009*despite
16,0.013*charm,0.013*4,0.012*on,0.012*invalid,0.012*startup,0.011*damn,0.011*ability,0.010*remote,0.010*denied,0.010*please
17,0.012*note,0.011*keeps,0.010*bandwidth,0.010*even,0.010*polling,0.010*features,0.009*thanks,0.009*displayed,0.009*must,0.008*doesn't
18,0.017*parameter,0.012*hassle,0.011*that,0.010*proper,0.010*4,0.010*b,0.009*easier,0.009*tab,0.009*weeks,0.009*quick
19,0.019*nice,0.016*look,0.011*date,0.011*month,0.011*reason,0.011*firewall,0.010*two,0.009*is,0.009*with,0.009*complains
