revert to the right database version number,f,2013/3/19,,
fix duplication importing from messaging,b,2013/3/19,,
made message span more one line,b,2013/3/19,,
update website entry,b,2013/3/19,,
update website with latest info,b,2013/3/19,,
close 77 add translation,f,2013/3/14,,
switch to the right database version number,b,2013/3/13,,
minor clean up to source code,b,2013/3/13,,
close 71 add a confirmation prompt attempting to import all,f,2013/3/13,,
close 71 add a confirmation prompt attempting to import all,f,2013/3/13,,
close 54 add message sent via task checking to sent table,f,2013/3/13,,
add message type to sent message list view,b,2013/3/08,,
close 67 hide some of the menu,b,2013/3/07,,
add to keyword hint message,f,2013/3/07,,
add guidance for creating first sync,b,2013/3/01,,
significant code structure change renamed to overloaded to handle string,b,2013/2/28,,
added rudimentary regular expression support for matching incoming message against a specified filter,b,2013/2/24,,
add guidance for creating first sync,b,2013/3/01,,
significant code structure change renamed to overloaded to handle string,b,2013/2/28,,
added rudimentary regular expression support for matching incoming message against a specified filter,b,2013/2/24,,
add minor formatting to file,f,2013/2/12,,
add contribution info to file,f,2013/2/12,,
add language,f,2013/2/12,,
fix issue with auto sync failing,b,2013/2/12,,
close 60 replace message id with,b,2013/2/12,,
code to make use of instead of id,f,2013/2/11,,
part fix to issue 60,b,2013/2/11,,
close 66 disable unnecessary toast notification there is no task enabled,b,2013/2/11,,
instead log the message,b,2013/2/11,,
minor code to get message id,b,2013/2/11,,
code to remove unused parameter,o,2013/2/10,,
update credit,b,2013/1/21,,
upgrade ab,b,2013/1/11,,
streamlined and improved comment in example,b,2012/12/23,,
improvement to documentation clarified some point fixed typo etc,b,2012/12/23,,
renamed to enable markdown parsing,b,2012/12/23,,
simplified to remove duplicate information can be found elsewhere,b,2012/12/23,,
added check acquiring wake and lock in,b,2012/11/20,,
close 56,b,2012/11/05,,
close 56,b,2012/11/05,,
update version number,b,2012/11/05,,
patch for lock issue observed in 56,b,2012/10/31,,
tested in emulator on android 23,o,2012/10/31,,
update website with latest info,b,2012/10/22,,
support smaller widget resizes based on screen size,b,2012/10/16,,
upgrade ab to 420 and fine tune widget to resize well on different device,b,2012/10/16,,
upgrade ab to 420 and fine tune widget to resize well on different device,b,2012/10/16,,
fix to issue 44 need more testing to confirm the fix,b,2012/10/16,,
remove unused class,o,2012/10/15,,
write test case to test service,b,2012/10/15,,
remove restriction to screen support,b,2012/10/15,,
bump up version number,b,2012/10/15,,
revert to previous version number,b,2012/10/15,,
minor cleanup to release note,b,2012/10/15,,
getting ready for,f,2012/9/08,,
update,b,2012/9/07,,
minor edit,b,2012/9/04,,
update credit,b,2012/9/04,,
close 33 34 add database upgrade to support old configured sync and added 4 more translation,b,2012/9/04,,
add translation,f,2012/9/04,,
close 33 upgrade,b,2012/9/03,,
close 36 fix sent message list not properly showing sync message,b,2012/8/31,,
close 37 now validates adding a new sync,b,2012/8/31,,
fix grammatical error with a prompt message,b,2012/8/31,,
fix manifest file to remove annoying warning message,b,2012/8/31,,
fix minor information on the how to page,b,2012/8/31,,
add promo image to home page of website,f,2012/8/31,,
added external font to make the static web page typographically appealing to the eye,f,2012/8/30,,
close 35 update static web page to reflect the new change in this new version,b,2012/8/29,,
upgrade to 20,b,2012/8/29,,
add how to page and updated some of the document with latest change,f,2012/8/28,,
add new,f,2012/8/27,,
close 31 32 remove keyword filtering from setting screen,b,2012/8/27,,
modified,o,2012/8/27,,
close 20 remove on the number character the unique id should have,b,2012/8/26,,
send raw without formating this way the client side can decide how to format the,b,2012/8/26,,
show appropriate status message a sync is deleted,b,2012/8/25,,
add icon to setting menu and import menu,f,2012/8/25,,
fix the ability to import existing,b,2012/8/25,,
properly display a sync prompt message,b,2012/8/25,,
change from using context menu to action mode,b,2012/8/25,,
add a proper message there is not sync and the service is attempted to be started,b,2012/8/22,,
add a double check for service status disabling the last sync,b,2012/8/22,,
clean up pending message item,b,2012/8/20,,
move database structure for pending message to the new code structure,b,2012/8/20,,
solidify how service are enabled and disabled,b,2012/8/19,,
close 14 fix task checking issue,b,2012/8/18,,
close 10 fully added multiple sync to,b,2012/8/17,,
add multiple sync with keyword support,b,2012/8/16,,
add the ability to enable and disable service from multiple sync screen,b,2012/8/14,,
add sync support,b,2012/8/14,,
add the ability to sync to multiple enabled sync,b,2012/7/17,,
implementing multiple support,b,2012/7/17,,
quite a challenge but getting there,o,2012/7/17,,
add copyright information to all source file,f,2012/7/14,,
change status message deletion of a sync to be more,b,2012/7/13,,
add sync management,b,2012/7/13,,
remove redundant way of defining a model,b,2012/7/12,,
rename package data to database,b,2012/7/12,,
add database schema,f,2012/7/12,,
adjust entry to exclude bin directory,f,2012/7/11,,
clean up,o,2012/7/11,,
revert,b,2012/7/11,,
revert to a previous commit,b,2012/7/11,,
moving to,o,2012/7/11,,
add ab lib,f,2012/7/10,,
update,b,2012/5/29,,
implement sync management,b,2012/5/10,,
fix list item over flowing it border,b,2012/5/08,,
minor fix to a crash importing,b,2012/5/07,,
start implementing sync management,b,2012/5/07,,
add support,f,2012/5/05,,
static page generation is fully automated,b,2012/2/02,,
automates site generation,b,2012/2/01,,
close 8 implement tool for generating web page read in markdown file and generates a fine page,b,2012/1/30,,
update document changed the sample code from the content from to the browser to writing it to a file,b,2012/1/14,,
minor correction,b,2011/12/16,,
add file,f,2011/12/16,,
update website,b,2011/12/14,,
update version number,b,2011/12/13,,
update website,b,2011/12/12,,
update website,b,2011/12/12,,
reverted to previous version number,b,2011/12/12,,
update,b,2011/12/10,,
clean up,o,2011/12/10,,
clean up,o,2011/12/10,,
remove secure property file,o,2011/12/09,,
update,b,2011/12/09,,
clean,o,2011/12/09,,
close 2391 add completed translation it and,f,2011/11/22,,
update credit file with new entry,b,2011/11/22,,
a minor fix to row count for message,b,2011/11/22,,
close 2419 update website with new information,b,2011/11/21,,
format the string to remove line break in the string,b,2011/11/21,,
updated the to reflect current change,b,2011/11/21,,
close 2391 add 5 more translation added and danish to the existing translation,f,2011/11/21,,
fix by changing to,b,2011/11/17,,
close 2396 fix missing title the title for entering a at setting screen is missing,b,2011/11/17,,
added an existing title to the dialog,o,2011/11/17,,
getting ready for next version development,f,2011/11/10,,
updated website with release status,f,2011/11/10,,
close 2366 fix variable sending the wrong month variable give wrong value for month,b,2011/11/10,,
2801110628 month value reflect a minute value please check changed the format to and that fixed it,b,2011/11/10,,
close 2380 and 2368 fix filtering by phone number and sent to variable being set a unique id,b,2011/11/10,,
updated file,o,2011/11/09,,
minor documentation fix,b,2011/10/29,,
minor fix and making way for 109 development,b,2011/10/28,,
update document to reflect the new change,b,2011/10/28,,
minor clean up,b,2011/10/27,,
close 2355 fix error message showing up with removed the debug log info,b,2011/10/27,,
minor fix to message id,b,2011/10/27,,
add keyword filtering importing existing from stock application,f,2011/10/27,,
show progress icon synchronizing pending message,b,2011/10/27,,
put synchronization into it own service to improve responsiveness,b,2011/10/26,,
add message id variable,f,2011/10/26,,
formatted value to 5418111154 this make more sense just 1154,b,2011/10/26,,
close 2352 add more info to toast message that show sync fails add a bit more information to the toast message that show up when a message fails,b,2011/10/25,,
close 2318 add support this allows to be configured on,f,2011/10/25,,
fixed a wrong in the doc file,o,2011/10/04,,
minor clean up to the doc,b,2011/10/04,,
cleaned up few typo in the doc,o,2011/10/04,,
minor fix,b,2011/9/29,,
add news link,f,2011/9/29,,
added more page,b,2011/9/28,,
added more flesh to website,b,2011/9/26,,
added one more entry to the credit list,f,2011/9/25,,
close 2305 added credit file and populated it with name and contact detail,b,2011/9/25,,
close 2304 added support,b,2011/9/25,,
fixed typo in the documentation,b,2011/9/25,,
removed needed file,o,2011/9/25,,
added dutch and translation,b,2011/9/25,,
updated,f,2011/9/24,,
added support for importing translation,b,2011/9/23,,
improved tab,b,2011/9/23,,
updated the with new information,b,2011/9/22,,
updated file with the new string,o,2011/9/22,,
close 2238 add to post variable to allow web service to retrieve the of the message,b,2011/9/22,,
close 2299 read version name from the manifest file instead of the string file,b,2011/9/22,,
close 2270 implement the feature,f,2011/9/22,,
updated the file,o,2011/9/22,,
fixing sent message sent message can be logged,b,2011/9/22,,
close 2272 implemented response from server see 2272,b,2011/9/20,,
close 2272 auto reply response can now be fetched from the server,b,2011/9/20,,
close 2271 implemented widget support,b,2011/9/19,,
fixed keyword filtering bug,b,2011/9/17,,
fix widget adding widget support to it display last 5 pending message,b,2011/9/12,,
see 2271,o,2011/9/12,,
almost there with implementation,o,2011/9/12,,
close 2273 implemented adding of lock,b,2011/9/09,,
disabled releasing of w lock to see if it keep awake,o,2011/8/30,,
fixed file issue,b,2011/8/26,,
close 2217,b,2011/8/26,,
renamed from pot to,o,2011/8/26,,
fixed a bug that crash the task checking is enabled,b,2011/8/26,,
added lock so the can have connection the phone sleep,b,2011/8/24,,
added the ability to get a reply from the server and post,b,2011/8/23,,
fixed a lot of issue,b,2011/8/23,,
rearranged field in setting screen to be more intuitive,b,2011/8/20,,
improved background service and other functionality of the,b,2011/8/20,,
automated service stop and start action,b,2011/8/17,,
increased version number to 107,b,2011/7/13,,
do not send blank message this cause crash,b,2011/6/08,,
added sending of,b,2011/5/15,,
getting ready for 106 development,f,2011/3/17,,
making way for a release,f,2011/3/15,,
updated the,f,2011/3/15,,
for security purpose add check for the secret key sends an,f,2011/3/15,,
removed debugging info,b,2011/3/09,,
more formatting to android coding standard,o,2011/3/01,,
formatted code to android coding standard,o,2011/3/01,,
fixed thread and issue,b,2011/3/01,,
fixed typo in entry,b,2011/3/01,,
fixed typo in entry,b,2011/3/01,,
updated,f,2011/2/28,,
started implementing unit test for the various code,b,2011/2/28,,
removed the test directory,b,2011/2/28,,
added more comment to the code for easier future maintainability,f,2011/2/28,,
removed duplicate file,o,2011/2/25,,
,o,2011/2/25,,
fixed a typo,b,2011/2/25,,
added sensible heading,b,2011/2/25,,
formatted string to display correctly in the,b,2011/2/25,,
added context menu for deleting individual pending message,b,2011/2/25,,
changed the layout for listing pending message a bit,b,2011/2/24,,
implemented task and improved validation process,f,2011/2/24,,
task work now,f,2011/2/21,,
started implementing t checking and a well a importing message from the message,b,2011/2/20,,
scheduler now work with configured frequency,o,2011/2/20,,
updated ignore to disallow eclipse pref,f,2011/2/19,,
added scheduler support,b,2011/2/19,,
added more detail to entry for 104,b,2011/2/03,,
fixed mode issue,b,2011/2/02,,
added flag to the notification to prevent it from being cleared,b,2011/2/01,,
version number in setting screen,b,2011/1/31,,
version number in setting screen,b,2011/1/31,,
increased version number to 104 and updated file,o,2011/1/31,,
validates the callback,o,2011/1/29,,
fixed a minor issue sending auto response,b,2011/1/28,,
updated the,f,2011/1/28,,
fixed missing permission from the manifest file,o,2011/1/28,,
updated and file,o,2011/1/28,,
added a configurable option to allow auto response to message,f,2011/1/28,,
made to show appropriate message there are no message to be deleted,b,2011/1/27,,
rearranged menu item and made to show appropriate message there are no message to be sent,b,2011/1/27,,
now show status of pending message,b,2011/1/27,,
made the synchronization of message a background thread run asynchronously,b,2011/1/27,,
fixed a typo in the file,o,2011/1/26,,
simplified the pending view screen,b,2011/1/26,,
made deletion of message from message configurable and modify the display,b,2011/1/26,,
getting ready for a beta release,f,2011/1/22,,
fixed error fetching data from the database,b,2011/1/21,,
added version number to setting screen,b,2011/1/21,,
now fixed getting the same message id thread id,b,2011/1/20,,
now failed message get into the folder,b,2011/1/20,,
improved background service wake up call,b,2011/1/19,,
almost there with real sync feature,b,2011/1/18,,
fixed little issue with item showing in the,b,2011/1/17,,
setup on my backup machine,o,2011/1/15,,
removed binary file,o,2011/1/12,,
implemented,b,2011/1/12,,
removed binary entry,b,2011/1/12,,
downgraded to android 16,o,2011/1/12,,
fixed a minor typo,b,2010/11/28,,
fixed little typo and making way for a new release,f,2010/11/28,,
added a file to keep track of change,b,2010/11/18,,
cleaned up code a bit,o,2010/11/18,,
added a table to hold unset message,b,2010/11/18,,
added and setting page,b,2010/11/15,,
started implementing feature for 11,f,2010/11/15,,
more code clean up,o,2010/11/10,,
fixed in more modification,b,2010/11/07,,
more enhancement,o,2010/11/05,,
removed file,o,2010/6/07,,
syncing now work removed bin file,o,2010/6/04,,
syncing now work,b,2010/6/04,,
now can send to web service,o,2010/6/04,,
more clean up for a release,f,2010/6/02,,
added keyword filter to setting page,f,2010/5/20,,
changed an to a needed,b,2010/5/20,,
setting up setting window,b,2010/5/11,,
renamed preference back to setting,b,2010/5/11,,
renamed setting to preference,b,2010/5/11,,
added license detail to the file,o,2010/5/11,,
added setting file,o,2010/5/11,,
