Topic Index 1,Topic Index 2,Topic Similarity
17,8,3.084
8,6,1.6695000000000002
5,3,1.4062
18,1,1.2546
9,10,1.0507999999999997
11,5,0.786
7,7,0.65
6,12,0.5868
0,0,0.0
1,2,0.0
2,4,0.0
3,9,0.0
4,11,0.0
10,13,0.0
12,14,0.0
13,15,0.0
14,16,0.0
15,17,0.0
16,18,0.0
19,19,0.0
