App,Store,App ID,Review ID,Country,Version,Rating,Date,Author,Subject,Body,Translated Subject,Translated Body
Simple Reflected Light Meter,Google Play,com.gmail.mugcuposup.android,Z3A6QU9xcFRPRzdNeWtBVEZlNmRZaEVXRTE1UV95dXJzUUp6WnNacWxFbEkwVG1lWk5OU0xEODQwNUltTzQ1Y0FfalpEYVFiRnFicVhLNTlTMlBOUHk4aFE,English,,5,2015-12-05,Niko Niko,Best reflacted light sensor around.,"It is the best. Simple, as the title implies, and accurate. I use it with an old Mamiya M645 that has no light meter and the results are exellent. Well done dev!",,
Simple Reflected Light Meter,Google Play,com.gmail.mugcuposup.android,Z3A6QU9xcFRPRmJOaFZiRFBvSldmSzdQUWFCZlpYMnNubUNfQkZkUHpGYUdPQ0FXbDMzaHlkWFpRMHA3a1RRTERLdWtnNlBXNHFpNlFHZUUzV3NkcjZTV2c,English,,4,2015-11-06,Božidar Miladinović,"Missing ev during scaping.Thank you man, the idea and the app is best!","Thank you man the app and your idea for the app is the best! For me it is missing to change ev value (for exmple with volume key up and down) during scaping if we see the exposure is bad, and to make the best setings and se how this look in the picture and to can forward this setting to film camera. Everything else is super, than you man!",,
Simple Reflected Light Meter,Google Play,com.gmail.mugcuposup.android,Z3A6QU9xcFRPRVNoMXJzQmlsZC1nS01meGpZdXJTVE0ybG9QYWZrSzlLcmVWcW9TYjY4QVBhTk1Rdm9CR2JvenpkeU8xbjJEX29RZlVOZ3BLckZ0SkhZQ0E,English,,5,2015-01-05,Pierre-Alban Grellet-Aumont,"",less is more,,
Simple Reflected Light Meter,Google Play,com.gmail.mugcuposup.android,Z3A6QU9xcFRPR0s1eWhYWE96N3RjYXZmRk1kWHFKN0NMSVdIbmxjOV9tRjBUcjYzeUp0Ml9zU3VPZkszZ0hCWkpVdWFGTVhMZUlmM29ROEJxQjBBbE13SVE,English,,4,2015-01-02,Ron de Leeuw,Could be useful if your phone has a good camera,"",,
Simple Reflected Light Meter,Google Play,com.gmail.mugcuposup.android,Z3A6QU9xcFRPRUhPYUFfNEZyX0llcHdhTjBYWFpCSTFxQzF2Zl83QXVrSEpjQVZYSkR0UlQydUxfWExEa0lxZUZsdGk1ZzdMa05vSWdCUi01YWc3MXo4b2c,English,,4,2013-06-30,Cheung Alfred,"",Same reading as my Contax,,
Simple Reflected Light Meter,Google Play,com.gmail.mugcuposup.android,Z3A6QU9xcFRPRnNjMGNGeVk3UmFRVUVMTWdldXRraGZlZE9HbGg1ekNIOXFBY1hlQV9nY2QwTVc1NE1NOEF5Rm5DMHI1WXhzNXlNTmprZmdpSUg3QmJSU0E,English,,2,2013-05-03,Micki Keung,not work on incredible s,JPG is the problem?,,
Simple Reflected Light Meter,Google Play,com.gmail.mugcuposup.android,Z3A6QU9xcFRPSGdLR2V0SjRCX2Q1VXpmZE02a1dCWUNEV0NPXzlFckNTS2JKemo3OER3bmFVcnNwT3RwbkoyTC1ZdWhjYlNJWFRsSTJhZWs3dFF4S2FjUlE,Japanese,,5,2017-03-05,Leef Field,"",使いやすいです。 実際にスマホで記録した写真のexif情報から数値を割り出しているらしく、画面にプレビュー表示されますので、どの程度の明るさになるのか確認できて良いです。 ただ、測光すると強制停止する事がよくあるので直して欲しいです。  追記 やはり強制停止が多すぎるのでアンインストールします。,,
Simple Reflected Light Meter,Google Play,com.gmail.mugcuposup.android,Z3A6QU9xcFRPSGtjemE1cmswUEpPNTZVcFhGdE5abE5ZMS11NlRyd08zZzduOUdDQldVTFMyREU5VlladTVZdENYcFZTSHRDVEY2Y0ZPNlhYOUU1RXR5OXc,Japanese,,5,2016-11-08,鍜治屋ガジン,使える,クラカメ撮影に使っています。,,
Simple Reflected Light Meter,Google Play,com.gmail.mugcuposup.android,Z3A6QU9xcFRPRVhReWdLRTRqQ3pfY3FrX3lkaURkbFNCNk93V0lETjlPR2lBenV1d3BtaGM2YUhFMTNvS0hKakEzRERjNHctWTZsOTNvZXFsZ1paX2plZWc,Japanese,,5,2016-09-11,wataru fujita,つかえる,Nexus5にて使用しているが必要十分な精度は備えている,,
Simple Reflected Light Meter,Google Play,com.gmail.mugcuposup.android,Z3A6QU9xcFRPRm9TNkJjeENCcVQ5dWFWWjN1aGZRT2xyLVZaZDk3OE42ejc4czBJZVhKSExaLUVWNk5hal81d1BUb3B1UmZNVlozemE0V2JvTlVRMEl6U0E,Japanese,,4,2016-07-30,小平田康範,縦向きで使いたい,簡単で非常に使いやすい。ISOさえ決めれば、プレビューの数値が表示される。スマホの向きを横にすると持ちにくいので、縦でも使えるようにして欲しい。,,
Simple Reflected Light Meter,Google Play,com.gmail.mugcuposup.android,Z3A6QU9xcFRPR2M2a05Za0VWN1YtQWdBNFR5bG5XbUZGYmpvV2pwbnJVNERiV0g2X2RHQjZ2NVVlZTk0RG9Rd1lTY1gyRXRxUjh6a1VCc21ldlg2Y0pfakE,Japanese,,2,2015-11-18,里見裕,人力に頼りすぎ,撮影してExif取得する作業を人力に頼っていますが絶えず自動的にそれを繰り返せばほぼリアルタイムに露出値の変化を表示できるのではないでしょうか。,,
Simple Reflected Light Meter,Google Play,com.gmail.mugcuposup.android,Z3A6QU9xcFRPSGZ4c3lBak9lNDU0UWhyd0Zya18zUDRueXpMU1FyUzJqTDNXc2s5X1FzOUltU3U0Rm9PSkxJcGVpbTg0ZktwTU0zcEZlVzJic3J1YWR0Ymc,Japanese,,5,2015-03-11,カレー先生,一眼レフでフィルムカメラの私。,フィルムに制限のある私は、このアプリのおかげでブツ撮りや景色などの撮影で重宝しています。うごくものの場合はまずこれで計測してから徘徊できますし、いい写りになります。カメラの癖を知るまではこれは良いですよ。,,
Simple Reflected Light Meter,Google Play,com.gmail.mugcuposup.android,Z3A6QU9xcFRPR1dJRzF0Q3F0bG1ERGdnaEI5SDFrOGduczVfNTBJQ29feDFsOVV5QWw3RWtVYXFDN3JSYWF2WFFOdkI4bk5IaXlPUHRBM2xmeHdVWXhTbmc,Japanese,,1,2014-07-16,フォレ夫,役立たず,f/2.8よりf/5.6の方が早いＳＳが出た。感度を上げたらＳＳが遅くなった。薄暗い室内でf/2.8の感度200でＳＳ1/1500って、有り得ないでしょう…。,,
Simple Reflected Light Meter,Google Play,com.gmail.mugcuposup.android,Z3A6QU9xcFRPRnE0ZEFLaFJUeVdSQ2E5OEJYRS1STHJGWVVVb2ZBQVozS29DZ0pQNlg0MjhPQVJlcmFYTVR5QnB0LWNHUFA1YVc5Z2YyTTNJQzNab2M4dXc,Japanese,,5,2014-04-06,平井英次,同じ写真が出来上がる♪,ｽﾏﾎで撮影した結果を元に(かな？)出てくる数値で絞りとシャッター速度をあわせたら、初めてカメラを触る私でもｽﾏﾎで撮ったのと同じ写真が取れました。 フラッシュメーターにもなってくれたらもっと嬉しいです(*^^*),,
Simple Reflected Light Meter,Google Play,com.gmail.mugcuposup.android,Z3A6QU9xcFRPRjRYbkRYQVBMOHFYTDJwNnUzWm40Rng0R1AtZGV0YVBGcnAwdnM0UGRQaXJEQjVaWng5a21fMVdCOC1MY0NzVE9ZeVNNWklTdXFLTG9YRWc,Japanese,,4,2013-05-14,Syutaro Sato,プレビュー機能はすばらしい,スマホの照度センサーをつかうと、どの範囲までを測光しているかわからないのに、インストールしてすぐ消してしまいました。ですが、このアプリなら、全体的な測光としては、結果をみながらできるので確実だし、使いやすいです。ただひとつ改善点をあげると、露出補正 とスポット測光を可能にしてほしいですね。,,
Simple Reflected Light Meter,Google Play,com.gmail.mugcuposup.android,Z3A6QU9xcFRPRUVvRkVSelhQM2g1NFo4T0p0d2pzSlJ5Tk5qZVZLUkxQWHJrY1ZKNjNmd29zcHJmNjBSTDVrTjZWaDVqOS01SDNURDRPcWhVSG40dmYwMkE,Japanese,,4,2013-04-14,pen pen,シンプルでよい,これ以上ないくらいシンプルで直感的な反射光式露出計ですがスマホアプリならこれくらいでむしろ必要十分。持つ向き的には縦画面に対応していただけたらなお良いです。まあ横向きのままでも使えるし読めるんですけど,,
Simple Reflected Light Meter,Google Play,com.gmail.mugcuposup.android,Z3A6QU9xcFRPRjdNdkVXbDM5Q3JFQVpBbEYwYjVsVHdjeENjcllubmR0RWdWdXFxczZNSWo4NkZJYV9qcjA0TnZLVjB0X1E4OGpRX2lHdDhkdTgtSExEMUE,Russian,,5,2015-09-02,Nick To,"","Does not work with phones that don't have hardware 'Menu' button, otherwise great.",,
Simple Reflected Light Meter,Google Play,com.gmail.mugcuposup.android,Z3A6QU9xcFRPRW1kUTRNSzN3dUFRYU5iRnE2VUhOM0JsLVMtN2JZbTF4SFBTNTlUTXYwdDkxcVdFeFNOOWpUd1hMeWw4TkRycXZYR3Q5NThtUUxYX3l0LUE,Russian,,5,2015-03-23,Anatolij Galata,Через камеру!,"Отлично,  не у всех есть встроенный датчик.  А можете сделать так же,  только люкс метр?",,
Simple Reflected Light Meter,Google Play,com.gmail.mugcuposup.android,Z3A6QU9xcFRPSEZRYjVua1oxNTJzSk9XdUxlMVFGbXRQMEJuVDZZbHdZTmFaTzNFclQ2R0l2UVZZeldVeTFJanVEQ3IwaTRlaDNYWGpnTXNYdXdZbnFhRkE,Russian,,5,2014-11-10,Dmitriy Novytsky,Годная программа,"Давно искал под свой телефон подобную программу. Замер идет не через световой сенсор, а через камеру и я так понимаю по данным EXIF, но это предположение. Добавить бы еще Exposure Value Calculator/Table вообще было бы супер!  Чуть доработать и будеь то что надо! Спасибо.",,
