App,Store,App ID,Review ID,Country,Version,Rating,Date,Author,Subject,Body,Translated Subject,Translated Body
Traccar Client,Google Play,org.traccar.client,Z3A6QU9xcFRPRjA4RHZ5QjRRM09yMmtKQnBYZmlEdjNXUzdpclFPN3NVWTBsLVk5cHZoRWYwOG52eEU4UTVBLTdxQzhKbm14amhUWC1jVlVmRmtNYVNM,English,,4,2017-03-15,Aries,,i hope there is a push button to force the queue to be send to the server or a status how many queue are left unsent,,
Traccar Client,Google Play,org.traccar.client,Z3A6QU9xcFRPRVFRZ0YzaGVpdXJxdEJoOFpiNjNHQ2pheEt4N1l6QmpaQnFGNE44SHo5TVc5WERjQkxrajFiWm00Y01tZ0k4M1I0eVpYZTZ0TXR2NTdw,English,,5,2017-03-10,,,great,,
Traccar Client,Google Play,org.traccar.client,Z3A6QU9xcFRPRnZUbUpqNENxYTVkWXdwaXU1bnRHMmFLem5KbGZzVzd0V3l2dzFJMGFfWDNuVUlCcWlMNHFBV3ozNXg5b2N1WDB3bkItYnlDc05xWkRV,English,,5,2017-02-19,,,love it,,
Traccar Client,Google Play,org.traccar.client,Z3A6QU9xcFRPR29GRkxBTDNHVDJNcy1mejFVTGFSSXVEblNncF9CWkpIYkx3Q25SZzRhc2hhWTExZ0xlLXdVVU5abHlzaXhoOGNGOFJzRGdUZHZyTkZO,English,,5,2017-02-17,,,great,,
Traccar Client,Google Play,org.traccar.client,Z3A6QU9xcFRPR29GRkxBTDNHVDJNcy1mejFVTGFSSXVEblNncF9CWkpIYkx3Q25SZzRhc2hhWTExZ0xlLXdVVU5abHlzaXhoOGNGOFJzRGdUZHZyTkZO,English,,5,2017-02-17,,,work,,
Traccar Client,Google Play,org.traccar.client,Z3A6QU9xcFRPR0F3ckZqeXBITGY5RTZObHRoeFJJQ0x4ZjFmRHpYUVBFVEdLQTRsZEdYVUVSUy1Md0FhZERpaWJhc19NUldrREljYUN2YWZJNXFfTWhp,English,,1,2017-02-09,,,not send position on the map and not history on the panel,,
Traccar Client,Google Play,org.traccar.client,Z3A6QU9xcFRPRUwzX21CZEFscXZGRmlUSktiellQSlN6MmNxeG9VYXlkdUhURVdOZ3gyXzV0Q3BaWjNiNmRvTGo1cDhPRTdSZEhTSHlmcjNsVUlNcW5R,English,,5,2017-01-17,Damian Parus,,great,,
Traccar Client,Google Play,org.traccar.client,Z3A6QU9xcFRPRUwzX21CZEFscXZGRmlUSktiellQSlN6MmNxeG9VYXlkdUhURVdOZ3gyXzV0Q3BaWjNiNmRvTGo1cDhPRTdSZEhTSHlmcjNsVUlNcW5R,English,,5,2017-01-17,Damian Parus,,thanks,,
Traccar Client,Google Play,org.traccar.client,Z3A6QU9xcFRPSEpRQmN5YkRieF9fNWVESzk2UTBuLWRnLUQwZGxpa08wUmczd0RWZkNUYVNpbGpKaFZRbTBIX1JvOXd5Y0ZHQ2U2TVBtazNKbi10QmQ3,English,,1,2017-01-08,Ovidiu Naso,Could not connect to traccar server.,documentation lack of info on how to configure on what port to or,,
Traccar Client,Google Play,org.traccar.client,Z3A6QU9xcFRPSEpRQmN5YkRieF9fNWVESzk2UTBuLWRnLUQwZGxpa08wUmczd0RWZkNUYVNpbGpKaFZRbTBIX1JvOXd5Y0ZHQ2U2TVBtazNKbi10QmQ3,English,,1,2017-01-08,Ovidiu Naso,Could not connect to traccar server.,lost 2 hour searching some with no success,,
Traccar Client,Google Play,org.traccar.client,Z3A6QU9xcFRPSDEydEk0S05zWDlwdHNSblRtNUFWWmJZbHBRRmlmS2Npc1NKQVRha2p5NnB5SEFKYnhiZWx2VDZJa283RUllNnNBMFZmYWZtUG8tWG5q,English,,5,2017-01-03,Constantinos Griponisiotis,,great,,
Traccar Client,Google Play,org.traccar.client,Z3A6QU9xcFRPR0VqOFRrdld5aDFDUXdLeDBJZWs1ay1CUEIyMHFISlozcXVub0hiLTFMS2xUcE1PelNXU0J3LTFSdEVZdDdPelhudzNSTWF4aXJsa3V3,English,,5,2016-11-10,prema ram,Okkkk,,,
Traccar Client,Google Play,org.traccar.client,Z3A6QU9xcFRPR1NtYktRMmpMelF6Xy05X2VJSHpOaUIzZkp2ejhybGRhNjVlYnZFODBmQkhsVm9vTGVKRVhubWhmQmxXLUhySHRuRlhaR1dPUnJLajVE,English,,4,2016-11-06,Ramlaxman Prasad Rimal,Great app,this is very good for tracking,,
Traccar Client,Google Play,org.traccar.client,Z3A6QU9xcFRPR1NtYktRMmpMelF6Xy05X2VJSHpOaUIzZkp2ejhybGRhNjVlYnZFODBmQkhsVm9vTGVKRVhubWhmQmxXLUhySHRuRlhaR1dPUnJLajVE,English,,4,2016-11-06,Ramlaxman Prasad Rimal,Great app,one there is data logged inside the it is very slow to transfer data to server,,
Traccar Client,Google Play,org.traccar.client,Z3A6QU9xcFRPR2poM1hZODVYYUdNZW94SC1TZEozTG9iMHZsOVQtVlpKbEJweUNSSkZEUmk1OXlrcWxwNGVyLXNIU3pVanFnaE1RUnlFLUtLODdmdGtt,English,,5,2016-10-03,Dang Nhon Hoa,,great,,
Traccar Client,Google Play,org.traccar.client,Z3A6QU9xcFRPR2poM1hZODVYYUdNZW94SC1TZEozTG9iMHZsOVQtVlpKbEJweUNSSkZEUmk1OXlrcWxwNGVyLXNIU3pVanFnaE1RUnlFLUtLODdmdGtt,English,,5,2016-10-03,Dang Nhon Hoa,,thank you,,
Traccar Client,Google Play,org.traccar.client,Z3A6QU9xcFRPR2poM1hZODVYYUdNZW94SC1TZEozTG9iMHZsOVQtVlpKbEJweUNSSkZEUmk1OXlrcWxwNGVyLXNIU3pVanFnaE1RUnlFLUtLODdmdGtt,English,,5,2016-10-03,Dang Nhon Hoa,,instead i think it should send no signal message to server signal is up again,,
Traccar Client,Google Play,org.traccar.client,Z3A6QU9xcFRPSEx1ZW13bVJHR1dCMVY2Q2RsT0hIbkxXMGdOY0dwRlNOUEJjZjhhendrVGEwSG04Q1BPdnE5T1QwSVRQTjFaUG9Nd3N2RWs5TllxSm9z,English,,5,2016-09-30,piyush dubey,,nice,,
Traccar Client,Google Play,org.traccar.client,Z3A6QU9xcFRPR2xWRzA4dl9rcDFwSmx5LUxsdU9odGw4NktIQjRtUXNHOThZN1F3NU9MR2VtSHFPSnpuekFoWkItLU5iWGstcm5TM1FhVE5KTlJKNy10,English,,5,2016-09-05,nk g,Perfect,it work like charm,,
Traccar Client,Google Play,org.traccar.client,Z3A6QU9xcFRPSDl6MFprM3dQeFJMU0FpVjN5S05CekxwakVManhKbW1XVk93dm9hVUNiNzN6b3dFMlJKTDBIdjlrc0FxT0pHU01iZExGVFZTWVFRN1BW,English,,1,2016-07-25,Vinod Wagh,,hello i tried to connect client but it not connect,,
Traccar Client,Google Play,org.traccar.client,Z3A6QU9xcFRPSDl6MFprM3dQeFJMU0FpVjN5S05CekxwakVManhKbW1XVk93dm9hVUNiNzN6b3dFMlJKTDBIdjlrc0FxT0pHU01iZExGVFZTWVFRN1BW,English,,1,2016-07-25,Vinod Wagh,,give me suggestion,,
Traccar Client,Google Play,org.traccar.client,Z3A6QU9xcFRPSGdBdS1hUVlxMVdtR3NybTBCT0dPSFVSeTlKOW9oLXhUVzJOSTFBbE0zOTJCM3ZZOG1qc0xxSWoxUGt1UFB6SUV1cFBGZkFPVUlkQWZF,English,,1,2016-06-03,Trouble Shooter,Can't connect,what is the server address and port no,,
Traccar Client,Google Play,org.traccar.client,Z3A6QU9xcFRPSGdBdS1hUVlxMVdtR3NybTBCT0dPSFVSeTlKOW9oLXhUVzJOSTFBbE0zOTJCM3ZZOG1qc0xxSWoxUGt1UFB6SUV1cFBGZkFPVUlkQWZF,English,,1,2016-06-03,Trouble Shooter,Can't connect,for my tracker,,
Traccar Client,Google Play,org.traccar.client,Z3A6QU9xcFRPRWJGWk9yYzRyVk1BWGhUSFZSQjczNmNNR1hqVVQ3bWpGMDEwYzVvTHRLMGVCZmotc3lZQ3BRR2M0aDBQV1dsSEpTUDB6RWhWTW1TTmlh,English,,5,2016-06-02,Tarun Gupta,,work great,,
Traccar Client,Google Play,org.traccar.client,Z3A6QU9xcFRPSFRSdUhyRTFaSjlmeFdwN1RHamhocWQtTDYyWm1zeEZhQWxNX21fTDU5MjNfTUZtbF94TzhWMXktM2c1c3NpZ25HeVVHVndHX0RRTmlV,English,,5,2016-06-01,Hanny Yeung,Just works!,wonderful and simple,,
Traccar Client,Google Play,org.traccar.client,Z3A6QU9xcFRPSHZ0ZjlEUFJtVm5ad0FudUFmVTItcTJmMTZtTTVYaUtNZE1KWnJTVTBSWnZXVlhYNl9SZ1JNSm5ZQ29XZ2N6cUlzX2dseXhnTXdZNm54,English,,5,2016-05-27,Abdul Rasheed,,this is a great,,
Traccar Client,Google Play,org.traccar.client,Z3A6QU9xcFRPRk43cXZxQ0hqWjdBa0RubFBpS2x0TXlCTlNNZGxOeVlaQ3NqWFhna2l6bFI5VjgxOGF3M1RYMnFaTGp0VU41ZlE1TzZSTFZPX21pRWZn,English,,5,2016-05-01,Crowd Grip,Lowest Battery Usage GPS App,simple and get the job done without all the bloat,,
