using context menu for status removed tab,b,2016/2/16,,
fixing class loader deadlock issue,b,2016/2/16,,
fixed 377,b,2016/2/16,,
changed stream based to reader based updated library version,b,2016/2/16,,
