it took me a to make it work but it wa worth it,o,2016-02-22,Semir Begovic,5
much better the official twitter,o,2016-02-22,Semir Begovic,5
but can improve,b,2016-02-22,C.A. Cr,4
hope it start crashing like other client,b,2016-02-22,C.A. Cr,4
can i find a translation option,f,2016-02-22,f.o oktavia,4
