# deletions,date,commit message
1,2015/10/16,New Logo with white frame
1,2015/10/14,Yes again it's a changed string
15,2015/10/14,Logo resized
1,2015/10/14,Label changed
18,2015/10/14,new Logos added
6,2015/10/02,Homepage added
2,2015/10/01,OptimizationPart 2
35,2015/10/01,Optimization
7,2015/10/01,Shaking Sensitivity decreased
1,2015/9/30,Always keep your repro updated
12,2015/9/29,Blurry dice problem solved
1,2015/9/28,German is too long
15,2015/9/28,Missing Latvian strings added
20,2015/9/27,Actionbar Logo changed to a nicer one Code Optimization
1,2015/9/27,' in French file fixed
3,2015/9/26,French translation added
1,2015/9/26,Missing Japanese translations added
5,2015/9/25,Japanese language file added
0,2015/9/25,Logo problem fixed
1,2015/9/25,Turning problem solved
4,2015/9/25,Layout tuning
11,2015/9/25,Shaking works is intended
29,2015/9/25,refractoring
3,2015/9/25,Missing German strings added
5,2015/9/25,About page refined
15,2015/9/25,About page refined
3,2015/9/25,About item added to menu
4,2015/9/25,activity renamed
3,2015/9/25,Parentactivity from preferences added so that the back button can FINALLY work
2,2015/9/25,Actionbar in Settings but not clickable YET
8,2015/9/25,Vibration Setting works
10,2015/9/25,Settings integrated vibration works
1,2015/9/25,Boolean values for settings added
10,2015/9/25,Activity registered in Manifest File
10,2015/9/01,more code optimization
74,2015/9/01,less code same functionality yeahhh
7,2015/8/31,readme removed
2,2015/8/31,Vib moved
3,2015/8/31,Preference struktur added but not yet integrated into menu
3,2015/8/31,German string file added
22,2015/8/31,String spelling corrected
2,2015/8/31,Orientation to portrait Vib added
11,2015/8/28,Number of displayed dices dynamic
33,2015/8/28,repositioning result heading removed
3,2015/8/28,Net schön aber selten
81,2015/8/28,nope no svgs but scaled pngs
1,2015/8/28,svgs for results
1,2015/8/28,Icon added
1,2015/8/28,Dicer class added
