App,Store,App ID,Review ID,Country,Version,Rating,Date,Author,Subject,Body,Translated Subject,Translated Body
Dicer,Google Play,org.secuso.privacyfriendlydicer,Z3A6QU9xcFRPSDl4bU9FS29tZmRackZwR2Z1MERrUTFOWEdScE9vSEpsTnNpVUFHQzE2SnlYbnhXNHF6VHJSRk44LVJSSnVnV25rLW43V2JWRUQtT0VfQ0dn,English,,4,2016-03-04,"","",Needs a D20 ;-),,
Dicer,Google Play,org.secuso.privacyfriendlydicer,Z3A6QU9xcFRPR2EtQjBjMUY2bzB2ODJnSU83d21jRENLMGxDVDdyZnhXaFBJa3h5ZDRWOFZHMVVQa3hSUHVQeUU3cUFzUXZSV2FtUkJUTE5MZlQzMy14aEpV,Dutch,,3,2016-08-26,"","","Fine, does the job. But it would be nice to have a few more options like hold a few dice for the next throw, go back to the previous throw.",,
