Topic Index 1,Topic Index 2,Topic Similarity
7,11,1.5875999999999997
1,7,1.1813
8,4,1.0669
19,9,1.0665
15,18,0.8978999999999999
5,10,0.8976
2,12,0.7644
13,15,0.6936
14,6,0.6621999999999999
4,3,0.5772
3,17,0.5562
17,19,0.5067999999999999
10,13,0.40559999999999996
0,14,0.33
11,16,0.128
6,0,0.0
9,1,0.0
12,2,0.0
16,5,0.0
18,8,0.0
