use average of score in the interval,o,2016/3/03,,
minor string change,b,2016/3/03,,
update widget preview,b,2016/3/03,,
add code to save widget preview to file,f,2016/3/03,,
split habit class into several smaller class,o,2016/3/03,,
move command to their own file,o,2016/3/03,,
minor style change,b,2016/3/02,,
improve widget measuring,b,2016/3/02,,
improve widget color,f,2016/3/01,,
minor color change,b,2016/2/29,,
implement multiple widget provider,b,2016/2/29,,
custom fix rendering issue,b,2016/2/29,,
perform additional check to avoid negative length,o,2016/2/28,,
widget for etc,b,2016/2/28,,
alternative design for widget,b,2016/2/28,,
minor style change,b,2016/2/27,,
update main activity on click,b,2016/2/27,,
add configuration activity for widget,f,2016/2/27,,
remove debug code,o,2016/2/27,,
toggle from widget,b,2016/2/27,,
assign habit to refresh on database change,b,2016/2/27,,
implement widget with fixed data,b,2016/2/27,,
remove useless widget preview,o,2016/2/27,,
fix check button for previous day reminder,b,2016/2/27,,
remove unused import and variable,b,2016/2/26,,
remove unused resource,b,2016/2/26,,
allow custom view to be rendered on the layout editor,b,2016/2/26,,
close cursor,b,2016/2/26,,
remove object allocation during draw,o,2016/2/26,,
specify locale explicitly,o,2016/2/26,,
remove string,o,2016/2/26,,
delete duplicate resource,b,2016/2/26,,
use correct,b,2016/2/26,,
mark untranslatable,b,2016/2/26,,
move ripple background to,b,2016/2/26,,
remove extra translation,o,2016/2/26,,
use for scrolling,f,2016/2/25,,
fetch all the data with one call,b,2016/2/25,,
export to,o,2016/2/25,,
update,b,2016/2/24,,
update,b,2016/2/25,,
update,b,2016/2/25,,
bump version to 111,b,2016/2/24,,
internationalize string,o,2016/2/24,,
update translation,b,2016/2/24,,
bump version,b,2016/2/24,,
minor string change,b,2016/2/24,,
show one hint per day,o,2016/2/24,,
make it more strict to get a star,o,2016/2/24,,
show alarm on certain day of the week,o,2016/2/24,,
add to notification,f,2016/2/24,,
implement habit deletion,b,2016/2/24,,
