# deletions,date,commit message
43,2016/2/02,translated using currently translated at 1000
41,2016/2/02,translated using currently translated at 1000
11,2016/2/02,transistor can now handle raw audio stream instead of being restricted to
3,2016/2/02,translated using currently translated at 1000
3,2016/2/02,better for non supported
23,2016/2/02,translated using currently translated at 1000
34,2016/2/02,made a bit more resilient
8,2016/2/01,the doe not seem to play multiple stream at anymore but it now cancel the wrong stream if given multiple one
8,2016/2/01,still buggy
36,2016/2/01,transistor now should be able to handle connectivity change
36,2016/2/01,
6,2016/1/31,update translation
5,2016/1/31,removed from to for script
63,2016/1/30,undid the change i needed to make in the last commit
63,2016/1/30,now back on the road to
67,2016/1/30,should fix the problem caused not to build
17,2016/1/29,long press now can playback
16,2016/1/29,added support of plain and audio file
17,2016/1/29,long press now can playback
3,2016/1/23,slightly different method to request permission
6,2016/1/23,update
2,2016/1/22,fix for a new bug related to the android 6 permission request
8,2016/1/22,updated translation
5,2016/1/22,fix string builder
6,2016/1/22,updated
1,2016/1/22,possible fix for the stupid bug i am hunting since
1,2016/1/22,need testing
40,2016/1/22,made it a bit more obvious in the transistor only can process ending in and
3,2016/1/21,fix for station name do not translate well into filename
3,2016/1/20,added missing angle bracket
38,2016/1/19,fix string
1,2016/1/19,fix build
1,2016/1/18,translation
3,2016/1/18,added a translator to
50,2016/1/18,changed internal format store stream from to
