Topic Index 1,Topic Index 2,Topic Similarity
2,18,4.0
4,10,3.0
16,8,3.0
1,6,2.0
8,11,2.0
9,9,2.0
11,1,2.0
12,14,2.0
15,7,2.0
0,0,1.0
3,13,1.0
5,12,1.0
7,17,1.0
13,4,1.0
17,15,1.0
18,3,1.0
6,2,0.0
10,5,0.0
14,16,0.0
19,19,0.0
